4,3
10,4
37,3
38,3
43,4
44,5
57,3
70,3
80,3
81,7
85,3
86,3
88,4
92,3
113,4
145,3
150,3
152,3
156,3
157,3
178,3
188,3
199,3
201,3
212,3
232,4
234,3
235,3
241,3
243,3
246,3
247,3
253,4
255,3
268,3
278,3
285,6
291,3
297,4
324,3
335,4
348,4
355,3
368,3
378,3
393,3
406,4
425,4
427,3
450,3
458,3
460,4
488,3
490,3
495,3
499,4
526,3
557,3
587,3
588,3
593,3
605,3
609,3
616,4
625,3
642,3
646,4
660,3
665,3
670,3
671,3
676,4
697,4
706,4
723,3
734,3
741,3
750,3
768,3
772,3
776,3
777,3
778,4
788,3
805,3
808,3
813,3
831,3
832,3
841,3
847,3
849,3
852,4
856,4
857,3
863,3
868,3
881,3
886,3
890,3
893,3
933,3
934,3
942,3
946,4
948,3
959,3
960,3
963,3
966,3
976,3
980,7
1004,3
1010,3
1011,3
1029,3
1039,3
1047,3
1049,3
1051,4
1052,3
1054,3
1058,3
1059,3
1071,7
1075,3
1077,3
1081,3
1088,3
1101,3
1121,3
1124,3
1132,3
1133,3
1139,3
1153,3
1155,3
1158,3
1162,3
1164,3
1169,3
1173,3
1174,4
1181,3
1182,3
1185,3
1187,3
1193,3
1195,3
1199,3
1200,3
1201,3
1203,3
1210,3
1215,3
1216,4
1226,3
1227,3
1246,3
1250,3
1264,3
1268,6
1279,3
1281,3
1291,3
1297,3
1299,7
1308,3
1309,3
1323,3
1331,3
1332,3
1343,3
1344,4
1347,3
1350,4
1360,3
1363,3
1365,3
1369,3
1371,3
1374,3
1382,3
1387,3
1403,3
1410,3
1412,3
1418,3
1421,3
1440,3
1448,4
1449,3
1456,3
1469,3
1471,3
1473,3
1477,3
1483,3
1486,3
1497,3
1516,3
1520,3
1530,3
1543,3
1544,3
1547,3
1552,3
1564,3
1565,3
1567,3
1569,3
1574,3
1578,3
1582,3
1584,3
1592,3
1606,3
1607,3
1608,3
1609,3
1621,3
1628,3
1631,3
1632,3
1636,4
1640,4
1641,4
1647,3
1660,3
1662,3
1666,3
1667,3
1671,3
1680,4
1682,3
1693,3
1699,3
1705,3
1708,3
1712,3
1718,7
1725,4
1726,4
1734,3
1735,3
1737,3
1745,3
1748,3
1749,3
1752,3
1759,4
1761,3
1764,3
1769,4
1770,3
1780,3
1784,3
1787,3
1793,3
1807,3
1808,3
1820,3
1821,3
1829,3
1833,3
1855,3
1856,3
1858,3
1866,3
1867,3
1869,3
1872,3
1873,3
1889,3
1890,3
1891,3
1897,6
1916,4
1919,3
1920,3
1927,3
1931,3
1938,3
1945,3
1950,4
1951,3
1954,4
1958,3
1986,3
1996,3
2008,3
2015,3
2031,3
2039,3
2043,3
2051,3
2064,3
2070,3
2071,3
2072,3
2076,3
2091,3
2092,3
2093,3
2095,3
2101,3
2104,3
2107,3
2122,3
2131,3
2135,3
2147,3
2154,3
2155,3
2175,3
2182,3
2183,3
2202,3
2204,3
2205,3
2212,3
2214,3
2234,3
2245,3
2256,3
2257,3
2274,3
2419,3
2422,3
2442,3
2444,3
2452,3
2458,3
2468,7
2475,3
2487,3
2495,3
2503,3
2513,3
2522,3
2535,3
2549,3
2558,3
2560,3
2564,3
2565,4
2572,4
2574,3
2578,3
2579,3
2586,3
2593,3
2595,3
2603,3
2605,3
2612,4
2617,4
2620,3
2622,3
2625,3
2626,3
2635,3
2645,3
2648,3
2652,3
2655,3
2656,3
2659,3
2663,3
2666,3
2668,3
2676,3
2679,3
2682,3
2683,4
2684,3
2685,3
2688,3
2705,6
2710,3
2711,3
2718,3
2723,3
2738,3
2742,4
2751,4
2754,3
2763,3
2770,3
2773,3
2777,3
2783,3
2785,3
2787,3
2790,3
2791,3
2792,3
2794,4
2802,3
2804,3
2805,3
2814,3
2815,6
2816,3
2818,3
2820,3
2823,3
2829,3
2834,4
2835,3
2836,3
2844,3
2845,3
2847,3
2851,3
2856,3
2866,3
2871,3
2873,3
2878,3
2879,3
2884,7
2885,3
2893,4
2894,3
2900,3
2904,3
2906,3
2907,7
2915,3
2920,4
2923,3
2924,3
2925,3
2926,4
2928,3
2937,3
2938,3
2941,4
2942,4
2945,3
2955,3
2965,4
2966,3
2971,3
2972,4
2973,3
2977,7
2978,3
2984,4
2985,3
2987,3
2988,3
3000,4
3006,3
3007,3
3014,4
3015,4
3018,3
3027,3
3030,3
3039,4
3042,3
3050,3
3054,7
3055,3
3058,3
3059,3
3063,3
3072,3
3086,4
3091,3
3095,3
3099,3
3104,3
3105,3
3107,3
3108,3
3109,3
3111,4
3112,4
3115,3
3118,3
3129,3
3133,4
3134,3
3146,3
3148,3
3158,7
3163,3
3164,7
3165,3
3166,4
3169,4
3172,3
3184,3
3185,3
3191,3
3199,3
3214,4
3219,3
3220,3
3228,4
3231,3
3235,3
3240,3
3247,3
3255,3
3256,3
3257,3
3262,3
3267,3
3269,3
3270,3
3271,3
3275,3
3276,3
3277,4
3278,4
3281,4
3282,3
3284,4
3285,3
3287,3
3291,3
3295,3
3299,4
3300,3
3302,5
3304,5
3307,5
3308,5
3311,4
3314,3
3321,3
3330,3
3332,3
3333,3
3341,3
3344,3
3346,3
3350,4
3352,7
3364,3
3371,4
3372,3
3389,3
3390,4
3399,3
3400,3
3402,3
3403,3
3404,3
3406,3
3413,4
3415,4
3416,3
3422,3
3423,3
3425,3
3426,3
3435,3
3437,3
3441,3
3442,4
3446,4
3448,3
3450,3
3455,4
3458,3
3459,3
3470,3
3478,3
3481,3
3484,3
3487,6
3488,3
3490,3
3492,7
3497,4
3498,3
3501,4
3502,3
3511,7
3512,3
3514,3
3518,3
3524,3
3527,3
3528,3
3530,7
3532,3
3534,4
3535,4
3536,4
3547,3
3553,3
3554,3
3556,3
3560,3
3565,3
3569,3
3571,3
3575,3
3584,3
3585,3
3586,4
3587,4
3591,7
3592,3
3603,4
3604,3
3609,3
3611,4
3617,3
3622,3
3624,3
3627,3
3629,4
3631,3
3632,3
3636,4
3637,3
3643,4
3644,3
3649,3
3652,4
3657,3
3664,4
3671,3
3672,3
3676,3
3677,3
3680,3
3682,4
3693,3
3694,3
3695,3
3696,3
3700,3
3701,3
3702,3
3706,4
3707,3
3709,7
3710,3
3714,3
3715,3
3717,3
3725,3
3733,3
3734,5
3737,3
3739,4
3741,3
3742,3
3748,3
3749,3
3750,4
3756,7
3757,3
3758,3
3759,3
3760,3
3764,3
3765,3
3766,4
3767,3
3768,3
3770,3
3771,3
3775,3
3776,3
3778,3
3781,4
3782,3
3784,3
3798,3
3799,3
3801,3
3808,3
3814,3
3815,3
3817,3
3818,3
3820,3
3835,3
3837,3
3838,3
3842,3
3843,4
3844,7
3846,3
3851,3
3853,3
3855,3
3856,3
3859,3
3861,3
3863,3
3864,4
3871,3
3872,3
3874,3
3875,3
3876,4
3878,3
3879,4
3881,3
3884,3
3885,3
3887,3
3891,4
3895,3
3896,4
3899,4
3904,3
3905,3
3906,4
3910,4
3911,3
3912,3
3913,3
3917,3
3918,3
3919,3
3920,4
3922,5
3924,3
3926,3
3928,3
3929,3
3930,3
3932,4
3937,3
3939,3
3942,3
3944,4
3945,4
3946,4
3951,3
3954,3
3955,4
3956,3
3957,3
3959,3
3960,3
3961,4
3962,3
3964,4
3965,3
3967,3
3976,3
3977,3
3980,3
3981,3
3982,3
3983,3
3989,4
3991,3
3994,3
3995,4
3996,4
3999,3
4000,3
4003,3
4004,3
4007,3
4008,3
4009,7
4011,3
4012,3
4014,3
4015,3
4017,3
4030,3
4031,3
4035,3
4040,4
4041,3
4042,4
4043,3
4047,3
4048,3
4052,3
4053,3
4055,3
4057,3
4058,3
4061,3
4062,3
4063,4
4064,3
4067,7
4070,3
4071,4
4073,3
4075,4
4081,3
4082,6
4084,3
4085,3
4086,3
4088,13
4090,3
4091,3
4092,3
4096,3
4101,3
4102,4
4104,3
4106,3
4108,3
4116,3
4117,4
4122,3
4129,3
4130,3
4131,3
4132,3
4133,3
4137,3
4138,3
4139,3
4140,3
4141,3
4144,6
4145,4
4148,7
4149,3
4150,4
4152,3
4157,3
4159,3
4160,3
4162,3
4172,3
4173,3
4176,3
4177,5
4178,3
4179,3
4181,3
4183,4
4184,3
4185,3
4187,3
4188,4
4190,3
4191,3
4193,4
4194,3
4195,7
4197,3
4201,4
4202,3
4203,4
4205,3
4206,3
4209,3
4210,3
4211,3
4213,3
4217,3
4220,3
4221,3
4223,5
4224,4
4226,3
4228,3
4229,3
4231,3
4233,3
4237,3
4238,3
4239,3
4240,3
4245,4
4246,3
4254,3
4262,3
4263,3
4265,4
4266,3
4270,3
4271,4
4273,3
4277,3
4278,3
4279,3
4280,3
4283,3
4290,3
4311,3
4314,3
4315,3
4318,3
4323,3
4327,3
4329,3
4334,3
4335,3
4336,3
4337,3
4338,3
4344,3
4346,4
4347,3
4349,3
4352,3
4355,3
4357,3
4358,3
4359,3
4360,4
4361,3
4363,3
4364,3
4365,3
4368,3
4370,3
4373,3
4374,3
4376,3
4382,3
4384,3
4392,3
4393,3
4397,3
4398,4
4401,3
4403,3
4410,3
4412,3
4416,4
4417,3
4420,3
4422,3
4424,3
4427,3
4431,4
4441,3
4442,3
4443,3
4447,3
4452,3
4458,3
4459,3
4465,3
4466,3
4472,3
4503,3
4504,3
4514,3
107,3
4421,3
16,3
794,3
1586,3
3266,4
3834,7
2275,3
1186,3
1388,3
1415,3
2631,3
3008,3
3408,3
3409,3
3479,3
4050,4
4400,3
4433,3
4437,3
4470,3
4506,3
4510,3
3890,4
4457,3
4541,3
22,3
76,3
221,3
265,3
308,4
325,4
336,3
397,4
532,3
553,4
656,4
657,3
703,3
767,3
784,3
800,3
816,3
1254,3
1280,3
1413,3
1482,3
1511,4
1525,3
1536,4
1576,4
1579,3
1638,3
1643,4
1663,4
1672,4
1746,3
1751,4
1862,3
1888,3
2054,4
2097,3
2153,3
2156,4
2213,4
2241,3
2242,4
2273,3
2280,3
2281,3
2287,3
2364,4
2455,3
2485,4
2489,4
2517,3
2542,4
2576,4
2583,3
2599,3
2621,3
2623,3
2627,3
2646,3
2670,4
2709,4
2747,4
2749,4
2753,3
2755,3
2827,3
2838,4
2839,3
2901,3
2939,3
2991,4
2994,3
2995,3
3017,3
3046,3
3051,3
3069,3
3078,3
3119,3
3122,3
3160,3
3208,4
3213,3
3221,3
3232,3
3233,4
3236,3
3251,3
3258,3
3268,3
3272,3
3289,4
3296,4
3298,4
3329,3
3337,3
3342,3
3378,3
3388,4
3395,3
3417,3
3430,3
3432,3
3538,4
3545,3
3574,3
3579,4
3581,3
3588,3
3598,3
3610,4
3619,3
3623,3
3626,4
3635,4
3639,3
3650,4
3651,3
3658,3
3660,3
3687,4
3713,3
3718,3
3740,4
3743,4
3746,4
3753,3
3762,4
3763,4
3785,4
3795,4
3802,3
3819,4
3827,3
3848,3
3850,3
3869,3
3888,3
3953,4
3998,4
4010,3
4013,3
4032,3
4034,4
4051,3
4074,4
4083,3
4119,3
109,3
146,3
266,3
387,3
671,3
1122,3
1465,3
1673,3
1698,3
1826,3
2079,3
2557,3
2567,3
2592,3
2698,3
2713,3
2986,3
2988,3
3016,3
3043,3
3250,3
3316,3
3317,3
3355,3
3379,3
3443,3
3457,3
3614,3
3641,3
3681,3
3727,3
3892,3
3898,3
3907,3
3915,3
3949,3
3993,3
4079,3
4095,3
4121,3
4168,3
4180,3
4270,3
4272,3
4275,3
4284,3
4356,3
4366,3
4372,3
4380,3
4385,3
4396,3
4399,3
4413,3
4415,3
4417,3
4418,3
4428,3
4430,3
4435,3
4440,3
4455,3
4460,3
4462,3
4463,3
4471,3
4474,3
4478,3
4480,3
4484,3
4485,3
4489,3
4491,3
4509,3
4522,3
4523,3
4536,3
4540,3
4543,3
4548,3
4549,3
4553,3
4554,3
4557,3
4564,3
4579,3
4580,3
4591,3
4593,3
662,3
2801,3
4419,3
4439,3
4559,3
4577,3
4604,3
4607,3
950,3
4567,3
2637,3
4383,3
4468,3
4381,3
4619,3
4637,3
4528,3
4583,3
4595,3
