1360,5
1387,5
1418,5
1482,5
1483,5
1516,5
1579,5
1592,5
1638,5
1663,5
1693,5
1746,5
1862,5
1888,5
1889,5
1919,5
1996,5
2097,5
2079,5
2153,5
2183,5
2241,5
2270,5
2274,5
2273,5
2281,5
2287,5
2122,5
2517,5
2051,5
2557,5
2583,5
2593,5
2595,5
2621,5
2623,5
2646,5
2827,5
2838,5
2839,5
2835,5
2894,5
2901,5
2994,5
2925,5
2995,5
2971,5
2698,5
2813,5
3027,5
3046,5
3017,5
3051,5
3078,5
3091,5
3104,5
3105,5
3107,5
2753,5
3119,5
2814,5
3122,5
3160,5
3213,5
3232,5
3236,5
3251,5
3258,5
3272,5
3268,5
3270,5
3332,5
3378,5
3379,5
3388,5
3409,5
3329,5
3430,5
3317,5
3457,5
3342,5
3432,5
3478,5
3423,5
3545,5
3574,5
3581,5
3538,5
1826,5
3321,5
557,5
3598,5
3619,5
3623,5
3614,5
3641,5
3337,5
3510,5
772,5
3658,5
3657,5
832,5
777,5
1280,5
657,5
784,5
767,5
221,5
934,5
265,5
1193,5
800,5
1666,5
246,5
1525,5
336,5
587,5
16,5
1609,5
1413,5
3681,5
2900,5
3696,5
3713,5
3717,5
3660,5
3718,5
1254,5
22,5
3588,5
2985,5
3753,5
44,5
3651,5
3635,5
3827,5
235,5
2280,5
3846,5
3853,5
3547,5
3406,5
2564,5
3884,5
3892,5
2755,5
3639,5
3395,5
3707,5
3069,5
3221,5
2455,5
4034,5
3610,5
3983,5
3944,5
3962,5
3403,5
4051,5
4072,5
3715,5
2928,5
3624,5
234,5
3304,5
3308,5
3302,5
3307,5
1486,5
2966,5
157,5
3898,5
3850,5
4032,5
3919,5
3924,5
588,5
3743,5
4013,5
3417,5
3913,5
703,5
4083,5
3059,5
4108,5
4104,5
4119,5
