Style ID;Vendor Article Number;Vendor Article Name;Active Status;Article type;Brand;Age Group;Gender;Base Colour;Colour1;Colour2;Fashion Type;Usage;Year;Size - SKU code pair;MRP;Style Description;Style Note;Materials and Care Description;Size and Fit Description;Size Chart Path;Product Display Name;Tags;Product Type;Classification Brand;Season;Comments;Upload Images
2128575;HD-9369-A-OLIVE-2128575;LADIES SWEATERS;Draft;Sweaters;ether;Adults-Women;Women;;;;Fashion;;2017;FS,ETHRSWTR00001170;2199.00;;;;;;;;zerotype;;Fall;;No
2120615;SKD5271-ORANGE-2120615;SKD5271;QC Reject;Kurta Sets;Biba;Adults-Women;Women;NA;;;Fashion;;2017;32,BIBAKASS00002612,34,BIBAKASS00002613,36,BIBAKASS00002614,38,BIBAKASS00002615;3799.00;;;<p>100 % COTTON</p>;;;;;zerotype;;Fall;OHS to QCR;No
2120449;PIBK0002383 4GOLD8Y-GOLD-2120449;THUMBS SL K 4;Draft;Jackets;Pepe Jeans;Kids-Boys;Boys;NA;;;Fashion;;2016;4Y,PEJEJCKT00002419,6Y,PEJEJCKT00002420,8Y,PEJEJCKT00002421;2999.00;;;<p>100% Polyester</p>;;;;;zerotype;;Winter;;No
2120436;PIBJ0002842 4NAVY16Y-NAVY-2120436;HACKSON LS J 4;Draft;Jackets;Pepe Jeans;Kids-Boys;Boys;NA;;;Fashion;;2016;10Y,PEJEJCKT00002377,14Y,PEJEJCKT00002378,16Y,PEJEJCKT00002379;2699.00;;;<p>100% Polyester</p>;;;;;zerotype;;Winter;;No
2120430;PIBJ0002835 4DENIM16Y-DENIM-2120430;CAMERON LS J 4;Draft;Jackets;Pepe Jeans;Kids-Boys;Boys;NA;;;Fashion;;2016;10Y,PEJEJCKT00002355,12Y,PEJEJCKT00002356,14Y,PEJEJCKT00002357,16Y,PEJEJCKT00002358;4199.00;;;<p>100% Polyester</p>;;;;;zerotype;;Winter;;No
2119285;194605-WHITE-2119285;FOREVER 21WHITETrousers;QC Reject;Trousers;FOREVER 21;Adults-Women;Women;NA;;;Fashion;;2017;1/24,FRTOTRSR00004900,2/25,FRTOTRSR00004901,3/26,FRTOTRSR00004902,4/27,FRTOTRSR00004903,6/29,FRTOTRSR00004904;1899.00;;;<p>Contents:62% COTTON, 36% RAYON, 2% SPANDEX / ELASTANE, Linin</p>;;;;;zerotype;;Fall;OHS to QCR;No
2119163;323048-DENIM-2119163;FOREVER 21DENIMJeans;QC Reject;Jeans;FOREVER 21;Adults-Women;Women;NA;;;Fashion;;2017;1/24,FRTOJENS00004892,2/25,FRTOJENS00004893,3/26,FRTOJENS00004894,4/27,FRTOJENS00004895,5/28,FRTOJENS00004896,6/29,FRTOJENS00004897,7/30,FRTOJENS00004898,8/31,FRTOJENS00004899;2099.00;;;<p>Contents:100% COTTON, Lining:, Other:</p>;;;;;zerotype;;Fall;OHS to QCR;No
2119162;323035-PINK-2119162;FOREVER 21PINKJeans;QC Reject;Jeans;FOREVER 21;Adults-Women;Women;NA;;;Fashion;;2017;1/24,FRTOJENS00004884,2/25,FRTOJENS00004885,3/26,FRTOJENS00004886,4/27,FRTOJENS00004887,5/28,FRTOJENS00004888,6/29,FRTOJENS00004889,7/30,FRTOJENS00004890,8/31,FRTOJENS00004891;2399.00;;;<p>Contents:100% COTTON, Lining:, Other:</p>;;;;;zerotype;;Fall;OHS to QCR;No
2119161;323035-AQUA-2119161;FOREVER 21AQUAJeans;QC Reject;Jeans;FOREVER 21;Adults-Women;Women;NA;;;Fashion;;2017;1/24,FRTOJENS00004876,2/25,FRTOJENS00004877,3/26,FRTOJENS00004878,4/27,FRTOJENS00004879,5/28,FRTOJENS00004880,6/29,FRTOJENS00004881,7/30,FRTOJENS00004882,8/31,FRTOJENS00004883;2399.00;;;<p>Contents:100% COTTON, Lining:, Other:</p>;;;;;zerotype;;Fall;OHS to QCR;No
2119159;198578-BLACK-2119159;FOREVER 21BLACKJeans;QC Reject;Jeans;FOREVER 21;Adults-Women;Women;NA;;;Fashion;;2017;1/24,FRTOJENS00004861,2/25,FRTOJENS00004862,3/26,FRTOJENS00004863,4/27,FRTOJENS00004864,5/28,FRTOJENS00004865,6/29,FRTOJENS00004866,7/30,FRTOJENS00004867,8/31,FRTOJENS00004868;2249.00;;;<p>Contents:100% COTTON, Lining:, Other:</p>;;;;;zerotype;;Fall;OHS to QCR;No
2119154;124004-LIGHT DENIM-2119154;FOREVER 21LIGHT DENIMJeans;QC Reject;Jeans;FOREVER 21;Adults-Women;Women;NA;;;Fashion;;2017;1/24,FRTOJENS00004824,2/25,FRTOJENS00004825,3/26,FRTOJENS00004826,4/27,FRTOJENS00004827,5/28,FRTOJENS00004828,6/29,FRTOJENS00004829,7/30,FRTOJENS00004830,8/31,FRTOJENS00004831;1699.00;;;<p>Contents:89% COTTON, 9% POLYESTER, 2% SPANDEX / ELASTANE, Li</p>;;;;;zerotype;;Fall;OHS to QCR;No
2119153;124004-DARK DENIM-2119153;FOREVER 21DARK DENIMJeans;QC Reject;Jeans;FOREVER 21;Adults-Women;Women;NA;;;Fashion;;2017;1/24,FRTOJENS00004816,2/25,FRTOJENS00004817,3/26,FRTOJENS00004818,4/27,FRTOJENS00004819,5/28,FRTOJENS00004820,6/29,FRTOJENS00004821,7/30,FRTOJENS00004822,8/31,FRTOJENS00004823;1699.00;;;<p>Contents:89% COTTON, 9% POLYESTER, 2% SPANDEX / ELASTANE, Li</p>;;;;;zerotype;;Fall;OHS to QCR;No
2119152;123982-MEDIUM DENIM-2119152;FOREVER 21MEDIUM DENIMJeans;QC Reject;Jeans;FOREVER 21;Adults-Women;Women;NA;;;Fashion;;2017;1/24,FRTOJENS00004808,2/25,FRTOJENS00004809,3/26,FRTOJENS00004810,4/27,FRTOJENS00004811,5/28,FRTOJENS00004812,6/29,FRTOJENS00004813,7/30,FRTOJENS00004814,8/31,FRTOJENS00004815;1699.00;;;<p>Contents:89% COTTON, 9% POLYESTER, 2% SPANDEX / ELASTANE, Li</p>;;;;;zerotype;;Fall;OHS to QCR;No
2119151;123982-LIGHT DENIM-2119151;FOREVER 21LIGHT DENIMJeans;QC Reject;Jeans;FOREVER 21;Adults-Women;Women;NA;;;Fashion;;2017;1/24,FRTOJENS00004800,2/25,FRTOJENS00004801,3/26,FRTOJENS00004802,4/27,FRTOJENS00004803,5/28,FRTOJENS00004804,6/29,FRTOJENS00004805,7/30,FRTOJENS00004806,8/31,FRTOJENS00004807;1699.00;;;<p>Contents:89% COTTON, 9% POLYESTER, 2% SPANDEX / ELASTANE, Li</p>;;;;;zerotype;;Fall;OHS to QCR;No
2119147;105411-DENIM-2119147;FOREVER 21DENIMJeans;QC Reject;Jeans;FOREVER 21;Adults-Women;Women;NA;;;Fashion;;2017;1/24,FRTOJENS00004771,2/25,FRTOJENS00004772,3/26,FRTOJENS00004773,4/27,FRTOJENS00004774,5/28,FRTOJENS00004775,6/29,FRTOJENS00004776,7/30,FRTOJENS00004777,8/31,FRTOJENS00004778;2049.00;;;<p>Contents:99% COTTON, 1% ELASTANE, Lining:, Other:</p>;;;;;zerotype;;Fall;OHS to QCR;No
2119127;83067-LIGHT DENIM-2119127;FOREVER 21LIGHT DENIMJeans;QC Reject;Jeans;FOREVER 21;Adults-Women;Women;NA;;;Fashion;;2017;1/24,FRTOJENS00004660,2/25,FRTOJENS00004661,3/26,FRTOJENS00004662,4/27,FRTOJENS00004663,5/28,FRTOJENS00004664,6/29,FRTOJENS00004665,7/30,FRTOJENS00004666,8/31,FRTOJENS00004667;1099.00;;;<p>Contents:100% COTTON, Lining:, Other:</p>;;;;;zerotype;;Fall;OHS to QCR;No
2111781;YMSH742-INDIGO 164 GE-2111781;YMSH742;Draft;Shorts;YWC;Adults-Men;Men;Blue;;;Fashion;;2017;M,YWCCSHOR00000094,L,YWCCSHOR00000095,XL,YWCCSHOR00000096;1299.00;;;<p>wash dark colors separately</p>;;;;;zerotype;;Winter;;No
2108651;1969974005-Tarmac-2108651;onlSOBY SS DRESS WVN-I N, Tarmac, 42;Draft;Dresses;ONLY;Adults-Women;Women;Green;;;Fashion;;2017;34,ONLYDRSS00003334,36,ONLYDRSS00003335,38,ONLYDRSS00003336,40,ONLYDRSS00003337,42,ONLYDRSS00003338;2499.00;;;<p>Wash dark colors separately</p>;;;;;zerotype;;Fall;No comment entered;No
2108648;1969963005-Night Sky-2108648;onlRUCHI 3/4 SL CHECK MAX, Night Sky, 42;BIS + Content Complete;Dresses;ONLY;Adults-Women;Women;Blue;Black;;Fashion;Casual;2017;34,ONLYDRSS00003319,36,ONLYDRSS00003320,38,ONLYDRSS00003321,40,ONLYDRSS00003322,42,ONLYDRSS00003323;3299.00;Blue and black checked woven shirt dress, has a shirt collar, three-quarter sleeves, button closure closure, , flared hem;Stand out from the crowd with this beautiful and comfortable ONLY dress.  Spruce up this checked blue piece for work by layering it with a light sweater and some ballerinas.;Viscose Rayon <br> Machine-wash;Regular Fit<br> The model (height 5'8") is wearing a size S;;ONLY Women Blue Checked Shirt Dress;ONLY;zerotype;;Fall;No comment entered;No
2108645;1969369005-Blue Wing Teal-2108645;onlADA SS DRESS WVN-, Blue Wing Teal, 42;BIS + Content Complete;Dresses;ONLY;Adults-Women;Women;Teal;;;Fashion;Casual;2017;34,ONLYDRSS00003304,36,ONLYDRSS00003305,38,ONLYDRSS00003306,40,ONLYDRSS00003307,42,ONLYDRSS00003308;2299.00;Teal solid woven fit and flare dress, has a round neck, short sleeves, concealed zip closure, an attached lining, flared hem;Maintain a trendy style all year long with this stunning dress from ONLY.  Match this solid teal piece with an incredible statement bag and high heels to maximise your next lunch look.;Viscose Rayon <br> Machine-wash;Semi-Fit<br> The model (height 5'8") is wearing a size S;;ONLY Women Teal Solid Fit and Flare Dress;ONLY;zerotype;;Fall;No comment entered;No
2108639;1972559005-Zephyr-2108639;onlALARIC SL JUMPSUIT-IN, Zephyr, 42;BIS + Content Complete;Jumpsuit;ONLY;Adults-Women;Women;Pink;;;Fashion;Casual;2017;34,ONLYJMST00000267,36,ONLYJMST00000268,38,ONLYJMST00000269,40,ONLYJMST00000270,42,ONLYJMST00000271;2799.00;Pink and blue woven printed jumpsuit with ruffled detail, has shoulder straps, two pockets, concealed zip closure on the back;Spruce up your feminine appeal with this trendy jumpsuit from ONLY. Team it up with a pair of flats or heels and minimal accessories for a chic look.;100% polyester<br />Machine-wash;The model (height 5'8") is wearing a size S;;ONLY Pink Printed Jumpsuit;ONLY;zerotype;;Fall;No comment entered;No
2108618;1969972005-Night Sky-2108618;onlHEART LS TOP WVN-IN, Night Sky, 42;Active;Tops;ONLY;Adults-Women;Women;Navy Blue;White;;Fashion;Casual;2017;34,ONLYTOPS00010169,36,ONLYTOPS00010170,38,ONLYTOPS00010171,40,ONLYTOPS00010172,42,ONLYTOPS00010173;1999.00;Navy and white printed woven shirt style top, has a round neck, long sleeves, button closure;Boost your personal style with this in-season long-sleeve top from ONLY. This navy piece can be worn with distressed denims and sneakers when you're going to the grocery store.;Viscose<br />Machine-wash cold;Regular Fit<br> The model (height 5'8") is wearing a size S;;ONLY Women Navy & White Printed Shirt Style Top;ONLY;zerotype;;Fall;No comment entered;No
2108617;1969967005-Night Sky-2108617;onlRUCHI 3/4 TOP-IN, Night Sky, 42;Active;Tops;ONLY;Adults-Women;Women;Blue;Black;;Fashion;Casual;2017;34,ONLYTOPS00010164,36,ONLYTOPS00010165,38,ONLYTOPS00010166,40,ONLYTOPS00010167,42,ONLYTOPS00010168;1999.00;Blue and black checked woven top, has a round neck, three-quarter sleeves with ruffle detail;Turn up your style with this charming three-quarter sleeve top designed by ONLY. When you want to have the perfect outfit for a fun lunch with the girls, you'll want to put this piece with an ankle boot and tapered-leg pants.;Viscose<br />Machine-wash cold;The model (height 5'8") is wearing a size S;;ONLY Women Blue & Black Checked Top;ONLY;zerotype;;Fall;No comment entered;No
2108612;1969361005-Golden Glow-2108612;onlJOEY 7-8S TOP-IN, Golden Glow, 42;Active;Tops;ONLY;Adults-Women;Women;Mustard;;;Fashion;Casual;2017;34,ONLYTOPS00010139,36,ONLYTOPS00010140,38,ONLYTOPS00010141,40,ONLYTOPS00010142,42,ONLYTOPS00010143;1799.00;Mustard yellow floral print woven bardot top, has three-quarter sleeves;Upgrade your year-round wardrobe staples with this top-of-the-line three-quarter sleeve top by ONLY. Match this piece with a pair of slim jeans and easy loafers for a fashionable date outfit.;Viscose<br />Machine-wash;The model (height 5'8") is wearing a size S;;ONLY Women Mustard Yellow Floral Print Bardot Top;ONLY;zerotype;;Fall;;No
2104480;PKW51709671-Blue-2104480;PKW51709671;Draft;Tshirts;Peter England;Adults-Men;Men;Blue;;;Fashion;;2017;XL,PTENTSHT00007819,M,PTENTSHT00007820,XXL,PTENTSHT00007821,L,PTENTSHT00007822,S,PTENTSHT00007823;799.00;;;<p>50%Cotton50%Polyester</p>;;;;;zerotype;;Fall;;No
2103396;A7AJK117-BRIGHT WHITE-2103396;THDW CN T-SHIRT S/S 22;QC Reject;Tshirts;Tommy Hilfiger;Adults-Women;Women;White;;;Fashion;Casual;2017;XS,TOMHTSHT00016469,S,TOMHTSHT00016470,M,TOMHTSHT00016471,L,TOMHTSHT00016472,XL,TOMHTSHT00016473;1699.00;<p>100% COTTON</p>;;<p>Gentle wash, colors to be washed seperately</p>;;;;Th-aw17-all;zerotype;;Fall;OHS to QCR;No
2102909;1964764005-Dark Olive-2102909;VMADMIRAL L/S  BLAZER IN, Dark Olive, S;On Hold - Other;Blazers;Vero Moda;Adults-Women;Women;Olive;;;Fashion;;2017;XS,VEMOBLZR00001798,M,VEMOBLZR00001799,L,VEMOBLZR00001800,XL,VEMOBLZR00001801,S,VEMOBLZR00001802;3699.00;;;<p>Wash dark colour seperately</p>;;;;vm-aw17-new;zerotype;;Fall;No comment entered;No
2100264;113909-DARK DENIM-2100264;FOREVER 21DARK DENIMSkirts;Active;Skirts;FOREVER 21;Adults-Women;Women;Navy Blue;;;Fashion;Casual;2017;1/24,FRTOSKRT00006431,2/25,FRTOSKRT00006432,3/26,FRTOSKRT00006433,4/27,FRTOSKRT00006434,5/28,FRTOSKRT00006435,6/29,FRTOSKRT00006436,7/30,FRTOSKRT00006437,8/31,FRTOSKRT00006438;1499.00;Navy woven denim A-line <a href='/mini?src=pd' class='seolink'>mini</a> skirt, has a waistband with a full button closure on the front, slightly flared hem;Let your vivacious personality ooze out through your dressing style by slipping into this skirt from FOREVER 21. Team it up with a crop top or a tee, casual shoes or heels and a sling bag for a chic look.;100% cotton<br />Machine-wash warm;The model (height 5'8'') is wearing a size 27;;FOREVER 21 Navy A-Line Denim Mini Skirt;FOREVER 21,BRUN089,westernwearfest-alternatef,weekender-first-time,styles-for-flash-10,tn-velvet,budget-deal,cohort-customers,tn-frontbutton-skirts,bday-happy-hour,superhour-feb26,happy-hour-mar19,super-hour-mar17,rs500off-crush500,crush20-mar28,cc-articles-2803,mar29-super-hour,hh-0104,bfg-event-apr,ftod-bfg,bfg-bollywood-seventies-women-520114,forever21-apr17,f21-offer,f21offerwomen,high-street-women,high-street-brands,big10-mse-f21,big10-super-hour25,gratification-jun2,welcome-to-myntra-june17,welcome-to-myntra-july,ladies-night-jul18,bss-uber-offer,extra500-jul24,aw17-new-season,welcome-to-mynt-v2sep2017,welcome-to-myntra-sep2017,ftod-bbd17,bbd17-extra20,bbd17-coupon-offer,vacation-store-women-city-shortsskirts,bbd17-combo-buy3,coh-exp-aug,welcome-to-myntra-oct17,diwali17-ftod,coupon-offer-diwali17;zerotype;;Fall;No comment entered;No
2100175;322288-BLACK/GREY-2100175;FOREVER 21BLACK/GREYShorts;Draft;Shorts;FOREVER 21;Adults-Men;Men;NA;;;Fashion;;2017;1/XS,FRTOSHOR00005615,2/S,FRTOSHOR00005616,3/M,FRTOSHOR00005617,4/L,FRTOSHOR00005618,5/XL,FRTOSHOR00005619;1599.00;;;<p>Contents:79% COTTON, 21% POLYESTER, Lining:, Other:</p>;;;;;zerotype;;Fall;;No
2100144;104600-BLACK/CREAM-2100144;FOREVER 21BLACK/CREAMShorts;Draft;Shorts;FOREVER 21;Adults-Men;Men;NA;;;Fashion;;2017;1/XS,FRTOSHOR00005476,2/S,FRTOSHOR00005477,3/M,FRTOSHOR00005478,4/L,FRTOSHOR00005479,5/XL,FRTOSHOR00005480;1199.00;;;<p>Contents:100% COTTON, Lining:, Other:</p>;;;;;zerotype;;Fall;;No
2100094;85427-BLACK/RED-2100094;FOREVER 21BLACK/REDShorts;Draft;Shorts;FOREVER 21;Adults-Men;Men;NA;;;Fashion;;2017;1/XS,FRTOSHOR00005342,2/S,FRTOSHOR00005343,3/M,FRTOSHOR00005344,4/L,FRTOSHOR00005345,5/XL,FRTOSHOR00005346;1399.00;;;<p>Contents:80% POLYESTER, 15% RAYON, 5% SPANDEX/ELASTANE, Lini</p>;;;;;zerotype;;Fall;;No
2100039;231361-CHARCOAL-2100039;FOREVER 21CHARCOALleggings;Draft;Leggings;FOREVER 21;Adults-Women;Women;NA;;;Fashion;;2017;1/XS,FRTOLEGG00001912,2/S,FRTOLEGG00001913,3/M,FRTOLEGG00001914;499.00;;;<p>Contents:51% COTTON, 44% POLYESTER, 5% ELASTANE, Lining:, Ot</p>;;;;;zerotype;;Fall;Reinwarded 6th Oct;No
2099004;189780-BLACK-2099004;FOREVER 21BLACKTrack Pants;Active;Track Pants;FOREVER 21;Adults-Men;Men;Black;;;Fashion;Casual;2017;1/XS,FRTOTRPT00000707,2/S,FRTOTRPT00000708,3/M,FRTOTRPT00000709,4/L,FRTOTRPT00000710,5/XL,FRTOTRPT00000711;2099.00;A pair of <a href='/black?src=pd' class='seolink'>black</a> knitted mid-rise panelled <a href='/track-pants?src=pd' class='seolink'>track pants</a>, has three pockets, an elasticated waistband with a drawstring fastening, press-button closures along the side seams, brushed fleece lining;This pair of joggers from FOREVER 21 is perfect for workout session. Get ready for morning jog by pairing it up with a basic tee and trainers.;60% cotton, 40% polyester<br />Machine-wash cold;Mid-rise<br />The model (height 6') is wearing a size M;;FOREVER 21 Black Track Pants;FOREVER 21,MATT050;zerotype;;Fall;Reinwarded 6th Oct;No
2098951;231494-NAVY/RED-2098951;FOREVER 21NAVY/REDShirts;Active;Shirts;FOREVER 21;Adults-Men;Men;Navy Blue;Red;;Fashion;Casual;2017;1/XS,FRTOSHRT00004211,2/S,FRTOSHRT00004212,3/M,FRTOSHRT00004213,4/L,FRTOSHRT00004214,5/XL,FRTOSHRT00004215;1399.00;<a href='/navy-blue?src=pd' class='seolink'>Navy blue</a> and <a href='/red?src=pd' class='seolink'>red</a> printed <a href='/casual?src=pd' class='seolink'>casual</a> shirt, has a button-down collar, button placket, 1 pocket, <a href='/short?src=pd' class='seolink'>short</a> sleeves, curved hem;Spruce up your summer-time style with this trendy shirt by FOREVER 21.  This navy blue piece can be worn with cuffed chinos and canvas shoes for a stellar work outfit.;98% cotton, 2% elastane<br />Machine-wash;The model (height 6') is wearing a size 40;;FOREVER 21 Men Navy Blue & Red Printed Casual Shirt;FOREVER 21,MATT050;zerotype;;Fall;Reinwarded 6th Oct;No
2098916;89238-WHITE-2098916;FOREVER 21WHITEShirts;Draft;Shirts;FOREVER 21;Adults-Women;Women;NA;;;Fashion;;2017;2/S,FRTOSHRT00004117,3/M,FRTOSHRT00004118,4/L,FRTOSHRT00004119;1699.00;;;<p>Contents:100% COTTON, Lining:, Other:</p>;;;;;zerotype;;Fall;Reinwarded 6th Oct;No
2098662;105979-LIGHT DENIM-2098662;FOREVER 21LIGHT DENIMDresses;Draft;Dresses;FOREVER 21;Adults-Women;Women;NA;;;Fashion;;2017;2/S,FRTODRSS00016905,3/M,FRTODRSS00016906,4/L,FRTODRSS00016907;1799.00;;;<p>Contents:100% COTTON, Lining:, Other:</p>;;;;;zerotype;;Fall;Reinwarded 6th Oct;No
2098618;103131-NAVY/PINK-2098618;FOREVER 21NAVY/PINKDresses;Active;Dresses;FOREVER 21;Adults-Women;Women;Navy Blue;Pink;Yellow;Fashion;Casual;2017;1/S,FRTODRSS00016749,2/M,FRTODRSS00016750,3/L,FRTODRSS00016751,4/XL,FRTODRSS00016752;1499.00;Navy and <a href='/pink?src=pd' class='seolink'>pink</a> printed woven A-line <a href='/dress?src=pd' class='seolink'>dress</a>, has <a href='/shoulder?src=pd' class='seolink'>shoulder</a> straps, <a href='/short?src=pd' class='seolink'>short</a> cold shoulder flared sleeves, a concealed zip closure on the back, and a straight hem;Turn heads this season in this effortlessly stylish dress by FOREVER 21. Wow your date by pairing this printed piece with platform heels and a chic blazer.;100% polyester<br />Hand-wash cold;The model (height 5'8") is wearing a size S;;FOREVER 21 Women Navy Printed A-Line Dress;FOREVER 21,IYAN091;zerotype;;Fall;Reinwarded 6th Oct;No
2098434;323048-LIGHT DENIM-2098434;FOREVER 21LIGHT DENIMJeans;QC Reject;Jeans;FOREVER 21;Adults-Women;Women;NA;;;Fashion;;2017;1/24,FRTOJENS00004570,2/25,FRTOJENS00004571,3/26,FRTOJENS00004572,4/27,FRTOJENS00004573,5/28,FRTOJENS00004574,6/29,FRTOJENS00004575,7/30,FRTOJENS00004576,8/31,FRTOJENS00004577;2099.00;;;<p>Contents:100% COTTON, Lining:, Other:</p>;;;;;zerotype;;Fall;OHS to QCR;No
2098402;208512-MEDIUM DENIM-2098402;FOREVER 21MEDIUM DENIMJeans;Active;Jeans;FOREVER 21;Adults-Women;Women;Blue;;;Fashion;Casual;2017;1/24,FRTOJENS00004458,2/25,FRTOJENS00004459,3/26,FRTOJENS00004460,4/27,FRTOJENS00004461,5/28,FRTOJENS00004462;2099.00;<a href='/blue?src=pd' class='seolink'>Blue</a> <a href='/medium?src=pd' class='seolink'>medium</a> wash 5-pocket mid-rise <a href='/jeans?src=pd' class='seolink'>jeans</a>, low distress with light fade, has a button and zip closure, waistband with belt loops;Expand your denims collection with a stylish pair of jeans from FOREVER 21.  Match these with a chic T-shirt and a pair of Chelsea boots when you're going out for drinks with your friends.;99% cotton, 1% elastane<br />Machine-wash;Stretchable<br />The model (height 5'8") is wearing a size 28;;FOREVER 21 Women Blue Mid-Rise Low Distress Stretchable Jeans;FOREVER 21,IYAN091;zerotype;;Fall;Reinwarded 6th Oct;No
2098327;84282-LIGHT DENIM-2098327;FOREVER 21LIGHT DENIMJeans;QC Reject;Jeans;FOREVER 21;Adults-Women;Women;NA;;;Fashion;;2017;1/24,FRTOJENS00004209,2/25,FRTOJENS00004210,3/26,FRTOJENS00004211,4/27,FRTOJENS00004212,5/28,FRTOJENS00004213,6/29,FRTOJENS00004214,7/30,FRTOJENS00004215,8/31,FRTOJENS00004216;2099.00;;;<p>Contents:100% COTTON,52% NYLON/POLYAMIDE, 48% POLYESTER Lini</p>;;;;;zerotype;;Fall;OHS to QCR;No
2098142;268735-WHITE/GREY-2098142;FOREVER 21WHITE/GREYTshirts;Active;Tshirts;FOREVER 21;Adults-Men;Men;White;Grey Melange;;Fashion;Casual;2017;1/XS,FRTOTSHT00004681,2/S,FRTOTSHT00004682,3/M,FRTOTSHT00004683,4/L,FRTOTSHT00004684,5/XL,FRTOTSHT00004685;899.00;White and <a href='/grey?src=pd' class='seolink'>grey</a> <span style="background-color:#f6d5d9">melange </span><a href='/solid?src=pd' class='seolink'>solid</a> T-shirt, has a round neck, three-quarter raglan sleeves;This top-notch T-shirt from FOREVER 21 will have you looking fresh all year long.  This white item can be teamed with fitted jeans for a clean look or lounge shorts for casual weekend wear.;59% cotton, 41% polyester<br />Machine-wash;The model (height 6') is wearing a size M;;FOREVER 21 Men White Solid Round Neck T-shirt;FOREVER 21,MATT050;zerotype;;Fall;Reinwarded 6th Oct;No
2098053;206549-WHITE/GREEN-2098053;FOREVER 21WHITE/GREENTshirts;Draft;Tshirts;FOREVER 21;Adults-Men;Men;;;;Fashion;;2017;1/XS,FRTOTSHT00004471,2/S,FRTOTSHT00004472,3/M,FRTOTSHT00004473,4/L,FRTOTSHT00004474,5/XL,FRTOTSHT00004475;1099.00;;;<p>Contents:100% POLYESTER, Lining:, Other:</p>;;;;;zerotype;;Fall;Reinwarded 6th Oct;No
2098048;322610-BLACK-2098048;FOREVER 21BLACKJackets;Draft;Jackets;FOREVER 21;Adults-Women;Women;NA;;;Fashion;;2017;2/S,FRTOJCKT00004411,3/M,FRTOJCKT00004412,4/L,FRTOJCKT00004413;949.00;;;<p>Contents:60% COTTON, 40% POLYESTER, Lining:, Other:</p>;;;;;zerotype;;Fall;Reinwarded 6th Oct;No
2097798;220502-CORAL-2097798;FOREVER 21CORALBra;Draft;Bra;FOREVER 21;Adults-Women;Women;NA;;;Fashion;;2017;1/XS,FRTOBRAA00002919,2/S,FRTOBRAA00002920,3/M,FRTOBRAA00002921,4/L,FRTOBRAA00002922;1099.00;;;<p>Contents:90% POLYESTER, 10% SPANDEX / ELASTANE, Lining:85% N</p>;;;;;zerotype;;Fall;;No
2097795;143464-MAGENTA-2097795;FOREVER 21MAGENTABra;Draft;Bra;FOREVER 21;Adults-Women;Women;NA;;;Fashion;;2017;2/S,FRTOBRAA00002912,3/M,FRTOBRAA00002913,4/L,FRTOBRAA00002914;899.00;;;<p>Contents:97% POLYESTER, 3% SPANDEX/ELASTANE,97% POLYESTER, 3</p>;;;;;zerotype;;Fall;;No
2097793;113235-CHARCOAL/NEON GREEN-2097793;FOREVER 21CHARCOAL/NEON GREENBra;Draft;Bra;FOREVER 21;Adults-Women;Women;NA;;;Fashion;;2017;1/XS,FRTOBRAA00002908,2/S,FRTOBRAA00002909,3/M,FRTOBRAA00002910,4/L,FRTOBRAA00002911;1099.00;;;<p>Contents:45% POLYESTER, 45% NYLON/POLYAMIDE, 10% SPANDEX / E</p>;;;;;zerotype;;Fall;;No
2097775;91248-HEATHER GREY-2097775;FOREVER 21HEATHER GREYBra;Draft;Bra;FOREVER 21;Adults-Women;Women;NA;;;Fashion;;2017;1/XS,FRTOBRAA00002871,2/S,FRTOBRAA00002872,3/M,FRTOBRAA00002873,4/L,FRTOBRAA00002874;1099.00;;;<p>Contents:47% POLYESTER, 47% NYLON/POLYAMIDE, 6% SPANDEX / EL</p>;;;;;zerotype;;Fall;;No
2097502;322899-BLACK-2097502;FOREVER 21BLACKTops;Draft;Tops;FOREVER 21;Adults-Women;Women;;;;Fashion;;2017;2/S,FRTOTOPS00031744,3/M,FRTOTOPS00031745,4/L,FRTOTOPS00031746;1299.00;;;<p>Contents:80% RAYON, 20% NYLON/POLYAMIDE, Lining:, Other:</p>;;;;;zerotype;;Fall;Reinwarded 6th Oct;No
2097421;267922-CREAM/PEACH/MULTI-2097421;FOREVER 21CREAM/PEACH/MULTITops;Inactive - PMM - Catalog;Tops;FOREVER 21;Adults-Women;Women;Beige;;;Fashion;Casual;2017;2/S,FRTOTOPS00031476,3/M,FRTOTOPS00031477,4/L,FRTOTOPS00031478;1299.00;Beige solid woven bardot  top, has an off-shoulder neck, short sleeves,;This smart shirt from FOREVER 21 is never boring.  You'll gain the perfect work ensemble when you pair this beige piece with a sweater and a neutral-toned pair of slacks.;Blended <br> Hand-wash;The model (height 5'8") is wearing a size S;;FOREVER 21 Women Beige Solid Bardot Top;FOREVER 21;zerotype;;Fall;Re-call the sample ASAP;No
2097168;94381-TAN-2097168;FOREVER 21TANTops;Draft;Tops;FOREVER 21;Adults-Women;Women;;;;Fashion;;2017;2/S,FRTOTOPS00030619,3/M,FRTOTOPS00030620,4/L,FRTOTOPS00030621;899.00;;;<p>Contents:72% RAYON, 28% POLYESTER, Lining:, Other:</p>;;;;;zerotype;;Fall;Reinwarded 6th Oct;No
2097025;56193-BLUE/CREAM-2097025;FOREVER 21BLUE/CREAMTops;Draft;Tops;FOREVER 21;Adults-Women;Women;;;;Fashion;;2017;2/S,FRTOTOPS00030263,3/M,FRTOTOPS00030264,4/L,FRTOTOPS00030265;1299.00;;;<p>Contents:100% RAYON, Lining:, Other:</p>;;;;;zerotype;;Fall;Reinwarded 6th Oct;No
2096997;85302-NUDE-2096997;FOREVER 21NUDEBodysuit;Inactive - PMM - Catalog;Bodysuit;FOREVER 21;Adults-Women;Women;NA;;;Fashion;Casual;2017;2/S,FRTOBYST00000854,3/M,FRTOBYST00000855,4/L,FRTOBYST00000856;949.00;Olive green solid bodysuit, has tie-up neck, sleeveless, double press-button closures on the crotch;Bring out the fashionista in you wearing this pretty bodysuit from FOREVER 21. Team it up with a pair of jeans, heels or casual shoes and a statement clutch for a chic look.;<p>Contents:96% RAYON, 4% SPANDEX / ELASTANE, Lining:, Other:</p>;The model (height 5'8'') is wearing a size S;;FOREVER 21 Olive Green Bodysuit;FOREVER 21;zerotype;;Fall;Re-call the sample ASAP;No
2093660;322622-OLIVE/BLACK-2093660;FOREVER 21OLIVE/BLACKTrousers;Draft;Trousers;FOREVER 21;Adults-Men;Men;NA;;;Fashion;;2017;1/XS,FRTOTRSR00004699,2/S,FRTOTRSR00004700,3/M,FRTOTRSR00004701,4/L,FRTOTRSR00004702,5/XL,FRTOTRSR00004703;1999.00;;;<p>Contents:98% COTTON, 2% SPANDEX / ELASTANE, Lining:, Other:</p>;;;;;zerotype;;Fall;;No
2093634;213480-KHAKI-2093634;FOREVER 21KHAKITrousers;Draft;Trousers;FOREVER 21;Adults-Men;Men;NA;;;Fashion;;2017;1/XS,FRTOTRSR00004592,2/S,FRTOTRSR00004593,3/M,FRTOTRSR00004594,4/L,FRTOTRSR00004595,5/XL,FRTOTRSR00004596;1899.00;;;<p>Contents:98% COTTON, 2% SPANDEX / ELASTANE, Lining:, Other:</p>;;;;;zerotype;;Fall;;No
2093633;213480-CAMEL-2093633;FOREVER 21CAMELTrousers;Draft;Trousers;FOREVER 21;Adults-Men;Men;NA;;;Fashion;;2017;1/XS,FRTOTRSR00004587,2/S,FRTOTRSR00004588,3/M,FRTOTRSR00004589,4/L,FRTOTRSR00004590,5/XL,FRTOTRSR00004591;1899.00;;;<p>Contents:98% COTTON, 2% SPANDEX / ELASTANE, Lining:, Other:</p>;;;;;zerotype;;Fall;;No
2093608;190869-BEIGE-2093608;FOREVER 21BEIGETrousers;Draft;Trousers;FOREVER 21;Adults-Women;Women;NA;;;Fashion;;2017;1/S,FRTOTRSR00004531,2/M,FRTOTRSR00004532,3/L,FRTOTRSR00004533,4/XL,FRTOTRSR00004534;1899.00;;;<p>Contents:100% RAYON, Lining:100% POLYESTER, Other:</p>;;;;;zerotype;;Fall;;No
2093587;89064-BLACK/WHITE-2093587;FOREVER 21BLACK/WHITETrousers;QC Reject;Trousers;FOREVER 21;Adults-Men;Men;NA;;;Fashion;;2017;1/XS,FRTOTRSR00004487,2/S,FRTOTRSR00004488,3/M,FRTOTRSR00004489,4/L,FRTOTRSR00004490,5/XL,FRTOTRSR00004491;1299.00;;;<p>Contents:55% COTTON, 45% POLYESTER, Lining:, Other:</p>;;;;;zerotype;;Fall;OHS to QCR;No
2093563;75502-MAUVE-2093563;FOREVER 21MAUVETrousers;Draft;Trousers;FOREVER 21;Adults-Men;Men;NA;;;Fashion;;2017;1/XS,FRTOTRSR00004435,2/S,FRTOTRSR00004436,3/M,FRTOTRSR00004437,4/L,FRTOTRSR00004438,5/XL,FRTOTRSR00004439;1799.00;;;<p>Contents:100% COTTON, Lining:, Other:</p>;;;;;zerotype;;Fall;;No
2093560;57615-BLACK/PEACH-2093560;FOREVER 21BLACK/PEACHTrousers;Draft;Trousers;FOREVER 21;Adults-Women;Women;NA;;;Fashion;;2017;1/S,FRTOTRSR00004427,2/M,FRTOTRSR00004428,3/L,FRTOTRSR00004429,4/XL,FRTOTRSR00004430;1699.00;;;<p>Contents:100% POLYESTER, Lining:, Other:</p>;;;;;zerotype;;Fall;;No
2093556;55350-CREAM-2093556;FOREVER 21CREAMTrousers;Draft;Trousers;FOREVER 21;Adults-Men;Men;NA;;;Fashion;;2017;1/XS,FRTOTRSR00004417,2/S,FRTOTRSR00004418,3/M,FRTOTRSR00004419,4/L,FRTOTRSR00004420,5/XL,FRTOTRSR00004421;1699.00;;;<p>Contents:98% COTTON, 2% SPANDEX / ELASTANE, Lining:, Other:</p>;;;;;zerotype;;Fall;;No
2087198;BB-CORESHORTS-KNIT-01-BLACK-2087198;Kids BoysShorts;Draft;Shorts;Bossini;Kids-Boys;Boys;NA;;;Core;;2017;10,BILESHOR00000527,12,BILESHOR00000528,14,BILESHOR00000529,4,BILESHOR00000530,6,BILESHOR00000531,8,BILESHOR00000532;699.00;;;<p>Machine Wash</p>;;;;;zerotype;;Fall;;No
2087040;RGRSN3513_CREAM-46-Cream-2087040;RG Designers Cream Buti Work Full Sleeve Kurta Pyjama Set;Draft;Kurta Sets;RG DESIGNERS;Adults-Men;Men;;;;Fashion;Ethnic;2017;36,RGDSKASS00000632,38,RGDSKASS00000633,40,RGDSKASS00000634,42,RGDSKASS00000635,44,RGDSKASS00000636,46,RGDSKASS00000637;6599.00;<p>Look your ethnic best when you adorn this <a href='/kurta?src=pd' class='seolink'>kurta</a> phyjama by <a href='/rg-designers?src=pd' class='seolink'>RG Designers</a>. Made from <a href='/cotton?src=pd' class='seolink'>Cotton</a> Fabric , it would lend you a glamorous look that is just perfect for any Occassion.  self textured  design kurta with White churidaar bottom.</p>;;<p>DRY CLEAN ONLY</p>;;;;big10-ethnic-men;zerotype;;Winter;big10-ethnic-men;No
2087037;RGRSN3513_BLACK-46-Black-2087037;RG Designers Black Buti Work Full Sleeve Kurta Pyjama Set;Draft;Kurta Sets;RG DESIGNERS;Adults-Men;Men;;;;Fashion;Ethnic;2017;36,RGDSKASS00000614,38,RGDSKASS00000615,40,RGDSKASS00000616,42,RGDSKASS00000617,44,RGDSKASS00000618,46,RGDSKASS00000619;6599.00;<p>Look your ethnic best when you adorn this <a href='/kurta?src=pd' class='seolink'>kurta</a> phyjama by <a href='/rg-designers?src=pd' class='seolink'>RG Designers</a>. Made from <a href='/cotton?src=pd' class='seolink'>Cotton</a> Fabric , it would lend you a glamorous look that is just perfect for any Occassion.  self textured  design kurta with White churidaar bottom.</p>;;<p>DRY CLEAN ONLY</p>;;;;big10-ethnic-men;zerotype;;Winter;big10-ethnic-men;No
2087024;AVHandloomLoops-Cream_46-Cream-2087024;RG Designers Men's Full Sleeve Kurta Pyjama Set AVHandloomLoops-Cream;Draft;Kurta Sets;RG DESIGNERS;Adults-Men;Men;;;;Fashion;Ethnic;2017;36,RGDSKASS00000536,38,RGDSKASS00000537,40,RGDSKASS00000538,42,RGDSKASS00000539,44,RGDSKASS00000540,46,RGDSKASS00000541;4999.00;<p>Look your ethnic best when you adorn this <a href='/kurta?src=pd' class='seolink'>kurta</a> phyjama by <a href='/rg-designers?src=pd' class='seolink'>RG Designers</a>. Made from <a href='/cotton?src=pd' class='seolink'>Cotton</a> Fabric , it would lend you a glamorous look that is just perfect for any Occassion.  self textured  design kurta with White churidaar bottom.</p>;;<p>DRY CLEAN ONLY</p>;;;;big10-ethnic-men;zerotype;;Winter;big10-ethnic-men;No
2083809;CW6466-BLUNIT-2083809;SN SPL SHO M;Draft;Shorts;Adidas;Adults-Men;Men;;;;Fashion;;2017;L,ADDSSHOR00102190,2XL,ADDSSHOR00102191,M,ADDSSHOR00102192,S,ADDSSHOR00102193,XL,ADDSSHOR00102194;2499.00;;;<p>Use only mild detergent. Wash dark colors separately. Iron on reverse. Wash with like colors only. Do not Iron print</p>;;;;FW17-SPORTS-NEW,fw-17-sports-new;zerotype;;Fall;bbd17-extra20;No
2083805;CW4895-BLACK-2083805;2IN1MESHSHORT;Draft;Shorts;Adidas;Adults-Women;Women;;;;Fashion;;2017;XS,ADDSSHOR00102173,S,ADDSSHOR00102174,M,ADDSSHOR00102175,L,ADDSSHOR00102176;1899.00;;;<p>Use only mild detergent. Wash dark colors separately. Iron on reverse. Wash with like colors only. Do not Iron print</p>;;;;FW17-SPORTS-NEW,fw-17-sports-new;zerotype;;Fall;bbd17-extra20;No
2083804;CW4646-REDNIT-2083804;CRAZYTR SH;Draft;Shorts;Adidas;Adults-Men;Men;;;;Fashion;;2017;L,ADDSSHOR00102168,2XL,ADDSSHOR00102169,XL,ADDSSHOR00102170,S,ADDSSHOR00102171,M,ADDSSHOR00102172;2699.00;;;<p>Use only mild detergent. Wash dark colors separately. Iron on reverse. Wash with like colors only. Do not Iron print</p>;;;;FW17-SPORTS-NEW,fw-17-sports-new;zerotype;;Fall;bbd17-extra20;No
2083744;BR9114-BLUNIT-2083744;CLIMACHILL SH;Draft;Shorts;Adidas;Adults-Men;Men;;;;Fashion;;2017;M,ADDSSHOR00101943,S,ADDSSHOR00101944,XL,ADDSSHOR00101945,L,ADDSSHOR00101946;2999.00;;;<p>Use only mild detergent. Wash dark colors separately. Iron on reverse. Wash with like colors only. Do not Iron print</p>;;;;FW17-SPORTS-NEW,fw-17-sports-new;zerotype;;Fall;bbd17-extra20;No
2083736;BR5135-MULTCO-2083736;JARDIM A SHORT;Draft;Shorts;Adidas Originals;Adults-Women;Women;;;;Fashion;;2017;36,ADORSHOR00000453,38,ADORSHOR00000454,40,ADORSHOR00000455,34,ADORSHOR00000456,32,ADORSHOR00000457;2599.00;;;<p>Use only mild detergent. Wash dark colors separately. Iron on reverse. Wash with like colors only. Do not Iron print</p>;;;;FW17-SPORTS-NEW,fw-17-sports-new;zerotype;;Fall;bbd17-extra20;No
2083735;BR5122-MULTCO-2083735;FLORALITA SHORT;Draft;Shorts;Adidas Originals;Adults-Women;Women;;;;Fashion;;2017;32,ADORSHOR00000448,40,ADORSHOR00000449,36,ADORSHOR00000450,38,ADORSHOR00000451,34,ADORSHOR00000452;2599.00;;;<p>Use only mild detergent. Wash dark colors separately. Iron on reverse. Wash with like colors only. Do not Iron print</p>;;;;FW17-SPORTS-NEW,fw-17-sports-new;zerotype;;Fall;bbd17-extra20;No
2083734;BR3733-LEGINK-2083734;CRAZYTR SH GFX2;Draft;Shorts;Adidas;Adults-Men;Men;;;;Fashion;;2017;2XL,ADDSSHOR00101919,L,ADDSSHOR00101920,M,ADDSSHOR00101921,S,ADDSSHOR00101922,XL,ADDSSHOR00101923;3299.00;;;<p>Use only mild detergent. Wash dark colors separately. Iron on reverse. Wash with like colors only. Do not Iron print</p>;;;;FW17-SPORTS-NEW,fw-17-sports-new;zerotype;;Fall;bbd17-extra20;No
2083725;BP8107-CONAVY-2083725;D2M WVN SHOR;Draft;Shorts;Adidas;Adults-Men;Men;;;;Fashion;;2017;XL,ADDSSHOR00101891,L,ADDSSHOR00101892,2XL,ADDSSHOR00101893,S,ADDSSHOR00101894,M,ADDSSHOR00101895;1599.00;;;<p>Use only mild detergent. Wash dark colors separately. Iron on reverse. Wash with like colors only. Do not Iron print</p>;;;;FW17-SPORTS-NEW,fw-17-sports-new;zerotype;;Fall;bbd17-extra20;No
2083108;CW5422-TACGRN-2083108;SN TNK W;Draft;Tops;Adidas;Adults-Women;Women;;;;Fashion;;2017;M,ADDSTOPS00089740,XL,ADDSTOPS00089741,XS,ADDSTOPS00089742,S,ADDSTOPS00089743,L,ADDSTOPS00089744;1999.00;;;<p>Use only mild detergent. Wash dark colors separately. Iron on reverse. Wash with like colors only. Do not Iron print</p>;;;;FW17-SPORTS-NEW,fw-17-sports-new;zerotype;;Fall;bbd17-extra20;No
2079257;EHJN0243-Blue-2079257;SLIM MED WASH DENIM;QC Reject;Jeans;Ed Hardy;Adults-Men;Men;;;;Fashion;;2016;30,EDHRJENS00001416,32,EDHRJENS00001417,34,EDHRJENS00001418,36,EDHRJENS00001419,38,EDHRJENS00001420,40,EDHRJENS00001421;3799.00;;;<p>SLIM MED WASH DENIM</p>;;;;;zerotype;;Winter;OHS to QCR;No
2079234;EHJN0213-Blue-2079234;SUPER SLIM LIGHT WASH DENIM;QC Reject;Jeans;Ed Hardy;Adults-Men;Men;;;;Fashion;;2016;32,EDHRJENS00001317,34,EDHRJENS00001318,36,EDHRJENS00001319,38,EDHRJENS00001320,40,EDHRJENS00001321;3199.00;;;<p>SUPER SLIM LIGHT WASH DENIM</p>;;;;;zerotype;;Winter;OHS to QCR;No
2076895;SQ-CL-17118-ROYAL-2076895;STATUS QUO ROYAL T.SHIRT MENS FASHION COLLAR;Active;Tshirts;Status Quo;Adults-Men;Men;Blue;;;Fashion;Casual;2017;L,STSQTSHT00110045,M,STSQTSHT00110046,XL,STSQTSHT00110047,XXL,STSQTSHT00110048;1349.00;Blue appliqué detail polo T-shirt, has a polo collar, short sleeves, and a short button placket;Designed by the team at Status Quo, you're definitely in for a style treat with this polo T-shirt. A fashionable weekend outfit starts with this blue tee matched with chinos and your favourite pair of sunglasses to cast an effortlessly cool image.;Blended<br />Machine-wash cold;The model (height 6') is wearing a size M;;Status Quo Men Blue Appliqué Detail Polo Collar T-shirt;Status Quo;zerotype;;Winter;Relisted post Diwali-17 sale by store-mgmt;No
2075879;VHJK515M03128-Blue-2075879;VHJK515M03128;Draft;Jackets;Van Heusen;Adults-Men;Men;Blue;;;Fashion;;2016;M,VNHSJCKT00000206,XXL,VNHSJCKT00000207,L,VNHSJCKT00000208,XL,VNHSJCKT00000209,S,VNHSJCKT00000210;2799.00;;;<p>100%Polyester</p>;;;;;zerotype;;Winter;;No
2075875;VHJK515M03013-Blue-2075875;VHJK515M03013;Draft;Jackets;Van Heusen;Adults-Men;Men;Blue;;;Fashion;;2016;3XL,VNHSJCKT00000185,M,VNHSJCKT00000186,L,VNHSJCKT00000187,XL,VNHSJCKT00000188,XXL,VNHSJCKT00000189;3299.00;;;<p>100%Polyester</p>;;;;;zerotype;;Winter;;No
2074812;AW17JAACKD420B-MAGENTA-2074812;SETS;Draft;Kurta Sets;IMARA;Adults-Women;Women;;;;Fashion;;2017;L,IMRAKASS00000918,M,IMRAKASS00000919,S,IMRAKASS00000920,XL,IMRAKASS00000921,XS,IMRAKASS00000922;3699.00;;;;;;;;zerotype;;Fall;;No
2074796;A17ROYCKD358A-GREEN-2074796;SETS;Draft;Kurta Sets;IMARA;Adults-Women;Women;;;;Fashion;;2017;L,IMRAKASS00000848,M,IMRAKASS00000849,S,IMRAKASS00000850,XL,IMRAKASS00000851,XXL,IMRAKASS00000852;4499.00;;;;;;;;zerotype;;Fall;;No
2063605;216YKEB7064-Yellow/White-2063605;Kurta Pyjama;Draft;Kurta Sets;Yellow Kite;Kids-Boys;Boys;;;;Fashion;;2017;7-8Y,YLKTKASS00000021,8-9Y,YLKTKASS00000022,10-11Y,YLKTKASS00000023,11-12Y,YLKTKASS00000024,13-14Y,YLKTKASS00000025;3499.00;;;;;;;;zerotype;;Fall;;No
2063585;216YKEG5051-Beige/Orange-2063585;Lehenga Choli;Draft;Lehenga Choli;Yellow Kite;Kids-Girls;Girls;;;;Fashion;;2017;7-8Y,YLKTLHNC00000026,8-9Y,YLKTLHNC00000027,10-11Y,YLKTLHNC00000028,11-12Y,YLKTLHNC00000029,13-14Y,YLKTLHNC00000030;3999.00;;;;;;;;zerotype;;Fall;;No
2045241;3912-0103-WHITE-White-2045241;Sport polo;Draft;Tshirts;Jockey;Adults-Men;Men;;;;Core;Casual;2017;S,JOCKTSHT00001188,M,JOCKTSHT00001189,L,JOCKTSHT00001190;799.00;<p>Super Combed Cotton Rich Interlock fabricModern FitEmbroidered Authentic Jockey logo on chestJacquard Collar & Cuff for premium sophisticated lookTo be worn as leisurewear, loungewear and sportswear</p>;;<p>Gentle washDo not bleachTumble dry lowDo not dry cleanLine dry in shadeMedium ironWash with like coloursDo not iron on labelWash inside outIron on reverseDry immediately after wash</p>;;;;;zerotype;;Fall;Reinwarded 6th Oct;No
2045216;2714-0105-ORUST-Orange Rust-2045216;CREWE-NECK T-SHIRT;Draft;Tshirts;Jockey;Adults-Men;Men;;;;Core;Casual;2017;S,JOCKTSHT00001132,M,JOCKTSHT00001133,L,JOCKTSHT00001134;399.00;<p>Premium Combed Cotton rich fabricComfort fitRibbed crew-neck prevents saggingAuthentic Jockey logo labelTo be worn as loungewear, leisurewear,sportswear and innerwear</p>;;<p>Don't bleachTumble dry lowDo not dry cleanMedium ironGentle washLine dry in the shadeWash inside outWash with like coloursDo not iron on label</p>;;;;;zerotype;;Fall;No comment entered;No
2045212;2714-0105-EDGRN-Eden Green-2045212;CREWE-NECK T-SHIRT;Draft;Tshirts;Jockey;Adults-Men;Men;;;;Core;Casual;2017;S,JOCKTSHT00001122,M,JOCKTSHT00001123,L,JOCKTSHT00001124;399.00;<p>Premium Combed Cotton rich fabricComfort fitRibbed crew-neck prevents saggingAuthentic Jockey logo labelTo be worn as loungewear, leisurewear,sportswear and innerwear</p>;;<p>Don't bleachTumble dry lowDo not dry cleanMedium ironGentle washLine dry in the shadeWash inside outWash with like coloursDo not iron on label</p>;;;;;zerotype;;Fall;Reinwarded 6th Oct;No
2033053;WFTS0665-GREY MEL-2033053;MENS CASUAL  T SHIRT;Draft;Tshirts;WROGN;Adults-Men;Men;;;;Fashion;;2017;S,WRGNTSHT00004708,M,WRGNTSHT00004709,L,WRGNTSHT00004710,XL,WRGNTSHT00004711;1299.00;;;;;;;wrogn-new-arrivals,wrogn-aw17-flat-30;zerotype;;Fall;add;No
2033052;WFTS0664-NAVY MEL-2033052;MENS CASUAL  T SHIRT;Draft;Tshirts;WROGN;Adults-Men;Men;;;;Fashion;;2017;S,WRGNTSHT00004704,M,WRGNTSHT00004705,L,WRGNTSHT00004706,XL,WRGNTSHT00004707;1299.00;;;;;;;wrogn-new-arrivals,wrogn-aw17-flat-30;zerotype;;Fall;add;No
2000074;ILW00S110027E-BLUE-2000074;DENIM  BLUE DENIM;Inactive - PMM - Catalog;Jeans;612 league;Kids-Boys;Boys;NA;Beige;Beige;Fashion;Casual;2017;3-4Y,LAGEJENS00002219,4-5Y,LAGEJENS00002220,5-6Y,LAGEJENS00002221,7-8Y,LAGEJENS00002222;1345.00;light wash 3-pocket high-rise jeans, mildly distressed with heavy fade, has a button and zip closure, waistband with belt loops;Snazzy slim jeans from 612 league will complete your little boy's casual wardrobe.  Top these off with a graphic tee and canvas shoes for a hip look for a birthday party.;Cotton and elastane <br> Hand-wash;;;;612league-aw17,kidsaw17,kidsaw17btw;zerotype;;Winter;Re-call the sample ASAP;No
1966003;56898-HEATHER GREY-1966003;Forever 21 HEATHER GREYTshirts;QC Reject;Tshirts;FOREVER 21;Adults-Men;Men;Bronze;Bronze;Bronze;Fashion;Ethnic;2017;1/XS,FRTOTSHT00003580,2/S,FRTOTSHT00003581,3/M,FRTOTSHT00003582,4/L,FRTOTSHT00003583,5/XL,FRTOTSHT00003584;599.00;<a href='/bronze?src=pd' class='seolink'>Bronze</a>-Toned and bronze-toned printed  T-shirt, has a V-neck, long sleeves;Sometimes dressing up can be a bit much for the occasion. That's why you should consider one of these amazing T-shirts from FOREVER 21.  When you're out running errands, you'll look your best when you combine this bronze piece with your favourite pair of sunglasses and trainer shoes.;Cotton, cotton and cotton <br /> Machine-wash;The model (height 6') is wearing a size M;;FOREVER 21 Men Bronze-Toned Printed V-Neck T-shirt;forever 21;zerotype;;Summer;OHS to QCR;No
1958681;BJ9701-BLACK-1958681;HERO POWER BRA;Draft;Bra;Reebok;Adults-Women;Women;;;;Fashion;;2017;L,RBOKBRAA00000118,XS,RBOKBRAA00000119,M,RBOKBRAA00000120,XL,RBOKBRAA00000121,S,RBOKBRAA00000122;3699.00;;;<p>Use only mild detergent. Wash dark colors separately. Iron on reverse. Wash with like colors only. Do not Iron print</p>;;;;all-sports-styles-2017;zerotype;;Summer;bbd17-extra20;No
1953974;LJ-14319A-Pink-1953974;LJ-14319A Pink;Draft;Casual Shoes;ether;Adults-Women;Women;;;;Fashion;;2017;UK 3,ETHRCASH00000133,UK 4,ETHRCASH00000134,UK 5,ETHRCASH00000135,UK 6,ETHRCASH00000136,UK 7,ETHRCASH00000137,UK 8,ETHRCASH00000138;2999.00;;;;;;;ether-aw17-fullseason,ether-w-shoes-bags;zerotype;;Winter;shoes and bags;No
1938107;ASSS1357-Navy-1938107;SH FS REG PDB PRI A16ASSPSH034N1;Inactive - PMM - Catalog;Shirts;Arrow Sport;Adults-Men;Men;Navy Blue;;;Fashion;Casual;2016;38,ARSPSHRT00004695,39,ARSPSHRT00004696,40,ARSPSHRT00004697,42,ARSPSHRT00004698,44,ARSPSHRT00004699,46,ARSPSHRT00004700;2399.00;Navy printed casual shirt, has a semi-cutaway collar, button placket, 1 pocket, long sleeves, curved hem;Add this well-designed shirt from Arrow Sport to your wardrobe and stay stylish all year long. When you're going out on a dinner date, match this navy piece with chinos and a pair of easy loafers.;Cotton <br />Machine-wash;Slim fit<br />The model (height 6') is wearing a size 40;;Arrow Sport Men Navy Slim Fit Printed Casual Shirt;Arrow Sport,DINO026,ftod-eorsjun17,ftod-eorsj17-40,eors17-rsoff-coupon,eors17-perc-coupon,best-discount-on-eors,eorsjun17-uber-offer,flat40-extra30-jul1,ftod-eoss-bbsjul17,casualfest-june17;zerotype;;Spring;Re-call the sample ASAP;No
1897899;8035-0205-GRYML-Grey Melange-1897899;BU-POCO-2's-Grey Mel;QC Reject;Briefs;Jockey;Adults-Men;Men;;;;Core;;2017;S,JOCKBREF00003145,M,JOCKBREF00003146,L,JOCKBREF00003147;260.00;<p>Cotton</p>;;;;;;;zerotype;;Summer;OHS to QCR;No
1887586;RNP31794163-BLACK-1887586;Peter England Tie and Pocket Square;Draft;Ties;Peter England;Adults-Men;Men;Blue;;;Fashion;;2017;Onesize,PTENTIES00000554;899.00;;;<p>100% Micro Poly</p>;<p>147*6.5</p>;;;;zerotype;;Spring;;No
1884763;HD-10956-C-MUTED PINK-1884763;WOMEN'S JACKET;On Hold - Other;Jackets;DressBerry;Adults-Women;Women;;;;Fashion;;2017;S,DSBYJCKT00000825,M,DSBYJCKT00000826,L,DSBYJCKT00000827,XL,DSBYJCKT00000828;3799.00;;;;;;;;zerotype;;Fall;Shoot can be planned post BBD as premium;No
1884753;HD-10953-B-SILVER-1884753;WOMEN'S JACKET;On Hold - Other;Jackets;DressBerry;Adults-Women;Women;;;;Fashion;;2017;S,DSBYJCKT00000785,M,DSBYJCKT00000786,L,DSBYJCKT00000787,XL,DSBYJCKT00000788;3699.00;;;;;;;;zerotype;;Fall;Shoot can be planned post BBD as premium;No
1870087;KNKSS-QTWJ-222-white-1870087;Indigo Denim shorts;Draft;Shorts;Kook N Keech;Adults-Women;Women;;;;Fashion;;2017;26,KNKHSHOR00000424,28,KNKHSHOR00000425,30,KNKHSHOR00000426,32,KNKHSHOR00000427,34,KNKHSHOR00000428;1599.00;;;;;;;;zerotype;;Fall;Planner request;No
1870085;KNKSS-QTWJ-224-INDIGO-1870085;Indigo Denim shorts;Draft;Shorts;Kook N Keech;Adults-Women;Women;;;;Fashion;;2017;26,KNKHSHOR00000414,28,KNKHSHOR00000415,30,KNKHSHOR00000416,32,KNKHSHOR00000417,34,KNKHSHOR00000418;1699.00;;;;;;;;zerotype;;Fall;Planner request;No
1870084;KNKSS-QTWJ-223-MID BLUE-1870084;Indigo Denim shorts;Draft;Shorts;Kook N Keech;Adults-Women;Women;;;;Fashion;;2017;26,KNKHSHOR00000409,28,KNKHSHOR00000410,30,KNKHSHOR00000411,32,KNKHSHOR00000412,34,KNKHSHOR00000413;1699.00;;;;;;;;zerotype;;Fall;Planner request;No
1870077;DB17-31C-Rose-1870077;DressBerry Watches;Draft;Watches;DressBerry;Adults-Women;Women;;;;Fashion;;2017;Onesize,DSBYWTCH00000361;3499.00;;;;;;;;zerotype;;Fall;Planner request;No
1870075;DB17-31A-STEEL/ROSE-1870075;DressBerry Watches;Draft;Watches;DressBerry;Adults-Women;Women;;;;Fashion;;2017;Onesize,DSBYWTCH00000359;2999.00;;;;;;;;zerotype;;Fall;Planner request;No
1869279;8903338017066-Pxl_Purple-1869279;Power Duffle Print : Wildcraft : Pxl_Purple;Draft;Duffel Bag;Wildcraft;Adults-Unisex;Unisex;Purple;;;Fashion;;2017;Onesize,WDCTDFBG00000160;799.00;;;<p>Hand wash with mild soap.Rinse well and air-dry.Do not machine wash or dry.Store in a cool, dry place, free of mould and dirt, away from direct sunlight, extreme heat, acids & oxidizing agents.</p>;;;;;zerotype;;Spring;;No
1828719;MNHSS17 SFTEE 020E-CORYDALIS BLUE-1828719;HALF SLEEVE;Draft;Tshirts;Mast & Harbour;Adults-Men;Men;;;;Fashion;;2017;S,MTHBTSHT00008954,M,MTHBTSHT00008955,L,MTHBTSHT00008956,XL,MTHBTSHT00008957;899.00;;;;;;;;zerotype;;Spring;;No
1828715;MNHSS17 SFTEE 020A-WISTERIA-1828715;HALF SLEEVE;Draft;Tshirts;Mast & Harbour;Adults-Men;Men;;;;Fashion;;2017;S,MTHBTSHT00008938,M,MTHBTSHT00008939,L,MTHBTSHT00008940,XL,MTHBTSHT00008941;899.00;;;;;;;;zerotype;;Spring;;No
1769137;RMSH06079-B4-Blue-1769137;F/S SPRD CLR,FRCH PLKT  SLIM FIT;QC Reject;Shirts;Raymond;Adults-Men;Men;Red;;;Fashion;Formal;2017;39,RYMDSHRT00004033,40,RYMDSHRT00004034,44,RYMDSHRT00004035,42,RYMDSHRT00004036;1799.00;Red self-design formal shirt, has a spread collar, button placket, long sleeves, straight hem;Sharpen up your style with this in-style shirt by Raymond. This red piece can be paired with cuffed chinos and leather boots for your next formal party.;100% cotton <br />Machine-wash;Slim fit <br>The model (height 6') is wearing a size 40;;Raymond Men Red Slim Fit Self-Design Formal Shirt;Raymond,RaymondSS17,bfg-event-apr,ftod-bfg,never-settle,look4-mitm-formals,mitm17,mitm-july,formals-2238;zerotype;;Spring;OHS to QCR;No
1769041;KP-1406L-D-Black-1769041;Kappa Watches;Draft;Watches;Kappa;Adults-Women;Women;;;;Fashion;;2017;Onesize,KAPAWTCH00000058;12499.00;;;<p>Stainless Steel</p>;<p>40 mm, Japanese Multi-function</p>;;;lfswomenbd;zerotype;;Summer;lfswomenbd;No
1748068;SS17WD106A-GREY-1748068;Cut & Sew Shirt Dress;QC Reject;Dresses;ether;Adults-Women;Women;;;;Fashion;;2017;S,ETHRDRSS00000245,M,ETHRDRSS00000246,L,ETHRDRSS00000247,XL,ETHRDRSS00000248;1499.00;;;;;;;Coupon-offer-aug19,ether-aw17-fullseason,ether-aw17-overalls;zerotype;;Fall;OHS to QCR;No
1748049;SS17WB105A-Powder Pink-1748049;HALF CULOTTES;Draft;Shorts;ether;Adults-Women;Women;;;;Fashion;;2017;S,ETHRSHOR00000153,M,ETHRSHOR00000154,L,ETHRSHOR00000155,XL,ETHRSHOR00000156;999.00;;;;;;;;zerotype;;Fall;Planner request;No
1742358;KNK-KINKED-32-Black-1742358;Men Tshirt;Draft;Tshirts;Kook N Keech Star Wars;Adults-Men;Men;;;;Fashion;;2017;S,KNKWTSHT00000581,M,KNKWTSHT00000582,L,KNKWTSHT00000583,XL,KNKWTSHT00000584,XXL,KNKWTSHT00000585;799.00;;;;;;;;zerotype;;Fall;Planner Request;No
1696570;SKD4671-BEIGE-1696570;SKD4671;Active;Kurtis;Biba;Adults-Women;Women;Beige;;;Fashion;Ethnic;2016;32,BIBAKASS00000836,34,BIBAKASS00000837,36,BIBAKASS00000838,38,BIBAKASS00000839;4500.00;<a href='/beige?src=pd' class='seolink'>Beige</a> yoke design <a href='/kurti?src=pd' class='seolink'>kurti</a>, has <a href='/boat?src=pd' class='seolink'>boat</a> neck, three-quarter sleeves, side slits, attached lining;Elevate your ethnic style quotient with this beautifully designed kurti by Biba. Team up this kurti with a pair of skinny jeans or leggings and Kolhapuris for a gorgeous look.;Shell: 100% linen<br />Lining: 100% cotton<br />Machine-wash;The model (height 5'8") is wearing a size S;;Biba Beige Zari Embroidred Kurti;Biba;zerotype;;Winter;OHS to QCR;No
1676310;117DBWSLD025228B-SKYWAY 14-4112 TCX-1676310;TOP;Draft;Tops;DressBerry;Adults-Women;Women;;;;Fashion;;2017;XS,DSBYTOPS00011709,S,DSBYTOPS00011710,M,DSBYTOPS00011711,L,DSBYTOPS00011712,XL,DSBYTOPS00011713;1199.00;;;;;;;;zerotype;;Fall;Planner request;No
1676309;117DBWSLD025228A-PEACH PUREE 12-1011 TCX-1676309;TOP;Draft;Tops;DressBerry;Adults-Women;Women;;;;Fashion;;2017;XS,DSBYTOPS00011704,S,DSBYTOPS00011705,M,DSBYTOPS00011706,L,DSBYTOPS00011707,XL,DSBYTOPS00011708;1199.00;;;;;;;;zerotype;;Fall;Planner request;No
1663766;EHJK0202-BLACK-1663766;MENS JKT BLACK;QC Reject;Jackets;Ed Hardy;Adults-Men;Men;;;;Fashion;;2016;M,EDHRJCKT00000271,S,EDHRJCKT00000272,L,EDHRJCKT00000273;7999.00;<p>COTTON</p>;;;;;;;zerotype;;Fall;OHS to QCR;No
1642952;JEGGING.3ANT-BLUE34-ANT-BLUE-1642952;JEGGING.3;QC Reject;Jeans;Pepe Jeans;Adults-Women;Women;;;;Core;;2016;26,PEJEJENS00006454,28,PEJEJENS00006455,30,PEJEJENS00006456,32,PEJEJENS00006457,34,PEJEJENS00006458;2399.00;<p>98% <a href='/cotton?src=pd' class='seolink'>COTTON</a> / 2% ELASTANE</p>;;;;;;;zerotype;;Fall;OHS to QCR;No
1624316;00094502099-Brown-1624316;2 FUNNY HANGTAGS;Draft;Travel Accessory;DELSEY;Adults-Unisex;Unisex;Brown;;;Fashion;;2016;Onesize,DLSYTRAC00000105;600.00;;;<p>PP</p>;<p>0.5x4.6x8.3</p>;;;;zerotype;;Fall;;No
1624289;00394018098-Brown-1624289;EXPANDABLE SUITCASE COVER M L;Draft;Travel Accessory;DELSEY;Adults-Unisex;Unisex;Brown;;;Fashion;;2016;Onesize,DLSYTRAC00000078;2500.00;;;<p>POLYESTER</p>;<p>0x53x68</p>;;;;zerotype;;Fall;;No
1548100;CMWA02849-B6-Blue-1548100;AW15/MS/VNFS/01;Draft;Sweaters;ColorPlus;Adults-Men;Men;;;;Fashion;;2015;S,CRPSSWTR00000298,M,CRPSSWTR00000299,L,CRPSSWTR00000300,XL,CRPSSWTR00000301,XXL,CRPSSWTR00000302;2995.00;<p>LAMBS WOOL85%/ NYLON 15%</p>;;;;;;never-settle;zerotype;;Winter;never-settle;No
1487016;8903338010579-Black-1487016;Wiki Eta Black;Draft;Backpacks;Wildcraft;Adults-Unisex;Unisex;Black;;;Fashion;Casual;2016;Onesize,WDCTBAPK00100432;749.00;;;<p>wipe with a clean dry cloth</p>;<p>50X34X24 (cm)</p>;;;;zerotype;;Spring;;No
1486998;8903338060291-Olive-1486998;Air Duffle Olive;Draft;Duffel Bag;Wildcraft;Adults-Unisex;Unisex;Olive;;;Fashion;;2016;Onesize,WDCTDFBG00000106;699.00;;;<p>wipe with a clean dry cloth</p>;<p>25X69X28 (cms)</p>;;;;zerotype;;Spring;;No
1486997;8903338060284-Red-1486997;Air Duffle Red;Draft;Duffel Bag;Wildcraft;Adults-Unisex;Unisex;Red;;;Fashion;;2016;Onesize,WDCTDFBG00000105;699.00;;;<p>wipe with a clean dry cloth</p>;<p>25X69X28 (cms)</p>;;;;zerotype;;Spring;;No
1389308;NL-F3X-PONTIAC#GRBI15E/LEAD GREY-LEAD GREY-1389308;DLPONACGRBI15NLE;QC Reject;Trousers;Blackberrys;Adults-Men;Men;Navy Blue;;;Fashion;Formal;2016;30,BKBRTRSR00004269,40,BKBRTRSR00004270;2995.00;Navy Blue self-design formal low-rise flat-front trousers, has a zip fly and button closure, and long length;Complete your wardrobe with a pair of fashionable Blackberrys trousers.  This navy blue pair can be teamed with Oxfords and a classic button-down shirt when you're going to a work luncheon.;Cotton, Elastane  <br> Machine-wash;Regular fit <br> The model (height 6' and waist 32") is wearing a size 32;;Blackberrys Men Navy Blue Self-design Regular Fit Flat-Front Trousers;Blackberrys,myntra-store-01,formal-aug-mb;zerotype;;Winter;OHS to QCR;No
1389287;BT-TERRANCE-AS#KHBI12G/PACIFIC KHAKI-PACIFIC KHAKI-1389287;KHTERCEKHBI12BTG;QC Reject;Trousers;Blackberrys;Adults-Men;Men;;;;Fashion;;2016;38,BKBRTRSR00004170,40,BKBRTRSR00004171,42,BKBRTRSR00004172;2495.00;<p>51%Cotton 49%Linen</p>;;;;;;tat-styles-31aug,JIT,ndd-mumbai,myntra-store-03,formal-aug-mb;zerotype;;Summer;OHS to QCR;No
1389230;BP-W3Y-LIMOUS#BRCI18M/KHIGHT CHARCOAL-KHIGHT CHARCOAL-1389230;DLLIMUSBRCI18BPM;QC Reject;Trousers;Blackberrys;Adults-Men;Men;Charcoal;;;Fashion;Formal;2016;40,BKBRTRSR00003878,42,BKBRTRSR00003879;1995.00;Charcoal solid low-rise formal trousers, has a button closure, 4 pockets;Complete your wardrobe with a pair of fashionable Blackberrys trousers.  Wear this charcoal pair with a Polo T-shirt and easy loafers when you're taking your date out to a nice restaurant.;Other and viscose rayon <br /> Machine-wash;Sharp Regular Fit <br /> The model (height 6') is wearing a size 32;;Blackberrys Men Charcoal Sharp Regular Fit Solid Formal Trousers;Blackberrys,formal-aug-mb;zerotype;;Winter;OHS to QCR;No
1327454;WCWFBOS160002004-BRIGHT WHITE-1327454;REEN TOP, XL;Draft;Tops;Wills Lifestyle;Adults-Women;Women;;;;Fashion;;2016;L,WILITOPS00003338,M,WILITOPS00003339,S,WILITOPS00003340,XL,WILITOPS00003341;1999.00;<p>100% VISCOSE</p>;;;;;;;zerotype;;Summer;;No
1253366;RC2094 061-NAVY BLUE-1253366;RC2094-NAVY BLUE;Inactive - PMM - Catalog;Casual Shoes;Red Chief;Adults-Men;Men;;;;Fashion;;2017;UK6,RDCFCASH00000886,UK7,RDCFCASH00000887,UK8,RDCFCASH00000888,UK9,RDCFCASH00000889,UK10,RDCFCASH00000890;2995.00;<p>Leather</p>;;;;;;myntra-store-02,menscasualfest-oct,mens-casual-fest-aw17styles;zerotype;;Winter;Re-call the sample ASAP;No
1154224;WLWCDRS160029-JET BLACK-1154224;MILA DRESS;QC Reject;Dresses;Wills Lifestyle;Adults-Women;Women;;;;Fashion;;2016;L,WILIDRSS00000462,M,WILIDRSS00000463,S,WILIDRSS00000477;2799.00;<p>POLYBLEND(SCUBA)</p>;;;;;;,ss16launch-women-allnewdresses;zerotype;;Spring;OHS to QCR;No
1138226;DLVECRANYBI24NLE-ISTON BLUE-1138226;NL-VECTRA:NYBI24E/ISTON BLUE;QC Reject;Trousers;Blackberrys;Adults-Men;Men;;;;Fashion;;2015;38,BKBRTRSR00001783,40,BKBRTRSR00001784;1995.00;<p>90%Poly 10%Rayon</p>;;;;;;blackberrys-tapered,tat-styles-31aug,binola-8sep,next-day-delivery,ndd-gurgaon,myntra-store-01,formal-aug-mb;zerotype;;Winter;OHS to QCR;No
1138148;NL-EAGLE:GRBI16D/BURNISHED GR-BURNISHED GR-1138148;NL-EAGLE:GRBI16D/BURNISHED GR;QC Reject;Trousers;Blackberrys;Adults-Men;Men;;;;Fashion;;2015;38,BKBRTRSR00001446,40,BKBRTRSR00001447;1995.00;<p>94%Terylene 6%Rayon</p>;;;;;;blackberrys-relaxed,tat-styles-31aug,formal-aug-mb;zerotype;;Winter;OHS to QCR;No
1138126;DLBLA81BLBI25BLM-BLACK-1138126;BL-BLACK-81:BLBI25M/BLACK;QC Reject;Trousers;Blackberrys;Adults-Men;Men;;;;Fashion;;2015;28,BKBRTRSR00001369,40,BKBRTRSR00001370;2295.00;<p>78%Poly 20%Rayon 2%Spandex</p>;;;;;;blackberrys-narrow,mens-apparel-small-size,binola-8sep,next-day-delivery,ndd-gurgaon,formal-aug-mb;zerotype;;Winter;OHS to QCR;No
1138118;DLARKEYNYBI16NLE-GLOXINIA BLU-1138118;NL-ARKLEY:NYBI16E/GLOXINIA BLU;QC Reject;Trousers;Blackberrys;Adults-Men;Men;;;;Fashion;;2015;38,BKBRTRSR00001349,40,BKBRTRSR00001350;2195.00;<p>78%Terylene 22%Rayon</p>;;;;;;blackberrys-tapered,binola-8sep,next-day-delivery,ndd-gurgaon,myntra-store-01,formal-aug-mb;zerotype;;Winter;OHS to QCR;No
1128630;8903338056775-Olive-1128630;Active Olive;Draft;Duffel Bag;Wildcraft;Adults-Unisex;Unisex;;;;Fashion;;2015;Onesize,WDCTDFBG00000072;1099.00;;;;;;;;zerotype;;Winter;;No
1050376;ARCH-AW-15-WTP-02 A-Aspen Gold-1050376;WOMENS T-SHIRT;Draft;Tshirts;Kook N Keech Disney;Adults-Women;Women;NA;;;Fashion;NA;2017;S,KNKDTSHT00002021,M,KNKDTSHT00002022,L,KNKDTSHT00002023,XL,KNKDTSHT00002024;699.00;<p>NA</p>;<p>NA</p>;<p>NA</p>;<p>NA</p>;;NA;NA,archie-comicpop,ss16launch-women-allnewtopsandtees;Tshirts;Kook N Keech Disney;Fall;Planner request;No
360264;1530332011-White-360264;PROMETH TEE EXP 13 ORG, WHITE, M;Draft;Tshirts;Jack & Jones;Adults-Men;Men;;;;Fashion;;2016;XL,JAJOTSHT04251,L,JAJOTSHT00007763,M,JAJOTSHT00013029;1295.00;;;;;;;,superweekend-flat60,partywearfestival19dec,dailyopenoffer20,jack_and_jones_sale,jack-and-jones-FW16,jack-and-jones-fw16,jj-1299-store,JJ-Flat-60;zerotype;;Summer;JJ-Flat-60;No
