Style ID;Vendor Article Number;Vendor Article Name;Active Status;Article type;Brand;Age Group;Gender;Base Colour;Colour1;Colour2;Fashion Type;Usage;Year;Size - SKU code pair;MRP;Style Description;Style Note;Materials and Care Description;Size and Fit Description;Size Chart Path;Product Display Name;Tags;Product Type;Classification Brand;Season;Comments;Upload Images
4449781;VHKP517H009928-Blue-4449781;T Shirts;Draft;Tshirts;Van Heusen;Adults-Men;Men;Navy Blue;;;Fashion;;2017;3XL,VNHSTSHT00005605,XL,VNHSTSHT00005606,XXL,VNHSTSHT00005607,L,VNHSTSHT00005608,S,VNHSTSHT00005609,M,VNHSTSHT00005610;1299.00;;;<p>65% Cotton and 35% Polyester</p>;;;nA;;zerotype;;Winter;;No
4449780;VHKP517H009917-Blue-4449780;T Shirts;Draft;Tshirts;Van Heusen;Adults-Men;Men;Navy Blue;;;Fashion;;2017;3XL,VNHSTSHT00005599,XL,VNHSTSHT00005600,XXL,VNHSTSHT00005601,M,VNHSTSHT00005602,S,VNHSTSHT00005603,L,VNHSTSHT00005604;1699.00;;;<p>100% Cotton</p>;;;nA;;zerotype;;Winter;;No
4449779;VHSF1M100231-White-4449779;Shirts;Draft;Shirts;Van Heusen;Adults-Men;Men;White;;;Core;;2017;48,VNHSSHRT00027697;3299.00;;;<p>Cotton</p>;;;nA;;zerotype;;Winter;;No
4449778;VHSF1M100234-White-4449778;Shirts;Draft;Shirts;Van Heusen;Adults-Men;Men;White;;;Core;;2017;48,VNHSSHRT00027696;1699.00;;;<p>Cotton Rich Micro Polyester Blend</p>;;;nA;;zerotype;;Winter;;No
4449777;VHSF517M008788-Blue-4449777;Shirts;Draft;Shirts;Van Heusen;Adults-Men;Men;Blue;;;Fashion;;2017;38,VNHSSHRT00027692,40,VNHSSHRT00027693,42,VNHSSHRT00027694,39,VNHSSHRT00027695;2399.00;;;<p>100% Cotton</p>;;;nA;;zerotype;;Winter;;No
4449776;VHSF517M008788-Blue-4449776;Shirts;Draft;Shirts;Van Heusen;Adults-Men;Men;Blue;;;Fashion;;2017;44,VNHSSHRT00027689,46,VNHSSHRT00027690,48,VNHSSHRT00027691;2499.00;;;<p>100% Cotton</p>;;;nA;;zerotype;;Winter;;No
4449775;VHSF1M100226-White-4449775;Shirts;Draft;Shirts;Van Heusen;Adults-Men;Men;White;;;Core;;2017;48,VNHSSHRT00027688;1599.00;;;<p>100% Cotton</p>;;;nA;;zerotype;;Winter;;No
