Style ID;Vendor Article Number;Vendor Article Name;Active Status;Article type;Brand;Age Group;Gender;Base Colour;Colour1;Colour2;Fashion Type;Usage;Year;Size - SKU code pair;MRP;Style Description;Style Note;Materials and Care Description;Size and Fit Description;Size Chart Path;Product Display Name;Tags;Product Type;Classification Brand;Season;Comments;Upload Images
1930090;131246515763 C662-Blue-1930090;CR HALTON SHO C662;Draft;Shorts;Palm Tree;Kids-Boys;Boys;Blue;;;;;;02,PMTRSHOR00087559,04,PMTRSHOR00087560,06,PMTRSHOR00087561,08,PMTRSHOR00087562,10,PMTRSHOR00087563,12,PMTRSHOR00087564,12M,PMTRSHOR00087565,14,PMTRSHOR00087566,16,PMTRSHOR00087567,18M,PMTRSHOR00087568,24M,PMTRSHOR00087569;699.00;;;;;;;;zerotype;;;;No
1930086;131246515762 C152-Brown-1930086;CR HAINES SHO C152;Draft;Shorts;Palm Tree;Kids-Boys;Boys;Brown;;;;;;02,PMTRSHOR00087548,04,PMTRSHOR00087549,06,PMTRSHOR00087550,08,PMTRSHOR00087551,10,PMTRSHOR00087552,12,PMTRSHOR00087553,12M,PMTRSHOR00087554,14,PMTRSHOR00087555,16,PMTRSHOR00087556,18M,PMTRSHOR00087557,24M,PMTRSHOR00087558;699.00;;;;;;;;zerotype;;;;No
1930083;131246515761 C656-Blue-1930083;CC LUCKY SHO C656;Draft;Shorts;Palm Tree;Kids-Boys;Boys;Blue;;;;;;02,PMTRSHOR00087537,04,PMTRSHOR00087538,06,PMTRSHOR00087539,08,PMTRSHOR00087540,10,PMTRSHOR00087541,12,PMTRSHOR00087542,12M,PMTRSHOR00087543,14,PMTRSHOR00087544,16,PMTRSHOR00087545,18M,PMTRSHOR00087546,24M,PMTRSHOR00087547;599.00;;;;;;;;zerotype;;;;No
1930080;131246515760 7000-Blue-1930080;CR HUNT BRM 7000;Draft;Shorts;Palm Tree;Kids-Boys;Boys;Blue;;;;;;02,PMTRSHOR00087526,04,PMTRSHOR00087527,06,PMTRSHOR00087528,08,PMTRSHOR00087529,10,PMTRSHOR00087530,12,PMTRSHOR00087531,12M,PMTRSHOR00087532,14,PMTRSHOR00087533,16,PMTRSHOR00087534,18M,PMTRSHOR00087535,24M,PMTRSHOR00087536;799.00;;;;;;;;zerotype;;;;No
1930076;131246515760 6000-Blue-1930076;CR HUNT BRM 6000;Draft;Shorts;Palm Tree;Kids-Boys;Boys;Blue;;;;;;02,PMTRSHOR00087515,04,PMTRSHOR00087516,06,PMTRSHOR00087517,08,PMTRSHOR00087518,10,PMTRSHOR00087519,12,PMTRSHOR00087520,12M,PMTRSHOR00087521,14,PMTRSHOR00087522,16,PMTRSHOR00087523,18M,PMTRSHOR00087524,24M,PMTRSHOR00087525;799.00;;;;;;;;zerotype;;;;No
1930073;131246515760 5000-Blue-1930073;CR HUNT BRM 5000;Draft;Shorts;Palm Tree;Kids-Boys;Boys;Blue;;;;;;02,PMTRSHOR00087504,04,PMTRSHOR00087505,06,PMTRSHOR00087506,08,PMTRSHOR00087507,10,PMTRSHOR00087508,12,PMTRSHOR00087509,12M,PMTRSHOR00087510,14,PMTRSHOR00087511,16,PMTRSHOR00087512,18M,PMTRSHOR00087513,24M,PMTRSHOR00087514;799.00;;;;;;;;zerotype;;;;No
1930069;131246515758 6000-Blue-1930069;CR HASTY SHO 6000;Draft;Shorts;Palm Tree;Kids-Boys;Boys;Blue;;;;;;02,PMTRSHOR00087493,04,PMTRSHOR00087494,06,PMTRSHOR00087495,08,PMTRSHOR00087496,10,PMTRSHOR00087497,12,PMTRSHOR00087498,12M,PMTRSHOR00087499,14,PMTRSHOR00087500,16,PMTRSHOR00087501,18M,PMTRSHOR00087502,24M,PMTRSHOR00087503;799.00;;;;;;;;zerotype;;;;No
1930066;131246515758 5000-Blue-1930066;CR HASTY SHO 5000;Draft;Shorts;Palm Tree;Kids-Boys;Boys;Blue;;;;;;02,PMTRSHOR00087482,04,PMTRSHOR00087483,06,PMTRSHOR00087484,08,PMTRSHOR00087485,10,PMTRSHOR00087486,12,PMTRSHOR00087487,12M,PMTRSHOR00087488,14,PMTRSHOR00087489,16,PMTRSHOR00087490,18M,PMTRSHOR00087491,24M,PMTRSHOR00087492;799.00;;;;;;;;zerotype;;;;No
1930060;131246515743 C305-Yellow-1930060;CR JERIEL BRM C305;Draft;Shorts;Palm Tree;Kids-Boys;Boys;Yellow;;;;;;02,PMTRSHOR00087471,04,PMTRSHOR00087472,06,PMTRSHOR00087473,08,PMTRSHOR00087474,10,PMTRSHOR00087475,12,PMTRSHOR00087476,12M,PMTRSHOR00087477,14,PMTRSHOR00087478,16,PMTRSHOR00087479,18M,PMTRSHOR00087480,24M,PMTRSHOR00087481;999.00;;;;;;;;zerotype;;;;No
1930054;131246515742 9207-Black-1930054;CR JONY BRM 9207;Draft;Shorts;Palm Tree;Kids-Boys;Boys;Black;;;;;;02,PMTRSHOR00087460,04,PMTRSHOR00087461,06,PMTRSHOR00087462,08,PMTRSHOR00087463,10,PMTRSHOR00087464,12,PMTRSHOR00087465,12M,PMTRSHOR00087466,14,PMTRSHOR00087467,16,PMTRSHOR00087468,18M,PMTRSHOR00087469,24M,PMTRSHOR00087470;599.00;;;;;;;;zerotype;;;;No
1930047;131246515742 6000-Blue-1930047;CR JONY BRM 6000;Draft;Shorts;Palm Tree;Kids-Boys;Boys;Blue;;;;;;02,PMTRSHOR00087449,04,PMTRSHOR00087450,06,PMTRSHOR00087451,08,PMTRSHOR00087452,10,PMTRSHOR00087453,12,PMTRSHOR00087454,12M,PMTRSHOR00087455,14,PMTRSHOR00087456,16,PMTRSHOR00087457,18M,PMTRSHOR00087458,24M,PMTRSHOR00087459;599.00;;;;;;;;zerotype;;;;No
1930042;131246515742 5000-Blue-1930042;CR JONY BRM 5000;Draft;Shorts;Palm Tree;Kids-Boys;Boys;Blue;;;;;;02,PMTRSHOR00087438,04,PMTRSHOR00087439,06,PMTRSHOR00087440,08,PMTRSHOR00087441,10,PMTRSHOR00087442,12,PMTRSHOR00087443,12M,PMTRSHOR00087444,14,PMTRSHOR00087445,16,PMTRSHOR00087446,18M,PMTRSHOR00087447,24M,PMTRSHOR00087448;599.00;;;;;;;;zerotype;;;;No
1930039;131246515356 C462-Red-1930039;US HENRIKA SHO C462;Draft;Shorts;Palm Tree;Kids-Girls;Girls;Red;;;;;;02,PMTRSHOR00087427,04,PMTRSHOR00087428,06,PMTRSHOR00087429,08,PMTRSHOR00087430,10,PMTRSHOR00087431,12,PMTRSHOR00087432,12M,PMTRSHOR00087433,14,PMTRSHOR00087434,16,PMTRSHOR00087435,18M,PMTRSHOR00087436,24M,PMTRSHOR00087437;699.00;;;;;;;;zerotype;;;;No
1930036;131246515356 C152-Brown-1930036;US HENRIKA SHO C152;Draft;Shorts;Palm Tree;Kids-Girls;Girls;Brown;;;;;;02,PMTRSHOR00087416,04,PMTRSHOR00087417,06,PMTRSHOR00087418,08,PMTRSHOR00087419,10,PMTRSHOR00087420,12,PMTRSHOR00087421,12M,PMTRSHOR00087422,14,PMTRSHOR00087423,16,PMTRSHOR00087424,18M,PMTRSHOR00087425,24M,PMTRSHOR00087426;699.00;;;;;;;;zerotype;;;;No
1930033;131246515290 6000-Blue-1930033;SS SHEPHERD SHO 6000;Draft;Shorts;Palm Tree;Kids-Boys;Boys;Blue;;;;;;02,PMTRSHOR00087405,04,PMTRSHOR00087406,06,PMTRSHOR00087407,08,PMTRSHOR00087408,10,PMTRSHOR00087409,12,PMTRSHOR00087410,12M,PMTRSHOR00087411,14,PMTRSHOR00087412,16,PMTRSHOR00087413,18M,PMTRSHOR00087414,24M,PMTRSHOR00087415;799.00;;;;;;;;zerotype;;;;No
1930032;131246515290 5000-Blue-1930032;SS SHEPHERD SHO 5000;Draft;Shorts;Palm Tree;Kids-Boys;Boys;Blue;;;;;;02,PMTRSHOR00087394,04,PMTRSHOR00087395,06,PMTRSHOR00087396,08,PMTRSHOR00087397,10,PMTRSHOR00087398,12,PMTRSHOR00087399,12M,PMTRSHOR00087400,14,PMTRSHOR00087401,16,PMTRSHOR00087402,18M,PMTRSHOR00087403,24M,PMTRSHOR00087404;799.00;;;;;;;;zerotype;;;;No
1930031;131246515281 C454-Red-1930031;CR JASON BRM C454;Draft;Shorts;Palm Tree;Kids-Boys;Boys;Red;;;;;;02,PMTRSHOR00087383,04,PMTRSHOR00087384,06,PMTRSHOR00087385,08,PMTRSHOR00087386,10,PMTRSHOR00087387,12,PMTRSHOR00087388,12M,PMTRSHOR00087389,14,PMTRSHOR00087390,16,PMTRSHOR00087391,18M,PMTRSHOR00087392,24M,PMTRSHOR00087393;999.00;;;;;;;;zerotype;;;;No
1930030;131246515281 C152-Brown-1930030;CR JASON BRM C152;Draft;Shorts;Palm Tree;Kids-Boys;Boys;Brown;;;;;;02,PMTRSHOR00087372,04,PMTRSHOR00087373,06,PMTRSHOR00087374,08,PMTRSHOR00087375,10,PMTRSHOR00087376,12,PMTRSHOR00087377,12M,PMTRSHOR00087378,14,PMTRSHOR00087379,16,PMTRSHOR00087380,18M,PMTRSHOR00087381,24M,PMTRSHOR00087382;999.00;;;;;;;;zerotype;;;;No
1930029;131246515280 6000-Blue-1930029;CR TAYLOR BRM 6000;Draft;Shorts;Palm Tree;Kids-Boys;Boys;Blue;;;;;;02,PMTRSHOR00087361,04,PMTRSHOR00087362,06,PMTRSHOR00087363,08,PMTRSHOR00087364,10,PMTRSHOR00087365,12,PMTRSHOR00087366,12M,PMTRSHOR00087367,14,PMTRSHOR00087368,16,PMTRSHOR00087369,18M,PMTRSHOR00087370,24M,PMTRSHOR00087371;1099.00;;;;;;;;zerotype;;;;No
1930028;131246515280 5000-Blue-1930028;CR TAYLOR BRM 5000;Draft;Shorts;Palm Tree;Kids-Boys;Boys;Blue;;;;;;02,PMTRSHOR00087350,04,PMTRSHOR00087351,06,PMTRSHOR00087352,08,PMTRSHOR00087353,10,PMTRSHOR00087354,12,PMTRSHOR00087355,12M,PMTRSHOR00087356,14,PMTRSHOR00087357,16,PMTRSHOR00087358,18M,PMTRSHOR00087359,24M,PMTRSHOR00087360;1099.00;;;;;;;;zerotype;;;;No
1930027;131246515279 C313-Yellow-1930027;CR BELL BRM C313;Draft;Shorts;Palm Tree;Kids-Boys;Boys;Yellow;;;;;;02,PMTRSHOR00087339,04,PMTRSHOR00087340,06,PMTRSHOR00087341,08,PMTRSHOR00087342,10,PMTRSHOR00087343,12,PMTRSHOR00087344,12M,PMTRSHOR00087345,14,PMTRSHOR00087346,16,PMTRSHOR00087347,18M,PMTRSHOR00087348,24M,PMTRSHOR00087349;599.00;;;;;;;;zerotype;;;;No
1930026;131246515278 C654-Blue-1930026;IN IVAR BRM C654;Draft;Shorts;Palm Tree;Kids-Boys;Boys;Blue;;;;;;02,PMTRSHOR00087328,04,PMTRSHOR00087329,06,PMTRSHOR00087330,08,PMTRSHOR00087331,10,PMTRSHOR00087332,12,PMTRSHOR00087333,12M,PMTRSHOR00087334,14,PMTRSHOR00087335,16,PMTRSHOR00087336,18M,PMTRSHOR00087337,24M,PMTRSHOR00087338;999.00;;;;;;;;zerotype;;;;No
1930025;131246515278 C203-Grey-1930025;IN IVAR BRM C203;Draft;Shorts;Palm Tree;Kids-Boys;Boys;Grey;;;;;;02,PMTRSHOR00087317,04,PMTRSHOR00087318,06,PMTRSHOR00087319,08,PMTRSHOR00087320,10,PMTRSHOR00087321,12,PMTRSHOR00087322,12M,PMTRSHOR00087323,14,PMTRSHOR00087324,16,PMTRSHOR00087325,18M,PMTRSHOR00087326,24M,PMTRSHOR00087327;999.00;;;;;;;;zerotype;;;;No
1930024;131246515277 C309-Yellow-1930024;SS SILVER BRM C309;Draft;Shorts;Palm Tree;Kids-Boys;Boys;Yellow;;;;;;02,PMTRSHOR00087306,04,PMTRSHOR00087307,06,PMTRSHOR00087308,08,PMTRSHOR00087309,10,PMTRSHOR00087310,12,PMTRSHOR00087311,12M,PMTRSHOR00087312,14,PMTRSHOR00087313,16,PMTRSHOR00087314,18M,PMTRSHOR00087315,24M,PMTRSHOR00087316;799.00;;;;;;;;zerotype;;;;No
1930023;131246515276 C101-Grey-1930023;CR BUTLER BRM C101;Draft;Shorts;Palm Tree;Kids-Boys;Boys;Grey;;;;;;02,PMTRSHOR00087295,04,PMTRSHOR00087296,06,PMTRSHOR00087297,08,PMTRSHOR00087298,10,PMTRSHOR00087299,12,PMTRSHOR00087300,12M,PMTRSHOR00087301,14,PMTRSHOR00087302,16,PMTRSHOR00087303,18M,PMTRSHOR00087304,24M,PMTRSHOR00087305;799.00;;;;;;;;zerotype;;;;No
1930022;131246515273 5000-Blue-1930022;SS SEWELL BRM 5000;Draft;Shorts;Palm Tree;Kids-Boys;Boys;Blue;;;;;;02,PMTRSHOR00087284,04,PMTRSHOR00087285,06,PMTRSHOR00087286,08,PMTRSHOR00087287,10,PMTRSHOR00087288,12,PMTRSHOR00087289,12M,PMTRSHOR00087290,14,PMTRSHOR00087291,16,PMTRSHOR00087292,18M,PMTRSHOR00087293,24M,PMTRSHOR00087294;1099.00;;;;;;;;zerotype;;;;No
1930021;131246515272 6000-Blue-1930021;IN ISAAC BRM 6000;Draft;Shorts;Palm Tree;Kids-Boys;Boys;Blue;;;;;;02,PMTRSHOR00087273,04,PMTRSHOR00087274,06,PMTRSHOR00087275,08,PMTRSHOR00087276,10,PMTRSHOR00087277,12,PMTRSHOR00087278,12M,PMTRSHOR00087279,14,PMTRSHOR00087280,16,PMTRSHOR00087281,18M,PMTRSHOR00087282,24M,PMTRSHOR00087283;1199.00;;;;;;;;zerotype;;;;No
1930020;131246515272 5000-Blue-1930020;IN ISAAC BRM 5000;Draft;Shorts;Palm Tree;Kids-Boys;Boys;Blue;;;;;;02,PMTRSHOR00087262,04,PMTRSHOR00087263,06,PMTRSHOR00087264,08,PMTRSHOR00087265,10,PMTRSHOR00087266,12,PMTRSHOR00087267,12M,PMTRSHOR00087268,14,PMTRSHOR00087269,16,PMTRSHOR00087270,18M,PMTRSHOR00087271,24M,PMTRSHOR00087272;1199.00;;;;;;;;zerotype;;;;No
1930019;131246515271 6000-Blue-1930019;CR ANDERSON BRM 6000;Draft;Shorts;Palm Tree;Kids-Boys;Boys;Blue;;;;;;02,PMTRSHOR00087251,04,PMTRSHOR00087252,06,PMTRSHOR00087253,08,PMTRSHOR00087254,10,PMTRSHOR00087255,12,PMTRSHOR00087256,12M,PMTRSHOR00087257,14,PMTRSHOR00087258,16,PMTRSHOR00087259,18M,PMTRSHOR00087260,24M,PMTRSHOR00087261;1199.00;;;;;;;;zerotype;;;;No
1930018;131246515271 4000-Black-1930018;CR ANDERSON BRM 4000;Draft;Shorts;Palm Tree;Kids-Boys;Boys;Black;;;;;;02,PMTRSHOR00087240,04,PMTRSHOR00087241,06,PMTRSHOR00087242,08,PMTRSHOR00087243,10,PMTRSHOR00087244,12,PMTRSHOR00087245,12M,PMTRSHOR00087246,14,PMTRSHOR00087247,16,PMTRSHOR00087248,18M,PMTRSHOR00087249,24M,PMTRSHOR00087250;1199.00;;;;;;;;zerotype;;;;No
1930007;131246515270 6000-Blue-1930007;CR ROOT BRM 6000;Draft;Shorts;Palm Tree;Kids-Boys;Boys;Blue;;;;;;02,PMTRSHOR00087229,04,PMTRSHOR00087230,06,PMTRSHOR00087231,08,PMTRSHOR00087232,10,PMTRSHOR00087233,12,PMTRSHOR00087234,12M,PMTRSHOR00087235,14,PMTRSHOR00087236,16,PMTRSHOR00087237,18M,PMTRSHOR00087238,24M,PMTRSHOR00087239;1099.00;;;;;;;;zerotype;;;;No
1930003;131246515270 5000-Blue-1930003;CR ROOT BRM 5000;Draft;Shorts;Palm Tree;Kids-Boys;Boys;Blue;;;;;;02,PMTRSHOR00087218,04,PMTRSHOR00087219,06,PMTRSHOR00087220,08,PMTRSHOR00087221,10,PMTRSHOR00087222,12,PMTRSHOR00087223,12M,PMTRSHOR00087224,14,PMTRSHOR00087225,16,PMTRSHOR00087226,18M,PMTRSHOR00087227,24M,PMTRSHOR00087228;1099.00;;;;;;;;zerotype;;;;No
1930002;131246515808 C207-Black-1930002;CR CURD TRS C207;Draft;Trousers;Palm Tree;Kids-Boys;Boys;Black;;;Fashion;;2017;34,PMTRTRSR00074316,36,PMTRTRSR00074317,38,PMTRTRSR00074318,40,PMTRTRSR00074319;1499.00;;;;;;;;zerotype;;Summer;;No
1930001;131246515808 C207-Black-1930001;CR CURD TRS C207;Draft;Trousers;Palm Tree;Kids-Boys;Boys;Black;;;Fashion;;2017;24,PMTRTRSR00074311,26,PMTRTRSR00074312,28,PMTRTRSR00074313,30,PMTRTRSR00074314,32,PMTRTRSR00074315;1299.00;;;;;;;;zerotype;;Summer;;No
1930000;131246515808 C207-Black-1930000;CR CURD TRS C207;Draft;Trousers;Palm Tree;Kids-Boys;Boys;Black;;;Fashion;;2017;18,PMTRTRSR00074308,20,PMTRTRSR00074309,22,PMTRTRSR00074310;1099.00;;;;;;;;zerotype;;Summer;;No
1929999;131246515808 C151-Brown-1929999;CR CURD TRS C151;Draft;Trousers;Palm Tree;Kids-Boys;Boys;Brown;;;Fashion;;2017;34,PMTRTRSR00074304,36,PMTRTRSR00074305,38,PMTRTRSR00074306,40,PMTRTRSR00074307;1499.00;;;;;;;;zerotype;;Summer;;No
1929998;131246515808 C151-Brown-1929998;CR CURD TRS C151;Draft;Trousers;Palm Tree;Kids-Boys;Boys;Brown;;;Fashion;;2017;24,PMTRTRSR00074299,26,PMTRTRSR00074300,28,PMTRTRSR00074301,30,PMTRTRSR00074302,32,PMTRTRSR00074303;1299.00;;;;;;;;zerotype;;Summer;;No
1929997;131246515808 C151-Brown-1929997;CR CURD TRS C151;Draft;Trousers;Palm Tree;Kids-Boys;Boys;Brown;;;Fashion;;2017;18,PMTRTRSR00074296,20,PMTRTRSR00074297,22,PMTRTRSR00074298;1099.00;;;;;;;;zerotype;;Summer;;No
1929996;131246515787 5000-Blue-1929996;UP MARTI PDL 5000;Draft;Trousers;Palm Tree;Kids-Girls;Girls;Blue;;;Fashion;;2017;10,PMTRTRSR00074292,12,PMTRTRSR00074293,14,PMTRTRSR00074294,16,PMTRTRSR00074295;1099.00;;;;;;;;zerotype;;Summer;;No
1929995;131246515787 5000-Blue-1929995;UP MARTI PDL 5000;Draft;Trousers;Palm Tree;Kids-Girls;Girls;Blue;;;Fashion;;2017;02,PMTRTRSR00074288,04,PMTRTRSR00074289,06,PMTRTRSR00074290,08,PMTRTRSR00074291;999.00;;;;;;;;zerotype;;Summer;;No
1929994;131246515787 5000-Blue-1929994;UP MARTI PDL 5000;Draft;Trousers;Palm Tree;Kids-Girls;Girls;Blue;;;Fashion;;2017;12M,PMTRTRSR00074285,18M,PMTRTRSR00074286,24M,PMTRTRSR00074287;899.00;;;;;;;;zerotype;;Summer;;No
1929993;131246515359 C656-Blue-1929993;SR ROESIA PALLAZO C656;Draft;Trousers;Palm Tree;Kids-Girls;Girls;Blue;;;Fashion;;2017;34,PMTRTRSR00074281,36,PMTRTRSR00074282,38,PMTRTRSR00074283,40,PMTRTRSR00074284;899.00;;;;;;;;zerotype;;Summer;;No
1929992;131246515359 C656-Blue-1929992;SR ROESIA PALLAZO C656;Draft;Trousers;Palm Tree;Kids-Girls;Girls;Blue;;;Fashion;;2017;24,PMTRTRSR00074276,26,PMTRTRSR00074277,28,PMTRTRSR00074278,30,PMTRTRSR00074279,32,PMTRTRSR00074280;799.00;;;;;;;;zerotype;;Summer;;No
1929991;131246515359 C656-Blue-1929991;SR ROESIA PALLAZO C656;Draft;Trousers;Palm Tree;Kids-Girls;Girls;Blue;;;Fashion;;2017;18,PMTRTRSR00074273,20,PMTRTRSR00074274,22,PMTRTRSR00074275;699.00;;;;;;;;zerotype;;Summer;;No
1929990;131246515343 5000-Blue-1929990;CB CAROL PDL 5000;Draft;Trousers;Palm Tree;Kids-Girls;Girls;Blue;;;Fashion;;2017;10,PMTRTRSR00074269,12,PMTRTRSR00074270,14,PMTRTRSR00074271,16,PMTRTRSR00074272;1099.00;;;;;;;;zerotype;;Summer;;No
1929989;131246515343 5000-Blue-1929989;CB CAROL PDL 5000;Draft;Trousers;Palm Tree;Kids-Girls;Girls;Blue;;;Fashion;;2017;02,PMTRTRSR00074265,04,PMTRTRSR00074266,06,PMTRTRSR00074267,08,PMTRTRSR00074268;999.00;;;;;;;;zerotype;;Summer;;No
1929988;131246515343 5000-Blue-1929988;CB CAROL PDL 5000;Draft;Trousers;Palm Tree;Kids-Girls;Girls;Blue;;;Fashion;;2017;12M,PMTRTRSR00074262,18M,PMTRTRSR00074263,24M,PMTRTRSR00074264;899.00;;;;;;;;zerotype;;Summer;;No
1929987;131246515342 C656-Blue-1929987;SR ROSELLE PDL C656;Draft;Trousers;Palm Tree;Kids-Girls;Girls;Blue;;;Fashion;;2017;10,PMTRTRSR00074258,12,PMTRTRSR00074259,14,PMTRTRSR00074260,16,PMTRTRSR00074261;899.00;;;;;;;;zerotype;;Summer;;No
1929986;131246515342 C656-Blue-1929986;SR ROSELLE PDL C656;Draft;Trousers;Palm Tree;Kids-Girls;Girls;Blue;;;Fashion;;2017;02,PMTRTRSR00074254,04,PMTRTRSR00074255,06,PMTRTRSR00074256,08,PMTRTRSR00074257;799.00;;;;;;;;zerotype;;Summer;;No
1929985;131246515342 C656-Blue-1929985;SR ROSELLE PDL C656;Draft;Trousers;Palm Tree;Kids-Girls;Girls;Blue;;;Fashion;;2017;12M,PMTRTRSR00074251,18M,PMTRTRSR00074252,24M,PMTRTRSR00074253;699.00;;;;;;;;zerotype;;Summer;;No
1929984;131246515296 C209-Grey-1929984;CR OSWALD TRS C209;Draft;Trousers;Palm Tree;Kids-Boys;Boys;Grey;;;Fashion;;2017;34,PMTRTRSR00074247,36,PMTRTRSR00074248,38,PMTRTRSR00074249,40,PMTRTRSR00074250;1199.00;;;;;;;;zerotype;;Summer;;No
1929983;131246515296 C209-Grey-1929983;CR OSWALD TRS C209;Draft;Trousers;Palm Tree;Kids-Boys;Boys;Grey;;;Fashion;;2017;24,PMTRTRSR00074242,26,PMTRTRSR00074243,28,PMTRTRSR00074244,30,PMTRTRSR00074245,32,PMTRTRSR00074246;1099.00;;;;;;;;zerotype;;Summer;;No
1929982;131246515296 C209-Grey-1929982;CR OSWALD TRS C209;Draft;Trousers;Palm Tree;Kids-Boys;Boys;Grey;;;Fashion;;2017;18,PMTRTRSR00074239,20,PMTRTRSR00074240,22,PMTRTRSR00074241;999.00;;;;;;;;zerotype;;Summer;;No
1929981;131246515293 C158-Brown-1929981;SS SOME TRS C158;Draft;Trousers;Palm Tree;Kids-Boys;Boys;Brown;;;Fashion;;2017;34,PMTRTRSR00074235,36,PMTRTRSR00074236,38,PMTRTRSR00074237,40,PMTRTRSR00074238;1199.00;;;;;;;;zerotype;;Summer;;No
1929980;131246515293 C158-Brown-1929980;SS SOME TRS C158;Draft;Trousers;Palm Tree;Kids-Boys;Boys;Brown;;;Fashion;;2017;24,PMTRTRSR00074230,26,PMTRTRSR00074231,28,PMTRTRSR00074232,30,PMTRTRSR00074233,32,PMTRTRSR00074234;1099.00;;;;;;;;zerotype;;Summer;;No
1929979;131246515293 C158-Brown-1929979;SS SOME TRS C158;Draft;Trousers;Palm Tree;Kids-Boys;Boys;Brown;;;Fashion;;2017;18,PMTRTRSR00074227,20,PMTRTRSR00074228,22,PMTRTRSR00074229;999.00;;;;;;;;zerotype;;Summer;;No
1929978;131246515340 C407-Peach-1929978;SR ROSLYN LEG C407;Draft;Leggings;Palm Tree;Kids-Girls;Girls;Peach;;;Fashion;Casual;2017;EL,PMTRLEGG00000033,L,PMTRLEGG00000034,XL,PMTRLEGG00000035;449.00;;;;;;;;zerotype;;Summer;;No
1929977;131246515340 C407-Peach-1929977;SR ROSLYN LEG C407;Draft;Leggings;Palm Tree;Kids-Girls;Girls;Peach;;;Fashion;Casual;2017;M,PMTRLEGG00000031,S,PMTRLEGG00000032;399.00;;;;;;;;zerotype;;Summer;;No
1929976;131246515340 C407-Peach-1929976;SR ROSLYN LEG C407;Draft;Leggings;Palm Tree;Kids-Girls;Girls;Peach;;;Fashion;Casual;2017;XS,PMTRLEGG00000030;349.00;;;;;;;;zerotype;;Summer;;No
1929975;131246515757 7000-Blue-1929975;CR HORN JNS 7000;Draft;Jeans;Palm Tree;Kids-Boys;Boys;Blue;;;Fashion;;2017;34,PMTRJENS00001007,36,PMTRJENS00001008,38,PMTRJENS00001009,40,PMTRJENS00001010;1499.00;;;;;;;;zerotype;;Summer;;No
1929974;131246515757 7000-Blue-1929974;CR HORN JNS 7000;Draft;Jeans;Palm Tree;Kids-Boys;Boys;Blue;;;Fashion;;2017;24,PMTRJENS00001002,26,PMTRJENS00001003,28,PMTRJENS00001004,30,PMTRJENS00001005,32,PMTRJENS00001006;1299.00;;;;;;;;zerotype;;Summer;;No
1929973;131246515757 7000-Blue-1929973;CR HORN JNS 7000;Draft;Jeans;Palm Tree;Kids-Boys;Boys;Blue;;;Fashion;;2017;18,PMTRJENS00000999,20,PMTRJENS00001000,22,PMTRJENS00001001;1099.00;;;;;;;;zerotype;;Summer;;No
1929972;131246515754 5000-Blue-1929972;CR HIDE JNS 5000;Draft;Jeans;Palm Tree;Kids-Boys;Boys;Blue;;;Fashion;;2017;34,PMTRJENS00000995,36,PMTRJENS00000996,38,PMTRJENS00000997,40,PMTRJENS00000998;1499.00;;;;;;;;zerotype;;Summer;;No
1929971;131246515754 5000-Blue-1929971;CR HIDE JNS 5000;Draft;Jeans;Palm Tree;Kids-Boys;Boys;Blue;;;Fashion;;2017;24,PMTRJENS00000990,26,PMTRJENS00000991,28,PMTRJENS00000992,30,PMTRJENS00000993,32,PMTRJENS00000994;1299.00;;;;;;;;zerotype;;Summer;;No
1929970;131246515754 5000-Blue-1929970;CR HIDE JNS 5000;Draft;Jeans;Palm Tree;Kids-Boys;Boys;Blue;;;Fashion;;2017;18,PMTRJENS00000987,20,PMTRJENS00000988,22,PMTRJENS00000989;1099.00;;;;;;;;zerotype;;Summer;;No
1929969;131246515338 4000-Black-1929969;US HEATHER JNS 4000;Draft;Jeans;Palm Tree;Kids-Girls;Girls;Black;;;Fashion;;2017;34,PMTRJENS00000983,36,PMTRJENS00000984,38,PMTRJENS00000985,40,PMTRJENS00000986;1599.00;;;;;;;;zerotype;;Summer;;No
1929968;131246515338 4000-Black-1929968;US HEATHER JNS 4000;Draft;Jeans;Palm Tree;Kids-Girls;Girls;Black;;;Fashion;;2017;24,PMTRJENS00000978,26,PMTRJENS00000979,28,PMTRJENS00000980,30,PMTRJENS00000981,32,PMTRJENS00000982;1399.00;;;;;;;;zerotype;;Summer;;No
1929967;131246515338 4000-Black-1929967;US HEATHER JNS 4000;Draft;Jeans;Palm Tree;Kids-Girls;Girls;Black;;;Fashion;;2017;18,PMTRJENS00000975,20,PMTRJENS00000976,22,PMTRJENS00000977;1199.00;;;;;;;;zerotype;;Summer;;No
1929966;131246515289 6000-Blue-1929966;CR JORDAN JNS 6000;Draft;Jeans;Palm Tree;Kids-Boys;Boys;Blue;;;Fashion;;2017;34,PMTRJENS00000971,36,PMTRJENS00000972,38,PMTRJENS00000973,40,PMTRJENS00000974;1599.00;;;;;;;;zerotype;;Summer;;No
1929965;131246515289 6000-Blue-1929965;CR JORDAN JNS 6000;Draft;Jeans;Palm Tree;Kids-Boys;Boys;Blue;;;Fashion;;2017;24,PMTRJENS00000966,26,PMTRJENS00000967,28,PMTRJENS00000968,30,PMTRJENS00000969,32,PMTRJENS00000970;1399.00;;;;;;;;zerotype;;Summer;;No
1929964;131246515289 6000-Blue-1929964;CR JORDAN JNS 6000;Draft;Jeans;Palm Tree;Kids-Boys;Boys;Blue;;;Fashion;;2017;18,PMTRJENS00000963,20,PMTRJENS00000964,22,PMTRJENS00000965;1199.00;;;;;;;;zerotype;;Summer;;No
1929963;131246515289 4000-Black-1929963;CR JORDAN JNS 4000;Draft;Jeans;Palm Tree;Kids-Boys;Boys;Black;;;Fashion;;2017;34,PMTRJENS00000959,36,PMTRJENS00000960,38,PMTRJENS00000961,40,PMTRJENS00000962;1599.00;;;;;;;;zerotype;;Summer;;No
1929962;131246515289 4000-Black-1929962;CR JORDAN JNS 4000;Draft;Jeans;Palm Tree;Kids-Boys;Boys;Black;;;Fashion;;2017;24,PMTRJENS00000954,26,PMTRJENS00000955,28,PMTRJENS00000956,30,PMTRJENS00000957,32,PMTRJENS00000958;1399.00;;;;;;;;zerotype;;Summer;;No
1929961;131246515289 4000-Black-1929961;CR JORDAN JNS 4000;Draft;Jeans;Palm Tree;Kids-Boys;Boys;Black;;;Fashion;;2017;18,PMTRJENS00000951,20,PMTRJENS00000952,22,PMTRJENS00000953;1199.00;;;;;;;;zerotype;;Summer;;No
1929960;131246515288 6000-Blue-1929960;SS SHENG JNS 6000;Draft;Jeans;Palm Tree;Kids-Boys;Boys;Blue;;;Fashion;;2017;34,PMTRJENS00000947,36,PMTRJENS00000948,38,PMTRJENS00000949,40,PMTRJENS00000950;1199.00;;;;;;;;zerotype;;Summer;;No
1929959;131246515288 6000-Blue-1929959;SS SHENG JNS 6000;Draft;Jeans;Palm Tree;Kids-Boys;Boys;Blue;;;Fashion;;2017;24,PMTRJENS00000942,26,PMTRJENS00000943,28,PMTRJENS00000944,30,PMTRJENS00000945,32,PMTRJENS00000946;1099.00;;;;;;;;zerotype;;Summer;;No
1929958;131246515288 6000-Blue-1929958;SS SHENG JNS 6000;Draft;Jeans;Palm Tree;Kids-Boys;Boys;Blue;;;Fashion;;2017;18,PMTRJENS00000939,20,PMTRJENS00000940,22,PMTRJENS00000941;999.00;;;;;;;;zerotype;;Summer;;No
1929957;131246515285 5000-Blue-1929957;IN IWAN JNS 5000;Draft;Jeans;Palm Tree;Kids-Boys;Boys;Blue;;;Fashion;;2017;34,PMTRJENS00000935,36,PMTRJENS00000936,38,PMTRJENS00000937,40,PMTRJENS00000938;1599.00;;;;;;;;zerotype;;Summer;;No
1929956;131246515285 5000-Blue-1929956;IN IWAN JNS 5000;Draft;Jeans;Palm Tree;Kids-Boys;Boys;Blue;;;Fashion;;2017;24,PMTRJENS00000930,26,PMTRJENS00000931,28,PMTRJENS00000932,30,PMTRJENS00000933,32,PMTRJENS00000934;1399.00;;;;;;;;zerotype;;Summer;;No
1929955;131246515285 5000-Blue-1929955;IN IWAN JNS 5000;Draft;Jeans;Palm Tree;Kids-Boys;Boys;Blue;;;Fashion;;2017;18,PMTRJENS00000927,20,PMTRJENS00000928,22,PMTRJENS00000929;1199.00;;;;;;;;zerotype;;Summer;;No
1929954;131246515284 5000-Blue-1929954;CR JOHN JNS 5000;Draft;Jeans;Palm Tree;Kids-Boys;Boys;Blue;;;Fashion;;2017;34,PMTRJENS00000923,36,PMTRJENS00000924,38,PMTRJENS00000925,40,PMTRJENS00000926;999.00;;;;;;;;zerotype;;Summer;;No
1929953;131246515284 5000-Blue-1929953;CR JOHN JNS 5000;Draft;Jeans;Palm Tree;Kids-Boys;Boys;Blue;;;Fashion;;2017;24,PMTRJENS00000918,26,PMTRJENS00000919,28,PMTRJENS00000920,30,PMTRJENS00000921,32,PMTRJENS00000922;899.00;;;;;;;;zerotype;;Summer;;No
1929952;131246515284 5000-Blue-1929952;CR JOHN JNS 5000;Draft;Jeans;Palm Tree;Kids-Boys;Boys;Blue;;;Fashion;;2017;18,PMTRJENS00000915,20,PMTRJENS00000916,22,PMTRJENS00000917;799.00;;;;;;;;zerotype;;Summer;;No
1929951;131246515292 C656-Blue-1929951;CR ORTON TRC C656;Draft;Track Pants;Palm Tree;Kids-Boys;Boys;Blue;;;Fashion;;2017;34,PMTRTRPT00000042,36,PMTRTRPT00000043,38,PMTRTRPT00000044,40,PMTRTRPT00000045;749.00;;;;;;;;zerotype;;Summer;;No
1929950;131246515292 C656-Blue-1929950;CR ORTON TRC C656;Draft;Track Pants;Palm Tree;Kids-Boys;Boys;Blue;;;Fashion;;2017;24,PMTRTRPT00000037,26,PMTRTRPT00000038,28,PMTRTRPT00000039,30,PMTRTRPT00000040,32,PMTRTRPT00000041;649.00;;;;;;;;zerotype;;Summer;;No
1929949;131246515292 C656-Blue-1929949;CR ORTON TRC C656;Draft;Track Pants;Palm Tree;Kids-Boys;Boys;Blue;;;Fashion;;2017;18,PMTRTRPT00000034,20,PMTRTRPT00000035,22,PMTRTRPT00000036;549.00;;;;;;;;zerotype;;Summer;;No
1929948;131246515292 C205-Grey-1929948;CR ORTON TRC C205;Draft;Track Pants;Palm Tree;Kids-Boys;Boys;Grey;;;Fashion;;2017;34,PMTRTRPT00000030,36,PMTRTRPT00000031,38,PMTRTRPT00000032,40,PMTRTRPT00000033;749.00;;;;;;;;zerotype;;Summer;;No
1929947;131246515292 C205-Grey-1929947;CR ORTON TRC C205;Draft;Track Pants;Palm Tree;Kids-Boys;Boys;Grey;;;Fashion;;2017;24,PMTRTRPT00000025,26,PMTRTRPT00000026,28,PMTRTRPT00000027,30,PMTRTRPT00000028,32,PMTRTRPT00000029;649.00;;;;;;;;zerotype;;Summer;;No
1929946;131246515292 C205-Grey-1929946;CR ORTON TRC C205;Draft;Track Pants;Palm Tree;Kids-Boys;Boys;Grey;;;Fashion;;2017;18,PMTRTRPT00000022,20,PMTRTRPT00000023,22,PMTRTRPT00000024;549.00;;;;;;;;zerotype;;Summer;;No
1929945;131246515908 C207-Black-1929945;CR ADRIC SHI C207;Draft;Shirts;Palm Tree;Kids-Boys;Boys;Black;;;Fashion;;2017;10,PMTRSHRT00001228,12,PMTRSHRT00001229,14,PMTRSHRT00001230,16,PMTRSHRT00001231;1199.00;;;;;;;;zerotype;;Summer;;No
1929944;131246515908 C207-Black-1929944;CR ADRIC SHI C207;Draft;Shirts;Palm Tree;Kids-Boys;Boys;Black;;;Fashion;;2017;02,PMTRSHRT00001224,04,PMTRSHRT00001225,06,PMTRSHRT00001226,08,PMTRSHRT00001227;1099.00;;;;;;;;zerotype;;Summer;;No
1929943;131246515908 C207-Black-1929943;CR ADRIC SHI C207;Draft;Shirts;Palm Tree;Kids-Boys;Boys;Black;;;Fashion;;2017;12M,PMTRSHRT00001221,18M,PMTRSHRT00001222,24M,PMTRSHRT00001223;999.00;;;;;;;;zerotype;;Summer;;No
1929942;131246515906 C610-Blue-1929942;CR ARRON SHI C610;Draft;Shirts;Palm Tree;Kids-Boys;Boys;Blue;;;Fashion;;2017;10,PMTRSHRT00001217,12,PMTRSHRT00001218,14,PMTRSHRT00001219,16,PMTRSHRT00001220;999.00;;;;;;;;zerotype;;Summer;;No
1929941;131246515906 C610-Blue-1929941;CR ARRON SHI C610;Draft;Shirts;Palm Tree;Kids-Boys;Boys;Blue;;;Fashion;;2017;02,PMTRSHRT00001213,04,PMTRSHRT00001214,06,PMTRSHRT00001215,08,PMTRSHRT00001216;899.00;;;;;;;;zerotype;;Summer;;No
1929940;131246515906 C610-Blue-1929940;CR ARRON SHI C610;Draft;Shirts;Palm Tree;Kids-Boys;Boys;Blue;;;Fashion;;2017;12M,PMTRSHRT00001210,18M,PMTRSHRT00001211,24M,PMTRSHRT00001212;799.00;;;;;;;;zerotype;;Summer;;No
1929939;131246515905 C654-Blue-1929939;CR ARIC SHI C654;Draft;Shirts;Palm Tree;Kids-Boys;Boys;Blue;;;Fashion;;2017;10,PMTRSHRT00001206,12,PMTRSHRT00001207,14,PMTRSHRT00001208,16,PMTRSHRT00001209;1199.00;;;;;;;;zerotype;;Summer;;No
1929938;131246515905 C654-Blue-1929938;CR ARIC SHI C654;Draft;Shirts;Palm Tree;Kids-Boys;Boys;Blue;;;Fashion;;2017;02,PMTRSHRT00001202,04,PMTRSHRT00001203,06,PMTRSHRT00001204,08,PMTRSHRT00001205;1099.00;;;;;;;;zerotype;;Summer;;No
1929937;131246515905 C654-Blue-1929937;CR ARIC SHI C654;Draft;Shirts;Palm Tree;Kids-Boys;Boys;Blue;;;Fashion;;2017;12M,PMTRSHRT00001199,18M,PMTRSHRT00001200,24M,PMTRSHRT00001201;999.00;;;;;;;;zerotype;;Summer;;No
1929936;131246515900 C610-Blue-1929936;CR ADLO SHI C610;Draft;Shirts;Palm Tree;Kids-Boys;Boys;Blue;;;Fashion;;2017;10,PMTRSHRT00001195,12,PMTRSHRT00001196,14,PMTRSHRT00001197,16,PMTRSHRT00001198;1199.00;;;;;;;;zerotype;;Summer;;No
1929935;131246515900 C610-Blue-1929935;CR ADLO SHI C610;Draft;Shirts;Palm Tree;Kids-Boys;Boys;Blue;;;Fashion;;2017;02,PMTRSHRT00001191,04,PMTRSHRT00001192,06,PMTRSHRT00001193,08,PMTRSHRT00001194;1099.00;;;;;;;;zerotype;;Summer;;No
1929934;131246515900 C610-Blue-1929934;CR ADLO SHI C610;Draft;Shirts;Palm Tree;Kids-Boys;Boys;Blue;;;Fashion;;2017;12M,PMTRSHRT00001188,18M,PMTRSHRT00001189,24M,PMTRSHRT00001190;999.00;;;;;;;;zerotype;;Summer;;No
1929933;131246515900 C305-Yellow-1929933;CR ADLO SHI C305;Draft;Shirts;Palm Tree;Kids-Boys;Boys;Yellow;;;Fashion;;2017;10,PMTRSHRT00001184,12,PMTRSHRT00001185,14,PMTRSHRT00001186,16,PMTRSHRT00001187;1199.00;;;;;;;;zerotype;;Summer;;No
1929932;131246515900 C305-Yellow-1929932;CR ADLO SHI C305;Draft;Shirts;Palm Tree;Kids-Boys;Boys;Yellow;;;Fashion;;2017;02,PMTRSHRT00001180,04,PMTRSHRT00001181,06,PMTRSHRT00001182,08,PMTRSHRT00001183;1099.00;;;;;;;;zerotype;;Summer;;No
1929931;131246515900 C305-Yellow-1929931;CR ADLO SHI C305;Draft;Shirts;Palm Tree;Kids-Boys;Boys;Yellow;;;Fashion;;2017;12M,PMTRSHRT00001177,18M,PMTRSHRT00001178,24M,PMTRSHRT00001179;999.00;;;;;;;;zerotype;;Summer;;No
1929930;131246515727 C656-Blue-1929930;CR JOICE SHI C656;Draft;Shirts;Palm Tree;Kids-Boys;Boys;Blue;;;Fashion;;2017;10,PMTRSHRT00001173,12,PMTRSHRT00001174,14,PMTRSHRT00001175,16,PMTRSHRT00001176;1199.00;;;;;;;;zerotype;;Summer;;No
1929929;131246515727 C656-Blue-1929929;CR JOICE SHI C656;Draft;Shirts;Palm Tree;Kids-Boys;Boys;Blue;;;Fashion;;2017;02,PMTRSHRT00001169,04,PMTRSHRT00001170,06,PMTRSHRT00001171,08,PMTRSHRT00001172;1099.00;;;;;;;;zerotype;;Summer;;No
1929928;131246515727 C656-Blue-1929928;CR JOICE SHI C656;Draft;Shirts;Palm Tree;Kids-Boys;Boys;Blue;;;Fashion;;2017;12M,PMTRSHRT00001166,18M,PMTRSHRT00001167,24M,PMTRSHRT00001168;999.00;;;;;;;;zerotype;;Summer;;No
1929927;131246515727 C101-Grey-1929927;CR JOICE SHI C101;Draft;Shirts;Palm Tree;Kids-Boys;Boys;Grey;;;Fashion;;2017;10,PMTRSHRT00001162,12,PMTRSHRT00001163,14,PMTRSHRT00001164,16,PMTRSHRT00001165;1199.00;;;;;;;;zerotype;;Summer;;No
1929926;131246515727 C101-Grey-1929926;CR JOICE SHI C101;Draft;Shirts;Palm Tree;Kids-Boys;Boys;Grey;;;Fashion;;2017;02,PMTRSHRT00001158,04,PMTRSHRT00001159,06,PMTRSHRT00001160,08,PMTRSHRT00001161;1099.00;;;;;;;;zerotype;;Summer;;No
1929925;131246515727 C101-Grey-1929925;CR JOICE SHI C101;Draft;Shirts;Palm Tree;Kids-Boys;Boys;Grey;;;Fashion;;2017;12M,PMTRSHRT00001155,18M,PMTRSHRT00001156,24M,PMTRSHRT00001157;999.00;;;;;;;;zerotype;;Summer;;No
1929924;131246515721 C207-Black-1929924;CR JOB SHI C207;Draft;Shirts;Palm Tree;Kids-Boys;Boys;Black;;;Fashion;;2017;10,PMTRSHRT00001151,12,PMTRSHRT00001152,14,PMTRSHRT00001153,16,PMTRSHRT00001154;1199.00;;;;;;;;zerotype;;Summer;;No
1929923;131246515721 C207-Black-1929923;CR JOB SHI C207;Draft;Shirts;Palm Tree;Kids-Boys;Boys;Black;;;Fashion;;2017;02,PMTRSHRT00001147,04,PMTRSHRT00001148,06,PMTRSHRT00001149,08,PMTRSHRT00001150;1099.00;;;;;;;;zerotype;;Summer;;No
1929922;131246515721 C207-Black-1929922;CR JOB SHI C207;Draft;Shirts;Palm Tree;Kids-Boys;Boys;Black;;;Fashion;;2017;12M,PMTRSHRT00001144,18M,PMTRSHRT00001145,24M,PMTRSHRT00001146;999.00;;;;;;;;zerotype;;Summer;;No
1929921;131246515721 C101-Grey-1929921;CR JOB SHI C101;Draft;Shirts;Palm Tree;Kids-Boys;Boys;Grey;;;Fashion;;2017;10,PMTRSHRT00001140,12,PMTRSHRT00001141,14,PMTRSHRT00001142,16,PMTRSHRT00001143;1199.00;;;;;;;;zerotype;;Summer;;No
1929920;131246515721 C101-Grey-1929920;CR JOB SHI C101;Draft;Shirts;Palm Tree;Kids-Boys;Boys;Grey;;;Fashion;;2017;02,PMTRSHRT00001136,04,PMTRSHRT00001137,06,PMTRSHRT00001138,08,PMTRSHRT00001139;1099.00;;;;;;;;zerotype;;Summer;;No
1929919;131246515721 C101-Grey-1929919;CR JOB SHI C101;Draft;Shirts;Palm Tree;Kids-Boys;Boys;Grey;;;Fashion;;2017;12M,PMTRSHRT00001133,18M,PMTRSHRT00001134,24M,PMTRSHRT00001135;999.00;;;;;;;;zerotype;;Summer;;No
1929918;131246515717 C101-Grey-1929918;CC LAKE SHI C101;Draft;Shirts;Palm Tree;Kids-Boys;Boys;Grey;;;Fashion;;2017;10,PMTRSHRT00001129,12,PMTRSHRT00001130,14,PMTRSHRT00001131,16,PMTRSHRT00001132;999.00;;;;;;;;zerotype;;Summer;;No
1929917;131246515717 C101-Grey-1929917;CC LAKE SHI C101;Draft;Shirts;Palm Tree;Kids-Boys;Boys;Grey;;;Fashion;;2017;02,PMTRSHRT00001125,04,PMTRSHRT00001126,06,PMTRSHRT00001127,08,PMTRSHRT00001128;899.00;;;;;;;;zerotype;;Summer;;No
1929916;131246515717 C101-Grey-1929916;CC LAKE SHI C101;Draft;Shirts;Palm Tree;Kids-Boys;Boys;Grey;;;Fashion;;2017;12M,PMTRSHRT00001122,18M,PMTRSHRT00001123,24M,PMTRSHRT00001124;799.00;;;;;;;;zerotype;;Summer;;No
1929915;131246515715 C656-Blue-1929915;CR JACE SHI C656;Draft;Shirts;Palm Tree;Kids-Boys;Boys;Blue;;;Fashion;;2017;10,PMTRSHRT00001118,12,PMTRSHRT00001119,14,PMTRSHRT00001120,16,PMTRSHRT00001121;999.00;;;;;;;;zerotype;;Summer;;No
1929914;131246515715 C656-Blue-1929914;CR JACE SHI C656;Draft;Shirts;Palm Tree;Kids-Boys;Boys;Blue;;;Fashion;;2017;02,PMTRSHRT00001114,04,PMTRSHRT00001115,06,PMTRSHRT00001116,08,PMTRSHRT00001117;899.00;;;;;;;;zerotype;;Summer;;No
1929913;131246515715 C656-Blue-1929913;CR JACE SHI C656;Draft;Shirts;Palm Tree;Kids-Boys;Boys;Blue;;;Fashion;;2017;12M,PMTRSHRT00001111,18M,PMTRSHRT00001112,24M,PMTRSHRT00001113;799.00;;;;;;;;zerotype;;Summer;;No
1929912;131246515715 C101-Grey-1929912;CR JACE SHI C101;Draft;Shirts;Palm Tree;Kids-Boys;Boys;Grey;;;Fashion;;2017;10,PMTRSHRT00001107,12,PMTRSHRT00001108,14,PMTRSHRT00001109,16,PMTRSHRT00001110;999.00;;;;;;;;zerotype;;Summer;;No
1929911;131246515715 C101-Grey-1929911;CR JACE SHI C101;Draft;Shirts;Palm Tree;Kids-Boys;Boys;Grey;;;Fashion;;2017;02,PMTRSHRT00001103,04,PMTRSHRT00001104,06,PMTRSHRT00001105,08,PMTRSHRT00001106;899.00;;;;;;;;zerotype;;Summer;;No
1929910;131246515715 C101-Grey-1929910;CR JACE SHI C101;Draft;Shirts;Palm Tree;Kids-Boys;Boys;Grey;;;Fashion;;2017;12M,PMTRSHRT00001100,18M,PMTRSHRT00001101,24M,PMTRSHRT00001102;799.00;;;;;;;;zerotype;;Summer;;No
1929909;131246515239 C308-Yellow-1929909;SS SAVERIO SHI C308;Draft;Shirts;Palm Tree;Kids-Boys;Boys;Yellow;;;Fashion;;2017;10,PMTRSHRT00001096,12,PMTRSHRT00001097,14,PMTRSHRT00001098,16,PMTRSHRT00001099;1199.00;;;;;;;;zerotype;;Summer;;No
1929908;131246515239 C308-Yellow-1929908;SS SAVERIO SHI C308;Draft;Shirts;Palm Tree;Kids-Boys;Boys;Yellow;;;Fashion;;2017;02,PMTRSHRT00001092,04,PMTRSHRT00001093,06,PMTRSHRT00001094,08,PMTRSHRT00001095;1099.00;;;;;;;;zerotype;;Summer;;No
1929907;131246515239 C308-Yellow-1929907;SS SAVERIO SHI C308;Draft;Shirts;Palm Tree;Kids-Boys;Boys;Yellow;;;Fashion;;2017;12M,PMTRSHRT00001089,18M,PMTRSHRT00001090,24M,PMTRSHRT00001091;999.00;;;;;;;;zerotype;;Summer;;No
1929906;131246515237 C309-Yellow-1929906;SS SAUL SHI C309;Draft;Shirts;Palm Tree;Kids-Boys;Boys;Yellow;;;Fashion;;2017;10,PMTRSHRT00001085,12,PMTRSHRT00001086,14,PMTRSHRT00001087,16,PMTRSHRT00001088;1199.00;;;;;;;;zerotype;;Summer;;No
1929905;131246515237 C309-Yellow-1929905;SS SAUL SHI C309;Draft;Shirts;Palm Tree;Kids-Boys;Boys;Yellow;;;Fashion;;2017;02,PMTRSHRT00001081,04,PMTRSHRT00001082,06,PMTRSHRT00001083,08,PMTRSHRT00001084;1099.00;;;;;;;;zerotype;;Summer;;No
1929904;131246515237 C309-Yellow-1929904;SS SAUL SHI C309;Draft;Shirts;Palm Tree;Kids-Boys;Boys;Yellow;;;Fashion;;2017;12M,PMTRSHRT00001078,18M,PMTRSHRT00001079,24M,PMTRSHRT00001080;999.00;;;;;;;;zerotype;;Summer;;No
1929903;131246515234 C656-Blue-1929903;SS SANTOS SHI C656;Draft;Shirts;Palm Tree;Kids-Boys;Boys;Blue;;;Fashion;;2017;10,PMTRSHRT00001074,12,PMTRSHRT00001075,14,PMTRSHRT00001076,16,PMTRSHRT00001077;1199.00;;;;;;;;zerotype;;Summer;;No
1929902;131246515234 C656-Blue-1929902;SS SANTOS SHI C656;Draft;Shirts;Palm Tree;Kids-Boys;Boys;Blue;;;Fashion;;2017;02,PMTRSHRT00001070,04,PMTRSHRT00001071,06,PMTRSHRT00001072,08,PMTRSHRT00001073;1099.00;;;;;;;;zerotype;;Summer;;No
1929901;131246515234 C656-Blue-1929901;SS SANTOS SHI C656;Draft;Shirts;Palm Tree;Kids-Boys;Boys;Blue;;;Fashion;;2017;12M,PMTRSHRT00001067,18M,PMTRSHRT00001068,24M,PMTRSHRT00001069;999.00;;;;;;;;zerotype;;Summer;;No
1929900;131246515234 C452-Red-1929900;SS SANTOS SHI C452;Draft;Shirts;Palm Tree;Kids-Boys;Boys;Red;;;Fashion;;2017;10,PMTRSHRT00001063,12,PMTRSHRT00001064,14,PMTRSHRT00001065,16,PMTRSHRT00001066;1199.00;;;;;;;;zerotype;;Summer;;No
1929899;131246515234 C452-Red-1929899;SS SANTOS SHI C452;Draft;Shirts;Palm Tree;Kids-Boys;Boys;Red;;;Fashion;;2017;02,PMTRSHRT00001059,04,PMTRSHRT00001060,06,PMTRSHRT00001061,08,PMTRSHRT00001062;1099.00;;;;;;;;zerotype;;Summer;;No
1929898;131246515234 C452-Red-1929898;SS SANTOS SHI C452;Draft;Shirts;Palm Tree;Kids-Boys;Boys;Red;;;Fashion;;2017;12M,PMTRSHRT00001056,18M,PMTRSHRT00001057,24M,PMTRSHRT00001058;999.00;;;;;;;;zerotype;;Summer;;No
1929897;131246515231 C101-Grey-1929897;CR CARTER SHI C101;Draft;Shirts;Palm Tree;Kids-Boys;Boys;Grey;;;Fashion;;2017;10,PMTRSHRT00001052,12,PMTRSHRT00001053,14,PMTRSHRT00001054,16,PMTRSHRT00001055;999.00;;;;;;;;zerotype;;Summer;;No
1929896;131246515231 C101-Grey-1929896;CR CARTER SHI C101;Draft;Shirts;Palm Tree;Kids-Boys;Boys;Grey;;;Fashion;;2017;02,PMTRSHRT00001048,04,PMTRSHRT00001049,06,PMTRSHRT00001050,08,PMTRSHRT00001051;899.00;;;;;;;;zerotype;;Summer;;No
1929895;131246515231 C101-Grey-1929895;CR CARTER SHI C101;Draft;Shirts;Palm Tree;Kids-Boys;Boys;Grey;;;Fashion;;2017;12M,PMTRSHRT00001045,18M,PMTRSHRT00001046,24M,PMTRSHRT00001047;799.00;;;;;;;;zerotype;;Summer;;No
1929894;131246515229 C656-Blue-1929894;CR OGDEN SHI C656;Draft;Shirts;Palm Tree;Kids-Boys;Boys;Blue;;;Fashion;;2017;10,PMTRSHRT00001041,12,PMTRSHRT00001042,14,PMTRSHRT00001043,16,PMTRSHRT00001044;1199.00;;;;;;;;zerotype;;Summer;;No
1929893;131246515229 C656-Blue-1929893;CR OGDEN SHI C656;Draft;Shirts;Palm Tree;Kids-Boys;Boys;Blue;;;Fashion;;2017;02,PMTRSHRT00001037,04,PMTRSHRT00001038,06,PMTRSHRT00001039,08,PMTRSHRT00001040;1099.00;;;;;;;;zerotype;;Summer;;No
1929892;131246515229 C656-Blue-1929892;CR OGDEN SHI C656;Draft;Shirts;Palm Tree;Kids-Boys;Boys;Blue;;;Fashion;;2017;12M,PMTRSHRT00001034,18M,PMTRSHRT00001035,24M,PMTRSHRT00001036;999.00;;;;;;;;zerotype;;Summer;;No
1929891;131246515229 C101-Grey-1929891;CR OGDEN SHI C101;Draft;Shirts;Palm Tree;Kids-Boys;Boys;Grey;;;Fashion;;2017;10,PMTRSHRT00001030,12,PMTRSHRT00001031,14,PMTRSHRT00001032,16,PMTRSHRT00001033;1199.00;;;;;;;;zerotype;;Summer;;No
1929890;131246515229 C101-Grey-1929890;CR OGDEN SHI C101;Draft;Shirts;Palm Tree;Kids-Boys;Boys;Grey;;;Fashion;;2017;02,PMTRSHRT00001026,04,PMTRSHRT00001027,06,PMTRSHRT00001028,08,PMTRSHRT00001029;1099.00;;;;;;;;zerotype;;Summer;;No
1929889;131246515229 C101-Grey-1929889;CR OGDEN SHI C101;Draft;Shirts;Palm Tree;Kids-Boys;Boys;Grey;;;Fashion;;2017;12M,PMTRSHRT00001023,18M,PMTRSHRT00001024,24M,PMTRSHRT00001025;999.00;;;;;;;;zerotype;;Summer;;No
1929888;131246515782 C613-Blue-1929888;SM ALFIE TOP C613;Draft;Tops;Palm Tree;Kids-Girls;Girls;Blue;;;Fashion;;2017;10,PMTRTOPS00100855,12,PMTRTOPS00100856,14,PMTRTOPS00100857,16,PMTRTOPS00100858;449.00;;;;;;;;zerotype;;Summer;;No
1929887;131246515782 C613-Blue-1929887;SM ALFIE TOP C613;Draft;Tops;Palm Tree;Kids-Girls;Girls;Blue;;;Fashion;;2017;2,PMTRTOPS00100851,4,PMTRTOPS00100852,6,PMTRTOPS00100853,8,PMTRTOPS00100854;399.00;;;;;;;;zerotype;;Summer;;No
1929886;131246515782 C613-Blue-1929886;SM ALFIE TOP C613;Draft;Tops;Palm Tree;Kids-Girls;Girls;Blue;;;Fashion;;2017;12M,PMTRTOPS00100848,18M,PMTRTOPS00100849,24M,PMTRTOPS00100850;349.00;;;;;;;;zerotype;;Summer;;No
1929885;131246515775 C407-Peach-1929885;SM ASH TOP C407;Draft;Tops;Palm Tree;Kids-Girls;Girls;Peach;;;Fashion;;2017;10,PMTRTOPS00100844,12,PMTRTOPS00100845,14,PMTRTOPS00100846,16,PMTRTOPS00100847;549.00;;;;;;;;zerotype;;Summer;;No
1929884;131246515775 C407-Peach-1929884;SM ASH TOP C407;Draft;Tops;Palm Tree;Kids-Girls;Girls;Peach;;;Fashion;;2017;2,PMTRTOPS00100840,4,PMTRTOPS00100841,6,PMTRTOPS00100842,8,PMTRTOPS00100843;449.00;;;;;;;;zerotype;;Summer;;No
1929883;131246515775 C407-Peach-1929883;SM ASH TOP C407;Draft;Tops;Palm Tree;Kids-Girls;Girls;Peach;;;Fashion;;2017;12M,PMTRTOPS00100837,18M,PMTRTOPS00100838,24M,PMTRTOPS00100839;349.00;;;;;;;;zerotype;;Summer;;No
1929882;131246515774 C461-Red-1929882;UP MAGGIE TOP C461;Draft;Tops;Palm Tree;Kids-Girls;Girls;Red;;;Fashion;;2017;10,PMTRTOPS00100833,12,PMTRTOPS00100834,14,PMTRTOPS00100835,16,PMTRTOPS00100836;649.00;;;;;;;;zerotype;;Summer;;No
1929881;131246515774 C461-Red-1929881;UP MAGGIE TOP C461;Draft;Tops;Palm Tree;Kids-Girls;Girls;Red;;;Fashion;;2017;2,PMTRTOPS00100829,4,PMTRTOPS00100830,6,PMTRTOPS00100831,8,PMTRTOPS00100832;549.00;;;;;;;;zerotype;;Summer;;No
1929880;131246515774 C461-Red-1929880;UP MAGGIE TOP C461;Draft;Tops;Palm Tree;Kids-Girls;Girls;Red;;;Fashion;;2017;12M,PMTRTOPS00100826,18M,PMTRTOPS00100827,24M,PMTRTOPS00100828;449.00;;;;;;;;zerotype;;Summer;;No
1929879;131246515774 C313-Yellow-1929879;UP MAGGIE TOP C313;Draft;Tops;Palm Tree;Kids-Girls;Girls;Yellow;;;Fashion;;2017;10,PMTRTOPS00100822,12,PMTRTOPS00100823,14,PMTRTOPS00100824,16,PMTRTOPS00100825;649.00;;;;;;;;zerotype;;Summer;;No
1929878;131246515774 C313-Yellow-1929878;UP MAGGIE TOP C313;Draft;Tops;Palm Tree;Kids-Girls;Girls;Yellow;;;Fashion;;2017;2,PMTRTOPS00100818,4,PMTRTOPS00100819,6,PMTRTOPS00100820,8,PMTRTOPS00100821;549.00;;;;;;;;zerotype;;Summer;;No
1929877;131246515774 C313-Yellow-1929877;UP MAGGIE TOP C313;Draft;Tops;Palm Tree;Kids-Girls;Girls;Yellow;;;Fashion;;2017;12M,PMTRTOPS00100815,18M,PMTRTOPS00100816,24M,PMTRTOPS00100817;449.00;;;;;;;;zerotype;;Summer;;No
1929876;131246515770 C308-Yellow-1929876;UP MACY TOP C308;Draft;Tops;Palm Tree;Kids-Girls;Girls;Yellow;;;Fashion;;2017;10,PMTRTOPS00100811,12,PMTRTOPS00100812,14,PMTRTOPS00100813,16,PMTRTOPS00100814;649.00;;;;;;;;zerotype;;Summer;;No
1929875;131246515770 C308-Yellow-1929875;UP MACY TOP C308;Draft;Tops;Palm Tree;Kids-Girls;Girls;Yellow;;;Fashion;;2017;2,PMTRTOPS00100807,4,PMTRTOPS00100808,6,PMTRTOPS00100809,8,PMTRTOPS00100810;549.00;;;;;;;;zerotype;;Summer;;No
1929874;131246515770 C308-Yellow-1929874;UP MACY TOP C308;Draft;Tops;Palm Tree;Kids-Girls;Girls;Yellow;;;Fashion;;2017;12M,PMTRTOPS00100804,18M,PMTRTOPS00100805,24M,PMTRTOPS00100806;449.00;;;;;;;;zerotype;;Summer;;No
1929873;131246515332 C101-Grey-1929873;US HARRIET TOP C101;Draft;Tops;Palm Tree;Kids-Girls;Girls;Grey;;;Fashion;;2017;10,PMTRTOPS00100800,12,PMTRTOPS00100801,14,PMTRTOPS00100802,16,PMTRTOPS00100803;999.00;;;;;;;;zerotype;;Summer;;No
1929872;131246515332 C101-Grey-1929872;US HARRIET TOP C101;Draft;Tops;Palm Tree;Kids-Girls;Girls;Grey;;;Fashion;;2017;2,PMTRTOPS00100796,4,PMTRTOPS00100797,6,PMTRTOPS00100798,8,PMTRTOPS00100799;899.00;;;;;;;;zerotype;;Summer;;No
1929871;131246515332 C101-Grey-1929871;US HARRIET TOP C101;Draft;Tops;Palm Tree;Kids-Girls;Girls;Grey;;;Fashion;;2017;12M,PMTRTOPS00100793,18M,PMTRTOPS00100794,24M,PMTRTOPS00100795;799.00;;;;;;;;zerotype;;Summer;;No
1929870;131246515323 C656-Blue-1929870;SR RIHANNA TOP C656;Draft;Tops;Palm Tree;Kids-Girls;Girls;Blue;;;Fashion;;2017;10,PMTRTOPS00100789,12,PMTRTOPS00100790,14,PMTRTOPS00100791,16,PMTRTOPS00100792;649.00;;;;;;;;zerotype;;Summer;;No
1929869;131246515323 C656-Blue-1929869;SR RIHANNA TOP C656;Draft;Tops;Palm Tree;Kids-Girls;Girls;Blue;;;Fashion;;2017;2,PMTRTOPS00100785,4,PMTRTOPS00100786,6,PMTRTOPS00100787,8,PMTRTOPS00100788;549.00;;;;;;;;zerotype;;Summer;;No
1929868;131246515323 C656-Blue-1929868;SR RIHANNA TOP C656;Draft;Tops;Palm Tree;Kids-Girls;Girls;Blue;;;Fashion;;2017;12M,PMTRTOPS00100782,18M,PMTRTOPS00100783,24M,PMTRTOPS00100784;449.00;;;;;;;;zerotype;;Summer;;No
1929867;131246515320 C701-Green-1929867;CB CANDACE TOP C701;Draft;Tops;Palm Tree;Kids-Girls;Girls;Green;;;Fashion;;2017;10,PMTRTOPS00100778,12,PMTRTOPS00100779,14,PMTRTOPS00100780,16,PMTRTOPS00100781;649.00;;;;;;;;zerotype;;Summer;;No
1929866;131246515320 C701-Green-1929866;CB CANDACE TOP C701;Draft;Tops;Palm Tree;Kids-Girls;Girls;Green;;;Fashion;;2017;2,PMTRTOPS00100774,4,PMTRTOPS00100775,6,PMTRTOPS00100776,8,PMTRTOPS00100777;549.00;;;;;;;;zerotype;;Summer;;No
1929865;131246515320 C701-Green-1929865;CB CANDACE TOP C701;Draft;Tops;Palm Tree;Kids-Girls;Girls;Green;;;Fashion;;2017;12M,PMTRTOPS00100771,18M,PMTRTOPS00100772,24M,PMTRTOPS00100773;449.00;;;;;;;;zerotype;;Summer;;No
1929864;131246515315 C712-Green-1929864;WP PAMELA TOP C712;Draft;Tops;Palm Tree;Kids-Girls;Girls;Green;;;Fashion;;2017;10,PMTRTOPS00100767,12,PMTRTOPS00100768,14,PMTRTOPS00100769,16,PMTRTOPS00100770;549.00;;;;;;;;zerotype;;Summer;;No
1929863;131246515315 C712-Green-1929863;WP PAMELA TOP C712;Draft;Tops;Palm Tree;Kids-Girls;Girls;Green;;;Fashion;;2017;2,PMTRTOPS00100763,4,PMTRTOPS00100764,6,PMTRTOPS00100765,8,PMTRTOPS00100766;449.00;;;;;;;;zerotype;;Summer;;No
1929862;131246515315 C712-Green-1929862;WP PAMELA TOP C712;Draft;Tops;Palm Tree;Kids-Girls;Girls;Green;;;Fashion;;2017;12M,PMTRTOPS00100760,18M,PMTRTOPS00100761,24M,PMTRTOPS00100762;349.00;;;;;;;;zerotype;;Summer;;No
1929861;131246515315 C513-Pink-1929861;WP PAMELA TOP C513;Draft;Tops;Palm Tree;Kids-Girls;Girls;Pink;;;Fashion;;2017;10,PMTRTOPS00100756,12,PMTRTOPS00100757,14,PMTRTOPS00100758,16,PMTRTOPS00100759;549.00;;;;;;;;zerotype;;Summer;;No
1929860;131246515315 C513-Pink-1929860;WP PAMELA TOP C513;Draft;Tops;Palm Tree;Kids-Girls;Girls;Pink;;;Fashion;;2017;2,PMTRTOPS00100752,4,PMTRTOPS00100753,6,PMTRTOPS00100754,8,PMTRTOPS00100755;449.00;;;;;;;;zerotype;;Summer;;No
1929859;131246515315 C513-Pink-1929859;WP PAMELA TOP C513;Draft;Tops;Palm Tree;Kids-Girls;Girls;Pink;;;Fashion;;2017;12M,PMTRTOPS00100749,18M,PMTRTOPS00100750,24M,PMTRTOPS00100751;349.00;;;;;;;;zerotype;;Summer;;No
1929858;131246515314 C105-Grey-1929858;WP PALOMA TOP C105;Draft;Tops;Palm Tree;Kids-Girls;Girls;Grey;;;Fashion;;2017;10,PMTRTOPS00100745,12,PMTRTOPS00100746,14,PMTRTOPS00100747,16,PMTRTOPS00100748;449.00;;;;;;;;zerotype;;Summer;;No
1929857;131246515314 C105-Grey-1929857;WP PALOMA TOP C105;Draft;Tops;Palm Tree;Kids-Girls;Girls;Grey;;;Fashion;;2017;2,PMTRTOPS00100741,4,PMTRTOPS00100742,6,PMTRTOPS00100743,8,PMTRTOPS00100744;399.00;;;;;;;;zerotype;;Summer;;No
1929856;131246515314 C105-Grey-1929856;WP PALOMA TOP C105;Draft;Tops;Palm Tree;Kids-Girls;Girls;Grey;;;Fashion;;2017;12M,PMTRTOPS00100738,18M,PMTRTOPS00100739,24M,PMTRTOPS00100740;349.00;;;;;;;;zerotype;;Summer;;No
1929855;131246515312 C404-Peach-1929855;US HANNIE TOP C404;Draft;Tops;Palm Tree;Kids-Girls;Girls;Peach;;;Fashion;;2017;10,PMTRTOPS00100734,12,PMTRTOPS00100735,14,PMTRTOPS00100736,16,PMTRTOPS00100737;449.00;;;;;;;;zerotype;;Summer;;No
1929854;131246515312 C404-Peach-1929854;US HANNIE TOP C404;Draft;Tops;Palm Tree;Kids-Girls;Girls;Peach;;;Fashion;;2017;2,PMTRTOPS00100730,4,PMTRTOPS00100731,6,PMTRTOPS00100732,8,PMTRTOPS00100733;399.00;;;;;;;;zerotype;;Summer;;No
1929853;131246515312 C404-Peach-1929853;US HANNIE TOP C404;Draft;Tops;Palm Tree;Kids-Girls;Girls;Peach;;;Fashion;;2017;12M,PMTRTOPS00100727,18M,PMTRTOPS00100728,24M,PMTRTOPS00100729;349.00;;;;;;;;zerotype;;Summer;;No
1929852;131246515309 C613-Blue-1929852;SR REBA TOP C613;Draft;Tops;Palm Tree;Kids-Girls;Girls;Blue;;;Fashion;;2017;10,PMTRTOPS00100723,12,PMTRTOPS00100724,14,PMTRTOPS00100725,16,PMTRTOPS00100726;549.00;;;;;;;;zerotype;;Summer;;No
1929851;131246515309 C613-Blue-1929851;SR REBA TOP C613;Draft;Tops;Palm Tree;Kids-Girls;Girls;Blue;;;Fashion;;2017;2,PMTRTOPS00100719,4,PMTRTOPS00100720,6,PMTRTOPS00100721,8,PMTRTOPS00100722;449.00;;;;;;;;zerotype;;Summer;;No
1929850;131246515309 C613-Blue-1929850;SR REBA TOP C613;Draft;Tops;Palm Tree;Kids-Girls;Girls;Blue;;;Fashion;;2017;12M,PMTRTOPS00100716,18M,PMTRTOPS00100717,24M,PMTRTOPS00100718;349.00;;;;;;;;zerotype;;Summer;;No
1929849;131246515309 C458-Red-1929849;SR REBA TOP C458;Draft;Tops;Palm Tree;Kids-Girls;Girls;Red;;;Fashion;;2017;10,PMTRTOPS00100712,12,PMTRTOPS00100713,14,PMTRTOPS00100714,16,PMTRTOPS00100715;549.00;;;;;;;;zerotype;;Summer;;No
1929848;131246515309 C458-Red-1929848;SR REBA TOP C458;Draft;Tops;Palm Tree;Kids-Girls;Girls;Red;;;Fashion;;2017;2,PMTRTOPS00100708,4,PMTRTOPS00100709,6,PMTRTOPS00100710,8,PMTRTOPS00100711;449.00;;;;;;;;zerotype;;Summer;;No
1929847;131246515309 C458-Red-1929847;SR REBA TOP C458;Draft;Tops;Palm Tree;Kids-Girls;Girls;Red;;;Fashion;;2017;12M,PMTRTOPS00100705,18M,PMTRTOPS00100706,24M,PMTRTOPS00100707;349.00;;;;;;;;zerotype;;Summer;;No
1929846;131246515305 C613-Blue-1929846;US HALINA TOP C613;Draft;Tops;Palm Tree;Kids-Girls;Girls;Blue;;;Fashion;;2017;10,PMTRTOPS00100701,12,PMTRTOPS00100702,14,PMTRTOPS00100703,16,PMTRTOPS00100704;449.00;;;;;;;;zerotype;;Summer;;No
1929845;131246515305 C613-Blue-1929845;US HALINA TOP C613;Draft;Tops;Palm Tree;Kids-Girls;Girls;Blue;;;Fashion;;2017;2,PMTRTOPS00100697,4,PMTRTOPS00100698,6,PMTRTOPS00100699,8,PMTRTOPS00100700;399.00;;;;;;;;zerotype;;Summer;;No
1929844;131246515305 C613-Blue-1929844;US HALINA TOP C613;Draft;Tops;Palm Tree;Kids-Girls;Girls;Blue;;;Fashion;;2017;12M,PMTRTOPS00100694,18M,PMTRTOPS00100695,24M,PMTRTOPS00100696;349.00;;;;;;;;zerotype;;Summer;;No
1929843;131246515301 C656-Blue-1929843;CB CALLIE TOP C656;Draft;Tops;Palm Tree;Kids-Girls;Girls;Blue;;;Fashion;;2017;10,PMTRTOPS00100690,12,PMTRTOPS00100691,14,PMTRTOPS00100692,16,PMTRTOPS00100693;449.00;;;;;;;;zerotype;;Summer;;No
1929842;131246515301 C656-Blue-1929842;CB CALLIE TOP C656;Draft;Tops;Palm Tree;Kids-Girls;Girls;Blue;;;Fashion;;2017;2,PMTRTOPS00100686,4,PMTRTOPS00100687,6,PMTRTOPS00100688,8,PMTRTOPS00100689;399.00;;;;;;;;zerotype;;Summer;;No
1929841;131246515301 C656-Blue-1929841;CB CALLIE TOP C656;Draft;Tops;Palm Tree;Kids-Girls;Girls;Blue;;;Fashion;;2017;12M,PMTRTOPS00100683,18M,PMTRTOPS00100684,24M,PMTRTOPS00100685;349.00;;;;;;;;zerotype;;Summer;;No
1929840;131246515300 C407-Peach-1929840;CB CATHY TOP C407;Draft;Tops;Palm Tree;Kids-Girls;Girls;Peach;;;Fashion;;2017;10,PMTRTOPS00100679,12,PMTRTOPS00100680,14,PMTRTOPS00100681,16,PMTRTOPS00100682;549.00;;;;;;;;zerotype;;Summer;;No
1929839;131246515300 C407-Peach-1929839;CB CATHY TOP C407;Draft;Tops;Palm Tree;Kids-Girls;Girls;Peach;;;Fashion;;2017;2,PMTRTOPS00100675,4,PMTRTOPS00100676,6,PMTRTOPS00100677,8,PMTRTOPS00100678;449.00;;;;;;;;zerotype;;Summer;;No
1929838;131246515300 C407-Peach-1929838;CB CATHY TOP C407;Draft;Tops;Palm Tree;Kids-Girls;Girls;Peach;;;Fashion;;2017;12M,PMTRTOPS00100672,18M,PMTRTOPS00100673,24M,PMTRTOPS00100674;349.00;;;;;;;;zerotype;;Summer;;No
1929837;131246515300 C354-Orange-1929837;CB CATHY TOP C354;Draft;Tops;Palm Tree;Kids-Girls;Girls;Orange;;;Fashion;;2017;10,PMTRTOPS00100668,12,PMTRTOPS00100669,14,PMTRTOPS00100670,16,PMTRTOPS00100671;549.00;;;;;;;;zerotype;;Summer;;No
1929836;131246515300 C354-Orange-1929836;CB CATHY TOP C354;Draft;Tops;Palm Tree;Kids-Girls;Girls;Orange;;;Fashion;;2017;2,PMTRTOPS00100664,4,PMTRTOPS00100665,6,PMTRTOPS00100666,8,PMTRTOPS00100667;449.00;;;;;;;;zerotype;;Summer;;No
1929835;131246515300 C354-Orange-1929835;CB CATHY TOP C354;Draft;Tops;Palm Tree;Kids-Girls;Girls;Orange;;;Fashion;;2017;12M,PMTRTOPS00100661,18M,PMTRTOPS00100662,24M,PMTRTOPS00100663;349.00;;;;;;;;zerotype;;Summer;;No
