Style ID;Vendor Article Number;Vendor Article Name;Active Status;Article type;Brand;Age Group;Gender;Base Colour;Colour1;Colour2;Fashion Type;Usage;Year;Size - SKU code pair;MRP;Style Description;Style Note;Materials and Care Description;Size and Fit Description;Size Chart Path;Product Display Name;Tags;Product Type;Classification Brand;Season;Comments;Upload Images
2085105;110030631002-OFF WHITE-2085105;110030631OFF WHITE;On Hold - Other;Churidar;indus route by Pantaloons;Adults-Men;Men;White;;;Fashion;Ethnic;2017;M,IRPSCHDR00000009,XL,IRPSCHDR00000010;499.00;Off-white woven mid-rise churidar, has an elasticated waistband with drawstring fastening;Comfort meets style in this comfortable churidar. Wear it with a kurta and a pair of Kolhapuris for the complete look.;100% cotton<br />Hand-wash;The model (height 5'8") is wearing a size M;;indus route by Pantaloons White Churidar;indus route by Pantaloons ,big10-ethnic-men;zerotype;;Winter;No comment entered, wrong styling- reshoot;No
2082646;SS17AP061TCB_YELLOW_18-YELLOW-2082646;SS17AP061TCB;On Hold - Other;Tops;AND;Adults-Women;Women;;;;Fashion;;2017;10,ANDTOPS00007445,12,ANDTOPS00007446,14,ANDTOPS00007447,16,ANDTOPS00007448,18,ANDTOPS00007449;2199.00;;;<p>100% Polyester</p>;;;;;zerotype;;Fall;No comment entered;No
2082645;SS17AB146TCB_YELLOW_18-YELLOW-2082645;SS17AB146TCB;On Hold - Other;Tops;AND;Adults-Women;Women;;;;Fashion;;2017;8,ANDTOPS00007439,10,ANDTOPS00007440,12,ANDTOPS00007441,14,ANDTOPS00007442,16,ANDTOPS00007443,18,ANDTOPS00007444;1699.00;;;<p>55% Viscose / 45 % Cotton</p>;;;;;zerotype;;Fall;No comment entered;No
2082644;SS17AB001TPC_YELLOW_18-YELLOW-2082644;SS17AB001TPC;On Hold - Other;Tops;AND;Adults-Women;Women;;;;Fashion;;2017;8,ANDTOPS00007433,10,ANDTOPS00007434,12,ANDTOPS00007435,14,ANDTOPS00007436,16,ANDTOPS00007437,18,ANDTOPS00007438;2499.00;;;<p>98% Polyester / 2% Spandex</p>;;;;;zerotype;;Fall;No comment entered;No
2082641;EAW17N329TPG_NAVY_16-NAVY-2082641;EAW17N329TPG;On Hold - Other;Tops;AND;Adults-Women;Women;;;;Fashion;;2017;8,ANDTOPS00007423,10,ANDTOPS00007424,12,ANDTOPS00007425,14,ANDTOPS00007426,16,ANDTOPS00007427;1699.00;;;<p>100% Polyester</p>;;;;;zerotype;;Fall;No comment entered;No
2082639;EAW17AY009TP101_PRINT_16-PRINT-2082639;EAW17AY009TP101;On Hold - Other;Tops;AND;Adults-Women;Women;;;;Fashion;;2017;8,ANDTOPS00007413,10,ANDTOPS00007414,12,ANDTOPS00007415,14,ANDTOPS00007416,16,ANDTOPS00007417;1899.00;;;<p>OUTER- 100 % POLYSTER/ INNER 95% VISCOSE 5% SPANDEX</p>;;;;;zerotype;;Fall;No comment entered;No
2082636;EAW17AR219TP116_BLK/WHT_18-BLK/WHT-2082636;EAW17AR219TP116;On Hold - Other;Tops;AND;Adults-Women;Women;;;;Fashion;;2017;8,ANDTOPS00007401,10,ANDTOPS00007402,12,ANDTOPS00007403,14,ANDTOPS00007404,16,ANDTOPS00007405,18,ANDTOPS00007406;1699.00;;;<p>100% Polyester</p>;;;;;zerotype;;Fall;No comment entered;No
2082635;EAW17AP017TRY_PINK_18-PINK-2082635;EAW17AP017TRY;On Hold - Other;Tops;AND;Adults-Women;Women;;;;Fashion;;2017;8,ANDTOPS00007395,10,ANDTOPS00007396,12,ANDTOPS00007397,14,ANDTOPS00007398,16,ANDTOPS00007399,18,ANDTOPS00007400;1499.00;;;<p>100% Viscose</p>;;;;;zerotype;;Fall;No comment entered;No
2082634;EAW17AB313TYD6_PRINT_18-PRINT-2082634;EAW17AB313TYD6;On Hold - Other;Tops;AND;Adults-Women;Women;;;;Fashion;;2017;8,ANDTOPS00007389,10,ANDTOPS00007390,12,ANDTOPS00007391,14,ANDTOPS00007392,16,ANDTOPS00007393,18,ANDTOPS00007394;1699.00;;;<p>100% Cotton</p>;;;;;zerotype;;Fall;No comment entered;No
2082632;EAW17AB313TTG1_AQUA_18-AQUA-2082632;EAW17AB313TTG1;On Hold - Other;Tops;AND;Adults-Women;Women;;;;Fashion;;2017;8,ANDTOPS00007383,10,ANDTOPS00007384,12,ANDTOPS00007385,14,ANDTOPS00007386,16,ANDTOPS00007387,18,ANDTOPS00007388;1699.00;;;<p>95% POLYESTER / 5% SPANDEX</p>;;;;;zerotype;;Fall;No comment entered;No
2082631;EAW17AB313TITY_WHT/PRT_18-WHT/PRT-2082631;EAW17AB313TITY;On Hold - Other;Tops;AND;Adults-Women;Women;;;;Fashion;;2017;8,ANDTOPS00007377,10,ANDTOPS00007378,12,ANDTOPS00007379,14,ANDTOPS00007380,16,ANDTOPS00007381,18,ANDTOPS00007382;1699.00;;;<p>95% POLYESTER / 5% SPANDEX</p>;;;;;zerotype;;Fall;No comment entered;No
2082629;EAW17AB313TITY_WHT/BLU_18-WHT/BLU-2082629;EAW17AB313TITY;On Hold - Other;Tops;AND;Adults-Women;Women;;;;Fashion;;2017;8,ANDTOPS00007371,10,ANDTOPS00007372,12,ANDTOPS00007373,14,ANDTOPS00007374,16,ANDTOPS00007375,18,ANDTOPS00007376;1699.00;;;<p>95% POLYESTER / 5% SPANDEX</p>;;;;;zerotype;;Fall;No comment entered;No
2082628;EAW17AB313TITY_WHT/BLK_18-WHT/BLK-2082628;EAW17AB313TITY;On Hold - Other;Tops;AND;Adults-Women;Women;;;;Fashion;;2017;8,ANDTOPS00007365,10,ANDTOPS00007366,12,ANDTOPS00007367,14,ANDTOPS00007368,16,ANDTOPS00007369,18,ANDTOPS00007370;1699.00;;;<p>95% POLYESTER / 5% SPANDEX</p>;;;;;zerotype;;Fall;No comment entered;No
2082627;EAW17AB313TITY_BLK/PRT_18-BLK/PRT-2082627;EAW17AB313TITY;On Hold - Other;Tops;AND;Adults-Women;Women;;;;Fashion;;2017;8,ANDTOPS00007359,10,ANDTOPS00007360,12,ANDTOPS00007361,14,ANDTOPS00007362,16,ANDTOPS00007363,18,ANDTOPS00007364;1699.00;;;<p>95% POLYESTER / 5% SPANDEX</p>;;;;;zerotype;;Fall;No comment entered;No
2082625;EAW17AB061TITY_BLK/WHT_18-BLK/WHT-2082625;EAW17AB061TITY;On Hold - Other;Tops;AND;Adults-Women;Women;;;;Fashion;;2017;8,ANDTOPS00007353,10,ANDTOPS00007354,12,ANDTOPS00007355,14,ANDTOPS00007356,16,ANDTOPS00007357,18,ANDTOPS00007358;1999.00;;;<p>100% Polyester</p>;;;;;zerotype;;Fall;No comment entered;No
2082623;EAW17AA065TITY_BLU/PRT_16-BLU/PRT-2082623;EAW17AA065TITY;On Hold - Other;Tops;AND;Adults-Women;Women;;;;Fashion;;2017;8,ANDTOPS00007343,10,ANDTOPS00007344,12,ANDTOPS00007345,14,ANDTOPS00007346,16,ANDTOPS00007347;1499.00;;;<p>95 % Polyester & 5% Spandex</p>;;;;;zerotype;;Fall;No comment entered;No
2082620;EAW17AA065TITY_BLK/PRT_16-BLK/PRT-2082620;EAW17AA065TITY;On Hold - Other;Tops;AND;Adults-Women;Women;;;;Fashion;;2017;8,ANDTOPS00007333,10,ANDTOPS00007334,12,ANDTOPS00007335,14,ANDTOPS00007336,16,ANDTOPS00007337;1499.00;;;<p>95 % Polyester & 5% Spandex</p>;;;;;zerotype;;Fall;No comment entered;No
2082618;AW17AP008TVL_BLACK_18-BLACK-2082618;AW17AP008TVL;On Hold - Other;Tops;AND;Adults-Women;Women;;;;Fashion;;2017;8,ANDTOPS00007322,10,ANDTOPS00007323,12,ANDTOPS00007324,14,ANDTOPS00007325,16,ANDTOPS00007326,18,ANDTOPS00007327;1499.00;;;<p>95% Viscose / 5% Spandex</p>;;;;;zerotype;;Fall;No comment entered;No
2082617;AW17AP006TP30_BLU/WHT_16-BLU/WHT-2082617;AW17AP006TP30;On Hold - Other;Tops;AND;Adults-Women;Women;;;;Fashion;;2017;8,ANDTOPS00007317,10,ANDTOPS00007318,12,ANDTOPS00007319,14,ANDTOPS00007320,16,ANDTOPS00007321;1799.00;;;<p>95% Rayon, 5% Spandex</p>;;;;;zerotype;;Fall;No comment entered;No
2082613;AW17AB313TRL_WHITE_16-WHITE-2082613;AW17AB313TRL;On Hold - Other;Tops;AND;Adults-Women;Women;;;;Fashion;;2017;8,ANDTOPS00007307,10,ANDTOPS00007308,12,ANDTOPS00007309,14,ANDTOPS00007310,16,ANDTOPS00007311;1499.00;;;<p>55% Viscose / 35 % Cotton / 10 % Flax</p>;;;;;zerotype;;Fall;No comment entered;No
2082611;AW17AB313TPNT2_PRINT_16-PRINT-2082611;AW17AB313TPNT2;On Hold - Other;Tops;AND;Adults-Women;Women;;;;Fashion;;2017;8,ANDTOPS00007297,10,ANDTOPS00007298,12,ANDTOPS00007299,14,ANDTOPS00007300,16,ANDTOPS00007301;1699.00;;;<p>95% POLYESTER / 5% SPANDEX</p>;;;;;zerotype;;Fall;No comment entered;No
2082610;AW17AB313TP45_PRINT_16-PRINT-2082610;AW17AB313TP45;On Hold - Other;Tops;AND;Adults-Women;Women;;;;Fashion;;2017;8,ANDTOPS00007292,10,ANDTOPS00007293,12,ANDTOPS00007294,14,ANDTOPS00007295,16,ANDTOPS00007296;1699.00;;;<p>95% Viscose / 5 % Spandex</p>;;;;;zerotype;;Fall;No comment entered;No
2082608;AW17AB313TP24_PRINT_16-PRINT-2082608;AW17AB313TP24;On Hold - Other;Tops;AND;Adults-Women;Women;;;;Fashion;;2017;8,ANDTOPS00007287,10,ANDTOPS00007288,12,ANDTOPS00007289,14,ANDTOPS00007290,16,ANDTOPS00007291;1699.00;;;<p>98% Polyester / 2% Spandex</p>;;;;;zerotype;;Fall;No comment entered;No
2082606;AW17AB313TP14_PRINT_16-PRINT-2082606;AW17AB313TP14;On Hold - Other;Tops;AND;Adults-Women;Women;;;;Fashion;;2017;8,ANDTOPS00007277,10,ANDTOPS00007278,12,ANDTOPS00007279,14,ANDTOPS00007280,16,ANDTOPS00007281;1699.00;;;<p>98% Polyester / 2% Spandex</p>;;;;;zerotype;;Fall;No comment entered;No
2082605;AW17AB313TOE_TANGERINE_16-TANGERINE-2082605;AW17AB313TOE;On Hold - Other;Tops;AND;Adults-Women;Women;;;;Fashion;;2017;8,ANDTOPS00007272,10,ANDTOPS00007273,12,ANDTOPS00007274,14,ANDTOPS00007275,16,ANDTOPS00007276;1699.00;;;<p>95% Rayon / 5% Spandex</p>;;;;;zerotype;;Fall;No comment entered;No
2082604;AW17AB313TOE_PINK_16-PINK-2082604;AW17AB313TOE;On Hold - Other;Tops;AND;Adults-Women;Women;;;;Fashion;;2017;8,ANDTOPS00007267,10,ANDTOPS00007268,12,ANDTOPS00007269,14,ANDTOPS00007270,16,ANDTOPS00007271;1699.00;;;<p>95% Rayon / 5% Spandex</p>;;;;;zerotype;;Fall;No comment entered;No
2082603;AW17AB313TOE_OFF WHITE_16-OFF WHITE-2082603;AW17AB313TOE;On Hold - Other;Tops;AND;Adults-Women;Women;;;;Fashion;;2017;8,ANDTOPS00007262,10,ANDTOPS00007263,12,ANDTOPS00007264,14,ANDTOPS00007265,16,ANDTOPS00007266;1699.00;;;<p>95% Rayon / 5% Spandex</p>;;;;;zerotype;;Fall;No comment entered;No
2082602;AW17AB313TOE_MANGO_16-MANGO-2082602;AW17AB313TOE;On Hold - Other;Tops;AND;Adults-Women;Women;;;;Fashion;;2017;8,ANDTOPS00007257,10,ANDTOPS00007258,12,ANDTOPS00007259,14,ANDTOPS00007260,16,ANDTOPS00007261;1699.00;;;<p>95% Rayon / 5% Spandex</p>;;;;;zerotype;;Fall;No comment entered;No
2082601;AW17AB313TMO_YELLOW_16-YELLOW-2082601;AW17AB313TMO;On Hold - Other;Tops;AND;Adults-Women;Women;;;;Fashion;;2017;8,ANDTOPS00007252,10,ANDTOPS00007253,12,ANDTOPS00007254,14,ANDTOPS00007255,16,ANDTOPS00007256;1499.00;;;<p>100% MODAL</p>;;;;;zerotype;;Fall;No comment entered;No
2082600;AW17AB313TCV_OCHRE_16-OCHRE-2082600;AW17AB313TCV;On Hold - Other;Tops;AND;Adults-Women;Women;;;;Fashion;;2017;8,ANDTOPS00007247,10,ANDTOPS00007248,12,ANDTOPS00007249,14,ANDTOPS00007250,16,ANDTOPS00007251;1499.00;;;<p>55% Viscose / 45 % Cotton</p>;;;;;zerotype;;Fall;No comment entered;No
2082598;AW17AB091TP34_GRY/BLU_16-GRY/BLU-2082598;AW17AB091TP34;On Hold - Other;Tops;AND;Adults-Women;Women;;;;Fashion;;2017;8,ANDTOPS00007237,10,ANDTOPS00007238,12,ANDTOPS00007239,14,ANDTOPS00007240,16,ANDTOPS00007241;1499.00;;;<p>95% Polyester, 5% Spandex</p>;;;;;zerotype;;Fall;No comment entered;No
2082594;SS17AA083TURY_CORAL_18-CORAL-2082594;SS17AA083TURY;On Hold - Other;Tunics;AND;Adults-Women;Women;;;;Fashion;;2017;8,ANDTNIC00001914,10,ANDTNIC00001915,12,ANDTNIC00001916,14,ANDTNIC00001917,16,ANDTNIC00001918,18,ANDTNIC00001919;2499.00;;;<p>100% Viscose</p>;;;;;zerotype;;Fall;No comment entered;No
2082592;SS17AS005TUP102_PRINT_18-PRINT-2082592;SS17AS005TUP102;On Hold - Other;Tunics;AND;Adults-Women;Women;;;;Fashion;;2017;8,ANDTNIC00001902,10,ANDTNIC00001903,12,ANDTNIC00001904,14,ANDTNIC00001905,16,ANDTNIC00001906,18,ANDTNIC00001907;1799.00;;;<p>98% Polyester / 2% Spandex</p>;;;;;zerotype;;Fall;No comment entered;No
2082591;SS17AA083TURY_C.BLUE_18-C.BLUE-2082591;SS17AA083TURY;On Hold - Other;Tunics;AND;Adults-Women;Women;;;;Fashion;;2017;8,ANDTNIC00001896,10,ANDTNIC00001897,12,ANDTNIC00001898,14,ANDTNIC00001899,16,ANDTNIC00001900,18,ANDTNIC00001901;2499.00;;;<p>100% Viscose</p>;;;;;zerotype;;Fall;No comment entered;No
2082590;AW17AY120JKJKS6_BLK/WHT_18-BLK/WHT-2082590;AW17AY120JKJKS6;On Hold - Other;Jackets;AND;Adults-Women;Women;;;;Fashion;;2017;8,ANDJCKT00000724,10,ANDJCKT00000725,12,ANDJCKT00000726,14,ANDJCKT00000727,16,ANDJCKT00000728,18,ANDJCKT00000729;1999.00;;;<p>96% Polyester, 4% Spandex</p>;;;;;zerotype;;Fall;No comment entered;No
2082588;AW17AB086JKJ27_GRY/BLU_16-GRY/BLU-2082588;AW17AB086JKJ27;On Hold - Other;Jackets;AND;Adults-Women;Women;;;;Fashion;;2017;8,ANDJCKT00000714,10,ANDJCKT00000715,12,ANDJCKT00000716,14,ANDJCKT00000717,16,ANDJCKT00000718;2199.00;;;<p>80% Polyester, 18% Polyester, 2% Spandex</p>;;;;;zerotype;;Fall;No comment entered;No
2082581;EAW17AY013DRKD1_CORAL_18-CORAL-2082581;EAW17AY013DRKD1;On Hold - Other;Dresses;AND;Adults-Women;Women;;;;Fashion;;2017;8,ANDDRSS00005034,10,ANDDRSS00005035,12,ANDDRSS00005036,14,ANDDRSS00005037,16,ANDDRSS00005038,18,ANDDRSS00005039;2499.00;;;<p>65% POLYESTER/ 30% COTTON 5% SPANDEX</p>;;;;;zerotype;;Fall;No comment entered;No
2082580;EAW17AB074DRP67_PRINT_16-PRINT-2082580;EAW17AB074DRP67;On Hold - Other;Dresses;AND;Adults-Women;Women;;;;Fashion;;2017;8,ANDDRSS00005029,10,ANDDRSS00005030,12,ANDDRSS00005031,14,ANDDRSS00005032,16,ANDDRSS00005033;2799.00;;;<p>100% Polyester</p>;;;;;zerotype;;Fall;No comment entered;No
2082573;AW17AB057MXP42_ORN/CRM_16-ORN/CRM-2082573;AW17AB057MXP42;On Hold - Other;Dresses;AND;Adults-Women;Women;;;;Fashion;;2017;8,ANDDRSS00004992,10,ANDDRSS00004993,12,ANDDRSS00004994,14,ANDDRSS00004995,16,ANDDRSS00004996;2999.00;;;<p>96% Polyester, 4% Spandex</p>;;;;;zerotype;;Fall;No comment entered;No
2082572;AW17AB032ADRP30_BLU/WHT_18-BLU/WHT-2082572;AW17AB032ADRP30;On Hold - Other;Dresses;AND;Adults-Women;Women;;;;Fashion;;2017;8,ANDDRSS00004986,10,ANDDRSS00004987,12,ANDDRSS00004988,14,ANDDRSS00004989,16,ANDDRSS00004990,18,ANDDRSS00004991;2599.00;;;<p>95% Rayon, 5% Spandex</p>;;;;;zerotype;;Fall;No comment entered;No
2065155;110029946005-Blue-2065155;110029946Blue;On Hold - Other;Jeans;CHALK by Pantaloons;Kids-Girls;Girls;Blue;;;Fashion;Casual;2017;2-3Y,CBPSJENS00000367,3-4Y,CBPSJENS00000368,4-5Y,CBPSJENS00000369,5-6Y,CBPSJENS00000370,6-7Y,CBPSJENS00000371;799.00;Blue light wash 5-pocket mid-rise jeans, clean look with no fade, has a button and zip closure, waistband with belt loops;Boost her overall style with these fashion-forward regular fit jeans made by CHALK by Pantaloons.  When she's going to relax with her friends, she can wear these with a casual tee and sneakers.;98% cotton, 2% spandex<br /> Machine-wash;;;CHALK by Pantaloons Girls Blue Regular Fit Mid-Rise Clean Look Jeans;CHALK by Pantaloons, kidsaw17,kidsaw17btw,kidsisaw17;zerotype;;Fall;kidsisaw17;No
2049182;C16-065WBFUL/JASMINE-JASMINE-2049182;Trousers;On Hold - Other;Trousers;Chemistry;Adults-Women;Women;;;;Fashion;;2017;32,CMSTTRSR00000360,30,CMSTTRSR00000361,28,CMSTTRSR00000362,34,CMSTTRSR00000363,26,CMSTTRSR00000364;2149.00;;;;;;;;zerotype;;Fall;Shoot can be planned post BBD as premium;No
2049046;C16-555WTTOP/NAVY-NAVY-2049046;Tops;On Hold - Other;Tops;Chemistry;Adults-Women;Women;;;;Fashion;;2017;L,CMSTTOPS00002167,M,CMSTTOPS00002168,S,CMSTTOPS00002169,XS,CMSTTOPS00002170;1299.00;;;;;;;Coupon-offer-aug19;zerotype;;Fall;Shoot can be planned post BBD as premium;No
2049039;C16-490WTTOP/FEATHER FOIL-FEATHER FOIL-2049039;Tops;On Hold - Other;Tops;Chemistry;Adults-Women;Women;;;;Fashion;;2017;L,CMSTTOPS00002140,M,CMSTTOPS00002141,S,CMSTTOPS00002142,XS,CMSTTOPS00002143;2499.00;;;;;;;Coupon-offer-aug19;zerotype;;Fall;Shoot can be planned post BBD as premium;No
2049026;C16-382WTTOP/WHITE-WHITE-2049026;Tops;Draft;Tops;Chemistry;Adults-Women;Women;Off White;;;Fashion;Casual;2017;L,CMSTTOPS00002084,M,CMSTTOPS00002085,S,CMSTTOPS00002086,XL,CMSTTOPS00002087,XS,CMSTTOPS00002088;1899.00;Off-White self-design woven A-line  top, has a round neck, sleeveless, button closure closure;You'll own any room with this trendy top from Chemistry.  Team this off-white piece with dark wash jeans and a warm cardigan when you're going out to lunch with your coworkers.;Pure Cotton <br> Dry-clean;Regular Fit<br> The model (height 5'8") is wearing a size S;;Chemistry Women Off-White Self Design A-Line Top;Chemistry;zerotype;;Fall;Reinwarded for catalog;No
2049018;C16-326KTTOP/BLD STRIP GY/BLK-BLD STRIP GY/BLK-2049018;Tops;On Hold - Other;Tops;Chemistry;Adults-Women;Women;;;;Fashion;;2017;L,CMSTTOPS00002050,M,CMSTTOPS00002051,S,CMSTTOPS00002052,XL,CMSTTOPS00002053,XS,CMSTTOPS00002054;1349.00;;;;;;;;zerotype;;Fall;Shoot can be planned post BBD as premium;No
2049011;C16-301KTTOP/PEACH STRIPE-PEACH STRIPE-2049011;Tops;On Hold - Other;Tops;Chemistry;Adults-Women;Women;;;;Fashion;;2017;L,CMSTTOPS00002016,M,CMSTTOPS00002017,S,CMSTTOPS00002018,XL,CMSTTOPS00002019,XS,CMSTTOPS00002020;2499.00;;;;;;;Coupon-offer-aug19;zerotype;;Fall;Shoot can be planned post BBD as premium;No
2049000;C16-212KTTOP/ROPE STRIPES NAVY-ROPE STRIPES NAVY-2049000;Tops;On Hold - Other;Tops;Chemistry;Adults-Women;Women;;;;Fashion;;2017;L,CMSTTOPS00001970,M,CMSTTOPS00001971,S,CMSTTOPS00001972,XS,CMSTTOPS00001973;1299.00;;;;;;;Coupon-offer-aug19;zerotype;;Fall;Shoot can be planned post BBD as premium;No
2048993;C16-118WTSHT/TIE DYE CORAL-TIE DYE CORAL-2048993;Tops;On Hold - Other;Tops;Chemistry;Adults-Women;Women;;;;Fashion;;2017;L,CMSTTOPS00001940,M,CMSTTOPS00001941,S,CMSTTOPS00001942,XL,CMSTTOPS00001943,XS,CMSTTOPS00001944;1649.00;;;;;;;Coupon-offer-aug19;zerotype;;Fall;Shoot can be planned post BBD as premium;No
2048985;C16-035WTSHT/PAPAYA PUNCH-PAPAYA PUNCH-2048985;Tops;On Hold - Other;Tops;Chemistry;Adults-Women;Women;;;;Fashion;;2017;L,CMSTTOPS00001900,M,CMSTTOPS00001901,S,CMSTTOPS00001902,XL,CMSTTOPS00001903,XS,CMSTTOPS00001904;1549.00;;;;;;;;zerotype;;Fall;Shoot can be planned post BBD as premium;No
2048902;C16-710KTTEE/WHITE-WHITE-2048902;Tshirts;On Hold - Other;Tshirts;Chemistry;Adults-Women;Women;;;;Fashion;;2017;L,CMSTTSHT00000143,M,CMSTTSHT00000144,S,CMSTTSHT00000145,XL,CMSTTSHT00000146,XS,CMSTTSHT00000147;1549.00;;;;;;;;zerotype;;Fall;Shoot can be planned post BBD as premium;No
2048884;C16-008KTTEE/JASMINE-JASMINE-2048884;Tshirts;On Hold - Other;Tshirts;Chemistry;Adults-Women;Women;;;;Fashion;;2017;L,CMSTTSHT00000109,M,CMSTTSHT00000110,S,CMSTTSHT00000111,XL,CMSTTSHT00000112,XS,CMSTTSHT00000113;1249.00;;;;;;;Coupon-offer-aug19;zerotype;;Fall;Shoot can be planned post BBD as premium;No
2048590;C16-592WSLSK/NAVY-NAVY-2048590;Skirts;On Hold - Other;Skirts;Chemistry;Adults-Women;Women;;;;Fashion;;2017;32,CMSTSKRT00000033,30,CMSTSKRT00000034,28,CMSTSKRT00000035,34,CMSTSKRT00000036,26,CMSTSKRT00000037;1499.00;;;;;;;Coupon-offer-aug19;zerotype;;Fall;Shoot can be planned post BBD as premium;No
2048269;C16-287WMJPS/PEACOAT-PEACOAT-2048269;Jumpsuit;On Hold - Other;Jumpsuit;Chemistry;Adults-Women;Women;;;;Fashion;;2017;L,CMSTJMST00000078,M,CMSTJMST00000079,S,CMSTJMST00000080,XL,CMSTJMST00000081,XS,CMSTJMST00000082;2899.00;;;;;;;Coupon-offer-aug19;zerotype;;Fall;Shoot can be planned post BBD as premium;No
2047925;C16-373WOJKT/BLACK-BLACK-2047925;Jackets;On Hold - Other;Jackets;Chemistry;Adults-Women;Women;;;;Fashion;;2017;L,CMSTJCKT00000200,M,CMSTJCKT00000201,S,CMSTJCKT00000202,XL,CMSTJCKT00000203,XS,CMSTJCKT00000204;4299.00;;;;;;;Coupon-offer-aug19;zerotype;;Fall;Shoot can be planned post BBD as premium;No
2047667;C16-849WDSDR/BAGERA SPOT TEAL-BAGERA SPOT TEAL-2047667;Dresses;On Hold - Other;Dresses;Chemistry;Adults-Women;Women;;;;Fashion;;2017;L,CMSTDRSS00001289,M,CMSTDRSS00001290,S,CMSTDRSS00001291,XL,CMSTDRSS00001292,XS,CMSTDRSS00001293;1949.00;;;;;;;Coupon-offer-aug19;zerotype;;Fall;Shoot can be planned post BBD as premium;No
2047650;C16-716KDLDR/NAVY-NAVY-2047650;Dresses;On Hold - Other;Dresses;Chemistry;Adults-Women;Women;;;;Fashion;;2017;L,CMSTDRSS00001226,M,CMSTDRSS00001227,S,CMSTDRSS00001228,XL,CMSTDRSS00001229,XS,CMSTDRSS00001230;1699.00;;;;;;;;zerotype;;Fall;Shoot can be planned post BBD as premium;No
2047642;C16-551WDKDR/BLACK-BLACK-2047642;Dresses;On Hold - Other;Dresses;Chemistry;Adults-Women;Women;;;;Fashion;;2017;L,CMSTDRSS00001199,M,CMSTDRSS00001200,S,CMSTDRSS00001201,XS,CMSTDRSS00001202;3499.00;;;;;;;;zerotype;;Fall;Shoot can be planned post BBD as premium;No
2047632;C16-500KDKDR/SOLID BLACK-SOLID BLACK-2047632;Dresses;On Hold - Other;Dresses;Chemistry;Adults-Women;Women;;;;Fashion;;2017;L,CMSTDRSS00001169,M,CMSTDRSS00001170,S,CMSTDRSS00001171,XS,CMSTDRSS00001172;3299.00;;;;;;;;zerotype;;Fall;Shoot can be planned post BBD as premium;No
2047614;C16-375KDKDR/BLACK-BLACK-2047614;Dresses;Inactive - PMM - Category;Dresses;Chemistry;Adults-Women;Women;Beige;Beige;Beige;Fashion;Casual;2017;L,CMSTDRSS00001111,M,CMSTDRSS00001112,S,CMSTDRSS00001113,XS,CMSTDRSS00001114;3099.00;;;;;;na;Coupon-offer-aug19;zerotype;;Fall;MRP Mismatch - Vendor tag - 3999 wms - 3099 website - 3099;No
2047612;C16-356WDKDR/TIC TAC PINK-TIC TAC PINK-2047612;Dresses;On Hold - Other;Dresses;Chemistry;Adults-Women;Women;;;;Fashion;;2017;L,CMSTDRSS00001103,M,CMSTDRSS00001104,S,CMSTDRSS00001105,XL,CMSTDRSS00001106;2499.00;;;;;;;Coupon-offer-aug19;zerotype;;Fall;Shoot can be planned post BBD as premium;No
2047594;C16-271WDKDR/PEACOAT-PEACOAT-2047594;Dresses;On Hold - Other;Dresses;Chemistry;Adults-Women;Women;;;;Fashion;;2017;L,CMSTDRSS00001044,M,CMSTDRSS00001045,S,CMSTDRSS00001046,XS,CMSTDRSS00001047;4999.00;;;;;;;;zerotype;;Fall;Shoot can be planned post BBD as premium;No
2047577;C16-111WDLDR/DEEP SEA CORAL-DEEP SEA CORAL-2047577;Dresses;On Hold - Other;Dresses;Chemistry;Adults-Women;Women;;;;Fashion;;2017;L,CMSTDRSS00000987,M,CMSTDRSS00000988,S,CMSTDRSS00000989,XL,CMSTDRSS00000990,XS,CMSTDRSS00000991;2049.00;;;;;;;;zerotype;;Fall;Shoot can be planned post BBD as premium;No
2047572;C16-018WDLDR/NAVY-NAVY-2047572;Dresses;On Hold - Other;Dresses;Chemistry;Adults-Women;Women;;;;Fashion;;2017;L,CMSTDRSS00000969,M,CMSTDRSS00000970,S,CMSTDRSS00000971,XS,CMSTDRSS00000972;2549.00;;;;;;;;zerotype;;Fall;Shoot can be planned post BBD as premium;No
2045429;F-LLT-501A-P BLOS P-13-2045429;T-SHIRT;On Hold - Other;Tshirts;Sweet Dreams;Adults-Women;Women;Pink;;;Core;Casual;2017;S,STDMTSHT00000408,M,STDMTSHT00000409,L,STDMTSHT00000410,XL,STDMTSHT00000411;429.00;;;<p>COTTON RICH</p>;;;;;zerotype;;Winter;Awaiting for BV;No
2045405;F-LLT-022-SPICY RED-2045405;T-SHIRT;On Hold - Other;Tshirts;Sweet Dreams;Adults-Women;Women;Red;;;Core;Casual;2017;S,STDMTSHT00000348,M,STDMTSHT00000349,L,STDMTSHT00000350,XL,STDMTSHT00000351,XXL,STDMTSHT00000352;399.00;;;<p>100 % COTTON SJ</p>;;;;;zerotype;;Winter;No comment entered;No
2045404;F-LLT-022-SAPPHIRE BLUE-2045404;T-SHIRT;On Hold - Other;Tshirts;Sweet Dreams;Adults-Women;Women;Blue;;;Core;Casual;2017;S,STDMTSHT00000343,M,STDMTSHT00000344,L,STDMTSHT00000345,XL,STDMTSHT00000346,XXL,STDMTSHT00000347;399.00;;;<p>100 % COTTON SJ</p>;;;;;zerotype;;Winter;No comment entered;No
2045403;F-LLT-022-LIME PUNCH-2045403;T-SHIRT;On Hold - Other;Tshirts;Sweet Dreams;Adults-Women;Women;Green;;;Core;Casual;2017;S,STDMTSHT00000338,M,STDMTSHT00000339,L,STDMTSHT00000340,XL,STDMTSHT00000341,XXL,STDMTSHT00000342;399.00;;;<p>100 % COTTON SJ</p>;;;;;zerotype;;Winter;No comment entered;No
2042650;C16-205WTTOP/SAIL BOAT WHITE-SAIL BOAT WHITE-2042650;Sweatshirts;On Hold - Other;Sweatshirts;Chemistry;Adults-Women;Women;;;;Fashion;;2017;S,CMSTSWSH00000354,M,CMSTSWSH00000355,L,CMSTSWSH00000356,XL,CMSTSWSH00000357;1549.00;;;;;;;Coupon-offer-aug19;zerotype;;Fall;Shoot can be planned post BBD as premium;No
2042645;C16-004WTTOP/BLACK-BLACK-2042645;Sweatshirts;On Hold - Other;Sweatshirts;Chemistry;Adults-Women;Women;;;;Fashion;;2017;S,CMSTSWSH00000334,M,CMSTSWSH00000335,L,CMSTSWSH00000336,XL,CMSTSWSH00000337;1549.00;;;;;;;Coupon-offer-aug19;zerotype;;Fall;Shoot can be planned post BBD as premium;No
2020901;BBS 001 E5-White-2020901;Random order Favorite Shirt;On Hold - Other;Shirts;Mr Bowerbird;Adults-Men;Men;;;;Fashion;;2017;S,MBIDSHRT00000416,M,MBIDSHRT00000417,L,MBIDSHRT00000418,XL,MBIDSHRT00000419,XXL,MBIDSHRT00000420;2199.00;;;;;;;;zerotype;;Fall;Awaitng for Launch(post BBD);No
2020891;BBS 001 E3-Pink-2020891;Dobby printed Favorite Shirt;On Hold - Other;Shirts;Mr Bowerbird;Adults-Men;Men;;;;Fashion;;2017;S,MBIDSHRT00000406,M,MBIDSHRT00000407,L,MBIDSHRT00000408,XL,MBIDSHRT00000409,XXL,MBIDSHRT00000410;2199.00;;;;;;;;zerotype;;Fall;Awaitng for Launch(post BBD);No
2020883;BBS 001 E2-Blue-2020883;Dobby printed Favorite Shirt;On Hold - Other;Shirts;Mr Bowerbird;Adults-Men;Men;;;;Fashion;;2017;S,MBIDSHRT00000401,M,MBIDSHRT00000402,L,MBIDSHRT00000403,XL,MBIDSHRT00000404,XXL,MBIDSHRT00000405;2199.00;;;;;;;;zerotype;;Fall;Awaitng for Launch(post BBD);No
2020874;BBS 001 E1-Maroon-2020874;No brainer Melange Favorite Shirt;On Hold - Other;Shirts;Mr Bowerbird;Adults-Men;Men;;;;Fashion;;2017;S,MBIDSHRT00000396,M,MBIDSHRT00000397,L,MBIDSHRT00000398,XL,MBIDSHRT00000399,XXL,MBIDSHRT00000400;2199.00;;;;;;;;zerotype;;Fall;Awaitng for Launch(post BBD);No
2020867;BBS 001 D9-Olive-2020867;No brainer Melange Favorite Shirt;On Hold - Other;Shirts;Mr Bowerbird;Adults-Men;Men;;;;Fashion;;2017;S,MBIDSHRT00000391,M,MBIDSHRT00000392,L,MBIDSHRT00000393,XL,MBIDSHRT00000394,XXL,MBIDSHRT00000395;2199.00;;;;;;;;zerotype;;Fall;Awaitng for Launch(post BBD);No
2020858;BBS 001 D8-Navy-2020858;No brainer Melange Favorite Shirt;On Hold - Other;Shirts;Mr Bowerbird;Adults-Men;Men;;;;Fashion;;2017;S,MBIDSHRT00000386,M,MBIDSHRT00000387,L,MBIDSHRT00000388,XL,MBIDSHRT00000389,XXL,MBIDSHRT00000390;2199.00;;;;;;;;zerotype;;Fall;Awaitng for Launch(post BBD);No
2020852;BBS 001 D7-White/Blue-2020852;Always cool Gingham Favorite Shirt;On Hold - Other;Shirts;Mr Bowerbird;Adults-Men;Men;;;;Fashion;;2017;S,MBIDSHRT00000381,M,MBIDSHRT00000382,L,MBIDSHRT00000383,XL,MBIDSHRT00000384,XXL,MBIDSHRT00000385;2199.00;;;;;;;;zerotype;;Fall;Awaitng for Launch(post BBD);No
2020846;BBS 001 D6-White/Blue-2020846;Space dyed premium plaid Favorite Shirt;On Hold - Other;Shirts;Mr Bowerbird;Adults-Men;Men;;;;Fashion;;2017;S,MBIDSHRT00000376,M,MBIDSHRT00000377,L,MBIDSHRT00000378,XL,MBIDSHRT00000379,XXL,MBIDSHRT00000380;2199.00;;;;;;;;zerotype;;Fall;Awaitng for Launch(post BBD);No
2020837;BBS 001 D5-White/Red-2020837;Space dyed premium plaid Favorite Shirt;On Hold - Other;Shirts;Mr Bowerbird;Adults-Men;Men;;;;Fashion;;2017;S,MBIDSHRT00000371,M,MBIDSHRT00000372,L,MBIDSHRT00000373,XL,MBIDSHRT00000374,XXL,MBIDSHRT00000375;2199.00;;;;;;;;zerotype;;Fall;Awaitng for Launch(post BBD);No
2020806;BBS 001 C9-Grey/Red-2020806;Melange city plaid Favorite Shirt;On Hold - Other;Shirts;Mr Bowerbird;Adults-Men;Men;;;;Fashion;;2017;S,MBIDSHRT00000351,M,MBIDSHRT00000352,L,MBIDSHRT00000353,XL,MBIDSHRT00000354;2199.00;;;;;;;;zerotype;;Fall;Awaitng for Launch(post BBD);No
2020798;BBS 001 C8-Grey/Blue-2020798;Melange city plaid Favorite Shirt;On Hold - Other;Shirts;Mr Bowerbird;Adults-Men;Men;;;;Fashion;;2017;S,MBIDSHRT00000347,M,MBIDSHRT00000348,L,MBIDSHRT00000349,XL,MBIDSHRT00000350;2199.00;;;;;;;;zerotype;;Fall;Awaitng for Launch(post BBD);No
2020794;BBS 001 C7-Grey/Green-2020794;Melange city plaid Favorite Shirt;On Hold - Other;Shirts;Mr Bowerbird;Adults-Men;Men;;;;Fashion;;2017;S,MBIDSHRT00000343,M,MBIDSHRT00000344,L,MBIDSHRT00000345,XL,MBIDSHRT00000346;2199.00;;;;;;;;zerotype;;Fall;Awaitng for Launch(post BBD);No
2020786;BBS 001 C6-Red/ blue-2020786;Bloch Modern check Favorite Shirt;On Hold - Other;Shirts;Mr Bowerbird;Adults-Men;Men;;;;Fashion;;2017;S,MBIDSHRT00000339,M,MBIDSHRT00000340,L,MBIDSHRT00000341,XL,MBIDSHRT00000342;2199.00;;;;;;;;zerotype;;Fall;Awaitng for Launch(post BBD);No
2020779;BBS 001 C5-maroon-2020779;Tokyo camo Favorite Shirt;On Hold - Other;Shirts;Mr Bowerbird;Adults-Men;Men;;;;Fashion;;2017;S,MBIDSHRT00000335,M,MBIDSHRT00000336,L,MBIDSHRT00000337,XL,MBIDSHRT00000338;2199.00;;;;;;;;zerotype;;Fall;Awaitng for Launch(post BBD);No
2020773;BBS 001 C4-electric blue-2020773;Tokyo camo Favorite Shirt;On Hold - Other;Shirts;Mr Bowerbird;Adults-Men;Men;;;;Fashion;;2017;S,MBIDSHRT00000331,M,MBIDSHRT00000332,L,MBIDSHRT00000333,XL,MBIDSHRT00000334;2199.00;;;;;;;;zerotype;;Fall;Awaitng for Launch(post BBD);No
2020767;BBS 001 C3-olive-2020767;Tokyo camo Favorite Shirt;On Hold - Other;Shirts;Mr Bowerbird;Adults-Men;Men;;;;Fashion;;2017;S,MBIDSHRT00000327,M,MBIDSHRT00000328,L,MBIDSHRT00000329,XL,MBIDSHRT00000330;2199.00;;;;;;;;zerotype;;Fall;Awaitng for Launch(post BBD);No
2020740;BBS 001 B5-Dr Grey-2020740;No brainer Melange Favorite Shirt;On Hold - Other;Shirts;Mr Bowerbird;Adults-Men;Men;;;;Fashion;;2017;S,MBIDSHRT00000307,M,MBIDSHRT00000308,L,MBIDSHRT00000309,XL,MBIDSHRT00000310;2199.00;;;;;;;;zerotype;;Fall;Awaitng for Launch(post BBD);No
2020734;BBS 001 B4-Khaki-2020734;No brainer Melange Favorite Shirt;On Hold - Other;Shirts;Mr Bowerbird;Adults-Men;Men;;;;Fashion;;2017;S,MBIDSHRT00000303,M,MBIDSHRT00000304,L,MBIDSHRT00000305,XL,MBIDSHRT00000306;2199.00;;;;;;;;zerotype;;Fall;Awaitng for Launch(post BBD);No
2020726;BBS 001 B3-Grey/Khaki-2020726;Melange graded plaid Favorite Shirt;On Hold - Other;Shirts;Mr Bowerbird;Adults-Men;Men;;;;Fashion;;2017;S,MBIDSHRT00000299,M,MBIDSHRT00000300,L,MBIDSHRT00000301,XL,MBIDSHRT00000302;2199.00;;;;;;;;zerotype;;Fall;Awaitng for Launch(post BBD);No
2020720;BBS 001 B2-Grey/Lt Blue-2020720;Melange graded plaid Favorite Shirt;On Hold - Other;Shirts;Mr Bowerbird;Adults-Men;Men;;;;Fashion;;2017;S,MBIDSHRT00000295,M,MBIDSHRT00000296,L,MBIDSHRT00000297,XL,MBIDSHRT00000298;2199.00;;;;;;;;zerotype;;Fall;Awaitng for Launch(post BBD);No
2020700;BBS 001 A6-Navy-2020700;Precision - Favorite Shirt;On Hold - Other;Shirts;Mr Bowerbird;Adults-Men;Men;;;;Fashion;;2017;S,MBIDSHRT00000279,M,MBIDSHRT00000280,L,MBIDSHRT00000281,XL,MBIDSHRT00000282;2499.00;;;;;;;;zerotype;;Fall;Awaitng for Launch(post BBD);No
2020694;BBS 001 A5-Grey-2020694;Precision - Favorite Shirt;On Hold - Other;Shirts;Mr Bowerbird;Adults-Men;Men;;;;Fashion;;2017;S,MBIDSHRT00000275,M,MBIDSHRT00000276,L,MBIDSHRT00000277,XL,MBIDSHRT00000278;2499.00;;;;;;;;zerotype;;Fall;Awaitng for Launch(post BBD);No
2020689;BBS 001 A4-Red / Blue-2020689;Premium Red plaid Favorite Shirt;On Hold - Other;Shirts;Mr Bowerbird;Adults-Men;Men;;;;Fashion;;2017;S,MBIDSHRT00000271,M,MBIDSHRT00000272,L,MBIDSHRT00000273,XL,MBIDSHRT00000274;2199.00;;;;;;;;zerotype;;Fall;Awaitng for Launch(post BBD);No
2018395;AW17ROYBL100B-BEIGE-2018395;TOP;On Hold - Other;Jackets;IMARA;Adults-Women;Women;;;;Fashion;;2017;XS,IMRAJCKT00000131,S,IMRAJCKT00000132,M,IMRAJCKT00000133,L,IMRAJCKT00000134,XL,IMRAJCKT00000135;1399.00;;;;;;;IMARA-AW17-18AUG,Coupon-offer-aug19;zerotype;;Fall;Shoot can be planned post BBD as premium;No
2018394;AW17ROYBL100A-BLACK-2018394;TOP;On Hold - Other;Jackets;IMARA;Adults-Women;Women;;;;Fashion;;2017;XS,IMRAJCKT00000126,S,IMRAJCKT00000127,M,IMRAJCKT00000128,L,IMRAJCKT00000129,XL,IMRAJCKT00000130;1399.00;;;;;;;IMARA-AW17-18AUG,Coupon-offer-aug19;zerotype;;Fall;Shoot can be planned post BBD as premium;No
2006037;CA17-040KMTTOPA-GREY WHITE-2006037;Sweatshirts;On Hold - Other;Sweatshirts;Chemistry;Adults-Women;Women;;;;Fashion;;2017;S,CMSTSWSH00000001,M,CMSTSWSH00000002,L,CMSTSWSH00000003,XL,CMSTSWSH00000004;1699.00;;;;;;;Coupon-offer-aug19;zerotype;;Fall;Shoot can be planned post BBD as premium;No
2005410;EAW17AB022DRP6_PRINT_16-PRINT-2005410;EAW17AB022DRP6;On Hold - Other;Dresses;AND;Adults-Women;Women;Multi;;;Fashion;Casual;2017;16,ANDDRSS00004968;2499.00;Multicoloured printed knitted A-line dress, has a round neck, sleeveless, an attached lining, straight hem;Maintain a trendy style all year long with this stunning dress from AND.  Create an absolute style high by going with this printed multi-coloured piece in combination with a killer shoe and trendy bangles for a perfect brunch look.;Polyester <br /> Machine-wash;Regular Fit<br /> The model (height 5'8") is wearing a size S;;AND Women Multicoloured Printed A-Line Dress;AND;zerotype;;Fall;Awaiting for BV - No images;No
2005398;SS17AR017BTCLY_POWDER BLU_34-POWDER BLU-2005398;SS17AR017BTCLY;On Hold - Other;Trousers;AND;Adults-Women;Women;;;;Fashion;;2017;26,ANDTRSR00000953,28,ANDTRSR00000954,30,ANDTRSR00000955,32,ANDTRSR00000956,34,ANDTRSR00000957;2299.00;<p>97% Cotton / 3% Elastin</p>;;;;;;;zerotype;;Fall;No comment entered;No
2005397;SS17AR019BTCLY_KHAKI_32-KHAKI-2005397;SS17AR019BTCLY;On Hold - Other;Trousers;AND;Adults-Women;Women;;;;Fashion;;2017;26,ANDTRSR00000949,28,ANDTRSR00000950,30,ANDTRSR00000951,32,ANDTRSR00000952;2499.00;<p>97% <a href='/cotton?src=pd' class='seolink'>Cotton</a>/<a href='/3?src=pd' class='seolink'>3</a>% Elastin</p>;;;;;;;zerotype;;Fall;No comment entered;No
2005396;SS17AR019BTCLY_BLACK_32-BLACK-2005396;SS17AR019BTCLY;On Hold - Other;Trousers;AND;Adults-Women;Women;;;;Fashion;;2017;34,ANDTRSR00000944,26,ANDTRSR00000945,28,ANDTRSR00000946,30,ANDTRSR00000947,32,ANDTRSR00000948;2499.00;<p>97% Cotton/3% Elastin</p>;;;;;;;zerotype;;Fall;No comment entered;No
2005391;SS17AA074TTR_YELLOW_18-YELLOW-2005391;SS17AA074TTR;On Hold - Other;Tops;AND;Adults-Women;Women;Yellow;;;Fashion;Casual;2017;18,ANDTOPS00007220;1999.00;<a href='/yellow?src=pd' class='seolink'>Yellow</a> <a href='/solid?src=pd' class='seolink'>solid</a> woven A-line top, has a <a href='/boat?src=pd' class='seolink'>boat</a> neck, button closure closure;Make a personal style statement with this one-of-a-kind AND top.  This yellow piece can be styled with tonal shorts and chic sandals when you're going to the beach with your friends and family.;Polyester <br /> Machine-wash;Regular Fit<br /> The model (height 5'8") is wearing a size S;;AND Women Yellow Solid A-Line Top;AND;zerotype;;Fall;Awaiting for BV- No images;No
2005383;EAW17AS043TPG_CORAL_18-CORAL-2005383;EAW17AS043TPG;On Hold - Other;Tops;AND;Adults-Women;Women;Coral;;;Fashion;Casual;2017;18,ANDTOPS00007184;1499.00;<a href='/coral?src=pd' class='seolink'>Coral</a> <a href='/solid?src=pd' class='seolink'>solid</a> woven <a href='/regular?src=pd' class='seolink'>regular</a> top, has a keyhole neck, button closure closure;You'll own any room with this trendy top from AND.  Slip on a pair of ballerina flats and pick up your favourite tote for a breezy outfit for when you're on the go.;Polyester <br /> Machine-wash;The model (height 5'8") is wearing a size S;;AND Women Coral Solid Top;AND;zerotype;;Fall;Awaiting for BV- No images;No
2005375;EAW17AB067TTG1_INK BLUE_18-INK BLUE-2005375;EAW17AB067TTG1;On Hold - Other;Tops;AND;Adults-Women;Women;Navy Blue;;;Fashion;Casual;2017;18,ANDTOPS00007155;1499.00;<a href='/navy-blue?src=pd' class='seolink'>Navy blue</a> <a href='/solid?src=pd' class='seolink'>solid</a> woven <a href='/regular?src=pd' class='seolink'>regular</a> top, has a V-neck, three-quarter sleeves;Improve your personal style with a brand new three-quarter sleeve top designed by AND.  For your next movie date or casual night out, wear this navy blue piece with sleek black jeans and trendy jewellery.;Polyester <br /> Machine-wash;The model (height 5'8") is wearing a size S;;AND Women Navy Blue Solid Top;AND;zerotype;;Fall;Awaiting for BV- No images;No
2005351;EAW17AA015TRY_PINK_16-PINK-2005351;EAW17AA015TRY;On Hold - Other;Tops;AND;Adults-Women;Women;Pink;;;Fashion;Casual;2017;16,ANDTOPS00007066;1699.00;<a href='/pink?src=pd' class='seolink'>Pink</a> <a href='/solid?src=pd' class='seolink'>solid</a> woven <a href='/regular?src=pd' class='seolink'>regular</a> top, has a keyhole neck, three-quarter sleeves;This top-of-the-line three-quarter sleeve top by AND will take your style to a whole new level.  When you want to have the perfect outfit for a fun lunch with the girls, you'll want to put this pink piece with an ankle boot and tapered-leg pants.;Viscose Rayon <br /> Machine-wash;The model (height 5'8") is wearing a size S;;AND Women Pink Solid Top;AND;zerotype;;Fall;Awaiting for BV- No images;No
2005348;AW17AB102TLCE_NAVY_16-NAVY-2005348;AW17AB102TLCE;On Hold - Other;Tops;AND;Adults-Women;Women;Navy Blue;;;Fashion;Casual;2017;16,ANDTOPS00007057;1999.00;<a href='/navy-blue?src=pd' class='seolink'>Navy blue</a> <a href='/solid?src=pd' class='seolink'>solid</a> woven bardot top, has an off-<a href='/shoulder?src=pd' class='seolink'>shoulder</a> neck, <a href='/short?src=pd' class='seolink'>short</a> sleeves;This smart shirt from AND is never boring.  This navy blue piece can be worn with dark denims and leather boots when you're going out to a weeknight happy hour.;Pure Cotton <br /> Machine-wash;The model (height 5'8") is wearing a size S;;AND Women Navy Blue Solid Bardot Top;AND;zerotype;;Fall;Awaiting for BV- No images;No
1992153;1863523005-Phantom-1992153;onlMADDIE S/S RAINBOW/REGRE, Phantom, XL;On Hold - Other;Tshirts;ONLY;Adults-Women;Women;Charcoal;;;Fashion;Casual;2017;M,ONLYTSHT00008034,S,ONLYTSHT00008035,XS,ONLYTSHT00008036,L,ONLYTSHT00008037,XL,ONLYTSHT00008038;1299.00;Charcoal printed  T-shirt, has a round neck, short sleeves;This ONLY charcoal polyester tee will add versatility to your wardrobe.  Pair this charcoal piece with your favourite skinny-fit jeans and leather jacket for a look that will take you from day to night.;Polyester and cotton <br> Machine-wash;The model (height 5'8") is wearing a size S;;ONLY Women Charcoal Printed Round Neck T-shirt;ONLY;zerotype;;Fall;Awaiting for BV;No
1992150;1863501005-Black-1992150;onlALBA S/S PRINT ATTACK TOP B, Black, S;On Hold - Other;Tshirts;ONLY;Adults-Women;Women;Black;;;Fashion;Casual;2017;XS,ONLYTSHT00008019,XL,ONLYTSHT00008020,L,ONLYTSHT00008021,M,ONLYTSHT00008022,S,ONLYTSHT00008023;799.00;Black printed  T-shirt, has a round neck, short sleeves;This easy-going tee from ONLY is a great addition to any woman's closet.  This black piece can be teamed with cutoff denim shorts for a lazy weekend look or layered under a fitted jacket for a night out with friends.;Cotton <br> Machine-wash;The model (height 5'8") is wearing a size S;;ONLY Women Black Printed Round Neck T-shirt;ONLY;zerotype;;Fall;Awaiting for BV;No
1985766;INV03B-grey-1985766;Invictus Slim Fit Sweaters;On Hold - Other;Sweaters;INVICTUS;Adults-Men;Men;;;;Fashion;;2017;S,TILCSWTR00000217,M,TILCSWTR00000218,L,TILCSWTR00000219,XL,TILCSWTR00000220;2499.00;;;;;;;invictus-Sports,invictus-Casual,men-sports-wear,Invictus-Sport,invictus-sport,Invictus-Sport-Shirts,09092017-sport,invictus-sports,mens-sports,inv-sport-11092017;zerotype;;Winter;Shoot can be planned post BBD as premium;No
1975053;ANCE 33B-BLUE + WHITE PRINT-1975053;Sweaters;On Hold - Other;Sweaters;Anouk;Adults-Women;Women;;;;Fashion;;2017;S,ANUKSWTR00000361,M,ANUKSWTR00000362,L,ANUKSWTR00000363,XL,ANUKSWTR00000364;1499.00;;;;;;;Coupon-offer-aug19;zerotype;;Fall;Shoot can be planned post BBD as premium;No
1975052;ANCE 33A-MAROON + WHITE PRINT-1975052;Sweaters;On Hold - Other;Sweaters;Anouk;Adults-Women;Women;;;;Fashion;;2017;S,ANUKSWTR00000357,M,ANUKSWTR00000358,L,ANUKSWTR00000359,XL,ANUKSWTR00000360;1499.00;;;;;;;Coupon-offer-aug19;zerotype;;Fall;Shoot can be planned post BBD as premium;No
1968323;AAY1716B-BLACK-1968323;Jackets;On Hold - Other;Jackets;all about you;Adults-Women;Women;;;;Fashion;;2017;S/M,AATUJCKT00000473,L/XL,AATUJCKT00000474;4799.00;;;;;;;aay-aw17-bd,Coupon-offer-aug19;zerotype;;Fall;add;No
1968322;AAY1716A-BROWN-1968322;Jackets;On Hold - Other;Jackets;all about you;Adults-Women;Women;;;;Fashion;;2017;S/M,AATUJCKT00000471,L/XL,AATUJCKT00000472;4799.00;;;;;;;aay-aw17-bd,Coupon-offer-aug19;zerotype;;Fall;add;No
1956523;FOSTERA-NAVY-1956523;ROUND NECK FULL SLV SWEATER;On Hold - Other;Sweaters;Roadster;Adults-Men;Men;;;;Fashion;;2017;S,RDSTSWTR00006583,M,RDSTSWTR00006584,L,RDSTSWTR00006585,XL,RDSTSWTR00006586;1599.00;;;;;;;Coupon-offer-aug19;zerotype;;Fall;add;No
1956508;ARSENICD-NAVY / CLASSIC RED-1956508;V NECK STRIPER FULL SLV SWEATER;On Hold - Other;Sweaters;Roadster;Adults-Men;Men;;;;Fashion;;2017;S,RDSTSWTR00006527,M,RDSTSWTR00006528,L,RDSTSWTR00006529,XL,RDSTSWTR00006530;1599.00;;;;;;;Coupon-offer-aug19;zerotype;;Fall;add;No
1956507;ARSENICC-BLACK/PASTURE GREEN-1956507;V NECK STRIPER FULL SLV SWEATER;On Hold - Other;Sweaters;Roadster;Adults-Men;Men;;;;Fashion;;2017;S,RDSTSWTR00006523,M,RDSTSWTR00006524,L,RDSTSWTR00006525,XL,RDSTSWTR00006526;1599.00;;;;;;;Coupon-offer-aug19;zerotype;;Fall;add;No
1956506;ARSENICB-NAVY/ CHOCO-1956506;V NECK STRIPER FULL SLV SWEATER;On Hold - Other;Sweaters;Roadster;Adults-Men;Men;;;;Fashion;;2017;S,RDSTSWTR00006519,M,RDSTSWTR00006520,L,RDSTSWTR00006521,XL,RDSTSWTR00006522;1599.00;;;;;;;Coupon-offer-aug19;zerotype;;Fall;add;No
1956504;ARSENICA-BLACK/ANTHRA MLG-1956504;V NECK STRIPER FULL SLV SWEATER;On Hold - Other;Sweaters;Roadster;Adults-Men;Men;;;;Fashion;;2017;S,RDSTSWTR00006515,M,RDSTSWTR00006516,L,RDSTSWTR00006517,XL,RDSTSWTR00006518;1599.00;;;;;;;Coupon-offer-aug19;zerotype;;Fall;add;No
1956486;DIRECTA-BLACK / WHITE / CLASSIC RED-1956486;YD Hoodie Color Block Sweater;On Hold - Other;Sweaters;Roadster;Adults-Men;Men;Black;White;;Fashion;Casual;2017;S,RDSTSWTR00006451,M,RDSTSWTR00006452,L,RDSTSWTR00006453,XL,RDSTSWTR00006454;1599.00;Black and white colourblocked pullover, has a hood, long sleeves, ribbed hem;This Roadster sweater is waiting to be the perfect addition to your wardrobe.  This black piece can be worn with slick black jeans and leather boots when you're going to a comedy show.;Acrylic <br> Machine-wash;The model (height 6') is wearing a size M;;Roadster Men Black & White Colourblocked Pullover;Roadster,Coupon-offer-aug19;zerotype;;Fall;Shoot can be planned post BBD as premium;No
1956255;YEL-218C-CLASSIC RED/ANTHRA/NAVY-1956255;ROUND NECK SWEATER;On Hold - Other;Sweaters;Roadster;Adults-Men;Men;;;;Fashion;;2017;S,RDSTSWTR00005787,M,RDSTSWTR00005788,L,RDSTSWTR00005789,XL,RDSTSWTR00005790;1699.00;;;;;;;;zerotype;;Fall;Shoot can be planned post BBD as premium;No
1956254;YEL-218B-BLACK/LT.GREY/ANTHRA-1956254;ROUND NECK SWEATER;On Hold - Other;Sweaters;Roadster;Adults-Men;Men;;;;Fashion;;2017;S,RDSTSWTR00005783,M,RDSTSWTR00005784,L,RDSTSWTR00005785,XL,RDSTSWTR00005786;1699.00;;;;;;;;zerotype;;Fall;Shoot can be planned post BBD as premium;No
1956253;YEL-218A-NAVY/ANTHRA/CHOCO-1956253;ROUND NECK SWEATER;On Hold - Other;Sweaters;Roadster;Adults-Men;Men;;;;Fashion;;2017;S,RDSTSWTR00005779,M,RDSTSWTR00005780,L,RDSTSWTR00005781,XL,RDSTSWTR00005782;1699.00;;;;;;;;zerotype;;Fall;Shoot can be planned post BBD as premium;No
1949958;YEL- 522-2-CORAL / ANTHRA-1949958;R/ NECK SWEATER;On Hold - Other;Sweaters;Roadster;Adults-Women;Women;;;;Fashion;;2017;S,RDSTSWTR00005455,M,RDSTSWTR00005456,L,RDSTSWTR00005457,XL,RDSTSWTR00005458;1499.00;;;;;;;;zerotype;;Fall;Shoot can be planned post BBD as premium;No
1949957;YEL- 522-1-BLACK / MID GREY-1949957;R/ NECK SWEATER;On Hold - Other;Sweaters;Roadster;Adults-Women;Women;;;;Fashion;;2017;S,RDSTSWTR00005451,M,RDSTSWTR00005452,L,RDSTSWTR00005453,XL,RDSTSWTR00005454;1499.00;;;;;;;;zerotype;;Fall;Shoot can be planned post BBD as premium;No
1949956;YEL- 522-9-BURGANDY / CAMEL-1949956;R/ NECK SWEATER;On Hold - Other;Sweaters;Roadster;Adults-Women;Women;;;;Fashion;;2017;S,RDSTSWTR00005447,M,RDSTSWTR00005448,L,RDSTSWTR00005449,XL,RDSTSWTR00005450;1499.00;;;;;;;;zerotype;;Fall;Shoot can be planned post BBD as premium;No
1946706;HRX-SS17-MK-1990 A-POPPY RED-1946706;CREW NECK L SLV W CHST PRINT;On Hold - Other;Sweatshirts;HRX by Hrithik Roshan;Adults-Men;Men;;;;Fashion;;2017;S,HBHRSWSH00001501,M,HBHRSWSH00001502,L,HBHRSWSH00001503,XL,HBHRSWSH00001504;1299.00;<p>CREW NECK L SLV W CHST PRINT</p>;;<p>85% COTTON 15% POLYESTER</p>;;;;Coupon-offer-aug19;zerotype;;Fall;Shoot can be planned post BBD as premium;No
1944467;AAYAW17SST011B-Wine-1944467;Sweatshirts;On Hold - Other;Sweatshirts;all about you;Adults-Women;Women;;;;Fashion;;2017;S,AATUSWSH00000165,M,AATUSWSH00000166,L,AATUSWSH00000167,XL,AATUSWSH00000168;2199.00;;;;;;;aay-aw17launch,aay-aw17-bd,Coupon-offer-aug19;zerotype;;Fall;Shoot can be planned post BBD as premium;No
1944466;AAYAW17SST011A-Navy-1944466;Sweatshirts;On Hold - Other;Sweatshirts;all about you;Adults-Women;Women;;;;Fashion;;2017;S,AATUSWSH00000161,M,AATUSWSH00000162,L,AATUSWSH00000163,XL,AATUSWSH00000164;2199.00;;;;;;;aay-aw17launch,aay-aw17-bd,Coupon-offer-aug19;zerotype;;Fall;Shoot can be planned post BBD as premium;No
1929673;HD-9166-C-TEAL/OFF. WHITE-1929673;LADIES SWEATERS;On Hold - Other;Sweaters;Roadster;Adults-Women;Women;;;;Fashion;;2017;S,RDSTSWTR00005263,M,RDSTSWTR00005264,L,RDSTSWTR00005265,XL,RDSTSWTR00005266;1999.00;;;;;;;;zerotype;;Fall;Shoot can be planned post BBD as premium;No
1929671;HD-9166-A-BLACK/OFF. WHITE-1929671;LADIES SWEATERS;On Hold - Other;Sweaters;Roadster;Adults-Women;Women;;;;Fashion;;2017;S,RDSTSWTR00005255,M,RDSTSWTR00005256,L,RDSTSWTR00005257,XL,RDSTSWTR00005258;1999.00;;;;;;;;zerotype;;Fall;Shoot can be planned post BBD as premium;No
1929670;HD10512-C-PINK/DK. GREY/LT. GREY-1929670;LADIES SWEATERS;On Hold - Other;Sweaters;Roadster;Adults-Women;Women;;;;Fashion;;2017;S,RDSTSWTR00005251,M,RDSTSWTR00005252,L,RDSTSWTR00005253,XL,RDSTSWTR00005254;2099.00;;;;;;;;zerotype;;Fall;Shoot can be planned post BBD as premium;No
1929669;HD-10512-B-DEEP RED/NAVY/GREY-1929669;LADIES SWEATERS;On Hold - Other;Sweaters;Roadster;Adults-Women;Women;;;;Fashion;;2017;S,RDSTSWTR00005247,M,RDSTSWTR00005248,L,RDSTSWTR00005249,XL,RDSTSWTR00005250;2099.00;;;;;;;;zerotype;;Fall;Shoot can be planned post BBD as premium;No
1929668;HD-10512-A-OFF. WHITE/BLACK/BLUSH-1929668;LADIES SWEATERS;On Hold - Other;Sweaters;Roadster;Adults-Women;Women;;;;Fashion;;2017;S,RDSTSWTR00005243,M,RDSTSWTR00005244,L,RDSTSWTR00005245,XL,RDSTSWTR00005246;2099.00;;;;;;;;zerotype;;Fall;Shoot can be planned post BBD as premium;No
1929667;HD-10509-C-KHAKI/BLACK/OLIVE-1929667;LADIES SWEATERS;On Hold - Other;Sweaters;Roadster;Adults-Women;Women;;;;Fashion;;2017;S,RDSTSWTR00005239,M,RDSTSWTR00005240,L,RDSTSWTR00005241,XL,RDSTSWTR00005242;2099.00;;;;;;;;zerotype;;Fall;Shoot can be planned post BBD as premium;No
1929665;HD-10509-A-BLACK/OFF. WHITE/GREY MELANGE-1929665;LADIES SWEATERS;On Hold - Other;Sweaters;Roadster;Adults-Women;Women;;;;Fashion;;2017;S,RDSTSWTR00005231,M,RDSTSWTR00005232,L,RDSTSWTR00005233,XL,RDSTSWTR00005234;2099.00;;;;;;;;zerotype;;Fall;Shoot can be planned post BBD as premium;No
1929661;HD-10511-C-CHARCOAL/OFF. WHITE-1929661;LADIES SWEATERS;On Hold - Other;Sweaters;Roadster;Adults-Women;Women;;;;Fashion;;2017;S,RDSTSWTR00005215,M,RDSTSWTR00005216,L,RDSTSWTR00005217,XL,RDSTSWTR00005218;2099.00;;;;;;;;zerotype;;Fall;Shoot can be planned post BBD as premium;No
1929658;HD-10511-2-C-OFF.WHITE/GREY/DEEP RED/NAVY-1929658;LADIES SWEATERS;On Hold - Other;Sweaters;Roadster;Adults-Women;Women;;;;Fashion;;2017;S,RDSTSWTR00005203,M,RDSTSWTR00005204,L,RDSTSWTR00005205,XL,RDSTSWTR00005206;2299.00;;;;;;;;zerotype;;Fall;Shoot can be planned post BBD as premium;No
1929657;HD-10511-2-B-NAVY/OFF. WHITE/GREY/MUSTARD-1929657;LADIES SWEATERS;On Hold - Other;Sweaters;Roadster;Adults-Women;Women;;;;Fashion;;2017;S,RDSTSWTR00005199,M,RDSTSWTR00005200,L,RDSTSWTR00005201,XL,RDSTSWTR00005202;2299.00;;;;;;;;zerotype;;Fall;Shoot can be planned post BBD as premium;No
1929656;HD-10511-2-A-LT. GREY/CHARCOAL/DEEP RED/NAVY-1929656;LADIES SWEATERS;On Hold - Other;Sweaters;Roadster;Adults-Women;Women;;;;Fashion;;2017;S,RDSTSWTR00005195,M,RDSTSWTR00005196,L,RDSTSWTR00005197,XL,RDSTSWTR00005198;2299.00;;;;;;;;zerotype;;Fall;Shoot can be planned post BBD as premium;No
1920578;AW17DB-CH-02E-LT.GREY-1920578;SWEATER;On Hold - Other;Sweaters;DressBerry;Adults-Women;Women;;;;Fashion;;2017;S,DSBYSWTR00002593,M,DSBYSWTR00002594,L,DSBYSWTR00002595,XL,DSBYSWTR00002596;1499.00;;;;;;;Coupon-offer-aug19;zerotype;;Fall;add;No
1920567;AW17DB-CH-23D-BLACK-1920567;SWEATER;On Hold - Other;Sweaters;DressBerry;Adults-Women;Women;;;;Fashion;;2017;S,DSBYSWTR00002565,M,DSBYSWTR00002566,L,DSBYSWTR00002567,XL,DSBYSWTR00002568;1699.00;;;;;;;Coupon-offer-aug19;zerotype;;Fall;add;No
1920564;AW17CHAW01D-RED-1920564;SWEATER;On Hold - Other;Sweaters;DressBerry;Adults-Women;Women;;;;Fashion;;2017;S,DSBYSWTR00002557,M,DSBYSWTR00002558,L,DSBYSWTR00002559,XL,DSBYSWTR00002560;1499.00;;;;;;;Coupon-offer-aug19;zerotype;;Fall;add;No
1915252;AAY1709B-NAVY-1915252;LADIES' KNIT JACKET;On Hold - Other;Jackets;all about you;Adults-Women;Women;;;;Fashion;;2017;S,AATUJCKT00000407,M,AATUJCKT00000408,L,AATUJCKT00000409,XL,AATUJCKT00000410;3999.00;;;;;;;aay-aw17-bd,Coupon-offer-aug19;zerotype;;Fall;Shoot can be planned post BBD as premium;No
1915251;AAY1709A-PEACH-1915251;LADIES' KNIT JACKET;On Hold - Other;Jackets;all about you;Adults-Women;Women;Peach;;;Fashion;Casual;2017;S,AATUJCKT00000403,M,AATUJCKT00000404,L,AATUJCKT00000405,XL,AATUJCKT00000406;3999.00;Peach-Coloured solid bomber, has a stand collar, 2 pockets, no closure closure, long sleeves, straight hem, polyester lining;Stay cosy and warm with this trendsetting all about you peach jacket.  When you're going to an art gallery, wear this piece with slick black jeans and a fashionable top.;Polyester <br> Machine-wash;The model (height 5'8") is wearing a size S;;all about you Women Peach-Coloured Solid Bomber;all about you,aay-aw17-bd,Coupon-offer-aug19;zerotype;;Fall;Shoot can be planned post BBD as premium;No
1915250;AAY1707B-BEIGE-1915250;LADIE'S FELT VEST;On Hold - Other;Jackets;all about you;Adults-Women;Women;;;;Fashion;;2017;S,AATUJCKT00000399,M,AATUJCKT00000400,L,AATUJCKT00000401,XL,AATUJCKT00000402;4199.00;;;;;;;aay-aw17-bd,Coupon-offer-aug19;zerotype;;Fall;Shoot can be planned post BBD as premium;No
1915249;AAY1707A-BROWN-1915249;LADIE'S FELT VEST;On Hold - Other;Jackets;all about you;Adults-Women;Women;Black;;;Fashion;Casual;2017;S,AATUJCKT00000395,M,AATUJCKT00000396,L,AATUJCKT00000397,XL,AATUJCKT00000398;4199.00;Black solid tailored jacket, has a lapel collar, 2 pockets, button closure closure, sleeveless, straight hem, polyester lining;This top-of-the-line black jacket from all about you is comfortable and easy to layer.  Stay warm while heading out to the city with friends this weekend in this piece.;Polyester <br> Dry-clean;The model (height 5'8") is wearing a size S;;all about you Women Black Solid Tailored Jacket;all about you,aay-aw17-bd,Coupon-offer-aug19;zerotype;;Fall;Shoot can be planned post BBD as premium;No
1915240;AAY1702F-BLACK-1915240;LADIES'S FELT COAT WITH FUR TRIM;On Hold - Other;Jackets;all about you;Adults-Women;Women;;;;Fashion;;2017;S,AATUJCKT00000359,M,AATUJCKT00000360,L,AATUJCKT00000361,XL,AATUJCKT00000362;4999.00;;;;;;;aay-aw17-bd,Coupon-offer-aug19;zerotype;;Fall;add;No
1915239;AAY1702E-RED-1915239;LADIES'S FELT COAT WITH FUR TRIM;On Hold - Other;Jackets;all about you;Adults-Women;Women;;;;Fashion;;2017;S,AATUJCKT00000355,M,AATUJCKT00000356,L,AATUJCKT00000357,XL,AATUJCKT00000358;4999.00;;;;;;;aay-aw17-bd,Coupon-offer-aug19;zerotype;;Fall;add;No
1912097;217DBKSLD025164B-Charcoal-1912097;SWEATSHIRT WITH LACE OVER FRILL;Active;Sweatshirts;DressBerry;Adults-Women;Women;Charcoal;;;Fashion;Casual;2017;S,DSBYSWSH00000550,M,DSBYSWSH00000551,L,DSBYSWSH00000552,XL,DSBYSWSH00000553;1599.00;<a href='/charcoal?src=pd' class='seolink'>Charcoal</a> <a href='/grey?src=pd' class='seolink'>grey</a> <a href='/solid?src=pd' class='seolink'>solid</a> sweatshirt, has a round neck, long sleeves with lace detailing, high-low hemline;You'll love this warm and fashionable sweatshirt from DressBerry. Head to the mall in comfort and style with this charcoal grey piece, a T-shirt and your favourite summer shorts.;Cotton <br> Machine-wash;The model (height 5'8") is wearing a size S;;DressBerry Women Charcoal Grey Solid Sweatshirt;DressBerry;zerotype;;Fall;;No
1884762;HD-10956-B-MAROON-1884762;WOMEN'S JACKET;Draft;Jackets;DressBerry;Adults-Women;Women;;;;Fashion;;2017;S,DSBYJCKT00000821,M,DSBYJCKT00000822,L,DSBYJCKT00000823,XL,DSBYJCKT00000824;3799.00;;;;;;;;zerotype;;Fall;No comment entered;No
1884761;HD-10956-A-BEIGE-1884761;WOMEN'S JACKET;Draft;Jackets;DressBerry;Adults-Women;Women;;;;Fashion;;2017;S,DSBYJCKT00000817,M,DSBYJCKT00000818,L,DSBYJCKT00000819,XL,DSBYJCKT00000820;3799.00;;;;;;;;zerotype;;Fall;No comment entered;No
1884759;HD-10955-B-BLACK-1884759;WOMEN'S JACKET;On Hold - Other;Jackets;DressBerry;Adults-Women;Women;;;;Fashion;;2017;S,DSBYJCKT00000809,M,DSBYJCKT00000810,L,DSBYJCKT00000811,XL,DSBYJCKT00000812;3799.00;;;;;;;;zerotype;;Fall;Shoot can be planned post BBD as premium;No
1884758;HD-10955-A-BRONZE-1884758;WOMEN'S JACKET;Draft;Jackets;DressBerry;Adults-Women;Women;;;;Fashion;;2017;S,DSBYJCKT00000805,M,DSBYJCKT00000806,L,DSBYJCKT00000807,XL,DSBYJCKT00000808;3799.00;;;;;;;;zerotype;;Fall;No comment entered;No
1884757;HD-10954-C-SILVER-1884757;WOMEN'S JACKET;Draft;Jackets;DressBerry;Adults-Women;Women;;;;Fashion;;2017;S,DSBYJCKT00000801,M,DSBYJCKT00000802,L,DSBYJCKT00000803,XL,DSBYJCKT00000804;3699.00;;;;;;;;zerotype;;Fall;No comment entered;No
1884755;HD-10954-A-BLACK-1884755;WOMEN'S JACKET;Draft;Jackets;DressBerry;Adults-Women;Women;;;;Fashion;;2017;S,DSBYJCKT00000793,M,DSBYJCKT00000794,L,DSBYJCKT00000795,XL,DSBYJCKT00000796;3699.00;;;;;;;;zerotype;;Fall;No comment entered;No
1884754;HD-10953-C-MAROON-1884754;WOMEN'S JACKET;Draft;Jackets;DressBerry;Adults-Women;Women;;;;Fashion;;2017;S,DSBYJCKT00000789,M,DSBYJCKT00000790,L,DSBYJCKT00000791,XL,DSBYJCKT00000792;3699.00;;;;;;;;zerotype;;Fall;No comment entered;No
1875923;LTCP302-CHARCOAL-8XL-Navy Blue-1875923;pluss women capri;On Hold - Other;Capris;plusS;Adults-Women;Women;Blue;White;;Core;Casual;2017;34,PLUSCPRI00000266,36,PLUSCPRI00000267,38,PLUSCPRI00000268,40,PLUSCPRI00000269,42,PLUSCPRI00000270,44,PLUSCPRI00000271,46,PLUSCPRI00000272,48,PLUSCPRI00000273;900.00;Blue and white mid-rise printed capris, has an elasticated waistband;You will love these comfortable capris from plusS. Wear them with a tunic and flats for a chic look.;100% cotton<br />Machine-wash cold;Mid-rise<br />The model (height 5'8") is wearing a size 28;;plusS Blue & White Printed Capris;plusS,JIT,big10-ftod,big10-super-hour25;zerotype;;Summer;big10-price-surge;No
1875251;W2 -B-15-Viva-Pink-1875251;WOMENS JACKET;On Hold - Other;Jackets;Roadster;Adults-Women;Women;;;;Fashion;;2017;S,RDSTJCKT00004330,M,RDSTJCKT00004331,L,RDSTJCKT00004332,XL,RDSTJCKT00004333;2699.00;;;;;;;rd-womwinter-coll,Coupon-offer-aug19;zerotype;;Fall;Shoot can be planned post BBD as premium;No
1875250;W2 -B-14-Peacock Blue-1875250;WOMENS JACKET;On Hold - Other;Jackets;Roadster;Adults-Women;Women;;;;Fashion;;2017;S,RDSTJCKT00004326,M,RDSTJCKT00004327,L,RDSTJCKT00004328,XL,RDSTJCKT00004329;2699.00;;;;;;;rd-womwinter-coll,Coupon-offer-aug19;zerotype;;Fall;Shoot can be planned post BBD as premium;No
1875249;W2 -B-13-Mouse-1875249;WOMENS JACKET;On Hold - Other;Jackets;Roadster;Adults-Women;Women;;;;Fashion;;2017;S,RDSTJCKT00004322,M,RDSTJCKT00004323,L,RDSTJCKT00004324,XL,RDSTJCKT00004325;2699.00;;;;;;;rd-womwinter-coll,Coupon-offer-aug19;zerotype;;Fall;Shoot can be planned post BBD as premium;No
1875248;W2 -A-12-SILVER-1875248;WOMENS JACKET;On Hold - Other;Jackets;Roadster;Adults-Women;Women;;;;Fashion;;2017;S,RDSTJCKT00004318,M,RDSTJCKT00004319,L,RDSTJCKT00004320,XL,RDSTJCKT00004321;2499.00;;;;;;;rd-womwinter-coll,Coupon-offer-aug19;zerotype;;Fall;Shoot can be planned post BBD as premium;No
1875247;W2 -A-11-CHERRY-1875247;WOMENS JACKET;On Hold - Other;Jackets;Roadster;Adults-Women;Women;;;;Fashion;;2017;S,RDSTJCKT00004314,M,RDSTJCKT00004315,L,RDSTJCKT00004316,XL,RDSTJCKT00004317;2499.00;;;;;;;rd-womwinter-coll,Coupon-offer-aug19;zerotype;;Fall;Shoot can be planned post BBD as premium;No
1875246;W2 -A-10-BLACK-1875246;WOMENS JACKET;On Hold - Other;Jackets;Roadster;Adults-Women;Women;;;;Fashion;;2017;S,RDSTJCKT00004310,M,RDSTJCKT00004311,L,RDSTJCKT00004312,XL,RDSTJCKT00004313;2499.00;;;;;;;rd-womwinter-coll,Coupon-offer-aug19;zerotype;;Fall;Shoot can be planned post BBD as premium;No
1868246;HRX-FW17-MW-1871-B-Off White-1868246;MENS JKT;On Hold - Other;Jackets;HRX by Hrithik Roshan;Adults-Men;Men;Off White;;;Fashion;Sports;2017;S,HBHRJCKT00001490,M,HBHRJCKT00001491,L,HBHRJCKT00001492,XL,HBHRJCKT00001493,XXL,HBHRJCKT00001494;2199.00;Off-White solid sporty jacket, has a hooded, 2 pockets, zip closure, long sleeves, straight hem, mesh lining;Make a name for yourself this season when you rock this handsome off-white jacket.  Pair this HRX by Hrithik Roshan jacket with a cool T-shirt and trim denims when you're going out for drinks with the boys.;Polyester <br> Machine-wash;The model (height 6') is wearing a size M;;HRX by Hrithik Roshan Men Off-White Solid Sporty Jacket;HRX by Hrithik Roshan,Coupon-offer-aug19;zerotype;;Fall;Shoot can be planned post BBD as premium;No
1868184;HRX-FW17-MW-1876-C-Blue-1868184;MENS JKT;On Hold - Other;Jackets;HRX by Hrithik Roshan;Adults-Men;Men;;;;Fashion;;2017;S,HBHRJCKT00001430,M,HBHRJCKT00001431,L,HBHRJCKT00001432,XL,HBHRJCKT00001433,XXL,HBHRJCKT00001434;2999.00;;;;;;;;zerotype;;Fall;Shoot can be planned post BBD as premium;No
1868182;HRX-FW17-MW-1876-B-Olive-1868182;MENS JKT;On Hold - Other;Jackets;HRX by Hrithik Roshan;Adults-Men;Men;;;;Fashion;;2017;S,HBHRJCKT00001425,M,HBHRJCKT00001426,L,HBHRJCKT00001427,XL,HBHRJCKT00001428,XXL,HBHRJCKT00001429;2999.00;;;;;;;;zerotype;;Fall;Shoot can be planned post BBD as premium;No
1868181;HRX-FW17-MW-1876-A-Navy-1868181;MENS JKT;On Hold - Other;Jackets;HRX by Hrithik Roshan;Adults-Men;Men;;;;Fashion;;2017;S,HBHRJCKT00001420,M,HBHRJCKT00001421,L,HBHRJCKT00001422,XL,HBHRJCKT00001423,XXL,HBHRJCKT00001424;2999.00;;;;;;;;zerotype;;Fall;Shoot can be planned post BBD as premium;No
1863621;AW17CH AW 08B-Black-1863621;Diagonal Top;On Hold - Other;Sweaters;DressBerry;Adults-Women;Women;;;;Fashion;;2017;S,DSBYSWTR00002273,M,DSBYSWTR00002274,L,DSBYSWTR00002275,XL,DSBYSWTR00002276;1499.00;;;;;;;Coupon-offer-aug19;zerotype;;Fall;add;No
1863620;AW17CH AW 08A-Electric Blue-1863620;Diagonal Top;On Hold - Other;Sweaters;DressBerry;Adults-Women;Women;;;;Fashion;;2017;S,DSBYSWTR00002269,M,DSBYSWTR00002270,L,DSBYSWTR00002271,XL,DSBYSWTR00002272;1499.00;;;;;;;Coupon-offer-aug19;zerotype;;Fall;add;No
1863588;AW17DB-CH-15A-Brown multicolor-1863588;Ganji Top;On Hold - Other;Sweaters;DressBerry;Adults-Women;Women;;;;Fashion;;2017;S,DSBYSWTR00002140,M,DSBYSWTR00002141,L,DSBYSWTR00002142,XL,DSBYSWTR00002143;1099.00;;;;;;;Coupon-offer-aug19;zerotype;;Fall;add;No
1863555;AW171332877B-Olive/Black-1863555;Long grindle Lurex Top;On Hold - Other;Sweaters;DressBerry;Adults-Women;Women;;;;Fashion;;2017;S,DSBYSWTR00002008,M,DSBYSWTR00002009,L,DSBYSWTR00002010,XL,DSBYSWTR00002011;1999.00;;;;;;;Coupon-offer-aug19;zerotype;;Fall;add;No
1863551;AW171332897B-Navy and Offwhite-1863551;Stripper Top;On Hold - Other;Sweaters;DressBerry;Adults-Women;Women;;;;Fashion;;2017;S,DSBYSWTR00001992,M,DSBYSWTR00001993,L,DSBYSWTR00001994,XL,DSBYSWTR00001995;1499.00;;;;;;;Coupon-offer-aug19;zerotype;;Fall;add;No
1863550;AW171332897A-White and Black-1863550;Stripper Top;On Hold - Other;Sweaters;DressBerry;Adults-Women;Women;;;;Fashion;;2017;S,DSBYSWTR00001988,M,DSBYSWTR00001989,L,DSBYSWTR00001990,XL,DSBYSWTR00001991;1499.00;;;;;;;Coupon-offer-aug19;zerotype;;Fall;add;No
1858126;1339613A-CREAM/DNM BLUE-1858126;Sweaters;On Hold - Other;Sweaters;DressBerry;Adults-Women;Women;;;;Fashion;;2017;S,DSBYSWTR00001655,M,DSBYSWTR00001656,L,DSBYSWTR00001657,XL,DSBYSWTR00001658;1599.00;;;;;;;Coupon-offer-aug19;zerotype;;Fall;add;No
1853878;AAYAW17SWT026B-Deep Mouse-1853878;Sweaters;On Hold - Other;Sweaters;all about you;Adults-Women;Women;;;;Fashion;;2017;S,AATUSWTR00000463,M,AATUSWTR00000464,L,AATUSWTR00000465,XL,AATUSWTR00000466;1999.00;;;;;;;aay-ww2017,aay-aw17launch,aay-aw17-bd,Coupon-offer-aug19;zerotype;;Fall;add;No
1853872;AAYAW17SWT042B-OFFWHITE-1853872;Sweaters;On Hold - Other;Sweaters;all about you;Adults-Women;Women;;;;Fashion;;2017;S,AATUSWTR00000439,M,AATUSWTR00000440,L,AATUSWTR00000441,XL,AATUSWTR00000442;2299.00;;;;;;;aay-ww2017,aay-aw17launch,aay-aw17-bd,Coupon-offer-aug19;zerotype;;Fall;add;No
1853871;AAYAW17SWT042A-DEER-1853871;Sweaters;On Hold - Other;Sweaters;all about you;Adults-Women;Women;;;;Fashion;;2017;S,AATUSWTR00000435,M,AATUSWTR00000436,L,AATUSWTR00000437,XL,AATUSWTR00000438;2299.00;;;;;;;aay-ww2017,aay-aw17launch,aay-aw17-bd,Coupon-offer-aug19;zerotype;;Fall;add;No
1845115;1628-W6-TAN-1845115;Men Jacket;On Hold - Other;Jackets;Roadster;Adults-Men;Men;;;;Fashion;;2017;L,RDSTJCKT00003698,M,RDSTJCKT00003699,XL,RDSTJCKT00003700,XXL,RDSTJCKT00003701;4599.00;;;;;;;;zerotype;;Fall;Winter wear collection;No
1845114;1628-W5-BROWN-1845114;Men Jacket;On Hold - Other;Jackets;Roadster;Adults-Men;Men;;;;Fashion;;2017;L,RDSTJCKT00003694,M,RDSTJCKT00003695,XL,RDSTJCKT00003696,XXL,RDSTJCKT00003697;4599.00;;;;;;;;zerotype;;Fall;Winter wear collection;No
1845113;1628-W4-BLACK-1845113;Men Jacket;On Hold - Other;Jackets;Roadster;Adults-Men;Men;;;;Fashion;;2017;L,RDSTJCKT00003690,M,RDSTJCKT00003691,XL,RDSTJCKT00003692,XXL,RDSTJCKT00003693;4599.00;;;;;;;;zerotype;;Fall;Winter wear collection;No
1839553;EIRJK07C-WINE-1839553;WOMENS JACKET;On Hold - Other;Jackets;Roadster;Adults-Women;Women;;;;Fashion;;2017;S,RDSTJCKT00003590,M,RDSTJCKT00003591,L,RDSTJCKT00003592,XL,RDSTJCKT00003593;4599.00;;;;;;;Coupon-offer-aug19;zerotype;;Fall;Shoot can be planned post BBD as premium;No
1839552;EIRJK07B-TAN-1839552;WOMENS JACKET;On Hold - Other;Jackets;Roadster;Adults-Women;Women;;;;Fashion;;2017;S,RDSTJCKT00003586,M,RDSTJCKT00003587,L,RDSTJCKT00003588,XL,RDSTJCKT00003589;4599.00;;;;;;;Coupon-offer-aug19;zerotype;;Fall;Shoot can be planned post BBD as premium;No
1839551;EIRJK07A-BLACK-1839551;WOMENS JACKET;On Hold - Other;Jackets;Roadster;Adults-Women;Women;;;;Fashion;;2017;S,RDSTJCKT00003582,M,RDSTJCKT00003583,L,RDSTJCKT00003584,XL,RDSTJCKT00003585;4599.00;;;;;;;Coupon-offer-aug19;zerotype;;Fall;Shoot can be planned post BBD as premium;No
1839550;EIRJK06B-WINE-1839550;WOMENS JACKET;On Hold - Other;Jackets;Roadster;Adults-Women;Women;;;;Fashion;;2017;S,RDSTJCKT00003578,M,RDSTJCKT00003579,L,RDSTJCKT00003580,XL,RDSTJCKT00003581;4099.00;;;;;;;Coupon-offer-aug19;zerotype;;Fall;Shoot can be planned post BBD as premium;No
1839549;EIRJK06A-BLACK-1839549;WOMENS JACKET;On Hold - Other;Jackets;Roadster;Adults-Women;Women;Black;;;Fashion;Casual;2017;S,RDSTJCKT00003574,M,RDSTJCKT00003575,L,RDSTJCKT00003576,XL,RDSTJCKT00003577;4099.00;Black solid biker jacket, has a mock collar, 2 pockets, zip closure, long sleeves, straight hem, polyester lining;You'll love the warmth and style of this black jacket made by Roadster.  Stay warm while heading out to the city with friends this weekend in this piece.;PU <br> Machine-wash;The model (height 5'8") is wearing a size S;;Roadster Women Black Solid Biker Jacket;Roadster,Coupon-offer-aug19;zerotype;;Fall;Shoot can be planned post BBD as premium;No
1839548;EIRJK05B-TAN-1839548;WOMENS JACKET;On Hold - Other;Jackets;Roadster;Adults-Women;Women;;;;Fashion;;2017;S,RDSTJCKT00003570,M,RDSTJCKT00003571,L,RDSTJCKT00003572,XL,RDSTJCKT00003573;4299.00;;;;;;;Coupon-offer-aug19;zerotype;;Fall;Shoot can be planned post BBD as premium;No
1839547;EIRJK05A-BLACK-1839547;WOMENS JACKET;On Hold - Other;Jackets;Roadster;Adults-Women;Women;Black;;;Fashion;Casual;2017;S,RDSTJCKT00003566,M,RDSTJCKT00003567,L,RDSTJCKT00003568,XL,RDSTJCKT00003569;4299.00;<a href='/black?src=pd' class='seolink'>Black</a> <a href='/solid?src=pd' class='seolink'>solid</a> biker jacket, has a lapel collar, 2 pockets, zip closure, long sleeves, straight hem, <a href='/polyester?src=pd' class='seolink'>polyester</a> lining;Stay cosy and warm with this trendsetting Roadster black jacket.  This piece can be matched with dark wash jeans and a cute tee when you're going to dinner with your family.;PU <br> Machine-wash;The model (height 5'8") is wearing a size S;;Roadster Women Black Solid Asymmetric Closure Biker Jacket;Roadster,Coupon-offer-aug19;zerotype;;Fall;Shoot can be planned post BBD as premium;No
1839546;EIRJK04B-BLACK-1839546;WOMENS JACKET;On Hold - Other;Jackets;Roadster;Adults-Women;Women;Black;;;Fashion;Casual;2017;S,RDSTJCKT00003562,M,RDSTJCKT00003563,L,RDSTJCKT00003564,XL,RDSTJCKT00003565;3699.00;Black solid open front jacket, has a lapel collar, none pockets, no closure closure, long sleeves, straight hem, polyester lining;You'll love the warmth and style of this black jacket made by Roadster.  This piece can be matched with dark wash jeans and a cute tee when you're going to dinner with your family.;Cotton <br> Machine-wash;The model (height 5'8") is wearing a size S;;Roadster Women Black Solid Open Front Jacket;Roadster,Coupon-offer-aug19;zerotype;;Fall;Shoot can be planned post BBD as premium;No
1839544;EIRJK03B-BLACK-1839544;WOMENS JACKET;On Hold - Other;Jackets;Roadster;Adults-Women;Women;;;;Fashion;;2017;S,RDSTJCKT00003554,M,RDSTJCKT00003555,L,RDSTJCKT00003556,XL,RDSTJCKT00003557;4599.00;;;;;;;Coupon-offer-aug19;zerotype;;Fall;Shoot can be planned post BBD as premium;No
1839543;EIRJK03A-DK SILVER-1839543;WOMENS JACKET;On Hold - Other;Jackets;Roadster;Adults-Women;Women;Beige;;;Fashion;Casual;2017;S,RDSTJCKT00003550,M,RDSTJCKT00003551,L,RDSTJCKT00003552,XL,RDSTJCKT00003553;4599.00;Beige solid biker jacket, has a lapel collar, 2 pockets, zip closure, long sleeves, straight hem, polyester lining;This fashionable Roadster beige jacket will help you declare your style this season.  This piece can be matched with dark wash jeans and a cute tee when you're going to dinner with your family.;PU <br> Machine-wash;The model (height 5'8") is wearing a size S;;Roadster Women Beige Solid Asymmetric Closure Biker Jacket;Roadster,Coupon-offer-aug19;zerotype;;Fall;Shoot can be planned post BBD as premium;No
1839541;EIRJK02A-BLACK-1839541;WOMENS JACKET;On Hold - Other;Jackets;Roadster;Adults-Women;Women;;;;Fashion;;2017;S,RDSTJCKT00003542,M,RDSTJCKT00003543,L,RDSTJCKT00003544,XL,RDSTJCKT00003545;2899.00;;;;;;;Coupon-offer-aug19;zerotype;;Fall;Shoot can be planned post BBD as premium;No
1839540;EIRJK01C-PINK-1839540;WOMENS JACKET;On Hold - Other;Jackets;Roadster;Adults-Women;Women;;;;Fashion;;2017;S,RDSTJCKT00003538,M,RDSTJCKT00003539,L,RDSTJCKT00003540,XL,RDSTJCKT00003541;3299.00;;;;;;;Coupon-offer-aug19;zerotype;;Fall;Shoot can be planned post BBD as premium;No
1839539;EIRJK01B-GREY-1839539;WOMENS JACKET;On Hold - Other;Jackets;Roadster;Adults-Women;Women;;;;Fashion;;2017;S,RDSTJCKT00003534,M,RDSTJCKT00003535,L,RDSTJCKT00003536,XL,RDSTJCKT00003537;3299.00;;;;;;;Coupon-offer-aug19;zerotype;;Fall;Shoot can be planned post BBD as premium;No
1839538;EIRJK01A-CAMEL-1839538;WOMENS JACKET;On Hold - Other;Jackets;Roadster;Adults-Women;Women;;;;Fashion;;2017;S,RDSTJCKT00003530,M,RDSTJCKT00003531,L,RDSTJCKT00003532,XL,RDSTJCKT00003533;3299.00;;;;;;;Coupon-offer-aug19;zerotype;;Fall;Shoot can be planned post BBD as premium;No
