Style ID;Vendor Article Number;Vendor Article Name;Active Status;Article type;Brand;Age Group;Gender;Base Colour;Colour1;Colour2;Fashion Type;Usage;Year;Size - SKU code pair;MRP;Style Description;Style Note;Materials and Care Description;Size and Fit Description;Size Chart Path;Product Display Name;Tags;Product Type;Classification Brand;Season;Comments;Upload Images
1850461;ES4013KB-Brown-1850461;ES4013KB_BROWN;Draft;Formal Shoes;Escaro;Adults-Men;Men;Brown;;;Fashion;Formal;2017;UK6,ESCRFOSH00000117,UK7,ESCRFOSH00000118,UK8,ESCRFOSH00000119,UK9,ESCRFOSH00000120,UK10,ESCRFOSH00000121,UK11,ESCRFOSH00000122;4499.00;;;;;;;;zerotype;;Summer;;No
1850460;ES4012KB-Tan-1850460;ES4012KB_TAN;Draft;Formal Shoes;Escaro;Adults-Men;Men;Tan;;;Fashion;Formal;2017;UK6,ESCRFOSH00000111,UK7,ESCRFOSH00000112,UK8,ESCRFOSH00000113,UK9,ESCRFOSH00000114,UK10,ESCRFOSH00000115,UK11,ESCRFOSH00000116;4499.00;;;;;;;;zerotype;;Summer;;No
1850459;ES3059AG-Black-1850459;ES3059AG_BLACK;Draft;Formal Shoes;Escaro;Adults-Men;Men;Black;;;Fashion;Formal;2017;UK6,ESCRFOSH00000105,UK7,ESCRFOSH00000106,UK8,ESCRFOSH00000107,UK9,ESCRFOSH00000108,UK10,ESCRFOSH00000109,UK11,ESCRFOSH00000110;3499.00;;;;;;;;zerotype;;Summer;;No
1850458;ES4026AG-Brown-1850458;ES4026AG_Brown;Draft;Formal Shoes;Escaro;Adults-Men;Men;Brown;;;Fashion;Formal;2017;UK6,ESCRFOSH00000099,UK7,ESCRFOSH00000100,UK8,ESCRFOSH00000101,UK9,ESCRFOSH00000102,UK10,ESCRFOSH00000103,UK11,ESCRFOSH00000104;2599.00;;;;;;;;zerotype;;Summer;;No
1850457;ES4026AG-Black-1850457;ES4026AG_Black;Draft;Formal Shoes;Escaro;Adults-Men;Men;Black;;;Fashion;Formal;2017;UK6,ESCRFOSH00000093,UK7,ESCRFOSH00000094,UK8,ESCRFOSH00000095,UK9,ESCRFOSH00000096,UK10,ESCRFOSH00000097,UK11,ESCRFOSH00000098;2599.00;;;;;;;;zerotype;;Summer;;No
1850456;ES3060AG-Black-1850456;ES3060AG_BLACK;Draft;Formal Shoes;Escaro;Adults-Men;Men;Black;;;Fashion;Formal;2017;UK6,ESCRFOSH00000087,UK7,ESCRFOSH00000088,UK8,ESCRFOSH00000089,UK9,ESCRFOSH00000090,UK10,ESCRFOSH00000091,UK11,ESCRFOSH00000092;2999.00;;;;;;;;zerotype;;Summer;;No
1850455;ES3059AG-Black-1850455;ES3059AG_BLACK;Draft;Formal Shoes;Escaro;Adults-Men;Men;Black;;;Fashion;Formal;2017;UK6,ESCRFOSH00000081,UK7,ESCRFOSH00000082,UK8,ESCRFOSH00000083,UK9,ESCRFOSH00000084,UK10,ESCRFOSH00000085,UK11,ESCRFOSH00000086;3499.00;;;;;;;;zerotype;;Summer;;No
1850454;ES3058AG-Brown-1850454;ES3058AG_Brown;Draft;Formal Shoes;Escaro;Adults-Men;Men;Brown;;;Fashion;Formal;2017;UK6,ESCRFOSH00000075,UK7,ESCRFOSH00000076,UK8,ESCRFOSH00000077,UK9,ESCRFOSH00000078,UK10,ESCRFOSH00000079,UK11,ESCRFOSH00000080;2599.00;;;;;;;;zerotype;;Summer;;No
1850453;ES3058AG-Black-1850453;ES3058AG_Black;Draft;Formal Shoes;Escaro;Adults-Men;Men;Black;;;Fashion;Formal;2017;UK6,ESCRFOSH00000069,UK7,ESCRFOSH00000070,UK8,ESCRFOSH00000071,UK9,ESCRFOSH00000072,UK10,ESCRFOSH00000073,UK11,ESCRFOSH00000074;2599.00;;;;;;;;zerotype;;Summer;;No
1850451;ES1060GN-Tan-1850451;ES1060GN_TAN;Draft;Formal Shoes;Escaro;Adults-Men;Men;Tan;;;Fashion;Formal;2017;UK6,ESCRFOSH00000064,UK7,ESCRFOSH00000065,UK8,ESCRFOSH00000066,UK9,ESCRFOSH00000067,UK10,ESCRFOSH00000068;1599.00;;;;;;;;zerotype;;Summer;;No
1850450;ES1060GN-Black-1850450;ES1060GN_BLACK;Draft;Formal Shoes;Escaro;Adults-Men;Men;Black;;;Fashion;Formal;2017;UK6,ESCRFOSH00000059,UK7,ESCRFOSH00000060,UK8,ESCRFOSH00000061,UK9,ESCRFOSH00000062,UK10,ESCRFOSH00000063;1599.00;;;;;;;;zerotype;;Summer;;No
1850449;ES4018GN-Tan-1850449;ES4018GN_TAN;Draft;Formal Shoes;Escaro;Adults-Men;Men;Tan;;;Fashion;Formal;2017;UK6,ESCRFOSH00000054,UK7,ESCRFOSH00000055,UK8,ESCRFOSH00000056,UK9,ESCRFOSH00000057,UK10,ESCRFOSH00000058;2499.00;;;;;;;;zerotype;;Summer;;No
1850448;ES4018GN-Black-1850448;ES4018GN_BLACK;Draft;Formal Shoes;Escaro;Adults-Men;Men;Black;;;Fashion;Formal;2017;UK6,ESCRFOSH00000049,UK7,ESCRFOSH00000050,UK8,ESCRFOSH00000051,UK9,ESCRFOSH00000052,UK10,ESCRFOSH00000053;2499.00;;;;;;;;zerotype;;Summer;;No
1850447;ES2073KB-Black-1850447;ES2073KB_BLACK;Draft;Formal Shoes;Escaro;Adults-Men;Men;Black;;;Fashion;Formal;2017;UK6,ESCRFOSH00000043,UK7,ESCRFOSH00000044,UK8,ESCRFOSH00000045,UK9,ESCRFOSH00000046,UK10,ESCRFOSH00000047,UK11,ESCRFOSH00000048;2699.00;;;;;;;;zerotype;;Summer;;No
1850446;ES2073KB-Brown-1850446;ES2073KB_BROWN;Draft;Formal Shoes;Escaro;Adults-Men;Men;Brown;;;Fashion;Formal;2017;UK6,ESCRFOSH00000037,UK7,ESCRFOSH00000038,UK8,ESCRFOSH00000039,UK9,ESCRFOSH00000040,UK10,ESCRFOSH00000041,UK11,ESCRFOSH00000042;2699.00;;;;;;;;zerotype;;Summer;;No
1850444;ES2031KB-Tan-1850444;ES2031KB_TAN;Draft;Formal Shoes;Escaro;Adults-Men;Men;Tan;;;Fashion;Formal;2017;UK6,ESCRFOSH00000031,UK7,ESCRFOSH00000032,UK8,ESCRFOSH00000033,UK9,ESCRFOSH00000034,UK10,ESCRFOSH00000035,UK11,ESCRFOSH00000036;1999.00;;;;;;;;zerotype;;Summer;;No
1850441;ES2031KB-Brown-1850441;ES2031KB_BROWN;Draft;Formal Shoes;Escaro;Adults-Men;Men;Brown;;;Fashion;Formal;2017;UK6,ESCRFOSH00000025,UK7,ESCRFOSH00000026,UK8,ESCRFOSH00000027,UK9,ESCRFOSH00000028,UK10,ESCRFOSH00000029,UK11,ESCRFOSH00000030;1999.00;;;;;;;;zerotype;;Summer;;No
1850439;ES2031KB-Brown-1850439;ES2031KB_D.BROWN;Draft;Formal Shoes;Escaro;Adults-Men;Men;Brown;;;Fashion;Formal;2017;UK6,ESCRFOSH00000019,UK7,ESCRFOSH00000020,UK8,ESCRFOSH00000021,UK9,ESCRFOSH00000022,UK10,ESCRFOSH00000023,UK11,ESCRFOSH00000024;1999.00;;;;;;;;zerotype;;Summer;;No
1850437;ES2031KB-Black-1850437;ES2031KB_BLACK;Draft;Formal Shoes;Escaro;Adults-Men;Men;Black;;;Fashion;Formal;2017;UK6,ESCRFOSH00000013,UK7,ESCRFOSH00000014,UK8,ESCRFOSH00000015,UK9,ESCRFOSH00000016,UK10,ESCRFOSH00000017,UK11,ESCRFOSH00000018;1999.00;;;;;;;;zerotype;;Summer;;No
1850435;ES4013KB-Black-1850435;ES4013KB_BLACK;Draft;Formal Shoes;Escaro;Adults-Men;Men;Black;;;Fashion;Formal;2017;UK6,ESCRFOSH00000007,UK7,ESCRFOSH00000008,UK8,ESCRFOSH00000009,UK9,ESCRFOSH00000010,UK10,ESCRFOSH00000011,UK11,ESCRFOSH00000012;4499.00;;;;;;;;zerotype;;Summer;;No
1850433;ES4012KB-Black-1850433;ES4012KB_BLACK;Draft;Formal Shoes;Escaro;Adults-Men;Men;Black;;;Fashion;Formal;2017;UK6,ESCRFOSH00000001,UK7,ESCRFOSH00000002,UK8,ESCRFOSH00000003,UK9,ESCRFOSH00000004,UK10,ESCRFOSH00000005,UK11,ESCRFOSH00000006;4499.00;;;;;;;;zerotype;;Summer;;No
1850430;ES2096GN-White-1850430;ES2096GN_WHITE;Draft;Casual Shoes;Escaro;Adults-Men;Men;White;;;Fashion;Casual;2017;UK6,ESCRCASH00000530,UK7,ESCRCASH00000531,UK8,ESCRCASH00000532,UK9,ESCRCASH00000533,UK10,ESCRCASH00000534;2999.00;;;;;;;;zerotype;;Summer;;No
1850428;ES2095GN-White-1850428;ES2095GN_WHITE;Draft;Casual Shoes;Escaro;Adults-Men;Men;White;;;Fashion;Casual;2017;UK6,ESCRCASH00000525,UK7,ESCRCASH00000526,UK8,ESCRCASH00000527,UK9,ESCRCASH00000528,UK10,ESCRCASH00000529;2999.00;;;;;;;;zerotype;;Summer;;No
1850425;ES2094GN-White-1850425;ES2094GN_WHITE;Draft;Casual Shoes;Escaro;Adults-Men;Men;White;;;Fashion;Casual;2017;UK6,ESCRCASH00000520,UK7,ESCRCASH00000521,UK8,ESCRCASH00000522,UK9,ESCRCASH00000523,UK10,ESCRCASH00000524;2999.00;;;;;;;;zerotype;;Summer;;No
1850423;ES2093GN-White-1850423;ES2093GN_WHITE;Draft;Casual Shoes;Escaro;Adults-Men;Men;White;;;Fashion;Casual;2017;UK6,ESCRCASH00000515,UK7,ESCRCASH00000516,UK8,ESCRCASH00000517,UK9,ESCRCASH00000518,UK10,ESCRCASH00000519;2999.00;;;;;;;;zerotype;;Summer;;No
1850420;ES2092GN-White-1850420;ES2092GN_WHITE;Draft;Casual Shoes;Escaro;Adults-Men;Men;White;;;Fashion;Casual;2017;UK6,ESCRCASH00000510,UK7,ESCRCASH00000511,UK8,ESCRCASH00000512,UK9,ESCRCASH00000513,UK10,ESCRCASH00000514;2999.00;;;;;;;;zerotype;;Summer;;No
1850418;ES2091GN-White-1850418;ES2091GN_WHITE;Draft;Casual Shoes;Escaro;Adults-Men;Men;White;;;Fashion;Casual;2017;UK6,ESCRCASH00000505,UK7,ESCRCASH00000506,UK8,ESCRCASH00000507,UK9,ESCRCASH00000508,UK10,ESCRCASH00000509;2999.00;;;;;;;;zerotype;;Summer;;No
1850414;ES2055PI-Black-1850414;ES2055PI_BLACK;Draft;Casual Shoes;Escaro;Adults-Men;Men;Black;;;Fashion;Casual;2017;UK6,ESCRCASH00000499,UK7,ESCRCASH00000500,UK8,ESCRCASH00000501,UK9,ESCRCASH00000502,UK10,ESCRCASH00000503,UK11,ESCRCASH00000504;2499.00;;;;;;;;zerotype;;Summer;;No
1850412;ES2055PI-Blue-1850412;ES2055PI_BLUE;Draft;Casual Shoes;Escaro;Adults-Men;Men;Blue;;;Fashion;Casual;2017;UK6,ESCRCASH00000493,UK7,ESCRCASH00000494,UK8,ESCRCASH00000495,UK9,ESCRCASH00000496,UK10,ESCRCASH00000497,UK11,ESCRCASH00000498;2499.00;;;;;;;;zerotype;;Summer;;No
1850409;ES2054PI-Brown-1850409;ES2054PI_BROWN;Draft;Casual Shoes;Escaro;Adults-Men;Men;Brown;;;Fashion;Casual;2017;UK6,ESCRCASH00000487,UK7,ESCRCASH00000488,UK8,ESCRCASH00000489,UK9,ESCRCASH00000490,UK10,ESCRCASH00000491,UK11,ESCRCASH00000492;2499.00;;;;;;;;zerotype;;Summer;;No
1850407;ES2054PI-Blue-1850407;ES2054PI_BLUE;Draft;Casual Shoes;Escaro;Adults-Men;Men;Blue;;;Fashion;Casual;2017;UK6,ESCRCASH00000481,UK7,ESCRCASH00000482,UK8,ESCRCASH00000483,UK9,ESCRCASH00000484,UK10,ESCRCASH00000485,UK11,ESCRCASH00000486;2499.00;;;;;;;;zerotype;;Summer;;No
1850405;ES2052PI-Black-1850405;ES2052PI_BLACK;Draft;Casual Shoes;Escaro;Adults-Men;Men;Black;;;Fashion;Casual;2017;UK6,ESCRCASH00000475,UK7,ESCRCASH00000476,UK8,ESCRCASH00000477,UK9,ESCRCASH00000478,UK10,ESCRCASH00000479,UK11,ESCRCASH00000480;2499.00;;;;;;;;zerotype;;Summer;;No
1850402;ES2052PI-Tan-1850402;ES2052PI_TAN;Draft;Casual Shoes;Escaro;Adults-Men;Men;Tan;;;Fashion;Casual;2017;UK6,ESCRCASH00000469,UK7,ESCRCASH00000470,UK8,ESCRCASH00000471,UK9,ESCRCASH00000472,UK10,ESCRCASH00000473,UK11,ESCRCASH00000474;2499.00;;;;;;;;zerotype;;Summer;;No
1850400;ES2052PI-Brown-1850400;ES2052PI_BROWN;Draft;Casual Shoes;Escaro;Adults-Men;Men;Brown;;;Fashion;Casual;2017;UK6,ESCRCASH00000463,UK7,ESCRCASH00000464,UK8,ESCRCASH00000465,UK9,ESCRCASH00000466,UK10,ESCRCASH00000467,UK11,ESCRCASH00000468;2499.00;;;;;;;;zerotype;;Summer;;No
1850398;ES2090GN-Blue-1850398;ES2090GN_BLUE;Draft;Casual Shoes;Escaro;Adults-Men;Men;Blue;;;Fashion;Casual;2017;UK6,ESCRCASH00000458,UK7,ESCRCASH00000459,UK8,ESCRCASH00000460,UK9,ESCRCASH00000461,UK10,ESCRCASH00000462;2999.00;;;;;;;;zerotype;;Summer;;No
1850394;ES2089GN-Black-1850394;ES2089GN_BLACK;Draft;Casual Shoes;Escaro;Adults-Men;Men;Black;;;Fashion;Casual;2017;UK6,ESCRCASH00000453,UK7,ESCRCASH00000454,UK8,ESCRCASH00000455,UK9,ESCRCASH00000456,UK10,ESCRCASH00000457;2999.00;;;;;;;;zerotype;;Summer;;No
1850392;ES2088GN-White-1850392;ES2088GN_WHITE;Draft;Casual Shoes;Escaro;Adults-Men;Men;White;;;Fashion;Casual;2017;UK6,ESCRCASH00000448,UK7,ESCRCASH00000449,UK8,ESCRCASH00000450,UK9,ESCRCASH00000451,UK10,ESCRCASH00000452;2999.00;;;;;;;;zerotype;;Summer;;No
1850390;ES2088GN-Blue-1850390;ES2088GN_BLUE;Draft;Casual Shoes;Escaro;Adults-Men;Men;Blue;;;Fashion;Casual;2017;UK6,ESCRCASH00000443,UK7,ESCRCASH00000444,UK8,ESCRCASH00000445,UK9,ESCRCASH00000446,UK10,ESCRCASH00000447;2999.00;;;;;;;;zerotype;;Summer;;No
1850387;ES2088GN-Black-1850387;ES2088GN_BLACK;Draft;Casual Shoes;Escaro;Adults-Men;Men;Black;;;Fashion;Casual;2017;UK6,ESCRCASH00000438,UK7,ESCRCASH00000439,UK8,ESCRCASH00000440,UK9,ESCRCASH00000441,UK10,ESCRCASH00000442;2999.00;;;;;;;;zerotype;;Summer;;No
1850385;ES2087GN-Red-1850385;ES2087GN_RED;Draft;Casual Shoes;Escaro;Adults-Men;Men;Red;;;Fashion;Casual;2017;UK6,ESCRCASH00000433,UK7,ESCRCASH00000434,UK8,ESCRCASH00000435,UK9,ESCRCASH00000436,UK10,ESCRCASH00000437;2999.00;;;;;;;;zerotype;;Summer;;No
1850383;ES2086GN-Tan-1850383;ES2086GN_TAN;Draft;Casual Shoes;Escaro;Adults-Men;Men;Tan;;;Fashion;Casual;2017;UK6,ESCRCASH00000428,UK7,ESCRCASH00000429,UK8,ESCRCASH00000430,UK9,ESCRCASH00000431,UK10,ESCRCASH00000432;2999.00;;;;;;;;zerotype;;Summer;;No
1850381;ES2086GN-Blue-1850381;ES2086GN_BLUE;Draft;Casual Shoes;Escaro;Adults-Men;Men;Blue;;;Fashion;Casual;2017;UK6,ESCRCASH00000423,UK7,ESCRCASH00000424,UK8,ESCRCASH00000425,UK9,ESCRCASH00000426,UK10,ESCRCASH00000427;2999.00;;;;;;;;zerotype;;Summer;;No
1850378;ES2086GN-Black-1850378;ES2086GN_BLACK;Draft;Casual Shoes;Escaro;Adults-Men;Men;Black;;;Fashion;Casual;2017;UK6,ESCRCASH00000418,UK7,ESCRCASH00000419,UK8,ESCRCASH00000420,UK9,ESCRCASH00000421,UK10,ESCRCASH00000422;2999.00;;;;;;;;zerotype;;Summer;;No
1850376;ES2086GN-Blue-1850376;ES2086GN _SKY BLUE;Draft;Casual Shoes;Escaro;Adults-Men;Men;Blue;;;Fashion;Casual;2017;UK6,ESCRCASH00000413,UK7,ESCRCASH00000414,UK8,ESCRCASH00000415,UK9,ESCRCASH00000416,UK10,ESCRCASH00000417;2999.00;;;;;;;;zerotype;;Summer;;No
1850373;ES2083GN-Green-1850373;ES2083GN_GREEN;Draft;Casual Shoes;Escaro;Adults-Men;Men;Green;;;Fashion;Casual;2017;UK6,ESCRCASH00000408,UK7,ESCRCASH00000409,UK8,ESCRCASH00000410,UK9,ESCRCASH00000411,UK10,ESCRCASH00000412;2999.00;;;;;;;;zerotype;;Summer;;No
1850371;ES2083GN-Brown-1850371;ES2083GN_BROWN;Draft;Casual Shoes;Escaro;Adults-Men;Men;Brown;;;Fashion;Casual;2017;UK6,ESCRCASH00000403,UK7,ESCRCASH00000404,UK8,ESCRCASH00000405,UK9,ESCRCASH00000406,UK10,ESCRCASH00000407;2999.00;;;;;;;;zerotype;;Summer;;No
1850369;ES2082GN-Tan-1850369;ES2082GN_TAN;Draft;Casual Shoes;Escaro;Adults-Men;Men;Tan;;;Fashion;Casual;2017;UK6,ESCRCASH00000398,UK7,ESCRCASH00000399,UK8,ESCRCASH00000400,UK9,ESCRCASH00000401,UK10,ESCRCASH00000402;2999.00;;;;;;;;zerotype;;Summer;;No
1850366;ES2082GN-Green-1850366;ES2082GN_GREEN;Draft;Casual Shoes;Escaro;Adults-Men;Men;Green;;;Fashion;Casual;2017;UK6,ESCRCASH00000393,UK7,ESCRCASH00000394,UK8,ESCRCASH00000395,UK9,ESCRCASH00000396,UK10,ESCRCASH00000397;2999.00;;;;;;;;zerotype;;Summer;;No
1850364;ES2081GN-Blue-1850364;ES2081GN_BLUE;Draft;Casual Shoes;Escaro;Adults-Men;Men;Blue;;;Fashion;Casual;2017;UK6,ESCRCASH00000388,UK7,ESCRCASH00000389,UK8,ESCRCASH00000390,UK9,ESCRCASH00000391,UK10,ESCRCASH00000392;2999.00;;;;;;;;zerotype;;Summer;;No
1850362;ES2081GN-Black-1850362;ES2081GN_BLACK;Draft;Casual Shoes;Escaro;Adults-Men;Men;Black;;;Fashion;Casual;2017;UK6,ESCRCASH00000383,UK7,ESCRCASH00000384,UK8,ESCRCASH00000385,UK9,ESCRCASH00000386,UK10,ESCRCASH00000387;2999.00;;;;;;;;zerotype;;Summer;;No
1850360;ES2076BK-Black-1850360;ES2076BK_BLACK;Draft;Casual Shoes;Escaro;Adults-Men;Men;Black;;;Fashion;Casual;2017;UK6,ESCRCASH00000377,UK7,ESCRCASH00000378,UK8,ESCRCASH00000379,UK9,ESCRCASH00000380,UK10,ESCRCASH00000381,UK11,ESCRCASH00000382;2299.00;;;;;;;;zerotype;;Summer;;No
1850357;ES2076BK-Brown-1850357;ES2076BK_BROWN;Draft;Casual Shoes;Escaro;Adults-Men;Men;Brown;;;Fashion;Casual;2017;UK6,ESCRCASH00000371,UK7,ESCRCASH00000372,UK8,ESCRCASH00000373,UK9,ESCRCASH00000374,UK10,ESCRCASH00000375,UK11,ESCRCASH00000376;2299.00;;;;;;;;zerotype;;Summer;;No
1850354;ES2076BK-Tan-1850354;ES2076BK_TAN;Draft;Casual Shoes;Escaro;Adults-Men;Men;Tan;;;Fashion;Casual;2017;UK6,ESCRCASH00000365,UK7,ESCRCASH00000366,UK8,ESCRCASH00000367,UK9,ESCRCASH00000368,UK10,ESCRCASH00000369,UK11,ESCRCASH00000370;2299.00;;;;;;;;zerotype;;Summer;;No
1850352;ES2071BK-Black-1850352;ES2071BK_BLACK;Draft;Casual Shoes;Escaro;Adults-Men;Men;Black;;;Fashion;Casual;2017;UK6,ESCRCASH00000359,UK7,ESCRCASH00000360,UK8,ESCRCASH00000361,UK9,ESCRCASH00000362,UK10,ESCRCASH00000363,UK11,ESCRCASH00000364;2499.00;;;;;;;;zerotype;;Summer;;No
1850350;ES2071BK-Brown-1850350;ES2071BK_BROWN;Draft;Casual Shoes;Escaro;Adults-Men;Men;Brown;;;Fashion;Casual;2017;UK6,ESCRCASH00000353,UK7,ESCRCASH00000354,UK8,ESCRCASH00000355,UK9,ESCRCASH00000356,UK10,ESCRCASH00000357,UK11,ESCRCASH00000358;2499.00;;;;;;;;zerotype;;Summer;;No
1850349;ES2072BK-Black-1850349;ES2072BK_BLACK;Draft;Casual Shoes;Escaro;Adults-Men;Men;Black;;;Fashion;Casual;2017;UK6,ESCRCASH00000347,UK7,ESCRCASH00000348,UK8,ESCRCASH00000349,UK9,ESCRCASH00000350,UK10,ESCRCASH00000351,UK11,ESCRCASH00000352;2299.00;;;;;;;;zerotype;;Summer;;No
1850348;ES2072BK-Tan-1850348;ES2072BK_TAN;Draft;Casual Shoes;Escaro;Adults-Men;Men;Tan;;;Fashion;Casual;2017;UK6,ESCRCASH00000341,UK7,ESCRCASH00000342,UK8,ESCRCASH00000343,UK9,ESCRCASH00000344,UK10,ESCRCASH00000345,UK11,ESCRCASH00000346;2299.00;;;;;;;;zerotype;;Summer;;No
1850347;ES2074BK-Tan-1850347;ES2074BK_TAN;Draft;Casual Shoes;Escaro;Adults-Men;Men;Tan;;;Fashion;Casual;2017;UK6,ESCRCASH00000335,UK7,ESCRCASH00000336,UK8,ESCRCASH00000337,UK9,ESCRCASH00000338,UK10,ESCRCASH00000339,UK11,ESCRCASH00000340;2799.00;;;;;;;;zerotype;;Summer;;No
1850346;ES2074BK-Brown-1850346;ES2074BK_BROWN;Draft;Casual Shoes;Escaro;Adults-Men;Men;Brown;;;Fashion;Casual;2017;UK6,ESCRCASH00000329,UK7,ESCRCASH00000330,UK8,ESCRCASH00000331,UK9,ESCRCASH00000332,UK10,ESCRCASH00000333,UK11,ESCRCASH00000334;2799.00;;;;;;;;zerotype;;Summer;;No
1850345;ES2073BK-Brown-1850345;ES2073BK_BROWN;Draft;Casual Shoes;Escaro;Adults-Men;Men;Brown;;;Fashion;Casual;2017;UK6,ESCRCASH00000323,UK7,ESCRCASH00000324,UK8,ESCRCASH00000325,UK9,ESCRCASH00000326,UK10,ESCRCASH00000327,UK11,ESCRCASH00000328;2399.00;;;;;;;;zerotype;;Summer;;No
1850344;ES2073BK-Blue-1850344;ES2073BK_BLUE;Draft;Casual Shoes;Escaro;Adults-Men;Men;Blue;;;Fashion;Casual;2017;UK6,ESCRCASH00000317,UK7,ESCRCASH00000318,UK8,ESCRCASH00000319,UK9,ESCRCASH00000320,UK10,ESCRCASH00000321,UK11,ESCRCASH00000322;2399.00;;;;;;;;zerotype;;Summer;;No
1850343;ES2073BK-Black-1850343;ES2073BK_BLACK;Draft;Casual Shoes;Escaro;Adults-Men;Men;Black;;;Fashion;Casual;2017;UK6,ESCRCASH00000311,UK7,ESCRCASH00000312,UK8,ESCRCASH00000313,UK9,ESCRCASH00000314,UK10,ESCRCASH00000315,UK11,ESCRCASH00000316;2399.00;;;;;;;;zerotype;;Summer;;No
1850342;ES5013BK-Blue-1850342;ES5013BK_BLUE;Draft;Casual Shoes;Escaro;Adults-Men;Men;Blue;;;Fashion;Casual;2017;UK6,ESCRCASH00000305,UK7,ESCRCASH00000306,UK8,ESCRCASH00000307,UK9,ESCRCASH00000308,UK10,ESCRCASH00000309,UK11,ESCRCASH00000310;1799.00;;;;;;;;zerotype;;Summer;;No
1850341;ES5013BK-Black-1850341;ES5013BK_BLACK;Draft;Casual Shoes;Escaro;Adults-Men;Men;Black;;;Fashion;Casual;2017;UK6,ESCRCASH00000299,UK7,ESCRCASH00000300,UK8,ESCRCASH00000301,UK9,ESCRCASH00000302,UK10,ESCRCASH00000303,UK11,ESCRCASH00000304;1799.00;;;;;;;;zerotype;;Summer;;No
1850340;ES2068BK-Black-1850340;ES2068BK_BLACK;Draft;Casual Shoes;Escaro;Adults-Men;Men;Black;;;Fashion;Casual;2017;UK6,ESCRCASH00000293,UK7,ESCRCASH00000294,UK8,ESCRCASH00000295,UK9,ESCRCASH00000296,UK10,ESCRCASH00000297,UK11,ESCRCASH00000298;1999.00;;;;;;;;zerotype;;Summer;;No
1850339;ES2068BK-Blue-1850339;ES2068BK_BLUE;Draft;Casual Shoes;Escaro;Adults-Men;Men;Blue;;;Fashion;Casual;2017;UK6,ESCRCASH00000287,UK7,ESCRCASH00000288,UK8,ESCRCASH00000289,UK9,ESCRCASH00000290,UK10,ESCRCASH00000291,UK11,ESCRCASH00000292;1999.00;;;;;;;;zerotype;;Summer;;No
1850338;ES2068BK-Tan-1850338;ES2068BK_TAN;Draft;Casual Shoes;Escaro;Adults-Men;Men;Tan;;;Fashion;Casual;2017;UK6,ESCRCASH00000281,UK7,ESCRCASH00000282,UK8,ESCRCASH00000283,UK9,ESCRCASH00000284,UK10,ESCRCASH00000285,UK11,ESCRCASH00000286;1999.00;;;;;;;;zerotype;;Summer;;No
1850337;ES2067BK-Tan-1850337;ES2067BK_TAN;Draft;Casual Shoes;Escaro;Adults-Men;Men;Tan;;;Fashion;Casual;2017;UK6,ESCRCASH00000275,UK7,ESCRCASH00000276,UK8,ESCRCASH00000277,UK9,ESCRCASH00000278,UK10,ESCRCASH00000279,UK11,ESCRCASH00000280;1999.00;;;;;;;;zerotype;;Summer;;No
1850336;ES2067BK-Black-1850336;ES2067BK_BLACK;Draft;Casual Shoes;Escaro;Adults-Men;Men;Black;;;Fashion;Casual;2017;UK6,ESCRCASH00000269,UK7,ESCRCASH00000270,UK8,ESCRCASH00000271,UK9,ESCRCASH00000272,UK10,ESCRCASH00000273,UK11,ESCRCASH00000274;1999.00;;;;;;;;zerotype;;Summer;;No
1850335;ES2065BK-Olive-1850335;ES2065BK_OLIVE;Draft;Casual Shoes;Escaro;Adults-Men;Men;Olive;;;Fashion;Casual;2017;UK6,ESCRCASH00000263,UK7,ESCRCASH00000264,UK8,ESCRCASH00000265,UK9,ESCRCASH00000266,UK10,ESCRCASH00000267,UK11,ESCRCASH00000268;1799.00;;;;;;;;zerotype;;Summer;;No
1850334;ES2065BK-Tan-1850334;ES2065BK_TAN;Draft;Casual Shoes;Escaro;Adults-Men;Men;Tan;;;Fashion;Casual;2017;UK6,ESCRCASH00000257,UK7,ESCRCASH00000258,UK8,ESCRCASH00000259,UK9,ESCRCASH00000260,UK10,ESCRCASH00000261,UK11,ESCRCASH00000262;1799.00;;;;;;;;zerotype;;Summer;;No
1850333;ES2065BK-Blue-1850333;ES2065BK_BLUE;Draft;Casual Shoes;Escaro;Adults-Men;Men;Blue;;;Fashion;Casual;2017;UK6,ESCRCASH00000251,UK7,ESCRCASH00000252,UK8,ESCRCASH00000253,UK9,ESCRCASH00000254,UK10,ESCRCASH00000255,UK11,ESCRCASH00000256;1799.00;;;;;;;;zerotype;;Summer;;No
1850332;ES2065BK-Brown-1850332;ES2065BK_BROWN;Draft;Casual Shoes;Escaro;Adults-Men;Men;Brown;;;Fashion;Casual;2017;UK6,ESCRCASH00000245,UK7,ESCRCASH00000246,UK8,ESCRCASH00000247,UK9,ESCRCASH00000248,UK10,ESCRCASH00000249,UK11,ESCRCASH00000250;1799.00;;;;;;;;zerotype;;Summer;;No
1850331;ES2065BK-Black-1850331;ES2065BK_BLACK;Draft;Casual Shoes;Escaro;Adults-Men;Men;Black;;;Fashion;Casual;2017;UK6,ESCRCASH00000239,UK7,ESCRCASH00000240,UK8,ESCRCASH00000241,UK9,ESCRCASH00000242,UK10,ESCRCASH00000243,UK11,ESCRCASH00000244;1799.00;;;;;;;;zerotype;;Summer;;No
1850330;ES2064BK-Tan-1850330;ES2064BK_TAN;Draft;Casual Shoes;Escaro;Adults-Men;Men;Tan;;;Fashion;Casual;2017;UK6,ESCRCASH00000233,UK7,ESCRCASH00000234,UK8,ESCRCASH00000235,UK9,ESCRCASH00000236,UK10,ESCRCASH00000237,UK11,ESCRCASH00000238;1599.00;;;;;;;;zerotype;;Summer;;No
1850329;ES2064BK-Yellow-1850329;ES2064BK_YELLOW;Draft;Casual Shoes;Escaro;Adults-Men;Men;Yellow;;;Fashion;Casual;2017;UK6,ESCRCASH00000227,UK7,ESCRCASH00000228,UK8,ESCRCASH00000229,UK9,ESCRCASH00000230,UK10,ESCRCASH00000231,UK11,ESCRCASH00000232;1599.00;;;;;;;;zerotype;;Summer;;No
1850328;ES2064BK-Blue-1850328;ES2064BK_BLUE;Draft;Casual Shoes;Escaro;Adults-Men;Men;Blue;;;Fashion;Casual;2017;UK6,ESCRCASH00000221,UK7,ESCRCASH00000222,UK8,ESCRCASH00000223,UK9,ESCRCASH00000224,UK10,ESCRCASH00000225,UK11,ESCRCASH00000226;1599.00;;;;;;;;zerotype;;Summer;;No
1850327;ES2064BK-Black-1850327;ES2064BK_BLACK;Draft;Casual Shoes;Escaro;Adults-Men;Men;Black;;;Fashion;Casual;2017;UK6,ESCRCASH00000215,UK7,ESCRCASH00000216,UK8,ESCRCASH00000217,UK9,ESCRCASH00000218,UK10,ESCRCASH00000219,UK11,ESCRCASH00000220;1599.00;;;;;;;;zerotype;;Summer;;No
1850326;ES2059BK-Brown-1850326;ES2059BK_BROWN;Draft;Casual Shoes;Escaro;Adults-Men;Men;Brown;;;Fashion;Casual;2017;UK6,ESCRCASH00000209,UK7,ESCRCASH00000210,UK8,ESCRCASH00000211,UK9,ESCRCASH00000212,UK10,ESCRCASH00000213,UK11,ESCRCASH00000214;2599.00;;;;;;;;zerotype;;Summer;;No
1850325;ES2059BK-Tan-1850325;ES2059BK_TAN;Draft;Casual Shoes;Escaro;Adults-Men;Men;Tan;;;Fashion;Casual;2017;UK6,ESCRCASH00000203,UK7,ESCRCASH00000204,UK8,ESCRCASH00000205,UK9,ESCRCASH00000206,UK10,ESCRCASH00000207,UK11,ESCRCASH00000208;2599.00;;;;;;;;zerotype;;Summer;;No
1850324;ES2059BK-Blue-1850324;ES2059BK_BLUE;Draft;Casual Shoes;Escaro;Adults-Men;Men;Blue;;;Fashion;Casual;2017;UK6,ESCRCASH00000197,UK7,ESCRCASH00000198,UK8,ESCRCASH00000199,UK9,ESCRCASH00000200,UK10,ESCRCASH00000201,UK11,ESCRCASH00000202;2599.00;;;;;;;;zerotype;;Summer;;No
1850322;ES4027AG-Red-1850322;ES4027AG_RED;Draft;Casual Shoes;Escaro;Adults-Men;Men;Red;;;Fashion;Casual;2017;UK6,ESCRCASH00000191,UK7,ESCRCASH00000192,UK8,ESCRCASH00000193,UK9,ESCRCASH00000194,UK10,ESCRCASH00000195,UK11,ESCRCASH00000196;2599.00;;;;;;;;zerotype;;Summer;;No
1850321;ES4027AG-Navy Blue-1850321;ES4027AG_NAVY;Draft;Casual Shoes;Escaro;Adults-Men;Men;Navy Blue;;;Fashion;Casual;2017;UK6,ESCRCASH00000185,UK7,ESCRCASH00000186,UK8,ESCRCASH00000187,UK9,ESCRCASH00000188,UK10,ESCRCASH00000189,UK11,ESCRCASH00000190;2599.00;;;;;;;;zerotype;;Summer;;No
1850320;ES4025AG-Navy Blue-1850320;ES4025AG_NAVY;Draft;Casual Shoes;Escaro;Adults-Men;Men;Navy Blue;;;Fashion;Casual;2017;UK6,ESCRCASH00000179,UK7,ESCRCASH00000180,UK8,ESCRCASH00000181,UK9,ESCRCASH00000182,UK10,ESCRCASH00000183,UK11,ESCRCASH00000184;2999.00;;;;;;;;zerotype;;Summer;;No
1850319;ES2046GN-Brown-1850319;ES2046GN_BROWN;Draft;Casual Shoes;Escaro;Adults-Men;Men;Brown;;;Fashion;Casual;2017;UK6,ESCRCASH00000174,UK7,ESCRCASH00000175,UK8,ESCRCASH00000176,UK9,ESCRCASH00000177,UK10,ESCRCASH00000178;2199.00;;;;;;;;zerotype;;Summer;;No
1850318;ES2046GN-Black-1850318;ES2046GN_BLACK;Draft;Casual Shoes;Escaro;Adults-Men;Men;Black;;;Fashion;Casual;2017;UK6,ESCRCASH00000169,UK7,ESCRCASH00000170,UK8,ESCRCASH00000171,UK9,ESCRCASH00000172,UK10,ESCRCASH00000173;2199.00;;;;;;;;zerotype;;Summer;;No
1850317;ES2045GN-Brown-1850317;ES2045GN_BROWN;Draft;Casual Shoes;Escaro;Adults-Men;Men;Brown;;;Fashion;Casual;2017;UK6,ESCRCASH00000164,UK7,ESCRCASH00000165,UK8,ESCRCASH00000166,UK9,ESCRCASH00000167,UK10,ESCRCASH00000168;2199.00;;;;;;;;zerotype;;Summer;;No
1850315;ES2045GN-Black-1850315;ES2045GN_BLACK;Draft;Casual Shoes;Escaro;Adults-Men;Men;Black;;;Fashion;Casual;2017;UK6,ESCRCASH00000159,UK7,ESCRCASH00000160,UK8,ESCRCASH00000161,UK9,ESCRCASH00000162,UK10,ESCRCASH00000163;2199.00;;;;;;;;zerotype;;Summer;;No
1850313;ES2043GN-Brown-1850313;ES2043GN_BROWN;Draft;Casual Shoes;Escaro;Adults-Men;Men;Brown;;;Fashion;Casual;2017;UK6,ESCRCASH00000154,UK7,ESCRCASH00000155,UK8,ESCRCASH00000156,UK9,ESCRCASH00000157,UK10,ESCRCASH00000158;1999.00;;;;;;;;zerotype;;Summer;;No
1850311;ES2043GN-Tan-1850311;ES2043GN_TANCAM;Draft;Casual Shoes;Escaro;Adults-Men;Men;Tan;;;Fashion;Casual;2017;UK6,ESCRCASH00000149,UK7,ESCRCASH00000150,UK8,ESCRCASH00000151,UK9,ESCRCASH00000152,UK10,ESCRCASH00000153;1999.00;;;;;;;;zerotype;;Summer;;No
1850310;ES2037GN-Black-1850310;ES2037GN_BLKCHR;Draft;Casual Shoes;Escaro;Adults-Men;Men;Black;;;Fashion;Casual;2017;UK6,ESCRCASH00000144,UK7,ESCRCASH00000145,UK8,ESCRCASH00000146,UK9,ESCRCASH00000147,UK10,ESCRCASH00000148;1599.00;;;;;;;;zerotype;;Summer;;No
1850308;ES2080GN-Beige-1850308;ES2080GN_BEIGE;Draft;Casual Shoes;Escaro;Adults-Men;Men;Beige;;;Fashion;Casual;2017;UK6,ESCRCASH00000139,UK7,ESCRCASH00000140,UK8,ESCRCASH00000141,UK9,ESCRCASH00000142,UK10,ESCRCASH00000143;2999.00;;;;;;;;zerotype;;Summer;;No
1850307;ES2080GN-Blue-1850307;ES2080GN_BLUE;Draft;Casual Shoes;Escaro;Adults-Men;Men;Blue;;;Fashion;Casual;2017;UK6,ESCRCASH00000134,UK7,ESCRCASH00000135,UK8,ESCRCASH00000136,UK9,ESCRCASH00000137,UK10,ESCRCASH00000138;2999.00;;;;;;;;zerotype;;Summer;;No
1850305;ES2080GN-Grey-1850305;ES2080GN_CAMEL;Draft;Casual Shoes;Escaro;Adults-Men;Men;Grey;;;Fashion;Casual;2017;UK6,ESCRCASH00000129,UK7,ESCRCASH00000130,UK8,ESCRCASH00000131,UK9,ESCRCASH00000132,UK10,ESCRCASH00000133;2999.00;;;;;;;;zerotype;;Summer;;No
1850303;ES2080GN-Maroon-1850303;ES2080GN_MAROON;Draft;Casual Shoes;Escaro;Adults-Men;Men;Maroon;;;Fashion;Casual;2017;UK7,ESCRCASH00000125,UK8,ESCRCASH00000126,UK9,ESCRCASH00000127,UK10,ESCRCASH00000128;2999.00;;;;;;;;zerotype;;Summer;;No
1850302;ES2080GN-Black-1850302;ES2080GN_BLACK;Draft;Casual Shoes;Escaro;Adults-Men;Men;Black;;;Fashion;Casual;2017;UK6,ESCRCASH00000120,UK7,ESCRCASH00000121,UK8,ESCRCASH00000122,UK9,ESCRCASH00000123,UK10,ESCRCASH00000124;2999.00;;;;;;;;zerotype;;Summer;;No
1850300;ES2079GN-Tan-1850300;ES2079GN_TAN;Draft;Casual Shoes;Escaro;Adults-Men;Men;Tan;;;Fashion;Casual;2017;UK6,ESCRCASH00000115,UK7,ESCRCASH00000116,UK8,ESCRCASH00000117,UK9,ESCRCASH00000118,UK10,ESCRCASH00000119;2799.00;;;;;;;;zerotype;;Summer;;No
1850298;ES2063KB-Black-1850298;ES2063KB_BLK_TAN;Draft;Casual Shoes;Escaro;Adults-Men;Men;Black;;;Fashion;Casual;2017;UK6,ESCRCASH00000109,UK7,ESCRCASH00000110,UK8,ESCRCASH00000111,UK9,ESCRCASH00000112,UK10,ESCRCASH00000113,UK11,ESCRCASH00000114;2999.00;;;;;;;;zerotype;;Summer;;No
1850296;ES2063KB-Brown-1850296;ES2063KB_BROWN;Draft;Casual Shoes;Escaro;Adults-Men;Men;Brown;;;Fashion;Casual;2017;UK6,ESCRCASH00000103,UK7,ESCRCASH00000104,UK8,ESCRCASH00000105,UK9,ESCRCASH00000106,UK10,ESCRCASH00000107,UK11,ESCRCASH00000108;2999.00;;;;;;;;zerotype;;Summer;;No
1850294;ES2063KB-Black-1850294;ES2063KB_BLACK;Draft;Casual Shoes;Escaro;Adults-Men;Men;Black;;;Fashion;Casual;2017;UK6,ESCRCASH00000097,UK7,ESCRCASH00000098,UK8,ESCRCASH00000099,UK9,ESCRCASH00000100,UK10,ESCRCASH00000101,UK11,ESCRCASH00000102;2999.00;;;;;;;;zerotype;;Summer;;No
1850293;ES2070KB-Brown-1850293;ES2070KB_BRN_TAN;Draft;Casual Shoes;Escaro;Adults-Men;Men;Brown;;;Fashion;Casual;2017;UK6,ESCRCASH00000091,UK7,ESCRCASH00000092,UK8,ESCRCASH00000093,UK9,ESCRCASH00000094,UK10,ESCRCASH00000095,UK11,ESCRCASH00000096;2999.00;;;;;;;;zerotype;;Summer;;No
1850290;ES4016KB-Black-1850290;ES4016KB_BLACK;Draft;Casual Shoes;Escaro;Adults-Men;Men;Black;;;Fashion;Casual;2017;UK6,ESCRCASH00000085,UK7,ESCRCASH00000086,UK8,ESCRCASH00000087,UK9,ESCRCASH00000088,UK10,ESCRCASH00000089,UK11,ESCRCASH00000090;2999.00;;;;;;;;zerotype;;Summer;;No
1850288;ES4015KB-Tan-1850288;ES4015KB_TAN;Draft;Casual Shoes;Escaro;Adults-Men;Men;Tan;;;Fashion;Casual;2017;UK6,ESCRCASH00000079,UK7,ESCRCASH00000080,UK8,ESCRCASH00000081,UK9,ESCRCASH00000082,UK10,ESCRCASH00000083,UK11,ESCRCASH00000084;2999.00;;;;;;;;zerotype;;Summer;;No
1850287;ES4015KB-Black-1850287;ES4015KB_BLACK;Draft;Casual Shoes;Escaro;Adults-Men;Men;Black;;;Fashion;Casual;2017;UK6,ESCRCASH00000073,UK7,ESCRCASH00000074,UK8,ESCRCASH00000075,UK9,ESCRCASH00000076,UK10,ESCRCASH00000077,UK11,ESCRCASH00000078;2999.00;;;;;;;;zerotype;;Summer;;No
1850285;ES4006KB-Tan-1850285;ES4006KB_TAN;Draft;Casual Shoes;Escaro;Adults-Men;Men;Tan;;;Fashion;Casual;2017;UK6,ESCRCASH00000067,UK7,ESCRCASH00000068,UK8,ESCRCASH00000069,UK9,ESCRCASH00000070,UK10,ESCRCASH00000071,UK11,ESCRCASH00000072;3499.00;;;;;;;;zerotype;;Summer;;No
1850283;ES4006KB-Red-1850283;ES4006KB_CHERRY;Draft;Casual Shoes;Escaro;Adults-Men;Men;Red;;;Fashion;Casual;2017;UK6,ESCRCASH00000061,UK7,ESCRCASH00000062,UK8,ESCRCASH00000063,UK9,ESCRCASH00000064,UK10,ESCRCASH00000065,UK11,ESCRCASH00000066;3499.00;;;;;;;;zerotype;;Summer;;No
1850281;ES4006KB-Blue-1850281;ES4006KB_BLUE;Draft;Casual Shoes;Escaro;Adults-Men;Men;Blue;;;Fashion;Casual;2017;UK6,ESCRCASH00000055,UK7,ESCRCASH00000056,UK8,ESCRCASH00000057,UK9,ESCRCASH00000058,UK10,ESCRCASH00000059,UK11,ESCRCASH00000060;3499.00;;;;;;;;zerotype;;Summer;;No
1850279;ES4006KB-Black-1850279;ES4006KB_BLACK;Draft;Casual Shoes;Escaro;Adults-Men;Men;Black;;;Fashion;Casual;2017;UK6,ESCRCASH00000049,UK7,ESCRCASH00000050,UK8,ESCRCASH00000051,UK9,ESCRCASH00000052,UK10,ESCRCASH00000053,UK11,ESCRCASH00000054;3499.00;;;;;;;;zerotype;;Summer;;No
1850277;ES4005KB-Grey-1850277;ES4005KB_CAMEL;Draft;Casual Shoes;Escaro;Adults-Men;Men;Grey;;;Fashion;Casual;2017;UK6,ESCRCASH00000043,UK7,ESCRCASH00000044,UK8,ESCRCASH00000045,UK9,ESCRCASH00000046,UK10,ESCRCASH00000047,UK11,ESCRCASH00000048;2999.00;;;;;;;;zerotype;;Summer;;No
1850275;ES4005KB-Brown-1850275;ES4005KB_BROWN;Draft;Casual Shoes;Escaro;Adults-Men;Men;Brown;;;Fashion;Casual;2017;UK6,ESCRCASH00000037,UK7,ESCRCASH00000038,UK8,ESCRCASH00000039,UK9,ESCRCASH00000040,UK10,ESCRCASH00000041,UK11,ESCRCASH00000042;2999.00;;;;;;;;zerotype;;Summer;;No
1850273;ES4005KB-Blue-1850273;ES4005KB_BLUE;Draft;Casual Shoes;Escaro;Adults-Men;Men;Blue;;;Fashion;Casual;2017;UK6,ESCRCASH00000031,UK7,ESCRCASH00000032,UK8,ESCRCASH00000033,UK9,ESCRCASH00000034,UK10,ESCRCASH00000035,UK11,ESCRCASH00000036;2999.00;;;;;;;;zerotype;;Summer;;No
1850271;ES4005KB-Black-1850271;ES4005KB_BLACK;Draft;Casual Shoes;Escaro;Adults-Men;Men;Black;;;Fashion;Casual;2017;UK6,ESCRCASH00000025,UK7,ESCRCASH00000026,UK8,ESCRCASH00000027,UK9,ESCRCASH00000028,UK10,ESCRCASH00000029,UK11,ESCRCASH00000030;2999.00;;;;;;;;zerotype;;Summer;;No
1850269;ES4000KB-Red-1850269;ES4000KB_CHERRY;Draft;Casual Shoes;Escaro;Adults-Men;Men;Red;;;Fashion;Casual;2017;UK6,ESCRCASH00000019,UK7,ESCRCASH00000020,UK8,ESCRCASH00000021,UK9,ESCRCASH00000022,UK10,ESCRCASH00000023,UK11,ESCRCASH00000024;3599.00;;;;;;;;zerotype;;Summer;;No
1850268;ES4000KB-Blue-1850268;ES4000KB_BLUE;Draft;Casual Shoes;Escaro;Adults-Men;Men;Blue;;;Fashion;Casual;2017;UK6,ESCRCASH00000013,UK7,ESCRCASH00000014,UK8,ESCRCASH00000015,UK9,ESCRCASH00000016,UK10,ESCRCASH00000017,UK11,ESCRCASH00000018;3599.00;;;;;;;;zerotype;;Summer;;No
1850266;ES2027_Reggio-Red-1850266;ES_Reggio_Red;Draft;Casual Shoes;Escaro;Adults-Men;Men;Red;;;Fashion;Casual;2017;UK6,ESCRCASH00000007,UK7,ESCRCASH00000008,UK8,ESCRCASH00000009,UK9,ESCRCASH00000010,UK10,ESCRCASH00000011,UK11,ESCRCASH00000012;4199.00;;;;;;;;zerotype;;Summer;;No
1850263;ES1034_Pisa-Tan-1850263;ES_Pisa_Tan;Draft;Casual Shoes;Escaro;Adults-Men;Men;Tan;;;Fashion;Casual;2017;UK6,ESCRCASH00000001,UK7,ESCRCASH00000002,UK8,ESCRCASH00000003,UK9,ESCRCASH00000004,UK10,ESCRCASH00000005,UK11,ESCRCASH00000006;3799.00;;;;;;;;zerotype;;Summer;;No
1850262;ES6009GN-Tan-1850262;ES6009GN_TAN;Draft;Sandals;Escaro;Adults-Men;Men;Tan;Tan;;Fashion;Casual;2017;UK6,ESCRSNDL00000036,UK7,ESCRSNDL00000037,UK8,ESCRSNDL00000038,UK9,ESCRSNDL00000039,UK10,ESCRSNDL00000040;2999.00;;;;;;;;zerotype;;Summer;;No
1850259;ES6008GN-Brown-1850259;ES6008GN_BROWN;Draft;Sandals;Escaro;Adults-Men;Men;Brown;Brown;;Fashion;Casual;2017;UK6,ESCRSNDL00000031,UK7,ESCRSNDL00000032,UK8,ESCRSNDL00000033,UK9,ESCRSNDL00000034,UK10,ESCRSNDL00000035;2999.00;;;;;;;;zerotype;;Summer;;No
1850257;ES6007GN-Black-1850257;ES6007GN_BLACK;Draft;Sandals;Escaro;Adults-Men;Men;Black;Black;;Fashion;Casual;2017;UK6,ESCRSNDL00000026,UK7,ESCRSNDL00000027,UK8,ESCRSNDL00000028,UK9,ESCRSNDL00000029,UK10,ESCRSNDL00000030;2999.00;;;;;;;;zerotype;;Summer;;No
1850255;ES6006GN-Black-1850255;ES6006GN_BLACK;Draft;Sandals;Escaro;Adults-Men;Men;Black;Black;;Fashion;Casual;2017;UK6,ESCRSNDL00000021,UK7,ESCRSNDL00000022,UK8,ESCRSNDL00000023,UK9,ESCRSNDL00000024,UK10,ESCRSNDL00000025;2999.00;;;;;;;;zerotype;;Summer;;No
1850252;ES6005GN-Beige-1850252;ES6005GN_BEIGE;Draft;Sandals;Escaro;Adults-Men;Men;Beige;Beige;;Fashion;Casual;2017;UK6,ESCRSNDL00000016,UK7,ESCRSNDL00000017,UK8,ESCRSNDL00000018,UK9,ESCRSNDL00000019,UK10,ESCRSNDL00000020;2999.00;;;;;;;;zerotype;;Summer;;No
1850251;ES6004GN-Beige-1850251;ES6004GN_BEIGE;Draft;Sandals;Escaro;Adults-Men;Men;Beige;Beige;;Fashion;Casual;2017;UK6,ESCRSNDL00000011,UK7,ESCRSNDL00000012,UK8,ESCRSNDL00000013,UK9,ESCRSNDL00000014,UK10,ESCRSNDL00000015;2999.00;;;;;;;;zerotype;;Summer;;No
1850249;ES6003GN-Black-1850249;ES6003GN_BLACK;Draft;Sandals;Escaro;Adults-Men;Men;Black;Black;;Fashion;Casual;2017;UK6,ESCRSNDL00000006,UK7,ESCRSNDL00000007,UK8,ESCRSNDL00000008,UK9,ESCRSNDL00000009,UK10,ESCRSNDL00000010;2999.00;;;;;;;;zerotype;;Summer;;No
1850248;ES6002GN-Black-1850248;ES6002GN_BLACK;Draft;Sandals;Escaro;Adults-Men;Men;Black;Black;;Fashion;Casual;2017;UK6,ESCRSNDL00000001,UK7,ESCRSNDL00000002,UK8,ESCRSNDL00000003,UK9,ESCRSNDL00000004,UK10,ESCRSNDL00000005;2999.00;;;;;;;;zerotype;;Summer;;No
