Style ID;Vendor Article Number;Vendor Article Name;Active Status;Article type;Brand;Age Group;Gender;Base Colour;Colour1;Colour2;Fashion Type;Usage;Year;Size - SKU code pair;MRP;Style Description;Style Note;Materials and Care Description;Size and Fit Description;Size Chart Path;Product Display Name;Tags;Product Type;Classification Brand;Season;Comments;Upload Images
2133683;VDKC317E07457-Brown-2133683;Tshirt;Draft;Tshirts;V Dot;Adults-Men;Men;Brown;;;Fashion;;2017;M,VDOTTSHT00001072,S,VDOTTSHT00001073,XXL,VDOTTSHT00001074,3XL,VDOTTSHT00001075,XL,VDOTTSHT00001076,L,VDOTTSHT00001077;1299.00;;;<p>100%Cotton</p>;;;;;zerotype;;Summer;;No
2133682;VDKC317E07456-Olive-2133682;Tshirt;Draft;Tshirts;V Dot;Adults-Men;Men;Olive;;;Fashion;;2017;L,VDOTTSHT00001066,XL,VDOTTSHT00001067,M,VDOTTSHT00001068,XXL,VDOTTSHT00001069,S,VDOTTSHT00001070,3XL,VDOTTSHT00001071;1099.00;;;<p>100%Cotton</p>;;;;;zerotype;;Summer;;No
2133681;VDKC317E07455-Grey-2133681;Tshirt;Draft;Tshirts;V Dot;Adults-Men;Men;Grey;;;Fashion;;2017;XXL,VDOTTSHT00001060,3XL,VDOTTSHT00001061,M,VDOTTSHT00001062,S,VDOTTSHT00001063,XL,VDOTTSHT00001064,L,VDOTTSHT00001065;1099.00;;;<p>100%Cotton</p>;;;;;zerotype;;Summer;;No
2133680;VDSF517E03188-Black-2133680;Shirt;Draft;Shirts;V Dot;Adults-Men;Men;Black;;;Fashion;;2017;44,VDOTSHRT00004004,46,VDOTSHRT00004005;1699.00;;;<p>100% Cotton</p>;;;;;zerotype;;Fall;;No
2133679;VDSF517E03188-Black-2133679;Shirt;Draft;Shirts;V Dot;Adults-Men;Men;Black;;;Fashion;;2017;38,VDOTSHRT00004000,40,VDOTSHRT00004001,42,VDOTSHRT00004002,39,VDOTSHRT00004003;1599.00;;;<p>100% Cotton</p>;;;;;zerotype;;Fall;;No
2133677;VDSF517E03147-Rust-2133677;Shirt;Draft;Shirts;V Dot;Adults-Men;Men;Rust;;;Fashion;;2017;44,VDOTSHRT00003996,46,VDOTSHRT00003997,48,VDOTSHRT00003998,50,VDOTSHRT00003999;1999.00;;;<p>100% Cotton</p>;;;;;zerotype;;Fall;;No
2133676;VDSF517E03147-Rust-2133676;Shirt;Draft;Shirts;V Dot;Adults-Men;Men;Rust;;;Fashion;;2017;38,VDOTSHRT00003992,40,VDOTSHRT00003993,42,VDOTSHRT00003994,39,VDOTSHRT00003995;1899.00;;;<p>100% Cotton</p>;;;;;zerotype;;Fall;;No
2133675;VDSF517E01925-White-2133675;Shirt;Draft;Shirts;V Dot;Adults-Men;Men;White;;;Fashion;;2017;44,VDOTSHRT00003990,46,VDOTSHRT00003991;1799.00;;;<p>100% Cotton</p>;;;;;zerotype;;Fall;;No
2133674;VDSF517E01925-White-2133674;Shirt;Draft;Shirts;V Dot;Adults-Men;Men;White;;;Fashion;;2017;38,VDOTSHRT00003986,40,VDOTSHRT00003987,42,VDOTSHRT00003988,39,VDOTSHRT00003989;1699.00;;;<p>100% Cotton</p>;;;;;zerotype;;Fall;;No
2133673;VDSF517E01923-White-2133673;Shirt;Draft;Shirts;V Dot;Adults-Men;Men;White;;;Fashion;;2017;44,VDOTSHRT00003984,46,VDOTSHRT00003985;2099.00;;;<p>100% Cotton</p>;;;;;zerotype;;Fall;;No
2133671;VDSF517E01923-White-2133671;Shirt;Draft;Shirts;V Dot;Adults-Men;Men;White;;;Fashion;;2017;38,VDOTSHRT00003980,40,VDOTSHRT00003981,42,VDOTSHRT00003982,39,VDOTSHRT00003983;1999.00;;;<p>100% Cotton</p>;;;;;zerotype;;Fall;;No
2133670;VDSF517E01920-Black-2133670;Shirt;Draft;Shirts;V Dot;Adults-Men;Men;Black;;;Fashion;;2017;44,VDOTSHRT00003978,46,VDOTSHRT00003979;1799.00;;;<p>100% Cotton</p>;;;;;zerotype;;Fall;;No
2133669;VDSF517E01920-Black-2133669;Shirt;Draft;Shirts;V Dot;Adults-Men;Men;Black;;;Fashion;;2017;38,VDOTSHRT00003974,40,VDOTSHRT00003975,42,VDOTSHRT00003976,39,VDOTSHRT00003977;1699.00;;;<p>100% Cotton</p>;;;;;zerotype;;Fall;;No
2133668;VDSF517E01919-Green-2133668;Shirt;Draft;Shirts;V Dot;Adults-Men;Men;Green;;;Fashion;;2017;44,VDOTSHRT00003972,46,VDOTSHRT00003973;1799.00;;;<p>100% Cotton</p>;;;;;zerotype;;Fall;;No
2133667;VDSF517E01919-Green-2133667;Shirt;Draft;Shirts;V Dot;Adults-Men;Men;Green;;;Fashion;;2017;38,VDOTSHRT00003968,40,VDOTSHRT00003969,42,VDOTSHRT00003970,39,VDOTSHRT00003971;1699.00;;;<p>100% Cotton</p>;;;;;zerotype;;Fall;;No
