Style ID;Vendor Article Number;Vendor Article Name;Active Status;Article type;Brand;Age Group;Gender;Base Colour;Colour1;Colour2;Fashion Type;Usage;Year;Size - SKU code pair;MRP;Style Description;Style Note;Materials and Care Description;Size and Fit Description;Size Chart Path;Product Display Name;Tags;Product Type;Classification Brand;Season;Comments;Upload Images
2128782;N9-WHITE01-White-2128782;Vimal White Cotton Blended Shorts For Men;Draft;Lounge Shorts;VIMAL;Adults-Men;Men;White;;;Fashion;;2017;S,VMALLNSH00000257,M,VMALLNSH00000258,L,VMALLNSH00000259,XL,VMALLNSH00000260,XXL,VMALLNSH00000261;1099.00;;;<p>Cotton</p>;;;;;zerotype;;Spring;;No
2128779;N9-PURPLE01-Purple-2128779;Vimal Purple Cotton Blended Shorts For Men (XX-Large);Draft;Lounge Shorts;VIMAL;Adults-Men;Men;Purple;;;Fashion;;2017;S,VMALLNSH00000252,M,VMALLNSH00000253,L,VMALLNSH00000254,XL,VMALLNSH00000255,XXL,VMALLNSH00000256;1099.00;;;<p>Cotton</p>;;;;;zerotype;;Spring;;No
2128776;N9-NAVY01-Navy Blue-2128776;Vimal Navy Blue Cotton Blended Shorts For Men;Draft;Lounge Shorts;VIMAL;Adults-Men;Men;Navy Blue;;;Fashion;;2017;S,VMALLNSH00000247,M,VMALLNSH00000248,L,VMALLNSH00000249,XL,VMALLNSH00000250,XXL,VMALLNSH00000251;1099.00;;;<p>Cotton</p>;;;;;zerotype;;Spring;;No
2128774;N9-MELANGE01-Grey Melange-2128774;Vimal Gray Cotton Blended Shorts For Men;Draft;Lounge Shorts;VIMAL;Adults-Men;Men;Grey Melange;;;Fashion;;2017;S,VMALLNSH00000242,M,VMALLNSH00000243,L,VMALLNSH00000244,XL,VMALLNSH00000245,XXL,VMALLNSH00000246;1099.00;;;<p>Cotton</p>;;;;;zerotype;;Spring;;No
2128772;N9-BLACK01-Black-2128772;Vimal Black Cotton Blended Shorts For Men;Draft;Lounge Shorts;VIMAL;Adults-Men;Men;Black;;;Fashion;;2017;S,VMALLNSH00000237,M,VMALLNSH00000238,L,VMALLNSH00000239,XL,VMALLNSH00000240,XXL,VMALLNSH00000241;1099.00;;;<p>Cotton</p>;;;;;zerotype;;Spring;;No
2128769;N9-ANTHRA01-Grey-2128769;Vimal Dark Gray Cotton Blended Shorts For Men;Draft;Lounge Shorts;VIMAL;Adults-Men;Men;Grey;;;Fashion;;2017;S,VMALLNSH00000232,M,VMALLNSH00000233,L,VMALLNSH00000234,XL,VMALLNSH00000235,XXL,VMALLNSH00000236;1099.00;;;<p>Cotton</p>;;;;;zerotype;;Spring;;No
2128767;N8-WHITE01-White-2128767;Vimal White Cotton Blended Shorts For Men;Draft;Lounge Shorts;VIMAL;Adults-Men;Men;White;;;Fashion;;2017;S,VMALLNSH00000227,M,VMALLNSH00000228,L,VMALLNSH00000229,XL,VMALLNSH00000230,XXL,VMALLNSH00000231;1099.00;;;<p>Cotton</p>;;;;;zerotype;;Spring;;No
2128762;N8-PURPLE01-Purple-2128762;Vimal Purple Cotton Blended Shorts For Men;Draft;Lounge Shorts;VIMAL;Adults-Men;Men;Purple;;;Fashion;;2017;S,VMALLNSH00000222,M,VMALLNSH00000223,L,VMALLNSH00000224,XL,VMALLNSH00000225,XXL,VMALLNSH00000226;1099.00;;;<p>Cotton</p>;;;;;zerotype;;Spring;;No
2128753;N8-NAVY01-Navy Blue-2128753;Vimal Navy Blue Cotton Blended Shorts For Men;Draft;Lounge Shorts;VIMAL;Adults-Men;Men;Navy Blue;;;Fashion;;2017;S,VMALLNSH00000217,M,VMALLNSH00000218,L,VMALLNSH00000219,XL,VMALLNSH00000220,XXL,VMALLNSH00000221;1099.00;;;<p>Cotton</p>;;;;;zerotype;;Spring;;No
2128746;N8-MELANGE01-Grey Melange-2128746;Vimal Gray Cotton Blended Shorts For Men;Draft;Lounge Shorts;VIMAL;Adults-Men;Men;Grey Melange;;;Fashion;;2017;S,VMALLNSH00000212,M,VMALLNSH00000213,L,VMALLNSH00000214,XL,VMALLNSH00000215,XXL,VMALLNSH00000216;1099.00;;;<p>Cotton</p>;;;;;zerotype;;Spring;;No
2128743;N8-BLACK01-Black-2128743;Vimal Black Cotton Blended Shorts For Men;Draft;Lounge Shorts;VIMAL;Adults-Men;Men;Black;;;Fashion;;2017;S,VMALLNSH00000207,M,VMALLNSH00000208,L,VMALLNSH00000209,XL,VMALLNSH00000210,XXL,VMALLNSH00000211;1099.00;;;<p>Cotton</p>;;;;;zerotype;;Spring;;No
2128739;N8-ANTHRA01-Grey-2128739;Vimal Dark Gray Cotton Blended Shorts For Men;Draft;Lounge Shorts;VIMAL;Adults-Men;Men;Grey;;;Fashion;;2017;S,VMALLNSH00000202,M,VMALLNSH00000203,L,VMALLNSH00000204,XL,VMALLNSH00000205,XXL,VMALLNSH00000206;1099.00;;;<p>Cotton</p>;;;;;zerotype;;Spring;;No
2128736;N7-WHITE01-White-2128736;Vimal White Cotton Blended Shorts For Men;Draft;Lounge Shorts;VIMAL;Adults-Men;Men;White;;;Fashion;;2017;S,VMALLNSH00000197,M,VMALLNSH00000198,L,VMALLNSH00000199,XL,VMALLNSH00000200,XXL,VMALLNSH00000201;1099.00;;;<p>Cotton</p>;;;;;zerotype;;Spring;;No
2128731;N7-PURPLE01-Purple-2128731;Vimal Purple Cotton Blended Shorts For Men;Draft;Lounge Shorts;VIMAL;Adults-Men;Men;Purple;;;Fashion;;2017;S,VMALLNSH00000192,M,VMALLNSH00000193,L,VMALLNSH00000194,XL,VMALLNSH00000195,XXL,VMALLNSH00000196;1099.00;;;<p>Cotton</p>;;;;;zerotype;;Spring;;No
2128728;N7-NAVY01-Navy Blue-2128728;Vimal Navy Blue Cotton Blended Shorts For Men;Draft;Lounge Shorts;VIMAL;Adults-Men;Men;Navy Blue;;;Fashion;;2017;S,VMALLNSH00000187,M,VMALLNSH00000188,L,VMALLNSH00000189,XL,VMALLNSH00000190,XXL,VMALLNSH00000191;1099.00;;;<p>Cotton</p>;;;;;zerotype;;Spring;;No
2128724;N7-MELANGE01-Grey Melange-2128724;Vimal Gray Cotton Blended Shorts For Men;Draft;Lounge Shorts;VIMAL;Adults-Men;Men;Grey Melange;;;Fashion;;2017;S,VMALLNSH00000182,M,VMALLNSH00000183,L,VMALLNSH00000184,XL,VMALLNSH00000185,XXL,VMALLNSH00000186;1099.00;;;<p>Cotton</p>;;;;;zerotype;;Spring;;No
2128718;N7-BLACK01-Black-2128718;Vimal Black Cotton Blended Shorts For Men;Draft;Lounge Shorts;VIMAL;Adults-Men;Men;Black;;;Fashion;;2017;S,VMALLNSH00000177,M,VMALLNSH00000178,L,VMALLNSH00000179,XL,VMALLNSH00000180,XXL,VMALLNSH00000181;1099.00;;;<p>Cotton</p>;;;;;zerotype;;Spring;;No
2128707;N7-ANTHRA01-Grey-2128707;Vimal Dark Gray Cotton Blended Shorts For Men;Draft;Lounge Shorts;VIMAL;Adults-Men;Men;Grey;;;Fashion;;2017;S,VMALLNSH00000172,M,VMALLNSH00000173,L,VMALLNSH00000174,XL,VMALLNSH00000175,XXL,VMALLNSH00000176;1099.00;;;<p>Cotton</p>;;;;;zerotype;;Spring;;No
2128705;N5-WHITE01-White-2128705;Vimal White Cotton Blended Shorts For Men;Draft;Lounge Shorts;VIMAL;Adults-Men;Men;White;;;Fashion;;2017;S,VMALLNSH00000167,M,VMALLNSH00000168,L,VMALLNSH00000169,XL,VMALLNSH00000170,XXL,VMALLNSH00000171;1099.00;;;<p>Cotton</p>;;;;;zerotype;;Spring;;No
2128701;N2-WHITE01-White-2128701;Vimal White Cotton Blended Shorts For Men;Draft;Lounge Shorts;VIMAL;Adults-Men;Men;White;;;Fashion;;2017;S,VMALLNSH00000162,M,VMALLNSH00000163,L,VMALLNSH00000164,XL,VMALLNSH00000165,XXL,VMALLNSH00000166;1099.00;;;<p>Cotton</p>;;;;;zerotype;;Spring;;No
2128697;N2-PURPLE01-Purple-2128697;Vimal Purple Cotton Blended Shorts For Men;Draft;Lounge Shorts;VIMAL;Adults-Men;Men;Purple;;;Fashion;;2017;S,VMALLNSH00000157,M,VMALLNSH00000158,L,VMALLNSH00000159,XL,VMALLNSH00000160,XXL,VMALLNSH00000161;1099.00;;;<p>Cotton</p>;;;;;zerotype;;Spring;;No
2128693;N2-NAVY01-Navy Blue-2128693;Vimal Navy Blue Cotton Blended Shorts For Men;Draft;Lounge Shorts;VIMAL;Adults-Men;Men;Navy Blue;;;Fashion;;2017;S,VMALLNSH00000152,M,VMALLNSH00000153,L,VMALLNSH00000154,XL,VMALLNSH00000155,XXL,VMALLNSH00000156;1099.00;;;<p>Cotton</p>;;;;;zerotype;;Spring;;No
2128689;N2-MELANGE01-Grey Melange-2128689;Vimal Gray Cotton Blended Shorts For Men;Draft;Lounge Shorts;VIMAL;Adults-Men;Men;Grey Melange;;;Fashion;;2017;S,VMALLNSH00000147,M,VMALLNSH00000148,L,VMALLNSH00000149,XL,VMALLNSH00000150,XXL,VMALLNSH00000151;1099.00;;;<p>Cotton</p>;;;;;zerotype;;Spring;;No
2128685;N2-BLACK01-Black-2128685;Vimal Black Cotton Blended Shorts For Men;Draft;Lounge Shorts;VIMAL;Adults-Men;Men;Black;;;Fashion;;2017;S,VMALLNSH00000142,M,VMALLNSH00000143,L,VMALLNSH00000144,XL,VMALLNSH00000145,XXL,VMALLNSH00000146;1099.00;;;<p>Cotton</p>;;;;;zerotype;;Spring;;No
2128682;N2-ANTHRA01-Grey-2128682;Vimal Dark Gray Cotton Blended Shorts For Men;Draft;Lounge Shorts;VIMAL;Adults-Men;Men;Grey;;;Fashion;;2017;S,VMALLNSH00000137,M,VMALLNSH00000138,L,VMALLNSH00000139,XL,VMALLNSH00000140,XXL,VMALLNSH00000141;1099.00;;;<p>Cotton</p>;;;;;zerotype;;Spring;;No
2128607;N1-WHITE01-White-2128607;Vimal White Cotton Blended Shorts For Men;Draft;Lounge Shorts;VIMAL;Adults-Men;Men;White;;;Fashion;;2017;S,VMALLNSH00000131,M,VMALLNSH00000132,L,VMALLNSH00000133,XL,VMALLNSH00000134,XXL,VMALLNSH00000135;1099.00;;;<p>Cotton</p>;;;;;zerotype;;Spring;;No
2128596;N1-PURPLE01-Purple-2128596;Vimal Purple Cotton Blended Shorts For Men;Draft;Lounge Shorts;VIMAL;Adults-Men;Men;Purple;;;Fashion;;2017;S,VMALLNSH00000126,M,VMALLNSH00000127,L,VMALLNSH00000128,XL,VMALLNSH00000129,XXL,VMALLNSH00000130;1099.00;;;<p>Cotton</p>;;;;;zerotype;;Spring;;No
2128587;N1-NAVY01-Navy Blue-2128587;Vimal Navy Blue Cotton Blended Shorts For Men;Draft;Lounge Shorts;VIMAL;Adults-Men;Men;Navy Blue;;;Fashion;;2017;S,VMALLNSH00000121,M,VMALLNSH00000122,L,VMALLNSH00000123,XL,VMALLNSH00000124,XXL,VMALLNSH00000125;1099.00;;;<p>Cotton</p>;;;;;zerotype;;Spring;;No
2128573;N1-MELANGE01-Grey Melange-2128573;Vimal Gray Cotton Blended Shorts For Men;Draft;Lounge Shorts;VIMAL;Adults-Men;Men;Grey Melange;;;Fashion;;2017;S,VMALLNSH00000116,M,VMALLNSH00000117,L,VMALLNSH00000118,XL,VMALLNSH00000119,XXL,VMALLNSH00000120;1099.00;;;<p>Cotton</p>;;;;;zerotype;;Spring;;No
2128568;N1-BLACK01-Black-2128568;Vimal Black Cotton Blended Shorts For Men;Draft;Lounge Shorts;VIMAL;Adults-Men;Men;Black;;;Fashion;;2017;S,VMALLNSH00000111,M,VMALLNSH00000112,L,VMALLNSH00000113,XL,VMALLNSH00000114,XXL,VMALLNSH00000115;1099.00;;;<p>Cotton</p>;;;;;zerotype;;Spring;;No
2128566;N1-ANTHRA01-Grey-2128566;Vimal Dark Gray Cotton Blended Shorts For Men;Draft;Lounge Shorts;VIMAL;Adults-Men;Men;Grey;;;Fashion;;2017;S,VMALLNSH00000106,M,VMALLNSH00000107,L,VMALLNSH00000108,XL,VMALLNSH00000109,XXL,VMALLNSH00000110;1099.00;;;<p>Cotton</p>;;;;;zerotype;;Spring;;No
