Style ID;Vendor Article Number;Vendor Article Name;Active Status;Article type;Brand;Age Group;Gender;Base Colour;Colour1;Colour2;Fashion Type;Usage;Year;Size - SKU code pair;MRP;Style Description;Style Note;Materials and Care Description;Size and Fit Description;Size Chart Path;Product Display Name;Tags;Product Type;Classification Brand;Season;Comments;Upload Images
2309945;ZIZ1280007ABRWN-Rust NA NA-2309945;ZIZ1280007ABRWN;Draft;Bra;Zivame;Adults-Women;Women;Rust;;;Fashion;Casual;2017;32E,ZVMEBRAA00009109,34E,ZVMEBRAA00009110,36E,ZVMEBRAA00009111,38D,ZVMEBRAA00009112,38E,ZVMEBRAA00009113,40D,ZVMEBRAA00009114,40E,ZVMEBRAA00009115,42C,ZVMEBRAA00009116,42D,ZVMEBRAA00009117,44C,ZVMEBRAA00009118,44D,ZVMEBRAA00009119,32DD,ZVMEBRAA00009120,34DD,ZVMEBRAA00009121,36DD,ZVMEBRAA00009122,38DD,ZVMEBRAA00009123,40DD,ZVMEBRAA00009124,42DD,ZVMEBRAA00009125,44DD,ZVMEBRAA00009126;1495.00;<p>Zivame Quattro Curvy Lightly Padded Minimiser Bra- RedMinimizerNon-WiredLightly PaddedFullHand Wash100% Polyester</p>;;<p>100% Polyester</p>;;;Zivame Quattro Curvy Lightly Padded Minimiser Bra- Red;;zerotype;;Spring;;No
2309944;ZI0101B00Y00RED-Red NA NA-2309944;ZI0101B00Y00RED;Draft;Bra;Zivame;Adults-Women;Women;Red;;;Fashion;Casual;2017;32B,ZVMEBRAA00009101,32C,ZVMEBRAA00009102,32D,ZVMEBRAA00009103,34B,ZVMEBRAA00009104,34C,ZVMEBRAA00009105,34D,ZVMEBRAA00009106,36B,ZVMEBRAA00009107,36C,ZVMEBRAA00009108;895.00;<p>Zivame Moroccan Lace Padded Underwired Bra- CoralT-shirtUnderwiredLightly PaddedFullHand Wash90% Polyamide 10% Spandex</p>;;<p>90% Polyamide 10% Spandex</p>;;;Zivame Moroccan Lace Padded Underwired Bra- Coral;;zerotype;;Spring;;No
2309943;ZI0101A02MZBLUE-Blue White NA-2309943;ZI0101A02MZBLUE;Draft;Bra;Zivame;Adults-Women;Women;Blue;White;;Fashion;Casual;2017;32A,ZVMEBRAA00009086,32B,ZVMEBRAA00009087,32C,ZVMEBRAA00009088,32D,ZVMEBRAA00009089,34A,ZVMEBRAA00009090,34B,ZVMEBRAA00009091,34C,ZVMEBRAA00009092,34D,ZVMEBRAA00009093,36A,ZVMEBRAA00009094,36B,ZVMEBRAA00009095,36C,ZVMEBRAA00009096,36D,ZVMEBRAA00009097,38A,ZVMEBRAA00009098,38B,ZVMEBRAA00009099,38C,ZVMEBRAA00009100;1195.00;<p>Zivame Moroccan Lace Padded Longline Bra- Blue N WhiteT-shirtUnderwiredLightly PaddedFullHand Wash90% Polyamide 10% Spandex</p>;;<p>90% Polyamide 10% Spandex</p>;;;Zivame Moroccan Lace Padded Longline Bra- Blue N White;;zerotype;;Spring;;No
2309942;ZI0101A02MPURPL-Mauve NA NA-2309942;ZI0101A02MPURPL;Draft;Bra;Zivame;Adults-Women;Women;Mauve;;;Fashion;Casual;2017;32A,ZVMEBRAA00009070,32B,ZVMEBRAA00009071,32C,ZVMEBRAA00009072,32D,ZVMEBRAA00009073,34A,ZVMEBRAA00009074,34B,ZVMEBRAA00009075,34C,ZVMEBRAA00009076,34D,ZVMEBRAA00009077,36A,ZVMEBRAA00009078,36B,ZVMEBRAA00009079,36C,ZVMEBRAA00009080,36D,ZVMEBRAA00009081,38A,ZVMEBRAA00009082,38B,ZVMEBRAA00009083,38C,ZVMEBRAA00009084,38D,ZVMEBRAA00009085;1195.00;<p>Zivame Moroccan Lace Padded Longline Bra- LavenderT-shirtUnderwiredLightly PaddedFullHand Wash90% Polyamide 10% Spandex</p>;;<p>90% Polyamide 10% Spandex</p>;;;Zivame Moroccan Lace Padded Longline Bra- Lavender;;zerotype;;Spring;;No
2309941;ZI0100U02NZBLUE-Blue White Multi-2309941;ZI0100U02NZBLUE;Draft;Bra;Zivame;Adults-Women;Women;Blue;White;Multi;Fashion;Casual;2017;32A,ZVMEBRAA00009054,32B,ZVMEBRAA00009055,32C,ZVMEBRAA00009056,32D,ZVMEBRAA00009057,34A,ZVMEBRAA00009058,34B,ZVMEBRAA00009059,34C,ZVMEBRAA00009060,34D,ZVMEBRAA00009061,36A,ZVMEBRAA00009062,36B,ZVMEBRAA00009063,36C,ZVMEBRAA00009064,36D,ZVMEBRAA00009065,38A,ZVMEBRAA00009066,38B,ZVMEBRAA00009067,38C,ZVMEBRAA00009068,38D,ZVMEBRAA00009069;1195.00;<p>Zivame Moroccan Lace Pretty Back- Blue N WhiteT-shirtUnderwiredLightly PaddedFullHand Wash90% Polyamide 10% Spandex</p>;;<p>90% Polyamide 10% Spandex</p>;;;Zivame Moroccan Lace Pretty Back- Blue N White;;zerotype;;Spring;;No
2309940;ZI0100U02N00RED-Coral Cream NA-2309940;ZI0100U02N00RED;Draft;Bra;Zivame;Adults-Women;Women;Coral;Cream;;Fashion;Casual;2017;32A,ZVMEBRAA00009038,32B,ZVMEBRAA00009039,32C,ZVMEBRAA00009040,32D,ZVMEBRAA00009041,34A,ZVMEBRAA00009042,34B,ZVMEBRAA00009043,34C,ZVMEBRAA00009044,34D,ZVMEBRAA00009045,36A,ZVMEBRAA00009046,36B,ZVMEBRAA00009047,36C,ZVMEBRAA00009048,36D,ZVMEBRAA00009049,38A,ZVMEBRAA00009050,38B,ZVMEBRAA00009051,38C,ZVMEBRAA00009052,38D,ZVMEBRAA00009053;1195.00;<p>Zivame Moroccan Lace Pretty Back- Pink N PrintT-shirtUnderwiredLightly PaddedFullHand Wash90% Polyamide 10% Spandex</p>;;<p>90% Polyamide 10% Spandex</p>;;;Zivame Moroccan Lace Pretty Back- Pink N Print;;zerotype;;Spring;;No
