Style ID;Vendor Article Number;Vendor Article Name;Active Status;Article type;Brand;Age Group;Gender;Base Colour;Colour1;Colour2;Fashion Type;Usage;Year;Size - SKU code pair;MRP;Style Description;Style Note;Materials and Care Description;Size and Fit Description;Size Chart Path;Product Display Name;Tags;Product Type;Classification Brand;Season;Comments;Upload Images
2071789;600120101-Blue-2071789;Slim Fit Denim Shorts;Draft;Shorts;Rodamo;Adults-Men;Men;Blue;;;Fashion;Casual;2017;36,RDMOSHOR00000276;1299.00;;;<p>Hand Wash Cold Water</p>;;;;;zerotype;;Summer;;No
2071788;600420102-Blue-2071788;Slim Fit Denim Shorts;Draft;Shorts;Rodamo;Adults-Men;Men;Blue;;;Fashion;Casual;2017;30,RDMOSHOR00000272,32,RDMOSHOR00000273,34,RDMOSHOR00000274,36,RDMOSHOR00000275;1399.00;;;<p>Hand Wash Cold Water</p>;;;;;zerotype;;Summer;;No
2071786;600420101-Blue-2071786;Slim Fit Denim Shorts;Draft;Shorts;Rodamo;Adults-Men;Men;Blue;;;Fashion;Casual;2017;30,RDMOSHOR00000268,32,RDMOSHOR00000269,34,RDMOSHOR00000270,36,RDMOSHOR00000271;1399.00;;;<p>Hand Wash Cold Water</p>;;;;;zerotype;;Summer;;No
2071783;410820106-Beige-2071783;Casual Trousers;Draft;Trousers;Rodamo;Adults-Men;Men;Beige;;;Fashion;Casual;2017;28,RDMOTRSR00001244,30,RDMOTRSR00001245,32,RDMOTRSR00001246,34,RDMOTRSR00001247;1699.00;;;<p>Hand Wash Cold Water</p>;;;;;zerotype;;Summer;;No
2071782;310360104-Beige-2071782;Corduroy Trousers;Draft;Trousers;Rodamo;Adults-Men;Men;Beige;;;Fashion;Casual;2017;30,RDMOTRSR00001240,33,RDMOTRSR00001241,34,RDMOTRSR00001242,36,RDMOTRSR00001243;1699.00;;;<p>Hand Wash Cold Water</p>;;;;;zerotype;;Summer;;No
2071779;310360103-Grey-2071779;Corduroy Trousers;Draft;Trousers;Rodamo;Adults-Men;Men;Grey;;;Fashion;Casual;2017;31,RDMOTRSR00001236,32,RDMOTRSR00001237,35,RDMOTRSR00001238,36,RDMOTRSR00001239;1699.00;;;<p>Hand Wash Cold Water</p>;;;;;zerotype;;Summer;;No
2071778;310360102-Khaki-2071778;Corduroy Trousers;Draft;Trousers;Rodamo;Adults-Men;Men;Khaki;;;Fashion;Casual;2017;31,RDMOTRSR00001232,33,RDMOTRSR00001233,34,RDMOTRSR00001234,36,RDMOTRSR00001235;1699.00;;;<p>Hand Wash Cold Water</p>;;;;;zerotype;;Summer;;No
2071777;310360101-Blue-2071777;Corduroy Trousers;Draft;Trousers;Rodamo;Adults-Men;Men;Blue;;;Fashion;Casual;2017;30,RDMOTRSR00001228,32,RDMOTRSR00001229,35,RDMOTRSR00001230,36,RDMOTRSR00001231;1699.00;;;<p>Hand Wash Cold Water</p>;;;;;zerotype;;Summer;;No
2071774;500910102-BlackWhite-2071774;Slim Fit Casual Shirts;Draft;Shirts;Rodamo;Adults-Men;Men;Black;;White;Fashion;Casual;2017;M,RDMOSHRT00001365,L,RDMOSHRT00001366,XL,RDMOSHRT00001367;1399.00;;;<p>Hand Wash Cold Water</p>;;;;;zerotype;;Summer;;No
2071772;500910101-Navy BlueWhite-2071772;Slim Fit Casual Shirts;Draft;Shirts;Rodamo;Adults-Men;Men;Navy Blue;;White;Fashion;Casual;2017;M,RDMOSHRT00001362,L,RDMOSHRT00001363,XL,RDMOSHRT00001364;1399.00;;;<p>Hand Wash Cold Water</p>;;;;;zerotype;;Summer;;No
2071769;500900102-WhiteBlack-2071769;Slim Fit Casual Shirts;Draft;Shirts;Rodamo;Adults-Men;Men;White;;Black;Fashion;Casual;2017;M,RDMOSHRT00001359,L,RDMOSHRT00001360,XL,RDMOSHRT00001361;1399.00;;;<p>Hand Wash Cold Water</p>;;;;;zerotype;;Summer;;No
2071766;500900101-WhiteBlack-2071766;Slim Fit Casual Shirts;Draft;Shirts;Rodamo;Adults-Men;Men;White;;Black;Fashion;Casual;2017;M,RDMOSHRT00001356,L,RDMOSHRT00001357,XL,RDMOSHRT00001358;1399.00;;;<p>Hand Wash Cold Water</p>;;;;;zerotype;;Summer;;No
2071765;500890101-Black-2071765;Slim Fit Casual Shirts;Draft;Shirts;Rodamo;Adults-Men;Men;Black;;;Fashion;Casual;2017;M,RDMOSHRT00001353,L,RDMOSHRT00001354,XL,RDMOSHRT00001355;1399.00;;;<p>Hand Wash Cold Water</p>;;;;;zerotype;;Summer;;No
2071762;500880103-Pink-2071762;Slim Fit Casual Shirts;Draft;Shirts;Rodamo;Adults-Men;Men;Pink;;;Fashion;Casual;2017;M,RDMOSHRT00001350,L,RDMOSHRT00001351,XL,RDMOSHRT00001352;1299.00;;;<p>Hand Wash Cold Water</p>;;;;;zerotype;;Summer;;No
2071759;500880102-Khaki-2071759;Slim Fit Casual Shirts;Draft;Shirts;Rodamo;Adults-Men;Men;Khaki;;;Fashion;Casual;2017;M,RDMOSHRT00001347,L,RDMOSHRT00001348,XL,RDMOSHRT00001349;1299.00;;;<p>Hand Wash Cold Water</p>;;;;;zerotype;;Summer;;No
2071757;500880101-Blue-2071757;Slim Fit Casual Shirts;Draft;Shirts;Rodamo;Adults-Men;Men;Blue;;;Fashion;Casual;2017;M,RDMOSHRT00001344,L,RDMOSHRT00001345,XL,RDMOSHRT00001346;1299.00;;;<p>Hand Wash Cold Water</p>;;;;;zerotype;;Summer;;No
2071754;500870102-Green-2071754;Slim Fit Casual Shirts;Draft;Shirts;Rodamo;Adults-Men;Men;Green;;;Fashion;Casual;2017;M,RDMOSHRT00001341,L,RDMOSHRT00001342,XL,RDMOSHRT00001343;1399.00;;;<p>Hand Wash Cold Water</p>;;;;;zerotype;;Summer;;No
2071752;500870101-Pink-2071752;Slim Fit Casual Shirts;Draft;Shirts;Rodamo;Adults-Men;Men;Pink;;;Fashion;Casual;2017;M,RDMOSHRT00001338,L,RDMOSHRT00001339,XL,RDMOSHRT00001340;1399.00;;;<p>Hand Wash Cold Water</p>;;;;;zerotype;;Summer;;No
2071750;500860102-Black-2071750;Slim Fit Casual Shirts;Draft;Shirts;Rodamo;Adults-Men;Men;Black;;;Fashion;Casual;2017;M,RDMOSHRT00001335,L,RDMOSHRT00001336,XL,RDMOSHRT00001337;1399.00;;;<p>Hand Wash Cold Water</p>;;;;;zerotype;;Summer;;No
2071741;500860101-Maroon-2071741;Slim Fit Casual Shirts;Draft;Shirts;Rodamo;Adults-Men;Men;Maroon;;;Fashion;Casual;2017;M,RDMOSHRT00001332,L,RDMOSHRT00001333,XL,RDMOSHRT00001334;1399.00;;;<p>Hand Wash Cold Water</p>;;;;;zerotype;;Summer;;No
2071739;500850102-White-2071739;Slim Fit Casual Shirts;Draft;Shirts;Rodamo;Adults-Men;Men;White;;;Fashion;Casual;2017;M,RDMOSHRT00001329,L,RDMOSHRT00001330,XL,RDMOSHRT00001331;1399.00;;;<p>Hand Wash Cold Water</p>;;;;;zerotype;;Summer;;No
2071737;500850101-Blue-2071737;Slim Fit Casual Shirts;Draft;Shirts;Rodamo;Adults-Men;Men;Blue;;;Fashion;Casual;2017;M,RDMOSHRT00001326,L,RDMOSHRT00001327,XL,RDMOSHRT00001328;1399.00;;;<p>Hand Wash Cold Water</p>;;;;;zerotype;;Summer;;No
2071734;500840102-YellowBlue-2071734;Slim Fit Casual Shirts;Draft;Shirts;Rodamo;Adults-Men;Men;Yellow;;Blue;Fashion;Casual;2017;M,RDMOSHRT00001323,L,RDMOSHRT00001324,XL,RDMOSHRT00001325;1299.00;;;<p>Hand Wash Cold Water</p>;;;;;zerotype;;Summer;;No
2071731;500840101-BlueGreen-2071731;Slim Fit Casual Shirts;Draft;Shirts;Rodamo;Adults-Men;Men;Blue;;Green;Fashion;Casual;2017;M,RDMOSHRT00001320,L,RDMOSHRT00001321,XL,RDMOSHRT00001322;1299.00;;;<p>Hand Wash Cold Water</p>;;;;;zerotype;;Summer;;No
2071728;500830102-Pink-2071728;Slim Fit Casual Shirts;Draft;Shirts;Rodamo;Adults-Men;Men;Pink;;;Fashion;Casual;2017;S,RDMOSHRT00001316,M,RDMOSHRT00001317,L,RDMOSHRT00001318,XL,RDMOSHRT00001319;1049.00;;;<p>Hand Wash Cold Water</p>;;;;;zerotype;;Summer;;No
2071725;500830101-Blue-2071725;Slim Fit Casual Shirts;Draft;Shirts;Rodamo;Adults-Men;Men;Blue;;;Fashion;Casual;2017;S,RDMOSHRT00001312,M,RDMOSHRT00001313,L,RDMOSHRT00001314,XL,RDMOSHRT00001315;1049.00;;;<p>Hand Wash Cold Water</p>;;;;;zerotype;;Summer;;No
2071722;500820103-Grey-2071722;Slim Fit Casual Shirts;Draft;Shirts;Rodamo;Adults-Men;Men;Grey;;;Fashion;Casual;2017;M,RDMOSHRT00001308,L,RDMOSHRT00001309,XL,RDMOSHRT00001310,XXL,RDMOSHRT00001311;1299.00;;;<p>Hand Wash Cold Water</p>;;;;;zerotype;;Summer;;No
2071720;224120312-Black-2071720;Slim Fit Denim;Draft;Jeans;Rodamo;Adults-Men;Men;Black;;;Fashion;Casual;2017;28,RDMOJENS00001446,30,RDMOJENS00001447,32,RDMOJENS00001448,34,RDMOJENS00001449,36,RDMOJENS00001450;1999.00;;;<p>Hand Wash Cold Water</p>;;;;;zerotype;;Summer;;No
2071718;224110312-Blue-2071718;Slim Fit Denim;Draft;Jeans;Rodamo;Adults-Men;Men;Blue;;;Fashion;Casual;2017;30,RDMOJENS00001441,32,RDMOJENS00001442,34,RDMOJENS00001443,36,RDMOJENS00001444,38,RDMOJENS00001445;1899.00;;;<p>Hand Wash Cold Water</p>;;;;;zerotype;;Summer;;No
2071717;224090312-Blue-2071717;Slim Fit Denim;Draft;Jeans;Rodamo;Adults-Men;Men;Blue;;;Fashion;Casual;2017;30,RDMOJENS00001437,32,RDMOJENS00001438,34,RDMOJENS00001439,36,RDMOJENS00001440;1499.00;;;<p>Hand Wash Cold Water</p>;;;;;zerotype;;Summer;;No
