Style ID;Vendor Article Number;Vendor Article Name;Active Status;Article type;Brand;Age Group;Gender;Base Colour;Colour1;Colour2;Fashion Type;Usage;Year;Size - SKU code pair;MRP;Style Description;Style Note;Materials and Care Description;Size and Fit Description;Size Chart Path;Product Display Name;Tags;Product Type;Classification Brand;Season;Comments;Upload Images
1927377;AMB1099-XXL-Blue-1927377;Aimbee women beige cotton kurta;Draft;Kurtas;Aimbee;Adults-Women;Women;;;;Fashion;Casual;2017;M,AMBEKRTA00000195,L,AMBEKRTA00000196,XL,AMBEKRTA00000197,XXL,AMBEKRTA00000198;1024.00;;;;;;;;zerotype;;Summer;;No
1927376;AMB1091-XXL-Off white-1927376;Aimbee women beige cotton kurta;Draft;Kurtas;Aimbee;Adults-Women;Women;;;;Fashion;Casual;2017;M,AMBEKRTA00000191,L,AMBEKRTA00000192,XL,AMBEKRTA00000193,XXL,AMBEKRTA00000194;1024.00;;;;;;;;zerotype;;Summer;;No
1927375;AMB1089-XXL-Blue-1927375;Aimbee women beige cotton kurta;Draft;Kurtas;Aimbee;Adults-Women;Women;;;;Fashion;Casual;2017;M,AMBEKRTA00000187,L,AMBEKRTA00000188,XL,AMBEKRTA00000189,XXL,AMBEKRTA00000190;1057.00;;;;;;;;zerotype;;Summer;;No
1927374;AMB1088-XXL-Multi-1927374;Aimbee women beige cotton kurta;Draft;Kurtas;Aimbee;Adults-Women;Women;;;;Fashion;Casual;2017;M,AMBEKRTA00000183,L,AMBEKRTA00000184,XL,AMBEKRTA00000185,XXL,AMBEKRTA00000186;1106.00;;;;;;;;zerotype;;Summer;;No
1927373;AMB1087-XXL-Green-1927373;Aimbee women beige cotton kurta;Draft;Kurtas;Aimbee;Adults-Women;Women;;;;Fashion;Casual;2017;M,AMBEKRTA00000179,L,AMBEKRTA00000180,XL,AMBEKRTA00000181,XXL,AMBEKRTA00000182;1103.00;;;;;;;;zerotype;;Summer;;No
1927372;AMB1086-XXL-White-1927372;Aimbee women beige cotton kurta;Draft;Kurtas;Aimbee;Adults-Women;Women;;;;Fashion;Casual;2017;M,AMBEKRTA00000175,L,AMBEKRTA00000176,XL,AMBEKRTA00000177,XXL,AMBEKRTA00000178;1103.00;;;;;;;;zerotype;;Summer;;No
1927371;AMB1085-XXL-Blue-1927371;Aimbee women beige cotton kurta;Draft;Kurtas;Aimbee;Adults-Women;Women;;;;Fashion;Casual;2017;M,AMBEKRTA00000171,L,AMBEKRTA00000172,XL,AMBEKRTA00000173,XXL,AMBEKRTA00000174;1020.00;;;;;;;;zerotype;;Summer;;No
1927370;AMB1084-XXL-Multi-1927370;Aimbee women beige cotton kurta;Draft;Kurtas;Aimbee;Adults-Women;Women;;;;Fashion;Casual;2017;M,AMBEKRTA00000167,L,AMBEKRTA00000168,XL,AMBEKRTA00000169,XXL,AMBEKRTA00000170;906.00;;;;;;;;zerotype;;Summer;;No
1927369;AMB1083-XXL-Red-1927369;Aimbee women beige cotton kurta;Draft;Kurtas;Aimbee;Adults-Women;Women;;;;Fashion;Casual;2017;M,AMBEKRTA00000163,L,AMBEKRTA00000164,XL,AMBEKRTA00000165,XXL,AMBEKRTA00000166;921.00;;;;;;;;zerotype;;Summer;;No
1927368;AMB1082-XXL-Blue-1927368;Aimbee women beige cotton kurta;Draft;Kurtas;Aimbee;Adults-Women;Women;;;;Fashion;Casual;2017;M,AMBEKRTA00000159,L,AMBEKRTA00000160,XL,AMBEKRTA00000161,XXL,AMBEKRTA00000162;921.00;;;;;;;;zerotype;;Summer;;No
1927367;AMB1081-XXL-Black-1927367;Aimbee women beige cotton kurta;Draft;Kurtas;Aimbee;Adults-Women;Women;;;;Fashion;Casual;2017;M,AMBEKRTA00000155,L,AMBEKRTA00000156,XL,AMBEKRTA00000157,XXL,AMBEKRTA00000158;906.00;;;;;;;;zerotype;;Summer;;No
1927366;AMB1080-XXL-White-1927366;Aimbee women beige cotton kurta;Draft;Kurtas;Aimbee;Adults-Women;Women;;;;Fashion;Casual;2017;M,AMBEKRTA00000151,L,AMBEKRTA00000152,XL,AMBEKRTA00000153,XXL,AMBEKRTA00000154;850.00;;;;;;;;zerotype;;Summer;;No
1927365;AMB1078-XXL-Orange-1927365;Aimbee women beige cotton kurta;Draft;Kurtas;Aimbee;Adults-Women;Women;;;;Fashion;Casual;2017;S,AMBEKRTA00000146,M,AMBEKRTA00000147,L,AMBEKRTA00000148,XL,AMBEKRTA00000149,XXL,AMBEKRTA00000150;1338.00;;;;;;;;zerotype;;Summer;;No
1927364;AMB1076-XXL-Black-1927364;Aimbee women beige cotton kurta;Draft;Kurtas;Aimbee;Adults-Women;Women;;;;Fashion;Casual;2017;S,AMBEKRTA00000141,M,AMBEKRTA00000142,L,AMBEKRTA00000143,XL,AMBEKRTA00000144,XXL,AMBEKRTA00000145;1212.00;;;;;;;;zerotype;;Summer;;No
1927363;AMB1071-XXL-Black-1927363;Aimbee women beige cotton kurta;Draft;Kurtas;Aimbee;Adults-Women;Women;;;;Fashion;Casual;2017;S,AMBEKRTA00000136,M,AMBEKRTA00000137,L,AMBEKRTA00000138,XL,AMBEKRTA00000139,XXL,AMBEKRTA00000140;1356.00;;;;;;;;zerotype;;Summer;;No
1927362;AMB1070-XXL-Beige-1927362;Aimbee women beige cotton kurta;Draft;Kurtas;Aimbee;Adults-Women;Women;;;;Fashion;Casual;2017;S,AMBEKRTA00000131,M,AMBEKRTA00000132,L,AMBEKRTA00000133,XL,AMBEKRTA00000134,XXL,AMBEKRTA00000135;1212.00;;;;;;;;zerotype;;Summer;;No
1927361;AMB1068-XXL-White-1927361;Aimbee women beige cotton kurta;Draft;Kurtas;Aimbee;Adults-Women;Women;;;;Fashion;Casual;2017;S,AMBEKRTA00000126,M,AMBEKRTA00000127,L,AMBEKRTA00000128,XL,AMBEKRTA00000129,XXL,AMBEKRTA00000130;1356.00;;;;;;;;zerotype;;Summer;;No
1927360;AMB1064-XXL-White-1927360;Aimbee women beige cotton kurta;Draft;Kurtas;Aimbee;Adults-Women;Women;;;;Fashion;Casual;2017;S,AMBEKRTA00000121,M,AMBEKRTA00000122,L,AMBEKRTA00000123,XL,AMBEKRTA00000124,XXL,AMBEKRTA00000125;1235.00;;;;;;;;zerotype;;Summer;;No
1927359;AMB1063-XXL-Beige-1927359;Aimbee women beige cotton kurta;Draft;Kurtas;Aimbee;Adults-Women;Women;;;;Fashion;Casual;2017;S,AMBEKRTA00000116,M,AMBEKRTA00000117,L,AMBEKRTA00000118,XL,AMBEKRTA00000119,XXL,AMBEKRTA00000120;1082.00;;;;;;;;zerotype;;Summer;;No
