Style ID;Vendor Article Number;Vendor Article Name;Active Status;Article type;Brand;Age Group;Gender;Base Colour;Colour1;Colour2;Fashion Type;Usage;Year;Size - SKU code pair;MRP;Style Description;Style Note;Materials and Care Description;Size and Fit Description;Size Chart Path;Product Display Name;Tags;Product Type;Classification Brand;Season;Comments;Upload Images
1917723;Fly17A-Denim-Denim-1917723;Fly17A-Denim;Draft;Casual Shoes;883 Police;Adults-Men;Men;;;;Fashion;;2017;US6,883PCASH00000050,US7,883PCASH00000051,US8,883PCASH00000052,US9,883PCASH00000053,US10,883PCASH00000054,US11,883PCASH00000055;7999.00;;;;;;;;zerotype;;Summer;;No
1917722;Fly17A-Black-Black-1917722;Fly17A-Black;Draft;Casual Shoes;883 Police;Adults-Men;Men;;;;Fashion;;2017;US6,883PCASH00000044,US7,883PCASH00000045,US8,883PCASH00000046,US9,883PCASH00000047,US10,883PCASH00000048,US11,883PCASH00000049;7999.00;;;;;;;;zerotype;;Summer;;No
1917721;Crank17A-Navy-Navy-1917721;Crank17A-Navy;Draft;Casual Shoes;883 Police;Adults-Men;Men;;;;Fashion;;2017;US6,883PCASH00000038,US7,883PCASH00000039,US8,883PCASH00000040,US9,883PCASH00000041,US10,883PCASH00000042,US11,883PCASH00000043;7999.00;;;;;;;;zerotype;;Summer;;No
1917720;Crank17A-Black-Black-1917720;Crank17A-Black;Draft;Casual Shoes;883 Police;Adults-Men;Men;;;;Fashion;;2017;US6,883PCASH00000032,US7,883PCASH00000033,US8,883PCASH00000034,US9,883PCASH00000035,US10,883PCASH00000036,US11,883PCASH00000037;7999.00;;;;;;;;zerotype;;Summer;;No
1917719;Rods17A-Navy-Navy-1917719;Rods17A-Navy;Draft;Casual Shoes;883 Police;Adults-Men;Men;;;;Fashion;;2017;US6,883PCASH00000026,US7,883PCASH00000027,US8,883PCASH00000028,US9,883PCASH00000029,US10,883PCASH00000030,US11,883PCASH00000031;8499.00;;;;;;;;zerotype;;Summer;;No
