Style ID;Vendor Article Number;Vendor Article Name;Active Status;Article type;Brand;Age Group;Gender;Base Colour;Colour1;Colour2;Fashion Type;Usage;Year;Size - SKU code pair;MRP;Style Description;Style Note;Materials and Care Description;Size and Fit Description;Size Chart Path;Product Display Name;Tags;Product Type;Classification Brand;Season;Comments;Upload Images
1947265;AW17SQEMB.RINA25-Coral-1947265;ROUND  NECK SHORT SLEEVES TEE WITH EMBRO;Draft;Tshirts;Style Quotient;Adults-Women;Women;;;;Core;;2017;L,STQTTSHT00002705,M,STQTTSHT00002706,S,STQTTSHT00002707,XL,STQTTSHT00002708;999.00;;;;;;;;zerotype;;Winter;;No
1947264;AW17SQEMB.RINA24-Blue-1947264;ROUND  NECK SHORT SLEEVES TEE WITH EMBRO;Draft;Tshirts;Style Quotient;Adults-Women;Women;;;;Core;;2017;L,STQTTSHT00002701,M,STQTTSHT00002702,S,STQTTSHT00002703,XL,STQTTSHT00002704;999.00;;;;;;;;zerotype;;Winter;;No
1947263;AW17SQEMB.AMELIA23-Blue-1947263;ROUND  NECK SHORT SLEEVES TEE WITH EMBRO;Draft;Tshirts;Style Quotient;Adults-Women;Women;;;;Core;;2017;L,STQTTSHT00002697,M,STQTTSHT00002698,S,STQTTSHT00002699,XL,STQTTSHT00002700;999.00;;;;;;;;zerotype;;Winter;;No
1947262;AW17SQEMB.AMELIA22-Blue-1947262;ROUND  NECK SHORT SLEEVES TEE WITH EMBRO;Draft;Tshirts;Style Quotient;Adults-Women;Women;;;;Core;;2017;L,STQTTSHT00002693,M,STQTTSHT00002694,S,STQTTSHT00002695,XL,STQTTSHT00002696;999.00;;;;;;;;zerotype;;Winter;;No
1947261;AW17SQEMB.APRIL21-Coral-1947261;V NECK SHORT SLEEVES TEE WITH EMBROIDERE;Draft;Tshirts;Style Quotient;Adults-Women;Women;;;;Core;;2017;L,STQTTSHT00002689,M,STQTTSHT00002690,S,STQTTSHT00002691,XL,STQTTSHT00002692;999.00;;;;;;;;zerotype;;Winter;;No
1947260;AW17SQEMB.BERRY20-Black-1947260;V NECK 3/4TH SLEEVES TEE WITH EMBROIDERE;Draft;Tshirts;Style Quotient;Adults-Women;Women;;;;Core;;2017;L,STQTTSHT00002685,M,STQTTSHT00002686,S,STQTTSHT00002687,XL,STQTTSHT00002688;999.00;;;;;;;;zerotype;;Winter;;No
1947259;AW17SQEMB.BERRY19-Coral-1947259;V NECK 3/4TH SLEEVES TEE WITH EMBROIDERE;Draft;Tshirts;Style Quotient;Adults-Women;Women;;;;Core;;2017;L,STQTTSHT00002681,M,STQTTSHT00002682,S,STQTTSHT00002683,XL,STQTTSHT00002684;999.00;;;;;;;;zerotype;;Winter;;No
1947258;AW17SQEMB.BERRY18-Pink-1947258;V NECK 3/4TH SLEEVES TEE WITH EMBROIDERE;Draft;Tshirts;Style Quotient;Adults-Women;Women;;;;Core;;2017;L,STQTTSHT00002677,M,STQTTSHT00002678,S,STQTTSHT00002679,XL,STQTTSHT00002680;999.00;;;;;;;;zerotype;;Winter;;No
1947257;AW17SQEMB.BERRY17-Blue-1947257;V NECK 3/4TH SLEEVES TEE WITH EMBROIDERE;Draft;Tshirts;Style Quotient;Adults-Women;Women;;;;Core;;2017;L,STQTTSHT00002673,M,STQTTSHT00002674,S,STQTTSHT00002675,XL,STQTTSHT00002676;999.00;;;;;;;;zerotype;;Winter;;No
1947256;AW17SQEMB.SIMAYA16-Red-1947256;BOAT NECK EXTENDED SLEEVES TEE WITH EMBR;Draft;Tshirts;Style Quotient;Adults-Women;Women;;;;Core;;2017;L,STQTTSHT00002669,M,STQTTSHT00002670,S,STQTTSHT00002671,XL,STQTTSHT00002672;999.00;;;;;;;;zerotype;;Winter;;No
1947255;AW17SQEMB.SIMAYA15-Grey-1947255;BOAT NECK EXTENDED SLEEVES TEE WITH EMBR;Draft;Tshirts;Style Quotient;Adults-Women;Women;;;;Core;;2017;L,STQTTSHT00002665,M,STQTTSHT00002666,S,STQTTSHT00002667,XL,STQTTSHT00002668;999.00;;;;;;;;zerotype;;Winter;;No
1947254;AW17SQEMB.SIMAYA14-Blue-1947254;BOAT NECK EXTENDED SLEEVES TEE WITH EMBR;Draft;Tshirts;Style Quotient;Adults-Women;Women;;;;Core;;2017;L,STQTTSHT00002661,M,STQTTSHT00002662,S,STQTTSHT00002663,XL,STQTTSHT00002664;999.00;;;;;;;;zerotype;;Winter;;No
1947253;AW17SQEMB.SIMAYA13-Blue-1947253;BOAT NECK EXTENDED SLEEVES TEE WITH EMBR;Draft;Tshirts;Style Quotient;Adults-Women;Women;;;;Core;;2017;L,STQTTSHT00002657,M,STQTTSHT00002658,S,STQTTSHT00002659,XL,STQTTSHT00002660;999.00;;;;;;;;zerotype;;Winter;;No
1947252;AW17SQEMB.GILY12-Blue-1947252;ROUND NECK EXTENDED SLEEVES TEE WITH EMB;Draft;Tshirts;Style Quotient;Adults-Women;Women;;;;Core;;2017;L,STQTTSHT00002653,M,STQTTSHT00002654,S,STQTTSHT00002655,XL,STQTTSHT00002656;999.00;;;;;;;;zerotype;;Winter;;No
1947251;AW17SQEMB.GILY11-Red-1947251;ROUND NECK EXTENDED SLEEVES TEE WITH EMB;Draft;Tshirts;Style Quotient;Adults-Women;Women;;;;Core;;2017;L,STQTTSHT00002649,M,STQTTSHT00002650,S,STQTTSHT00002651,XL,STQTTSHT00002652;999.00;;;;;;;;zerotype;;Winter;;No
1947250;SS17SQLARA02-Maroon-1947250;Cascade sleeves off shoulder dress;Draft;Dresses;Style Quotient;Adults-Women;Women;;;;Fashion;;2017;L,STQTDRSS00001145,M,STQTDRSS00001146,S,STQTDRSS00001147,XL,STQTDRSS00001148,XXL,STQTDRSS00001149;2499.00;;;;;;;;zerotype;;Summer;;No
1947249;SS17SQLARA01-Black-1947249;Cascade sleeves off shoulder dress;Draft;Dresses;Style Quotient;Adults-Women;Women;;;;Fashion;;2017;L,STQTDRSS00001140,M,STQTDRSS00001141,S,STQTDRSS00001142,XL,STQTDRSS00001143,XXL,STQTDRSS00001144;2499.00;;;;;;;;zerotype;;Summer;;No
1947248;SS17SQMAHIRA01-OFF WHITE-1947248;Cold Shoulder lace detail top;Draft;Tops;Style Quotient;Adults-Women;Women;;;;Fashion;;2017;L,STQTTOPS00004405,M,STQTTOPS00004406,S,STQTTOPS00004407,XL,STQTTOPS00004408;1799.00;;;;;;;;zerotype;;Summer;;No
