Style ID;Vendor Article Number;Vendor Article Name;Active Status;Article type;Brand;Age Group;Gender;Base Colour;Colour1;Colour2;Fashion Type;Usage;Year;Size - SKU code pair;MRP;Style Description;Style Note;Materials and Care Description;Size and Fit Description;Size Chart Path;Product Display Name;Tags;Product Type;Classification Brand;Season;Comments;Upload Images
2154115;PMOXW1621637CAS-Blue-2154115;Shirts;Draft;Shirts;People;Adults-Men;Men;Blue;;;Fashion;;2017;38,PEPLSHRT00005300,40,PEPLSHRT00005301,42,PEPLSHRT00005302,44,PEPLSHRT00005303;1299.00;;;<p>Cotton linen</p>;;;;;zerotype;;Winter;;No
2154114;PMOXW1621635CAS-Blue-2154114;Shirts;Draft;Shirts;People;Adults-Men;Men;Blue;;;Fashion;;2017;38,PEPLSHRT00005296,40,PEPLSHRT00005297,42,PEPLSHRT00005298,44,PEPLSHRT00005299;999.00;;;<p>100% Cotton</p>;;;;;zerotype;;Winter;;No
2154113;PMOXW1621632CAS-Blue-2154113;Shirts;Draft;Shirts;People;Adults-Men;Men;Blue;;;Fashion;;2017;38,PEPLSHRT00005292,40,PEPLSHRT00005293,42,PEPLSHRT00005294,44,PEPLSHRT00005295;899.00;;;<p>100% Cotton</p>;;;;;zerotype;;Winter;;No
2154111;PMOXW1621630CAS-White-2154111;Shirts;Draft;Shirts;People;Adults-Men;Men;White;;;Fashion;;2017;38,PEPLSHRT00005288,40,PEPLSHRT00005289,42,PEPLSHRT00005290,44,PEPLSHRT00005291;999.00;;;<p>100% Cotton</p>;;;;;zerotype;;Winter;;No
2154110;PMOXW1621629CAS-Blue-2154110;Shirts;Draft;Shirts;People;Adults-Men;Men;Blue;;;Fashion;;2017;38,PEPLSHRT00005284,40,PEPLSHRT00005285,42,PEPLSHRT00005286,44,PEPLSHRT00005287;999.00;;;<p>100% Cotton</p>;;;;;zerotype;;Winter;;No
2154109;PMOXW1621624CAS-Blue-2154109;Shirts;Draft;Shirts;People;Adults-Men;Men;Blue;;;Fashion;;2017;38,PEPLSHRT00005280,40,PEPLSHRT00005281,42,PEPLSHRT00005282,44,PEPLSHRT00005283;899.00;;;<p>100% Cotton</p>;;;;;zerotype;;Winter;;No
2154107;PMOXW1621622CAS-Black-2154107;Shirts;Draft;Shirts;People;Adults-Men;Men;Black;;;Fashion;;2017;38,PEPLSHRT00005276,40,PEPLSHRT00005277,42,PEPLSHRT00005278,44,PEPLSHRT00005279;899.00;;;<p>100% Cotton</p>;;;;;zerotype;;Winter;;No
2154106;PMOXW1621621CAS-White-2154106;Shirts;Draft;Shirts;People;Adults-Men;Men;White;;;Fashion;;2017;38,PEPLSHRT00005272,40,PEPLSHRT00005273,42,PEPLSHRT00005274,44,PEPLSHRT00005275;899.00;;;<p>100% Cotton</p>;;;;;zerotype;;Winter;;No
2154105;PMOXW1621620CAS-Blue-2154105;Shirts;Draft;Shirts;People;Adults-Men;Men;Blue;;;Fashion;;2017;38,PEPLSHRT00005268,40,PEPLSHRT00005269,42,PEPLSHRT00005270,44,PEPLSHRT00005271;1299.00;;;<p>Cotton linen</p>;;;;;zerotype;;Winter;;No
2154104;PMOXW1621614CAS-Blue-2154104;Shirts;Draft;Shirts;People;Adults-Men;Men;Blue;;;Fashion;;2017;38,PEPLSHRT00005264,40,PEPLSHRT00005265,42,PEPLSHRT00005266,44,PEPLSHRT00005267;1199.00;;;<p>100% Cotton</p>;;;;;zerotype;;Winter;;No
2154103;PMOXW1621612CAS-White-2154103;Shirts;Draft;Shirts;People;Adults-Men;Men;White;;;Fashion;;2017;42,PEPLSHRT00005260,38,PEPLSHRT00005261,40,PEPLSHRT00005262,44,PEPLSHRT00005263;999.00;;;<p>100% Linen</p>;;;;;zerotype;;Winter;;No
2154101;PMOXW1621605CAS-Blue-2154101;Shirts;Draft;Shirts;People;Adults-Men;Men;Blue;;;Fashion;;2017;38,PEPLSHRT00005256,40,PEPLSHRT00005257,42,PEPLSHRT00005258,44,PEPLSHRT00005259;1299.00;;;<p>Cotton linen</p>;;;;;zerotype;;Winter;;No
2154100;PMOXW1621601CAS-Blue-2154100;Shirts;Draft;Shirts;People;Adults-Men;Men;Blue;;;Fashion;;2017;42,PEPLSHRT00005252,38,PEPLSHRT00005253,40,PEPLSHRT00005254,44,PEPLSHRT00005255;1099.00;;;<p>100% Cotton</p>;;;;;zerotype;;Winter;;No
