Style ID;Vendor Article Number;Vendor Article Name;Active Status;Article type;Brand;Age Group;Gender;Base Colour;Colour1;Colour2;Fashion Type;Usage;Year;Size - SKU code pair;MRP;Style Description;Style Note;Materials and Care Description;Size and Fit Description;Size Chart Path;Product Display Name;Tags;Product Type;Classification Brand;Season;Comments;Upload Images
1887439;'7124542320873474623-BLACK-1887439;Embroidered Non Padded Basque;Draft;Shapewear;next;Adults-Women;Women;;;;Fashion;;2017;32FF,NEXTSPWR00000046,38FF,NEXTSPWR00000047,36FF,NEXTSPWR00000048,34FF,NEXTSPWR00000049;4190.00;;;;;;;;zerotype;;Summer;;No
1887438;'8824059597291439358-BLACK-1887438;Jersey Sleep Set;Draft;Night suits;next;Adults-Women;Women;;;;Fashion;;2017;12,NEXTNTST00000266,18,NEXTNTST00000267,16,NEXTNTST00000268,6,NEXTNTST00000269,20,NEXTNTST00000270,14,NEXTNTST00000271,10,NEXTNTST00000272,8,NEXTNTST00000273;1990.00;;;;;;;;zerotype;;Summer;;No
1887437;'6206484448322630687-BLUE-1887437;Button Detail Sweater;Draft;Sweaters;next;Adults-Women;Women;;;;Fashion;;2017;6,NEXTSWTR00000011,18,NEXTSWTR00000012,12,NEXTSWTR00000013,10,NEXTSWTR00000014,16,NEXTSWTR00000015,14,NEXTSWTR00000016,8,NEXTSWTR00000017,22,NEXTSWTR00000018,20,NEXTSWTR00000019;3390.00;;;;;;;;zerotype;;Summer;;No
1887436;'5187742315404347780-WHITE-1887436;Stitch Open Sweater;Draft;Sweaters;next;Adults-Women;Women;;;;Fashion;;2017;L,NEXTSWTR00000006,XL,NEXTSWTR00000007,S,NEXTSWTR00000008,XS,NEXTSWTR00000009,M,NEXTSWTR00000010;3390.00;;;;;;;;zerotype;;Summer;;No
1887435;'9079269498241533363-GREEN-1887435;Linen Blend D Ring Cardigan;Draft;Sweaters;next;Adults-Women;Women;;;;Fashion;;2017;M,NEXTSWTR00000001,L,NEXTSWTR00000002,S,NEXTSWTR00000003,XS,NEXTSWTR00000004,XL,NEXTSWTR00000005;2990.00;;;;;;;;zerotype;;Summer;;No
1887434;'8617339537694935830-BLUE-1887434;Belted High Waist Taper Trousers;Draft;Trousers;next;Adults-Women;Women;;;;Fashion;;2017;16,NEXTTRSR00002631,10,NEXTTRSR00002632,12,NEXTTRSR00002633,6,NEXTTRSR00002634,8,NEXTTRSR00002635,18,NEXTTRSR00002636,14,NEXTTRSR00002637;3590.00;;;;;;;;zerotype;;Summer;;No
1887433;'8396260542233281607-BLUE-1887433;Capri Trousers;Draft;Trousers;next;Adults-Women;Women;;;;Fashion;;2017;10T,NEXTTRSR00002617,12,NEXTTRSR00002618,8T,NEXTTRSR00002619,12T,NEXTTRSR00002620,18,NEXTTRSR00002621,14,NEXTTRSR00002622,18T,NEXTTRSR00002623,8,NEXTTRSR00002624,16,NEXTTRSR00002625,14T,NEXTTRSR00002626,16T,NEXTTRSR00002627,6,NEXTTRSR00002628,20T,NEXTTRSR00002629,10,NEXTTRSR00002630;3390.00;;;;;;;;zerotype;;Summer;;No
1887432;'8185788286694514841-BLACK-1887432;Tie Waist Crop Wide Leg Trousers;Draft;Trousers;next;Adults-Women;Women;;;;Fashion;;2017;14,NEXTTRSR00002610,6,NEXTTRSR00002611,8,NEXTTRSR00002612,18,NEXTTRSR00002613,16,NEXTTRSR00002614,10,NEXTTRSR00002615,12,NEXTTRSR00002616;4390.00;;;;;;;;zerotype;;Summer;;No
1887431;'8082581868263971033-BLUE-1887431;Wash Cargo Pants;Draft;Trousers;next;Adults-Women;Women;;;;Fashion;;2017;10R,NEXTTRSR00002593,6R,NEXTTRSR00002594,12R,NEXTTRSR00002595,20L,NEXTTRSR00002596,10L,NEXTTRSR00002597,12L,NEXTTRSR00002598,8L,NEXTTRSR00002599,16L,NEXTTRSR00002600,22R,NEXTTRSR00002601,14L,NEXTTRSR00002602,14R,NEXTTRSR00002603,18L,NEXTTRSR00002604,8R,NEXTTRSR00002605,18R,NEXTTRSR00002606,16R,NEXTTRSR00002607,22L,NEXTTRSR00002608,20R,NEXTTRSR00002609;2890.00;;;;;;;;zerotype;;Summer;;No
1887430;'7758590953038684514-NATURAL-1887430;High Waist Cotton Blend Skinny Trousers;Draft;Trousers;next;Adults-Women;Women;;;;Fashion;;2017;10P,NEXTTRSR00002586,18P,NEXTTRSR00002587,14P,NEXTTRSR00002588,16P,NEXTTRSR00002589,12P,NEXTTRSR00002590,6P,NEXTTRSR00002591,8P,NEXTTRSR00002592;3890.00;;;;;;;;zerotype;;Summer;;No
1887429;'7751938928593338289-RED-1887429;Zip Skinny Trousers;Draft;Trousers;next;Adults-Women;Women;;;;Fashion;;2017;10P,NEXTTRSR00002579,12P,NEXTTRSR00002580,8P,NEXTTRSR00002581,16P,NEXTTRSR00002582,6P,NEXTTRSR00002583,18P,NEXTTRSR00002584,14P,NEXTTRSR00002585;3590.00;;;;;;;;zerotype;;Summer;;No
1887428;'7598790919345589835-BLACK-1887428;Jersey Cropped Wide Leg Trousers;Draft;Trousers;next;Adults-Women;Women;;;;Fashion;;2017;24,NEXTTRSR00002568,12,NEXTTRSR00002569,16,NEXTTRSR00002570,22,NEXTTRSR00002571,20,NEXTTRSR00002572,18,NEXTTRSR00002573,10,NEXTTRSR00002574,26,NEXTTRSR00002575,8,NEXTTRSR00002576,14,NEXTTRSR00002577,6,NEXTTRSR00002578;2890.00;;;;;;;;zerotype;;Summer;;No
1887427;'7544833580662000218-BLACK-1887427;Slim Trouser;Draft;Trousers;next;Adults-Women;Women;;;;Fashion;;2017;8L,NEXTTRSR00002552,8R,NEXTTRSR00002553,6L,NEXTTRSR00002554,6R,NEXTTRSR00002555,18L,NEXTTRSR00002556,12R,NEXTTRSR00002557,16R,NEXTTRSR00002558,16L,NEXTTRSR00002559,18R,NEXTTRSR00002560,14R,NEXTTRSR00002561,22R,NEXTTRSR00002562,10R,NEXTTRSR00002563,20R,NEXTTRSR00002564,10L,NEXTTRSR00002565,14L,NEXTTRSR00002566,12L,NEXTTRSR00002567;3390.00;;;;;;;;zerotype;;Summer;;No
1887420;'7506947944400165767-BLUE-1887420;Button Detail Trouser;Draft;Trousers;next;Adults-Women;Women;;;;Fashion;;2017;22R,NEXTTRSR00002527,18L,NEXTTRSR00002528,22L,NEXTTRSR00002529,10L,NEXTTRSR00002530,12R,NEXTTRSR00002531,6,NEXTTRSR00002532,14,NEXTTRSR00002533,20L,NEXTTRSR00002534,6R,NEXTTRSR00002535,20R,NEXTTRSR00002536,12L,NEXTTRSR00002537,8R,NEXTTRSR00002538,6L,NEXTTRSR00002539,12,NEXTTRSR00002540,16R,NEXTTRSR00002541,18,NEXTTRSR00002542,14R,NEXTTRSR00002543,10,NEXTTRSR00002544,16,NEXTTRSR00002545,18R,NEXTTRSR00002546,14L,NEXTTRSR00002547,8L,NEXTTRSR00002548,10R,NEXTTRSR00002549,8,NEXTTRSR00002550,16L,NEXTTRSR00002551;4590.00;;;;;;;;zerotype;;Summer;;No
1887396;'6979782162679075492-WHITE-1887396;Capri Trousers;Draft;Trousers;next;Adults-Women;Women;;;;Fashion;;2017;10,NEXTTRSR00002513,18T,NEXTTRSR00002514,20T,NEXTTRSR00002515,14T,NEXTTRSR00002516,16,NEXTTRSR00002517,18,NEXTTRSR00002518,12T,NEXTTRSR00002519,10T,NEXTTRSR00002520,6,NEXTTRSR00002521,8,NEXTTRSR00002522,14,NEXTTRSR00002523,16T,NEXTTRSR00002524,12,NEXTTRSR00002525,8T,NEXTTRSR00002526;3390.00;;;;;;;;zerotype;;Summer;;No
1887386;'6643129610600729369-YELLOW-1887386;Capri Trousers;Draft;Trousers;next;Adults-Women;Women;;;;Fashion;;2017;16,NEXTTRSR00002506,14,NEXTTRSR00002507,8,NEXTTRSR00002508,6,NEXTTRSR00002509,18,NEXTTRSR00002510,10,NEXTTRSR00002511,12,NEXTTRSR00002512;3390.00;;;;;;;;zerotype;;Summer;;No
1887377;'6615079807370445784-RED-1887377;Capri Trousers;Draft;Trousers;next;Adults-Women;Women;;;;Fashion;;2017;18,NEXTTRSR00002499,14,NEXTTRSR00002500,8,NEXTTRSR00002501,6,NEXTTRSR00002502,10,NEXTTRSR00002503,16,NEXTTRSR00002504,12,NEXTTRSR00002505;3390.00;;;;;;;;zerotype;;Summer;;No
1887374;'6224682171241109370-WHITE-1887374;Cotton Slouch Color Pant;Draft;Trousers;next;Adults-Women;Women;;;;Fashion;;2017;14XL,NEXTTRSR00002467,12,NEXTTRSR00002468,12R,NEXTTRSR00002469,20R,NEXTTRSR00002470,14,NEXTTRSR00002471,10XL,NEXTTRSR00002472,10L,NEXTTRSR00002473,18XL,NEXTTRSR00002474,10,NEXTTRSR00002475,18L,NEXTTRSR00002476,14L,NEXTTRSR00002477,6R,NEXTTRSR00002478,26R,NEXTTRSR00002479,18,NEXTTRSR00002480,8XL,NEXTTRSR00002481,16,NEXTTRSR00002482,22L,NEXTTRSR00002483,8L,NEXTTRSR00002484,16R,NEXTTRSR00002485,12L,NEXTTRSR00002486,22R,NEXTTRSR00002487,6,NEXTTRSR00002488,8R,NEXTTRSR00002489,24R,NEXTTRSR00002490,14R,NEXTTRSR00002491,8,NEXTTRSR00002492,16XL,NEXTTRSR00002493,12XL,NEXTTRSR00002494,18R,NEXTTRSR00002495,16L,NEXTTRSR00002496,20L,NEXTTRSR00002497,10R,NEXTTRSR00002498;3590.00;;;;;;;;zerotype;;Summer;;No
1887360;'5693277031471438351-GREEN-1887360;Khaki Solid Color Pant;Draft;Trousers;next;Adults-Women;Women;;;;Fashion;;2017;20L,NEXTTRSR00002442,8L,NEXTTRSR00002443,14L,NEXTTRSR00002444,16XL,NEXTTRSR00002445,18R,NEXTTRSR00002446,16R,NEXTTRSR00002447,14XL,NEXTTRSR00002448,10L,NEXTTRSR00002449,14R,NEXTTRSR00002450,16L,NEXTTRSR00002451,20R,NEXTTRSR00002452,22R,NEXTTRSR00002453,6R,NEXTTRSR00002454,12R,NEXTTRSR00002455,18L,NEXTTRSR00002456,12XL,NEXTTRSR00002457,10XL,NEXTTRSR00002458,12L,NEXTTRSR00002459,24R,NEXTTRSR00002460,10R,NEXTTRSR00002461,8XL,NEXTTRSR00002462,8R,NEXTTRSR00002463,22L,NEXTTRSR00002464,26R,NEXTTRSR00002465,18XL,NEXTTRSR00002466;2890.00;;;;;;;;zerotype;;Summer;;No
1887355;'5652971480100425905-BLUE-1887355;Maternity Linen Trousers;Draft;Trousers;next;Adults-Women;Women;;;;Fashion;;2017;12R,NEXTTRSR00002429,18R,NEXTTRSR00002430,18L,NEXTTRSR00002431,16L,NEXTTRSR00002432,16R,NEXTTRSR00002433,14L,NEXTTRSR00002434,8L,NEXTTRSR00002435,10L,NEXTTRSR00002436,8R,NEXTTRSR00002437,10R,NEXTTRSR00002438,20R,NEXTTRSR00002439,14R,NEXTTRSR00002440,12L,NEXTTRSR00002441;3190.00;;;;;;;;zerotype;;Summer;;No
1887350;'5201129693783169113-GREEN-1887350;Embroidered Taper Trousers;Draft;Trousers;next;Adults-Women;Women;;;;Fashion;;2017;14T,NEXTTRSR00002415,10T,NEXTTRSR00002416,8,NEXTTRSR00002417,8T,NEXTTRSR00002418,10,NEXTTRSR00002419,20T,NEXTTRSR00002420,16T,NEXTTRSR00002421,12,NEXTTRSR00002422,18,NEXTTRSR00002423,14,NEXTTRSR00002424,18T,NEXTTRSR00002425,6,NEXTTRSR00002426,16,NEXTTRSR00002427,12T,NEXTTRSR00002428;5090.00;;;;;;;;zerotype;;Summer;;No
1887343;'4834384610709722527-TAN-1887343;Cotton Slouch Color Pant;Draft;Trousers;next;Adults-Women;Women;;;;Fashion;;2017;10,NEXTTRSR00002383,8XL,NEXTTRSR00002384,12XL,NEXTTRSR00002385,10R,NEXTTRSR00002386,22L,NEXTTRSR00002387,18R,NEXTTRSR00002388,18L,NEXTTRSR00002389,6,NEXTTRSR00002390,20R,NEXTTRSR00002391,24R,NEXTTRSR00002392,8L,NEXTTRSR00002393,12,NEXTTRSR00002394,10XL,NEXTTRSR00002395,12R,NEXTTRSR00002396,16L,NEXTTRSR00002397,14XL,NEXTTRSR00002398,14R,NEXTTRSR00002399,16XL,NEXTTRSR00002400,14L,NEXTTRSR00002401,26R,NEXTTRSR00002402,16,NEXTTRSR00002403,8R,NEXTTRSR00002404,18,NEXTTRSR00002405,6R,NEXTTRSR00002406,20L,NEXTTRSR00002407,8,NEXTTRSR00002408,22R,NEXTTRSR00002409,16R,NEXTTRSR00002410,14,NEXTTRSR00002411,12L,NEXTTRSR00002412,10L,NEXTTRSR00002413,18XL,NEXTTRSR00002414;3590.00;;;;;;;;zerotype;;Summer;;No
1887340;'4735260854728069138-GREEN-1887340;Satin Wide Leg Trousers;Draft;Trousers;next;Adults-Women;Women;;;;Fashion;;2017;6,NEXTTRSR00002376,10,NEXTTRSR00002377,16,NEXTTRSR00002378,14,NEXTTRSR00002379,8,NEXTTRSR00002380,12,NEXTTRSR00002381,18,NEXTTRSR00002382;5090.00;;;;;;;;zerotype;;Summer;;No
1887338;'8914129003912251466-BLACK-1887338;Embroidered Cut Out Skinny Jeans;Draft;Jeans;next;Adults-Women;Women;;;;Fashion;;2017;18,NEXTJENS00002714,6,NEXTJENS00002715,8,NEXTJENS00002716,12,NEXTJENS00002717,16,NEXTJENS00002718,10,NEXTJENS00002719,14,NEXTJENS00002720;5090.00;;;;;;;;zerotype;;Summer;;No
1887336;'8237992704720035148-GREEN-1887336;Parallel Cropped Jeans;Draft;Jeans;next;Adults-Women;Women;;;;Fashion;;2017;8,NEXTJENS00002709,10,NEXTJENS00002710,6,NEXTJENS00002711,12,NEXTJENS00002712,18,NEXTJENS00002713;3190.00;;;;;;;;zerotype;;Summer;;No
1887333;'7366453320812032765-PINK-1887333;Purple Denim Jeans;Draft;Jeans;next;Adults-Women;Women;;;;Fashion;;2017;16T,NEXTJENS00002703,14T,NEXTJENS00002704,18T,NEXTJENS00002705,8T,NEXTJENS00002706,12T,NEXTJENS00002707,10T,NEXTJENS00002708;2990.00;;;;;;;;zerotype;;Summer;;No
1887328;'7295490062972608902-BLUE-1887328;Skinny Jeans;Draft;Jeans;next;Adults-Women;Women;;;;Fashion;;2017;14T,NEXTJENS00002689,12T,NEXTJENS00002690,20T,NEXTJENS00002691,12,NEXTJENS00002692,16T,NEXTJENS00002693,10,NEXTJENS00002694,8T,NEXTJENS00002695,8,NEXTJENS00002696,18T,NEXTJENS00002697,14,NEXTJENS00002698,18,NEXTJENS00002699,16,NEXTJENS00002700,10T,NEXTJENS00002701,6,NEXTJENS00002702;3590.00;;;;;;;;zerotype;;Summer;;No
1887326;'5722314100863313522-BLUE-1887326;Studded Skinny Jeans;Draft;Jeans;next;Adults-Women;Women;;;;Fashion;;2017;18,NEXTJENS00002682,8,NEXTJENS00002683,12,NEXTJENS00002684,6,NEXTJENS00002685,10,NEXTJENS00002686,14,NEXTJENS00002687,16,NEXTJENS00002688;5590.00;;;;;;;;zerotype;;Summer;;No
1887267;'5028621738638725442-BLUE-1887267;Wide Leg Ankle Length Jeans;Draft;Jeans;next;Adults-Women;Women;;;;Fashion;;2017;14,NEXTJENS00002675,12,NEXTJENS00002676,16,NEXTJENS00002677,6,NEXTJENS00002678,18,NEXTJENS00002679,8,NEXTJENS00002680,10,NEXTJENS00002681;3590.00;;;;;;;;zerotype;;Summer;;No
1887259;'4979249433623851344-BLACK-1887259;Studded Skinny Jeans;Draft;Jeans;next;Adults-Women;Women;;;;Fashion;;2017;8L,NEXTJENS00002654,20R,NEXTJENS00002655,14L,NEXTJENS00002656,18L,NEXTJENS00002657,16XL,NEXTJENS00002658,14XL,NEXTJENS00002659,16R,NEXTJENS00002660,10R,NEXTJENS00002661,22R,NEXTJENS00002662,12L,NEXTJENS00002663,18R,NEXTJENS00002664,6R,NEXTJENS00002665,12XL,NEXTJENS00002666,14R,NEXTJENS00002667,10XL,NEXTJENS00002668,12R,NEXTJENS00002669,10L,NEXTJENS00002670,16L,NEXTJENS00002671,22L,NEXTJENS00002672,8R,NEXTJENS00002673,20L,NEXTJENS00002674;5590.00;;;;;;;;zerotype;;Summer;;No
1887257;'6083403434903266451-WHITE-1887257;Linen Blend Shorts;Draft;Shorts;next;Adults-Women;Women;;;;Fashion;;2017;8T,NEXTSHOR00001137,12T,NEXTSHOR00001138,14T,NEXTSHOR00001139,16T,NEXTSHOR00001140,18T,NEXTSHOR00001141,10T,NEXTSHOR00001142;2190.00;;;;;;;;zerotype;;Summer;;No
1887254;'6726936558693671415-BLUE-1887254;Printed Bikini Briefs;Draft;Swimwear;next;Adults-Women;Women;;;;Fashion;;2017;6,NEXTSWMW00000971,12,NEXTSWMW00000972,18,NEXTSWMW00000973,16,NEXTSWMW00000974,14,NEXTSWMW00000975,20,NEXTSWMW00000976,10,NEXTSWMW00000977,8,NEXTSWMW00000978;1990.00;;;;;;;;zerotype;;Summer;;No
1887251;'5931435320855066877-PINK-1887251;Mix Print Bikini Briefs;Draft;Swimwear;next;Adults-Women;Women;;;;Fashion;;2017;16,NEXTSWMW00000964,8,NEXTSWMW00000965,12,NEXTSWMW00000966,6,NEXTSWMW00000967,14,NEXTSWMW00000968,10,NEXTSWMW00000969,18,NEXTSWMW00000970;2190.00;;;;;;;;zerotype;;Summer;;No
1887250;'NE988WA67MJKINDFAS-BLACK-1887250;Coated Pull On Jegging;Draft;Jeggings;next;Adults-Women;Women;;;;Fashion;;2017;24,NEXTJGNG00000287,26,NEXTJGNG00000288;3190.00;;;;;;;;zerotype;;Summer;;No
1887248;'8513751263568940857-Red-1887248;Pool Slider;Draft;Flip Flops;next;Adults-Men;Men;;;;Fashion;;2017;UK6.5,NEXTFLFP00000301,UK8,NEXTFLFP00000302,UK11.5,NEXTFLFP00000303,UK12,NEXTFLFP00000304,UK7,NEXTFLFP00000305,UK11,NEXTFLFP00000306,UK10,NEXTFLFP00000307,UK9,NEXTFLFP00000308;1690.00;;;;;;;;zerotype;;Summer;;No
1887245;'5990405188303986153-Black-1887245;Pool Slider;Draft;Flip Flops;next;Adults-Men;Men;;;;Fashion;;2017;UK9,NEXTFLFP00000293,UK11.5,NEXTFLFP00000294,UK11,NEXTFLFP00000295,UK10,NEXTFLFP00000296,UK8,NEXTFLFP00000297,UK7,NEXTFLFP00000298,UK6.5,NEXTFLFP00000299,UK12,NEXTFLFP00000300;1690.00;;;;;;;;zerotype;;Summer;;No
1887243;'5156698480037453304-Brown-1887243;Jute Cross Strap Sandal;Draft;Flip Flops;next;Adults-Men;Men;;;;Fashion;;2017;UK6.5,NEXTFLFP00000285,UK11.5,NEXTFLFP00000286,UK7,NEXTFLFP00000287,UK12,NEXTFLFP00000288,UK8,NEXTFLFP00000289,UK11,NEXTFLFP00000290,UK9,NEXTFLFP00000291,UK10,NEXTFLFP00000292;3590.00;;;;;;;;zerotype;;Summer;;No
