Style ID;Vendor Article Number;Vendor Article Name;Active Status;Article type;Brand;Age Group;Gender;Base Colour;Colour1;Colour2;Fashion Type;Usage;Year;Size - SKU code pair;MRP;Style Description;Style Note;Materials and Care Description;Size and Fit Description;Size Chart Path;Product Display Name;Tags;Product Type;Classification Brand;Season;Comments;Upload Images
2300004;UCFWMC4309BLKE-9-Black-2300004;Urban Country Mens Monk Shoe;Draft;Formal Shoes;Urban Country;Adults-Men;Men;Black;;;Fashion;Formal;2017;UK-10,UBCNFOSH00000156,UK-11,UBCNFOSH00000157,UK-6,UBCNFOSH00000158,UK-7,UBCNFOSH00000159,UK-8,UBCNFOSH00000160,UK-9,UBCNFOSH00000161;6299.00;;;;;;na;;zerotype;;Summer;;No
2300003;UCFWMC4308MCA-9-Brown-2300003;Urban Country Mens Saddle SLIP-ON;Draft;Formal Shoes;Urban Country;Adults-Men;Men;Brown;;;Fashion;Formal;2017;UK-10,UBCNFOSH00000150,UK-11,UBCNFOSH00000151,UK-6,UBCNFOSH00000152,UK-7,UBCNFOSH00000153,UK-8,UBCNFOSH00000154,UK-9,UBCNFOSH00000155;6299.00;;;;;;na;;zerotype;;Summer;;No
2300002;UCFWMC4308BLK-8-Black-2300002;Urban Country Mens Saddle SLIP-ON;Draft;Formal Shoes;Urban Country;Adults-Men;Men;Black;;;Fashion;Formal;2017;UK-10,UBCNFOSH00000145,UK-11,UBCNFOSH00000146,UK-6,UBCNFOSH00000147,UK-7,UBCNFOSH00000148,UK-8,UBCNFOSH00000149;6299.00;;;;;;na;;zerotype;;Summer;;No
2300001;UCFWMC4305TAN-9-Tan-2300001;Urban Country Mens Oxford;Draft;Formal Shoes;Urban Country;Adults-Men;Men;Tan;;;Fashion;Formal;2017;UK-10,UBCNFOSH00000140,UK-11,UBCNFOSH00000141,UK-6,UBCNFOSH00000142,UK-7,UBCNFOSH00000143,UK-9,UBCNFOSH00000144;6299.00;;;;;;na;;zerotype;;Summer;;No
2300000;UCFWMC4305BLK-9-Black-2300000;Urban Country Mens Oxford;Draft;Formal Shoes;Urban Country;Adults-Men;Men;Black;;;Fashion;Formal;2017;UK-10,UBCNFOSH00000135,UK-11,UBCNFOSH00000136,UK-6,UBCNFOSH00000137,UK-8,UBCNFOSH00000138,UK-9,UBCNFOSH00000139;6299.00;;;;;;na;;zerotype;;Summer;;No
2299999;UCFWMC4304TAN-9-Tan-2299999;Urban Country Mens Derby;Draft;Formal Shoes;Urban Country;Adults-Men;Men;Tan;;;Fashion;Formal;2017;UK-10,UBCNFOSH00000129,UK-11,UBCNFOSH00000130,UK-6,UBCNFOSH00000131,UK-7,UBCNFOSH00000132,UK-8,UBCNFOSH00000133,UK-9,UBCNFOSH00000134;6299.00;;;;;;na;;zerotype;;Summer;;No
2299998;UCFWMC4303TANE-8-Tan-2299998;Urban Country Mens Monk Shoe;Draft;Formal Shoes;Urban Country;Adults-Men;Men;Tan;;;Fashion;Formal;2017;UK-10,UBCNFOSH00000125,UK-6,UBCNFOSH00000126,UK-7,UBCNFOSH00000127,UK-8,UBCNFOSH00000128;5499.00;;;;;;na;;zerotype;;Summer;;No
2299997;UCFWMC4303BLKE-9-Black-2299997;Urban Country Mens Monk Shoe;Draft;Formal Shoes;Urban Country;Adults-Men;Men;Black;;;Fashion;Formal;2017;UK-10,UBCNFOSH00000120,UK-6,UBCNFOSH00000121,UK-7,UBCNFOSH00000122,UK-8,UBCNFOSH00000123,UK-9,UBCNFOSH00000124;5499.00;;;;;;na;;zerotype;;Summer;;No
2299996;UCFWMC4142BLK-9-Black-2299996;Urban Country Mens Derby;Draft;Formal Shoes;Urban Country;Adults-Men;Men;Black;;;Fashion;Formal;2017;UK-10,UBCNFOSH00000115,UK-6,UBCNFOSH00000116,UK-7,UBCNFOSH00000117,UK-8,UBCNFOSH00000118,UK-9,UBCNFOSH00000119;5999.00;;;;;;na;;zerotype;;Summer;;No
2299995;UCFWMC4141TANE-9-Tan-2299995;Urban Country Mens Monk Shoe;Draft;Formal Shoes;Urban Country;Adults-Men;Men;Tan;;;Fashion;Formal;2017;UK-10,UBCNFOSH00000109,UK-11,UBCNFOSH00000110,UK-6,UBCNFOSH00000111,UK-7,UBCNFOSH00000112,UK-8,UBCNFOSH00000113,UK-9,UBCNFOSH00000114;5999.00;;;;;;na;;zerotype;;Summer;;No
2299994;UCFWMC4141BLKE-9-Black-2299994;Urban Country Mens Monk Shoe;Draft;Formal Shoes;Urban Country;Adults-Men;Men;Black;;;Fashion;Formal;2017;UK-10,UBCNFOSH00000103,UK-11,UBCNFOSH00000104,UK-6,UBCNFOSH00000105,UK-7,UBCNFOSH00000106,UK-8,UBCNFOSH00000107,UK-9,UBCNFOSH00000108;5999.00;;;;;;na;;zerotype;;Summer;;No
2299993;UCFWMC4140BLKE-9-Black-2299993;Urban Country Mens  SLIP-ON;Draft;Formal Shoes;Urban Country;Adults-Men;Men;Black;;;Fashion;Formal;2017;UK-10,UBCNFOSH00000098,UK-11,UBCNFOSH00000099,UK-7,UBCNFOSH00000100,UK-8,UBCNFOSH00000101,UK-9,UBCNFOSH00000102;5999.00;;;;;;na;;zerotype;;Summer;;No
2299992;UCFWMC4139PBLKE-9-Black-2299992;Urban Country Mens Tramline SLIP-ON;Draft;Formal Shoes;Urban Country;Adults-Men;Men;Black;;;Fashion;Party;2017;UK-10,UBCNFOSH00000092,UK-11,UBCNFOSH00000093,UK-6,UBCNFOSH00000094,UK-7,UBCNFOSH00000095,UK-8,UBCNFOSH00000096,UK-9,UBCNFOSH00000097;5999.00;;;;;;na;;zerotype;;Summer;;No
2299991;UCFWMC4135BLKE-9-Black-2299991;Urban Country Mens Monk Shoe;Draft;Formal Shoes;Urban Country;Adults-Men;Men;Black;;;Fashion;Formal;2017;UK-10,UBCNFOSH00000086,UK-11,UBCNFOSH00000087,UK-6,UBCNFOSH00000088,UK-7,UBCNFOSH00000089,UK-8,UBCNFOSH00000090,UK-9,UBCNFOSH00000091;6299.00;;;;;;na;;zerotype;;Summer;;No
2299990;UCFWMC4134TAN-9-Tan-2299990;Urban Country Mens Tramline SLIP-ON;Draft;Formal Shoes;Urban Country;Adults-Men;Men;Tan;;;Fashion;Formal;2017;UK-10,UBCNFOSH00000081,UK-6,UBCNFOSH00000082,UK-7,UBCNFOSH00000083,UK-8,UBCNFOSH00000084,UK-9,UBCNFOSH00000085;5999.00;;;;;;na;;zerotype;;Summer;;No
2299989;UCFWMC4134BLK-9-Black-2299989;Urban Country Mens Tramline SLIP-ON;Draft;Formal Shoes;Urban Country;Adults-Men;Men;Black;;;Fashion;Formal;2017;UK-10,UBCNFOSH00000075,UK-11,UBCNFOSH00000076,UK-6,UBCNFOSH00000077,UK-7,UBCNFOSH00000078,UK-8,UBCNFOSH00000079,UK-9,UBCNFOSH00000080;5999.00;;;;;;na;;zerotype;;Summer;;No
2299988;UCFWMC4133PBRW-9-Brown-2299988;Urban Country Mens Derby;Draft;Formal Shoes;Urban Country;Adults-Men;Men;Brown;;;Fashion;Party;2017;UK-10,UBCNFOSH00000069,UK-11,UBCNFOSH00000070,UK-6,UBCNFOSH00000071,UK-7,UBCNFOSH00000072,UK-8,UBCNFOSH00000073,UK-9,UBCNFOSH00000074;5799.00;;;;;;na;;zerotype;;Summer;;No
2299987;UCFWMC4133PBLK-9-Black-2299987;Urban Country Mens Derby;Draft;Formal Shoes;Urban Country;Adults-Men;Men;Black;;;Fashion;Party;2017;UK-10,UBCNFOSH00000063,UK-11,UBCNFOSH00000064,UK-6,UBCNFOSH00000065,UK-7,UBCNFOSH00000066,UK-8,UBCNFOSH00000067,UK-9,UBCNFOSH00000068;5799.00;;;;;;na;;zerotype;;Summer;;No
2299986;UCFWMC4131BRW-9-Brown-2299986;Urban Country Mens Wing Cap SLIP-ON;Draft;Formal Shoes;Urban Country;Adults-Men;Men;Brown;;;Fashion;Formal;2017;UK-10,UBCNFOSH00000058,UK-11,UBCNFOSH00000059,UK-7,UBCNFOSH00000060,UK-8,UBCNFOSH00000061,UK-9,UBCNFOSH00000062;3499.00;;;;;;na;;zerotype;;Summer;;No
2299985;UCFWMC4125TAN-9-Tan-2299985;Urban Country Mens Saddle SLIP-ON;Draft;Formal Shoes;Urban Country;Adults-Men;Men;Tan;;;Fashion;Formal;2017;UK-10,UBCNFOSH00000052,UK-11,UBCNFOSH00000053,UK-6,UBCNFOSH00000054,UK-7,UBCNFOSH00000055,UK-8,UBCNFOSH00000056,UK-9,UBCNFOSH00000057;4599.00;;;;;;na;;zerotype;;Summer;;No
2299984;UCFWMC4125BLK-9-Black-2299984;Urban Country Mens Saddle SLIP-ON;Draft;Formal Shoes;Urban Country;Adults-Men;Men;Black;;;Fashion;Formal;2017;UK-10,UBCNFOSH00000046,UK-11,UBCNFOSH00000047,UK-6,UBCNFOSH00000048,UK-7,UBCNFOSH00000049,UK-8,UBCNFOSH00000050,UK-9,UBCNFOSH00000051;4599.00;;;;;;na;;zerotype;;Summer;;No
2299983;UCFWMC4122TAN-9-Tan-2299983;Urban Country Mens Derby;Draft;Formal Shoes;Urban Country;Adults-Men;Men;Tan;;;Fashion;Formal;2017;UK-10,UBCNFOSH00000040,UK-11,UBCNFOSH00000041,UK-6,UBCNFOSH00000042,UK-7,UBCNFOSH00000043,UK-8,UBCNFOSH00000044,UK-9,UBCNFOSH00000045;5299.00;;;;;;na;;zerotype;;Summer;;No
2299982;UCFWMC4122BLK-9-Black-2299982;Urban Country Mens Derby;Draft;Formal Shoes;Urban Country;Adults-Men;Men;Black;;;Fashion;Formal;2017;UK-10,UBCNFOSH00000034,UK-11,UBCNFOSH00000035,UK-6,UBCNFOSH00000036,UK-7,UBCNFOSH00000037,UK-8,UBCNFOSH00000038,UK-9,UBCNFOSH00000039;5299.00;;;;;;na;;zerotype;;Summer;;No
2299981;UCFWMC4115TANE-9-Tan-2299981;Urban Country Mens Oxford;Draft;Formal Shoes;Urban Country;Adults-Men;Men;Tan;;;Fashion;Formal;2017;UK-10,UBCNFOSH00000029,UK-6,UBCNFOSH00000030,UK-7,UBCNFOSH00000031,UK-8,UBCNFOSH00000032,UK-9,UBCNFOSH00000033;5999.00;;;;;;na;;zerotype;;Summer;;No
2299980;UCFWMC4115BURG-9-Coffee Brown-2299980;Urban Country Mens Oxford;Draft;Formal Shoes;Urban Country;Adults-Men;Men;Coffee Brown;;;Fashion;Formal;2017;UK-10,UBCNFOSH00000024,UK-11,UBCNFOSH00000025,UK-7,UBCNFOSH00000026,UK-8,UBCNFOSH00000027,UK-9,UBCNFOSH00000028;5999.00;;;;;;na;;zerotype;;Summer;;No
2299979;UCFWMC4115BLKE-9-Black-2299979;Urban Country Mens Oxford;Draft;Formal Shoes;Urban Country;Adults-Men;Men;Black;;;Fashion;Formal;2017;UK-10,UBCNFOSH00000019,UK-6,UBCNFOSH00000020,UK-7,UBCNFOSH00000021,UK-8,UBCNFOSH00000022,UK-9,UBCNFOSH00000023;5999.00;;;;;;na;;zerotype;;Summer;;No
2299978;UCFWMC4076TAN-9-Tan-2299978;Urban Country Mens Wing Cap Oxford;Draft;Formal Shoes;Urban Country;Adults-Men;Men;Tan;;;Fashion;Formal;2017;UK-10,UBCNFOSH00000013,UK-11,UBCNFOSH00000014,UK-6,UBCNFOSH00000015,UK-7,UBCNFOSH00000016,UK-8,UBCNFOSH00000017,UK-9,UBCNFOSH00000018;4299.00;;;;;;na;;zerotype;;Summer;;No
2299977;UCFWMC4076PBLK-9-Black-2299977;Urban Country Mens Wing Cap Oxford;Draft;Formal Shoes;Urban Country;Adults-Men;Men;Black;;;Fashion;Party;2017;UK-10,UBCNFOSH00000007,UK-11,UBCNFOSH00000008,UK-6,UBCNFOSH00000009,UK-7,UBCNFOSH00000010,UK-8,UBCNFOSH00000011,UK-9,UBCNFOSH00000012;4799.00;;;;;;na;;zerotype;;Summer;;No
2299976;UCFWMC4076NBLK-9-Black-2299976;Urban Country Mens Wing Cap Oxford;Draft;Formal Shoes;Urban Country;Adults-Men;Men;Black;;;Fashion;Formal;2017;UK-10,UBCNFOSH00000001,UK-11,UBCNFOSH00000002,UK-6,UBCNFOSH00000003,UK-7,UBCNFOSH00000004,UK-8,UBCNFOSH00000005,UK-9,UBCNFOSH00000006;4299.00;;;;;;na;;zerotype;;Summer;;No
