Style ID;Vendor Article Number;Vendor Article Name;Active Status;Article type;Brand;Age Group;Gender;Base Colour;Colour1;Colour2;Fashion Type;Usage;Year;Size - SKU code pair;MRP;Style Description;Style Note;Materials and Care Description;Size and Fit Description;Size Chart Path;Product Display Name;Tags;Product Type;Classification Brand;Season;Comments;Upload Images
1880114;SJWC000018A-Black-1880114;Slub Junior woven ca cotton Bl;Draft;Capris;Slub Juniors;Kids-Boys;Boys;;;;Fashion;;2017;7-8Y,SBJNCPRI00000041,8-9Y,SBJNCPRI00000042,10-11Y,SBJNCPRI00000043,11-12Y,SBJNCPRI00000044,13-14Y,SBJNCPRI00000045;1399.00;;;;;;;;zerotype;;Summer;;No
1880113;SJWC000017A-Orange-1880113;Slub Junior woven ca cotton Or;Draft;Capris;Slub Juniors;Kids-Boys;Boys;;;;Fashion;;2017;7-8Y,SBJNCPRI00000036,8-9Y,SBJNCPRI00000037,10-11Y,SBJNCPRI00000038,11-12Y,SBJNCPRI00000039,13-14Y,SBJNCPRI00000040;1399.00;;;;;;;;zerotype;;Summer;;No
1880112;SJTS000080A-Charcoal Melange-1880112;Slub Junior T-Shirt KNT Melang;Draft;Tshirts;Slub Juniors;Kids-Boys;Boys;;;;Fashion;;2017;7-8Y,SBJNTSHT00001157,8-9Y,SBJNTSHT00001158,10-11Y,SBJNTSHT00001159,11-12Y,SBJNTSHT00001160,13-14Y,SBJNTSHT00001161;949.00;;;;;;;;zerotype;;Summer;;No
1880111;SJTS000079A-Ecru Melange-1880111;Slub Junior T-Shirt KNT Ecru M;Draft;Tshirts;Slub Juniors;Kids-Boys;Boys;;;;Fashion;;2017;7-8Y,SBJNTSHT00001152,8-9Y,SBJNTSHT00001153,10-11Y,SBJNTSHT00001154,11-12Y,SBJNTSHT00001155,13-14Y,SBJNTSHT00001156;949.00;;;;;;;;zerotype;;Summer;;No
1880110;SJTS000078A-Lt Green-1880110;Slub Junior T-Shirt KNT Lt Gre;Draft;Tshirts;Slub Juniors;Kids-Boys;Boys;;;;Fashion;;2017;7-8Y,SBJNTSHT00001147,8-9Y,SBJNTSHT00001148,10-11Y,SBJNTSHT00001149,11-12Y,SBJNTSHT00001150,13-14Y,SBJNTSHT00001151;699.00;;;;;;;;zerotype;;Summer;;No
1880109;SJTS000077A-Lt Brown-1880109;Slub Junior T-Shirt KNT Lt Bro;Draft;Tshirts;Slub Juniors;Kids-Boys;Boys;;;;Fashion;;2017;7-8Y,SBJNTSHT00001142,8-9Y,SBJNTSHT00001143,10-11Y,SBJNTSHT00001144,11-12Y,SBJNTSHT00001145,13-14Y,SBJNTSHT00001146;699.00;;;;;;;;zerotype;;Summer;;No
1880108;SJTS000074A-Navy-1880108;Slub Junior T-Shirt KNT Navy;Draft;Tshirts;Slub Juniors;Kids-Boys;Boys;;;;Fashion;;2017;7-8Y,SBJNTSHT00001137,8-9Y,SBJNTSHT00001138,10-11Y,SBJNTSHT00001139,11-12Y,SBJNTSHT00001140,13-14Y,SBJNTSHT00001141;899.00;;;;;;;;zerotype;;Summer;;No
1880107;SJTS000073A-Grey Melange-1880107;Slub Junior T-Shirt KNT Grey M;Draft;Tshirts;Slub Juniors;Kids-Boys;Boys;;;;Fashion;;2017;7-8Y,SBJNTSHT00001132,8-9Y,SBJNTSHT00001133,10-11Y,SBJNTSHT00001134,11-12Y,SBJNTSHT00001135,13-14Y,SBJNTSHT00001136;899.00;;;;;;;;zerotype;;Summer;;No
1880106;SJTS000072A-Green-1880106;Slub Junior T-Shirt KNT Green;Draft;Tshirts;Slub Juniors;Kids-Boys;Boys;;;;Fashion;;2017;7-8Y,SBJNTSHT00001127,8-9Y,SBJNTSHT00001128,10-11Y,SBJNTSHT00001129,11-12Y,SBJNTSHT00001130,13-14Y,SBJNTSHT00001131;799.00;;;;;;;;zerotype;;Summer;;No
1880105;SJTS000071A-Maroon-1880105;Slub Junior T-Shirt KNT Maroon;Draft;Tshirts;Slub Juniors;Kids-Boys;Boys;;;;Fashion;;2017;7-8Y,SBJNTSHT00001122,8-9Y,SBJNTSHT00001123,10-11Y,SBJNTSHT00001124,11-12Y,SBJNTSHT00001125,13-14Y,SBJNTSHT00001126;799.00;;;;;;;;zerotype;;Summer;;No
1880104;SJTS000070A-Green-1880104;Slub Junior T-Shirt KNT Green;Draft;Tshirts;Slub Juniors;Kids-Boys;Boys;;;;Fashion;;2017;7-8Y,SBJNTSHT00001117,8-9Y,SBJNTSHT00001118,10-11Y,SBJNTSHT00001119,11-12Y,SBJNTSHT00001120,13-14Y,SBJNTSHT00001121;699.00;;;;;;;;zerotype;;Summer;;No
1880103;SJTS000069A-White-1880103;Slub Junior T-Shirt KNT White;Draft;Tshirts;Slub Juniors;Kids-Boys;Boys;;;;Fashion;;2017;7-8Y,SBJNTSHT00001112,8-9Y,SBJNTSHT00001113,10-11Y,SBJNTSHT00001114,11-12Y,SBJNTSHT00001115,13-14Y,SBJNTSHT00001116;699.00;;;;;;;;zerotype;;Summer;;No
1880102;SJTS000068A-Ecru Melange-1880102;Slub Junior T-Shirt KNT Ecru M;Draft;Tshirts;Slub Juniors;Kids-Boys;Boys;;;;Fashion;;2017;7-8Y,SBJNTSHT00001107,8-9Y,SBJNTSHT00001108,10-11Y,SBJNTSHT00001109,11-12Y,SBJNTSHT00001110,13-14Y,SBJNTSHT00001111;699.00;;;;;;;;zerotype;;Summer;;No
1880101;SJTS000067A-SEA BLUE-1880101;Slub Junior T-Shirt KNT SEA BL;Draft;Tshirts;Slub Juniors;Kids-Boys;Boys;;;;Fashion;;2017;7-8Y,SBJNTSHT00001102,8-9Y,SBJNTSHT00001103,10-11Y,SBJNTSHT00001104,11-12Y,SBJNTSHT00001105,13-14Y,SBJNTSHT00001106;699.00;;;;;;;;zerotype;;Summer;;No
1880100;SJTS000066A-Yellow-1880100;Slub Junior T-Shirt KNT Yellow;Draft;Tshirts;Slub Juniors;Kids-Boys;Boys;;;;Fashion;;2017;7-8Y,SBJNTSHT00001097,8-9Y,SBJNTSHT00001098,10-11Y,SBJNTSHT00001099,11-12Y,SBJNTSHT00001100,13-14Y,SBJNTSHT00001101;699.00;;;;;;;;zerotype;;Summer;;No
1880099;SJTS000065A-White-1880099;Slub Junior T-Shirt KNT White;Draft;Tshirts;Slub Juniors;Kids-Boys;Boys;;;;Fashion;;2017;7-8Y,SBJNTSHT00001092,8-9Y,SBJNTSHT00001093,10-11Y,SBJNTSHT00001094,11-12Y,SBJNTSHT00001095,13-14Y,SBJNTSHT00001096;849.00;;;;;;;;zerotype;;Summer;;No
1880097;SJTS000064A-White-1880097;Slub Junior T-Shirt KNT White;Draft;Tshirts;Slub Juniors;Kids-Boys;Boys;;;;Fashion;;2017;7-8Y,SBJNTSHT00001087,8-9Y,SBJNTSHT00001088,10-11Y,SBJNTSHT00001089,11-12Y,SBJNTSHT00001090,13-14Y,SBJNTSHT00001091;849.00;;;;;;;;zerotype;;Summer;;No
1880090;SJTS000063A-Multi1-1880090;Slub Junior T-Shirt cotton Mul;Draft;Tshirts;Slub Juniors;Kids-Boys;Boys;;;;Fashion;;2017;7-8Y,SBJNTSHT00001082,8-9Y,SBJNTSHT00001083,10-11Y,SBJNTSHT00001084,11-12Y,SBJNTSHT00001085,13-14Y,SBJNTSHT00001086;849.00;;;;;;;;zerotype;;Summer;;No
1880089;SJTS000062A-Multi-1880089;Slub Junior T-Shirt cotton Mul;Draft;Tshirts;Slub Juniors;Kids-Boys;Boys;;;;Fashion;;2017;7-8Y,SBJNTSHT00001077,8-9Y,SBJNTSHT00001078,10-11Y,SBJNTSHT00001079,11-12Y,SBJNTSHT00001080,13-14Y,SBJNTSHT00001081;849.00;;;;;;;;zerotype;;Summer;;No
1880088;SJTS000061A-Multi-1880088;Slub Junior T-Shirt cotton Mul;Draft;Tshirts;Slub Juniors;Kids-Boys;Boys;;;;Fashion;;2017;7-8Y,SBJNTSHT00001072,8-9Y,SBJNTSHT00001073,10-11Y,SBJNTSHT00001074,11-12Y,SBJNTSHT00001075,13-14Y,SBJNTSHT00001076;699.00;;;;;;;;zerotype;;Summer;;No
1880087;SJTS000060A-Blue-1880087;Slub Junior T-Shirt cotton Blu;Draft;Tshirts;Slub Juniors;Kids-Boys;Boys;;;;Fashion;;2017;7-8Y,SBJNTSHT00001067,8-9Y,SBJNTSHT00001068,10-11Y,SBJNTSHT00001069,11-12Y,SBJNTSHT00001070,13-14Y,SBJNTSHT00001071;699.00;;;;;;;;zerotype;;Summer;;No
1880086;SJTS000055A-Brown-1880086;Slub Junior T-Shirt cotton Bro;Draft;Tshirts;Slub Juniors;Kids-Boys;Boys;;;;Fashion;;2017;7-8Y,SBJNTSHT00001062,8-9Y,SBJNTSHT00001063,10-11Y,SBJNTSHT00001064,11-12Y,SBJNTSHT00001065,13-14Y,SBJNTSHT00001066;649.00;;;;;;;;zerotype;;Summer;;No
1880085;SJTS000051A-White-1880085;Slub Junior T-Shirt KNT White;Draft;Tshirts;Slub Juniors;Kids-Boys;Boys;;;;Fashion;;2017;7-8Y,SBJNTSHT00001057,8-9Y,SBJNTSHT00001058,10-11Y,SBJNTSHT00001059,11-12Y,SBJNTSHT00001060,13-14Y,SBJNTSHT00001061;599.00;;;;;;;;zerotype;;Summer;;No
1880084;SJKN000957A-Blue-1880084;Slub Junior Knit Top cotton Bl;Draft;Tshirts;Slub Juniors;Kids-Boys;Boys;;;;Fashion;;2017;7-8Y,SBJNTSHT00001052,8-9Y,SBJNTSHT00001053,10-11Y,SBJNTSHT00001054,11-12Y,SBJNTSHT00001055,13-14Y,SBJNTSHT00001056;649.00;;;;;;;;zerotype;;Summer;;No
1880083;SJTR000188A-Beige-1880083;Slub Junior Pant cotton Beige;Draft;Trousers;Slub Juniors;Kids-Boys;Boys;;;;Fashion;;2017;7-8Y,SBJNTRSR00000215,8-9Y,SBJNTRSR00000216,10-11Y,SBJNTRSR00000217,11-12Y,SBJNTRSR00000218,13-14Y,SBJNTRSR00000219;1399.00;;;;;;;;zerotype;;Summer;;No
1880082;SJTR000187A-Blue-1880082;Slub Junior Pant cotton Blue;Draft;Trousers;Slub Juniors;Kids-Boys;Boys;;;;Fashion;;2017;7-8Y,SBJNTRSR00000210,8-9Y,SBJNTRSR00000211,10-11Y,SBJNTRSR00000212,11-12Y,SBJNTRSR00000213,13-14Y,SBJNTRSR00000214;1399.00;;;;;;;;zerotype;;Summer;;No
1880081;SJTR000183A-Offwhite-1880081;Slub Junior Pant cotton Offwhi;Draft;Trousers;Slub Juniors;Kids-Boys;Boys;;;;Fashion;;2017;7-8Y,SBJNTRSR00000205,8-9Y,SBJNTRSR00000206,10-11Y,SBJNTRSR00000207,11-12Y,SBJNTRSR00000208,13-14Y,SBJNTRSR00000209;1349.00;;;;;;;;zerotype;;Summer;;No
1880080;SJTR000180A-Sky Blue-1880080;Slub Junior Pant cotton Sky Bl;Draft;Trousers;Slub Juniors;Kids-Boys;Boys;;;;Fashion;;2017;7-8Y,SBJNTRSR00000200,8-9Y,SBJNTRSR00000201,10-11Y,SBJNTRSR00000202,11-12Y,SBJNTRSR00000203,13-14Y,SBJNTRSR00000204;1399.00;;;;;;;;zerotype;;Summer;;No
1880079;SJTR000179A-Red-1880079;Slub Junior Pant cotton Red;Draft;Trousers;Slub Juniors;Kids-Boys;Boys;;;;Fashion;;2017;7-8Y,SBJNTRSR00000195,8-9Y,SBJNTRSR00000196,10-11Y,SBJNTRSR00000197,11-12Y,SBJNTRSR00000198,13-14Y,SBJNTRSR00000199;1399.00;;;;;;;;zerotype;;Summer;;No
1880078;SJJN000210A-Lt Blue-1880078;Slub Junior Jean cotton Lt Blu;Draft;Jeans;Slub Juniors;Kids-Boys;Boys;;;;Fashion;;2017;7-8Y,SBJNJENS00000255,8-9Y,SBJNJENS00000256,10-11Y,SBJNJENS00000257,11-12Y,SBJNJENS00000258,13-14Y,SBJNJENS00000259;1199.00;;;;;;;;zerotype;;Summer;;No
1880077;SJJN000208A-Mid Blue-1880077;Slub Junior Jean cotton Mid Bl;Draft;Jeans;Slub Juniors;Kids-Boys;Boys;;;;Fashion;;2017;7-8Y,SBJNJENS00000250,8-9Y,SBJNJENS00000251,10-11Y,SBJNJENS00000252,11-12Y,SBJNJENS00000253,13-14Y,SBJNJENS00000254;1199.00;;;;;;;;zerotype;;Summer;;No
1880076;SJSH000388A-White-1880076;Slub Junior Shirt WOV White;Draft;Shirts;Slub Juniors;Kids-Boys;Boys;;;;Fashion;;2017;7-8Y,SBJNSHRT00000347,8-9Y,SBJNSHRT00000348,10-11Y,SBJNSHRT00000349,11-12Y,SBJNSHRT00000350,13-14Y,SBJNSHRT00000351;1399.00;;;;;;;;zerotype;;Summer;;No
1880075;SJSH000361A-White-1880075;Slub Junior Shirt cotton White;Draft;Shirts;Slub Juniors;Kids-Boys;Boys;;;;Fashion;;2017;7-8Y,SBJNSHRT00000342,8-9Y,SBJNSHRT00000343,10-11Y,SBJNSHRT00000344,11-12Y,SBJNSHRT00000345,13-14Y,SBJNSHRT00000346;1499.00;;;;;;;;zerotype;;Summer;;No
1880074;SJSH000360A-Blue-1880074;Slub Junior Shirt cotton Blue;Draft;Shirts;Slub Juniors;Kids-Boys;Boys;;;;Fashion;;2017;7-8Y,SBJNSHRT00000336,8-9Y,SBJNSHRT00000337,10-11Y,SBJNSHRT00000339,11-12Y,SBJNSHRT00000340,13-14Y,SBJNSHRT00000341;1149.00;;;;;;;;zerotype;;Summer;;No
1880073;SJSH000357A-White/Navy-1880073;Slub Junior Shirt cotton White;Draft;Shirts;Slub Juniors;Kids-Boys;Boys;;;;Fashion;;2017;7-8Y,SBJNSHRT00000331,8-9Y,SBJNSHRT00000332,10-11Y,SBJNSHRT00000333,11-12Y,SBJNSHRT00000334,13-14Y,SBJNSHRT00000335;1149.00;;;;;;;;zerotype;;Summer;;No
1880072;SJSH000351A-Blue-1880072;Slub Junior Shirt cotton Blue;Draft;Shirts;Slub Juniors;Kids-Boys;Boys;;;;Fashion;;2017;7-8Y,SBJNSHRT00000326,8-9Y,SBJNSHRT00000327,10-11Y,SBJNSHRT00000328,11-12Y,SBJNSHRT00000329,13-14Y,SBJNSHRT00000330;1399.00;;;;;;;;zerotype;;Summer;;No
1880071;SJSH000324A-Orange-1880071;Slub Junior Shirt cotton Orang;Draft;Shirts;Slub Juniors;Kids-Boys;Boys;;;;Fashion;;2017;7-8Y,SBJNSHRT00000321,8-9Y,SBJNSHRT00000322,10-11Y,SBJNSHRT00000323,11-12Y,SBJNSHRT00000324,13-14Y,SBJNSHRT00000325;949.00;;;;;;;;zerotype;;Summer;;No
1880070;SJSH000323A-Blue-1880070;Slub Junior Shirt cotton Blue;Draft;Shirts;Slub Juniors;Kids-Boys;Boys;;;;Fashion;;2017;7-8Y,SBJNSHRT00000316,8-9Y,SBJNSHRT00000317,10-11Y,SBJNSHRT00000318,11-12Y,SBJNSHRT00000319,13-14Y,SBJNSHRT00000320;949.00;;;;;;;;zerotype;;Summer;;No
1880069;SJSH000321A-Blue-1880069;Slub Junior Shirt cotton Blue;Draft;Shirts;Slub Juniors;Kids-Boys;Boys;;;;Fashion;;2017;7-8Y,SBJNSHRT00000311,8-9Y,SBJNSHRT00000312,10-11Y,SBJNSHRT00000313,11-12Y,SBJNSHRT00000314,13-14Y,SBJNSHRT00000315;1049.00;;;;;;;;zerotype;;Summer;;No
1880068;SJWS000071A-Pink-1880068;Slub Junior Woven Sh cotton Pi;Draft;Shorts;Slub Juniors;Kids-Boys;Boys;;;;Fashion;;2017;7-8Y,SBJNSHOR00000146,8-9Y,SBJNSHOR00000147,10-11Y,SBJNSHOR00000148,11-12Y,SBJNSHOR00000149,13-14Y,SBJNSHOR00000150;1149.00;;;;;;;;zerotype;;Summer;;No
