Style ID;Vendor Article Number;Vendor Article Name;Active Status;Article type;Brand;Age Group;Gender;Base Colour;Colour1;Colour2;Fashion Type;Usage;Year;Size - SKU code pair;MRP;Style Description;Style Note;Materials and Care Description;Size and Fit Description;Size Chart Path;Product Display Name;Tags;Product Type;Classification Brand;Season;Comments;Upload Images
1926640;DCR0019_8-9Y-Green-1926640;Cars;Draft;Tshirts;Cars;Kids-Boys;Boys;;;;Core;;2017;7-8Y,CARSTSHT00000159,8-9Y,CARSTSHT00000160;999.00;;;;;;;;zerotype;;Spring;;No
1926639;DCR0019_5-6Y-Green-1926639;Cars;Draft;Tshirts;Cars;Kids-Boys;Boys;;;;Core;;2017;3-4Y,CARSTSHT00000156,4-5Y,CARSTSHT00000157,5-6Y,CARSTSHT00000158;899.00;;;;;;;;zerotype;;Spring;;No
1926638;DCR0019_13-14Y-Green-1926638;Cars;Draft;Tshirts;Cars;Kids-Boys;Boys;;;;Core;;2017;10-11Y,CARSTSHT00000153,11-12Y,CARSTSHT00000154,13-14Y,CARSTSHT00000155;999.00;;;;;;;;zerotype;;Spring;;No
1926637;DCR0017_8-9Y-Multi-1926637;Cars;Draft;Tshirts;Cars;Kids-Boys;Boys;;;;Core;;2017;7-8Y,CARSTSHT00000151,8-9Y,CARSTSHT00000152;999.00;;;;;;;;zerotype;;Spring;;No
1926636;DCR0017_5-6Y-Multi-1926636;Cars;Draft;Tshirts;Cars;Kids-Boys;Boys;;;;Core;;2017;3-4Y,CARSTSHT00000148,4-5Y,CARSTSHT00000149,5-6Y,CARSTSHT00000150;899.00;;;;;;;;zerotype;;Spring;;No
1926635;DCR0017_13-14Y-Multi-1926635;Cars;Draft;Tshirts;Cars;Kids-Boys;Boys;;;;Core;;2017;10-11Y,CARSTSHT00000145,11-12Y,CARSTSHT00000146,13-14Y,CARSTSHT00000147;999.00;;;;;;;;zerotype;;Spring;;No
1926634;DCR0015_8-9Y-Blue-1926634;Cars;Draft;Tshirts;Cars;Kids-Boys;Boys;;;;Core;;2017;7-8Y,CARSTSHT00000143,8-9Y,CARSTSHT00000144;999.00;;;;;;;;zerotype;;Spring;;No
1926633;DCR0015_5-6Y-Blue-1926633;Cars;Draft;Tshirts;Cars;Kids-Boys;Boys;;;;Core;;2017;3-4Y,CARSTSHT00000140,4-5Y,CARSTSHT00000141,5-6Y,CARSTSHT00000142;899.00;;;;;;;;zerotype;;Spring;;No
1926632;DCR0015_13-14Y-Blue-1926632;Cars;Draft;Tshirts;Cars;Kids-Boys;Boys;;;;Core;;2017;10-11Y,CARSTSHT00000137,11-12Y,CARSTSHT00000138,13-14Y,CARSTSHT00000139;999.00;;;;;;;;zerotype;;Spring;;No
