Style ID;Vendor Article Number;Vendor Article Name;Active Status;Article type;Brand;Age Group;Gender;Base Colour;Colour1;Colour2;Fashion Type;Usage;Year;Size - SKU code pair;MRP;Style Description;Style Note;Materials and Care Description;Size and Fit Description;Size Chart Path;Product Display Name;Tags;Product Type;Classification Brand;Season;Comments;Upload Images
4427181;LMJN005719-INDIGO-4427181;Locomotive 5 Pocket Ankle Length Denim;Draft;Jeans;LOCOMOTIVE;Adults-Men;Men;Blue;;;Fashion;Casual;2018;30,LCMTJENS00013664,32,LCMTJENS00013665,34,LCMTJENS00013666,36,LCMTJENS00013667;3049.00;;;<p>98% Cotton 2% Elastane Machine Wash</p>;<p>Super Slim</p>;;na;;zerotype;;Summer;;No
4427180;LMJN005718-BLACK-4427180;Locomotive 5 Pocket Ankle Length Denim;Draft;Jeans;LOCOMOTIVE;Adults-Men;Men;Black;;;Fashion;Casual;2018;30,LCMTJENS00013660,32,LCMTJENS00013661,34,LCMTJENS00013662,36,LCMTJENS00013663;3199.00;;;<p>98% Cotton 2% Elastane Machine Wash</p>;<p>Super Slim</p>;;na;;zerotype;;Summer;;No
4427179;LMJN005706-BLUE-4427179;Locomotive Joggers Denim;Draft;Jeans;LOCOMOTIVE;Adults-Men;Men;Blue;;;Fashion;Casual;2018;30,LCMTJENS00013656,32,LCMTJENS00013657,34,LCMTJENS00013658,36,LCMTJENS00013659;3449.00;;;<p>98% Cotton 2% Elastane Machine Wash</p>;<p>SLIM JOGGER FIT</p>;;na;;zerotype;;Summer;;No
4427178;LMJN005666-BLUE-4427178;Locomotive Jogger Denim;Draft;Jeans;LOCOMOTIVE;Adults-Men;Men;Blue;;;Fashion;Casual;2018;30,LCMTJENS00013652,32,LCMTJENS00013653,34,LCMTJENS00013654,36,LCMTJENS00013655;3449.00;;;<p>98% Cotton 2% Elastane Machine Wash</p>;<p>SLIM JOGGER FIT</p>;;na;;zerotype;;Summer;;No
4427177;LMJN005707-INDIGO-4427177;Locomotive Joggers Denim;Draft;Jeans;LOCOMOTIVE;Adults-Men;Men;Blue;;;Fashion;Casual;2018;30,LCMTJENS00013648,32,LCMTJENS00013649,34,LCMTJENS00013650,36,LCMTJENS00013651;3399.00;;;<p>98% Cotton 2% Elastane Machine Wash</p>;<p>SLIM JOGGER FIT</p>;;na;;zerotype;;Summer;;No
4427176;LMJN005692-LIGHT BLUE-4427176;Locomotive 5 Pocket Ankle Length Denim;Draft;Jeans;LOCOMOTIVE;Adults-Men;Men;Blue;;;Fashion;Casual;2018;30,LCMTJENS00013644,32,LCMTJENS00013645,34,LCMTJENS00013646,36,LCMTJENS00013647;2999.00;;;<p>98% Cotton 2% Elastane Machine Wash</p>;<p>Super Slim</p>;;na;;zerotype;;Summer;;No
4427175;LMJN005721-INDIGO-4427175;Locomotive 5 Pocket Ankle Length Denim;Draft;Jeans;LOCOMOTIVE;Adults-Men;Men;Blue;;;Fashion;Casual;2018;30,LCMTJENS00013640,32,LCMTJENS00013641,34,LCMTJENS00013642,36,LCMTJENS00013643;2949.00;;;<p>98% Cotton 2% Elastane Machine Wash</p>;<p>Super Slim</p>;;na;;zerotype;;Summer;;No
4427174;LMJN005720-BLUE-4427174;Locomotive 5 Pocket Ankle Length Denim;Draft;Jeans;LOCOMOTIVE;Adults-Men;Men;Blue;;;Fashion;Casual;2018;30,LCMTJENS00013636,32,LCMTJENS00013637,34,LCMTJENS00013638,36,LCMTJENS00013639;2999.00;;;<p>98% Cotton 2% Elastane Machine Wash</p>;<p>Super Slim</p>;;na;;zerotype;;Summer;;No
4427173;LMJN005739-BLACK-4427173;Locomotive Joggers Denim;Draft;Jeans;LOCOMOTIVE;Adults-Men;Men;Black;;;Fashion;Casual;2018;30,LCMTJENS00013632,32,LCMTJENS00013633,34,LCMTJENS00013634,36,LCMTJENS00013635;3199.00;;;<p>98% Cotton 2% Elastane Machine Wash</p>;<p>SLIM JOGGER FIT</p>;;na;;zerotype;;Summer;;No
4427172;LMJN005451-GREY-4427172;Locomotive  5 Pkt Ankle Length Denim;Draft;Jeans;LOCOMOTIVE;Adults-Men;Men;Grey;;;Fashion;Casual;2018;30,LCMTJENS00013628,32,LCMTJENS00013629,34,LCMTJENS00013630,36,LCMTJENS00013631;2349.00;;;<p>98% Cotton 2% Elastane Machine Wash</p>;<p>SLIM DRAGON</p>;;na;;zerotype;;Summer;;No
4427171;LMJN005620-INDIGO-4427171;Locomotive Ankle Length Denim;Draft;Jeans;LOCOMOTIVE;Adults-Men;Men;Blue;;;Fashion;Casual;2018;30,LCMTJENS00013624,32,LCMTJENS00013625,34,LCMTJENS00013626,36,LCMTJENS00013627;3149.00;;;<p>98% Cotton 2% Elastane Machine Wash</p>;<p>SLIM TAPERED</p>;;na;;zerotype;;Summer;;No
4427170;LMJN005664-INDIGO-4427170;Locomotive Jogger Denim;Draft;Jeans;LOCOMOTIVE;Adults-Men;Men;Blue;;;Fashion;Casual;2018;30,LCMTJENS00013620,32,LCMTJENS00013621,34,LCMTJENS00013622,36,LCMTJENS00013623;3549.00;;;<p>98% Cotton 2% Elastane Machine Wash</p>;<p>SLIM JOGGER FIT</p>;;na;;zerotype;;Summer;;No
4427169;LMJN005734-BLUE-4427169;Locomotive Ankle Length Denim;Draft;Jeans;LOCOMOTIVE;Adults-Men;Men;Blue;;;Fashion;Casual;2018;30,LCMTJENS00013616,32,LCMTJENS00013617,34,LCMTJENS00013618,36,LCMTJENS00013619;2999.00;;;<p>98% Cotton 2% Elastane Machine Wash</p>;<p>CROP DENIM FIT</p>;;na;;zerotype;;Summer;;No
4427168;LMJN005691-BLUE-4427168;Locomotive 5 Pocket Ankle Length Denim;Draft;Jeans;LOCOMOTIVE;Adults-Men;Men;Blue;;;Fashion;Casual;2018;30,LCMTJENS00013612,32,LCMTJENS00013613,34,LCMTJENS00013614,36,LCMTJENS00013615;3349.00;;;<p>98% Cotton 2% Elastane Machine Wash</p>;<p>Super Slim</p>;;na;;zerotype;;Summer;;No
4427167;LMJN005689-INDIGO-4427167;Locomotive Ankle Length Denim;Draft;Jeans;LOCOMOTIVE;Adults-Men;Men;Blue;;;Fashion;Casual;2018;30,LCMTJENS00013608,32,LCMTJENS00013609,34,LCMTJENS00013610,36,LCMTJENS00013611;3299.00;;;<p>98% Cotton 2% Elastane Machine Wash</p>;<p>SLIM TAPERED</p>;;na;;zerotype;;Summer;;No
4427166;LMJN005747-LIGHT BLUE-4427166;Locomotive 5 Pocket Ankle Length  Denim;Draft;Jeans;LOCOMOTIVE;Adults-Men;Men;Blue;;;Fashion;Casual;2018;30,LCMTJENS00013604,32,LCMTJENS00013605,34,LCMTJENS00013606,36,LCMTJENS00013607;3399.00;;;<p>98% Cotton 2% Elastane Machine Wash</p>;<p>SKINNY CROP FIT</p>;;na;;zerotype;;Summer;;No
4427165;LMJN005704-GREY-4427165;Locomotive Joggers Denim;Draft;Jeans;LOCOMOTIVE;Adults-Men;Men;Grey;;;Fashion;Casual;2018;30,LCMTJENS00013600,32,LCMTJENS00013601,34,LCMTJENS00013602,36,LCMTJENS00013603;3499.00;;;<p>98% Cotton 2% Elastane Machine Wash</p>;<p>SLIM JOGGER FIT</p>;;na;;zerotype;;Summer;;No
4427164;LMJN005701-LIGHT BLUE-4427164;Locomotive 5 Pocket Ankle Length Denim;Draft;Jeans;LOCOMOTIVE;Adults-Men;Men;Blue;;;Fashion;Casual;2018;30,LCMTJENS00013596,32,LCMTJENS00013597,34,LCMTJENS00013598,36,LCMTJENS00013599;2949.00;;;<p>98% Cotton 2% Elastane Machine Wash</p>;<p>SLIM DRAGON</p>;;na;;zerotype;;Summer;;No
4427163;LMJN005722-LIGHT BLUE-4427163;Locomotive 5 Pocket Ankle Length Denim;Draft;Jeans;LOCOMOTIVE;Adults-Men;Men;Blue;;;Fashion;Casual;2018;30,LCMTJENS00013592,32,LCMTJENS00013593,34,LCMTJENS00013594,36,LCMTJENS00013595;3299.00;;;<p>98% Cotton 2% Elastane Machine Wash</p>;<p>Super Slim</p>;;na;;zerotype;;Summer;;No
4427162;LMJN005705-LIGHT BLUE-4427162;Locomotive Joggers Denim;Draft;Jeans;LOCOMOTIVE;Adults-Men;Men;Blue;;;Fashion;Casual;2018;30,LCMTJENS00013588,32,LCMTJENS00013589,34,LCMTJENS00013590,36,LCMTJENS00013591;3449.00;;;<p>98% Cotton 2% Elastane Machine Wash</p>;<p>SLIM JOGGER FIT</p>;;na;;zerotype;;Summer;;No
4427161;LMSH012254-LIGHT GREY-4427161;Locomotive Casual Denim Shirt;Draft;Shirts;LOCOMOTIVE;Adults-Men;Men;Blue;;;Fashion;Casual;2018;S,LCMTSHRT00122592,M,LCMTSHRT00122593,L,LCMTSHRT00122594,XL,LCMTSHRT00122595;1849.00;;;<p>Cotton Machine Wash</p>;<p>Slim Fit</p>;;na;;zerotype;;Summer;;No
4427160;LMSH012247-Light Indigo-4427160;Locomotive Casual Denim Shirt;Draft;Shirts;LOCOMOTIVE;Adults-Men;Men;Blue;;;Fashion;Casual;2018;S,LCMTSHRT00122588,M,LCMTSHRT00122589,L,LCMTSHRT00122590,XL,LCMTSHRT00122591;1549.00;;;<p>Cotton Machine Wash</p>;<p>Slim Fit</p>;;na;;zerotype;;Summer;;No
4427159;LMSH012211-BEIGE-4427159;Locomotive Yarn Dyed Casual Shirt;Draft;Shirts;LOCOMOTIVE;Adults-Men;Men;Beige;;;Fashion;Casual;2018;S,LCMTSHRT00122584,M,LCMTSHRT00122585,L,LCMTSHRT00122586,XL,LCMTSHRT00122587;1849.00;;;<p>Cotton Machine Wash</p>;<p>Slim Fit</p>;;na;;zerotype;;Summer;;No
