Style ID;Vendor Article Number;Vendor Article Name;Active Status;Article type;Brand;Age Group;Gender;Base Colour;Colour1;Colour2;Fashion Type;Usage;Year;Size - SKU code pair;MRP;Style Description;Style Note;Materials and Care Description;Size and Fit Description;Size Chart Path;Product Display Name;Tags;Product Type;Classification Brand;Season;Comments;Upload Images
1883633;VL1204-Pink-1883633;Story @ Home 250 TC 100% Cotton Pink 1 Double;Draft;Bedsheets;Story@home;Adults-Unisex;Unisex;;;;Core;Home;2017;Double Bed Sheet,SHMEBDST00000021;999.00;;;;;;;;zerotype;;Summer;;No
1883632;VL1203-Cream-1883632;Story @ Home 250 TC 100% Cotton Cream 1 Doubl;Draft;Bedsheets;Story@home;Adults-Unisex;Unisex;;;;Core;Home;2017;Double Bed Sheet,SHMEBDST00000020;999.00;;;;;;;;zerotype;;Summer;;No
1883631;VL1201-Red-1883631;Story @ Home 250 TC 100% Cotton Red 1 Double;Draft;Bedsheets;Story@home;Adults-Unisex;Unisex;;;;Core;Home;2017;Double Bed Sheet,SHMEBDST00000019;999.00;;;;;;;;zerotype;;Summer;;No
1883630;TV1218-Multi-1883630;Story @ Home 240 TC 100% Cotton Multicolor 1;Draft;Bedsheets;Story@home;Adults-Unisex;Unisex;;;;Core;Home;2017;King Size Bed Sheet,SHMEBDST00000018;1799.00;;;;;;;;zerotype;;Summer;;No
1883628;TV1202-Multi-1883628;Story @ Home 240 TC 100% Cotton Black and Whi;Draft;Bedsheets;Story@home;Adults-Unisex;Unisex;;;;Core;Home;2017;King Size Bed Sheet,SHMEBDST00000017;1799.00;;;;;;;;zerotype;;Summer;;No
1883627;MT1258-Blue-1883627;Story @ Home 186 TC 100% Cotton Sky Blue 1 Do;Draft;Bedsheets;Story@home;Adults-Unisex;Unisex;;;;Core;Home;2017;Double Bed Sheet,SHMEBDST00000016;979.00;;;;;;;;zerotype;;Summer;;No
1883626;MT1257-Pink-1883626;Story @ Home 186 TC 100% Cotton Pink 1 Double;Draft;Bedsheets;Story@home;Adults-Unisex;Unisex;;;;Core;Home;2017;Double Bed Sheet,SHMEBDST00000015;979.00;;;;;;;;zerotype;;Summer;;No
1883625;MT1256-Green-1883625;Story @ Home 186 TC 100% Cotton Olive Green 1;Draft;Bedsheets;Story@home;Adults-Unisex;Unisex;;;;Core;Home;2017;Double Bed Sheet,SHMEBDST00000014;979.00;;;;;;;;zerotype;;Summer;;No
1883624;MT1254-Orange-1883624;Story @ Home 186 TC 100% Cotton Orange 1 Doub;Draft;Bedsheets;Story@home;Adults-Unisex;Unisex;;;;Core;Home;2017;Double Bed Sheet,SHMEBDST00000013;979.00;;;;;;;;zerotype;;Summer;;No
1883622;MT1253-Peach-1883622;Story @ Home 186 TC 100% Cotton Peach 1 Doubl;Draft;Bedsheets;Story@home;Adults-Unisex;Unisex;;;;Core;Home;2017;Double Bed Sheet,SHMEBDST00000012;979.00;;;;;;;;zerotype;;Summer;;No
1883621;MT1245-Multi-1883621;Story @ Home 186 TC 100% Cotton Multicolor 1;Draft;Bedsheets;Story@home;Adults-Unisex;Unisex;;;;Core;Home;2017;Double Bed Sheet,SHMEBDST00000011;979.00;;;;;;;;zerotype;;Summer;;No
1883620;MT1233-White-1883620;Story @ Home 186 TC 100% Cotton White 1 Doubl;Draft;Bedsheets;Story@home;Adults-Unisex;Unisex;;;;Core;Home;2017;Double Bed Sheet,SHMEBDST00000010;979.00;;;;;;;;zerotype;;Summer;;No
1883619;MT1221-White-1883619;Story @ Home 186 TC 100% Cotton White 1 Doubl;Draft;Bedsheets;Story@home;Adults-Unisex;Unisex;;;;Core;Home;2017;Double Bed Sheet,SHMEBDST00000009;979.00;;;;;;;;zerotype;;Summer;;No
1883618;MT1203-Black-1883618;Story @ Home 186 TC 100% Cotton Black 1 Doubl;Draft;Bedsheets;Story@home;Adults-Unisex;Unisex;;;;Core;Home;2017;Double Bed Sheet,SHMEBDST00000008;979.00;;;;;;;;zerotype;;Summer;;No
1883617;MT1201-White-1883617;Story @ Home 186 TC 100% Cotton White 1 Doubl;Draft;Bedsheets;Story@home;Adults-Unisex;Unisex;;;;Core;Home;2017;Double Bed Sheet,SHMEBDST00000007;979.00;;;;;;;;zerotype;;Summer;;No
1883615;FE1130-White-1883615;Story @ Home 240 TC 100% Cotton Pink 1 Double;Draft;Bedsheets;Story@home;Adults-Unisex;Unisex;;;;Core;Home;2017;Queen Size Bed Sheet,SHMEBDST00000006;999.00;;;;;;;;zerotype;;Summer;;No
1883614;FE1129-White-1883614;Story @ Home 240 TC 100% Cotton Pink 1 Double;Draft;Bedsheets;Story@home;Adults-Unisex;Unisex;;;;Core;Home;2017;Queen Size Bed Sheet,SHMEBDST00000005;999.00;;;;;;;;zerotype;;Summer;;No
1883613;FE1128-White-1883613;Story @ Home 240 TC 100% Cotton Black 1 Doubl;Draft;Bedsheets;Story@home;Adults-Unisex;Unisex;;;;Core;Home;2017;Queen Size Bed Sheet,SHMEBDST00000004;999.00;;;;;;;;zerotype;;Summer;;No
1883612;FE1118-Multi-1883612;Story @ Home 240 TC 100% Cotton Multicolor 1;Draft;Bedsheets;Story@home;Adults-Unisex;Unisex;;;;Core;Home;2017;Queen Size Bed Sheet,SHMEBDST00000003;999.00;;;;;;;;zerotype;;Summer;;No
1883611;FE1115-Blue-1883611;Story @ Home 240 TC 100% Cotton Blue 1 Double;Draft;Bedsheets;Story@home;Adults-Unisex;Unisex;;;;Core;Home;2017;Queen Size Bed Sheet,SHMEBDST00000002;999.00;;;;;;;;zerotype;;Summer;;No
1883610;FE1104-Black-1883610;Story @ Home 240 TC 100% Cotton Black 1 Doubl;Draft;Bedsheets;Story@home;Adults-Unisex;Unisex;;;;Core;Home;2017;Queen Size Bed Sheet,SHMEBDST00000001;999.00;;;;;;;;zerotype;;Summer;;No
