Style ID;Vendor Article Number;Vendor Article Name;Active Status;Article type;Brand;Age Group;Gender;Base Colour;Colour1;Colour2;Fashion Type;Usage;Year;Size - SKU code pair;MRP;Style Description;Style Note;Materials and Care Description;Size and Fit Description;Size Chart Path;Product Display Name;Tags;Product Type;Classification Brand;Season;Comments;Upload Images
2163717;BBAPLJP35027_54-Grey-2163717;Green Coloured Cotton Trouser;Draft;Trousers;John Pride;Adults-Men;Men;Grey;;;Fashion;;2017;42,JNPDTRSR00000549,44,JNPDTRSR00000550,46,JNPDTRSR00000551,48,JNPDTRSR00000552,50,JNPDTRSR00000553,52,JNPDTRSR00000554,54,JNPDTRSR00000555;1999.00;<p>John Pride green cotton trouser with belt loops on waistband</p>;;<p>Machine Wash, Cotton</p>;<p>The model is (Height 6'2"," Waist 42") is wearing size 42 )</p>;;;;zerotype;;Winter;;No
2163694;BBAPLJP35020_54-Grey-2163694;Light Grey Coloured Denim Jogger;Draft;Jeans;John Pride;Adults-Men;Men;Grey;;;Fashion;;2017;42,JNPDJENS00000894,44,JNPDJENS00000895,46,JNPDJENS00000896,48,JNPDJENS00000897,50,JNPDJENS00000898,52,JNPDJENS00000899,54,JNPDJENS00000900;2499.00;<p>John Pride light grey denim jogger with heavy enzyme wash and elastic waistband with loops</p>;;<p>Machine Wash, Cotton</p>;<p>The model is (Height 6'2"," Waist 42") is wearing size 42 )</p>;;;;zerotype;;Winter;;No
2163691;VDSF517E03147-Maroon-2163691;Shirt;Draft;Shirts;V Dot;Adults-Men;Men;Maroon;;;Fashion;;2017;44,VDOTSHRT00004178,46,VDOTSHRT00004179,48,VDOTSHRT00004180,50,VDOTSHRT00004181;1999.00;;;<p>100% Cotton</p>;;;;;zerotype;;Fall;;No
2163685;VDSF517E03147-Maroon-2163685;Shirt;Draft;Shirts;V Dot;Adults-Men;Men;Maroon;;;Fashion;;2017;38,VDOTSHRT00004174,40,VDOTSHRT00004175,42,VDOTSHRT00004176,39,VDOTSHRT00004177;1899.00;;;<p>100% Cotton</p>;;;;;zerotype;;Fall;;No
2163676;VDSF517E03123-Beige-2163676;Shirt;Draft;Shirts;V Dot;Adults-Men;Men;Beige;;;Fashion;;2017;44,VDOTSHRT00004173;2599.00;;;<p>100% Cotton</p>;;;;;zerotype;;Fall;;No
2163675;VDSF517E03123-Beige-2163675;Shirt;Draft;Shirts;V Dot;Adults-Men;Men;Beige;;;Fashion;;2017;38,VDOTSHRT00004169,40,VDOTSHRT00004170,42,VDOTSHRT00004171,39,VDOTSHRT00004172;2499.00;;;<p>100% Cotton</p>;;;;;zerotype;;Fall;;No
2163673;VDSF517E03119-Pink-2163673;Shirt;Draft;Shirts;V Dot;Adults-Men;Men;Pink;;;Fashion;;2017;44,VDOTSHRT00004167,46,VDOTSHRT00004168;2199.00;;;<p>100% Cotton</p>;;;;;zerotype;;Fall;;No
2163672;VDSF517E03119-Pink-2163672;Shirt;Draft;Shirts;V Dot;Adults-Men;Men;Pink;;;Fashion;;2017;38,VDOTSHRT00004163,40,VDOTSHRT00004164,42,VDOTSHRT00004165,39,VDOTSHRT00004166;2099.00;;;<p>100% Cotton</p>;;;;;zerotype;;Fall;;No
2163671;VDSF517E01926-Red-2163671;Shirt;Draft;Shirts;V Dot;Adults-Men;Men;Red;;;Fashion;;2017;44,VDOTSHRT00004162;1999.00;;;<p>100% Cotton</p>;;;;;zerotype;;Fall;;No
2163670;VDSF517E01926-Red-2163670;Shirt;Draft;Shirts;V Dot;Adults-Men;Men;Red;;;Fashion;;2017;38,VDOTSHRT00004158,40,VDOTSHRT00004159,42,VDOTSHRT00004160,39,VDOTSHRT00004161;1899.00;;;<p>100% Cotton</p>;;;;;zerotype;;Fall;;No
2163669;VDBZ517E06492-Black-2163669;Blazer;Draft;Blazers;V Dot;Adults-Men;Men;Black;;;Fashion;;2017;38,VDOTBLZR00000587,40,VDOTBLZR00000588,42,VDOTBLZR00000589,44,VDOTBLZR00000590;5999.00;;;<p>76% Polyester and 24% Viscose</p>;;;;;zerotype;;Fall;;No
2163668;VDBZ517E05959-Navy Blue-2163668;Blazer;Draft;Blazers;V Dot;Adults-Men;Men;Navy Blue;;;Fashion;;2017;36,VDOTBLZR00000580,38,VDOTBLZR00000581,40,VDOTBLZR00000582,42,VDOTBLZR00000583,44,VDOTBLZR00000584,46,VDOTBLZR00000585,48,VDOTBLZR00000586;7999.00;;;<p>100% Polyester</p>;;;;;zerotype;;Fall;;No
2163667;VDBZ517E05529-Black-2163667;Blazer;Draft;Blazers;V Dot;Adults-Men;Men;Black;;;Fashion;;2017;38,VDOTBLZR00000576,40,VDOTBLZR00000577,42,VDOTBLZR00000578,44,VDOTBLZR00000579;8499.00;;;<p>70% Terylene and 30% Rayon</p>;;;;;zerotype;;Fall;;No
2163665;VDBZ517E05525-Navy Blue-2163665;Blazer;Draft;Blazers;V Dot;Adults-Men;Men;Navy Blue;;;Fashion;;2017;36,VDOTBLZR00000570,38,VDOTBLZR00000571,40,VDOTBLZR00000572,42,VDOTBLZR00000573,44,VDOTBLZR00000574,46,VDOTBLZR00000575;6499.00;;;<p>73% Polyester and 27% Viscose</p>;;;;;zerotype;;Fall;;No
2163664;VDBZ517E01977-Mauve-2163664;Blazer;Draft;Blazers;V Dot;Adults-Men;Men;Mauve;;;Fashion;;2017;36,VDOTBLZR00000564,38,VDOTBLZR00000565,40,VDOTBLZR00000566,42,VDOTBLZR00000567,44,VDOTBLZR00000568,46,VDOTBLZR00000569;6499.00;;;<p>65% Polyester and 35% Viscose</p>;;;;;zerotype;;Fall;;No
2163655;VDBZ517E01974-Grey-2163655;Blazer;Draft;Blazers;V Dot;Adults-Men;Men;Grey;;;Fashion;;2017;38,VDOTBLZR00000560,40,VDOTBLZR00000561,42,VDOTBLZR00000562,44,VDOTBLZR00000563;6249.00;;;<p>70% Terylene and 30% Rayon</p>;;;;;zerotype;;Fall;;No
2163635;VDBZ517E01967-Grey-2163635;Blazer;Draft;Blazers;V Dot;Adults-Men;Men;Grey;;;Fashion;;2017;36,VDOTBLZR00000555,38,VDOTBLZR00000556,40,VDOTBLZR00000557,42,VDOTBLZR00000558,44,VDOTBLZR00000559;8499.00;;;<p>69% Terylene, 29% Rayon and 2% Spandex</p>;;;;;zerotype;;Fall;;No
2163613;VDBZ517E01961-Navy Blue-2163613;Blazer;Draft;Blazers;V Dot;Adults-Men;Men;Navy Blue;;;Fashion;;2017;36,VDOTBLZR00000549,38,VDOTBLZR00000550,40,VDOTBLZR00000551,42,VDOTBLZR00000552,44,VDOTBLZR00000553,46,VDOTBLZR00000554;6999.00;;;<p>64% Polyester, 34% Viscose and 2% Lycra</p>;;;;;zerotype;;Fall;;No
2163612;VDBZ517E01958-Black-2163612;Blazer;Draft;Blazers;V Dot;Adults-Men;Men;Black;;;Fashion;;2017;38,VDOTBLZR00000545,40,VDOTBLZR00000546,42,VDOTBLZR00000547,44,VDOTBLZR00000548;8499.00;;;<p>70% Terylene and 30% Rayon</p>;;;;;zerotype;;Fall;;No
2163610;VDBZ517D02660-Beige-2163610;Blazer;Draft;Blazers;V Dot;Adults-Men;Men;Beige;;;Fashion;;2017;36,VDOTBLZR00000539,38,VDOTBLZR00000540,40,VDOTBLZR00000541,42,VDOTBLZR00000542,44,VDOTBLZR00000543,46,VDOTBLZR00000544;4999.00;;;<p>98% Cotton and 2% Spandex</p>;;;;;zerotype;;Fall;;No
2163609;VDBZ517D02657-Grey-2163609;Blazer;Draft;Blazers;V Dot;Adults-Men;Men;Grey;;;Fashion;;2017;38,VDOTBLZR00000535,40,VDOTBLZR00000536,42,VDOTBLZR00000537,44,VDOTBLZR00000538;6249.00;;;<p>98% Cotton and 2% Spandex</p>;;;;;zerotype;;Fall;;No
2163608;VDBZ517D02642-Grey-2163608;Blazer;Draft;Blazers;V Dot;Adults-Men;Men;Grey;;;Fashion;;2017;40,VDOTBLZR00000532,42,VDOTBLZR00000533,44,VDOTBLZR00000534;6249.00;;;<p>98% Cotton and 2% Spandex</p>;;;;;zerotype;;Fall;;No
2163514;DSS9178B-Multi-2163514;Cottinfab Women's Printed Skirt;Draft;Skirts;Cottinfab;Adults-Women;Women;Multi;;;Fashion;Casual;2017;S,COTFSKRT00000141,M,COTFSKRT00000142,L,COTFSKRT00000143,XL,COTFSKRT00000144,XXL,COTFSKRT00000145;1999.00;<p>Long asymmetric printed skirt with waistband and tie knot at the side</p>;;<p>Wash with Similar Colors, Use Mild Detergent</p>;;;Cottinfab Women's Printed Skirt;;zerotype;;Fall;;No
2072535;VDSF517E03200-Red-2072535;Shirts;QC Reject;Shirts;V Dot;Adults-Men;Men;Red;Black;;Fashion;Formal;2017;38,VDOTSHRT00003813,39,VDOTSHRT00003814,40,VDOTSHRT00003815,42,VDOTSHRT00003816,44,VDOTSHRT00003817,46,VDOTSHRT00003818;1899.00;Red and black self-design formal shirt, has a cutaway collar, button placket, long sleeves, curved hem;Add this trendy shirt from V Dot to your formal staples.  When you have a formal event to attend, match this red piece with cuffed chinos and your favourite pair of Derby shoes.;Cotton <br> Machine-wash;Slim fit<br> The model (height 6') is wearing a size M;;V Dot Men Red & Black Slim Fit Self Design Formal Shirt;V Dot,JIT;zerotype;;Fall;COLOR MIS-MATCH;No
