Style ID;Vendor Article Number;Vendor Article Name;Active Status;Article type;Brand;Age Group;Gender;Base Colour;Colour1;Colour2;Fashion Type;Usage;Year;Size - SKU code pair;MRP;Style Description;Style Note;Materials and Care Description;Size and Fit Description;Size Chart Path;Product Display Name;Tags;Product Type;Classification Brand;Season;Comments;Upload Images
1973855;5723521365008-Purple-1973855;ES-German Trip Foliage;Draft;Tshirts;FRITZBERG;Adults-Men;Men;Purple;;;Fashion;;2017;S,FRZGTSHT00000081,M,FRZGTSHT00000082,L,FRZGTSHT00000083,XL,FRZGTSHT00000084,XXL,FRZGTSHT00000085,3XL,FRZGTSHT00000086,4XL,FRZGTSHT00000087,5XL,FRZGTSHT00000088;799.00;;;;;;;;zerotype;;Summer;;No
1973854;5623982220908-White-1973854;CW-Shield Noble White;Draft;Tshirts;FRITZBERG;Adults-Men;Men;White;;;Fashion;;2017;S,FRZGTSHT00000073,M,FRZGTSHT00000074,L,FRZGTSHT00000075,XL,FRZGTSHT00000076,XXL,FRZGTSHT00000077,3XL,FRZGTSHT00000078,4XL,FRZGTSHT00000079,5XL,FRZGTSHT00000080;1399.00;;;;;;;;zerotype;;Summer;;No
1973853;5623942000908-Rust-1973853;FBPP-Ted Rust;Draft;Tshirts;FRITZBERG;Adults-Men;Men;Rust;;;Fashion;;2017;S,FRZGTSHT00000065,M,FRZGTSHT00000066,L,FRZGTSHT00000067,XL,FRZGTSHT00000068,XXL,FRZGTSHT00000069,3XL,FRZGTSHT00000070,4XL,FRZGTSHT00000071,5XL,FRZGTSHT00000072;1299.00;;;;;;;;zerotype;;Summer;;No
1973852;5623941943908-Black-1973852;FBAP-Jaquar Ebony black;Draft;Tshirts;FRITZBERG;Adults-Men;Men;Black;;;Fashion;;2017;S,FRZGTSHT00000057,M,FRZGTSHT00000058,L,FRZGTSHT00000059,XL,FRZGTSHT00000060,XXL,FRZGTSHT00000061,3XL,FRZGTSHT00000062,4XL,FRZGTSHT00000063,5XL,FRZGTSHT00000064;1299.00;;;;;;;;zerotype;;Summer;;No
1973851;5623841729908-Black-1973851;ES-World Ebony Black;Draft;Tshirts;FRITZBERG;Adults-Men;Men;Black;;;Fashion;;2017;S,FRZGTSHT00000049,M,FRZGTSHT00000050,L,FRZGTSHT00000051,XL,FRZGTSHT00000052,XXL,FRZGTSHT00000053,3XL,FRZGTSHT00000054,4XL,FRZGTSHT00000055,5XL,FRZGTSHT00000056;1399.00;;;;;;;;zerotype;;Summer;;No
1973850;5623841718208-White-1973850;F&G Urban Noble white;Draft;Tshirts;FRITZBERG;Adults-Men;Men;White;;;Fashion;;2017;S,FRZGTSHT00000041,M,FRZGTSHT00000042,L,FRZGTSHT00000043,XL,FRZGTSHT00000044,XXL,FRZGTSHT00000045,3XL,FRZGTSHT00000046,4XL,FRZGTSHT00000047,5XL,FRZGTSHT00000048;1399.00;;;;;;;;zerotype;;Summer;;No
1973849;5623311110408-Light Blue-1973849;FBLN-Polo Aqua;Draft;Tshirts;FRITZBERG;Adults-Men;Men;Blue;;;Fashion;;2017;S,FRZGTSHT00000033,M,FRZGTSHT00000034,L,FRZGTSHT00000035,XL,FRZGTSHT00000036,XXL,FRZGTSHT00000037,3XL,FRZGTSHT00000038,4XL,FRZGTSHT00000039,5XL,FRZGTSHT00000040;899.00;;;;;;;;zerotype;;Summer;;No
