Style ID;Vendor Article Number;Vendor Article Name;Active Status;Article type;Brand;Age Group;Gender;Base Colour;Colour1;Colour2;Fashion Type;Usage;Year;Size - SKU code pair;MRP;Style Description;Style Note;Materials and Care Description;Size and Fit Description;Size Chart Path;Product Display Name;Tags;Product Type;Classification Brand;Season;Comments;Upload Images
2372460;UTDR5259-PINK-2372460;STARPRINTDRESS-HALF SLEEVES-PINK;Draft;Dresses;U.S. Polo Assn. Kids;Kids-Girls;Girls;;;;Fashion;;2017;EL,USPKDRSS00000506,L,USPKDRSS00000507,M,USPKDRSS00000508;2599.00;;;;;;;;zerotype;;Summer;;No
2372458;UTDR5252-LIGHT PINK-2372458;S/LPRINTEDDRESS-SLEEVELESS-LIGHT PINK;Draft;Dresses;U.S. Polo Assn. Kids;Kids-Girls;Girls;;;;Fashion;;2017;EL,USPKDRSS00000500,L,USPKDRSS00000501,M,USPKDRSS00000502;2099.00;;;;;;;;zerotype;;Summer;;No
2372455;UTDR5240-PINK-2372455;PRINTEDWOVENDRE-SLEEVELESS-PINK;Draft;Dresses;U.S. Polo Assn. Kids;Kids-Girls;Girls;;;;Fashion;;2017;EL,USPKDRSS00000491,L,USPKDRSS00000492,M,USPKDRSS00000493;1999.00;;;;;;;;zerotype;;Summer;;No
2372435;UTST5052-PINK-2372435;AOPKNITSHORTS--PINK;Draft;Shorts;U.S. Polo Assn. Kids;Kids-Girls;Girls;;;;Fashion;;2017;EL,USPKSHOR00000999,L,USPKSHOR00001000,M,USPKSHOR00001001;899.00;;;;;;;;zerotype;;Summer;;No
2372169;2581603405-BLACK-2372169;Pierro Formal Slip on;Draft;Formal Shoes;Bugatti;Adults-Men;Men;Black;;;Fashion;;2017;UK6,BGTIFOSH00000090,UK7,BGTIFOSH00000091,UK8,BGTIFOSH00000092,UK10,BGTIFOSH00000093;3999.00;;;<p>Leather</p>;;;;;zerotype;;Winter;;No
2372168;2581604131-COGNAC-2372168;Roma Open Slipper;Draft;Sandals;Bugatti;Adults-Men;Men;Brown;;;Fashion;;2017;UK6,BGTISNDL00000088,UK7,BGTISNDL00000089,UK8,BGTISNDL00000090,UK9,BGTISNDL00000091,UK11,BGTISNDL00000092,UK10,BGTISNDL00000093;2999.00;;;<p>Leather</p>;;;;;zerotype;;Winter;;No
2371254;2521804819-Tan-2371254;Thomas;Draft;Formal Shoes;Arrow;Adults-Men;Men;Tan;;;Fashion;;2018;UK6,ARRWFOSH00001805,UK7,ARRWFOSH00001806,UK8,ARRWFOSH00001807,UK9,ARRWFOSH00001808,UK10,ARRWFOSH00001809,UK11,ARRWFOSH00001810;4599.00;;;<p>Leather</p>;;;;;zerotype;;Spring;;No
2371253;2521804807-Grey-2371253;Thomas;Draft;Formal Shoes;Arrow;Adults-Men;Men;Grey;;;Fashion;;2018;UK6,ARRWFOSH00001799,UK7,ARRWFOSH00001800,UK8,ARRWFOSH00001801,UK9,ARRWFOSH00001802,UK10,ARRWFOSH00001803,UK11,ARRWFOSH00001804;4599.00;;;<p>Leather</p>;;;;;zerotype;;Spring;;No
2371252;2521804705-Black-2371252;William;Draft;Formal Shoes;Arrow;Adults-Men;Men;Black;;;Fashion;;2018;UK6,ARRWFOSH00001793,UK7,ARRWFOSH00001794,UK8,ARRWFOSH00001795,UK9,ARRWFOSH00001796,UK10,ARRWFOSH00001797,UK11,ARRWFOSH00001798;4399.00;;;<p>Leather</p>;;;;;zerotype;;Spring;;No
2371250;2521804105-Black-2371250;Mill;Draft;Formal Shoes;Arrow;Adults-Men;Men;Black;;;Fashion;;2018;UK6,ARRWFOSH00001781,UK7,ARRWFOSH00001782,UK8,ARRWFOSH00001783,UK9,ARRWFOSH00001784,UK10,ARRWFOSH00001785,UK11,ARRWFOSH00001786;2999.00;;;<p>Leather</p>;;;;;zerotype;;Spring;;No
2371247;2521801419-Tan-2371247;Des;Draft;Formal Shoes;Arrow;Adults-Men;Men;Tan;;;Fashion;;2018;UK6,ARRWFOSH00001763,UK7,ARRWFOSH00001764,UK8,ARRWFOSH00001765,UK9,ARRWFOSH00001766,UK10,ARRWFOSH00001767,UK11,ARRWFOSH00001768;4399.00;;;<p>Leather</p>;;;;;zerotype;;Spring;;No
2371246;2521801405-Black-2371246;Des;Draft;Formal Shoes;Arrow;Adults-Men;Men;Black;;;Fashion;;2018;UK6,ARRWFOSH00001757,UK7,ARRWFOSH00001758,UK8,ARRWFOSH00001759,UK9,ARRWFOSH00001760,UK10,ARRWFOSH00001761,UK11,ARRWFOSH00001762;4399.00;;;<p>Leather</p>;;;;;zerotype;;Spring;;No
2371245;2521800919-Tan-2371245;Dayton;Draft;Formal Shoes;Arrow;Adults-Men;Men;Tan;;;Fashion;;2018;UK6,ARRWFOSH00001751,UK7,ARRWFOSH00001752,UK8,ARRWFOSH00001753,UK9,ARRWFOSH00001754,UK10,ARRWFOSH00001755,UK11,ARRWFOSH00001756;4399.00;;;<p>Leather</p>;;;;;zerotype;;Spring;;No
2371244;2521800905-Black-2371244;Dayton;Draft;Formal Shoes;Arrow;Adults-Men;Men;Black;;;Fashion;;2018;UK6,ARRWFOSH00001745,UK7,ARRWFOSH00001746,UK8,ARRWFOSH00001747,UK9,ARRWFOSH00001748,UK10,ARRWFOSH00001749,UK11,ARRWFOSH00001750;4399.00;;;<p>Leather</p>;;;;;zerotype;;Spring;;No
2371239;2521805129-Brown-2371239;Reno;Draft;Sandals;Arrow;Adults-Men;Men;Brown;;;Fashion;;2018;UK6,ARRWSNDL00000437,UK7,ARRWSNDL00000438,UK8,ARRWSNDL00000439,UK9,ARRWSNDL00000440,UK10,ARRWSNDL00000441,UK11,ARRWSNDL00000442;1999.00;;;<p>Non Leather</p>;;;;;zerotype;;Spring;;No
2371237;2521805079-Navy-2371237;West;Draft;Sandals;Arrow;Adults-Men;Men;Blue;;;Fashion;;2018;UK6,ARRWSNDL00000425,UK7,ARRWSNDL00000426,UK8,ARRWSNDL00000427,UK9,ARRWSNDL00000428,UK10,ARRWSNDL00000429,UK11,ARRWSNDL00000430;1999.00;;;<p>Non Leather</p>;;;;;zerotype;;Spring;;No
2371236;2521805019-Tan-2371236;West;Draft;Sandals;Arrow;Adults-Men;Men;Tan;;;Fashion;;2018;UK6,ARRWSNDL00000419,UK7,ARRWSNDL00000420,UK8,ARRWSNDL00000421,UK9,ARRWSNDL00000422,UK10,ARRWSNDL00000423,UK11,ARRWSNDL00000424;1999.00;;;<p>Non Leather</p>;;;;;zerotype;;Spring;;No
2371235;2521803219-Tan-2371235;Bothel;Draft;Sandals;Arrow;Adults-Men;Men;Tan;;;Fashion;;2018;UK6,ARRWSNDL00000413,UK7,ARRWSNDL00000414,UK8,ARRWSNDL00000415,UK9,ARRWSNDL00000416,UK10,ARRWSNDL00000417,UK11,ARRWSNDL00000418;1999.00;;;<p>Non Leather</p>;;;;;zerotype;;Spring;;No
2371233;2521802879-Navy-2371233;Lyon;Draft;Casual Shoes;Arrow;Adults-Men;Men;Blue;;;Fashion;;2018;UK6,ARRWCASH00001108,UK7,ARRWCASH00001109,UK8,ARRWCASH00001110,UK9,ARRWCASH00001111,UK10,ARRWCASH00001112,UK11,ARRWCASH00001113;3999.00;;;<p>Leather</p>;;;;;zerotype;;Spring;;No
2371232;2521802823-Dark Brown-2371232;Lyon;Draft;Casual Shoes;Arrow;Adults-Men;Men;Brown;;;Fashion;;2018;UK6,ARRWCASH00001102,UK7,ARRWCASH00001103,UK8,ARRWCASH00001104,UK9,ARRWCASH00001105,UK10,ARRWCASH00001106,UK11,ARRWCASH00001107;3999.00;;;<p>Leather</p>;;;;;zerotype;;Spring;;No
2371231;2521802279-Navy-2371231;Algona;Draft;Casual Shoes;Arrow;Adults-Men;Men;Blue;;;Fashion;;2018;UK6,ARRWCASH00001096,UK7,ARRWCASH00001097,UK8,ARRWCASH00001098,UK9,ARRWCASH00001099,UK10,ARRWCASH00001100,UK11,ARRWCASH00001101;3399.00;;;<p>Leather</p>;;;;;zerotype;;Spring;;No
2370473;ANVSH1076-Navy-2370473;SH FS SLM POI EYD S18ANSHWN007246N1;Draft;Shirts;Arrow New York;Adults-Men;Men;;;;Fashion;Formal;2018;38FS,ARNYSHRT00003063,39FS,ARNYSHRT00003064,40FS,ARNYSHRT00003065,42FS,ARNYSHRT00003066,44FS,ARNYSHRT00003067,46FS,ARNYSHRT00003068;2399.00;;;<p>Normal machine wash with cold water</p>;;;;;zerotype;;Spring;;No
2370472;ANVSH1049-WHITE-2370472;SH FS SLM POI YDC S18ANSHWN007460W1;Draft;Shirts;Arrow New York;Adults-Men;Men;;;;Fashion;Formal;2018;38FS,ARNYSHRT00003057,39FS,ARNYSHRT00003058,40FS,ARNYSHRT00003059,42FS,ARNYSHRT00003060,44FS,ARNYSHRT00003061,46FS,ARNYSHRT00003062;2399.00;;;<p>Normal machine wash with cold water</p>;;;;;zerotype;;Spring;;No
2367234;AH8110-007-BLACK/HYPER ROYAL-WHITE-2367234;JORDAN ULTRA FLY 2 LOW;Draft;Sports Shoes;Nike;Adults-Men;Men;;;;Fashion;;2018;US7,NIKESPSH00124214,US8,NIKESPSH00124215,US9,NIKESPSH00124216,US10,NIKESPSH00124217,US11,NIKESPSH00124218,US12,NIKESPSH00124219;10995.00;<p>Men's Jordan Ultra Fly 2 Low Basketball Shoe,LIGHTWEIGHT LOCKDOWN. RESPONSIVE MOVEMENT,Designed for the versatile player who can handle any position, Men's Jordan Ultra Fly 2 Low Basketball Shoe mixes secure lockdown with lightweight movement. Zoom Air units in the heel and forefoot provide responsive, low-profile cushioning for an explosive first step,Lightweight textile upper for containment and natural movement,Zoom Air units in the forefoot and heel for responsive cushioning,Solid-rubber outsole for multidirectional traction,Webbing lace system features integrated straps that float around the midfoot and extend down to the strobel to provide a dynamic fit and containment,Lightweight injected Phylon (IP) midsole delivers plush cushioning and a stable ride,Midfoot shank provides torsional rigidity,</p>;;<p>Fabric and Textile</p>;;;;all-sports-styles-2017,sportsallstyles-2017,ss-18-sports,ss18-nike-sports;zerotype;;Spring;ss18-nike-sports;No
2367230;897646-006-BLACK/TEAM ORANGE-WHITE-ATMOSPHERE GREY-2367230;LEBRON SOLDIER XI SFG;Draft;Sports Shoes;Nike;Adults-Men;Men;;;;Fashion;;2018;US7,NIKESPSH00124190,US8,NIKESPSH00124191,US9,NIKESPSH00124192,US10,NIKESPSH00124193,US11,NIKESPSH00124194,US12,NIKESPSH00124195;13495.00;<p>Men's LeBron Soldier XI SFG Shoe,LACELESS LOCKDOWN WITH EXPLOSIVE RESPONSE,Men's LeBron Soldier XI SFG Shoe wraps your foot in a breathable mesh and foam upper then locks you in with a 4-strap closure system. Zoom Air units in the heel and forefoot help cushion landings while giving you an explosive step for optimal propulsion,Heel and forefoot Zoom Air units deliver responsive cushioning,4-strap lockdown system provides a secure, customized fit,Compression bootie design offers comfortable support,3-layer upper provides lightweight breathability and stretch,LeBron-inspired outsole pattern delivers durable traction,</p>;;<p>Leather</p>;;;;all-sports-styles-2017,sportsallstyles-2017,ss-18-sports,ss18-nike-sports;zerotype;;Spring;ss18-nike-sports;No
2366518;PG501942-SUNRISE-2366518;NICOLE IP;Draft;Tshirts;Pepe Jeans;Kids-Girls;Girls;Yellow;;;Fashion;;2018;4,PEJETSHT00016966,6,PEJETSHT00016967,8,PEJETSHT00016968,10,PEJETSHT00016969,12,PEJETSHT00016970,14,PEJETSHT00016971;799.00;;;<p>100% COTTON</p>;;;;;zerotype;;Summer;;No
2366517;PG501942-OPTIC WHITE-2366517;NICOLE IP;Draft;Tshirts;Pepe Jeans;Kids-Girls;Girls;White;;;Fashion;;2018;4,PEJETSHT00016960,6,PEJETSHT00016961,8,PEJETSHT00016962,10,PEJETSHT00016963,12,PEJETSHT00016964,14,PEJETSHT00016965;799.00;;;<p>100% COTTON</p>;;;;;zerotype;;Summer;;No
2366515;PB502195-SKY-2366515;WYHAN IP;Draft;Tshirts;Pepe Jeans;Kids-Boys;Boys;Blue;;;Fashion;;2018;4,PEJETSHT00016946,6,PEJETSHT00016947,8,PEJETSHT00016948,10,PEJETSHT00016949,12,PEJETSHT00016950,14,PEJETSHT00016951,16,PEJETSHT00016952;899.00;;;<p>100% COTTON</p>;;;;;zerotype;;Summer;;No
2366353;CRK13519-03282-BLUE-2366353;KURTA;Active;Kurtas;AURELIA;Adults-Women;Women;Navy Blue;;;Fashion;Ethnic;2018;L,AUREKRTA00012549,M,AUREKRTA00012550,S,AUREKRTA00012551,XL,AUREKRTA00012552,XS,AUREKRTA00012553,XXL,AUREKRTA00012554;999.00;<a href='/navy-blue?src=pd' class='seolink'>Navy blue</a> <a href='/solid?src=pd' class='seolink'>solid</a> straight <a href='/kurta?src=pd' class='seolink'>kurta</a>, has a mandarin collar, three-quarter sleeves, straight hem, side slits;Show off your elegant style with a brand new kurta from AURELIA.  Sport this navy blue piece with studded flats and minimal jewellery for a simple yet stunning evening ensemble.;88% cotton, 12% linen<br />Hand-wash;The model (height 5'8") is wearing a size S;;AURELIA Women Navy Blue Solid Straight Kurta;AURELIA;zerotype;;Spring;;No
2366352;CRK13519-03207-NATURAL-2366352;KURTA;Active;Kurtas;AURELIA;Adults-Women;Women;Off White;;;Fashion;Ethnic;2018;L,AUREKRTA00012543,M,AUREKRTA00012544,S,AUREKRTA00012545,XL,AUREKRTA00012546,XS,AUREKRTA00012547,XXL,AUREKRTA00012548;999.00;Off-white <a href='/solid?src=pd' class='seolink'>solid</a> straight <a href='/kurta?src=pd' class='seolink'>kurta</a>, has a mandarin collar, three-quarter sleeves, straight hem, side slits;You'll love the elegant design and fit of this stunning kurta from AURELIA. Sport this off-white piece with studded flats and minimal jewellery for a simple yet stunning evening ensemble.;88% cotton, 12% linen<br />Hand-wash;The model (height 5'8") is wearing a size S;;AURELIA Women Off-White Solid Straight Kurta;AURELIA;zerotype;;Spring;;No
2366351;CRK13519-03077-GREEN-2366351;KURTA;Active;Kurtas;AURELIA;Adults-Women;Women;Green;;;Fashion;Ethnic;2018;L,AUREKRTA00012537,M,AUREKRTA00012538,S,AUREKRTA00012539,XL,AUREKRTA00012540,XS,AUREKRTA00012541,XXL,AUREKRTA00012542;999.00;<a href='/green?src=pd' class='seolink'>Green</a> <a href='/solid?src=pd' class='seolink'>solid</a> straight <a href='/kurta?src=pd' class='seolink'>kurta</a>, has a mandarin collar, three-quarter sleeves, straight hem, side slits;Keep it classy all year long with a stylish kurta from AURELIA.  Look chic for the day with this green kurta and leggings.;100% cotton<br />Hand-wash;The model (height 5'8") is wearing a size S;;AURELIA Women Green Solid Straight Kurta;AURELIA;zerotype;;Spring;;No
2366350;CRK13519-03070-PINK-2366350;KURTA;Active;Kurtas;AURELIA;Adults-Women;Women;Pink;;;Fashion;Ethnic;2018;L,AUREKRTA00012531,M,AUREKRTA00012532,S,AUREKRTA00012533,XL,AUREKRTA00012534,XS,AUREKRTA00012535,XXL,AUREKRTA00012536;999.00;<a href='/pink?src=pd' class='seolink'>Pink</a> <a href='/solid?src=pd' class='seolink'>solid</a> straight <a href='/kurta?src=pd' class='seolink'>kurta</a>, has a mandarin collar, three-quarter sleeves, straight hem, side slits;Make a statement with this elegant kurta from AURELIA.  Sport this pink piece with studded flats and minimal jewellery for a simple yet stunning evening ensemble.;88% cotton, 12% linen<br />Hand-wash;The model (height 5'8") is wearing a size S;;AURELIA Women Pink Solid Straight Kurta;AURELIA;zerotype;;Spring;;No
2366349;CRK13519-03068-PINK-2366349;KURTA;Active;Kurtas;AURELIA;Adults-Women;Women;Coral;;;Fashion;Ethnic;2018;L,AUREKRTA00012525,M,AUREKRTA00012526,S,AUREKRTA00012527,XL,AUREKRTA00012528,XS,AUREKRTA00012529,XXL,AUREKRTA00012530;999.00;<a href='/coral?src=pd' class='seolink'>Coral</a> <a href='/orange?src=pd' class='seolink'>orange</a> <a href='/solid?src=pd' class='seolink'>solid</a> straight <a href='/kurta?src=pd' class='seolink'>kurta</a>, has a mandarin collar, three-quarter sleeves, straight hem, side slits;This stunning kurta from AURELIA will help you maintain an elegant look all year long.  For your next dinner party or family gathering, this coral piece pairs well with dark leggings and chic flats.;88% cotton, 12% linen<br />Hand-wash;The model (height 5'8") is wearing a size S;;AURELIA Women Coral Orange Solid Straight Kurta;AURELIA;zerotype;;Spring;;No
2366348;CRK13519-03066-YELLOW-2366348;KURTA;Active;Kurtas;AURELIA;Adults-Women;Women;Yellow;;;Fashion;Ethnic;2018;L,AUREKRTA00012519,M,AUREKRTA00012520,S,AUREKRTA00012521,XL,AUREKRTA00012522,XS,AUREKRTA00012523,XXL,AUREKRTA00012524;999.00;<a href='/yellow?src=pd' class='seolink'>Yellow</a> <a href='/solid?src=pd' class='seolink'>solid</a> straight <a href='/kurta?src=pd' class='seolink'>kurta</a>, has a mandarin collar, three-quarter sleeves, straight hem, side slits;This breathable and stylish kurta from AURELIA is a must-have item for any wardrobe.  This yellow piece is a stylish option for a nice family function or event when teamed with churidar leggings and classic flats.;88% cotton, 12% linen<br />Hand-wash;The model (height 5'8") is wearing a size S;;AURELIA Women Yellow Solid Straight Kurta;AURELIA;zerotype;;Spring;;No
2366347;CRK13519-01520-BLACK-2366347;KURTA;Active;Kurtas;AURELIA;Adults-Women;Women;Black;;;Fashion;Ethnic;2018;L,AUREKRTA00012513,M,AUREKRTA00012514,S,AUREKRTA00012515,XL,AUREKRTA00012516,XS,AUREKRTA00012517,XXL,AUREKRTA00012518;999.00;<a href='/black?src=pd' class='seolink'>Black</a> <a href='/solid?src=pd' class='seolink'>solid</a> straight <a href='/kurta?src=pd' class='seolink'>kurta</a>, has a mandarin collar, three-quarter sleeves, straight hem, side slits;This breathable and stylish kurta from AURELIA is a must-have item for any wardrobe.  Look chic for the day with this black kurta and leggings.;88% cotton, 12% linen<br />Hand-wash;The model (height 5'8") is wearing a size S;;AURELIA Women Black Solid Straight Kurta;AURELIA;zerotype;;Spring;;No
2366346;CRK13519-01508-NATURAL-2366346;KURTA;Active;Kurtas;AURELIA;Adults-Women;Women;Beige;;;Fashion;Ethnic;2018;L,AUREKRTA00012507,M,AUREKRTA00012508,S,AUREKRTA00012509,XL,AUREKRTA00012510,XS,AUREKRTA00012511,XXL,AUREKRTA00012512;999.00;<a href='/beige?src=pd' class='seolink'>Beige</a> <a href='/solid?src=pd' class='seolink'>solid</a> straight <a href='/kurta?src=pd' class='seolink'>kurta</a>, has a mandarin collar, three-quarter sleeves, straight hem, side slits;Make a statement with this elegant kurta from AURELIA.  Look chic for the day with this beige kurta and leggings.;88% cotton, 12% linen<br />Hand-wash;The model (height 5'8") is wearing a size S;;AURELIA Women Beige Solid Straight Kurta;AURELIA;zerotype;;Spring;;No
2366344;18FEK13697-03228-PINK-2366344;KURTA;Inactive - PMM - Category;Kurtas;AURELIA;Adults-Women;Women;Pink;;;Fashion;Ethnic;2018;L,AUREKRTA00012495,M,AUREKRTA00012496,S,AUREKRTA00012497,XL,AUREKRTA00012498,XS,AUREKRTA00012499,XXL,AUREKRTA00012500;899.00;Pink solid straight kurta, has a mandarin collar, sleeveless, straight hem, side slits;This breathable and stylish kurta from AURELIA is a must-have item for any wardrobe.  Dress up for your next family event by pairing this pink piece with your best Kolhapuris and simple jewellery.;Cotton and linen <br> Hand-wash;The model (height 5'8") is wearing a size S;;AURELIA Women Pink Solid Straight Kurta;AURELIA;zerotype;;Spring;MRP mismatch btw tag 899 & wms 999;No
2366343;18FEK13697-03207-NATURAL-2366343;KURTA;Draft;Kurtas;AURELIA;Adults-Women;Women;Multi;;;Fashion;;2018;L,AUREKRTA00012489,M,AUREKRTA00012490,S,AUREKRTA00012491,XL,AUREKRTA00012492,XS,AUREKRTA00012493,XXL,AUREKRTA00012494;899.00;;;;;;;;zerotype;;Spring;;No
2366342;18FEK13697-01520-BLACK-2366342;KURTA;Draft;Kurtas;AURELIA;Adults-Women;Women;Black;;;Fashion;;2018;L,AUREKRTA00012483,M,AUREKRTA00012484,S,AUREKRTA00012485,XL,AUREKRTA00012486,XS,AUREKRTA00012487,XXL,AUREKRTA00012488;899.00;;;;;;;;zerotype;;Spring;;No
2366341;18FEK13467-62785-PINK-2366341;KURTA;Active;Kurtas;AURELIA;Adults-Women;Women;Coral;White;;Fashion;Ethnic;2018;L,AUREKRTA00012477,M,AUREKRTA00012478,S,AUREKRTA00012479,XL,AUREKRTA00012480,XS,AUREKRTA00012481,XXL,AUREKRTA00012482;999.00;<a href='/coral?src=pd' class='seolink'>Coral</a> <a href='/pink?src=pd' class='seolink'>pink</a> and white printed straight <a href='/kurta?src=pd' class='seolink'>kurta</a>, has a round neck, three-quarter sleeves, straight hem, side slits;This exquisite kurta from AURELIA will help you maintain an elegant look all year long.  This coral piece is a stylish option for a nice family function or event when teamed with churidar leggings and classic flats.;100% cotton<br />Machine-wash;The model (height 5'8") is wearing a size S;;AURELIA Women Coral Pink & White Printed Straight Kurta;AURELIA;zerotype;;Spring;;No
2366340;18FEK13466-62787- Off-white, Grey and Blue-2366340;KURTA;Active;Kurtas;AURELIA;Adults-Women;Women;Off White;Grey;;Fashion;Ethnic;2018;L,AUREKRTA00012471,M,AUREKRTA00012472,S,AUREKRTA00012473,XL,AUREKRTA00012474,XS,AUREKRTA00012475,XXL,AUREKRTA00012476;999.00;Off-white and <a href='/grey?src=pd' class='seolink'>grey</a> printed straight <a href='/kurta?src=pd' class='seolink'>kurta</a>, has a round neck, three-quarter sleeves, curved hem, side slits;You'll love the style, comfort and durability of this AURELIA kurta.  Dress up for your next family event by pairing this off-white piece with your best Kolhapuris and simple jewellery.;100% cotton<br />Machine-wash;The model (height 5'8") is wearing a size S;;AURELIA Women Off-White & Grey Printed Straight Kurta;AURELIA;zerotype;;Spring;;No
2366339;18FEK13464-62781-CREAM-2366339;KURTA;Active;Kurtas;AURELIA;Adults-Women;Women;Off White;Cream;;Fashion;Ethnic;2018;L,AUREKRTA00012465,M,AUREKRTA00012466,S,AUREKRTA00012467,XL,AUREKRTA00012468,XS,AUREKRTA00012469,XXL,AUREKRTA00012470;1299.00;Off-white and <a href='/cream?src=pd' class='seolink'>cream</a>-coloured printed straight <a href='/kurta?src=pd' class='seolink'>kurta</a>, has a round neck, three-quarter sleeves, straight hem, side slits;Comfortable and stylish, this kurta from AURELIA is ideal for any fashionista.  This off-white piece is a stylish option for a nice family function or event when teamed with churidar leggings and classic flats.;100% viscose<br />Machine-wash;The model (height 5'8") is wearing a size S;;AURELIA Women Off-White & Cream-Coloured Printed Straight Kurta;AURELIA;zerotype;;Spring;;No
2366338;18FEK13463-62783-BLUE-2366338;KURTA;Active;Kurtas;AURELIA;Adults-Women;Women;White;Blue;;Fashion;Ethnic;2018;L,AUREKRTA00012459,M,AUREKRTA00012460,S,AUREKRTA00012461,XL,AUREKRTA00012462,XS,AUREKRTA00012463,XXL,AUREKRTA00012464;1299.00;White and <a href='/blue?src=pd' class='seolink'>blue</a> printed straight <a href='/kurta?src=pd' class='seolink'>kurta</a>, has a round neck, three-quarter sleeves, straight hem, side slits;Show off your elegant style with a brand new kurta from AURELIA.  This multi-coloured piece is a stylish option for a nice family function or event when teamed with churidar leggings and classic flats.;100% viscose<br />Machine-wash;The model (height 5'8") is wearing a size S;;AURELIA Women White & Blue Printed Straight Kurta;AURELIA;zerotype;;Spring;;No
2366337;18FEK13461-62789-Dusty pink and off-white-2366337;KURTA;Active;Kurtas;AURELIA;Adults-Women;Women;Pink;Off White;;Fashion;Ethnic;2018;L,AUREKRTA00012453,M,AUREKRTA00012454,S,AUREKRTA00012455,XL,AUREKRTA00012456,XS,AUREKRTA00012457,XXL,AUREKRTA00012458;1599.00;Dusty <a href='/pink?src=pd' class='seolink'>pink</a> and off-white printed straight <a href='/kurta?src=pd' class='seolink'>kurta</a>, has a round neck, three-quarter sleeves, straight hem, side slits;Show off your elegant style with a brand new kurta from AURELIA.  Dress up for your next family event by pairing this pink piece with your best Kolhapuris and simple jewellery.;100% viscose<br />Machine-wash;The model (height 5'8") is wearing a size S;;AURELIA Women Dusty Pink & Off-White Printed Straight Kurta;AURELIA;zerotype;;Spring;;No
2364533;1000743217002-DARKINDIGO-2364533;LCGB-3171-6008-AL-MSK-, 5-6, DARK INDIGO;Draft;Jeans;Lee Cooper;Kids-Girls;Girls;NA;;;Fashion;;2017;3-4Y,LEECJENS00003408,5-6Y,LEECJENS00003409;1499.00;;;<p>Machine Wash Cold, Wash Dark Colors Separately,Do Not Bleach, Tumble Dry Low, Do Not Dry In Direct Sunlight, Flat Dry,Do not wring reshape, Warm Iron(Do Not Iron On Decoration)</p>;;;;;zerotype;;Winter;;No
2364475;1000744831003-HUNTERGREEN-2364475;LCBSH-3171-408-A-FS-S, 6-7, HUNTER GREEN;Draft;Shirts;Lee Cooper;Kids-Boys;Boys;NA;;;Fashion;;2017;3-4Y,LEECSHRT00003247,5-6Y,LEECSHRT00003248,6-7Y,LEECSHRT00003249;999.00;;;<p>Machine Wash Cold, Wash Dark Colors Separately,Do Not Bleach, Tumble Dry Low, Do Not Dry In Direct Sunlight, Flat Dry,Do not wring reshape, Warm Iron(Do Not Iron On Decoration)</p>;;;;;zerotype;;Winter;;No
2364354;AH2011-091-CARBON HEATHER/BLACK-2364354;AS W NSW LGGNG LEGASEE LOGO;Active;Tights;Nike;Adults-Women;Women;Grey;;;Fashion;Sports;2018;XS,NIKETIGH00001250,S,NIKETIGH00001251,M,NIKETIGH00001252,L,NIKETIGH00001253,XL,NIKETIGH00001254;2695.00;<a href='/grey-tights?src=pd' class='seolink'>Grey tights</a>, engineered with Dri-Fit technology, has an elasticated waistband<br />Warranty: <a href='/6?src=pd' class='seolink'>6</a> months against manufacturing defects (not valid on products with more than 20% discount);This pair of training tights from Nike is a must-have for your workout closet. Club it with a sports bra and training shoes for an early morning jog session.;57% cotton, 32% polyester, 11% elastane<br />Machine-wash;The model (height 5'8") is wearing a size S;;Nike Grey AS W NSW Tights;Nike,all-sports-styles-2017,sportsallstyles-2017,ss-18-sports,coupon-offer-dec2017;zerotype;;Spring;coupon-offer-dec2017;No
2364353;AH2011-010-BLACK/WHITE-2364353;AS W NSW LGGNG LEGASEE LOGO;Active;Tights;Nike;Adults-Women;Women;Black;;;Fashion;Sports;2018;XS,NIKETIGH00001245,S,NIKETIGH00001246,M,NIKETIGH00001247,L,NIKETIGH00001248,XL,NIKETIGH00001249;2695.00;Women's Nike Sportswear Tights<br />Made with stretchy jersey fabric<br />Features a curve-hugging, high-waisted design for a flattering fit, while seamless sides create a clean finish.<br />Jersey fabric is soft and comfortable.<br />High-waisted design for a flattering fit.<br />Seamless sides create a clean finish.<br />Elastic waistband stretches for a snug fit.<br />Nike corporate logo is screen printed at the left calf.;This pair of training tights from Nike is a must-have for your workout closet. Club it with a sports bra and training shoes for an early morning jog session.;57% cotton, 32% polyester, 11% elastane<br />Machine-wash;The model (height 5'8") is wearing a size S;;Nike Women Black Sportswear Tights;Nike,all-sports-styles-2017,sportsallstyles-2017,ss-18-sports,coupon-offer-dec2017;zerotype;;Spring;coupon-offer-dec2017;No
2364352;933803-451-OBSIDIAN/WHITE-2364352;AS W NK PWR TGHT MID RS GOOD;Active;Tights;Nike;Adults-Women;Women;Navy Blue;;;Fashion;Sports;2018;XS,NIKETIGH00001240,S,NIKETIGH00001241,M,NIKETIGH00001242,L,NIKETIGH00001243,XL,NIKETIGH00001244;2295.00;<a href='/navy-blue?src=pd' class='seolink'>Navy blue</a> knitted <a href='/tights?src=pd' class='seolink'>tights</a>, engineered with DRI-FIT technology, has an inner pocket, an elasticated waistband<br />Warranty: <a href='/6?src=pd' class='seolink'>6</a> months against manufacturing defects (not valid on products with more than 20% discount);Make your fitness sessions more stylish with this pair of tights from Nike. Team it with a tee and sports shoes for a complete ensemble.;88% polyester, 12% spandex<br />Machine-wash;Tight fit<br />The model (height 5'8'') is wearing a size S;;Nike Women Navy AS W NK PWR TGHT MID RS GOOD Tights;Nike,all-sports-styles-2017,sportsallstyles-2017,ss-18-sports,coupon-offer-dec2017;zerotype;;Spring;coupon-offer-dec2017;No
2364350;905138-010-BLACK/WHITE/BLACK/GYM RED-2364350;AS W NK PWR TGHT PL CLRBLK SP;Active;Tights;Nike;Adults-Women;Women;Black;;;Fashion;Sports;2018;XS,NIKETIGH00001227,S,NIKETIGH00001228,M,NIKETIGH00001229,L,NIKETIGH00001230,XL,NIKETIGH00001231;2695.00;<a href='/black?src=pd' class='seolink'>Black</a> knitted <a href='/tights?src=pd' class='seolink'>tights</a> with printed detail, engineered with DRI-FIT technology, has an inner pocket, an elasticated waistband<br />Warranty: <a href='/6?src=pd' class='seolink'>6</a> months against manufacturing defects (not valid on products with more than 20% discount);Make your fitness sessions more stylish with this pair of tights from Nike. Team it with a tee and sports shoes for a complete ensemble.;88% polyester, 12% spandex<br />Machine-wash;Tight fit<br />The model (height 5'8'') is wearing a size S;;Nike Women Black AS W NK PWR Tights;Nike,all-sports-styles-2017,sportsallstyles-2017,ss-18-sports,coupon-offer-dec2017;zerotype;;Spring;coupon-offer-dec2017;No
2364349;897879-474-BLUE FORCE/HYPER MAGENTA-2364349;AS W NK PWR TGHT POLY JDI GRX;Active;Tights;Nike;Adults-Women;Women;Teal;;;Fashion;Sports;2018;XS,NIKETIGH00001222,S,NIKETIGH00001223,M,NIKETIGH00001224,L,NIKETIGH00001225,XL,NIKETIGH00001226;2695.00;Teal blue printed tights, engineered with Dri-Fit technology, has an elasticated waistband, one pocket<br />Warranty: 6 months against manufacturing defects (not valid on products with more than 20% discount);This pair of training tights from Nike is a must-have for your workout closet. Club it with a sports bra and training shoes for an early morning jog session.;88% recycled polyester, 12% elastane<br />Machine-wash;The model (height 5'8") is wearing a size S;;Nike Teal Blue Printed AS W NK PWR Tights;Nike,all-sports-styles-2017,sportsallstyles-2017,ss-18-sports,coupon-offer-dec2017;zerotype;;Spring;coupon-offer-dec2017;No
2364348;897879-011-BLACK/GYM RED-2364348;AS W NK PWR TGHT POLY JDI GRX;Active;Tights;Nike;Adults-Women;Women;Black;;;Fashion;Sports;2018;XS,NIKETIGH00001217,S,NIKETIGH00001218,M,NIKETIGH00001219,L,NIKETIGH00001220,XL,NIKETIGH00001221;2695.00;Black printed tights, engineered with Dri-Fit technology, has an elasticated waistband<br />Warranty: 6 months against manufacturing defects (not valid on products with more than 20% discount);This pair of training tights from Nike is a must-have for your workout closet. Club it with a sports bra and training shoes for an early morning jog session.;88% recycled polyester, 12% elastane<br />Machine-wash;The model (height 5'8") is wearing a size S;;Nike Black Printed AS W NK PWR Tights;Nike,all-sports-styles-2017,sportsallstyles-2017,ss-18-sports,coupon-offer-dec2017;zerotype;;Spring;coupon-offer-dec2017;No
2364346;890422-474-BLUE FORCE/BLACK-2364346;AS W NK PWR ESSNTL TGHT PR;Active;Tights;Nike;Adults-Women;Women;Black;Teal;;Fashion;Sports;2018;XS,NIKETIGH00001207,S,NIKETIGH00001208,M,NIKETIGH00001209,L,NIKETIGH00001210,XL,NIKETIGH00001211;2695.00;Black and teal blue printed tights, engineered with Dri-Fit technology, has an elasticated waistband, one pocket<br />Warranty: 6 months against manufacturing defects (not valid on products with more than 20% discount);This pair of training tights from Nike is a must-have for your workout closet. Club it with a sports bra and training shoes for an early morning jog session.;92% polyester, 8% elastane<br />Machine-wash;The model (height 5'8") is wearing a size S;;Nike Black & Teal Blue Printed AS W NK PWR ESSNTL Tights;Nike,all-sports-styles-2017,sportsallstyles-2017,ss-18-sports,coupon-offer-dec2017;zerotype;;Spring;coupon-offer-dec2017;No
2364345;890334-010-BLACK-2364345;AS W NK SPEED TGHT 7_8;Active;Tights;Nike;Adults-Women;Women;Black;;;Fashion;Sports;2018;XS,NIKETIGH00001202,S,NIKETIGH00001203,M,NIKETIGH00001204,L,NIKETIGH00001205,XL,NIKETIGH00001206;3495.00;<a href='/black-tights?src=pd' class='seolink'>Black tights</a>, has an elasticated waistband with inner drawstring closure, a zip closure<br />Engineered with  DRI-CELL Technology<br />Warranty: <a href='/6?src=pd' class='seolink'>6</a> months against manufacturing defects (not valid on products with more than 20% discount);This pair of training tights from Nike is a must-have for your workout closet. Club it with a sports bra and training shoes for an early morning jog session.;74% polyester, 26% elastane <br />Machine-wash;The model (height 5'8") is wearing a size S;;Nike Women Black AS W NK SPEED Tights;Nike, all-sports-styles-2017,sportsallstyles-2017,ss-18-sports,coupon-offer-dec2017;zerotype;;Spring;coupon-offer-dec2017;No
2364327;910706-010-BLACK/BLACK/WHITE-2364327;AS M NK SHORT HBR;Active;Shorts;Nike;Adults-Men;Men;Black;;;Fashion;Sports;2018;S,NIKESHOR00103364,M,NIKESHOR00103365,L,NIKESHOR00103366,XL,NIKESHOR00103367,XXL,NIKESHOR00103368;1895.00;Black solid mid-rise sports shorts, engineered with DRI-FIT technology, has 2 pockets, a drawstring closure;When you need to upgrade your summer wardrobe, opt for these casual black solid shorts.  This black pair can be worn with a classic T-shirt and canvas shoes for a casual night out on the town.;Polyester <br> Machine-wash;Regular Fit <br> The model (height 6') is wearing a size 32;;Nike Men Black Solid Sports Shorts;Nike,coupon-offer-dec2017;zerotype;;Spring;coupon-offer-dec2017;No
2364318;890812-010-BLACK/DARK GREY-2364318;AS M NK DRY SHORT 4.0;Active;Shorts;Nike;Adults-Men;Men;Black;;;Fashion;Sports;2018;S,NIKESHOR00103323,M,NIKESHOR00103324,L,NIKESHOR00103325,XL,NIKESHOR00103326,2XL,NIKESHOR00103327;1995.00;Black self-design mid-rise sports shorts, has 3 pockets, a drawstring closure<br />Enginnered with Dri-Fit technology;When you need to upgrade your summer wardrobe, opt for these casual black self design shorts.  This black pair can be teamed with a cool shirt and canvas shoes when you're grabbing drinks with your buddies.;100% polyester<br />Machine-wash;Regular Fit <br> The model (height 6') is wearing a size 32;;Nike Men Black Self Design Regular Fit AS M NK DRY Sports Shorts;Nike,all-sports-styles-2017,sportsallstyles-2017,ss-18-sports,coupon-offer-dec2017;zerotype;;Spring;coupon-offer-dec2017;No
2364316;888376-010-BLACK/BLACK/GYM RED/GYM RED-2364316;RISE GRAPHIC SHORT;Active;Shorts;Nike;Adults-Men;Men;Black;;;Fashion;Sports;2018;S,NIKESHOR00103313,M,NIKESHOR00103314,L,NIKESHOR00103315,XL,NIKESHOR00103316,2XL,NIKESHOR00103317;2495.00;Men's Jordan Rise Graphic Basketball Shorts<br />HYPERCHARGED COOLING MADE TO MOVE.<br />Men's Jordan Rise Graphic Basketball Shorts feature sweat-wicking technology and a knee-length design that provides comfort and coverage made to move.<br />Dri-FIT technology moves sweat away from your skin to help keep you dry and comfortable.<br />Rise Fit hits at the knees for all-day comfort or on-court mobility.<br />Waistband has a comfort drawcord for a personalized fit.<br />Mesh-lined pockets offer small-item storage.<br />Air Jordan wordmark logo is sublimated onto the side panel.<br />Jumpman design trademark is screen printed onto both lower legs.;Expand your summer and spring wardrobe collection with these super-cool black printed shorts.  Wear this black pair with a printed T-shirt and a pair of comfortable sneakers when you're going to run errands.;Polyester <br> Machine-wash;Regular Fit <br> The model (height 6') is wearing a size 32;;Nike Men Black Jordan Rise Graphic Basketball Shorts;Nike,coupon-offer-dec2017;zerotype;;Spring;coupon-offer-dec2017;No
2364313;859909-452-OBSIDIAN/BLUE HERO/BLUE HERO-2364313;AS M NK DRY SQD SHORT K;Active;Shorts;Nike;Adults-Men;Men;Navy Blue;;;Fashion;Casual;2018;S,NIKESHOR00103298,M,NIKESHOR00103299,L,NIKESHOR00103300,XL,NIKESHOR00103301,2XL,NIKESHOR00103302;1695.00;Navy blue solid mid-rise sports shorts, has no pocket pockets, a drawstring closure;When you need to upgrade your summer wardrobe, opt for these casual navy blue solid shorts.  Wear this navy blue pair with a printed T-shirt and a pair of comfortable sneakers when you're going to run errands.;Polyester <br> Machine-wash;Regular Fit <br> The model (height 6') is wearing a size 32;;Nike Men Navy Blue Solid Regular Fit Sports Shorts;Nike,all-sports-styles-2017,sportsallstyles-2017,ss-18-sports,coupon-offer-dec2017;zerotype;;Spring;coupon-offer-dec2017;No
2364312;859454-012-LIGHT CARBON/THUNDER BLUE/BLACK-2364312;AS M NP SHORT HTHR;Active;Tights;Nike;Adults-Men;Men;Grey;;;Fashion;Casual;2018;S,NIKESHOR00103293,M,NIKESHOR00103294,L,NIKESHOR00103295,XL,NIKESHOR00103296,2XL,NIKESHOR00103297;1795.00;Men's Nike Pro Tights<br />SWEAT-WICKING COMFORT.<br />The locked-in fit delivers ventilated comfort with sweat-wicking fabric, helping you stay prepared in the gym and on the field.<br />Nike Pro fabric helps you feel locked in and cool.<br />Flatlock seams reduce irritation.<br />Compression fit provides muscle support.;Look stylish while you train in this pair of tights. The amazing fit will make you feel at ease during your intense workout sessions. Wear it with a tee and trainers for the best results.;100% polyester<br />Machine-wash;The model (height 6') is wearing a size M;;Nike Men Grey Pro Tights;Nike,all-sports-styles-2017,sportsallstyles-2017,ss-18-sports,coupon-offer-dec2017;zerotype;;Spring;coupon-offer-dec2017;No
2364309;844647-429-BINARY BLUE/BLACK/BLACK-2364309;AS M NK SHORT 9IN MONSTER MESH;Active;Shorts;Nike;Adults-Men;Men;Navy Blue;;;Fashion;Sports;2018;S,NIKESHOR00103278,M,NIKESHOR00103279,L,NIKESHOR00103280,XL,NIKESHOR00103281,2XL,NIKESHOR00103282;1495.00;Navy Blue self-design mid-rise sports shorts, has 2 pockets, a drawstring closure<br />Engineered with Dri-Fit technology;These trendy navy blue self design shorts will help you set the tone for this season.  Wear this navy blue pair with a printed T-shirt and a pair of comfortable sneakers when you're going to run errands.;100% polyester<br />Machine-wash;Regular Fit <br> The model (height 6') is wearing a size 32;;Nike Men Navy Self Design Regular Fit AS M NK Sports Shorts;Nike,all-sports-styles-2017,sportsallstyles-2017,ss-18-sports,coupon-offer-dec2017;zerotype;;Spring;coupon-offer-dec2017;No
2364302;830822-012-BLACK/LAVA GLOW/LAVA GLOW-2364302;AS M NKCT DRY SHORT 9IN;Active;Shorts;Nike;Adults-Men;Men;Black;;;Fashion;Casual;2018;S,NIKESHOR00103247,M,NIKESHOR00103248,L,NIKESHOR00103249,XL,NIKESHOR00103250,2XL,NIKESHOR00103251;2095.00;Black solid mid-rise sports shorts engineered with DRI-FIT technology, has 2 pockets, a drawstring closure;When you need to upgrade your summer wardrobe, opt for these casual black solid shorts.  Match this black pair with a handsome shirt and easy loafers for your next date night.;Polyester <br> Machine-wash;Regular Fit <br> The model (height 6') is wearing a size 32;;Nike Men Black Solid Regular Fit Sports Shorts;Nike,all-sports-styles-2017,sportsallstyles-2017,ss-18-sports,coupon-offer-dec2017;zerotype;;Spring;coupon-offer-dec2017;No
2364291;942070-010-BLACK/WHITE-2364291;AS W NK DRY MILER TOP SS GX 2;Active;Tshirts;Nike;Adults-Women;Women;Black;;;Fashion;Sports;2018;XS,NIKETOPS00002706,S,NIKETOPS00002707,M,NIKETOPS00002708,L,NIKETOPS00002709,XL,NIKETOPS00002710;1895.00;<a href='/black?src=pd' class='seolink'>Black</a> printed T-shirt, engineered with dri-FIT technology, has a round neck, <a href='/short?src=pd' class='seolink'>short</a> sleeves;This breathable tee from Nike is a must-have item for any fashionista.  You can match this black piece with distressed jeans and ballerinas when you're going to lunch with your friends.;100% polyester<br />Machine-wash;The model (height 5'8") is wearing a size S;;Nike Women Black Printed AS W NK Round Neck T-shirt;Nike,all-sports-styles-2017,sportsallstyles-2017,ss-18-sports,coupon-offer-dec2017;zerotype;;Spring;coupon-offer-dec2017;No
2364289;942066-010-BLACK/WHITE-2364289;AS W NK DRY MILER TANK GX 2;Active;Tops;Nike;Adults-Women;Women;Black;;;Fashion;Sports;2018;XS,NIKETOPS00002696,S,NIKETOPS00002697,M,NIKETOPS00002698,L,NIKETOPS00002699,XL,NIKETOPS00002700;1695.00;Black printed knitted tank top engineered with DRI-FIT technology, has a round neck, sleeveless, racerback<br />Warranty: 6 months against manufacturing defects (not valid on products with more than 20% discount);Give your style an upgrade with this trendy Nike tank top.  Put on this black piece with a pair of dark, slim jeans and neutral pump heel for a casual but sophisticated date ensemble.;100% polyester<br />Machine-wash;The model (height 5'8") is wearing a size S;;Nike Women Black Printed AS W NK DRY MILER Tank Top;Nike,all-sports-styles-2017,sportsallstyles-2017,ss-18-sports,coupon-offer-dec2017;zerotype;;Spring;coupon-offer-dec2017;No
2364288;932500-823-SEA CORAL-2364288;AS W NK MILER TOP SS;Active;Tshirts;Nike;Adults-Women;Women;Coral;;;Fashion;Sports;2018;XS,NIKETOPS00002691,S,NIKETOPS00002692,M,NIKETOPS00002693,L,NIKETOPS00002694,XL,NIKETOPS00002695;1695.00;Coral pink solid T-shirt engineered with DRI-FIT technology, has a round neck, short sleeves<br />Warranty: 6 months against manufacturing defects (not valid on products with more than 20% discount);Boast a laid-back look with this in-season tee from Nike.  When you're having the ladies over for drinks and appetizers, style this coral piece with your favourite pair of dark wash jeans.;100% polyester<br />Machine-wash;The model (height 5'8") is wearing a size S;;Nike Women Coral Pink Solid AS W NK MILER T-shirt;Nike,all-sports-styles-2017,sportsallstyles-2017,ss-18-sports,coupon-offer-dec2017;zerotype;;Spring;coupon-offer-dec2017;No
2364287;932500-010-BLACK-2364287;AS W NK MILER TOP SS;Active;Tshirts;Nike;Adults-Women;Women;Black;;;Fashion;Sports;2018;XS,NIKETOPS00002686,S,NIKETOPS00002687,M,NIKETOPS00002688,L,NIKETOPS00002689,XL,NIKETOPS00002690;1695.00;<a href='/black?src=pd' class='seolink'>Black</a> <a href='/solid?src=pd' class='seolink'>solid</a> T-shirt, has a round neck, <a href='/short?src=pd' class='seolink'>short</a> sleeves;Boast a laid-back look with this in-season tee from Nike.  You can match this black piece with distressed jeans and ballerinas when you're going to lunch with your friends.;Polyester <br> Machine-wash;The model (height 5'8") is wearing a size S;;Nike Women Black Solid Round Neck T-shirt;Nike, all-sports-styles-2017,sportsallstyles-2017,ss-18-sports,coupon-offer-dec2017;zerotype;;Spring;coupon-offer-dec2017;No
2364284;894664-011-BLACK-2364284;AS W NK DRY TEE DF SS SCOOP 2;Active;Tshirts;Nike;Adults-Women;Women;Black;;;Fashion;Sports;2018;XS,NIKETOPS00002671,S,NIKETOPS00002672,M,NIKETOPS00002673,L,NIKETOPS00002674,XL,NIKETOPS00002675;1495.00;Black solid T-shirt engineered with DRI-FIT technology, has a round neck, short sleeves<br />Warranty: 6 months against manufacturing defects (not valid on products with more than 20% discount);This Nike black cotton tee will add versatility to your wardrobe.  Style this black piece with tonal shorts and chic sandals when you're going on a picnic date.;58% cotton, 42% polyester<br />Machine-wash;The model (height 5'8") is wearing a size S;;Nike Women Black Solid AS W NK DRY T-shirt;Nike,all-sports-styles-2017,sportsallstyles-2017,ss-18-sports,coupon-offer-dec2017;zerotype;;Spring;coupon-offer-dec2017;No
2364282;890354-010-BLACK/BLACK-2364282;AS W NK RUN TOP SS;Active;Tops;Nike;Adults-Women;Women;Black;;;Fashion;Sports;2018;XS,NIKETOPS00002661,S,NIKETOPS00002662,M,NIKETOPS00002663,L,NIKETOPS00002664,XL,NIKETOPS00002665;1395.00;<a href='/black?src=pd' class='seolink'>Black</a> self-design knitted <a href='/regular?src=pd' class='seolink'>regular</a> <a href='/top?src=pd' class='seolink'>top</a>, has a round neck, <a href='/short?src=pd' class='seolink'>short</a> sleeves<br />Warranty: <a href='/6?src=pd' class='seolink'>6</a> months against manufacturing defects (not valid on products with more than 20% discount);This breathable top from Nike will make a great addition to your wardrobe.  You'll gain the perfect work ensemble when you pair this black piece with a sweater and a neutral-toned pair of slacks.;100% polyester<br />Machine-wash;The model (height 5'8") is wearing a size S;;Nike Women Black Self Design Top;Nike,all-sports-styles-2017,sportsallstyles-2017,ss-18-sports,coupon-offer-dec2017;zerotype;;Spring;coupon-offer-dec2017;No
2364281;890352-010-BLACK/BLACK-2364281;AS W NK RUN TANK;Active;Tops;Nike;Adults-Women;Women;Black;;;Fashion;Sports;2018;XS,NIKETOPS00002656,S,NIKETOPS00002657,M,NIKETOPS00002658,L,NIKETOPS00002659,XL,NIKETOPS00002660;1295.00;<a href='/black?src=pd' class='seolink'>Black</a> <a href='/solid?src=pd' class='seolink'>solid</a> woven <a href='/regular?src=pd' class='seolink'>regular</a> tank <a href='/top?src=pd' class='seolink'>top</a>, engineered with dri-FIT technology, has a round neck, sleeveless;With this must-have top from Nike, you can set your tone for the season.  This black piece will put a fashionable face forward for your next girls night out when you pair it with a Chelsea boot and matching clutch.;100% polyester<br />Machine-wash;The model (height 5'8") is wearing a size S;;Nike Women Black AS W NK Solid Tank Top;Nike, all-sports-styles-2017,sportsallstyles-2017,ss-18-sports,coupon-offer-dec2017;zerotype;;Spring;coupon-offer-dec2017;No
2364274;889242-010-BLACK/WHITE-2364274;AS W NK DRY TOP LS CREWNECK;Active;Sweatshirts;Nike;Adults-Women;Women;Black;;;Fashion;Sports;2018;S,NIKETOPS00002623,M,NIKETOPS00002624,L,NIKETOPS00002625,XL,NIKETOPS00002626;2795.00;<a href='/black?src=pd' class='seolink'>Black</a> <a href='/solid?src=pd' class='seolink'>solid</a> sweatshirt, engineered with dri-FIT technology, has a round neck, long sleeves, straight hem;Cozy up with this in-season Nike sweatshirt when the temperatures start to drop.  This black piece can be matched with slick black jeans and a solid tee for a relaxed look for the weekend.;75% polyester, 25% rayon<br />Machine-wash;The model (height 5'8") is wearing a size S;;Nike Women Black Solid Sweatshirt;Nike, all-sports-styles-2017,sportsallstyles-2017,ss-18-sports,coupon-offer-dec2017;zerotype;;Spring;coupon-offer-dec2017;No
2360348;0917DRSS36B-Black-2360348;Fabric mix-match, drop shoulder shirt dress, with convertible waist detail;Draft;Dresses;Encrypt;Adults-Women;Women;Black;White;Multi;Fashion;Party;2017;XS,ECPTDRSS00000212,S,ECPTDRSS00000213,M,ECPTDRSS00000214,L,ECPTDRSS00000215;2295.00;<p><a href='/fabric?src=pd' class='seolink'>Fabric</a> mix-match, drop <a href='/shoulder?src=pd' class='seolink'>shoulder</a> <a href='/shirt-dress?src=pd' class='seolink'>shirt dress</a>, with convertible waist detail</p>;<p>Wear over boots as a day dress, or with the buttoned waist as a glamorous draped top</p>;<p>Machine Wash Gentle</p>;<p>Oversized top, tapered bottom</p>;;Fabric mix-match, drop shoulder shirt dress, with convertible waist detail;black & white,checks,polks,shift,fit & flare,power sressing,winter favourites,convertible,2in1,printed,winter florals,A-line,sleeveless,Encrypt,knee length,trend,fashion,dress,shin length,party,winter,round neck,gathers,easy fit,floral print,winter florals,only,vero moda,mango,fab alley,chumbak,elle,marie claire,must have,trend,fashion;zerotype;;Fall;;No
2360347;0917DRSS32A-Black-2360347;3/4 sleeve, shin length button front shirt-dress;Draft;Dresses;Encrypt;Adults-Women;Women;Black;White;Multi;Fashion;Party;2017;XS,ECPTDRSS00000209,S,ECPTDRSS00000210,M,ECPTDRSS00000211;2395.00;<p>3/4 sleeve, shin length button front flared shirt-dress</p>;<p>This checked fit & flare shirt dress can be dressed up with pump heels. Or worn open like a layered piece with winter boots</p>;<p>Machine Wash Gentle</p>;<p>Fitted top, Flared A-line bottom, shirt front</p>;;3/4 sleeve, shin length button front shirt-dress;black & white,checks,polks,shift,fit & flare,power sressing,winter favourites,convertible,2in1,printed,winter florals,A-line,sleeveless,Encrypt,knee length,trend,fashion,dress,shin length,party,winter,round neck,gathers,easy fit,floral print,winter florals,only,vero moda,mango,fab alley,chumbak,elle,marie claire,must have,trend,fashion;zerotype;;Fall;;No
2360346;0917DRSS06-Walnut Brown-2360346;Ruffled sleeve printed dress with back-tie;Draft;Dresses;Encrypt;Adults-Women;Women;Brown;Taupe;Coffee Brown;Fashion;Party;2017;XS,ECPTDRSS00000205,S,ECPTDRSS00000206,M,ECPTDRSS00000207,L,ECPTDRSS00000208;2195.00;<p>Ruffled sleeve printed dress with back-tie</p>;<p>This dress is perfect to glam up any occasion. Wear under a trench coat or combine with boots for a perfect winter evening out.</p>;<p>Machine Wash Gentle</p>;<p>Fitted top, open back & Flared bottom</p>;;Ruffled sleeve printed dress with back-tie;fit & flare,flirty,open back,back tie,floral print,ditsy print,ruffles,printed,winter florals,A-line,sleeveless,Encrypt,knee length,trend,fashion,dress,shin length,party,winter,round neck,gathers,easy fit,floral print,winter florals,only,vero moda,mango,fab alley,chumbak,elle,marie claire,must have,trend,fashion;zerotype;;Fall;;No
2360345;0917DRSS05-Yellow Ochre-2360345;Ruffled sleeve printed dress with back-tie;Draft;Dresses;Encrypt;Adults-Women;Women;Yellow;Tan;;Fashion;Party;2017;XS,ECPTDRSS00000201,S,ECPTDRSS00000202,M,ECPTDRSS00000203,L,ECPTDRSS00000204;2195.00;<p>Ruffled sleeve printed dress with back-tie</p>;<p>This dress is perfect to glam up any occasion. Wear under a trench coat or combine with boots for a perfect winter evening out.</p>;<p>Machine Wash Gentle</p>;<p>Fitted top, open back & Flared bottom</p>;;Ruffled sleeve printed dress with back-tie;fit & flare,flirty,open back,back tie,floral print,ditsy print,ruffles,printed,winter florals,A-line,sleeveless,Encrypt,knee length,trend,fashion,dress,shin length,party,winter,round neck,gathers,easy fit,floral print,winter florals,only,vero moda,mango,fab alley,chumbak,elle,marie claire,must have,trend,fashion;zerotype;;Fall;;No
2360344;0917DRSS04-Garnet Red-2360344;Lantern Sleeves, A-line shift dress;Draft;Dresses;Encrypt;Adults-Women;Women;Red;Maroon;Magenta;Fashion;Party;2017;XS,ECPTDRSS00000197,S,ECPTDRSS00000198,M,ECPTDRSS00000199,L,ECPTDRSS00000200;1995.00;<p>Lantern Sleeves, A-line shift dress</p>;<p>Shift dress just got upgraded with bishop sleeves. Pair this beautiful red with pump heels for a perfect night out</p>;<p>Machine Wash Gentle</p>;<p>Easy A-line fit</p>;;Lantern Sleeves, A-line shift dress;shift dress,printed,red,A-line,lantern sleeve,bishop sleeve,big sleeves,Encrypt,knee length,trend,fashion,dress,shin length,party,winter,v-neck,gathers,easy fit,floral print,winter florals,only,vero moda,mango,fab alley,chumbak,elle,marie claire,must have,trend,fashion;zerotype;;Fall;;No
2360343;0917DRSS03-Black-2360343;Lantern Sleeves, A-line printed shift dress;Draft;Dresses;Encrypt;Adults-Women;Women;Black;Multi;;Fashion;Party;2017;XS,ECPTDRSS00000193,S,ECPTDRSS00000194,M,ECPTDRSS00000195,L,ECPTDRSS00000196;1995.00;<p>Lantern Sleeves, A-line printed shift dress</p>;<p>Shift dress just got upgraded with bishop sleeves. Pair this printed dress with bright lips & boots for a winter brunch</p>;<p>Machine Wash Gentle</p>;<p>Easy A-line fit</p>;;Lantern Sleeves, A-line printed shift dress;shift dress,printed,red,A-line,lantern sleeve,bishop sleeve,big sleeves,Encrypt,knee length,trend,fashion,dress,shin length,party,winter,v-neck,gathers,easy fit,floral print,winter florals,only,vero moda,mango,fab alley,chumbak,elle,marie claire,must have,trend,fashion;zerotype;;Fall;;No
2360342;0917DRSS02-Black-2360342;V neck tiered A-line printed dress;Draft;Dresses;Encrypt;Adults-Women;Women;Black;Multi;;Fashion;Party;2017;XS,ECPTDRSS00000189,S,ECPTDRSS00000190,M,ECPTDRSS00000191,L,ECPTDRSS00000192;2195.00;<p>V neck tiered A-line <a href='/printed-dress?src=pd' class='seolink'>printed dress</a></p>;<p>This tiered A-line dress is a flattering silhouette, perfect for very occasion. Pair with bright lips.</p>;<p>Machine Wash Gentle</p>;<p>Fitted top, easy fit & flare dress</p>;;V neck tiered A-line printed dress;Fit & flare,tiered,Encrypt,maxi dress,shin length,party,winter,v-neck,gathers,easy fit,floral print,winter florals,only,vero moda,mango,fab alley,chumbak,elle,marie claire,must have,trend,fashion;zerotype;;Fall;;No
2360341;0917JMPS22-Black-2360341;Dolman Sleeve Jumpsuit;Draft;Jumpsuit;Encrypt;Adults-Women;Women;Black;Multi;;Fashion;Party;2017;XS,ECPTJMST00000015,S,ECPTJMST00000016,M,ECPTJMST00000017,L,ECPTJMST00000018;2195.00;<p>Dolman Sleeve Printed Playsuit with sheer panels</p>;<p>Team this versatile party piece with heels or boots alike. Wear a bright lipcolor</p>;<p>Machine wash gentle</p>;<p>Easy fit, fitted at high waist with elastic</p>;;Dolman Sleeve Printed Playsuit with sheer panels;Fit & flare,dolman sleeves,trnsparent sleeve,floral print,playsuit,jumpsuit,Encrypt,party,winter,v-neck,gathers,easy fit,floral print,winter florals,only,vero moda,mango,fab alley,chumbak,elle,marie claire,must have,trend,fashion;zerotype;;Fall;;No
2360340;0917TOP21-Garnet Red-2360340;Ruffled camisole with racer back & knotted sleeve;Draft;Tops;Encrypt;Adults-Women;Women;Red;Maroon;;Fashion;Party;2017;XS,ECPTTOPS00000318,S,ECPTTOPS00000319,M,ECPTTOPS00000320,L,ECPTTOPS00000321;1595.00;<p>Ruffled camisole with racer back & knotted sleeve</p>;<p>The 'Go-to' party top - pair with skinny jeans or tucked in over a skirt & pump heels</p>;<p>Machine wash gentle</p>;<p>Easy fit</p>;;Ruffled camisole with racer back & knotted sleeve;racerback,ruffled,strappy,tie sleeves,sleeve details,camisole,open back,boxy top,sexy back,sting ray,tie waist,2in1,tie-up,party top,must have, Encrypt,party,winter,gathers,easy fit,floral print,winter florals,only,vero moda,mango,fab alley,chumbak,elle,marie claire,must have,trend,fashion;zerotype;;Fall;;No
2360339;0917TOP20-Nude Pink-2360339;Halter tie-neck top;Draft;Tops;Encrypt;Adults-Women;Women;Pink;Nude;;Fashion;Party;2017;XS,ECPTTOPS00000314,S,ECPTTOPS00000315,M,ECPTTOPS00000316,L,ECPTTOPS00000317;1395.00;<p>Halter tie-neck top</p>;<p>The 'Go-to' party top - pair with skinny jeans or over a skirt & pump heels</p>;<p>Machine wash gentle</p>;<p>Fitted at chest, gently flares out</p>;;Halter tie-neck top;halter,racerback,tie-up,party top,must have, Encrypt,party,winter,gathers,easy fit,floral print,winter florals,only,vero moda,mango,fab alley,chumbak,elle,marie claire,must have,trend,fashion;zerotype;;Fall;;No
2360338;0917TOP19-Yellow Ochre-2360338;Halter tie-neck print top;Draft;Tops;Encrypt;Adults-Women;Women;Yellow;Tan;Mustard;Fashion;Party;2017;XS,ECPTTOPS00000310,S,ECPTTOPS00000311,M,ECPTTOPS00000312,L,ECPTTOPS00000313;1395.00;<p>Halter tie-neck print top</p>;<p>The 'Go-to' party top - pair with skinny jeans or over a skirt & pump heels</p>;<p>Machine wash gentle</p>;<p>Fitted at chest, gently flares out</p>;;Halter tie-neck print top;halter,racerback,tie-up,party top,must have, Encrypt,party,winter,gathers,easy fit,floral print,winter florals,only,vero moda,mango,fab alley,chumbak,elle,marie claire,must have,trend,fashion;zerotype;;Fall;;No
2360337;0917TOP18-Nude Pink-2360337;Ruffled camisole with racer back & knotted sleeve;Draft;Tops;Encrypt;Adults-Women;Women;Pink;Nude;;Fashion;Party;2017;XS,ECPTTOPS00000306,S,ECPTTOPS00000307,M,ECPTTOPS00000308,L,ECPTTOPS00000309;1595.00;<p>Ruffled camisole with racer back & knotted sleeve</p>;<p>The 'Go-to' party top - pair with skinny jeans or tucked in over a skirt & pump heels</p>;<p>Machine wash gentle</p>;<p>Easy fit</p>;;Ruffled camisole with racer back & knotted sleeve;racerback,ruffled,strappy,tie sleeves,sleeve details,camisole,open back,boxy top,sexy back,sting ray,tie waist,2in1,tie-up,party top,must have, Encrypt,party,winter,gathers,easy fit,floral print,winter florals,only,vero moda,mango,fab alley,chumbak,elle,marie claire,must have,trend,fashion;zerotype;;Fall;;No
2360336;0917TOP17-Walnut Brown-2360336;Ruffled, printed camisole with racer back & knotted sleeve;Draft;Tops;Encrypt;Adults-Women;Women;Brown;Coffee Brown;;Fashion;Party;2017;XS,ECPTTOPS00000302,S,ECPTTOPS00000303,M,ECPTTOPS00000304,L,ECPTTOPS00000305;1595.00;<p>Ruffled, printed camisole with racer back & knotted sleeve</p>;<p>The 'Go-to' party top - pair with skinny jeans or tucked in over a skirt & pump heels</p>;<p>Machine wash gentle</p>;<p>Easy fit</p>;;Ruffled, printed camisole with racer back & knotted sleeve;racerback,ruffled,strappy,tie sleeves,sleeve details,camisole,open back,boxy top,sexy back,sting ray,tie waist,2in1,tie-up,party top,must have, Encrypt,party,winter,gathers,easy fit,floral print,winter florals,only,vero moda,mango,fab alley,chumbak,elle,marie claire,must have,trend,fashion;zerotype;;Fall;;No
2360335;0917TOP16-Yellow Ochre-2360335;Stingray top with slit-back & tie-up;Draft;Tops;Encrypt;Adults-Women;Women;Yellow;Tan;Mustard;Fashion;Party;2017;XS,ECPTTOPS00000298,S,ECPTTOPS00000299,M,ECPTTOPS00000300,L,ECPTTOPS00000301;1795.00;<p>Stingray top with slit-back & tie-up</p>;<p>The sexy back printed top. Wear as a high waisted blouson or a low waite length. Dress up with heels.</p>;<p>Machine wash gentle</p>;<p>Boxy fit</p>;;Stingray top with slit-back & tie-up;open back boxy top,sexy back,sting ray,tie waist,2in1,tie-up,party top,must have, Encrypt,party,winter,gathers,easy fit,floral print,winter florals,only,vero moda,mango,fab alley,chumbak,elle,marie claire,must have,trend,fashion;zerotype;;Fall;;No
2360334;0917TOP12-Garnet Red-2360334;Halter tie-neck top;Draft;Tops;Encrypt;Adults-Women;Women;Red;Maroon;;Fashion;Party;2017;XS,ECPTTOPS00000294,S,ECPTTOPS00000295,M,ECPTTOPS00000296,L,ECPTTOPS00000297;1395.00;<p>Halter tie-neck top</p>;<p>The 'Go-to' party top - pair with skinny jeans or over a skirt & pump heels</p>;<p>Machine wash gentle</p>;<p>Fitted at chest, gently flares out</p>;;Halter tie-neck top;halter,racerback,tie-up,party top,must have, Encrypt,party,winter,gathers,easy fit,floral print,winter florals,only,vero moda,mango,fab alley,chumbak,elle,marie claire,must have,trend,fashion;zerotype;;Fall;;No
2356981;1971007004-Rose Taupe-2356981;onlVIVO SL VVT DRESS WVN, Rose Taupe, XL;Draft;Dresses;ONLY;Adults-Women;Women;Peach;;;Fashion;;2017;XS,ONLYDRSS00003629,S,ONLYDRSS00003630,M,ONLYDRSS00003631,L,ONLYDRSS00003632,XL,ONLYDRSS00003633;3699.00;;;<p>Wash dark colors separately</p>;;;;;zerotype;;Winter;;No
2356979;1976262006-Black-2356979;onlSIGNE L/S DRESS KNT, Black, XL;Draft;Dresses;ONLY;Adults-Women;Women;Black;;;Fashion;;2017;XS,ONLYDRSS00003619,S,ONLYDRSS00003620,M,ONLYDRSS00003621,L,ONLYDRSS00003622,XL,ONLYDRSS00003623;2499.00;;;<p>Wash dark colors separately</p>;;;;;zerotype;;Winter;;No
2356974;1967866011-Black-2356974;onlVALERIE L/S BODYCON DRESS, Black, XL;Draft;Dresses;ONLY;Adults-Women;Women;Black;;;Fashion;;2017;XS,ONLYDRSS00003594,S,ONLYDRSS00003595,M,ONLYDRSS00003596,L,ONLYDRSS00003597,XL,ONLYDRSS00003598;2299.00;;;<p>Wash dark colors separately</p>;;;;;zerotype;;Winter;;No
2356971;1957398015-Sky Captain-2356971;onlBROOKE NYLON JACKET, Sky Captain, XL;Draft;Jackets;ONLY;Adults-Women;Women;Blue;;;Fashion;;2017;XS,ONLYJCKT00002253,S,ONLYJCKT00002254,M,ONLYJCKT00002255,L,ONLYJCKT00002256,XL,ONLYJCKT00002257;3699.00;;;<p>Wash inside out</p>;;;;;zerotype;;Winter;;No
2356970;1957398012-Scarlet Sage-2356970;onlBROOKE NYLON JACKET, Scarlet Sage, XL;Draft;Jackets;ONLY;Adults-Women;Women;Orange;;;Fashion;;2017;XS,ONLYJCKT00002248,S,ONLYJCKT00002249,M,ONLYJCKT00002250,L,ONLYJCKT00002251,XL,ONLYJCKT00002252;3699.00;;;<p>Wash inside out</p>;;;;;zerotype;;Winter;;No
2356967;1967886005-Cinder-2356967;onlANN FAUX LEATHER MET. BIK, Cinder, 42;Draft;Jackets;ONLY;Adults-Women;Women;Grey;;;Fashion;;2017;34,ONLYJCKT00002233,36,ONLYJCKT00002234,38,ONLYJCKT00002235,40,ONLYJCKT00002236,42,ONLYJCKT00002237;4499.00;;;<p>Wash inside out</p>;;;;;zerotype;;Winter;;No
2356958;1971000004-Silver-2356958;onlVEE SL J/S WVN;Draft;Jumpsuit;ONLY;Adults-Women;Women;Grey;;;Fashion;;2017;XS,ONLYJMST00000310,S,ONLYJMST00000311,M,ONLYJMST00000312,L,ONLYJMST00000313,XL,ONLYJMST00000314;3299.00;;;<p>Wash inside out</p>;;;;;zerotype;;Winter;;No
2356952;1968941002-Sky Captain-2356952;onlSOUND L/S O-NECK SWT, Sky Captain, XL;Draft;Sweatshirts;ONLY;Adults-Women;Women;Blue;;;Fashion;;2017;XS,ONLYSWSH00001070,S,ONLYSWSH00001071,M,ONLYSWSH00001072,L,ONLYSWSH00001073,XL,ONLYSWSH00001074;1999.00;;;<p>Wash dark colors separately</p>;;;;;zerotype;;Fall;;No
2356935;1974036004-Rose Dawn-2356935;onlSOUP 7-8S PULLOVER KNT, Rose Dawn, XL;Draft;Sweaters;ONLY;Adults-Women;Women;Peach;;;Fashion;;2017;XS,ONLYSWTR00002998,S,ONLYSWTR00002999,M,ONLYSWTR00003000,L,ONLYSWTR00003001,XL,ONLYSWTR00003002;2299.00;;;<p>Wash dark colors separately</p>;;;;;zerotype;;Winter;;No
2356934;1978217004-Peacoat-2356934;onlDESIR LS PULLOVER-IN, Peacoat, XL;Draft;Sweaters;ONLY;Adults-Women;Women;Blue;;;Fashion;;2017;XS,ONLYSWTR00002993,S,ONLYSWTR00002994,M,ONLYSWTR00002995,L,ONLYSWTR00002996,XL,ONLYSWTR00002997;2299.00;;;<p>Wash dark colors separately</p>;;;;;zerotype;;Winter;;No
2356931;1961051005-Black-2356931;JDYCAKE L/S CARDIGAN KNT, Black, XL;Draft;Sweaters;ONLY;Adults-Women;Women;Black;;;Fashion;;2017;XS,ONLYSWTR00002978,S,ONLYSWTR00002979,M,ONLYSWTR00002980,L,ONLYSWTR00002981,XL,ONLYSWTR00002982;1999.00;;;<p>Wash dark colors separately</p>;;;;;zerotype;;Winter;;No
2356929;1976110006-Cloud Dancer-2356929;onlLAVIE 7/8 PULLOVER, Cloud Dancer, XL;Draft;Sweaters;ONLY;Adults-Women;Women;White;;;Fashion;;2017;XS,ONLYSWTR00002968,S,ONLYSWTR00002969,M,ONLYSWTR00002970,L,ONLYSWTR00002971,XL,ONLYSWTR00002972;2699.00;;;<p>Wash dark colors separately</p>;;;;;zerotype;;Winter;;No
2356923;1967860006-Sky Captain-2356923;onlSHEN L/S MIX PULLOVE, Sky Captain, XL;Draft;Sweaters;ONLY;Adults-Women;Women;Blue;;;Fashion;;2017;XS,ONLYSWTR00002938,S,ONLYSWTR00002939,M,ONLYSWTR00002940,L,ONLYSWTR00002941,XL,ONLYSWTR00002942;3299.00;;;<p>Wash dark colors separately</p>;;;;;zerotype;;Winter;;No
2356920;1973885006-Black-2356920;onlNAPOLI L/S ONECK BOX SWT, Black, XL;Draft;Sweaters;ONLY;Adults-Women;Women;Black;;;Fashion;;2017;XS,ONLYSWTR00002923,S,ONLYSWTR00002924,M,ONLYSWTR00002925,L,ONLYSWTR00002926,XL,ONLYSWTR00002927;2299.00;;;<p>Wash dark colors separately</p>;;;;;zerotype;;Winter;;No
2326069;76ICA-CLASSIC CREAM-2326069;IND FRANCAISE TEE;Draft;Tshirts;French Connection;Adults-Women;Women;Cream;;;Fashion;;2017;8,FCONTSHT00007347,10,FCONTSHT00007348,12,FCONTSHT00007349,14,FCONTSHT00007350,16,FCONTSHT00007351;1699.00;;;<p>Machine wash</p>;;;;;zerotype;;Winter;;No
2309467;RMJ-19-Indigo-2309467;Men Denim Bottom;Active;Jeans;HERE&NOW;Adults-Men;Men;Blue;;;Fashion;Casual;2017;28,HENWJENS00004718,30,HENWJENS00004719,32,HENWJENS00004720,34,HENWJENS00004721,36,HENWJENS00004722;2199.00;Blue medium wash 5-pocket mid-rise jeans, clean look with light fade, has a button and zip closure, waistband with belt loops;These slim jeans from HERE&NOW will intensify your personal style statement. Match yours with sneakers and a comfy tee and join your friends for dinner and drinks.;98.5% cotton, 1.5% elastane<br />Machine-wash;Slim fit<br />Stretchable<br />The model (height 6') is wearing a size 32;;HERE&NOW Men Blue Slim Fit Mid-Rise Clean Look Cropped Stretchable Jeans;HERE&NOW;zerotype;;Fall;;No
2309466;RMJ-18-Indigo-2309466;Men Denim Bottom;Active;Jeans;HERE&NOW;Adults-Men;Men;Blue;;;Fashion;Casual;2017;28,HENWJENS00004713,30,HENWJENS00004714,32,HENWJENS00004715,34,HENWJENS00004716,36,HENWJENS00004717;2199.00;Blue light wash 5-pocket mid-rise jeans, clean look with light fade, has a button and zip closure, waistband with belt loops;These slim jeans from HERE&NOW will intensify your personal style statement. Match yours with sneakers and a comfy tee and join your friends for dinner and drinks.;98.5% cotton, 1.5% elastane<br />Machine-wash;Slim fit<br />Stretchable<br />The model (height 6') is wearing a size 32;;HERE&NOW Men Blue Slim Fit Mid-Rise Clean Look Stretchable Jeans;HERE&NOW;zerotype;;Fall;;No
2309464;RMJ-16-Indigo-2309464;Men Denim Bottom;Active;Jeans;HERE&NOW;Adults-Men;Men;Blue;;;Fashion;Casual;2017;28,HENWJENS00004703,30,HENWJENS00004704,32,HENWJENS00004705,34,HENWJENS00004706,36,HENWJENS00004707;2199.00;Blue medium wash 5-pocket mid-rise jeans, clean look with light fade, has a button and zip closure, waistband with belt loops;These slim jeans from HERE&NOW will intensify your personal style statement. Match yours with sneakers and a comfy tee and join your friends for dinner and drinks.;98.5% cotton, 1.5% elastane<br />Machine-wash;Slim fit<br />Stretchable<br />The model (height 6') is wearing a size 32;;HERE&NOW Men Blue Slim Fit Mid-Rise Clean Look Cropped Stretchable Jeans;HERE&NOW;zerotype;;Fall;;No
2309463;RMJ-15-Indigo-2309463;Men Denim Bottom;Active;Jeans;HERE&NOW;Adults-Men;Men;Blue;;;Fashion;Casual;2017;28,HENWJENS00004698,30,HENWJENS00004699,32,HENWJENS00004700,34,HENWJENS00004701,36,HENWJENS00004702;2199.00;Blue medium wash 5-pocket mid-rise jeans, clean look with light fade, has a button and zip closure, waistband with belt loops;These slim jeans from HERE&NOW will intensify your personal style statement. Match yours with sneakers and a comfy tee and join your friends for dinner and drinks.;98.5% cotton, 1.5% elastane<br />Machine-wash;Slim fit<br />Stretchable<br />The model (height 6') is wearing a size 32;;HERE&NOW Men Blue Slim Fit Mid-Rise Clean Look Cropped Stretchable Jeans;HERE&NOW;zerotype;;Fall;;No
2304251;9103247-YELLOW-2304251;S18LCORE08;Draft;Tops;Splash;Adults-Women;Women;;;;Fashion;;2017;L,SPLSTOPS00001912,XL,SPLSTOPS00001913,XS,SPLSTOPS00001914,S,SPLSTOPS00001915,M,SPLSTOPS00001916;599.00;;;<p>Cotton_95% Elastane_5%</p>;;;;;zerotype;;Spring;;No
2304235;9103223-RED-2304235;S18CHTUN09;Draft;Tops;Splash;Adults-Women;Women;;;;Fashion;;2017;6,SPLSTOPS00001832,8,SPLSTOPS00001833,10,SPLSTOPS00001834,12,SPLSTOPS00001835,14,SPLSTOPS00001836;899.00;;;<p>Viscose_95% Elastane_5%</p>;;;;;zerotype;;Spring;;No
2304228;9103212-BROWN-2304228;S18CHTUN07;Draft;Tops;Splash;Adults-Women;Women;;;;Fashion;;2017;6,SPLSTOPS00001797,8,SPLSTOPS00001798,10,SPLSTOPS00001799,12,SPLSTOPS00001800,14,SPLSTOPS00001801;899.00;;;<p>Viscose_95% Elastane_5%</p>;;;;;zerotype;;Spring;;No
2304173;5406663-BLACK-2304173;SP18VPRINTUN;Draft;Tops;Splash;Adults-Women;Women;;;;Fashion;;2017;16,SPLSTOPS00001521,8,SPLSTOPS00001522,10,SPLSTOPS00001523,12,SPLSTOPS00001524,14,SPLSTOPS00001525;999.00;;;<p>Viscose_100%</p>;;;;;zerotype;;Spring;;No
2304165;5406655-BLACK-2304165;SP18VLONGSHT;Draft;Tops;Splash;Adults-Women;Women;;;;Fashion;;2017;16,SPLSTOPS00001481,8,SPLSTOPS00001482,10,SPLSTOPS00001483,12,SPLSTOPS00001484,14,SPLSTOPS00001485;999.00;;;<p>Viscose_100%</p>;;;;;zerotype;;Spring;;No
2304154;5406630-CREAM-2304154;SP18VFFPRTBL;Draft;Tops;Splash;Adults-Women;Women;;;;Fashion;;2017;16,SPLSTOPS00001426,8,SPLSTOPS00001427,10,SPLSTOPS00001428,12,SPLSTOPS00001429,14,SPLSTOPS00001430;1499.00;;;<p>Rayon_100%</p>;;;;;zerotype;;Spring;;No
2304151;3410386-BLUE-2304151;SS18TEE01;Draft;Tops;Splash;Adults-Women;Women;;;;Fashion;;2017;L,SPLSTOPS00001411,XL,SPLSTOPS00001412,XS,SPLSTOPS00001413,S,SPLSTOPS00001414,M,SPLSTOPS00001415;1299.00;;;<p>Cotton_75% Polyester_25%</p>;;;;;zerotype;;Spring;;No
2304149;3410363-BLUE-2304149;AW17H4TOP2;Draft;Tops;Splash;Adults-Women;Women;;;;Fashion;;2017;L,SPLSTOPS00001401,XL,SPLSTOPS00001402,XS,SPLSTOPS00001403,S,SPLSTOPS00001404,M,SPLSTOPS00001405;1299.00;;;<p>Cotton_60% Polyester_40%</p>;;;;;zerotype;;Spring;;No
2304148;3410362-BLUE-2304148;AW17H4TOP5;Draft;Tops;Splash;Adults-Women;Women;;;;Fashion;;2017;L,SPLSTOPS00001396,XL,SPLSTOPS00001397,XS,SPLSTOPS00001398,S,SPLSTOPS00001399,M,SPLSTOPS00001400;1299.00;;;<p>Viscose_100%</p>;;;;;zerotype;;Spring;;No
2304147;3410358-BLUE-2304147;SP18ETOP013;Draft;Tops;Splash;Adults-Women;Women;;;;Fashion;;2017;L,SPLSTOPS00001391,XL,SPLSTOPS00001392,XS,SPLSTOPS00001393,S,SPLSTOPS00001394,M,SPLSTOPS00001395;1299.00;;;<p>Cotton_100%</p>;;;;;zerotype;;Spring;;No
2304146;1014133-GREEN-2304146;CVSP664;Draft;Tops;Splash;Adults-Women;Women;;;;Fashion;;2017;6,SPLSTOPS00001386,8,SPLSTOPS00001387,10,SPLSTOPS00001388,12,SPLSTOPS00001389,14,SPLSTOPS00001390;1299.00;;;<p>Polyester_97% Elastane_3%</p>;;;;;zerotype;;Spring;;No
2304004;5406629-BLUE-2304004;SP18VMXI;Draft;Dresses;Splash;Adults-Women;Women;;;;Fashion;;2017;8,SPLSDRSS00000312,10,SPLSDRSS00000313,12,SPLSDRSS00000314,14,SPLSDRSS00000315,16,SPLSDRSS00000316;1999.00;;;<p>Rayon_100%</p>;;;;;zerotype;;Spring;;No
2303884;9103210-GREY-2303884;S18CHLB07;Draft;Trousers;Splash;Adults-Women;Women;;;;Fashion;;2017;6,SPLSTRSR00000776,8,SPLSTRSR00000777,10,SPLSTRSR00000778,12,SPLSTRSR00000779,14,SPLSTRSR00000780;999.00;;;<p>Cotton_70% Polyester_25% Elastane/spandex_25%</p>;;;;;zerotype;;Spring;;No
2303842;3510939-GREEN-2303842;S18BERL TRS;Draft;Trousers;Splash;Adults-Men;Men;;;;Fashion;;2017;XL,SPLSTRSR00000595,S,SPLSTRSR00000596,M,SPLSTRSR00000597,L,SPLSTRSR00000598;1299.00;;;<p>Cotton_100%</p>;;;;;zerotype;;Spring;;No
2303826;9900894-MULTICOLOR-2303826;JASON;Draft;Shirts;Splash;Adults-Men;Men;;;;Fashion;;2017;M,SPLSSHRT00000318,L,SPLSSHRT00000319,XL,SPLSSHRT00000320,XXL,SPLSSHRT00000321,S,SPLSSHRT00000322;1699.00;;;<p>Cotton_100%</p>;;;;;zerotype;;Spring;;No
2303825;9900893-MULTICOLOR-2303825;JASON;Draft;Shirts;Splash;Adults-Men;Men;;;;Fashion;;2017;M,SPLSSHRT00000313,L,SPLSSHRT00000314,XL,SPLSSHRT00000315,XXL,SPLSSHRT00000316,S,SPLSSHRT00000317;1699.00;;;<p>Cotton_100%</p>;;;;;zerotype;;Spring;;No
2303817;3410304-BLUE-2303817;SPSHK01;Draft;Shirts;Splash;Adults-Men;Men;;;;Fashion;;2017;S,SPLSSHRT00000276,M,SPLSSHRT00000277,L,SPLSSHRT00000278,XL,SPLSSHRT00000279,2XL,SPLSSHRT00000280;1499.00;;;<p>Cotton_100%</p>;;;;;zerotype;;Spring;;No
2301568;8910174-BLACK-2301568;S18CVEST09;Draft;Tshirts;Splash;Adults-Men;Men;Black;;;Fashion;;2017;M,SPLSTSHT00001331,L,SPLSTSHT00001332,XL,SPLSTSHT00001333,S,SPLSTSHT00001334;599.00;;;<p>Cotton_100%</p>;;;;;zerotype;;Spring;;No
2301531;8910083-CREAM-2301531;S18MCORE70;Draft;Tshirts;Splash;Adults-Men;Men;Cream;;;Fashion;;2017;M,SPLSTSHT00001191,L,SPLSTSHT00001192,XL,SPLSTSHT00001193,S,SPLSTSHT00001194;599.00;;;<p>Cotton_98% Polyester_2%</p>;;;;;zerotype;;Spring;;No
2301515;8910068-GREY-2301515;S18MCORE156;Draft;Tshirts;Splash;Adults-Men;Men;Grey;;;Fashion;;2017;M,SPLSTSHT00001135,L,SPLSTSHT00001136,XL,SPLSTSHT00001137,S,SPLSTSHT00001138;599.00;;;<p>Cotton_60% Polyester_40%</p>;;;;;zerotype;;Spring;;No
2301470;5007857-PINK-2301470;EMM006;Draft;Tshirts;Splash;Adults-Men;Men;Pink;;;Fashion;;2017;S,SPLSTSHT00000983,M,SPLSTSHT00000984,L,SPLSTSHT00000985,XL,SPLSTSHT00000986;1499.00;;;<p>Cotton_100%</p>;;;;;zerotype;;Spring;;No
2301469;5007856-BLUE-2301469;EMM006;Draft;Tshirts;Splash;Adults-Men;Men;Blue;;;Fashion;;2017;S,SPLSTSHT00000979,M,SPLSTSHT00000980,L,SPLSTSHT00000981,XL,SPLSTSHT00000982;1499.00;;;<p>Cotton_60% Polyester_40%</p>;;;;;zerotype;;Spring;;No
2301468;5007855-WHITE-2301468;EMM006;Draft;Tshirts;Splash;Adults-Men;Men;White;;;Fashion;;2017;S,SPLSTSHT00000975,M,SPLSTSHT00000976,L,SPLSTSHT00000977,XL,SPLSTSHT00000978;1499.00;;;<p>Cotton_100%</p>;;;;;zerotype;;Spring;;No
2301465;5007853-BEIGE-2301465;EMM004;Draft;Tshirts;Splash;Adults-Men;Men;Beige;;;Fashion;;2017;S,SPLSTSHT00000967,M,SPLSTSHT00000968,L,SPLSTSHT00000969,XL,SPLSTSHT00000970;1499.00;;;<p>Cotton_95% Elastane/spandex_5%</p>;;;;;zerotype;;Spring;;No
2301458;5007715-WHITE-2301458;BEE BADGE;Draft;Tshirts;Splash;Adults-Men;Men;White;;;Fashion;;2017;S,SPLSTSHT00000939,M,SPLSTSHT00000940,L,SPLSTSHT00000941,XL,SPLSTSHT00000942;999.00;;;<p>Cotton_60% Polyester_40%</p>;;;;;zerotype;;Spring;;No
2301456;3511202-GREEN-2301456;EETURN;Draft;Tshirts;Splash;Adults-Men;Men;Green;;;Fashion;;2017;M,SPLSTSHT00000931,L,SPLSTSHT00000932,XL,SPLSTSHT00000933,S,SPLSTSHT00000934;599.00;;;<p>Cotton_100%</p>;;;;;zerotype;;Spring;;No
2301455;3511201-BLUE-2301455;EETURN;Draft;Tshirts;Splash;Adults-Men;Men;Blue;;;Fashion;;2017;M,SPLSTSHT00000927,L,SPLSTSHT00000928,XL,SPLSTSHT00000929,S,SPLSTSHT00000930;599.00;;;<p>Cotton_100%</p>;;;;;zerotype;;Spring;;No
2301443;3510908-PINK-2301443;S18EASY;Draft;Tshirts;Splash;Adults-Men;Men;Pink;;;Fashion;;2017;M,SPLSTSHT00000879,L,SPLSTSHT00000880,XL,SPLSTSHT00000881,S,SPLSTSHT00000882;799.00;;;<p>Cotton_100%</p>;;;;;zerotype;;Spring;;No
2301440;3510904-PURPLE-2301440;S18APPLE;Draft;Tshirts;Splash;Adults-Men;Men;Purple;;;Fashion;;2017;M,SPLSTSHT00000867,L,SPLSTSHT00000868,XL,SPLSTSHT00000869,S,SPLSTSHT00000870;799.00;;;<p>Cotton_100%</p>;;;;;zerotype;;Spring;;No
2301429;3510893-WHITE-2301429;S18DOWNTOWN;Draft;Tshirts;Splash;Adults-Men;Men;White;;;Fashion;;2017;M,SPLSTSHT00000827,L,SPLSTSHT00000828,XL,SPLSTSHT00000829,S,SPLSTSHT00000830;999.00;;;<p>Cotton_100%</p>;;;;;zerotype;;Spring;;No
2301421;3510853-GREY-2301421;S18V CUT;Draft;Tshirts;Splash;Adults-Men;Men;Grey;;;Fashion;;2017;M,SPLSTSHT00000811,L,SPLSTSHT00000812,XL,SPLSTSHT00000813,S,SPLSTSHT00000814;1299.00;;;<p>Cotton_100%</p>;;;;;zerotype;;Spring;;No
2292448;8907482072896-True Red-2292448;JCMWSHS170168;Draft;Shirts;John Players;Adults-Men;Men;;;;Fashion;;2017;39,JOPLSHRT00020356,40,JOPLSHRT00020357,42,JOPLSHRT00020358,44,JOPLSHRT00020359;1399.00;;;<p>CVC</p>;;;;;zerotype;;Summer;;No
2278743;I606-002-PL-Black-2278743;Loop knit-Track Pant-Black;Draft;Lounge Pants;U.S. Polo Assn.;Adults-Men;Men;;;;Core;Casual;2017;S,USPOLNGP00000116,M,USPOLNGP00000117,L,USPOLNGP00000118,XL,USPOLNGP00000119,XXL,USPOLNGP00000120;1199.00;<p>100% Cotton Machine wash cold Premium loop knit fabric Modern fit for perfect comfort Rib fabric waistband with metal riveted flat drawstring Official Licensed Product by US Polo Assn</p>;;<p>Machine Wash Cold</p>;;;;;zerotype;;Summer;;No
2278723;I110-125-PL-Red-2278723;Men's Vest  - Supima Cotton Stretch;Draft;Innerwear Vests;U.S. Polo Assn.;Adults-Men;Men;;;;Core;Casual;2017;S,USPOVEST00000031,M,USPOVEST00000032,L,USPOVEST00000033,XL,USPOVEST00000034;599.00;<p>Fabric - 100% Supima Cotton Premium Supima Cotton spandex fabric with Bio Wash Made from 100% American Pima - Supima Cotton, gives enhanced feel and softness Stretch Fabric for Supreme Comfort Jersey Vest, Style No - I110 Official Licensed Product by US Polo Assn</p>;;<p>Machine Wash Cold</p>;;;;;zerotype;;Summer;;No
2278721;I615-615-PR-Assorted-2278721;COTTON STRETCH JERSEY AOP-Brief-ASSORTED;Draft;Briefs;U.S. Polo Assn.;Adults-Men;Men;;;;Core;Casual;2017;S,USPOBREF00000075,M,USPOBREF00000076,L,USPOBREF00000077,XL,USPOBREF00000078,XXL,USPOBREF00000079;289.00;<p>Product comes in assorted colors. Actual colors might vary for the image shown on the website 95% Cotton and 5% spandex Machine wash cold Made in IndiaOfficial Licensed Product by US Polo Assn</p>;;<p>Machine Wash Cold</p>;;;;;zerotype;;Summer;;No
2277684;PILK200060-GR-MELAN-2277684;DIMMA SS;Draft;Tshirts;Pepe Jeans;Adults-Women;Women;Grey;;;Fashion;;2017;S,PEJETSHT00016241,M,PEJETSHT00016242,L,PEJETSHT00016243,XL,PEJETSHT00016244;1599.00;;;<p>100% COTTON</p>;;;;;zerotype;;Winter;;No
2277677;PILK200037-WHITE-2277677;LUCY SS;Draft;Tshirts;Pepe Jeans;Adults-Women;Women;White;;;Fashion;;2017;S,PEJETSHT00016214,M,PEJETSHT00016215,L,PEJETSHT00016216,XL,PEJETSHT00016217;999.00;;;<p>100% COTTON</p>;;;;;zerotype;;Winter;;No
2277673;PILK200008-OFF-WHT-2277673;BIBI SS;Draft;Tshirts;Pepe Jeans;Adults-Women;Women;Off White;;;Fashion;;2017;S,PEJETSHT00016198,M,PEJETSHT00016199,L,PEJETSHT00016200,XL,PEJETSHT00016201;999.00;;;<p>100% COTTON</p>;;;;;zerotype;;Winter;;No
2277666;PILT200616-LT-PINK-2277666;RONGE LS;Draft;Jackets;Pepe Jeans;Adults-Women;Women;Pink;;;Fashion;;2017;S,PEJEJCKT00002844,M,PEJEJCKT00002845,L,PEJEJCKT00002846,XL,PEJEJCKT00002847;4699.00;;;<p>100% SPLIT LEATHER</p>;;;;;zerotype;;Winter;;No
2277665;PILT200616-KHAKI-2277665;RONGE LS;Draft;Jackets;Pepe Jeans;Adults-Women;Women;Brown;;;Fashion;;2017;S,PEJEJCKT00002840,M,PEJEJCKT00002841,L,PEJEJCKT00002842,XL,PEJEJCKT00002843;4699.00;;;<p>100% SPLIT LEATHER</p>;;;;;zerotype;;Winter;;No
2277660;PILT200036-LT-PINK-2277660;ZODI LS;Draft;Sweatshirts;Pepe Jeans;Adults-Women;Women;Pink;;;Fashion;;2017;S,PEJESWSH00002545,M,PEJESWSH00002546,L,PEJESWSH00002547,XL,PEJESWSH00002548;2999.00;;;<p>100% COTTON</p>;;;;;zerotype;;Winter;;No
2277659;PILT200036-ASH-2277659;ZODI LS;Draft;Sweatshirts;Pepe Jeans;Adults-Women;Women;Grey;;;Fashion;;2017;S,PEJESWSH00002541,M,PEJESWSH00002542,L,PEJESWSH00002543,XL,PEJESWSH00002544;2999.00;;;<p>100% COTTON</p>;;;;;zerotype;;Winter;;No
2277656;PILT200030-BLACK-2277656;MAX LS;Draft;Sweatshirts;Pepe Jeans;Adults-Women;Women;Black;;;Fashion;;2017;S,PEJESWSH00002529,M,PEJESWSH00002530,L,PEJESWSH00002531,XL,PEJESWSH00002532;1899.00;;;<p>100% COTTON</p>;;;;;zerotype;;Winter;;No
2277655;PILT200030-ASH MELN-2277655;MAX LS;Draft;Sweatshirts;Pepe Jeans;Adults-Women;Women;Grey;;;Fashion;;2017;S,PEJESWSH00002525,M,PEJESWSH00002526,L,PEJESWSH00002527,XL,PEJESWSH00002528;1899.00;;;<p>100% COTTON</p>;;;;;zerotype;;Winter;;No
2277653;PILT200028-BLACK-2277653;ORLA LS;Draft;Sweatshirts;Pepe Jeans;Adults-Women;Women;Black;;;Fashion;;2017;S,PEJESWSH00002517,M,PEJESWSH00002518,L,PEJESWSH00002519,XL,PEJESWSH00002520;2799.00;;;<p>65% POLYESTER, 35% COTTON</p>;;;;;zerotype;;Winter;;No
2277647;PILT200005-YELLOW-2277647;ADORA LS;Draft;Sweatshirts;Pepe Jeans;Adults-Women;Women;Yellow;;;Fashion;;2017;S,PEJESWSH00002493,M,PEJESWSH00002494,L,PEJESWSH00002495,XL,PEJESWSH00002496;2199.00;;;<p>100% COTTON</p>;;;;;zerotype;;Winter;;No
2277641;PILT200005-CORAL-2277641;ADORA LS;Draft;Sweatshirts;Pepe Jeans;Adults-Women;Women;Pink;;;Fashion;;2017;S,PEJESWSH00002469,M,PEJESWSH00002470,L,PEJESWSH00002471,XL,PEJESWSH00002472;2199.00;;;<p>100% COTTON</p>;;;;;zerotype;;Winter;;No
2277633;PILT200001-ASH MELN-2277633;PAMELA LS;Draft;Sweatshirts;Pepe Jeans;Adults-Women;Women;Grey;;;Fashion;;2017;S,PEJESWSH00002437,M,PEJESWSH00002438,L,PEJESWSH00002439,XL,PEJESWSH00002440;1999.00;;;<p>100% COTTON</p>;;;;;zerotype;;Winter;;No
2277625;PILT200316-DEEP-RED-2277625;BLISTER LS;Draft;Sweaters;Pepe Jeans;Adults-Women;Women;Red;;;Fashion;;2017;S,PEJESWTR00002140,M,PEJESWTR00002141,L,PEJESWTR00002142,XL,PEJESWTR00002143;3299.00;;;<p>100% ACRYLIC</p>;;;;;zerotype;;Winter;;No
2269684;50009938996004-NAVY-2269684;PINNA-S-IR52551-16S1, 42, NAVY;Draft;Tshirts;Indigo Nation;Adults-Men;Men;Navy Blue;;;Fashion;;2017;38,INNATSHT00100203,39,INNATSHT00100204,42,INNATSHT00100205;1299.00;;;<p>100% cotton wash dark colors separately, hand wash or machine, wash cold, use mild detergent, tumble dry low, dry in shade, do not bleach, warm iron</p>;;;;;zerotype;;Fall;;No
2269683;50009938995004-GREY-2269683;PINNA-S-IR52541-16S1, 42, GREY;Draft;Tshirts;Indigo Nation;Adults-Men;Men;Grey;;;Fashion;;2017;38,INNATSHT00100199,39,INNATSHT00100200,40,INNATSHT00100201,42,INNATSHT00100202;1199.00;;;<p>100% cotton wash dark colors separately, hand wash or machine, wash cold, use mild detergent, tumble dry low, dry in shade, do not bleach, warm iron</p>;;;;;zerotype;;Fall;;No
2269680;50009938968004-PINK-2269680;PINNA-S-IR52471-16S1, 42, PINK;Draft;Tshirts;Indigo Nation;Adults-Men;Men;Pink;;;Fashion;;2017;39,INNATSHT00100190,40,INNATSHT00100191,42,INNATSHT00100192;1199.00;;;<p>100% cotton wash dark colors separately, hand wash or machine, wash cold, use mild detergent, tumble dry low, dry in shade, do not bleach, warm iron</p>;;;;;zerotype;;Fall;;No
2255754;CMOB00662-V5-Purple-2255754;CLASSIC FIT-SLVLESS-WOOL NEHRU VEST;Draft;Jackets;ColorPlus;Adults-Men;Men;Purple;;;Fashion;;2016;00L,CRPSJCKT00000739,00M,CRPSJCKT00000740,00S,CRPSJCKT00000741,0XL,CRPSJCKT00000742,2XL,CRPSJCKT00000743,3XL,CRPSJCKT00000744;5899.00;;;<p>DRY CLEAN ONLY</p>;<p>Classic Fit</p>;;;workwear-styles;zerotype;;Winter;workwear-styles;No
2255751;CMOA00650-K8-Black-2255751;CLASSIC FIT-FS-4 IN 1 JACKET;Draft;Jackets;ColorPlus;Adults-Men;Men;Black;;;Fashion;;2016;00L,CRPSJCKT00000722,00M,CRPSJCKT00000723,00S,CRPSJCKT00000724,0XL,CRPSJCKT00000725,2XL,CRPSJCKT00000726;9899.00;;;<p>DRY CLEAN ONLY</p>;<p>Classic Fit</p>;;;workwear-styles;zerotype;;Winter;workwear-styles;No
2255747;CMOA00603-BE-Navy Blue-2255747;AW15-ACTIVE-03;Draft;Jackets;ColorPlus;Adults-Men;Men;Navy Blue;;;Fashion;;2015;00L,CRPSJCKT00000702,00M,CRPSJCKT00000703,0XL,CRPSJCKT00000704;5995.00;;;<p>DRY CLEAN ONLY</p>;<p>Classic Fit</p>;;;workwear-styles;zerotype;;Winter;workwear-styles;No
2255641;RCYX00062-B3-Blue-2255641;STYLISED FRNT PKT INR W/B DTAIL-CONTP FT;On Hold - Sample;Jeans;Raymond;Adults-Men;Men;Blue;;;Fashion;;2016;112,RYMDJENS00000110,116,RYMDJENS00000111,76,RYMDJENS00000112,82,RYMDJENS00000113,84,RYMDJENS00000114,86,RYMDJENS00000115,92,RYMDJENS00000116,96,RYMDJENS00000117;2499.00;;;<p>MACHINE WASH WARM GENTLE CYCLE</p>;;;;workwear-styles;zerotype;;Summer;workwear-styles;No
2255640;RCYX00057-K7-Black-2255640;FF  C&S COIN PKT INR W/B DTAIL- CNTP FT;On Hold - Sample;Jeans;Raymond;Adults-Men;Men;Black;;;Fashion;;2016;100,RYMDJENS00000102,112,RYMDJENS00000103,116,RYMDJENS00000104,82,RYMDJENS00000105,84,RYMDJENS00000106,86,RYMDJENS00000107,92,RYMDJENS00000108,96,RYMDJENS00000109,30,RYMDJENS00000118,42,RYMDJENS00000119;2499.00;;;<p>MACHINE WASH WARM GENTLE CYCLE</p>;;;;workwear-styles;zerotype;;Summer;workwear-styles;No
2255634;PCYA00432-B4-Blue-2255634;BASIC REGULAR FIVE PKT DENIM JEANS;Draft;Jeans;Park Avenue;Adults-Men;Men;Blue;;;Fashion;;2016;30,PKAVJENS00001083,32,PKAVJENS00001084,34,PKAVJENS00001085,36,PKAVJENS00001086,38,PKAVJENS00001087;2699.00;;;<p>MACHINE WASH WARM GENTLE CYCLE</p>;;;;workwear-styles;zerotype;;Winter;workwear-styles;No
2255558;RQSZ00070-W0-White-2255558;F/S PLEATED MANDARIN CLR-CONT FIT;Draft;Shirts;Raymond;Adults-Men;Men;White;;;Fashion;;2016;39,RYMDSHRT00009414,40,RYMDSHRT00009415,42,RYMDSHRT00009416,44,RYMDSHRT00009417;3499.00;;;<p>MACHINE WASH WARM GENTLE CYCLE, WASH DARK COLORS SEPARATELY</p>;;;;workwear-styles;zerotype;;Winter;workwear-styles;No
2255557;RQSX00035-W0-White-2255557;F/S BIB WITH PIN TUCKS TUXDO CNTP FIT;Draft;Shirts;Raymond;Adults-Men;Men;White;;;Fashion;;2016;40,RYMDSHRT00009410,42,RYMDSHRT00009411,44,RYMDSHRT00009412,46,RYMDSHRT00009413;2999.00;;;<p>MACHINE WASH WARM GENTLE CYCLE, WASH DARK COLORS SEPARATELY</p>;;;;workwear-styles;zerotype;;Winter;workwear-styles;No
2255542;RISX00165-W0-White-2255542;F/S MANDRIN CLR SHRT CNTP FIT;Draft;Shirts;Raymond;Adults-Men;Men;White;;;Fashion;;2016;39,RYMDSHRT00009348,40,RYMDSHRT00009349,42,RYMDSHRT00009350,44,RYMDSHRT00009351;1999.00;;;<p>MACHINE WASH WARM GENTLE CYCLE, WASH DARK COLORS SEPARATELY</p>;;;;workwear-styles;zerotype;;Winter;workwear-styles;No
2255521;PCWB00010-O5-Brown-2255521;SLEEVELESS CARDIGAN  WITH POCKET;On Hold - Sample;Sweaters;Park Avenue;Adults-Men;Men;Brown;;;Fashion;;2015;39,PKAVSWTR00001797,40,PKAVSWTR00001798,42,PKAVSWTR00001799,44,PKAVSWTR00001800;1699.00;;;<p>DRY CLEAN ONLY</p>;;;;workwear-styles;zerotype;;Winter;Broken size;No
2255520;PCWB00009-R5-Red-2255520;V-NECK SLEEVELESS  PULLOVER;Draft;Sweaters;Park Avenue;Adults-Men;Men;Red;;;Fashion;;2015;39,PKAVSWTR00001793,40,PKAVSWTR00001794,42,PKAVSWTR00001795,44,PKAVSWTR00001796,46,PKAVSWTR00002208;1599.00;;;<p>HAND WASH WITH MILD DETERGENT</p>;;;;workwear-styles;zerotype;;Winter;workwear-styles;No
2249035;USSH4442-DARK INDIGO-2249035;DARK INDIGO MENS SHIRT;On Hold - Sample;Shirts;U.S. Polo Assn. Denim Co.;Adults-Men;Men;;;;Fashion;;2016;3XLFS,USPOSHRT00009099,L  FS,USPOSHRT00009100,M  FS,USPOSHRT00009101,S  FS,USPOSHRT00009102,XL FS,USPOSHRT00009103,XXLFS,USPOSHRT00009104;2399.00;;;;;;;;zerotype;;Summer;Broken size;No
2239212;864467-677-TEAM RED/UNIVERSITY GOLD/COLLEGE NAVY-2239212;CLE M NK SWGMN JSY ROAD;Draft;Tshirts;Nike;Adults-Men;Men;;;;Fashion;;2017;2XL,NIKETSHT00115064,L,NIKETSHT00115065,M,NIKETSHT00115066,S,NIKETSHT00115067,XL,NIKETSHT00115068;4995.00;;;<p>100% POLYESTER</p>;;;;sportsallstyles-2017,all-sports-styles-2017;zerotype;;Winter;sportsallstyles-2017;No
2203850;50009927540003-OFF WHITE-2203850;PJC21-S-cW06151-16S1, 38, OFF WHITE;On Hold - Sample;Tops;Jealous 21;Adults-Women;Women;Off White;;;Fashion;;2017;34,JELSTOPS00104209,36,JELSTOPS00104210,38,JELSTOPS00104211;1499.00;;;<p>Machine/Hand wash separately, Do not bleach, Do not wring, Dry in shade, Medium iron, Use mild detergent only</p>;;;;;zerotype;;Fall;Broken size;No
2201973;USSHC0047-Blue-2201973;Mens-Shirt-FS-Blue;On Hold - Sample;Shirts;U.S. Polo Assn.;Adults-Men;Men;;;;Fashion;;2017;3XL,USPOSHRT00008942,L,USPOSHRT00008943,M,USPOSHRT00008944,S,USPOSHRT00008945,XL,USPOSHRT00008946,XS,USPOSHRT00008947,XXL,USPOSHRT00008948;1999.00;;;<p>Machine wash cold</p>;;;;uspa-aw17-all,uspa-classic-shirts;zerotype;;Fall;Broken size;No
2201908;USSHC0046-Yellow-2201908;Mens-Shirt-FS-Yellow;On Hold - Sample;Shirts;U.S. Polo Assn.;Adults-Men;Men;;;;Core;;2017;S,USPOSHRT00008597,M,USPOSHRT00008598,L,USPOSHRT00008599,XL,USPOSHRT00008600,XXL,USPOSHRT00008601,3XL,USPOSHRT00008602;1999.00;;;<p>WASH CARE LABEL</p>;;;;uspa-aw17-all,uspa-classic-shirts;zerotype;;Fall;Broken size;No
2201079;USTS2566-AMBER-2201079;MENS T SHIRT-HALF SLEEVE-AMBER;Draft;Tshirts;U.S. Polo Assn. Denim Co.;Adults-Men;Men;;;;Fashion;;2017;3XL,USPOTSHT00007187,L,USPOTSHT00007188,M,USPOTSHT00007189,S,USPOTSHT00007190,XL,USPOTSHT00007191,XXL,USPOTSHT00007192;1399.00;;;<p>Machine wash cold</p>;;;;uspa-aw17-all;zerotype;;Fall;uspa-aw17-all;No
2201078;USTS2565-Pink-2201078;MENS T SHIRT-HALF SLEEVE-PERSIMMON;Draft;Tshirts;U.S. Polo Assn. Denim Co.;Adults-Men;Men;;;;Fashion;;2017;3XL,USPOTSHT00007181,L,USPOTSHT00007182,M,USPOTSHT00007183,S,USPOTSHT00007184,XL,USPOTSHT00007185,XXL,USPOTSHT00007186;1399.00;;;<p>Machine wash cold</p>;;;;uspa-aw17-all;zerotype;;Fall;uspa-aw17-all;No
2201077;USTS2564-GREEN-2201077;MENS T SHIRT-HALF SLEEVE-TREKKING GREEN;Draft;Tshirts;U.S. Polo Assn. Denim Co.;Adults-Men;Men;;;;Fashion;;2017;3XL,USPOTSHT00007175,L,USPOTSHT00007176,M,USPOTSHT00007177,S,USPOTSHT00007178,XL,USPOTSHT00007179,XXL,USPOTSHT00007180;1399.00;;;<p>Machine wash cold</p>;;;;uspa-aw17-all;zerotype;;Fall;uspa-aw17-all;No
2201076;USTS2563-IVORY-2201076;MENS T SHIRT-HALF SLEEVE-IVORY;Draft;Tshirts;U.S. Polo Assn. Denim Co.;Adults-Men;Men;;;;Fashion;;2017;3XL,USPOTSHT00007169,L,USPOTSHT00007170,M,USPOTSHT00007171,S,USPOTSHT00007172,XL,USPOTSHT00007173,XXL,USPOTSHT00007174;1399.00;;;<p>Machine wash cold</p>;;;;uspa-aw17-all;zerotype;;Fall;uspa-aw17-all;No
2200596;UDJC0037-BLUE-2200596;DENIM BRANDONSLIMTAPD LIGHTER WASH BLUE;Draft;Jeans;U.S. Polo Assn. Denim Co.;Adults-Men;Men;;;;Core;;2017;28,USPOJENS00002455,30,USPOJENS00002456,32,USPOJENS00002457,34,USPOJENS00002458,36,USPOJENS00002459,38,USPOJENS00002460,40,USPOJENS00002461;2499.00;;;<p>WASH CARE LABEL</p>;;;;uspa-aw17-all;zerotype;;Fall;uspa-aw17-all;No
2200593;UDJC0035-BLUE-2200593;DENIM BRANDONSLIMTAPD LOOPING WSH BLUBLK;Draft;Jeans;U.S. Polo Assn. Denim Co.;Adults-Men;Men;;;;Core;;2017;28,USPOJENS00002441,30,USPOJENS00002442,32,USPOJENS00002443,34,USPOJENS00002444,36,USPOJENS00002445,38,USPOJENS00002446,40,USPOJENS00002447;2299.00;;;<p>WASH CARE LABEL</p>;;;;uspa-aw17-all;zerotype;;Fall;uspa-aw17-all;No
2200591;UDJC0032-BLACK-2200591;DENIM BRANDONSLIMTAPD BLACK;Draft;Jeans;U.S. Polo Assn. Denim Co.;Adults-Men;Men;;;;Core;;2017;28,USPOJENS00002427,30,USPOJENS00002428,32,USPOJENS00002429,34,USPOJENS00002430,36,USPOJENS00002431,38,USPOJENS00002432,40,USPOJENS00002433;2199.00;;;<p>WASH CARE LABEL</p>;;;;uspa-aw17-all;zerotype;;Fall;uspa-aw17-all;No
2200590;UDJC0031-BLUE-2200590;DENIM BRANDONSLIMTAPD WHITE;Draft;Jeans;U.S. Polo Assn. Denim Co.;Adults-Men;Men;;;;Core;;2017;28,USPOJENS00002420,30,USPOJENS00002421,32,USPOJENS00002422,34,USPOJENS00002423,36,USPOJENS00002424,38,USPOJENS00002425,40,USPOJENS00002426;1999.00;;;<p>WASH CARE LABEL</p>;;;;uspa-aw17-all;zerotype;;Fall;uspa-aw17-all;No
2200581;UDJC0022-BLACK-2200581;DENIM REGALLO  SKINNY DK WASH BLUE/BLACK;Draft;Jeans;U.S. Polo Assn. Denim Co.;Adults-Men;Men;;;;Core;;2017;28,USPOJENS00002357,30,USPOJENS00002358,32,USPOJENS00002359,34,USPOJENS00002360,36,USPOJENS00002361,38,USPOJENS00002362,40,USPOJENS00002363;1999.00;;;<p>WASH CARE LABEL</p>;;;;uspa-aw17-all;zerotype;;Fall;uspa-aw17-all;No
2181886;1949781001-Oatmeal-2181886;VMHONG FLAP BAG, Oatmeal, One Size;Draft;Handbags;Vero Moda;Adults-Women;Women;;;;Fashion;;2017;Onesize,VEMOHDBG00000086;2299.00;;;;;;;best-msd,bs-nov-40,bestb1g1,bs-flat-40;zerotype;;Winter;bs-flat-40;No
2181885;1959674004-Navy Blazer-2181885;VMSHIRLEY JEANS BELT, Navy Blazer, 95 cm;Draft;Belts;Vero Moda;Adults-Women;Women;;;;Fashion;;2017;95,VEMOBELT00000125;799.00;;;;;;;;zerotype;;Winter;;No
2181884;1959674003-Navy Blazer-2181884;VMSHIRLEY JEANS BELT, Navy Blazer, 85 cm;Draft;Belts;Vero Moda;Adults-Women;Women;;;;Fashion;;2017;85,VEMOBELT00000124;799.00;;;;;;;;zerotype;;Winter;;No
2181883;1959674002-Navy Blazer-2181883;VMSHIRLEY JEANS BELT, Navy Blazer, 80 cm;Draft;Belts;Vero Moda;Adults-Women;Women;;;;Fashion;;2017;80,VEMOBELT00000123;799.00;;;;;;;;zerotype;;Winter;;No
2181882;1959674001-Navy Blazer-2181882;VMSHIRLEY JEANS BELT, Navy Blazer, 90 cm;Draft;Belts;Vero Moda;Adults-Women;Women;;;;Fashion;;2017;90,VEMOBELT00000122;799.00;;;;;;;;zerotype;;Winter;;No
2178524;HRXSS18-4672G-Green-2178524;Jasmine-HRX-4672;Active;Caps;HRX by Hrithik Roshan;Adults-Men;Men;Green;;;Fashion;Casual;2017;ONESIZE,HBHRCAPS00000049;999.00;<a href='/green?src=pd' class='seolink'>Green</a> <a href='/solid?src=pd' class='seolink'>solid</a> baseball <a href='/cap?src=pd' class='seolink'>cap</a>, has a visor;Flaunt this cap from HRX by Hrithik Roshan when you are out with your friends. It will look good with your casual outfits.;Fabric<br />Machine-wash;;;HRX by Hrithik Roshan Men Green Solid Baseball Cap;HRX by Hrithik Roshan,lta-all-2017,coupon-offer-dec2017,streetstyle-ready,mitm-jan-18;zerotype;;Fall;add;No
2178520;HRXSS18-4672Y-Yellow-2178520;Jasmine-HRX-4672;Active;Caps;HRX by Hrithik Roshan;Adults-Men;Men;Yellow;;;Fashion;Casual;2017;ONESIZE,HBHRCAPS00000045;999.00;<a href='/yellow?src=pd' class='seolink'>Yellow</a> <a href='/solid?src=pd' class='seolink'>solid</a> baseball <a href='/cap?src=pd' class='seolink'>cap</a>, has a visor;Flaunt this cap from HRX by Hrithik Roshan when you are out with your friends. It will look good with your casual outfits.;Fabric<br />Machine-wash;;;HRX by Hrithik Roshan Men Yellow Solid Baseball Cap;HRX by Hrithik Roshan,lta-all-2017,coupon-offer-dec2017;zerotype;;Fall;MFB;No
2178514;HRXSS18-4543W-White-2178514;Jasmine-HRX-4543;Active;Caps;HRX by Hrithik Roshan;Adults-Men;Men;White;;;Fashion;Casual;2017;ONESIZE,HBHRCAPS00000039;699.00;White <a href='/solid?src=pd' class='seolink'>solid</a> baseball <a href='/cap?src=pd' class='seolink'>cap</a>, has a visor;Flaunt this cap from HRX by Hrithik Roshan when you are out with your friends. It will look good with your casual outfits.;Fabric<br />Machine-wash;;;HRX by Hrithik Roshan Men White Solid Baseball Cap;HRX by Hrithik Roshan,lta-all-2017,coupon-offer-dec2017,streetstyle-ready,mitm-jan-18;zerotype;;Fall;add;No
2162283;INV-AW17S123-Pink Navy-2162283;Invictus Slim Fit Shirt;Draft;Shirts;INVICTUS;Adults-Men;Men;;;;Fashion;;2017;38,TILCSHRT00006467,39,TILCSHRT00006468,40,TILCSHRT00006469,42,TILCSHRT00006470,44,TILCSHRT00006471;2299.00;;;;;;;workwear-styles;zerotype;;Spring;workwear-styles;No
2162162;INV-AW17S151-Red White-2162162;Invictus Slim Fit Shirt;Active;Shirts;INVICTUS;Adults-Men;Men;Red;White;;Fashion;Casual;2017;38,TILCSHRT00006257,39,TILCSHRT00006258,40,TILCSHRT00006259,42,TILCSHRT00006260,44,TILCSHRT00006261;2299.00;Red and white checked casual shirt, has a spread collar, button placket, long sleeves, curved hem;You'll look dapper in this formal shirt from INVICTUS.  Ideal for an upscale business event or party, this red shirt with slim trousers and formal shoes achieves a perfectly polished look.;100% cotton<br />Machine-wash;Slim fit<br />The model (height 6') is wearing a size 40;;INVICTUS Men Red & White Slim Fit Checked Casual Shirt;INVICTUS,workwear-styles;zerotype;;Spring;workwear-styles;No
2162158;INV-AW17S147-Blue White-2162158;Invictus Slim Fit Shirt;Active;Shirts;INVICTUS;Adults-Men;Men;Blue;White;;Fashion;Casual;2017;38,TILCSHRT00006237,39,TILCSHRT00006238,40,TILCSHRT00006239,42,TILCSHRT00006240,44,TILCSHRT00006241;2299.00;Blue and white checked casual shirt, has a spread collar, button placket, long sleeves, curved hem;This in-style shirt from INVICTUS will help you nail a handsome look.  Ideal for an upscale business event or party, this blue shirt with slim trousers and formal shoes achieves a perfectly polished look.;100% cotton<br />Machine-wash;Slim fit<br />The model (height 6') is wearing a size 40;;INVICTUS Men Blue & White Slim Fit Checked Casual Shirt;INVICTUS,workwear-styles;zerotype;;Spring;workwear-styles;No
2060858;DB Dress25330-B-LIGHT BLUE-2060858;Denim Dresses;Draft;Dresses;DressBerry;Adults-Women;Women;;;;Fashion;;2017;XS,DSBYDRSS00007789,S,DSBYDRSS00007790,M,DSBYDRSS00007791,L,DSBYDRSS00007792,XL,DSBYDRSS00007793;1699.00;;;;;;;;zerotype;;Fall;;No
2038090;BLACK ROVER-OD-10-INFINITY-2038090;FS-MACK OD SHIRT;Active;Shirts;Roadster;Adults-Men;Men;Blue;;;Fashion;Casual;2017;S,RDSTSHRT00023151,M,RDSTSHRT00023152,L,RDSTSHRT00023153,XL,RDSTSHRT00023154;1699.00;<a href='/blue?src=pd' class='seolink'>Blue</a> <a href='/solid?src=pd' class='seolink'>solid</a> <a href='/casual?src=pd' class='seolink'>casual</a> shirt, has a <a href='/spread?src=pd' class='seolink'>spread</a> collar, zip, 2 pockets, long sleeves, curved hem;Keep warm on the coldest of days with this top-of-the-line shirt by Roadster.  A pair of sneakers and slim denim are the perfect additions to this blue piece when you're going outside for a day in the park.;100% cotton<br />Machine-wash;Regular fit<br />The model (height 6') is wearing a size 40;;Roadster Men Blue Regular Fit Solid Casual Shirt;Roadster,coupon-offer-dec2017,rdstr-mens-jan22,streetstyle-ready,mitm-jan-18,express-delivery-jan18;zerotype;;Fall;express-delivery-jan18;No
2038088;BLACK ROVER-OD-08-DK OLIVE-2038088;FS-MACK OD SHIRT;Active;Shirts;Roadster;Adults-Men;Men;Olive;;;Fashion;Casual;2017;S,RDSTSHRT00023143,M,RDSTSHRT00023144,L,RDSTSHRT00023145,XL,RDSTSHRT00023146;1699.00;<a href='/olive-green?src=pd' class='seolink'>Olive green</a> <a href='/solid?src=pd' class='seolink'>solid</a> <a href='/casual?src=pd' class='seolink'>casual</a> shirt, has a spread collar, zip, 2 pockets, long sleeves, curved hem;This shirt from Roadster will give you the perfect amount of comfort and durability.  A night at the movies is perfectly well-styled by putting this olive piece with some slim trousers and a fun overshirt.;Cotton<br> Machine-wash;Regular Fit<br> The model (height 6') is wearing a size M;;Roadster Men Olive Green Solid Casual Shirt;Roadster,coupon-offer-dec2017,rdstr-mens-jan22,streetstyle-ready,mitm-jan-18;zerotype;;Fall;add;No
2038086;BLACK ROVER-OD-06-MIDNIGHT-2038086;FS-MACK OD SHIRT;Active;Shirts;Roadster;Adults-Men;Men;Navy Blue;;;Fashion;Casual;2017;S,RDSTSHRT00023135,M,RDSTSHRT00023136,L,RDSTSHRT00023137,XL,RDSTSHRT00023138;1699.00;<a href='/navy-blue?src=pd' class='seolink'>Navy Blue</a> <a href='/solid?src=pd' class='seolink'>solid</a> <a href='/casual?src=pd' class='seolink'>casual</a> shirt, has a <a href='/spread?src=pd' class='seolink'>spread</a> collar, zip, 2 pockets, long sleeves, curved hem;This solid shirt from Roadster will make you look your casual best.  Next time you're going out for drinks with the guys, just put this navy blue piece with a lightweight jacket and chukka boots.;100% cotton<br />Machine-wash;Regular fit<br />The model (height 6') is wearing a size 40;;Roadster Men Navy Blue Regular Fit Solid Casual Shirt;Roadster,coupon-offer-dec2017,rdstr-mens-jan22;zerotype;;Fall;MFB;No
1937171;LPTF516M17314-DarkblueSolid-1937171;LPTF516M17314;On Hold - Sample;Trousers;Louis Philippe;Adults-Men;Men;Brown;;;Fashion;Formal;2017;76.0,LSPLTRSR00001731,82.0,LSPLTRSR00001732,86.0,LSPLTRSR00001733,92.0,LSPLTRSR00001734,96.0,LSPLTRSR00001735,102.0,LSPLTRSR00001736;2299.00;Brown solid mid-rise formal trousers, has a button closure, 4 pockets;These trousers from Louis Philippe will keep you looking trendy all year long.  Wear this brown pair with a Polo T-shirt and easy loafers when you're taking your date out to a nice restaurant.;Other and viscose rayon <br /> Machine-wash;Slim fit<br /> The model (height 6') is wearing a size 32;;Louis Philippe Men Brown Slim Fit Solid Formal Trousers;Louis Philippe,workwear-styles;zerotype;;Summer;Broken size;No
1880425;UKST5260-TANGO RED-1880425;RGLR FIT SHORTS;Draft;Shorts;U.S. Polo Assn. Kids;Kids-Boys;Boys;;;;Fashion;;2017;ES,USPKSHOR00000788,24T,USPKSHOR00000789,36T,USPKSHOR00000790,EXS,USPKSHOR00000791,EES,USPKSHOR00000792,S,USPKSHOR00000793,M,USPKSHOR00000794,L,USPKSHOR00000795,EL,USPKSHOR00000796;1599.00;;;;;;;;zerotype;;Summer;;No
1880424;UKST5259-ME BLUE-1880424;RGLR DENIM ST;Draft;Shorts;U.S. Polo Assn. Kids;Kids-Boys;Boys;;;;Fashion;;2017;ES,USPKSHOR00000779,24T,USPKSHOR00000780,36T,USPKSHOR00000781,EXS,USPKSHOR00000782,EES,USPKSHOR00000783,S,USPKSHOR00000784,M,USPKSHOR00000785,L,USPKSHOR00000786,EL,USPKSHOR00000787;1499.00;;;;;;;;zerotype;;Summer;;No
1486724;8903338053248-Blue-1486724;Oxford Bifold;Draft;Travel Accessory;Wildcraft;Adults-Men;Men;Blue;;;Fashion;Casual;2016;Onesize,WDCTTRAC00000067;695.00;;;<p>Wipe with a clean dry cloth</p>;<p>2in(l) x 6in(w) x 10in(h)</p>;;;lta-all-2017;zerotype;;Winter;lta-all-2017;No
1486704;8903338051985-Black-1486704;Astro;Draft;Travel Accessory;Wildcraft;Adults-Men;Men;Black;;;Fashion;Casual;2016;Onesize,WDCTTRAC00000047;545.00;;;<p>Wipe with a clean dry cloth</p>;<p>3in(l) x 14in(w) x 5in(h)</p>;;;lta-all-2017;zerotype;;Winter;lta-all-2017;No
