Style ID;Vendor Article Number;Vendor Article Name;Active Status;Article type;Brand;Age Group;Gender;Base Colour;Colour1;Colour2;Fashion Type;Usage;Year;Size - SKU code pair;MRP;Style Description;Style Note;Materials and Care Description;Size and Fit Description;Size Chart Path;Product Display Name;Tags;Product Type;Classification Brand;Season;Comments;Upload Images
1943568;CORE 010-Teal-1943568;PINTUCK YOKE ROLL UP SLEEVE ROUNDED HEMLINE KURTA;Draft;Kurtas;ARAH;Adults-Women;Women;;;;Fashion;;2017;XS,ARAHKRTA00000301,S,ARAHKRTA00000302,M,ARAHKRTA00000303,L,ARAHKRTA00000304,XL,ARAHKRTA00000305,XXL,ARAHKRTA00000306;999.00;;;;;;;;zerotype;;Summer;;No
1943567;CORE 010-Off White-1943567;PINTUCK YOKE ROLL UP SLEEVE ROUNDED HEMLINE KURTA;Draft;Kurtas;ARAH;Adults-Women;Women;;;;Fashion;;2017;XS,ARAHKRTA00000295,S,ARAHKRTA00000296,M,ARAHKRTA00000297,L,ARAHKRTA00000298,XL,ARAHKRTA00000299,XXL,ARAHKRTA00000300;999.00;;;;;;;;zerotype;;Summer;;No
1943566;CORE 008-Navy Blue-1943566;COLLAR BAND NECK BELL SLEEVES KURTA;Draft;Kurtas;ARAH;Adults-Women;Women;;;;Fashion;;2017;XS,ARAHKRTA00000289,S,ARAHKRTA00000290,M,ARAHKRTA00000291,L,ARAHKRTA00000292,XL,ARAHKRTA00000293,XXL,ARAHKRTA00000294;1099.00;;;;;;;;zerotype;;Summer;;No
1943565;CORE 008-Mustard-1943565;COLLAR BAND NECK BELL SLEEVES KURTA;Draft;Kurtas;ARAH;Adults-Women;Women;;;;Fashion;;2017;XS,ARAHKRTA00000283,S,ARAHKRTA00000284,M,ARAHKRTA00000285,L,ARAHKRTA00000286,XL,ARAHKRTA00000287,XXL,ARAHKRTA00000288;1099.00;;;;;;;;zerotype;;Summer;;No
1943564;CORE 007-Mustard-1943564;ROUND NECK FRONT PLACKET CONTRAST CUFFS KURTA;Draft;Kurtas;ARAH;Adults-Women;Women;;;;Fashion;;2017;XS,ARAHKRTA00000277,S,ARAHKRTA00000278,M,ARAHKRTA00000279,L,ARAHKRTA00000280,XL,ARAHKRTA00000281,XXL,ARAHKRTA00000282;999.00;;;;;;;;zerotype;;Summer;;No
1943563;CORE 007-Navy Blue-1943563;ROUND NECK FRONT PLACKET CONTRAST CUFFS KURTA;Draft;Kurtas;ARAH;Adults-Women;Women;;;;Fashion;;2017;XS,ARAHKRTA00000271,S,ARAHKRTA00000272,M,ARAHKRTA00000273,L,ARAHKRTA00000274,XL,ARAHKRTA00000275,XXL,ARAHKRTA00000276;999.00;;;;;;;;zerotype;;Summer;;No
1943562;CORE 004-Teal-1943562;BOAT NECK CONTRAST PANEL KURTA;Draft;Kurtas;ARAH;Adults-Women;Women;;;;Fashion;;2017;XS,ARAHKRTA00000265,S,ARAHKRTA00000266,M,ARAHKRTA00000267,L,ARAHKRTA00000268,XL,ARAHKRTA00000269,XXL,ARAHKRTA00000270;999.00;;;;;;;;zerotype;;Summer;;No
1943561;CORE 004-Off White-1943561;BOAT NECK CONTRAST PANEL KURTA;Draft;Kurtas;ARAH;Adults-Women;Women;;;;Fashion;;2017;XS,ARAHKRTA00000259,S,ARAHKRTA00000260,M,ARAHKRTA00000261,L,ARAHKRTA00000262,XL,ARAHKRTA00000263,XXL,ARAHKRTA00000264;999.00;;;;;;;;zerotype;;Summer;;No
1943560;CORE 001-Black-1943560;NEHRU COLLAR ASSYMETRICAL POCKETS 3/4 SLEEVE KURTA;Draft;Kurtas;ARAH;Adults-Women;Women;;;;Fashion;;2017;XS,ARAHKRTA00000253,S,ARAHKRTA00000254,M,ARAHKRTA00000255,L,ARAHKRTA00000256,XL,ARAHKRTA00000257,XXL,ARAHKRTA00000258;999.00;;;;;;;;zerotype;;Summer;;No
1943559;CORE 001-Pink-1943559;NEHRU COLLAR ASSYMETRICAL POCKETS 3/4 SLEEVE KURTA;Draft;Kurtas;ARAH;Adults-Women;Women;;;;Fashion;;2017;XS,ARAHKRTA00000247,S,ARAHKRTA00000248,M,ARAHKRTA00000249,L,ARAHKRTA00000250,XL,ARAHKRTA00000251,XXL,ARAHKRTA00000252;999.00;;;;;;;;zerotype;;Summer;;No
1943558;S512-White-1943558;ROUND NECK KURTA WITH FRONT PLACEMENT PRINT;Draft;Kurtas;ARAH;Adults-Women;Women;;;;Fashion;;2017;XS,ARAHKRTA00000241,S,ARAHKRTA00000242,M,ARAHKRTA00000243,L,ARAHKRTA00000244,XL,ARAHKRTA00000245,XXL,ARAHKRTA00000246;799.00;;;;;;;;zerotype;;Summer;;No
1943557;S511-Red-1943557;ROUND NECK KURTA WITH FRONT PLACEMENT PRINT;Draft;Kurtas;ARAH;Adults-Women;Women;;;;Fashion;;2017;XS,ARAHKRTA00000235,S,ARAHKRTA00000236,M,ARAHKRTA00000237,L,ARAHKRTA00000238,XL,ARAHKRTA00000239,XXL,ARAHKRTA00000240;799.00;;;;;;;;zerotype;;Summer;;No
1943556;S508-Off White-1943556;ROUND NECK PLACEMENT PRINT 3/4 SLEEVE COTTON KURTA;Draft;Kurtas;ARAH;Adults-Women;Women;;;;Fashion;;2017;XS,ARAHKRTA00000229,S,ARAHKRTA00000230,M,ARAHKRTA00000231,L,ARAHKRTA00000232,XL,ARAHKRTA00000233,XXL,ARAHKRTA00000234;899.00;;;;;;;;zerotype;;Summer;;No
1943555;S507-Red-1943555;FRONT YOKE PLEATED FLAT BAND COLLAR KURTA;Draft;Kurtas;ARAH;Adults-Women;Women;;;;Fashion;;2017;XS,ARAHKRTA00000223,S,ARAHKRTA00000224,M,ARAHKRTA00000225,L,ARAHKRTA00000226,XL,ARAHKRTA00000227,XXL,ARAHKRTA00000228;999.00;;;;;;;;zerotype;;Summer;;No
1943554;S506-Black-1943554;SIDE TIE UP CONTRAST CORD PIPING A-LINE FLARE KURTA;Draft;Kurtas;ARAH;Adults-Women;Women;;;;Fashion;;2017;XS,ARAHKRTA00000217,S,ARAHKRTA00000218,M,ARAHKRTA00000219,L,ARAHKRTA00000220,XL,ARAHKRTA00000221,XXL,ARAHKRTA00000222;1099.00;;;;;;;;zerotype;;Summer;;No
1943553;S503-Black-1943553;BOAT NECK EMBROIDERED ASYMETRICAL HEMLINE KURTA;Draft;Kurtas;ARAH;Adults-Women;Women;;;;Fashion;;2017;XS,ARAHKRTA00000211,S,ARAHKRTA00000212,M,ARAHKRTA00000213,L,ARAHKRTA00000214,XL,ARAHKRTA00000215,XXL,ARAHKRTA00000216;1299.00;;;;;;;;zerotype;;Summer;;No
1943552;S502-Black-1943552;FRONT GOLD ZARI EMBROIDERED COTTON KURTA;Draft;Kurtas;ARAH;Adults-Women;Women;;;;Fashion;;2017;XS,ARAHKRTA00000205,S,ARAHKRTA00000206,M,ARAHKRTA00000207,L,ARAHKRTA00000208,XL,ARAHKRTA00000209,XXL,ARAHKRTA00000210;1499.00;;;;;;;;zerotype;;Summer;;No
1943551;S502-Red-1943551;FRONT GOLD ZARI EMBROIDERED COTTON KURTA;Draft;Kurtas;ARAH;Adults-Women;Women;;;;Fashion;;2017;XS,ARAHKRTA00000199,S,ARAHKRTA00000200,M,ARAHKRTA00000201,L,ARAHKRTA00000202,XL,ARAHKRTA00000203,XXL,ARAHKRTA00000204;1499.00;;;;;;;;zerotype;;Summer;;No
1943550;S501-Off White-1943550;PLACEMENT PRINT 3/4 SLEEVE ROUND NECK COTTON KURTA;Draft;Kurtas;ARAH;Adults-Women;Women;;;;Fashion;;2017;XS,ARAHKRTA00000193,S,ARAHKRTA00000194,M,ARAHKRTA00000195,L,ARAHKRTA00000196,XL,ARAHKRTA00000197,XXL,ARAHKRTA00000198;899.00;;;;;;;;zerotype;;Summer;;No
1943549;S411-Navy Blue-1943549;ROUND NECK 3/4 SLEEVE STRAIGHT FIT COTTON KURTA;Draft;Kurtas;ARAH;Adults-Women;Women;;;;Fashion;;2017;XS,ARAHKRTA00000187,S,ARAHKRTA00000188,M,ARAHKRTA00000189,L,ARAHKRTA00000190,XL,ARAHKRTA00000191,XXL,ARAHKRTA00000192;699.00;;;;;;;;zerotype;;Summer;;No
1943548;S410-Navy Blue-1943548;ROUND NECK PRINTED 3/4 SLEEVE COTTON KURTA;Draft;Kurtas;ARAH;Adults-Women;Women;;;;Fashion;;2017;XS,ARAHKRTA00000181,S,ARAHKRTA00000182,M,ARAHKRTA00000183,L,ARAHKRTA00000184,XL,ARAHKRTA00000185,XXL,ARAHKRTA00000186;699.00;;;;;;;;zerotype;;Summer;;No
1943547;S408-Navy Blue-1943547;U SHAPED HEMLINE GOLD BUTTON PRINTED KURTA;Draft;Kurtas;ARAH;Adults-Women;Women;;;;Fashion;;2017;XS,ARAHKRTA00000175,S,ARAHKRTA00000176,M,ARAHKRTA00000177,L,ARAHKRTA00000178,XL,ARAHKRTA00000179,XXL,ARAHKRTA00000180;1099.00;;;;;;;;zerotype;;Summer;;No
1943546;S407-Navy Blue-1943546;AJRAKH INDIGO FRONT PLACEMENT PRINT KURTA;Draft;Kurtas;ARAH;Adults-Women;Women;;;;Fashion;;2017;XS,ARAHKRTA00000169,S,ARAHKRTA00000170,M,ARAHKRTA00000171,L,ARAHKRTA00000172,XL,ARAHKRTA00000173,XXL,ARAHKRTA00000174;1099.00;;;;;;;;zerotype;;Summer;;No
1943544;S405-Blue-1943544;ROUND NECK PLACEMENT PRINT KURTA;Draft;Kurtas;ARAH;Adults-Women;Women;;;;Fashion;;2017;XS,ARAHKRTA00000163,S,ARAHKRTA00000164,M,ARAHKRTA00000165,L,ARAHKRTA00000166,XL,ARAHKRTA00000167,XXL,ARAHKRTA00000168;799.00;;;;;;;;zerotype;;Summer;;No
1943542;S404-Navy Blue-1943542;BAND COLLAR STRAIGHT FIT  KURTA;Draft;Kurtas;ARAH;Adults-Women;Women;;;;Fashion;;2017;XS,ARAHKRTA00000157,S,ARAHKRTA00000158,M,ARAHKRTA00000159,L,ARAHKRTA00000160,XL,ARAHKRTA00000161,XXL,ARAHKRTA00000162;899.00;;;;;;;;zerotype;;Summer;;No
1943539;S403-Navy Blue-1943539;DOUBLE LAYERED PINTUCK DETAIL KURTA;Draft;Kurtas;ARAH;Adults-Women;Women;;;;Fashion;;2017;XS,ARAHKRTA00000151,S,ARAHKRTA00000152,M,ARAHKRTA00000153,L,ARAHKRTA00000154,XL,ARAHKRTA00000155,XXL,ARAHKRTA00000156;1699.00;;;;;;;;zerotype;;Summer;;No
1943537;S402-Navy Blue-1943537;BOAT NECK BELL SLEEVE PRINTED KURTA;Draft;Kurtas;ARAH;Adults-Women;Women;;;;Fashion;;2017;XS,ARAHKRTA00000145,S,ARAHKRTA00000146,M,ARAHKRTA00000147,L,ARAHKRTA00000148,XL,ARAHKRTA00000149,XXL,ARAHKRTA00000150;1099.00;;;;;;;;zerotype;;Summer;;No
1943535;S401-Brown-1943535;FRONT PLACKET V-NECK PRINTED KURTA;Draft;Kurtas;ARAH;Adults-Women;Women;;;;Fashion;;2017;XS,ARAHKRTA00000139,S,ARAHKRTA00000140,M,ARAHKRTA00000141,L,ARAHKRTA00000142,XL,ARAHKRTA00000143,XXL,ARAHKRTA00000144;1299.00;;;;;;;;zerotype;;Summer;;No
1943533;S310-Pink-1943533;PRINTED ROUND NECK KURTA;Draft;Kurtas;ARAH;Adults-Women;Women;;;;Fashion;;2017;XS,ARAHKRTA00000133,S,ARAHKRTA00000134,M,ARAHKRTA00000135,L,ARAHKRTA00000136,XL,ARAHKRTA00000137,XXL,ARAHKRTA00000138;699.00;;;;;;;;zerotype;;Summer;;No
1943532;S309-Pink-1943532;FRONT PRINT FISH PANEL KURTA;Draft;Kurtas;ARAH;Adults-Women;Women;;;;Fashion;;2017;XS,ARAHKRTA00000127,S,ARAHKRTA00000128,M,ARAHKRTA00000129,L,ARAHKRTA00000130,XL,ARAHKRTA00000131,XXL,ARAHKRTA00000132;1299.00;;;;;;;;zerotype;;Summer;;No
1943530;S308-Blue-1943530;PRINTED FOLD UP SLEEVES KURTA;Draft;Kurtas;ARAH;Adults-Women;Women;;;;Fashion;;2017;XS,ARAHKRTA00000121,S,ARAHKRTA00000122,M,ARAHKRTA00000123,L,ARAHKRTA00000124,XL,ARAHKRTA00000125,XXL,ARAHKRTA00000126;1199.00;;;;;;;;zerotype;;Summer;;No
1943529;S306-Peach-1943529;ROUND NECK PINTUCKS KURTA;Draft;Kurtas;ARAH;Adults-Women;Women;;;;Fashion;;2017;XS,ARAHKRTA00000115,S,ARAHKRTA00000116,M,ARAHKRTA00000117,L,ARAHKRTA00000118,XL,ARAHKRTA00000119,XXL,ARAHKRTA00000120;1099.00;;;;;;;;zerotype;;Summer;;No
1943528;S302-Blue-1943528;PLACEMENT PRINT ROUNDED HEMLINE KURTA;Draft;Kurtas;ARAH;Adults-Women;Women;;;;Fashion;;2017;XS,ARAHKRTA00000109,S,ARAHKRTA00000110,M,ARAHKRTA00000111,L,ARAHKRTA00000112,XL,ARAHKRTA00000113,XXL,ARAHKRTA00000114;1099.00;;;;;;;;zerotype;;Summer;;No
1943527;S302-Magenta-1943527;PLACEMENT PRINT ROUNDED HEMLINE KURTA;Draft;Kurtas;ARAH;Adults-Women;Women;;;;Fashion;;2017;XS,ARAHKRTA00000103,S,ARAHKRTA00000104,M,ARAHKRTA00000105,L,ARAHKRTA00000106,XL,ARAHKRTA00000107,XXL,ARAHKRTA00000108;1099.00;;;;;;;;zerotype;;Summer;;No
1943526;S301-Off White-1943526;DOODLE PRINT ROUND NECK STRAIGHT FIT KURTA;Draft;Kurtas;ARAH;Adults-Women;Women;;;;Fashion;;2017;XS,ARAHKRTA00000097,S,ARAHKRTA00000098,M,ARAHKRTA00000099,L,ARAHKRTA00000100,XL,ARAHKRTA00000101,XXL,ARAHKRTA00000102;1299.00;;;;;;;;zerotype;;Summer;;No
1943525;S207-BLUE-1943525;CHAMBRAY NEHRU COLLAR KURTA;Draft;Kurtas;ARAH;Adults-Women;Women;;;;Fashion;;2017;XS,ARAHKRTA00000091,S,ARAHKRTA00000092,M,ARAHKRTA00000093,L,ARAHKRTA00000094,XL,ARAHKRTA00000095,XXL,ARAHKRTA00000096;1099.00;;;;;;;;zerotype;;Summer;;No
1943524;S206-Mustard-1943524;ROUND NECK FRONT EMB. ASYMETRICAL HEMLINE KURTA;Draft;Kurtas;ARAH;Adults-Women;Women;;;;Fashion;;2017;XS,ARAHKRTA00000085,S,ARAHKRTA00000086,M,ARAHKRTA00000087,L,ARAHKRTA00000088,XL,ARAHKRTA00000089,XXL,ARAHKRTA00000090;1699.00;;;;;;;;zerotype;;Summer;;No
1943523;S206-WHITE-1943523;ROUND NECK FRONT EMB. ASYMETRICAL HEMLINE KURTA;Draft;Kurtas;ARAH;Adults-Women;Women;;;;Fashion;;2017;XS,ARAHKRTA00000079,S,ARAHKRTA00000080,M,ARAHKRTA00000081,L,ARAHKRTA00000082,XL,ARAHKRTA00000083,XXL,ARAHKRTA00000084;1699.00;;;;;;;;zerotype;;Summer;;No
1943522;S205-BLUE-1943522;ROUND NECK FRONT EMB. KURTA;Draft;Kurtas;ARAH;Adults-Women;Women;;;;Fashion;;2017;XS,ARAHKRTA00000073,S,ARAHKRTA00000074,M,ARAHKRTA00000075,L,ARAHKRTA00000076,XL,ARAHKRTA00000077,XXL,ARAHKRTA00000078;999.00;;;;;;;;zerotype;;Summer;;No
1943521;S205-GREY-1943521;ROUND NECK FRONT EMB. KURTA;Draft;Kurtas;ARAH;Adults-Women;Women;;;;Fashion;;2017;XS,ARAHKRTA00000067,S,ARAHKRTA00000068,M,ARAHKRTA00000069,L,ARAHKRTA00000070,XL,ARAHKRTA00000071,XXL,ARAHKRTA00000072;999.00;;;;;;;;zerotype;;Summer;;No
1943520;S204-WHITE-1943520;PRINTED PINSTRIPES  KURTA;Draft;Kurtas;ARAH;Adults-Women;Women;;;;Fashion;;2017;XS,ARAHKRTA00000061,S,ARAHKRTA00000062,M,ARAHKRTA00000063,L,ARAHKRTA00000064,XL,ARAHKRTA00000065,XXL,ARAHKRTA00000066;1899.00;;;;;;;;zerotype;;Summer;;No
1943519;S201-Multi-1943519;BELTED POPPY PRINT STRIPER KURTA;Draft;Kurtas;ARAH;Adults-Women;Women;;;;Fashion;;2017;XS,ARAHKRTA00000055,S,ARAHKRTA00000056,M,ARAHKRTA00000057,L,ARAHKRTA00000058,XL,ARAHKRTA00000059,XXL,ARAHKRTA00000060;1099.00;;;;;;;;zerotype;;Summer;;No
1943518;S108-YELLOW-1943518;ROUND NECK BACK PRINT KURTA;Draft;Kurtas;ARAH;Adults-Women;Women;;;;Fashion;;2017;XS,ARAHKRTA00000049,S,ARAHKRTA00000050,M,ARAHKRTA00000051,L,ARAHKRTA00000052,XL,ARAHKRTA00000053,XXL,ARAHKRTA00000054;999.00;;;;;;;;zerotype;;Summer;;No
1943517;S108-TEAL-1943517;ROUND NECK BACK PRINT KURTA;Draft;Kurtas;ARAH;Adults-Women;Women;;;;Fashion;;2017;XS,ARAHKRTA00000043,S,ARAHKRTA00000044,M,ARAHKRTA00000045,L,ARAHKRTA00000046,XL,ARAHKRTA00000047,XXL,ARAHKRTA00000048;999.00;;;;;;;;zerotype;;Summer;;No
1943516;S105-Magenta-1943516;ROUND NECK PLACEMENT PRINTED SIDE KALI KURTA;Draft;Kurtas;ARAH;Adults-Women;Women;;;;Fashion;;2017;XS,ARAHKRTA00000037,S,ARAHKRTA00000038,M,ARAHKRTA00000039,L,ARAHKRTA00000040,XL,ARAHKRTA00000041,XXL,ARAHKRTA00000042;1299.00;;;;;;;;zerotype;;Summer;;No
1943515;S104-GREY-1943515;V-NECK KURTA FRONT EMBROIDERED KURTA;Draft;Kurtas;ARAH;Adults-Women;Women;;;;Fashion;;2017;XS,ARAHKRTA00000031,S,ARAHKRTA00000032,M,ARAHKRTA00000033,L,ARAHKRTA00000034,XL,ARAHKRTA00000035,XXL,ARAHKRTA00000036;1299.00;;;;;;;;zerotype;;Summer;;No
1943514;S103-PINK-1943514;BOAT NECK PRINTED STRAIGHT FIT KURTA;Draft;Kurtas;ARAH;Adults-Women;Women;;;;Fashion;;2017;XS,ARAHKRTA00000025,S,ARAHKRTA00000026,M,ARAHKRTA00000027,L,ARAHKRTA00000028,XL,ARAHKRTA00000029,XXL,ARAHKRTA00000030;999.00;;;;;;;;zerotype;;Summer;;No
1943513;S102-Off White-1943513;EMBROIDERED STRAIGHT FIT KURTA;Draft;Kurtas;ARAH;Adults-Women;Women;;;;Fashion;;2017;XS,ARAHKRTA00000019,S,ARAHKRTA00000020,M,ARAHKRTA00000021,L,ARAHKRTA00000022,XL,ARAHKRTA00000023,XXL,ARAHKRTA00000024;1099.00;;;;;;;;zerotype;;Summer;;No
1943512;S102-TEAL-1943512;EMBROIDERED STRAIGHT FIT KURTA;Draft;Kurtas;ARAH;Adults-Women;Women;;;;Fashion;;2017;XS,ARAHKRTA00000013,S,ARAHKRTA00000014,M,ARAHKRTA00000015,L,ARAHKRTA00000016,XL,ARAHKRTA00000017,XXL,ARAHKRTA00000018;1099.00;;;;;;;;zerotype;;Summer;;No
1943511;S101-Off White-1943511;ROUND NECK PRINTED HIGH FLARED KURTA;Draft;Kurtas;ARAH;Adults-Women;Women;;;;Fashion;;2017;XS,ARAHKRTA00000007,S,ARAHKRTA00000008,M,ARAHKRTA00000009,L,ARAHKRTA00000010,XL,ARAHKRTA00000011,XXL,ARAHKRTA00000012;1499.00;;;;;;;;zerotype;;Summer;;No
1943510;S101-YELLOW-1943510;ROUND NECK PRINTED HIGH FLARED KURTA;Draft;Kurtas;ARAH;Adults-Women;Women;;;;Fashion;;2017;XS,ARAHKRTA00000001,S,ARAHKRTA00000002,M,ARAHKRTA00000003,L,ARAHKRTA00000004,XL,ARAHKRTA00000005,XXL,ARAHKRTA00000006;1499.00;;;;;;;;zerotype;;Summer;;No
1943509;S504-White-1943509;PINTUCK YOKE COTTON VOILE TUNIC;Draft;Tunics;ARAH;Adults-Women;Women;;;;Fashion;;2017;XS,ARAHTNIC00000049,S,ARAHTNIC00000050,M,ARAHTNIC00000051,L,ARAHTNIC00000052,XL,ARAHTNIC00000053,XXL,ARAHTNIC00000054;999.00;;;;;;;;zerotype;;Summer;;No
1943508;S304-Blue-1943508;BELL SLEEVES A-LINE FLARE EMBROIDERED TUNIC;Draft;Tunics;ARAH;Adults-Women;Women;;;;Fashion;;2017;XS,ARAHTNIC00000043,S,ARAHTNIC00000044,M,ARAHTNIC00000045,L,ARAHTNIC00000046,XL,ARAHTNIC00000047,XXL,ARAHTNIC00000048;1399.00;;;;;;;;zerotype;;Summer;;No
1943507;S202-Black-1943507;A-LINE FLARE TUNIC;Draft;Tunics;ARAH;Adults-Women;Women;;;;Fashion;;2017;XS,ARAHTNIC00000037,S,ARAHTNIC00000038,M,ARAHTNIC00000039,L,ARAHTNIC00000040,XL,ARAHTNIC00000041,XXL,ARAHTNIC00000042;1099.00;;;;;;;;zerotype;;Summer;;No
1943506;S107-Yellow-1943506;ROUND NECK FULL SLEEVE TUNIC;Draft;Tunics;ARAH;Adults-Women;Women;;;;Fashion;;2017;XS,ARAHTNIC00000031,S,ARAHTNIC00000032,M,ARAHTNIC00000033,L,ARAHTNIC00000034,XL,ARAHTNIC00000035,XXL,ARAHTNIC00000036;999.00;;;;;;;;zerotype;;Summer;;No
1943505;S107-Pink-1943505;ROUND NECK FULL SLEEVE TUNIC;Draft;Tunics;ARAH;Adults-Women;Women;;;;Fashion;;2017;XS,ARAHTNIC00000025,S,ARAHTNIC00000026,M,ARAHTNIC00000027,L,ARAHTNIC00000028,XL,ARAHTNIC00000029,XXL,ARAHTNIC00000030;999.00;;;;;;;;zerotype;;Summer;;No
1943504;CORE006-Off White-1943504;ROUND NECK CAP SLEEVES TUNIC;Draft;Tunics;ARAH;Adults-Women;Women;;;;Fashion;;2017;XS,ARAHTNIC00000019,S,ARAHTNIC00000020,M,ARAHTNIC00000021,L,ARAHTNIC00000022,XL,ARAHTNIC00000023,XXL,ARAHTNIC00000024;799.00;;;;;;;;zerotype;;Summer;;No
1943503;CORE006-Coral-1943503;ROUND NECK CAP SLEEVES TUNIC;Draft;Tunics;ARAH;Adults-Women;Women;;;;Fashion;;2017;XS,ARAHTNIC00000013,S,ARAHTNIC00000014,M,ARAHTNIC00000015,L,ARAHTNIC00000016,XL,ARAHTNIC00000017,XXL,ARAHTNIC00000018;799.00;;;;;;;;zerotype;;Summer;;No
1943502;CORE005-Navy Blue-1943502;ROUND NECK FRONT PINTUCKS TUNIC;Draft;Tunics;ARAH;Adults-Women;Women;;;;Fashion;;2017;XS,ARAHTNIC00000007,S,ARAHTNIC00000008,M,ARAHTNIC00000009,L,ARAHTNIC00000010,XL,ARAHTNIC00000011,XXL,ARAHTNIC00000012;799.00;;;;;;;;zerotype;;Summer;;No
1943501;CORE005-Black-1943501;ROUND NECK FRONT PINTUCKS TUNIC;Draft;Tunics;ARAH;Adults-Women;Women;;;;Fashion;;2017;XS,ARAHTNIC00000001,S,ARAHTNIC00000002,M,ARAHTNIC00000003,L,ARAHTNIC00000004,XL,ARAHTNIC00000005,XXL,ARAHTNIC00000006;799.00;;;;;;;;zerotype;;Summer;;No
1943500;S106-PINK-1943500;OVERLAP COWL NECK JACKET;Draft;Jackets;ARAH;Adults-Women;Women;;;;Fashion;;2017;S,ARAHJCKT00000001,M,ARAHJCKT00000002;999.00;;;;;;;;zerotype;;Summer;;No
1943499;S305-Pink-1943499;GEORGETTE OVERLAP NECK HIGH FLARE DRESS;Draft;Dresses;ARAH;Adults-Women;Women;;;;Fashion;;2017;XS,ARAHDRSS00000005,S,ARAHDRSS00000006,M,ARAHDRSS00000007,L,ARAHDRSS00000008;1699.00;;;;;;;;zerotype;;Summer;;No
1943498;S203-Multi-1943498;PINSTRIPE A-LINE FLARE DRESS;Draft;Dresses;ARAH;Adults-Women;Women;;;;Fashion;;2017;XS,ARAHDRSS00000001,S,ARAHDRSS00000002,M,ARAHDRSS00000003,L,ARAHDRSS00000004;1499.00;;;;;;;;zerotype;;Summer;;No
1943497;SOLID PANTS-Black-1943497;SOLID CIGARETTE PANTS;Draft;Trousers;ARAH;Adults-Women;Women;;;;Fashion;;2017;XS,ARAHTRSR00000037,S,ARAHTRSR00000038,M,ARAHTRSR00000039,L,ARAHTRSR00000040,XL,ARAHTRSR00000041,XXL,ARAHTRSR00000042;699.00;;;;;;;;zerotype;;Summer;;No
1943496;SOLID PANTS-Teal-1943496;SOLID CIGARETTE PANTS;Draft;Trousers;ARAH;Adults-Women;Women;;;;Fashion;;2017;XS,ARAHTRSR00000031,S,ARAHTRSR00000032,M,ARAHTRSR00000033,L,ARAHTRSR00000034,XL,ARAHTRSR00000035,XXL,ARAHTRSR00000036;699.00;;;;;;;;zerotype;;Summer;;No
1943495;SOLID PANTS-Off White-1943495;SOLID CIGARETTE PANTS;Draft;Trousers;ARAH;Adults-Women;Women;;;;Fashion;;2017;XS,ARAHTRSR00000025,S,ARAHTRSR00000026,M,ARAHTRSR00000027,L,ARAHTRSR00000028,XL,ARAHTRSR00000029,XXL,ARAHTRSR00000030;699.00;;;;;;;;zerotype;;Summer;;No
1943494;S510-Black-1943494;LADDER LACE STRAIGHT PANTS;Draft;Trousers;ARAH;Adults-Women;Women;;;;Fashion;;2017;XS,ARAHTRSR00000019,S,ARAHTRSR00000020,M,ARAHTRSR00000021,L,ARAHTRSR00000022,XL,ARAHTRSR00000023,XXL,ARAHTRSR00000024;899.00;;;;;;;;zerotype;;Summer;;No
1943493;S510-Off White-1943493;LADDER LACE STRAIGHT PANTS;Draft;Trousers;ARAH;Adults-Women;Women;;;;Fashion;;2017;XS,ARAHTRSR00000013,S,ARAHTRSR00000014,M,ARAHTRSR00000015,L,ARAHTRSR00000016,XL,ARAHTRSR00000017,XXL,ARAHTRSR00000018;899.00;;;;;;;;zerotype;;Summer;;No
1943492;S208-Black-1943492;EMBROIDERED CIGARETTE PANTS;Draft;Trousers;ARAH;Adults-Women;Women;;;;Fashion;;2017;XS,ARAHTRSR00000007,S,ARAHTRSR00000008,M,ARAHTRSR00000009,L,ARAHTRSR00000010,XL,ARAHTRSR00000011,XXL,ARAHTRSR00000012;899.00;;;;;;;;zerotype;;Summer;;No
1943491;S208-Off White-1943491;EMBROIDERED CIGARETTE PANTS;Draft;Trousers;ARAH;Adults-Women;Women;;;;Fashion;;2017;XS,ARAHTRSR00000001,S,ARAHTRSR00000002,M,ARAHTRSR00000003,L,ARAHTRSR00000004,XL,ARAHTRSR00000005,XXL,ARAHTRSR00000006;899.00;;;;;;;;zerotype;;Summer;;No
