Style ID;Vendor Article Number;Vendor Article Name;Active Status;Article type;Brand;Age Group;Gender;Base Colour;Colour1;Colour2;Fashion Type;Usage;Year;Size - SKU code pair;MRP;Style Description;Style Note;Materials and Care Description;Size and Fit Description;Size Chart Path;Product Display Name;Tags;Product Type;Classification Brand;Season;Comments;Upload Images
2056164;5021465028953-Pink-2056164;Girls pink,short seleevs tshirt;Draft;Tshirts;mothercare;Kids-Girls;Girls;;;;Fashion;;2017;2-3Y,MTCRTSHT00007454,3-4Y,MTCRTSHT00007455,4-5Y,MTCRTSHT00007456,5-6Y,MTCRTSHT00007457,6-7Y,MTCRTSHT00007458,7-8Y,MTCRTSHT00007459;1499.00;;;;;;;;zerotype;;Winter;;No
2056163;5021463261765-White-2056163;Girls white,short seleevs tshirt;Draft;Tshirts;mothercare;Kids-Girls;Girls;;;;Fashion;;2017;3-6M,MTCRTSHT00007449,6-9M,MTCRTSHT00007450,9-12M,MTCRTSHT00007451,12-18M,MTCRTSHT00007452,18-24M,MTCRTSHT00007453;599.00;;;;;;;;zerotype;;Winter;;No
2056162;5021469606300-Yellow-2056162;Unisex yellow, pyjamas;Draft;Pyjamas;mothercare;Kids-Unisex;Unisex;;;;Fashion;;2017;0-3M,MTCRPJPJ00001016,3-6M,MTCRPJPJ00001017,6-9M,MTCRPJPJ00001018,9-12M,MTCRPJPJ00001019,12-18M,MTCRPJPJ00001020,18-24M,MTCRPJPJ00001021,2-3Y,MTCRPJPJ00001022;999.00;;;;;;;;zerotype;;Winter;;No
2056161;5021463741731-Grey-2056161;Girls grey, pyjamas;Draft;Pyjamas;mothercare;Kids-Girls;Girls;;;;Fashion;;2017;Newborn,MTCRPJPJ00001010,0-3M,MTCRPJPJ00001011,3-6M,MTCRPJPJ00001012,6-9M,MTCRPJPJ00001013,9-12M,MTCRPJPJ00001014,12-18M,MTCRPJPJ00001015;899.00;;;;;;;;zerotype;;Winter;;No
