Style ID;Vendor Article Number;Vendor Article Name;Active Status;Article type;Brand;Age Group;Gender;Base Colour;Colour1;Colour2;Fashion Type;Usage;Year;Size - SKU code pair;MRP;Style Description;Style Note;Materials and Care Description;Size and Fit Description;Size Chart Path;Product Display Name;Tags;Product Type;Classification Brand;Season;Comments;Upload Images
1961716;W114-White&BlackPrnt-White & Black printed-1961716;Rhodes Mandaraian collar 5 button waist coat;Draft;Waistcoat;Rhodes;Adults-Men;Men;White;;;Fashion;;2017;36,RHDSWACO00000297,38,RHDSWACO00000298,40,RHDSWACO00000299,42,RHDSWACO00000300,44,RHDSWACO00000301,46,RHDSWACO00000302;2495.00;;;;;;;;zerotype;;Summer;;No
1961715;RNWCT137-Red-Red-1961715;Rhodes Mandaraian collar 5 button waist coat;Draft;Waistcoat;Rhodes;Adults-Men;Men;Red;;;Fashion;;2017;36,RHDSWACO00000291,38,RHDSWACO00000292,40,RHDSWACO00000293,42,RHDSWACO00000294,44,RHDSWACO00000295,46,RHDSWACO00000296;2495.00;;;;;;;;zerotype;;Summer;;No
1961714;W165-Turquoise-Turquoise-1961714;Rhodes Mandaraian collar 5 button waist coat;Draft;Waistcoat;Rhodes;Adults-Men;Men;Turquoise Blue;;;Fashion;;2017;36,RHDSWACO00000285,38,RHDSWACO00000286,40,RHDSWACO00000287,42,RHDSWACO00000288,44,RHDSWACO00000289,46,RHDSWACO00000290;1895.00;;;;;;;;zerotype;;Summer;;No
1961713;W172-Blue-Blue Self Design-1961713;Rhodes Mandaraian collar 5 button waist coat;Draft;Waistcoat;Rhodes;Adults-Men;Men;Navy Blue;;;Fashion;;2017;36,RHDSWACO00000279,38,RHDSWACO00000280,40,RHDSWACO00000281,42,RHDSWACO00000282,44,RHDSWACO00000283,46,RHDSWACO00000284;2495.00;;;;;;;;zerotype;;Summer;;No
1961712;W174-Blue-Blue-1961712;Rhodes Mandaraian collar 5 button waist coat;Draft;Waistcoat;Rhodes;Adults-Men;Men;Blue;;;Fashion;;2017;36,RHDSWACO00000273,38,RHDSWACO00000274,40,RHDSWACO00000275,42,RHDSWACO00000276,44,RHDSWACO00000277,46,RHDSWACO00000278;1895.00;;;;;;;;zerotype;;Summer;;No
1961711;W159-Beige-Beige-1961711;Rhodes Mandaraian collar 5 button waist coat;Draft;Waistcoat;Rhodes;Adults-Men;Men;Beige;;;Fashion;;2017;36,RHDSWACO00000267,38,RHDSWACO00000268,40,RHDSWACO00000269,42,RHDSWACO00000270,44,RHDSWACO00000271,46,RHDSWACO00000272;1895.00;;;;;;;;zerotype;;Summer;;No
1961710;W169-Black-Black lazer Cut-1961710;Rhodes Mandaraian collar 5 button waist coat;Draft;Waistcoat;Rhodes;Adults-Men;Men;Black;;;Fashion;;2017;36,RHDSWACO00000261,38,RHDSWACO00000262,40,RHDSWACO00000263,42,RHDSWACO00000264,44,RHDSWACO00000265,46,RHDSWACO00000266;2295.00;;;;;;;;zerotype;;Summer;;No
