Style ID;Vendor Article Number;Vendor Article Name;Active Status;Article type;Brand;Age Group;Gender;Base Colour;Colour1;Colour2;Fashion Type;Usage;Year;Size - SKU code pair;MRP;Style Description;Style Note;Materials and Care Description;Size and Fit Description;Size Chart Path;Product Display Name;Tags;Product Type;Classification Brand;Season;Comments;Upload Images
1841430;9089952402546909845-Green-1841430;Star Long Sleeve Bodysuits Two Pack;Draft;Bodysuit;next;Kids-Girls;Girls;Green;;;Fashion;;2017;1.5-2Y,NEXTBYST00000386;1290.00;;;;;;;;zerotype;;Spring;;No
1841429;9089952402546909845-Green-1841429;Star Long Sleeve Bodysuits Two Pack;Draft;Bodysuit;next;Kids-Girls;Girls;Green;;;Fashion;;2017;0Y,NEXTBYST00000379,9-12M,NEXTBYST00000380,12-18M,NEXTBYST00000381,0-3M,NEXTBYST00000382,Newborn,NEXTBYST00000383,6-9M,NEXTBYST00000384,3-6M,NEXTBYST00000385;1190.00;;;;;;;;zerotype;;Spring;;No
1841428;9049673990574742029-Green-1841428;Multi Bright Animal Short Sleeve Bodysuits Th;Draft;Bodysuit;next;Kids-Boys;Boys;Green;;;Fashion;;2017;1.5-2Y,NEXTBYST00000378;1490.00;;;;;;;;zerotype;;Spring;;No
1841427;9049673990574742029-Green-1841427;Multi Bright Animal Short Sleeve Bodysuits Th;Draft;Bodysuit;next;Kids-Boys;Boys;Green;;;Fashion;;2017;3-6M,NEXTBYST00000371,Newborn,NEXTBYST00000372,12-18M,NEXTBYST00000373,0-3M,NEXTBYST00000374,0Y,NEXTBYST00000375,6-9M,NEXTBYST00000376,9-12M,NEXTBYST00000377;1390.00;;;;;;;;zerotype;;Spring;;No
1841426;9029792334528553385-White-1841426;White Polo Bodysuit (0Mths-2Yrs);Draft;Bodysuit;next;Kids-Boys;Boys;White;;;Fashion;;2017;1.5-2Y,NEXTBYST00000370;990.00;;;;;;;;zerotype;;Spring;;No
1841425;9029792334528553385-White-1841425;White Polo Bodysuit (0Mths-2Yrs);Draft;Bodysuit;next;Kids-Boys;Boys;White;;;Fashion;;2017;3-6M,NEXTBYST00000366,6-9M,NEXTBYST00000367,9-12M,NEXTBYST00000368,12-18M,NEXTBYST00000369;890.00;;;;;;;;zerotype;;Spring;;No
1841424;8564774734533967034-White-1841424;Pack Of 2 Multicoloured Space Short Leg Bodys;Draft;Bodysuit;next;Kids-Boys;Boys;White;;;Fashion;;2017;1.5-2Y,NEXTBYST00000365;1690.00;;;;;;;;zerotype;;Spring;;No
1841423;8564774734533967034-White-1841423;Pack Of 2 Multicoloured Space Short Leg Bodys;Draft;Bodysuit;next;Kids-Boys;Boys;White;;;Fashion;;2017;0-3M,NEXTBYST00000358,9-12M,NEXTBYST00000359,0Y,NEXTBYST00000360,6-9M,NEXTBYST00000361,Newborn,NEXTBYST00000362,3-6M,NEXTBYST00000363,12-18M,NEXTBYST00000364;1490.00;;;;;;;;zerotype;;Spring;;No
1841422;8508368508453207544-Pink-1841422;Pack Of 3 Unicorn Short Sleeve Bodysuits;Draft;Bodysuit;next;Kids-Girls;Girls;Pink;;;Fashion;;2017;1.5-2Y,NEXTBYST00000357;1690.00;;;;;;;;zerotype;;Spring;;No
1841421;8508368508453207544-Pink-1841421;Pack Of 3 Unicorn Short Sleeve Bodysuits;Draft;Bodysuit;next;Kids-Girls;Girls;Pink;;;Fashion;;2017;0-3M,NEXTBYST00000350,12-18M,NEXTBYST00000351,3-6M,NEXTBYST00000352,9-12M,NEXTBYST00000353,6-9M,NEXTBYST00000354,0Y,NEXTBYST00000355,Newborn,NEXTBYST00000356;1490.00;;;;;;;;zerotype;;Spring;;No
1841420;8461029875995877482-Blue-1841420;Pack Of 2 Multicoloured Polo Collared Bodysui;Draft;Bodysuit;next;Kids-Boys;Boys;Blue;;;Fashion;;2017;1.5-2Y,NEXTBYST00000349;1990.00;;;;;;;;zerotype;;Spring;;No
1841419;8461029875995877482-Blue-1841419;Pack Of 2 Multicoloured Polo Collared Bodysui;Draft;Bodysuit;next;Kids-Boys;Boys;Blue;;;Fashion;;2017;12-18M,NEXTBYST00000342,9-12M,NEXTBYST00000343,3-6M,NEXTBYST00000344,0Y,NEXTBYST00000345,0-3M,NEXTBYST00000346,Newborn,NEXTBYST00000347,6-9M,NEXTBYST00000348;1790.00;;;;;;;;zerotype;;Spring;;No
1841418;8459732326527119825-White-1841418;White Goofy Body Suit (0Mths-2Yrs);Draft;Bodysuit;next;Kids-Boys;Boys;White;;;Fashion;;2017;1.5-2Y,NEXTBYST00000341;1690.00;;;;;;;;zerotype;;Spring;;No
1841417;8459732326527119825-White-1841417;White Goofy Body Suit (0Mths-2Yrs);Draft;Bodysuit;next;Kids-Boys;Boys;White;;;Fashion;;2017;12-18M,NEXTBYST00000334,6-9M,NEXTBYST00000335,0-3M,NEXTBYST00000336,Newborn,NEXTBYST00000337,0Y,NEXTBYST00000338,9-12M,NEXTBYST00000339,3-6M,NEXTBYST00000340;1590.00;;;;;;;;zerotype;;Spring;;No
1841416;8431233509669851395-Blue-1841416;Blue Bodysuits;Draft;Bodysuit;next;Kids-Boys;Boys;Blue;;;Fashion;;2017;2-3Y,NEXTBYST00000329,3-4Y,NEXTBYST00000330,4-5Y,NEXTBYST00000331,1.5-2Y,NEXTBYST00000332,5-6Y,NEXTBYST00000333;1790.00;;;;;;;;zerotype;;Spring;;No
1841415;8431233509669851395-Blue-1841415;Blue Bodysuits;Draft;Bodysuit;next;Kids-Boys;Boys;Blue;;;Fashion;;2017;3-6M,NEXTBYST00000325,12-18M,NEXTBYST00000326,9-12M,NEXTBYST00000327,6-9M,NEXTBYST00000328;1590.00;;;;;;;;zerotype;;Spring;;No
1841414;8418011303980437387-Pink-1841414;Apple Mummy And Daddy Short Sleeve Bodysuits;Draft;Bodysuit;next;Kids-Girls;Girls;Pink;;;Fashion;;2017;1.5-2Y,NEXTBYST00000324;1290.00;;;;;;;;zerotype;;Spring;;No
1841413;8418011303980437387-Pink-1841413;Apple Mummy And Daddy Short Sleeve Bodysuits;Draft;Bodysuit;next;Kids-Girls;Girls;Pink;;;Fashion;;2017;9-12M,NEXTBYST00000317,6-9M,NEXTBYST00000318,0-3M,NEXTBYST00000319,3-6M,NEXTBYST00000320,Newborn,NEXTBYST00000321,0Y,NEXTBYST00000322,12-18M,NEXTBYST00000323;1190.00;;;;;;;;zerotype;;Spring;;No
1841412;8360047554475223846-White-1841412;Pack Of 3 Multicoloured Giraffe Floral Bodysu;Draft;Bodysuit;next;Kids-Girls;Girls;White;;;Fashion;;2017;1.5-2Y,NEXTBYST00000316;2290.00;;;;;;;;zerotype;;Spring;;No
1841411;8360047554475223846-White-1841411;Pack Of 3 Multicoloured Giraffe Floral Bodysu;Draft;Bodysuit;next;Kids-Girls;Girls;White;;;Fashion;;2017;12-18M,NEXTBYST00000309,9-12M,NEXTBYST00000310,Newborn,NEXTBYST00000311,0-3M,NEXTBYST00000312,0Y,NEXTBYST00000313,3-6M,NEXTBYST00000314,6-9M,NEXTBYST00000315;2190.00;;;;;;;;zerotype;;Spring;;No
1841410;8133154810537288726-Blue-1841410;Pack Of 2 Striped Mummy And Daddy Short Sleev;Draft;Bodysuit;next;Kids-Boys;Boys;Blue;;;Fashion;;2017;1.5-2Y,NEXTBYST00000308;1290.00;;;;;;;;zerotype;;Spring;;No
1841409;8133154810537288726-Blue-1841409;Pack Of 2 Striped Mummy And Daddy Short Sleev;Draft;Bodysuit;next;Kids-Boys;Boys;Blue;;;Fashion;;2017;0-3M,NEXTBYST00000301,0Y,NEXTBYST00000302,9-12M,NEXTBYST00000303,3-6M,NEXTBYST00000304,6-9M,NEXTBYST00000305,12-18M,NEXTBYST00000306,Newborn,NEXTBYST00000307;1190.00;;;;;;;;zerotype;;Spring;;No
1841408;7892542770122478556-Blue-1841408;Dog Short Sleeve Bodysuits Three Pack;Draft;Bodysuit;next;Kids-Boys;Boys;Blue;;;Fashion;;2017;1.5-2Y,NEXTBYST00000300;1690.00;;;;;;;;zerotype;;Spring;;No
1841407;7892542770122478556-Blue-1841407;Dog Short Sleeve Bodysuits Three Pack;Draft;Bodysuit;next;Kids-Boys;Boys;Blue;;;Fashion;;2017;12-18M,NEXTBYST00000293,Newborn,NEXTBYST00000294,0Y,NEXTBYST00000295,0-3M,NEXTBYST00000296,3-6M,NEXTBYST00000297,9-12M,NEXTBYST00000298,6-9M,NEXTBYST00000299;1490.00;;;;;;;;zerotype;;Spring;;No
1841406;7831888895821126820-Blue-1841406;Navy Blue Zip Hooded Bodysuit (0Mths-2Yrs);Draft;Bodysuit;next;Kids-Boys;Boys;Blue;;;Fashion;;2017;1.5-2Y,NEXTBYST00000292;2290.00;;;;;;;;zerotype;;Spring;;No
1841405;7831888895821126820-Blue-1841405;Navy Blue Zip Hooded Bodysuit (0Mths-2Yrs);Draft;Bodysuit;next;Kids-Boys;Boys;Blue;;;Fashion;;2017;0-3M,NEXTBYST00000285,6-9M,NEXTBYST00000286,3-6M,NEXTBYST00000287,9-12M,NEXTBYST00000288,0Y,NEXTBYST00000289,12-18M,NEXTBYST00000290,Newborn,NEXTBYST00000291;2190.00;;;;;;;;zerotype;;Spring;;No
1841404;7559282787444479590-Blue-1841404;Multicoloured Fish Print Bodysuit (3Mths-6Yrs;Draft;Bodysuit;next;Kids-Boys;Boys;Blue;;;Fashion;;2017;1.5-2Y,NEXTBYST00000280,4-5Y,NEXTBYST00000281,3-4Y,NEXTBYST00000282,5-6Y,NEXTBYST00000283,2-3Y,NEXTBYST00000284;1790.00;;;;;;;;zerotype;;Spring;;No
1841403;7559282787444479590-Blue-1841403;Multicoloured Fish Print Bodysuit (3Mths-6Yrs;Draft;Bodysuit;next;Kids-Boys;Boys;Blue;;;Fashion;;2017;6-9M,NEXTBYST00000276,9-12M,NEXTBYST00000277,3-6M,NEXTBYST00000278,12-18M,NEXTBYST00000279;1490.00;;;;;;;;zerotype;;Spring;;No
1841402;7450997597921241792-Blue-1841402;Ditsy Floral Three Piece Sunsafe Suit;Draft;Bodysuit;next;Kids-Girls;Girls;Blue;;;Fashion;;2017;15Y,NEXTBYST00000273,16Y,NEXTBYST00000274,14Y,NEXTBYST00000275;2990.00;;;;;;;;zerotype;;Spring;;No
1841401;7450997597921241792-Blue-1841401;Ditsy Floral Three Piece Sunsafe Suit;Draft;Bodysuit;next;Kids-Girls;Girls;Blue;;;Fashion;;2017;12Y,NEXTBYST00000270,11Y,NEXTBYST00000271,13Y,NEXTBYST00000272;2890.00;;;;;;;;zerotype;;Spring;;No
1841400;7450997597921241792-Blue-1841400;Ditsy Floral Three Piece Sunsafe Suit;Draft;Bodysuit;next;Kids-Girls;Girls;Blue;;;Fashion;;2017;10Y,NEXTBYST00000266,7Y,NEXTBYST00000267,9Y,NEXTBYST00000268,8Y,NEXTBYST00000269;2690.00;;;;;;;;zerotype;;Spring;;No
1841399;7450997597921241792-Blue-1841399;Ditsy Floral Three Piece Sunsafe Suit;Draft;Bodysuit;next;Kids-Girls;Girls;Blue;;;Fashion;;2017;4Y,NEXTBYST00000262,6Y,NEXTBYST00000263,5Y,NEXTBYST00000264,3Y,NEXTBYST00000265;2590.00;;;;;;;;zerotype;;Spring;;No
1841398;7221125129668517541-Blue-1841398;Grey Textured Bodysuit (0Mths-2Yrs);Draft;Bodysuit;next;Kids-Boys;Boys;Blue;;;Fashion;;2017;1.5-2Y,NEXTBYST00000261;1690.00;;;;;;;;zerotype;;Spring;;No
1841397;7221125129668517541-Blue-1841397;Grey Textured Bodysuit (0Mths-2Yrs);Draft;Bodysuit;next;Kids-Boys;Boys;Blue;;;Fashion;;2017;12-18M,NEXTBYST00000254,6-9M,NEXTBYST00000255,Newborn,NEXTBYST00000256,3-6M,NEXTBYST00000257,0-3M,NEXTBYST00000258,9-12M,NEXTBYST00000259,0Y,NEXTBYST00000260;1490.00;;;;;;;;zerotype;;Spring;;No
1841396;7160476697860312064-Blue-1841396;Pack Of 3 Transport Short Sleeve Bodysuits;Draft;Bodysuit;next;Kids-Boys;Boys;Blue;;;Fashion;;2017;1.5-2Y,NEXTBYST00000253;1690.00;;;;;;;;zerotype;;Spring;;No
1841395;7160476697860312064-Blue-1841395;Pack Of 3 Transport Short Sleeve Bodysuits;Draft;Bodysuit;next;Kids-Boys;Boys;Blue;;;Fashion;;2017;9-12M,NEXTBYST00000246,3-6M,NEXTBYST00000247,6-9M,NEXTBYST00000248,0Y,NEXTBYST00000249,0-3M,NEXTBYST00000250,Newborn,NEXTBYST00000251,12-18M,NEXTBYST00000252;1490.00;;;;;;;;zerotype;;Spring;;No
1841394;7099853711355613402-Blue-1841394;Pack Of 4 Multicoloured Bodysuits;Draft;Bodysuit;next;Kids-Boys;Boys;Blue;;;Fashion;;2017;1.5-2Y,NEXTBYST00000244,2-3Y,NEXTBYST00000245;1290.00;;;;;;;;zerotype;;Spring;;No
1841393;7099853711355613402-Blue-1841393;Pack Of 4 Multicoloured Bodysuits;Draft;Bodysuit;next;Kids-Boys;Boys;Blue;;;Fashion;;2017;6-9M,NEXTBYST00000237,9-12M,NEXTBYST00000238,0Y,NEXTBYST00000239,0-3M,NEXTBYST00000240,12-18M,NEXTBYST00000241,3-6M,NEXTBYST00000242,Newborn,NEXTBYST00000243;1190.00;;;;;;;;zerotype;;Spring;;No
1841392;6845974009352920706-Pink-1841392;Pink Fairy Sleepsuit And Headband Two Piece S;Draft;Bodysuit;next;Kids-Girls;Girls;Pink;;;Fashion;;2017;0Y,NEXTBYST00000234,Newborn,NEXTBYST00000235,0-3M,NEXTBYST00000236;1490.00;;;;;;;;zerotype;;Spring;;No
1841391;6839990854004240428-Grey-1841391;Fluro Dinosaur Long Sleeve Bodysuits Three Pa;Draft;Bodysuit;next;Kids-Boys;Boys;Grey;;;Fashion;;2017;1.5-2Y,NEXTBYST00000233;1790.00;;;;;;;;zerotype;;Spring;;No
1841390;6839990854004240428-Grey-1841390;Fluro Dinosaur Long Sleeve Bodysuits Three Pa;Draft;Bodysuit;next;Kids-Boys;Boys;Grey;;;Fashion;;2017;0-3M,NEXTBYST00000226,0Y,NEXTBYST00000227,12-18M,NEXTBYST00000228,9-12M,NEXTBYST00000229,Newborn,NEXTBYST00000230,3-6M,NEXTBYST00000231,6-9M,NEXTBYST00000232;1690.00;;;;;;;;zerotype;;Spring;;No
1841389;6629856430124355289-Blue-1841389;Pack Of 4 Long Sleeve Bodysuits;Draft;Bodysuit;next;Kids-Boys;Boys;Blue;;;Fashion;;2017;2-3Y,NEXTBYST00000224,1.5-2Y,NEXTBYST00000225;1490.00;;;;;;;;zerotype;;Spring;;No
1841388;6629856430124355289-Blue-1841388;Pack Of 4 Long Sleeve Bodysuits;Draft;Bodysuit;next;Kids-Boys;Boys;Blue;;;Fashion;;2017;3-6M,NEXTBYST00000217,Newborn,NEXTBYST00000218,12-18M,NEXTBYST00000219,0-3M,NEXTBYST00000220,6-9M,NEXTBYST00000221,0Y,NEXTBYST00000222,9-12M,NEXTBYST00000223;1390.00;;;;;;;;zerotype;;Spring;;No
1841387;6629817881267606925-Pink-1841387;Long Sleeve Bodysuits Four Pack;Draft;Bodysuit;next;Kids-Girls;Girls;Pink;;;Fashion;;2017;2-3Y,NEXTBYST00000215,1.5-2Y,NEXTBYST00000216;1490.00;;;;;;;;zerotype;;Spring;;No
1841386;6629817881267606925-Pink-1841386;Long Sleeve Bodysuits Four Pack;Draft;Bodysuit;next;Kids-Girls;Girls;Pink;;;Fashion;;2017;Newborn,NEXTBYST00000208,9-12M,NEXTBYST00000209,0Y,NEXTBYST00000210,3-6M,NEXTBYST00000211,0-3M,NEXTBYST00000212,12-18M,NEXTBYST00000213,6-9M,NEXTBYST00000214;1390.00;;;;;;;;zerotype;;Spring;;No
1841385;6554306031662799574-Blue-1841385;Pack Of 3 Monkey Long Sleeve Bodysuits;Draft;Bodysuit;next;Kids-Boys;Boys;Blue;;;Fashion;;2017;1.5-2Y,NEXTBYST00000207;1790.00;;;;;;;;zerotype;;Spring;;No
1841384;6554306031662799574-Blue-1841384;Pack Of 3 Monkey Long Sleeve Bodysuits;Draft;Bodysuit;next;Kids-Boys;Boys;Blue;;;Fashion;;2017;12-18M,NEXTBYST00000200,9-12M,NEXTBYST00000201,6-9M,NEXTBYST00000202,0Y,NEXTBYST00000203,3-6M,NEXTBYST00000204,Newborn,NEXTBYST00000205,0-3M,NEXTBYST00000206;1690.00;;;;;;;;zerotype;;Spring;;No
1841383;6542652689328567107-White-1841383;Pack Of 3 Multicoloured Slogan Long Leg Bodys;Draft;Bodysuit;next;Kids-Boys;Boys;White;;;Fashion;;2017;1.5-2Y,NEXTBYST00000199;2090.00;;;;;;;;zerotype;;Spring;;No
1841382;6542652689328567107-White-1841382;Pack Of 3 Multicoloured Slogan Long Leg Bodys;Draft;Bodysuit;next;Kids-Boys;Boys;White;;;Fashion;;2017;Newborn,NEXTBYST00000192,0Y,NEXTBYST00000193,0-3M,NEXTBYST00000194,3-6M,NEXTBYST00000195,6-9M,NEXTBYST00000196,12-18M,NEXTBYST00000197,9-12M,NEXTBYST00000198;1990.00;;;;;;;;zerotype;;Spring;;No
1841381;6519285664048125198-Cream-1841381;Short Sleeve Floral Bodysuits Three Pack;Draft;Bodysuit;next;Kids-Girls;Girls;Cream;;;Fashion;;2017;1.5-2Y,NEXTBYST00000191;1690.00;;;;;;;;zerotype;;Spring;;No
1841380;6519285664048125198-Cream-1841380;Short Sleeve Floral Bodysuits Three Pack;Draft;Bodysuit;next;Kids-Girls;Girls;Cream;;;Fashion;;2017;9-12M,NEXTBYST00000184,3-6M,NEXTBYST00000185,6-9M,NEXTBYST00000186,Newborn,NEXTBYST00000187,12-18M,NEXTBYST00000188,0Y,NEXTBYST00000189,0-3M,NEXTBYST00000190;1490.00;;;;;;;;zerotype;;Spring;;No
1841379;6490923028690661227-Grey-1841379;Pack Of 3 Monochrome Cub Short Sleeve Bodysui;Draft;Bodysuit;next;Kids-Boys;Boys;Grey;;;Fashion;;2017;1.5-2Y,NEXTBYST00000183;1590.00;;;;;;;;zerotype;;Spring;;No
1841378;6490923028690661227-Grey-1841378;Pack Of 3 Monochrome Cub Short Sleeve Bodysui;Draft;Bodysuit;next;Kids-Boys;Boys;Grey;;;Fashion;;2017;9-12M,NEXTBYST00000176,12-18M,NEXTBYST00000177,6-9M,NEXTBYST00000178,Newborn,NEXTBYST00000179,0-3M,NEXTBYST00000180,0Y,NEXTBYST00000181,3-6M,NEXTBYST00000182;1490.00;;;;;;;;zerotype;;Spring;;No
1841377;6426285618014066962-Pink-1841377;Pack Of 4 Short Sleeve Bodysuits;Draft;Bodysuit;next;Kids-Girls;Girls;Pink;;;Fashion;;2017;1.5-2Y,NEXTBYST00000174,2-3Y,NEXTBYST00000175;1290.00;;;;;;;;zerotype;;Spring;;No
1841376;6426285618014066962-Pink-1841376;Pack Of 4 Short Sleeve Bodysuits;Draft;Bodysuit;next;Kids-Girls;Girls;Pink;;;Fashion;;2017;3-6M,NEXTBYST00000167,9-12M,NEXTBYST00000168,12-18M,NEXTBYST00000169,6-9M,NEXTBYST00000170,0Y,NEXTBYST00000171,0-3M,NEXTBYST00000172,Newborn,NEXTBYST00000173;1190.00;;;;;;;;zerotype;;Spring;;No
1841375;6423159336029059723-Cream-1841375;Pack Of 2 Ecru/Aqua Secret Garden Print Sleep;Draft;Bodysuit;next;Kids-Girls;Girls;Cream;;;Fashion;;2017;1.5-2Y,NEXTBYST00000166;1990.00;;;;;;;;zerotype;;Spring;;No
1841374;6423159336029059723-Cream-1841374;Pack Of 2 Ecru/Aqua Secret Garden Print Sleep;Draft;Bodysuit;next;Kids-Girls;Girls;Cream;;;Fashion;;2017;12-18M,NEXTBYST00000159,0Y,NEXTBYST00000160,9-12M,NEXTBYST00000161,3-6M,NEXTBYST00000162,Newborn,NEXTBYST00000163,6-9M,NEXTBYST00000164,0-3M,NEXTBYST00000165;1790.00;;;;;;;;zerotype;;Spring;;No
1841373;6387172232518976703-Blue-1841373;Multicoloured Stripe Knit Bodysuit (0Mths-2Yr;Draft;Bodysuit;next;Kids-Boys;Boys;Blue;;;Fashion;;2017;1.5-2Y,NEXTBYST00000158;2090.00;;;;;;;;zerotype;;Spring;;No
1841372;6387172232518976703-Blue-1841372;Multicoloured Stripe Knit Bodysuit (0Mths-2Yr;Draft;Bodysuit;next;Kids-Boys;Boys;Blue;;;Fashion;;2017;0-3M,NEXTBYST00000150,0Y,NEXTBYST00000151,Newborn,NEXTBYST00000152,3-6M,NEXTBYST00000153,6-9M,NEXTBYST00000154,9-12M,NEXTBYST00000155,12-18M,NEXTBYST00000157;1990.00;;;;;;;;zerotype;;Spring;;No
1841371;6363677454076881995-White-1841371;White Printed Lion Shirtbody (0Mths-2Yrs);Draft;Bodysuit;next;Kids-Boys;Boys;White;;;Fashion;;2017;1.5-2Y,NEXTBYST00000149;1290.00;;;;;;;;zerotype;;Spring;;No
1841370;6363677454076881995-White-1841370;White Printed Lion Shirtbody (0Mths-2Yrs);Draft;Bodysuit;next;Kids-Boys;Boys;White;;;Fashion;;2017;12-18M,NEXTBYST00000145,9-12M,NEXTBYST00000146,6-9M,NEXTBYST00000147,3-6M,NEXTBYST00000148;1190.00;;;;;;;;zerotype;;Spring;;No
1841369;6233183810293593983-Black-1841369;Check Bodysuit;Draft;Bodysuit;next;Kids-Boys;Boys;Black;;;Fashion;;2017;1.5-2Y,NEXTBYST00000144;1390.00;;;;;;;;zerotype;;Spring;;No
1841368;6233183810293593983-Black-1841368;Check Bodysuit;Draft;Bodysuit;next;Kids-Boys;Boys;Black;;;Fashion;;2017;9-12M,NEXTBYST00000140,6-9M,NEXTBYST00000141,3-6M,NEXTBYST00000142,12-18M,NEXTBYST00000143;1290.00;;;;;;;;zerotype;;Spring;;No
1841367;6197028066916925292-White-1841367;Pack Of 2 Multicoloured Fairy Short Sleeve Bo;Draft;Bodysuit;next;Kids-Girls;Girls;White;;;Fashion;;2017;1.5-2Y,NEXTBYST00000139;1190.00;;;;;;;;zerotype;;Spring;;No
1841366;6197028066916925292-White-1841366;Pack Of 2 Multicoloured Fairy Short Sleeve Bo;Draft;Bodysuit;next;Kids-Girls;Girls;White;;;Fashion;;2017;0-3M,NEXTBYST00000132,Newborn,NEXTBYST00000133,6-9M,NEXTBYST00000134,0Y,NEXTBYST00000135,9-12M,NEXTBYST00000136,3-6M,NEXTBYST00000137,12-18M,NEXTBYST00000138;1090.00;;;;;;;;zerotype;;Spring;;No
1841365;6173928513247297242-Blue-1841365;Pack Of 4 Multicoloured Slogan Short Leg Body;Draft;Bodysuit;next;Kids-Boys;Boys;Blue;;;Fashion;;2017;1.5-2Y,NEXTBYST00000131;2390.00;;;;;;;;zerotype;;Spring;;No
1841364;6173928513247297242-Blue-1841364;Pack Of 4 Multicoloured Slogan Short Leg Body;Draft;Bodysuit;next;Kids-Boys;Boys;Blue;;;Fashion;;2017;Newborn,NEXTBYST00000124,12-18M,NEXTBYST00000125,3-6M,NEXTBYST00000126,6-9M,NEXTBYST00000127,0Y,NEXTBYST00000128,0-3M,NEXTBYST00000129,9-12M,NEXTBYST00000130;2290.00;;;;;;;;zerotype;;Spring;;No
1841363;6103691371139393876-Pink-1841363;Pack Of 4 Bodysuits;Draft;Bodysuit;next;Kids-Girls;Girls;Pink;;;Fashion;;2017;1.5-2Y,NEXTBYST00000122,2-3Y,NEXTBYST00000123;1290.00;;;;;;;;zerotype;;Spring;;No
1841362;6103691371139393876-Pink-1841362;Pack Of 4 Bodysuits;Draft;Bodysuit;next;Kids-Girls;Girls;Pink;;;Fashion;;2017;12-18M,NEXTBYST00000116,9-12M,NEXTBYST00000117,3-6M,NEXTBYST00000118,0-3M,NEXTBYST00000119,6-9M,NEXTBYST00000120,0Y,NEXTBYST00000121;1190.00;;;;;;;;zerotype;;Spring;;No
1841361;6033221016297274495-White-1841361;Pack Of 2 Multicoloured Mermaid Short Sleeve;Draft;Bodysuit;next;Kids-Girls;Girls;White;;;Fashion;;2017;1.5-2Y,NEXTBYST00000115;1190.00;;;;;;;;zerotype;;Spring;;No
1841360;6033221016297274495-White-1841360;Pack Of 2 Multicoloured Mermaid Short Sleeve;Draft;Bodysuit;next;Kids-Girls;Girls;White;;;Fashion;;2017;0-3M,NEXTBYST00000108,0Y,NEXTBYST00000109,12-18M,NEXTBYST00000110,Newborn,NEXTBYST00000111,9-12M,NEXTBYST00000112,3-6M,NEXTBYST00000113,6-9M,NEXTBYST00000114;1090.00;;;;;;;;zerotype;;Spring;;No
1841359;6013875418423967501-Pink-1841359;Pack Of 3 Apple Long Sleeve Bodysuits;Draft;Bodysuit;next;Kids-Girls;Girls;Pink;;;Fashion;;2017;1.5-2Y,NEXTBYST00000107;1790.00;;;;;;;;zerotype;;Spring;;No
1841358;6013875418423967501-Pink-1841358;Pack Of 3 Apple Long Sleeve Bodysuits;Draft;Bodysuit;next;Kids-Girls;Girls;Pink;;;Fashion;;2017;Newborn,NEXTBYST00000100,0Y,NEXTBYST00000101,12-18M,NEXTBYST00000102,6-9M,NEXTBYST00000103,0-3M,NEXTBYST00000104,9-12M,NEXTBYST00000105,3-6M,NEXTBYST00000106;1690.00;;;;;;;;zerotype;;Spring;;No
1841357;5905621126231318842-Blue-1841357;Short Sleeve Bodysuits Four Pack;Draft;Bodysuit;next;Kids-Boys;Boys;Blue;;;Fashion;;2017;2-3Y,NEXTBYST00000098,1.5-2Y,NEXTBYST00000099;1290.00;;;;;;;;zerotype;;Spring;;No
1841356;5905621126231318842-Blue-1841356;Short Sleeve Bodysuits Four Pack;Draft;Bodysuit;next;Kids-Boys;Boys;Blue;;;Fashion;;2017;0-3M,NEXTBYST00000091,9-12M,NEXTBYST00000092,0Y,NEXTBYST00000093,12-18M,NEXTBYST00000094,Newborn,NEXTBYST00000095,6-9M,NEXTBYST00000096,3-6M,NEXTBYST00000097;1190.00;;;;;;;;zerotype;;Spring;;No
1841355;5364225186676121262-Grey-1841355;Grey Zip Bodysuit (0Mths-2Yrs);Draft;Bodysuit;next;Kids-Boys;Boys;Grey;;;Fashion;;2017;1.5-2Y,NEXTBYST00000090;2290.00;;;;;;;;zerotype;;Spring;;No
1841354;5364225186676121262-Grey-1841354;Grey Zip Bodysuit (0Mths-2Yrs);Draft;Bodysuit;next;Kids-Boys;Boys;Grey;;;Fashion;;2017;12-18M,NEXTBYST00000083,9-12M,NEXTBYST00000084,Newborn,NEXTBYST00000085,3-6M,NEXTBYST00000086,0-3M,NEXTBYST00000087,0Y,NEXTBYST00000088,6-9M,NEXTBYST00000089;2190.00;;;;;;;;zerotype;;Spring;;No
1841353;5273683163512938810-Blue-1841353;Dip Dye Embossed Shark Sunsafe Suit;Draft;Bodysuit;next;Kids-Boys;Boys;Blue;;;Fashion;;2017;5-6Y,NEXTBYST00000078,2-3Y,NEXTBYST00000079,4-5Y,NEXTBYST00000080,3-4Y,NEXTBYST00000081,1.5-2Y,NEXTBYST00000082;1990.00;;;;;;;;zerotype;;Spring;;No
1841352;5273683163512938810-Blue-1841352;Dip Dye Embossed Shark Sunsafe Suit;Draft;Bodysuit;next;Kids-Boys;Boys;Blue;;;Fashion;;2017;12-18M,NEXTBYST00000074,6-9M,NEXTBYST00000075,3-6M,NEXTBYST00000076,9-12M,NEXTBYST00000077;1690.00;;;;;;;;zerotype;;Spring;;No
1841351;5273057437367792302-Blue-1841351;Pack Of 2 Multicoloured Whale/Wave Bodysuits;Draft;Bodysuit;next;Kids-Boys;Boys;Blue;;;Fashion;;2017;1.5-2Y,NEXTBYST00000073;1790.00;;;;;;;;zerotype;;Spring;;No
1841350;5273057437367792302-Blue-1841350;Pack Of 2 Multicoloured Whale/Wave Bodysuits;Draft;Bodysuit;next;Kids-Boys;Boys;Blue;;;Fashion;;2017;3-6M,NEXTBYST00000066,6-9M,NEXTBYST00000067,0-3M,NEXTBYST00000068,Newborn,NEXTBYST00000069,0Y,NEXTBYST00000070,9-12M,NEXTBYST00000071,12-18M,NEXTBYST00000072;1690.00;;;;;;;;zerotype;;Spring;;No
1841349;5258683233573910023-White-1841349;White/Green Mermaid Bodysuit And Headband (0-;Draft;Bodysuit;next;Kids-Girls;Girls;White;;;Fashion;;2017;12-18M,NEXTBYST00000059,0-3M,NEXTBYST00000060,6-9M,NEXTBYST00000061,3-6M,NEXTBYST00000062,9-12M,NEXTBYST00000063,0Y,NEXTBYST00000064,Newborn,NEXTBYST00000065;1390.00;;;;;;;;zerotype;;Spring;;No
1841348;5142746429458113201-Grey-1841348;Pack Of 2 Grey/Blue Space Short Sleeve Bodysu;Draft;Bodysuit;next;Kids-Boys;Boys;Grey;;;Fashion;;2017;1.5-2Y,NEXTBYST00000058;1190.00;;;;;;;;zerotype;;Spring;;No
1841347;5142746429458113201-Grey-1841347;Pack Of 2 Grey/Blue Space Short Sleeve Bodysu;Draft;Bodysuit;next;Kids-Boys;Boys;Grey;;;Fashion;;2017;Newborn,NEXTBYST00000051,3-6M,NEXTBYST00000052,6-9M,NEXTBYST00000053,12-18M,NEXTBYST00000054,9-12M,NEXTBYST00000055,0Y,NEXTBYST00000056,0-3M,NEXTBYST00000057;1090.00;;;;;;;;zerotype;;Spring;;No
1841346;4904168218605005862-Grey-1841346;Badged Long Leg Rompers Two Pack;Draft;Bodysuit;next;Kids-Boys;Boys;Grey;;;Fashion;;2017;1.5-2Y,NEXTBYST00000050;2090.00;;;;;;;;zerotype;;Spring;;No
1841345;4904168218605005862-Grey-1841345;Badged Long Leg Rompers Two Pack;Draft;Bodysuit;next;Kids-Boys;Boys;Grey;;;Fashion;;2017;0-3M,NEXTBYST00000043,12-18M,NEXTBYST00000044,0Y,NEXTBYST00000045,6-9M,NEXTBYST00000046,9-12M,NEXTBYST00000047,Newborn,NEXTBYST00000048,3-6M,NEXTBYST00000049;1990.00;;;;;;;;zerotype;;Spring;;No
1841344;4895681809963980235-Green-1841344;Bg All In One Ditsy Bodysuit;Draft;Bodysuit;next;Kids-Girls;Girls;Green;;;Fashion;;2017;4-5Y,NEXTBYST00000038,5-6Y,NEXTBYST00000039,2-3Y,NEXTBYST00000040,3-4Y,NEXTBYST00000041,1.5-2Y,NEXTBYST00000042;1990.00;;;;;;;;zerotype;;Spring;;No
1841343;4895681809963980235-Green-1841343;Bg All In One Ditsy Bodysuit;Draft;Bodysuit;next;Kids-Girls;Girls;Green;;;Fashion;;2017;12-18M,NEXTBYST00000034,9-12M,NEXTBYST00000035,3-6M,NEXTBYST00000036,6-9M,NEXTBYST00000037;1790.00;;;;;;;;zerotype;;Spring;;No
1841342;4849904266371400192-White-1841342;Days Of The Week Short Sleeve Bodysuits Seven;Draft;Bodysuit;next;Kids-Boys;Boys;White;;;Fashion;;2017;1.5-2Y,NEXTBYST00000033;2190.00;;;;;;;;zerotype;;Spring;;No
1841341;4849904266371400192-White-1841341;Days Of The Week Short Sleeve Bodysuits Seven;Draft;Bodysuit;next;Kids-Boys;Boys;White;;;Fashion;;2017;12-18M,NEXTBYST00000026,Newborn,NEXTBYST00000027,9-12M,NEXTBYST00000028,3-6M,NEXTBYST00000029,0Y,NEXTBYST00000030,6-9M,NEXTBYST00000031,0-3M,NEXTBYST00000032;2090.00;;;;;;;;zerotype;;Spring;;No
1841340;4791991744520672126-Orange-1841340;Dinosaur Short Sleeve Bodysuits Three Pack;Draft;Bodysuit;next;Kids-Girls;Girls;Orange;;;Fashion;;2017;1.5-2Y,NEXTBYST00000025;1690.00;;;;;;;;zerotype;;Spring;;No
1841339;4791991744520672126-Orange-1841339;Dinosaur Short Sleeve Bodysuits Three Pack;Draft;Bodysuit;next;Kids-Girls;Girls;Orange;;;Fashion;;2017;Newborn,NEXTBYST00000018,0-3M,NEXTBYST00000019,6-9M,NEXTBYST00000020,3-6M,NEXTBYST00000021,0Y,NEXTBYST00000022,9-12M,NEXTBYST00000023,12-18M,NEXTBYST00000024;1490.00;;;;;;;;zerotype;;Spring;;No
1841338;4789739328123676555-Green-1841338;Pack Of 2 Multicoloured  Camo Bodysuits  (9Mt;Draft;Bodysuit;next;Kids-Boys;Boys;Green;;;Fashion;;2017;6-7Y,NEXTBYST00000016,7-8Y,NEXTBYST00000017;2790.00;;;;;;;;zerotype;;Spring;;No
1841337;4789739328123676555-Green-1841337;Pack Of 2 Multicoloured  Camo Bodysuits  (9Mt;Draft;Bodysuit;next;Kids-Boys;Boys;Green;;;Fashion;;2017;5-6Y,NEXTBYST00000013,3-4Y,NEXTBYST00000014,4-5Y,NEXTBYST00000015;2590.00;;;;;;;;zerotype;;Spring;;No
1841336;4789739328123676555-Green-1841336;Pack Of 2 Multicoloured  Camo Bodysuits  (9Mt;Draft;Bodysuit;next;Kids-Boys;Boys;Green;;;Fashion;;2017;1.5-2Y,NEXTBYST00000011,2-3Y,NEXTBYST00000012;2290.00;;;;;;;;zerotype;;Spring;;No
1841335;4789739328123676555-Green-1841335;Pack Of 2 Multicoloured  Camo Bodysuits  (9Mt;Draft;Bodysuit;next;Kids-Boys;Boys;Green;;;Fashion;;2017;9-12M,NEXTBYST00000009,12-18M,NEXTBYST00000010;2090.00;;;;;;;;zerotype;;Spring;;No
1841334;4651845421069141384-Grey-1841334;Badged Long Sleeve Bodysuits Two Pack;Draft;Bodysuit;next;Kids-Boys;Boys;Grey;;;Fashion;;2017;1.5-2Y,NEXTBYST00000008;1290.00;;;;;;;;zerotype;;Spring;;No
1841333;4651845421069141384-Grey-1841333;Badged Long Sleeve Bodysuits Two Pack;Draft;Bodysuit;next;Kids-Boys;Boys;Grey;;;Fashion;;2017;3-6M,NEXTBYST00000001,0-3M,NEXTBYST00000002,12-18M,NEXTBYST00000003,6-9M,NEXTBYST00000004,9-12M,NEXTBYST00000005,Newborn,NEXTBYST00000006,0Y,NEXTBYST00000007;1190.00;;;;;;;;zerotype;;Spring;;No
1841332;9053676375337295531-Green-1841332;Floral Soft Trouser;Draft;Jeggings;next;Kids-Girls;Girls;Green;;;Fashion;;2017;12-18M,NEXTJGNG00000112,9-12M,NEXTJGNG00000113,4-5Y,NEXTJGNG00000114,3-4Y,NEXTJGNG00000115,1.5-2Y,NEXTJGNG00000116,6-9M,NEXTJGNG00000117,3-6M,NEXTJGNG00000118,2-3Y,NEXTJGNG00000119,5-6Y,NEXTJGNG00000120;890.00;;;;;;;;zerotype;;Spring;;No
1841331;9040268483412479069-Black-1841331;Mesh Zip Leggings;Draft;Jeggings;next;Adults-Women;Women;Black;;;Fashion;;2017;6,NEXTJGNG00000103,16,NEXTJGNG00000104,22,NEXTJGNG00000105,14,NEXTJGNG00000106,12,NEXTJGNG00000107,10,NEXTJGNG00000108,18,NEXTJGNG00000109,8,NEXTJGNG00000110,20,NEXTJGNG00000111;3890.00;;;;;;;;zerotype;;Spring;;No
1841330;7809730695681858641-Blue-1841330;Navy Jacquard Taper Trousers;Draft;Jeggings;next;Adults-Women;Women;Blue;;;Fashion;;2017;14XL,NEXTJGNG00000080,18L,NEXTJGNG00000081,16XL,NEXTJGNG00000082,6R,NEXTJGNG00000083,12R,NEXTJGNG00000084,22R,NEXTJGNG00000085,20L,NEXTJGNG00000086,12L,NEXTJGNG00000087,16R,NEXTJGNG00000088,14L,NEXTJGNG00000089,22L,NEXTJGNG00000090,12XL,NEXTJGNG00000091,10R,NEXTJGNG00000092,10L,NEXTJGNG00000093,8XL,NEXTJGNG00000094,8R,NEXTJGNG00000095,18R,NEXTJGNG00000096,18XL,NEXTJGNG00000097,10XL,NEXTJGNG00000098,8L,NEXTJGNG00000099,20R,NEXTJGNG00000100,14R,NEXTJGNG00000101,16L,NEXTJGNG00000102;5090.00;;;;;;;;zerotype;;Spring;;No
1841329;7501464055588603980-Blue-1841329;Blue Soft Jeggings;Draft;Jeggings;next;Kids-Girls;Girls;Blue;;;Fashion;;2017;1.5-2Y,NEXTJGNG00000071,2-3Y,NEXTJGNG00000072,3-6M,NEXTJGNG00000073,5-6Y,NEXTJGNG00000074,4-5Y,NEXTJGNG00000075,12-18M,NEXTJGNG00000076,3-4Y,NEXTJGNG00000077,9-12M,NEXTJGNG00000078,6-9M,NEXTJGNG00000079;890.00;;;;;;;;zerotype;;Spring;;No
1841328;7169985123639672629-Black-1841328;Technical Full Length Leggings With Mesh;Draft;Jeggings;next;Adults-Women;Women;Black;;;Fashion;;2017;14,NEXTJGNG00000062,20,NEXTJGNG00000063,12,NEXTJGNG00000064,8,NEXTJGNG00000065,16,NEXTJGNG00000066,6,NEXTJGNG00000067,10,NEXTJGNG00000068,18,NEXTJGNG00000069,22,NEXTJGNG00000070;5090.00;;;;;;;;zerotype;;Spring;;No
1841327;5848635871886239724-Pink-1841327;Pink Slim Jeggings;Draft;Jeggings;next;Adults-Women;Women;Pink;;;Fashion;;2017;16L,NEXTJGNG00000046,6R,NEXTJGNG00000047,10L,NEXTJGNG00000048,16R,NEXTJGNG00000049,18R,NEXTJGNG00000050,6L,NEXTJGNG00000051,20R,NEXTJGNG00000052,12L,NEXTJGNG00000053,8R,NEXTJGNG00000054,14R,NEXTJGNG00000055,22R,NEXTJGNG00000056,18L,NEXTJGNG00000057,8L,NEXTJGNG00000058,12R,NEXTJGNG00000059,10R,NEXTJGNG00000060,14L,NEXTJGNG00000061;3390.00;;;;;;;;zerotype;;Spring;;No
1841326;5081738787725951934-Black-1841326;Black Solid Jeggings;Draft;Jeggings;next;Adults-Women;Women;Black;;;Fashion;;2017;12,NEXTJGNG00000035,16,NEXTJGNG00000036,8,NEXTJGNG00000037,14,NEXTJGNG00000038,10,NEXTJGNG00000039,18,NEXTJGNG00000040,26,NEXTJGNG00000041,20,NEXTJGNG00000042,24,NEXTJGNG00000043,22,NEXTJGNG00000044,6,NEXTJGNG00000045;3390.00;;;;;;;;zerotype;;Spring;;No
1841325;4801091963956619892-Black-1841325;Zip Front Jeggings;Draft;Jeggings;next;Adults-Women;Women;Black;;;Fashion;;2017;8L,NEXTJGNG00000012,22R,NEXTJGNG00000013,14L,NEXTJGNG00000014,14XL,NEXTJGNG00000015,18XL,NEXTJGNG00000016,6R,NEXTJGNG00000017,22L,NEXTJGNG00000018,16XL,NEXTJGNG00000019,12R,NEXTJGNG00000020,10L,NEXTJGNG00000021,10XL,NEXTJGNG00000022,10R,NEXTJGNG00000023,18L,NEXTJGNG00000024,20R,NEXTJGNG00000025,16L,NEXTJGNG00000026,8R,NEXTJGNG00000027,12L,NEXTJGNG00000028,12XL,NEXTJGNG00000029,14R,NEXTJGNG00000030,20L,NEXTJGNG00000031,18R,NEXTJGNG00000032,8XL,NEXTJGNG00000033,16R,NEXTJGNG00000034;5390.00;;;;;;;;zerotype;;Spring;;No
1841324;4750591631878453045-Grey-1841324;Sporty Seam Denim Jegging;Draft;Jeggings;next;Adults-Women;Women;Grey;;;Fashion;;2017;6,NEXTJGNG00000001,10,NEXTJGNG00000002,20,NEXTJGNG00000003,26,NEXTJGNG00000004,8,NEXTJGNG00000005,22,NEXTJGNG00000006,14,NEXTJGNG00000007,12,NEXTJGNG00000008,18,NEXTJGNG00000009,16,NEXTJGNG00000010,24,NEXTJGNG00000011;4490.00;;;;;;;;zerotype;;Spring;;No
1841323;5056545134854028624-Purple-1841323;Long Padded Coat;Draft;Coats;next;Kids-Girls;Girls;Purple;;;Fashion;;2017;14Y,NEXTCOAT00000011,15Y,NEXTCOAT00000012,16Y,NEXTCOAT00000013,13Y,NEXTCOAT00000014;5290.00;;;;;;;;zerotype;;Spring;;No
1841322;5056545134854028624-Purple-1841322;Long Padded Coat;Draft;Coats;next;Kids-Girls;Girls;Purple;;;Fashion;;2017;12Y,NEXTCOAT00000009,11Y,NEXTCOAT00000010;5090.00;;;;;;;;zerotype;;Spring;;No
1841321;5056545134854028624-Purple-1841321;Long Padded Coat;Draft;Coats;next;Kids-Girls;Girls;Purple;;;Fashion;;2017;9Y,NEXTCOAT00000005,7Y,NEXTCOAT00000006,8Y,NEXTCOAT00000007,10Y,NEXTCOAT00000008;4790.00;;;;;;;;zerotype;;Spring;;No
1841320;5056545134854028624-Purple-1841320;Long Padded Coat;Draft;Coats;next;Kids-Girls;Girls;Purple;;;Fashion;;2017;4Y,NEXTCOAT00000001,5Y,NEXTCOAT00000002,3Y,NEXTCOAT00000003,6Y,NEXTCOAT00000004;4590.00;;;;;;;;zerotype;;Spring;;No
1841319;7066777571135230933-Blue-1841319;Scratch Mitts 3 Pack;Draft;Gloves;next;Kids-Boys;Boys;Blue;;;Fashion;;2017;Onesize,NEXTGLOV00000001;690.00;;;;;;;;zerotype;;Spring;;No
1841318;7626744233551842584-Pink-1841318;Bikini;Draft;Lingerie Set;next;Kids-Girls;Girls;Pink;;;Fashion;;2017;15Y,NEXTLNGR00000110,14Y,NEXTLNGR00000111,16Y,NEXTLNGR00000112;1990.00;;;;;;;;zerotype;;Spring;;No
1841317;7626744233551842584-Pink-1841317;Bikini;Draft;Lingerie Set;next;Kids-Girls;Girls;Pink;;;Fashion;;2017;13Y,NEXTLNGR00000107,11Y,NEXTLNGR00000108,12Y,NEXTLNGR00000109;1790.00;;;;;;;;zerotype;;Spring;;No
1841316;7626744233551842584-Pink-1841316;Bikini;Draft;Lingerie Set;next;Kids-Girls;Girls;Pink;;;Fashion;;2017;9Y,NEXTLNGR00000103,10Y,NEXTLNGR00000104,7Y,NEXTLNGR00000105,8Y,NEXTLNGR00000106;1690.00;;;;;;;;zerotype;;Spring;;No
1841315;7626744233551842584-Pink-1841315;Bikini;Draft;Lingerie Set;next;Kids-Girls;Girls;Pink;;;Fashion;;2017;4Y,NEXTLNGR00000099,6Y,NEXTLNGR00000100,3Y,NEXTLNGR00000101,5Y,NEXTLNGR00000102;1490.00;;;;;;;;zerotype;;Spring;;No
1841314;7071018655256188267-Orange-1841314;NEXT ORANGE LINGERIE SETS;Draft;Lingerie Set;next;Kids-Girls;Girls;Orange;;;Fashion;;2017;15Y,NEXTLNGR00000096,16Y,NEXTLNGR00000097,14Y,NEXTLNGR00000098;1790.00;;;;;;;;zerotype;;Spring;;No
1841313;7071018655256188267-Orange-1841313;NEXT ORANGE LINGERIE SETS;Draft;Lingerie Set;next;Kids-Girls;Girls;Orange;;;Fashion;;2017;12Y,NEXTLNGR00000093,11Y,NEXTLNGR00000094,13Y,NEXTLNGR00000095;1690.00;;;;;;;;zerotype;;Spring;;No
1841312;7071018655256188267-Orange-1841312;NEXT ORANGE LINGERIE SETS;Draft;Lingerie Set;next;Kids-Girls;Girls;Orange;;;Fashion;;2017;7Y,NEXTLNGR00000089,8Y,NEXTLNGR00000090,9Y,NEXTLNGR00000091,10Y,NEXTLNGR00000092;1590.00;;;;;;;;zerotype;;Spring;;No
1841311;7071018655256188267-Orange-1841311;NEXT ORANGE LINGERIE SETS;Draft;Lingerie Set;next;Kids-Girls;Girls;Orange;;;Fashion;;2017;3Y,NEXTLNGR00000085,5Y,NEXTLNGR00000086,4Y,NEXTLNGR00000087,6Y,NEXTLNGR00000088;1490.00;;;;;;;;zerotype;;Spring;;No
1841310;6933118684090074900-Blue-1841310;Og Bikini Jack;Draft;Lingerie Set;next;Kids-Girls;Girls;Blue;;;Fashion;;2017;14Y,NEXTLNGR00000082,15Y,NEXTLNGR00000083,16Y,NEXTLNGR00000084;2190.00;;;;;;;;zerotype;;Spring;;No
1841309;6933118684090074900-Blue-1841309;Og Bikini Jack;Draft;Lingerie Set;next;Kids-Girls;Girls;Blue;;;Fashion;;2017;13Y,NEXTLNGR00000079,12Y,NEXTLNGR00000080,11Y,NEXTLNGR00000081;2090.00;;;;;;;;zerotype;;Spring;;No
1841308;6933118684090074900-Blue-1841308;Og Bikini Jack;Draft;Lingerie Set;next;Kids-Girls;Girls;Blue;;;Fashion;;2017;7Y,NEXTLNGR00000075,9Y,NEXTLNGR00000076,8Y,NEXTLNGR00000077,10Y,NEXTLNGR00000078;1990.00;;;;;;;;zerotype;;Spring;;No
1841307;6933118684090074900-Blue-1841307;Og Bikini Jack;Draft;Lingerie Set;next;Kids-Girls;Girls;Blue;;;Fashion;;2017;5Y,NEXTLNGR00000071,4Y,NEXTLNGR00000072,6Y,NEXTLNGR00000073,3Y,NEXTLNGR00000074;1790.00;;;;;;;;zerotype;;Spring;;No
1841306;6775099130826952104-Pink-1841306;Multicoloured Bikini Set;Draft;Lingerie Set;next;Kids-Girls;Girls;Pink;;;Fashion;;2017;15Y,NEXTLNGR00000068,16Y,NEXTLNGR00000069,14Y,NEXTLNGR00000070;1990.00;;;;;;;;zerotype;;Spring;;No
1841305;6775099130826952104-Pink-1841305;Multicoloured Bikini Set;Draft;Lingerie Set;next;Kids-Girls;Girls;Pink;;;Fashion;;2017;12Y,NEXTLNGR00000065,13Y,NEXTLNGR00000066,11Y,NEXTLNGR00000067;1790.00;;;;;;;;zerotype;;Spring;;No
1841304;6775099130826952104-Pink-1841304;Multicoloured Bikini Set;Draft;Lingerie Set;next;Kids-Girls;Girls;Pink;;;Fashion;;2017;10Y,NEXTLNGR00000061,9Y,NEXTLNGR00000062,7Y,NEXTLNGR00000063,8Y,NEXTLNGR00000064;1690.00;;;;;;;;zerotype;;Spring;;No
1841303;6775099130826952104-Pink-1841303;Multicoloured Bikini Set;Draft;Lingerie Set;next;Kids-Girls;Girls;Pink;;;Fashion;;2017;6Y,NEXTLNGR00000057,4Y,NEXTLNGR00000058,3Y,NEXTLNGR00000059,5Y,NEXTLNGR00000060;1490.00;;;;;;;;zerotype;;Spring;;No
1841302;6087073162627277936-Green-1841302;Multicoloured Lingerie Set;Draft;Lingerie Set;next;Kids-Girls;Girls;Green;;;Fashion;;2017;16Y,NEXTLNGR00000054,15Y,NEXTLNGR00000055,14Y,NEXTLNGR00000056;1990.00;;;;;;;;zerotype;;Spring;;No
1841301;6087073162627277936-Green-1841301;Multicoloured Lingerie Set;Draft;Lingerie Set;next;Kids-Girls;Girls;Green;;;Fashion;;2017;13Y,NEXTLNGR00000051,11Y,NEXTLNGR00000052,12Y,NEXTLNGR00000053;1790.00;;;;;;;;zerotype;;Spring;;No
1841300;6087073162627277936-Green-1841300;Multicoloured Lingerie Set;Draft;Lingerie Set;next;Kids-Girls;Girls;Green;;;Fashion;;2017;9Y,NEXTLNGR00000047,8Y,NEXTLNGR00000048,10Y,NEXTLNGR00000049,7Y,NEXTLNGR00000050;1690.00;;;;;;;;zerotype;;Spring;;No
1841299;6087073162627277936-Green-1841299;Multicoloured Lingerie Set;Draft;Lingerie Set;next;Kids-Girls;Girls;Green;;;Fashion;;2017;4Y,NEXTLNGR00000043,6Y,NEXTLNGR00000044,3Y,NEXTLNGR00000045,5Y,NEXTLNGR00000046;1490.00;;;;;;;;zerotype;;Spring;;No
1841298;5551975152304041398-Green-1841298;NEXT GREEN LINGERIE SETS;Draft;Lingerie Set;next;Kids-Girls;Girls;Green;;;Fashion;;2017;15Y,NEXTLNGR00000040,16Y,NEXTLNGR00000041,14Y,NEXTLNGR00000042;2190.00;;;;;;;;zerotype;;Spring;;No
1841297;5551975152304041398-Green-1841297;NEXT GREEN LINGERIE SETS;Draft;Lingerie Set;next;Kids-Girls;Girls;Green;;;Fashion;;2017;11Y,NEXTLNGR00000037,12Y,NEXTLNGR00000038,13Y,NEXTLNGR00000039;2090.00;;;;;;;;zerotype;;Spring;;No
1841296;5551975152304041398-Green-1841296;NEXT GREEN LINGERIE SETS;Draft;Lingerie Set;next;Kids-Girls;Girls;Green;;;Fashion;;2017;10Y,NEXTLNGR00000033,9Y,NEXTLNGR00000034,7Y,NEXTLNGR00000035,8Y,NEXTLNGR00000036;1990.00;;;;;;;;zerotype;;Spring;;No
1841295;5551975152304041398-Green-1841295;NEXT GREEN LINGERIE SETS;Draft;Lingerie Set;next;Kids-Girls;Girls;Green;;;Fashion;;2017;3Y,NEXTLNGR00000029,4Y,NEXTLNGR00000030,6Y,NEXTLNGR00000031,5Y,NEXTLNGR00000032;1790.00;;;;;;;;zerotype;;Spring;;No
1841294;5498532026948356447-Green-1841294;Multicoloured Bikini Set;Draft;Lingerie Set;next;Kids-Girls;Girls;Green;;;Fashion;;2017;14Y,NEXTLNGR00000026,15Y,NEXTLNGR00000027,16Y,NEXTLNGR00000028;1990.00;;;;;;;;zerotype;;Spring;;No
1841293;5498532026948356447-Green-1841293;Multicoloured Bikini Set;Draft;Lingerie Set;next;Kids-Girls;Girls;Green;;;Fashion;;2017;11Y,NEXTLNGR00000023,12Y,NEXTLNGR00000024,13Y,NEXTLNGR00000025;1790.00;;;;;;;;zerotype;;Spring;;No
1841292;5498532026948356447-Green-1841292;Multicoloured Bikini Set;Draft;Lingerie Set;next;Kids-Girls;Girls;Green;;;Fashion;;2017;10Y,NEXTLNGR00000019,9Y,NEXTLNGR00000020,7Y,NEXTLNGR00000021,8Y,NEXTLNGR00000022;1690.00;;;;;;;;zerotype;;Spring;;No
1841291;5498532026948356447-Green-1841291;Multicoloured Bikini Set;Draft;Lingerie Set;next;Kids-Girls;Girls;Green;;;Fashion;;2017;6Y,NEXTLNGR00000015,3Y,NEXTLNGR00000016,5Y,NEXTLNGR00000017,4Y,NEXTLNGR00000018;1490.00;;;;;;;;zerotype;;Spring;;No
1841290;4868477952945698814-Blue-1841290;Macrame Bikini;Draft;Lingerie Set;next;Kids-Girls;Girls;Blue;;;Fashion;;2017;15Y,NEXTLNGR00000012,16Y,NEXTLNGR00000013,14Y,NEXTLNGR00000014;2190.00;;;;;;;;zerotype;;Spring;;No
1841289;4868477952945698814-Blue-1841289;Macrame Bikini;Draft;Lingerie Set;next;Kids-Girls;Girls;Blue;;;Fashion;;2017;11Y,NEXTLNGR00000009,12Y,NEXTLNGR00000010,13Y,NEXTLNGR00000011;2090.00;;;;;;;;zerotype;;Spring;;No
1841288;4868477952945698814-Blue-1841288;Macrame Bikini;Draft;Lingerie Set;next;Kids-Girls;Girls;Blue;;;Fashion;;2017;7Y,NEXTLNGR00000005,9Y,NEXTLNGR00000006,10Y,NEXTLNGR00000007,8Y,NEXTLNGR00000008;1990.00;;;;;;;;zerotype;;Spring;;No
1841287;4868477952945698814-Blue-1841287;Macrame Bikini;Draft;Lingerie Set;next;Kids-Girls;Girls;Blue;;;Fashion;;2017;3Y,NEXTLNGR00000001,5Y,NEXTLNGR00000002,6Y,NEXTLNGR00000003,4Y,NEXTLNGR00000004;1790.00;;;;;;;;zerotype;;Spring;;No
1841286;9201707177415866119-Blue-1841286;Bed Socks Two Pack;Draft;Socks;next;Adults-Women;Women;Blue;;;Fashion;;2017;Onesize,NEXTSCKS00000028;890.00;;;;;;;;zerotype;;Spring;;No
1841285;9117026135209479961-Pink-1841285;Sloth Pattern Socks Three Pack;Draft;Socks;next;Adults-Women;Women;Pink;;;Fashion;;2017;Onesize,NEXTSCKS00000027;1390.00;;;;;;;;zerotype;;Spring;;No
1841284;8779330767343829610-Black-1841284;Pack Of 5 Black Bright Stripe Socks;Draft;Socks;next;Adults-Women;Women;Black;;;Fashion;;2017;Onesize,NEXTSCKS00000026;1190.00;;;;;;;;zerotype;;Spring;;No
1841283;8660144833529458209-Grey-1841283;Pack Of 2 Multicoloured Bunny Bed Socks;Draft;Socks;next;Adults-Women;Women;Grey;;;Fashion;;2017;Onesize,NEXTSCKS00000025;1090.00;;;;;;;;zerotype;;Spring;;No
1841282;8624572876379394071-Pink-1841282;Tropical Fruit Pattern Trainer Socks Five Pac;Draft;Socks;next;Adults-Women;Women;Pink;;;Fashion;;2017;Onesize,NEXTSCKS00000024;1090.00;;;;;;;;zerotype;;Spring;;No
1841281;8603896045456728291-Blue-1841281;Stripe Pattern Socks Four Pack;Draft;Socks;next;Adults-Women;Women;Blue;;;Fashion;;2017;Onesize,NEXTSCKS00000023;1390.00;;;;;;;;zerotype;;Spring;;No
1841280;8578812773209507369-Black-1841280;Butterfly Motif Socks Four Pack;Draft;Socks;next;Adults-Women;Women;Black;;;Fashion;;2017;Onesize,NEXTSCKS00000022;1390.00;;;;;;;;zerotype;;Spring;;No
1841279;8045882022055324063-Blue-1841279;Pack Of 5 Multicoloured Printed Socks;Draft;Socks;next;Adults-Women;Women;Blue;;;Fashion;;2017;Onesize,NEXTSCKS00000021;1390.00;;;;;;;;zerotype;;Spring;;No
1841278;7998153739932477128-Blue-1841278;Badge Motif Socks Four Pack;Draft;Socks;next;Adults-Women;Women;Blue;;;Fashion;;2017;Onesize,NEXTSCKS00000020;1390.00;;;;;;;;zerotype;;Spring;;No
1841277;7250297247409785562-Black-1841277;NEXT BLACK SOCKS;Draft;Socks;next;Adults-Women;Women;Black;;;Fashion;;2017;Onesize,NEXTSCKS00000019;1590.00;;;;;;;;zerotype;;Spring;;No
1841276;6526109046565173960-Blue-1841276;Pack Of 5 Multicoloured Stripe Socks;Draft;Socks;next;Adults-Men;Men;Blue;;;Fashion;;2017;Onesize,NEXTSCKS00000018;1590.00;;;;;;;;zerotype;;Spring;;No
1841275;6498853822321866441-Pink-1841275;Sporty Slogan Socks Five Pack;Draft;Socks;next;Adults-Women;Women;Pink;;;Fashion;;2017;Onesize,NEXTSCKS00000017;1390.00;;;;;;;;zerotype;;Spring;;No
1841274;6409049932588347598-Black-1841274;Black Colour N Logo Socks Five Pack;Draft;Socks;next;Adults-Men;Men;Black;;;Fashion;;2017;Onesize,NEXTSCKS00000016;1390.00;;;;;;;;zerotype;;Spring;;No
1841273;6337701596981088227-Beige-1841273;Textured Animal Socks Four Pack;Draft;Socks;next;Adults-Women;Women;Beige;;;Fashion;;2017;Onesize,NEXTSCKS00000015;1390.00;;;;;;;;zerotype;;Spring;;No
1841272;6285552494130392544-Black-1841272;Frill Welt Ankle Socks Five Pack;Draft;Socks;next;Adults-Women;Women;Black;;;Fashion;;2017;Onesize,NEXTSCKS00000014;1390.00;;;;;;;;zerotype;;Spring;;No
1841271;6253240753188171280-Blue-1841271;Pack Of 5 Pairs Multicoloured Socks;Draft;Socks;next;Adults-Women;Women;Blue;;;Fashion;;2017;Onesize,NEXTSCKS00000013;1390.00;;;;;;;;zerotype;;Spring;;No
1841270;6097731077335322766-Black-1841270;Floral/Stripe Pattern Socks Four Pack;Draft;Socks;next;Adults-Women;Women;Black;;;Fashion;;2017;Onesize,NEXTSCKS00000012;1390.00;;;;;;;;zerotype;;Spring;;No
1841269;6092886155965860745-Pink-1841269;Space Dye Trainer Socks Three Pack;Draft;Socks;next;Adults-Women;Women;Pink;;;Fashion;;2017;Onesize,NEXTSCKS00000011;1190.00;;;;;;;;zerotype;;Spring;;No
1841268;5939115541308202047-Yellow-1841268;Multicoloured Ankle Socks Four Pack;Draft;Socks;next;Adults-Women;Women;Yellow;;;Fashion;;2017;Onesize,NEXTSCKS00000010;1090.00;;;;;;;;zerotype;;Spring;;No
1841267;5906407645401453436-Purple-1841267;Shadow Floral Pattern Socks Four Pack;Draft;Socks;next;Adults-Women;Women;Purple;;;Fashion;;2017;Onesize,NEXTSCKS00000009;1390.00;;;;;;;;zerotype;;Spring;;No
1841266;5806030845926510827-Grey-1841266;Tech Trainer Socks Two Pack;Draft;Socks;next;Adults-Women;Women;Grey;;;Fashion;;2017;Onesize,NEXTSCKS00000008;1090.00;;;;;;;;zerotype;;Spring;;No
1841265;5658479069523690149-Grey-1841265;Bee Motif Socks Four Pack;Draft;Socks;next;Adults-Women;Women;Grey;;;Fashion;;2017;Onesize,NEXTSCKS00000007;1390.00;;;;;;;;zerotype;;Spring;;No
1841264;5503082824238031805-Grey-1841264;Pack Of 5 Multicoloured Marl Stripe Socks;Draft;Socks;next;Adults-Men;Men;Grey;;;Fashion;;2017;Onesize,NEXTSCKS00000006;1590.00;;;;;;;;zerotype;;Spring;;No
1841263;5097158796418652106-Black-1841263;Animal Print Footbed Socks Five Pack;Draft;Socks;next;Adults-Women;Women;Black;;;Fashion;;2017;Onesize,NEXTSCKS00000005;1190.00;;;;;;;;zerotype;;Spring;;No
1841262;4916843143731868194-Blue-1841262;Pack Of 5 Multicoloured Stripe Socks;Draft;Socks;next;Adults-Men;Men;Blue;;;Fashion;;2017;Onesize,NEXTSCKS00000004;1590.00;;;;;;;;zerotype;;Spring;;No
1841261;4744143705912211263-Gold-1841261;Embroidered Walking Socks Two Pack;Draft;Socks;next;Adults-Women;Women;Gold;;;Fashion;;2017;Onesize,NEXTSCKS00000003;890.00;;;;;;;;zerotype;;Spring;;No
1841260;4657786575356242843-Beige-1841260;Pack Of 5 Multicoloured Stripe Socks;Draft;Socks;next;Adults-Men;Men;Beige;;;Fashion;;2017;Onesize,NEXTSCKS00000002;1590.00;;;;;;;;zerotype;;Spring;;No
1841259;4638403750539304406-Pink-1841259;Bright Spots Socks Five Pack;Draft;Socks;next;Adults-Women;Women;Pink;;;Fashion;;2017;Onesize,NEXTSCKS00000001;1390.00;;;;;;;;zerotype;;Spring;;No
1841258;5866660883383080698-Blue-1841258;Long Sleeve Technical Zip Overhead;Draft;Lounge Tshirts;next;Adults-Women;Women;Blue;;;Fashion;;2017;4XL,NEXTLUNT00000038,XS,NEXTLUNT00000039,XXL,NEXTLUNT00000040,S,NEXTLUNT00000041,M,NEXTLUNT00000042,L,NEXTLUNT00000043,XXS,NEXTLUNT00000044,3XL,NEXTLUNT00000045,XL,NEXTLUNT00000046;3390.00;;;;;;;;zerotype;;Spring;;No
1841257;4812824487610151893-Pink-1841257;Long Sleeve Technical Zip Overhead;Draft;Lounge Tshirts;next;Adults-Women;Women;Pink;;;Fashion;;2017;3XL,NEXTLUNT00000029,M,NEXTLUNT00000030,XL,NEXTLUNT00000031,XXL,NEXTLUNT00000032,4XL,NEXTLUNT00000033,S,NEXTLUNT00000034,L,NEXTLUNT00000035,XXS,NEXTLUNT00000036,XS,NEXTLUNT00000037;3390.00;;;;;;;;zerotype;;Spring;;No
