Style ID;Vendor Article Number;Vendor Article Name;Active Status;Article type;Brand;Age Group;Gender;Base Colour;Colour1;Colour2;Fashion Type;Usage;Year;Size - SKU code pair;MRP;Style Description;Style Note;Materials and Care Description;Size and Fit Description;Size Chart Path;Product Display Name;Tags;Product Type;Classification Brand;Season;Comments;Upload Images
1830958;MCSS17TP08-01-170-Multi-1830958;Oh So Sweet Cold Shoulder Top;Draft;Tops;Miss Chase;Adults-Women;Women;;;;Fashion;;2017;XS,MSCSTOPS00002823,S,MSCSTOPS00002824,M,MSCSTOPS00002825,L,MSCSTOPS00002826,XL,MSCSTOPS00002827;1499.00;;;;;;;;zerotype;;Spring;;No
1830957;MCSS17TP07-99-71-Navy Blue-1830957;Hands Off Top;Draft;Tops;Miss Chase;Adults-Women;Women;;;;Fashion;;2017;XS,MSCSTOPS00002818,S,MSCSTOPS00002819,M,MSCSTOPS00002820,L,MSCSTOPS00002821,XL,MSCSTOPS00002822;1099.00;;;;;;;;zerotype;;Spring;;No
1830956;MCSS17TP07-99-168-Green-1830956;Hands Off Top;Draft;Tops;Miss Chase;Adults-Women;Women;;;;Fashion;;2017;XS,MSCSTOPS00002813,S,MSCSTOPS00002814,M,MSCSTOPS00002815,L,MSCSTOPS00002816,XL,MSCSTOPS00002817;1099.00;;;;;;;;zerotype;;Spring;;No
1830955;MCSS17TP07-97-64-Red-1830955;Now Or Never Tie-Up Top;Draft;Tops;Miss Chase;Adults-Women;Women;;;;Fashion;;2017;XS,MSCSTOPS00002808,S,MSCSTOPS00002809,M,MSCSTOPS00002810,L,MSCSTOPS00002811,XL,MSCSTOPS00002812;999.00;;;;;;;;zerotype;;Spring;;No
1830954;MCSS17TP07-97-17-Grey-1830954;Now Or Never Tie-Up Top;Draft;Tops;Miss Chase;Adults-Women;Women;;;;Fashion;;2017;XS,MSCSTOPS00002803,S,MSCSTOPS00002804,M,MSCSTOPS00002805,L,MSCSTOPS00002806,XL,MSCSTOPS00002807;999.00;;;;;;;;zerotype;;Spring;;No
1830953;MCSS17TP07-96-62-Black-1830953;Tough Act Top;Draft;Tops;Miss Chase;Adults-Women;Women;;;;Fashion;;2017;XS,MSCSTOPS00002798,S,MSCSTOPS00002799,M,MSCSTOPS00002800,L,MSCSTOPS00002801,XL,MSCSTOPS00002802;1049.00;;;;;;;;zerotype;;Spring;;No
1830952;MCSS17TP07-96-31-Blue-1830952;Tough Act Top;Draft;Tops;Miss Chase;Adults-Women;Women;;;;Fashion;;2017;XS,MSCSTOPS00002793,S,MSCSTOPS00002794,M,MSCSTOPS00002795,L,MSCSTOPS00002796,XL,MSCSTOPS00002797;1049.00;;;;;;;;zerotype;;Spring;;No
1830951;MCSS17TP07-95-17-Grey-1830951;Sassy Side Top;Draft;Tops;Miss Chase;Adults-Women;Women;;;;Fashion;;2017;XS,MSCSTOPS00002788,S,MSCSTOPS00002789,M,MSCSTOPS00002790,L,MSCSTOPS00002791,XL,MSCSTOPS00002792;1049.00;;;;;;;;zerotype;;Spring;;No
1830950;MCSS17TP07-95-122-Grey-1830950;Sassy Side Top;Draft;Tops;Miss Chase;Adults-Women;Women;;;;Fashion;;2017;XS,MSCSTOPS00002783,S,MSCSTOPS00002784,M,MSCSTOPS00002785,L,MSCSTOPS00002786,XL,MSCSTOPS00002787;1049.00;;;;;;;;zerotype;;Spring;;No
1830949;MCSS17TP07-94-82-White-1830949;Being Basic Top;Draft;Tops;Miss Chase;Adults-Women;Women;;;;Fashion;;2017;XS,MSCSTOPS00002778,S,MSCSTOPS00002779,M,MSCSTOPS00002780,L,MSCSTOPS00002781,XL,MSCSTOPS00002782;849.00;;;;;;;;zerotype;;Spring;;No
1830948;MCSS17TP07-94-62-Black-1830948;Being Basic Top;Draft;Tops;Miss Chase;Adults-Women;Women;;;;Fashion;;2017;XS,MSCSTOPS00002773,S,MSCSTOPS00002774,M,MSCSTOPS00002775,L,MSCSTOPS00002776,XL,MSCSTOPS00002777;849.00;;;;;;;;zerotype;;Spring;;No
1830947;MCSS17TP07-93-64-Red-1830947;Going Back To Basic Top;Draft;Tops;Miss Chase;Adults-Women;Women;;;;Fashion;;2017;XS,MSCSTOPS00002768,S,MSCSTOPS00002769,M,MSCSTOPS00002770,L,MSCSTOPS00002771,XL,MSCSTOPS00002772;1049.00;;;;;;;;zerotype;;Spring;;No
1830946;MCSS17TP07-93-167-Blue-1830946;Going Back To Basic Top;Draft;Tops;Miss Chase;Adults-Women;Women;;;;Fashion;;2017;XS,MSCSTOPS00002763,S,MSCSTOPS00002764,M,MSCSTOPS00002765,L,MSCSTOPS00002766,XL,MSCSTOPS00002767;1049.00;;;;;;;;zerotype;;Spring;;No
1830945;MCSS17TP07-92-64-Red-1830945;Born To Rock Top;Draft;Tops;Miss Chase;Adults-Women;Women;;;;Fashion;;2017;XS,MSCSTOPS00002758,S,MSCSTOPS00002759,M,MSCSTOPS00002760,L,MSCSTOPS00002761,XL,MSCSTOPS00002762;999.00;;;;;;;;zerotype;;Spring;;No
1830944;MCSS17TP07-92-115-Blue-1830944;Born To Rock Top;Draft;Tops;Miss Chase;Adults-Women;Women;;;;Fashion;;2017;XS,MSCSTOPS00002753,S,MSCSTOPS00002754,M,MSCSTOPS00002755,L,MSCSTOPS00002756,XL,MSCSTOPS00002757;999.00;;;;;;;;zerotype;;Spring;;No
1830943;MCSS17TP07-90-158-Blue-1830943;Don't Turn Back Crop Top;Draft;Tops;Miss Chase;Adults-Women;Women;;;;Fashion;;2017;XS,MSCSTOPS00002748,S,MSCSTOPS00002749,M,MSCSTOPS00002750,L,MSCSTOPS00002751,XL,MSCSTOPS00002752;1199.00;;;;;;;;zerotype;;Spring;;No
1830942;MCSS17TP07-89-98-Multi-1830942;Your Girl Cold Shoulder Crop Top;Draft;Tops;Miss Chase;Adults-Women;Women;;;;Fashion;;2017;XS,MSCSTOPS00002743,S,MSCSTOPS00002744,M,MSCSTOPS00002745,L,MSCSTOPS00002746,XL,MSCSTOPS00002747;1199.00;;;;;;;;zerotype;;Spring;;No
1830941;MCSS17TP07-88-82-White-1830941;Peek Me Through Top;Draft;Tops;Miss Chase;Adults-Women;Women;;;;Fashion;;2017;XS,MSCSTOPS00002738,S,MSCSTOPS00002739,M,MSCSTOPS00002740,L,MSCSTOPS00002741,XL,MSCSTOPS00002742;1199.00;;;;;;;;zerotype;;Spring;;No
1830940;MCSS17TP07-88-62-Black-1830940;Peek Me Through Top;Draft;Tops;Miss Chase;Adults-Women;Women;;;;Fashion;;2017;XS,MSCSTOPS00002733,S,MSCSTOPS00002734,M,MSCSTOPS00002735,L,MSCSTOPS00002736,XL,MSCSTOPS00002737;1199.00;;;;;;;;zerotype;;Spring;;No
1830939;MCSS17D09-01-64-Red-1830939;Dessert Dreams Shift Dress;Draft;Dresses;Miss Chase;Adults-Women;Women;;;;Fashion;;2017;XS,MSCSDRSS00003393,S,MSCSDRSS00003394,M,MSCSDRSS00003395,L,MSCSDRSS00003396,XL,MSCSDRSS00003397;1499.00;;;;;;;;zerotype;;Spring;;No
1830938;MCSS17D07-99-170-Multi-1830938;Think Straight Multistriped Midi Dress;Draft;Dresses;Miss Chase;Adults-Women;Women;;;;Fashion;;2017;XS,MSCSDRSS00003388,S,MSCSDRSS00003389,M,MSCSDRSS00003390,L,MSCSDRSS00003391,XL,MSCSDRSS00003392;1799.00;;;;;;;;zerotype;;Spring;;No
1830937;MCSS17D07-98-170-Multi-1830937;Higher Than The Striped Polo T-Shirt Dre;Draft;Dresses;Miss Chase;Adults-Women;Women;;;;Fashion;;2017;XS,MSCSDRSS00003383,S,MSCSDRSS00003384,M,MSCSDRSS00003385,L,MSCSDRSS00003386,XL,MSCSDRSS00003387;1649.00;;;;;;;;zerotype;;Spring;;No
1830936;MCSS17D07-97-17-Grey-1830936;Morning Glory Cold Shoulder Dress;Draft;Dresses;Miss Chase;Adults-Women;Women;;;;Fashion;;2017;XS,MSCSDRSS00003378,S,MSCSDRSS00003379,M,MSCSDRSS00003380,L,MSCSDRSS00003381,XL,MSCSDRSS00003382;1599.00;;;;;;;;zerotype;;Spring;;No
1830935;MCSS17D07-97-158-Blue-1830935;Morning Glory Cold Shoulder Dress;Draft;Dresses;Miss Chase;Adults-Women;Women;;;;Fashion;;2017;XS,MSCSDRSS00003373,S,MSCSDRSS00003374,M,MSCSDRSS00003375,L,MSCSDRSS00003376,XL,MSCSDRSS00003377;1599.00;;;;;;;;zerotype;;Spring;;No
1830934;MCSS17D07-96-167-Blue-1830934;Scouting Dreams Shift Dress;Draft;Dresses;Miss Chase;Adults-Women;Women;;;;Fashion;;2017;XS,MSCSDRSS00003368,S,MSCSDRSS00003369,M,MSCSDRSS00003370,L,MSCSDRSS00003371,XL,MSCSDRSS00003372;1499.00;;;;;;;;zerotype;;Spring;;No
1830933;MCSS17D07-95-71-Navy Blue-1830933;On The Run Shift Dress;Draft;Dresses;Miss Chase;Adults-Women;Women;;;;Fashion;;2017;XS,MSCSDRSS00003363,S,MSCSDRSS00003364,M,MSCSDRSS00003365,L,MSCSDRSS00003366,XL,MSCSDRSS00003367;1499.00;;;;;;;;zerotype;;Spring;;No
1830932;MCSS17D07-95-29-Yellow-1830932;On The Run Shift Dress;Draft;Dresses;Miss Chase;Adults-Women;Women;;;;Fashion;;2017;XS,MSCSDRSS00003358,S,MSCSDRSS00003359,M,MSCSDRSS00003360,L,MSCSDRSS00003361,XL,MSCSDRSS00003362;1499.00;;;;;;;;zerotype;;Spring;;No
1830931;MCSS17D07-94-122-Pink-1830931;Make Me Yours Shift Dress;Draft;Dresses;Miss Chase;Adults-Women;Women;;;;Fashion;;2017;XS,MSCSDRSS00003353,S,MSCSDRSS00003354,M,MSCSDRSS00003355,L,MSCSDRSS00003356,XL,MSCSDRSS00003357;1349.00;;;;;;;;zerotype;;Spring;;No
1830930;MCSS17D07-93-21-Multi-1830930;All Mine Striped Dress;Draft;Dresses;Miss Chase;Adults-Women;Women;;;;Fashion;;2017;XS,MSCSDRSS00003348,S,MSCSDRSS00003349,M,MSCSDRSS00003350,L,MSCSDRSS00003351,XL,MSCSDRSS00003352;1449.00;;;;;;;;zerotype;;Spring;;No
1830929;MCSS17D07-92-62-Black-1830929;Turn Me Out Shift Dress;Draft;Dresses;Miss Chase;Adults-Women;Women;;;;Fashion;;2017;XS,MSCSDRSS00003343,S,MSCSDRSS00003344,M,MSCSDRSS00003345,L,MSCSDRSS00003346,XL,MSCSDRSS00003347;1649.00;;;;;;;;zerotype;;Spring;;No
1830928;MCSS17D07-92-48-Green-1830928;Turn Me Out Shift Dress;Draft;Dresses;Miss Chase;Adults-Women;Women;;;;Fashion;;2017;XS,MSCSDRSS00003338,S,MSCSDRSS00003339,M,MSCSDRSS00003340,L,MSCSDRSS00003341,XL,MSCSDRSS00003342;1649.00;;;;;;;;zerotype;;Spring;;No
1830927;MCSS17D07-91-71-Navy Blue-1830927;Get Ready Slit Dress;Draft;Dresses;Miss Chase;Adults-Women;Women;;;;Fashion;;2017;XS,MSCSDRSS00003333,S,MSCSDRSS00003334,M,MSCSDRSS00003335,L,MSCSDRSS00003336,XL,MSCSDRSS00003337;1599.00;;;;;;;;zerotype;;Spring;;No
1830926;MCSS17D07-91-17-Grey-1830926;Get Ready Slit Dress;Draft;Dresses;Miss Chase;Adults-Women;Women;;;;Fashion;;2017;XS,MSCSDRSS00003328,S,MSCSDRSS00003329,M,MSCSDRSS00003330,L,MSCSDRSS00003331,XL,MSCSDRSS00003332;1599.00;;;;;;;;zerotype;;Spring;;No
1830925;MCSS17D07-90-64-Red-1830925;All For One Shift Dress;Draft;Dresses;Miss Chase;Adults-Women;Women;;;;Fashion;;2017;XS,MSCSDRSS00003323,S,MSCSDRSS00003324,M,MSCSDRSS00003325,L,MSCSDRSS00003326,XL,MSCSDRSS00003327;1649.00;;;;;;;;zerotype;;Spring;;No
1830924;MCSS17D07-89-115-Blue-1830924;Find The In Between Shift Dress;Draft;Dresses;Miss Chase;Adults-Women;Women;;;;Fashion;;2017;XS,MSCSDRSS00003318,S,MSCSDRSS00003319,M,MSCSDRSS00003320,L,MSCSDRSS00003321,XL,MSCSDRSS00003322;1649.00;;;;;;;;zerotype;;Spring;;No
1830923;MCSS17D07-88-158-Blue-1830923;No Harm No Foul Bodycon Dress;Draft;Dresses;Miss Chase;Adults-Women;Women;;;;Fashion;;2017;XS,MSCSDRSS00003313,S,MSCSDRSS00003314,M,MSCSDRSS00003315,L,MSCSDRSS00003316,XL,MSCSDRSS00003317;1399.00;;;;;;;;zerotype;;Spring;;No
1830922;MCSS17D07-87-21-Multi-1830922;Hold Me Tight Bodycon Dress;Draft;Dresses;Miss Chase;Adults-Women;Women;;;;Fashion;;2017;XS,MSCSDRSS00003308,S,MSCSDRSS00003309,M,MSCSDRSS00003310,L,MSCSDRSS00003311,XL,MSCSDRSS00003312;1399.00;;;;;;;;zerotype;;Spring;;No
1830921;MCSS17D07-86-158-Blue-1830921;Rise And Shine Knot Bodycon Dress;Draft;Dresses;Miss Chase;Adults-Women;Women;;;;Fashion;;2017;XS,MSCSDRSS00003303,S,MSCSDRSS00003304,M,MSCSDRSS00003305,L,MSCSDRSS00003306,XL,MSCSDRSS00003307;1499.00;;;;;;;;zerotype;;Spring;;No
1830920;MCSS17D07-85-17-Grey-1830920;Tie The Knot Bodycon Dress;Draft;Dresses;Miss Chase;Adults-Women;Women;;;;Fashion;;2017;XS,MSCSDRSS00003298,S,MSCSDRSS00003299,M,MSCSDRSS00003300,L,MSCSDRSS00003301,XL,MSCSDRSS00003302;1499.00;;;;;;;;zerotype;;Spring;;No
1830919;MCSS17D07-84-169-Multi-1830919;Can You Believe It Shift Dress;Draft;Dresses;Miss Chase;Adults-Women;Women;;;;Fashion;;2017;XS,MSCSDRSS00003293,S,MSCSDRSS00003294,M,MSCSDRSS00003295,L,MSCSDRSS00003296,XL,MSCSDRSS00003297;1149.00;;;;;;;;zerotype;;Spring;;No
1830918;MCSS17D07-83-31-White-1830918;Run Away With Me Shift Dress;Draft;Dresses;Miss Chase;Adults-Women;Women;;;;Fashion;;2017;XS,MSCSDRSS00003288,S,MSCSDRSS00003289,M,MSCSDRSS00003290,L,MSCSDRSS00003291,XL,MSCSDRSS00003292;999.00;;;;;;;;zerotype;;Spring;;No
1830917;MCSS17D07-82-21-Multi-1830917;Prime And Pose Stripe Dress;Draft;Dresses;Miss Chase;Adults-Women;Women;;;;Fashion;;2017;XS,MSCSDRSS00003283,S,MSCSDRSS00003284,M,MSCSDRSS00003285,L,MSCSDRSS00003286,XL,MSCSDRSS00003287;1599.00;;;;;;;;zerotype;;Spring;;No
1830916;MCSS17D07-81-98-Multi-1830916;Double Time Striped Dress;Draft;Dresses;Miss Chase;Adults-Women;Women;;;;Fashion;;2017;XS,MSCSDRSS00003278,S,MSCSDRSS00003279,M,MSCSDRSS00003280,L,MSCSDRSS00003281,XL,MSCSDRSS00003282;1449.00;;;;;;;;zerotype;;Spring;;No
1830915;MCSS17D07-80-64-Red-1830915;One Way Shift Dress;Draft;Dresses;Miss Chase;Adults-Women;Women;;;;Fashion;;2017;XS,MSCSDRSS00003273,S,MSCSDRSS00003274,M,MSCSDRSS00003275,L,MSCSDRSS00003276,XL,MSCSDRSS00003277;1299.00;;;;;;;;zerotype;;Spring;;No
1830914;MCSS17D07-79-17-Grey-1830914;Summer Days Shift Dress;Draft;Dresses;Miss Chase;Adults-Women;Women;;;;Fashion;;2017;XS,MSCSDRSS00003268,S,MSCSDRSS00003269,M,MSCSDRSS00003270,L,MSCSDRSS00003271,XL,MSCSDRSS00003272;1149.00;;;;;;;;zerotype;;Spring;;No
1830913;MCSS17D07-78-17-Grey-1830913;Lost In Transition Midi Dress;Draft;Dresses;Miss Chase;Adults-Women;Women;;;;Fashion;;2017;XS,MSCSDRSS00003263,S,MSCSDRSS00003264,M,MSCSDRSS00003265,L,MSCSDRSS00003266,XL,MSCSDRSS00003267;1449.00;;;;;;;;zerotype;;Spring;;No
