Style ID;Vendor Article Number;Vendor Article Name;Active Status;Article type;Brand;Age Group;Gender;Base Colour;Colour1;Colour2;Fashion Type;Usage;Year;Size - SKU code pair;MRP;Style Description;Style Note;Materials and Care Description;Size and Fit Description;Size Chart Path;Product Display Name;Tags;Product Type;Classification Brand;Season;Comments;Upload Images
1882731;8558642361543112215-GREY-1882731;Frill Detail Joggers (3-16Yrs);Draft;Jeggings;next;Kids-Girls;Girls;;;;Fashion;;2017;3Y,NEXTJGNG00000246,4Y,NEXTJGNG00000247,6Y,NEXTJGNG00000248,5Y,NEXTJGNG00000249;1390.00;;;;;;;;zerotype;;Spring;;No
1882730;8306786407613443338-BLUE-1882730;Blue Solid Jeggings;Draft;Jeggings;next;Adults-Women;Women;;;;Fashion;;2017;22,NEXTJGNG00000237,10,NEXTJGNG00000238,14,NEXTJGNG00000239,8,NEXTJGNG00000240,20,NEXTJGNG00000241,18,NEXTJGNG00000242,16,NEXTJGNG00000243,12,NEXTJGNG00000244,6,NEXTJGNG00000245;2690.00;;;;;;;;zerotype;;Spring;;No
1882729;8174750349335561076-BLACK-1882729;Sporty Seam Denim Jeggings;Draft;Jeggings;next;Adults-Women;Women;;;;Fashion;;2017;12,NEXTJGNG00000230,10,NEXTJGNG00000231,6,NEXTJGNG00000232,14,NEXTJGNG00000233,18,NEXTJGNG00000234,8,NEXTJGNG00000235,16,NEXTJGNG00000236;4490.00;;;;;;;;zerotype;;Spring;;No
1882728;8032316674655466074-BLUE-1882728;Zip Pocket Ponte Jegging;Draft;Jeggings;next;Adults-Women;Women;;;;Fashion;;2017;8,NEXTJGNG00000221,10,NEXTJGNG00000222,18,NEXTJGNG00000223,16,NEXTJGNG00000224,12,NEXTJGNG00000225,20,NEXTJGNG00000226,14,NEXTJGNG00000227,22,NEXTJGNG00000228,6,NEXTJGNG00000229;2890.00;;;;;;;;zerotype;;Spring;;No
1882727;7861886719613251299-GREY-1882727;Floral Joggers;Draft;Jeggings;next;Kids-Girls;Girls;;;;Fashion;;2017;5-6Y,NEXTJGNG00000216,2-3Y,NEXTJGNG00000217,1.5-2Y,NEXTJGNG00000218,3-4Y,NEXTJGNG00000219,4-5Y,NEXTJGNG00000220;1290.00;;;;;;;;zerotype;;Spring;;No
1882726;7861886719613251299-GREY-1882726;Floral Joggers;Draft;Jeggings;next;Kids-Girls;Girls;;;;Fashion;;2017;3-6M,NEXTJGNG00000212,9-12M,NEXTJGNG00000213,6-9M,NEXTJGNG00000214,12-18M,NEXTJGNG00000215;1190.00;;;;;;;;zerotype;;Spring;;No
1882725;7853198362351980661-GREEN-1882725;Zip Front Joggers;Draft;Jeggings;next;Adults-Women;Women;;;;Fashion;;2017;18P,NEXTJGNG00000205,16P,NEXTJGNG00000206,6P,NEXTJGNG00000207,14P,NEXTJGNG00000208,12P,NEXTJGNG00000209,10P,NEXTJGNG00000210,8P,NEXTJGNG00000211;5790.00;;;;;;;;zerotype;;Spring;;No
1882724;7389244579395717899-BLUE-1882724;Joggers;Draft;Jeggings;next;Kids-Girls;Girls;;;;Fashion;;2017;2-3Y,NEXTJGNG00000200,5-6Y,NEXTJGNG00000201,3-4Y,NEXTJGNG00000202,1.5-2Y,NEXTJGNG00000203,4-5Y,NEXTJGNG00000204;1190.00;;;;;;;;zerotype;;Spring;;No
1882723;7389244579395717899-BLUE-1882723;Joggers;Draft;Jeggings;next;Kids-Girls;Girls;;;;Fashion;;2017;12-18M,NEXTJGNG00000196,9-12M,NEXTJGNG00000197,6-9M,NEXTJGNG00000198,3-6M,NEXTJGNG00000199;1090.00;;;;;;;;zerotype;;Spring;;No
1882722;7151091905454090036-BLACK-1882722;Zip Pocket Ponte Legging;Draft;Jeggings;next;Adults-Women;Women;;;;Fashion;;2017;12,NEXTJGNG00000187,16,NEXTJGNG00000188,18,NEXTJGNG00000189,6,NEXTJGNG00000190,8,NEXTJGNG00000191,14,NEXTJGNG00000192,10,NEXTJGNG00000193,22,NEXTJGNG00000194,20,NEXTJGNG00000195;2890.00;;;;;;;;zerotype;;Spring;;No
1882721;6593914065797992702-CREAM-1882721;Zip Front Joggers;Draft;Jeggings;next;Adults-Women;Women;;;;Fashion;;2017;12P,NEXTJGNG00000181,8P,NEXTJGNG00000182,6P,NEXTJGNG00000183,14P,NEXTJGNG00000184,16P,NEXTJGNG00000185,10P,NEXTJGNG00000186;5790.00;;;;;;;;zerotype;;Spring;;No
1882720;6561864845420963206-GREY-1882720;NEXT GREY JEGGINGS;Draft;Jeggings;next;Kids-Girls;Girls;;;;Fashion;;2017;13Y,NEXTJGNG00000177,14Y,NEXTJGNG00000178,15Y,NEXTJGNG00000179,16Y,NEXTJGNG00000180;2190.00;;;;;;;;zerotype;;Spring;;No
1882719;6561864845420963206-GREY-1882719;NEXT GREY JEGGINGS;Draft;Jeggings;next;Kids-Girls;Girls;;;;Fashion;;2017;12Y,NEXTJGNG00000175,11Y,NEXTJGNG00000176;1990.00;;;;;;;;zerotype;;Spring;;No
1882717;6561864845420963206-GREY-1882717;NEXT GREY JEGGINGS;Draft;Jeggings;next;Kids-Girls;Girls;;;;Fashion;;2017;9Y,NEXTJGNG00000171,8Y,NEXTJGNG00000172,10Y,NEXTJGNG00000173,7Y,NEXTJGNG00000174;1690.00;;;;;;;;zerotype;;Spring;;No
1882715;6561864845420963206-GREY-1882715;NEXT GREY JEGGINGS;Draft;Jeggings;next;Kids-Girls;Girls;;;;Fashion;;2017;3Y,NEXTJGNG00000167,5Y,NEXTJGNG00000168,4Y,NEXTJGNG00000169,6Y,NEXTJGNG00000170;1490.00;;;;;;;;zerotype;;Spring;;No
1882713;6521439620966681658-BLACK-1882713;Zip Pocket Ponte Jeggings;Draft;Jeggings;next;Adults-Women;Women;;;;Fashion;;2017;8T,NEXTJGNG00000160,20T,NEXTJGNG00000161,10T,NEXTJGNG00000162,14T,NEXTJGNG00000163,12T,NEXTJGNG00000164,18T,NEXTJGNG00000165,16T,NEXTJGNG00000166;2890.00;;;;;;;;zerotype;;Spring;;No
1882712;6403104063121215751-BLUE-1882712;Solid Technical Full Length Jegging With Mesh;Draft;Jeggings;next;Adults-Women;Women;;;;Fashion;;2017;6,NEXTJGNG00000151,8,NEXTJGNG00000152,12,NEXTJGNG00000153,22,NEXTJGNG00000154,16,NEXTJGNG00000155,14,NEXTJGNG00000156,20,NEXTJGNG00000157,10,NEXTJGNG00000158,18,NEXTJGNG00000159;2590.00;;;;;;;;zerotype;;Spring;;No
1882711;6352462277650592471-BLACK-1882711;Zip Pocket Ponte Jegging;Draft;Jeggings;next;Adults-Women;Women;;;;Fashion;;2017;6P,NEXTJGNG00000144,10P,NEXTJGNG00000145,18P,NEXTJGNG00000146,14P,NEXTJGNG00000147,16P,NEXTJGNG00000148,12P,NEXTJGNG00000149,8P,NEXTJGNG00000150;2890.00;;;;;;;;zerotype;;Spring;;No
1882710;5753707599073773673-GREY-1882710;Cat Joggers;Draft;Jeggings;next;Kids-Girls;Girls;;;;Fashion;;2017;1.5-2Y,NEXTJGNG00000139,5-6Y,NEXTJGNG00000140,4-5Y,NEXTJGNG00000141,2-3Y,NEXTJGNG00000142,3-4Y,NEXTJGNG00000143;1390.00;;;;;;;;zerotype;;Spring;;No
1882709;5753707599073773673-GREY-1882709;Cat Joggers;Draft;Jeggings;next;Kids-Girls;Girls;;;;Fashion;;2017;12-18M,NEXTJGNG00000135,3-6M,NEXTJGNG00000136,9-12M,NEXTJGNG00000137,6-9M,NEXTJGNG00000138;1290.00;;;;;;;;zerotype;;Spring;;No
1882708;5374343475138751518-BLACK-1882708;Mesh Zip Jegging;Draft;Jeggings;next;Adults-Women;Women;;;;Fashion;;2017;8,NEXTJGNG00000128,16,NEXTJGNG00000129,10,NEXTJGNG00000130,12,NEXTJGNG00000131,18,NEXTJGNG00000132,14,NEXTJGNG00000133,6,NEXTJGNG00000134;3890.00;;;;;;;;zerotype;;Spring;;No
1882707;4924487043428890171-BLACK-1882707;Ponte Legging;Draft;Jeggings;next;Adults-Women;Women;;;;Fashion;;2017;6,NEXTJGNG00000121,16,NEXTJGNG00000122,14,NEXTJGNG00000123,12,NEXTJGNG00000124,10,NEXTJGNG00000125,8,NEXTJGNG00000126,18,NEXTJGNG00000127;2590.00;;;;;;;;zerotype;;Spring;;No
1882533;9121119103950114088-BLUE-1882533;Chalk Wash Jeans With Stretch;Draft;Jeans;next;Adults-Men;Men;;;;Fashion;;2017;40R,NEXTJENS00002629,40L,NEXTJENS00002630,36XL,NEXTJENS00002631,34S,NEXTJENS00002632,32R,NEXTJENS00002633,38XL,NEXTJENS00002634,38L,NEXTJENS00002635,36L,NEXTJENS00002636,36R,NEXTJENS00002637,34XL,NEXTJENS00002638,36S,NEXTJENS00002639,42R,NEXTJENS00002640,34L,NEXTJENS00002641,30L,NEXTJENS00002642,38R,NEXTJENS00002643,30R,NEXTJENS00002644,30S,NEXTJENS00002645,38S,NEXTJENS00002646,32L,NEXTJENS00002647,34R,NEXTJENS00002648,32S,NEXTJENS00002649;3890.00;;;;;;;;zerotype;;Spring;;No
1882532;9068452035183946503-BLUE-1882532;Raw Navy Blue Denim Jeans;Draft;Jeans;next;Adults-Men;Men;;;;Fashion;;2017;32L,NEXTJENS00002608,34S,NEXTJENS00002609,32XL,NEXTJENS00002610,38L,NEXTJENS00002611,30L,NEXTJENS00002612,30R,NEXTJENS00002613,32R,NEXTJENS00002614,38R,NEXTJENS00002615,34XL,NEXTJENS00002616,34L,NEXTJENS00002617,40R,NEXTJENS00002618,36L,NEXTJENS00002619,30S,NEXTJENS00002620,36XL,NEXTJENS00002621,34R,NEXTJENS00002622,32S,NEXTJENS00002623,36S,NEXTJENS00002624,38S,NEXTJENS00002625,28S,NEXTJENS00002626,28R,NEXTJENS00002627,36R,NEXTJENS00002628;5790.00;;;;;;;;zerotype;;Spring;;No
1882531;8962376875753764437-BLUE-1882531;Ripped Knee Jeans With Stretch;Draft;Jeans;next;Adults-Men;Men;;;;Fashion;;2017;34R,NEXTJENS00002587,28S,NEXTJENS00002588,26R,NEXTJENS00002589,26S,NEXTJENS00002590,36R,NEXTJENS00002591,32S,NEXTJENS00002592,34XL,NEXTJENS00002593,30L,NEXTJENS00002594,34S,NEXTJENS00002595,40R,NEXTJENS00002596,32L,NEXTJENS00002597,30S,NEXTJENS00002598,32XL,NEXTJENS00002599,36S,NEXTJENS00002600,30R,NEXTJENS00002601,36L,NEXTJENS00002602,34L,NEXTJENS00002603,38R,NEXTJENS00002604,32R,NEXTJENS00002605,28L,NEXTJENS00002606,28R,NEXTJENS00002607;3590.00;;;;;;;;zerotype;;Spring;;No
1882530;8950150088545587193-BLUE-1882530;Light Blue Jeans With Stretch;Draft;Jeans;next;Adults-Men;Men;;;;Fashion;;2017;30S,NEXTJENS00002566,30R,NEXTJENS00002567,38XL,NEXTJENS00002568,34L,NEXTJENS00002569,36L,NEXTJENS00002570,38L,NEXTJENS00002571,36S,NEXTJENS00002572,40L,NEXTJENS00002573,36XL,NEXTJENS00002574,40R,NEXTJENS00002575,34S,NEXTJENS00002576,38S,NEXTJENS00002577,34XL,NEXTJENS00002578,42R,NEXTJENS00002579,32L,NEXTJENS00002580,36R,NEXTJENS00002581,32R,NEXTJENS00002582,42L,NEXTJENS00002583,32S,NEXTJENS00002584,38R,NEXTJENS00002585,34R,NEXTJENS00002586;3890.00;;;;;;;;zerotype;;Spring;;No
1882529;8834388540272292909-BLUE-1882529;Navy Blue Frayed Hem Jeans;Draft;Jeans;next;Adults-Men;Men;;;;Fashion;;2017;32S,NEXTJENS00002545,32L,NEXTJENS00002546,36L,NEXTJENS00002547,34R,NEXTJENS00002548,38S,NEXTJENS00002549,40R,NEXTJENS00002550,34XL,NEXTJENS00002551,36S,NEXTJENS00002552,38R,NEXTJENS00002553,38L,NEXTJENS00002554,36XL,NEXTJENS00002555,30L,NEXTJENS00002556,38XL,NEXTJENS00002557,34S,NEXTJENS00002558,30R,NEXTJENS00002559,34L,NEXTJENS00002560,36R,NEXTJENS00002561,42R,NEXTJENS00002562,32R,NEXTJENS00002563,30S,NEXTJENS00002564,40L,NEXTJENS00002565;4790.00;;;;;;;;zerotype;;Spring;;No
1882528;8819603501168692613-BLUE-1882528;Bleach Wash Jeans;Draft;Jeans;next;Adults-Men;Men;;;;Fashion;;2017;36R,NEXTJENS00002524,32S,NEXTJENS00002525,34R,NEXTJENS00002526,38L,NEXTJENS00002527,38XL,NEXTJENS00002528,30S,NEXTJENS00002529,34L,NEXTJENS00002530,36XL,NEXTJENS00002531,30R,NEXTJENS00002532,36S,NEXTJENS00002533,40R,NEXTJENS00002534,34XL,NEXTJENS00002535,32R,NEXTJENS00002536,38S,NEXTJENS00002537,40L,NEXTJENS00002538,32L,NEXTJENS00002539,42R,NEXTJENS00002540,34S,NEXTJENS00002541,36L,NEXTJENS00002542,38R,NEXTJENS00002543,30L,NEXTJENS00002544;4090.00;;;;;;;;zerotype;;Spring;;No
1882527;8570644429620421933-BLUE-1882527;Mid Blue Rip And Repair Jeans;Draft;Jeans;next;Adults-Men;Men;;;;Fashion;;2017;34XL,NEXTJENS00002488,38L,NEXTJENS00002490,30R,NEXTJENS00002491,34R,NEXTJENS00002493,30S,NEXTJENS00002495,36L,NEXTJENS00002497,34L,NEXTJENS00002498,32S,NEXTJENS00002500,32L,NEXTJENS00002502,30L,NEXTJENS00002504,32R,NEXTJENS00002505,40R,NEXTJENS00002507,28R,NEXTJENS00002509,36S,NEXTJENS00002511,36R,NEXTJENS00002512,38S,NEXTJENS00002514,36XL,NEXTJENS00002516,28S,NEXTJENS00002518,34S,NEXTJENS00002519,38R,NEXTJENS00002521,32XL,NEXTJENS00002523;5390.00;;;;;;;;zerotype;;Spring;;No
1882526;9190211475982298507-BLUE-1882526;NEXT BLUE BOOT CUT JEANS;Draft;Jeans;next;Adults-Men;Men;;;;Fashion;;2017;38L,NEXTJENS00002480,38S,NEXTJENS00002481,30S,NEXTJENS00002483,42L,NEXTJENS00002484,32L,NEXTJENS00002486,34S,NEXTJENS00002487,36XL,NEXTJENS00002489,40R,NEXTJENS00002492,38XL,NEXTJENS00002494,34XL,NEXTJENS00002496,34L,NEXTJENS00002499,36R,NEXTJENS00002501,32R,NEXTJENS00002503,40L,NEXTJENS00002506,42R,NEXTJENS00002508,30R,NEXTJENS00002510,32S,NEXTJENS00002513,38R,NEXTJENS00002515,34R,NEXTJENS00002517,36S,NEXTJENS00002520,36L,NEXTJENS00002522;3890.00;;;;;;;;zerotype;;Spring;;No
1882525;8496536746905482324-BLUE-1882525;Mid Blue Rip And Repair Jeans;Draft;Jeans;next;Adults-Men;Men;;;;Fashion;;2017;36S,NEXTJENS00002447,32XL,NEXTJENS00002449,38L,NEXTJENS00002450,38R,NEXTJENS00002452,34R,NEXTJENS00002453,34S,NEXTJENS00002455,36XL,NEXTJENS00002457,34XL,NEXTJENS00002459,30R,NEXTJENS00002460,28S,NEXTJENS00002462,28R,NEXTJENS00002464,40R,NEXTJENS00002466,36L,NEXTJENS00002468,32S,NEXTJENS00002470,34L,NEXTJENS00002472,30S,NEXTJENS00002474,30L,NEXTJENS00002475,36R,NEXTJENS00002477,32R,NEXTJENS00002479,32L,NEXTJENS00002482,38S,NEXTJENS00002485;5390.00;;;;;;;;zerotype;;Spring;;No
1882524;9129129689754243649-BLUE-1882524;NEXT BLUE BOOT CUT JEANS;Draft;Jeans;next;Adults-Men;Men;;;;Fashion;;2017;42R,NEXTJENS00002437,40L,NEXTJENS00002438,38XL,NEXTJENS00002440,38L,NEXTJENS00002441,36R,NEXTJENS00002443,40R,NEXTJENS00002445,42L,NEXTJENS00002446,34XL,NEXTJENS00002448,32R,NEXTJENS00002451,36S,NEXTJENS00002454,32S,NEXTJENS00002456,34L,NEXTJENS00002458,30R,NEXTJENS00002461,36XL,NEXTJENS00002463,34R,NEXTJENS00002465,34S,NEXTJENS00002467,30S,NEXTJENS00002469,38R,NEXTJENS00002471,38S,NEXTJENS00002473,32L,NEXTJENS00002476,36L,NEXTJENS00002478;3590.00;;;;;;;;zerotype;;Spring;;No
1882523;8388867634805571546-BLUE-1882523;Blue Slim Fit Jeans;Draft;Jeans;next;Adults-Men;Men;;;;Fashion;;2017;38L,NEXTJENS00002408,40R,NEXTJENS00002409,32R,NEXTJENS00002411,30S,NEXTJENS00002412,30R,NEXTJENS00002414,32S,NEXTJENS00002415,34L,NEXTJENS00002417,34S,NEXTJENS00002419,34R,NEXTJENS00002420,36L,NEXTJENS00002422,28S,NEXTJENS00002424,28R,NEXTJENS00002425,36R,NEXTJENS00002427,38S,NEXTJENS00002429,34XL,NEXTJENS00002431,32XL,NEXTJENS00002433,38R,NEXTJENS00002434,30L,NEXTJENS00002436,36S,NEXTJENS00002439,32L,NEXTJENS00002442,36XL,NEXTJENS00002444;2890.00;;;;;;;;zerotype;;Spring;;No
1882522;8821384047722290165-BLUE-1882522;Navy Blue Frayed Hem Jeans;Draft;Jeans;next;Adults-Men;Men;;;;Fashion;;2017;36XL,NEXTJENS00002393,28R,NEXTJENS00002395,34S,NEXTJENS00002396,34R,NEXTJENS00002398,30R,NEXTJENS00002399,28S,NEXTJENS00002401,36R,NEXTJENS00002402,34L,NEXTJENS00002404,38L,NEXTJENS00002406,38R,NEXTJENS00002407,32R,NEXTJENS00002410,32S,NEXTJENS00002413,36S,NEXTJENS00002416,40R,NEXTJENS00002418,32XL,NEXTJENS00002421,30S,NEXTJENS00002423,38S,NEXTJENS00002426,36L,NEXTJENS00002428,34XL,NEXTJENS00002430,30L,NEXTJENS00002432,32L,NEXTJENS00002435;4790.00;;;;;;;;zerotype;;Spring;;No
1882521;8254249979208455274-GREY-1882521;Jeans With Stretch;Draft;Jeans;next;Adults-Men;Men;;;;Fashion;;2017;36R,NEXTJENS00002364,34L,NEXTJENS00002366,34XL,NEXTJENS00002368,30R,NEXTJENS00002370,32XL,NEXTJENS00002372,32R,NEXTJENS00002374,36L,NEXTJENS00002375,28R,NEXTJENS00002377,32L,NEXTJENS00002379,32S,NEXTJENS00002381,36XL,NEXTJENS00002383,38R,NEXTJENS00002384,30S,NEXTJENS00002386,38S,NEXTJENS00002388,34R,NEXTJENS00002390,34S,NEXTJENS00002392,30L,NEXTJENS00002394,40R,NEXTJENS00002397,28S,NEXTJENS00002400,36S,NEXTJENS00002403,38L,NEXTJENS00002405;4090.00;;;;;;;;zerotype;;Spring;;No
1882520;8287511131214571576-GREY-1882520;Dark Grey Jeans With Stretch;Draft;Jeans;next;Adults-Men;Men;;;;Fashion;;2017;28S,NEXTJENS00002362,34R,NEXTJENS00002363,34S,NEXTJENS00002365,28L,NEXTJENS00002367,30L,NEXTJENS00002369,36R,NEXTJENS00002371,28R,NEXTJENS00002373,30S,NEXTJENS00002376,30R,NEXTJENS00002378,32L,NEXTJENS00002380,26S,NEXTJENS00002382,32S,NEXTJENS00002385,34L,NEXTJENS00002387,26R,NEXTJENS00002389,32R,NEXTJENS00002391;4090.00;;;;;;;;zerotype;;Spring;;No
1882519;7681188736995255269-BLUE-1882519;Mid Blue Tapered Jeans;Draft;Jeans;next;Adults-Men;Men;;;;Fashion;;2017;36S,NEXTJENS00002321,34XL,NEXTJENS00002322,38S,NEXTJENS00002324,30R,NEXTJENS00002327,32S,NEXTJENS00002329,40R,NEXTJENS00002330,28S,NEXTJENS00002332,28R,NEXTJENS00002334,34L,NEXTJENS00002336,36R,NEXTJENS00002338,38L,NEXTJENS00002340,30S,NEXTJENS00002343,36L,NEXTJENS00002345,36XL,NEXTJENS00002348,34S,NEXTJENS00002350,32L,NEXTJENS00002352,34R,NEXTJENS00002353,30L,NEXTJENS00002356,32R,NEXTJENS00002358,38R,NEXTJENS00002360;3590.00;;;;;;;;zerotype;;Spring;;No
1882518;8175011329918528806-BLUE-1882518;Light Blue Belted Jeans;Draft;Jeans;next;Adults-Men;Men;;;;Fashion;;2017;30R,NEXTJENS00002318,40S,NEXTJENS00002319,40L,NEXTJENS00002320,32S,NEXTJENS00002323,36L,NEXTJENS00002325,38XL,NEXTJENS00002326,44L,NEXTJENS00002328,38S,NEXTJENS00002331,46R,NEXTJENS00002333,34S,NEXTJENS00002335,36R,NEXTJENS00002337,36S,NEXTJENS00002339,36XL,NEXTJENS00002341,34L,NEXTJENS00002342,32R,NEXTJENS00002346,34R,NEXTJENS00002347,44R,NEXTJENS00002349,42L,NEXTJENS00002351,38L,NEXTJENS00002354,38R,NEXTJENS00002355,40R,NEXTJENS00002357,40XL,NEXTJENS00002359,42R,NEXTJENS00002361;5090.00;;;;;;;;zerotype;;Spring;;No
1882517;8100198375093504376-BLUE-1882517;Blue Jeans With Stretch;Draft;Jeans;next;Adults-Men;Men;;;;Fashion;;2017;34S,NEXTJENS00002277,34L,NEXTJENS00002279,32L,NEXTJENS00002281,40R,NEXTJENS00002283,38XL,NEXTJENS00002285,38S,NEXTJENS00002286,34XL,NEXTJENS00002288,32S,NEXTJENS00002290,36R,NEXTJENS00002292,34R,NEXTJENS00002294,38L,NEXTJENS00002296,30L,NEXTJENS00002298,30S,NEXTJENS00002300,36S,NEXTJENS00002303,32R,NEXTJENS00002304,36XL,NEXTJENS00002306,42R,NEXTJENS00002308,36L,NEXTJENS00002310,30R,NEXTJENS00002312,40L,NEXTJENS00002314,38R,NEXTJENS00002316;4090.00;;;;;;;;zerotype;;Spring;;No
1882516;7647934819351650243-BLUE-1882516;Navy Blue Raw Denim Premium Jeans;Draft;Jeans;next;Adults-Men;Men;;;;Fashion;;2017;30R,NEXTJENS00002276,34R,NEXTJENS00002278,38R,NEXTJENS00002280,38S,NEXTJENS00002282,40L,NEXTJENS00002284,30S,NEXTJENS00002287,32R,NEXTJENS00002289,32S,NEXTJENS00002291,38L,NEXTJENS00002293,42R,NEXTJENS00002295,30L,NEXTJENS00002297,36R,NEXTJENS00002299,38XL,NEXTJENS00002301,32L,NEXTJENS00002302,34S,NEXTJENS00002305,40R,NEXTJENS00002307,36XL,NEXTJENS00002309,36L,NEXTJENS00002311,34XL,NEXTJENS00002313,36S,NEXTJENS00002315,34L,NEXTJENS00002317;6390.00;;;;;;;;zerotype;;Spring;;No
1882515;7388137803066345523-BLUE-1882515;Blue Slim Fit Jeans;Draft;Jeans;next;Adults-Men;Men;;;;Fashion;;2017;32R,NEXTJENS00002237,32XL,NEXTJENS00002239,32L,NEXTJENS00002241,36L,NEXTJENS00002243,32S,NEXTJENS00002245,34S,NEXTJENS00002247,30R,NEXTJENS00002248,38R,NEXTJENS00002250,40R,NEXTJENS00002252,38L,NEXTJENS00002254,36R,NEXTJENS00002256,28R,NEXTJENS00002258,34L,NEXTJENS00002260,36S,NEXTJENS00002262,30L,NEXTJENS00002264,28S,NEXTJENS00002266,36XL,NEXTJENS00002268,38S,NEXTJENS00002270,34R,NEXTJENS00002272,30S,NEXTJENS00002274,34XL,NEXTJENS00002651;2690.00;;;;;;;;zerotype;;Spring;;No
1882514;7968695558202924766-BLUE-1882514;Blue Belted Slim Fit Jeans;Draft;Jeans;next;Adults-Men;Men;;;;Fashion;;2017;32R,NEXTJENS00002235,36XL,NEXTJENS00002236,40R,NEXTJENS00002238,38R,NEXTJENS00002240,32S,NEXTJENS00002242,38S,NEXTJENS00002244,34S,NEXTJENS00002246,30L,NEXTJENS00002249,34XL,NEXTJENS00002251,30R,NEXTJENS00002253,32XL,NEXTJENS00002255,32L,NEXTJENS00002257,30S,NEXTJENS00002259,34L,NEXTJENS00002261,36R,NEXTJENS00002263,36S,NEXTJENS00002265,28R,NEXTJENS00002267,34R,NEXTJENS00002269,28S,NEXTJENS00002271,36L,NEXTJENS00002273,38L,NEXTJENS00002275;5090.00;;;;;;;;zerotype;;Spring;;No
1882513;7681858460362724809-BLUE-1882513;Jeans With Stretch;Draft;Jeans;next;Adults-Men;Men;;;;Fashion;;2017;36XL,NEXTJENS00002196,42R,NEXTJENS00002197,36L,NEXTJENS00002199,36R,NEXTJENS00002201,34R,NEXTJENS00002203,34S,NEXTJENS00002205,38XL,NEXTJENS00002206,32S,NEXTJENS00002208,38S,NEXTJENS00002210,40R,NEXTJENS00002212,38L,NEXTJENS00002214,30L,NEXTJENS00002216,34XL,NEXTJENS00002218,36S,NEXTJENS00002220,40L,NEXTJENS00002222,38R,NEXTJENS00002224,32R,NEXTJENS00002226,34L,NEXTJENS00002228,32L,NEXTJENS00002229,30R,NEXTJENS00002231,30S,NEXTJENS00002233;3890.00;;;;;;;;zerotype;;Spring;;No
1882512;7254422237939350957-BLUE-1882512;Blue Ripped And Repaired Jeans;Draft;Jeans;next;Adults-Men;Men;;;;Fashion;;2017;38S,NEXTJENS00002193,36S,NEXTJENS00002194,42R,NEXTJENS00002195,38XL,NEXTJENS00002198,38L,NEXTJENS00002200,34S,NEXTJENS00002202,36XL,NEXTJENS00002204,30L,NEXTJENS00002207,32L,NEXTJENS00002209,38R,NEXTJENS00002211,34L,NEXTJENS00002213,32R,NEXTJENS00002215,32S,NEXTJENS00002217,36L,NEXTJENS00002219,34XL,NEXTJENS00002221,36R,NEXTJENS00002223,40L,NEXTJENS00002225,34R,NEXTJENS00002227,40R,NEXTJENS00002230,30R,NEXTJENS00002232,30S,NEXTJENS00002234;4790.00;;;;;;;;zerotype;;Spring;;No
1882511;7675494234816899206-BLACK-1882511;Washed Black Jeans With Leather Detail;Draft;Jeans;next;Adults-Men;Men;;;;Fashion;;2017;40R,NEXTJENS00002159,38R,NEXTJENS00002161,32L,NEXTJENS00002163,36XL,NEXTJENS00002164,36R,NEXTJENS00002166,28R,NEXTJENS00002168,36S,NEXTJENS00002170,34S,NEXTJENS00002171,32R,NEXTJENS00002173,32S,NEXTJENS00002174,34L,NEXTJENS00002176,30S,NEXTJENS00002178,38L,NEXTJENS00002180,30L,NEXTJENS00002182,34XL,NEXTJENS00002183,28S,NEXTJENS00002185,32XL,NEXTJENS00002187,38S,NEXTJENS00002189,30R,NEXTJENS00002191,36L,NEXTJENS00002192,34R,NEXTJENS00002653;5790.00;;;;;;;;zerotype;;Spring;;No
1882510;7213281529042405183-BLUE-1882510;Dirty Denim Painted Jeans;Draft;Jeans;next;Adults-Men;Men;;;;Fashion;;2017;38R,NEXTJENS00002148,32R,NEXTJENS00002150,36XL,NEXTJENS00002152,34R,NEXTJENS00002153,28R,NEXTJENS00002155,30S,NEXTJENS00002156,34S,NEXTJENS00002158,36S,NEXTJENS00002160,34XL,NEXTJENS00002162,32L,NEXTJENS00002165,30L,NEXTJENS00002167,38L,NEXTJENS00002169,38S,NEXTJENS00002172,34L,NEXTJENS00002175,30R,NEXTJENS00002177,32S,NEXTJENS00002179,28S,NEXTJENS00002181,40R,NEXTJENS00002184,36R,NEXTJENS00002186,32XL,NEXTJENS00002188,36L,NEXTJENS00002190;5390.00;;;;;;;;zerotype;;Spring;;No
1882509;7664371141040478993-BLUE-1882509;Dark Wash Belted Jeans;Draft;Jeans;next;Adults-Men;Men;;;;Fashion;;2017;36XL,NEXTJENS00002119,36R,NEXTJENS00002121,30S,NEXTJENS00002122,32S,NEXTJENS00002124,34L,NEXTJENS00002126,40L,NEXTJENS00002127,38S,NEXTJENS00002129,42R,NEXTJENS00002131,42L,NEXTJENS00002133,34S,NEXTJENS00002134,34R,NEXTJENS00002136,38R,NEXTJENS00002138,34XL,NEXTJENS00002140,38L,NEXTJENS00002141,32L,NEXTJENS00002143,36L,NEXTJENS00002145,30R,NEXTJENS00002147,38XL,NEXTJENS00002149,36S,NEXTJENS00002151,32R,NEXTJENS00002154,40R,NEXTJENS00002157;4490.00;;;;;;;;zerotype;;Spring;;No
1882508;7174900513532550176-BLUE-1882508;Navy Blue Ripped Knee Jeans With Stretch;Draft;Jeans;next;Adults-Men;Men;;;;Fashion;;2017;28R,NEXTJENS00002105,36XL,NEXTJENS00002106,32R,NEXTJENS00002108,38L,NEXTJENS00002110,36R,NEXTJENS00002111,34R,NEXTJENS00002113,30S,NEXTJENS00002115,30R,NEXTJENS00002116,32XL,NEXTJENS00002118,40R,NEXTJENS00002120,32L,NEXTJENS00002123,30L,NEXTJENS00002125,28S,NEXTJENS00002128,34XL,NEXTJENS00002130,34S,NEXTJENS00002132,38R,NEXTJENS00002135,32S,NEXTJENS00002137,36L,NEXTJENS00002139,34L,NEXTJENS00002142,36S,NEXTJENS00002144,38S,NEXTJENS00002146;3390.00;;;;;;;;zerotype;;Spring;;No
1882507;7488822964133364538-BLUE-1882507;Blue Jeans With Stretch;Draft;Jeans;next;Adults-Men;Men;;;;Fashion;;2017;34XL,NEXTJENS00002082,36S,NEXTJENS00002083,38S,NEXTJENS00002085,30L,NEXTJENS00002086,36XL,NEXTJENS00002088,40R,NEXTJENS00002089,38L,NEXTJENS00002091,38R,NEXTJENS00002093,28S,NEXTJENS00002094,34R,NEXTJENS00002096,32R,NEXTJENS00002098,32XL,NEXTJENS00002099,36L,NEXTJENS00002101,30R,NEXTJENS00002103,32S,NEXTJENS00002104,34L,NEXTJENS00002107,36R,NEXTJENS00002109,34S,NEXTJENS00002112,28R,NEXTJENS00002114,32L,NEXTJENS00002117,30S,NEXTJENS00002652;4090.00;;;;;;;;zerotype;;Spring;;No
1882506;7162009409389079714-BLUE-1882506;Blue Jeans;Draft;Jeans;next;Adults-Men;Men;;;;Fashion;;2017;34S,NEXTJENS00002062,30S,NEXTJENS00002063,34L,NEXTJENS00002065,30L,NEXTJENS00002066,32XL,NEXTJENS00002068,38S,NEXTJENS00002070,38L,NEXTJENS00002071,36R,NEXTJENS00002073,36S,NEXTJENS00002075,32R,NEXTJENS00002076,36XL,NEXTJENS00002078,30R,NEXTJENS00002080,38R,NEXTJENS00002081,34R,NEXTJENS00002084,34XL,NEXTJENS00002087,32S,NEXTJENS00002090,28R,NEXTJENS00002092,36L,NEXTJENS00002095,28S,NEXTJENS00002097,32L,NEXTJENS00002100,40R,NEXTJENS00002102;3890.00;;;;;;;;zerotype;;Spring;;No
1882505;7482987804744945287-BLACK-1882505;Washed Black Jeans With Leather Detail;Draft;Jeans;next;Adults-Men;Men;;;;Fashion;;2017;38R,NEXTJENS00002039,32S,NEXTJENS00002040,40L,NEXTJENS00002042,32L,NEXTJENS00002043,42R,NEXTJENS00002045,38L,NEXTJENS00002046,36L,NEXTJENS00002048,34R,NEXTJENS00002050,30R,NEXTJENS00002051,36R,NEXTJENS00002053,38XL,NEXTJENS00002055,30L,NEXTJENS00002056,28R,NEXTJENS00002058,36XL,NEXTJENS00002060,36S,NEXTJENS00002061,30S,NEXTJENS00002064,34XL,NEXTJENS00002067,38S,NEXTJENS00002069,34S,NEXTJENS00002072,40R,NEXTJENS00002074,32R,NEXTJENS00002077,34L,NEXTJENS00002079;5790.00;;;;;;;;zerotype;;Spring;;No
1882504;7154667928996015099-BLUE-1882504;Light Blue Patched Jeans;Draft;Jeans;next;Adults-Men;Men;;;;Fashion;;2017;34XL,NEXTJENS00002018,28S,NEXTJENS00002019,30R,NEXTJENS00002021,38R,NEXTJENS00002022,36XL,NEXTJENS00002024,32L,NEXTJENS00002026,36R,NEXTJENS00002028,32XL,NEXTJENS00002029,32S,NEXTJENS00002031,38S,NEXTJENS00002033,28R,NEXTJENS00002035,30L,NEXTJENS00002036,30S,NEXTJENS00002038,36S,NEXTJENS00002041,34R,NEXTJENS00002044,34L,NEXTJENS00002047,32R,NEXTJENS00002049,34S,NEXTJENS00002052,40R,NEXTJENS00002054,36L,NEXTJENS00002057,38L,NEXTJENS00002059;5790.00;;;;;;;;zerotype;;Spring;;No
1882503;7306737206988634585-BLUE-1882503;Ripped Knee Jeans;Draft;Jeans;next;Adults-Men;Men;;;;Fashion;;2017;36S,NEXTJENS00001999,34L,NEXTJENS00002000,38R,NEXTJENS00002002,30L,NEXTJENS00002003,32R,NEXTJENS00002005,30R,NEXTJENS00002006,34XL,NEXTJENS00002008,28L,NEXTJENS00002009,28R,NEXTJENS00002011,32XL,NEXTJENS00002012,26R,NEXTJENS00002014,32S,NEXTJENS00002016,32L,NEXTJENS00002017,36R,NEXTJENS00002020,34S,NEXTJENS00002023,30S,NEXTJENS00002025,36L,NEXTJENS00002027,40R,NEXTJENS00002030,34R,NEXTJENS00002032,28S,NEXTJENS00002034,26S,NEXTJENS00002037;4090.00;;;;;;;;zerotype;;Spring;;No
1882502;6995823650865556715-GREY-1882502;Dark Grey Jeans With Stretch;Draft;Jeans;next;Adults-Men;Men;;;;Fashion;;2017;34S,NEXTJENS00001974,38R,NEXTJENS00001975,26R,NEXTJENS00001977,36S,NEXTJENS00001979,32S,NEXTJENS00001980,26S,NEXTJENS00001982,28R,NEXTJENS00001984,28S,NEXTJENS00001986,34L,NEXTJENS00001987,34XL,NEXTJENS00001989,32XL,NEXTJENS00001991,30S,NEXTJENS00001993,34R,NEXTJENS00001995,32R,NEXTJENS00001997,36R,NEXTJENS00001998,40R,NEXTJENS00002001,28L,NEXTJENS00002004,30L,NEXTJENS00002007,30R,NEXTJENS00002010,32L,NEXTJENS00002013,36L,NEXTJENS00002015;4090.00;;;;;;;;zerotype;;Spring;;No
1882501;7116074884875642872-BLUE-1882501;Dark Blue Jeans;Draft;Jeans;next;Adults-Men;Men;;;;Fashion;;2017;28R,NEXTJENS00001958,40R,NEXTJENS00001959,32L,NEXTJENS00001961,30L,NEXTJENS00001962,28S,NEXTJENS00001964,38L,NEXTJENS00001965,38S,NEXTJENS00001967,36XL,NEXTJENS00001968,32XL,NEXTJENS00001970,32R,NEXTJENS00001972,36R,NEXTJENS00001973,34L,NEXTJENS00001976,34R,NEXTJENS00001978,36L,NEXTJENS00001981,34XL,NEXTJENS00001983,38R,NEXTJENS00001985,32S,NEXTJENS00001988,36S,NEXTJENS00001990,34S,NEXTJENS00001992,30R,NEXTJENS00001994,30S,NEXTJENS00001996;3590.00;;;;;;;;zerotype;;Spring;;No
1882500;7049694415306440824-BLUE-1882500;Chalk Wash Jeans With Stretch;Draft;Jeans;next;Adults-Men;Men;;;;Fashion;;2017;32R,NEXTJENS00001929,36R,NEXTJENS00001930,30S,NEXTJENS00001932,34R,NEXTJENS00001934,26S,NEXTJENS00001936,34S,NEXTJENS00001938,30L,NEXTJENS00001940,32L,NEXTJENS00001942,28R,NEXTJENS00001944,26R,NEXTJENS00001946,34L,NEXTJENS00001948,30R,NEXTJENS00001950,28S,NEXTJENS00001951,28L,NEXTJENS00001954,32S,NEXTJENS00001956;4090.00;;;;;;;;zerotype;;Spring;;No
1882499;6898534918600181702-BLACK-1882499;Washed Grey Rip And Repair Jeans;Draft;Jeans;next;Adults-Men;Men;;;;Fashion;;2017;34XL,NEXTJENS00001927,32XL,NEXTJENS00001928,38L,NEXTJENS00001931,32L,NEXTJENS00001933,38R,NEXTJENS00001935,36R,NEXTJENS00001937,38S,NEXTJENS00001939,32S,NEXTJENS00001941,30S,NEXTJENS00001943,32R,NEXTJENS00001945,36S,NEXTJENS00001947,34L,NEXTJENS00001949,28S,NEXTJENS00001952,30R,NEXTJENS00001953,34S,NEXTJENS00001955,40R,NEXTJENS00001957,30L,NEXTJENS00001960,36L,NEXTJENS00001963,36XL,NEXTJENS00001966,34R,NEXTJENS00001969,28R,NEXTJENS00001971;5090.00;;;;;;;;zerotype;;Spring;;No
1882498;6952387454940493469-BLUE-1882498;Mid Blue Vintage Wash Belted Jeans;Draft;Jeans;next;Adults-Men;Men;;;;Fashion;;2017;36L,NEXTJENS00001885,34S,NEXTJENS00001886,38R,NEXTJENS00001888,34L,NEXTJENS00001890,40XL,NEXTJENS00001892,32S,NEXTJENS00001894,44R,NEXTJENS00001896,36XL,NEXTJENS00001897,36R,NEXTJENS00001899,46R,NEXTJENS00001901,38S,NEXTJENS00001903,38XL,NEXTJENS00001905,30R,NEXTJENS00001907,38L,NEXTJENS00001909,40S,NEXTJENS00001911,44L,NEXTJENS00001913,40L,NEXTJENS00001915,42R,NEXTJENS00001916,32R,NEXTJENS00001918,42L,NEXTJENS00001920,36S,NEXTJENS00001922,34R,NEXTJENS00001924,40R,NEXTJENS00001926;5090.00;;;;;;;;zerotype;;Spring;;No
1882497;6852158942471141183-BLUE-1882497;Bleach Wash Jeans;Draft;Jeans;next;Adults-Men;Men;;;;Fashion;;2017;34S,NEXTJENS00001883,36R,NEXTJENS00001884,38XL,NEXTJENS00001887,38L,NEXTJENS00001889,40L,NEXTJENS00001891,36XL,NEXTJENS00001893,30L,NEXTJENS00001895,30R,NEXTJENS00001898,38S,NEXTJENS00001900,36S,NEXTJENS00001902,34XL,NEXTJENS00001904,40R,NEXTJENS00001906,34L,NEXTJENS00001908,34R,NEXTJENS00001910,38R,NEXTJENS00001912,36L,NEXTJENS00001914,32S,NEXTJENS00001917,32R,NEXTJENS00001919,30S,NEXTJENS00001921,32L,NEXTJENS00001923,42R,NEXTJENS00001925;3590.00;;;;;;;;zerotype;;Spring;;No
1882496;6941308294034452812-BLUE-1882496;Jeans With Stretch;Draft;Jeans;next;Adults-Men;Men;;;;Fashion;;2017;26S,NEXTJENS00001859,34S,NEXTJENS00001861,32S,NEXTJENS00001862,28R,NEXTJENS00001864,32L,NEXTJENS00001865,34L,NEXTJENS00001867,32R,NEXTJENS00001869,28L,NEXTJENS00001870,30S,NEXTJENS00001872,30R,NEXTJENS00001874,36R,NEXTJENS00001875,34R,NEXTJENS00001877,26R,NEXTJENS00001879,28S,NEXTJENS00001881,30L,NEXTJENS00001882;3290.00;;;;;;;;zerotype;;Spring;;No
1882495;6574154019494985775-BLUE-1882495;Jeans With Stretch;Draft;Jeans;next;Adults-Men;Men;;;;Fashion;;2017;34R,NEXTJENS00001839,26R,NEXTJENS00001841,34S,NEXTJENS00001843,30L,NEXTJENS00001844,38R,NEXTJENS00001846,28S,NEXTJENS00001847,36L,NEXTJENS00001849,40R,NEXTJENS00001851,32XL,NEXTJENS00001853,26S,NEXTJENS00001854,28R,NEXTJENS00001856,30S,NEXTJENS00001858,30R,NEXTJENS00001860,34XL,NEXTJENS00001863,32R,NEXTJENS00001866,28L,NEXTJENS00001868,34L,NEXTJENS00001871,32L,NEXTJENS00001873,32S,NEXTJENS00001876,36R,NEXTJENS00001878,36S,NEXTJENS00001880;4090.00;;;;;;;;zerotype;;Spring;;No
1882494;6919968972043238552-BLUE-1882494;Blue Belted Straight Fit Jeans;Draft;Jeans;next;Adults-Men;Men;;;;Fashion;;2017;32S,NEXTJENS00001819,36R,NEXTJENS00001821,42R,NEXTJENS00001822,32R,NEXTJENS00001824,40R,NEXTJENS00001825,36L,NEXTJENS00001827,30L,NEXTJENS00001828,38XL,NEXTJENS00001830,32L,NEXTJENS00001831,40L,NEXTJENS00001833,30R,NEXTJENS00001835,36XL,NEXTJENS00001836,34L,NEXTJENS00001838,34R,NEXTJENS00001840,34XL,NEXTJENS00001842,36S,NEXTJENS00001845,38S,NEXTJENS00001848,30S,NEXTJENS00001850,38R,NEXTJENS00001852,34S,NEXTJENS00001855,38L,NEXTJENS00001857;5090.00;;;;;;;;zerotype;;Spring;;No
1882493;6533333214478686478-BLUE-1882493;Jeans With Stretch;Draft;Jeans;next;Adults-Men;Men;;;;Fashion;;2017;32L,NEXTJENS00001795,36L,NEXTJENS00001797,32XL,NEXTJENS00001799,34R,NEXTJENS00001800,38S,NEXTJENS00001802,36XL,NEXTJENS00001803,30L,NEXTJENS00001805,28S,NEXTJENS00001807,36S,NEXTJENS00001809,28R,NEXTJENS00001811,36R,NEXTJENS00001813,38R,NEXTJENS00001814,34L,NEXTJENS00001816,38L,NEXTJENS00001818,32R,NEXTJENS00001820,34XL,NEXTJENS00001823,32S,NEXTJENS00001826,40R,NEXTJENS00001829,30R,NEXTJENS00001832,30S,NEXTJENS00001834,34S,NEXTJENS00001837;3890.00;;;;;;;;zerotype;;Spring;;No
1882492;6786335903696605893-BLUE-1882492;Blue Jeans With Stretch;Draft;Jeans;next;Adults-Men;Men;;;;Fashion;;2017;32R,NEXTJENS00001778,36S,NEXTJENS00001780,34S,NEXTJENS00001781,36L,NEXTJENS00001783,40R,NEXTJENS00001784,36R,NEXTJENS00001786,26R,NEXTJENS00001787,26S,NEXTJENS00001789,34XL,NEXTJENS00001791,28R,NEXTJENS00001792,32L,NEXTJENS00001794,32XL,NEXTJENS00001796,32S,NEXTJENS00001798,30S,NEXTJENS00001801,34R,NEXTJENS00001804,34L,NEXTJENS00001806,38R,NEXTJENS00001808,28L,NEXTJENS00001810,28S,NEXTJENS00001812,30L,NEXTJENS00001815,30R,NEXTJENS00001817;3290.00;;;;;;;;zerotype;;Spring;;No
1882491;6432156800095895693-BLUE-1882491;Bright Blue Wash Rip N Repair Jeans;Draft;Jeans;next;Adults-Men;Men;;;;Fashion;;2017;34XL,NEXTJENS00001753,32S,NEXTJENS00001754,32R,NEXTJENS00001756,32XL,NEXTJENS00001757,30L,NEXTJENS00001759,30S,NEXTJENS00001761,36S,NEXTJENS00001762,36L,NEXTJENS00001764,40R,NEXTJENS00001766,28R,NEXTJENS00001768,32L,NEXTJENS00001769,28S,NEXTJENS00001771,36R,NEXTJENS00001773,34S,NEXTJENS00001775,36XL,NEXTJENS00001777,38L,NEXTJENS00001779,38S,NEXTJENS00001782,34L,NEXTJENS00001785,34R,NEXTJENS00001788,38R,NEXTJENS00001790,30R,NEXTJENS00001793;4190.00;;;;;;;;zerotype;;Spring;;No
1882490;6657053614198210735-BLUE-1882490;Chalk Wash Jeans With Stretch;Draft;Jeans;next;Adults-Men;Men;;;;Fashion;;2017;28L,NEXTJENS00001737,30S,NEXTJENS00001739,38R,NEXTJENS00001740,28S,NEXTJENS00001742,30L,NEXTJENS00001743,34S,NEXTJENS00001745,34XL,NEXTJENS00001746,26R,NEXTJENS00001748,28R,NEXTJENS00001749,32L,NEXTJENS00001751,36L,NEXTJENS00001752,36S,NEXTJENS00001755,32S,NEXTJENS00001758,36R,NEXTJENS00001760,34R,NEXTJENS00001763,34L,NEXTJENS00001765,26S,NEXTJENS00001767,30R,NEXTJENS00001770,32XL,NEXTJENS00001772,32R,NEXTJENS00001774,40R,NEXTJENS00001776;4090.00;;;;;;;;zerotype;;Spring;;No
1882489;6351906148513070180-BLUE-1882489;Blue Straight Fit Jeans;Draft;Jeans;next;Adults-Men;Men;;;;Fashion;;2017;32L,NEXTJENS00001708,38S,NEXTJENS00001710,34L,NEXTJENS00001712,32R,NEXTJENS00001714,38R,NEXTJENS00001715,40R,NEXTJENS00001717,36XL,NEXTJENS00001719,34R,NEXTJENS00001721,32S,NEXTJENS00001723,42R,NEXTJENS00001725,30L,NEXTJENS00001726,36R,NEXTJENS00001728,30S,NEXTJENS00001730,34XL,NEXTJENS00001732,34S,NEXTJENS00001734,36S,NEXTJENS00001736,38XL,NEXTJENS00001738,40L,NEXTJENS00001741,36L,NEXTJENS00001744,30R,NEXTJENS00001747,38L,NEXTJENS00001750;4790.00;;;;;;;;zerotype;;Spring;;No
1882488;6648984328931170367-BLUE-1882488;Dark Blue Belted Boot Fit Jeans;Draft;Jeans;next;Adults-Men;Men;;;;Fashion;;2017;34R,NEXTJENS00001697,38S,NEXTJENS00001698,34S,NEXTJENS00001699,40L,NEXTJENS00001701,36XL,NEXTJENS00001702,38L,NEXTJENS00001704,42L,NEXTJENS00001705,38XL,NEXTJENS00001707,32S,NEXTJENS00001709,32L,NEXTJENS00001711,30R,NEXTJENS00001713,34L,NEXTJENS00001716,32R,NEXTJENS00001718,36S,NEXTJENS00001720,36L,NEXTJENS00001722,42R,NEXTJENS00001724,36R,NEXTJENS00001727,34XL,NEXTJENS00001729,30S,NEXTJENS00001731,40R,NEXTJENS00001733,38R,NEXTJENS00001735;5090.00;;;;;;;;zerotype;;Spring;;No
1882487;6051487380252831115-BLUE-1882487;Raw Denim Premium Jeans;Draft;Jeans;next;Adults-Men;Men;;;;Fashion;;2017;30L,NEXTJENS00001664,28R,NEXTJENS00001666,32XL,NEXTJENS00001668,36L,NEXTJENS00001670,36S,NEXTJENS00001671,38L,NEXTJENS00001673,32R,NEXTJENS00001675,38R,NEXTJENS00001677,34S,NEXTJENS00001679,34R,NEXTJENS00001681,30S,NEXTJENS00001682,34L,NEXTJENS00001684,32L,NEXTJENS00001687,36XL,NEXTJENS00001688,32S,NEXTJENS00001690,38S,NEXTJENS00001692,30R,NEXTJENS00001694,34XL,NEXTJENS00001696,36R,NEXTJENS00001700,28S,NEXTJENS00001703,40R,NEXTJENS00001706;6390.00;;;;;;;;zerotype;;Spring;;No
1882486;6648248554232412808-BLUE-1882486;Light Blue Belted Jeans;Draft;Jeans;next;Adults-Men;Men;;;;Fashion;;2017;36XL,NEXTJENS00001655,38XL,NEXTJENS00001656,38R,NEXTJENS00001658,34S,NEXTJENS00001659,34R,NEXTJENS00001660,32L,NEXTJENS00001662,30S,NEXTJENS00001663,30R,NEXTJENS00001665,32S,NEXTJENS00001667,42L,NEXTJENS00001669,36S,NEXTJENS00001672,38S,NEXTJENS00001674,42R,NEXTJENS00001676,36R,NEXTJENS00001678,40L,NEXTJENS00001680,36L,NEXTJENS00001683,40R,NEXTJENS00001685,32R,NEXTJENS00001686,34XL,NEXTJENS00001689,34L,NEXTJENS00001691,30L,NEXTJENS00001693,38L,NEXTJENS00001695;5090.00;;;;;;;;zerotype;;Spring;;No
1882485;5955730906555063898-BLUE-1882485;Bleach Wash Ripped And Repaired Jeans;Draft;Jeans;next;Adults-Men;Men;;;;Fashion;;2017;36L,NEXTJENS00001618,38R,NEXTJENS00001619,34S,NEXTJENS00001621,36R,NEXTJENS00001623,32R,NEXTJENS00001625,40S,NEXTJENS00001627,36S,NEXTJENS00001629,40XL,NEXTJENS00001631,30R,NEXTJENS00001632,44R,NEXTJENS00001634,36XL,NEXTJENS00001636,46R,NEXTJENS00001639,44L,NEXTJENS00001641,40L,NEXTJENS00001643,42R,NEXTJENS00001644,42L,NEXTJENS00001646,34R,NEXTJENS00001648,34L,NEXTJENS00001650,38L,NEXTJENS00001652,32S,NEXTJENS00001654,40R,NEXTJENS00001657,38S,NEXTJENS00001661,38XL,NEXTJENS00002650;4790.00;;;;;;;;zerotype;;Spring;;No
1882484;6611576689218048401-BLUE-1882484;Blue Belted Loose Fit Jeans;Draft;Jeans;next;Adults-Men;Men;;;;Fashion;;2017;38S,NEXTJENS00001610,38XL,NEXTJENS00001611,36R,NEXTJENS00001613,36L,NEXTJENS00001614,44R,NEXTJENS00001616,32R,NEXTJENS00001617,38R,NEXTJENS00001620,38L,NEXTJENS00001622,30R,NEXTJENS00001624,36S,NEXTJENS00001626,44L,NEXTJENS00001628,46R,NEXTJENS00001630,34L,NEXTJENS00001633,42R,NEXTJENS00001635,34S,NEXTJENS00001637,42L,NEXTJENS00001638,40L,NEXTJENS00001640,40R,NEXTJENS00001642,32S,NEXTJENS00001645,36XL,NEXTJENS00001647,40S,NEXTJENS00001649,40XL,NEXTJENS00001651,34R,NEXTJENS00001653;5090.00;;;;;;;;zerotype;;Spring;;No
1882483;4748390358512502516-BLUE-1882483;Bleach Wash Jeans;Draft;Jeans;next;Adults-Men;Men;;;;Fashion;;2017;40R,NEXTJENS00001574,30R,NEXTJENS00001576,36R,NEXTJENS00001577,38R,NEXTJENS00001580,28S,NEXTJENS00001581,30L,NEXTJENS00001583,34R,NEXTJENS00001585,28L,NEXTJENS00001587,32S,NEXTJENS00001589,32L,NEXTJENS00001592,34S,NEXTJENS00001594,32XL,NEXTJENS00001596,26R,NEXTJENS00001598,28R,NEXTJENS00001600,34L,NEXTJENS00001602,36S,NEXTJENS00001603,34XL,NEXTJENS00001605,26S,NEXTJENS00001607,30S,NEXTJENS00001609,36L,NEXTJENS00001612,32R,NEXTJENS00001615;3890.00;;;;;;;;zerotype;;Spring;;No
1882482;6349190842745969014-BLUE-1882482;Premium Jeans;Draft;Jeans;next;Adults-Men;Men;;;;Fashion;;2017;28S,NEXTJENS00001571,36L,NEXTJENS00001572,28R,NEXTJENS00001573,34XL,NEXTJENS00001575,36R,NEXTJENS00001578,36XL,NEXTJENS00001579,32L,NEXTJENS00001582,32R,NEXTJENS00001584,38L,NEXTJENS00001586,34R,NEXTJENS00001588,40R,NEXTJENS00001590,30L,NEXTJENS00001591,38S,NEXTJENS00001593,32S,NEXTJENS00001595,34S,NEXTJENS00001597,34L,NEXTJENS00001599,38R,NEXTJENS00001601,30R,NEXTJENS00001604,30S,NEXTJENS00001606,36S,NEXTJENS00001608;6390.00;;;;;;;;zerotype;;Spring;;No
1882481;6302220856130393239-BLUE-1882481;Dark Wash Belted Jeans;Draft;Jeans;next;Adults-Men;Men;;;;Fashion;;2017;30R,NEXTJENS00001550,28S,NEXTJENS00001551,36S,NEXTJENS00001552,30L,NEXTJENS00001553,40R,NEXTJENS00001554,34XL,NEXTJENS00001555,32R,NEXTJENS00001556,34R,NEXTJENS00001557,36L,NEXTJENS00001558,34S,NEXTJENS00001559,38L,NEXTJENS00001560,30S,NEXTJENS00001561,36R,NEXTJENS00001562,34L,NEXTJENS00001563,38R,NEXTJENS00001564,36XL,NEXTJENS00001565,32S,NEXTJENS00001566,32XL,NEXTJENS00001567,28R,NEXTJENS00001568,32L,NEXTJENS00001569,38S,NEXTJENS00001570;4490.00;;;;;;;;zerotype;;Spring;;No
1882480;6291817473423931077-BLACK-1882480;Washed Black Rip And Repair Jeans;Draft;Jeans;next;Adults-Men;Men;;;;Fashion;;2017;34S,NEXTJENS00001529,32XL,NEXTJENS00001530,36XL,NEXTJENS00001531,28S,NEXTJENS00001532,28R,NEXTJENS00001533,38S,NEXTJENS00001534,30R,NEXTJENS00001535,34R,NEXTJENS00001536,30L,NEXTJENS00001537,38L,NEXTJENS00001538,32S,NEXTJENS00001539,36S,NEXTJENS00001540,32L,NEXTJENS00001541,36R,NEXTJENS00001542,36L,NEXTJENS00001543,32R,NEXTJENS00001544,34L,NEXTJENS00001545,40R,NEXTJENS00001546,34XL,NEXTJENS00001547,30S,NEXTJENS00001548,38R,NEXTJENS00001549;5090.00;;;;;;;;zerotype;;Spring;;No
1882479;6198631128636852074-BLUE-1882479;Dark Wash Belted Jeans;Draft;Jeans;next;Adults-Men;Men;;;;Fashion;;2017;40R,NEXTJENS00001508,32L,NEXTJENS00001509,34S,NEXTJENS00001510,30S,NEXTJENS00001511,36XL,NEXTJENS00001512,38R,NEXTJENS00001513,30L,NEXTJENS00001514,42R,NEXTJENS00001515,34XL,NEXTJENS00001516,32S,NEXTJENS00001517,40L,NEXTJENS00001518,36L,NEXTJENS00001519,38L,NEXTJENS00001520,38XL,NEXTJENS00001521,32R,NEXTJENS00001522,34L,NEXTJENS00001523,30R,NEXTJENS00001524,34R,NEXTJENS00001525,36R,NEXTJENS00001526,38S,NEXTJENS00001527,36S,NEXTJENS00001528;4490.00;;;;;;;;zerotype;;Spring;;No
1882478;5875748127239152906-BLUE-1882478;Blue Dirty Wash Jeans;Draft;Jeans;next;Adults-Men;Men;;;;Fashion;;2017;34R,NEXTJENS00001487,32XL,NEXTJENS00001488,28S,NEXTJENS00001489,36XL,NEXTJENS00001490,30R,NEXTJENS00001491,32L,NEXTJENS00001492,32S,NEXTJENS00001493,34L,NEXTJENS00001494,34S,NEXTJENS00001495,38S,NEXTJENS00001496,30S,NEXTJENS00001497,34XL,NEXTJENS00001498,36R,NEXTJENS00001499,28R,NEXTJENS00001500,30L,NEXTJENS00001501,38R,NEXTJENS00001502,40R,NEXTJENS00001503,32R,NEXTJENS00001504,38L,NEXTJENS00001505,36L,NEXTJENS00001506,36S,NEXTJENS00001507;3890.00;;;;;;;;zerotype;;Spring;;No
1882477;5847438161964523778-BLUE-1882477;Blue Dirty Wash Jeans;Draft;Jeans;next;Adults-Men;Men;;;;Fashion;;2017;32S,NEXTJENS00001466,32L,NEXTJENS00001467,34XL,NEXTJENS00001468,28R,NEXTJENS00001469,32R,NEXTJENS00001470,28S,NEXTJENS00001471,38R,NEXTJENS00001472,30S,NEXTJENS00001473,34S,NEXTJENS00001474,34R,NEXTJENS00001475,34L,NEXTJENS00001476,36R,NEXTJENS00001477,30L,NEXTJENS00001478,32XL,NEXTJENS00001479,38L,NEXTJENS00001480,30R,NEXTJENS00001481,36L,NEXTJENS00001482,40R,NEXTJENS00001483,38S,NEXTJENS00001484,36XL,NEXTJENS00001485,36S,NEXTJENS00001486;3890.00;;;;;;;;zerotype;;Spring;;No
1882476;5826452736811283057-BLUE-1882476;Jeans With Stretch;Draft;Jeans;next;Adults-Men;Men;;;;Fashion;;2017;34L,NEXTJENS00001444,30L,NEXTJENS00001445,32S,NEXTJENS00001446,36L,NEXTJENS00001447,28S,NEXTJENS00001448,32R,NEXTJENS00001449,28R,NEXTJENS00001450,32L,NEXTJENS00001451,36R,NEXTJENS00001452,38R,NEXTJENS00001453,36XL,NEXTJENS00001454,40L,NEXTJENS00001455,32XL,NEXTJENS00001456,40R,NEXTJENS00001457,38L,NEXTJENS00001458,38S,NEXTJENS00001459,34R,NEXTJENS00001460,30S,NEXTJENS00001461,36S,NEXTJENS00001462,34S,NEXTJENS00001463,30R,NEXTJENS00001464,34XL,NEXTJENS00001465;3890.00;;;;;;;;zerotype;;Spring;;No
1882475;5825846984771611500-BLUE-1882475;Bright Blue Jeans With Stretch;Draft;Jeans;next;Adults-Men;Men;;;;Fashion;;2017;36R,NEXTJENS00001423,40R,NEXTJENS00001424,34R,NEXTJENS00001425,36L,NEXTJENS00001426,26S,NEXTJENS00001427,28L,NEXTJENS00001428,32L,NEXTJENS00001429,32S,NEXTJENS00001430,28S,NEXTJENS00001431,30R,NEXTJENS00001432,32XL,NEXTJENS00001433,36S,NEXTJENS00001434,34S,NEXTJENS00001435,30L,NEXTJENS00001436,38R,NEXTJENS00001437,30S,NEXTJENS00001438,34L,NEXTJENS00001439,26R,NEXTJENS00001440,28R,NEXTJENS00001441,32R,NEXTJENS00001442,34XL,NEXTJENS00001443;4090.00;;;;;;;;zerotype;;Spring;;No
1882474;5804969426817459431-BLUE-1882474;Blue Belted Jeans;Draft;Jeans;next;Adults-Men;Men;;;;Fashion;;2017;34XL,NEXTJENS00001402,28R,NEXTJENS00001403,34L,NEXTJENS00001404,34R,NEXTJENS00001405,36S,NEXTJENS00001406,38R,NEXTJENS00001407,32R,NEXTJENS00001408,30L,NEXTJENS00001409,36XL,NEXTJENS00001410,30R,NEXTJENS00001411,28S,NEXTJENS00001412,40R,NEXTJENS00001413,36R,NEXTJENS00001414,34S,NEXTJENS00001415,38S,NEXTJENS00001416,32XL,NEXTJENS00001417,36L,NEXTJENS00001418,32L,NEXTJENS00001419,38L,NEXTJENS00001420,32S,NEXTJENS00001421,30S,NEXTJENS00001422;5090.00;;;;;;;;zerotype;;Spring;;No
1882473;5720879723194503240-BLUE-1882473;Dark Wash Belted Jeans;Draft;Jeans;next;Adults-Men;Men;;;;Fashion;;2017;40XL,NEXTJENS00001379,34S,NEXTJENS00001380,32S,NEXTJENS00001381,44R,NEXTJENS00001382,44L,NEXTJENS00001383,46R,NEXTJENS00001384,40R,NEXTJENS00001385,40L,NEXTJENS00001386,32R,NEXTJENS00001387,34L,NEXTJENS00001388,36L,NEXTJENS00001389,42L,NEXTJENS00001390,38XL,NEXTJENS00001391,30R,NEXTJENS00001392,38L,NEXTJENS00001393,38S,NEXTJENS00001394,38R,NEXTJENS00001395,36XL,NEXTJENS00001396,42R,NEXTJENS00001397,36R,NEXTJENS00001398,34R,NEXTJENS00001399,40S,NEXTJENS00001400,36S,NEXTJENS00001401;4490.00;;;;;;;;zerotype;;Spring;;No
1882472;5680446671566602325-BLUE-1882472;Mid Blue Jeans With Leather Detail;Draft;Jeans;next;Adults-Men;Men;;;;Fashion;;2017;28S,NEXTJENS00001358,40R,NEXTJENS00001359,36R,NEXTJENS00001360,34S,NEXTJENS00001361,38S,NEXTJENS00001362,36L,NEXTJENS00001363,38R,NEXTJENS00001364,34L,NEXTJENS00001365,34XL,NEXTJENS00001366,30S,NEXTJENS00001367,30R,NEXTJENS00001368,30L,NEXTJENS00001369,32L,NEXTJENS00001370,32R,NEXTJENS00001371,36XL,NEXTJENS00001372,32S,NEXTJENS00001373,34R,NEXTJENS00001374,36S,NEXTJENS00001375,38L,NEXTJENS00001376,28R,NEXTJENS00001378;5790.00;;;;;;;;zerotype;;Spring;;No
1882464;5367787928567176027-BLUE-1882464;Blue Dirty Wash Jeans;Draft;Jeans;next;Adults-Men;Men;;;;Fashion;;2017;40R,NEXTJENS00001337,38XL,NEXTJENS00001338,38R,NEXTJENS00001339,42R,NEXTJENS00001340,32R,NEXTJENS00001341,40L,NEXTJENS00001342,32L,NEXTJENS00001343,34XL,NEXTJENS00001344,36R,NEXTJENS00001345,32S,NEXTJENS00001346,38S,NEXTJENS00001347,30L,NEXTJENS00001348,34R,NEXTJENS00001349,30R,NEXTJENS00001350,36L,NEXTJENS00001351,30S,NEXTJENS00001352,34L,NEXTJENS00001353,36S,NEXTJENS00001354,34S,NEXTJENS00001355,38L,NEXTJENS00001356,36XL,NEXTJENS00001357;3890.00;;;;;;;;zerotype;;Spring;;No
1882457;5337457027987399713-BLUE-1882457;Chalk Wash Jeans With Stretch;Draft;Jeans;next;Adults-Men;Men;;;;Fashion;;2017;28R,NEXTJENS00001316,36XL,NEXTJENS00001317,38S,NEXTJENS00001318,38L,NEXTJENS00001319,34XL,NEXTJENS00001320,32S,NEXTJENS00001321,32R,NEXTJENS00001322,30S,NEXTJENS00001323,36R,NEXTJENS00001324,38R,NEXTJENS00001325,40R,NEXTJENS00001326,28S,NEXTJENS00001327,34S,NEXTJENS00001328,30L,NEXTJENS00001329,34R,NEXTJENS00001330,36L,NEXTJENS00001331,32XL,NEXTJENS00001332,34L,NEXTJENS00001333,32L,NEXTJENS00001334,30R,NEXTJENS00001335,36S,NEXTJENS00001336;3890.00;;;;;;;;zerotype;;Spring;;No
1882450;5208986246550082652-BLUE-1882450;Blue Dirty Wash Jeans;Draft;Jeans;next;Adults-Men;Men;;;;Fashion;;2017;34L,NEXTJENS00001295,40L,NEXTJENS00001296,36R,NEXTJENS00001297,32S,NEXTJENS00001298,32L,NEXTJENS00001299,38L,NEXTJENS00001300,40R,NEXTJENS00001301,36L,NEXTJENS00001302,30L,NEXTJENS00001303,38XL,NEXTJENS00001304,34XL,NEXTJENS00001305,34S,NEXTJENS00001306,36XL,NEXTJENS00001307,36S,NEXTJENS00001308,38S,NEXTJENS00001309,30S,NEXTJENS00001310,32R,NEXTJENS00001311,34R,NEXTJENS00001312,30R,NEXTJENS00001313,38R,NEXTJENS00001314,42R,NEXTJENS00001315;3890.00;;;;;;;;zerotype;;Spring;;No
1882441;5086453252347720975-BLUE-1882441;Light Blue Jeans With Stretch;Draft;Jeans;next;Adults-Men;Men;;;;Fashion;;2017;32R,NEXTJENS00001272,40L,NEXTJENS00001273,30R,NEXTJENS00001274,46R,NEXTJENS00001275,34S,NEXTJENS00001276,44R,NEXTJENS00001277,32S,NEXTJENS00001278,38L,NEXTJENS00001279,40XL,NEXTJENS00001280,36R,NEXTJENS00001281,36XL,NEXTJENS00001282,40R,NEXTJENS00001283,44L,NEXTJENS00001284,36S,NEXTJENS00001285,36L,NEXTJENS00001286,40S,NEXTJENS00001287,42R,NEXTJENS00001288,38S,NEXTJENS00001289,34L,NEXTJENS00001290,38XL,NEXTJENS00001291,34R,NEXTJENS00001292,42L,NEXTJENS00001293,38R,NEXTJENS00001294;3890.00;;;;;;;;zerotype;;Spring;;No
1882434;5052860702991236304-BLACK-1882434;Raw Denim Coated Belted Jeans With Stretch;Draft;Jeans;next;Adults-Men;Men;;;;Fashion;;2017;42R,NEXTJENS00001251,32L,NEXTJENS00001252,30S,NEXTJENS00001253,34S,NEXTJENS00001254,38L,NEXTJENS00001255,42L,NEXTJENS00001256,36R,NEXTJENS00001257,36L,NEXTJENS00001258,32R,NEXTJENS00001259,30R,NEXTJENS00001260,32S,NEXTJENS00001261,40L,NEXTJENS00001262,40R,NEXTJENS00001263,34L,NEXTJENS00001264,38S,NEXTJENS00001265,38XL,NEXTJENS00001266,36XL,NEXTJENS00001267,38R,NEXTJENS00001268,34XL,NEXTJENS00001269,34R,NEXTJENS00001270,36S,NEXTJENS00001271;4490.00;;;;;;;;zerotype;;Spring;;No
1882427;4735794486056994007-BLUE-1882427;Mid Blue Jeans With Leather Detail;Draft;Jeans;next;Adults-Men;Men;;;;Fashion;;2017;38L,NEXTJENS00001230,40L,NEXTJENS00001231,38S,NEXTJENS00001232,34XL,NEXTJENS00001233,36R,NEXTJENS00001234,32L,NEXTJENS00001235,34L,NEXTJENS00001236,30S,NEXTJENS00001237,32R,NEXTJENS00001238,38R,NEXTJENS00001239,36XL,NEXTJENS00001240,36L,NEXTJENS00001241,40R,NEXTJENS00001242,34S,NEXTJENS00001243,32S,NEXTJENS00001244,42R,NEXTJENS00001245,36S,NEXTJENS00001246,30R,NEXTJENS00001247,30L,NEXTJENS00001248,38XL,NEXTJENS00001249,34R,NEXTJENS00001250;5790.00;;;;;;;;zerotype;;Spring;;No
1882422;4677054949241278856-BLUE-1882422;Dark Ink Jeans With Stretch;Draft;Jeans;next;Adults-Men;Men;;;;Fashion;;2017;36R,NEXTJENS00001215,30L,NEXTJENS00001216,34S,NEXTJENS00001217,32S,NEXTJENS00001218,30R,NEXTJENS00001219,26S,NEXTJENS00001220,32R,NEXTJENS00001221,28S,NEXTJENS00001222,34R,NEXTJENS00001223,26R,NEXTJENS00001224,34L,NEXTJENS00001225,30S,NEXTJENS00001226,28L,NEXTJENS00001227,28R,NEXTJENS00001228,32L,NEXTJENS00001229;2890.00;;;;;;;;zerotype;;Spring;;No
1882356;4993848808209981327-BLUE-1882356;Blue Painted Jeans;Draft;Jeans;next;Adults-Men;Men;;;;Fashion;;2017;30R,NEXTJENS00001194,30S,NEXTJENS00001195,38S,NEXTJENS00001196,30L,NEXTJENS00001197,38L,NEXTJENS00001198,36R,NEXTJENS00001199,32R,NEXTJENS00001200,40R,NEXTJENS00001201,36L,NEXTJENS00001202,32S,NEXTJENS00001203,34R,NEXTJENS00001204,34S,NEXTJENS00001205,38R,NEXTJENS00001206,34XL,NEXTJENS00001207,32L,NEXTJENS00001208,42R,NEXTJENS00001209,40L,NEXTJENS00001210,36XL,NEXTJENS00001211,36S,NEXTJENS00001212,38XL,NEXTJENS00001213,34L,NEXTJENS00001214;5390.00;;;;;;;;zerotype;;Spring;;No
1882267;8826203752482299628-Blue-1882267;Navy Playsuit And T-Shirt Set (3Mths-6Yrs);Draft;Clothing Set;next;Kids-Girls;Girls;;;;Fashion;;2017;4-5Y,NEXTCLST00000359,3-4Y,NEXTCLST00000360,5-6Y,NEXTCLST00000361,1.5-2Y,NEXTCLST00000362,2-3Y,NEXTCLST00000363;2390.00;;;;;;;;zerotype;;Spring;;No
1882266;8826203752482299628-Blue-1882266;Navy Playsuit And T-Shirt Set (3Mths-6Yrs);Draft;Clothing Set;next;Kids-Girls;Girls;;;;Fashion;;2017;9-12M,NEXTCLST00000355,12-18M,NEXTCLST00000356,6-9M,NEXTCLST00000357,3-6M,NEXTCLST00000358;2190.00;;;;;;;;zerotype;;Spring;;No
1882265;7365171886724585808-Pink-1882265;Two In One Hoody And Skirt;Draft;Clothing Set;next;Kids-Girls;Girls;;;;Fashion;;2017;13Y,NEXTCLST00000351,14Y,NEXTCLST00000352,16Y,NEXTCLST00000353,15Y,NEXTCLST00000354;3890.00;;;;;;;;zerotype;;Spring;;No
1882264;7365171886724585808-Pink-1882264;Two In One Hoody And Skirt;Draft;Clothing Set;next;Kids-Girls;Girls;;;;Fashion;;2017;11Y,NEXTCLST00000349,12Y,NEXTCLST00000350;3690.00;;;;;;;;zerotype;;Spring;;No
1882263;7365171886724585808-Pink-1882263;Two In One Hoody And Skirt;Draft;Clothing Set;next;Kids-Girls;Girls;;;;Fashion;;2017;9Y,NEXTCLST00000345,7Y,NEXTCLST00000346,10Y,NEXTCLST00000347,8Y,NEXTCLST00000348;3490.00;;;;;;;;zerotype;;Spring;;No
1882262;7365171886724585808-Pink-1882262;Two In One Hoody And Skirt;Draft;Clothing Set;next;Kids-Girls;Girls;;;;Fashion;;2017;6Y,NEXTCLST00000341,3Y,NEXTCLST00000342,4Y,NEXTCLST00000343,5Y,NEXTCLST00000344;3290.00;;;;;;;;zerotype;;Spring;;No
1882261;7207534600756816191-Blue-1882261;Playsuit;Draft;Clothing Set;next;Kids-Girls;Girls;;;;Fashion;;2017;5-6Y,NEXTCLST00000336,2-3Y,NEXTCLST00000337,4-5Y,NEXTCLST00000338,3-4Y,NEXTCLST00000339,1.5-2Y,NEXTCLST00000340;1990.00;;;;;;;;zerotype;;Spring;;No
1882260;7207534600756816191-Blue-1882260;Playsuit;Draft;Clothing Set;next;Kids-Girls;Girls;;;;Fashion;;2017;12-18M,NEXTCLST00000332,6-9M,NEXTCLST00000333,3-6M,NEXTCLST00000334,9-12M,NEXTCLST00000335;1790.00;;;;;;;;zerotype;;Spring;;No
1882259;8753028929663945604-Blue-1882259;Signature Crepe Suit: Waistcoat;Draft;Waistcoat;next;Adults-Men;Men;;;;Fashion;;2017;42R,NEXTWACO00000100,44R,NEXTWACO00000101,36R,NEXTWACO00000102,38R,NEXTWACO00000103,46R,NEXTWACO00000104,40R,NEXTWACO00000105;7590.00;;;;;;;;zerotype;;Spring;;No
1882258;7704503209653495441-Grey-1882258;Textured Suit: Waistcoat;Draft;Waistcoat;next;Adults-Men;Men;;;;Fashion;;2017;44R,NEXTWACO00000089,48R,NEXTWACO00000090,34R,NEXTWACO00000091,46R,NEXTWACO00000092,38R,NEXTWACO00000093,42R,NEXTWACO00000094,40L,NEXTWACO00000095,40R,NEXTWACO00000096,42L,NEXTWACO00000097,36R,NEXTWACO00000098,38L,NEXTWACO00000099;5090.00;;;;;;;;zerotype;;Spring;;No
1882257;6831017808339185114-Blue-1882257;Shiny Suit: Waistcoat;Draft;Waistcoat;next;Adults-Men;Men;;;;Fashion;;2017;38L,NEXTWACO00000081,40R,NEXTWACO00000082,32R,NEXTWACO00000083,44L,NEXTWACO00000084,46R,NEXTWACO00000085,50R,NEXTWACO00000086,38R,NEXTWACO00000087,40L,NEXTWACO00000088;4790.00;;;;;;;;zerotype;;Spring;;No
1882256;6467238794715312444-Grey-1882256;Charcoal Grey Signature Check Slim Fit Suit:;Draft;Waistcoat;next;Adults-Men;Men;;;;Fashion;;2017;42R,NEXTWACO00000076,32R,NEXTWACO00000077,48R,NEXTWACO00000078,38R,NEXTWACO00000079,40R,NEXTWACO00000080;7590.00;;;;;;;;zerotype;;Spring;;No
1882255;8964977067834637278-Blue-1882255;Linen Blend Overhead Shirt;Draft;Kurtas;next;Adults-Men;Men;;;;Fashion;;2017;L,NEXTKRTA00000017,XXL,NEXTKRTA00000018,S,NEXTKRTA00000019,XL,NEXTKRTA00000020,4XL,NEXTKRTA00000021,3XL,NEXTKRTA00000022,M,NEXTKRTA00000023,XS,NEXTKRTA00000024;2690.00;;;;;;;;zerotype;;Spring;;No
1882254;5795777209003717834-White-1882254;NEXT WHITE KURTAS;Draft;Kurtas;next;Adults-Men;Men;;;;Fashion;;2017;XL,NEXTKRTA00000009,3XL,NEXTKRTA00000010,M,NEXTKRTA00000011,XS,NEXTKRTA00000012,L,NEXTKRTA00000013,4XL,NEXTKRTA00000014,XXL,NEXTKRTA00000015,S,NEXTKRTA00000016;2690.00;;;;;;;;zerotype;;Spring;;No
1882253;5160880846759094516-Pink-1882253;NEXT PINK KURTAS;Draft;Kurtas;next;Adults-Men;Men;;;;Fashion;;2017;XL,NEXTKRTA00000001,3XL,NEXTKRTA00000002,4XL,NEXTKRTA00000003,XS,NEXTKRTA00000004,L,NEXTKRTA00000005,XXL,NEXTKRTA00000006,S,NEXTKRTA00000007,M,NEXTKRTA00000008;2690.00;;;;;;;;zerotype;;Spring;;No
1882252;8994035630549033825-Pink-1882252;Pink Circus Animal Button Through Pyjama Set;Draft;Lounge Set;next;Adults-Women;Women;;;;Fashion;;2017;14R,NEXTLGST00000513,6R,NEXTLGST00000514,12R,NEXTLGST00000515,14L,NEXTLGST00000516,12L,NEXTLGST00000517,18R,NEXTLGST00000518,16R,NEXTLGST00000519,10L,NEXTLGST00000520,8R,NEXTLGST00000521,16L,NEXTLGST00000522,18L,NEXTLGST00000523,8L,NEXTLGST00000524,10R,NEXTLGST00000525;4190.00;;;;;;;;zerotype;;Spring;;No
1882251;8919926424012439160-Pink-1882251;Pink Rib Vest Sleep Set;Draft;Lounge Set;next;Adults-Women;Women;;;;Fashion;;2017;20,NEXTLGST00000505,10,NEXTLGST00000506,18,NEXTLGST00000507,8,NEXTLGST00000508,6,NEXTLGST00000509,12,NEXTLGST00000510,14,NEXTLGST00000511,16,NEXTLGST00000512;1990.00;;;;;;;;zerotype;;Spring;;No
1882250;8845063729290950152-Blue-1882250;Blue Stripe Jersey Pyjama Set;Draft;Lounge Set;next;Adults-Women;Women;;;;Fashion;;2017;S/REGULAR,NEXTLGST00000496,XS/REGULAR,NEXTLGST00000497,L/LONG,NEXTLGST00000498,S/LONG,NEXTLGST00000499,XL/REGULAR,NEXTLGST00000500,L/REGULAR,NEXTLGST00000501,M/LONG,NEXTLGST00000502,XL/LONG,NEXTLGST00000503,M/REGULAR,NEXTLGST00000504;2990.00;;;;;;;;zerotype;;Spring;;No
1882249;8097195354764736485-Pink-1882249;Pink Valentine Jersey Pyjama Set;Draft;Lounge Set;next;Adults-Women;Women;;;;Fashion;;2017;22R,NEXTLGST00000480,20R,NEXTLGST00000481,14L,NEXTLGST00000482,18L,NEXTLGST00000483,12L,NEXTLGST00000484,8L,NEXTLGST00000485,10R,NEXTLGST00000486,20L,NEXTLGST00000487,12R,NEXTLGST00000488,16L,NEXTLGST00000489,14R,NEXTLGST00000490,6R,NEXTLGST00000491,8R,NEXTLGST00000492,16R,NEXTLGST00000493,18R,NEXTLGST00000494,10L,NEXTLGST00000495;2290.00;;;;;;;;zerotype;;Spring;;No
1882248;7872895354907781808-Grey-1882248;Grey/Cream Bird Print Jersey Pyjama Set;Draft;Lounge Set;next;Adults-Women;Women;;;;Fashion;;2017;20L,NEXTLGST00000464,18R,NEXTLGST00000465,16L,NEXTLGST00000466,10L,NEXTLGST00000467,12R,NEXTLGST00000468,10R,NEXTLGST00000469,18L,NEXTLGST00000470,16R,NEXTLGST00000471,20R,NEXTLGST00000472,8R,NEXTLGST00000473,14R,NEXTLGST00000474,12L,NEXTLGST00000475,14L,NEXTLGST00000476,22R,NEXTLGST00000477,8L,NEXTLGST00000478,6R,NEXTLGST00000479;2190.00;;;;;;;;zerotype;;Spring;;No
1882247;9220467483932033560-GREY-1882247;Pack Of 2 Smiley Regular Track Bottoms;Draft;Track Pants;next;Kids-Boys;Boys;;;;Fashion;;2017;3-4Y,NEXTTRPT00000880,1.5-2Y,NEXTTRPT00000881,4-5Y,NEXTTRPT00000882,2-3Y,NEXTTRPT00000883,5-6Y,NEXTTRPT00000884;2090.00;;;;;;;;zerotype;;Spring;;No
1882246;7731100837886692303-Black-1882246;Invisible Support Pyjama Set;Draft;Lounge Set;next;Adults-Women;Women;;;;Fashion;;2017;8R,NEXTLGST00000447,18L,NEXTLGST00000448,18R,NEXTLGST00000449,14L,NEXTLGST00000450,20R,NEXTLGST00000451,10R,NEXTLGST00000452,8L,NEXTLGST00000453,6R,NEXTLGST00000454,10L,NEXTLGST00000455,16L,NEXTLGST00000456,22L,NEXTLGST00000457,14R,NEXTLGST00000458,20L,NEXTLGST00000459,12R,NEXTLGST00000460,12L,NEXTLGST00000461,22R,NEXTLGST00000462,16R,NEXTLGST00000463;3590.00;;;;;;;;zerotype;;Spring;;No
1882245;9220467483932033560-GREY-1882245;Pack Of 2 Smiley Regular Track Bottoms;Draft;Track Pants;next;Kids-Boys;Boys;;;;Fashion;;2017;9-12M,NEXTTRPT00000876,12-18M,NEXTTRPT00000877,6-9M,NEXTTRPT00000878,3-6M,NEXTTRPT00000879;1790.00;;;;;;;;zerotype;;Spring;;No
1882244;9011160339307730443-BLACK-1882244;Maternity Workwear Joggers;Draft;Track Pants;next;Adults-Women;Women;;;;Fashion;;2017;14L,NEXTTRPT00000869,16R,NEXTTRPT00000870,18L,NEXTTRPT00000871,20R,NEXTTRPT00000872,8L,NEXTTRPT00000873,10R,NEXTTRPT00000874,12L,NEXTTRPT00000875;3190.00;;;;;;;;zerotype;;Spring;;No
1882243;8527587908799296397-GREY-1882243;Rib Panel Track Bottom;Draft;Track Pants;next;Kids-Girls;Girls;;;;Fashion;;2017;13Y,NEXTTRPT00000865,15Y,NEXTTRPT00000866,16Y,NEXTTRPT00000867,14Y,NEXTTRPT00000868;1790.00;;;;;;;;zerotype;;Spring;;No
1882242;7630391487301080660-Pink-1882242;Pink Floral Button Through Pyjama Set;Draft;Lounge Set;next;Adults-Women;Women;;;;Fashion;;2017;16R,NEXTLGST00000434,14L,NEXTLGST00000435,8L,NEXTLGST00000436,18R,NEXTLGST00000437,6R,NEXTLGST00000438,14R,NEXTLGST00000439,18L,NEXTLGST00000440,16L,NEXTLGST00000441,12R,NEXTLGST00000442,10L,NEXTLGST00000443,8R,NEXTLGST00000444,10R,NEXTLGST00000445,12L,NEXTLGST00000446;4190.00;;;;;;;;zerotype;;Spring;;No
1882241;8527587908799296397-GREY-1882241;Rib Panel Track Bottom;Draft;Track Pants;next;Kids-Girls;Girls;;;;Fashion;;2017;11Y,NEXTTRPT00000863,12Y,NEXTTRPT00000864;1590.00;;;;;;;;zerotype;;Spring;;No
1882240;7475370968653174351-Blue-1882240;Ruffle Playsuit, Jersey Top And Tights Set;Draft;Lounge Set;next;Kids-Girls;Girls;;;;Fashion;;2017;3-4Y,NEXTLGST00000429,1.5-2Y,NEXTLGST00000430,4-5Y,NEXTLGST00000431,5-6Y,NEXTLGST00000432,2-3Y,NEXTLGST00000433;2690.00;;;;;;;;zerotype;;Spring;;No
1882239;8527587908799296397-GREY-1882239;Rib Panel Track Bottom;Draft;Track Pants;next;Kids-Girls;Girls;;;;Fashion;;2017;8Y,NEXTTRPT00000859,7Y,NEXTTRPT00000860,10Y,NEXTTRPT00000861,9Y,NEXTTRPT00000862;1390.00;;;;;;;;zerotype;;Spring;;No
1882238;7475370968653174351-Blue-1882238;Ruffle Playsuit, Jersey Top And Tights Set;Draft;Lounge Set;next;Kids-Girls;Girls;;;;Fashion;;2017;12-18M,NEXTLGST00000425,3-6M,NEXTLGST00000426,6-9M,NEXTLGST00000427,9-12M,NEXTLGST00000428;2390.00;;;;;;;;zerotype;;Spring;;No
1882237;8527587908799296397-GREY-1882237;Rib Panel Track Bottom;Draft;Track Pants;next;Kids-Girls;Girls;;;;Fashion;;2017;3Y,NEXTTRPT00000855,4Y,NEXTTRPT00000856,5Y,NEXTTRPT00000857,6Y,NEXTTRPT00000858;1190.00;;;;;;;;zerotype;;Spring;;No
1882236;8368850396032583238-BLACK-1882236;Dark Grey Zip Jogger;Draft;Track Pants;next;Adults-Men;Men;;;;Fashion;;2017;L,NEXTTRPT00000850,XXL,NEXTTRPT00000851,S,NEXTTRPT00000852,M,NEXTTRPT00000853,XL,NEXTTRPT00000854;3590.00;;;;;;;;zerotype;;Spring;;No
1882235;8162795458859352718-ORANGE-1882235;Maroontrack Bottom (0Mths-2Yrs);Draft;Track Pants;next;Kids-Boys;Boys;;;;Fashion;;2017;1.5-2Y,NEXTTRPT00000849;1190.00;;;;;;;;zerotype;;Spring;;No
1882234;7407281458870998524-Grey-1882234;Grey Stripe Pyjama Set;Draft;Lounge Set;next;Adults-Women;Women;;;;Fashion;;2017;M/REGULAR,NEXTLGST00000416,L/LONG,NEXTLGST00000417,M/LONG,NEXTLGST00000418,S/REGULAR,NEXTLGST00000419,L/REGULAR,NEXTLGST00000420,XS/REGULAR,NEXTLGST00000421,XL/LONG,NEXTLGST00000422,S/LONG,NEXTLGST00000423,XL/REGULAR,NEXTLGST00000424;3290.00;;;;;;;;zerotype;;Spring;;No
1882233;8162795458859352718-ORANGE-1882233;Maroontrack Bottom (0Mths-2Yrs);Draft;Track Pants;next;Kids-Boys;Boys;;;;Fashion;;2017;0-3M,NEXTTRPT00000842,6-9M,NEXTTRPT00000843,3-6M,NEXTTRPT00000844,0-1M,NEXTTRPT00000845,12-18M,NEXTTRPT00000846,Newborn,NEXTTRPT00000847,9-12M,NEXTTRPT00000848;1090.00;;;;;;;;zerotype;;Spring;;No
1882232;7069118864409531600-White-1882232;Blue/White Ruffle Jersey Sleep Set;Draft;Lounge Set;next;Adults-Women;Women;;;;Fashion;;2017;10,NEXTLGST00000408,8,NEXTLGST00000409,18,NEXTLGST00000410,12,NEXTLGST00000411,16,NEXTLGST00000412,20,NEXTLGST00000413,6,NEXTLGST00000414,14,NEXTLGST00000415;2990.00;;;;;;;;zerotype;;Spring;;No
1882231;8086634244651337755-BLACK-1882231;Side Stripe Track Trouser;Draft;Track Pants;next;Adults-Women;Women;;;;Fashion;;2017;14P,NEXTTRPT00000835,6P,NEXTTRPT00000836,16P,NEXTTRPT00000837,18P,NEXTTRPT00000838,8P,NEXTTRPT00000839,10P,NEXTTRPT00000840,12P,NEXTTRPT00000841;5090.00;;;;;;;;zerotype;;Spring;;No
1882230;6858008551092882335-Grey-1882230;Cool Crew And Jogger Set;Draft;Lounge Set;next;Kids-Boys;Boys;;;;Fashion;;2017;5-6Y,NEXTLGST00000403,4-5Y,NEXTLGST00000404,2-3Y,NEXTLGST00000405,1.5-2Y,NEXTLGST00000406,3-4Y,NEXTLGST00000407;2190.00;;;;;;;;zerotype;;Spring;;No
1882229;8068158246759993124-BLUE-1882229;Textured Joggers Three Pack;Draft;Track Pants;next;Kids-Boys;Boys;;;;Fashion;;2017;5-6Y,NEXTTRPT00000830,1.5-2Y,NEXTTRPT00000831,3-4Y,NEXTTRPT00000832,2-3Y,NEXTTRPT00000833,4-5Y,NEXTTRPT00000834;2390.00;;;;;;;;zerotype;;Spring;;No
1882228;6858008551092882335-Grey-1882228;Cool Crew And Jogger Set;Draft;Lounge Set;next;Kids-Boys;Boys;;;;Fashion;;2017;12-18M,NEXTLGST00000399,9-12M,NEXTLGST00000400,3-6M,NEXTLGST00000401,6-9M,NEXTLGST00000402;1990.00;;;;;;;;zerotype;;Spring;;No
1882227;8068158246759993124-BLUE-1882227;Textured Joggers Three Pack;Draft;Track Pants;next;Kids-Boys;Boys;;;;Fashion;;2017;3-6M,NEXTTRPT00000826,9-12M,NEXTTRPT00000827,6-9M,NEXTTRPT00000828,12-18M,NEXTTRPT00000829;2190.00;;;;;;;;zerotype;;Spring;;No
1882226;6544557472620952015-Pink-1882226;Towelling Sweat Sleep Set;Draft;Lounge Set;next;Adults-Women;Women;;;;Fashion;;2017;16,NEXTLGST00000391,20,NEXTLGST00000392,14,NEXTLGST00000393,10,NEXTLGST00000394,8,NEXTLGST00000395,18,NEXTLGST00000396,6,NEXTLGST00000397,12,NEXTLGST00000398;3390.00;;;;;;;;zerotype;;Spring;;No
1882225;6203195254870274028-Blue-1882225;Fleece Pyjama Set;Draft;Lounge Set;next;Kids-Boys;Boys;;;;Fashion;;2017;6-7Y,NEXTLGST00000389,7-8Y,NEXTLGST00000390;3590.00;;;;;;;;zerotype;;Spring;;No
1882224;7886957871771508371-GREY-1882224;Grey Jersey Joggers (3Mths-6Yrs);Draft;Track Pants;next;Kids-Boys;Boys;;;;Fashion;;2017;5-6Y,NEXTTRPT00000821,3-4Y,NEXTTRPT00000822,2-3Y,NEXTTRPT00000823,1.5-2Y,NEXTTRPT00000824,4-5Y,NEXTTRPT00000825;2090.00;;;;;;;;zerotype;;Spring;;No
1882223;6203195254870274028-Blue-1882223;Fleece Pyjama Set;Draft;Lounge Set;next;Kids-Boys;Boys;;;;Fashion;;2017;5-6Y,NEXTLGST00000386,3-4Y,NEXTLGST00000387,4-5Y,NEXTLGST00000388;3290.00;;;;;;;;zerotype;;Spring;;No
1882222;6203195254870274028-Blue-1882222;Fleece Pyjama Set;Draft;Lounge Set;next;Kids-Boys;Boys;;;;Fashion;;2017;1.5-2Y,NEXTLGST00000384,2-3Y,NEXTLGST00000385;2990.00;;;;;;;;zerotype;;Spring;;No
1882221;7886957871771508371-GREY-1882221;Grey Jersey Joggers (3Mths-6Yrs);Draft;Track Pants;next;Kids-Boys;Boys;;;;Fashion;;2017;3-6M,NEXTTRPT00000817,9-12M,NEXTTRPT00000818,6-9M,NEXTTRPT00000819,12-18M,NEXTTRPT00000820;1990.00;;;;;;;;zerotype;;Spring;;No
1882220;6203195254870274028-Blue-1882220;Fleece Pyjama Set;Draft;Lounge Set;next;Kids-Boys;Boys;;;;Fashion;;2017;12-18M,NEXTLGST00000382,9-12M,NEXTLGST00000383;2690.00;;;;;;;;zerotype;;Spring;;No
1882219;6110799348032265780-Pink-1882219;Cami Shorts Set;Draft;Lounge Set;next;Adults-Women;Women;;;;Fashion;;2017;14,NEXTLGST00000376,12,NEXTLGST00000377,10,NEXTLGST00000378,18,NEXTLGST00000379,8,NEXTLGST00000380,16,NEXTLGST00000381;3590.00;;;;;;;;zerotype;;Spring;;No
1882218;7514164135185600008-BLACK-1882218;Mesh Technical Jogger;Draft;Track Pants;next;Adults-Women;Women;;;;Fashion;;2017;10,NEXTTRPT00000808,8,NEXTTRPT00000809,16,NEXTTRPT00000810,22,NEXTTRPT00000811,6,NEXTTRPT00000812,20,NEXTTRPT00000813,14,NEXTTRPT00000814,18,NEXTTRPT00000815,12,NEXTTRPT00000816;4090.00;;;;;;;;zerotype;;Spring;;No
1882217;5959002810563013566-Blue-1882217;Cami Shorts Set;Draft;Lounge Set;next;Adults-Women;Women;;;;Fashion;;2017;10,NEXTLGST00000370,18,NEXTLGST00000371,16,NEXTLGST00000372,8,NEXTLGST00000373,14,NEXTLGST00000374,12,NEXTLGST00000375;3590.00;;;;;;;;zerotype;;Spring;;No
1882216;7426868601496956243-GREEN-1882216;Cuffed Jogger;Draft;Track Pants;next;Adults-Men;Men;;;;Fashion;;2017;S,NEXTTRPT00000803,XXL,NEXTTRPT00000804,M,NEXTTRPT00000805,L,NEXTTRPT00000806,XL,NEXTTRPT00000807;2590.00;;;;;;;;zerotype;;Spring;;No
1882215;5068844730007710771-White-1882215;Floral Woven Bottom Pyjamas Set;Draft;Lounge Set;next;Kids-Girls;Girls;;;;Fashion;;2017;14Y,NEXTLGST00000367,16Y,NEXTLGST00000368,15Y,NEXTLGST00000369;2690.00;;;;;;;;zerotype;;Spring;;No
1882214;5068844730007710771-White-1882214;Floral Woven Bottom Pyjamas Set;Draft;Lounge Set;next;Kids-Girls;Girls;;;;Fashion;;2017;13Y,NEXTLGST00000364,12Y,NEXTLGST00000365,11Y,NEXTLGST00000366;2390.00;;;;;;;;zerotype;;Spring;;No
1882213;7373465732323308662-BLUE-1882213;NEXT BLUE TRACKPANTS;Draft;Track Pants;next;Adults-Women;Women;;;;Fashion;;2017;S,NEXTTRPT00000798,XL,NEXTTRPT00000799,M,NEXTTRPT00000800,XS,NEXTTRPT00000801,L,NEXTTRPT00000802;2590.00;;;;;;;;zerotype;;Spring;;No
1882212;5068844730007710771-White-1882212;Floral Woven Bottom Pyjamas Set;Draft;Lounge Set;next;Kids-Girls;Girls;;;;Fashion;;2017;8Y,NEXTLGST00000360,7Y,NEXTLGST00000361,10Y,NEXTLGST00000362,9Y,NEXTLGST00000363;2190.00;;;;;;;;zerotype;;Spring;;No
1882211;7221936545861119702-BLUE-1882211;Navy Blue Contrast Rib Jogger;Draft;Track Pants;next;Adults-Men;Men;;;;Fashion;;2017;S,NEXTTRPT00000792,XL,NEXTTRPT00000793,XXL,NEXTTRPT00000794,M,NEXTTRPT00000795,L,NEXTTRPT00000796,XS,NEXTTRPT00000797;3390.00;;;;;;;;zerotype;;Spring;;No
1882210;5068844730007710771-White-1882210;Floral Woven Bottom Pyjamas Set;Draft;Lounge Set;next;Kids-Girls;Girls;;;;Fashion;;2017;6Y,NEXTLGST00000356,5Y,NEXTLGST00000357,4Y,NEXTLGST00000358,3Y,NEXTLGST00000359;2090.00;;;;;;;;zerotype;;Spring;;No
1882200;5068295700033428875-Blue-1882200;Spot Pyjama Set;Draft;Lounge Set;next;Adults-Women;Women;;;;Fashion;;2017;16R,NEXTLGST00000340,16L,NEXTLGST00000341,20L,NEXTLGST00000342,8L,NEXTLGST00000343,18L,NEXTLGST00000344,8R,NEXTLGST00000345,12R,NEXTLGST00000346,14R,NEXTLGST00000347,6R,NEXTLGST00000348,22R,NEXTLGST00000349,18R,NEXTLGST00000350,20R,NEXTLGST00000351,12L,NEXTLGST00000352,10R,NEXTLGST00000353,10L,NEXTLGST00000354,14L,NEXTLGST00000355;2090.00;;;;;;;;zerotype;;Spring;;No
1882199;7122974380402740231-BLUE-1882199;Pack Of 2 Joggers;Draft;Track Pants;next;Kids-Boys;Boys;;;;Fashion;;2017;1.5-2Y,NEXTTRPT00000791;1390.00;;;;;;;;zerotype;;Spring;;No
1882198;7122974380402740231-BLUE-1882198;Pack Of 2 Joggers;Draft;Track Pants;next;Kids-Boys;Boys;;;;Fashion;;2017;6-9M,NEXTTRPT00000784,9-12M,NEXTTRPT00000785,12-18M,NEXTTRPT00000786,Newborn,NEXTTRPT00000787,0-1M,NEXTTRPT00000788,3-6M,NEXTTRPT00000789,0-3M,NEXTTRPT00000790;1290.00;;;;;;;;zerotype;;Spring;;No
1882197;7122871189946309082-BLUE-1882197;Wide Leg Track Pants;Draft;Track Pants;next;Adults-Women;Women;;;;Fashion;;2017;L,NEXTTRPT00000779,S,NEXTTRPT00000780,M,NEXTTRPT00000781,XS,NEXTTRPT00000782,XL,NEXTTRPT00000783;3390.00;;;;;;;;zerotype;;Spring;;No
1882196;6965210477836268982-GREY-1882196;Black Side Solid Trackpant;Draft;Track Pants;next;Adults-Women;Women;;;;Fashion;;2017;12,NEXTTRPT00000771,18,NEXTTRPT00000772,20,NEXTTRPT00000773,8,NEXTTRPT00000774,6,NEXTTRPT00000775,10,NEXTTRPT00000776,16,NEXTTRPT00000777,14,NEXTTRPT00000778;2290.00;;;;;;;;zerotype;;Spring;;No
1882195;6697850067670016228-PINK-1882195;Blush Panelled Joggers;Draft;Track Pants;next;Adults-Women;Women;;;;Fashion;;2017;8,NEXTTRPT00000764,14,NEXTTRPT00000765,12,NEXTTRPT00000766,16,NEXTTRPT00000767,6,NEXTTRPT00000768,10,NEXTTRPT00000769,18,NEXTTRPT00000770;5090.00;;;;;;;;zerotype;;Spring;;No
1882194;6520454278891897916-BLACK-1882194;Maternity Under The Bump Joggers;Draft;Track Pants;next;Adults-Women;Women;;;;Fashion;;2017;14L,NEXTTRPT00000757,16L,NEXTTRPT00000758,8L,NEXTTRPT00000759,20R,NEXTTRPT00000760,18R,NEXTTRPT00000761,10R,NEXTTRPT00000762,12R,NEXTTRPT00000763;3590.00;;;;;;;;zerotype;;Spring;;No
1882193;6126920132171046789-GREY-1882193;Grey Zip Jogger;Draft;Track Pants;next;Adults-Men;Men;;;;Fashion;;2017;M,NEXTTRPT00000752,XL,NEXTTRPT00000753,L,NEXTTRPT00000754,S,NEXTTRPT00000755,XXL,NEXTTRPT00000756;3590.00;;;;;;;;zerotype;;Spring;;No
1882192;5326315890097519354-GREEN-1882192;Open Hem Track Pant;Draft;Track Pants;next;Adults-Men;Men;;;;Fashion;;2017;XXL,NEXTTRPT00000747,XL,NEXTTRPT00000748,L,NEXTTRPT00000749,M,NEXTTRPT00000750,S,NEXTTRPT00000751;2590.00;;;;;;;;zerotype;;Spring;;No
1882191;5324238316838704113-BLACK-1882191;Technical Loose Fit Joggers;Draft;Track Pants;next;Adults-Women;Women;;;;Fashion;;2017;14,NEXTTRPT00000738,20,NEXTTRPT00000739,16,NEXTTRPT00000740,10,NEXTTRPT00000741,18,NEXTTRPT00000742,8,NEXTTRPT00000743,22,NEXTTRPT00000744,6,NEXTTRPT00000745,12,NEXTTRPT00000746;3190.00;;;;;;;;zerotype;;Spring;;No
1882190;5190329791602436837-GREEN-1882190;Olive Track Bottom;Draft;Track Pants;next;Kids-Girls;Girls;;;;Fashion;;2017;4-5Y,NEXTTRPT00000733,2-3Y,NEXTTRPT00000734,1.5-2Y,NEXTTRPT00000735,5-6Y,NEXTTRPT00000736,3-4Y,NEXTTRPT00000737;2090.00;;;;;;;;zerotype;;Spring;;No
1882189;5190329791602436837-GREEN-1882189;Olive Track Bottom;Draft;Track Pants;next;Kids-Girls;Girls;;;;Fashion;;2017;12-18M,NEXTTRPT00000729,6-9M,NEXTTRPT00000730,9-12M,NEXTTRPT00000731,3-6M,NEXTTRPT00000732;1990.00;;;;;;;;zerotype;;Spring;;No
1882188;5080352772888988929-BLACK-1882188;Technical Jogger;Draft;Track Pants;next;Adults-Women;Women;;;;Fashion;;2017;22,NEXTTRPT00000720,8,NEXTTRPT00000721,12,NEXTTRPT00000722,10,NEXTTRPT00000723,16,NEXTTRPT00000724,18,NEXTTRPT00000725,20,NEXTTRPT00000726,14,NEXTTRPT00000727,6,NEXTTRPT00000728;3190.00;;;;;;;;zerotype;;Spring;;No
1882187;4684326630274209386-GREY-1882187;Grey Joggers;Draft;Track Pants;next;Kids-Girls;Girls;;;;Fashion;;2017;16Y,NEXTTRPT00000716,14Y,NEXTTRPT00000717,13Y,NEXTTRPT00000718,15Y,NEXTTRPT00000719;1690.00;;;;;;;;zerotype;;Spring;;No
1882186;4684326630274209386-GREY-1882186;Grey Joggers;Draft;Track Pants;next;Kids-Girls;Girls;;;;Fashion;;2017;11Y,NEXTTRPT00000714,12Y,NEXTTRPT00000715;1390.00;;;;;;;;zerotype;;Spring;;No
1882185;4684326630274209386-GREY-1882185;Grey Joggers;Draft;Track Pants;next;Kids-Girls;Girls;;;;Fashion;;2017;7Y,NEXTTRPT00000710,8Y,NEXTTRPT00000711,10Y,NEXTTRPT00000712,9Y,NEXTTRPT00000713;1190.00;;;;;;;;zerotype;;Spring;;No
1882184;4684326630274209386-GREY-1882184;Grey Joggers;Draft;Track Pants;next;Kids-Girls;Girls;;;;Fashion;;2017;4Y,NEXTTRPT00000706,5Y,NEXTTRPT00000707,6Y,NEXTTRPT00000708,3Y,NEXTTRPT00000709;1090.00;;;;;;;;zerotype;;Spring;;No
1882183;8633247712827292294-BLACK-1882183;NEXT BLACK LOUNGEWEAR;Draft;Lounge Pants;next;Adults-Women;Women;;;;Fashion;;2017;XL,NEXTLNGP00000170,L,NEXTLNGP00000171,3XL,NEXTLNGP00000172,XXL,NEXTLNGP00000173,M,NEXTLNGP00000174,S,NEXTLNGP00000175,XS,NEXTLNGP00000176;3190.00;;;;;;;;zerotype;;Spring;;No
1882182;8479774737102764758-PINK-1882182;Stripe Wide Leg Pants;Draft;Lounge Pants;next;Adults-Women;Women;;;;Fashion;;2017;XS,NEXTLNGP00000165,M,NEXTLNGP00000166,XL,NEXTLNGP00000167,S,NEXTLNGP00000168,L,NEXTLNGP00000169;2090.00;;;;;;;;zerotype;;Spring;;No
1882181;8021974413997850762-BLACK-1882181;Jersey Tapered Trouser;Draft;Lounge Pants;next;Adults-Women;Women;;;;Fashion;;2017;XXL,NEXTLNGP00000158,S,NEXTLNGP00000159,XXS,NEXTLNGP00000160,XL,NEXTLNGP00000161,L,NEXTLNGP00000162,XS,NEXTLNGP00000163,M,NEXTLNGP00000164;2890.00;;;;;;;;zerotype;;Spring;;No
1882180;7952342181042721840-GREY-1882180;Beaded Joggers;Draft;Lounge Pants;next;Adults-Women;Women;;;;Fashion;;2017;4XL,NEXTLNGP00000149,M,NEXTLNGP00000150,XXS,NEXTLNGP00000151,3XL,NEXTLNGP00000152,XS,NEXTLNGP00000153,XL,NEXTLNGP00000154,XXL,NEXTLNGP00000155,L,NEXTLNGP00000156,S,NEXTLNGP00000157;5390.00;;;;;;;;zerotype;;Spring;;No
1882179;6584174645738352609-RED-1882179;Knit Look Jogger;Draft;Lounge Pants;next;Adults-Women;Women;;;;Fashion;;2017;M,NEXTLNGP00000140,XXL,NEXTLNGP00000141,4XL,NEXTLNGP00000142,XL,NEXTLNGP00000143,XS,NEXTLNGP00000144,XXS,NEXTLNGP00000145,S,NEXTLNGP00000146,L,NEXTLNGP00000147,3XL,NEXTLNGP00000148;2590.00;;;;;;;;zerotype;;Spring;;No
1882178;6031809959140680867-GREY-1882178;Grey Marl Nibbled Pants;Draft;Lounge Pants;next;Adults-Women;Women;;;;Fashion;;2017;S,NEXTLNGP00000131,L,NEXTLNGP00000132,XXL,NEXTLNGP00000133,XL,NEXTLNGP00000134,4XL,NEXTLNGP00000135,3XL,NEXTLNGP00000136,M,NEXTLNGP00000137,XS,NEXTLNGP00000138,XXS,NEXTLNGP00000139;3390.00;;;;;;;;zerotype;;Spring;;No
1882177;5683702355647360744-GREEN-1882177;Crop Pant;Draft;Lounge Pants;next;Adults-Women;Women;;;;Fashion;;2017;XXS,NEXTLNGP00000122,XL,NEXTLNGP00000123,3XL,NEXTLNGP00000124,XS,NEXTLNGP00000125,L,NEXTLNGP00000126,S,NEXTLNGP00000127,M,NEXTLNGP00000128,XXL,NEXTLNGP00000129,4XL,NEXTLNGP00000130;2390.00;;;;;;;;zerotype;;Spring;;No
1882176;5314540985152070750-GREY-1882176;Crop Pant;Draft;Lounge Pants;next;Adults-Women;Women;;;;Fashion;;2017;XXL,NEXTLNGP00000113,3XL,NEXTLNGP00000114,4XL,NEXTLNGP00000115,L,NEXTLNGP00000116,XXS,NEXTLNGP00000117,S,NEXTLNGP00000118,XS,NEXTLNGP00000119,M,NEXTLNGP00000120,XL,NEXTLNGP00000121;2390.00;;;;;;;;zerotype;;Spring;;No
1882175;4971706743961686121-BLACK-1882175;NEXT BLACK LOUNGEWEAR;Draft;Lounge Pants;next;Adults-Women;Women;;;;Fashion;;2017;M,NEXTLNGP00000104,XS,NEXTLNGP00000105,XL,NEXTLNGP00000106,XXL,NEXTLNGP00000107,XXS,NEXTLNGP00000108,3XL,NEXTLNGP00000109,S,NEXTLNGP00000110,L,NEXTLNGP00000111,4XL,NEXTLNGP00000112;5390.00;;;;;;;;zerotype;;Spring;;No
1882171;8840696277955102562-Black-1882171;Playsuit;Draft;Jumpsuit;next;Adults-Women;Women;;;;Fashion;;2017;6,NEXTJMST00000332,10,NEXTJMST00000333,14,NEXTJMST00000334,18,NEXTJMST00000335,8,NEXTJMST00000336,16,NEXTJMST00000337,12,NEXTJMST00000338;3190.00;;;;;;;;zerotype;;Spring;;No
1882170;8714248335046620404-Black-1882170;Mesh Insert Jumpsuit;Draft;Jumpsuit;next;Adults-Women;Women;;;;Fashion;;2017;12T,NEXTJMST00000325,10T,NEXTJMST00000326,18T,NEXTJMST00000327,14T,NEXTJMST00000328,16T,NEXTJMST00000329,8T,NEXTJMST00000330,20T,NEXTJMST00000331;3390.00;;;;;;;;zerotype;;Spring;;No
1882169;8438973945320364934-Blue-1882169;Cobalt Strap Back Jumpsuit;Draft;Jumpsuit;next;Adults-Women;Women;;;;Fashion;;2017;14,NEXTJMST00000318,12,NEXTJMST00000319,8,NEXTJMST00000320,6,NEXTJMST00000321,18,NEXTJMST00000322,16,NEXTJMST00000323,10,NEXTJMST00000324;7590.00;;;;;;;;zerotype;;Spring;;No
1882168;8347872723726304409-Green-1882168;Playsuit;Draft;Jumpsuit;next;Adults-Women;Women;;;;Fashion;;2017;10,NEXTJMST00000309,8,NEXTJMST00000310,12,NEXTJMST00000311,14,NEXTJMST00000312,16,NEXTJMST00000313,18,NEXTJMST00000314,6,NEXTJMST00000315,20,NEXTJMST00000316,22,NEXTJMST00000317;3190.00;;;;;;;;zerotype;;Spring;;No
1882167;8115983210875538465-Black-1882167;Playsuit;Draft;Jumpsuit;next;Adults-Women;Women;;;;Fashion;;2017;16,NEXTJMST00000300,22,NEXTJMST00000301,12,NEXTJMST00000302,20,NEXTJMST00000303,14,NEXTJMST00000304,6,NEXTJMST00000305,18,NEXTJMST00000306,8,NEXTJMST00000307,10,NEXTJMST00000308;3190.00;;;;;;;;zerotype;;Spring;;No
1882166;7719412897093147181-Green-1882166;Olive Patch Jumpsuit;Draft;Jumpsuit;next;Adults-Women;Women;;;;Fashion;;2017;16,NEXTJMST00000293,12,NEXTJMST00000294,8,NEXTJMST00000295,6,NEXTJMST00000296,14,NEXTJMST00000297,10,NEXTJMST00000298,18,NEXTJMST00000299;7590.00;;;;;;;;zerotype;;Spring;;No
1882165;7669893086468856347-Blue-1882165;Navy Blue Strap Back Jumpsuit;Draft;Jumpsuit;next;Adults-Women;Women;;;;Fashion;;2017;14T,NEXTJMST00000286,18T,NEXTJMST00000287,12T,NEXTJMST00000288,16T,NEXTJMST00000289,8T,NEXTJMST00000290,10T,NEXTJMST00000291,20T,NEXTJMST00000292;7590.00;;;;;;;;zerotype;;Spring;;No
1882164;7619738127593257388-Black-1882164;Playsuit;Draft;Jumpsuit;next;Adults-Women;Women;;;;Fashion;;2017;16T,NEXTJMST00000279,20T,NEXTJMST00000280,12T,NEXTJMST00000281,18T,NEXTJMST00000282,10T,NEXTJMST00000283,14T,NEXTJMST00000284,8T,NEXTJMST00000285;3190.00;;;;;;;;zerotype;;Spring;;No
1882163;7179375753507070512-Black-1882163;Black Satin Jumpsuit;Draft;Jumpsuit;next;Adults-Women;Women;;;;Fashion;;2017;18,NEXTJMST00000270,16,NEXTJMST00000271,14,NEXTJMST00000272,10,NEXTJMST00000273,6,NEXTJMST00000274,12,NEXTJMST00000275,8,NEXTJMST00000276,22,NEXTJMST00000277,20,NEXTJMST00000278;6190.00;;;;;;;;zerotype;;Spring;;No
1882162;6721093100009573254-Red-1882162;Culotte Jumpsuit;Draft;Jumpsuit;next;Adults-Women;Women;;;;Fashion;;2017;14,NEXTJMST00000261,22,NEXTJMST00000262,8,NEXTJMST00000263,20,NEXTJMST00000264,12,NEXTJMST00000265,18,NEXTJMST00000266,16,NEXTJMST00000267,6,NEXTJMST00000268,10,NEXTJMST00000269;3590.00;;;;;;;;zerotype;;Spring;;No
1882161;6705808655009451650-Black-1882161;Mesh Insert Jumpsuit;Draft;Jumpsuit;next;Adults-Women;Women;;;;Fashion;;2017;12P,NEXTJMST00000254,8P,NEXTJMST00000255,14P,NEXTJMST00000256,16P,NEXTJMST00000257,18P,NEXTJMST00000258,10P,NEXTJMST00000259,6P,NEXTJMST00000260;3390.00;;;;;;;;zerotype;;Spring;;No
1882160;5765753726181693991-Grey-1882160;Charcoal Jumpsuit;Draft;Jumpsuit;next;Adults-Women;Women;;;;Fashion;;2017;6,NEXTJMST00000247,16,NEXTJMST00000248,10,NEXTJMST00000249,12,NEXTJMST00000250,14,NEXTJMST00000251,18,NEXTJMST00000252,8,NEXTJMST00000253;6390.00;;;;;;;;zerotype;;Spring;;No
1882159;5751857461477202181-Grey-1882159;Jumpsuit (3-16Yrs);Draft;Jumpsuit;next;Kids-Girls;Girls;;;;Fashion;;2017;13Y,NEXTJMST00000243,15Y,NEXTJMST00000244,16Y,NEXTJMST00000245,14Y,NEXTJMST00000246;2990.00;;;;;;;;zerotype;;Spring;;No
1882158;5751857461477202181-Grey-1882158;Jumpsuit (3-16Yrs);Draft;Jumpsuit;next;Kids-Girls;Girls;;;;Fashion;;2017;11Y,NEXTJMST00000241,12Y,NEXTJMST00000242;2690.00;;;;;;;;zerotype;;Spring;;No
1882157;5751857461477202181-Grey-1882157;Jumpsuit (3-16Yrs);Draft;Jumpsuit;next;Kids-Girls;Girls;;;;Fashion;;2017;9Y,NEXTJMST00000237,8Y,NEXTJMST00000238,10Y,NEXTJMST00000239,7Y,NEXTJMST00000240;2390.00;;;;;;;;zerotype;;Spring;;No
1882156;5751857461477202181-Grey-1882156;Jumpsuit (3-16Yrs);Draft;Jumpsuit;next;Kids-Girls;Girls;;;;Fashion;;2017;4Y,NEXTJMST00000233,6Y,NEXTJMST00000234,5Y,NEXTJMST00000235,3Y,NEXTJMST00000236;2190.00;;;;;;;;zerotype;;Spring;;No
1882155;5672061953472591763-Blue-1882155;Navy Strap Back Jumpsuit;Draft;Jumpsuit;next;Adults-Women;Women;;;;Fashion;;2017;16P,NEXTJMST00000226,6P,NEXTJMST00000227,18P,NEXTJMST00000228,12P,NEXTJMST00000229,10P,NEXTJMST00000230,8P,NEXTJMST00000231,14P,NEXTJMST00000232;7590.00;;;;;;;;zerotype;;Spring;;No
1882154;5534938319135242767-Blue-1882154;Navy/Pink Stripe Woven Pyjamas;Draft;Jumpsuit;next;Adults-Women;Women;;;;Fashion;;2017;10,NEXTJMST00000217,14,NEXTJMST00000218,20,NEXTJMST00000219,8,NEXTJMST00000220,18,NEXTJMST00000221,6,NEXTJMST00000222,22,NEXTJMST00000223,12,NEXTJMST00000224,16,NEXTJMST00000225;5090.00;;;;;;;;zerotype;;Spring;;No
1882153;4810454723143192260-Green-1882153;Playsuit;Draft;Jumpsuit;next;Adults-Women;Women;;;;Fashion;;2017;12,NEXTJMST00000210,18,NEXTJMST00000211,6,NEXTJMST00000212,14,NEXTJMST00000213,10,NEXTJMST00000214,16,NEXTJMST00000215,8,NEXTJMST00000216;3190.00;;;;;;;;zerotype;;Spring;;No
1882152;4651550401547730512-Pink-1882152;Playsuit;Draft;Jumpsuit;next;Adults-Women;Women;;;;Fashion;;2017;22,NEXTJMST00000201,20,NEXTJMST00000202,14,NEXTJMST00000203,16,NEXTJMST00000204,8,NEXTJMST00000205,10,NEXTJMST00000206,12,NEXTJMST00000207,18,NEXTJMST00000208,6,NEXTJMST00000209;3190.00;;;;;;;;zerotype;;Spring;;No
1882151;8271428448424641570-Blue-1882151;Thin Strap Vest;Draft;Camisoles;next;Adults-Women;Women;;;;Fashion;;2017;16,NEXTCMSL00000093,26,NEXTCMSL00000094,20,NEXTCMSL00000095,12,NEXTCMSL00000096,22,NEXTCMSL00000097,18,NEXTCMSL00000098,14,NEXTCMSL00000099,8,NEXTCMSL00000100,10,NEXTCMSL00000101,24,NEXTCMSL00000102,6,NEXTCMSL00000103;790.00;;;;;;;;zerotype;;Spring;;No
1882150;8097219677308870953-Green-1882150;Thin Strap Vest;Draft;Camisoles;next;Adults-Women;Women;;;;Fashion;;2017;10,NEXTCMSL00000082,14,NEXTCMSL00000083,6,NEXTCMSL00000084,22,NEXTCMSL00000085,20,NEXTCMSL00000086,16,NEXTCMSL00000087,24,NEXTCMSL00000088,12,NEXTCMSL00000089,18,NEXTCMSL00000090,8,NEXTCMSL00000091,26,NEXTCMSL00000092;790.00;;;;;;;;zerotype;;Spring;;No
1882149;7704081297596346048-Pink-1882149;360 Stretch Cami;Draft;Camisoles;next;Adults-Women;Women;;;;Fashion;;2017;S/M,NEXTCMSL00000080,M/L,NEXTCMSL00000081;1590.00;;;;;;;;zerotype;;Spring;;No
