Style ID;Vendor Article Number;Vendor Article Name;Active Status;Article type;Brand;Age Group;Gender;Base Colour;Colour1;Colour2;Fashion Type;Usage;Year;Size - SKU code pair;MRP;Style Description;Style Note;Materials and Care Description;Size and Fit Description;Size Chart Path;Product Display Name;Tags;Product Type;Classification Brand;Season;Comments;Upload Images
2139274;'8519118335112560808-Navy/White Stripe-2139274;Roll Top Bikini Panty;Draft;Briefs;next;Adults-Women;Women;White;;;Fashion;;2017;10,NEXTBREF00000867,12,NEXTBREF00000868,14,NEXTBREF00000869,16,NEXTBREF00000870,18,NEXTBREF00000871,20,NEXTBREF00000872,6,NEXTBREF00000873,8,NEXTBREF00000874;1910.00;;;;;;;;zerotype;;Fall;;No
2139273;'8123930147283954429-Pink-2139273;Shape Enhancing Roll Top Bikini Briefs;Draft;Briefs;next;Adults-Women;Women;Pink;;;Fashion;;2017;10,NEXTBREF00000859,12,NEXTBREF00000860,14,NEXTBREF00000861,16,NEXTBREF00000862,18,NEXTBREF00000863,20,NEXTBREF00000864,6,NEXTBREF00000865,8,NEXTBREF00000866;1430.00;;;;;;;;zerotype;;Fall;;No
2139272;'7954102976541990109-White-2139272;Midi Briefs Five Pack;Draft;Briefs;next;Adults-Women;Women;White;;;Fashion;;2017;10,NEXTBREF00000852,12,NEXTBREF00000853,14,NEXTBREF00000854,16,NEXTBREF00000855,18,NEXTBREF00000856,6,NEXTBREF00000857,8,NEXTBREF00000858;1190.00;;;;;;;;zerotype;;Fall;;No
2139271;'7952423481615121577-Turquoise-2139271;High Leg Bikini Briefs;Draft;Briefs;next;Adults-Women;Women;Blue;;;Fashion;;2017;10,NEXTBREF00000844,12,NEXTBREF00000845,14,NEXTBREF00000846,16,NEXTBREF00000847,18,NEXTBREF00000848,20,NEXTBREF00000849,6,NEXTBREF00000850,8,NEXTBREF00000851;1430.00;;;;;;;;zerotype;;Fall;;No
2139270;'7675117941785867922-Pink-2139270;Printed Roll Top Bikini Briefs;Draft;Briefs;next;Adults-Women;Women;Pink;;;Fashion;;2017;10,NEXTBREF00000836,12,NEXTBREF00000837,14,NEXTBREF00000838,16,NEXTBREF00000839,18,NEXTBREF00000840,20,NEXTBREF00000841,6,NEXTBREF00000842,8,NEXTBREF00000843;2150.00;;;;;;;;zerotype;;Fall;;No
2139269;'7453773010174411676-Pink-2139269;Aztec Print Brazilian Bikini Briefs;Draft;Briefs;next;Adults-Women;Women;Pink;;;Fashion;;2017;10,NEXTBREF00000828,12,NEXTBREF00000829,14,NEXTBREF00000830,16,NEXTBREF00000831,18,NEXTBREF00000832,20,NEXTBREF00000833,6,NEXTBREF00000834,8,NEXTBREF00000835;1430.00;;;;;;;;zerotype;;Fall;;No
2139268;'5811936100126164646-Navy-2139268;Navy Blue Bikini Panty;Draft;Briefs;next;Adults-Women;Women;Navy Blue;;;Fashion;;2017;10,NEXTBREF00000820,12,NEXTBREF00000821,14,NEXTBREF00000822,16,NEXTBREF00000823,18,NEXTBREF00000824,20,NEXTBREF00000825,6,NEXTBREF00000826,8,NEXTBREF00000827;1430.00;;;;;;;;zerotype;;Fall;;No
2139266;'8963496424504913616-Cream-2139266;Tie Cuff Tunic;Draft;Tunics;next;Adults-Women;Women;White;;;Fashion;;2017;10,NEXTTNIC00000221,12,NEXTTNIC00000222,14,NEXTTNIC00000223,16,NEXTTNIC00000224,18,NEXTTNIC00000225,20,NEXTTNIC00000226,6,NEXTTNIC00000227,8,NEXTTNIC00000228;3110.00;;;;;;;;zerotype;;Fall;;No
2139265;'5538905688062722222-Grid Print-2139265;Tie Cuff Tunic;Draft;Tunics;next;Adults-Women;Women;Blue;;;Fashion;;2017;10,NEXTTNIC00000213,12,NEXTTNIC00000214,14,NEXTTNIC00000215,16,NEXTTNIC00000216,18,NEXTTNIC00000217,20,NEXTTNIC00000218,6,NEXTTNIC00000219,8,NEXTTNIC00000220;3350.00;;;;;;;;zerotype;;Fall;;No
2139264;'8384381918674721214-Pink Stripe-2139264;Cotton Lace Trim Vest;Draft;Camisoles;next;Adults-Women;Women;Pink;;;Fashion;;2017;12,NEXTCMSL00000317,14,NEXTCMSL00000318,16,NEXTCMSL00000319,18,NEXTCMSL00000320,8,NEXTCMSL00000321;830.00;;;;;;;;zerotype;;Fall;;No
2139263;'7817269926476362184-White-2139263;Invisible Support Vest;Draft;Camisoles;next;Adults-Women;Women;White;;;Fashion;;2017;10,NEXTCMSL00000309,12,NEXTCMSL00000310,14,NEXTCMSL00000311,16,NEXTCMSL00000312,18,NEXTCMSL00000313,20,NEXTCMSL00000314,22,NEXTCMSL00000315,8,NEXTCMSL00000316;1670.00;;;;;;;;zerotype;;Fall;;No
2139262;'7199143120255286369-Khaki-2139262;Thin Strap Vest;Draft;Camisoles;next;Adults-Women;Women;Charcoal;;;Fashion;;2017;10,NEXTCMSL00000298,12,NEXTCMSL00000299,14,NEXTCMSL00000300,16,NEXTCMSL00000301,18,NEXTCMSL00000302,20,NEXTCMSL00000303,22,NEXTCMSL00000304,24,NEXTCMSL00000305,26,NEXTCMSL00000306,6,NEXTCMSL00000307,8,NEXTCMSL00000308;590.00;;;;;;;;zerotype;;Fall;;No
2139261;'6810453864340785833-Yellow-2139261;Invisible Support Vest;Draft;Camisoles;next;Adults-Women;Women;Yellow;;;Fashion;;2017;10,NEXTCMSL00000290,12,NEXTCMSL00000291,14,NEXTCMSL00000292,16,NEXTCMSL00000293,18,NEXTCMSL00000294,20,NEXTCMSL00000295,22,NEXTCMSL00000296,8,NEXTCMSL00000297;1670.00;;;;;;;;zerotype;;Fall;;No
2139260;'6629452640684814613-Plum-2139260;Thin Strap Vest;Draft;Camisoles;next;Adults-Women;Women;Maroon;;;Fashion;;2017;10,NEXTCMSL00000279,12,NEXTCMSL00000280,14,NEXTCMSL00000281,16,NEXTCMSL00000282,18,NEXTCMSL00000283,20,NEXTCMSL00000284,22,NEXTCMSL00000285,24,NEXTCMSL00000286,26,NEXTCMSL00000287,6,NEXTCMSL00000288,8,NEXTCMSL00000289;590.00;;;;;;;;zerotype;;Fall;;No
2139259;'6173937851159878250-Teal-2139259;Thin Strap Vest;Draft;Camisoles;next;Adults-Women;Women;Teal;;;Fashion;;2017;10,NEXTCMSL00000268,12,NEXTCMSL00000269,14,NEXTCMSL00000270,16,NEXTCMSL00000271,18,NEXTCMSL00000272,20,NEXTCMSL00000273,22,NEXTCMSL00000274,24,NEXTCMSL00000275,26,NEXTCMSL00000276,6,NEXTCMSL00000277,8,NEXTCMSL00000278;590.00;;;;;;;;zerotype;;Fall;;No
2139258;'5714561406267846796-Dark Red-2139258;Thin Strap Vest;Draft;Camisoles;next;Adults-Women;Women;Red;;;Fashion;;2017;10,NEXTCMSL00000257,12,NEXTCMSL00000258,14,NEXTCMSL00000259,16,NEXTCMSL00000260,18,NEXTCMSL00000261,20,NEXTCMSL00000262,22,NEXTCMSL00000263,24,NEXTCMSL00000264,26,NEXTCMSL00000265,6,NEXTCMSL00000266,8,NEXTCMSL00000267;590.00;;;;;;;;zerotype;;Fall;;No
2139257;'4962123440666587434-White-2139257;Cotton Lace Trim Vest;Draft;Camisoles;next;Adults-Women;Women;White;;;Fashion;;2017;10,NEXTCMSL00000251,12,NEXTCMSL00000252,14,NEXTCMSL00000253,16,NEXTCMSL00000254,18,NEXTCMSL00000255,8,NEXTCMSL00000256;830.00;;;;;;;;zerotype;;Fall;;No
2139256;'8830260115489528207-Red Ditsy-2139256;Red Printed Shirt Dress;Draft;Dresses;next;Adults-Women;Women;Red;;;Fashion;;2017;10,NEXTDRSS00004722,12,NEXTDRSS00004723,14,NEXTDRSS00004724,16,NEXTDRSS00004725,18,NEXTDRSS00004726,20,NEXTDRSS00004727,22,NEXTDRSS00004728,6,NEXTDRSS00004729,8,NEXTDRSS00004730;5030.00;;;;;;;;zerotype;;Fall;;No
2139253;'8779291793242013421-Stripe-2139253;Layer Nursing Dress;Draft;Dresses;next;Adults-Women;Women;White;;;Fashion;;2017;10,NEXTDRSS00004714,12,NEXTDRSS00004715,14,NEXTDRSS00004716,16,NEXTDRSS00004717,18,NEXTDRSS00004718,20,NEXTDRSS00004719,22,NEXTDRSS00004720,8,NEXTDRSS00004721;3830.00;;;;;;;;zerotype;;Fall;;No
2139252;'8649206163044343656-Pinstripe-2139252;Navy Blue Maternity Dress;Draft;Dresses;next;Adults-Women;Women;Navy Blue;;;Fashion;;2017;10,NEXTDRSS00004706,12,NEXTDRSS00004707,14,NEXTDRSS00004708,16,NEXTDRSS00004709,18,NEXTDRSS00004710,20,NEXTDRSS00004711,22,NEXTDRSS00004712,8,NEXTDRSS00004713;4070.00;;;;;;;;zerotype;;Fall;;No
2139250;'8570080728694910140-Navy-2139250;Floral Tea Dress;Draft;Dresses;next;Adults-Women;Women;Navy Blue;;;Fashion;;2017;10,NEXTDRSS00004698,12,NEXTDRSS00004699,14,NEXTDRSS00004700,16,NEXTDRSS00004701,18,NEXTDRSS00004702,20,NEXTDRSS00004703,22,NEXTDRSS00004704,8,NEXTDRSS00004705;3110.00;;;;;;;;zerotype;;Fall;;No
2139248;'8403809262915766009-Red-2139248;Red Belted Tailored Dress;Draft;Dresses;next;Adults-Women;Women;Red;;;Fashion;;2017;10,NEXTDRSS00004687,12,NEXTDRSS00004688,14,NEXTDRSS00004689,16,NEXTDRSS00004690,18,NEXTDRSS00004691,20,NEXTDRSS00004692,22,NEXTDRSS00004693,24,NEXTDRSS00004694,26,NEXTDRSS00004695,6,NEXTDRSS00004696,8,NEXTDRSS00004697;4190.00;;;;;;;;zerotype;;Fall;;No
2139246;7952044236993211490-Pink-2139246;Pink Dress;Draft;Dresses;next;Kids-Girls;Girls;Pink;;;Fashion;;2017;4 Y,NEXTDRSS00004675,5 Y,NEXTDRSS00004676,3 Y,NEXTDRSS00004677,6 Y,NEXTDRSS00004678,9 Y,NEXTDRSS00004679,10 Y,NEXTDRSS00004680,7 Y,NEXTDRSS00004681,8 Y,NEXTDRSS00004682,11 Y,NEXTDRSS00004683,12 Y,NEXTDRSS00004684,14 Y,NEXTDRSS00004685,13 Y,NEXTDRSS00004686;4010.00;;;;;;;;zerotype;;Fall;;No
2139245;'7900836585315852181-Navy-2139245;Maternity Occasion Lace Mix Dress;Draft;Dresses;next;Adults-Women;Women;Navy Blue;;;Fashion;;2017;10,NEXTDRSS00004667,12,NEXTDRSS00004668,14,NEXTDRSS00004669,16,NEXTDRSS00004670,18,NEXTDRSS00004671,20,NEXTDRSS00004672,22,NEXTDRSS00004673,8,NEXTDRSS00004674;7430.00;;;;;;;;zerotype;;Fall;;No
2139243;'7810842277628069079-Red-2139243;Red Split Hem Dress;Draft;Dresses;next;Adults-Women;Women;Red;;;Fashion;;2017;10,NEXTDRSS00004658,12,NEXTDRSS00004659,14,NEXTDRSS00004660,16,NEXTDRSS00004661,18,NEXTDRSS00004662,20,NEXTDRSS00004663,22,NEXTDRSS00004664,6,NEXTDRSS00004665,8,NEXTDRSS00004666;2870.00;;;;;;;;zerotype;;Fall;;No
2139242;'7758337874364135613-Print-2139242;Multicoloured Printed Dress;Draft;Dresses;next;Adults-Women;Women;Multi;;;Fashion;;2017;10,NEXTDRSS00004649,12,NEXTDRSS00004650,14,NEXTDRSS00004651,16,NEXTDRSS00004652,18,NEXTDRSS00004653,20,NEXTDRSS00004654,22,NEXTDRSS00004655,6,NEXTDRSS00004656,8,NEXTDRSS00004657;3590.00;;;;;;;;zerotype;;Fall;;No
2139240;'7488541159224143128-Navy-2139240;Navy Blue Button Detail Belted Dress;Draft;Dresses;next;Adults-Women;Women;Navy Blue;;;Fashion;;2017;10,NEXTDRSS00004640,12,NEXTDRSS00004641,14,NEXTDRSS00004642,16,NEXTDRSS00004643,18,NEXTDRSS00004644,20,NEXTDRSS00004645,22,NEXTDRSS00004646,6,NEXTDRSS00004647,8,NEXTDRSS00004648;3830.00;;;;;;;;zerotype;;Fall;;No
2139238;'7317581393389624169-Stripe-2139238;Black Maternity Rib Dress;Draft;Dresses;next;Adults-Women;Women;White;;;Fashion;;2017;10,NEXTDRSS00004632,12,NEXTDRSS00004633,14,NEXTDRSS00004634,16,NEXTDRSS00004635,18,NEXTDRSS00004636,20,NEXTDRSS00004637,22,NEXTDRSS00004638,8,NEXTDRSS00004639;2630.00;;;;;;;;zerotype;;Fall;;No
2139236;'7269244115566166742-Navy-2139236;Navy Blue Printed Choker Dress;Draft;Dresses;next;Adults-Women;Women;Navy Blue;;;Fashion;;2017;10,NEXTDRSS00004623,12,NEXTDRSS00004624,14,NEXTDRSS00004625,16,NEXTDRSS00004626,18,NEXTDRSS00004627,20,NEXTDRSS00004628,22,NEXTDRSS00004629,6,NEXTDRSS00004630,8,NEXTDRSS00004631;6950.00;;;;;;;;zerotype;;Fall;;No
2139234;'6333469888600146426-Red/White-2139234;Ditsy Floral Print And Embroidered Slip;Draft;Dresses;next;Adults-Women;Women;White;;;Fashion;;2017;10,NEXTDRSS00004615,12,NEXTDRSS00004616,14,NEXTDRSS00004617,16,NEXTDRSS00004618,18,NEXTDRSS00004619,20,NEXTDRSS00004620,6,NEXTDRSS00004621,8,NEXTDRSS00004622;3590.00;;;;;;;;zerotype;;Fall;;No
2139232;'6259493912959826731-Red-2139232;Red Fluted Rib Dress;Draft;Dresses;next;Adults-Women;Women;Red;;;Fashion;;2017;10,NEXTDRSS00004606,12,NEXTDRSS00004607,14,NEXTDRSS00004608,16,NEXTDRSS00004609,18,NEXTDRSS00004610,20,NEXTDRSS00004611,22,NEXTDRSS00004612,6,NEXTDRSS00004613,8,NEXTDRSS00004614;3830.00;;;;;;;;zerotype;;Fall;;No
2139231;'6174755503730766894-Red-2139231;Multicoloured Tie Waist Check Dress;Draft;Dresses;next;Adults-Women;Women;Red;;;Fashion;;2017;10,NEXTDRSS00004599,12,NEXTDRSS00004600,14,NEXTDRSS00004601,16,NEXTDRSS00004602,18,NEXTDRSS00004603,6,NEXTDRSS00004604,8,NEXTDRSS00004605;4550.00;;;;;;;;zerotype;;Fall;;No
2139229;'6113082911373836422-Spliced Print-2139229;Short Beach Dress;Draft;Dresses;next;Adults-Women;Women;Multi;;;Fashion;;2017;10,NEXTDRSS00004590,12,NEXTDRSS00004591,14,NEXTDRSS00004592,16,NEXTDRSS00004593,18,NEXTDRSS00004594,20,NEXTDRSS00004595,22,NEXTDRSS00004596,6,NEXTDRSS00004597,8,NEXTDRSS00004598;2990.00;;;;;;;;zerotype;;Fall;;No
2139227;'5926109530038639671-Red-2139227;Red Cold Shoulder Floral Dress;Draft;Dresses;next;Adults-Women;Women;Red;;;Fashion;;2017;10,NEXTDRSS00004581,12,NEXTDRSS00004582,14,NEXTDRSS00004583,16,NEXTDRSS00004584,18,NEXTDRSS00004585,20,NEXTDRSS00004586,22,NEXTDRSS00004587,6,NEXTDRSS00004588,8,NEXTDRSS00004589;2990.00;;;;;;;;zerotype;;Fall;;No
2139225;5897177046565813792-Blue-2139225;Blue Dress;Draft;Dresses;next;Kids-Girls;Girls;Blue;;;Fashion;;2017;3 Y,NEXTDRSS00004568,5 Y,NEXTDRSS00004569,6 Y,NEXTDRSS00004570,4 Y,NEXTDRSS00004571,8 Y,NEXTDRSS00004572,7 Y,NEXTDRSS00004573,9 Y,NEXTDRSS00004574,10 Y,NEXTDRSS00004575,12 Y,NEXTDRSS00004576,11 Y,NEXTDRSS00004577,16 Y,NEXTDRSS00004578,14 Y,NEXTDRSS00004579,13 Y,NEXTDRSS00004580;1250.00;;;;;;;;zerotype;;Fall;;No
2139224;'5792740374356745663-Stripe-2139224;Blue Printed Basic Dress;Draft;Dresses;next;Adults-Women;Women;White;;;Fashion;;2017;10,NEXTDRSS00004559,12,NEXTDRSS00004560,14,NEXTDRSS00004561,16,NEXTDRSS00004562,18,NEXTDRSS00004563,20,NEXTDRSS00004564,22,NEXTDRSS00004565,6,NEXTDRSS00004566,8,NEXTDRSS00004567;3110.00;;;;;;;;zerotype;;Fall;;No
2139222;5090224139161055135-Ecru-2139222;Multicoloured Dress;Draft;Dresses;next;Kids-Girls;Girls;Grey;;;Fashion;;2017;4 Y,NEXTDRSS00004546,6 Y,NEXTDRSS00004547,5 Y,NEXTDRSS00004548,3 Y,NEXTDRSS00004549,7 Y,NEXTDRSS00004550,8 Y,NEXTDRSS00004551,9 Y,NEXTDRSS00004552,10 Y,NEXTDRSS00004553,11 Y,NEXTDRSS00004554,12 Y,NEXTDRSS00004555,13 Y,NEXTDRSS00004556,14 Y,NEXTDRSS00004557,16 Y,NEXTDRSS00004558;1910.00;;;;;;;;zerotype;;Fall;;No
2139219;'4676870523740488534-Pink-2139219;Pink Prairie Dress;Draft;Dresses;next;Adults-Women;Women;Pink;;;Fashion;;2017;10,NEXTDRSS00004538,12,NEXTDRSS00004539,14,NEXTDRSS00004540,16,NEXTDRSS00004541,18,NEXTDRSS00004542,20,NEXTDRSS00004543,22,NEXTDRSS00004544,8,NEXTDRSS00004545;2870.00;;;;;;;;zerotype;;Fall;;No
2139218;'4656036815247995674-Ochre-2139218;Orange Pleated Maxi Dress;Draft;Dresses;next;Adults-Women;Women;Orange;;;Fashion;;2017;10,NEXTDRSS00004529,12,NEXTDRSS00004530,14,NEXTDRSS00004531,16,NEXTDRSS00004532,18,NEXTDRSS00004533,20,NEXTDRSS00004534,22,NEXTDRSS00004535,6,NEXTDRSS00004536,8,NEXTDRSS00004537;5390.00;;;;;;;;zerotype;;Fall;;No
2139217;5134956890219442905-Tan-2139217;Plain Toe Derby;Draft;Formal Shoes;next;Adults-Men;Men;Tan;;;Fashion;;2017;UK 8,NEXTFOSH00000696,UK 11.5,NEXTFOSH00000697,UK 6.5,NEXTFOSH00000698,UK 10,NEXTFOSH00000699,UK 12,NEXTFOSH00000700,UK 9,NEXTFOSH00000701,UK 11,NEXTFOSH00000702,UK 7,NEXTFOSH00000703;7190.00;;;;;;;;zerotype;;Fall;;No
2139216;'7117364585603311849-Floral Print-2139216;Black Printed Off Shoulder Playsuit;Draft;Jumpsuit;next;Adults-Women;Women;Black;;;Fashion;;2017;10,NEXTJMST00000615,12,NEXTJMST00000616,14,NEXTJMST00000617,16,NEXTJMST00000618,18,NEXTJMST00000619,20,NEXTJMST00000620,22,NEXTJMST00000621,6,NEXTJMST00000622,8,NEXTJMST00000623;2870.00;;;;;;;;zerotype;;Fall;;No
2139215;'6698283635249714938-Ecru-2139215;Cream Printed Culotte Jumpsuit;Draft;Jumpsuit;next;Adults-Women;Women;White;;;Fashion;;2017;10,NEXTJMST00000606,12,NEXTJMST00000607,14,NEXTJMST00000608,16,NEXTJMST00000609,18,NEXTJMST00000610,20,NEXTJMST00000611,22,NEXTJMST00000612,6,NEXTJMST00000613,8,NEXTJMST00000614;7790.00;;;;;;;;zerotype;;Fall;;No
2139214;'5319216382901704304-Multi/White-2139214;Multicoloured Printed Playsuit;Draft;Jumpsuit;next;Adults-Women;Women;White;;;Fashion;;2017;10,NEXTJMST00000597,12,NEXTJMST00000598,14,NEXTJMST00000599,16,NEXTJMST00000600,18,NEXTJMST00000601,20,NEXTJMST00000602,22,NEXTJMST00000603,6,NEXTJMST00000604,8,NEXTJMST00000605;3110.00;;;;;;;;zerotype;;Fall;;No
2139213;8341867789304084869-White-2139213;White Bodysuit;Draft;Bodysuit;next;Kids-Unisex;Unisex;White;;;Fashion;;2017;12-18 M,NEXTBYST00000533,3-6 M,NEXTBYST00000534,6-9 M,NEXTBYST00000535,0-3 M,NEXTBYST00000536,0Y,NEXTBYST00000537,9-12 M,NEXTBYST00000538;530.00;;;;;;;;zerotype;;Fall;;No
2139212;7769841639669813970-White-2139212;White Bodysuit;Draft;Bodysuit;next;Kids-Unisex;Unisex;White;;;Fashion;;2017;0Y,NEXTBYST00000527,3-6 M,NEXTBYST00000528,9-12 M,NEXTBYST00000529,6-9 M,NEXTBYST00000530,12-18 M,NEXTBYST00000531,0-3 M,NEXTBYST00000532;530.00;;;;;;;;zerotype;;Fall;;No
2139211;5614451196310166547-White-2139211;Bodysuits Three Pack;Draft;Bodysuit;next;Kids-Unisex;Unisex;White;;;Fashion;;2017;0-3 M,NEXTBYST00000522,9-12 M,NEXTBYST00000523,0Y,NEXTBYST00000524,6-9 M,NEXTBYST00000525,3-6 M,NEXTBYST00000526;1370.00;;;;;;;;zerotype;;Fall;;No
2139210;'4994904423143051027-Charcoal-2139210;Charcoal Grey Textured Joggers;Draft;Track Pants;next;Adults-Men;Men;Black;;;Fashion;;2017;SML/SHORT,NEXTTRPT00001541,MED/SHORT,NEXTTRPT00001542,XSML/REG,NEXTTRPT00001543,LGE/SHORT,NEXTTRPT00001544;4190.00;;;;;;;;zerotype;;Fall;;No
