Style ID;Vendor Article Number;Vendor Article Name;Active Status;Article type;Brand;Age Group;Gender;Base Colour;Colour1;Colour2;Fashion Type;Usage;Year;Size - SKU code pair;MRP;Style Description;Style Note;Materials and Care Description;Size and Fit Description;Size Chart Path;Product Display Name;Tags;Product Type;Classification Brand;Season;Comments;Upload Images
2948535;AKBTS5171152-Blue-2948535;T Shirts;Draft;Tshirts;Allen Solly Junior;Kids-Boys;Boys;Blue;;;Fashion;Casual;2017;9-10Y,ALSJTSHT00002058,13-14Y,ALSJTSHT00002059,11-12Y,ALSJTSHT00002060;1099.00;;;<p>60% Cotton, 38% Polyester and 2% Viscose</p>;;;na;;zerotype;;Winter;;No
2948534;AKBTS5171157-Red White-2948534;T Shirts;Draft;Tshirts;Allen Solly Junior;Kids-Boys;Boys;Red;White;;Fashion;;2017;2-3Y,ALSJTSHT00002053,7-8Y,ALSJTSHT00002054,6-7Y,ALSJTSHT00002055,5-6Y,ALSJTSHT00002056,3-4Y,ALSJTSHT00002057;899.00;;;<p>100% Cotton</p>;;;na;;zerotype;;Winter;;No
2948533;AKBTS5171182-Blue-2948533;T Shirts;Draft;Tshirts;Allen Solly Junior;Kids-Boys;Boys;Blue;;;Fashion;;2017;15-16Y,ALSJTSHT00002052;1099.00;;;<p>100% Cotton</p>;;;na;;zerotype;;Winter;;No
2948532;AKBTS5171151-Beige-2948532;T Shirts;Draft;Tshirts;Allen Solly Junior;Kids-Boys;Boys;Beige;;;Fashion;Casual;2017;11-12Y,ALSJTSHT00002049,9-10Y,ALSJTSHT00002050,13-14Y,ALSJTSHT00002051;1099.00;;;<p>60% Cotton, 38% Polyester and 2% Viscose</p>;;;na;;zerotype;;Winter;;No
2948531;AKBTS5171157-Red White-2948531;T Shirts;Draft;Tshirts;Allen Solly Junior;Kids-Boys;Boys;Red;White;;Fashion;;2017;15-16Y,ALSJTSHT00002048;1099.00;;;<p>100% Cotton</p>;;;nba;;zerotype;;Winter;;No
2948530;AKBTS5171152-Blue-2948530;T Shirts;Draft;Tshirts;Allen Solly Junior;Kids-Boys;Boys;Blue;;;Fashion;Casual;2017;7-8Y,ALSJTSHT00002043,6-7Y,ALSJTSHT00002044,3-4Y,ALSJTSHT00002045,5-6Y,ALSJTSHT00002046,2-3Y,ALSJTSHT00002047;999.00;;;<p>60% Cotton, 38% Polyester and 2% Viscose</p>;;;na;;zerotype;;Winter;;No
2948529;AKBTS5171151-Beige-2948529;T Shirts;Draft;Tshirts;Allen Solly Junior;Kids-Boys;Boys;Beige;;;Fashion;;2017;15-16Y,ALSJTSHT00002042;1199.00;;;<p>60% Cotton, 38% Polyester and 2% Viscose</p>;;;na;;zerotype;;Winter;;No
2948528;AKBTS5171157-Red White-2948528;T Shirts;Draft;Tshirts;Allen Solly Junior;Kids-Boys;Boys;Red;White;;Fashion;;2017;13-14Y,ALSJTSHT00002039,9-10Y,ALSJTSHT00002040,11-12Y,ALSJTSHT00002041;999.00;;;<p>100% Cotton</p>;;;na;;zerotype;;Winter;;No
2948527;AKBTS5171187-Black-2948527;T Shirts;Draft;Tshirts;Allen Solly Junior;Kids-Boys;Boys;Black;;;Fashion;;2017;9-10Y,ALSJTSHT00002036,11-12Y,ALSJTSHT00002037,13-14Y,ALSJTSHT00002038;599.00;;;<p>100% Cotton</p>;;;na;;zerotype;;Winter;;No
2948526;AKBTS5171187-Black-2948526;T Shirts;Draft;Tshirts;Allen Solly Junior;Kids-Boys;Boys;Black;;;Fashion;;2017;15-16Y,ALSJTSHT00002035;699.00;;;<p>100% Cotton</p>;;;na;;zerotype;;Winter;;No
2948525;AKBTS5171152-Blue-2948525;T Shirts;Draft;Tshirts;Allen Solly Junior;Kids-Boys;Boys;Blue;;;Fashion;Casual;2017;15-16Y,ALSJTSHT00002034;1199.00;;;<p>60% Cotton, 38% Polyester and 2% Viscose</p>;;;na;;zerotype;;Winter;;No
2948524;AKBTS5171151-Beige-2948524;T Shirts;Draft;Tshirts;Allen Solly Junior;Kids-Boys;Boys;Beige;;;Fashion;;2017;7-8Y,ALSJTSHT00002029,6-7Y,ALSJTSHT00002030,2-3Y,ALSJTSHT00002031,5-6Y,ALSJTSHT00002032,3-4Y,ALSJTSHT00002033;999.00;;;<p>60% Cotton, 38% Polyester and 2% Viscose</p>;;;na;;zerotype;;Winter;;No
2948523;AKBTS5171187-Black-2948523;T Shirts;Draft;Tshirts;Allen Solly Junior;Kids-Boys;Boys;Black;;;Fashion;;2017;5-6Y,ALSJTSHT00002024,7-8Y,ALSJTSHT00002025,6-7Y,ALSJTSHT00002026,3-4Y,ALSJTSHT00002027,2-3Y,ALSJTSHT00002028;499.00;;;<p>100% Cotton</p>;;;ba;;zerotype;;Winter;;No
2948522;AKBTS5171182-Blue-2948522;T Shirts;Draft;Tshirts;Allen Solly Junior;Kids-Boys;Boys;Blue;;;Fashion;;2017;11-12Y,ALSJTSHT00002021,9-10Y,ALSJTSHT00002022,13-14Y,ALSJTSHT00002023;999.00;;;<p>100% Cotton</p>;;;na;;zerotype;;Winter;;No
2948521;AKBTS5171182-Blue-2948521;T Shirts;Draft;Tshirts;Allen Solly Junior;Kids-Boys;Boys;Blue;;;Fashion;;2017;2-3Y,ALSJTSHT00002016,5-6Y,ALSJTSHT00002017,3-4Y,ALSJTSHT00002018,6-7Y,ALSJTSHT00002019,7-8Y,ALSJTSHT00002020;899.00;;;<p>100% Cotton</p>;;;na;;zerotype;;Winter;;No
