Style ID;Vendor Article Number;Vendor Article Name;Active Status;Article type;Brand;Age Group;Gender;Base Colour;Colour1;Colour2;Fashion Type;Usage;Year;Size - SKU code pair;MRP;Style Description;Style Note;Materials and Care Description;Size and Fit Description;Size Chart Path;Product Display Name;Tags;Product Type;Classification Brand;Season;Comments;Upload Images
1926628;PRI-01-2-112A-Pink-1926628;Disney- Athom Trendz-    Princess Cinder;Draft;Bedsheets;Athom Trendz;Kids-Unisex;Unisex;;;;Core;;2017;1 x Double Bedsheet (7.3ft x 8.2ft) 2 x Pillow Covers (17inft x 26.7in),ATDZBDST00000031;1999.00;;;;;;;;zerotype;;Spring;;No
1926627;PRI-01-2-111A-Blue-1926627;Disney- Athom Trendz-    Princess Cinder;Draft;Bedsheets;Athom Trendz;Kids-Unisex;Unisex;;;;Core;;2017;1 x Double Bedsheet (7.3ft x 8.2ft) 2 x Pillow Covers (17inft x 26.7in),ATDZBDST00000030;1999.00;;;;;;;;zerotype;;Spring;;No
1926626;MTP-01-142-D-Red-1926626;Motu Patlu- Athom Trendz- Cotton Double;Draft;Bedsheets;Athom Trendz;Kids-Unisex;Unisex;;;;Core;;2017;1 x Double Bedsheet (7.3ft x 8.2ft) 2 x Pillow Covers (17inft x 26.7in),ATDZBDST00000029;1999.00;;;;;;;;zerotype;;Spring;;No
1926625;MAR-01-140-D-Red-1926625;Marvel- Athom Trendz- Spider Man Cotton;Draft;Bedsheets;Athom Trendz;Kids-Unisex;Unisex;;;;Core;;2017;1 x Double Bedsheet (7.3ft x 8.2ft) 2 x Pillow Covers (17inft x 26.7in),ATDZBDST00000028;1999.00;;;;;;;;zerotype;;Spring;;No
1926624;MAR-01-139-D-Blue-1926624;Marvel- Athom Trendz- Spider Man Cotton;Draft;Bedsheets;Athom Trendz;Kids-Unisex;Unisex;;;;Core;;2017;1 x Double Bedsheet (7.3ft x 8.2ft) 2 x Pillow Covers (17inft x 26.7in),ATDZBDST00000027;1999.00;;;;;;;;zerotype;;Spring;;No
1926623;DIS-01-138-D-Pink-1926623;Disney- Athom Trendz-  Minnie Mouse Cott;Draft;Bedsheets;Athom Trendz;Kids-Unisex;Unisex;;;;Core;;2017;1 x Double Bedsheet (7.3ft x 8.2ft) 2 x Pillow Covers (17inft x 26.7in),ATDZBDST00000026;1999.00;;;;;;;;zerotype;;Spring;;No
1926622;DIS-01-137-D-Purple-1926622;Disney- Athom Trendz-  Minnie Mouse Cott;Draft;Bedsheets;Athom Trendz;Kids-Unisex;Unisex;;;;Core;;2017;1 x Double Bedsheet (7.3ft x 8.2ft) 2 x Pillow Covers (17inft x 26.7in),ATDZBDST00000025;1999.00;;;;;;;;zerotype;;Spring;;No
1926621;DIS-01-136-D-Red-1926621;Disney- Athom Trendz-  Mickey Mouse Cott;Draft;Bedsheets;Athom Trendz;Kids-Unisex;Unisex;;;;Core;;2017;1 x Double Bedsheet (7.3ft x 8.2ft) 2 x Pillow Covers (17inft x 26.7in),ATDZBDST00000024;1999.00;;;;;;;;zerotype;;Spring;;No
1926620;DIS-01-134-D-Red-1926620;Disney- Athom Trendz- Cars Double Bed Sh;Draft;Bedsheets;Athom Trendz;Kids-Unisex;Unisex;;;;Core;;2017;1 x Double Bedsheet (7.3ft x 8.2ft) 2 x Pillow Covers (17inft x 26.7in),ATDZBDST00000023;1999.00;;;;;;;;zerotype;;Spring;;No
1926619;DIS-01-133-D-Blue-1926619;Disney- Athom Trendz- Cars Cotton Double;Draft;Bedsheets;Athom Trendz;Kids-Unisex;Unisex;;;;Core;;2017;1 x Double Bedsheet (7.3ft x 8.2ft) 2 x Pillow Covers (17inft x 26.7in),ATDZBDST00000022;1999.00;;;;;;;;zerotype;;Spring;;No
1926618;DIS-01-132-D-Pink-1926618;Disney- Athom Trendz- Princess- Cotton D;Draft;Bedsheets;Athom Trendz;Kids-Unisex;Unisex;;;;Core;;2017;1 x Double Bedsheet (7.3ft x 8.2ft) 2 x Pillow Covers (17inft x 26.7in),ATDZBDST00000021;1999.00;;;;;;;;zerotype;;Spring;;No
1926617;MTP-01-142-S-Red-1926617;Motu Patlu- Athom Trendz- Cotton Single;Draft;Bedsheets;Athom Trendz;Kids-Unisex;Unisex;;;;Core;;2017;1 x Single Bedsheet (4.8ft x 7.3ft 1 x Single Pillow Cover (17in x 26.7in),ATDZBDST00000020;999.00;;;;;;;;zerotype;;Spring;;No
1926616;MAR-01-140-S-Red-1926616;Marvel- Athom Trendz- Spider Man Cotton;Draft;Bedsheets;Athom Trendz;Kids-Unisex;Unisex;;;;Core;;2017;1 x Single Bedsheet (4.8ft x 7.3ft 1 x Single Pillow Cover (17in x 26.7in),ATDZBDST00000019;999.00;;;;;;;;zerotype;;Spring;;No
1926615;MAR-01-139-S-Blue-1926615;Marvel- Athom Trendz- Spider Man Cotton;Draft;Bedsheets;Athom Trendz;Kids-Unisex;Unisex;;;;Core;;2017;1 x Single Bedsheet (4.8ft x 7.3ft 1 x Single Pillow Cover (17in x 26.7in),ATDZBDST00000018;999.00;;;;;;;;zerotype;;Spring;;No
1926614;DIS-01-138-S-Maroon-1926614;Disney- Athom Trendz-  Minnie Mouse Cott;Draft;Bedsheets;Athom Trendz;Kids-Unisex;Unisex;;;;Core;;2017;1 x Single Bedsheet (4.8ft x 7.3ft 1 x Single Pillow Cover (17in x 26.7in),ATDZBDST00000017;999.00;;;;;;;;zerotype;;Spring;;No
1926613;DIS-01-137-S-Purple-1926613;Disney- Athom Trendz-  Minnie Mouse Cott;Draft;Bedsheets;Athom Trendz;Kids-Unisex;Unisex;;;;Core;;2017;1 x Single Bedsheet (4.8ft x 7.3ft 1 x Single Pillow Cover (17in x 26.7in),ATDZBDST00000016;999.00;;;;;;;;zerotype;;Spring;;No
1926612;DIS-01-136-S-Red-1926612;Disney- Athom Trendz-  Mickey Mouse Cott;Draft;Bedsheets;Athom Trendz;Kids-Unisex;Unisex;;;;Core;;2017;1 x Single Bedsheet (4.8ft x 7.3ft 1 x Single Pillow Cover (17in x 26.7in),ATDZBDST00000015;999.00;;;;;;;;zerotype;;Spring;;No
1926611;DIS-01-134-S-Red-1926611;Disney- Athom Trendz- Cars Cotton Single;Draft;Bedsheets;Athom Trendz;Kids-Unisex;Unisex;;;;Core;;2017;1 x Single Bedsheet (4.8ft x 7.3ft 1 x Single Pillow Cover (17in x 26.7in),ATDZBDST00000014;999.00;;;;;;;;zerotype;;Spring;;No
1926610;DIS-01-133-S-Blue-1926610;Disney- Athom Trendz- Cars Cotton Single;Draft;Bedsheets;Athom Trendz;Kids-Unisex;Unisex;;;;Core;;2017;1 x Single Bedsheet (4.8ft x 7.3ft 1 x Single Pillow Cover (17in x 26.7in),ATDZBDST00000013;999.00;;;;;;;;zerotype;;Spring;;No
1926609;DIS-01-132-S-Pink-1926609;Disney- Athom Trendz- Princess- Cotton S;Draft;Bedsheets;Athom Trendz;Kids-Unisex;Unisex;;;;Core;;2017;1 x Single Bedsheet (4.8ft x 7.3ft 1 x Single Pillow Cover (17in x 26.7in),ATDZBDST00000012;999.00;;;;;;;;zerotype;;Spring;;No
1926608;MAR-04-155-S-Blue-1926608;Marvel Avengers- Athom Trendz- Hulk- Sin;Draft;Bedsheets;Athom Trendz;Kids-Unisex;Unisex;;;;Core;;2017;1 x Single Bedsheet (4.8ft x 7.3ft 1 x Single Pillow Cover (17in x 26.7in),ATDZBDST00000011;1999.00;;;;;;;;zerotype;;Spring;;No
1926607;MAR-04-154-S-Green-1926607;Marvel Avengers- Athom Trendz- Hulk- Sin;Draft;Bedsheets;Athom Trendz;Kids-Unisex;Unisex;;;;Core;;2017;1 x Single Bedsheet (4.8ft x 7.3ft 1 x Single Pillow Cover (17in x 26.7in),ATDZBDST00000010;1999.00;;;;;;;;zerotype;;Spring;;No
1926606;MAR-04-153-S-Blue-1926606;Marvel Avengers- Athom Trendz- Iron Man-;Draft;Bedsheets;Athom Trendz;Kids-Unisex;Unisex;;;;Core;;2017;1 x Single Bedsheet (4.8ft x 7.3ft 1 x Single Pillow Cover (17in x 26.7in),ATDZBDST00000009;1999.00;;;;;;;;zerotype;;Spring;;No
1926605;MAR-04-152-S-Grey-1926605;Marvel Avengers- Athom Trendz- Single Di;Draft;Bedsheets;Athom Trendz;Kids-Unisex;Unisex;;;;Core;;2017;1 x Single Bedsheet (4.8ft x 7.3ft 1 x Single Pillow Cover (17in x 26.7in),ATDZBDST00000008;1999.00;;;;;;;;zerotype;;Spring;;No
1926604;MAR-04-151-S-Blue-1926604;Marvel Avengers- Athom Trendz- Single Di;Draft;Bedsheets;Athom Trendz;Kids-Unisex;Unisex;;;;Core;;2017;1 x Single Bedsheet (4.8ft x 7.3ft 1 x Single Pillow Cover (17in x 26.7in),ATDZBDST00000007;1999.00;;;;;;;;zerotype;;Spring;;No
1926603;MAR-04-150-S-Multi-1926603;Marvel Avengers- Athom Trendz- Single Di;Draft;Bedsheets;Athom Trendz;Kids-Unisex;Unisex;;;;Core;;2017;1 x Single Bedsheet (4.8ft x 7.3ft 1 x Single Pillow Cover (17in x 26.7in),ATDZBDST00000006;1999.00;;;;;;;;zerotype;;Spring;;No
1926602;DIS-04-146-S-Pink-1926602;Disney- Athom Trendz- Minnie Mouse- Sing;Draft;Bedsheets;Athom Trendz;Kids-Unisex;Unisex;;;;Core;;2017;1 x Single Bedsheet (4.8ft x 7.3ft 1 x Single Pillow Cover (17in x 26.7in),ATDZBDST00000005;1999.00;;;;;;;;zerotype;;Spring;;No
1926601;DIS-04-145-S-Multi-1926601;Disney- Athom Trendz- Mickey Mouse- Sing;Draft;Bedsheets;Athom Trendz;Kids-Unisex;Unisex;;;;Core;;2017;1 x Single Bedsheet (4.8ft x 7.3ft 1 x Single Pillow Cover (17in x 26.7in),ATDZBDST00000004;1999.00;;;;;;;;zerotype;;Spring;;No
1926600;DIS-04-144-S-Multi-1926600;Disney- Athom Trendz- Mickey Mouse And F;Draft;Bedsheets;Athom Trendz;Kids-Unisex;Unisex;;;;Core;;2017;1 x Single Bedsheet (4.8ft x 7.3ft 1 x Single Pillow Cover (17in x 26.7in),ATDZBDST00000003;1999.00;;;;;;;;zerotype;;Spring;;No
1926599;DIS-04-143-S-Multi-1926599;Disney- Athom Trendz- Mickey Mouse- Sing;Draft;Bedsheets;Athom Trendz;Kids-Unisex;Unisex;;;;Core;;2017;1 x Single Bedsheet (4.8ft x 7.3ft 1 x Single Pillow Cover (17in x 26.7in),ATDZBDST00000002;1999.00;;;;;;;;zerotype;;Spring;;No
1926598;MTP-01-131-S-Purple-1926598;Motu Patlu- Athom Trendz- Single Bed She;Draft;Bedsheets;Athom Trendz;Kids-Unisex;Unisex;;;;Core;;2017;1 x Single Bedsheet (4.8ft x 7.3ft 1 x Single Pillow Cover (17in x 26.7in),ATDZBDST00000001;799.00;;;;;;;;zerotype;;Spring;;No
