Style ID;Vendor Article Number;Vendor Article Name;Active Status;Article type;Brand;Age Group;Gender;Base Colour;Colour1;Colour2;Fashion Type;Usage;Year;Size - SKU code pair;MRP;Style Description;Style Note;Materials and Care Description;Size and Fit Description;Size Chart Path;Product Display Name;Tags;Product Type;Classification Brand;Season;Comments;Upload Images
2351951;RQJX00028-B6-Black-2351951;Raymond Blue Regular Fit Blazer;Draft;Blazers;Raymond;Adults-Men;Men;Black;;;Fashion;Formal;2017;104,RYMDBLZR00000269,100,RYMDBLZR00000270,96,RYMDBLZR00000271,92,RYMDBLZR00000272,112,RYMDBLZR00000273,108,RYMDBLZR00000274;9999.00;<p>Raymond Blue Regular Fit Blazer</p>;;<p>Dry Clean Only, Warm Iron If Necessary</p>;;;na;;zerotype;;Winter;;No
2351950;RPJX00034-B6-Blue-2351950;Raymond Blue Regular Fit Blazer;Draft;Blazers;Raymond;Adults-Men;Men;Blue;;;Fashion;Smart Casual;2017;108,RYMDBLZR00000263,104,RYMDBLZR00000264,100,RYMDBLZR00000265,96,RYMDBLZR00000266,92,RYMDBLZR00000267,112,RYMDBLZR00000268;9999.00;<p>Raymond Blue Regular Fit Blazer</p>;;<p>Dry Clean Only, Warm Iron If Necessary, Poly60%/Viscose20%/Wool20%</p>;;;na;;zerotype;;Winter;;No
2351949;RPJX00029-B7-Blue-2351949;Raymond Blue Regular Fit Blazer;Draft;Blazers;Raymond;Adults-Men;Men;Blue;;;Fashion;Smart Casual;2017;104,RYMDBLZR00000257,100,RYMDBLZR00000258,96,RYMDBLZR00000259,92,RYMDBLZR00000260,112,RYMDBLZR00000261,108,RYMDBLZR00000262;10999.00;<p>Raymond Blue Regular Fit Blazer</p>;;<p>Dry Clean Only, Warm Iron If Necessary</p>;;;na;;zerotype;;Winter;;No
2351948;RPJI00091-K8-Black-2351948;Raymond Black Regular Fit Blazer;Draft;Blazers;Raymond;Adults-Men;Men;Black;;;Fashion;Smart Casual;2017;104,RYMDBLZR00000251,100,RYMDBLZR00000252,96,RYMDBLZR00000253,112,RYMDBLZR00000254,92,RYMDBLZR00000255,108,RYMDBLZR00000256;21999.00;<p>Raymond Black Regular Fit Blazer</p>;;<p>Dry Clean Only, Warm Iron If Necessary, Poly60%/Viscose20%/Wool20%</p>;;;na;;zerotype;;Winter;;No
2351947;RMJZ01153-O8-Brown-2351947;Raymond Brown Tailored Fit Blazer;Draft;Blazers;Raymond;Adults-Men;Men;Brown;;;Fashion;Smart Casual;2017;100,RYMDBLZR00000245,96,RYMDBLZR00000246,92,RYMDBLZR00000247,112,RYMDBLZR00000248,108,RYMDBLZR00000249,104,RYMDBLZR00000250;8999.00;<p>Raymond Brown Tailored Fit Blazer</p>;;<p>Dry Clean Only, Warm Iron If Necessary, Poly 40%/Wool 60%</p>;;;na;;zerotype;;Winter;;No
2351946;RMJY01148-G6-Grey-2351946;Raymond Grey Tailored Fit Blazer;Draft;Blazers;Raymond;Adults-Men;Men;Grey;;;Fashion;Smart Casual;2017;96,RYMDBLZR00000239,92,RYMDBLZR00000240,112,RYMDBLZR00000241,108,RYMDBLZR00000242,104,RYMDBLZR00000243,100,RYMDBLZR00000244;9999.00;<p>Raymond Grey Tailored Fit Blazer</p>;;<p>Dry Clean Only, Warm Iron If Necessary</p>;;;na;;zerotype;;Winter;;No
2351945;RMJX01270-G5-Grey-2351945;Raymond Grey Tailored Fit Blazer;Draft;Blazers;Raymond;Adults-Men;Men;Grey;;;Fashion;Smart Casual;2017;96,RYMDBLZR00000233,92,RYMDBLZR00000234,112,RYMDBLZR00000235,108,RYMDBLZR00000236,104,RYMDBLZR00000237,100,RYMDBLZR00000238;8999.00;<p>Raymond Grey Tailored Fit Blazer</p>;;<p>Dry Clean Only, Warm Iron If Necessary, Poly60%/Viscose20%/Wool20%</p>;;;na;;zerotype;;Winter;;No
2351944;RMJX01219-O8-Brown-2351944;Raymond Brown Regular Fit Blazer;Draft;Blazers;Raymond;Adults-Men;Men;Brown;;;Fashion;Smart Casual;2017;92,RYMDBLZR00000227,112,RYMDBLZR00000228,108,RYMDBLZR00000229,104,RYMDBLZR00000230,100,RYMDBLZR00000231,96,RYMDBLZR00000232;8999.00;<p>Raymond Brown Regular Fit Blazer</p>;;<p>Dry Clean Only, Warm Iron If Necessary</p>;;;na;;zerotype;;Winter;;No
2351943;RMJX01188-O6-Brown-2351943;Raymond Brown Regular Fit Blazer;Draft;Blazers;Raymond;Adults-Men;Men;Brown;;;Fashion;Smart Casual;2017;96,RYMDBLZR00000221,92,RYMDBLZR00000222,112,RYMDBLZR00000223,108,RYMDBLZR00000224,104,RYMDBLZR00000225,100,RYMDBLZR00000226;8999.00;<p>Raymond Brown Regular Fit Blazer</p>;;<p>Dry Clean Only, Warm Iron If Necessary</p>;;;na;;zerotype;;Winter;;No
2351942;RMJX01148-B7-Blue-2351942;Raymond Blue Regular Fit Blazer;Draft;Blazers;Raymond;Adults-Men;Men;Blue;;;Fashion;Smart Casual;2017;112,RYMDBLZR00000215,108,RYMDBLZR00000216,100,RYMDBLZR00000217,104,RYMDBLZR00000218,96,RYMDBLZR00000219,92,RYMDBLZR00000220;8999.00;<p>Raymond Blue Regular Fit Blazer</p>;;<p>Dry Clean Only, Warm Iron If Necessary, Poly60%/Viscose20%/Wool20%</p>;;;na;;zerotype;;Winter;;No
2351941;RMJX01142-O8-Brown-2351941;Raymond Brown Tailored Fit Blazer;Draft;Blazers;Raymond;Adults-Men;Men;Brown;;;Fashion;Formal;2017;112,RYMDBLZR00000209,104,RYMDBLZR00000210,92,RYMDBLZR00000211,108,RYMDBLZR00000212,100,RYMDBLZR00000213,96,RYMDBLZR00000214;9999.00;<p>Raymond Brown Tailored Fit Blazer</p>;;<p>Dry Clean Only, Warm Iron If Necessary</p>;;;na;;zerotype;;Winter;;No
2351940;RMJX01142-G8-Grey-2351940;Raymond Grey Tailored Fit Blazer;Draft;Blazers;Raymond;Adults-Men;Men;Grey;;;Fashion;Smart Casual;2017;100,RYMDBLZR00000203,96,RYMDBLZR00000204,92,RYMDBLZR00000205,112,RYMDBLZR00000206,108,RYMDBLZR00000207,104,RYMDBLZR00000208;9999.00;<p>Raymond Grey Tailored Fit Blazer</p>;;<p>Dry Clean Only, Warm Iron If Necessary</p>;;;na;;zerotype;;Winter;;No
2351938;RMJX01135-B7-Blue-2351938;Raymond Blue Regular Fit Blazer;Draft;Blazers;Raymond;Adults-Men;Men;Blue;;;Fashion;Smart Casual;2017;100,RYMDBLZR00000197,96,RYMDBLZR00000198,92,RYMDBLZR00000199,112,RYMDBLZR00000200,108,RYMDBLZR00000201,104,RYMDBLZR00000202;8999.00;<p>Raymond Blue Regular Fit Blazer</p>;;<p>Dry Clean Only, Warm Iron If Necessary</p>;;;na;;zerotype;;Winter;;No
2351934;RMJX01057-W0-White-2351934;Raymond White Regular Fit Blazer;Draft;Blazers;Raymond;Adults-Men;Men;White;;;Fashion;Smart Casual;2017;96,RYMDBLZR00000191,92,RYMDBLZR00000192,112,RYMDBLZR00000193,108,RYMDBLZR00000194,104,RYMDBLZR00000195,100,RYMDBLZR00000196;7999.00;<p>Raymond White Regular Fit Blazer</p>;;<p>Dry Clean Only, Warm Iron If Necessary</p>;;;na;;zerotype;;Winter;;No
2351932;RMJX01056-B5-Blue-2351932;Raymond Blue Regular Fit Blazer;Draft;Blazers;Raymond;Adults-Men;Men;Blue;;;Fashion;Smart Casual;2017;92,RYMDBLZR00000185,112,RYMDBLZR00000186,108,RYMDBLZR00000187,104,RYMDBLZR00000188,100,RYMDBLZR00000189,96,RYMDBLZR00000190;8999.00;<p>Raymond Blue Regular Fit Blazer</p>;;<p>Dry Clean Only, Warm Iron If Necessary</p>;;;na;;zerotype;;Winter;;No
2351928;RMJX01052-E6-Brown-2351928;Raymond Orange Regular Fit Blazer;Draft;Blazers;Raymond;Adults-Men;Men;Brown;;;Fashion;Smart Casual;2017;92,RYMDBLZR00000179,112,RYMDBLZR00000180,108,RYMDBLZR00000181,104,RYMDBLZR00000182,100,RYMDBLZR00000183,96,RYMDBLZR00000184;9999.00;<p>Raymond Orange Regular Fit Blazer</p>;;<p>Dry Clean Only, Warm Iron If Necessary</p>;;;na;;zerotype;;Winter;;No
2351926;RMJA00978-B6-Blue-2351926;Raymond Blue Regular Fit Blazer;Draft;Blazers;Raymond;Adults-Men;Men;Blue;;;Fashion;Smart Casual;2017;112,RYMDBLZR00000173,108,RYMDBLZR00000174,104,RYMDBLZR00000175,100,RYMDBLZR00000176,96,RYMDBLZR00000177,92,RYMDBLZR00000178;9999.00;<p>Raymond Blue Regular Fit Blazer</p>;;<p>Dry Clean Only, Warm Iron If Necessary</p>;;;na;;zerotype;;Winter;;No
2023716;RMJX01526-G586F116-Grey-2023716;Raymond Black Blazers;Draft;Blazers;Raymond;Adults-Men;Men;Grey;;;Fashion;;2017;36,RYMDBLZR00000071,38,RYMDBLZR00000072,40,RYMDBLZR00000073,42,RYMDBLZR00000074,44,RYMDBLZR00000075,46,RYMDBLZR00000076,48,RYMDBLZR00000077;6999.00;<p>Exhibiting a classic appeal and lapel collar, this black blazer from Raymond will certainly catch the attention of suave men. Fashioned from a blend of 65% polyester, 18% viscose and 17% wool, this blazer will keep you relaxed all day long. Just wear this blazer over a white shirt with <a href='/black-trousers?src=pd' class='seolink'>black trousers</a> <a href='/and-dress?src=pd' class='seolink'>and dress</a> <a href='/shoes?src=pd' class='seolink'>shoes</a>.</p>;;<p>Machine Wash Warm Gentle Cycle Wash Dark Colors Separately, Do Not Bleach, Tumble Dry Low, Warm Iron</p>;;;;;zerotype;;Winter;;No
2013820;RMJS01482-B786F116-Blue-2013820;Raymond Blue Blazers;Active;Blazers;Raymond;Adults-Men;Men;Navy Blue;;;Fashion;Formal;2017;36,RYMDBLZR00000015,38,RYMDBLZR00000016,40,RYMDBLZR00000017,42,RYMDBLZR00000018,44,RYMDBLZR00000019,46,RYMDBLZR00000020,48,RYMDBLZR00000021;10299.00;Navy blue woven formal blazer, single-breasted, has a notched lapel, double button closures, long sleeves, three pockets, and an attached lining;Showcasing a structured silhouette, this navy blazer by Raymond will surely bring forth that hidden dapper guy in you. Club it with a white shirt, flat-front trousers and oxfords for a formal event.;Wool<br />Machine-wash warm;Slim fit<br />The model (height 6') is wearing a size 40;;Raymond Navy Blue Slim Fit Single-Breasted Formal Blazer;Raymond,JIT,sbow2017,welcome-to-myntra-oct17;zerotype;;Winter;welcome-to-myntra-oct17;No
2013819;RMJS01473-K886F116-Black-2013819;Raymond Black Blazers;Active;Blazers;Raymond;Adults-Men;Men;Black;;;Fashion;Formal;2017;36,RYMDBLZR00000008,38,RYMDBLZR00000009,40,RYMDBLZR00000010,42,RYMDBLZR00000011,44,RYMDBLZR00000012,46,RYMDBLZR00000013,48,RYMDBLZR00000014;8299.00;Black woven formal blazer, single-breasted, has a notched lapel, double button closures, long sleeves, three pockets, and has an attached lining;Structured perfectly, this black blazer by Raymond is an epitome of sophistication and elegance. Wear this blazer over a white shirt along with flat-front trousers and dress shoes for a formal event.;Polyester <br />Machine-wash warm;Slim fit<br />The model (height 6') is wearing a size 40;;Raymond Black Slim Fit Single-Breasted Formal Blazer;Raymond,JIT,sbow2017,workwear-styles,welcome-to-myntra-oct17;zerotype;;Winter;welcome-to-myntra-oct17;No
2013818;RMJI01470-H586F116-Brown-2013818;Raymond Brown Blazers;Active;Blazers;Raymond;Adults-Men;Men;Brown;;;Fashion;Formal;2017;36,RYMDBLZR00000001,38,RYMDBLZR00000002,40,RYMDBLZR00000003,42,RYMDBLZR00000004,44,RYMDBLZR00000005,46,RYMDBLZR00000006,48,RYMDBLZR00000007;9299.00;Brown blazer, has a notched lapel, a single-breasted design with a button closure on the front, long sleeves with buttoned detailing along the hems, three pockets, an attached lining;Get a sophisticated look in this stylish blazer from Raymond. This piece is bound to make heads turn your way. We suggest you team it with a slim fit shirt, a pair of trousers and loafers for a classy look.;Polyester<br />Machine-wash warm;Slim fit <br />The model (height 6') is wearing a size 40;;Raymond Brown Slim Fit Single-Breasted Formal Blazer;Raymond,JIT,sbow2017,welcome-to-myntra-oct17;zerotype;;Winter;welcome-to-myntra-oct17;No
