Style ID;Vendor Article Number;Vendor Article Name;Active Status;Article type;Brand;Age Group;Gender;Base Colour;Colour1;Colour2;Fashion Type;Usage;Year;Size - SKU code pair;MRP;Style Description;Style Note;Materials and Care Description;Size and Fit Description;Size Chart Path;Product Display Name;Tags;Product Type;Classification Brand;Season;Comments;Upload Images
1961739;AVTN100144-White-1961739;AVTN100144-XXS;Draft;Dresses;Avirate;Adults-Women;Women;White;;;Fashion;;2017;L,AVRTDRSS00006576,M,AVRTDRSS00006577,S,AVRTDRSS00006578,XL,AVRTDRSS00006579,XS,AVRTDRSS00006580,XXL,AVRTDRSS00006581,XXS,AVRTDRSS00006582;2800.00;;;<p>Hand Wash</p>;;;;;zerotype;;Summer;;No
1961738;AVPT100160-Multi-1961738;AVPT100160-XL;Draft;Trousers;Avirate;Adults-Women;Women;Multi;;;Core;;2017;XS,AVRTTRSR00000312,S,AVRTTRSR00000313,M,AVRTTRSR00000314,L,AVRTTRSR00000315,XL,AVRTTRSR00000316;3400.00;;;<p>Hand Wash</p>;;;;;zerotype;;Summer;;No
1961737;AVBL101283-Blue-1961737;AVBL101283-XL;Draft;Tops;Avirate;Adults-Women;Women;Blue;;;Fashion;;2017;XS,AVRTTOPS00003220,S,AVRTTOPS00003221,M,AVRTTOPS00003222,L,AVRTTOPS00003223,XL,AVRTTOPS00003224;2800.00;;;<p>Handwash</p>;;;;;zerotype;;Summer;;No
1961736;AVBL101046-Black-1961736;AVBL101046-XL;Draft;Tops;Avirate;Adults-Women;Women;Black;;;Fashion;;2017;XS,AVRTTOPS00003215,S,AVRTTOPS00003216,M,AVRTTOPS00003217,L,AVRTTOPS00003218,XL,AVRTTOPS00003219;2200.00;;;<p>Handwash</p>;;;;;zerotype;;Summer;;No
1961735;AVBL101135-Navy Blue-1961735;AVBL101135-XXS;Draft;Tops;Avirate;Adults-Women;Women;Navy Blue;;;Fashion;;2017;L,AVRTTOPS00003208,M,AVRTTOPS00003209,S,AVRTTOPS00003210,XL,AVRTTOPS00003211,XS,AVRTTOPS00003212,XXL,AVRTTOPS00003213,XXS,AVRTTOPS00003214;2000.00;;;<p>Handwash</p>;;;;;zerotype;;Summer;;No
1961734;AVBL101131-Brown-1961734;AVBL101131-XXS;Draft;Tops;Avirate;Adults-Women;Women;Brown;;;Fashion;;2017;L,AVRTTOPS00003201,M,AVRTTOPS00003202,S,AVRTTOPS00003203,XL,AVRTTOPS00003204,XS,AVRTTOPS00003205,XXL,AVRTTOPS00003206,XXS,AVRTTOPS00003207;2000.00;;;<p>Handwash</p>;;;;;zerotype;;Summer;;No
1961733;AVBL101134-Blue-1961733;AVBL101134-XXS;Draft;Tops;Avirate;Adults-Women;Women;Blue;;;Fashion;;2017;L,AVRTTOPS00003194,M,AVRTTOPS00003195,S,AVRTTOPS00003196,XL,AVRTTOPS00003197,XS,AVRTTOPS00003198,XXL,AVRTTOPS00003199,XXS,AVRTTOPS00003200;2000.00;;;<p>Handwash</p>;;;;;zerotype;;Summer;;No
