Style ID;Vendor Article Number;Vendor Article Name;Active Status;Article type;Brand;Age Group;Gender;Base Colour;Colour1;Colour2;Fashion Type;Usage;Year;Size - SKU code pair;MRP;Style Description;Style Note;Materials and Care Description;Size and Fit Description;Size Chart Path;Product Display Name;Tags;Product Type;Classification Brand;Season;Comments;Upload Images
2124295;5021468802093-Pink-2124295;G VMF 4PC IL HAT & MITT SET, PINK, 004;Draft;Caps;mothercare;Kids-Girls;Girls;Pink;;;Fashion;;2017;0-3M,MTCRCAPS00000291,3-6M,MTCRCAPS00000292,6-12M,MTCRCAPS00000293;599.00;;;;;;;;zerotype;;Winter;;No
2124294;5021468622516-Blue-2124294;U VMF IL HAT & MITT 4PC SET, BLUE, 004;Draft;Caps;mothercare;Kids-Boys;Boys;Blue;;;Fashion;;2017;0-3M,MTCRCAPS00000288,3-6M,MTCRCAPS00000289,6-12M,MTCRCAPS00000290;599.00;;;;;;;;zerotype;;Winter;;No
2124293;5021469067446-Pink White Grey-2124293;G MFG 2PK INTER, PINK, 000;Draft;Headband;mothercare;Kids-Girls;Girls;Pink;White;Grey;Fashion;;2017;Onesize,MTCRHBND00000031;399.00;;;;;;;;zerotype;;Winter;;No
2124292;5021469445916-Multi-2124292;Girls 5 pack white bodysuit;Draft;Bodysuit;mothercare;Kids-Girls;Girls;Multi;;;Fashion;;2017;Tiny Baby,MTCRBYST00001421,Newborn,MTCRBYST00001422,0-3M,MTCRBYST00001423,3-6M,MTCRBYST00001424,6-9M,MTCRBYST00001425,9-12M,MTCRBYST00001426;1499.00;;;;;;;;zerotype;;Winter;;No
2124291;5021462311096-White Pink-2124291;IO GIRLS 3PK MU, PASTM, 050;Draft;Sleepsuit;mothercare;Kids-Girls;Girls;White;Pink;;Fashion;;2017;Newborn,MTCRSPST00001214,0-3M,MTCRSPST00001215,3-6M,MTCRSPST00001216,6-9M,MTCRSPST00001217,9-12M,MTCRSPST00001218,Tiny Baby,MTCRSPST00001219;1599.00;;;;;;;;zerotype;;Winter;;No
2124290;5021463458158-Pink Beige White-2124290;Girls pink, ankle lenth leggings;Draft;Leggings;mothercare;Kids-Girls;Girls;Pink;Beige;White;Fashion;;2017;3-4Y,MTCRLEGG00001018,4-5Y,MTCRLEGG00001019,5-6Y,MTCRLEGG00001020,6-7Y,MTCRLEGG00001021,7-8Y,MTCRLEGG00001022;1499.00;;;;;;;;zerotype;;Winter;;No
2124289;5021463742417-Pink White-2124289;Girls pink, ankle lenth leggings;Draft;Leggings;mothercare;Kids-Girls;Girls;Pink;White;;Fashion;;2017;Newborn,MTCRLEGG00001012,0-3M,MTCRLEGG00001013,3-6M,MTCRLEGG00001014,6-9M,MTCRLEGG00001015,9-12M,MTCRLEGG00001016,12-18M,MTCRLEGG00001017;699.00;;;;;;;;zerotype;;Winter;;No
2124288;5021463740888-Grey Pink Multi-2124288;Girls grey, ankle lenth leggings;Draft;Leggings;mothercare;Kids-Girls;Girls;Grey;Pink;Multi;Fashion;;2017;Newborn,MTCRLEGG00001006,0-3M,MTCRLEGG00001007,3-6M,MTCRLEGG00001008,6-9M,MTCRLEGG00001009,9-12M,MTCRLEGG00001010,12-18M,MTCRLEGG00001011;699.00;;;;;;;;zerotype;;Winter;;No
2124287;5021464897529-Pink White-2124287;Girls pink, ankle lenth leggings;Draft;Leggings;mothercare;Kids-Girls;Girls;Pink;White;;Fashion;;2017;Newborn,MTCRLEGG00001000,0-3M,MTCRLEGG00001001,3-6M,MTCRLEGG00001002,6-9M,MTCRLEGG00001003,9-12M,MTCRLEGG00001004,12-18M,MTCRLEGG00001005;699.00;;;;;;;;zerotype;;Winter;;No
2124286;5021465638527-Grey Blue-2124286;Boys grey, pyjamas;Draft;Pyjamas;mothercare;Kids-Boys;Boys;Grey;Blue;;Fashion;;2017;3-6M,MTCRPJPJ00001094,6-9M,MTCRPJPJ00001095,9-12M,MTCRPJPJ00001096,12-18M,MTCRPJPJ00001097,18-24M,MTCRPJPJ00001098,2-3Y,MTCRPJPJ00001099;1099.00;;;;;;;;zerotype;;Winter;;No
2124285;5021463730292-Beige White-2124285;Unisex beige, pyjamas;Draft;Pyjamas;mothercare;Kids-Unisex;Unisex;Beige;White;;Fashion;;2017;Newborn,MTCRPJPJ00001089,0-3M,MTCRPJPJ00001090,3-6M,MTCRPJPJ00001091,6-9M,MTCRPJPJ00001092,9-12M,MTCRPJPJ00001093;899.00;;;;;;;;zerotype;;Winter;;No
2124284;5021469437843-Pink White-2124284;Girls multi 3 pacck rompersets;Draft;Rompers;mothercare;Kids-Girls;Girls;Grey;Pink;White;Fashion;;2017;Tiny Baby,MTCRRMPR00000894,Newborn,MTCRRMPR00000895,0-3M,MTCRRMPR00000896,3-6M,MTCRRMPR00000897,6-9M,MTCRRMPR00000898,9-12M,MTCRRMPR00000899;1899.00;;;;;;;;zerotype;;Winter;;No
2124283;5021469438468-Multi-2124283;Girls pink 3 pacck rompersets;Draft;Rompers;mothercare;Kids-Girls;Girls;Pink;Multi;;Fashion;;2017;Tiny Baby,MTCRRMPR00000888,Newborn,MTCRRMPR00000889,0-3M,MTCRRMPR00000890,3-6M,MTCRRMPR00000891,6-9M,MTCRRMPR00000892,9-12M,MTCRRMPR00000893;1599.00;;;;;;;;zerotype;;Winter;;No
