Style ID;Vendor Article Number;Vendor Article Name;Active Status;Article type;Brand;Age Group;Gender;Base Colour;Colour1;Colour2;Fashion Type;Usage;Year;Size - SKU code pair;MRP;Style Description;Style Note;Materials and Care Description;Size and Fit Description;Size Chart Path;Product Display Name;Tags;Product Type;Classification Brand;Season;Comments;Upload Images
1953480;386679-Black, Grey-1953480;386679  Kalki Fashion;Draft;Lehenga Choli;Kalki;Adults-Women;Women;Black;;;Fashion;;2017;S,KLKILHNC00000041,M,KLKILHNC00000042,L,KLKILHNC00000043,Xl,KLKILHNC00000044;23599.00;;;;;;;;zerotype;;Summer;;No
1953478;383345-Navy blue-1953478;383345  Kalki Fashion;Draft;Lehenga Choli;Kalki;Adults-Women;Women;Navy Blue;;;Fashion;;2017;S,KLKILHNC00000037,M,KLKILHNC00000038,L,KLKILHNC00000039,Xl,KLKILHNC00000040;35009.00;;;;;;;;zerotype;;Summer;;No
1953476;378846-Peach-1953476;378846  Kalki Fashion;Draft;Lehenga Choli;Kalki;Adults-Women;Women;Peach;;;Fashion;;2017;S,KLKILHNC00000033,M,KLKILHNC00000034,L,KLKILHNC00000035,Xl,KLKILHNC00000036;20089.00;;;;;;;;zerotype;;Summer;;No
1953475;378845-Peach-1953475;378845  Kalki Fashion;Draft;Lehenga Choli;Kalki;Adults-Women;Women;Peach;;;Fashion;;2017;S,KLKILHNC00000029,M,KLKILHNC00000030,L,KLKILHNC00000031,Xl,KLKILHNC00000032;12089.00;;;;;;;;zerotype;;Summer;;No
1953473;378723-Peach-1953473;378723  Kalki Fashion;Draft;Lehenga Choli;Kalki;Adults-Women;Women;Peach;;;Fashion;;2017;S,KLKILHNC00000025,M,KLKILHNC00000026,L,KLKILHNC00000027,Xl,KLKILHNC00000028;18299.00;;;;;;;;zerotype;;Summer;;No
1953471;378673-Grey-1953471;378673  Kalki Fashion;Draft;Lehenga Choli;Kalki;Adults-Women;Women;Grey;;;Fashion;;2017;S,KLKILHNC00000021,M,KLKILHNC00000022,L,KLKILHNC00000023,Xl,KLKILHNC00000024;16289.00;;;;;;;;zerotype;;Summer;;No
1953469;376933-Gold, Green-1953469;376933  Kalki Fashion;Draft;Lehenga Choli;Kalki;Adults-Women;Women;Gold;;;Fashion;;2017;S,KLKILHNC00000017,M,KLKILHNC00000018,L,KLKILHNC00000019,Xl,KLKILHNC00000020;5299.00;;;;;;;;zerotype;;Summer;;No
1953468;376913-Coral-1953468;376913  Kalki Fashion;Draft;Lehenga Choli;Kalki;Adults-Women;Women;Coral;;;Fashion;;2017;S,KLKILHNC00000013,M,KLKILHNC00000014,L,KLKILHNC00000015,Xl,KLKILHNC00000016;4199.00;;;;;;;;zerotype;;Summer;;No
1953466;376201-Cream-1953466;376201  Kalki Fashion;Draft;Lehenga Choli;Kalki;Adults-Women;Women;Cream;;;Fashion;;2017;S,KLKILHNC00000009,M,KLKILHNC00000010,L,KLKILHNC00000011,Xl,KLKILHNC00000012;18199.00;;;;;;;;zerotype;;Summer;;No
1953464;376116-Gold, Rani pink-1953464;376116  Kalki Fashion;Draft;Lehenga Choli;Kalki;Adults-Women;Women;Gold;;;Fashion;;2017;S,KLKILHNC00000005,M,KLKILHNC00000006,L,KLKILHNC00000007,Xl,KLKILHNC00000008;5099.00;;;;;;;;zerotype;;Summer;;No
1953462;373394-Navy blue-1953462;373394  Kalki Fashion;Draft;Lehenga Choli;Kalki;Adults-Women;Women;Navy Blue;;;Fashion;;2017;S,KLKILHNC00000001,M,KLKILHNC00000002,L,KLKILHNC00000003,Xl,KLKILHNC00000004;21199.00;;;;;;;;zerotype;;Summer;;No
