Style ID;Vendor Article Number;Vendor Article Name;Active Status;Article type;Brand;Age Group;Gender;Base Colour;Colour1;Colour2;Fashion Type;Usage;Year;Size - SKU code pair;MRP;Style Description;Style Note;Materials and Care Description;Size and Fit Description;Size Chart Path;Product Display Name;Tags;Product Type;Classification Brand;Season;Comments;Upload Images
1907200;BBAPLPR19467_XL-Off White-1907200;Embroidery Tassel Tunic;Draft;Tunics;Paprika;Adults-Women;Women;Off White;;;Fashion;Casual;2017;S,PPKATNIC00000115,M,PPKATNIC00000116,L,PPKATNIC00000117,XL,PPKATNIC00000118;999.00;;;;;;;;zerotype;;Summer;;No
1907199;BBAPLPR19454_XL-Red-1907199;Border Emblished Tunic;Draft;Tunics;Paprika;Adults-Women;Women;Red;;;Fashion;Casual;2017;S,PPKATNIC00000111,M,PPKATNIC00000112,L,PPKATNIC00000113,XL,PPKATNIC00000114;899.00;;;;;;;;zerotype;;Summer;;No
1907198;BBAPLPR19448_XL-Pink Off White-1907198;Knit Lace Tunic;Draft;Tunics;Paprika;Adults-Women;Women;Pink;Off White;;Fashion;Casual;2017;S,PPKATNIC00000107,M,PPKATNIC00000108,L,PPKATNIC00000109,XL,PPKATNIC00000110;899.00;;;;;;;;zerotype;;Summer;;No
1907197;BBAPLPR19441_XL-White-1907197;Sheer Tunic;Draft;Tunics;Paprika;Adults-Women;Women;White;;;Fashion;Casual;2017;S,PPKATNIC00000103,M,PPKATNIC00000104,L,PPKATNIC00000105,XL,PPKATNIC00000106;849.00;;;;;;;;zerotype;;Summer;;No
1907196;BBAPLPR19428_XL-Balack Red-1907196;Multicolor Layered Short Dress;Draft;Tunics;Paprika;Adults-Women;Women;Black;Red;;Fashion;Casual;2017;S,PPKATNIC00000099,M,PPKATNIC00000100,L,PPKATNIC00000101,XL,PPKATNIC00000102;1099.00;;;;;;;;zerotype;;Summer;;No
1907195;BBAPLPR19386_XL-Pink-1907195;Sheer Tunic;Draft;Tunics;Paprika;Adults-Women;Women;Pink;;;Fashion;Casual;2017;S,PPKATNIC00000095,M,PPKATNIC00000096,L,PPKATNIC00000097,XL,PPKATNIC00000098;899.00;;;;;;;;zerotype;;Summer;;No
1907194;BBAPLPR19417_XL-Multi-1907194;Ruffles Dress;Draft;Dresses;Paprika;Adults-Women;Women;Multi;;;Fashion;Casual;2017;S,PPKADRSS00000328,M,PPKADRSS00000329,L,PPKADRSS00000330,XL,PPKADRSS00000331;1199.00;;;;;;;;zerotype;;Summer;;No
1907193;BBAPLPR19465_XL-Off White Blue-1907193;Tie Dye Dress;Draft;Dresses;Paprika;Adults-Women;Women;Off White;Blue;;Fashion;Casual;2017;S,PPKADRSS00000324,M,PPKADRSS00000325,L,PPKADRSS00000326,XL,PPKADRSS00000327;1149.00;;;;;;;;zerotype;;Summer;;No
1907192;BBAPLPR19453_XL-Red-1907192;Border Printed Long Dress;Draft;Dresses;Paprika;Adults-Women;Women;Red;;;Fashion;Casual;2017;S,PPKADRSS00000320,M,PPKADRSS00000321,L,PPKADRSS00000322,XL,PPKADRSS00000323;1249.00;;;;;;;;zerotype;;Summer;;No
1907191;BBAPLPR19447_XL-Black Off White-1907191;Short Dress;Draft;Dresses;Paprika;Adults-Women;Women;Black;Off White;;Fashion;Casual;2017;S,PPKADRSS00000316,M,PPKADRSS00000317,L,PPKADRSS00000318,XL,PPKADRSS00000319;1049.00;;;;;;;;zerotype;;Summer;;No
1907190;BBAPLPR19437_XL-Multi-1907190;Multicolor Short Dress;Draft;Dresses;Paprika;Adults-Women;Women;Multi;;;Fashion;Casual;2017;S,PPKADRSS00000312,M,PPKADRSS00000313,L,PPKADRSS00000314,XL,PPKADRSS00000315;1049.00;;;;;;;;zerotype;;Summer;;No
1907189;BBAPLPR19436_XL-Black Peach-1907189;Floral Short Dress;Draft;Dresses;Paprika;Adults-Women;Women;Black;Peach;;Fashion;Casual;2017;S,PPKADRSS00000308,M,PPKADRSS00000309,L,PPKADRSS00000310,XL,PPKADRSS00000311;1049.00;;;;;;;;zerotype;;Summer;;No
1907188;BBAPLPR19418_XL-Black White-1907188;Flayered Dress;Draft;Dresses;Paprika;Adults-Women;Women;Black;White;;Fashion;Casual;2017;S,PPKADRSS00000304,M,PPKADRSS00000305,L,PPKADRSS00000306,XL,PPKADRSS00000307;1199.00;;;;;;;;zerotype;;Summer;;No
1907187;BBAPLPR19414_XL-Multi-1907187;Multicolor Dress;Draft;Dresses;Paprika;Adults-Women;Women;Multi;;;Fashion;Casual;2017;S,PPKADRSS00000300,M,PPKADRSS00000301,L,PPKADRSS00000302,XL,PPKADRSS00000303;1199.00;;;;;;;;zerotype;;Summer;;No
1907186;BBAPLPR19413_XL-Beige Maroon-1907186;Border Printed Dress;Draft;Dresses;Paprika;Adults-Women;Women;Beige;Maroon;;Fashion;Casual;2017;S,PPKADRSS00000296,M,PPKADRSS00000297,L,PPKADRSS00000298,XL,PPKADRSS00000299;1199.00;;;;;;;;zerotype;;Summer;;No
1907185;BBAPLPR19412_XL-Black Maroon-1907185;Puff Sleeve Short Dress;Draft;Dresses;Paprika;Adults-Women;Women;Black;Maroon;;Fashion;Casual;2017;S,PPKADRSS00000292,M,PPKADRSS00000293,L,PPKADRSS00000294,XL,PPKADRSS00000295;1099.00;;;;;;;;zerotype;;Summer;;No
1907184;BBAPLPR19411_XL-Multi-1907184;Puff Sleeve Short Dress;Draft;Dresses;Paprika;Adults-Women;Women;Multi;;;Fashion;Casual;2017;S,PPKADRSS00000288,M,PPKADRSS00000289,L,PPKADRSS00000290,XL,PPKADRSS00000291;1099.00;;;;;;;;zerotype;;Summer;;No
1907183;BBAPLPR19410_XL-Multi-1907183;Printed Short Dress;Draft;Dresses;Paprika;Adults-Women;Women;Multi;;;Fashion;Casual;2017;S,PPKADRSS00000284,M,PPKADRSS00000285,L,PPKADRSS00000286,XL,PPKADRSS00000287;1049.00;;;;;;;;zerotype;;Summer;;No
1907182;BBAPLPR19409_XL-Black Peach-1907182;Floral Short Dress;Draft;Dresses;Paprika;Adults-Women;Women;Black;Peach;;Fashion;Casual;2017;S,PPKADRSS00000280,M,PPKADRSS00000281,L,PPKADRSS00000282,XL,PPKADRSS00000283;1049.00;;;;;;;;zerotype;;Summer;;No
1907181;BBAPLPR19398_XL-Off White-1907181;Short Dress;Draft;Dresses;Paprika;Adults-Women;Women;Off White;;;Fashion;Casual;2017;S,PPKADRSS00000276,M,PPKADRSS00000277,L,PPKADRSS00000278,XL,PPKADRSS00000279;1099.00;;;;;;;;zerotype;;Summer;;No
1907180;BBAPLPR19379_XL-Black White-1907180;Pleated Lace Dress;Draft;Dresses;Paprika;Adults-Women;Women;Black;White;;Fashion;Casual;2017;S,PPKADRSS00000272,M,PPKADRSS00000273,L,PPKADRSS00000274,XL,PPKADRSS00000275;999.00;;;;;;;;zerotype;;Summer;;No
1907179;BBAPLPR19376_XL-Green White-1907179;Long Maxi Dress;Draft;Dresses;Paprika;Adults-Women;Women;Green;White;;Fashion;Casual;2017;S,PPKADRSS00000268,M,PPKADRSS00000269,L,PPKADRSS00000270,XL,PPKADRSS00000271;1099.00;;;;;;;;zerotype;;Summer;;No
1907178;BBAPLPR19455_XL-Red-1907178;Orange Skirt;Draft;Skirts;Paprika;Adults-Women;Women;Red;;;Fashion;Casual;2017;S,PPKASKRT00000030,M,PPKASKRT00000031,L,PPKASKRT00000032,XL,PPKASKRT00000033;949.00;;;;;;;;zerotype;;Summer;;No
1907177;BBAPLPR19462_XL-Black-1907177;Palazzo;Draft;Palazzos;Paprika;Adults-Women;Women;Black;;;Fashion;Casual;2017;S,PPKAPLZS00000005,M,PPKAPLZS00000006,L,PPKAPLZS00000007,XL,PPKAPLZS00000008;1199.00;;;;;;;;zerotype;;Summer;;No
1907176;BBAPLPR19461_XL-Blue & White-1907176;Palazzo;Draft;Palazzos;Paprika;Adults-Women;Women;Blue;White;;Fashion;Casual;2017;S,PPKAPLZS00000001,M,PPKAPLZS00000002,L,PPKAPLZS00000003,XL,PPKAPLZS00000004;1199.00;;;;;;;;zerotype;;Summer;;No
1907175;BBAPLPR19383_XL-Red-1907175;Red Chiffly Shrug;Draft;Shrug;Paprika;Adults-Women;Women;Red;;;Fashion;Casual;2017;S,PPKASHRG00000045,M,PPKASHRG00000046,L,PPKASHRG00000047,XL,PPKASHRG00000048;749.00;;;;;;;;zerotype;;Summer;;No
1907174;BBAPLPR19421_XL-Multi-1907174;Multicolor Crop Top;Draft;Tops;Paprika;Adults-Women;Women;Multi;;;Fashion;Casual;2017;S,PPKATOPS00000730,M,PPKATOPS00000731,L,PPKATOPS00000732,XL,PPKATOPS00000733;899.00;;;;;;;;zerotype;;Summer;;No
1907173;BBAPLPR19390_XL-Off White Yellow-1907173;Layered Top;Draft;Tops;Paprika;Adults-Women;Women;Off White;Yellow;;Fashion;Casual;2017;S,PPKATOPS00000726,M,PPKATOPS00000727,L,PPKATOPS00000728,XL,PPKATOPS00000729;899.00;;;;;;;;zerotype;;Summer;;No
1907172;BBAPLPR19466_XL-Off White-1907172;Embroidery Top;Draft;Tops;Paprika;Adults-Women;Women;Off White;;;Fashion;Casual;2017;S,PPKATOPS00000722,M,PPKATOPS00000723,L,PPKATOPS00000724,XL,PPKATOPS00000725;899.00;;;;;;;;zerotype;;Summer;;No
1907171;BBAPLPR19459_XL-Pink-1907171;Regular Top;Draft;Tops;Paprika;Adults-Women;Women;Pink;;;Fashion;Casual;2017;S,PPKATOPS00000718,M,PPKATOPS00000719,L,PPKATOPS00000720,XL,PPKATOPS00000721;899.00;;;;;;;;zerotype;;Summer;;No
1907170;BBAPLPR19458_XL-White & Pink-1907170;Regular Top;Draft;Tops;Paprika;Adults-Women;Women;White;Pink;;Fashion;Casual;2017;S,PPKATOPS00000714,M,PPKATOPS00000715,L,PPKATOPS00000716,XL,PPKATOPS00000717;949.00;;;;;;;;zerotype;;Summer;;No
1907169;BBAPLPR19456_XL-Navy Blue-1907169;Multicolor Top;Draft;Tops;Paprika;Adults-Women;Women;Navy Blue;;;Fashion;Casual;2017;S,PPKATOPS00000710,M,PPKATOPS00000711,L,PPKATOPS00000712,XL,PPKATOPS00000713;799.00;;;;;;;;zerotype;;Summer;;No
1907168;BBAPLPR19450_XL-Blue & White-1907168;Blue Printed Top;Draft;Tops;Paprika;Adults-Women;Women;Blue;White;;Fashion;Casual;2017;S,PPKATOPS00000706,M,PPKATOPS00000707,L,PPKATOPS00000708,XL,PPKATOPS00000709;899.00;;;;;;;;zerotype;;Summer;;No
1907167;BBAPLPR19449_XL-Black & White-1907167;Animal Printed Top;Draft;Tops;Paprika;Adults-Women;Women;Black;White;;Fashion;Casual;2017;S,PPKATOPS00000702,M,PPKATOPS00000703,L,PPKATOPS00000704,XL,PPKATOPS00000705;899.00;;;;;;;;zerotype;;Summer;;No
1907166;BBAPLPR19445_XL-Green & White-1907166;Layered Frill Top;Draft;Tops;Paprika;Adults-Women;Women;Green;White;;Fashion;Casual;2017;S,PPKATOPS00000698,M,PPKATOPS00000699,L,PPKATOPS00000700,XL,PPKATOPS00000701;849.00;;;;;;;;zerotype;;Summer;;No
1907165;BBAPLPR19444_XL-Navy Blue Yellow-1907165;Layered Frill Top;Draft;Tops;Paprika;Adults-Women;Women;Navy Blue;Yellow;Pink;Fashion;Casual;2017;S,PPKATOPS00000694,M,PPKATOPS00000695,L,PPKATOPS00000696,XL,PPKATOPS00000697;699.00;;;;;;;;zerotype;;Summer;;No
1907164;BBAPLPR19432_XL-Green & White-1907164;Sando Lace Top;Draft;Tops;Paprika;Adults-Women;Women;Green;White;;Fashion;Casual;2017;S,PPKATOPS00000690,M,PPKATOPS00000691,L,PPKATOPS00000692,XL,PPKATOPS00000693;699.00;;;;;;;;zerotype;;Summer;;No
1907163;BBAPLPR19431_XL-Navy Blue-1907163;Tie Up Top;Draft;Tops;Paprika;Adults-Women;Women;Navy Blue;;;Fashion;Casual;2017;S,PPKATOPS00000686,M,PPKATOPS00000687,L,PPKATOPS00000688,XL,PPKATOPS00000689;749.00;;;;;;;;zerotype;;Summer;;No
1907162;BBAPLPR19429_XL-Black White-1907162;Asymetric Top;Draft;Tops;Paprika;Adults-Women;Women;Black;White;;Fashion;Casual;2017;S,PPKATOPS00000682,M,PPKATOPS00000683,L,PPKATOPS00000684,XL,PPKATOPS00000685;899.00;;;;;;;;zerotype;;Summer;;No
1907161;BBAPLPR19419_XL-Black & White-1907161;Net Top;Draft;Tops;Paprika;Adults-Women;Women;Black;White;;Fashion;Casual;2017;S,PPKATOPS00000678,M,PPKATOPS00000679,L,PPKATOPS00000680,XL,PPKATOPS00000681;649.00;;;;;;;;zerotype;;Summer;;No
1907160;BBAPLPR19416_XL-Black & White-1907160;Collar Top;Draft;Tops;Paprika;Adults-Women;Women;Black;White;;Fashion;Casual;2017;S,PPKATOPS00000674,M,PPKATOPS00000675,L,PPKATOPS00000676,XL,PPKATOPS00000677;799.00;;;;;;;;zerotype;;Summer;;No
1907159;BBAPLPR19415_XL-Black & White-1907159;Collar Top;Draft;Tops;Paprika;Adults-Women;Women;Black;White;;Fashion;Casual;2017;S,PPKATOPS00000670,M,PPKATOPS00000671,L,PPKATOPS00000672,XL,PPKATOPS00000673;799.00;;;;;;;;zerotype;;Summer;;No
1907158;BBAPLPR19408_XL-Orange And White-1907158;Sando Lace Top;Draft;Tops;Paprika;Adults-Women;Women;Orange;White;;Fashion;Casual;2017;S,PPKATOPS00000666,M,PPKATOPS00000667,L,PPKATOPS00000668,XL,PPKATOPS00000669;749.00;;;;;;;;zerotype;;Summer;;No
1907157;BBAPLPR19407_XL-Pink & Off White-1907157;Sando Lace Top;Draft;Tops;Paprika;Adults-Women;Women;Pink;Off White;;Fashion;Casual;2017;S,PPKATOPS00000662,M,PPKATOPS00000663,L,PPKATOPS00000664,XL,PPKATOPS00000665;749.00;;;;;;;;zerotype;;Summer;;No
1907156;BBAPLPR19403_XL-Off White-1907156;Crop Top;Draft;Tops;Paprika;Adults-Women;Women;Off White;;;Fashion;Casual;2017;S,PPKATOPS00000658,M,PPKATOPS00000659,L,PPKATOPS00000660,XL,PPKATOPS00000661;949.00;;;;;;;;zerotype;;Summer;;No
1907155;BBAPLPR19402_XL-Blue & Off White-1907155;Lace Top;Draft;Tops;Paprika;Adults-Women;Women;Blue;Off White;;Fashion;Casual;2017;S,PPKATOPS00000654,M,PPKATOPS00000655,L,PPKATOPS00000656,XL,PPKATOPS00000657;799.00;;;;;;;;zerotype;;Summer;;No
1907154;BBAPLPR19401_XL-Maroon Blue-1907154;Tie Up Top;Draft;Tops;Paprika;Adults-Women;Women;Maroon;Blue;;Fashion;Casual;2017;S,PPKATOPS00000650,M,PPKATOPS00000651,L,PPKATOPS00000652,XL,PPKATOPS00000653;899.00;;;;;;;;zerotype;;Summer;;No
1907153;BBAPLPR19399_XL-White Pink-1907153;Asymetric Top;Draft;Tops;Paprika;Adults-Women;Women;White;Pink;;Fashion;Casual;2017;S,PPKATOPS00000646,M,PPKATOPS00000647,L,PPKATOPS00000648,XL,PPKATOPS00000649;999.00;;;;;;;;zerotype;;Summer;;No
1907152;BBAPLPR19396_XL-Green & White-1907152;Sando Lace Top;Draft;Tops;Paprika;Adults-Women;Women;Green;White;;Fashion;Casual;2017;S,PPKATOPS00000642,M,PPKATOPS00000643,L,PPKATOPS00000644,XL,PPKATOPS00000645;699.00;;;;;;;;zerotype;;Summer;;No
1907151;BBAPLPR19394_XL-Blue & White-1907151;Slim Fit Top;Draft;Tops;Paprika;Adults-Women;Women;Blue;White;;Fashion;Casual;2017;S,PPKATOPS00000638,M,PPKATOPS00000639,L,PPKATOPS00000640,XL,PPKATOPS00000641;849.00;;;;;;;;zerotype;;Summer;;No
1907150;BBAPLPR19393_XL-Multi-1907150;Zipper Top;Draft;Tops;Paprika;Adults-Women;Women;Multi;;;Fashion;Casual;2017;S,PPKATOPS00000634,M,PPKATOPS00000635,L,PPKATOPS00000636,XL,PPKATOPS00000637;899.00;;;;;;;;zerotype;;Summer;;No
1907149;BBAPLPR19391_XL-Black & White-1907149;Twin Top;Draft;Tops;Paprika;Adults-Women;Women;Black;White;;Fashion;Casual;2017;S,PPKATOPS00000630,M,PPKATOPS00000631,L,PPKATOPS00000632,XL,PPKATOPS00000633;999.00;;;;;;;;zerotype;;Summer;;No
1907148;BBAPLPR19380_XL-Black & Orange-1907148;Layered Frill Top;Draft;Tops;Paprika;Adults-Women;Women;Black;Orange;;Fashion;Casual;2017;S,PPKATOPS00000626,M,PPKATOPS00000627,L,PPKATOPS00000628,XL,PPKATOPS00000629;999.00;;;;;;;;zerotype;;Summer;;No
1907147;BBAPLPR19434_XL-White Yellow-1907147;Double Printed Shirt;Draft;Shirts;Paprika;Adults-Women;Women;White;Yellow;;Fashion;Casual;2017;S,PPKASHRT00000252,M,PPKASHRT00000253,L,PPKASHRT00000254,XL,PPKASHRT00000255;849.00;;;;;;;;zerotype;;Summer;;No
1907146;BBAPLPR19433_XL-Black Pink-1907146;Double Printed Shirt;Draft;Shirts;Paprika;Adults-Women;Women;Black;Pink;;Fashion;Casual;2017;S,PPKASHRT00000248,M,PPKASHRT00000249,L,PPKASHRT00000250,XL,PPKASHRT00000251;899.00;;;;;;;;zerotype;;Summer;;No
1907145;BBAPLPR19425_XL-Black & White-1907145;Peplum Top;Draft;Shirts;Paprika;Adults-Women;Women;Black;White;;Fashion;Casual;2017;S,PPKASHRT00000244,M,PPKASHRT00000245,L,PPKASHRT00000246,XL,PPKASHRT00000247;899.00;;;;;;;;zerotype;;Summer;;No
1907144;BBAPLPR19395_XL-Navy Blue-1907144;Floral Shirt;Draft;Shirts;Paprika;Adults-Women;Women;Navy Blue;;;Fashion;Casual;2017;S,PPKASHRT00000240,M,PPKASHRT00000241,L,PPKASHRT00000242,XL,PPKASHRT00000243;899.00;;;;;;;;zerotype;;Summer;;No
1907143;BBAPLPR19389_XL-Black & White-1907143;Pleated Lace Shirt;Draft;Shirts;Paprika;Adults-Women;Women;Black;White;;Fashion;Casual;2017;S,PPKASHRT00000236,M,PPKASHRT00000237,L,PPKASHRT00000238,XL,PPKASHRT00000239;849.00;;;;;;;;zerotype;;Summer;;No
