Style ID;Vendor Article Number;Vendor Article Name;Active Status;Article type;Brand;Age Group;Gender;Base Colour;Colour1;Colour2;Fashion Type;Usage;Year;Size - SKU code pair;MRP;Style Description;Style Note;Materials and Care Description;Size and Fit Description;Size Chart Path;Product Display Name;Tags;Product Type;Classification Brand;Season;Comments;Upload Images
1887327;UFSH0019-PURPLE-1887327;PURPLE MENS SHIRT;QC Reject;Shirts;U.S. Polo Assn.;Adults-Men;Men;;;;Fashion;Formal;2017;L,USPOSHRT00006939,M,USPOSHRT00006940,S,USPOSHRT00006941,XL,USPOSHRT00006942,XXL,USPOSHRT00006943;1999.00;;;<p>100% Cotton</p>;;;;uspa-formal,ndd-bangalore;zerotype;;Summer;Onhold Sample Requested 17-05-2017;No
1887325;UFSH0017-BLUE-1887325;BLUE MENS SHIRT;QC Reject;Shirts;U.S. Polo Assn.;Adults-Men;Men;;;;Fashion;Formal;2017;L,USPOSHRT00006934,M,USPOSHRT00006935,S,USPOSHRT00006936,XL,USPOSHRT00006937,XXL,USPOSHRT00006938;1999.00;;;<p>100% Cotton</p>;;;;uspa-formal,ndd-bangalore;zerotype;;Summer;Onhold Sample Requested 17-05-2017;No
1885696;322528-BABY BLUE-1885696;Forever 21BABY BLUESkirts;Draft;Skirts;FOREVER 21;Adults-Women;Women;;;;Fashion;;2017;2/S,FRTOSKRT00006140,3/M,FRTOSKRT00006141,4/L,FRTOSKRT00006142;1299.00;<p>Contents:99% COTTON, 1% SPANDEX / ELASTANE, Lining:, Other:</p>;;;;;;;zerotype;;Summer;;No
1885695;251684-LIGHT DENIM-1885695;Forever 21LIGHT DENIMSkirts;Draft;Skirts;FOREVER 21;Adults-Women;Women;;;;Fashion;;2017;1/XS,FRTOSKRT00006136,2/S,FRTOSKRT00006137,3/M,FRTOSKRT00006138,4/L,FRTOSKRT00006139;1399.00;<p>Contents:100% COTTON, Lining:, Other:</p>;;;;;;;zerotype;;Summer;;No
1885685;305378-IVORY/YELLOW-1885685;Forever 21IVORY/YELLOWShorts;Draft;Shorts;FOREVER 21;Adults-Women;Women;;;;Fashion;;2017;1/XS,FRTOSHOR00005105,2/S,FRTOSHOR00005106,3/M,FRTOSHOR00005107,4/L,FRTOSHOR00005108;1199.00;<p>Contents:100% RAYON, Lining:100% POLYESTER, Other:</p>;;;;;;;zerotype;;Spring;;No
1885682;251799-CREAM/CORAL-1885682;Forever 21CREAM/CORALShorts;Draft;Shorts;FOREVER 21;Adults-Women;Women;;;;Fashion;;2017;1/XS,FRTOSHOR00005095,2/S,FRTOSHOR00005096,3/M,FRTOSHOR00005097,4/L,FRTOSHOR00005098;899.00;<p>Contents:100% VISCOSE RAYON, Lining:, Other:</p>;;;;;;;zerotype;;Spring;;No
1885046;6170612906-10-44-Black-1885046;MEN'S T-SHIRT-F/C-H/S;Draft;Tshirts;Cloak & Decker by Monte Carlo;Adults-Men;Men;Black;;;Fashion;;2017;38,CLDKTSHT00002741,40,CLDKTSHT00002742,42,CLDKTSHT00002743,44,CLDKTSHT00002744;1095.00;<p>Cotton</p>;;<p>Approx 70% cotton 30% Polyester</p>;;;;;zerotype;;Summer;;No
1884935;217037101-1-44-Multi-1884935;MEN'S TSHIRT-C/S-H/S;On Hold - Other;Tshirts;Monte Carlo;Adults-Men;Men;White;Coral;Navy Blue;Fashion;Casual;2017;38,MTCLTSHT00005760,40,MTCLTSHT00005761,42,MTCLTSHT00005762,44,MTCLTSHT00005763;985.00;White, navy and coral red striped T-shirt, has a polo collar, short sleeves, a patch pocket;This top-notch T-shirt from Monte Carlo will have you looking fresh all year long. When you're going for a stroll in the park, put this white piece with a pair of chinos and sneakers to feel both comfortable and stylish outside.;Cotton <br />Hand-wash warm;The model (height 6') is wearing a size M;;Monte Carlo Men White & Coral Red Striped Polo Collar T-shirt;Monte Carlo,TOMS009,ndd-gurgaon;zerotype;;Summer;ndd-gurgaon;No
1883848;RMMCORE2860-Blue-1883848;RMMCORE2860;QC Reject;Trousers;Rangriti;Adults-Women;Women;Blue;;;Fashion;;2017;L,RNGTTRSR00000236,M,RNGTTRSR00000237,S,RNGTTRSR00000238;699.00;;;<p>WASH SEPARATELY IN COLD WATER, DO NOT BLEACH, DRY IN SHADE, MEDIUM TO HOT IRON.,MADE IN INDIA</p>;;;;;zerotype;;Spring;Onhold Sample Requested 17-05-2017;No
1883317;226185-OLIVE-1883317;Forever 21OLIVEShorts;Draft;Shorts;FOREVER 21;Adults-Women;Women;;;;Fashion;;2017;2/S,FRTOSHOR00005080,3/M,FRTOSHOR00005081,4/L,FRTOSHOR00005082,1/XS,FRTOSHOR00005086;1099.00;<p>Contents:100% POLYESTER, Lining:, Other:</p>;;;;;;;zerotype;;Spring;;No
1883316;226185-MAUVE-1883316;Forever 21MAUVEShorts;Draft;Shorts;FOREVER 21;Adults-Women;Women;;;;Fashion;;2017;2/S,FRTOSHOR00005077,3/M,FRTOSHOR00005078,4/L,FRTOSHOR00005079,1/XS,FRTOSHOR00005085;1099.00;<p>Contents:100% POLYESTER, Lining:, Other:</p>;;;;;;;zerotype;;Spring;;No
1883314;210015-LIGHT OLIVE-1883314;Forever 21LIGHT OLIVEShorts;Draft;Shorts;FOREVER 21;Adults-Women;Women;;;;Fashion;;2017;1/XS,FRTOSHOR00005069,2/S,FRTOSHOR00005070,3/M,FRTOSHOR00005071,4/L,FRTOSHOR00005072;949.00;<p>Contents:100% RAYON, Lining:, Other:</p>;;;;;;;zerotype;;Spring;;No
1883309;207474-BURGUNDY-1883309;Forever 21BURGUNDYShorts;Draft;Shorts;FOREVER 21;Adults-Women;Women;;;;Fashion;;2017;1/XS,FRTOSHOR00005051,2/S,FRTOSHOR00005052,3/M,FRTOSHOR00005053,4/L,FRTOSHOR00005054;899.00;<p>Contents:100% POLYESTER, Lining:, Other:</p>;;;;;;;zerotype;;Spring;;No
1883202;223028-MAGENTA-1883202;Forever 21MAGENTACamisoles;Draft;Camisoles;FOREVER 21;Adults-Women;Women;;;;Fashion;;2017;S,FRTOCMSL00004280;759.00;<p>Contents:100% RAYON, Lining:, Other:</p>;;;;;;;zerotype;;Spring;;No
1883190;222134-BLACK/BLUE/MULTI-1883190;Forever 21BLACK/BLUE/MULTICamisoles;Draft;Camisoles;FOREVER 21;Adults-Women;Women;;;;Fashion;;2017;S,FRTOCMSL00004272,L,FRTOCMSL00004273;1119.00;<p>Contents:100% RAYON, Lining:, Other:</p>;;;;;;;zerotype;;Spring;;No
1883030;189716-BLACK/TEAL/MUSTARD-1883030;Forever 21BLACK/TEAL/MUSTARDSkirts;Draft;Skirts;FOREVER 21;Adults-Women;Women;;;;Fashion;;2017;2/S,FRTOSKRT00006121,3/M,FRTOSKRT00006122,4/L,FRTOSKRT00006123;2099.00;<p>Contents:100% NYLON/POLYAMIDE, Lining:100% POLYESTER, Other:</p>;;;;;;;zerotype;;Spring;;No
1880152;1938089006-Black-1880152;JPR MICHAEL SHIRT L/S IN;Draft;Shirts;Jack & Jones;Adults-Men;Men;Black;;;Fashion;;2017;L,JAJOSHRT00007800,M,JAJOSHRT00007801,S,JAJOSHRT00007802,XL,JAJOSHRT00007803,XXL,JAJOSHRT00007804;2999.00;;;<p>72%Cotton25%Polyamide3%Elastane</p>;;;;jj-denim-studio,jack-and-jones-ss17-40;zerotype;;Summer;jack-and-jones-ss17-40;No
1879892;1946967008-Wet Weather-1879892;JJPR TRACK BLAZER IN;Draft;Blazers;Jack & Jones;Adults-Men;Men;Grey;;;Fashion;;2017;46,JAJOBLZR00000487,48,JAJOBLZR00000488,50,JAJOBLZR00000489,52,JAJOBLZR00000490,54,JAJOBLZR00000491;4999.00;;;<p>Dry Clean</p>;;;;;zerotype;;Summer;;No
1879891;1946967003-Black-1879891;JJPR TRACK BLAZER IN;Draft;Blazers;Jack & Jones;Adults-Men;Men;Black;;;Fashion;;2017;46,JAJOBLZR00000482,48,JAJOBLZR00000483,50,JAJOBLZR00000484,52,JAJOBLZR00000485,54,JAJOBLZR00000486;4999.00;;;<p>Dry Clean</p>;;;;;zerotype;;Summer;;No
1879890;1947402003-Charcoal Gray-1879890;JJPR ASH BLAZER IN;Draft;Blazers;Jack & Jones;Adults-Men;Men;Grey;;;Fashion;;2017;46,JAJOBLZR00000477,48,JAJOBLZR00000478,50,JAJOBLZR00000479,52,JAJOBLZR00000480,54,JAJOBLZR00000481;5499.00;;;<p>Dry Clean</p>;;;;jj-denim-studio,jack-and-jones-ss17-40;zerotype;;Summer;jack-and-jones-ss17-40;No
1879889;1947402008-Beige-1879889;JJPR ASH BLAZER IN;Draft;Blazers;Jack & Jones;Adults-Men;Men;Beige;;;Fashion;;2017;46,JAJOBLZR00000472,48,JAJOBLZR00000473,50,JAJOBLZR00000474,52,JAJOBLZR00000475,54,JAJOBLZR00000476;5499.00;;;<p>Dry Clean</p>;;;;jj-denim-studio,jack-and-jones-ss17-40;zerotype;;Summer;jack-and-jones-ss17-40;No
1879888;1947106003-Dark Blue Denim-1879888;JJPR GABRIEL BLAZER;Draft;Blazers;Jack & Jones;Adults-Men;Men;Blue;;;Fashion;;2017;46,JAJOBLZR00000467,48,JAJOBLZR00000468,50,JAJOBLZR00000469,52,JAJOBLZR00000470,54,JAJOBLZR00000471;4499.00;;;<p>Dry Clean</p>;;;;jj-denim-studio;zerotype;;Summer;jj-denim-studio;No
1879843;1938206004-Medium Blue Denim-1879843;JI TIM SH RY 2840;Draft;Shorts;Jack & Jones;Adults-Men;Men;Blue;;;Fashion;;2017;S,JAJOSHOR00000870,M,JAJOSHOR00000871,L,JAJOSHOR00000872,XL,JAJOSHOR00000873;2199.00;;;<p>Machine wash,Wash dark colours seperately</p>;;;;back-to-camp,jack-and-jones-ss17-40;zerotype;;Summer;jack-and-jones-ss17-40;No
1879842;1938228004-Black Denim-1879842;JI RICK SH RY 3220 IN;Draft;Shorts;Jack & Jones;Adults-Men;Men;Grey;;;Fashion;;2017;S,JAJOSHOR00000866,M,JAJOSHOR00000867,L,JAJOSHOR00000868,XL,JAJOSHOR00000869;2199.00;;;<p>Machine wash,Wash dark colours seperately</p>;;;;back-to-camp,jack-and-jones-ss17-40;zerotype;;Summer;jack-and-jones-ss17-40;No
1879841;1941910004-Oatmeal-1879841;JIBOAT CHINO SHORTS IN;Draft;Shorts;Jack & Jones;Adults-Men;Men;Grey;;;Fashion;;2017;S,JAJOSHOR00000862,M,JAJOSHOR00000863,L,JAJOSHOR00000864,XL,JAJOSHOR00000865;1999.00;;;<p>Machine wash,Wash dark colours seperately</p>;;;;back-to-camp,jack-and-jones-ss17-40;zerotype;;Summer;jack-and-jones-ss17-40;No
1879840;1941910009-Blue Nights-1879840;JIBOAT CHINO SHORTS IN;Draft;Shorts;Jack & Jones;Adults-Men;Men;Blue;;;Fashion;;2017;S,JAJOSHOR00000858,M,JAJOSHOR00000859,L,JAJOSHOR00000860,XL,JAJOSHOR00000861;1999.00;;;<p>Machine wash,Wash dark colours seperately</p>;;;;back-to-camp,jack-and-jones-ss17-40;zerotype;;Summer;jack-and-jones-ss17-40;No
1879839;1938743004-Aquifer-1879839;JI RECYCLE BASIC SWEAT SHOR;Draft;Shorts;Jack & Jones;Adults-Men;Men;Blue;;;Fashion;;2017;S,JAJOSHOR00000854,M,JAJOSHOR00000855,L,JAJOSHOR00000856,XL,JAJOSHOR00000857;1699.00;;;<p>Machine wash,Wash dark colours seperately</p>;;;;back-to-camp,jack-and-jones-ss17-40,jj-1299-store;zerotype;;Summer;jj-1299-store;No
1879838;1938750004-Sky Captain-1879838;JI SPEED SWEAT SHORTS I;Draft;Shorts;Jack & Jones;Adults-Men;Men;Blue;;;Fashion;;2017;S,JAJOSHOR00000850,M,JAJOSHOR00000851,L,JAJOSHOR00000852,XL,JAJOSHOR00000853;1999.00;;;<p>Machine wash,Wash dark colours seperately</p>;;;;back-to-camp,jack-and-jones-ss17-40;zerotype;;Summer;jack-and-jones-ss17-40;No
1879837;1947100003-Indigo-1879837;JJPR INDUS WAISTCOAT IN;Draft;Waistcoat;Jack & Jones;Adults-Men;Men;Purple;;;Fashion;;2017;S,JAJOWACO00000197,M,JAJOWACO00000198,L,JAJOWACO00000199,XL,JAJOWACO00000200,XXL,JAJOWACO00000201;3499.00;;;<p>Dry Clean</p>;;;;jj-denim-studio,jack-and-jones-ss17-40;zerotype;;Summer;jack-and-jones-ss17-40;No
1878338;8902986690348-white-1878338;JCMWSHS150116;QC Reject;Shirts;John Players;Adults-Men;Men;Coffee Brown;Coffee Brown;Coffee Brown;Fashion;Formal;2017;38,JOPLSHRT00016091,39,JOPLSHRT00016092,40,JOPLSHRT00016093,44,JOPLSHRT00016094;1099.00;Cotton;Cotton;Cotton;;;John Players;John Players;zerotype;;Summer;Onhold Sample Requested 17-05-2017;No
1868595;95027WM02J_BBD-Brown-1868595;Titan Watches;Inactive - PMM - Catalog;Watches;Titan;Adults-Women;Women;Burgundy;;;Fashion;Casual;2017;ONESIZE,TITNWTCH00002844;10495.00;Display: Analogue <br />Movement: Mechanical<br />Power source: Battery<br />Dial style: Embellished round stainless steel dial<br />Features: Reset Time<br />Strap style: Rose Gold-toned bracelet style, stainless steel strap with a butterfly closure <br />Water resistance: 50 m<br />Warranty: 2 years;The perfect everyday accessory, this Titan watch is both practical and stylish. This burgundy piece can be worn with your favourite shirt and some slim jeans for your casual date night.;;Dial width: 24 mm<br />Strap width: 22 mm;;Titan Women Burgundy Analogue Watch 95027WM02J;Titan,ndd-bangalore;zerotype;;Summer;Image Mismatch;No
1867492;BQ0561-BLACK/WHITE-1867492;M SW TEE;On Hold - Other;Tshirts;Adidas NEO;Adults-Men;Men;Black;;;Fashion;Sports;2017;L,ADNOTSHT00001302,XL,ADNOTSHT00001303,XXL,ADNOTSHT00001304,XS,ADNOTSHT00001305,S,ADNOTSHT00001306,M,ADNOTSHT00001307;1699.00;Black printed  T-shirt, has a round neck, short sleeves;Soft, well-structured, and durable, you'll definitely love being the proud owner of this Adidas NEO T-shirt.  When you're attending an after-work happy hour, wear this black piece with chinos and easy loafers.;Cotton <br /> Machine-wash;The model (height 6') is wearing a size M;;Adidas NEO Men Black Printed Round Neck T-shirt;Adidas NEO;zerotype;;Summer;;No
1861267;DALENI2-Navy-1861267;DALENI;Inactive - PMM - Catalog;Casual Shoes;ALDO;Adults-Men;Men;Beige;;;Fashion;Casual;2017;EURO39,ALDOCASH00001841,EURO40,ALDOCASH00001842,EURO41,ALDOCASH00001843,EURO42,ALDOCASH00001844,EURO43,ALDOCASH00001845,EURO44,ALDOCASH00001846;6999.00;A pair of beige derbys, has central lace-ups<br />Mesh upper<br />Cushioned footbed<br />Textured and patterned outsole<br />Warranty: 30 days against manufacturing defect subject to prior approval from the brand;Express yourself with some new and trendy ALDO casual shoes. These beige shoes can be teamed with slim jeans and a trendy button-down shirt when you're meeting the guys for dinner and drinks.;Mesh <br />Wipe with a clean, dry cloth to remove dust;;;ALDO Men Beige DALENI Derbys;ALDO,ndd-mumbai,big10-ftod,big10-lucky20,big10-rs501off,big10-350off,flash-sale-may17;zerotype;;Summer;flash-sale-may17;No
1852473;PMDY03179-G6-Grey-1852473;2 BTN-NOTCH-STRAIGHT FLAP-FLAT FRNT-SLIM;Draft;Suits;Park Avenue;Adults-Men;Men;Grey;;;Fashion;;2017;M,PKAVSUIT00000566,L,PKAVSUIT00000567,XS,PKAVSUIT00000568,S,PKAVSUIT00000569;9499.00;<p>Terylene</p>;;<p>Dry Clean</p>;;;;;zerotype;;Summer;;No
1851551;200474-BLACK/YELLOW-1851551;Forever 21BLACK/YELLOWTshirts;Active;Tshirts;FOREVER 21;Adults-Men;Men;Black;;;Fashion;Casual;2017;1/XS,FRTOTSHT00002702,2/S,FRTOTSHT00002703,3/M,FRTOTSHT00003157,4/L,FRTOTSHT00003158,5/XL,FRTOTSHT00003159;909.00;<a href='/black?src=pd' class='seolink'>Black</a> printed T-shirt, has a round neck, <a href='/short?src=pd' class='seolink'>short</a> sleeves;Upgrade your style when you take a page out of FOREVER 21's book with this tee. This black piece can be teamed with cuffed chinos and canvas shoes when you're meeting the guys for drinks.;100% cotton <br /> Hand-wash;The model (height 6') is wearing a size M;;FOREVER 21 Men Black Printed Round Neck T-shirt;FOREVER 21,big10-ftod;zerotype;;Summer;;No
1851521;203978-RUST-1851521;Forever 21RUSTTops;Active;Tops;FOREVER 21;Adults-Women;Women;Rust;;;Fashion;Casual;2017;3/M,FRTOTOPS00026941,4/L,FRTOTOPS00026942,2/S,FRTOTOPS00028541;909.00;<a href='/rust?src=pd' class='seolink'>Rust</a> self-design knitted tube top, has an off-<a href='/shoulder?src=pd' class='seolink'>shoulder</a> neck, sleeveless;With this pretty tube top from FOREVER 21, you'll get the perfect balance of comfort and style. Make any summer party a lot more stylish by adding this rust piece to a pair of harem pants.;Viscose Rayon <br />Machine-wash;The model (height 5'8") is wearing a size S;;FOREVER 21 Women Rust Self-Design Tube Top;FOREVER 21;zerotype;;Summer;;No
1851483;183135-CREAM/NAVY-1851483;Forever 21CREAM/NAVYShirts;Draft;Shirts;FOREVER 21;Adults-Men;Men;;;;Fashion;;2017;1/XS,FRTOSHRT00003328,2/S,FRTOSHRT00003767,3/M,FRTOSHRT00003768;1539.00;<p>Contents:100% COTTON, Lining:100% COTTON, Other:</p>;;;;;;big10-ftod;zerotype;;Summer;No comment entered;No
1846065;20714860790-20714860790-1846065;Men Water-Gel Hydrating Concentrate;Draft;Face Moisturiser and Night Cream;Clinique;Adults-Men;Men;;;;Core;;2017;48ml,CNQUFMNC00000055;2200.00;<p>CFM Water-Gel Hydrating Concentrate provides deep penetrating hydration in a water-fresh, lightwieght texture coupled with encapsultated antioxidant protection.</p>;;<p>CFM Water-Gel Hydrating Concentrate provides deep penetrating hydration in a water-fresh, lightwieght texture coupled with encapsultated antioxidant protection.</p>;;;;frg-all2017,frg-clinique2017;zerotype;;Spring;frg-clinique2017;No
1838228;G601-Red-1838228;Cotton Red Pathani Kurta;Draft;Kurtas;GERUA;Adults-Women;Women;NA;;;Fashion;;2017;XS,GRUAKRTA00002635,S,GRUAKRTA00002636,M,GRUAKRTA00002637,L,GRUAKRTA00002638,XL,GRUAKRTA00002639,XXL,GRUAKRTA00002640;799.00;;;<p>Hand Wash Cold/ Gentle Wash</p>;;;;ss17-ethnickurta,ndd-mumbai;zerotype;;Spring;ndd-mumbai;No
1814110;MF73D-Black and Yellow-1814110;Dress Material with Dupatta;QC Reject;Dress Material;beezal;Adults-Women;Women;Black;Mustard;;Fashion;Ethnic;2017;Onesize,BZALDRMT00000057;2399.00;Black and mustard yellow embroidered unstitched dress material<br />Black embroidered kurta fabric<br />Mustard yellow bottom fabric<br />Mustard yellow dupatta;This beautifully designed unstitched dress material will add to your style quotient. Once stitched, wear it with a pair of heels and minimal make up for added grace.;Top fabric: cotton<br />Bottom fabric: cotton<br />Dupatta: naznin<br />Dry-clean;Kurta fabric length: 2.5 metres<br />Bottom fabric length: 2.5 metres<br />Dupatta length: 2.3 metres;;beezal Black & Mustard Yellow Embroidered Unstitched Dress Material;beezal;zerotype;;Summer;Onhold Sample Requested 17-05-2017;No
1814101;MF55D-Green-1814101;Dress Material with Dupatta;QC Reject;Dress Material;beezal;Adults-Women;Women;Green;;;Fashion;Ethnic;2017;Onesize,BZALDRMT00000048;2299.00;Green unstitched dress material<br />Green printed kurta fabric with embroidered and embellished detail<br />Green bottom fabric<br />Green dupatta, has taping along the border;Spruce up your ethnic collection this season with this stylish unstitched dress material. Once stitched, team this set with drop earrings and a pair of ethnic flats to complete the look.;Kurta fabric: Chanderi silk<br />Bottom fabric: Polyester<br />Dupatta fabric: Naznin<br />Dry-clean;Kurta fabric length: 3.4 metres<br />Bottom fabric length: 3 metres<br />Dupatta length: 2.3 metres;;beezal Green Chanderi Silk Unstitched Dress Material;beezal;zerotype;;Summer;Onhold Sample Requested 17-05-2017;No
1814070;MF17D-Beige and Orange-1814070;Dress Material with Dupatta;QC Reject;Dress Material;beezal;Adults-Women;Women;Beige;Orange;;Fashion;Ethnic;2017;Onesize,BZALDRMT00000017;2799.00;Beige and orange unstitched dress material<br />Beige embroidered kurta fabric<br />Orange bottom fabric<br />Orange dupatta;Your ethnic collection will be enhanced with this dress material from beezal. Once stitched, team it with heels for a great look.;Kurta fabric: cotton<br />Botton fabric: cotton<br />Dupatta fabric: chiffon<br />Dry-clean;Kurta fabric length: 3.4 metres<br />Bottom fabric length: 3 metres<br />Dupatta length: 2.3 metres;;beezal Beige & Orange Cotton Embroidered Unstitched Dress Material;beezal;zerotype;;Summer;Onhold Sample Requested 17-05-2017;No
1814056;MF3D-Green-1814056;Dress Material with Dupatta;QC Reject;Dress Material;beezal;Adults-Women;Women;Beige;Beige;Beige;Fashion;Casual;2017;Onesize,BZALDRMT00000003;2799.00;Cotton;;;;;a;;zerotype;;Summer;Onhold Sample Requested 17-05-2017;No
1814054;MF1D-Beige and Pink-1814054;Dress Material with Dupatta;QC Reject;Dress Material;beezal;Adults-Women;Women;Beige;Pink;;Fashion;Ethnic;2017;Onesize,BZALDRMT00000001;2799.00;Beige and pink unstitched dress material<br />Beige embroidered kurta fabric<br />Pink bottom fabric<br />Pink dupatta;Your ethnic collection will be enhanced with this dress material from beezal. Once stitched, team it with heels for a great look.;Kurta fabric: cotton<br />Botton fabric: cotton<br />Dupatta fabric: chiffon<br />Dry-clean;Kurta fabric length: 3.4 metres<br />Bottom fabric length: 3 metres<br />Dupatta length: 2.3 metres;;beezal Beige & Pink Cotton Embroidered Unstitched Dress Material;beezal;zerotype;;Summer;Onhold Sample Requested 17-05-2017;No
1785796;1855398004-Light Blue Denim-1785796;JI BEN RY 996 IN;Warehouse Investigation;Jeans;Jack & Jones;Adults-Men;Men;Blue;;;Fashion;Casual;2017;28/32,JAJOJENS00006756,30/32,JAJOJENS00006757,32/34,JAJOJENS00006758,34/34,JAJOJENS00006759,36/34,JAJOJENS00006760,38/34,JAJOJENS00006761;4499.00;<a href='/blue?src=pd' class='seolink'>Blue</a> light wash 5-pocket low-rise <a href='/jeans?src=pd' class='seolink'>jeans</a>, mildly distressed with light fade, has a button and zip closure, whiskers and chevrons, waistband with belt loops;Treat yourself to a new pair of Jack & Jones skinny-fit jeans and reap the benefits. Dress them down with a trendy T-shirt and some sneakers for a laid-back date night.;98% cotton, 2% elastane<br />Machine-wash;Skinny fit, low-rise<br />The model (height 5'11") is wearing a size 32;;Jack & Jones Men Blue Skinny Fit Low-Rise Ben Mildly Distressed Jeans;Jack & Jones,NEMA0437,vacation-store-men-look7,vacation-store-men-look8,vacation-store-men-look9,vacation-store-men-look10,tn-icy-blue-denims,vacation-store-men-all-look,JJ-Distressed-Denims,best-of-ss17-mens,mcd-bottoms-men-518830,JIT,bfg-event-apr,ftod-bfg,mens-summer-denim,apr12-super-hour,ss17-jeans-jj,men-Jeans-ss17-JNJ,new-season-styles-apr13,summer-style-apr,jack-and-jones-ss17,jj-denim-studio,jj-coupon-20,jj-grat-1,top-picks-menswear,mantastic-jeans,apr15-hh,myntra-rupay,price-surge,brand-out-loud-jeans,washed-to-perfection-jeans,brand-out-loud-shorts,washed-to-perfection-shorts2,stripacular-shorts,jj-bestsellers,extra20-ccmay,crush24-ccmay,rs300off-ccmay,new-season30-ccmay,super-hour-ccmay,men-offer-may05,coupon-offer-may,extra400-may9,super-hour-may9,denim-fest-ftod,rs300off-1105,big10-lucky10,big10-rs501off,myntra-icici-offer,big10-350off,big10-super-hour25,jack-and-jones-ss17-40;zerotype;;Spring;jack-and-jones-ss17-40;No
1781371;HRX-SS17-MK-8157C-A-BERING SEA-1781371;MEN TRACKPANT;Draft;Track Pants;HRX by Hrithik Roshan;Adults-Men;Men;;;;Fashion;;2017;28,HBHRTRPT00002097,30,HBHRTRPT00002098,32,HBHRTRPT00002099,34,HBHRTRPT00002100;1399.00;;;;;;;;zerotype;;Summer;;No
1781370;HRX-SS17-MK-8157B-A-ARONA-1781370;MEN TRACKPANT;Draft;Track Pants;HRX by Hrithik Roshan;Adults-Men;Men;;;;Fashion;;2017;28,HBHRTRPT00002093,30,HBHRTRPT00002094,32,HBHRTRPT00002095,34,HBHRTRPT00002096;1399.00;;;;;;;;zerotype;;Summer;;No
1781369;HRX-SS17-MK-8157A-A-LYONS BLUE-1781369;MEN TRACKPANT;Draft;Track Pants;HRX by Hrithik Roshan;Adults-Men;Men;;;;Fashion;;2017;28,HBHRTRPT00002089,30,HBHRTRPT00002090,32,HBHRTRPT00002091,34,HBHRTRPT00002092;1399.00;;;;;;;;zerotype;;Summer;;No
1781156;S17JAMCK112B-BLACK-1781156;OVER JACKET KURTA;QC Reject;Kurta Sets;IMARA;Adults-Women;Women;;;;Fashion;;2017;S,IMRAKASS00000241,M,IMRAKASS00000242,L,IMRAKASS00000243,XL,IMRAKASS00000244,XXL,IMRAKASS00000245;2799.00;;;;;;;ethnic-ss17,IMARA-SS17RANGE-INDIE,IMARA-SS17RANGE-FULL;zerotype;;Spring;Onhold Sample Requested 17-05-2017;No
1768918;157124-HEATHERGREY/NAVY-1768918;Forever 21HEATHERGREY/NAVYTshirts;Draft;Tshirts;FOREVER 21;Adults-Men;Men;;;;Fashion;;2017;4/XS,FRTOTSHT00000719,16/S,FRTOTSHT00000720,6/M,FRTOTSHT00000721,4/L,FRTOTSHT00002775,5/XL,FRTOTSHT00002776;1049.00;<p>Contents:60% COTTON, 40% POLYESTER, Lining:, Other:</p>;;;;;;ndd-mumbai,big10-ftod;zerotype;;Spring;big10-ftod;No
1768796;150130-NAVY/CREAM-1768796;Forever21NAVY/CREAMShirts;QC Reject;Shirts;FOREVER 21;Adults-Men;Men;;;;Fashion;;2017;2/XS,FRTOSHRT00002312,4/S,FRTOSHRT00002313,6/M,FRTOSHRT00002314,4/L,FRTOSHRT00002315,2/XL,FRTOSHRT00002316;1399.00;<p>Contents:100% COTTON, Lining:, Other:</p>;;;;;;ndd-mumbai,big10-ftod;zerotype;;Spring;Onhold Sample Requested 17-05-2017;No
1768410;PCKA00507-B9-Blue-1768410;H/S SIGNATURE POLO WITH RIB TIPPING;Draft;Tshirts;Park Avenue;Adults-Men;Men;;;;Fashion;;2017;39,PKAVTSHT00001053,40,PKAVTSHT00001054,44,PKAVTSHT00001055,42,PKAVTSHT00001056;1399.00;<p>Cotton</p>;;;;;;;zerotype;;Spring;;No
1766122;AW16R07DRLC25_EMERALD_8-Green-1766122;AW16R07DRLC25;QC Reject;Dresses;AND;Adults-Women;Women;;;;Fashion;;2016;10,ANDDRSS00004485,12,ANDDRSS00004486,14,ANDDRSS00004487,16,ANDDRSS00004488,18,ANDDRSS00004489,8,ANDDRSS00004490;2599.00;<p>Polyester</p>;;;;;;;zerotype;;Summer;Onhold Sample Requested 17-05-2017;No
1711759;ETSS17MT007D-WINE / NAVY-1711759;Y/D ROUND NECK WITH CONTRAST RIB;Draft;Tshirts;ether;Adults-Men;Men;;;;Fashion;;2017;S,ETHRTSHT00002732,M,ETHRTSHT00002733,L,ETHRTSHT00002734,XL,ETHRTSHT00002735,XXL,ETHRTSHT00002736;599.00;;;;;;;ndd-gurgaon;zerotype;;Summer;ndd-gurgaon;No
1711569;MNHSS17ANCTEE-411A-Peach Pink/Electric Blue striper-1711569;Mens t-shirt;Active;Tshirts;Mast & Harbour;Adults-Men;Men;Pink;Navy Blue;;Fashion;Casual;2017;S,MTHBTSHT00007240,M,MTHBTSHT00007241,L,MTHBTSHT00007242,XL,MTHBTSHT00007243;899.00;<a href='/pink?src=pd' class='seolink'>Pink</a> and <a href='/blue?src=pd' class='seolink'>blue</a> striped T-shirt, has a polo collar, <a href='/short?src=pd' class='seolink'>short</a> sleeves;Pull over this snug tee to keep your style looking fresh. This pink and blue piece can be teamed with cuffed chinos and canvas shoes when you're meeting the guys for drinks.;100% cotton <br />Machine-wash;The model (height 6') is wearing a size M;;Mast & Harbour Men Pink Striped Polo Collar T-shirt;Mast & Harbour,ndd-gurgaon,may20-500off,big10-price-surge,may21-hh;zerotype;;Spring;may21-hh;No
1685269;1841513010-Cloud Dancer-1685269;JJPR MESSI SHIRT L/S IN;QC Reject;Shirts;Jack & Jones;Adults-Men;Men;;;;Fashion;;2016;XXL,JAJOSHRT00006891,M,JAJOSHRT00006892,L,JAJOSHRT00006893,XL,JAJOSHRT00006894,S,JAJOSHRT00006895;2499.00;<p>Linen</p>;;;;;;;zerotype;;Winter;Onhold Sample Requested 17-05-2017;No
1676012;1851820004-Blue denim-1676012;JI BEN FF 6353 IN;QC Reject;Jeans;Jack & Jones;Adults-Men;Men;;;;Fashion;;2016;28/32,JAJOJENS00006582,30/32,JAJOJENS00006583,32/34,JAJOJENS00006584,34/34,JAJOJENS00006585,36/34,JAJOJENS00006586,38/34,JAJOJENS00006587;4999.00;<p>Cotton</p>;;;;;;;zerotype;;Fall;Onhold Sample Requested 17-05-2017;No
1675999;1841522006-Cashmere Blue-1675999;JJPR PLUTO SHIRT L/S IN;QC Reject;Shirts;Jack & Jones;Adults-Men;Men;;;;Fashion;;2016;L,JAJOSHRT00006826,M,JAJOSHRT00006827,S,JAJOSHRT00006828,XL,JAJOSHRT00006829,XXL,JAJOSHRT00006830;2999.00;<p>Cotton</p>;;;;;;;zerotype;;Fall;Onhold Sample Requested 17-05-2017;No
1675956;1846396008-June Bug-1675956;JJOR SENSAI S/S POLO IN;QC Reject;Tshirts;Jack & Jones;Adults-Men;Men;;;;Fashion;;2016;L,JAJOTSHT00014937,M,JAJOTSHT00014938,S,JAJOTSHT00014939,XL,JAJOTSHT00014940,XXL,JAJOTSHT00014941;1499.00;<p>Cotton</p>;;;;;;jj-1299-store;zerotype;;Fall;jj-1299-store;No
1632132;PIM0002052REDXXL-RED-1632132;PIM0002052;QC Reject;Tshirts;Pepe Jeans;Adults-Men;Men;Pink;;;Fashion;Casual;2016;3XL,PEJETSHT00010083,L,PEJETSHT00010084,M,PEJETSHT00010085,S,PEJETSHT00010086,XL,PEJETSHT00010087,XXL,PEJETSHT00010088;1149.00;Dark pink printed T-shirt, has a round neck, short sleeves;Keep it hip and casual this season with this high-quality Pepe Jeans tee. A fashionable weekend outfit starts with this tee matched with chinos and your favourite pair of sunglasses to cast an effortlessly cool image.;100% cotton<br />Machine-wash;The model (height 6' and shoulders 18") is wearing a size M;;Pepe Jeans Men Pink Printed T-shirt;PTRA002 Pepe Jeans,pepe-indigo-essentials,pepe-aw16-all,happyhour-rs-off,ftod-eors,welcome-to-eors,eors-coupon-4jan,foryou15,HH12JAN17,bday-happy-hour;zerotype;;Winter;Onhold Sample Requested 17-05-2017;No
1626372;FBS01-BORDEAUX-1626372;FCU DOCTOR DOT  BXR;QC Reject;Boxers;FCUK;Adults-Men;Men;;;;Fashion;;2016;L,FCUKBOXR00000037,M,FCUKBOXR00000038,S,FCUKBOXR00000039,XL,FCUKBOXR00000040;749.00;<p>Cotton</p>;;;;;;ndd-mumbai;zerotype;;Winter;Onhold Sample Requested 17-05-2017;No
1622211;201679-BLACK/CREAM/MULTI-1622211;Forever 21BLACK/CREAM/MULTIShirts;QC Reject;Shirts;FOREVER 21;Adults-Women;Women;;;;Fashion;;2017;L,FRTOSHRT00001856,M,FRTOSHRT00001857,2/S,FRTOSHRT00003734;1399.00;<p>Contents:100% COTTON, Lining:, Other:</p>;;;;;;big10-ftod;zerotype;;Spring;Onhold Sample Requested 17-05-2017;No
1482558;RX12-0105-LAVSC-Lavendor Scent-1482558;BU-V Neck Sleep Tee-1's Lavendor Scent;QC Reject;Tshirts;Jockey;Adults-Women;Women;;;;Core;;2016;S,JOCKTSHT00000783,M,JOCKTSHT00000784,L,JOCKTSHT00000785,XL,JOCKTSHT00000786;399.00;<p>Cotton</p>;;;;;;;zerotype;;Fall;Onhold Sample Requested 17-05-2017;No
1481296;VOJN0947-Light Blue-1481296;VOJN0947;Draft;Jeans;Voi Jeans;Adults-Men;Men;;;;Fashion;;2016;28,VIJNJENS00000866,30,VIJNJENS00000867,32,VIJNJENS00000868,34,VIJNJENS00000869,36,VIJNJENS00000870,38,VIJNJENS00000871;3299.00;<p>Cotton</p>;;;;;;;zerotype;;Fall;;No
1454592;MNH-TR-MARINA-007A-Black-1454592;Marina;Active;Trousers;Mast & Harbour;Adults-Women;Women;Black;;;Fashion;Formal;2017;26,MTHBTRSR00004492,28,MTHBTRSR00004493,30,MTHBTRSR00004494,32,MTHBTRSR00004495,34,MTHBTRSR00004496;1499.00;Black <a href='/solid?src=pd' class='seolink'>solid</a> mid-rise <a href='/formal-trousers?src=pd' class='seolink'>formal trousers</a>, has a hook and bar closure, four pockets;Put an end to all your fashion emergencies with these versatile Mast & Harbour trousers. No matter the top or shoe, they'll go well with this solid black pair to craft the perfect, comfortable look for lunch.;100% cotton <br />Machine-wash;The model (height 5'8") is wearing a size 28;;Mast & Harbour Women Black Solid Formal Trousers;Mast & Harbour,may20-500off,big10-price-surge,may21-hh;zerotype;;Spring;may21-hh;No
1439774;KNKPATCHDIS05B-Vermillion Red-1439774;Patch It Up Tshirts Vermillion Red;Draft;Tshirts;Kook N Keech Disney;Adults-Men;Men;;;;Fashion;;2016;S,KNKDTSHT00002645,M,KNKDTSHT00002646,L,KNKDTSHT00002647,XL,KNKDTSHT00002648,XXL,KNKDTSHT00002649;649.00;<p>Patch It Up Tshirts Vermillion Red</p>;;;;;;;zerotype;;Winter;No comment entered;No
1423152;709216-8906027071639-1423152;KAYA ANTI-DANDRUFF SHAMPOO 200ML;Draft;Shampoo and Conditioner;Kaya Skin Clinic;Adults-Unisex;Unisex;;;;Core;;2016;200ml,KASCSPCR00000001;390.00;;;;;;;;zerotype;;Summer;;No
1408824;HRX-AW16-MW-3569-OLIVE-1408824;Stretchable Waist Chino;Inactive - PMM - Catalog;Trousers;HRX by Hrithik Roshan;Adults-Men;Men;Olive;;;Fashion;Casual;2016;28,HBHRTRSR00000374,30,HBHRTRSR00000375,32,HBHRTRSR00000376,34,HBHRTRSR00000377,36,HBHRTRSR00000378;2299.00;Olive green solid casual mid-rise chino trousers, has a zip fly and button closure, partially elasticated waistband;Isn't it time to see what a pair of classically-designed chinos from HRX by Hrithik Roshan would do for your style?  Paired with canvas sneakers and an untucked white shirt, this olive pair works well for a casual dinner date or outing with friends.;98% cotton, 2% elastane<br />Machine-wash;Regular fit <br />The model (height 6' and waist 32") is wearing a size 32;;HRX by Hrithik Roshan Olive Green Solid Chino Trousers;HRX by Hrithik Roshan,hrx-hbd-499-men,hrx-hbd-999-men,extra59-extra-50,extra-30-jan,buy1-40-buy2-50-jan,hrx-main-banner-50,hrx-hbd-banner-men,first-1000-extra30-jan17,flat40-extra40-jan17,ftod-Jan16,Jeans-and-trousers-men,jeans-and-trousers-men,jeans-and-trousers-mens,HH12JAN17,extra-40-jan,stylesforextra5-jan17,hrx-kaabil-desktop,budget-deal,cohort-customers,Extra-302728,vd-men-bottoms,gifting-v-day,dress-up-v-day,v-day-styles,hrx-banner-page,welcome-to-myntra-feb-new,bday-happy-hour,hrx-men-page,hrx-casual-wear-men1,weekend-coupon-offer,weekend-offer-styles,bday-return-gift,brandrush-5,wishlisters-wish10-feb25,extra30-lastday30,extra30-lastday30-feb26,coupon-offer-monday,buy2-60-thrill60,bday125-feb,payday-offer-0103,welcome-to-march,holi-basket-mar,balloon-blast,balloon-blast-500,holi2017-mar11,bfg-wanderlust-dubai-men,bfg-wanderlust-tokyo-men-519506,bfg-wanderlust-dubai-men-519508,bfg-wanderlust-men-destinationall,bfg-bollywood-ninties-men-520443,coupon-crush-bb,flat40-extra30-bb,min30-extra1000,gold22-bb,power500-bb,b3-20-power20,flat50-extra15-bb,flash-sale-bb21,apr15-hh,myntra-rupay,flat40-extra500-apr29,pp-extra25-off,price-surge,pp-extra1000-off,extra30-may02,extra15-0305,extra20-ccmay,extra30-ccmay,rs300off-ccmay,super-hour-ccmay,men-offer-may05,welcome-to-myntra-may,extra500-may6,coupon-offer-may,extra400-may9,welcome-to-myntra-may-big,big10-mse-hrx,big10-350off,big10-super-hour25;zerotype;;Fall;Image mismatch;No
1375431;8903338066910-Black-1375431;Men's Active Polo Tee;QC Reject;Tshirts;Wildcraft;Adults-Men;Men;;;;Fashion;;2016;L,WDCTTSHT00099374,XXL,WDCTTSHT00099375,S,WDCTTSHT00099376,M,WDCTTSHT00099377,XL,WDCTTSHT00099378;995.00;<p>100% Polyester</p>;;;;;;sports-outdoorall,never-settle;zerotype;;Spring;Onhold Sample Requested 17-05-2017;No
1304707;DBS-MAAY-056b-Mint Green-1304707;Salwar Suit;QC Reject;Kurta Sets;all about you;Adults-Women;Women;Green;;;Fashion;Ethnic;2016;S,AATUSASU00000161,M,AATUSASU00000162,L,AATUSASU00000163,XL,AATUSASU00000164;3499.00;Green Anarkali kurta with trousers<br />Green Anarkali kurta, has a round neck, short sleeves, button placket and tie-up detail on the back <br />Green trousers, has a partially elasticated waistband with a zip closure on the side<br />Disclaimer: The model is wearing a dupatta from our stylist’s collection, this set does not come with a dupatta;This trendy kurta set is an instant style boost. Complete your ethnic look by teaming it up with minimal add-ons and a pair of mojaris or heels.;Kurta: crepe<br />Bottom: polyester<br />Machine-wash cold;The model (height 5'8") is wearing a size S;;all about you from Deepika Padukone Green Anarkali Kurta with Trousers;all about you from Deepika Padukone,VARS0376,BRUN0384,aay-the-Muse,aay-the-thinker,aay-the-royalty,aay-salwar-suit-sis,all-about-you-ethnic-14jul,aay-the-romantic,aay-allwestern-july22,aay-ethnic8sep,aay-aw168sep,myntra-open-coupon-offer,aay-ethnic16nov,wedding-guest-her-trending-anarkali-ankle-length-kurtas,ef-mehendi,styles-for-flash-10,aay-partywearalldec16,aay-allnew30disdec16,brand-rush-dec,MFH-Indian-kurtasets,MFH-Indian-heritage,400off-15dec-16,eorsewjan-eveningwear,ftod-eors,aay-allethnicjan02,aay-all50jan02,aay-kurtas-sis,foryou20,foryou15,aay-ethnic2017,budget-deal,upto-40-extra-20,HH07FEB17,HH12JAN17,v-day-styles,vday-coupon-offer,v-day-best-sellers,welcome-to-myntra-feb-new,bday-happy-hour,coupon-crush-5,aay-kurtasets,aay-clearance-sale-40ethnic,weekend-coupon-offer,brandrush-4,coupon-offer-monday,welcome-to-march,happy-hour-mar19,march25-sun,extra50-apr1,hh-0104,swag-kurta-offer,apr12-super-hour,ftod-bb-apr20,high-street-women,extra400-may9,aay-kurtas21sep;zerotype;;Fall;Onhold Sample Requested 17-05-2017;No
444189;VML082-Lipstick-444189;Velvet Matte Lipstick;Draft;Lipstick;Colorbar;Adults-Women;Women;NA;;;Core;NA;2017;8gm,CLBRLPST00186;325.00;<p>NA</p>;<p>NA</p>;<p>NA</p>;<p>NA</p>;;NA;,womenwsbeauty,womenwsbeauty1;Lipstick;Colorbar;Spring;Season Tagging PC TO SS17-Jainesh;No
