Style ID;Vendor Article Number;Vendor Article Name;Active Status;Article type;Brand;Age Group;Gender;Base Colour;Colour1;Colour2;Fashion Type;Usage;Year;Size - SKU code pair;MRP;Style Description;Style Note;Materials and Care Description;Size and Fit Description;Size Chart Path;Product Display Name;Tags;Product Type;Classification Brand;Season;Comments;Upload Images
2392316;17978-BEIGE-2392316;Shree Women Beige Silk Solid Kurta;Active;Kurtas;Shree;Adults-Women;Women;Beige;;;Core;Ethnic;2018;S,ShriKRTA00024025,M,ShriKRTA00024026,L,ShriKRTA00024027,XL,ShriKRTA00024028,XXL,ShriKRTA00024029;999.00;Beige solid straight kurta, has a mandarin collar, short button placket, three-quarter sleeves, straight hem, side slits;This breathable and stylish kurta from Shree is a must-have item for any wardrobe. Dress up for your next family event by pairing this beige piece with Kolhapuris and simple jewellery.;Jute and silk blend<br />Hand-wash;The model (height 5'8") is wearing a size S;;Shree Women Beige Solid Straight Kurta;Shree,AIM1107;zerotype;;Summer;;No
2391174;SMJ-328-Indigo-2391174;Men Denim Bottom;Draft;Jeans;HERE&NOW;Adults-Men;Men;NA;;;Fashion;;2018;28,HENWJENS00006069,30,HENWJENS00006070,32,HENWJENS00006071,34,HENWJENS00006072,36,HENWJENS00006073;2299.00;;;<p>98.5% Cotton 1.5% spandex</p>;;;;;zerotype;;Summer;;No
2390144;9901131-RED-2390144;FFLMIKE;Draft;Tshirts;Splash;Adults-Men;Men;;;;Fashion;;2018;S,SPLSTSHT00001951,M,SPLSTSHT00001952,L,SPLSTSHT00001953,XL,SPLSTSHT00001954;399.00;;;<p>Cotton_100%</p>;;;;;zerotype;;Spring;;No
2390116;6029919-BLUE-2390116;11127;Draft;Tshirts;Splash;Adults-Men;Men;;;;Fashion;;2018;S,SPLSTSHT00001839,M,SPLSTSHT00001840,L,SPLSTSHT00001841,XL,SPLSTSHT00001842;1299.00;;;<p>Cotton_60% Polyester_40%</p>;;;;;zerotype;;Spring;;No
2390091;9900935-BROWN-2390091;SP18YOUTHCHI;Draft;Trousers;Splash;Adults-Men;Men;;;;Fashion;;2018;28,SPLSTRSR00001341,30,SPLSTRSR00001342,32,SPLSTRSR00001343,34,SPLSTRSR00001344,36,SPLSTRSR00001345,38,SPLSTRSR00001346;1699.00;;;<p>Cotton_97% Elastane_3%</p>;;;;;zerotype;;Spring;;No
2390088;9900933-GREY-2390088;SP18YOUTHCHI;Draft;Trousers;Splash;Adults-Men;Men;;;;Fashion;;2018;28,SPLSTRSR00001329,30,SPLSTRSR00001330,32,SPLSTRSR00001331,34,SPLSTRSR00001332,36,SPLSTRSR00001333,38,SPLSTRSR00001334;1699.00;;;<p>Cotton_97% Elastane_3%</p>;;;;;zerotype;;Spring;;No
2388849;CMAW17KOE339-BLACK-2388849;LADIES DRESS;Draft;Dresses;Colour Me by Melange;Adults-Women;Women;Black;;;Fashion;;2018;XS,CMBMDRSS00000155,S,CMBMDRSS00000156,M,CMBMDRSS00000157,L,CMBMDRSS00000158,XL,CMBMDRSS00000159;1399.00;;;<p>Hand wash @ 30'c</p>;;;;;zerotype;;Summer;;No
2388844;CMAW17ARC292-TURQUOISE-2388844;LADIES PALAZZO;Draft;Palazzos;Colour Me by Melange;Adults-Women;Women;Turquoise Blue;;;Fashion;;2018;S,CMBMPLZS00000076,M,CMBMPLZS00000077,L,CMBMPLZS00000078,XL,CMBMPLZS00000079,XXL,CMBMPLZS00000080;1299.00;;;<p>Hand wash @ 30'c</p>;;;;;zerotype;;Summer;;No
2388843;CMAW17PB008-BEIGE-2388843;LADIES PANTS;Draft;Trousers;Colour Me by Melange;Adults-Women;Women;Beige;;;Fashion;;2018;S,CMBMTRSR00000016,M,CMBMTRSR00000017,L,CMBMTRSR00000018,XL,CMBMTRSR00000019,XXL,CMBMTRSR00000020;799.00;;;<p>Hand wash @ 30'c</p>;;;;;zerotype;;Summer;;No
2388842;CMAW17MAH-091-MULTI-2388842;LADIES TOPS;Draft;Tops;Colour Me by Melange;Adults-Women;Women;Multi;;;Fashion;;2018;XS,CMBMTOPS00000251,S,CMBMTOPS00000252,M,CMBMTOPS00000253,L,CMBMTOPS00000254,XL,CMBMTOPS00000255;1399.00;;;<p>Machine wash @ 40'c</p>;;;;;zerotype;;Summer;;No
2388841;CMAW17PB315-RUST-2388841;LADIES KURTA;Draft;Kurtas;Colour Me by Melange;Adults-Women;Women;Rust;;;Fashion;;2018;XS,CMBMKRTA00000140,S,CMBMKRTA00000141,M,CMBMKRTA00000142,L,CMBMKRTA00000143,XL,CMBMKRTA00000144;1099.00;;;<p>Machine wash @ 40'c</p>;;;;;zerotype;;Summer;;No
2388840;CMAW17KOE-062R-NAVY-2388840;LADIES KURTA;Draft;Kurtas;Colour Me by Melange;Adults-Women;Women;Navy Blue;;;Fashion;;2018;XS,CMBMKRTA00000135,S,CMBMKRTA00000136,M,CMBMKRTA00000137,L,CMBMKRTA00000138,XL,CMBMKRTA00000139;799.00;;;<p>Hand wash @ 30'c</p>;;;;;zerotype;;Summer;;No
2388839;CMAW17DHIR-016A-WINE-2388839;LADIES TUNIC;Draft;Kurtas;Colour Me by Melange;Adults-Women;Women;Red;;;Fashion;;2018;XS,CMBMKRTA00000130,S,CMBMKRTA00000131,M,CMBMKRTA00000132,L,CMBMKRTA00000133,XL,CMBMKRTA00000134;1799.00;;;<p>Hand wash @ 30'c</p>;;;;;zerotype;;Summer;;No
2386103;1000875556005-CHARCOAL-2386103;CONVSS18031B, CHARCOAL, XXL;Draft;Shorts;Converse;Adults-Men;Men;Charcoal;;;Fashion;;2018;S,CNVRSHOR00000089,M,CNVRSHOR00000090,L,CNVRSHOR00000091,XL,CNVRSHOR00000092,XXL,CNVRSHOR00000093;1099.00;;;<p>Machine Wash</p>;;;;all-sports-styles-2017,sportsallstyles-2017,ss-18-sports;zerotype;;Spring;ss-18-sports;No
2386101;1000875522005-NAVY-2386101;CONVSS18031A, NAVY, XXL;Draft;Shorts;Converse;Adults-Men;Men;Navy Blue;;;Fashion;;2018;S,CNVRSHOR00000084,M,CNVRSHOR00000085,L,CNVRSHOR00000086,XL,CNVRSHOR00000087,XXL,CNVRSHOR00000088;1099.00;;;<p>Machine Wash</p>;;;;all-sports-styles-2017,sportsallstyles-2017,ss-18-sports;zerotype;;Spring;ss-18-sports;No
2386100;830031060005-NAVY-2386100;CONVAW17117-A02, NAVY, XXL;Draft;Shorts;Converse;Adults-Men;Men;Navy Blue;;;Fashion;;2018;S,CNVRSHOR00000079,M,CNVRSHOR00000080,L,CNVRSHOR00000081,XL,CNVRSHOR00000082,XXL,CNVRSHOR00000083;1299.00;;;<p>Machine Wash</p>;;;;all-sports-styles-2017,sportsallstyles-2017,ss-18-sports;zerotype;;Spring;ss-18-sports;No
2386099;830030886004-OLIVE-2386099;CONVAW17117-A01, DARK OLIVE, XL;Draft;Shorts;Converse;Adults-Men;Men;Olive;;;Fashion;;2018;S,CNVRSHOR00000075,M,CNVRSHOR00000076,L,CNVRSHOR00000077,XL,CNVRSHOR00000078;1299.00;;;<p>Machine Wash</p>;;;;all-sports-styles-2017,sportsallstyles-2017,ss-18-sports;zerotype;;Spring;ss-18-sports;No
2384557;6233G7-LIGHT GREEN MEL-2384557;HST + P;Draft;Night suits;Sweet Dreams;Kids-Girls;Girls;Green;Blue;;Fashion;Casual;2017;14YR,STDMNTST00002878,16YR,STDMNTST00002879;999.00;;;<p>T/B-COTTON RICH</p>;;;;;zerotype;;Winter;;No
2384554;6164A7-WHITE-2384554;HST + C;Draft;Night suits;Sweet Dreams;Kids-Girls;Girls;White;Multi;;Fashion;Casual;2017;14YR,STDMNTST00002872,16YR,STDMNTST00002873;1099.00;;;<p>T-COTTON RICH/B-COTTON MODAL</p>;;;;;zerotype;;Winter;;No
2384538;6114G7-RIBBON RED-2384538;FST + P;Draft;Night suits;Sweet Dreams;Kids-Girls;Girls;Red;Multi;;Fashion;Casual;2017;10YR,STDMNTST00002840,12YR,STDMNTST00002841;1349.00;;;<p>T-COTTON RICH / B-COTTON MODAL</p>;;;;;zerotype;;Winter;;No
2384528;6104A7CO-RED VELVET-2384528;3 PCS SET;Draft;Night suits;Sweet Dreams;Kids-Girls;Girls;Red;Maroon;;Fashion;Casual;2017;14YR,STDMNTST00002816,16YR,STDMNTST00002817;1199.00;;;<p>T-COTTON RICH/B-COTTON MODAL</p>;;;;;zerotype;;Winter;;No
2364636;1000740006003-LIGHTPINK-2364636;LCGTS-3172-732-B-FS-GT-, 6-7, LIGHT PINK;Draft;Tshirts;Lee Cooper;Kids-Girls;Girls;NA;;;Fashion;;2017;3-4Y,LEECTSHT00005097,5-6Y,LEECTSHT00005098,6-7Y,LEECTSHT00005099;599.00;;;<p>Machine Wash Cold, Wash Dark Colors Separately,Do Not Bleach, Tumble Dry Low, Do Not Dry In Direct Sunlight, Flat Dry,Do not wring reshape, Warm Iron(Do Not Iron On Decoration)</p>;;;;;zerotype;;Winter;;No
2334768;CTN DAILIES HIP-ASSORTED-2334768;CTN DAILIES HIP;Draft;Briefs;Lovable;Adults-Women;Women;Multi;;;Core;Casual;2017;S,LVBLBREF00000355;345.00;<p>100% Compact Cotton Fresh Wear after wear, Reinforced stiches at stress points, Contrast waist elastic with signature logo. Available in wide range of trendy colours</p>;<p>3 pcs pack</p>;<p>hand wash</p>;<p>Full rear coverage</p>;;;new-brands-wi;zerotype;;Summer;new-brands-wi;No
2330001;SPICE-28-DENIM-2330001;SPICE-28;Draft;Bra;Lovable;Adults-Women;Women;Blue;;;Core;Casual;2017;32B,LVBLBRAA00002818,32C,LVBLBRAA00002819,32D,LVBLBRAA00002820,34B,LVBLBRAA00002821,34C,LVBLBRAA00002822,34D,LVBLBRAA00002823,36B,LVBLBRAA00002824,36C,LVBLBRAA00002825,38B,LVBLBRAA00002826;649.00;<p>Lightly Padded Tshirt Bra For All Day Comfort</p>;;<p>95%cotton+5%spendex</p>;;;;new-brands-wi;zerotype;;Fall;new-brands-wi;No
2329980;INVISI SEAMLESS*-BLACK-2329980;INVISI SEAMLESS*;Draft;Bra;Lovable;Adults-Women;Women;Black;;;Core;Casual;2017;32B,LVBLBRAA00002681,34B,LVBLBRAA00002682,34C,LVBLBRAA00002683,36B,LVBLBRAA00002684,36C,LVBLBRAA00002685,38B,LVBLBRAA00002686;399.00;<p>India's first Ultra-Thin Padded bra with breathable technology. Full coverage cups to contain bust totally, Enhanced contouring neckline with beautiful trim lace. Detachable straps providing advantage to go cross-back or replace with your favorite straps matching your outerwear.</p>;;<p>97% cotton & 3% spandex</p>;;;;new-brands-wi;zerotype;;Fall;new-brands-wi;No
2329972;CONFI-48-SKIN-2329972;CONFI-48;Draft;Bra;Lovable;Adults-Women;Women;Beige;;;Core;Casual;2017;30B,LVBLBRAA00002646,30C,LVBLBRAA00002647,32B,LVBLBRAA00002648,32C,LVBLBRAA00002649,34B,LVBLBRAA00002650,34C,LVBLBRAA00002651,36B,LVBLBRAA00002652;699.00;<p>Lightly Padded Tshirt Bra For All Day Comfort</p>;;<p>93%cotton + 7%spendex</p>;;;;new-brands-wi;zerotype;;Fall;new-brands-wi;No
2329968;CONFI-47-MINT-2329968;CONFI-47;Draft;Bra;Lovable;Adults-Women;Women;Green;;;Core;Casual;2017;32B,LVBLBRAA00002614,32C,LVBLBRAA00002615,32D,LVBLBRAA00002616,34B,LVBLBRAA00002617,34C,LVBLBRAA00002618,34D,LVBLBRAA00002619,36B,LVBLBRAA00002620,36C,LVBLBRAA00002621,38B,LVBLBRAA00002622;849.00;<p>Lightly Padded Tshirt Bra For All Day Comfort</p>;;<p>81.2%nylon +18.8% spendex</p>;;;;new-brands-wi;zerotype;;Fall;new-brands-wi;No
2329956;CONFI-46-SKIN-2329956;CONFI-46;Draft;Bra;Lovable;Adults-Women;Women;Beige;;;Core;Casual;2017;32B,LVBLBRAA00002581,34B,LVBLBRAA00002582,34C,LVBLBRAA00002583,36B,LVBLBRAA00002584,36C,LVBLBRAA00002585,38B,LVBLBRAA00002586;869.00;<p>Lightly Padded Tshirt Bra For All Day Comfort</p>;;<p>93%cotton + 7%spendex</p>;;;;new-brands-wi;zerotype;;Fall;new-brands-wi;No
2329952;CONFI-46-BLACK-2329952;CONFI-46;Draft;Bra;Lovable;Adults-Women;Women;Black;;;Core;Casual;2017;32B,LVBLBRAA00002575,34B,LVBLBRAA00002576,34C,LVBLBRAA00002577,36B,LVBLBRAA00002578,36C,LVBLBRAA00002579,38B,LVBLBRAA00002580;869.00;<p>Lightly Padded Tshirt Bra For All Day Comfort</p>;;<p>93%cotton + 7%spendex</p>;;;;new-brands-wi;zerotype;;Fall;new-brands-wi;No
2329946;CONFI-43-CORAL PK-2329946;CONFI-43;Draft;Bra;Lovable;Adults-Women;Women;Coral;;;Core;Casual;2017;32B,LVBLBRAA00002541,34B,LVBLBRAA00002542,34C,LVBLBRAA00002543,36B,LVBLBRAA00002544;765.00;<p>Lightly Padded Tshirt Bra For All Day Comfort</p>;;<p>81.2%nylon +18.8% spendex</p>;;;;new-brands-wi;zerotype;;Fall;new-brands-wi;No
2329569;HRX-PLWJ-007-Indigo-2329569;Indigo Jeans;Draft;Jeans;HRX by Hrithik Roshan;Adults-Women;Women;NA;;;Fashion;;2017;26,HBHRJENS00003994,28,HBHRJENS00003995,30,HBHRJENS00003996,32,HBHRJENS00003997,34,HBHRJENS00003998,36,HBHRJENS00003999;2299.00;;;;;;;;zerotype;;Fall;;No
2329566;HRX-PLWJ-006-Indigo-2329566;Indigo Jeans;Draft;Jeans;HRX by Hrithik Roshan;Adults-Women;Women;NA;;;Fashion;;2017;26,HBHRJENS00003988,28,HBHRJENS00003989,30,HBHRJENS00003990,32,HBHRJENS00003991,34,HBHRJENS00003992,36,HBHRJENS00003993;2099.00;;;;;;;;zerotype;;Fall;;No
2329563;HRX-PLWJ-005-Indigo-2329563;Indigo Jeans;Draft;Jeans;HRX by Hrithik Roshan;Adults-Women;Women;NA;;;Fashion;;2017;26,HBHRJENS00003982,28,HBHRJENS00003983,30,HBHRJENS00003984,32,HBHRJENS00003985,34,HBHRJENS00003986,36,HBHRJENS00003987;2099.00;;;;;;;;zerotype;;Fall;;No
2329556;HRX-PLWJ-003-Indigo-2329556;Indigo Jeans;Draft;Jeans;HRX by Hrithik Roshan;Adults-Women;Women;NA;;;Fashion;;2017;26,HBHRJENS00003970,28,HBHRJENS00003971,30,HBHRJENS00003972,32,HBHRJENS00003973,34,HBHRJENS00003974,36,HBHRJENS00003975;2099.00;;;;;;;;zerotype;;Fall;;No
2303948;9900978-GREY-2303948;S18SWWOVENJ;Draft;Trousers;Splash;Adults-Women;Women;;;;Fashion;;2017;24,SPLSTRSR00001195,26,SPLSTRSR00001196,28,SPLSTRSR00001197,29,SPLSTRSR00001198,30,SPLSTRSR00001199,31,SPLSTRSR00001200,32,SPLSTRSR00001201,34,SPLSTRSR00001202;999.00;;;<p>Polyester_68% Viscose_30% Elastane_2%</p>;;;;;zerotype;;Spring;;No
2303937;9900931-NAVY-2303937;SP18BWPUSHUP;Draft;Trousers;Splash;Adults-Women;Women;;;;Fashion;;2017;24,SPLSTRSR00001107,26,SPLSTRSR00001108,28,SPLSTRSR00001109,29,SPLSTRSR00001110,30,SPLSTRSR00001111,31,SPLSTRSR00001112,32,SPLSTRSR00001113,34,SPLSTRSR00001114;1299.00;;;<p>Cotton_97% Elastane_3%</p>;;;;;zerotype;;Spring;;No
2303894;9103316-GREY-2303894;S18CHLB13;Draft;Trousers;Splash;Adults-Women;Women;;;;Fashion;;2017;6,SPLSTRSR00000826,8,SPLSTRSR00000827,10,SPLSTRSR00000828,12,SPLSTRSR00000829,14,SPLSTRSR00000830;999.00;;;<p>Cotton_60% Polyester_35% Elastane/spandex_35%</p>;;;;;zerotype;;Spring;;No
2303761;9901143-PINK-2303761;FFL613;Draft;Sweaters;Splash;Adults-Men;Men;;;;Fashion;;2017;S,SPLSSWTR00000527,M,SPLSSWTR00000528,L,SPLSSWTR00000529,XL,SPLSSWTR00000530;999.00;;;<p>Cotton_60% Polyester_40%</p>;;;;;zerotype;;Spring;;No
2303760;9901142-BEIGE-2303760;FFL613;Draft;Sweaters;Splash;Adults-Men;Men;;;;Fashion;;2017;S,SPLSSWTR00000523,M,SPLSSWTR00000524,L,SPLSSWTR00000525,XL,SPLSSWTR00000526;999.00;;;<p>Cotton_60% Polyester_40%</p>;;;;;zerotype;;Spring;;No
2301574;9103168-GREY-2301574;S18MCORE33;Draft;Tshirts;Splash;Adults-Men;Men;Grey;;;Fashion;;2017;M,SPLSTSHT00001355,L,SPLSTSHT00001356,XL,SPLSTSHT00001357,S,SPLSTSHT00001358;599.00;;;<p>Cotton_50% Polyester_50%</p>;;;;;zerotype;;Spring;;No
2292416;8902986887564-Assorted-2292416;JCMWSHFOL0814;Active;Shirts;John Players;Adults-Men;Men;Grey;;;Fashion;Casual;2017;39,JOPLSHRT00020205,40,JOPLSHRT00020206,42,JOPLSHRT00020207,44,JOPLSHRT00020208,46,JOPLSHRT00020209;1399.00;<a href='/grey?src=pd' class='seolink'>Grey</a> <a href='/solid?src=pd' class='seolink'>solid</a> <a href='/casual?src=pd' class='seolink'>casual</a> shirt, has a <a href='/spread?src=pd' class='seolink'>spread</a> collar, button placket, <a href='/1?src=pd' class='seolink'>1</a> pocket, long sleeves, curved hem;This solid shirt from John Players will make you look your casual best.  This grey shirt pairs well with your favourite blazer and slim black jeans for a breezy weekend hangout with friends.;Cotton <br> Machine-wash;Trim Fit<br />The model (height 6') is wearing a size 40;;John Players Men Grey Trim Fit Solid Casual Shirt;John Players;zerotype;;Summer;;No
2292379;8902986830171-Assorted-2292379;JCMWSHFOL0756;Active;Shirts;Arrow;Adults-Men;Men;Blue;;;Fashion;Formal;2017;39,JOPLSHRT00020049,40,JOPLSHRT00020050,42,JOPLSHRT00020051,44,JOPLSHRT00020052;1299.00;<a href='/blue?src=pd' class='seolink'>Blue</a> <a href='/formal?src=pd' class='seolink'>formal</a> shirt, has a <a href='/spread?src=pd' class='seolink'>spread</a> collar, button placket, <a href='/1?src=pd' class='seolink'>1</a> pocket, long sleeves, straight hem;This in-season shirt from Arrow is a must-have for any wardrobe.  This blue piece can be styled with cuffed chinos, easy loafers, and cool blazer for an upscale work outfit.;Cotton and polyester blend<br />Machine-wash;Trim fit<br />The model (height 6') is wearing a size 40;;Arrow Men Blue Trim Fit Solid Formal Shirt;Arrow;zerotype;;Summer;;No
2292376;8902986830027-Assorted-2292376;JCMWSHFOL0753;Active;Shirts;Arrow;Adults-Men;Men;Blue;;;Fashion;Formal;2017;44,JOPLSHRT00020037,42,JOPLSHRT00020038,40,JOPLSHRT00020039,39,JOPLSHRT00020040;1299.00;<a href='/blue?src=pd' class='seolink'>Blue</a> <a href='/formal?src=pd' class='seolink'>formal</a> shirt, has a <a href='/spread?src=pd' class='seolink'>spread</a> collar, button placket, <a href='/1?src=pd' class='seolink'>1</a> pocket, long sleeves, straight hem;Add this cool Arrow shirt to your formal staples and keep it classy all year long.  Team this blue shirt with fitted trousers and a trendy blazer when you want to impress your dinner date or attend a formal event.;Cotton and polyester blend<br />Machine-wash;Trim Fit<br />The model (height 6') is wearing a size 40;;Arrow Men Blue Trim Fit Formal Shirt;Arrow;zerotype;;Summer;;No
2292326;8907482020217-Glacier Gray-2292326;JCMCTSS170016;Active;Tshirts;John Players;Adults-Men;Men;Grey Melange;;;Fashion;Casual;2017;L,JOPLTSHT00004634,M,JOPLTSHT00004635,S,JOPLTSHT00004636,XL,JOPLTSHT00004637;1099.00;<a href='/grey?src=pd' class='seolink'>Grey</a> melange <a href='/solid?src=pd' class='seolink'>solid</a> T-shirt, has a mandarin collar, <a href='/short?src=pd' class='seolink'>short</a> sleeves;Keep it cool and casual this season with this high-quality John Players tee.  Catch a movie or go shopping in this grey melange piece teamed with everyday jeans and casual slip-on sneakers.;Cotton<br />Machine-wash cold;The model (height 6') is wearing a size M;;John Players Men Grey Melange Solid Mandarin Collar T-shirt;John Players,ALDN3940;zerotype;;Summer;;No
2292306;8907349080279-Glacier Gray-2292306;ZCMWJNS170132;Active;Jeans;John Players;Adults-Men;Men;Grey;;;Fashion;Casual;2017;30,JOPLJENS00006467,32,JOPLJENS00006468,34,JOPLJENS00006469,36,JOPLJENS00006470,38,JOPLJENS00006471;1599.00;<a href='/grey?src=pd' class='seolink'>Grey</a> <a href='/medium?src=pd' class='seolink'>medium</a> wash 5-pocket mid-rise <a href='/jeans?src=pd' class='seolink'>jeans</a>, clean look with no fade, has a button and zip closure, waistband with belt loops;You're sure to love the long-lasting comfort and style of these John Players slim jeans.  Dress yours up with a pair of easy loafers and a high-quality shirt when you have a work event.;100% cotton<br />Machine-wash;Slim fit<br> The model (height 6') is wearing a size 32;;John Players Men Grey Slim Fit Mid-Rise Clean Look Jeans;John Players;zerotype;;Summer;;No
2289723;1970711010-kalamata-2289723;onlHANNAH LS KNIT  IN;Inactive - PMM - Catalog;Sweaters;ONLY;Adults-Women;Women;Olive;;;Fashion;Casual;2017;L,ONLYTOPS00010779,XS,ONLYTOPS00010780,M,ONLYTOPS00010781,XL,ONLYTOPS00010782,S,ONLYTOPS00010783;2699.00;Olive green striped pullover, has a round neck, long sleeves, ribbed hem;Look your absolute best in a super-stylish sweater by ONLY.  You can style this olive piece with slim jeans and minimalistic silver jewellery for your next date night.;Acrylic <br> Machine-wash;The model (height 5'8") is wearing a size S;;ONLY Women Olive Green Striped Pullover;ONLY,welcome-to-myntra-oct17,eorsdec17-ftod,coupon-eorsdec17,coupon-offer-dec2017,combo-buy2-dec27;zerotype;;Winter;Image Mismatch;No
2221448;6113G7-LIGHT PINK MEL-2221448;FULL SLEEVES TOP+PYJAMA;Draft;Night suits;Sweet Dreams;Kids-Girls;Girls;;;;Fashion;Casual;2017;10 YR,STDMNTST00002503,12 YR,STDMNTST00002504;1349.00;;;<p>T/B-COTTON RICH</p>;;;;;zerotype;;Winter;;No
2215280;VERHOVINA-01-MOSS/ BLACK-2215280;Mens Doctor Sleeve Tee;Draft;Tshirts;Roadster;Adults-Men;Men;;;;Fashion;;2017;S,RDSTTSHT00041302,M,RDSTTSHT00041303,L,RDSTTSHT00041304,XL,RDSTTSHT00041305;799.00;;;;;;;;zerotype;;Fall;;No
2211580;MFB-PN-WTH-5712L-White-2211580;DressBerry Watches;Draft;Watches;DressBerry;Adults-Women;Women;;;;Fashion;;2017;Onesize,DSBYWTCH00000526;3499.00;;;;;;;;zerotype;;Fall;;No
2162167;INV-AW17S169-Green-2162167;Invictus Slim Fit Shirt;Draft;Shirts;INVICTUS;Adults-Men;Men;;;;Fashion;;2017;38,TILCSHRT00006282,39,TILCSHRT00006283,40,TILCSHRT00006284,42,TILCSHRT00006285,44,TILCSHRT00006286;1999.00;;;;;;;workwear-styles;zerotype;;Spring;workwear-styles;No
2162165;INV-AW17S154-Orange-2162165;Invictus Slim Fit Shirt;PreActive;Shirts;INVICTUS;Adults-Men;Men;Coral;;;Fashion;Smart Casual;2017;38,TILCSHRT00006272,39,TILCSHRT00006273,40,TILCSHRT00006274,42,TILCSHRT00006275,44,TILCSHRT00006276;2299.00;Coral self-design smart casual shirt, has a spread collar, button placket, long sleeves, straight hem;This shirt from INVICTUS can make any outfit formal.  You can style this coral piece with slick black jeans and leather boots for a classy date night outfit.;Cotton<br> Machine-wash;Slim fit<br> The model (height 6') is wearing a size M;;INVICTUS Men Coral Slim Fit Self-Design Smart Casual Shirt;INVICTUS,workwear-styles;zerotype;;Spring;workwear-styles;No
2162157;INV-AW17S146-Blue-2162157;Invictus Slim Fit Shirt;Draft;Shirts;INVICTUS;Adults-Men;Men;;;;Fashion;;2017;38,TILCSHRT00006232,39,TILCSHRT00006233,40,TILCSHRT00006234,42,TILCSHRT00006235,44,TILCSHRT00006236;2299.00;;;;;;;workwear-styles;zerotype;;Spring;workwear-styles;No
2128022;ETH-MDJB-01-Black-2128022;Black Denim Jogger;Draft;Jeans;ether;Adults-Men;Men;;;;Fashion;;2017;28,ETHRJENS00001339,30,ETHRJENS00001340,32,ETHRJENS00001341,34,ETHRJENS00001342,36,ETHRJENS00001343;1699.00;;;;;;;;zerotype;;Fall;;No
2128021;ETH-MDJW-01-White-2128021;White Denim Jogger;Draft;Jeans;ether;Adults-Men;Men;;;;Fashion;;2017;28,ETHRJENS00001334,30,ETHRJENS00001335,32,ETHRJENS00001336,34,ETHRJENS00001337,36,ETHRJENS00001338;1699.00;;;;;;;;zerotype;;Fall;;No
2077592;CMAW17ANB-060-MULTI-2077592;Bottom;Draft;Skirts;Colour Me by Melange;Adults-Women;Women;;;;Fashion;;2017;L,CMBMSKRT00000006,M,CMBMSKRT00000007,S,CMBMSKRT00000008,XL,CMBMSKRT00000009,XXL,CMBMSKRT00000010;1199.00;;;<p>Machine wash @ 40'c</p>;;;;;zerotype;;Fall;;No
2043366;USTS5587-Navy Blue-2043366;TSHIRT NAVY;Active;Tshirts;U.S. Polo Assn.;Adults-Men;Men;Navy Blue;;;Fashion;Casual;2017;S,USPOTSHT00006248,M,USPOTSHT00006249,L,USPOTSHT00006250,XL,USPOTSHT00006251,XXL,USPOTSHT00006252,3XL,USPOTSHT00006944;1799.00;Navy blue striped polo T-shirt, has a polo collar, short sleeves;Upgrade your style when you take a page out of U.S. Polo Assn.'s book with this tee.  Whether you're running errands or meeting friends for coffee, sport this blue number with slim black jeans or cutoff shorts for a relaxed style.;<p>WASH CARE LABEL</p>;The model (height 6') is wearing a size M;;U.S. Polo Assn. Men Navy Striped Polo Collar T-shirt;U.S. Polo Assn.,uspa-aw17-all,mitm-new-season,bbd17-coupon-offer,aw17-fresh-men,uspa-aw17-all-styles,uspa-indigo-lifestyle,aw17-fresh-men2,menscasualfest-oct,ftod-sep30,aw17-fresh-men6,mantastic-styles2-fw17,menscasualfest-nov,menscasualfestoct2,express-delivery-17,try-and-buy-17,mantastic-styles-nov9,welcome-to-myntra-oct17,mantastic-styles-nov19,bfg17-coupon-offer,bfg17-non-disc,bfg17-extra20,mantastic-styles-dec2,mantastic-styles-dec5,mantastic-styles-dec9,mmb-tshirts,menscasualfest-dec,coupon-offer-oct2017,menscasualwear-eors,eorsdec17-ftod,coupon-eorsdec17,combo-deals-dec27,ltod-bbs;zerotype;;Fall;coupon-offer-dec2017;No
2041832;17A3C96J3078I-12F-2041832;65 PRINT TEE;Active;Tshirts;United Colors of Benetton;Adults-Men;Men;Blue;;;Fashion;Casual;2017;EL,UCFBTSHT00130698,L,UCFBTSHT00130699,M,UCFBTSHT00130700,S,UCFBTSHT00130701,XL,UCFBTSHT00130702;1199.00;<a href='/blue?src=pd' class='seolink'>Blue</a> printed T-shirt, has a round neck, <a href='/short?src=pd' class='seolink'>short</a> sleeves;Amp up your casual style with a well-structured T-shirt from United Colors of Benetton.  Whether you're running errands or meeting friends for coffee, sport this blue number with slim black jeans or cutoff shorts for a relaxed style.;100% cotton <br /> Machine-wash cold;The model (height 6') is wearing a size M;;United Colors of Benetton Men Blue Printed Round Neck T-shirt;United Colors of Benetton,DAMN044,ucb-global-nomad,ucb-aw17-all,welcome-to-myntra-sep2017,aw17-new-season,mens-casual-fest-aw17styles,mantastic-styles-august3,mitm-new-season,bbd17-coupon-offer,bigxtra500,bbd17-extra20,aw17-fresh-men,menscasualfest-oct,ftod-sep30,aw17-fresh-men4,new-season-diwali17,coupon-offer-diwali17,aw17-fresh-men5,mantastic-styles2-fw17,menscasualfest-nov,menscasualfestoct2,express-delivery-17,try-and-buy-17,freshfashion-min30,aw17-at-min20,mantastic-styles-nov9,bfg17-non-disc,welcome-to-myntra-oct17,mmb-tshirts,menscasualfest-dec,coupon-offer-oct2017,menscasualwear-eors,eorsdec17-ftod,ltod-bbs,ucb-best-styles-min40;zerotype;;Winter;ucb-best-styles-min40;No
2026579;BT-ALVIN-P:REAM17X-TANGY RED-2026579;TSALV-PREAM17BTX;Active;Tshirts;Blackberrys;Adults-Men;Men;Red;;;Fashion;Casual;2017;XL,BKBRTSHT00001845,XXXL,BKBRTSHT00001846,XXL,BKBRTSHT00001847,S,BKBRTSHT00001848,L,BKBRTSHT00001849,M,BKBRTSHT00001850;1395.00;<a href='/red?src=pd' class='seolink'>Red</a> <a href='/solid?src=pd' class='seolink'>solid</a> T-shirt, has a polo collar, <a href='/short?src=pd' class='seolink'>short</a> sleeves;Designed by the team at Blackberrys, you're definitely in for a style treat with this cotton T-shirt.  Throw on your favourite pair of chinos and loafers with this red number for a stroll around the block or casual hangout with friends.;Cotton <br /> Machine-wash;The model (height 6') is wearing a size M;;Blackberrys Men Red Solid Polo Collar T-shirt;Blackberrys,DAMN044,welcome-to-myntra-aug-v2,welcome-to-myntra-sep2017,coh-exp-aug,welcome-to-mynt-v2sep2017,bbd17-coupon-offer,bigxtra500,formal-aug-mb,ftod-bbd17,bbd17-combo-tshirts,bbd17-new-season,uber-offer-sept25,extra50-sep26,bbd17-extra20,welcome-to-myntra-oct17,formalwear-min30sale,menscasualfest-oct,coupon-offer-sep30,ftod-sep30,combo-deals,combo-buy2-sep30,coupon-offer-diwali17,ds17-buy2-1999,combo-ds17,buy2-oct15,mitm-mainbanner-oct,tshirts-2238,menscasualfest-nov,buy40-oct25,buy3-oct25,express-delivery-17,try-and-buy-17,combo-deals-oct28,deal-oct-buy3,nov-buy3-2499,mantastic-nov-aw17,buy3-nov9,formal-men-nov10,buy3-nov13,buy3-nov17,bfg17-coupon-offer,bfg17-non-disc,JIT,mmb-tshirts,workwear-styles,men-eors17-formal-party-edit-557600,eorsdec17-ftod,coupon-eorsdec17,coupon-offer-dec2017,combo-buy3-jan1,ltod-bbs,buy3-jan15,buy3-jan20;zerotype;;Winter;buy3-jan20;No
2025263;117-RO-K-SLD-02-0023-Z5-White-2025263;Women'sT-Shirts;Draft;Tshirts;Roadster;Adults-Women;Women;;;;Fashion;;2017;S,RDSTTSHT00038558,M,RDSTTSHT00038559,L,RDSTTSHT00038560,XL,RDSTTSHT00038561;699.00;;;;;;;;zerotype;;Fall;;No
2008570;TB0A1MI4E701-Rosewood (Pantone 19-1532 TCX)-2008570;AF SS Kbc Pattrn Tree Tee Rose,FQ;Active;Tshirts;Timberland;Adults-Men;Men;Rust;;;Fashion;Casual;2017;L,TMLDTSHT00098195,M,TMLDTSHT00098196,S,TMLDTSHT00098197,XL,TMLDTSHT00098198;2499.00;<a href='/red?src=pd' class='seolink'>Red</a> printed T-shirt, has a round neck, <a href='/short?src=pd' class='seolink'>short</a> sleeves;Amp up your casual style with a well-structured T-shirt from Timberland.  This rust piece can be teamed with cuffed chinos and canvas shoes when you're meeting the guys for drinks.;100% cotton <br />Machine-wash;The model (height 6') is wearing a size M;;Timberland Men Red Printed Round Neck T-shirt;Timberland,uber-offer-aug-rtf,welcome-to-myntra-aug-v2,all-sports-styles-2017,coh-exp-aug,bsf-first-time-on-discount,extra20-sports,welcome-to-myntra-sep2017,aw17-new-season,all-sports-sept,sportsallstyles-2017,welcome-to-mynt-v2sep2017,dutyfree-sept17,ftod-bbd17,bbd17-coupon-offer,uber-offer-sept25,bbd17-extra20,coupon-offer-diwali17,ndd17-blr,coupon-offer-oct2017,express-delivery-17,try-and-buy-17,combo-deals-oct28,get-back-200,extra20-oct31,bfg17-coupon-offer,bfg17-extra20,sports-play15-nov,coupon-eorsdec17,combo-deals-dec27,welcome-to-myntra-oct17,jerseys-2017;zerotype;;Summer;fifa-2018-all;No
1996792;SARACEN-02-BLACK-1996792;Mens Solid Crew T-Shirt With Pocket;Draft;Tshirts;Roadster;Adults-Men;Men;;;;Fashion;;2017;S,RDSTTSHT00035205,M,RDSTTSHT00035206,L,RDSTTSHT00035207,XL,RDSTTSHT00035208;399.00;;;;;;;;zerotype;;Fall;;No
1996783;SALCANO-07-SAFARI-1996783;Mens Solid Crew T-Shirt;Draft;Tshirts;Roadster;Adults-Men;Men;;;;Fashion;;2017;S,RDSTTSHT00035169,M,RDSTTSHT00035170,L,RDSTTSHT00035171,XL,RDSTTSHT00035172;299.00;;;;;;;;zerotype;;Fall;;No
1996765;STEYR-04-SABLE-1996765;Mens HS Henley T-Shirt;Draft;Tshirts;Roadster;Adults-Men;Men;;;;Fashion;;2017;S,RDSTTSHT00035097,M,RDSTTSHT00035098,L,RDSTTSHT00035099,XL,RDSTTSHT00035100;499.00;;;;;;;;zerotype;;Fall;;No
1996764;STEYR-03-THYME-1996764;Mens HS Henley T-Shirt;Draft;Tshirts;Roadster;Adults-Men;Men;;;;Fashion;;2017;S,RDSTTSHT00035093,M,RDSTTSHT00035094,L,RDSTTSHT00035095,XL,RDSTTSHT00035096;499.00;;;;;;;;zerotype;;Fall;;No
1996747;SOLIFER-06-SAFARI/ THYME-1996747;Mens Solid Raglan Sleeve T-Shirt;Draft;Tshirts;Roadster;Adults-Men;Men;;;;Fashion;;2017;S,RDSTTSHT00035025,M,RDSTTSHT00035026,L,RDSTTSHT00035027,XL,RDSTTSHT00035028;499.00;;;;;;;;zerotype;;Fall;;No
1996743;SOLIFER-02-MIDNIGHT/SABLE-1996743;Mens Solid Raglan Sleeve T-Shirt;Draft;Tshirts;Roadster;Adults-Men;Men;;;;Fashion;;2017;S,RDSTTSHT00035009,M,RDSTTSHT00035010,L,RDSTTSHT00035011,XL,RDSTTSHT00035012;499.00;;;;;;;;zerotype;;Fall;;No
1989676;BY3846-MYSPET/GRETWO/PETNIT-1989676;ALPHABOUNCE EM M;Active;Sports Shoes;Adidas;Adults-Men;Men;Blue;;;Fashion;Sports;2017;UK10,ADDSSPSH00118239,UK7,ADDSSPSH00118240,UK12,ADDSSPSH00118241,UK9,ADDSSPSH00118242,UK11,ADDSSPSH00118243,UK8,ADDSSPSH00118244;12999.00;A pair of blue <a href=/running-sports-shoes?src=pd class=seolink>running sports shoes</a>, has regular styling, lace-up detail<br />Synthetic upper<br />Cushioned footbed<br />Textured and patterned outsole<br />Engineered with BOUNCE? and FORGEDMESH technologies<br />Warranty: 3 months<br>Warranty provided by Brand Owner / Manufacturer;Fit for casual to extreme sports, you'll want these Adidas sports shoes for your next activity.  This blue pair can be teamed with sports shorts and a casual tee when you're going to the gym with your friends.;Synthetic <br /> Wipe with a clean, dry cloth to remove dust;;;Adidas Men Blue Alphabounce EM Running Shoes;Adidas,adidas-new-arrivals,all-sports-styles-2017,fw-17-sports-new,aw17-sporty,aw17-get-the-camo-trend,aw17-new-season,all-sports-sept,sportsallstyles-2017,outdoorfest17,FW17-SPORTS-NEW,ftod-sep30,express-delivery-17,try-and-buy-17,adidas-fw17-uprising,bfg17-coupon-offer,bfg17-extra20,aw-2017,styles-aw-17,sports-play15-nov,welcome-to-myntra-oct17,sports-running,ltod-bbs,coupon-offer-dec2017,scantastic-jan12;zerotype;;Fall;fifa-2018-all;No
1989604;BW1205-GREFIV/GRETWO/FTWWHT-1989604;ALPHABOUNCE EM M;Active;Sports Shoes;Adidas;Adults-Men;Men;Grey;;;Fashion;Sports;2017;UK10,ADDSSPSH00117874,UK12,ADDSSPSH00117875,UK7,ADDSSPSH00117876,UK9,ADDSSPSH00117877,UK11,ADDSSPSH00117878,UK8,ADDSSPSH00117879;12999.00;A pair of grey running shoes, has central lace-ups<br />Textile and synthetic upper<br />Cushioned footbed<br />Textured and patterned outsole<br />Warranty: 3 months<br>Warranty provided by Brand Owner / Manufacturer;You'll look and feel super stylish in these trendsetting sports shoes by Adidas. This grey pair can be matched with a pair of casual shorts and a comfortable tee when you're going out with friends.;Textile and synthetic<br />Wipe with a clean, dry cloth to remove dust;;;Adidas Men Grey Alphabounce EM Running Shoes;Adidas,adidas-new-arrivals,all-sports-styles-2017,fw-17-sports-new,FW17-SPORTS-NEW,sportsallstyles-2017,express-delivery-17,try-and-buy-17,aw-2017,styles-aw-17,sports-running,coupon-eorsdec17,combo-buy2-dec27,bestsellers-styles,welcome-to-myntra-oct17;zerotype;;Fall;fifa-2018-all;No
1938474;AKTJ3716-Me. Blue-1938474;TS REG POL AOP HS S17AJAJTS017B2;Active;Tshirts;Arrow Blue Jean Co.;Adults-Men;Men;Blue;;;Fashion;Casual;2016;L,AWJSTSHT00000101,M,AWJSTSHT00000102,S,AWJSTSHT00000103,XL,AWJSTSHT00000104,XXL,AWJSTSHT00000105;2099.00;<a href='/blue?src=pd' class='seolink'>Blue</a> printed T-shirt, has a polo collar, <a href='/short?src=pd' class='seolink'>short</a> sleeves;Soft, well-structured, and durable, you'll definitely love being the proud owner of this Arrow Blue Jean Co. T-shirt.  A quick drink with the gang is as easy as putting this blue piece in league with some slim black jeans and a sturdy overshirt.;Cotton <br /> Machine-wash;The model (height 6') is wearing a size M;;Arrow Blue Jean Co. Men Blue Printed Polo Collar T-shirt;Arrow Blue Jean Co.,eors17-rsoff-coupon,eors17-perc-coupon,wishlist-eors,bss-uber-offer,mcf-aug-2238,casualfest-june17,welcome-to-myntra-aug-v2,welcome-to-myntra-sep2017,welcome-to-mynt-v2sep2017,bbd17-coupon-offer,bbd17-combo-buy3,coh-exp-aug,welcome-to-myntra-oct17,menscasualfest-oct,coupon-offer-diwali17,buy2-ds17,mitm-mainbanner-oct,tshirts-2238,coupon-offer-oct2017,menscasualfest-nov,menscasualfestoct2,buy40-oct25,express-delivery-17,try-and-buy-17,combo-deals-oct28,youngistan-mainbanner,3tees-30-yf,extra20-oct31,nov-buy2-1999,buy2-nov9,buy2-nov17,bfg17-coupon-offer,bfg17-non-disc,bfg17-extra20,Combo-buy2-Nov30,party-store-2017-men-looks-smart-casuals,mmb-tshirts,menscasualfest-dec,buy2-1999-dec14,coupon-eorsdec17,coupon-offer-dec2017,combo-deals-dec27,combo-buy2-Jan1,bbs-early-bird,buy2-jan15;zerotype;;Spring;buy2-jan15;No
1897205;8901030603341-8901030603341-1897205;Lakme Absolute Skin Gloss Overnight Mask 50g;Draft;Face Moisturisers;Lakme;Adults-Women;Women;;;;Core;;2017;50gm,LAKMFMNC00000004;799.00;;;;;;;;zerotype;;Spring;;No
1674647;INVTS0005-Red-1674647;INVICTUS Men Red Printed T Shirt;Active;Tshirts;INVICTUS;Adults-Men;Men;Red;;;Fashion;Smart Casual;2017;S,TILCTSHT00001029,M,TILCTSHT00001030,L,TILCTSHT00001031,XL,TILCTSHT00001032;1499.00;Red printed waist length T-shirt, has a polo collar with a short button placket, short sleeves, vented hem;Slip into this snug T-shirt from INVICTUS and look your very best.  Catch a movie or go shopping in this red piece teamed with everyday jeans and casual slip-on sneakers.;100% cotton <br />Machine-wash;The model (height 6') is wearing a size L;;INVICTUS Men Red Printed T-Shirt;-Shirts-24072017,duty-offer-august,welcome-to-myntra-august17,extra20-jul31,uber-offer-jul31,buy3-2499-3107,uber-offer-aug,inv-shirts-08032017,inv-Tshirts-08032017,mcf-aug-2238,bestsellers-mcf-2238,extra50-aug03,rakhi-buy3-2499,Printed-08092017,dutyfree-august17,extra30-aug09,inv-tshirts-08132017,price-leakage-test,uber-offer-new-aug,uber-offer-aug-rtf,mitm-college-aug,formal-2238,coupon-offer-23aug,formal-aug-mb,coh-exp-aug,groovy-aug-mb,invictus-polos-29082017,inv-30082017-TEES,extra20-aug31,aug31-tshirts,welcome-to-myntra-sep2017,welcome-to-mynt-v2sep2017,inv-09072017-T-shirts,Invictus-09092017-B1G2,INVICTUS-ALL-09082017,Coupon-offer-aug19,groovy-gang-september,uber-offer-sept25,combo-deals,combo-tshirts-sep30,menscasualfest-oct,combo-ds17,inv-Mainline-10122017,inv-tshirts-10122017,flash-oct14,flash-sale-oct17,mitm-mainbanner-oct,coupon-offer-diwali17,inv-Tshirts-10272017,coupon-offer-oct2017,buy3-oct25,Inv-14112017-TShirts,buy3-nov13,inv-799-under,buy3-nov17,bfg17-non-disc,bfg17-coupon-offer,bfg17-extra20,ybtee-20,Combo-Deals-Nov30,groovy-gang-dec,party-store-2017-men-aop-tshirts,inv-Under-699-15122017,workwear-styles,buy3-2499-dec14,invi-under-799,combo-buy3-jan1,buy2-1999-jan4,bbs-early-bird,welcome-to-myntra-oct17,fla-70-ebd;zerotype;;Spring;MFB;No
1623469;USTS5282-USPA BLUE-1623469;TSHIRT USPA BLUE;Draft;Tshirts;U.S. Polo Assn.;Adults-Men;Men;;;;Fashion;;2016;L,USPOTSHT00005035,M,USPOTSHT00005036,S,USPOTSHT00005037,XL,USPOTSHT00005038,XXL,USPOTSHT00005039;1899.00;<p>Cotton</p>;;;;;;mens-sum-fest-b1g1;zerotype;;Fall;mens-sum-fest-b1g1;No
