Style ID;Vendor Article Number;Vendor Article Name;Active Status;Article type;Brand;Age Group;Gender;Base Colour;Colour1;Colour2;Fashion Type;Usage;Year;Size - SKU code pair;MRP;Style Description;Style Note;Materials and Care Description;Size and Fit Description;Size Chart Path;Product Display Name;Tags;Product Type;Classification Brand;Season;Comments;Upload Images
2150443;15067-Brown-2150443;15067BROWN;Draft;Formal Shoes;Franco Leone;Adults-Men;Men;Brown;;;Fashion;;2017;40,FRLEFOSH00101549,41,FRLEFOSH00101550,42,FRLEFOSH00101551,43,FRLEFOSH00101552,44,FRLEFOSH00101553;3795.00;;;<p>Wipe with dry cloth, polish if required</p>;;;;;zerotype;;Winter;;No
2150439;15067-Black-2150439;15067BLACK;Draft;Formal Shoes;Franco Leone;Adults-Men;Men;Black;;;Fashion;;2017;40,FRLEFOSH00101544,41,FRLEFOSH00101545,42,FRLEFOSH00101546,43,FRLEFOSH00101547,44,FRLEFOSH00101548;3795.00;;;<p>Wipe with dry cloth, polish if required</p>;;;;;zerotype;;Winter;;No
2150435;15068-Brown-2150435;15068BROWN;Draft;Casual Shoes;Franco Leone;Adults-Men;Men;Brown;;;Fashion;;2017;40,FRLECASH00001499,41,FRLECASH00001500,42,FRLECASH00001501,43,FRLECASH00001502,44,FRLECASH00001503;3995.00;;;<p>Wipe with dry cloth, polish if required</p>;;;;;zerotype;;Winter;;No
2150432;15068-Black-2150432;15068BLACK;Draft;Casual Shoes;Franco Leone;Adults-Men;Men;Black;;;Fashion;;2017;40,FRLECASH00001494,41,FRLECASH00001495,42,FRLECASH00001496,43,FRLECASH00001497,44,FRLECASH00001498;3995.00;;;<p>Wipe with dry cloth, polish if required</p>;;;;;zerotype;;Winter;;No
