Style ID;Vendor Article Number;Vendor Article Name;Active Status;Article type;Brand;Age Group;Gender;Base Colour;Colour1;Colour2;Fashion Type;Usage;Year;Size - SKU code pair;MRP;Style Description;Style Note;Materials and Care Description;Size and Fit Description;Size Chart Path;Product Display Name;Tags;Product Type;Classification Brand;Season;Comments;Upload Images
2353225;ASTF0964-Pink-2353225;ASTF0964 Shirt;Draft;Shirts;Arrow;Adults-Men;Men;Pink;;;Fashion;Casual;2017;40,ARRWSHRT00008095,39,ARRWSHRT00008096,44,ARRWSHRT00008097,42,ARRWSHRT00008098;1899.00;;;<p>Machine Wash</p>;;;a;;zerotype;;Spring;;No
2353224;ASTF0963-Purple-2353224;ASTF0963 Shirt;Draft;Shirts;Arrow;Adults-Men;Men;Purple;;;Fashion;Casual;2017;44,ARRWSHRT00008091,42,ARRWSHRT00008092,40,ARRWSHRT00008093,39,ARRWSHRT00008094;1899.00;;;<p>Machine Wash</p>;;;a;;zerotype;;Spring;;No
2353223;ASTF0950-Purple-2353223;ASTF0950 Shirt;Draft;Shirts;Arrow;Adults-Men;Men;Purple;;;Fashion;Casual;2017;44,ARRWSHRT00008088,42,ARRWSHRT00008089,40,ARRWSHRT00008090;1699.00;;;<p>Machine Wash</p>;;;a;;zerotype;;Spring;;No
2353222;ASTF0910-Taupe-2353222;ASTF0910 Shirt;Draft;Shirts;Arrow;Adults-Men;Men;Taupe;;;Fashion;Casual;2017;39,ARRWSHRT00008081,42,ARRWSHRT00008082,40,ARRWSHRT00008083,38,ARRWSHRT00008084,48,ARRWSHRT00008085,46,ARRWSHRT00008086,44,ARRWSHRT00008087;1899.00;;;<p>Machine Wash</p>;;;a;;zerotype;;Spring;;No
2353221;ASTF0908-Blue-2353221;ASTF0908 Shirt;Draft;Shirts;Arrow;Adults-Men;Men;Blue;;;Fashion;Casual;2017;40,ARRWSHRT00008074,48,ARRWSHRT00008075,39,ARRWSHRT00008076,46,ARRWSHRT00008077,38,ARRWSHRT00008078,44,ARRWSHRT00008079,42,ARRWSHRT00008080;1899.00;;;<p>Machine Wash</p>;;;a;;zerotype;;Spring;;No
2353220;ASTF0907-Pink-2353220;ASTF0907 Shirt;Draft;Shirts;Arrow;Adults-Men;Men;Pink;;;Fashion;Casual;2017;48,ARRWSHRT00008067,42,ARRWSHRT00008068,40,ARRWSHRT00008069,39,ARRWSHRT00008070,38,ARRWSHRT00008071,46,ARRWSHRT00008072,44,ARRWSHRT00008073;1899.00;;;<p>Machine Wash</p>;;;a;;zerotype;;Spring;;No
2353219;ASTF0906-Blue-2353219;ASTF0906 Shirt;Draft;Shirts;Arrow;Adults-Men;Men;Blue;;;Fashion;Casual;2017;44,ARRWSHRT00008063,42,ARRWSHRT00008064,40,ARRWSHRT00008065,39,ARRWSHRT00008066;1899.00;;;<p>Machine Wash</p>;;;a;;zerotype;;Spring;;No
2353218;ASTF0900-Blue-2353218;ASTF0900 Shirt;Draft;Shirts;Arrow;Adults-Men;Men;Blue;;;Fashion;Casual;2017;44,ARRWSHRT00008056,42,ARRWSHRT00008057,40,ARRWSHRT00008058,39,ARRWSHRT00008059,38,ARRWSHRT00008060,48,ARRWSHRT00008061,46,ARRWSHRT00008062;1699.00;;;<p>Machine Wash</p>;;;a;;zerotype;;Spring;;No
2353217;ASTF0898-Blue-2353217;ASTF0898 Shirt;Draft;Shirts;Arrow;Adults-Men;Men;Blue;;;Fashion;Casual;2017;44,ARRWSHRT00008052,42,ARRWSHRT00008053,40,ARRWSHRT00008054,39,ARRWSHRT00008055;1899.00;;;<p>Machine Wash</p>;;;a;;zerotype;;Spring;;No
2353216;ASTF0896-Blue-2353216;ASTF0896 Shirt;Draft;Shirts;Arrow;Adults-Men;Men;Blue;;;Fashion;Casual;2017;44,ARRWSHRT00008048,42,ARRWSHRT00008049,40,ARRWSHRT00008050,39,ARRWSHRT00008051;1899.00;;;<p>Machine Wash</p>;;;a;;zerotype;;Spring;;No
2353215;ASTF0893-Green-2353215;ASTF0893 Shirt;Draft;Shirts;Arrow;Adults-Men;Men;Green;;;Fashion;Casual;2017;46,ARRWSHRT00008041,44,ARRWSHRT00008042,42,ARRWSHRT00008043,40,ARRWSHRT00008044,39,ARRWSHRT00008045,48,ARRWSHRT00008046,38,ARRWSHRT00008047;1899.00;;;<p>Machine Wash</p>;;;a;;zerotype;;Spring;;No
2353214;ASTF0891-Green-2353214;ASTF0891 Shirt;Draft;Shirts;Arrow;Adults-Men;Men;Green;;;Fashion;Casual;2017;42,ARRWSHRT00008040;1699.00;;;<p>Machine Wash</p>;;;a;;zerotype;;Spring;;No
2353213;ASTF0883-Brown-2353213;ASTF0883 Shirt;Draft;Shirts;Arrow;Adults-Men;Men;Brown;;;Fashion;Casual;2017;44,ARRWSHRT00008036,42,ARRWSHRT00008037,40,ARRWSHRT00008038,39,ARRWSHRT00008039;1699.00;;;<p>Machine Wash</p>;;;a;;zerotype;;Spring;;No
2353212;ASTF0881-Grey-2353212;ASTF0881 Shirt;Draft;Shirts;Arrow;Adults-Men;Men;Grey;;;Fashion;Casual;2017;39,ARRWSHRT00008029,48,ARRWSHRT00008030,38,ARRWSHRT00008031,46,ARRWSHRT00008032,44,ARRWSHRT00008033,42,ARRWSHRT00008034,40,ARRWSHRT00008035;1899.00;;;<p>Machine Wash</p>;;;a;;zerotype;;Spring;;No
2353211;ASTF0877-Lavender-2353211;ASTF0877 Shirt;Draft;Shirts;Arrow;Adults-Men;Men;Lavender;;;Fashion;Casual;2017;40,ARRWSHRT00008022,39,ARRWSHRT00008023,48,ARRWSHRT00008024,38,ARRWSHRT00008025,46,ARRWSHRT00008026,44,ARRWSHRT00008027,42,ARRWSHRT00008028;1899.00;;;<p>Machine Wash</p>;;;a;;zerotype;;Spring;;No
2353210;ASTF0858-Pink-2353210;ASTF0858 Shirt;Draft;Shirts;Arrow;Adults-Men;Men;Pink;;;Fashion;Casual;2017;44,ARRWSHRT00008015,42,ARRWSHRT00008016,40,ARRWSHRT00008017,39,ARRWSHRT00008018,38,ARRWSHRT00008019,48,ARRWSHRT00008020,46,ARRWSHRT00008021;2099.00;;;<p>Machine Wash</p>;;;a;;zerotype;;Spring;;No
2353209;ASTF0854-Blue-2353209;ASTF0854 Shirt;Draft;Shirts;Arrow;Adults-Men;Men;Blue;;;Fashion;Casual;2017;46,ARRWSHRT00008008,44,ARRWSHRT00008009,42,ARRWSHRT00008010,40,ARRWSHRT00008011,39,ARRWSHRT00008012,48,ARRWSHRT00008013,38,ARRWSHRT00008014;2099.00;;;<p>Machine Wash</p>;;;a;;zerotype;;Spring;;No
2353208;ASTF0853-Yellow-2353208;ASTF0853 Shirt;Draft;Shirts;Arrow;Adults-Men;Men;Yellow;;;Fashion;Casual;2017;44,ARRWSHRT00008004,40,ARRWSHRT00008005,42,ARRWSHRT00008006,39,ARRWSHRT00008007;2099.00;;;<p>Machine Wash</p>;;;a;;zerotype;;Spring;;No
2353207;ASTF0846-Blue-2353207;ASTF0846 Shirt;Draft;Shirts;Arrow;Adults-Men;Men;Blue;;;Fashion;Casual;2017;44,ARRWSHRT00008000,42,ARRWSHRT00008001,40,ARRWSHRT00008002,39,ARRWSHRT00008003;2099.00;;;<p>Machine Wash</p>;;;a;;zerotype;;Spring;;No
2353206;ASTF0839-Pink-2353206;ASTF0839 Shirt;Draft;Shirts;Arrow;Adults-Men;Men;Pink;;;Fashion;Casual;2017;40,ARRWSHRT00007996,39,ARRWSHRT00007997,44,ARRWSHRT00007998,42,ARRWSHRT00007999;2099.00;;;<p>Machine Wash</p>;;;a;;zerotype;;Spring;;No
2353205;ASTF0838-Blue-2353205;ASTF0838 Shirt;Draft;Shirts;Arrow;Adults-Men;Men;Blue;;;Fashion;Casual;2017;39,ARRWSHRT00007989,38,ARRWSHRT00007990,48,ARRWSHRT00007991,46,ARRWSHRT00007992,44,ARRWSHRT00007993,42,ARRWSHRT00007994,40,ARRWSHRT00007995;2099.00;;;<p>Machine Wash</p>;;;a;;zerotype;;Spring;;No
2353204;ASTF0837-White-2353204;ASTF0837 Shirt;Draft;Shirts;Arrow;Adults-Men;Men;White;;;Fashion;Casual;2017;44,ARRWSHRT00007985,42,ARRWSHRT00007986,40,ARRWSHRT00007987,39,ARRWSHRT00007988;2099.00;;;<p>Machine Wash</p>;;;a;;zerotype;;Spring;;No
2353203;ASTF0836-White-2353203;ASTF0836 Shirt;Draft;Shirts;Arrow;Adults-Men;Men;White;;;Fashion;Casual;2017;44,ARRWSHRT00007981,42,ARRWSHRT00007982,40,ARRWSHRT00007983,39,ARRWSHRT00007984;2099.00;;;<p>Machine Wash</p>;;;a;;zerotype;;Spring;;No
2353202;ASTF0835-Brown-2353202;ASTF0835 Shirt;Draft;Shirts;Arrow;Adults-Men;Men;Brown;;;Fashion;Casual;2017;40,ARRWSHRT00007977,39,ARRWSHRT00007978,44,ARRWSHRT00007979,42,ARRWSHRT00007980;2099.00;;;<p>Machine Wash</p>;;;a;;zerotype;;Spring;;No
2353201;ASTF0834-Navy Blue-2353201;ASTF0834 Shirt;Draft;Shirts;Arrow;Adults-Men;Men;Navy Blue;;;Fashion;Casual;2017;48,ARRWSHRT00007970,46,ARRWSHRT00007971,44,ARRWSHRT00007972,40,ARRWSHRT00007973,38,ARRWSHRT00007974,42,ARRWSHRT00007975,39,ARRWSHRT00007976;2099.00;;;<p>Machine Wash</p>;;;a;;zerotype;;Spring;;No
2353200;ASTF0819-Pink-2353200;ASTF0819 Shirt;Draft;Shirts;Arrow;Adults-Men;Men;Pink;;;Fashion;Casual;2017;40,ARRWSHRT00007966,44,ARRWSHRT00007967,42,ARRWSHRT00007968,39,ARRWSHRT00007969;2399.00;;;<p>Machine Wash</p>;;;a;;zerotype;;Spring;;No
2353199;ASTF0817-Pink-2353199;ASTF0817 Shirt;Draft;Shirts;Arrow;Adults-Men;Men;Pink;;;Fashion;Casual;2017;44,ARRWSHRT00007959,42,ARRWSHRT00007960,40,ARRWSHRT00007961,39,ARRWSHRT00007962,38,ARRWSHRT00007963,48,ARRWSHRT00007964,46,ARRWSHRT00007965;2399.00;;;<p>Machine Wash</p>;;;a;;zerotype;;Spring;;No
2353198;ASTF0814-Pink-2353198;ASTF0814 Shirt;Draft;Shirts;Arrow;Adults-Men;Men;Pink;;;Fashion;Casual;2017;40,ARRWSHRT00007955,39,ARRWSHRT00007956,44,ARRWSHRT00007957,42,ARRWSHRT00007958;1899.00;;;<p>Machine Wash</p>;;;a;;zerotype;;Spring;;No
2353197;ASTF0813-Blue-2353197;ASTF0813 Shirt;Draft;Shirts;Arrow;Adults-Men;Men;Blue;;;Fashion;Casual;2017;44,ARRWSHRT00007951,42,ARRWSHRT00007952,40,ARRWSHRT00007953,39,ARRWSHRT00007954;1899.00;;;<p>Machine Wash</p>;;;a;;zerotype;;Spring;;No
2353196;ASTF0581-Blue-2353196;ASTF0581 Shirt;Draft;Shirts;Arrow;Adults-Men;Men;Blue;;;Fashion;Casual;2017;48,ARRWSHRT00007944,46,ARRWSHRT00007945,44,ARRWSHRT00007946,42,ARRWSHRT00007947,38,ARRWSHRT00007948,40,ARRWSHRT00007949,39,ARRWSHRT00007950;2099.00;;;<p>Machine Wash</p>;;;a;;zerotype;;Spring;;No
2353195;ASTF0573-Blue-2353195;ASTF0573 Shirt;Draft;Shirts;Arrow;Adults-Men;Men;Blue;;;Fashion;Casual;2017;39,ARRWSHRT00007937,48,ARRWSHRT00007938,38,ARRWSHRT00007939,46,ARRWSHRT00007940,44,ARRWSHRT00007941,42,ARRWSHRT00007942,40,ARRWSHRT00007943;1899.00;;;<p>Machine Wash</p>;;;a;;zerotype;;Spring;;No
2353194;ASTF0534-Blue-2353194;ASTF0534 Shirt;Draft;Shirts;Arrow;Adults-Men;Men;Blue;;;Fashion;Casual;2017;40,ARRWSHRT00007930,48,ARRWSHRT00007931,46,ARRWSHRT00007932,39,ARRWSHRT00007933,38,ARRWSHRT00007934,44,ARRWSHRT00007935,42,ARRWSHRT00007936;2099.00;;;<p>Machine Wash</p>;;;a;;zerotype;;Spring;;No
2353193;ASTF0522-Blue-2353193;ASTF0522 Shirt;Draft;Shirts;Arrow;Adults-Men;Men;Blue;;;Fashion;Casual;2017;44,ARRWSHRT00007923,42,ARRWSHRT00007924,40,ARRWSHRT00007925,39,ARRWSHRT00007926,48,ARRWSHRT00007927,38,ARRWSHRT00007928,46,ARRWSHRT00007929;2099.00;;;<p>Machine Wash</p>;;;a;;zerotype;;Spring;;No
2353192;ASTF0520-Green-2353192;ASTF0520 Shirt;Draft;Shirts;Arrow;Adults-Men;Men;Green;;;Fashion;Casual;2017;46,ARRWSHRT00007916,44,ARRWSHRT00007917,42,ARRWSHRT00007918,40,ARRWSHRT00007919,39,ARRWSHRT00007920,38,ARRWSHRT00007921,48,ARRWSHRT00007922;2099.00;;;<p>Machine Wash</p>;;;a;;zerotype;;Spring;;No
2353191;ASTF0514-Blue-2353191;ASTF0514 Shirt;Draft;Shirts;Arrow;Adults-Men;Men;Blue;;;Fashion;Casual;2017;39,ARRWSHRT00007909,38,ARRWSHRT00007910,48,ARRWSHRT00007911,46,ARRWSHRT00007912,44,ARRWSHRT00007913,42,ARRWSHRT00007914,40,ARRWSHRT00007915;2099.00;;;<p>Machine Wash</p>;;;a;;zerotype;;Spring;;No
2353190;ASTF0328-Lavender-2353190;ASTF0328 Shirt;Draft;Shirts;Arrow;Adults-Men;Men;Lavender;;;Fashion;Casual;2017;46,ARRWSHRT00007902,44,ARRWSHRT00007903,42,ARRWSHRT00007904,40,ARRWSHRT00007905,39,ARRWSHRT00007906,38,ARRWSHRT00007907,48,ARRWSHRT00007908;2299.00;;;<p>Machine Wash</p>;;;a;;zerotype;;Spring;;No
2353189;ASTF0326-Blue-2353189;ASTF0326 Shirt;Draft;Shirts;Arrow;Adults-Men;Men;Blue;;;Fashion;Casual;2017;48,ARRWSHRT00007895,46,ARRWSHRT00007896,38,ARRWSHRT00007897,44,ARRWSHRT00007898,42,ARRWSHRT00007899,40,ARRWSHRT00007900,39,ARRWSHRT00007901;2099.00;;;<p>Machine Wash</p>;;;a;;zerotype;;Spring;;No
2353188;ASTF0325-Blue-2353188;ASTF0325 Shirt;Draft;Shirts;Arrow;Adults-Men;Men;Blue;;;Fashion;Casual;2017;39,ARRWSHRT00007892,44,ARRWSHRT00007893,42,ARRWSHRT00007894;1899.00;;;<p>Machine Wash</p>;;;a;;zerotype;;Spring;;No
2353187;ASTF0317-Blue-2353187;ASTF0317 Shirt;Draft;Shirts;Arrow;Adults-Men;Men;Blue;;;Fashion;Casual;2017;39,ARRWSHRT00007885,38,ARRWSHRT00007886,48,ARRWSHRT00007887,46,ARRWSHRT00007888,44,ARRWSHRT00007889,42,ARRWSHRT00007890,40,ARRWSHRT00007891;1699.00;;;<p>Machine Wash</p>;;;a;;zerotype;;Spring;;No
2353186;ASTF0304-Blue-2353186;ASTF0304 Shirt;Draft;Shirts;Arrow;Adults-Men;Men;Blue;;;Fashion;Casual;2017;44,ARRWSHRT00007878,42,ARRWSHRT00007879,40,ARRWSHRT00007880,39,ARRWSHRT00007881,38,ARRWSHRT00007882,48,ARRWSHRT00007883,46,ARRWSHRT00007884;2299.00;;;<p>Machine Wash</p>;;;a;;zerotype;;Spring;;No
2353185;ASTF0302-Black-2353185;ASTF0302 Shirt;Draft;Shirts;Arrow;Adults-Men;Men;Black;;;Fashion;Casual;2017;38,ARRWSHRT00007871,48,ARRWSHRT00007872,46,ARRWSHRT00007873,44,ARRWSHRT00007874,42,ARRWSHRT00007875,40,ARRWSHRT00007876,39,ARRWSHRT00007877;2299.00;;;<p>Machine Wash</p>;;;n;;zerotype;;Spring;;No
2353184;ASTF0296-Purple-2353184;ASTF0296 Shirt;Draft;Shirts;Arrow;Adults-Men;Men;Purple;;;Fashion;Casual;2017;40,ARRWSHRT00007864,39,ARRWSHRT00007865,38,ARRWSHRT00007866,48,ARRWSHRT00007867,46,ARRWSHRT00007868,44,ARRWSHRT00007869,42,ARRWSHRT00007870;2099.00;;;<p>Machine Wash</p>;;;a;;zerotype;;Spring;;No
2353183;ASTF0293-Blue-2353183;ASTF0293 Shirt;Draft;Shirts;Arrow;Adults-Men;Men;Blue;;;Fashion;Casual;2017;42,ARRWSHRT00007857,40,ARRWSHRT00007858,39,ARRWSHRT00007859,38,ARRWSHRT00007860,48,ARRWSHRT00007861,46,ARRWSHRT00007862,44,ARRWSHRT00007863;1899.00;;;<p>Machine Wash</p>;;;a;;zerotype;;Spring;;No
2353182;ASTF0289-Blue-2353182;ASTF0289 Shirt;Draft;Shirts;Arrow;Adults-Men;Men;Blue;;;Fashion;Casual;2017;44,ARRWSHRT00007850,42,ARRWSHRT00007851,40,ARRWSHRT00007852,39,ARRWSHRT00007853,38,ARRWSHRT00007854,48,ARRWSHRT00007855,46,ARRWSHRT00007856;2099.00;;;<p>Machine Wash</p>;;;a;;zerotype;;Spring;;No
2353181;ASTF0285-Beige-2353181;ASTF0285 Shirt;Draft;Shirts;Arrow;Adults-Men;Men;Beige;;;Fashion;Casual;2017;46,ARRWSHRT00007843,44,ARRWSHRT00007844,42,ARRWSHRT00007845,40,ARRWSHRT00007846,39,ARRWSHRT00007847,48,ARRWSHRT00007848,38,ARRWSHRT00007849;1699.00;;;<p>Machine Wash</p>;;;a;;zerotype;;Spring;;No
2353180;ASTF0116-Navy Blue-2353180;ASTF0116 Shirt;Draft;Shirts;Arrow;Adults-Men;Men;Navy Blue;;;Fashion;Casual;2017;44,ARRWSHRT00007836,48,ARRWSHRT00007837,42,ARRWSHRT00007838,40,ARRWSHRT00007839,39,ARRWSHRT00007840,46,ARRWSHRT00007841,38,ARRWSHRT00007842;2399.00;;;<p>Machine Wash</p>;;;a;;zerotype;;Spring;;No
2353179;ASTF0109-Cream-2353179;ASTF0109 Shirt;Draft;Shirts;Arrow;Adults-Men;Men;Cream;;;Fashion;Casual;2017;46,ARRWSHRT00007829,44,ARRWSHRT00007830,42,ARRWSHRT00007831,40,ARRWSHRT00007832,39,ARRWSHRT00007833,38,ARRWSHRT00007834,48,ARRWSHRT00007835;2699.00;;;<p>Machine Wash</p>;;;a;;zerotype;;Spring;;No
2353178;ASTF0073-Blue-2353178;ASTF0073 Shirt;Draft;Shirts;Arrow;Adults-Men;Men;Blue;;;Fashion;Casual;2017;38,ARRWSHRT00007822,48,ARRWSHRT00007823,46,ARRWSHRT00007824,44,ARRWSHRT00007825,42,ARRWSHRT00007826,40,ARRWSHRT00007827,39,ARRWSHRT00007828;2399.00;;;<p>Machine Wash</p>;;;a;;zerotype;;Spring;;No
2353177;ASTF0026-Blue-2353177;ASTF0026 Shirt;Draft;Shirts;Arrow;Adults-Men;Men;Blue;;;Fashion;Casual;2017;40,ARRWSHRT00007815,39,ARRWSHRT00007816,48,ARRWSHRT00007817,46,ARRWSHRT00007818,44,ARRWSHRT00007819,42,ARRWSHRT00007820,38,ARRWSHRT00007821;2699.00;;;<p>Machine Wash</p>;;;a;;zerotype;;Spring;;No
2353176;ASSF0173-Pink-2353176;ASSF0173 Shirt;Draft;Shirts;Arrow;Adults-Men;Men;Pink;;;Fashion;Casual;2017;48,ARRWSHRT00007808,46,ARRWSHRT00007809,38,ARRWSHRT00007810,44,ARRWSHRT00007811,42,ARRWSHRT00007812,40,ARRWSHRT00007813,39,ARRWSHRT00007814;2399.00;;;<p>Machine Wash</p>;;;a;;zerotype;;Spring;;No
2353175;ASSF0061-Blue-2353175;ASSF0061 Shirt;Draft;Shirts;Arrow;Adults-Men;Men;Blue;;;Fashion;Casual;2017;42,ARRWSHRT00007801,40,ARRWSHRT00007802,39,ARRWSHRT00007803,38,ARRWSHRT00007804,48,ARRWSHRT00007805,46,ARRWSHRT00007806,44,ARRWSHRT00007807;2399.00;;;<p>Machine Wash</p>;;;a;;zerotype;;Spring;;No
2353174;ASSF0050-Blue-2353174;ASSF0050 Shirt;Draft;Shirts;Arrow;Adults-Men;Men;Blue;;;Fashion;Casual;2017;44,ARRWSHRT00007794,42,ARRWSHRT00007795,40,ARRWSHRT00007796,39,ARRWSHRT00007797,38,ARRWSHRT00007798,48,ARRWSHRT00007799,46,ARRWSHRT00007800;2399.00;;;<p>Machine Wash</p>;;;a;;zerotype;;Spring;;No
2353173;ASRF0655-Pink-2353173;ASRF0655 Shirt;Draft;Shirts;Arrow;Adults-Men;Men;Pink;;;Fashion;Casual;2016;46,ARRWSHRT00007787,44,ARRWSHRT00007788,42,ARRWSHRT00007789,40,ARRWSHRT00007790,39,ARRWSHRT00007791,38,ARRWSHRT00007792,48,ARRWSHRT00007793;2599.00;;;<p>Machine Wash</p>;;;a;;zerotype;;Winter;;No
2353172;ASRF0168-Pink-2353172;ASRF0168 Shirt;Draft;Shirts;Arrow;Adults-Men;Men;Pink;;;Fashion;Casual;2017;39,ARRWSHRT00007780,38,ARRWSHRT00007781,48,ARRWSHRT00007782,46,ARRWSHRT00007783,44,ARRWSHRT00007784,42,ARRWSHRT00007785,40,ARRWSHRT00007786;1799.00;;;<p>Machine Wash</p>;;;a;;zerotype;;Spring;;No
2281644;ASTF0574-BLUE-2281644;SH HS AF23 SEM SOL FS17ARWLSH034B2S1;PreActive;Shirts;Arrow;Adults-Men;Men;Blue;;;Fashion;Formal;2017;38,ARRWSHRT00007755,39,ARRWSHRT00007756,40,ARRWSHRT00007757,42,ARRWSHRT00007758,44,ARRWSHRT00007759;1899.00;Blue solid formal shirt, has a spread collar, button placket, 1 pocket, short sleeves, curved hem;Try on this shirt from Arrow for a casual, handsome look.  This blue piece deserves to be layered with a lambswool sweater and relaxed chino for a nicer casual outfit when you're lounging around the house.;Cotton<br />Machine-wash;Premium Regular Fit<br />The model (height 6') is wearing a size 40;;Arrow Men Blue Premium Regular Fit Solid Formal Shirt;Arrow,workwear-styles;zerotype;;Spring;workwear-styles;No
2281583;ASRF0150-YELLOW-2281583;SH FS SLM SEM YDC S16ARPRSH081Y1;PreActive;Shirts;Arrow;Adults-Men;Men;Yellow;;;Fashion;Formal;2016;38,ARRWSHRT00007582,39,ARRWSHRT00007583,40,ARRWSHRT00007584,42,ARRWSHRT00007585,44,ARRWSHRT00007586;2799.00;Yellow checked formal shirt, has a spread collar, button placket, 1 pocket, long sleeves, curved hem;Sharpen up your style with this in-style shirt by Arrow.  Wear this yellow shirt with a pair of tailored trousers and Derby shoes for the perfect work look.;100% cotton<br />Machine-wash;Slim fit<br />The model (height 6') is wearing a size 40;;Arrow Men Yellow Slim Fit Checked Formal Shirt;Arrow,workwear-styles;zerotype;;Fall;workwear-styles;No
2250903;ASTF0576-Pink-2250903;SH HS AF23 SEM SOL FS17ARWLSH034P2S1;On Hold - Sample;Shirts;Arrow;Adults-Men;Men;Pink;;;Fashion;Formal;2016;39,ARRWSHRT00007574,40,ARRWSHRT00007575,42,ARRWSHRT00007576,44,ARRWSHRT00007577;1899.00;;;;;;;workwear-styles;zerotype;;Fall;workwear-styles;No
2250900;ASTF0526-Blue-2250900;SH FS AF24 SEM YDC FS17ARWLSH016B1;On Hold - Sample;Shirts;Arrow;Adults-Men;Men;Blue;;;Fashion;Formal;2016;39,ARRWSHRT00007563,40,ARRWSHRT00007564,42,ARRWSHRT00007565,44,ARRWSHRT00007566;2099.00;;;;;;;workwear-styles;zerotype;;Fall;Broken size;No
2250888;ASTF0136-Blue-2250888;SH FS AF24 SEM PRI FS17ARPRSH098B1;Active;Shirts;Arrow;Adults-Men;Men;Blue;;;Fashion;Formal;2016;39,ARRWSHRT00007505,40,ARRWSHRT00007506,42,ARRWSHRT00007507,44,ARRWSHRT00007508,46,ARRWSHRT00007509,48,ARRWSHRT00007510;2399.00;Blue printed formal shirt, has a cutaway collar, button placket, 1 pocket, long sleeves, curved hem;Add this trendy shirt from Arrow to your formal staples.  This blue piece can be matched with professional trousers and a sleek blazer when you're heading to work.;100% cotton<br />Machine-wash;Slim fit<br />The model (height 6') is wearing a size 40;;Arrow Men Blue Slim Fit Printed Formal Shirt;Arrow,workwear-styles;zerotype;;Fall;workwear-styles;No
2250887;ASTF0130-Blue-2250887;SH FS AF24 SEM PRI FS17ARPRSH093B1;Active;Shirts;Arrow;Adults-Men;Men;White;Blue;;Fashion;Casual;2016;38,ARRWSHRT00007500,39,ARRWSHRT00007501,40,ARRWSHRT00007502,42,ARRWSHRT00007503,44,ARRWSHRT00007504;2399.00;White and blue printed casual shirt, has a cutaway collar, button placket, 1 pocket, long sleeves, curved hem;Cozy up with this in-style Arrow shirt this season.  A dinner out after work is as simple as teaming this white piece with a cardigan and a pair of stylish glasses.;100% cotton<br /><br />Machine-wash;Slim fit<br />The model (height 6') is wearing a size 40;;Arrow Men White & Blue Slim Fit Printed Casual Shirt;Arrow,workwear-styles;zerotype;;Fall;workwear-styles;No
2155978;ASTF0043-Lt. Blue-2155978;SH FS AF23 SEM STR FS17ARPRSH030B1;Inactive - PMM - Category;Shirts;Arrow;Adults-Men;Men;Blue;;;Fashion;Formal;2017;39,ARRWSHRT00007005,40,ARRWSHRT00007006,42,ARRWSHRT00007007,44,ARRWSHRT00007008,46,ARRWSHRT00007009;2399.00;Blue self-design formal shirt, has a cutaway collar, button placket, 1 pocket, long sleeves, curved hem;This in-style shirt from Arrow will help you nail a handsome look.  This blue piece can be teamed with dark wash jeans and a fashionable blazer for your next work meeting.;Cotton <br> Machine-wash;Regular Fit<br> The model (height 6') is wearing a size M;;Arrow Men Blue Regular Fit Self Design Formal Shirt;Arrow,workwear-styles;zerotype;;Spring;workwear-styles;No
2021222;ASTF0832-Lt. Brown-2021222;SH FS AF23 SEM PRI FS17ARPRSH163C1;On Hold - Sample;Shirts;Arrow;Adults-Men;Men;;;;Fashion;;2017;39,ARRWSHRT00006053,40,ARRWSHRT00006054,42,ARRWSHRT00006055,44,ARRWSHRT00006056;1899.00;;;<p>Normal machine wash with cold water</p>;;;;workwear-styles;zerotype;;Summer;workwear-styles;No
2021173;ASTF0309-Beige-2021173;SH FS REG SEM STR FS17ARWLSH076A2;Draft;Shirts;Arrow;Adults-Men;Men;;;;Fashion;;2017;39,ARRWSHRT00005946,40,ARRWSHRT00005947;1899.00;;;<p>Normal machine wash with cold water</p>;;;;workwear-styles;zerotype;;Summer;workwear-styles;No
1966861;AKTF3000-Lt. Blue-1966861;TS REG POL SOL HS S17ARPRTS001B1;Active;Tshirts;Arrow;Adults-Men;Men;Blue;;;Fashion;Casual;2016;L,ARRWTSHT00000135,M,ARRWTSHT00000136,S,ARRWTSHT00000137,XL,ARRWTSHT00000138;1699.00;<a href='/blue?src=pd' class='seolink'>Blue</a> self-design T-shirt, has a polo collar, <a href='/short?src=pd' class='seolink'>short</a> sleeves, <a href='/1?src=pd' class='seolink'>1</a> pocket;Pull over this snug tee to keep your style looking fresh. You can pair this blue piece with slick black jeans and Chelsea boots for a fashionable weekend outfit.;Mercerized cotton <br /> Machine-wash;The model (height 6') is wearing a size M;;Arrow Men Blue Self Design Polo T-shirt;Arrow,formals-2238,formal-aug-mb,welcome-to-mynt-v2sep2017,welcome-to-myntra-sep2017,dutyfree-sept17,bbd17-coupon-offer,bbd17-combo-buy3,uber-offer-sept25,extra50-sep26,coh-exp-aug,bbd17-extra20,welcome-to-myntra-oct17,formalwear-min30sale,menscasualfest-oct,coupon-offer-sep30,combo-deals,combo-buy2-sep30,extra50-oct05,diwali17-ftod,menscasualfest-nov,buy40-oct25,buy2-oct25,express-delivery-17,try-and-buy-17,combo-deals-oct28,deal-oct-buy2,nov-buy3-2499,buy3-nov9,buy2-nov13,buy3-nov17,bfg17-coupon-offer,bfg17-non-disc,bfg17-extra20,mmb-tshirts,workwear-styles;zerotype;;Spring;workwear-styles;No
1423319;ASSF0299-Lt. Pink-1423319;SH  SLM CUT PRI A16ARWLSH077P1;Active;Shirts;Arrow;Adults-Men;Men;Pink;;;Fashion;Formal;2016;38,ARRWSHRT00005109,39,ARRWSHRT00005110,42,ARRWSHRT00005111,40,ARRWSHRT00005112;1899.00;<div>Pink printed&nbsp formal shirt, has a spread collar, a full button placket, a patch pocket, long sleeves, a curved hemline</div>;<p><div>Create the perfect impression at work in this shirt. Style it with a pair of formal trousers and leather shoes for a complete ensemble.</div></p>;<p>100% cotton<br>Machine-wash</p>;<p><div>Slim fit<br>The model (height 6' and shoulders 18") is wearing a size 40</div><div></div></p>;;Arrow Pink Printed Slim Fit Formal Shirt;Arrow,NIKO0387,arrow-aw16,arrow-aw16,aw16-arrow,fw16-mens-fom,rock-this-whimsical-style,slick-in-suits,ndd-deal,tat-styles-31aug,holiday-pu-puja,aw16-mensapp,formal-shirts-ernakulam,men-work-corp-shirts-slim,navratrimens,men-work-crop-all,bbd-pre-sale-2016,first-time-on-discount-bbd,first-time-on-discount-10oct,bbd-new-extra20,bbd-one-last,first-time-on-discount-diwali-sale,after-sale-price,wedding-gifts-for-family,wedding-groom-formal-shirts,wedding-gifts-for-groom,ftod-eors,provisioning-jan17,bbd17-coupon-offer,coh-exp-aug,bbd17-combo-buy2,uber-offer-sept25,bbd17-extra20,welcome-to-myntra-oct17,formalwear-min30sale,menscasualfest-oct,coupon-offer-sep30,combo-deals,combo-buy2-sep30,diwali17-ftod,coupon-offer-diwali17,ds17-buy2-1999,buy3-ds17,buy2-ds17,menscasualfest-nov,express-delivery-17,try-and-buy-17,combo-deals-oct28,bfg17-coupon-offer,bfg17-non-disc,bfg17-extra20,workwear-styles;zerotype;;Winter;workwear-styles;No
