Style ID;Vendor Article Number;Vendor Article Name;Active Status;Article type;Brand;Age Group;Gender;Base Colour;Colour1;Colour2;Fashion Type;Usage;Year;Size - SKU code pair;MRP;Style Description;Style Note;Materials and Care Description;Size and Fit Description;Size Chart Path;Product Display Name;Tags;Product Type;Classification Brand;Season;Comments;Upload Images
1887529;BZ-100318-30-Multi-1887529;Leather dress Bellerina Beige;Draft;Formal Shoes;Beanz;Kids-Girls;Girls;;;;Fashion;;2017;20,BEAZFOSH00000066,22,BEAZFOSH00000067,24,BEAZFOSH00000068,26,BEAZFOSH00000069,28,BEAZFOSH00000070,30,BEAZFOSH00000071;1999.00;;;;;;;;zerotype;;Summer;;No
1887528;BZ-100313-34-Purple-1887528;Genuine leather Marry janes mouve shoe;Draft;Formal Shoes;Beanz;Kids-Girls;Girls;;;;Fashion;;2017;26,BEAZFOSH00000061,28,BEAZFOSH00000062,30,BEAZFOSH00000063,32,BEAZFOSH00000064,34,BEAZFOSH00000065;1999.00;;;;;;;;zerotype;;Summer;;No
1887527;BZ-100274-36-Grey-1887527;Beanz Light Grey Leather Bellerina;Draft;Formal Shoes;Beanz;Kids-Girls;Girls;;;;Fashion;;2017;26,BEAZFOSH00000055,28,BEAZFOSH00000056,30,BEAZFOSH00000057,32,BEAZFOSH00000058,34,BEAZFOSH00000059,36,BEAZFOSH00000060;1499.00;;;;;;;;zerotype;;Summer;;No
1887526;BZ-100271-36-Purple-1887526;Beanz Wine Leather Bellerina;Draft;Formal Shoes;Beanz;Kids-Girls;Girls;;;;Fashion;;2017;26,BEAZFOSH00000049,28,BEAZFOSH00000050,30,BEAZFOSH00000051,32,BEAZFOSH00000052,34,BEAZFOSH00000053,36,BEAZFOSH00000054;1499.00;;;;;;;;zerotype;;Summer;;No
1887525;BZ-100269-36-Grey-1887525;Beanz Grey Leather Bellerina;Draft;Formal Shoes;Beanz;Kids-Girls;Girls;;;;Fashion;;2017;26,BEAZFOSH00000043,28,BEAZFOSH00000044,30,BEAZFOSH00000045,32,BEAZFOSH00000046,34,BEAZFOSH00000047,36,BEAZFOSH00000048;1499.00;;;;;;;;zerotype;;Summer;;No
1887524;BZ-100268-36-Pink-1887524;Beanz Pink Leather Bellerina;Draft;Formal Shoes;Beanz;Kids-Girls;Girls;;;;Fashion;;2017;26,BEAZFOSH00000037,28,BEAZFOSH00000038,30,BEAZFOSH00000039,32,BEAZFOSH00000040,34,BEAZFOSH00000041,36,BEAZFOSH00000042;1499.00;;;;;;;;zerotype;;Summer;;No
1887523;BZ-100264-36-Blue-1887523;Beanz Blue Leather Bellerina;Draft;Formal Shoes;Beanz;Kids-Girls;Girls;;;;Fashion;;2017;26,BEAZFOSH00000031,28,BEAZFOSH00000032,30,BEAZFOSH00000033,32,BEAZFOSH00000034,34,BEAZFOSH00000035,36,BEAZFOSH00000036;1499.00;;;;;;;;zerotype;;Summer;;No
1887522;BZ-100261-36-Navy Blue-1887522;Beanz Blue Leather Bellerina;Draft;Formal Shoes;Beanz;Kids-Girls;Girls;;;;Fashion;;2017;26,BEAZFOSH00000025,28,BEAZFOSH00000026,30,BEAZFOSH00000027,32,BEAZFOSH00000028,34,BEAZFOSH00000029,36,BEAZFOSH00000030;1499.00;;;;;;;;zerotype;;Summer;;No
1887521;BZ-001038-38-Red-1887521;Breathable Canvas sneakers;Draft;Formal Shoes;Beanz;Kids-Boys;Boys;;;;Fashion;;2017;24,BEAZFOSH00000013,25,BEAZFOSH00000014,27,BEAZFOSH00000015,28,BEAZFOSH00000016,30,BEAZFOSH00000017,31,BEAZFOSH00000018,32,BEAZFOSH00000019,33,BEAZFOSH00000020,34,BEAZFOSH00000021,36,BEAZFOSH00000022,37,BEAZFOSH00000023,38,BEAZFOSH00000024;1499.00;;;;;;;;zerotype;;Summer;;No
1887520;BZ-001037-38-Navy Blue-1887520;Breathable Canvas sneakers;Draft;Formal Shoes;Beanz;Kids-Boys;Boys;;;;Fashion;;2017;24,BEAZFOSH00000001,25,BEAZFOSH00000002,27,BEAZFOSH00000003,28,BEAZFOSH00000004,30,BEAZFOSH00000005,31,BEAZFOSH00000006,32,BEAZFOSH00000007,33,BEAZFOSH00000008,34,BEAZFOSH00000009,36,BEAZFOSH00000010,37,BEAZFOSH00000011,38,BEAZFOSH00000012;1499.00;;;;;;;;zerotype;;Summer;;No
1887519;BZ-100353-38-Black-1887519;Boys School Shoes;Draft;Casual Shoes;Beanz;Kids-Boys;Boys;;;;Fashion;;2017;30,BEAZCASH00000168,31,BEAZCASH00000169,32,BEAZCASH00000170,33,BEAZCASH00000171,34,BEAZCASH00000172,36,BEAZCASH00000173,37,BEAZCASH00000174,38,BEAZCASH00000175;1499.00;;;;;;;;zerotype;;Spring;;No
1887518;BZ-100333-36-Multi-1887518;Genuine leather triple velcro shoe iced chocl;Draft;Casual Shoes;Beanz;Kids-Boys;Boys;;;;Fashion;;2017;26,BEAZCASH00000162,28,BEAZCASH00000163,30,BEAZCASH00000164,32,BEAZCASH00000165,34,BEAZCASH00000166,36,BEAZCASH00000167;2499.00;;;;;;;;zerotype;;Spring;;No
1887517;BZ-100332-36-Multi-1887517;Genuine leather triple velcro shoe male red;Draft;Casual Shoes;Beanz;Kids-Boys;Boys;;;;Fashion;;2017;26,BEAZCASH00000156,28,BEAZCASH00000157,30,BEAZCASH00000158,32,BEAZCASH00000159,34,BEAZCASH00000160,36,BEAZCASH00000161;2499.00;;;;;;;;zerotype;;Spring;;No
1887516;BZ-100331-36-Multi-1887516;Genuine leather triple velcro shoe denim blue;Draft;Casual Shoes;Beanz;Kids-Boys;Boys;;;;Fashion;;2017;26,BEAZCASH00000150,28,BEAZCASH00000151,30,BEAZCASH00000152,32,BEAZCASH00000153,34,BEAZCASH00000154,36,BEAZCASH00000155;2499.00;;;;;;;;zerotype;;Spring;;No
1887515;BZ-100330-34-Blue-1887515;Patent leather ankle dress boot midnight blue;Draft;Casual Shoes;Beanz;Kids-Girls;Girls;;;;Fashion;;2017;24,BEAZCASH00000144,26,BEAZCASH00000145,28,BEAZCASH00000146,30,BEAZCASH00000147,32,BEAZCASH00000148,34,BEAZCASH00000149;2999.00;;;;;;;;zerotype;;Spring;;No
1887514;BZ-100328-34-Multi-1887514;Patent leather ankle dress boot black;Draft;Casual Shoes;Beanz;Kids-Girls;Girls;;;;Fashion;;2017;24,BEAZCASH00000138,26,BEAZCASH00000139,28,BEAZCASH00000140,30,BEAZCASH00000141,32,BEAZCASH00000142,34,BEAZCASH00000143;2999.00;;;;;;;;zerotype;;Spring;;No
1887513;BZ-100327-36-Multi-1887513;Patent leather ankle boot girls old gold;Draft;Casual Shoes;Beanz;Kids-Girls;Girls;;;;Fashion;;2017;26,BEAZCASH00000132,28,BEAZCASH00000133,30,BEAZCASH00000134,32,BEAZCASH00000135,34,BEAZCASH00000136,36,BEAZCASH00000137;2999.00;;;;;;;;zerotype;;Spring;;No
1887512;BZ-100326-36-Multi-1887512;Patent leather ankle boot girls Tomato red;Draft;Casual Shoes;Beanz;Kids-Girls;Girls;;;;Fashion;;2017;26,BEAZCASH00000126,28,BEAZCASH00000127,30,BEAZCASH00000128,32,BEAZCASH00000129,34,BEAZCASH00000130,36,BEAZCASH00000131;2999.00;;;;;;;;zerotype;;Spring;;No
1887511;BZ-100325-36-Gold-1887511;Genuin Leather high ankle calf  boot laceup t;Draft;Casual Shoes;Beanz;Kids-Girls;Girls;;;;Fashion;;2017;26,BEAZCASH00000120,28,BEAZCASH00000121,30,BEAZCASH00000122,32,BEAZCASH00000123,34,BEAZCASH00000124,36,BEAZCASH00000125;2999.00;;;;;;;;zerotype;;Spring;;No
1887510;BZ-100322-36-Multi-1887510;Genuin Leather high ankle calf  boot laceup t;Draft;Casual Shoes;Beanz;Kids-Girls;Girls;;;;Fashion;;2017;26,BEAZCASH00000114,28,BEAZCASH00000115,30,BEAZCASH00000116,32,BEAZCASH00000117,34,BEAZCASH00000118,36,BEAZCASH00000119;2999.00;;;;;;;;zerotype;;Spring;;No
1887509;BZ-100321-38-Multi-1887509;Leather ankle boot laceup taupe;Draft;Casual Shoes;Beanz;Kids-Boys;Boys;;;;Fashion;;2017;26,BEAZCASH00000107,28,BEAZCASH00000108,30,BEAZCASH00000109,32,BEAZCASH00000110,34,BEAZCASH00000111,36,BEAZCASH00000112,38,BEAZCASH00000113;2799.00;;;;;;;;zerotype;;Spring;;No
1887508;BZ-100320-38-Multi-1887508;Leather ankle boot laceup beige;Draft;Casual Shoes;Beanz;Kids-Boys;Boys;;;;Fashion;;2017;26,BEAZCASH00000100,28,BEAZCASH00000101,30,BEAZCASH00000102,32,BEAZCASH00000103,34,BEAZCASH00000104,36,BEAZCASH00000105,38,BEAZCASH00000106;2799.00;;;;;;;;zerotype;;Spring;;No
1887507;BZ-100312-26-Beige-1887507;Leather girls buckle shoe fawn;Draft;Casual Shoes;Beanz;Kids-Girls;Girls;;;;Fashion;;2017;18,BEAZCASH00000095,20,BEAZCASH00000096,22,BEAZCASH00000097,24,BEAZCASH00000098,26,BEAZCASH00000099;1999.00;;;;;;;;zerotype;;Spring;;No
1887506;BZ-100311-26-Pink-1887506;Leather girls buckle shoe Barbie pink;Draft;Casual Shoes;Beanz;Kids-Girls;Girls;;;;Fashion;;2017;18,BEAZCASH00000090,20,BEAZCASH00000091,22,BEAZCASH00000092,24,BEAZCASH00000093,26,BEAZCASH00000094;1999.00;;;;;;;;zerotype;;Spring;;No
