Style ID;Vendor Article Number;Vendor Article Name;Active Status;Article type;Brand;Age Group;Gender;Base Colour;Colour1;Colour2;Fashion Type;Usage;Year;Size - SKU code pair;MRP;Style Description;Style Note;Materials and Care Description;Size and Fit Description;Size Chart Path;Product Display Name;Tags;Product Type;Classification Brand;Season;Comments;Upload Images
1868301;41-3229-11-41-Grey-1868301;41-3229;Draft;Flats;Mochi;Adults-Women;Women;;;;Fashion;;2017;EURO36,MCHIFlats00007824,EURO37,MCHIFlats00007825,EURO38,MCHIFlats00007826,EURO39,MCHIFlats00007827,EURO40,MCHIFlats00007828,EURO41,MCHIFlats00007829;1690.00;;;;;;;;zerotype;;Summer;;No
1868299;35-2561-97-41-Beige-1868299;35-2561;Draft;Flats;Mochi;Adults-Women;Women;;;;Fashion;;2017;EURO36,MCHIFlats00007818,EURO37,MCHIFlats00007819,EURO38,MCHIFlats00007820,EURO39,MCHIFlats00007821,EURO40,MCHIFlats00007822,EURO41,MCHIFlats00007823;1890.00;;;;;;;;zerotype;;Summer;;No
1868298;35-2561-21-41-Blue-1868298;35-2561;Draft;Flats;Mochi;Adults-Women;Women;;;;Fashion;;2017;EURO37,MCHIFlats00007813,EURO38,MCHIFlats00007814,EURO39,MCHIFlats00007815,EURO40,MCHIFlats00007816,EURO41,MCHIFlats00007817;1890.00;;;;;;;;zerotype;;Summer;;No
1868296;35-2560-97-41-Orange-1868296;35-2560;Draft;Flats;Mochi;Adults-Women;Women;;;;Fashion;;2017;EURO36,MCHIFlats00007807,EURO37,MCHIFlats00007808,EURO38,MCHIFlats00007809,EURO39,MCHIFlats00007810,EURO40,MCHIFlats00007811,EURO41,MCHIFlats00007812;1890.00;;;;;;;;zerotype;;Summer;;No
1868294;35-2322-28-41-Gold-1868294;35-2322;Draft;Flats;Mochi;Adults-Women;Women;;;;Fashion;;2017;EURO36,MCHIFlats00007801,EURO37,MCHIFlats00007802,EURO38,MCHIFlats00007803,EURO39,MCHIFlats00007804,EURO40,MCHIFlats00007805,EURO41,MCHIFlats00007806;1990.00;;;;;;;;zerotype;;Summer;;No
1868292;33-9749-28-41-Gold-1868292;33-9749;Draft;Flats;Mochi;Adults-Women;Women;;;;Fashion;;2017;EURO36,MCHIFlats00007795,EURO37,MCHIFlats00007796,EURO38,MCHIFlats00007797,EURO39,MCHIFlats00007798,EURO40,MCHIFlats00007799,EURO41,MCHIFlats00007800;1290.00;;;;;;;;zerotype;;Summer;;No
1868290;33-9644-33-41-Beige-1868290;33-9644;Draft;Flats;Mochi;Adults-Women;Women;;;;Fashion;;2017;EURO36,MCHIFlats00007789,EURO37,MCHIFlats00007790,EURO38,MCHIFlats00007791,EURO39,MCHIFlats00007792,EURO40,MCHIFlats00007793,EURO41,MCHIFlats00007794;1290.00;;;;;;;;zerotype;;Summer;;No
1868288;33-9335-80-41-Beige-1868288;33-9335;Draft;Flats;Mochi;Adults-Women;Women;;;;Fashion;;2017;EURO36,MCHIFlats00007783,EURO37,MCHIFlats00007784,EURO38,MCHIFlats00007785,EURO39,MCHIFlats00007786,EURO40,MCHIFlats00007787,EURO41,MCHIFlats00007788;990.00;;;;;;;;zerotype;;Summer;;No
1868286;32-9080-80-41-Pink-1868286;32-9080;Draft;Flats;Mochi;Adults-Women;Women;;;;Fashion;;2017;EURO37,MCHIFlats00007778,EURO38,MCHIFlats00007779,EURO39,MCHIFlats00007780,EURO40,MCHIFlats00007781,EURO41,MCHIFlats00007782;990.00;;;;;;;;zerotype;;Summer;;No
1868284;32-8979-80-41-Pink-1868284;32-8979;Draft;Flats;Mochi;Adults-Women;Women;;;;Fashion;;2017;EURO36,MCHIFlats00007772,EURO37,MCHIFlats00007773,EURO38,MCHIFlats00007774,EURO39,MCHIFlats00007775,EURO40,MCHIFlats00007776,EURO41,MCHIFlats00007777;1290.00;;;;;;;;zerotype;;Summer;;No
1868282;32-8808-33-41-Mustard-1868282;32-8808;Draft;Flats;Mochi;Adults-Women;Women;;;;Fashion;;2017;EURO36,MCHIFlats00007766,EURO37,MCHIFlats00007767,EURO38,MCHIFlats00007768,EURO39,MCHIFlats00007769,EURO40,MCHIFlats00007770,EURO41,MCHIFlats00007771;990.00;;;;;;;;zerotype;;Summer;;No
1868281;32-8727-33-41-Olive-1868281;32-8727;Draft;Flats;Mochi;Adults-Women;Women;;;;Fashion;;2017;EURO36,MCHIFlats00007760,EURO37,MCHIFlats00007761,EURO38,MCHIFlats00007762,EURO39,MCHIFlats00007763,EURO40,MCHIFlats00007764,EURO41,MCHIFlats00007765;1290.00;;;;;;;;zerotype;;Summer;;No
1868279;36-7665-32-41-LIGHT-BLUE-1868279;36-7665;Draft;Casual Shoes;Mochi;Adults-Women;Women;;;;Fashion;;2017;EURO36,MCHICASH00000692,EURO37,MCHICASH00000693,EURO38,MCHICASH00000694,EURO39,MCHICASH00000695,EURO40,MCHICASH00000696,EURO41,MCHICASH00000697;2290.00;;;;;;;;zerotype;;Summer;;No
1868278;36-7260-26-41-PURPLE-1868278;36-7260;Draft;Casual Shoes;Mochi;Adults-Women;Women;;;;Fashion;;2017;EURO36,MCHICASH00000686,EURO37,MCHICASH00000687,EURO38,MCHICASH00000688,EURO39,MCHICASH00000689,EURO40,MCHICASH00000690,EURO41,MCHICASH00000691;1990.00;;;;;;;;zerotype;;Summer;;No
1868277;36-6952-32-41-LIGHT-BLUE-1868277;36-6952;Draft;Casual Shoes;Mochi;Adults-Women;Women;;;;Fashion;;2017;EURO36,MCHICASH00000680,EURO37,MCHICASH00000681,EURO38,MCHICASH00000682,EURO39,MCHICASH00000683,EURO40,MCHICASH00000684,EURO41,MCHICASH00000685;1690.00;;;;;;;;zerotype;;Summer;;No
1868276;54-2701-22-41-CHIKOO-1868276;54-2701;Draft;Heels;Mochi;Adults-Women;Women;;;;Fashion;;2017;EURO36,MCHIHeels00009526,EURO37,MCHIHeels00009527,EURO38,MCHIHeels00009528,EURO39,MCHIHeels00009529,EURO40,MCHIHeels00009530,EURO41,MCHIHeels00009531;2990.00;;;;;;;;zerotype;;Summer;;No
1868275;54-2655-28-40-ANTIQUE-GOLD-1868275;54-2655;Draft;Heels;Mochi;Adults-Women;Women;;;;Fashion;;2017;EURO36,MCHIHeels00009521,EURO37,MCHIHeels00009522,EURO38,MCHIHeels00009523,EURO39,MCHIHeels00009524,EURO40,MCHIHeels00009525;2990.00;;;;;;;;zerotype;;Summer;;No
1868274;54-2255-28-40-ANTIQUE-GOLD-1868274;54-2255;Draft;Heels;Mochi;Adults-Women;Women;;;;Fashion;;2017;EURO36,MCHIHeels00009516,EURO37,MCHIHeels00009517,EURO38,MCHIHeels00009518,EURO39,MCHIHeels00009519,EURO40,MCHIHeels00009520;3690.00;;;;;;;;zerotype;;Summer;;No
1868273;41-3097-33-41-YELLOW-1868273;41-3097;Draft;Heels;Mochi;Adults-Women;Women;;;;Fashion;;2017;EURO36,MCHIHeels00009510,EURO37,MCHIHeels00009511,EURO38,MCHIHeels00009512,EURO39,MCHIHeels00009513,EURO40,MCHIHeels00009514,EURO41,MCHIHeels00009515;1490.00;;;;;;;;zerotype;;Summer;;No
1868272;41-3097-22-41-CHIKOO-1868272;41-3097;Draft;Heels;Mochi;Adults-Women;Women;;;;Fashion;;2017;EURO36,MCHIHeels00009504,EURO37,MCHIHeels00009505,EURO38,MCHIHeels00009506,EURO39,MCHIHeels00009507,EURO40,MCHIHeels00009508,EURO41,MCHIHeels00009509;1490.00;;;;;;;;zerotype;;Summer;;No
1868271;41-3008-12-41-BROWN-1868271;41-3008;Draft;Heels;Mochi;Adults-Women;Women;;;;Fashion;;2017;EURO36,MCHIHeels00009498,EURO37,MCHIHeels00009499,EURO38,MCHIHeels00009500,EURO39,MCHIHeels00009501,EURO40,MCHIHeels00009502,EURO41,MCHIHeels00009503;1490.00;;;;;;;;zerotype;;Summer;;No
1868270;41-3008-11-41-BLACK-1868270;41-3008;Draft;Heels;Mochi;Adults-Women;Women;;;;Fashion;;2017;EURO36,MCHIHeels00009492,EURO37,MCHIHeels00009493,EURO38,MCHIHeels00009494,EURO39,MCHIHeels00009495,EURO40,MCHIHeels00009496,EURO41,MCHIHeels00009497;1490.00;;;;;;;;zerotype;;Summer;;No
1868269;40-2541-97-40-CAMEL-1868269;40-2541;Draft;Heels;Mochi;Adults-Women;Women;;;;Fashion;;2017;EURO36,MCHIHeels00009487,EURO37,MCHIHeels00009488,EURO38,MCHIHeels00009489,EURO39,MCHIHeels00009490,EURO40,MCHIHeels00009491;2490.00;;;;;;;;zerotype;;Summer;;No
1868267;35-2755-29-41-GUN-METAL-1868267;35-2755;Draft;Heels;Mochi;Adults-Women;Women;;;;Fashion;;2017;EURO36,MCHIHeels00009481,EURO37,MCHIHeels00009482,EURO38,MCHIHeels00009483,EURO39,MCHIHeels00009484,EURO40,MCHIHeels00009485,EURO41,MCHIHeels00009486;1690.00;;;;;;;;zerotype;;Summer;;No
1868265;35-2755-28-41-ANTIQUE-GOLD-1868265;35-2755;Draft;Heels;Mochi;Adults-Women;Women;;;;Fashion;;2017;EURO36,MCHIHeels00009475,EURO37,MCHIHeels00009476,EURO38,MCHIHeels00009477,EURO39,MCHIHeels00009478,EURO40,MCHIHeels00009479,EURO41,MCHIHeels00009480;1690.00;;;;;;;;zerotype;;Summer;;No
1868263;35-2734-22-41-CHIKOO-1868263;35-2734;Draft;Heels;Mochi;Adults-Women;Women;;;;Fashion;;2017;EURO36,MCHIHeels00009469,EURO37,MCHIHeels00009470,EURO38,MCHIHeels00009471,EURO39,MCHIHeels00009472,EURO40,MCHIHeels00009473,EURO41,MCHIHeels00009474;1690.00;;;;;;;;zerotype;;Summer;;No
1868260;35-2646-28-41-ANTIQUE-GOLD-1868260;35-2646;Draft;Heels;Mochi;Adults-Women;Women;;;;Fashion;;2017;EURO36,MCHIHeels00009463,EURO37,MCHIHeels00009464,EURO38,MCHIHeels00009465,EURO39,MCHIHeels00009466,EURO40,MCHIHeels00009467,EURO41,MCHIHeels00009468;1990.00;;;;;;;;zerotype;;Summer;;No
1868258;35-2537-29-41-GUN-METAL-1868258;35-2537;Draft;Heels;Mochi;Adults-Women;Women;;;;Fashion;;2017;EURO36,MCHIHeels00009457,EURO37,MCHIHeels00009458,EURO38,MCHIHeels00009459,EURO39,MCHIHeels00009460,EURO40,MCHIHeels00009461,EURO41,MCHIHeels00009462;1490.00;;;;;;;;zerotype;;Summer;;No
1868255;35-2334-13-41-MULTI-1868255;35-2334;Draft;Heels;Mochi;Adults-Women;Women;;;;Fashion;;2017;EURO36,MCHIHeels00009451,EURO37,MCHIHeels00009452,EURO38,MCHIHeels00009453,EURO39,MCHIHeels00009454,EURO40,MCHIHeels00009455,EURO41,MCHIHeels00009456;1490.00;;;;;;;;zerotype;;Summer;;No
1868253;35-2321-22-41-CHIKOO-1868253;35-2321;Draft;Heels;Mochi;Adults-Women;Women;;;;Fashion;;2017;EURO36,MCHIHeels00009445,EURO37,MCHIHeels00009446,EURO38,MCHIHeels00009447,EURO39,MCHIHeels00009448,EURO40,MCHIHeels00009449,EURO41,MCHIHeels00009450;1690.00;;;;;;;;zerotype;;Summer;;No
1868251;35-2217-44-40-MAROON-1868251;35-2217;Draft;Heels;Mochi;Adults-Women;Women;;;;Fashion;;2017;EURO37,MCHIHeels00009441,EURO38,MCHIHeels00009442,EURO39,MCHIHeels00009443,EURO40,MCHIHeels00009444;1490.00;;;;;;;;zerotype;;Summer;;No
1868249;35-1741-44-41-MAROON-1868249;35-1741;Draft;Heels;Mochi;Adults-Women;Women;;;;Fashion;;2017;EURO36,MCHIHeels00009435,EURO37,MCHIHeels00009436,EURO38,MCHIHeels00009437,EURO39,MCHIHeels00009438,EURO40,MCHIHeels00009439,EURO41,MCHIHeels00009440;1990.00;;;;;;;;zerotype;;Summer;;No
1868247;34-9292-97-41-CAMEL-1868247;34-9292;Draft;Heels;Mochi;Adults-Women;Women;;;;Fashion;;2017;EURO36,MCHIHeels00009429,EURO37,MCHIHeels00009430,EURO38,MCHIHeels00009431,EURO39,MCHIHeels00009432,EURO40,MCHIHeels00009433,EURO41,MCHIHeels00009434;2290.00;;;;;;;;zerotype;;Summer;;No
1868245;34-9238-97-41-CAMEL-1868245;34-9238;Draft;Heels;Mochi;Adults-Women;Women;;;;Fashion;;2017;EURO36,MCHIHeels00009423,EURO37,MCHIHeels00009424,EURO38,MCHIHeels00009425,EURO39,MCHIHeels00009426,EURO40,MCHIHeels00009427,EURO41,MCHIHeels00009428;2490.00;;;;;;;;zerotype;;Summer;;No
1868242;34-9219-45-41-BLUE-1868242;34-9219;Draft;Heels;Mochi;Adults-Women;Women;;;;Fashion;;2017;EURO36,MCHIHeels00009417,EURO37,MCHIHeels00009418,EURO38,MCHIHeels00009419,EURO39,MCHIHeels00009420,EURO40,MCHIHeels00009421,EURO41,MCHIHeels00009422;2690.00;;;;;;;;zerotype;;Summer;;No
1868240;34-9219-24-41-PINK-1868240;34-9219;Draft;Heels;Mochi;Adults-Women;Women;;;;Fashion;;2017;EURO36,MCHIHeels00009411,EURO37,MCHIHeels00009412,EURO38,MCHIHeels00009413,EURO39,MCHIHeels00009414,EURO40,MCHIHeels00009415,EURO41,MCHIHeels00009416;2690.00;;;;;;;;zerotype;;Summer;;No
1868238;34-9178-22-40-CHIKOO-1868238;34-9178;Draft;Heels;Mochi;Adults-Women;Women;;;;Fashion;;2017;EURO36,MCHIHeels00009406,EURO37,MCHIHeels00009407,EURO38,MCHIHeels00009408,EURO39,MCHIHeels00009409,EURO40,MCHIHeels00009410;1690.00;;;;;;;;zerotype;;Summer;;No
1868236;34-9150-17-41-BLUE-NAVY-1868236;34-9150;Draft;Heels;Mochi;Adults-Women;Women;;;;Fashion;;2017;EURO36,MCHIHeels00009400,EURO37,MCHIHeels00009401,EURO38,MCHIHeels00009402,EURO39,MCHIHeels00009403,EURO40,MCHIHeels00009404,EURO41,MCHIHeels00009405;1990.00;;;;;;;;zerotype;;Summer;;No
1868227;33-9805-45-41-BLUE-1868227;33-9805;Draft;Heels;Mochi;Adults-Women;Women;;;;Fashion;;2017;EURO36,MCHIHeels00009394,EURO37,MCHIHeels00009395,EURO38,MCHIHeels00009396,EURO39,MCHIHeels00009397,EURO40,MCHIHeels00009398,EURO41,MCHIHeels00009399;1690.00;;;;;;;;zerotype;;Summer;;No
1868216;33-9805-18-41-RED-1868216;33-9805;Draft;Heels;Mochi;Adults-Women;Women;;;;Fashion;;2017;EURO36,MCHIHeels00009388,EURO37,MCHIHeels00009389,EURO38,MCHIHeels00009390,EURO39,MCHIHeels00009391,EURO40,MCHIHeels00009392,EURO41,MCHIHeels00009393;1690.00;;;;;;;;zerotype;;Summer;;No
1868204;33-9800-80-41-PEECH-1868204;33-9800;Draft;Heels;Mochi;Adults-Women;Women;;;;Fashion;;2017;EURO36,MCHIHeels00009382,EURO37,MCHIHeels00009383,EURO38,MCHIHeels00009384,EURO39,MCHIHeels00009385,EURO40,MCHIHeels00009386,EURO41,MCHIHeels00009387;1690.00;;;;;;;;zerotype;;Summer;;No
1868195;33-9678-18-41-RED-1868195;33-9678;Draft;Heels;Mochi;Adults-Women;Women;;;;Fashion;;2017;EURO36,MCHIHeels00009376,EURO37,MCHIHeels00009377,EURO38,MCHIHeels00009378,EURO39,MCHIHeels00009379,EURO40,MCHIHeels00009380,EURO41,MCHIHeels00009381;1890.00;;;;;;;;zerotype;;Summer;;No
1868186;33-9616-11-41-BLACK-1868186;33-9616;Draft;Heels;Mochi;Adults-Women;Women;;;;Fashion;;2017;EURO36,MCHIHeels00009370,EURO37,MCHIHeels00009371,EURO38,MCHIHeels00009372,EURO39,MCHIHeels00009373,EURO40,MCHIHeels00009374,EURO41,MCHIHeels00009375;1690.00;;;;;;;;zerotype;;Summer;;No
1868183;33-9561-23-41-TAN-1868183;33-9561;Draft;Heels;Mochi;Adults-Women;Women;;;;Fashion;;2017;EURO36,MCHIHeels00009364,EURO37,MCHIHeels00009365,EURO38,MCHIHeels00009366,EURO39,MCHIHeels00009367,EURO40,MCHIHeels00009368,EURO41,MCHIHeels00009369;1490.00;;;;;;;;zerotype;;Summer;;No
1868180;33-9561-18-41-RED-1868180;33-9561;Draft;Heels;Mochi;Adults-Women;Women;;;;Fashion;;2017;EURO36,MCHIHeels00009358,EURO37,MCHIHeels00009359,EURO38,MCHIHeels00009360,EURO39,MCHIHeels00009361,EURO40,MCHIHeels00009362,EURO41,MCHIHeels00009363;1490.00;;;;;;;;zerotype;;Summer;;No
1868178;33-9561-11-41-BLACK-1868178;33-9561;Draft;Heels;Mochi;Adults-Women;Women;;;;Fashion;;2017;EURO36,MCHIHeels00009352,EURO37,MCHIHeels00009353,EURO38,MCHIHeels00009354,EURO39,MCHIHeels00009355,EURO40,MCHIHeels00009356,EURO41,MCHIHeels00009357;1490.00;;;;;;;;zerotype;;Summer;;No
1868177;33-9545-21-41-GREEN-1868177;33-9545;Draft;Heels;Mochi;Adults-Women;Women;;;;Fashion;;2017;EURO36,MCHIHeels00009346,EURO37,MCHIHeels00009347,EURO38,MCHIHeels00009348,EURO39,MCHIHeels00009349,EURO40,MCHIHeels00009350,EURO41,MCHIHeels00009351;1290.00;;;;;;;;zerotype;;Summer;;No
1868174;33-9389-22-41-CHIKOO-1868174;33-9389;Draft;Heels;Mochi;Adults-Women;Women;;;;Fashion;;2017;EURO36,MCHIHeels00009340,EURO37,MCHIHeels00009341,EURO38,MCHIHeels00009342,EURO39,MCHIHeels00009343,EURO40,MCHIHeels00009344,EURO41,MCHIHeels00009345;1690.00;;;;;;;;zerotype;;Summer;;No
1868172;33-8970-20-41-BEIGE-1868172;33-8970;Draft;Heels;Mochi;Adults-Women;Women;;;;Fashion;;2017;EURO36,MCHIHeels00009334,EURO37,MCHIHeels00009335,EURO38,MCHIHeels00009336,EURO39,MCHIHeels00009337,EURO40,MCHIHeels00009338,EURO41,MCHIHeels00009339;1690.00;;;;;;;;zerotype;;Summer;;No
1868170;32-9098-16-41-WHITE-1868170;32-9098;Draft;Heels;Mochi;Adults-Women;Women;;;;Fashion;;2017;EURO36,MCHIHeels00009328,EURO37,MCHIHeels00009329,EURO38,MCHIHeels00009330,EURO39,MCHIHeels00009331,EURO40,MCHIHeels00009332,EURO41,MCHIHeels00009333;1290.00;;;;;;;;zerotype;;Summer;;No
1868168;32-8970-16-41-WHITE-1868168;32-8970;Draft;Heels;Mochi;Adults-Women;Women;;;;Fashion;;2017;EURO36,MCHIHeels00009322,EURO37,MCHIHeels00009323,EURO38,MCHIHeels00009324,EURO39,MCHIHeels00009325,EURO40,MCHIHeels00009326,EURO41,MCHIHeels00009327;1290.00;;;;;;;;zerotype;;Summer;;No
1868167;32-8949-80-41-PEECH-1868167;32-8949;Draft;Heels;Mochi;Adults-Women;Women;;;;Fashion;;2017;EURO36,MCHIHeels00009316,EURO37,MCHIHeels00009317,EURO38,MCHIHeels00009318,EURO39,MCHIHeels00009319,EURO40,MCHIHeels00009320,EURO41,MCHIHeels00009321;1290.00;;;;;;;;zerotype;;Summer;;No
1868166;32-8804-16-41-WHITE-1868166;32-8804;Draft;Heels;Mochi;Adults-Women;Women;;;;Fashion;;2017;EURO36,MCHIHeels00009310,EURO37,MCHIHeels00009311,EURO38,MCHIHeels00009312,EURO39,MCHIHeels00009313,EURO40,MCHIHeels00009314,EURO41,MCHIHeels00009315;1490.00;;;;;;;;zerotype;;Summer;;No
1868165;32-8771-16-40-WHITE-1868165;32-8771;Draft;Heels;Mochi;Adults-Women;Women;;;;Fashion;;2017;EURO36,MCHIHeels00009305,EURO37,MCHIHeels00009306,EURO38,MCHIHeels00009307,EURO39,MCHIHeels00009308,EURO40,MCHIHeels00009309;1490.00;;;;;;;;zerotype;;Summer;;No
