Style ID;Vendor Article Number;Vendor Article Name;Active Status;Article type;Brand;Age Group;Gender;Base Colour;Colour1;Colour2;Fashion Type;Usage;Year;Size - SKU code pair;MRP;Style Description;Style Note;Materials and Care Description;Size and Fit Description;Size Chart Path;Product Display Name;Tags;Product Type;Classification Brand;Season;Comments;Upload Images
2623245;ESF617000455-Blue-2623245;Shirts;Draft;Shirts;Peter England Casuals;Adults-Men;Men;Blue;;;Fashion;;2017;39,PEDCSHRT00003386,36,PEDCSHRT00003387;1599.00;;;<p>100% Cotton</p>;;;na;;zerotype;;Winter;;No
2623244;ESF617000406-White-2623244;Shirts;Draft;Shirts;Peter England Casuals;Adults-Men;Men;White;Blue;;Fashion;;2017;44,PEDCSHRT00003382,42,PEDCSHRT00003383,40,PEDCSHRT00003384,38,PEDCSHRT00003385;1599.00;;;<p>100% Cotton</p>;;;na;;zerotype;;Winter;;No
2623243;ESF617000413-White-2623243;Shirts;Draft;Shirts;Peter England Casuals;Adults-Men;Men;White;;;Fashion;;2017;40,PEDCSHRT00003378,38,PEDCSHRT00003379,44,PEDCSHRT00003380,42,PEDCSHRT00003381;1599.00;;;<p>100% Cotton</p>;;;na;;zerotype;;Winter;;No
2623242;ESF617000413-White-2623242;Shirts;Draft;Shirts;Peter England Casuals;Adults-Men;Men;White;;;Fashion;;2017;39,PEDCSHRT00003376,36,PEDCSHRT00003377;1599.00;;;<p>100% Cotton</p>;;;na;;zerotype;;Winter;;No
2623241;ESF617000406-White-2623241;Shirts;Draft;Shirts;Peter England Casuals;Adults-Men;Men;White;Blue;;Fashion;;2017;46,PEDCSHRT00003375;1699.00;;;<p>100% Cotton</p>;;;na;;zerotype;;Winter;;No
2623240;ESF617000455-Blue-2623240;Shirts;Draft;Shirts;Peter England Casuals;Adults-Men;Men;Blue;;;Fashion;;2017;46,PEDCSHRT00003374;1699.00;;;<p>100% Cotton</p>;;;na;;zerotype;;Winter;;No
2623239;ESF617000406-White-2623239;Shirts;Draft;Shirts;Peter England Casuals;Adults-Men;Men;White;Blue;;Fashion;;2017;39,PEDCSHRT00003372,36,PEDCSHRT00003373;1599.00;;;<p>100% Cotton</p>;;;na;;zerotype;;Winter;;No
2623237;ESF617000455-Blue-2623237;Shirts;Draft;Shirts;Peter England Casuals;Adults-Men;Men;Blue;;;Fashion;;2017;38,PEDCSHRT00003368,44,PEDCSHRT00003369,42,PEDCSHRT00003370,40,PEDCSHRT00003371;1599.00;;;<p>100% Cotton</p>;;;na;;zerotype;;Winter;;No
2623235;ESF617000413-White-2623235;Shirts;Draft;Shirts;Peter England Casuals;Adults-Men;Men;White;;;Fashion;;2017;46,PEDCSHRT00003367;1699.00;;;<p>100% Cotton</p>;;;na;;zerotype;;Winter;;No
