Style ID;Vendor Article Number;Vendor Article Name;Active Status;Article type;Brand;Age Group;Gender;Base Colour;Colour1;Colour2;Fashion Type;Usage;Year;Size - SKU code pair;MRP;Style Description;Style Note;Materials and Care Description;Size and Fit Description;Size Chart Path;Product Display Name;Tags;Product Type;Classification Brand;Season;Comments;Upload Images
2444867;XMTY02389-W1-White-2444867;SLIM FIT PIPED POCKET TROUSER;Draft;Trousers;Parx;Adults-Men;Men;White;;;Fashion;;2017;30,PARXTRSR00003930,32,PARXTRSR00003931,34,PARXTRSR00003932,36,PARXTRSR00003933,38,PARXTRSR00003934,40,PARXTRSR00003935,42,PARXTRSR00003936,44,PARXTRSR00003937;1899.00;;;<p>M/C Wash Gentle,Cotton 97%/Lycra 03%</p>;;;;;zerotype;;Winter;;No
2444865;XMTY02389-H5-Khaki-2444865;SLIM FIT PIPED POCKET TROUSER;Draft;Trousers;Parx;Adults-Men;Men;Khaki;;;Fashion;;2017;30,PARXTRSR00003922,32,PARXTRSR00003923,34,PARXTRSR00003924,36,PARXTRSR00003925,38,PARXTRSR00003926,40,PARXTRSR00003927,42,PARXTRSR00003928,44,PARXTRSR00003929;1899.00;;;<p>M/C Wash Gentle,Cotton 97%/Lycra 03%</p>;;;;;zerotype;;Winter;;No
2444863;XMTY02389-F2-Beige-2444863;SLIM FIT PIPED POCKET TROUSER;Draft;Trousers;Parx;Adults-Men;Men;Beige;;;Fashion;;2017;30,PARXTRSR00003914,32,PARXTRSR00003915,34,PARXTRSR00003916,36,PARXTRSR00003917,38,PARXTRSR00003918,40,PARXTRSR00003919,42,PARXTRSR00003920,44,PARXTRSR00003921;1899.00;;;<p>M/C Wash Gentle,Cotton 97%/Lycra 03%</p>;;;;;zerotype;;Winter;;No
2444862;XMTX02391-O7-Brown-2444862;PROFILE STCHD FRT PKT TROUSER IN LRT FIT;Draft;Trousers;Parx;Adults-Men;Men;Brown;;;Fashion;;2017;30,PARXTRSR00003906,32,PARXTRSR00003907,34,PARXTRSR00003908,36,PARXTRSR00003909,38,PARXTRSR00003910,40,PARXTRSR00003911,42,PARXTRSR00003912,44,PARXTRSR00003913;2199.00;;;<p>M/C Wash Gentle,Cotton 97%/Lycra 03%</p>;;;;;zerotype;;Winter;;No
2444861;XMTX02391-O5-Brown-2444861;PROFILE STCHD FRT PKT TROUSER IN LRT FIT;Draft;Trousers;Parx;Adults-Men;Men;Brown;;;Fashion;;2017;30,PARXTRSR00003898,32,PARXTRSR00003899,34,PARXTRSR00003900,36,PARXTRSR00003901,38,PARXTRSR00003902,40,PARXTRSR00003903,42,PARXTRSR00003904,44,PARXTRSR00003905;2199.00;;;<p>M/C Wash Gentle,Cotton 97%/Lycra 03%</p>;;;;;zerotype;;Winter;;No
2444860;XMTX02391-N7-Green-2444860;PROFILE STCHD FRT PKT TROUSER IN LRT FIT;Draft;Trousers;Parx;Adults-Men;Men;Green;;;Fashion;;2017;30,PARXTRSR00003890,32,PARXTRSR00003891,34,PARXTRSR00003892,36,PARXTRSR00003893,38,PARXTRSR00003894,40,PARXTRSR00003895,42,PARXTRSR00003896,44,PARXTRSR00003897;2199.00;;;<p>M/C Wash Gentle,Cotton 97%/Lycra 03%</p>;;;;;zerotype;;Winter;;No
2444859;XMTX02391-K8-Black-2444859;PROFILE STCHD FRT PKT TROUSER IN LRT FIT;Draft;Trousers;Parx;Adults-Men;Men;Black;;;Fashion;;2017;30,PARXTRSR00003882,32,PARXTRSR00003883,34,PARXTRSR00003884,36,PARXTRSR00003885,38,PARXTRSR00003886,40,PARXTRSR00003887,42,PARXTRSR00003888,44,PARXTRSR00003889;2199.00;;;<p>M/C Wash Gentle,Cotton 97%/Lycra 03%</p>;;;;;zerotype;;Winter;;No
2444858;XMTX02391-H5-Khaki-2444858;PROFILE STCHD FRT PKT TROUSER IN LRT FIT;Draft;Trousers;Parx;Adults-Men;Men;Khaki;;;Fashion;;2017;30,PARXTRSR00003874,32,PARXTRSR00003875,34,PARXTRSR00003876,36,PARXTRSR00003877,38,PARXTRSR00003878,40,PARXTRSR00003879,42,PARXTRSR00003880,44,PARXTRSR00003881;2199.00;;;<p>M/C Wash Gentle,Cotton 97%/Lycra 03%</p>;;;;;zerotype;;Winter;;No
2444856;XMTX02391-B5-Blue-2444856;PROFILE STCHD FRT PKT TROUSER IN LRT FIT;Draft;Trousers;Parx;Adults-Men;Men;Blue;;;Fashion;;2017;30,PARXTRSR00003858,32,PARXTRSR00003859,34,PARXTRSR00003860,36,PARXTRSR00003861,38,PARXTRSR00003862,40,PARXTRSR00003863,42,PARXTRSR00003864,44,PARXTRSR00003865;2199.00;;;<p>M/C Wash Gentle,Cotton 97%/Lycra 03%</p>;;;;;zerotype;;Winter;;No
2444853;XMTD02390-K8-Black-2444853;BASIC FLAT FRONT TROUSER IN LRT FIT;Draft;Trousers;Parx;Adults-Men;Men;Black;;;Fashion;;2017;30,PARXTRSR00003834,32,PARXTRSR00003835,34,PARXTRSR00003836,36,PARXTRSR00003837,38,PARXTRSR00003838,40,PARXTRSR00003839,42,PARXTRSR00003840,44,PARXTRSR00003841;1799.00;;;<p>M/C Wash Gentle,Cotton 97%/Lycra 03%</p>;;;;;zerotype;;Winter;;No
2444852;XMTD02390-H5-Khaki-2444852;BASIC FLAT FRONT TROUSER IN LRT FIT;Draft;Trousers;Parx;Adults-Men;Men;Khaki;;;Fashion;;2017;30,PARXTRSR00003826,32,PARXTRSR00003827,34,PARXTRSR00003828,36,PARXTRSR00003829,38,PARXTRSR00003830,40,PARXTRSR00003831,42,PARXTRSR00003832,44,PARXTRSR00003833;1799.00;;;<p>M/C Wash Gentle,Cotton 97%/Lycra 03%</p>;;;;;zerotype;;Winter;;No
2444851;XMTD02390-B8-Blue-2444851;BASIC FLAT FRONT TROUSER IN LRT FIT;Draft;Trousers;Parx;Adults-Men;Men;Blue;;;Fashion;;2017;30,PARXTRSR00003818,32,PARXTRSR00003819,34,PARXTRSR00003820,36,PARXTRSR00003821,38,PARXTRSR00003822,40,PARXTRSR00003823,42,PARXTRSR00003824,44,PARXTRSR00003825;1799.00;;;<p>M/C Wash Gentle,Cotton 97%/Lycra 03%</p>;;;;;zerotype;;Winter;;No
2444845;XMTD02389-W1-White-2444845;BASIC FLAT FRONT TROUSER IN LRT FIT;Draft;Trousers;Parx;Adults-Men;Men;White;;;Fashion;;2017;30,PARXTRSR00003810,32,PARXTRSR00003811,34,PARXTRSR00003812,36,PARXTRSR00003813,38,PARXTRSR00003814,40,PARXTRSR00003815,42,PARXTRSR00003816,44,PARXTRSR00003817;1799.00;;;<p>M/C Wash Gentle,Cotton 97%/Lycra 03%</p>;;;;;zerotype;;Winter;;No
2444844;XMTD02389-H5-Khaki-2444844;BASIC FLAT FRONT TROUSER IN LRT FIT;Draft;Trousers;Parx;Adults-Men;Men;Khaki;;;Fashion;;2017;30,PARXTRSR00003802,32,PARXTRSR00003803,34,PARXTRSR00003804,36,PARXTRSR00003805,38,PARXTRSR00003806,40,PARXTRSR00003807,42,PARXTRSR00003808,44,PARXTRSR00003809;1799.00;;;<p>M/C Wash Gentle,Cotton 97%/Lycra 03%</p>;;;;;zerotype;;Winter;;No
2444843;XMTD02389-F2-Beige-2444843;BASIC FLAT FRONT TROUSER IN LRT FIT;Draft;Trousers;Parx;Adults-Men;Men;Beige;;;Fashion;;2017;30,PARXTRSR00003794,32,PARXTRSR00003795,34,PARXTRSR00003796,36,PARXTRSR00003797,38,PARXTRSR00003798,40,PARXTRSR00003799,42,PARXTRSR00003800,44,PARXTRSR00003801;1799.00;;;<p>M/C Wash Gentle,Cotton 97%/Lycra 03%</p>;;;;;zerotype;;Winter;;No
2444840;XMYA02592-B6-Blue-2444840;SHAPED STITCHLINE BK PKT SLIM TAPERED;Draft;Jeans;Parx;Adults-Men;Men;Blue;;;Fashion;;2017;30,PARXJENS00002174,32,PARXJENS00002175,34,PARXJENS00002176,36,PARXJENS00002177,38,PARXJENS00002178,40,PARXJENS00002179,42,PARXJENS00002180,44,PARXJENS00002181;2499.00;;;<p>M/C Wash Gentle,Ctn81%Poly17%Spx2%</p>;;;;;zerotype;;Winter;;No
2444837;XMYA02473-K7-Black-2444837;TAPE INSERT COIN PKT SLIM TAPERED;Draft;Jeans;Parx;Adults-Men;Men;Black;;;Fashion;;2017;30,PARXJENS00002150,32,PARXJENS00002151,34,PARXJENS00002152,36,PARXJENS00002153,38,PARXJENS00002154,40,PARXJENS00002155,42,PARXJENS00002156,44,PARXJENS00002157;2899.00;;;<p>M/C Wash Gentle,60%Cotton/38%Poly/2%Lycra</p>;;;;;zerotype;;Winter;;No
2444830;XMKS03707-B4-Blue-2444830;S/J PRINTED POLO;Draft;Tshirts;Parx;Adults-Men;Men;Blue;;;Fashion;;2017;38,PARXTSHT00004183,39,PARXTSHT00004184,40,PARXTSHT00004185,42,PARXTSHT00004186,44,PARXTSHT00004187,46,PARXTSHT00004188;1299.00;;;<p>Machine Wash Cold,Cotton 100%</p>;;;;;zerotype;;Winter;;No
2444829;XMKS03669-B8-Blue-2444829;S/J STRIPER POLO;Draft;Tshirts;Parx;Adults-Men;Men;Blue;;;Fashion;;2018;38,PARXTSHT00004177,39,PARXTSHT00004178,40,PARXTSHT00004179,42,PARXTSHT00004180,44,PARXTSHT00004181,46,PARXTSHT00004182;1299.00;;;<p>Machine Wash Cold,Cotton 100%</p>;;;;SS18-MC-ALL,MCW-SS18-ALL;zerotype;;Summer;MCW-SS18-ALL;No
2444828;XMKS03669-B3-Blue-2444828;S/J STRIPER POLO;Draft;Tshirts;Parx;Adults-Men;Men;Blue;;;Fashion;;2018;38,PARXTSHT00004171,39,PARXTSHT00004172,40,PARXTSHT00004173,42,PARXTSHT00004174,44,PARXTSHT00004175,46,PARXTSHT00004176;1299.00;;;<p>Machine Wash Cold,Cotton 100%</p>;;;;SS18-MC-ALL,MCW-SS18-ALL;zerotype;;Summer;MCW-SS18-ALL;No
2444827;XMKS03658-Y2-Yellow-2444827;PEACHED SOLID POLO;Draft;Tshirts;Parx;Adults-Men;Men;Yellow;;;Fashion;;2017;38,PARXTSHT00004165,39,PARXTSHT00004166,40,PARXTSHT00004167,42,PARXTSHT00004168,44,PARXTSHT00004169,46,PARXTSHT00004170;1199.00;;;<p>Machine Wash Cold,Cotton 100%</p>;;;;;zerotype;;Winter;;No
2444826;XMKS03658-N1-Green-2444826;PEACHED SOLID POLO;Draft;Tshirts;Parx;Adults-Men;Men;Green;;;Fashion;;2017;38,PARXTSHT00004159,39,PARXTSHT00004160,40,PARXTSHT00004161,42,PARXTSHT00004162,44,PARXTSHT00004163,46,PARXTSHT00004164;1199.00;;;<p>Machine Wash Cold,Cotton 100%</p>;;;;;zerotype;;Winter;;No
2444823;XMKS03648-N3-Green-2444823;SOLID POLO WITH PRINTED TRIM DETAILS;Draft;Tshirts;Parx;Adults-Men;Men;Green;;;Fashion;;2017;38,PARXTSHT00004141,39,PARXTSHT00004142,40,PARXTSHT00004143,42,PARXTSHT00004144,44,PARXTSHT00004145,46,PARXTSHT00004146;1199.00;;;<p>Machine Wash Cold,Cotton 100%</p>;;;;;zerotype;;Winter;;No
2444819;XMKB03808-B7-Blue-2444819;GRINDLE POLO;Draft;Tshirts;Parx;Adults-Men;Men;Blue;;;Fashion;;2018;38,PARXTSHT00004117,39,PARXTSHT00004118,40,PARXTSHT00004119,42,PARXTSHT00004120,44,PARXTSHT00004121,46,PARXTSHT00004122;1499.00;;;<p>Machine Wash Cold,Polyster 100%</p>;;;;SS18-MC-ALL,MCW-SS18-ALL;zerotype;;Summer;MCW-SS18-ALL;No
2444817;XMKB03645-W1-White-2444817;POLO WITHOUT POCKET;Draft;Tshirts;Parx;Adults-Men;Men;White;;;Fashion;;2018;38,PARXTSHT00004105,39,PARXTSHT00004106,40,PARXTSHT00004107,42,PARXTSHT00004108,44,PARXTSHT00004109,46,PARXTSHT00004110;1099.00;;;<p>Machine Wash Cold,Cotton 100%</p>;;;;SS18-MC-ALL,MCW-SS18-ALL;zerotype;;Summer;MCW-SS18-ALL;No
2444816;XMKB03645-V4-Purple-2444816;POLO WITHOUT POCKET;Draft;Tshirts;Parx;Adults-Men;Men;Purple;;;Fashion;;2018;38,PARXTSHT00004099,39,PARXTSHT00004100,40,PARXTSHT00004101,42,PARXTSHT00004102,44,PARXTSHT00004103,46,PARXTSHT00004104;1099.00;;;<p>Machine Wash Cold,Cotton 100%</p>;;;;SS18-MC-ALL,MCW-SS18-ALL;zerotype;;Summer;MCW-SS18-ALL;No
2444815;XMKB03645-R3-Red-2444815;POLO WITHOUT POCKET;Draft;Tshirts;Parx;Adults-Men;Men;Red;;;Fashion;;2018;38,PARXTSHT00004093,39,PARXTSHT00004094,40,PARXTSHT00004095,42,PARXTSHT00004096,44,PARXTSHT00004097,46,PARXTSHT00004098;1099.00;;;<p>Machine Wash Cold,Cotton 100%</p>;;;;SS18-MC-ALL,MCW-SS18-ALL;zerotype;;Summer;MCW-SS18-ALL;No
2444813;XMKB03645-K8-Black-2444813;POLO WITHOUT POCKET;Draft;Tshirts;Parx;Adults-Men;Men;Black;;;Fashion;;2018;38,PARXTSHT00004081,39,PARXTSHT00004082,40,PARXTSHT00004083,42,PARXTSHT00004084,44,PARXTSHT00004085,46,PARXTSHT00004086;1099.00;;;<p>Machine Wash Cold,Cotton 100%</p>;;;;SS18-MC-ALL,MCW-SS18-ALL;zerotype;;Summer;MCW-SS18-ALL;No
2444812;XMKB03645-G2-Grey-2444812;POLO WITHOUT POCKET;Draft;Tshirts;Parx;Adults-Men;Men;Grey;;;Fashion;;2018;38,PARXTSHT00004075,39,PARXTSHT00004076,40,PARXTSHT00004077,42,PARXTSHT00004078,44,PARXTSHT00004079,46,PARXTSHT00004080;1099.00;;;<p>Machine Wash Cold,Cotton 100%</p>;;;;SS18-MC-ALL,MCW-SS18-ALL;zerotype;;Summer;MCW-SS18-ALL;No
2444811;XMKB03645-B8-Blue-2444811;POLO WITHOUT POCKET;Draft;Tshirts;Parx;Adults-Men;Men;Blue;;;Fashion;;2018;38,PARXTSHT00004069,39,PARXTSHT00004070,40,PARXTSHT00004071,42,PARXTSHT00004072,44,PARXTSHT00004073,46,PARXTSHT00004074;1099.00;;;<p>Machine Wash Cold,Cotton 100%</p>;;;;SS18-MC-ALL,MCW-SS18-ALL;zerotype;;Summer;MCW-SS18-ALL;No
2444810;XMKB03645-B5-Blue-2444810;POLO WITHOUT POCKET;Draft;Tshirts;Parx;Adults-Men;Men;Blue;;;Fashion;;2018;38,PARXTSHT00004063,39,PARXTSHT00004064,40,PARXTSHT00004065,42,PARXTSHT00004066,44,PARXTSHT00004067,46,PARXTSHT00004068;1099.00;;;<p>Machine Wash Cold,Cotton 100%</p>;;;;SS18-MC-ALL,MCW-SS18-ALL;zerotype;;Summer;MCW-SS18-ALL;No
2444808;XMKA03802-E4-Orange-2444808;R/N TSHIRT;Draft;Tshirts;Parx;Adults-Men;Men;Orange;;;Fashion;;2017;38,PARXTSHT00004051,39,PARXTSHT00004052,40,PARXTSHT00004053,42,PARXTSHT00004054,44,PARXTSHT00004055,46,PARXTSHT00004056;1399.00;;;<p>M/C Wash Gentle,92% Polyester/8% Spandex</p>;;;;;zerotype;;Winter;;No
2444807;XMKA03802-B4-Blue-2444807;R/N TSHIRT;Draft;Tshirts;Parx;Adults-Men;Men;Blue;;;Fashion;;2017;38,PARXTSHT00004045,39,PARXTSHT00004046,40,PARXTSHT00004047,42,PARXTSHT00004048,44,PARXTSHT00004049,46,PARXTSHT00004050;1399.00;;;<p>M/C Wash Gentle,92% Polyester/8% Spandex</p>;;;;;zerotype;;Winter;;No
2444806;XMKA03636-K8-Black-2444806;ROUND NECK GRAPHIC TEES;Draft;Tshirts;Parx;Adults-Men;Men;Black;;;Fashion;;2017;38,PARXTSHT00004039,39,PARXTSHT00004040,40,PARXTSHT00004041,42,PARXTSHT00004042,44,PARXTSHT00004043,46,PARXTSHT00004044;1399.00;;;<p>Machine Wash Cold,Polyster 100%</p>;;;;;zerotype;;Winter;;No
2444804;XMKA03617-B8-Blue-2444804;ROUND NECK GRAPHIC TEES;Draft;Tshirts;Parx;Adults-Men;Men;Blue;;;Fashion;;2017;38,PARXTSHT00004027,39,PARXTSHT00004028,40,PARXTSHT00004029,42,PARXTSHT00004030,44,PARXTSHT00004031,46,PARXTSHT00004032;799.00;;;<p>Machine Wash Cold,Cotton 100%</p>;;;;;zerotype;;Winter;;No
2444803;XMKA03614-B3-Blue-2444803;ROUND NECK GRAPHIC TEES;Draft;Tshirts;Parx;Adults-Men;Men;Blue;;;Fashion;;2017;38,PARXTSHT00004021,39,PARXTSHT00004022,40,PARXTSHT00004023,42,PARXTSHT00004024,44,PARXTSHT00004025,46,PARXTSHT00004026;899.00;;;<p>Machine Wash Cold,Cotton 100%</p>;;;;;zerotype;;Winter;;No
2444802;XMKA03607-W1-White-2444802;ROUND NECK GRAPHIC TEES;Draft;Tshirts;Parx;Adults-Men;Men;White;;;Fashion;;2018;38,PARXTSHT00004015,39,PARXTSHT00004016,40,PARXTSHT00004017,42,PARXTSHT00004018,44,PARXTSHT00004019,46,PARXTSHT00004020;1199.00;;;<p>Machine Wash Cold,Cotton 100%</p>;;;;SS18-MC-ALL,MCW-SS18-ALL;zerotype;;Summer;MCW-SS18-ALL;No
2444801;XMST06868-N7-Green-2444801;SEMICUTAWAY CLR TAPE SLMFIT H/S;Draft;Shirts;Parx;Adults-Men;Men;Green;;;Fashion;;2017;38,PARXSHRT00007302,39,PARXSHRT00007303,40,PARXSHRT00007304,42,PARXSHRT00007305,44,PARXSHRT00007306,46,PARXSHRT00007307;1699.00;;;<p>Machine Wash Warm Gentle Cycle,Cotton 100%</p>;;;;;zerotype;;Winter;;No
2444800;XMST06805-B8-Blue-2444800;Semicutaway Clr Contst Fab Slmfit  H/s;Draft;Shirts;Parx;Adults-Men;Men;Blue;;;Fashion;;2018;38,PARXSHRT00007296,39,PARXSHRT00007297,40,PARXSHRT00007298,42,PARXSHRT00007299,44,PARXSHRT00007300,46,PARXSHRT00007301;1699.00;;;<p>Machine Wash Warm Gentle Cycle,Cotton 100%</p>;;;;SS18-MC-ALL,MCW-SS18-ALL;zerotype;;Summer;MCW-SS18-ALL;No
2444798;XMSS07041-R6-Red-2444798;SEMICUTAWY CLR ZIGZAG TAPE CF CLRBND F/S;Draft;Shirts;Parx;Adults-Men;Men;Red;;;Fashion;;2017;38,PARXSHRT00007284,39,PARXSHRT00007285,40,PARXSHRT00007286,42,PARXSHRT00007287,44,PARXSHRT00007288,46,PARXSHRT00007289;1599.00;;;<p>Machine Wash Warm Gentle Cycle,Cotton 100%</p>;;;;;zerotype;;Winter;;No
2444797;XMSS07041-K2-Black-2444797;SEMICUTAWY CLR ZIGZAG TAPE CF CLRBND F/S;Draft;Shirts;Parx;Adults-Men;Men;Black;;;Fashion;;2017;38,PARXSHRT00007278,39,PARXSHRT00007279,40,PARXSHRT00007280,42,PARXSHRT00007281,44,PARXSHRT00007282,46,PARXSHRT00007283;1599.00;;;<p>Machine Wash Warm Gentle Cycle,Cotton 100%</p>;;;;;zerotype;;Winter;;No
2444796;XMSS07041-B9-Blue-2444796;SEMICUTAWY CLR ZIGZAG TAPE CF CLRBND F/S;Draft;Shirts;Parx;Adults-Men;Men;Blue;;;Fashion;;2017;38,PARXSHRT00007272,39,PARXSHRT00007273,40,PARXSHRT00007274,42,PARXSHRT00007275,44,PARXSHRT00007276,46,PARXSHRT00007277;1599.00;;;<p>Machine Wash Warm Gentle Cycle,Cotton 100%</p>;;;;;zerotype;;Winter;;No
2444795;XMSS07038-B2-Blue-2444795;SEMICUTAWY CLR CF TAPE TRNUP SLM F/S;Draft;Shirts;Parx;Adults-Men;Men;Blue;;;Fashion;;2017;38,PARXSHRT00007266,39,PARXSHRT00007267,40,PARXSHRT00007268,42,PARXSHRT00007269,44,PARXSHRT00007270,46,PARXSHRT00007271;1799.00;;;<p>Machine Wash Warm Gentle Cycle,Cotton 100%</p>;;;;;zerotype;;Winter;;No
2444794;XMSS06965-B2-Blue-2444794;SEMICUTAWY CLR CHAIN N ELBW STCH SLM F/S;Draft;Shirts;Parx;Adults-Men;Men;Blue;;;Fashion;;2017;38,PARXSHRT00007260,39,PARXSHRT00007261,40,PARXSHRT00007262,42,PARXSHRT00007263,44,PARXSHRT00007264,46,PARXSHRT00007265;1799.00;;;<p>Machine Wash Warm Gentle Cycle,Cotton 100%</p>;;;;;zerotype;;Winter;;No
2444793;XMSS06953-B5-Blue-2444793;Semicutaway clr contst fab slmfit F/s;Draft;Shirts;Parx;Adults-Men;Men;Blue;;;Fashion;;2017;38,PARXSHRT00007254,39,PARXSHRT00007255,40,PARXSHRT00007256,42,PARXSHRT00007257,44,PARXSHRT00007258,46,PARXSHRT00007259;1799.00;;;<p>Machine Wash Warm Gentle Cycle,Cotton 100%</p>;;;;;zerotype;;Winter;;No
2444792;XMSS06934-B3-Blue-2444792;SEMICUTAWY CLR TAPE OVRLOCK SLIM F/S;Draft;Shirts;Parx;Adults-Men;Men;Blue;;;Fashion;;2018;38,PARXSHRT00007248,39,PARXSHRT00007249,40,PARXSHRT00007250,42,PARXSHRT00007251,44,PARXSHRT00007252,46,PARXSHRT00007253;1799.00;;;<p>Machine Wash Warm Gentle Cycle,Cotton 100%</p>;;;;SS18-MC-ALL,MCW-SS18-ALL;zerotype;;Summer;MCW-SS18-ALL;No
2444791;XMSS06928-B2-Blue-2444791;SEMICUTAWY CLR CF PATCH BARTACK SLIM F/S;Draft;Shirts;Parx;Adults-Men;Men;Blue;;;Fashion;;2018;38,PARXSHRT00007242,39,PARXSHRT00007243,40,PARXSHRT00007244,42,PARXSHRT00007245,44,PARXSHRT00007246,46,PARXSHRT00007247;1799.00;;;<p>Machine Wash Warm Gentle Cycle,Cotton 100%</p>;;;;SS18-MC-ALL,MCW-SS18-ALL;zerotype;;Summer;MCW-SS18-ALL;No
2444790;XMSS06872-B5-Blue-2444790;Semicutaway clr tape slimfit F/s;Draft;Shirts;Parx;Adults-Men;Men;Blue;;;Fashion;;2018;38,PARXSHRT00007236,39,PARXSHRT00007237,40,PARXSHRT00007238,42,PARXSHRT00007239,44,PARXSHRT00007240,46,PARXSHRT00007241;1799.00;;;<p>Machine Wash Warm Gentle Cycle,Cotton 100%</p>;;;;SS18-MC-ALL,MCW-SS18-ALL;zerotype;;Summer;MCW-SS18-ALL;No
2444789;XMSS06868-O7-Brown-2444789;Semicutaway clr tape slimfit F/s;Draft;Shirts;Parx;Adults-Men;Men;Brown;;;Fashion;;2017;38,PARXSHRT00007230,39,PARXSHRT00007231,40,PARXSHRT00007232,42,PARXSHRT00007233,44,PARXSHRT00007234,46,PARXSHRT00007235;1699.00;;;<p>Machine Wash Warm Gentle Cycle,Cotton 100%</p>;;;;;zerotype;;Winter;;No
2444788;XMSS06868-N7-Green-2444788;Semicutaway clr tape slimfit F/s;Draft;Shirts;Parx;Adults-Men;Men;Green;;;Fashion;;2017;38,PARXSHRT00007224,39,PARXSHRT00007225,40,PARXSHRT00007226,42,PARXSHRT00007227,44,PARXSHRT00007228,46,PARXSHRT00007229;1699.00;;;<p>Machine Wash Warm Gentle Cycle,Cotton 100%</p>;;;;;zerotype;;Winter;;No
2444787;XMSS06812-R6-Red-2444787;SEMICUTAWY CLR CF PATCH TAPE PIPIN F/S;Draft;Shirts;Parx;Adults-Men;Men;Red;;;Fashion;;2017;38,PARXSHRT00007218,39,PARXSHRT00007219,40,PARXSHRT00007220,42,PARXSHRT00007221,44,PARXSHRT00007222,46,PARXSHRT00007223;1499.00;;;<p>Machine Wash Warm Gentle Cycle,Cotton 100%</p>;;;;;zerotype;;Winter;;No
2444786;XMSS06812-B6-Blue-2444786;SEMICUTAWY CLR CF PATCH TAPE PIPIN F/S;Draft;Shirts;Parx;Adults-Men;Men;Blue;;;Fashion;;2017;38,PARXSHRT00007212,39,PARXSHRT00007213,40,PARXSHRT00007214,42,PARXSHRT00007215,44,PARXSHRT00007216,46,PARXSHRT00007217;1499.00;;;<p>Machine Wash Warm Gentle Cycle,Cotton 100%</p>;;;;;zerotype;;Winter;;No
2444785;XMSS06811-R6-Red-2444785;SEMCUTWY CLR CF1&2 PIPING SLIM F/S;Draft;Shirts;Parx;Adults-Men;Men;Red;;;Fashion;;2017;38,PARXSHRT00007206,39,PARXSHRT00007207,40,PARXSHRT00007208,42,PARXSHRT00007209,44,PARXSHRT00007210,46,PARXSHRT00007211;1499.00;;;<p>Machine Wash Warm Gentle Cycle,Cotton 100%</p>;;;;;zerotype;;Winter;;No
2444784;XMSS06811-B6-Blue-2444784;SEMCUTWY CLR CF1&2 PIPING SLIM F/S;Draft;Shirts;Parx;Adults-Men;Men;Blue;;;Fashion;;2017;38,PARXSHRT00007200,39,PARXSHRT00007201,40,PARXSHRT00007202,42,PARXSHRT00007203,44,PARXSHRT00007204,46,PARXSHRT00007205;1499.00;;;<p>Machine Wash Warm Gentle Cycle,Cotton 100%</p>;;;;;zerotype;;Winter;;No
2444783;XMSS06805-B8-Blue-2444783;Semicutaway Clr Contst Fab Slmfit  F/s;Draft;Shirts;Parx;Adults-Men;Men;Blue;;;Fashion;;2018;38,PARXSHRT00007194,39,PARXSHRT00007195,40,PARXSHRT00007196,42,PARXSHRT00007197,44,PARXSHRT00007198,46,PARXSHRT00007199;1699.00;;;<p>Machine Wash Warm Gentle Cycle,Cotton 100%</p>;;;;SS18-MC-ALL,MCW-SS18-ALL;zerotype;;Summer;MCW-SS18-ALL;No
2444782;XMSS06803-E4-Orange-2444782;SEMICUTWY CLR CF PIPN INR CLRBND MDL F/S;Draft;Shirts;Parx;Adults-Men;Men;Orange;;;Fashion;;2017;38,PARXSHRT00007188,39,PARXSHRT00007189,40,PARXSHRT00007190,42,PARXSHRT00007191,44,PARXSHRT00007192,46,PARXSHRT00007193;1499.00;;;<p>Machine Wash Warm Gentle Cycle,Cotton 100%</p>;;;;;zerotype;;Winter;;No
2444781;XMSS06802-B8-Blue-2444781;SEMICUTAWY CLR CF PLCKT PTCH SLIMFT F/S;Draft;Shirts;Parx;Adults-Men;Men;Blue;;;Fashion;;2017;38,PARXSHRT00007182,39,PARXSHRT00007183,40,PARXSHRT00007184,42,PARXSHRT00007185,44,PARXSHRT00007186,46,PARXSHRT00007187;1499.00;;;<p>Machine Wash Warm Gentle Cycle,Cotton 100%</p>;;;;;zerotype;;Winter;;No
2444780;XMSS06801-E4-Orange-2444780;SEMCUTWY CLR CF CUT N SEW PTCH F/S;Draft;Shirts;Parx;Adults-Men;Men;Orange;;;Fashion;;2017;38,PARXSHRT00007176,39,PARXSHRT00007177,40,PARXSHRT00007178,42,PARXSHRT00007179,44,PARXSHRT00007180,46,PARXSHRT00007181;1499.00;;;<p>Machine Wash Warm Gentle Cycle,Cotton 100%</p>;;;;;zerotype;;Winter;;No
2444779;XMSS06801-B6-Blue-2444779;SEMCUTWY CLR CF CUT N SEW PTCH F/S;Draft;Shirts;Parx;Adults-Men;Men;Blue;;;Fashion;;2017;38,PARXSHRT00007170,39,PARXSHRT00007171,40,PARXSHRT00007172,42,PARXSHRT00007173,44,PARXSHRT00007174,46,PARXSHRT00007175;1499.00;;;<p>Machine Wash Warm Gentle Cycle,Cotton 100%</p>;;;;;zerotype;;Winter;;No
2444777;XMSS06783-Y3-Yellow-2444777;Semi cutaway clr tape detail f/s slim ft;Draft;Shirts;Parx;Adults-Men;Men;Yellow;;;Fashion;;2018;38,PARXSHRT00007158,39,PARXSHRT00007159,40,PARXSHRT00007160,42,PARXSHRT00007161,44,PARXSHRT00007162,46,PARXSHRT00007163;1699.00;;;<p>Machine Wash Warm Gentle Cycle,Cotton 100%</p>;;;;SS18-MC-ALL,MCW-SS18-ALL;zerotype;;Summer;MCW-SS18-ALL;No
2444776;XMSS06783-B9-Blue-2444776;Semi cutaway clr tape detail f/s slim ft;Draft;Shirts;Parx;Adults-Men;Men;Blue;;;Fashion;;2018;38,PARXSHRT00007152,39,PARXSHRT00007153,40,PARXSHRT00007154,42,PARXSHRT00007155,44,PARXSHRT00007156,46,PARXSHRT00007157;1699.00;;;<p>Machine Wash Warm Gentle Cycle,Cotton 100%</p>;;;;SS18-MC-ALL,MCW-SS18-ALL;zerotype;;Summer;MCW-SS18-ALL;No
2444775;XMSS06765-V7-Purple-2444775;SEMICUTAWY CLR CF PATCH BARTACK SLIM F/S;Draft;Shirts;Parx;Adults-Men;Men;Purple;;;Fashion;;2017;38,PARXSHRT00007146,39,PARXSHRT00007147,40,PARXSHRT00007148,42,PARXSHRT00007149,44,PARXSHRT00007150,46,PARXSHRT00007151;1799.00;;;<p>Machine Wash Warm Gentle Cycle,Cotton 100%</p>;;;;;zerotype;;Winter;;No
2444774;XMSS06743-B4-Blue-2444774;SEMCTWY CLR CF PLCKT CHAIN STCH F/S;Draft;Shirts;Parx;Adults-Men;Men;Blue;;;Fashion;;2017;38,PARXSHRT00007140,39,PARXSHRT00007141,40,PARXSHRT00007142,42,PARXSHRT00007143,44,PARXSHRT00007144,46,PARXSHRT00007145;1599.00;;;<p>Machine Wash Warm Gentle Cycle,Cotton 100%</p>;;;;;zerotype;;Winter;;No
2444773;XMSS06741-Y3-Yellow-2444773;F/S SEMICUTAWY CLR CNTRST PLCKT UNDR CLR;Draft;Shirts;Parx;Adults-Men;Men;Yellow;;;Fashion;;2017;38,PARXSHRT00007134,39,PARXSHRT00007135,40,PARXSHRT00007136,42,PARXSHRT00007137,44,PARXSHRT00007138,46,PARXSHRT00007139;1699.00;;;<p>Machine Wash Warm Gentle Cycle,Cotton 100%</p>;;;;;zerotype;;Winter;;No
2444770;XMSS06726-K4-Black-2444770;SEMCTWY CLR CF PIPN UNDRLBL PTCH SLM F/S;Draft;Shirts;Parx;Adults-Men;Men;Black;;;Fashion;;2017;38,PARXSHRT00007116,39,PARXSHRT00007117,40,PARXSHRT00007118,42,PARXSHRT00007119,44,PARXSHRT00007120,46,PARXSHRT00007121;1499.00;;;<p>Machine Wash Warm Gentle Cycle,Cotton 100%</p>;;;;;zerotype;;Winter;;No
2444767;XMSS06715-B6-Blue-2444767;Semicutaway clr contst fab slmfit F/s;Draft;Shirts;Parx;Adults-Men;Men;Blue;;;Fashion;;2017;38,PARXSHRT00007104,39,PARXSHRT00007105,40,PARXSHRT00007106,42,PARXSHRT00007107,44,PARXSHRT00007108,46,PARXSHRT00007109;2699.00;;;<p>M/C Wash Gentle,Linen 100%</p>;;;;;zerotype;;Winter;;No
2444765;XMSS06703-B2-Blue-2444765;SEMICUTAWY CLR CF PLCKT PIPIN SLMFIT F/S;Draft;Shirts;Parx;Adults-Men;Men;Blue;;;Fashion;;2017;38,PARXSHRT00007098,39,PARXSHRT00007099,40,PARXSHRT00007100,42,PARXSHRT00007101,44,PARXSHRT00007102,46,PARXSHRT00007103;1599.00;;;<p>Machine Wash Warm Gentle Cycle,Cotton 100%</p>;;;;;zerotype;;Winter;;No
2444764;XMSS06702-B7-Blue-2444764;Semi cutaway clr contrast yoke slmft F/s;Draft;Shirts;Parx;Adults-Men;Men;Blue;;;Fashion;;2017;38,PARXSHRT00007092,39,PARXSHRT00007093,40,PARXSHRT00007094,42,PARXSHRT00007095,44,PARXSHRT00007096,46,PARXSHRT00007097;1899.00;;;<p>Machine Wash Warm Gentle Cycle,Cotton 100%</p>;;;;;zerotype;;Winter;;No
2444762;XMSS06658-N3-Green-2444762;SEMICUTAWY CLR CF TAPE PLKT SLMFIT F/S;Draft;Shirts;Parx;Adults-Men;Men;Green;;;Fashion;;2018;38,PARXSHRT00007080,39,PARXSHRT00007081,40,PARXSHRT00007082,42,PARXSHRT00007083,44,PARXSHRT00007084,46,PARXSHRT00007085;1699.00;;;<p>Machine Wash Warm Gentle Cycle,Cotton 100%</p>;;;;SS18-MC-ALL,MCW-SS18-ALL;zerotype;;Summer;MCW-SS18-ALL;No
2444761;XMSJ06660-B6-Blue-2444761;Mandarin clr. half placket F/s slim fit;Draft;Shirts;Parx;Adults-Men;Men;Blue;;;Fashion;;2017;38,PARXSHRT00007074,39,PARXSHRT00007075,40,PARXSHRT00007076,42,PARXSHRT00007077,44,PARXSHRT00007078,46,PARXSHRT00007079;1499.00;;;<p>Machine Wash Warm Gentle Cycle,Cotton 100%</p>;;;;;zerotype;;Winter;;No
2444760;XMSJ06658-N3-Green-2444760;Mandarin Clr Rollup Slvs Slim Fit F/S;Draft;Shirts;Parx;Adults-Men;Men;Green;;;Fashion;;2018;38,PARXSHRT00007068,39,PARXSHRT00007069,40,PARXSHRT00007070,42,PARXSHRT00007071,44,PARXSHRT00007072,46,PARXSHRT00007073;1699.00;;;<p>Machine Wash Warm Gentle Cycle,Cotton 100%</p>;;;;SS18-MC-ALL,MCW-SS18-ALL;zerotype;;Summer;MCW-SS18-ALL;No
2444759;XMSA06674-B5-Blue-2444759;SEMICUTAWAY CLR REVSBLE SHRT SLMFIT F/S;Draft;Shirts;Parx;Adults-Men;Men;Blue;;;Fashion;;2018;38,PARXSHRT00007062,39,PARXSHRT00007063,40,PARXSHRT00007064,42,PARXSHRT00007065,44,PARXSHRT00007066,46,PARXSHRT00007067;1999.00;;;<p>Machine Wash Warm Gentle Cycle,Cotton 100%</p>;;;;SS18-MC-ALL,MCW-SS18-ALL;zerotype;;Summer;MCW-SS18-ALL;No
2439647;02181995B414344-7-Navy Blue-2439647;British Club Men's Kurta;Draft;Kurtas;British Club;Adults-Men;Men;Navy Blue;;;Fashion;;2018;36,BHCBKRTA00003334,38,BHCBKRTA00003335,40,BHCBKRTA00003336,42,BHCBKRTA00003337,44,BHCBKRTA00003338;1995.00;;;<p>Machine-Wash</p>;;;;;zerotype;;Winter;;No
2439646;02181995B414344-6-Red-2439646;British Club Men's Kurta;Draft;Kurtas;British Club;Adults-Men;Men;Red;;;Fashion;;2018;36,BHCBKRTA00003329,38,BHCBKRTA00003330,40,BHCBKRTA00003331,42,BHCBKRTA00003332,44,BHCBKRTA00003333;1995.00;;;<p>Machine-Wash</p>;;;;;zerotype;;Winter;;No
2439645;02181995B414344-5-Orange-2439645;British Club Men's Kurta;Draft;Kurtas;British Club;Adults-Men;Men;Orange;;;Fashion;;2018;36,BHCBKRTA00003324,38,BHCBKRTA00003325,40,BHCBKRTA00003326,42,BHCBKRTA00003327,44,BHCBKRTA00003328;1995.00;;;<p>Machine-Wash</p>;;;;;zerotype;;Winter;;No
2439643;02181995B414344-3-Black-2439643;British Club Men's Kurta;Draft;Kurtas;British Club;Adults-Men;Men;Black;;;Fashion;;2018;36,BHCBKRTA00003314,38,BHCBKRTA00003315,40,BHCBKRTA00003316,42,BHCBKRTA00003317,44,BHCBKRTA00003318;1995.00;;;<p>Machine-Wash</p>;;;;;zerotype;;Winter;;No
2439642;02181995B414344-2-White-2439642;British Club Men's Kurta;Draft;Kurtas;British Club;Adults-Men;Men;White;;;Fashion;;2018;36,BHCBKRTA00003309,38,BHCBKRTA00003310,40,BHCBKRTA00003311,42,BHCBKRTA00003312,44,BHCBKRTA00003313;1995.00;;;<p>Machine-Wash</p>;;;;;zerotype;;Winter;;No
2439641;02181995B414344-1-Blue-2439641;British Club Men's Kurta;Draft;Kurtas;British Club;Adults-Men;Men;Blue;;;Fashion;;2018;36,BHCBKRTA00003304,38,BHCBKRTA00003305,40,BHCBKRTA00003306,42,BHCBKRTA00003307,44,BHCBKRTA00003308;1995.00;;;<p>Machine-Wash</p>;;;;;zerotype;;Winter;;No
2439640;02181995B414144-5-Pink-2439640;British Club Men's Kurta;Draft;Kurtas;British Club;Adults-Men;Men;Pink;;;Fashion;;2018;36,BHCBKRTA00003299,38,BHCBKRTA00003300,40,BHCBKRTA00003301,42,BHCBKRTA00003302,44,BHCBKRTA00003303;1995.00;;;<p>Machine-Wash</p>;;;;;zerotype;;Winter;;No
2439639;02181995B414144-4-Green-2439639;British Club Men's Kurta;Draft;Kurtas;British Club;Adults-Men;Men;Green;;;Fashion;;2018;36,BHCBKRTA00003294,38,BHCBKRTA00003295,40,BHCBKRTA00003296,42,BHCBKRTA00003297,44,BHCBKRTA00003298;1995.00;;;<p>Machine-Wash</p>;;;;;zerotype;;Winter;;No
2439638;02181995B414144-3-Blue-2439638;British Club Men's Kurta;Draft;Kurtas;British Club;Adults-Men;Men;Blue;;;Fashion;;2018;36,BHCBKRTA00003289,38,BHCBKRTA00003290,40,BHCBKRTA00003291,42,BHCBKRTA00003292,44,BHCBKRTA00003293;1995.00;;;<p>Machine-Wash</p>;;;;;zerotype;;Winter;;No
2439637;02181995B414144-2-Yellow-2439637;British Club Men's Kurta;Draft;Kurtas;British Club;Adults-Men;Men;Yellow;;;Fashion;;2018;36,BHCBKRTA00003284,38,BHCBKRTA00003285,40,BHCBKRTA00003286,42,BHCBKRTA00003287,44,BHCBKRTA00003288;1995.00;;;<p>Machine-Wash</p>;;;;;zerotype;;Winter;;No
2439636;02181995B414144-1-Orange-2439636;British Club Men's Kurta;Draft;Kurtas;British Club;Adults-Men;Men;Orange;;;Fashion;;2018;36,BHCBKRTA00003279,38,BHCBKRTA00003280,40,BHCBKRTA00003281,42,BHCBKRTA00003282,44,BHCBKRTA00003283;1995.00;;;<p>Machine-Wash</p>;;;;;zerotype;;Winter;;No
2439635;02181995B354844-3-White-2439635;British Club Men's Kurta;Draft;Kurtas;British Club;Adults-Men;Men;White;;;Fashion;;2018;36,BHCBKRTA00003274,38,BHCBKRTA00003275,40,BHCBKRTA00003276,42,BHCBKRTA00003277,44,BHCBKRTA00003278;1995.00;;;<p>Machine-Wash</p>;;;;;zerotype;;Winter;;No
2439634;02181995B354844-2-Maroon-2439634;British Club Men's Kurta;Draft;Kurtas;British Club;Adults-Men;Men;Maroon;;;Fashion;;2018;36,BHCBKRTA00003269,38,BHCBKRTA00003270,40,BHCBKRTA00003271,42,BHCBKRTA00003272,44,BHCBKRTA00003273;1995.00;;;<p>Machine-Wash</p>;;;;;zerotype;;Winter;;No
2439633;02181995B354844-1-Charcoal-2439633;British Club Men's Kurta;Draft;Kurtas;British Club;Adults-Men;Men;Charcoal;;;Fashion;;2018;36,BHCBKRTA00003264,38,BHCBKRTA00003265,40,BHCBKRTA00003266,42,BHCBKRTA00003267,44,BHCBKRTA00003268;1995.00;;;<p>Machine-Wash</p>;;;;;zerotype;;Winter;;No
2439632;02181895B413944-7-Blue-2439632;British Club Men's Long Kurta;Draft;Kurtas;British Club;Adults-Men;Men;Blue;;;Fashion;;2018;36,BHCBKRTA00003259,38,BHCBKRTA00003260,40,BHCBKRTA00003261,42,BHCBKRTA00003262,44,BHCBKRTA00003263;1895.00;;;<p>Machine-Wash</p>;;;;;zerotype;;Winter;;No
2439631;02181895B413944-6-White-2439631;British Club Men's Long Kurta;Draft;Kurtas;British Club;Adults-Men;Men;White;;;Fashion;;2018;36,BHCBKRTA00003254,38,BHCBKRTA00003255,40,BHCBKRTA00003256,42,BHCBKRTA00003257,44,BHCBKRTA00003258;1895.00;;;<p>Machine-Wash</p>;;;;;zerotype;;Winter;;No
2439630;02181895B413944-5-Yellow-2439630;British Club Men's Long Kurta;Draft;Kurtas;British Club;Adults-Men;Men;Yellow;;;Fashion;;2018;36,BHCBKRTA00003249,38,BHCBKRTA00003250,40,BHCBKRTA00003251,42,BHCBKRTA00003252,44,BHCBKRTA00003253;1895.00;;;<p>Machine-Wash</p>;;;;;zerotype;;Winter;;No
2439628;02181895B413944-3-Green-2439628;British Club Men's Long Kurta;Draft;Kurtas;British Club;Adults-Men;Men;Green;;;Fashion;;2018;36,BHCBKRTA00003239,38,BHCBKRTA00003240,40,BHCBKRTA00003241,42,BHCBKRTA00003242,44,BHCBKRTA00003243;1895.00;;;<p>Machine-Wash</p>;;;;;zerotype;;Winter;;No
2439627;02181895B413944-2-Orange-2439627;British Club Men's Long Kurta;Draft;Kurtas;British Club;Adults-Men;Men;Orange;;;Fashion;;2018;36,BHCBKRTA00003234,38,BHCBKRTA00003235,40,BHCBKRTA00003236,42,BHCBKRTA00003237,44,BHCBKRTA00003238;1895.00;;;<p>Machine-Wash</p>;;;;;zerotype;;Winter;;No
2439626;02181895B413944-1-Beige-2439626;British Club Men's Long Kurta;Draft;Kurtas;British Club;Adults-Men;Men;Beige;;;Fashion;;2018;36,BHCBKRTA00003229,38,BHCBKRTA00003230,40,BHCBKRTA00003231,42,BHCBKRTA00003232,44,BHCBKRTA00003233;1895.00;;;<p>Machine-Wash</p>;;;;;zerotype;;Winter;;No
2439625;02181795B414244-2-Blue-2439625;British Club Men's Kurta;Draft;Kurtas;British Club;Adults-Men;Men;Blue;;;Fashion;;2018;36,BHCBKRTA00003224,38,BHCBKRTA00003225,40,BHCBKRTA00003226,42,BHCBKRTA00003227,44,BHCBKRTA00003228;1795.00;;;<p>Machine-Wash</p>;;;;;zerotype;;Winter;;No
2439624;02181795B414244-1-Black-2439624;British Club Men's Kurta;Draft;Kurtas;British Club;Adults-Men;Men;Black;;;Fashion;;2018;36,BHCBKRTA00003219,38,BHCBKRTA00003220,40,BHCBKRTA00003221,42,BHCBKRTA00003222,44,BHCBKRTA00003223;1795.00;;;<p>Machine-Wash</p>;;;;;zerotype;;Winter;;No
2439623;02181795B414044-6-Blue-2439623;British Club Men's Kurta;Draft;Kurtas;British Club;Adults-Men;Men;Blue;;;Fashion;;2018;36,BHCBKRTA00003214,38,BHCBKRTA00003215,40,BHCBKRTA00003216,42,BHCBKRTA00003217,44,BHCBKRTA00003218;1795.00;;;<p>Machine-Wash</p>;;;;;zerotype;;Winter;;No
2439622;02181795B414044-5-Red-2439622;British Club Men's Kurta;Draft;Kurtas;British Club;Adults-Men;Men;Red;;;Fashion;;2018;36,BHCBKRTA00003209,38,BHCBKRTA00003210,40,BHCBKRTA00003211,42,BHCBKRTA00003212,44,BHCBKRTA00003213;1795.00;;;<p>Machine-Wash</p>;;;;;zerotype;;Winter;;No
2439621;02181795B414044-4-Blue-2439621;British Club Men's Kurta;Draft;Kurtas;British Club;Adults-Men;Men;Blue;;;Fashion;;2018;36,BHCBKRTA00003204,38,BHCBKRTA00003205,40,BHCBKRTA00003206,42,BHCBKRTA00003207,44,BHCBKRTA00003208;1795.00;;;<p>Machine-Wash</p>;;;;;zerotype;;Winter;;No
2439620;02181795B414044-3-Blue-2439620;British Club Men's Kurta;Draft;Kurtas;British Club;Adults-Men;Men;Blue;;;Fashion;;2018;36,BHCBKRTA00003199,38,BHCBKRTA00003200,40,BHCBKRTA00003201,42,BHCBKRTA00003202,44,BHCBKRTA00003203;1795.00;;;<p>Machine-Wash</p>;;;;;zerotype;;Winter;;No
2439619;02181795B414044-2-Purple-2439619;British Club Men's Kurta;Draft;Kurtas;British Club;Adults-Men;Men;Purple;;;Fashion;;2018;36,BHCBKRTA00003194,38,BHCBKRTA00003195,40,BHCBKRTA00003196,42,BHCBKRTA00003197,44,BHCBKRTA00003198;1795.00;;;<p>Machine-Wash</p>;;;;;zerotype;;Winter;;No
2439618;02181795B414044-1-Black-2439618;British Club Men's Kurta;Draft;Kurtas;British Club;Adults-Men;Men;Black;;;Fashion;;2018;36,BHCBKRTA00003189,38,BHCBKRTA00003190,40,BHCBKRTA00003191,42,BHCBKRTA00003192,44,BHCBKRTA00003193;1795.00;;;<p>Machine-Wash</p>;;;;;zerotype;;Winter;;No
2439613;02181795B413744-7-Off White-2439613;British Club Men's Long Kurta;Draft;Kurtas;British Club;Adults-Men;Men;Off White;;;Fashion;;2018;36,BHCBKRTA00003164,38,BHCBKRTA00003165,40,BHCBKRTA00003166,42,BHCBKRTA00003167,44,BHCBKRTA00003168;1795.00;;;<p>Machine-Wash</p>;;;;;zerotype;;Winter;;No
2439612;02181795B413744-6-Red-2439612;British Club Men's Long Kurta;Draft;Kurtas;British Club;Adults-Men;Men;Red;;;Fashion;;2018;36,BHCBKRTA00003159,38,BHCBKRTA00003160,40,BHCBKRTA00003161,42,BHCBKRTA00003162,44,BHCBKRTA00003163;1795.00;;;<p>Machine-Wash</p>;;;;;zerotype;;Winter;;No
2439611;02181795B413744-5-Orange-2439611;British Club Men's Long Kurta;Draft;Kurtas;British Club;Adults-Men;Men;Orange;;;Fashion;;2018;36,BHCBKRTA00003154,38,BHCBKRTA00003155,40,BHCBKRTA00003156,42,BHCBKRTA00003157,44,BHCBKRTA00003158;1795.00;;;<p>Machine-Wash</p>;;;;;zerotype;;Winter;;No
2439610;02181795B413744-4-Yellow-2439610;British Club Men's Long Kurta;Draft;Kurtas;British Club;Adults-Men;Men;Yellow;;;Fashion;;2018;36,BHCBKRTA00003149,38,BHCBKRTA00003150,40,BHCBKRTA00003151,42,BHCBKRTA00003152,44,BHCBKRTA00003153;1795.00;;;<p>Machine-Wash</p>;;;;;zerotype;;Winter;;No
2439609;02181795B413744-3-Orange-2439609;British Club Men's Long Kurta;Draft;Kurtas;British Club;Adults-Men;Men;Orange;;;Fashion;;2018;36,BHCBKRTA00003144,38,BHCBKRTA00003145,40,BHCBKRTA00003146,42,BHCBKRTA00003147,44,BHCBKRTA00003148;1795.00;;;<p>Machine-Wash</p>;;;;;zerotype;;Winter;;No
2439608;02181795B413744-2-Blue-2439608;British Club Men's Long Kurta;Draft;Kurtas;British Club;Adults-Men;Men;Blue;;;Fashion;;2018;36,BHCBKRTA00003139,38,BHCBKRTA00003140,40,BHCBKRTA00003141,42,BHCBKRTA00003142,44,BHCBKRTA00003143;1795.00;;;<p>Machine-Wash</p>;;;;;zerotype;;Winter;;No
2439607;02181795B413744-1-Blue-2439607;British Club Men's Long Kurta;Draft;Kurtas;British Club;Adults-Men;Men;Blue;;;Fashion;;2018;36,BHCBKRTA00003134,38,BHCBKRTA00003135,40,BHCBKRTA00003136,42,BHCBKRTA00003137,44,BHCBKRTA00003138;1795.00;;;<p>Machine-Wash</p>;;;;;zerotype;;Winter;;No
2439606;02181695B413644-3-White-2439606;British Club Men's Long Kurta;Draft;Kurtas;British Club;Adults-Men;Men;White;;;Fashion;;2018;38,BHCBKRTA00003130,40,BHCBKRTA00003131,42,BHCBKRTA00003132,44,BHCBKRTA00003133;1695.00;;;<p>Machine-Wash</p>;;;;;zerotype;;Winter;;No
2439605;02181695B413644-2-White-2439605;British Club Men's Long Kurta;Draft;Kurtas;British Club;Adults-Men;Men;White;;;Fashion;;2018;38,BHCBKRTA00003126,40,BHCBKRTA00003127,42,BHCBKRTA00003128,44,BHCBKRTA00003129;1695.00;;;<p>Machine-Wash</p>;;;;;zerotype;;Winter;;No
2439604;02181695B413644-1-Cream-2439604;British Club Men's Long Kurta;Draft;Kurtas;British Club;Adults-Men;Men;Cream;;;Fashion;;2018;38,BHCBKRTA00003122,40,BHCBKRTA00003123,42,BHCBKRTA00003124,44,BHCBKRTA00003125;1695.00;;;<p>Machine-Wash</p>;;;;;zerotype;;Winter;;No
2439603;02181695B413544-2-Off White-2439603;British Club Men's Long Kurta;Draft;Kurtas;British Club;Adults-Men;Men;Off White;;;Fashion;;2018;38,BHCBKRTA00003118,40,BHCBKRTA00003119,42,BHCBKRTA00003120,44,BHCBKRTA00003121;1695.00;;;<p>Machine-Wash</p>;;;;;zerotype;;Winter;;No
2439602;02181695B413544-1-Off White-2439602;British Club Men's Long Kurta;Draft;Kurtas;British Club;Adults-Men;Men;Off White;;;Fashion;;2018;38,BHCBKRTA00003114,40,BHCBKRTA00003115,42,BHCBKRTA00003116,44,BHCBKRTA00003117;1695.00;;;<p>Machine-Wash</p>;;;;;zerotype;;Winter;;No
2439601;02181695B413444-2-Gold-2439601;British Club Men's Long Kurta;Draft;Kurtas;British Club;Adults-Men;Men;Gold;;;Fashion;;2018;38,BHCBKRTA00003110,40,BHCBKRTA00003111,42,BHCBKRTA00003112,44,BHCBKRTA00003113;1695.00;;;<p>Machine-Wash</p>;;;;;zerotype;;Winter;;No
2439600;02181695B413444-1-Gold-2439600;British Club Men's Long Kurta;Draft;Kurtas;British Club;Adults-Men;Men;Gold;;;Fashion;;2018;38,BHCBKRTA00003106,40,BHCBKRTA00003107,42,BHCBKRTA00003108,44,BHCBKRTA00003109;1695.00;;;<p>Machine-Wash</p>;;;;;zerotype;;Winter;;No
2439594;02181595B354944-5-White-2439594;British Club Men's Kurta;Draft;Kurtas;British Club;Adults-Men;Men;White;;;Fashion;;2018;36,BHCBKRTA00003078,38,BHCBKRTA00003079,40,BHCBKRTA00003080,42,BHCBKRTA00003081,44,BHCBKRTA00003082;1595.00;;;<p>Machine-Wash</p>;;;;;zerotype;;Winter;;No
2439593;02181595B354944-4-Black-2439593;British Club Men's Kurta;Draft;Kurtas;British Club;Adults-Men;Men;Black;;;Fashion;;2018;36,BHCBKRTA00003073,38,BHCBKRTA00003074,40,BHCBKRTA00003075,42,BHCBKRTA00003076,44,BHCBKRTA00003077;1595.00;;;<p>Machine-Wash</p>;;;;;zerotype;;Winter;;No
2439592;02181595B354944-3-Navy Blue-2439592;British Club Men's Kurta;Draft;Kurtas;British Club;Adults-Men;Men;Navy Blue;;;Fashion;;2018;36,BHCBKRTA00003068,38,BHCBKRTA00003069,40,BHCBKRTA00003070,42,BHCBKRTA00003071,44,BHCBKRTA00003072;1595.00;;;<p>Machine-Wash</p>;;;;;zerotype;;Winter;;No
2439590;02181595B354944-1-Blue-2439590;British Club Men's Kurta;Draft;Kurtas;British Club;Adults-Men;Men;Blue;;;Fashion;;2018;36,BHCBKRTA00003058,38,BHCBKRTA00003059,40,BHCBKRTA00003060,42,BHCBKRTA00003061,44,BHCBKRTA00003062;1595.00;;;<p>Machine-Wash</p>;;;;;zerotype;;Winter;;No
2439589;11171595B335844-6-Orange-2439589;British Club Men's Kurtas;Draft;Kurtas;British Club;Adults-Men;Men;Orange;;;Fashion;;2018;40,BHCBKRTA00003055,42,BHCBKRTA00003056,44,BHCBKRTA00003057;1595.00;;;<p>Machine-Wash</p>;;;;;zerotype;;Winter;;No
2425388;MAO POLO-M.Grey-2425388;MAO POLO;Draft;Tshirts;The Indian Garage Co;Adults-Men;Men;Grey Melange;;;Core;Casual;2018;S,TIGCTSHT00000909,M,TIGCTSHT00000910,L,TIGCTSHT00000911,XL,TIGCTSHT00000912,XXL,TIGCTSHT00000913,3XL,TIGCTSHT00000914;749.00;;;<p>Machine Wash Warm</p>;;;;;zerotype;;Spring;;No
2425387;MAO POLO-White-2425387;MAO POLO;Draft;Tshirts;The Indian Garage Co;Adults-Men;Men;White;;;Core;Casual;2018;S,TIGCTSHT00000903,M,TIGCTSHT00000904,L,TIGCTSHT00000905,XL,TIGCTSHT00000906,XXL,TIGCTSHT00000907,3XL,TIGCTSHT00000908;749.00;;;<p>Machine Wash Warm</p>;;;;;zerotype;;Spring;;No
2425386;TSP722-Blue-2425386;TSP722;Draft;Tshirts;The Indian Garage Co;Adults-Men;Men;Blue;;;Fashion;Casual;2018;M,TIGCTSHT00000900,L,TIGCTSHT00000901,XL,TIGCTSHT00000902;699.00;;;<p>Machine Wash Warm</p>;;;;;zerotype;;Spring;;No
2425385;TSP721-White-2425385;TSP721;Draft;Tshirts;The Indian Garage Co;Adults-Men;Men;White;;;Fashion;Casual;2018;M,TIGCTSHT00000897,L,TIGCTSHT00000898,XL,TIGCTSHT00000899;699.00;;;<p>Machine Wash Warm</p>;;;;;zerotype;;Spring;;No
2425384;RNI-09-Navy-2425384;RNI-09;Draft;Tshirts;The Indian Garage Co;Adults-Men;Men;Navy Blue;;;Fashion;Casual;2018;M,TIGCTSHT00000893,L,TIGCTSHT00000894,XL,TIGCTSHT00000895,XXL,TIGCTSHT00000896;699.00;;;<p>Machine Wash Warm</p>;;;;;zerotype;;Spring;;No
2425383;RNI-05-Teal Green Melan-2425383;RNI-05;Draft;Tshirts;The Indian Garage Co;Adults-Men;Men;Teal;;;Fashion;Casual;2018;M,TIGCTSHT00000889,L,TIGCTSHT00000890,XL,TIGCTSHT00000891,XXL,TIGCTSHT00000892;699.00;;;<p>Machine Wash Warm</p>;;;;;zerotype;;Spring;;No
2425381;SHG-01E-Cream-2425381;SHG-01E;Draft;Shrug;The Indian Garage Co;Adults-Men;Men;Cream;;;Fashion;Casual;2018;M,TIGCSHRG00000007,L,TIGCSHRG00000008,XL,TIGCSHRG00000009;899.00;;;<p>Machine Wash Warm</p>;;;;;zerotype;;Spring;;No
2425380;SHG-01E-Black-2425380;SHG-01E;Draft;Shrug;The Indian Garage Co;Adults-Men;Men;Black;;;Fashion;Casual;2018;M,TIGCSHRG00000004,L,TIGCSHRG00000005,XL,TIGCSHRG00000006;899.00;;;<p>Machine Wash Warm</p>;;;;;zerotype;;Spring;;No
2425379;SHG-01E-Blue Lining-2425379;SHG-01E;Draft;Shrug;The Indian Garage Co;Adults-Men;Men;Blue;;;Fashion;Casual;2018;M,TIGCSHRG00000001,L,TIGCSHRG00000002,XL,TIGCSHRG00000003;899.00;;;<p>Machine Wash Warm</p>;;;;;zerotype;;Spring;;No
2425378;SRTSOLO17E-6-Grey-2425378;SRTSOLO17E-6;Draft;Shirts;The Indian Garage Co;Adults-Men;Men;Grey;;;Fashion;Casual;2018;40,TIGCSHRT00007174,42,TIGCSHRT00007175,44,TIGCSHRT00007176,46,TIGCSHRT00007177;1999.00;;;<p>Machine Wash Warm</p>;;;;;zerotype;;Spring;;No
2425377;SRTSOLO17E-6-Maroon-2425377;SRTSOLO17E-6;Draft;Shirts;The Indian Garage Co;Adults-Men;Men;Maroon;;;Fashion;Casual;2018;40,TIGCSHRT00007170,42,TIGCSHRT00007171,44,TIGCSHRT00007172,46,TIGCSHRT00007173;1999.00;;;<p>Machine Wash Warm</p>;;;;;zerotype;;Spring;;No
2425376;SRTSOLO17E-6-Blue-2425376;SRTSOLO17E-6;Draft;Shirts;The Indian Garage Co;Adults-Men;Men;Blue;;;Fashion;Casual;2018;40,TIGCSHRT00007166,42,TIGCSHRT00007167,44,TIGCSHRT00007168,46,TIGCSHRT00007169;1999.00;;;<p>Machine Wash Warm</p>;;;;;zerotype;;Spring;;No
2425375;SRTSOLO17E-5-Black-2425375;SRTSOLO17E-5;Draft;Shirts;The Indian Garage Co;Adults-Men;Men;Black;;;Fashion;Casual;2018;40,TIGCSHRT00007162,42,TIGCSHRT00007163,44,TIGCSHRT00007164,46,TIGCSHRT00007165;1999.00;;;<p>Machine Wash Warm</p>;;;;;zerotype;;Spring;;No
2425374;SRTSOLO17E-5-Blue-2425374;SRTSOLO17E-5;Draft;Shirts;The Indian Garage Co;Adults-Men;Men;Blue;;;Fashion;Casual;2018;40,TIGCSHRT00007158,42,TIGCSHRT00007159,44,TIGCSHRT00007160,46,TIGCSHRT00007161;1999.00;;;<p>Machine Wash Warm</p>;;;;;zerotype;;Spring;;No
2425373;SRTSOLO17E-4-Black-2425373;SRTSOLO17E-4;Draft;Shirts;The Indian Garage Co;Adults-Men;Men;Black;;;Fashion;Casual;2018;40,TIGCSHRT00007154,42,TIGCSHRT00007155,44,TIGCSHRT00007156,46,TIGCSHRT00007157;1999.00;;;<p>Machine Wash Warm</p>;;;;;zerotype;;Spring;;No
2425372;SRTSOLO17E-4-Burnt Red-2425372;SRTSOLO17E-4;Draft;Shirts;The Indian Garage Co;Adults-Men;Men;Red;;;Fashion;Casual;2018;40,TIGCSHRT00007150,42,TIGCSHRT00007151,44,TIGCSHRT00007152,46,TIGCSHRT00007153;1999.00;;;<p>Machine Wash Warm</p>;;;;;zerotype;;Spring;;No
2425371;SRTSOLO17E-4-Navy-2425371;SRTSOLO17E-4;Draft;Shirts;The Indian Garage Co;Adults-Men;Men;Navy Blue;;;Fashion;Casual;2018;40,TIGCSHRT00007146,42,TIGCSHRT00007147,44,TIGCSHRT00007148,46,TIGCSHRT00007149;1999.00;;;<p>Machine Wash Warm</p>;;;;;zerotype;;Spring;;No
2425370;SRTSOLO17E-3-Khakhi-2425370;SRTSOLO17E-3;Draft;Shirts;The Indian Garage Co;Adults-Men;Men;Khaki;;;Fashion;Casual;2018;40,TIGCSHRT00007142,42,TIGCSHRT00007143,44,TIGCSHRT00007144,46,TIGCSHRT00007145;1999.00;;;<p>Machine Wash Warm</p>;;;;;zerotype;;Spring;;No
2425369;SRTSOLO17E-3-Blue-2425369;SRTSOLO17E-3;Draft;Shirts;The Indian Garage Co;Adults-Men;Men;Blue;;;Fashion;Casual;2018;40,TIGCSHRT00007138,42,TIGCSHRT00007139,44,TIGCSHRT00007140,46,TIGCSHRT00007141;1999.00;;;<p>Machine Wash Warm</p>;;;;;zerotype;;Spring;;No
2425368;SRTSOLO17E-2-Choco-2425368;SRTSOLO17E-2;Draft;Shirts;The Indian Garage Co;Adults-Men;Men;Brown;;;Fashion;Casual;2018;40,TIGCSHRT00007134,42,TIGCSHRT00007135,44,TIGCSHRT00007136,46,TIGCSHRT00007137;1999.00;;;<p>Machine Wash Warm</p>;;;;;zerotype;;Spring;;No
2425366;SRTSOLO17E-2-Navy-2425366;SRTSOLO17E-2;Draft;Shirts;The Indian Garage Co;Adults-Men;Men;Navy Blue;;;Fashion;Casual;2018;40,TIGCSHRT00007130,42,TIGCSHRT00007131,44,TIGCSHRT00007132,46,TIGCSHRT00007133;1999.00;;;<p>Machine Wash Warm</p>;;;;;zerotype;;Spring;;No
2425365;SRTSOLO17E-1-Black-2425365;SRTSOLO17E-1;Draft;Shirts;The Indian Garage Co;Adults-Men;Men;Black;;;Fashion;Casual;2018;40,TIGCSHRT00007126,42,TIGCSHRT00007127,44,TIGCSHRT00007128,46,TIGCSHRT00007129;1999.00;;;<p>Machine Wash Warm</p>;;;;;zerotype;;Spring;;No
2425363;SRTSOLO17E-1-Maroon-2425363;SRTSOLO17E-1;Draft;Shirts;The Indian Garage Co;Adults-Men;Men;Maroon;;;Fashion;Casual;2018;40,TIGCSHRT00007122,42,TIGCSHRT00007123,44,TIGCSHRT00007124,46,TIGCSHRT00007125;1999.00;;;<p>Machine Wash Warm</p>;;;;;zerotype;;Spring;;No
2425362;SRTSOLO17E-1-Olive-2425362;SRTSOLO17E-1;Draft;Shirts;The Indian Garage Co;Adults-Men;Men;Olive;;;Fashion;Casual;2018;40,TIGCSHRT00007118,42,TIGCSHRT00007119,44,TIGCSHRT00007120,46,TIGCSHRT00007121;1999.00;;;<p>Machine Wash Warm</p>;;;;;zerotype;;Spring;;No
2425361;SRTSOLO17E-1-Grey-2425361;SRTSOLO17E-1;Draft;Shirts;The Indian Garage Co;Adults-Men;Men;Grey;;;Fashion;Casual;2018;40,TIGCSHRT00007114,42,TIGCSHRT00007115,44,TIGCSHRT00007116,46,TIGCSHRT00007117;1999.00;;;<p>Machine Wash Warm</p>;;;;;zerotype;;Spring;;No
2425359;SRTSOLO17E-1-Blue-2425359;SRTSOLO17E-1;Draft;Shirts;The Indian Garage Co;Adults-Men;Men;Blue;;;Fashion;Casual;2018;40,TIGCSHRT00007110,42,TIGCSHRT00007111,44,TIGCSHRT00007112,46,TIGCSHRT00007113;1999.00;;;<p>Machine Wash Warm</p>;;;;;zerotype;;Spring;;No
2425358;SRTSOLO17E-1-Choco-2425358;SRTSOLO17E-1;Draft;Shirts;The Indian Garage Co;Adults-Men;Men;Brown;;;Fashion;Casual;2018;40,TIGCSHRT00007106,42,TIGCSHRT00007107,44,TIGCSHRT00007108,46,TIGCSHRT00007109;1999.00;;;<p>Machine Wash Warm</p>;;;;;zerotype;;Spring;;No
2342896;50011346752004-Purple-2342896;PINEY-M-iL09682-3171, 44, PURPLE;On Hold - Sample;Shirts;Indigo Nation;Adults-Men;Men;Purple;;;Fashion;;2017;39,INNASHRT00103176,40,INNASHRT00103177,42,INNASHRT00103178,44,INNASHRT00103179;1199.00;;;<p>wash dark colors seperately. use mild detergent, do not dry clean, tumble dry low, dry in shade, do not bleach</p>;;;;;zerotype;;Fall;Broken size;No
2115663;RGDSBlazer_DarkBrown-44-Brown-2115663;RG Designers Dark Brown Velvet Mens Designer  Blazers;Draft;Blazers;RG DESIGNERS;Adults-Men;Men;Brown;Brown;;Fashion;Party;2017;36,RGDSBLZR00000061,38,RGDSBLZR00000062,40,RGDSBLZR00000063,42,RGDSBLZR00000064,44,RGDSBLZR00000065;15549.00;<p>Ablazeris a type of single breastedcoat, closely related to asuitjacket. Generally, it differs from a suit jacket in that the buttons are usually <a href='/metallic?src=pd' class='seolink'>metallic</a>, and the outer material generally more durable. They occur most often in  colors, but <a href='/blazers?src=pd' class='seolink'>blazers</a> of other colors are not unheard of. They are included often inuniformsof civilian bodies, such as airlines, boysschools, yacht clubs, and private security organizations.</p>;<p>Velvet  Dark Brown Self Design Party Blazer</p>;<p>Dry Clean only</p>;;;;;zerotype;;Winter;;No
2115662;RGDSBlazer_Brown-44-Brown-2115662;RG Designers Brown Velvet Mens Designer  Blazers;Draft;Blazers;RG DESIGNERS;Adults-Men;Men;Brown;Brown;;Fashion;Party;2017;36,RGDSBLZR00000056,38,RGDSBLZR00000057,40,RGDSBLZR00000058,42,RGDSBLZR00000059,44,RGDSBLZR00000060;15549.00;<p>Ablazeris a type of single breastedcoat, closely related to asuitjacket. Generally, it differs from a suit jacket in that the buttons are usually <a href='/metallic?src=pd' class='seolink'>metallic</a>, and the outer material generally more durable. They occur most often in  colors, but <a href='/blazers?src=pd' class='seolink'>blazers</a> of other colors are not unheard of. They are included often inuniformsof civilian bodies, such as airlines, boysschools, yacht clubs, and private security organizations.</p>;<p>Velvet Brown Self Design Party Blazer</p>;<p>Dry Clean only</p>;;;;;zerotype;;Winter;;No
2115661;RGDSBlazer_Wine-44-Wine-2115661;RG Designers Wine Velvet Mens Designer  Blazers;Draft;Blazers;RG DESIGNERS;Adults-Men;Men;Maroon;Maroon;;Fashion;Party;2017;36,RGDSBLZR00000051,38,RGDSBLZR00000052,40,RGDSBLZR00000053,42,RGDSBLZR00000054,44,RGDSBLZR00000055;15549.00;<p>Ablazeris a type of single breastedcoat, closely related to asuitjacket. Generally, it differs from a suit jacket in that the buttons are usually <a href='/metallic?src=pd' class='seolink'>metallic</a>, and the outer material generally more durable. They occur most often in  colors, but <a href='/blazers?src=pd' class='seolink'>blazers</a> of other colors are not unheard of. They are included often inuniformsof civilian bodies, such as airlines, boysschools, yacht clubs, and private security organizations.</p>;<p>Velvet Wine Self Design Party Blazer</p>;<p>Dry Clean only</p>;;;;;zerotype;;Winter;;No
2115660;RGDSBlazer_RoyalBlue-44-Royal Blue-2115660;RG Designers Royal Blue Velvet  Mens Designer  Blazers;Draft;Blazers;RG DESIGNERS;Adults-Men;Men;Blue;Blue;;Fashion;Party;2017;36,RGDSBLZR00000046,38,RGDSBLZR00000047,40,RGDSBLZR00000048,42,RGDSBLZR00000049,44,RGDSBLZR00000050;15549.00;<p>Ablazeris a type of single breastedcoat, closely related to asuitjacket. Generally, it differs from a suit jacket in that the buttons are usually <a href='/metallic?src=pd' class='seolink'>metallic</a>, and the outer material generally more durable. They occur most often in  colors, but <a href='/blazers?src=pd' class='seolink'>blazers</a> of other colors are not unheard of. They are included often inuniformsof civilian bodies, such as airlines, boysschools, yacht clubs, and private security organizations.</p>;<p>Velvet Royal Blue Self Design Party Blazer</p>;<p>Dry Clean only</p>;;;;;zerotype;;Winter;;No
2115659;RGDSBlazer_Khaki-44-Khaki-2115659;RG Designers Khaki  Mens Designer  Blazers;Draft;Blazers;RG DESIGNERS;Adults-Men;Men;Khaki;Khaki;;Fashion;Party;2017;36,RGDSBLZR00000041,38,RGDSBLZR00000042,40,RGDSBLZR00000043,42,RGDSBLZR00000044,44,RGDSBLZR00000045;14999.00;<p>Ablazeris a type of single breastedcoat, closely related to asuitjacket. Generally, it differs from a suit jacket in that the buttons are usually <a href='/metallic?src=pd' class='seolink'>metallic</a>, and the outer material generally more durable. They occur most often in  colors, but <a href='/blazers?src=pd' class='seolink'>blazers</a> of other colors are not unheard of. They are included often inuniformsof civilian bodies, such as airlines, boysschools, yacht clubs, and private security organizations.</p>;<p>Cotton Blended Khaki Party Blazer</p>;<p>Dry Clean only</p>;;;;;zerotype;;Winter;;No
2115658;RGDSBlazer_LightGrey-44-Grey-2115658;RG Designers Light Grey Mens Designer  Blazers;Draft;Blazers;RG DESIGNERS;Adults-Men;Men;Grey;Grey;;Fashion;Party;2017;36,RGDSBLZR00000036,38,RGDSBLZR00000037,40,RGDSBLZR00000038,42,RGDSBLZR00000039,44,RGDSBLZR00000040;14999.00;<p>Ablazeris a type of single breastedcoat, closely related to asuitjacket. Generally, it differs from a suit jacket in that the buttons are usually <a href='/metallic?src=pd' class='seolink'>metallic</a>, and the outer material generally more durable. They occur most often in  colors, but <a href='/blazers?src=pd' class='seolink'>blazers</a> of other colors are not unheard of. They are included often inuniformsof civilian bodies, such as airlines, boysschools, yacht clubs, and private security organizations.</p>;<p>Cotton Blended Light Grey Party Blazer</p>;<p>Dry Clean only</p>;;;;;zerotype;;Winter;;No
2115657;RGDSBlazer_Beige-44-Beige-2115657;RG Designers Beige Mens Designer  Blazers;Draft;Blazers;RG DESIGNERS;Adults-Men;Men;Beige;Beige;;Fashion;Party;2017;36,RGDSBLZR00000031,38,RGDSBLZR00000032,40,RGDSBLZR00000033,42,RGDSBLZR00000034,44,RGDSBLZR00000035;11549.00;<p>Ablazeris a type of single breastedcoat, closely related to asuitjacket. Generally, it differs from a suit jacket in that the buttons are usually <a href='/metallic?src=pd' class='seolink'>metallic</a>, and the outer material generally more durable. They occur most often in  colors, but <a href='/blazers?src=pd' class='seolink'>blazers</a> of other colors are not unheard of. They are included often inuniformsof civilian bodies, such as airlines, boysschools, yacht clubs, and private security organizations.</p>;<p>Cotton Blended Beige Party Blazer</p>;<p>Dry Clean only</p>;;;;;zerotype;;Winter;;No
2115655;RGDSBlazer_MaroonRed-44-Maroon-2115655;RG Designers Maroon  Mens Designer  Blazers;Draft;Blazers;RG DESIGNERS;Adults-Men;Men;Maroon;Maroon;;Fashion;Party;2017;36,RGDSBLZR00000021,38,RGDSBLZR00000022,40,RGDSBLZR00000023,42,RGDSBLZR00000024,44,RGDSBLZR00000025;14999.00;<p>Ablazeris a type of single breastedcoat, closely related to asuitjacket. Generally, it differs from a suit jacket in that the buttons are usually <a href='/metallic?src=pd' class='seolink'>metallic</a>, and the outer material generally more durable. They occur most often in  colors, but <a href='/blazers?src=pd' class='seolink'>blazers</a> of other colors are not unheard of. They are included often inuniformsof civilian bodies, such as airlines, boysschools, yacht clubs, and private security organizations.</p>;<p>Cotton Blended Maroon Party Blazer</p>;<p>Dry Clean only</p>;;;;;zerotype;;Winter;;No
2115654;RGDSBlazer_Black-44-Black-2115654;RG Designers Black  Velvet  Mens Designer  Blazers;Draft;Blazers;RG DESIGNERS;Adults-Men;Men;Black;Black;;Fashion;Party;2017;36,RGDSBLZR00000016,38,RGDSBLZR00000017,40,RGDSBLZR00000018,42,RGDSBLZR00000019,44,RGDSBLZR00000020;15999.00;<p>Ablazeris a type of single breastedcoat, closely related to asuitjacket. Generally, it differs from a suit jacket in that the buttons are usually <a href='/metallic?src=pd' class='seolink'>metallic</a>, and the outer material generally more durable. They occur most often in  colors, but <a href='/blazers?src=pd' class='seolink'>blazers</a> of other colors are not unheard of. They are included often inuniformsof civilian bodies, such as airlines, boysschools, yacht clubs, and private security organizations.</p>;<p>Velvet Black Party Blazer</p>;<p>Dry Clean only</p>;;;;;zerotype;;Winter;;No
2115653;RGDSBlazer_Grey-44-Navy Blue-2115653;RG Designers Grey  Mens Designer  Blazers;Draft;Blazers;RG DESIGNERS;Adults-Men;Men;Grey;Grey;;Fashion;Party;2017;36,RGDSBLZR00000011,38,RGDSBLZR00000012,40,RGDSBLZR00000013,42,RGDSBLZR00000014,44,RGDSBLZR00000015;15549.00;<p>Ablazeris a type of single breastedcoat, closely related to asuitjacket. Generally, it differs from a suit jacket in that the buttons are usually <a href='/metallic?src=pd' class='seolink'>metallic</a>, and the outer material generally more durable. They occur most often in  colors, but <a href='/blazers?src=pd' class='seolink'>blazers</a> of other colors are not unheard of. They are included often inuniformsof civilian bodies, such as airlines, boysschools, yacht clubs, and private security organizations.</p>;<p>Cotton Blended Grey Part Blazer</p>;<p>Dry Clean only</p>;;;;;zerotype;;Winter;;No
2115652;RGDSBlazer_NavyBlue-44-Navy Blue-2115652;RG Designers Navy Blue Mens Designer  Blazers;Draft;Blazers;RG DESIGNERS;Adults-Men;Men;Navy Blue;Navy Blue;;Fashion;Party;2017;36,RGDSBLZR00000006,38,RGDSBLZR00000007,40,RGDSBLZR00000008,42,RGDSBLZR00000009,44,RGDSBLZR00000010;11549.00;<p>Ablazeris a type of single breastedcoat, closely related to asuitjacket. Generally, it differs from a suit jacket in that the buttons are usually <a href='/metallic?src=pd' class='seolink'>metallic</a>, and the outer material generally more durable. They occur most often in  colors, but <a href='/blazers?src=pd' class='seolink'>blazers</a> of other colors are not unheard of. They are included often inuniformsof civilian bodies, such as airlines, boysschools, yacht clubs, and private security organizations.</p>;<p>Cotton Blended Navy Blue Part Blazer</p>;<p>Dry Clean only</p>;;;;;zerotype;;Winter;;No
2115474;P10102166962100-Black-2115474;Shirts;Inactive - PMM - Catalog;Shirts;People;Adults-Men;Men;Orange;Blue;;Fashion;Casual;2017;38,PEPLSHRT00004492,39,PEPLSHRT00004493,40,PEPLSHRT00004494,42,PEPLSHRT00004495,44,PEPLSHRT00004496,46,PEPLSHRT00004497;1199.00;<a href='/orange?src=pd' class='seolink'>Orange</a> and <a href='/blue?src=pd' class='seolink'>blue</a> striped <a href='/casual?src=pd' class='seolink'>casual</a> shirt, has a <a href='/spread?src=pd' class='seolink'>spread</a> collar, button placket, long sleeves, curved hem;This shirt from People will give you the perfect amount of comfort and durability.  This orange piece can be styled with dark denims, Chelsea boots, and a classic leather jacket for your next concert.;Cotton <br> Machine-wash;Regular Fit<br> The model (height 6') is wearing a size M;;People Men Orange & Blue Striped Casual Shirt;People,menscasualfest-oct,ftod-sep30,welcome-to-myntra-oct17,groovy-gang-october,mitm-casuals-oct,mitm-mainbanner-oct,mitm-streetstyles-oct,People-AW-17-Styles,menscasualfest-nov,menscasualfestoct2,express-delivery-17,try-and-buy-17,youngistan-mainbanner,mantastic-nov-aw17,mmb-casualshirts,eorsdec17-ftod,ltod-bbs,mitm-jan-18,effortless-casual,express-delivery-jan18;zerotype;;Winter;image mismatch;No
2087027;AVHandloomLoops-Red_46-Red-2087027;RG Designers Men's Full Sleeve Kurta Pyjama Set AVHandloomLoops-Red;Inactive - PMM - Catalog;Kurta Sets;RG DESIGNERS;Adults-Men;Men;Grey;White;;Fashion;Ethnic;2017;36,RGDSKASS00000554,38,RGDSKASS00000555,40,RGDSKASS00000556,42,RGDSKASS00000557,44,RGDSKASS00000558,46,RGDSKASS00000559;4999.00;Grey and white solid kurta with pyjamas<br />Grey straight knee length kurta, has a mandarin collar, long sleeves, straight hem, side slits<br />White solid pyjamas, drawstring closure;Flaunt your style with a kurta from RG DESIGNERS.  You'll look dapper as ever in this grey piece paired with slim jeans and sandals, ideal for any nice family gathering.;Kurta fabric: cotton blend<br>Bottom fabric: cotton blend<br>Dry-clean;The model (height 6') is wearing a size M;;RG DESIGNERS Men Grey & White Solid Kurta with Pyjamas;RG DESIGNERS,big10-ethnic-men,flash-sale-oct21,coh-exp-aug,menscasualfest-nov,express-delivery-17,welcome-to-myntra-oct17,combo-buy2-oct28,get-back-200,mantastic-nov-aw17,bfg17-coupon-offer,bfg17-non-disc,bfg17-extra20,men-occasion-wear,eorsdec2017-emeocc,fusion-wear,ltod-bbs,fla-70-ebd,mitm-jan-18,corporate-jetsetter,express-delivery-jan18,coupon-offer-rtf18,JIT,bluemoon-jan31;zerotype;;Winter;image mismatch;No
956562;XMVZ00127-N6-Dark Green-956562;XMVZ00127-N6Dark Green;Inactive - PMM - Catalog;Waistcoat;Parx;Adults-Men;Men;Olive;;;Fashion;Casual;2015;39,PARXWACO00000029,40,PARXWACO00000030,42,PARXWACO00000031,44,PARXWACO00000032;2399.00;Olive green woven waistcoat, has three pockets, a V-neck, sleeveless, a full button placket, asymmetric front hemline;Jazz up a plain looking ensemble by wearing this stylish waistcoat from Parx. Team it with a shirt, chinos and casual shoes for a dapper look.;100% cotton<br />Dry-clean;The model (height 6' and shoulders 18") is wearing a size M;;Parx Olive Green Waistcoat;Parx,navratri-special-waistcoats,,navratri-festive-store,,,,debutant,,debutant,weddingguests-contemporaryall,nehru-jacket,nehru-jackets,nehru-jackets,nehru-jackets-jacket,nehru-jacket-menswear,dailyopenoffer20,,HH19NOV2015,MINIHH23NOV,ios-promotion-25nov,ios-promo-25nov,HH26NOV2015,dailyopenoffer10,partystore-clubformal-alltwaistcoats,HH16DEC,first-time-on-discount,HH18JAN15,HH10FEB16,HH10FEB16,ays-rs1000-off,min-1000-8may,rs-1000-off-15may,1000-rs-off-20-May,rs-1000-off-22may,rs-500-off-22may,men-casuals-rfm-2016,rs-500-off-28may,1000rs-1jun,500rs-1jun,rs-1000-off-5jun,rs-500-off-5jun,rs-1000-off-june,rs-500-off-june-pn,JIT,never-settle,ftod-eorsj17-40,wonder-hour-jun25,bss-uber-offer,mcf-aug-2238,casualfest-june17,si-look3,rakhi-si-men-look3,uber-offer-aug-rtf,coupon-offer-aug19,coupon-offer-23aug,coh-exp-aug,welcome-to-myntra-aug-v2,mitm-college-aug,welcome-to-myntra-sep2017,flash-sale-sept02,welcome-to-mynt-v2sep2017,dutyfree-sept17,shubh-vivah-guest-him-solid-waistcoats,menscasualfest-oct,shubh-vivah-perfectionist-vibes,coupon-offer-diwali17,ds17-buy2-1999,buy3-ds17,buy2-ds17,flash-oct14,buy2-oct15,flash-sale-oct17,flash-sale-oct21,menscasualfest-nov,menscasualfestoct2,wedding-store,express-delivery-17,try-and-buy-17,welcome-to-myntra-oct17,youngistan-mainbanner,extra20-oct31,bfg17-coupon-offer,bfg17-non-disc,bfg17-extra20,groovy-gang-dec,party-store-2017-men-jackets-waistcoats,party-store-2017-view-all,menscasualfest-dec,coupon-offer-oct2017,mensworkwear-eors,mitm-jan-18,corporate-jetsetter,express-delivery-jan18,coupon-offer-dec2017,combo-buy2-jan31;zerotype;;Winter;image mismatch;No
