Style ID;Vendor Article Number;Vendor Article Name;Active Status;Article type;Brand;Age Group;Gender;Base Colour;Colour1;Colour2;Fashion Type;Usage;Year;Size - SKU code pair;MRP;Style Description;Style Note;Materials and Care Description;Size and Fit Description;Size Chart Path;Product Display Name;Tags;Product Type;Classification Brand;Season;Comments;Upload Images
1885377;9125556942803208493-BLACK-1885377;Sports Swimsuit;Draft;Swimwear;next;Adults-Women;Women;;;;Fashion;;2017;14,NEXTSWMW00000955,16,NEXTSWMW00000956,12,NEXTSWMW00000957,22,NEXTSWMW00000958,20,NEXTSWMW00000959,18,NEXTSWMW00000960,8,NEXTSWMW00000961,6,NEXTSWMW00000962,10,NEXTSWMW00000963;3290.00;;;;;;;;zerotype;;Spring;;No
1885376;9106375679980985169-PINK-1885376;Geo Print Rash Swimsuit;Draft;Swimwear;next;Adults-Women;Women;;;;Fashion;;2017;10,NEXTSWMW00000948,12,NEXTSWMW00000949,18,NEXTSWMW00000950,14,NEXTSWMW00000951,8,NEXTSWMW00000952,6,NEXTSWMW00000953,16,NEXTSWMW00000954;3890.00;;;;;;;;zerotype;;Spring;;No
1885375;8995163040034640062-BLUE-1885375;High Neck Sports Swimsuit;Draft;Swimwear;next;Adults-Women;Women;;;;Fashion;;2017;10,NEXTSWMW00000939,22,NEXTSWMW00000940,20,NEXTSWMW00000941,14,NEXTSWMW00000942,12,NEXTSWMW00000943,18,NEXTSWMW00000944,16,NEXTSWMW00000945,6,NEXTSWMW00000946,8,NEXTSWMW00000947;3590.00;;;;;;;;zerotype;;Spring;;No
1885374;8936505924631605835-GREEN-1885374;Aqua Blue Geo Print Swimsuit;Draft;Swimwear;next;Adults-Women;Women;;;;Fashion;;2017;22,NEXTSWMW00000930,6,NEXTSWMW00000931,20,NEXTSWMW00000932,12,NEXTSWMW00000933,18,NEXTSWMW00000934,16,NEXTSWMW00000935,8,NEXTSWMW00000936,10,NEXTSWMW00000937,14,NEXTSWMW00000938;3390.00;;;;;;;;zerotype;;Spring;;No
1885373;8791201096672184326-RED-1885373;Shape Enhancing Bandeau Swimsuit;Draft;Swimwear;next;Adults-Women;Women;;;;Fashion;;2017;12,NEXTSWMW00000922,16,NEXTSWMW00000923,18,NEXTSWMW00000924,10,NEXTSWMW00000925,14,NEXTSWMW00000926,22,NEXTSWMW00000927,8,NEXTSWMW00000928,20,NEXTSWMW00000929;3390.00;;;;;;;;zerotype;;Spring;;No
1885372;8721655338915888093-BLUE-1885372;Ice Cream Print Swim Shorts;Draft;Swimwear;next;Adults-Men;Men;;;;Fashion;;2017;M,NEXTSWMW00000916,XS,NEXTSWMW00000917,XL,NEXTSWMW00000918,S,NEXTSWMW00000919,L,NEXTSWMW00000920,XXL,NEXTSWMW00000921;1790.00;;;;;;;;zerotype;;Spring;;No
1885370;8563970592045819120-BLUE-1885370;Leaf Print Swim Shorts;Draft;Swimwear;next;Adults-Men;Men;;;;Fashion;;2017;L,NEXTSWMW00000910,XS,NEXTSWMW00000911,XL,NEXTSWMW00000912,M,NEXTSWMW00000913,XXL,NEXTSWMW00000914,S,NEXTSWMW00000915;1790.00;;;;;;;;zerotype;;Spring;;No
1885369;8506084684634954007-BLACK-1885369;NEXT BLACK BEACHWEAR;Draft;Swimwear;next;Adults-Women;Women;;;;Fashion;;2017;14,NEXTSWMW00000902,12,NEXTSWMW00000903,10,NEXTSWMW00000904,16,NEXTSWMW00000905,22,NEXTSWMW00000906,18,NEXTSWMW00000907,8,NEXTSWMW00000908,20,NEXTSWMW00000909;3390.00;;;;;;;;zerotype;;Spring;;No
1885368;8492454812580217431-RED-1885368;NEXT RED BEACHWEAR;Draft;Swimwear;next;Adults-Women;Women;;;;Fashion;;2017;14,NEXTSWMW00000893,16,NEXTSWMW00000894,22,NEXTSWMW00000895,8,NEXTSWMW00000896,12,NEXTSWMW00000897,18,NEXTSWMW00000898,6,NEXTSWMW00000899,20,NEXTSWMW00000900,10,NEXTSWMW00000901;3190.00;;;;;;;;zerotype;;Spring;;No
1885367;8440690582238043916-CREAM-1885367;Leaf Print Underwired Tankini Top;Draft;Swimwear;next;Adults-Women;Women;;;;Fashion;;2017;32DD,NEXTSWMW00000862,34B,NEXTSWMW00000863,38E,NEXTSWMW00000864,34G,NEXTSWMW00000865,36A,NEXTSWMW00000866,32F,NEXTSWMW00000867,36C,NEXTSWMW00000868,34F,NEXTSWMW00000869,32D,NEXTSWMW00000870,34A,NEXTSWMW00000871,38D,NEXTSWMW00000872,34E,NEXTSWMW00000873,38C,NEXTSWMW00000874,38F,NEXTSWMW00000875,36E,NEXTSWMW00000876,32G,NEXTSWMW00000877,36D,NEXTSWMW00000878,36B,NEXTSWMW00000879,36F,NEXTSWMW00000880,36DD,NEXTSWMW00000881,38G,NEXTSWMW00000882,36G,NEXTSWMW00000883,38B,NEXTSWMW00000884,32C,NEXTSWMW00000885,34C,NEXTSWMW00000886,32E,NEXTSWMW00000887,38DD,NEXTSWMW00000888,32B,NEXTSWMW00000889,32A,NEXTSWMW00000890,34DD,NEXTSWMW00000891,34D,NEXTSWMW00000892;3590.00;;;;;;;;zerotype;;Spring;;No
1885365;8192508788301028084-BLUE-1885365;Geo Print Tanksuit;Draft;Swimwear;next;Adults-Women;Women;;;;Fashion;;2017;6,NEXTSWMW00000853,8,NEXTSWMW00000854,22,NEXTSWMW00000855,10,NEXTSWMW00000856,14,NEXTSWMW00000857,20,NEXTSWMW00000858,18,NEXTSWMW00000859,12,NEXTSWMW00000860,16,NEXTSWMW00000861;3290.00;;;;;;;;zerotype;;Spring;;No
1885364;8036358227619150902-GREEN-1885364;Green Plunge Swimsuit;Draft;Swimwear;next;Adults-Women;Women;;;;Fashion;;2017;22,NEXTSWMW00000844,8,NEXTSWMW00000845,6,NEXTSWMW00000846,14,NEXTSWMW00000847,10,NEXTSWMW00000848,20,NEXTSWMW00000849,18,NEXTSWMW00000850,12,NEXTSWMW00000851,16,NEXTSWMW00000852;3190.00;;;;;;;;zerotype;;Spring;;No
1885363;8019120679052289051-BLACK-1885363;NEXT BLACK BEACHWEAR;Draft;Swimwear;next;Adults-Women;Women;;;;Fashion;;2017;10,NEXTSWMW00000836,12,NEXTSWMW00000837,20,NEXTSWMW00000838,8,NEXTSWMW00000839,16,NEXTSWMW00000840,14,NEXTSWMW00000841,18,NEXTSWMW00000842,6,NEXTSWMW00000843;1590.00;;;;;;;;zerotype;;Spring;;No
1885362;8012993983796729168-CREAM-1885362;NEXT CREAM BEACHWEAR;Draft;Swimwear;next;Adults-Women;Women;;;;Fashion;;2017;22,NEXTSWMW00000827,10,NEXTSWMW00000828,6,NEXTSWMW00000829,18,NEXTSWMW00000830,12,NEXTSWMW00000831,8,NEXTSWMW00000832,16,NEXTSWMW00000833,20,NEXTSWMW00000834,14,NEXTSWMW00000835;3390.00;;;;;;;;zerotype;;Spring;;No
1885361;7843117084531792264-PINK-1885361;Multicoloured Geo Print Tankini Top;Draft;Swimwear;next;Adults-Women;Women;;;;Fashion;;2017;6,NEXTSWMW00000818,20,NEXTSWMW00000819,22,NEXTSWMW00000820,18,NEXTSWMW00000821,14,NEXTSWMW00000822,10,NEXTSWMW00000823,8,NEXTSWMW00000824,16,NEXTSWMW00000825,12,NEXTSWMW00000826;3190.00;;;;;;;;zerotype;;Spring;;No
1885360;7813327747018822838-BLUE-1885360;NEXT BLUE SWIMWEAR;Draft;Swimwear;next;Kids-Girls;Girls;;;;Fashion;;2017;14Y,NEXTSWMW00000815,16Y,NEXTSWMW00000816,15Y,NEXTSWMW00000817;1990.00;;;;;;;;zerotype;;Spring;;No
1885359;7813327747018822838-BLUE-1885359;NEXT BLUE SWIMWEAR;Draft;Swimwear;next;Kids-Girls;Girls;;;;Fashion;;2017;13Y,NEXTSWMW00000812,11Y,NEXTSWMW00000813,12Y,NEXTSWMW00000814;1790.00;;;;;;;;zerotype;;Spring;;No
1885358;7813327747018822838-BLUE-1885358;NEXT BLUE SWIMWEAR;Draft;Swimwear;next;Kids-Girls;Girls;;;;Fashion;;2017;8Y,NEXTSWMW00000808,10Y,NEXTSWMW00000809,7Y,NEXTSWMW00000810,9Y,NEXTSWMW00000811;1690.00;;;;;;;;zerotype;;Spring;;No
1885357;7813327747018822838-BLUE-1885357;NEXT BLUE SWIMWEAR;Draft;Swimwear;next;Kids-Girls;Girls;;;;Fashion;;2017;3Y,NEXTSWMW00000804,6Y,NEXTSWMW00000805,5Y,NEXTSWMW00000806,4Y,NEXTSWMW00000807;1490.00;;;;;;;;zerotype;;Spring;;No
1885356;7799999349435414884-RED-1885356;NEXT RED BEACHWEAR;Draft;Swimwear;next;Adults-Women;Women;;;;Fashion;;2017;16,NEXTSWMW00000797,6,NEXTSWMW00000798,10,NEXTSWMW00000799,8,NEXTSWMW00000800,12,NEXTSWMW00000801,18,NEXTSWMW00000802,14,NEXTSWMW00000803;3890.00;;;;;;;;zerotype;;Spring;;No
1885355;7693791112139966974-CREAM-1885355;Floral Swimsuit (3-16Yrs);Draft;Swimwear;next;Kids-Girls;Girls;;;;Fashion;;2017;14Y,NEXTSWMW00000794,15Y,NEXTSWMW00000795,16Y,NEXTSWMW00000796;1790.00;;;;;;;;zerotype;;Spring;;No
1885354;7693791112139966974-CREAM-1885354;Floral Swimsuit (3-16Yrs);Draft;Swimwear;next;Kids-Girls;Girls;;;;Fashion;;2017;13Y,NEXTSWMW00000791,12Y,NEXTSWMW00000792,11Y,NEXTSWMW00000793;1690.00;;;;;;;;zerotype;;Spring;;No
1885353;7693791112139966974-CREAM-1885353;Floral Swimsuit (3-16Yrs);Draft;Swimwear;next;Kids-Girls;Girls;;;;Fashion;;2017;10Y,NEXTSWMW00000787,9Y,NEXTSWMW00000788,7Y,NEXTSWMW00000789,8Y,NEXTSWMW00000790;1590.00;;;;;;;;zerotype;;Spring;;No
1885352;7693791112139966974-CREAM-1885352;Floral Swimsuit (3-16Yrs);Draft;Swimwear;next;Kids-Girls;Girls;;;;Fashion;;2017;3Y,NEXTSWMW00000783,4Y,NEXTSWMW00000784,6Y,NEXTSWMW00000785,5Y,NEXTSWMW00000786;1490.00;;;;;;;;zerotype;;Spring;;No
1885351;7682577934571765610-BLUE-1885351;Boat Photographic Swim Shorts;Draft;Swimwear;next;Adults-Men;Men;;;;Fashion;;2017;L,NEXTSWMW00000777,XS,NEXTSWMW00000778,XXL,NEXTSWMW00000779,XL,NEXTSWMW00000780,M,NEXTSWMW00000781,S,NEXTSWMW00000782;2090.00;;;;;;;;zerotype;;Spring;;No
1885350;7605847019118854378-RED-1885350;Mermaid Slogan Swimsuit;Draft;Swimwear;next;Adults-Women;Women;;;;Fashion;;2017;6,NEXTSWMW00000768,22,NEXTSWMW00000769,18,NEXTSWMW00000770,20,NEXTSWMW00000771,12,NEXTSWMW00000772,14,NEXTSWMW00000773,16,NEXTSWMW00000774,8,NEXTSWMW00000775,10,NEXTSWMW00000776;3890.00;;;;;;;;zerotype;;Spring;;No
1885349;7588870881997400934-PINK-1885349;Crochet Trim Cover Up;Draft;Swimwear;next;Adults-Women;Women;;;;Fashion;;2017;22,NEXTSWMW00000759,12,NEXTSWMW00000760,8,NEXTSWMW00000761,6,NEXTSWMW00000762,10,NEXTSWMW00000763,20,NEXTSWMW00000764,14,NEXTSWMW00000765,16,NEXTSWMW00000766,18,NEXTSWMW00000767;3190.00;;;;;;;;zerotype;;Spring;;No
1885348;7531322312776284339-BLUE-1885348;Colourblock Swimsuit;Draft;Swimwear;next;Kids-Girls;Girls;;;;Fashion;;2017;15Y,NEXTSWMW00000756,16Y,NEXTSWMW00000757,14Y,NEXTSWMW00000758;1990.00;;;;;;;;zerotype;;Spring;;No
1885347;7531322312776284339-BLUE-1885347;Colourblock Swimsuit;Draft;Swimwear;next;Kids-Girls;Girls;;;;Fashion;;2017;13Y,NEXTSWMW00000753,12Y,NEXTSWMW00000754,11Y,NEXTSWMW00000755;1790.00;;;;;;;;zerotype;;Spring;;No
1885346;7531322312776284339-BLUE-1885346;Colourblock Swimsuit;Draft;Swimwear;next;Kids-Girls;Girls;;;;Fashion;;2017;10Y,NEXTSWMW00000749,8Y,NEXTSWMW00000750,9Y,NEXTSWMW00000751,7Y,NEXTSWMW00000752;1690.00;;;;;;;;zerotype;;Spring;;No
1885345;7531322312776284339-BLUE-1885345;Colourblock Swimsuit;Draft;Swimwear;next;Kids-Girls;Girls;;;;Fashion;;2017;6Y,NEXTSWMW00000745,3Y,NEXTSWMW00000746,4Y,NEXTSWMW00000747,5Y,NEXTSWMW00000748;1490.00;;;;;;;;zerotype;;Spring;;No
1885344;7529656534507401640-CREAM-1885344;Multicoloured Printed Strappy Swimsuit;Draft;Swimwear;next;Adults-Women;Women;;;;Fashion;;2017;18,NEXTSWMW00000738,12,NEXTSWMW00000739,6,NEXTSWMW00000740,16,NEXTSWMW00000741,8,NEXTSWMW00000742,14,NEXTSWMW00000743,10,NEXTSWMW00000744;3190.00;;;;;;;;zerotype;;Spring;;No
1885342;7398816081715627692-PURPLE-1885342;Purple Shape Enhancing Printed Bandeau Suit;Draft;Swimwear;next;Adults-Women;Women;;;;Fashion;;2017;10,NEXTSWMW00000730,18,NEXTSWMW00000731,12,NEXTSWMW00000732,14,NEXTSWMW00000733,16,NEXTSWMW00000734,22,NEXTSWMW00000735,8,NEXTSWMW00000736,20,NEXTSWMW00000737;3390.00;;;;;;;;zerotype;;Spring;;No
1885341;7384704509220857139-BLACK-1885341;Black Swim Shorts;Draft;Swimwear;next;Adults-Men;Men;;;;Fashion;;2017;S,NEXTSWMW00000724,M,NEXTSWMW00000725,XS,NEXTSWMW00000726,XL,NEXTSWMW00000727,XXL,NEXTSWMW00000728,L,NEXTSWMW00000729;1590.00;;;;;;;;zerotype;;Spring;;No
1885340;7197090399923328278-BLUE-1885340;Floral Print Zip Swimsuit;Draft;Swimwear;next;Adults-Women;Women;;;;Fashion;;2017;20,NEXTSWMW00000715,16,NEXTSWMW00000716,10,NEXTSWMW00000717,18,NEXTSWMW00000718,8,NEXTSWMW00000719,6,NEXTSWMW00000720,12,NEXTSWMW00000721,22,NEXTSWMW00000722,14,NEXTSWMW00000723;4390.00;;;;;;;;zerotype;;Spring;;No
1885339;7135308860280389338-BLACK-1885339;Runner Swim Shorts;Draft;Swimwear;next;Adults-Men;Men;;;;Fashion;;2017;L,NEXTSWMW00000709,S,NEXTSWMW00000710,XXL,NEXTSWMW00000711,M,NEXTSWMW00000712,XL,NEXTSWMW00000713,XS,NEXTSWMW00000714;1790.00;;;;;;;;zerotype;;Spring;;No
1885338;7125904300405397914-PINK-1885338;Blue/Pink Print Macram Swimsuit;Draft;Swimwear;next;Adults-Women;Women;;;;Fashion;;2017;14,NEXTSWMW00000702,16,NEXTSWMW00000703,6,NEXTSWMW00000704,18,NEXTSWMW00000705,10,NEXTSWMW00000706,12,NEXTSWMW00000707,8,NEXTSWMW00000708;3890.00;;;;;;;;zerotype;;Spring;;No
1885337;6870526733633765352-BLACK-1885337;Shape Enhancing Swimsuit;Draft;Swimwear;next;Adults-Women;Women;;;;Fashion;;2017;14P,NEXTSWMW00000698,8P,NEXTSWMW00000699,12P,NEXTSWMW00000700,10P,NEXTSWMW00000701;3390.00;;;;;;;;zerotype;;Spring;;No
1885336;6700831620898139407-BLUE-1885336;Underwired Swimsuit;Draft;Swimwear;next;Adults-Women;Women;;;;Fashion;;2017;32B,NEXTSWMW00000679,32DD,NEXTSWMW00000680,36B,NEXTSWMW00000681,32C,NEXTSWMW00000682,36C,NEXTSWMW00000683,36A,NEXTSWMW00000684,32D,NEXTSWMW00000685,38D,NEXTSWMW00000686,34D,NEXTSWMW00000687,34DD,NEXTSWMW00000688,38DD,NEXTSWMW00000689,36DD,NEXTSWMW00000690,36D,NEXTSWMW00000691,34A,NEXTSWMW00000692,38C,NEXTSWMW00000693,32A,NEXTSWMW00000694,34C,NEXTSWMW00000695,34B,NEXTSWMW00000696,38B,NEXTSWMW00000697;3890.00;;;;;;;;zerotype;;Spring;;No
1885335;6640128206281125267-BLUE-1885335;Floral Print Tankini Top;Draft;Swimwear;next;Adults-Women;Women;;;;Fashion;;2017;32B,NEXTSWMW00000660,38C,NEXTSWMW00000661,34DD,NEXTSWMW00000662,32C,NEXTSWMW00000663,32A,NEXTSWMW00000664,38D,NEXTSWMW00000665,36D,NEXTSWMW00000666,38B,NEXTSWMW00000667,32D,NEXTSWMW00000668,32DD,NEXTSWMW00000669,34C,NEXTSWMW00000670,36A,NEXTSWMW00000671,38DD,NEXTSWMW00000672,34B,NEXTSWMW00000673,36DD,NEXTSWMW00000674,34D,NEXTSWMW00000675,36B,NEXTSWMW00000676,36C,NEXTSWMW00000677,34A,NEXTSWMW00000678;3590.00;;;;;;;;zerotype;;Spring;;No
1885333;6636575587366218799-RED-1885333;Runner Swim Shorts;Draft;Swimwear;next;Adults-Men;Men;;;;Fashion;;2017;XS,NEXTSWMW00000654,XXL,NEXTSWMW00000655,L,NEXTSWMW00000656,S,NEXTSWMW00000657,M,NEXTSWMW00000658,XL,NEXTSWMW00000659;1790.00;;;;;;;;zerotype;;Spring;;No
1885332;6589914919811263884-ORANGE-1885332;Orange Swim Shorts;Draft;Swimwear;next;Adults-Men;Men;;;;Fashion;;2017;M,NEXTSWMW00000648,XS,NEXTSWMW00000649,S,NEXTSWMW00000650,XL,NEXTSWMW00000651,L,NEXTSWMW00000652,XXL,NEXTSWMW00000653;1590.00;;;;;;;;zerotype;;Spring;;No
1885331;6563091244851424121-BLUE-1885331;Blue Solid Swimsuit;Draft;Swimwear;next;Adults-Women;Women;;;;Fashion;;2017;8,NEXTSWMW00000641,14,NEXTSWMW00000642,18,NEXTSWMW00000643,10,NEXTSWMW00000644,6,NEXTSWMW00000645,12,NEXTSWMW00000646,16,NEXTSWMW00000647;3890.00;;;;;;;;zerotype;;Spring;;No
1885330;6421344965752454557-CREAM-1885330;Multicoloured Printed Underwided Tankini;Draft;Swimwear;next;Adults-Women;Women;;;;Fashion;;2017;36A/B,NEXTSWMW00000626,34DD/E,NEXTSWMW00000627,34A/B,NEXTSWMW00000628,32A/B,NEXTSWMW00000629,36F/G,NEXTSWMW00000630,34C/D,NEXTSWMW00000631,32DD/E,NEXTSWMW00000632,36C/D,NEXTSWMW00000633,38DD/E,NEXTSWMW00000634,32F/G,NEXTSWMW00000635,36DD/E,NEXTSWMW00000636,32C/D,NEXTSWMW00000637,38C/D,NEXTSWMW00000638,38F/G,NEXTSWMW00000639,34F/G,NEXTSWMW00000640;3190.00;;;;;;;;zerotype;;Spring;;No
1885329;6369127561477251612-GREEN-1885329;Black Swim Short;Draft;Swimwear;next;Adults-Men;Men;;;;Fashion;;2017;S,NEXTSWMW00000620,XL,NEXTSWMW00000621,XXL,NEXTSWMW00000622,M,NEXTSWMW00000623,L,NEXTSWMW00000624,XS,NEXTSWMW00000625;1590.00;;;;;;;;zerotype;;Spring;;No
1885328;6363161493519604666-RED-1885328;NEXT RED BEACHWEAR;Draft;Swimwear;next;Adults-Women;Women;;;;Fashion;;2017;34F,NEXTSWMW00000604,34C,NEXTSWMW00000605,38F,NEXTSWMW00000606,38B,NEXTSWMW00000607,34D,NEXTSWMW00000608,32D,NEXTSWMW00000609,32F,NEXTSWMW00000610,36G,NEXTSWMW00000611,34G,NEXTSWMW00000612,32E,NEXTSWMW00000613,36F,NEXTSWMW00000614,32DD,NEXTSWMW00000615,36D,NEXTSWMW00000616,36C,NEXTSWMW00000617,32G,NEXTSWMW00000618,36E,NEXTSWMW00000619;2590.00;;;;;;;;zerotype;;Spring;;No
1885327;6363161493519604666-RED-1885327;NEXT RED BEACHWEAR;Draft;Swimwear;next;Adults-Women;Women;;;;Fashion;;2017;34DD,NEXTSWMW00000588,38DD,NEXTSWMW00000589,36DD,NEXTSWMW00000590,34E,NEXTSWMW00000591,36B,NEXTSWMW00000592,34B,NEXTSWMW00000593,38G,NEXTSWMW00000594,32A,NEXTSWMW00000595,38C,NEXTSWMW00000596,36A,NEXTSWMW00000597,34A,NEXTSWMW00000598,32B,NEXTSWMW00000599,32C,NEXTSWMW00000600,38D,NEXTSWMW00000601,38E,NEXTSWMW00000602,30D,NEXTSWMW00000603;2290.00;;;;;;;;zerotype;;Spring;;No
1885325;6298668671051756888-RED-1885325;Red Swim Shorts;Draft;Swimwear;next;Adults-Men;Men;;;;Fashion;;2017;XL,NEXTSWMW00000582,XS,NEXTSWMW00000583,S,NEXTSWMW00000584,M,NEXTSWMW00000585,L,NEXTSWMW00000586,XXL,NEXTSWMW00000587;1590.00;;;;;;;;zerotype;;Spring;;No
1885324;6253894106250228958-BLUE-1885324;Shape Enhancing Swimsuit;Draft;Swimwear;next;Adults-Women;Women;;;;Fashion;;2017;22,NEXTSWMW00000573,20,NEXTSWMW00000574,16,NEXTSWMW00000575,8,NEXTSWMW00000576,18,NEXTSWMW00000577,10,NEXTSWMW00000578,12,NEXTSWMW00000579,6,NEXTSWMW00000580,14,NEXTSWMW00000581;3390.00;;;;;;;;zerotype;;Spring;;No
1885323;6150645165379990677-BLACK-1885323;High Neck Ribbed Swimsuit;Draft;Swimwear;next;Adults-Women;Women;;;;Fashion;;2017;18,NEXTSWMW00000564,8,NEXTSWMW00000565,22,NEXTSWMW00000566,10,NEXTSWMW00000567,12,NEXTSWMW00000568,6,NEXTSWMW00000569,16,NEXTSWMW00000570,20,NEXTSWMW00000571,14,NEXTSWMW00000572;3890.00;;;;;;;;zerotype;;Spring;;No
1885322;6122597298217046009-BLUE-1885322;NEXT BLUE BEACHWEAR;Draft;Swimwear;next;Adults-Women;Women;;;;Fashion;;2017;8,NEXTSWMW00000556,22,NEXTSWMW00000557,14,NEXTSWMW00000558,10,NEXTSWMW00000559,12,NEXTSWMW00000560,18,NEXTSWMW00000561,20,NEXTSWMW00000562,16,NEXTSWMW00000563;3590.00;;;;;;;;zerotype;;Spring;;No
1885321;6010073796051113124-PURPLE-1885321;Purple Print Tanksuit;Draft;Swimwear;next;Adults-Women;Women;;;;Fashion;;2017;10,NEXTSWMW00000547,6,NEXTSWMW00000548,16,NEXTSWMW00000549,22,NEXTSWMW00000550,8,NEXTSWMW00000551,14,NEXTSWMW00000552,20,NEXTSWMW00000553,12,NEXTSWMW00000554,18,NEXTSWMW00000555;3590.00;;;;;;;;zerotype;;Spring;;No
1885320;5990599384551079108-BLUE-1885320;Aqua Blue Geo Print Soft Tankini;Draft;Swimwear;next;Adults-Women;Women;;;;Fashion;;2017;12,NEXTSWMW00000538,20,NEXTSWMW00000539,18,NEXTSWMW00000540,14,NEXTSWMW00000541,8,NEXTSWMW00000542,10,NEXTSWMW00000543,16,NEXTSWMW00000544,6,NEXTSWMW00000545,22,NEXTSWMW00000546;2890.00;;;;;;;;zerotype;;Spring;;No
1885318;5943170344292787100-BLUE-1885318;Underwired Tankini Top;Draft;Swimwear;next;Adults-Women;Women;;;;Fashion;;2017;34A,NEXTSWMW00000507,32B,NEXTSWMW00000508,38C,NEXTSWMW00000509,36D,NEXTSWMW00000510,32E,NEXTSWMW00000511,34D,NEXTSWMW00000512,32D,NEXTSWMW00000513,38G,NEXTSWMW00000514,34B,NEXTSWMW00000515,36C,NEXTSWMW00000516,36E,NEXTSWMW00000517,34DD,NEXTSWMW00000518,34E,NEXTSWMW00000519,32F,NEXTSWMW00000520,38E,NEXTSWMW00000521,36A,NEXTSWMW00000522,38D,NEXTSWMW00000523,38F,NEXTSWMW00000524,36B,NEXTSWMW00000525,32G,NEXTSWMW00000526,36DD,NEXTSWMW00000527,32DD,NEXTSWMW00000528,34G,NEXTSWMW00000529,32C,NEXTSWMW00000530,32A,NEXTSWMW00000531,38B,NEXTSWMW00000532,36F,NEXTSWMW00000533,36G,NEXTSWMW00000534,34C,NEXTSWMW00000535,38DD,NEXTSWMW00000536,34F,NEXTSWMW00000537;3890.00;;;;;;;;zerotype;;Spring;;No
1885317;5922119662140993107-BLACK-1885317;Ditsy Floral Swimsuit With Bead Detail;Draft;Swimwear;next;Adults-Women;Women;;;;Fashion;;2017;14,NEXTSWMW00000500,16,NEXTSWMW00000501,6,NEXTSWMW00000502,18,NEXTSWMW00000503,10,NEXTSWMW00000504,12,NEXTSWMW00000505,8,NEXTSWMW00000506;5690.00;;;;;;;;zerotype;;Spring;;No
1885316;5797535255552865034-BLACK-1885316;Gold Trim Plunge Swimsuit;Draft;Swimwear;next;Adults-Women;Women;;;;Fashion;;2017;8,NEXTSWMW00000493,14,NEXTSWMW00000494,16,NEXTSWMW00000495,18,NEXTSWMW00000496,12,NEXTSWMW00000497,6,NEXTSWMW00000498,10,NEXTSWMW00000499;4090.00;;;;;;;;zerotype;;Spring;;No
1885314;5582910106865876025-BLACK-1885314;Shape Enhancing Underwired Tankini;Draft;Swimwear;next;Adults-Women;Women;;;;Fashion;;2017;34F,NEXTSWMW00000461,36G,NEXTSWMW00000462,32C,NEXTSWMW00000463,32B,NEXTSWMW00000464,32D,NEXTSWMW00000465,32G,NEXTSWMW00000466,32A,NEXTSWMW00000467,38E,NEXTSWMW00000468,30C,NEXTSWMW00000469,38G,NEXTSWMW00000470,38B,NEXTSWMW00000471,32E,NEXTSWMW00000472,34D,NEXTSWMW00000473,34C,NEXTSWMW00000474,36C,NEXTSWMW00000475,38C,NEXTSWMW00000476,36E,NEXTSWMW00000477,36D,NEXTSWMW00000478,34E,NEXTSWMW00000479,38DD,NEXTSWMW00000480,36B,NEXTSWMW00000481,34DD,NEXTSWMW00000482,34B,NEXTSWMW00000483,34G,NEXTSWMW00000484,34A,NEXTSWMW00000485,36F,NEXTSWMW00000486,32DD,NEXTSWMW00000487,36DD,NEXTSWMW00000488,36A,NEXTSWMW00000489,38F,NEXTSWMW00000490,38D,NEXTSWMW00000491,32F,NEXTSWMW00000492;3190.00;;;;;;;;zerotype;;Spring;;No
1885313;5526988315786631481-PURPLE-1885313;Embroidered Swimsuit;Draft;Swimwear;next;Kids-Girls;Girls;;;;Fashion;;2017;4-5Y,NEXTSWMW00000456,1-2Y,NEXTSWMW00000457,2-3Y,NEXTSWMW00000458,3-4Y,NEXTSWMW00000459,5-6Y,NEXTSWMW00000460;1990.00;;;;;;;;zerotype;;Spring;;No
1885312;5526988315786631481-PURPLE-1885312;Embroidered Swimsuit;Draft;Swimwear;next;Kids-Girls;Girls;;;;Fashion;;2017;3-6M,NEXTSWMW00000452,6-9M,NEXTSWMW00000453,12-18M,NEXTSWMW00000454,9-12M,NEXTSWMW00000455;1790.00;;;;;;;;zerotype;;Spring;;No
1885311;5436185058153501030-RED-1885311;Sports Swimsuit;Draft;Swimwear;next;Adults-Women;Women;;;;Fashion;;2017;8,NEXTSWMW00000443,16,NEXTSWMW00000444,22,NEXTSWMW00000445,12,NEXTSWMW00000446,6,NEXTSWMW00000447,20,NEXTSWMW00000448,14,NEXTSWMW00000449,18,NEXTSWMW00000450,10,NEXTSWMW00000451;3290.00;;;;;;;;zerotype;;Spring;;No
1885310;5334014509596180355-RED-1885310;Shape Enhancing Swimsuit;Draft;Swimwear;next;Adults-Women;Women;;;;Fashion;;2017;18,NEXTSWMW00000435,14,NEXTSWMW00000436,22,NEXTSWMW00000437,12,NEXTSWMW00000438,16,NEXTSWMW00000439,20,NEXTSWMW00000440,8,NEXTSWMW00000441,10,NEXTSWMW00000442;3590.00;;;;;;;;zerotype;;Spring;;No
1885309;5245236470670588228-BLUE-1885309;Henley Neck Sports Swimsuit;Draft;Swimwear;next;Adults-Women;Women;;;;Fashion;;2017;6,NEXTSWMW00000425,10,NEXTSWMW00000426,20,NEXTSWMW00000427,14,NEXTSWMW00000428,12,NEXTSWMW00000429,18,NEXTSWMW00000430,8,NEXTSWMW00000431,22,NEXTSWMW00000432,16,NEXTSWMW00000433;3590.00;;;;;;;;zerotype;;Spring;;No
1885308;5206242740386486433-PINK-1885308;Pink Swim Shorts;Draft;Swimwear;next;Adults-Men;Men;;;;Fashion;;2017;XL,NEXTSWMW00000419,S,NEXTSWMW00000420,XS,NEXTSWMW00000421,L,NEXTSWMW00000422,XXL,NEXTSWMW00000423,M,NEXTSWMW00000424;1590.00;;;;;;;;zerotype;;Spring;;No
1885307;4991060532098627427-BLACK-1885307;Ring Detail Swimsuit;Draft;Swimwear;next;Adults-Women;Women;;;;Fashion;;2017;12,NEXTSWMW00000412,6,NEXTSWMW00000413,14,NEXTSWMW00000414,10,NEXTSWMW00000415,18,NEXTSWMW00000416,8,NEXTSWMW00000417,16,NEXTSWMW00000418;4090.00;;;;;;;;zerotype;;Spring;;No
1885306;4933689026667397408-ORANGE-1885306;Ring Detail Swimsuit;Draft;Swimwear;next;Adults-Women;Women;;;;Fashion;;2017;10,NEXTSWMW00000405,18,NEXTSWMW00000406,8,NEXTSWMW00000407,12,NEXTSWMW00000408,14,NEXTSWMW00000409,16,NEXTSWMW00000410,6,NEXTSWMW00000411;4090.00;;;;;;;;zerotype;;Spring;;No
1885305;4919788678045126292-BLUE-1885305;Light Blue Watermelon Print Swim Shorts;Draft;Swimwear;next;Adults-Men;Men;;;;Fashion;;2017;L,NEXTSWMW00000399,XXL,NEXTSWMW00000400,M,NEXTSWMW00000401,XS,NEXTSWMW00000402,XL,NEXTSWMW00000403,S,NEXTSWMW00000404;1790.00;;;;;;;;zerotype;;Spring;;No
1885303;4695893701048267053-BLACK-1885303;Lace Trim Plunge Swimsuit;Draft;Swimwear;next;Adults-Women;Women;;;;Fashion;;2017;10,NEXTSWMW00000392,6,NEXTSWMW00000393,14,NEXTSWMW00000394,18,NEXTSWMW00000395,12,NEXTSWMW00000396,16,NEXTSWMW00000397,8,NEXTSWMW00000398;3890.00;;;;;;;;zerotype;;Spring;;No
1885302;4613300935169597405-BLUE-1885302;Cobalt One Shoulder Swimsuit;Draft;Swimwear;next;Adults-Women;Women;;;;Fashion;;2017;10,NEXTSWMW00000385,6,NEXTSWMW00000386,16,NEXTSWMW00000387,18,NEXTSWMW00000388,12,NEXTSWMW00000389,14,NEXTSWMW00000390,8,NEXTSWMW00000391;3390.00;;;;;;;;zerotype;;Spring;;No
