Style ID;Vendor Article Number;Vendor Article Name;Active Status;Article type;Brand;Age Group;Gender;Base Colour;Colour1;Colour2;Fashion Type;Usage;Year;Size - SKU code pair;MRP;Style Description;Style Note;Materials and Care Description;Size and Fit Description;Size Chart Path;Product Display Name;Tags;Product Type;Classification Brand;Season;Comments;Upload Images
2192985;usg_mp_49029-3XL-Pink-2192985;Sweat Shirts;Draft;Sweatshirts;Her Grace;Adults-Women;Women;Pink;;;Fashion;Casual;2017;34,HRGCSWSH00000193,36,HRGCSWSH00000194,38,HRGCSWSH00000195,40,HRGCSWSH00000196,42,HRGCSWSH00000197,44,HRGCSWSH00000198;3499.00;;;<p>Dry Clean Only</p>;;;;;zerotype;;Winter;;No
2192983;6623-Navy-3XL-Navy Blue-2192983;Sweat Shirts;Draft;Sweatshirts;Her Grace;Adults-Women;Women;Navy Blue;;;Fashion;Casual;2017;34,HRGCSWSH00000187,36,HRGCSWSH00000188,38,HRGCSWSH00000189,40,HRGCSWSH00000190,42,HRGCSWSH00000191,44,HRGCSWSH00000192;3499.00;;;<p>Dry Clean Only</p>;;;;;zerotype;;Winter;;No
2192981;6622-Navy-3XL-Navy Blue-2192981;Sweat Shirts;Draft;Sweatshirts;Her Grace;Adults-Women;Women;Navy Blue;;;Fashion;Casual;2017;34,HRGCSWSH00000181,36,HRGCSWSH00000182,38,HRGCSWSH00000183,40,HRGCSWSH00000184,42,HRGCSWSH00000185,44,HRGCSWSH00000186;3499.00;;;<p>Dry Clean Only</p>;;;;;zerotype;;Winter;;No
2192978;6614-Pink-3XL-Pink-2192978;Sweat Shirts;Draft;Sweatshirts;Her Grace;Adults-Women;Women;Pink;;;Fashion;Casual;2017;34,HRGCSWSH00000175,36,HRGCSWSH00000176,38,HRGCSWSH00000177,40,HRGCSWSH00000178,42,HRGCSWSH00000179,44,HRGCSWSH00000180;4199.00;;;<p>Dry Clean Only</p>;;;;;zerotype;;Winter;;No
2192975;6613-White-3XL-White-2192975;Sweat Shirts;Draft;Sweatshirts;Her Grace;Adults-Women;Women;White;;;Fashion;Casual;2017;34,HRGCSWSH00000169,36,HRGCSWSH00000170,38,HRGCSWSH00000171,40,HRGCSWSH00000172,42,HRGCSWSH00000173,44,HRGCSWSH00000174;3799.00;;;<p>Dry Clean Only</p>;;;;;zerotype;;Winter;;No
2192971;6591-Navy-3XL-Navy Blue-2192971;Sweat Shirts;Draft;Sweatshirts;Her Grace;Adults-Women;Women;Navy Blue;;;Fashion;Casual;2017;34,HRGCSWSH00000163,36,HRGCSWSH00000164,38,HRGCSWSH00000165,40,HRGCSWSH00000166,42,HRGCSWSH00000167,44,HRGCSWSH00000168;3499.00;;;<p>Dry Clean Only</p>;;;;;zerotype;;Winter;;No
2192968;6591-Purple-3XL-Purple-2192968;Sweat Shirts;Draft;Sweatshirts;Her Grace;Adults-Women;Women;Purple;;;Fashion;Casual;2017;34,HRGCSWSH00000157,36,HRGCSWSH00000158,38,HRGCSWSH00000159,40,HRGCSWSH00000160,42,HRGCSWSH00000161,44,HRGCSWSH00000162;3499.00;;;<p>Dry Clean Only</p>;;;;;zerotype;;Winter;;No
2192965;6581-Red-3XL-White-2192965;Sweat Shirts;Draft;Sweatshirts;Her Grace;Adults-Women;Women;White;;;Fashion;Casual;2017;34,HRGCSWSH00000151,36,HRGCSWSH00000152,38,HRGCSWSH00000153,40,HRGCSWSH00000154,42,HRGCSWSH00000155,44,HRGCSWSH00000156;3499.00;;;<p>Dry Clean Only</p>;;;;;zerotype;;Winter;;No
2192961;6561-Black-3XL-Black-2192961;Sweat Shirts;Draft;Sweatshirts;Her Grace;Adults-Women;Women;Black;;;Fashion;Casual;2017;34,HRGCSWSH00000145,36,HRGCSWSH00000146,38,HRGCSWSH00000147,40,HRGCSWSH00000148,42,HRGCSWSH00000149,44,HRGCSWSH00000150;3199.00;;;<p>Dry Clean Only</p>;;;;;zerotype;;Winter;;No
2192957;6558-Yellow-3XL-Yellow-2192957;Sweat Shirts;Draft;Sweatshirts;Her Grace;Adults-Women;Women;Yellow;;;Fashion;Casual;2017;34,HRGCSWSH00000139,36,HRGCSWSH00000140,38,HRGCSWSH00000141,40,HRGCSWSH00000142,42,HRGCSWSH00000143,44,HRGCSWSH00000144;3199.00;;;<p>Dry Clean Only</p>;;;;;zerotype;;Winter;;No
2192953;6558-Orange-3XL-Orange-2192953;Sweat Shirts;Draft;Sweatshirts;Her Grace;Adults-Women;Women;Orange;;;Fashion;Casual;2017;34,HRGCSWSH00000133,36,HRGCSWSH00000134,38,HRGCSWSH00000135,40,HRGCSWSH00000136,42,HRGCSWSH00000137,44,HRGCSWSH00000138;3199.00;;;<p>Dry Clean Only</p>;;;;;zerotype;;Winter;;No
2192951;6547-Red-3XL-Red-2192951;Sweat Shirts;Draft;Sweatshirts;Her Grace;Adults-Women;Women;Red;;;Fashion;Casual;2017;34,HRGCSWSH00000127,36,HRGCSWSH00000128,38,HRGCSWSH00000129,40,HRGCSWSH00000130,42,HRGCSWSH00000131,44,HRGCSWSH00000132;2999.00;;;<p>Dry Clean Only</p>;;;;;zerotype;;Winter;;No
2192949;6547-Grey-3XL-Grey-2192949;Sweat Shirts;Draft;Sweatshirts;Her Grace;Adults-Women;Women;Grey;;;Fashion;Casual;2017;34,HRGCSWSH00000121,36,HRGCSWSH00000122,38,HRGCSWSH00000123,40,HRGCSWSH00000124,42,HRGCSWSH00000125,44,HRGCSWSH00000126;2999.00;;;<p>Dry Clean Only</p>;;;;;zerotype;;Winter;;No
2192947;6528-Royal Blue-3XL-Navy Blue-2192947;Sweat Shirts;Draft;Sweatshirts;Her Grace;Adults-Women;Women;Navy Blue;;;Fashion;Casual;2017;34,HRGCSWSH00000115,36,HRGCSWSH00000116,38,HRGCSWSH00000117,40,HRGCSWSH00000118,42,HRGCSWSH00000119,44,HRGCSWSH00000120;2999.00;;;<p>Dry Clean Only</p>;;;;;zerotype;;Winter;;No
2192942;6527- Grey-3XL-Grey-2192942;Sweat Shirts;Draft;Sweatshirts;Her Grace;Adults-Women;Women;Grey;;;Fashion;Casual;2017;34,HRGCSWSH00000109,36,HRGCSWSH00000110,38,HRGCSWSH00000111,40,HRGCSWSH00000112,42,HRGCSWSH00000113,44,HRGCSWSH00000114;2999.00;;;<p>Dry Clean Only</p>;;;;;zerotype;;Winter;;No
2192937;6527-Green-3XL-Blue-2192937;Sweat Shirts;Draft;Sweatshirts;Her Grace;Adults-Women;Women;Blue;;;Fashion;Casual;2017;34,HRGCSWSH00000103,36,HRGCSWSH00000104,38,HRGCSWSH00000105,40,HRGCSWSH00000106,42,HRGCSWSH00000107,44,HRGCSWSH00000108;2999.00;;;<p>Dry Clean Only</p>;;;;;zerotype;;Winter;;No
2192907;6520-White-3XL-White-2192907;Sweat Shirts;Draft;Sweatshirts;Her Grace;Adults-Women;Women;White;;;Fashion;Casual;2017;34,HRGCSWSH00000097,36,HRGCSWSH00000098,38,HRGCSWSH00000099,40,HRGCSWSH00000100,42,HRGCSWSH00000101,44,HRGCSWSH00000102;2999.00;;;<p>Dry Clean Only</p>;;;;;zerotype;;Winter;;No
2192875;340- Grey-3XL-Grey-2192875;Sweat Shirts;Draft;Sweatshirts;Her Grace;Adults-Women;Women;Grey;;;Fashion;Casual;2017;34,HRGCSWSH00000091,36,HRGCSWSH00000092,38,HRGCSWSH00000093,40,HRGCSWSH00000094,42,HRGCSWSH00000095,44,HRGCSWSH00000096;2499.00;;;<p>Dry Clean Only</p>;;;;;zerotype;;Winter;;No
2192869;340- Deep Pink-3XL-Pink-2192869;Sweat Shirts;Draft;Sweatshirts;Her Grace;Adults-Women;Women;Pink;;;Fashion;Casual;2017;34,HRGCSWSH00000085,36,HRGCSWSH00000086,38,HRGCSWSH00000087,40,HRGCSWSH00000088,42,HRGCSWSH00000089,44,HRGCSWSH00000090;2499.00;;;<p>Dry Clean Only</p>;;;;;zerotype;;Winter;;No
2192867;340-Navy-3XL-Navy Blue-2192867;Sweat Shirts;Draft;Sweatshirts;Her Grace;Adults-Women;Women;Navy Blue;;;Fashion;Casual;2017;34,HRGCSWSH00000079,36,HRGCSWSH00000080,38,HRGCSWSH00000081,40,HRGCSWSH00000082,42,HRGCSWSH00000083,44,HRGCSWSH00000084;2499.00;;;<p>Dry Clean Only</p>;;;;;zerotype;;Winter;;No
2192864;340-Pink-3XL-Pink-2192864;Sweat Shirts;Draft;Sweatshirts;Her Grace;Adults-Women;Women;Pink;;;Fashion;Casual;2017;34,HRGCSWSH00000073,36,HRGCSWSH00000074,38,HRGCSWSH00000075,40,HRGCSWSH00000076,42,HRGCSWSH00000077,44,HRGCSWSH00000078;2499.00;;;<p>Dry Clean Only</p>;;;;;zerotype;;Winter;;No
2192862;340-Black-3XL-Black-2192862;Sweat Shirts;Draft;Sweatshirts;Her Grace;Adults-Women;Women;Black;;;Fashion;Casual;2017;34,HRGCSWSH00000067,36,HRGCSWSH00000068,38,HRGCSWSH00000069,40,HRGCSWSH00000070,42,HRGCSWSH00000071,44,HRGCSWSH00000072;2499.00;;;<p>Dry Clean Only</p>;;;;;zerotype;;Winter;;No
2192858;330-Green-3XL-Green-2192858;Sweat Shirts;Draft;Sweatshirts;Her Grace;Adults-Women;Women;Green;;;Fashion;Casual;2017;34,HRGCSWSH00000061,36,HRGCSWSH00000062,38,HRGCSWSH00000063,40,HRGCSWSH00000064,42,HRGCSWSH00000065,44,HRGCSWSH00000066;2499.00;;;<p>Dry Clean Only</p>;;;;;zerotype;;Winter;;No
2192850;330- Mustard-3XL-Mustard-2192850;Sweat Shirts;Draft;Sweatshirts;Her Grace;Adults-Women;Women;Mustard;;;Fashion;Casual;2017;34,HRGCSWSH00000055,36,HRGCSWSH00000056,38,HRGCSWSH00000057,40,HRGCSWSH00000058,42,HRGCSWSH00000059,44,HRGCSWSH00000060;2499.00;;;<p>Dry Clean Only</p>;;;;;zerotype;;Winter;;No
2192819;330-Wine-3XL-Purple-2192819;Sweat Shirts;Draft;Sweatshirts;Her Grace;Adults-Women;Women;Purple;;;Fashion;Casual;2017;34,HRGCSWSH00000049,36,HRGCSWSH00000050,38,HRGCSWSH00000051,40,HRGCSWSH00000052,42,HRGCSWSH00000053,44,HRGCSWSH00000054;2499.00;;;<p>Dry Clean Only</p>;;;;;zerotype;;Winter;;No
2192799;330-Grey-3XL-Grey-2192799;Sweat Shirts;Draft;Sweatshirts;Her Grace;Adults-Women;Women;Grey;;;Fashion;Casual;2017;34,HRGCSWSH00000043,36,HRGCSWSH00000044,38,HRGCSWSH00000045,40,HRGCSWSH00000046,42,HRGCSWSH00000047,44,HRGCSWSH00000048;2499.00;;;<p>Dry Clean Only</p>;;;;;zerotype;;Winter;;No
2192795;330- Navy-3XL-Navy Blue-2192795;Sweat Shirts;Draft;Sweatshirts;Her Grace;Adults-Women;Women;Navy Blue;;;Fashion;Casual;2017;34,HRGCSWSH00000037,36,HRGCSWSH00000038,38,HRGCSWSH00000039,40,HRGCSWSH00000040,42,HRGCSWSH00000041,44,HRGCSWSH00000042;2499.00;;;<p>Dry Clean Only</p>;;;;;zerotype;;Winter;;No
2192792;330-Black-3XL-Black-2192792;Sweat Shirts;Draft;Sweatshirts;Her Grace;Adults-Women;Women;Black;;;Fashion;Casual;2017;34,HRGCSWSH00000031,36,HRGCSWSH00000032,38,HRGCSWSH00000033,40,HRGCSWSH00000034,42,HRGCSWSH00000035,44,HRGCSWSH00000036;2499.00;;;<p>Dry Clean Only</p>;;;;;zerotype;;Winter;;No
2192787;310-Airforce-3XL-Blue-2192787;Sweat Shirts;Draft;Sweatshirts;Her Grace;Adults-Women;Women;Blue;;;Fashion;Casual;2017;34,HRGCSWSH00000025,36,HRGCSWSH00000026,38,HRGCSWSH00000027,40,HRGCSWSH00000028,42,HRGCSWSH00000029,44,HRGCSWSH00000030;2499.00;;;<p>Dry Clean Only</p>;;;;;zerotype;;Winter;;No
2192784;310-Pink-3XL-Pink-2192784;Sweat Shirts;Draft;Sweatshirts;Her Grace;Adults-Women;Women;Pink;;;Fashion;Casual;2017;34,HRGCSWSH00000019,36,HRGCSWSH00000020,38,HRGCSWSH00000021,40,HRGCSWSH00000022,42,HRGCSWSH00000023,44,HRGCSWSH00000024;2499.00;;;<p>Dry Clean Only</p>;;;;;zerotype;;Winter;;No
2192779;310-Red-3XL-Red-2192779;Sweat Shirts;Draft;Sweatshirts;Her Grace;Adults-Women;Women;Red;;;Fashion;Casual;2017;34,HRGCSWSH00000013,36,HRGCSWSH00000014,38,HRGCSWSH00000015,40,HRGCSWSH00000016,42,HRGCSWSH00000017,44,HRGCSWSH00000018;2499.00;;;<p>Dry Clean Only</p>;;;;;zerotype;;Winter;;No
2192775;310- Grey-3XL-Grey-2192775;Sweat Shirts;Draft;Sweatshirts;Her Grace;Adults-Women;Women;Grey;;;Fashion;Casual;2017;34,HRGCSWSH00000007,36,HRGCSWSH00000008,38,HRGCSWSH00000009,40,HRGCSWSH00000010,42,HRGCSWSH00000011,44,HRGCSWSH00000012;2499.00;;;<p>Dry Clean Only</p>;;;;;zerotype;;Winter;;No
2192771;310-Black-3XL-Black-2192771;Sweat Shirts;Draft;Sweatshirts;Her Grace;Adults-Women;Women;Black;;;Fashion;Casual;2017;34,HRGCSWSH00000001,36,HRGCSWSH00000002,38,HRGCSWSH00000003,40,HRGCSWSH00000004,42,HRGCSWSH00000005,44,HRGCSWSH00000006;2499.00;;;<p>Dry Clean Only</p>;;;;;zerotype;;Winter;;No
