Style ID;Vendor Article Number;Vendor Article Name;Active Status;Article type;Brand;Age Group;Gender;Base Colour;Colour1;Colour2;Fashion Type;Usage;Year;Size - SKU code pair;MRP;Style Description;Style Note;Materials and Care Description;Size and Fit Description;Size Chart Path;Product Display Name;Tags;Product Type;Classification Brand;Season;Comments;Upload Images
1913001;BPOLO-SLD_N_RUG-CMB9-Multi-1913001;Gkidz Pack of 2 Boys Half Sleeve Polo T-shirts;Draft;Tshirts;GKIDZ;Kids-Boys;Boys;Black;Red;White;Fashion;;2017;2-3Y,GKDZTSHT00002404,3-4Y,GKDZTSHT00002405,5-6Y,GKDZTSHT00002406,7-8Y,GKDZTSHT00002407,9-10Y,GKDZTSHT00002408,11-12Y,GKDZTSHT00002409,13-14Y,GKDZTSHT00002410;1998.00;;;;;;;;zerotype;;Summer;;No
1913000;BPOLO-SLD_N_RUG-CMB8-Multi-1913000;Gkidz Pack of 2 Boys Half Sleeve Polo T-shirts;Draft;Tshirts;GKIDZ;Kids-Boys;Boys;Maroon;Purple;White;Fashion;;2017;2-3Y,GKDZTSHT00002397,3-4Y,GKDZTSHT00002398,5-6Y,GKDZTSHT00002399,7-8Y,GKDZTSHT00002400,9-10Y,GKDZTSHT00002401,11-12Y,GKDZTSHT00002402,13-14Y,GKDZTSHT00002403;1998.00;;;;;;;;zerotype;;Summer;;No
1912999;BPOLO-SLD_N_RUG-CMB7-Multi-1912999;Gkidz Pack of 2 Boys Half Sleeve Polo T-shirts;Draft;Tshirts;GKIDZ;Kids-Boys;Boys;Navy Blue;Pink;White;Fashion;;2017;9-10Y,GKDZTSHT00002394,11-12Y,GKDZTSHT00002395,13-14Y,GKDZTSHT00002396;1998.00;;;;;;;;zerotype;;Summer;;No
1912998;BPOLO-SLD_N_RUG-CMB3-Multi-1912998;Gkidz Pack of 2 Boys Half Sleeve Polo T-shirts;Draft;Tshirts;GKIDZ;Kids-Boys;Boys;Orange;Green;White;Fashion;;2017;2-3Y,GKDZTSHT00002390,3-4Y,GKDZTSHT00002391,5-6Y,GKDZTSHT00002392,7-8Y,GKDZTSHT00002393;1998.00;;;;;;;;zerotype;;Summer;;No
1912997;BPOLO-SLD_N_RUG-CMB20-Multi-1912997;Gkidz Pack of 2 Boys Half Sleeve Polo T-shirts;Draft;Tshirts;GKIDZ;Kids-Boys;Boys;Orange;Black;White;Fashion;;2017;2-3Y,GKDZTSHT00002383,3-4Y,GKDZTSHT00002384,5-6Y,GKDZTSHT00002385,7-8Y,GKDZTSHT00002386,9-10Y,GKDZTSHT00002387,11-12Y,GKDZTSHT00002388,13-14Y,GKDZTSHT00002389;1998.00;;;;;;;;zerotype;;Summer;;No
1912996;BPOLO-SLD_N_RUG-CMB2-Multi-1912996;Gkidz Pack of 2 Boys Half Sleeve Polo T-shirts;Draft;Tshirts;GKIDZ;Kids-Boys;Boys;Yellow;Blue;White;Fashion;;2017;2-3Y,GKDZTSHT00002376,3-4Y,GKDZTSHT00002377,5-6Y,GKDZTSHT00002378,7-8Y,GKDZTSHT00002379,9-10Y,GKDZTSHT00002380,11-12Y,GKDZTSHT00002381,13-14Y,GKDZTSHT00002382;1998.00;;;;;;;;zerotype;;Summer;;No
1912995;BPOLO-SLD_N_RUG-CMB19-Multi-1912995;Gkidz Pack of 2 Boys Half Sleeve Polo T-shirts;Draft;Tshirts;GKIDZ;Kids-Boys;Boys;Black;Blue;White;Fashion;;2017;2-3Y,GKDZTSHT00002369,3-4Y,GKDZTSHT00002370,5-6Y,GKDZTSHT00002371,7-8Y,GKDZTSHT00002372,9-10Y,GKDZTSHT00002373,11-12Y,GKDZTSHT00002374,13-14Y,GKDZTSHT00002375;1998.00;;;;;;;;zerotype;;Summer;;No
1912994;BPOLO-SLD_N_RUG-CMB18-Multi-1912994;Gkidz Pack of 2 Boys Half Sleeve Polo T-shirts;Draft;Tshirts;GKIDZ;Kids-Boys;Boys;Maroon;Olive;White;Fashion;;2017;2-3Y,GKDZTSHT00002362,3-4Y,GKDZTSHT00002363,5-6Y,GKDZTSHT00002364,7-8Y,GKDZTSHT00002365,9-10Y,GKDZTSHT00002366,11-12Y,GKDZTSHT00002367,13-14Y,GKDZTSHT00002368;1998.00;;;;;;;;zerotype;;Summer;;No
1912993;BPOLO-SLD_N_RUG-CMB17-Multi-1912993;Gkidz Pack of 2 Boys Half Sleeve Polo T-shirts;Draft;Tshirts;GKIDZ;Kids-Boys;Boys;Navy Blue;Grey;Black;Fashion;;2017;2-3Y,GKDZTSHT00002355,3-4Y,GKDZTSHT00002356,5-6Y,GKDZTSHT00002357,7-8Y,GKDZTSHT00002358,9-10Y,GKDZTSHT00002359,11-12Y,GKDZTSHT00002360,13-14Y,GKDZTSHT00002361;1998.00;;;;;;;;zerotype;;Summer;;No
1912992;BPOLO-SLD_N_RUG-CMB16-Multi-1912992;Gkidz Pack of 2 Boys Half Sleeve Polo T-shirts;Draft;Tshirts;GKIDZ;Kids-Boys;Boys;Black;Maroon;White;Fashion;;2017;2-3Y,GKDZTSHT00002348,3-4Y,GKDZTSHT00002349,5-6Y,GKDZTSHT00002350,7-8Y,GKDZTSHT00002351,9-10Y,GKDZTSHT00002352,11-12Y,GKDZTSHT00002353,13-14Y,GKDZTSHT00002354;1998.00;;;;;;;;zerotype;;Summer;;No
1912991;BPOLO-SLD_N_RUG-CMB15-Multi-1912991;Gkidz Pack of 2 Boys Half Sleeve Polo T-shirts;Draft;Tshirts;GKIDZ;Kids-Boys;Boys;Green;Navy Blue;White;Fashion;;2017;2-3Y,GKDZTSHT00002341,3-4Y,GKDZTSHT00002342,5-6Y,GKDZTSHT00002343,7-8Y,GKDZTSHT00002344,9-10Y,GKDZTSHT00002345,11-12Y,GKDZTSHT00002346,13-14Y,GKDZTSHT00002347;1998.00;;;;;;;;zerotype;;Summer;;No
1912990;BPOLO-SLD_N_RUG-CMB14-Multi-1912990;Gkidz Pack of 2 Boys Half Sleeve Polo T-shirts;Draft;Tshirts;GKIDZ;Kids-Boys;Boys;Blue;Pink;White;Fashion;;2017;2-3Y,GKDZTSHT00002334,3-4Y,GKDZTSHT00002335,5-6Y,GKDZTSHT00002336,7-8Y,GKDZTSHT00002337,9-10Y,GKDZTSHT00002338,11-12Y,GKDZTSHT00002339,13-14Y,GKDZTSHT00002340;1998.00;;;;;;;;zerotype;;Summer;;No
1912989;BPOLO-SLD_N_RUG-CMB13-Multi-1912989;Gkidz Pack of 2 Boys Half Sleeve Polo T-shirts;Draft;Tshirts;GKIDZ;Kids-Boys;Boys;Orange;Purple;White;Fashion;;2017;2-3Y,GKDZTSHT00002327,3-4Y,GKDZTSHT00002328,5-6Y,GKDZTSHT00002329,7-8Y,GKDZTSHT00002330,9-10Y,GKDZTSHT00002331,11-12Y,GKDZTSHT00002332,13-14Y,GKDZTSHT00002333;1998.00;;;;;;;;zerotype;;Summer;;No
1912988;BPOLO-SLD_N_RUG-CMB12-Multi-1912988;Gkidz Pack of 2 Boys Half Sleeve Polo T-shirts;Draft;Tshirts;GKIDZ;Kids-Boys;Boys;Yellow;Red;White;Fashion;;2017;2-3Y,GKDZTSHT00002320,3-4Y,GKDZTSHT00002321,5-6Y,GKDZTSHT00002322,7-8Y,GKDZTSHT00002323,9-10Y,GKDZTSHT00002324,11-12Y,GKDZTSHT00002325,13-14Y,GKDZTSHT00002326;1998.00;;;;;;;;zerotype;;Summer;;No
1912987;BPOLO-SLD_N_RUG-CMB11-Multi-1912987;Gkidz Pack of 2 Boys Half Sleeve Polo T-shirts;Draft;Tshirts;GKIDZ;Kids-Boys;Boys;Red;Yellow;Navy Blue;Fashion;;2017;2-3Y,GKDZTSHT00002313,3-4Y,GKDZTSHT00002314,5-6Y,GKDZTSHT00002315,7-8Y,GKDZTSHT00002316,9-10Y,GKDZTSHT00002317,11-12Y,GKDZTSHT00002318,13-14Y,GKDZTSHT00002319;1998.00;;;;;;;;zerotype;;Summer;;No
1912984;BPOLO-SLD_N_RUG-CMB10-Multi-1912984;Gkidz Pack of 2 Boys Half Sleeve Polo T-shirts;Draft;Tshirts;GKIDZ;Kids-Boys;Boys;Orange;Yellow;Navy Blue;Fashion;;2017;2-3Y,GKDZTSHT00002306,3-4Y,GKDZTSHT00002307,5-6Y,GKDZTSHT00002308,7-8Y,GKDZTSHT00002309,9-10Y,GKDZTSHT00002310,11-12Y,GKDZTSHT00002311,13-14Y,GKDZTSHT00002312;1998.00;;;;;;;;zerotype;;Summer;;No
1912982;BPOLO-SLD_N_RUG-CMB1-Multi-1912982;Gkidz Pack of 2 Boys Half Sleeve Polo T-shirts;Draft;Tshirts;GKIDZ;Kids-Boys;Boys;Red;Black;White;Fashion;;2017;2-3Y,GKDZTSHT00002299,3-4Y,GKDZTSHT00002300,5-6Y,GKDZTSHT00002301,7-8Y,GKDZTSHT00002302,9-10Y,GKDZTSHT00002303,11-12Y,GKDZTSHT00002304,13-14Y,GKDZTSHT00002305;1998.00;;;;;;;;zerotype;;Summer;;No
1892997;B-LS-SLD_N_LS-RUG-CMB20-BlueYellow-1892997;Gkidz Pack of 2 Multicolor Longsleeve Polo T-;Active;Tshirts;GKIDZ;Kids-Boys;Boys;Blue;White;Yellow;Fashion;Casual;2017;2-3Y,GKDZTSHT00002180,3-4Y,GKDZTSHT00002181,5-6Y,GKDZTSHT00002182,7-8Y,GKDZTSHT00002183,9-10Y,GKDZTSHT00002184,11-12Y,GKDZTSHT00002185,13-14Y,GKDZTSHT00002186;1998.00;Pack of 2 polo T-shirts<br /><a href='/blue?src=pd' class='seolink'>Blue</a> and white striped polo T-shirt, has a polo collar, a <a href='/short?src=pd' class='seolink'>short</a> button placket, long sleeves<br />Yellow polo T-shirt, has a polo collar, a short button placket, long sleeves;Your son will look adorably handsome in this GKIDZ T-shirt. When he's going to a picnic with friends, style this purple T-shirt with dark denims and canvas shoes.;Cotton<br />Machine-wash;;;GKIDZ Boys Pack of 2 T-shirts;GKIDZ,JIT,kidsss17nls,big10-extra20,flash-sale-may17;zerotype;;Summer;flash-sale-may17;No
1892996;B-LS-SLD_N_LS-RUG-CMB19-YellowRed-1892996;Gkidz Pack of 2 Multicolor Longsleeve Polo T-;Active;Tshirts;GKIDZ;Kids-Boys;Boys;Navy Blue;Yellow;Red;Fashion;Casual;2017;2-3Y,GKDZTSHT00002173,3-4Y,GKDZTSHT00002174,5-6Y,GKDZTSHT00002175,7-8Y,GKDZTSHT00002176,9-10Y,GKDZTSHT00002177,11-12Y,GKDZTSHT00002178,13-14Y,GKDZTSHT00002179;1998.00;Pack of 2 polo T-shirts<br /><a href='/navy-blue?src=pd' class='seolink'>Navy blue</a> and yellow striped polo T-shirt, has a polo collar, a short button placket, long sleeves<br />Red polo T-shirt, has a polo collar, a short button placket, long sleeves;Your son will look adorably handsome in this GKIDZ T-shirt. When he's going to a picnic with friends, style this purple T-shirt with dark denims and canvas shoes.;Cotton<br />Machine-wash;;;GKIDZ Boys Pack of 2 T-shirts;GKIDZ,JIT,kidsss17nls;zerotype;;Summer;kidsss17nls;No
1892995;B-LS-SLD_N_LS-RUG-CMB18-OrangeRed-1892995;Gkidz Pack of 2 Multicolor Longsleeve Polo T-;Active;Tshirts;GKIDZ;Kids-Boys;Boys;Red;White;Orange;Fashion;Casual;2017;2-3Y,GKDZTSHT00002166,3-4Y,GKDZTSHT00002167,5-6Y,GKDZTSHT00002168,7-8Y,GKDZTSHT00002169,9-10Y,GKDZTSHT00002170,11-12Y,GKDZTSHT00002171,13-14Y,GKDZTSHT00002172;1998.00;Pack of two polo T-shirts<br />Red and white striped polo T-shirt, has a polo collar, a <a href='/short?src=pd' class='seolink'>short</a> button placket, long sleeves with ribbed hems, vented hem<br />Orange polo T-shirt, has a polo collar, a short button placket, long sleeves with ribbed hems;Your son will look adorably handsome in this GKIDZ T-shirt. When he's going to a picnic with friends, style this purple T-shirt with dark denims and canvas shoes.;Cotton<br />Machine-wash;;;GKIDZ Boys Pack of 2 Polo T-shirts;GKIDZ,JIT,kidsss17nls,big10-extra20,flash-sale-may17;zerotype;;Summer;flash-sale-may17;No
1892994;B-LS-SLD_N_LS-RUG-CMB17-PurpleBlack-1892994;Gkidz Pack of 2 Multicolor Longsleeve Polo T-;Active;Tshirts;GKIDZ;Kids-Boys;Boys;Purple;White;Black;Fashion;Casual;2017;2-3Y,GKDZTSHT00002159,3-4Y,GKDZTSHT00002160,5-6Y,GKDZTSHT00002161,7-8Y,GKDZTSHT00002162,9-10Y,GKDZTSHT00002163,11-12Y,GKDZTSHT00002164,13-14Y,GKDZTSHT00002165;1998.00;<a href='/pack?src=pd' class='seolink'>Pack</a> of two polo T-shirts<br />Purple and white striped polo T-shirt, has a polo collar, a <a href='/short?src=pd' class='seolink'>short</a> button placket, long sleeves with ribbed hems, vented hem<br />Black polo T-shirt, has a polo collar, a short button placket, long sleeves with ribbed hems, vented hem;Your son will look adorably handsome in this GKIDZ T-shirt. When he's going to a picnic with friends, style this purple T-shirt with dark denims and canvas shoes.;Cotton<br />Machine-wash;;;GKIDZ Boys Pack of 2 Polo T-shirts;GKIDZ,JIT,kidsss17nls,big10-extra20,flash-sale-may17;zerotype;;Summer;flash-sale-may17;No
