Style ID;Vendor Article Number;Vendor Article Name;Active Status;Article type;Brand;Age Group;Gender;Base Colour;Colour1;Colour2;Fashion Type;Usage;Year;Size - SKU code pair;MRP;Style Description;Style Note;Materials and Care Description;Size and Fit Description;Size Chart Path;Product Display Name;Tags;Product Type;Classification Brand;Season;Comments;Upload Images
2017759;AMSF517G01141-Dark Grey with Black-2017759;Shirts;Draft;Shirts;Allen Solly;Adults-Men;Men;Black;;;Fashion;Casual;2017;38,ALSLSHRT00009368,39,ALSLSHRT00009369,40,ALSLSHRT00009370,42,ALSLSHRT00009371,44,ALSLSHRT00009372,46,ALSLSHRT00009373;1899.00;;;<p>Machine wash warm, do not bleach, tumble dry low, Warm Iron</p>;;;;;zerotype;;Fall;;No
2016634;36070616-Blue-Yellow-2016634;odius;Draft;Flip Flops;Puma;Adults-Unisex;Unisex;Blue;;;Core;;2017;UK3,PUMAFLFP00098006,UK4,PUMAFLFP00098007,UK5,PUMAFLFP00098008,UK6,PUMAFLFP00098009,UK7,PUMAFLFP00098010,UK8,PUMAFLFP00098011,UK9,PUMAFLFP00098012,UK10,PUMAFLFP00098013,UK11,PUMAFLFP00098014;699.00;;;;;;;;zerotype;;Fall;;No
2016513;5318304-Peacoat-Vibrant Orange-2016513;Tech Cat Patch Cap;Draft;Caps;Puma;Adults-Men;Men;Navy Blue;;;Fashion;;2017;X,PUMACAPS00097317;1499.00;;;;;;;;zerotype;;Fall;;No
2016512;5318302-Puma Black-Bright White-2016512;Tech Cat Patch Cap;Draft;Caps;Puma;Adults-Men;Men;Black;;;Fashion;;2017;X,PUMACAPS00097316;1499.00;;;;;;;;zerotype;;Fall;;No
2016511;5318301-Bright White-Puma Black-2016511;Tech Cat Patch Cap;Draft;Caps;Puma;Adults-Men;Men;White;;;Fashion;;2017;X,PUMACAPS00097315;1499.00;;;;;;;;zerotype;;Fall;;No
2016497;2109011-Medium Gray Heather-Blue.D Cat logo-2016497;MVP Puma stretchfit cap;Draft;Caps;Puma;Adults-Unisex;Unisex;Grey;;;Core;;2017;S/M,PUMACAPS00097298,L/XL,PUMACAPS00097299;999.00;;;;;;;;zerotype;;Fall;;No
2016495;8281802-Puma White-Team Power Blue-Silver-2016495;Pro Training 2 HYBRID ball;Draft;Footballs;Puma;Adults-Unisex;Unisex;White;;;Core;;2017;5,PUMAFTBS00000066;1799.00;;;<p>PU</p>;;;;;zerotype;;Fall;;No
2016494;8281801-Puma White-Puma Black-Silver-2016494;Pro Training 2 HYBRID ball;Draft;Footballs;Puma;Adults-Unisex;Unisex;White;;;Core;;2017;5,PUMAFTBS00000065;1799.00;;;<p>PU</p>;;;;;zerotype;;Fall;;No
2016492;7481301-Puma Black-reflective silver-2016492;Fit AT Hobo Bag;Draft;Handbags;Puma;Adults-Women;Women;Black;;;Core;;2017;X,PUMAHDBG00000381;3499.00;;;<p>Polyester</p>;;;;;zerotype;;Fall;;No
2016489;7473301-Puma Black-Marshmallow-2016489;Core Style Shopper;Draft;Handbags;Puma;Adults-Unisex;Unisex;Black;;;Core;;2017;X,PUMAHDBG00000378;1299.00;;;<p>Polyester</p>;;;;;zerotype;;Fall;;No
2016433;36453911-Baja Blue-Smoky Grape-2016433;Puma Rebel Mid Wns;Draft;Casual Shoes;Puma;Adults-Women;Women;Blue;;;Fashion;;2017;UK4,PUMACASH00124891,UK5,PUMACASH00124892,UK6,PUMACASH00124893,UK7,PUMACASH00124894;4999.00;;;;;;;;zerotype;;Fall;;No
2016426;36378404-Puma Black-Olive Night-Puma White-2016426;Prevail Hypernature;Draft;Casual Shoes;Puma;Adults-Unisex;Unisex;Black;;;Fashion;;2017;UK8,PUMACASH00124877,UK9,PUMACASH00124878;6999.00;;;;;;;;zerotype;;Fall;;No
2016425;36371102-Puma Black-Puma Black-2016425;Puma Ikaz Lo v2;Draft;Casual Shoes;Puma;Adults-Women;Women;Black;;;Core;;2017;UK4,PUMACASH00124873,UK5,PUMACASH00124874,UK6,PUMACASH00124875,UK7,PUMACASH00124876;3999.00;;;;;;;;zerotype;;Fall;;No
2016420;36370302-Puma Black-Puma Black-2016420;Pacer Next;Draft;Casual Shoes;Puma;Adults-Unisex;Unisex;Black;;;Core;;2017;UK6,PUMACASH00124863,UK7,PUMACASH00124864,UK8,PUMACASH00124865,UK9,PUMACASH00124866,UK10,PUMACASH00124867;5999.00;;;;;;;;zerotype;;Fall;;No
2016408;36314406-Puma Black-Puma White-2016408;Match Vulc 2;Draft;Casual Shoes;Puma;Adults-Unisex;Unisex;Black;;;Fashion;;2017;UK6,PUMACASH00124834,UK7,PUMACASH00124835,UK8,PUMACASH00124836,UK9,PUMACASH00124837,UK10,PUMACASH00124838;5499.00;;;;;;;;zerotype;;Fall;;No
2016405;36262802-Puma Black-Puma White-2016405;Puma Vikky Mid;Draft;Casual Shoes;Puma;Adults-Women;Women;Black;;;Core;;2017;UK4,PUMACASH00124828,UK5,PUMACASH00124829,UK6,PUMACASH00124830;4999.00;;;;;;;;zerotype;;Fall;;No
2016403;36262419-Baja Blue-Puma White-2016403;Puma Vikky;Draft;Casual Shoes;Puma;Adults-Women;Women;Blue;;;Fashion;;2017;UK4,PUMACASH00124824,UK5,PUMACASH00124825,UK6,PUMACASH00124826,UK7,PUMACASH00124827;3999.00;;;;;;;;zerotype;;Fall;;No
2016402;36262418-Dark Purple-Puma White-2016402;Puma Vikky;Draft;Casual Shoes;Puma;Adults-Women;Women;Purple;;;Fashion;;2017;UK4,PUMACASH00124820,UK5,PUMACASH00124821,UK6,PUMACASH00124822,UK7,PUMACASH00124823;3999.00;;;;;;;;zerotype;;Fall;;No
2016400;36242010-Hot Coral-Hot Coral-2016400;Puma Vega Evo;Draft;Casual Shoes;Puma;Adults-Women;Women;Pink;;;Fashion;;2017;UK3,PUMACASH00124815,UK4,PUMACASH00124816,UK5,PUMACASH00124817,UK6,PUMACASH00124818,UK7,PUMACASH00124819;4499.00;;;;;;;;zerotype;;Fall;;No
2016253;36487705-NRGY TURQUOISE-BLUE DEPTHS-PUMA WHITE-2016253;Pacer Evo;Draft;Sports Shoes;Puma;Adults-Men;Men;Blue;;;Core;;2017;UK8,PUMASPSH00116323,UK9,PUMASPSH00116324,UK10,PUMASPSH00116325;4499.00;;;;;;;;zerotype;;Fall;;No
2016234;19002702-Love Potion-Puma White-2016234;Enzo Strap Wn's;Draft;Sports Shoes;Puma;Adults-Women;Women;Pink;;;Fashion;;2017;UK4,PUMASPSH00116213,UK5,PUMASPSH00116214,UK6,PUMASPSH00116215;5999.00;;;;;;;;zerotype;;Fall;;No
2016232;19002402-Toreador-Puma White-2016232;Enzo Strap;Draft;Sports Shoes;Puma;Adults-Men;Men;Red;;;Fashion;;2017;UK6,PUMASPSH00116199,UK7,PUMASPSH00116200,UK8,PUMASPSH00116201,UK9,PUMASPSH00116202,UK10,PUMASPSH00116203,UK11,PUMASPSH00116204,UK12,PUMASPSH00116205;5999.00;;;;;;;;zerotype;;Fall;;No
2016228;19001501-Toreador-Blue Depths-2016228;Enzo Mesh;Draft;Sports Shoes;Puma;Adults-Men;Men;Red;;;Fashion;;2017;UK7,PUMASPSH00116174,UK8,PUMASPSH00116175,UK9,PUMASPSH00116176,UK10,PUMASPSH00116177,UK11,PUMASPSH00116178;5499.00;;;;;;;;zerotype;;Fall;;No
2016227;18996502-Puma Black-Love Potion-2016227;Essential Trail Wn's;Draft;Sports Shoes;Puma;Adults-Women;Women;Black;;;Fashion;;2017;UK3,PUMASPSH00116168,UK4,PUMASPSH00116169,UK5,PUMASPSH00116170,UK6,PUMASPSH00116171,UK7,PUMASPSH00116172,UK8,PUMASPSH00116173;5499.00;;;;;;;;zerotype;;Fall;;No
2016223;18951905-Dark Purple-Love Potion-2016223;Flare 2 Wn's;Draft;Sports Shoes;Puma;Adults-Women;Women;Purple;;;Fashion;;2017;UK4,PUMASPSH00116145,UK5,PUMASPSH00116146,UK6,PUMASPSH00116147,UK7,PUMASPSH00116148,UK8,PUMASPSH00116149;5999.00;;;;;;;;zerotype;;Fall;;No
2016222;18946706-Love Potion-Dark Purple-2016222;Rush Wn's;Draft;Sports Shoes;Puma;Adults-Women;Women;Pink;;;Fashion;;2017;UK5,PUMASPSH00116143,UK7,PUMASPSH00116144;6499.00;;;;;;;;zerotype;;Fall;;No
2016221;18936709-BLACK-HOT CORAL-2016221;Reef Wns;Draft;Sports Shoes;Puma;Adults-Women;Women;Black;;;Core;;2017;UK4,PUMASPSH00116138,UK5,PUMASPSH00116139,UK6,PUMASPSH00116140,UK7,PUMASPSH00116141,UK8,PUMASPSH00116142;2999.00;;;;;;;;zerotype;;Fall;;No
2016220;18936708-DARK PURPLE-BLACK-WHITE-2016220;Reef Wns;Draft;Sports Shoes;Puma;Adults-Women;Women;Purple;;;Core;;2017;UK4,PUMASPSH00116133,UK5,PUMASPSH00116134,UK6,PUMASPSH00116135,UK7,PUMASPSH00116136,UK8,PUMASPSH00116137;2999.00;;;;;;;;zerotype;;Fall;;No
2016219;18909703-Peacoat-Puma Silver-2016219;Descendant v4 SL;Draft;Sports Shoes;Puma;Adults-Men;Men;Navy Blue;;;Core;;2017;UK6,PUMASPSH00116126,UK7,PUMASPSH00116127,UK8,PUMASPSH00116128,UK9,PUMASPSH00116129,UK10,PUMASPSH00116130,UK11,PUMASPSH00116131,UK12,PUMASPSH00116132;4999.00;;;;;;;;zerotype;;Fall;;No
2016217;10416203-Puma Black-Asphalt-Shocking Orange-2016217;evoIMPACT 5.3;Draft;Sports Shoes;Puma;Adults-Men;Men;Black;;;Core;;2017;UK7,PUMASPSH00116115,UK8,PUMASPSH00116116,UK9,PUMASPSH00116117,UK10,PUMASPSH00116118,UK11,PUMASPSH00116119;5999.00;;;;;;;;zerotype;;Fall;;No
2016215;10407301-Puma White-Puma Black-Fiery Coral-2016215;evoKNIT FTB IT;Draft;Sports Shoes;Puma;Adults-Men;Men;White;;;Core;;2017;UK6,PUMASPSH00116104,UK7,PUMASPSH00116105,UK8,PUMASPSH00116106,UK9,PUMASPSH00116107,UK10,PUMASPSH00116108;4499.00;;;;;;;;zerotype;;Fall;;No
2016214;10407202-Puma Black-Puma White-Fiery Coral-2016214;evoKNIT FTB TT;Draft;Sports Shoes;Puma;Adults-Men;Men;Black;;;Core;;2017;UK7,PUMASPSH00116100,UK8,PUMASPSH00116101,UK9,PUMASPSH00116102,UK10,PUMASPSH00116103;4499.00;;;;;;;;zerotype;;Fall;;No
2010861;TB0A1B8H9311-Potting Soil Chaos-2010861;SEA HAVEN THONG BRN,FQ;Draft;Sandals;Timberland;Adults-Men;Men;;;;Fashion;;2017;US7,TMLDSNDL00093686,US8,TMLDSNDL00093687,US9,TMLDSNDL00093688,US10,TMLDSNDL00093689,US11,TMLDSNDL00093690,US11.5,TMLDSNDL00093691,US12,TMLDSNDL00093692;4499.00;;;<p>M Footwear Leather Upper Below Ankle Non-Athletic Rbr Sole</p>;;;;;zerotype;;Summer;;No
2010858;TB0A1ABWF491-Steeple Grey Chaos-2010858;SEA HAVEN THONG GRY,FQ;Draft;Sandals;Timberland;Adults-Men;Men;;;;Fashion;;2017;US7,TMLDSNDL00093669,US8,TMLDSNDL00093670,US9,TMLDSNDL00093671,US10,TMLDSNDL00093672,US11,TMLDSNDL00093673,US11.5,TMLDSNDL00093674,US12,TMLDSNDL00093675;4499.00;;;<p>M Footwear Leather Upper Below Ankle Non-Athletic Rbr Sole</p>;;;;;zerotype;;Summer;;No
2010857;TB0A1ABP0191-Black Iris Chaos-2010857;SEA HAVEN THONG BLU,FQ;Draft;Sandals;Timberland;Adults-Men;Men;;;;Fashion;;2017;US7,TMLDSNDL00093662,US8,TMLDSNDL00093663,US9,TMLDSNDL00093664,US10,TMLDSNDL00093665,US11,TMLDSNDL00093666,US11.5,TMLDSNDL00093667,US12,TMLDSNDL00093668;4499.00;;;<p>M Footwear Leather Upper Below Ankle Non-Athletic Rbr Sole</p>;;;;;zerotype;;Summer;;No
2009171;8903338082699-Monk_Red-2009171;Rain Coat Men 03 : Wildcraft : Monk_Red : XXL;Draft;Rain Jacket;Wildcraft;Adults-Men;Men;Red;;;Core;;2016;XS,WDCTRNJK00000536,S,WDCTRNJK00000537,M,WDCTRNJK00000538,L,WDCTRNJK00000539,XL,WDCTRNJK00000540,XXL,WDCTRNJK00000541;1495.00;;;<p>Wash with similar colours, in a machine or by hand in cold water.Use only a mild soap.Do not scrub.Do not wash jackets.Dry clean them.Down jackets must never be washed.Air-dry all clothing before storing it.Packable clothing should not be stored in its packed form for too long.Keep packable jackets and pants hung or folded in a cool, dry place.</p>;;;;;zerotype;;Fall;;No
2009169;8903338082514-Monk_Red-2009169;Rain Cheater Men 03 : Wildcraft : Monk_Red : XXL;Draft;Rain Jacket;Wildcraft;Adults-Men;Men;Red;;;Core;;2016;XS,WDCTRNJK00000524,S,WDCTRNJK00000525,M,WDCTRNJK00000526,L,WDCTRNJK00000527,XL,WDCTRNJK00000528,XXL,WDCTRNJK00000529;1395.00;;;<p>Wash with similar colours, in a machine or by hand in cold water.Use only a mild soap.Do not scrub.Do not wash jackets.Dry clean them.Down jackets must never be washed.Air-dry all clothing before storing it.Packable clothing should not be stored in its packed form for too long.Keep packable jackets and pants hung or folded in a cool, dry place.</p>;;;;;zerotype;;Fall;;No
2009167;8903338082392-Anthracite-2009167;Rain Cheater Men 03 : Wildcraft : Anthracite : XXL;Draft;Rain Jacket;Wildcraft;Adults-Men;Men;Black;;;Core;;2016;XS,WDCTRNJK00000512,S,WDCTRNJK00000513,M,WDCTRNJK00000514,L,WDCTRNJK00000515,XL,WDCTRNJK00000516,XXL,WDCTRNJK00000517;1395.00;;;<p>Wash with similar colours, in a machine or by hand in cold water.Use only a mild soap.Do not scrub.Do not wash jackets.Dry clean them.Down jackets must never be washed.Air-dry all clothing before storing it.Packable clothing should not be stored in its packed form for too long.Keep packable jackets and pants hung or folded in a cool, dry place.</p>;;;;;zerotype;;Fall;;No
2009166;8903338074571-Blue_Estat-2009166;Rain Cheater Men : Wildcraft : Blue_Estat : XXL;Draft;Rain Jacket;Wildcraft;Adults-Men;Men;Blue;;;Core;;2016;M,WDCTRNJK00000508,L,WDCTRNJK00000509,XXL,WDCTRNJK00000510;1495.00;;;<p>Wash with similar colours, in a machine or by hand in cold water.Use only a mild soap.Do not scrub.Do not wash jackets.Dry clean them.Down jackets must never be washed.Air-dry all clothing before storing it.Packable clothing should not be stored in its packed form for too long.Keep packable jackets and pants hung or folded in a cool, dry place.</p>;;;;;zerotype;;Fall;;No
2004904;36462902-Puma Black-Scarlet Ibis-Puma W-2004904;TSUGI NETFIT;Draft;Casual Shoes;Puma;Adults-Unisex;Unisex;;;;Fashion;;2017;UK6,PUMACASH00124669,UK7,PUMACASH00124670,UK8,PUMACASH00124671,UK9,PUMACASH00124672,UK10,PUMACASH00124673,UK11,PUMACASH00124674,UK12,PUMACASH00124675;8999.00;;;<p>Mesh</p>;;;;;zerotype;;Fall;;No
2004903;36462901-Gray Violet-Lapis Blue-Puma Wh-2004903;TSUGI NETFIT;Draft;Casual Shoes;Puma;Adults-Unisex;Unisex;;;;Fashion;;2017;UK6,PUMACASH00124662,UK7,PUMACASH00124663,UK8,PUMACASH00124664,UK9,PUMACASH00124665,UK10,PUMACASH00124666,UK11,PUMACASH00124667,UK12,PUMACASH00124668;8999.00;;;<p>Mesh</p>;;;;;zerotype;;Fall;;No
1995954;DBSMAAYOAKU0346B-Yellow-1995954;Kurtas;Draft;Kurtas;all about you;Adults-Women;Women;;;;Fashion;;2017;S,AATUKRTA00001964,M,AATUKRTA00001965,L,AATUKRTA00001966,XL,AATUKRTA00001967;2799.00;;;;;;;;zerotype;;Fall;;No
1995953;DBSMAAYOAKU0346A-Coral-1995953;Kurtas;Draft;Kurtas;all about you;Adults-Women;Women;;;;Fashion;;2017;S,AATUKRTA00001960,M,AATUKRTA00001961,L,AATUKRTA00001962,XL,AATUKRTA00001963;2799.00;;;;;;;;zerotype;;Fall;;No
1993181;LMN0010095_XL-Multi-1993181;LMN0010095_XL;Draft;Skirts;IndusDiva Loomnic;Adults-Women;Women;Multi;;;Fashion;Smart Casual;2017;S,IDLCSKRT00000005,M,IDLCSKRT00000006,L,IDLCSKRT00000007,XL,IDLCSKRT00000008;1499.00;<p>-100% Handloom <a href='/fabric?src=pd' class='seolink'>Fabric</a>. This product comes with a Handloom Mark, which is an initiative by the Government of India to provide a collective identity to the handloom products. This serves as a guarantee to you, as a buyer that this is a 100% hand woven product.- Ankle length flared skirt with <a href='/tie?src=pd' class='seolink'>tie</a>-up waist.</p>;<p>100% Handloom Fabric, Product comes with a 'Handloom Mark', Made using Pure Handloom Cotton Ikat Fabric. Ikat is a technique in which the yarns are dyed before being woven into zoomorphic patterns.</p>;<p>100% Cotton, Care: Gentle Hand Wash separately in cold water. Dry in shade. Do not Bleach. Warm Iron.</p>;;;;;zerotype;;Fall;;No
1993179;LMN0010096_XL-Brown-1993179;LMN0010096_XL;Draft;Palazzos;IndusDiva Loomnic;Adults-Women;Women;Brown;;;Fashion;Ethnic;2017;S,IDLCPLZS00000009,M,IDLCPLZS00000010,L,IDLCPLZS00000011,XL,IDLCPLZS00000012;1499.00;<p>- 100% Handloom <a href='/fabric?src=pd' class='seolink'>Fabric</a>. This product comes with a Handloom Mark, which is an initiative by the Government of India to provide a collective identity to the handloom products. This serves as a guarantee to you, as a buyer that this is a 100% hand woven product.- Pure ikat flared <a href='/palazzos?src=pd' class='seolink'>palazzos</a> with drawstring on the waist.</p>;<p>100% Handloom Fabric, Product comes with a 'Handloom Mark', Made using Pure Handloom Cotton Ikat Fabric. Ikat is a technique in which the yarns are dyed before being woven into zoomorphic patterns.</p>;<p>100% Cotton, Care: Gentle Hand Wash separately in cold water. Dry in shade. Do not Bleach. Warm Iron.</p>;;;LMN0010096_XL;;zerotype;;Fall;;No
1993178;LMN0010090_XL-Grey-1993178;LMN0010090_XL;Draft;Palazzos;IndusDiva Loomnic;Adults-Women;Women;Grey;;;Fashion;Ethnic;2017;S,IDLCPLZS00000005,M,IDLCPLZS00000006,L,IDLCPLZS00000007,XL,IDLCPLZS00000008;1499.00;<p>- 100% Handloom <a href='/fabric?src=pd' class='seolink'>Fabric</a>. This product comes with a Handloom Mark, which is an initiative by the Government of India to provide a collective identity to the handloom products. This serves as a guarantee to you, as a buyer that this is a 100% hand woven product.- Pure ikat flared <a href='/palazzos?src=pd' class='seolink'>palazzos</a> with drawstring on the waist and contrast fabric patch at the hemline.</p>;<p>100% Handloom Fabric, Product comes with a 'Handloom Mark', Made using Pure Handloom Cotton Ikat Fabric. Ikat is a technique in which the yarns are dyed before being woven into zoomorphic patterns.</p>;<p>100% Cotton, Care: Gentle Hand Wash separately in cold water. Dry in shade. Do not Bleach. Warm Iron.</p>;;;LMN0010090_XL;;zerotype;;Fall;;No
1989923;MK-566-MARRON-1989923;STRAIGHT KURTA;Active;Kurtas;Moda Rapido;Adults-Women;Women;Pink;;;Fashion;Ethnic;2017;S,MAROKRTA00003641,M,MAROKRTA00003642,L,MAROKRTA00003643,XL,MAROKRTA00003644;999.00;<a href='/pink?src=pd' class='seolink'>Pink</a> printed straight <a href='/kurta?src=pd' class='seolink'>kurta</a>, has a mandarin collar, three-quarter sleeves, two pockets, straight hem, side slits;This stylish kurta from Moda Rapido will take your personal style to new heights.  Dress up for your next family event by pairing this pink piece with your best Kolhapuris and simple jewellery.;Rayon <br /> Machine-wash;The model (height 5'8") is wearing a size S;;Moda Rapido Women Pink Printed Straight Kurta;Moda Rapido,MELV071,uber-offer-aug;zerotype;;Fall;add;No
1989921;MK-562-PEACH-1989921;A-LINE TRAIL CUT KURTA;Active;Kurtas;Moda Rapido;Adults-Women;Women;Pink;;;Fashion;Ethnic;2017;S,MAROKRTA00003633,M,MAROKRTA00003634,L,MAROKRTA00003635,XL,MAROKRTA00003636;999.00;<a href='/pink?src=pd' class='seolink'>Pink</a> <a href='/solid?src=pd' class='seolink'>solid</a> A-line <a href='/kurta?src=pd' class='seolink'>kurta</a>, has a mandarin collar, three-quarter sleeves, asymmetric hem, multiple slits;Keep it classy all year long with a stylish kurta from Moda Rapido.  For your next dinner party or family gathering, this pink piece pairs well with dark leggings and chic flats.;Rayon <br /> Machine-wash cold;The model (height 5'8") is wearing a size S;;Moda Rapido Women Pink Solid A-Line Kurta;Moda Rapido,uber-offer-aug;zerotype;;Fall;add;No
1984676;SS17MT162C-OLIVE-1984676;FULL SLEEVE SLUB TEE;Draft;Tshirts;ether;Adults-Women;Women;;;;Fashion;;2017;S,ETHRTSHT00003936,M,ETHRTSHT00003937,L,ETHRTSHT00003938,XL,ETHRTSHT00003939;899.00;;;;;;;ether-women-0-90;zerotype;;Spring;Planner request;No
1946378;197889-BLACK-1946378;Forever 21 BLACKLeggings;QC Reject;Leggings;FOREVER 21;Adults-Women;Women;Black;;;Fashion;Casual;2017;1/5/6,FRTOLEGG00001801,2/7/8,FRTOLEGG00001802,4/11/12,FRTOLEGG00001803;549.00;Black three-fourth leggings, has an elasticated waistband;This pair of leggings is an absolute essential in every woman's wardrobe. Team it up with a top or a shirt and wedge heels or canvas shoes for a chic look.;87% polyester, 13% spandex<br />Hand-wash;The model (height 5'8") is wearing a size S;;FOREVER 21 Black Three-Fourth Leggings;FOREVER 21,high-street-brands,forever-21-bestsellers;zerotype;;Spring;u-card;No
1941589;AX2147-SILVER-1941589;Armani Exchange Watches;Draft;Watches;Armani Exchange;Adults-Men;Men;;;;Fashion;;2017;Onesize,AIECWTCH00000180;11495.00;<p>HMPTNLP SS BLK B</p>;;;;;;;zerotype;;Summer;;No
1934962;DZ1739I-BLACK-1934962;DIESEL Watches;Draft;Watches;DIESEL;Adults-Men;Men;;;;Fashion;;2017;Onesize,DISLWTCH00001114;9495.00;<p>MD RD GUN BLK ST</p>;;<p>MD RD GUN BLK ST</p>;;;;watches-min-4000-off;zerotype;;Summer;Kill It;No
1928991;SS17WJS106B-wine-1928991;FLOWY JUMPSUIT;Draft;Jumpsuit;ether;Adults-Women;Women;;;;Fashion;;2017;S,ETHRJMST00000005,M,ETHRJMST00000006,L,ETHRJMST00000007,XL,ETHRJMST00000008;1399.00;;;;;;;ether-women-0-90;zerotype;;Fall;planner request;No
1928985;SS17WJS106A-Black-1928985;FLOWY JUMPSUIT;Draft;Jumpsuit;ether;Adults-Women;Women;;;;Fashion;;2017;S,ETHRJMST00000001,M,ETHRJMST00000002,L,ETHRJMST00000003,XL,ETHRJMST00000004;1399.00;;;;;;;ether-women-0-90;zerotype;;Fall;planner request;No
1928984;SS17WSH106B-BLUE/WHITE-1928984;LONGLINE JACKET;Draft;Shrug;ether;Adults-Women;Women;;;;Fashion;;2017;S,ETHRSHRG00000013,M,ETHRSHRG00000014,L,ETHRSHRG00000015,XL,ETHRSHRG00000016;1699.00;;;;;;;ether-women-0-90;zerotype;;Fall;planner request;No
1928982;SS17WB101A-BLUE-1928982;DENIM SHORTS;Draft;Trousers;ether;Adults-Women;Women;;;;Fashion;;2017;26,ETHRTRSR00000665,28,ETHRTRSR00000666,30,ETHRTRSR00000667,32,ETHRTRSR00000668;1199.00;;;;;;;ether-women-0-90;zerotype;;Fall;planner request;No
1928967;SS17WTOP118C-Blue-1928967;square top;Draft;Tops;ether;Adults-Women;Women;;;;Fashion;;2017;S,ETHRTOPS00000892,M,ETHRTOPS00000893,L,ETHRTOPS00000894,XL,ETHRTOPS00000895;1199.00;;;;;;;ether-women-0-90;zerotype;;Fall;planner request;No
1928966;SS17WTOP118B-Rose-1928966;square top;Draft;Tops;ether;Adults-Women;Women;;;;Fashion;;2017;S,ETHRTOPS00000888,M,ETHRTOPS00000889,L,ETHRTOPS00000890,XL,ETHRTOPS00000891;1199.00;;;;;;;ether-women-0-90;zerotype;;Fall;planner request;No
1928965;SS17WTOP118A-Wine-1928965;square top;Draft;Tops;ether;Adults-Women;Women;;;;Fashion;;2017;S,ETHRTOPS00000884,M,ETHRTOPS00000885,L,ETHRTOPS00000886,XL,ETHRTOPS00000887;1199.00;;;;;;;ether-women-0-90;zerotype;;Fall;planner request;No
1920573;AW17DB-CH-04E-DEEP NAVY-1920573;SWEATER;Draft;Sweaters;DressBerry;Adults-Women;Women;;;;Fashion;;2017;S,DSBYSWTR00002581,M,DSBYSWTR00002582,L,DSBYSWTR00002583,XL,DSBYSWTR00002584;1699.00;;;;;;;;zerotype;;Fall;;No
1920565;AW17DB-CH-01D-BLACK WITH MEDIM GREY-1920565;SWEATER;Draft;Sweaters;DressBerry;Adults-Women;Women;;;;Fashion;;2017;S,DSBYSWTR00002561,M,DSBYSWTR00002562,L,DSBYSWTR00002563,XL,DSBYSWTR00002564;1699.00;;;;;;;;zerotype;;Fall;;No
1919574;ME3110I-Dark Brown-1919574;Fossil Watches;Draft;Watches;Fossil;Adults-Men;Men;;;;Fashion;;2017;Onesize,FSSLWTCH00002858;15295.00;<p>Townsman</p>;;;;;;;zerotype;;Summer;;No
1919446;AR6063I-Silver-1919446;Emporio Armani Watches;Active;Watches;Emporio Armani;Adults-Women;Women;Pink;;;Fashion;Casual;2017;ONESIZE,EMAMWTCH00000857;16495.00;Display: Analogue <br />Movement: Mechanical<br />Power source: Battery<br />Dial style: Embellished round stainless <a href='/steel?src=pd' class='seolink'>steel</a> dial<br />Features: Reset Time, Date Aperture<br />Strap style: <a href='/silver?src=pd' class='seolink'>Silver</a>-Toned <a href='/bracelet?src=pd' class='seolink'>bracelet</a> style, stainless steel strap with a butterfly closure <br />Water resistance: Water Resistant<br />Warranty: 2 years;The perfect everyday accessory, this Emporio Armani watch is both practical and stylish. This pink piece can be matched with dark wash jeans, a trendy top, and ballerinas for a chic brunch outfit.;;;;Emporio Armani Women Pink Analogue Watch AR6063I;Emporio Armani,BV,watches-min-4000-off;zerotype;;Summer;Kill It;No
1919438;AR1938I-Silver-1919438;Emporio Armani Watches;Active;Watches;Emporio Armani;Adults-Men;Men;Blue;;;Fashion;Casual;2017;ONESIZE,EMAMWTCH00000851;24495.00;Display: Analogue <br />Movement: Mechanical<br />Power source: Battery<br />Dial style: Textured square stainless <a href='/steel?src=pd' class='seolink'>steel</a> dial<br />Features: Chronograph, Date Aperture, Reset Time<br />Strap style: <a href='/silver?src=pd' class='seolink'>Silver</a>-toned <a href='/bracelet?src=pd' class='seolink'>bracelet</a> style, stainless steel strap with a butterfly closure <br />Water-resistant<br />Warranty: 2 years;This impressive, trendy watch from Emporio Armani is sure to draw attention when you tell the time. Flaunt this timeless blue piece with casuals when you head out to lunch for a smart look.;;;;Emporio Armani Men Blue Chronograph Analogue Watch AR1938I;Emporio Armani,BV,watches-min-4000-off;zerotype;;Summer;Kill It;No
1919435;AR1889I-Blue-1919435;Emporio Armani Watches;Active;Watches;Emporio Armani;Adults-Men;Men;Blue;;;Fashion;Casual;2017;ONESIZE,EMAMWTCH00000848;19795.00;Display: Analogue <br />Movement: Mechanical<br />Power source: Battery<br />Dial style: <a href='/solid?src=pd' class='seolink'>Solid</a> round stainless <a href='/steel?src=pd' class='seolink'>steel</a> dial<br />Features: Chronograph, reset time, date aperture<br />Strap style: <a href='/blue?src=pd' class='seolink'>Blue</a> <a href='/regular?src=pd' class='seolink'>regular</a>, <a href='/leather?src=pd' class='seolink'>leather</a> strap with a tang closure <br />Water-resistant<br />Warranty: 2 years;This impressive, trendy watch from Emporio Armani is sure to draw attention when you tell the time. This classy blue watch can be worn with cuffed chinos and a trendy T-shirt for a sophisticated dinner outfit.;;;;Emporio Armani Men Blue Chronograph Analogue Watch AR1889I;Emporio Armani,BV,watches-min-4000-off;zerotype;;Summer;Kill It;No
1919428;AR1862I-Blue-1919428;Emporio Armani Watches;Draft;Watches;Emporio Armani;Adults-Men;Men;;;;Fashion;;2017;Onesize,EMAMWTCH00000842;23295.00;<p>Beta</p>;;;;;;watches-min-4000-off;zerotype;;Summer;Kill It;No
1919426;AR1814-Black-1919426;Emporio Armani Watches;Active;Watches;Emporio Armani;Adults-Women;Women;Silver;;;Fashion;Casual;2017;ONESIZE,EMAMWTCH00000840;11795.00;Display: Analogue <br />Movement: Mechanical<br />Power source: Battery<br />Dial style: Printed round stainless <a href='/steel?src=pd' class='seolink'>steel</a> dial<br />Features: Reset time<br />Strap style: <a href='/black?src=pd' class='seolink'>Black</a> textured, <a href='/leather?src=pd' class='seolink'>leather</a> strap with a tang closure <br />Water-resistant<br />Warranty: 2 years;Feel confident in a sophisticated watch from Emporio Armani. When you have dinner plans with your friends, style this piece with a trendy dress and patent heels.;;;;Emporio Armani Women Silver-Toned Analogue Watch AR1814;Emporio Armani,BV,watches-min-4000-off;zerotype;;Summer;Kill It;No
1919425;AR1802I-Black-1919425;Emporio Armani Watches;Active;Watches;Emporio Armani;Adults-Women;Women;Brown;;;Fashion;Casual;2017;ONESIZE,EMAMWTCH00000839;16495.00;Display: Analogue <br />Movement: Mechanical<br />Power source: Battery<br />Dial style: Embellished round stainless <a href='/steel?src=pd' class='seolink'>steel</a> dial<br />Features: Reset time<br />Strap style: <a href='/black?src=pd' class='seolink'>Black</a> <a href='/regular?src=pd' class='seolink'>regular</a>, <a href='/leather?src=pd' class='seolink'>leather</a> strap with a tang closure <br />Water-resistant<br />Warranty: 2 years;Sport this watch from Emporio Armani and make a style statement. This brown piece can be worn with your favourite shirt and some slim jeans for your casual date night.;;;;Emporio Armani Women Brown Analogue Watch AR1802I;Emporio Armani,BV,watches-min-4000-off;zerotype;;Summer;Kill It;No
1919423;AR1799-Dark Brown-1919423;Emporio Armani Watches;Active;Watches;Emporio Armani;Adults-Men;Men;Brown;;;Fashion;Casual;2017;ONESIZE,EMAMWTCH00000838;16495.00;Display: Analogue <br />Movement: Mechanical<br />Power source: Battery<br />Dial style: <a href='/solid?src=pd' class='seolink'>Solid</a> round stainless <a href='/steel?src=pd' class='seolink'>steel</a> dial<br />Features: Reset time<br />Strap style: <a href='/brown?src=pd' class='seolink'>Brown</a> textured, <a href='/leather?src=pd' class='seolink'>leather</a> strap with a tang closure <br />Water-resistant<br />Warranty: 2 years;This impressive, trendy watch from Emporio Armani is sure to draw attention when you tell the time. Match this brown piece with slim jeans and a basic tee for a super-cool date outfit.;;;;Emporio Armani Men Brown Analogue Watch AR1799;Emporio Armani,BV,watches-min-4000-off;zerotype;;Summer;Kill It;No
1919415;AR1705I-Dark Brown-1919415;Emporio Armani Watches;Active;Watches;Emporio Armani;Adults-Men;Men;Brown;;;Fashion;Casual;2017;ONESIZE,EMAMWTCH00000832;16495.00;Display: Analogue <br />Movement: Mechanical<br />Power source: Battery<br />Dial style: Textured round stainless <a href='/steel?src=pd' class='seolink'>steel</a> dial<br />Features: Reset time<br />Strap style: <a href='/brown?src=pd' class='seolink'>Brown</a> textured, <a href='/leather?src=pd' class='seolink'>leather</a> strap with a tang closure <br />Water-resistant<br />Warranty: 2 years;This impressive, trendy watch from Emporio Armani is sure to draw attention when you tell the time. Flaunt this timeless brown piece with casuals when you head out to lunch for a smart look.;;;;Emporio Armani Men Brown Analogue Watch AR1705I;Emporio Armani,BV,watches-min-4000-off;zerotype;;Summer;Kill It;No
1876380;AAY-WJ-155-M.INDIGO-1876380;Indigo Dyed denim;Draft;Jeans;all about you;Adults-Women;Women;;;;Fashion;;2017;28,AATUJENS00000541,30,AATUJENS00000542,32,AATUJENS00000543,34,AATUJENS00000544;2499.00;;;;;;;aay-bottoms21sep,aay-ww2017,aay-newstyles;zerotype;;Spring;sis;No
1876377;AAY-WJ-152-LT.BLUE-1876377;Indigo Dyed denim;Draft;Jeans;all about you;Adults-Women;Women;;;;Fashion;;2017;28,AATUJENS00000529,30,AATUJENS00000530,32,AATUJENS00000531,34,AATUJENS00000532;2199.00;;;;;;;aay-bottoms21sep,aay-ww2017,aay-newstyles;zerotype;;Spring;sis;No
1876376;AAY-WJ-151-INDIGO-1876376;Indigo Dyed denim;Draft;Jeans;all about you;Adults-Women;Women;;;;Fashion;;2017;28,AATUJENS00000525,30,AATUJENS00000526,32,AATUJENS00000527,34,AATUJENS00000528;2199.00;;;;;;;aay-bottoms21sep,aay-ww2017,aay-newstyles;zerotype;;Spring;sis;No
1863663;AW17DBBS007C-White-1863663;Turtle Neck Basic Top;Draft;Sweaters;DressBerry;Adults-Women;Women;;;;Fashion;;2017;S,DSBYSWTR00002441,M,DSBYSWTR00002442,L,DSBYSWTR00002443,XL,DSBYSWTR00002444;1199.00;;;;;;;;zerotype;;Fall;;No
1863662;AW17DBBS007B-Grey-1863662;Turtle Neck Basic Top;Draft;Sweaters;DressBerry;Adults-Women;Women;;;;Fashion;;2017;S,DSBYSWTR00002437,M,DSBYSWTR00002438,L,DSBYSWTR00002439,XL,DSBYSWTR00002440;1199.00;;;;;;;;zerotype;;Fall;;No
1863661;AW17DBBS007A-Black-1863661;Turtle Neck Basic Top;Draft;Sweaters;DressBerry;Adults-Women;Women;;;;Fashion;;2017;S,DSBYSWTR00002433,M,DSBYSWTR00002434,L,DSBYSWTR00002435,XL,DSBYSWTR00002436;1199.00;;;;;;;;zerotype;;Fall;;No
1863660;AW17DBBS006D-Red-1863660;V Neck Zipper Basic Top;Draft;Sweaters;DressBerry;Adults-Women;Women;;;;Fashion;;2017;S,DSBYSWTR00002429,M,DSBYSWTR00002430,L,DSBYSWTR00002431,XL,DSBYSWTR00002432;1299.00;;;;;;;;zerotype;;Fall;;No
1863659;AW17DBBS006C-Bottle Green-1863659;V Neck Zipper Basic Top;Draft;Sweaters;DressBerry;Adults-Women;Women;;;;Fashion;;2017;S,DSBYSWTR00002425,M,DSBYSWTR00002426,L,DSBYSWTR00002427,XL,DSBYSWTR00002428;999.00;;;;;;;;zerotype;;Fall;;No
1863658;AW17DBBS006B-electric Blue-1863658;V Neck Zipper Basic Top;Draft;Sweaters;DressBerry;Adults-Women;Women;;;;Fashion;;2017;S,DSBYSWTR00002421,M,DSBYSWTR00002422,L,DSBYSWTR00002423,XL,DSBYSWTR00002424;1299.00;;;;;;;;zerotype;;Fall;;No
1863657;AW17DBBS006A-Black-1863657;V Neck Zipper Basic Top;Draft;Sweaters;DressBerry;Adults-Women;Women;;;;Fashion;;2017;S,DSBYSWTR00002417,M,DSBYSWTR00002418,L,DSBYSWTR00002419,XL,DSBYSWTR00002420;999.00;;;;;;;;zerotype;;Fall;;No
1863656;AW17DBBS005D-Dark pink-1863656;V Neck Basic Cardigan;Draft;Sweaters;DressBerry;Adults-Women;Women;;;;Fashion;;2017;S,DSBYSWTR00002413,M,DSBYSWTR00002414,L,DSBYSWTR00002415,XL,DSBYSWTR00002416;1299.00;;;;;;;;zerotype;;Fall;;No
1863655;AW17DBBS005C-MUSTARD-1863655;V Neck Basic Cardigan;Draft;Sweaters;DressBerry;Adults-Women;Women;;;;Fashion;;2017;S,DSBYSWTR00002409,M,DSBYSWTR00002410,L,DSBYSWTR00002411,XL,DSBYSWTR00002412;1299.00;;;;;;;;zerotype;;Fall;;No
1863654;AW17DBBS005B-Navy blue-1863654;V Neck Basic Cardigan;Draft;Sweaters;DressBerry;Adults-Women;Women;;;;Fashion;;2017;S,DSBYSWTR00002405,M,DSBYSWTR00002406,L,DSBYSWTR00002407,XL,DSBYSWTR00002408;999.00;;;;;;;;zerotype;;Fall;;No
1863653;AW17DBBS005A-Black-1863653;V Neck Basic Cardigan;Draft;Sweaters;DressBerry;Adults-Women;Women;;;;Fashion;;2017;S,DSBYSWTR00002401,M,DSBYSWTR00002402,L,DSBYSWTR00002403,XL,DSBYSWTR00002404;999.00;;;;;;;;zerotype;;Fall;;No
1863647;AW17DBBS003D-black/white-1863647;Block Round Neck Top;Draft;Sweaters;DressBerry;Adults-Women;Women;;;;Fashion;;2017;S,DSBYSWTR00002377,M,DSBYSWTR00002378,L,DSBYSWTR00002379,XL,DSBYSWTR00002380;1199.00;;;;;;;;zerotype;;Fall;;No
1863646;AW17DBBS003C-Red/navy-1863646;Block Round Neck Top;Draft;Sweaters;DressBerry;Adults-Women;Women;;;;Fashion;;2017;S,DSBYSWTR00002373,M,DSBYSWTR00002374,L,DSBYSWTR00002375,XL,DSBYSWTR00002376;999.00;;;;;;;;zerotype;;Fall;;No
1863645;AW17DBBS003B-navy/palm-1863645;Block Round Neck Top;Draft;Sweaters;DressBerry;Adults-Women;Women;;;;Fashion;;2017;S,DSBYSWTR00002369,M,DSBYSWTR00002370,L,DSBYSWTR00002371,XL,DSBYSWTR00002372;999.00;;;;;;;;zerotype;;Fall;;No
1863644;AW17DBBS002D-Peach Pink-1863644;V Neck Basic Top;Draft;Sweaters;DressBerry;Adults-Women;Women;;;;Fashion;;2017;S,DSBYSWTR00002365,M,DSBYSWTR00002366,L,DSBYSWTR00002367,XL,DSBYSWTR00002368;1199.00;;;;;;;;zerotype;;Fall;;No
1863643;AW17DBBS002C-MUSTARD-1863643;V Neck Basic Top;Draft;Sweaters;DressBerry;Adults-Women;Women;;;;Fashion;;2017;S,DSBYSWTR00002361,M,DSBYSWTR00002362,L,DSBYSWTR00002363,XL,DSBYSWTR00002364;1199.00;;;;;;;;zerotype;;Fall;;No
1863642;AW17DBBS002B-Navy Blue-1863642;V Neck Basic Top;Draft;Sweaters;DressBerry;Adults-Women;Women;;;;Fashion;;2017;S,DSBYSWTR00002357,M,DSBYSWTR00002358,L,DSBYSWTR00002359,XL,DSBYSWTR00002360;999.00;;;;;;;;zerotype;;Fall;;No
1863641;AW17DBBS002A-Black-1863641;V Neck Basic Top;Draft;Sweaters;DressBerry;Adults-Women;Women;;;;Fashion;;2017;S,DSBYSWTR00002353,M,DSBYSWTR00002354,L,DSBYSWTR00002355,XL,DSBYSWTR00002356;999.00;;;;;;;;zerotype;;Fall;;No
1863640;AW17DBBS001E-Red-1863640;Boat Neck Basic Top;Draft;Sweaters;DressBerry;Adults-Women;Women;;;;Fashion;;2017;S,DSBYSWTR00002349,M,DSBYSWTR00002350,L,DSBYSWTR00002351,XL,DSBYSWTR00002352;999.00;;;;;;;;zerotype;;Fall;;No
1863639;AW17DBBS001D-Lt. Blue Melange-1863639;Boat Neck Basic Top;Draft;Sweaters;DressBerry;Adults-Women;Women;;;;Fashion;;2017;S,DSBYSWTR00002345,M,DSBYSWTR00002346,L,DSBYSWTR00002347,XL,DSBYSWTR00002348;1199.00;;;;;;;;zerotype;;Fall;;No
1863638;AW17DBBS001C-Dark Pink-1863638;Boat Neck Basic Top;Draft;Sweaters;DressBerry;Adults-Women;Women;;;;Fashion;;2017;S,DSBYSWTR00002341,M,DSBYSWTR00002342,L,DSBYSWTR00002343,XL,DSBYSWTR00002344;1199.00;;;;;;;;zerotype;;Fall;;No
1863637;AW17DBBS001B-Electric Blue-1863637;Boat Neck Basic Top;Draft;Sweaters;DressBerry;Adults-Women;Women;;;;Fashion;;2017;S,DSBYSWTR00002337,M,DSBYSWTR00002338,L,DSBYSWTR00002339,XL,DSBYSWTR00002340;999.00;;;;;;;;zerotype;;Fall;;No
1863636;AW17DBBS001A-Bottle Green-1863636;Boat Neck Basic Top;Draft;Sweaters;DressBerry;Adults-Women;Women;;;;Fashion;;2017;S,DSBYSWTR00002333,M,DSBYSWTR00002334,L,DSBYSWTR00002335,XL,DSBYSWTR00002336;1199.00;;;;;;;;zerotype;;Fall;;No
1863571;AW17DB-CH-04B-L.grey/Black-1863571;Heavy Lurex Stripper Top;Draft;Sweaters;DressBerry;Adults-Women;Women;;;;Fashion;;2017;S,DSBYSWTR00002072,M,DSBYSWTR00002073,L,DSBYSWTR00002074,XL,DSBYSWTR00002075;1699.00;;;;;;;;zerotype;;Fall;;No
1863570;AW17DB-CH-04A-Mustard/Deep Navy-1863570;Heavy Lurex Stripper Top;Draft;Sweaters;DressBerry;Adults-Women;Women;;;;Fashion;;2017;S,DSBYSWTR00002068,M,DSBYSWTR00002069,L,DSBYSWTR00002070,XL,DSBYSWTR00002071;1699.00;;;;;;;;zerotype;;Fall;;No
1863569;AW17DB-CH-02B-Olive/off white-1863569;Diagonal two color top;Draft;Sweaters;DressBerry;Adults-Women;Women;;;;Fashion;;2017;S,DSBYSWTR00002064,M,DSBYSWTR00002065,L,DSBYSWTR00002066,XL,DSBYSWTR00002067;1499.00;;;;;;;;zerotype;;Fall;;No
1863568;AW17DB-CH-02A-Dark Beige/Natural offwhite-1863568;Diagonal two color top;Draft;Sweaters;DressBerry;Adults-Women;Women;;;;Fashion;;2017;S,DSBYSWTR00002060,M,DSBYSWTR00002061,L,DSBYSWTR00002062,XL,DSBYSWTR00002063;1499.00;;;;;;;;zerotype;;Fall;;No
1863567;AW17DB-CH-01B-Red/offwhite with Silver Lurex-1863567;Lurex Star Top;Draft;Sweaters;DressBerry;Adults-Women;Women;;;;Fashion;;2017;S,DSBYSWTR00002056,M,DSBYSWTR00002057,L,DSBYSWTR00002058,XL,DSBYSWTR00002059;1699.00;;;;;;;;zerotype;;Fall;;No
1863566;AW17DB-CH-01A-light Grey/Medium Grey with Silver Lurex-1863566;Lurex Star Top;Draft;Sweaters;DressBerry;Adults-Women;Women;;;;Fashion;;2017;S,DSBYSWTR00002052,M,DSBYSWTR00002053,L,DSBYSWTR00002054,XL,DSBYSWTR00002055;1699.00;;;;;;;;zerotype;;Fall;;No
1863533;AW17DB-CH-12B-Medium Grey-1863533;Long Side Slit Rib Shrug;Draft;Shrug;DressBerry;Adults-Women;Women;;;;Fashion;;2017;S,DSBYSHRG00001014,M,DSBYSHRG00001015,L,DSBYSHRG00001016,XL,DSBYSHRG00001017;1699.00;;;;;;;;zerotype;;Fall;;No
1863532;AW17DB-CH-12A-Deep Wine-1863532;Long Side Slit Rib Shrug;Draft;Shrug;DressBerry;Adults-Women;Women;;;;Fashion;;2017;S,DSBYSHRG00001010,M,DSBYSHRG00001011,L,DSBYSHRG00001012,XL,DSBYSHRG00001013;1699.00;;;;;;;;zerotype;;Fall;;No
1849231;SKALA-03-BLACK/CLASSIC RED-1849231;COLOR BLOCKED STYLISED CREW;Draft;Tshirts;Roadster;Adults-Men;Men;;;;Fashion;;2017;S,RDSTTSHT00033717,M,RDSTTSHT00033718,L,RDSTTSHT00033719,XL,RDSTTSHT00033720;699.00;;;;;;;;zerotype;;Spring;;No
1849230;SKALA-02-NAVY/DUSTY INDIGO-1849230;COLOR BLOCKED STYLISED CREW;Draft;Tshirts;Roadster;Adults-Men;Men;;;;Fashion;;2017;S,RDSTTSHT00033713,M,RDSTTSHT00033714,L,RDSTTSHT00033715,XL,RDSTTSHT00033716;699.00;;;;;;;;zerotype;;Spring;;No
1849229;SKALA-01-BLACK/WHITE-1849229;COLOR BLOCKED STYLISED CREW;Draft;Tshirts;Roadster;Adults-Men;Men;;;;Fashion;;2017;L,RDSTTSHT00033709,M,RDSTTSHT00033710,S,RDSTTSHT00033711,XL,RDSTTSHT00033712;699.00;;;;;;;;zerotype;;Spring;;No
1844173;MONTANA-02-NAVY-1844173;GRAPHIC TEE;Draft;Tshirts;Roadster;Adults-Men;Men;;;;Fashion;;2017;S,RDSTTSHT00032197,M,RDSTTSHT00032198,L,RDSTTSHT00032199,XL,RDSTTSHT00032200;599.00;;;;;;;;zerotype;;Spring;;No
1839625;SS17MT162B-Cabernet-1839625;FULL SLEEVE SLUB TEE;Draft;Tshirts;ether;Adults-Men;Men;;;;Fashion;;2017;S,ETHRTSHT00003591,M,ETHRTSHT00003592,L,ETHRTSHT00003593,XL,ETHRTSHT00003594;899.00;;;;;;;;zerotype;;Summer;;No
1839624;SS17MT162A-Ivory-1839624;FULL SLEEVE SLUB TEE;Draft;Tshirts;ether;Adults-Men;Men;;;;Fashion;;2017;S,ETHRTSHT00003587,M,ETHRTSHT00003588,L,ETHRTSHT00003589,XL,ETHRTSHT00003590;899.00;;;;;;;;zerotype;;Summer;;No
1839605;SS17MT149A-Navy-1839605;PRINTED COLLAR BAND TEE;Draft;Tshirts;ether;Adults-Men;Men;;;;Fashion;;2017;S,ETHRTSHT00003505,M,ETHRTSHT00003506,L,ETHRTSHT00003507,XL,ETHRTSHT00003508,XXL,ETHRTSHT00003509;799.00;;;;;;;;zerotype;;Summer;;No
1839577;SS17MT113D-Red-1839577;CREW NECK TEE;Draft;Tshirts;ether;Adults-Men;Men;;;;Fashion;;2017;S,ETHRTSHT00003382,M,ETHRTSHT00003383,L,ETHRTSHT00003384,XL,ETHRTSHT00003385;599.00;;;;;;;;zerotype;;Summer;;No
1839576;SS17MT113C-Lt Green-1839576;CREW NECK TEE;Draft;Tshirts;ether;Adults-Men;Men;;;;Fashion;;2017;S,ETHRTSHT00003378,M,ETHRTSHT00003379,L,ETHRTSHT00003380,XL,ETHRTSHT00003381;599.00;;;;;;;;zerotype;;Summer;;No
1839575;SS17MT113B-Navy-1839575;CREW NECK TEE;Draft;Tshirts;ether;Adults-Men;Men;;;;Fashion;;2017;S,ETHRTSHT00003374,M,ETHRTSHT00003375,L,ETHRTSHT00003376,XL,ETHRTSHT00003377;599.00;;;;;;;;zerotype;;Summer;;No
1839574;SS17MT113A-Grey Mel-1839574;CREW NECK TEE;Draft;Tshirts;ether;Adults-Men;Men;;;;Fashion;;2017;S,ETHRTSHT00003370,M,ETHRTSHT00003371,L,ETHRTSHT00003372,XL,ETHRTSHT00003373;599.00;;;;;;;;zerotype;;Summer;;No
1781383;HRX-SS17-MK-8169C-A-SURF THE WEB-1781383;MEN TRACKPANT;Draft;Track Pants;HRX by Hrithik Roshan;Adults-Men;Men;;;;Fashion;;2017;28,HBHRTRPT00002145,30,HBHRTRPT00002146,32,HBHRTRPT00002147,34,HBHRTRPT00002148;1699.00;;;;;;;;zerotype;;Fall;planner request;No
1781382;HRX-SS17-MK-8169B-A-JUNE BUG-1781382;MEN TRACKPANT;Draft;Track Pants;HRX by Hrithik Roshan;Adults-Men;Men;;;;Fashion;;2017;28,HBHRTRPT00002141,30,HBHRTRPT00002142,32,HBHRTRPT00002143,34,HBHRTRPT00002144;1699.00;;;;;;;;zerotype;;Fall;planner request;No
1781381;HRX-SS17-MK-8169A-A-DRESS BLUES-1781381;MEN TRACKPANT;Draft;Track Pants;HRX by Hrithik Roshan;Adults-Men;Men;;;;Fashion;;2017;28,HBHRTRPT00002137,30,HBHRTRPT00002138,32,HBHRTRPT00002139,34,HBHRTRPT00002140;1699.00;;;;;;;;zerotype;;Fall;planner request;No
1781379;HRX-SS17-MK-8168B-A-DRESS BLUES-1781379;MEN TRACKPANT;Draft;Track Pants;HRX by Hrithik Roshan;Adults-Men;Men;;;;Fashion;;2017;28,HBHRTRPT00002129,30,HBHRTRPT00002130,32,HBHRTRPT00002131,34,HBHRTRPT00002132;1599.00;;;;;;;;zerotype;;Fall;planner request;No
1779362;HRX-SS17-MK-8249B-ELECTRIC GREEN-1779362;MEN T-SHIRT;Draft;Tshirts;HRX by Hrithik Roshan;Adults-Men;Men;;;;Fashion;;2017;S,HBHRTSHT00007192,M,HBHRTSHT00007193,L,HBHRTSHT00007194,XL,HBHRTSHT00007195,XXL,HBHRTSHT00007196;1299.00;;;;;;;;zerotype;;Fall;planner request;No
1779361;HRX-SS17-MK-8249A-BRILLIANT WHITE-1779361;MEN T-SHIRT;Draft;Tshirts;HRX by Hrithik Roshan;Adults-Men;Men;;;;Fashion;;2017;S,HBHRTSHT00007187,M,HBHRTSHT00007188,L,HBHRTSHT00007189,XL,HBHRTSHT00007190,XXL,HBHRTSHT00007191;1299.00;;;;;;;;zerotype;;Fall;planner request;No
1779357;HRX-SS17-MK-8246A-GRENADINE-1779357;MEN T-SHIRT;Draft;Tshirts;HRX by Hrithik Roshan;Adults-Men;Men;;;;Fashion;;2017;S,HBHRTSHT00007167,M,HBHRTSHT00007168,L,HBHRTSHT00007169,XL,HBHRTSHT00007170,XXL,HBHRTSHT00007171;1299.00;;;;;;;;zerotype;;Fall;planner request;No
1774437;117YKKSLD99010-Purple-1774437;Casual Dress;Active;Dresses;YK;Kids-Girls;Girls;Burgundy;;;Fashion;Casual;2017;7-8Y,YKYKDRSS00001158,8-9Y,YKYKDRSS00001159,10-11Y,YKYKDRSS00001160,11-12Y,YKYKDRSS00001161,13-14Y,YKYKDRSS00001162;1099.00;<a href='/burgundy?src=pd' class='seolink'>Burgundy</a> <a href='/solid?src=pd' class='seolink'>solid</a> knitted A-line <a href='/dress?src=pd' class='seolink'>dress</a>, has a <a href='/boat?src=pd' class='seolink'>boat</a> neck, sleeveless, two pockets, zip closure, straight hem;Keep your little girl looking classy with this super-cute dress from YK.  Team this burgundy dress with her favourite pair of ballerinas and a cute clutch when she's going to a friend's get-together.;Cotton <br /> Machine-wash;;;YK Girls Burgundy A-Line Dress;YK,uber-offer-aug;zerotype;;Fall;add;No
1773830;117YKKSLD89199-Melange-1773830;Tshirt;Active;Tshirts;YK;Kids-Girls;Girls;Charcoal;;;Fashion;Casual;2017;2-3Y,YKYKTSHT00004644,3-4Y,YKYKTSHT00004645,4-5Y,YKYKTSHT00004646,5-6Y,YKYKTSHT00004647,6-7Y,YKYKTSHT00004648;599.00;<a href='/charcoal?src=pd' class='seolink'>Charcoal</a> <a href='/grey?src=pd' class='seolink'>grey</a> printed T-shirt, has a round neck, <a href='/short?src=pd' class='seolink'>short</a> sleeves;Expand her fashionable wardrobe with this super-chic T-shirt from YK. She can pair this piece with dark denims and ballerinas for a casual day at school.;Cotton<br />Machine-wash;;;YK Girls Charcoal Grey Printed Round Neck T-shirt;YK,uber-offer-aug;zerotype;;Fall;add;No
1773816;117YKKSLD89185-Melange-1773816;Tshirt;Active;Tshirts;YK;Kids-Girls;Girls;Charcoal;;;Fashion;Casual;2017;2-3Y,YKYKTSHT00004574,3-4Y,YKYKTSHT00004575,4-5Y,YKYKTSHT00004576,5-6Y,YKYKTSHT00004577,6-7Y,YKYKTSHT00004578;599.00;<a href='/charcoal?src=pd' class='seolink'>Charcoal</a> <a href='/grey?src=pd' class='seolink'>grey</a> printed  T-shirt, has a round neck, <a href='/short?src=pd' class='seolink'>short</a> sleeves;Step up your little girl's style with this cool and casual tee from YK. When she's attending a friend's birthday party, she can style this piece with slick black jeans and Chelsea boots.;60% cotton, 40% polyester <br />Machine-wash;;;YK Girls Charcoal Grey Printed Round Neck T-shirt;YK,uber-offer-aug;zerotype;;Fall;add;No
1773804;117YKKSLD89173-Sky Blue-1773804;Tshirt;Active;Tshirts;YK;Kids-Girls;Girls;Green;;;Fashion;Casual;2017;2-3Y,YKYKTSHT00004514,3-4Y,YKYKTSHT00004515,4-5Y,YKYKTSHT00004516,5-6Y,YKYKTSHT00004517,6-7Y,YKYKTSHT00004518;549.00;<a href='/green?src=pd' class='seolink'>Green</a> printed T-shirt, has a round neck, <a href='/short?src=pd' class='seolink'>short</a> sleeves;Your little girl will love this cute and comfy shirt from YK. She can match this piece with tonal shorts and canvas shoes when she's going to the park with her friends.;Cotton<br />Machine-wash;;;YK Girls Green Printed Round Neck T-shirt;YK,uber-offer-aug;zerotype;;Fall;add;No
1773675;117YKKSLD60173-W.Melange-1773675;Boys Tshirt;Active;Tshirts;YK;Kids-Boys;Boys;Red;Grey Melange;Navy Blue;Fashion;Casual;2017;7-8Y,YKYKTSHT00004409,8-9Y,YKYKTSHT00004410,10-11Y,YKYKTSHT00004411,11-12Y,YKYKTSHT00004412,13-14Y,YKYKTSHT00004413;699.00;<a href='/red?src=pd' class='seolink'>Red</a>, <a href='/grey?src=pd' class='seolink'>grey</a> melange and navy dyed striped T-shirt, has a round neck, <a href='/short?src=pd' class='seolink'>short</a> sleeves and printed detail on the front;Your son will look adorably handsome in this red  YK T-shirt.  Team this red piece with slim jeans and canvas shoes when he's going to a friend's birthday party.;86% cotton, 14% polyester <br /> Machine-wash;;;YK Boys Red & Grey Melange Striped Round Neck T-shirt;YK,yk-malibu,uber-offer-aug;zerotype;;Fall;add;No
1764518;117YKKSLD90026-Multi-1764518;Dresses;Active;Dresses;YK;Kids-Girls;Girls;Yellow;Blue;;Fashion;Casual;2017;7-8Y,YKYKDRSS00001023,8-9Y,YKYKDRSS00001024,10-11Y,YKYKDRSS00001025,11-12Y,YKYKDRSS00001026,13-14Y,YKYKDRSS00001027;899.00;<a href='/yellow?src=pd' class='seolink'>Yellow</a> and <a href='/blue?src=pd' class='seolink'>blue</a> printed woven fit and flare <a href='/dress?src=pd' class='seolink'>dress</a>, has a round neck, sleeveless, a cut-out detail on the back, a flared hem;She will look and feel beautiful in this timeless dress by YK. For an upscale weekend ensemble, style this piece with a casual blazer and some chic heels.;Cotton <br /> Machine-wash;;;YK Girls Yellow & Blue Printed Fit & Flare Dress;YK,uber-offer-aug;zerotype;;Fall;add;No
1754112;117YKKSLD60080-O-Nautical Blue/Papaya Punch-1754112;Tshirts;Inactive - PMM - Category;Tshirts;YK Marvel;Kids-Boys;Boys;Blue;Peach;;Fashion;Casual;2017;7-8Y,YKYKTSHT00003689,8-9Y,YKYKTSHT00003690,10-11Y,YKYKTSHT00003691,11-12Y,YKYKTSHT00003692,13-14Y,YKYKTSHT00003693;749.00;Pack of two printed T-shirts<br />Blue printed T-shirt, has a round neck, short sleeves<br />Peach-coloured printed T-shirt, has a round neck, sleeveless;Elevate the look of your little one's wardrobe with a few more basic tees. Let him sport these with jeans or shorts for a relaxed style.;T-shirt 1: 100% cotton<br />T-shirt 2<br />Shell 1: 100% polyester<br />Shell 2: 100% cotton<br />Machine-wash;;;YK Marvel Boys Pack of 2 Printed T-shirts;YK Marvel;zerotype;;Fall;planner request;No
1637147;117YKWSLD89020-Black-1637147;Girls Dress;Draft;Dresses;YK;Kids-Girls;Girls;;;;Fashion;;2017;2-3Y,YKYKDRSS00000833,3-4Y,YKYKDRSS00000834,4-5Y,YKYKDRSS00000835,5-6Y,YKYKDRSS00000836,6-7Y,YKYKDRSS00000837;1599.00;;;;;;;;zerotype;;Summer;;No
1553691;DZ4361I-BLACK-1553691;Diesel Lemons;Draft;Watches;DIESEL;Adults-Men;Men;;;;Fashion;;2016;Onesize,DISLWTCH00000779;18495.00;;;<p>LG RD BLK BLK ST</p>;;;;;zerotype;;Fall;;No
1553679;DZ4315I-WHITE-1553679;Diesel Lemons;Draft;Watches;DIESEL;Adults-Men;Men;;;;Fashion;;2016;Onesize,DISLWTCH00000767;10795.00;;;<p>LG RD WHT WHT ST</p>;;;;;zerotype;;Fall;;No
1553660;DZ1719I-GUNMETAL-1553660;Diesel Lemons;Draft;Watches;DIESEL;Adults-Men;Men;;;;Fashion;;2016;Onesize,DISLWTCH00000748;14995.00;;;<p>MD RD GUN GUN BR</p>;;;;;zerotype;;Fall;;No
1553595;AR6050I-SILVER/STE-1553595;Emporio Armani Lemons;Draft;Watches;Emporio Armani;Adults-Men;Men;;;;Fashion;;2016;Onesize,EMAMWTCH00000495;23295.00;;;<p>LG RD BLK SS BR</p>;;;;watches-min-4000-off;zerotype;;Fall;Kill It;No
1553593;AR6048I-SILVER/STE-1553593;Emporio Armani Lemons;Draft;Watches;Emporio Armani;Adults-Men;Men;;;;Fashion;;2016;Onesize,EMAMWTCH00000493;19795.00;;;<p>LG RD BLU SS BR</p>;;;;watches-min-4000-off;zerotype;;Fall;Kill It;No
1553580;AR4676-SILVER/STE-1553580;Emporio Armani Lemons;Active;Watches;Emporio Armani;Adults-Men;Men;Steel;;;Fashion;Casual;2016;ONESIZE,EMAMWTCH00000480;29995.00;Display: Analogue <br />Movement: Automatic<br />Power source: Battery<br />Dial style: <a href='/solid?src=pd' class='seolink'>Solid</a> round stainless <a href='/steel?src=pd' class='seolink'>steel</a> dial<br />Features: Chronograph, Reset Time<br />Strap style: Steel-toned <a href='/bracelet?src=pd' class='seolink'>bracelet</a>-style, stainless steel strap<br />Water-resistant<br />Warranty: 2 years;This impressive, trendy watch from Emporio Armani is sure to draw attention when you tell the time. This classy watch can be worn with cuffed chinos and a trendy T-shirt for a sophisticated dinner outfit.;;;;Emporio Armani Men Steel-Toned Automatic Chronograph Watch AR4676;Emporio Armani,BV,watches-min-4000-off;zerotype;;Fall;Kill It;No
1553523;AR1837I-GRAY-1553523;Emporio Armani Lemons;Draft;Watches;Emporio Armani;Adults-Women;Women;;;;Fashion;;2016;Onesize,EMAMWTCH00000423;12995.00;;;<p>SM RD GRY GRY PVC</p>;;;;watches-min-4000-off;zerotype;;Fall;Kill It;No
1553515;AR1796I-SILVER/STE-1553515;Emporio Armani Lemons;Draft;Watches;Emporio Armani;Adults-Men;Men;;;;Fashion;;2016;Onesize,EMAMWTCH00000415;23295.00;;;<p>LG RD SIL SS BRAC</p>;;;;watches-min-4000-off;zerotype;;Fall;Kill It;No
1553484;AR1667I-LIGHT BROW-1553484;Emporio Armani Lemons;Active;Watches;Emporio Armani;Adults-Men;Men;Beige;;;Fashion;Casual;2016;ONESIZE,EMAMWTCH00000384;13995.00;Display: Analogue <br />Movement: Mechanical<br />Power source: Battery<br />Dial style: <a href='/solid?src=pd' class='seolink'>Solid</a> round stainless <a href='/steel?src=pd' class='seolink'>steel</a> dial<br />Features: Reset time<br />Strap style: <a href='/beige?src=pd' class='seolink'>Beige</a> textured, <a href='/leather?src=pd' class='seolink'>leather</a> strap with a tang closure <br />Water-resistant<br />Warranty: 2 years;This impressive, trendy watch from Emporio Armani is sure to draw attention when you tell the time. Match this beige piece with slim jeans and a basic tee for a super-cool date outfit.;;;;Emporio Armani Men Beige Analogue Watch AR1667I;Emporio Armani,watches-min-4000-off;zerotype;;Fall;Kill It;No
1553475;AR1641I-DARK BROWN-1553475;Emporio Armani Lemons;Draft;Watches;Emporio Armani;Adults-Men;Men;;;;Fashion;;2016;Onesize,EMAMWTCH00000376;11795.00;;;<p>LG SQ SIL BRN STP</p>;;;;watches-min-4000-off;zerotype;;Fall;Kill It;No
1553439;AR0680I-SILVER/STE-1553439;Emporio Armani Lemons;Draft;Watches;Emporio Armani;Adults-Men;Men;;;;Fashion;;2016;Onesize,EMAMWTCH00000342;15995.00;;;<p>GT RD BLK BRAC    NO COLOR</p>;;;;watches-min-4000-off;zerotype;;Fall;Kill It;No
1392305;ES3451-BLACK-1392305;Fossil Watches;Active;Watches;Fossil;Adults-Women;Women;Black;;;Fashion;Casual;2016;ONESIZE,FSSLWTCH00001641;9995.00;Display: Analogue <br />Movement: Mechanical<br />Power source: Battery<br />Dial style: <a href='/solid?src=pd' class='seolink'>Solid</a> round stainless <a href='/steel?src=pd' class='seolink'>steel</a> dial<br />Features: Reset Time, <a href='/multi?src=pd' class='seolink'>Multi</a> Function<br />Strap style: <a href='/black-bracelet?src=pd' class='seolink'>Black bracelet</a> style, stainless steel strap with a butterfly closure <br />Water-Resistant<br />Comes in a signature Fossil case<br />Warranty: 2 years;Sport this watch from Fossil and make a style statement.  When you're going to dinner and a movie, match this black piece with trim denims and a cute sweater.;;Dial width:<br />Strap width;;Fossil Women Black Multifunction Analogue Watch ES3451;Fossil,BV;zerotype;;Summer;;No
