Style ID;Vendor Article Number;Vendor Article Name;Active Status;Article type;Brand;Age Group;Gender;Base Colour;Colour1;Colour2;Fashion Type;Usage;Year;Size - SKU code pair;MRP;Style Description;Style Note;Materials and Care Description;Size and Fit Description;Size Chart Path;Product Display Name;Tags;Product Type;Classification Brand;Season;Comments;Upload Images
1786967;MYNBHAJJIss1709_XL-GREY MEL-1786967;JOGER;Draft;Track Pants;B SPORTS;Adults-Men;Men;Grey;;;Fashion;Sports;2017;S,BSTSTRPT00000021,M,BSTSTRPT00000022,L,BSTSTRPT00000023,XL,BSTSTRPT00000024;1549.00;<p>Blended</p>;;;;;;;zerotype;;Spring;;No
1786965;MYNBHAJJIss1708_XL-BLACK-1786965;JOGER;Draft;Track Pants;B SPORTS;Adults-Men;Men;Black;;;Fashion;Sports;2017;S,BSTSTRPT00000017,M,BSTSTRPT00000018,L,BSTSTRPT00000019,XL,BSTSTRPT00000020;1549.00;<p>Blended</p>;;;;;;;zerotype;;Spring;;No
1786963;MYNBHAJJIss1707_XL-BLACK-1786963;JOGER;Draft;Track Pants;B SPORTS;Adults-Men;Men;Black;;;Fashion;Sports;2017;S,BSTSTRPT00000013,M,BSTSTRPT00000014,L,BSTSTRPT00000015,XL,BSTSTRPT00000016;1449.00;<p>Blended</p>;;;;;;;zerotype;;Spring;;No
1786961;MYNBHAJJIss1706_XL-NAVY-1786961;JOGER;Draft;Track Pants;B SPORTS;Adults-Men;Men;Navy Blue;;;Fashion;Sports;2017;S,BSTSTRPT00000009,M,BSTSTRPT00000010,L,BSTSTRPT00000011,XL,BSTSTRPT00000012;1449.00;<p>Blended</p>;;;;;;;zerotype;;Spring;;No
1786960;MYNBHAJJIss1705_XL-NAVY-1786960;JOGER;Draft;Track Pants;B SPORTS;Adults-Men;Men;Navy Blue;;;Fashion;Sports;2017;S,BSTSTRPT00000005,M,BSTSTRPT00000006,L,BSTSTRPT00000007,XL,BSTSTRPT00000008;1699.00;<p>Blended</p>;;;;;;;zerotype;;Spring;;No
1786958;MYNBHAJJIss1704_XL-BLACK-1786958;JOGER;Draft;Track Pants;B SPORTS;Adults-Men;Men;Black;;;Fashion;Sports;2017;S,BSTSTRPT00000001,M,BSTSTRPT00000002,L,BSTSTRPT00000003,XL,BSTSTRPT00000004;1549.00;<p>Blended</p>;;;;;;;zerotype;;Spring;;No
1786956;MYNBHAJJIss1710_XL-BLACK-1786956;ZIPER HOODY;Draft;Sweatshirts;B SPORTS;Adults-Men;Men;;;;Fashion;;2017;S,BSTSSWSH00000037,M,BSTSSWSH00000038,L,BSTSSWSH00000039,XL,BSTSSWSH00000040;1799.00;<p>Blended</p>;;;;;;;zerotype;;Spring;;No
1786954;MYNBHAJJIss1703_XL-BLACK-1786954;SWEAT SHIRT;Draft;Sweatshirts;B SPORTS;Adults-Men;Men;;;;Fashion;;2017;S,BSTSSWSH00000033,M,BSTSSWSH00000034,L,BSTSSWSH00000035,XL,BSTSSWSH00000036;1399.00;<p>Blended</p>;;;;;;;zerotype;;Spring;;No
1786952;MYNBHAJJIss1702_XL-BLACK-1786952;ZIPER JACKET;Draft;Sweatshirts;B SPORTS;Adults-Men;Men;;;;Fashion;;2017;S,BSTSSWSH00000029,M,BSTSSWSH00000030,L,BSTSSWSH00000031,XL,BSTSSWSH00000032;1799.00;<p>Blended</p>;;;;;;;zerotype;;Spring;;No
1786951;B-10_XL-BROWN-1786951;COLOR  SWEATSHIRT;Draft;Sweatshirts;B SPORTS;Adults-Men;Men;;;;Core;;2017;S,BSTSSWSH00000025,M,BSTSSWSH00000026,L,BSTSSWSH00000027,XL,BSTSSWSH00000028;1799.00;<p>Blended</p>;;;;;;;zerotype;;Spring;;No
1786949;B-12-A_XL-NAVY-1786949;QUILTED SWEATSHIRT;Draft;Sweatshirts;B SPORTS;Adults-Men;Men;;;;Core;;2017;S,BSTSSWSH00000021,M,BSTSSWSH00000022,L,BSTSSWSH00000023,XL,BSTSSWSH00000024;2099.00;<p>Blended</p>;;;;;;;zerotype;;Spring;;No
1786947;B-12_XL-NAVY-1786947;QUILTED SWEATSHIRT;Draft;Sweatshirts;B SPORTS;Adults-Men;Men;;;;Core;;2017;S,BSTSSWSH00000017,M,BSTSSWSH00000018,L,BSTSSWSH00000019,XL,BSTSSWSH00000020;2099.00;<p>Blended</p>;;;;;;;zerotype;;Spring;;No
1786945;B-09_XL-5% MEL-1786945;ZIPER HOODY;Draft;Sweatshirts;B SPORTS;Adults-Men;Men;;;;Fashion;;2017;S,BSTSSWSH00000013,M,BSTSSWSH00000014,L,BSTSSWSH00000015,XL,BSTSSWSH00000016;2349.00;<p>Blended</p>;;;;;;;zerotype;;Spring;;No
1786943;B-135_XL-GREY MEL-1786943;PRINTED R/NECK TEE;Draft;Sweatshirts;B SPORTS;Adults-Men;Men;;;;Fashion;;2017;S,BSTSSWSH00000009,M,BSTSSWSH00000010,L,BSTSSWSH00000011,XL,BSTSSWSH00000012;1599.00;<p>Blended</p>;;;;;;;zerotype;;Spring;;No
1786941;B-110-A_XL-BLACK AND CHARCOAL-1786941;SIDE ZIP HOODY;Draft;Sweatshirts;B SPORTS;Adults-Men;Men;;;;Fashion;;2017;S,BSTSSWSH00000005,M,BSTSSWSH00000006,L,BSTSSWSH00000007,XL,BSTSSWSH00000008;1849.00;<p>Blended</p>;;;;;;;zerotype;;Spring;;No
1786939;B-110_XL-BLACK AND RED-1786939;SIDE ZIP HOODY;Draft;Sweatshirts;B SPORTS;Adults-Men;Men;;;;Fashion;;2017;S,BSTSSWSH00000001,M,BSTSSWSH00000002,L,BSTSSWSH00000003,XL,BSTSSWSH00000004;1849.00;<p>Blended</p>;;;;;;;zerotype;;Spring;;No
1786937;MYNBHAJJIss1719_XL-NOEN-1786937;T-SHIRT;Draft;Tshirts;B SPORTS;Adults-Men;Men;;;;Fashion;;2017;S,BSTSTSHT00000230,M,BSTSTSHT00000231,L,BSTSTSHT00000232,XL,BSTSTSHT00000233;899.00;<p>Polyester</p>;;;;;;;zerotype;;Spring;;No
1786935;MYNBHAJJIss1718_XL-NOEN-1786935;T-SHIRT;Draft;Tshirts;B SPORTS;Adults-Men;Men;;;;Fashion;;2017;S,BSTSTSHT00000226,M,BSTSTSHT00000227,L,BSTSTSHT00000228,XL,BSTSTSHT00000229;1599.00;<p>Polyester</p>;;;;;;;zerotype;;Spring;;No
1786933;MYNBHAJJIss1717_XL-BLACK-1786933;T-SHIRT;Draft;Tshirts;B SPORTS;Adults-Men;Men;;;;Fashion;;2017;S,BSTSTSHT00000222,M,BSTSTSHT00000223,L,BSTSTSHT00000224,XL,BSTSTSHT00000225;1099.00;<p>Polyester</p>;;;;;;;zerotype;;Spring;;No
1786931;MYNBHAJJIss1716_XL-ROYAL-1786931;T-SHIRT;Draft;Tshirts;B SPORTS;Adults-Men;Men;;;;Fashion;;2017;S,BSTSTSHT00000218,M,BSTSTSHT00000219,L,BSTSTSHT00000220,XL,BSTSTSHT00000221;1549.00;<p>Polyester</p>;;;;;;;zerotype;;Spring;;No
1786929;MYNBHAJJIss1715_XL-NAVY GRINDEL-1786929;R/NECK;Draft;Tshirts;B SPORTS;Adults-Men;Men;;;;Fashion;;2017;S,BSTSTSHT00000214,M,BSTSTSHT00000215,L,BSTSTSHT00000216,XL,BSTSTSHT00000217;1199.00;<p>Polyester</p>;;;;;;;zerotype;;Spring;;No
1786926;MYNBHAJJIss1714_XL-BLACK-1786926;R/NECK;Draft;Tshirts;B SPORTS;Adults-Men;Men;;;;Fashion;;2017;S,BSTSTSHT00000210,M,BSTSTSHT00000211,L,BSTSTSHT00000212,XL,BSTSTSHT00000213;1099.00;<p>Polyester</p>;;;;;;;zerotype;;Spring;;No
1786924;MYNBHAJJIss1713_XL-ORANGE GRINDEL-1786924;POLO TEE;Draft;Tshirts;B SPORTS;Adults-Men;Men;;;;Fashion;;2017;S,BSTSTSHT00000206,M,BSTSTSHT00000207,L,BSTSTSHT00000208,XL,BSTSTSHT00000209;1049.00;<p>Polyester</p>;;;;;;;zerotype;;Spring;;No
1786921;MYNBHAJJIss1712_XL-BLACK-1786921;R/NECK TEE;Draft;Tshirts;B SPORTS;Adults-Men;Men;;;;Fashion;;2017;S,BSTSTSHT00000202,M,BSTSTSHT00000203,L,BSTSTSHT00000204,XL,BSTSTSHT00000205;899.00;<p>Polyester</p>;;;;;;;zerotype;;Spring;;No
1786920;MYNBHAJJIss1711_XL-BLACK GRINDEL-1786920;R/NECK TEE;Draft;Tshirts;B SPORTS;Adults-Men;Men;;;;Fashion;;2017;S,BSTSTSHT00000198,M,BSTSTSHT00000199,L,BSTSTSHT00000200,XL,BSTSTSHT00000201;1149.00;<p>Polyester</p>;;;;;;;zerotype;;Spring;;No
1786918;MYNBHAJJIss1701_XL-LIGHT YELLOW-1786918;R/NECK TEE;Draft;Tshirts;B SPORTS;Adults-Men;Men;;;;Fashion;;2017;S,BSTSTSHT00000194,M,BSTSTSHT00000195,L,BSTSTSHT00000196,XL,BSTSTSHT00000197;849.00;<p>Polyester</p>;;;;;;;zerotype;;Spring;;No
1786915;B-31-A_XL-OFF WHITE-1786915;4 RANG;Draft;Tshirts;B SPORTS;Adults-Men;Men;;;;Core;;2017;S,BSTSTSHT00000190,M,BSTSTSHT00000191,L,BSTSTSHT00000192,XL,BSTSTSHT00000193;1099.00;<p>Blended</p>;;;;;;;zerotype;;Spring;;No
1786913;B-31_XL-BLACK-1786913;03 RANG;Draft;Tshirts;B SPORTS;Adults-Men;Men;;;;Core;;2017;S,BSTSTSHT00000186,M,BSTSTSHT00000187,L,BSTSTSHT00000188,XL,BSTSTSHT00000189;1099.00;<p>Blended</p>;;;;;;;zerotype;;Spring;;No
1786911;B-041-A_XL-NAVY/GREY-1786911;03 RANG;Draft;Tshirts;B SPORTS;Adults-Men;Men;;;;Core;;2017;S,BSTSTSHT00000182,M,BSTSTSHT00000183,L,BSTSTSHT00000184,XL,BSTSTSHT00000185;1249.00;<p>Blended</p>;;;;;;;zerotype;;Spring;;No
1786909;B-041_XL-GREEN/BLACK-1786909;03 RANG;Draft;Tshirts;B SPORTS;Adults-Men;Men;;;;Core;;2017;S,BSTSTSHT00000178,M,BSTSTSHT00000179,L,BSTSTSHT00000180,XL,BSTSTSHT00000181;1249.00;<p>Blended</p>;;;;;;;zerotype;;Spring;;No
1786907;B-040-B_XL-ROYAL-1786907;03 RANG;Draft;Tshirts;B SPORTS;Adults-Men;Men;;;;Core;;2017;S,BSTSTSHT00000174,M,BSTSTSHT00000175,L,BSTSTSHT00000176,XL,BSTSTSHT00000177;1099.00;<p>Blended</p>;;;;;;;zerotype;;Spring;;No
1786904;B-040-A_XL-ORANGE-1786904;03 RANG;Draft;Tshirts;B SPORTS;Adults-Men;Men;;;;Core;;2017;S,BSTSTSHT00000170,M,BSTSTSHT00000171,L,BSTSTSHT00000172,XL,BSTSTSHT00000173;1099.00;<p>Blended</p>;;;;;;;zerotype;;Spring;;No
1786902;B-040_XL-RED-1786902;03 RANG;Draft;Tshirts;B SPORTS;Adults-Men;Men;;;;Core;;2017;S,BSTSTSHT00000166,M,BSTSTSHT00000167,L,BSTSTSHT00000168,XL,BSTSTSHT00000169;1099.00;<p>Blended</p>;;;;;;;zerotype;;Spring;;No
1786900;B-134_XL-BROWN-1786900;PRINTED R/NECK TEE;Draft;Tshirts;B SPORTS;Adults-Men;Men;;;;Fashion;;2017;S,BSTSTSHT00000162,M,BSTSTSHT00000163,L,BSTSTSHT00000164,XL,BSTSTSHT00000165;949.00;<p>Blended</p>;;;;;;;zerotype;;Spring;;No
1786898;B-133_XL-RED-1786898;PRINTED R/NECK TEE;Draft;Tshirts;B SPORTS;Adults-Men;Men;;;;Fashion;;2017;S,BSTSTSHT00000158,M,BSTSTSHT00000159,L,BSTSTSHT00000160,XL,BSTSTSHT00000161;849.00;<p>Blended</p>;;;;;;;zerotype;;Spring;;No
1786896;B-132-A_XL-BLACK-1786896;PRINTED R/NECK TEE;Draft;Tshirts;B SPORTS;Adults-Men;Men;;;;Core;;2017;S,BSTSTSHT00000154,M,BSTSTSHT00000155,L,BSTSTSHT00000156,XL,BSTSTSHT00000157;949.00;<p>Blended</p>;;;;;;;zerotype;;Spring;;No
1786894;B-132_XL-5% GREY MEL-1786894;PRINTED R/NECK TEE;Draft;Tshirts;B SPORTS;Adults-Men;Men;;;;Core;;2017;S,BSTSTSHT00000150,M,BSTSTSHT00000151,L,BSTSTSHT00000152,XL,BSTSTSHT00000153;949.00;<p>Blended</p>;;;;;;;zerotype;;Spring;;No
1786892;B-131_XL-RED-1786892;03 RANG;Draft;Tshirts;B SPORTS;Adults-Men;Men;;;;Core;;2017;S,BSTSTSHT00000146,M,BSTSTSHT00000147,L,BSTSTSHT00000148,XL,BSTSTSHT00000149;799.00;<p>Blended</p>;;;;;;;zerotype;;Spring;;No
1786889;B-130_XL-YELLOW / BLACK-1786889;SLOGAN T-SHIRT;Draft;Tshirts;B SPORTS;Adults-Men;Men;;;;Core;;2017;S,BSTSTSHT00000142,M,BSTSTSHT00000143,L,BSTSTSHT00000144,XL,BSTSTSHT00000145;799.00;<p>Blended</p>;;;;;;;zerotype;;Spring;;No
1786887;B-129_XL-YELLOW-1786887;SLOGAN T-SHIRT;Draft;Tshirts;B SPORTS;Adults-Men;Men;;;;Core;;2017;S,BSTSTSHT00000138,M,BSTSTSHT00000139,L,BSTSTSHT00000140,XL,BSTSTSHT00000141;799.00;<p>Blended</p>;;;;;;;zerotype;;Spring;;No
1786885;B-128_XL-BLACK-1786885;SLOGAN T-SHIRT;Draft;Tshirts;B SPORTS;Adults-Men;Men;;;;Core;;2017;S,BSTSTSHT00000134,M,BSTSTSHT00000135,L,BSTSTSHT00000136,XL,BSTSTSHT00000137;849.00;<p>Blended</p>;;;;;;;zerotype;;Spring;;No
1786883;B-127_XL-NAVY SKY-1786883;SLOGAN T-SHIRT;Draft;Tshirts;B SPORTS;Adults-Men;Men;;;;Core;;2017;S,BSTSTSHT00000130,M,BSTSTSHT00000131,L,BSTSTSHT00000132,XL,BSTSTSHT00000133;849.00;<p>Blended</p>;;;;;;;zerotype;;Spring;;No
1786881;B-126_XL-GREEN BLACK-1786881;03 RANG;Draft;Tshirts;B SPORTS;Adults-Men;Men;;;;Core;;2017;S,BSTSTSHT00000126,M,BSTSTSHT00000127,L,BSTSTSHT00000128,XL,BSTSTSHT00000129;749.00;<p>Blended</p>;;;;;;;zerotype;;Spring;;No
1786878;B-125_XL-RED-1786878;PRINTED R/NECK TEE;Draft;Tshirts;B SPORTS;Adults-Men;Men;;;;Core;;2017;S,BSTSTSHT00000122,M,BSTSTSHT00000123,L,BSTSTSHT00000124,XL,BSTSTSHT00000125;699.00;<p>Blended</p>;;;;;;;zerotype;;Spring;;No
1786876;B-124-A_XL-ORANGE-1786876;R/NECK FLOCK PRINT LOGO TEE;Draft;Tshirts;B SPORTS;Adults-Men;Men;;;;Fashion;;2017;S,BSTSTSHT00000118,M,BSTSTSHT00000119,L,BSTSTSHT00000120,XL,BSTSTSHT00000121;799.00;<p>Blended</p>;;;;;;;zerotype;;Spring;;No
1786874;B-124_XL-NAVY-1786874;R/NECK FLOCK PRINT LOGO TEE;Draft;Tshirts;B SPORTS;Adults-Men;Men;;;;Fashion;;2017;S,BSTSTSHT00000114,M,BSTSTSHT00000115,L,BSTSTSHT00000116,XL,BSTSTSHT00000117;799.00;<p>Blended</p>;;;;;;;zerotype;;Spring;;No
1786871;B-123-A_XL-BLACK-1786871;CAMO PRINT R/NECK TEE;Draft;Tshirts;B SPORTS;Adults-Men;Men;;;;Fashion;;2017;S,BSTSTSHT00000110,M,BSTSTSHT00000111,L,BSTSTSHT00000112,XL,BSTSTSHT00000113;849.00;<p>Blended</p>;;;;;;;zerotype;;Spring;;No
1786869;B-123_XL-5% GREY MEL-1786869;CAMO PRINT R/NECK TEE;Draft;Tshirts;B SPORTS;Adults-Men;Men;;;;Fashion;;2017;S,BSTSTSHT00000106,M,BSTSTSHT00000107,L,BSTSTSHT00000108,XL,BSTSTSHT00000109;849.00;<p>Blended</p>;;;;;;;zerotype;;Spring;;No
1786867;B-122_XL-BLACK CAMO-1786867;FULL SLEVE CAMO TEE;Draft;Tshirts;B SPORTS;Adults-Men;Men;;;;Fashion;;2017;S,BSTSTSHT00000102,M,BSTSTSHT00000103,L,BSTSTSHT00000104,XL,BSTSTSHT00000105;999.00;<p>Blended</p>;;;;;;;zerotype;;Spring;;No
1786865;B-121_XL-SKY AND NIK BLUE-1786865;RAGLAN B-CAMO PRINT R/NECK TEE;Draft;Tshirts;B SPORTS;Adults-Men;Men;;;;Fashion;;2017;S,BSTSTSHT00000097,M,BSTSTSHT00000098,L,BSTSTSHT00000099,XL,BSTSTSHT00000101;799.00;<p>Blended</p>;;;;;;;zerotype;;Spring;;No
1786863;B-120-A_XL-COFFEE BROWN CAMO-1786863;RAGLAN FULL SLEEVE CAMO TEE;Draft;Tshirts;B SPORTS;Adults-Men;Men;;;;Fashion;;2017;S,BSTSTSHT00000093,M,BSTSTSHT00000094,L,BSTSTSHT00000095,XL,BSTSTSHT00000096;899.00;<p>Blended</p>;;;;;;;zerotype;;Spring;;No
1786861;B-120_XL-BLACK CAMO-1786861;RAGLAN FULL SLEEVE CAMO TEE;Draft;Tshirts;B SPORTS;Adults-Men;Men;;;;Fashion;;2017;S,BSTSTSHT00000089,M,BSTSTSHT00000090,L,BSTSTSHT00000091,XL,BSTSTSHT00000092;899.00;<p>Blended</p>;;;;;;;zerotype;;Spring;;No
1786858;B-119_XL-PEACH BLACK-1786858;HALF AND HALF R/NECK LONG TEE;Draft;Tshirts;B SPORTS;Adults-Men;Men;;;;Fashion;;2017;S,BSTSTSHT00000085,M,BSTSTSHT00000086,L,BSTSTSHT00000087,XL,BSTSTSHT00000088;649.00;<p>Blended</p>;;;;;;;zerotype;;Spring;;No
1786781;B-118_XL-MINT TEAL-1786781;HALF AND HALF R/NECK LONG TEE;Draft;Tshirts;B SPORTS;Adults-Men;Men;;;;Fashion;;2017;S,BSTSTSHT00000081,M,BSTSTSHT00000082,L,BSTSTSHT00000083,XL,BSTSTSHT00000084;699.00;<p>Blended</p>;;;;;;;zerotype;;Spring;;No
1786780;B-117-B_XL-RED/WHITE-1786780;HALF AND HALF R/NECK LONG TEE;Draft;Tshirts;B SPORTS;Adults-Men;Men;;;;Fashion;;2017;S,BSTSTSHT00000077,M,BSTSTSHT00000078,L,BSTSTSHT00000079,XL,BSTSTSHT00000080;749.00;<p>Blended</p>;;;;;;;zerotype;;Spring;;No
1786779;B-117-A_XL-RED/ NAVY-1786779;HALF AND HALF R/NECK LONG TEE;Draft;Tshirts;B SPORTS;Adults-Men;Men;;;;Fashion;;2017;S,BSTSTSHT00000073,M,BSTSTSHT00000074,L,BSTSTSHT00000075,XL,BSTSTSHT00000076;749.00;<p>Blended</p>;;;;;;;zerotype;;Spring;;No
1786778;B-117_XL-BLACK WHITE-1786778;HALF AND HALF R/NECK LONG TEE;Draft;Tshirts;B SPORTS;Adults-Men;Men;;;;Fashion;;2017;S,BSTSTSHT00000069,M,BSTSTSHT00000070,L,BSTSTSHT00000071,XL,BSTSTSHT00000072;749.00;<p>Blended</p>;;;;;;;zerotype;;Spring;;No
1786777;B-116-A_XL-NAVY-1786777;SLOGAN T-SHIRT;Draft;Tshirts;B SPORTS;Adults-Men;Men;;;;Core;;2017;S,BSTSTSHT00000065,M,BSTSTSHT00000066,L,BSTSTSHT00000067,XL,BSTSTSHT00000068;649.00;<p>Blended</p>;;;;;;;zerotype;;Spring;;No
1786776;B-116_XL-OFF WHITE-1786776;SLOGAN T-SHIRT;Draft;Tshirts;B SPORTS;Adults-Men;Men;;;;Core;;2017;S,BSTSTSHT00000061,M,BSTSTSHT00000062,L,BSTSTSHT00000063,XL,BSTSTSHT00000064;649.00;<p>Blended</p>;;;;;;;zerotype;;Spring;;No
1786774;B-115-A_XL-BLACK-1786774;SLOGAN T-SHIRT;Draft;Tshirts;B SPORTS;Adults-Men;Men;;;;Core;;2017;S,BSTSTSHT00000057,M,BSTSTSHT00000058,L,BSTSTSHT00000059,XL,BSTSTSHT00000060;699.00;<p>Blended</p>;;;;;;;zerotype;;Spring;;No
1786772;B-115_XL-OFF WHITE-1786772;SLOGAN T-SHIRT;Draft;Tshirts;B SPORTS;Adults-Men;Men;;;;Core;;2017;S,BSTSTSHT00000053,M,BSTSTSHT00000054,L,BSTSTSHT00000055,XL,BSTSTSHT00000056;699.00;<p>Blended</p>;;;;;;;zerotype;;Spring;;No
1786770;B-114-A_XL-NAVY WHITE-1786770;SLOGAN T-SHIRT;Draft;Tshirts;B SPORTS;Adults-Men;Men;;;;Fashion;;2017;S,BSTSTSHT00000049,M,BSTSTSHT00000050,L,BSTSTSHT00000051,XL,BSTSTSHT00000052;899.00;<p>Blended</p>;;;;;;;zerotype;;Spring;;No
1786768;B-114_XL-RED WHITE-1786768;SLOGAN T-SHIRT;Draft;Tshirts;B SPORTS;Adults-Men;Men;;;;Fashion;;2017;S,BSTSTSHT00000045,M,BSTSTSHT00000046,L,BSTSTSHT00000047,XL,BSTSTSHT00000048;899.00;<p>Blended</p>;;;;;;;zerotype;;Spring;;No
1786766;B-113-A_XL-NAVY WHITE-1786766;03 RANG;Draft;Tshirts;B SPORTS;Adults-Men;Men;;;;Fashion;;2017;S,BSTSTSHT00000041,M,BSTSTSHT00000042,L,BSTSTSHT00000043,XL,BSTSTSHT00000044;999.00;<p>Blended</p>;;;;;;;zerotype;;Spring;;No
1786764;B-113_XL-RED WHITE-1786764;03 RANG;Draft;Tshirts;B SPORTS;Adults-Men;Men;;;;Fashion;;2017;S,BSTSTSHT00000037,M,BSTSTSHT00000038,L,BSTSTSHT00000039,XL,BSTSTSHT00000040;999.00;<p>Blended</p>;;;;;;;zerotype;;Spring;;No
1786762;B-112_XL-WHITE-1786762;FANCY R/NECK TEE HALF;Draft;Tshirts;B SPORTS;Adults-Men;Men;;;;Fashion;;2017;S,BSTSTSHT00000033,M,BSTSTSHT00000034,L,BSTSTSHT00000035,XL,BSTSTSHT00000036;799.00;<p>Blended</p>;;;;;;;zerotype;;Spring;;No
1786761;B-111_XL-WHITE-1786761;FANCY R/NECK TEE 03 RANG;Draft;Tshirts;B SPORTS;Adults-Men;Men;;;;Fashion;;2017;S,BSTSTSHT00000029,M,BSTSTSHT00000030,L,BSTSTSHT00000031,XL,BSTSTSHT00000032;799.00;<p>Blended</p>;;;;;;;zerotype;;Spring;;No
1786760;B-109_XL-GREEN BLACK SNOW-1786760;GRINDEL R/NECK;Draft;Tshirts;B SPORTS;Adults-Men;Men;;;;Fashion;;2017;S,BSTSTSHT00000025,M,BSTSTSHT00000026,L,BSTSTSHT00000027,XL,BSTSTSHT00000028;999.00;<p>Blended</p>;;;;;;;zerotype;;Spring;;No
1786759;B-108_XL-BROWN-1786759;FISH CUT KURTA;Draft;Tshirts;B SPORTS;Adults-Men;Men;;;;Fashion;;2017;S,BSTSTSHT00000021,M,BSTSTSHT00000022,L,BSTSTSHT00000023,XL,BSTSTSHT00000024;999.00;<p>Blended</p>;;;;;;;zerotype;;Spring;;No
1786758;B-107_XL-LIGHT PINK-1786758;QUARTER SLEEVE;Draft;Tshirts;B SPORTS;Adults-Men;Men;;;;Fashion;;2017;S,BSTSTSHT00000017,M,BSTSTSHT00000018,L,BSTSTSHT00000019,XL,BSTSTSHT00000020;1049.00;<p>Blended</p>;;;;;;;zerotype;;Spring;;No
1786757;B-106-A_XL-RED/ NAVY-1786757;STRIPER  R/NECK;Draft;Tshirts;B SPORTS;Adults-Men;Men;;;;Fashion;;2017;S,BSTSTSHT00000013,M,BSTSTSHT00000014,L,BSTSTSHT00000015,XL,BSTSTSHT00000016;1149.00;<p>Blended</p>;;;;;;;zerotype;;Spring;;No
1786756;B-106_XL-SKY/WHITE-1786756;STRIPER  R/NECK;Draft;Tshirts;B SPORTS;Adults-Men;Men;;;;Fashion;;2017;S,BSTSTSHT00000009,M,BSTSTSHT00000010,L,BSTSTSHT00000011,XL,BSTSTSHT00000012;1149.00;<p>Blended</p>;;;;;;;zerotype;;Spring;;No
1786755;B-105_XL-BLACK/CAMEL-1786755;STRIPER  R/NECK;Draft;Tshirts;B SPORTS;Adults-Men;Men;;;;Fashion;;2017;S,BSTSTSHT00000005,M,BSTSTSHT00000006,L,BSTSTSHT00000007,XL,BSTSTSHT00000008;1399.00;<p>Blended</p>;;;;;;;zerotype;;Spring;;No
1786754;B-104_XL-BLUE SNOW GRINDEL-1786754;BACK ZIP KURTA;Draft;Tshirts;B SPORTS;Adults-Men;Men;;;;Fashion;;2017;S,BSTSTSHT00000001,M,BSTSTSHT00000002,L,BSTSTSHT00000003,XL,BSTSTSHT00000004;999.00;<p>Blended</p>;;;;;;;zerotype;;Spring;;No
