Style ID;Vendor Article Number;Vendor Article Name;Active Status;Article type;Brand;Age Group;Gender;Base Colour;Colour1;Colour2;Fashion Type;Usage;Year;Size - SKU code pair;MRP;Style Description;Style Note;Materials and Care Description;Size and Fit Description;Size Chart Path;Product Display Name;Tags;Product Type;Classification Brand;Season;Comments;Upload Images
1910759;9037Jegging36dark blue-dark blue-1910759;9037Jegging36dark blue;Draft;Jeggings;Xpose;Adults-Women;Women;Blue;;;Fashion;;2017;28,XOSEJGNG00000269,30,XOSEJGNG00000270,32,XOSEJGNG00000271,34,XOSEJGNG00000272,36,XOSEJGNG00000273;1399.00;;;;;;;;zerotype;;Summer;;No
1910758;9826Jegging36Beige-Beige-1910758;9826Jegging36Beige;Draft;Jeggings;Xpose;Adults-Women;Women;Beige;;;Fashion;;2017;28,XOSEJGNG00000264,30,XOSEJGNG00000265,32,XOSEJGNG00000266,34,XOSEJGNG00000267,36,XOSEJGNG00000268;1699.00;;;;;;;;zerotype;;Summer;;No
1910757;9819Jegging38Blue-Blue-1910757;9819Jegging38Blue;Draft;Jeggings;Xpose;Adults-Women;Women;Blue;;;Fashion;;2017;28,XOSEJGNG00000258,30,XOSEJGNG00000259,32,XOSEJGNG00000260,34,XOSEJGNG00000261,36,XOSEJGNG00000262,38,XOSEJGNG00000263;1699.00;;;;;;;;zerotype;;Summer;;No
1910756;3060Jacket32cream-cream-1910756;3060Jacket32cream;Draft;Jackets;Xpose;Adults-Women;Women;Cream;;;Fashion;;2017;M,XOSEJCKT00000045,L,XOSEJCKT00000046,XL,XOSEJCKT00000047;999.00;;;;;;;;zerotype;;Summer;;No
1910755;5582Capri36grey-Grey-1910755;5582Capri36grey;Draft;Capris;Xpose;Adults-Women;Women;Grey;;;Fashion;;2017;28,XOSECPRI00000166,30,XOSECPRI00000167,32,XOSECPRI00000168,34,XOSECPRI00000169,36,XOSECPRI00000170;1599.00;;;;;;;;zerotype;;Summer;;No
1910754;9046Trouser36cream-cream-1910754;9046Trouser36cream;Draft;Trousers;Xpose;Adults-Women;Women;Cream;;;Fashion;;2017;28,XOSETRSR00000156,30,XOSETRSR00000157,32,XOSETRSR00000158,34,XOSETRSR00000159,36,XOSETRSR00000160;1599.00;;;;;;;;zerotype;;Summer;;No
1910753;9042Trouser38Beige-Beige-1910753;9042Trouser38Beige;Draft;Trousers;Xpose;Adults-Women;Women;Beige;;;Fashion;;2017;28,XOSETRSR00000150,30,XOSETRSR00000151,32,XOSETRSR00000152,34,XOSETRSR00000153,36,XOSETRSR00000154,38,XOSETRSR00000155;1499.00;;;;;;;;zerotype;;Summer;;No
