Style ID;Vendor Article Number;Vendor Article Name;Active Status;Article type;Brand;Age Group;Gender;Base Colour;Colour1;Colour2;Fashion Type;Usage;Year;Size - SKU code pair;MRP;Style Description;Style Note;Materials and Care Description;Size and Fit Description;Size Chart Path;Product Display Name;Tags;Product Type;Classification Brand;Season;Comments;Upload Images
2397004;NLR-323-Pink-2397004;NLR-323-Pink-4;Draft;Flats;Nell;Adults-Women;Women;Pink;;;Fashion;Casual;2018;EURO 39,NELLFlats00009259,EURO 36,NELLFlats00009260,EURO 38,NELLFlats00009261,EURO 37,NELLFlats00009262,EURO 41,NELLFlats00009263,EURO 40,NELLFlats00009264;1285.00;;;<p>wipe with dry cloth</p>;;;na;;zerotype;;Fall;;No
2397003;NLR-320-White-2397003;NLR-320-White-6;Draft;Flats;Nell;Adults-Women;Women;White;;;Fashion;Casual;2018;EURO 41,NELLFlats00009253,EURO 40,NELLFlats00009254,EURO 39,NELLFlats00009255,EURO 38,NELLFlats00009256,EURO 37,NELLFlats00009257,EURO 36,NELLFlats00009258;1285.00;;;<p>wipe with dry cloth</p>;;;na;;zerotype;;Fall;;No
2397002;NLR-325-BlackWhite-2397002;NLR-325-Black-1;Draft;Flats;Nell;Adults-Women;Women;Black;White;;Fashion;Casual;2018;EURO 36,NELLFlats00009247,EURO 41,NELLFlats00009248,EURO 40,NELLFlats00009249,EURO 39,NELLFlats00009250,EURO 38,NELLFlats00009251,EURO 37,NELLFlats00009252;999.00;;;<p>wipe with dry cloth</p>;;;na;;zerotype;;Fall;;No
2397001;NLR-324-White-2397001;NLR-324-White-6;Draft;Flats;Nell;Adults-Women;Women;White;;;Fashion;Casual;2018;EURO 41,NELLFlats00009241,EURO 40,NELLFlats00009242,EURO 39,NELLFlats00009243,EURO 38,NELLFlats00009244,EURO 37,NELLFlats00009245,EURO 36,NELLFlats00009246;1285.00;;;<p>wipe with dry cloth</p>;;;na;;zerotype;;Fall;;No
2397000;NLR-327-GreyOff White-2397000;NLR-327-Grey-4;Draft;Flats;Nell;Adults-Women;Women;Grey;Off White;;Fashion;Casual;2018;EURO 39,NELLFlats00009235,EURO 38,NELLFlats00009236,EURO 41,NELLFlats00009237,EURO 37,NELLFlats00009238,EURO 36,NELLFlats00009239,EURO 40,NELLFlats00009240;999.00;;;<p>wipe with dry cloth</p>;;;na;;zerotype;;Fall;;No
2396999;NLR-326-Brown-2396999;NLR-326-Brown-2;Draft;Flats;Nell;Adults-Women;Women;Brown;;;Fashion;Casual;2018;EURO 37,NELLFlats00009229,EURO 36,NELLFlats00009230,EURO 41,NELLFlats00009231,EURO 40,NELLFlats00009232,EURO 39,NELLFlats00009233,EURO 38,NELLFlats00009234;999.00;;;<p>wipe with dry cloth</p>;;;na;;zerotype;;Fall;;No
2396998;NLR-321-Black-2396998;NLR-321-Black-6;Draft;Flats;Nell;Adults-Women;Women;Black;;;Fashion;Casual;2018;EURO 41,NELLFlats00009223,EURO 40,NELLFlats00009224,EURO 39,NELLFlats00009225,EURO 38,NELLFlats00009226,EURO 37,NELLFlats00009227,EURO 36,NELLFlats00009228;1285.00;;;<p>wipe with dry cloth</p>;;;na;;zerotype;;Fall;;No
2396997;NLR-322-RedOff White-2396997;NLR-322-Red-1;Draft;Flats;Nell;Adults-Women;Women;Red;Off White;;Fashion;Casual;2018;EURO 36,NELLFlats00009217,EURO 41,NELLFlats00009218,EURO 40,NELLFlats00009219,EURO 39,NELLFlats00009220,EURO 38,NELLFlats00009221,EURO 37,NELLFlats00009222;1285.00;;;<p>wipe with dry cloth</p>;;;na;;zerotype;;Fall;;No
2396996;NLR-329-Copper-2396996;NLR-329-Copper-6;Draft;Flats;Nell;Adults-Women;Women;Copper;;;Fashion;Casual;2018;EURO 41,NELLFlats00009211,EURO 40,NELLFlats00009212,EURO 39,NELLFlats00009213,EURO 38,NELLFlats00009214,EURO 37,NELLFlats00009215,EURO 36,NELLFlats00009216;1285.00;;;<p>wipe with dry cloth</p>;;;na;;zerotype;;Fall;;No
2396995;NLR-329-Gold-2396995;NLR-329-Gold-1;Draft;Flats;Nell;Adults-Women;Women;Gold;;;Fashion;Casual;2018;EURO 36,NELLFlats00009205,EURO 41,NELLFlats00009206,EURO 40,NELLFlats00009207,EURO 39,NELLFlats00009208,EURO 38,NELLFlats00009209,EURO 37,NELLFlats00009210;1285.00;;;<p>wipe with dry cloth</p>;;;na;;zerotype;;Fall;;No
2396994;NLR-323-Brown-2396994;NLR-323-Brown-6;Draft;Flats;Nell;Adults-Women;Women;Brown;;;Fashion;Casual;2018;EURO 41,NELLFlats00009199,EURO 40,NELLFlats00009200,EURO 39,NELLFlats00009201,EURO 38,NELLFlats00009202,EURO 37,NELLFlats00009203,EURO 36,NELLFlats00009204;1285.00;;;<p>wipe with dry cloth</p>;;;na;;zerotype;;Fall;;No
2396993;NLR-322-Brown-2396993;NLR-322-Brown-6;Draft;Flats;Nell;Adults-Women;Women;Brown;;;Fashion;Casual;2018;EURO 41,NELLFlats00009193,EURO 40,NELLFlats00009194,EURO 39,NELLFlats00009195,EURO 38,NELLFlats00009196,EURO 37,NELLFlats00009197,EURO 36,NELLFlats00009198;1285.00;;;<p>wipe with dry cloth</p>;;;na;;zerotype;;Fall;;No
2396992;NLR-328-BlueOff White-2396992;NLR-328-Blue-6;Draft;Flats;Nell;Adults-Women;Women;Blue;Off White;;Fashion;Casual;2018;EURO 41,NELLFlats00009187,EURO 40,NELLFlats00009188,EURO 39,NELLFlats00009189,EURO 38,NELLFlats00009190,EURO 37,NELLFlats00009191,EURO 36,NELLFlats00009192;999.00;;;<p>wipe with dry cloth</p>;;;na;;zerotype;;Fall;;No
2396991;RK2016-193-White-2396991;RK2016-193-White-4;Draft;Flats;Nell;Adults-Women;Women;White;;;Fashion;Casual;2018;EURO 39,NELLFlats00009181,EURO 38,NELLFlats00009182,EURO 37,NELLFlats00009183,EURO 36,NELLFlats00009184,EURO 41,NELLFlats00009185,EURO 40,NELLFlats00009186;999.00;;;<p>wipe with dry cloth</p>;;;na;;zerotype;;Fall;;No
2396990;NLR-324-Black-2396990;NLR-324-Black-5;Draft;Flats;Nell;Adults-Women;Women;Black;;;Fashion;Casual;2018;EURO 40,NELLFlats00009175,EURO 39,NELLFlats00009176,EURO 38,NELLFlats00009177,EURO 37,NELLFlats00009178,EURO 41,NELLFlats00009179,EURO 36,NELLFlats00009180;1285.00;;;<p>wipe with dry cloth</p>;;;na;;zerotype;;Fall;;No
2396989;NLR-321-Pink-2396989;NLR-321-Pink-6;Draft;Flats;Nell;Adults-Women;Women;Pink;;;Fashion;Casual;2018;EURO 41,NELLFlats00009169,EURO 40,NELLFlats00009170,EURO 39,NELLFlats00009171,EURO 38,NELLFlats00009172,EURO 37,NELLFlats00009173,EURO 36,NELLFlats00009174;1285.00;;;<p>wipe with dry cloth</p>;;;na;;zerotype;;Fall;;No
2396988;NLR-320-Black-2396988;NLR-320-Black-5;Draft;Flats;Nell;Adults-Women;Women;Black;;;Fashion;Casual;2018;EURO 40,NELLFlats00009163,EURO 41,NELLFlats00009164,EURO 36,NELLFlats00009165,EURO 39,NELLFlats00009166,EURO 38,NELLFlats00009167,EURO 37,NELLFlats00009168;1285.00;;;<p>wipe with dry cloth</p>;;;na;;zerotype;;Fall;;No
2396987;NLB-300-Red-2396987;NLB-300-Red-4;Draft;Casual Shoes;Nell;Adults-Women;Women;Red;;;Fashion;Casual;2018;EURO 39,NELLCASH00003589,EURO 41,NELLCASH00003590,EURO 40,NELLCASH00003591,EURO 38,NELLCASH00003592,EURO 37,NELLCASH00003593,EURO 36,NELLCASH00003594;1485.00;;;<p>wipe with dry cloth</p>;;;na;;zerotype;;Fall;;No
2396986;NLB-304-Brown-2396986;NLB-304-Brown-6;Draft;Casual Shoes;Nell;Adults-Women;Women;Brown;;;Fashion;Casual;2018;EURO 41,NELLCASH00003583,EURO 40,NELLCASH00003584,EURO 38,NELLCASH00003585,EURO 36,NELLCASH00003586,EURO 39,NELLCASH00003587,EURO 37,NELLCASH00003588;1685.00;;;<p>wipe with dry cloth</p>;;;na;;zerotype;;Fall;;No
2396985;NLB-305-White-2396985;NLB-305-White-6;Draft;Casual Shoes;Nell;Adults-Women;Women;White;;;Fashion;Casual;2018;EURO 41,NELLCASH00003577,EURO 40,NELLCASH00003578,EURO 39,NELLCASH00003579,EURO 38,NELLCASH00003580,EURO 37,NELLCASH00003581,EURO 36,NELLCASH00003582;1685.00;;;<p>wipe with dry cloth</p>;;;na;;zerotype;;Fall;;No
2396984;NLB-303-Black-2396984;NLB-303-Black-1;Draft;Casual Shoes;Nell;Adults-Women;Women;Black;;;Fashion;Casual;2018;EURO 36,NELLCASH00003571,EURO 41,NELLCASH00003572,EURO 40,NELLCASH00003573,EURO 39,NELLCASH00003574,EURO 38,NELLCASH00003575,EURO 37,NELLCASH00003576;1685.00;;;<p>wipe with dry cloth</p>;;;na;;zerotype;;Fall;;No
2396983;NLB-302-Brown-2396983;NLB-302-Brown-6;Draft;Casual Shoes;Nell;Adults-Women;Women;Brown;;;Fashion;Casual;2018;EURO 41,NELLCASH00003565,EURO 40,NELLCASH00003566,EURO 39,NELLCASH00003567,EURO 38,NELLCASH00003568,EURO 37,NELLCASH00003569,EURO 36,NELLCASH00003570;1285.00;;;<p>wipe with dry cloth</p>;;;na;;zerotype;;Fall;;No
2396982;NLB-300-Green-2396982;NLB-300-Green-6;Draft;Casual Shoes;Nell;Adults-Women;Women;Green;;;Fashion;Casual;2018;EURO 41,NELLCASH00003559,EURO 38,NELLCASH00003560,EURO 37,NELLCASH00003561,EURO 36,NELLCASH00003562,EURO 40,NELLCASH00003563,EURO 39,NELLCASH00003564;1485.00;;;<p>wipe with dry cloth</p>;;;na;;zerotype;;Fall;;No
2396981;NLB-303-White-2396981;NLB-303-White-2;Draft;Casual Shoes;Nell;Adults-Women;Women;White;;;Fashion;Casual;2018;EURO 37,NELLCASH00003553,EURO 36,NELLCASH00003554,EURO 41,NELLCASH00003555,EURO 40,NELLCASH00003556,EURO 39,NELLCASH00003557,EURO 38,NELLCASH00003558;1685.00;;;<p>wipe with dry cloth</p>;;;n;;zerotype;;Fall;;No
2396979;NLB-300-Yellow-2396979;NLB-300-Yellow-6;Draft;Casual Shoes;Nell;Adults-Women;Women;Yellow;;;Fashion;Casual;2018;EURO 41,NELLCASH00003547,EURO 40,NELLCASH00003548,EURO 37,NELLCASH00003549,EURO 36,NELLCASH00003550,EURO 39,NELLCASH00003551,EURO 38,NELLCASH00003552;1485.00;;;<p>wipe with dry cloth</p>;;;na;;zerotype;;Fall;;No
2396975;NLH-331-Red-2396975;NLH-331-Red-1;Draft;Casual Shoes;Nell;Adults-Women;Women;Red;;;Fashion;Casual;2018;EURO 36,NELLCASH00003541,EURO 41,NELLCASH00003542,EURO 40,NELLCASH00003543,EURO 39,NELLCASH00003544,EURO 38,NELLCASH00003545,EURO 37,NELLCASH00003546;999.00;;;<p>wipe with dry cloth</p>;;;na;;zerotype;;Fall;;No
2396972;NLB-302-Black-2396972;NLB-302-Black-3;Draft;Casual Shoes;Nell;Adults-Women;Women;Black;;;Fashion;Casual;2018;EURO 38,NELLCASH00003535,EURO 41,NELLCASH00003536,EURO 37,NELLCASH00003537,EURO 36,NELLCASH00003538,EURO 40,NELLCASH00003539,EURO 39,NELLCASH00003540;1285.00;;;<p>wipe with dry cloth</p>;;;na;;zerotype;;Fall;;No
2396971;NLB-304-Black-2396971;NLB-304-Black-3;Draft;Casual Shoes;Nell;Adults-Women;Women;Black;;;Fashion;Casual;2018;EURO 38,NELLCASH00003529,EURO 37,NELLCASH00003530,EURO 36,NELLCASH00003531,EURO 41,NELLCASH00003532,EURO 40,NELLCASH00003533,EURO 39,NELLCASH00003534;1685.00;;;<p>wipe with dry cloth</p>;;;na;;zerotype;;Fall;;No
2396970;NLB-301-Tan-2396970;NLB-301-Tan-2;Draft;Casual Shoes;Nell;Adults-Women;Women;Tan;;;Fashion;Casual;2018;EURO 37,NELLCASH00003523,EURO 41,NELLCASH00003524,EURO 40,NELLCASH00003525,EURO 36,NELLCASH00003526,EURO 39,NELLCASH00003527,EURO 38,NELLCASH00003528;1685.00;;;<p>wipe with dry cloth</p>;;;na;;zerotype;;Fall;;No
2396969;NLB-300-Orange-2396969;NLB-300-Orange-6;Draft;Casual Shoes;Nell;Adults-Women;Women;Orange;;;Fashion;Casual;2018;EURO 41,NELLCASH00003517,EURO 40,NELLCASH00003518,EURO 37,NELLCASH00003519,EURO 36,NELLCASH00003520,EURO 39,NELLCASH00003521,EURO 38,NELLCASH00003522;1485.00;;;<p>wipe with dry cloth</p>;;;na;;zerotype;;Fall;;No
2396968;NLB-305-Black-2396968;NLB-305-Black-6;Draft;Casual Shoes;Nell;Adults-Women;Women;Black;;;Fashion;Casual;2018;EURO 41,NELLCASH00003511,EURO 40,NELLCASH00003512,EURO 39,NELLCASH00003513,EURO 38,NELLCASH00003514,EURO 37,NELLCASH00003515,EURO 36,NELLCASH00003516;1685.00;;;<p>wipe with dry cloth</p>;;;na;;zerotype;;Fall;;No
2396967;NLB-301-Brown-2396967;NLB-301-Brown-4;Draft;Casual Shoes;Nell;Adults-Women;Women;Brown;;;Fashion;Casual;2018;EURO 39,NELLCASH00003505,EURO 38,NELLCASH00003506,EURO 37,NELLCASH00003507,EURO 41,NELLCASH00003508,EURO 36,NELLCASH00003509,EURO 40,NELLCASH00003510;1685.00;;;<p>wipe with dry cloth</p>;;;na;;zerotype;;Fall;;No
2396966;NLH-297-Beige-2396966;NLH-297-Beige-6;Draft;Casual Shoes;Nell;Adults-Women;Women;Beige;;;Fashion;Casual;2018;EURO 41,NELLCASH00003499,EURO 40,NELLCASH00003500,EURO 39,NELLCASH00003501,EURO 38,NELLCASH00003502,EURO 37,NELLCASH00003503,EURO 36,NELLCASH00003504;999.00;;;<p>wipe with dry cloth</p>;;;na;;zerotype;;Fall;;No
2396965;NLV-332-Beige-2396965;NLV-332-Beige-3;Draft;Heels;Nell;Adults-Women;Women;Beige;;;Fashion;Casual;2017;EURO 38,NELLHeels00011716,EURO 37,NELLHeels00011717,EURO 36,NELLHeels00011718,EURO 41,NELLHeels00011719,EURO 40,NELLHeels00011720,EURO 39,NELLHeels00011721;999.00;;;<p>wipe with dry cloth</p>;;;na;;zerotype;;Fall;;No
2396964;NLB-318-Beige-2396964;NLB-318-Beige-6;Draft;Heels;Nell;Adults-Women;Women;Beige;;;Fashion;Casual;2017;EURO 41,NELLHeels00011710,EURO 40,NELLHeels00011711,EURO 38,NELLHeels00011712,EURO 39,NELLHeels00011713,EURO 36,NELLHeels00011714,EURO 37,NELLHeels00011715;1485.00;;;<p>wipe with dry cloth</p>;;;na;;zerotype;;Fall;;No
2396963;NLB-319-Brown-2396963;NLB-319-Brown-1;Draft;Heels;Nell;Adults-Women;Women;Brown;;;Fashion;Casual;2017;EURO 36,NELLHeels00011704,EURO 40,NELLHeels00011705,EURO 39,NELLHeels00011706,EURO 38,NELLHeels00011707,EURO 37,NELLHeels00011708,EURO 41,NELLHeels00011709;1485.00;;;<p>wipe with dry cloth</p>;;;na;;zerotype;;Fall;;No
2396962;NLB-318-Black-2396962;NLB-318-Black-6;Draft;Heels;Nell;Adults-Women;Women;Black;;;Fashion;Casual;2017;EURO 41,NELLHeels00011698,EURO 37,NELLHeels00011699,EURO 38,NELLHeels00011700,EURO 39,NELLHeels00011701,EURO 40,NELLHeels00011702,EURO 36,NELLHeels00011703;1485.00;;;<p>wipe with dry cloth</p>;;;na;;zerotype;;Fall;;No
