Style ID;Vendor Article Number;Vendor Article Name;Active Status;Article type;Brand;Age Group;Gender;Base Colour;Colour1;Colour2;Fashion Type;Usage;Year;Size - SKU code pair;MRP;Style Description;Style Note;Materials and Care Description;Size and Fit Description;Size Chart Path;Product Display Name;Tags;Product Type;Classification Brand;Season;Comments;Upload Images
2184182;19-4841-11-45-Black-2184182;19-4841;Draft;Formal Shoes;Metro;Adults-Men;Men;Black;;;Fashion;;2017;40,MTROFOSH00001994,41,MTROFOSH00001995,42,MTROFOSH00001996,43,MTROFOSH00001997,44,MTROFOSH00001998,45,MTROFOSH00001999;3490.00;;;<p>Rotate Your Pair Of Shoes Once Every Other Day, Allowing Them To De-Odorize And Retain Their Shapes</p>;;;;;zerotype;;Winter;;No
2184181;19-4410-44-45-Maroon-2184181;19-4410;Draft;Formal Shoes;Metro;Adults-Men;Men;Maroon;;;Fashion;;2017;40,MTROFOSH00001988,41,MTROFOSH00001989,42,MTROFOSH00001990,43,MTROFOSH00001991,44,MTROFOSH00001992,45,MTROFOSH00001993;3290.00;;;<p>Rotate Your Pair Of Shoes Once Every Other Day, Allowing Them To De-Odorize And Retain Their Shapes</p>;;;;;zerotype;;Winter;;No
2184180;19-4379-44-45-Maroon-2184180;19-4379;Draft;Formal Shoes;Metro;Adults-Men;Men;Maroon;;;Fashion;;2017;40,MTROFOSH00001982,41,MTROFOSH00001983,42,MTROFOSH00001984,43,MTROFOSH00001985,44,MTROFOSH00001986,45,MTROFOSH00001987;2990.00;;;<p>Rotate Your Pair Of Shoes Once Every Other Day, Allowing Them To De-Odorize And Retain Their Shapes</p>;;;;;zerotype;;Winter;;No
2184179;19-4346-23-45-Tan-2184179;19-4346;Draft;Formal Shoes;Metro;Adults-Men;Men;Tan;;;Fashion;;2017;40,MTROFOSH00001976,41,MTROFOSH00001977,42,MTROFOSH00001978,43,MTROFOSH00001979,44,MTROFOSH00001980,45,MTROFOSH00001981;3290.00;;;<p>Rotate Your Pair Of Shoes Once Every Other Day, Allowing Them To De-Odorize And Retain Their Shapes</p>;;;;;zerotype;;Winter;;No
2184178;19-4346-11-45-Black-2184178;19-4346;Draft;Formal Shoes;Metro;Adults-Men;Men;Black;;;Fashion;;2017;40,MTROFOSH00001970,41,MTROFOSH00001971,42,MTROFOSH00001972,43,MTROFOSH00001973,44,MTROFOSH00001974,45,MTROFOSH00001975;3290.00;;;<p>Rotate Your Pair Of Shoes Once Every Other Day, Allowing Them To De-Odorize And Retain Their Shapes</p>;;;;;zerotype;;Winter;;No
2184177;19-4223-44-45-Maroon-2184177;19-4223;Draft;Formal Shoes;Metro;Adults-Men;Men;Maroon;;;Fashion;;2017;40,MTROFOSH00001964,41,MTROFOSH00001965,42,MTROFOSH00001966,43,MTROFOSH00001967,44,MTROFOSH00001968,45,MTROFOSH00001969;3290.00;;;<p>Rotate Your Pair Of Shoes Once Every Other Day, Allowing Them To De-Odorize And Retain Their Shapes</p>;;;;;zerotype;;Winter;;No
2184176;19-4203-23-45-Tan-2184176;19-4203;Draft;Formal Shoes;Metro;Adults-Men;Men;Tan;;;Fashion;;2017;40,MTROFOSH00001958,41,MTROFOSH00001959,42,MTROFOSH00001960,43,MTROFOSH00001961,44,MTROFOSH00001962,45,MTROFOSH00001963;2690.00;;;<p>Rotate Your Pair Of Shoes Once Every Other Day, Allowing Them To De-Odorize And Retain Their Shapes</p>;;;;;zerotype;;Winter;;No
2184175;18-539-16-45-White-2184175;18-539;Draft;Sandals;Metro;Adults-Men;Men;White;;;Fashion;;2017;40,MTROSNDL00002778,41,MTROSNDL00002779,42,MTROSNDL00002780,43,MTROSNDL00002781,44,MTROSNDL00002782,45,MTROSNDL00002783;2690.00;;;<p>Rotate Your Pair Of Shoes Once Every Other Day, Allowing Them To De-Odorize And Retain Their Shapes</p>;;;;;zerotype;;Winter;;No
2184174;18-212-11-45-Black-2184174;18-212;Draft;Sandals;Metro;Adults-Men;Men;Black;;;Fashion;;2017;40,MTROSNDL00002772,41,MTROSNDL00002773,42,MTROSNDL00002774,43,MTROSNDL00002775,44,MTROSNDL00002776,45,MTROSNDL00002777;2290.00;;;<p>Rotate Your Pair Of Shoes Once Every Other Day, Allowing Them To De-Odorize And Retain Their Shapes</p>;;;;;zerotype;;Winter;;No
2184173;16-8744-11-45-Black-2184173;16-8744;Draft;Sandals;Metro;Adults-Men;Men;Black;;;Fashion;;2017;40,MTROSNDL00002766,41,MTROSNDL00002767,42,MTROSNDL00002768,43,MTROSNDL00002769,44,MTROSNDL00002770,45,MTROSNDL00002771;1690.00;;;<p>Rotate Your Pair Of Shoes Once Every Other Day, Allowing Them To De-Odorize And Retain Their Shapes</p>;;;;;zerotype;;Winter;;No
2184172;16-8743-11-45-Black-2184172;16-8743;Draft;Sandals;Metro;Adults-Men;Men;Black;;;Fashion;;2017;40,MTROSNDL00002760,41,MTROSNDL00002761,42,MTROSNDL00002762,43,MTROSNDL00002763,44,MTROSNDL00002764,45,MTROSNDL00002765;1690.00;;;<p>Rotate Your Pair Of Shoes Once Every Other Day, Allowing Them To De-Odorize And Retain Their Shapes</p>;;;;;zerotype;;Winter;;No
2184171;16-8608-11-45-Black-2184171;16-8608;Draft;Sandals;Metro;Adults-Men;Men;Black;;;Fashion;;2017;40,MTROSNDL00002754,41,MTROSNDL00002755,42,MTROSNDL00002756,43,MTROSNDL00002757,44,MTROSNDL00002758,45,MTROSNDL00002759;1490.00;;;<p>Rotate Your Pair Of Shoes Once Every Other Day, Allowing Them To De-Odorize And Retain Their Shapes</p>;;;;;zerotype;;Winter;;No
2184170;16-8591-23-45-Tan-2184170;16-8591;Draft;Sandals;Metro;Adults-Men;Men;Tan;;;Fashion;;2017;40,MTROSNDL00002748,41,MTROSNDL00002749,42,MTROSNDL00002750,43,MTROSNDL00002751,44,MTROSNDL00002752,45,MTROSNDL00002753;1290.00;;;<p>Rotate Your Pair Of Shoes Once Every Other Day, Allowing Them To De-Odorize And Retain Their Shapes</p>;;;;;zerotype;;Winter;;No
2184169;16-8591-16-45-White-2184169;16-8591;Draft;Sandals;Metro;Adults-Men;Men;White;;;Fashion;;2017;40,MTROSNDL00002742,41,MTROSNDL00002743,42,MTROSNDL00002744,43,MTROSNDL00002745,44,MTROSNDL00002746,45,MTROSNDL00002747;1290.00;;;<p>Rotate Your Pair Of Shoes Once Every Other Day, Allowing Them To De-Odorize And Retain Their Shapes</p>;;;;;zerotype;;Winter;;No
2184168;16-8591-11-45-Black-2184168;16-8591;Draft;Sandals;Metro;Adults-Men;Men;Black;;;Fashion;;2017;40,MTROSNDL00002736,41,MTROSNDL00002737,42,MTROSNDL00002738,43,MTROSNDL00002739,44,MTROSNDL00002740,45,MTROSNDL00002741;1290.00;;;<p>Rotate Your Pair Of Shoes Once Every Other Day, Allowing Them To De-Odorize And Retain Their Shapes</p>;;;;;zerotype;;Winter;;No
2184155;16-8285-11-45-Black-2184155;16-8285;Draft;Sandals;Metro;Adults-Men;Men;Black;;;Fashion;;2017;40,MTROSNDL00002730,41,MTROSNDL00002731,42,MTROSNDL00002732,43,MTROSNDL00002733,44,MTROSNDL00002734,45,MTROSNDL00002735;1490.00;;;<p>Rotate Your Pair Of Shoes Once Every Other Day, Allowing Them To De-Odorize And Retain Their Shapes</p>;;;;;zerotype;;Winter;;No
2184141;19-3585-16-45-White-2184141;19-3585;Draft;Casual Shoes;Metro;Adults-Men;Men;White;;;Fashion;;2017;40,MTROCASH00001488,41,MTROCASH00001489,42,MTROCASH00001490,43,MTROCASH00001491,44,MTROCASH00001492,45,MTROCASH00001493;2290.00;;;<p>Rotate Your Pair Of Shoes Once Every Other Day, Allowing Them To De-Odorize And Retain Their Shapes</p>;;;;;zerotype;;Winter;;No
2184108;19-2133-23-45-Tan-2184108;19-2133;Draft;Casual Shoes;Metro;Adults-Men;Men;Tan;;;Fashion;;2017;40,MTROCASH00001482,41,MTROCASH00001483,42,MTROCASH00001484,43,MTROCASH00001485,44,MTROCASH00001486,45,MTROCASH00001487;2290.00;;;<p>Rotate Your Pair Of Shoes Once Every Other Day, Allowing Them To De-Odorize And Retain Their Shapes</p>;;;;;zerotype;;Winter;;No
2184062;19-2133-16-45-White-2184062;19-2133;Draft;Casual Shoes;Metro;Adults-Men;Men;White;;;Fashion;;2017;40,MTROCASH00001476,41,MTROCASH00001477,42,MTROCASH00001478,43,MTROCASH00001479,44,MTROCASH00001480,45,MTROCASH00001481;2290.00;;;<p>Rotate Your Pair Of Shoes Once Every Other Day, Allowing Them To De-Odorize And Retain Their Shapes</p>;;;;;zerotype;;Winter;;No
2184017;19-4257-11-45-Black-2184017;19-4257;Draft;Casual Shoes;Metro;Adults-Men;Men;Black;;;Fashion;;2017;40,MTROCASH00001470,41,MTROCASH00001471,42,MTROCASH00001472,43,MTROCASH00001473,44,MTROCASH00001474,45,MTROCASH00001475;3490.00;;;<p>Rotate Your Pair Of Shoes Once Every Other Day, Allowing Them To De-Odorize And Retain Their Shapes</p>;;;;;zerotype;;Winter;;No
2183973;71-9190-23-45-Brown-2183973;71-9190;Draft;Casual Shoes;Metro;Adults-Men;Men;Brown;;;Fashion;;2017;40,MTROCASH00001464,41,MTROCASH00001465,42,MTROCASH00001466,43,MTROCASH00001467,44,MTROCASH00001468,45,MTROCASH00001469;2990.00;;;<p>Rotate Your Pair Of Shoes Once Every Other Day, Allowing Them To De-Odorize And Retain Their Shapes</p>;;;;;zerotype;;Winter;;No
2183934;71-9190-12-45-Brown-2183934;71-9190;Draft;Casual Shoes;Metro;Adults-Men;Men;Brown;;;Fashion;;2017;40,MTROCASH00001458,41,MTROCASH00001459,42,MTROCASH00001460,43,MTROCASH00001461,44,MTROCASH00001462,45,MTROCASH00001463;2990.00;;;<p>Rotate Your Pair Of Shoes Once Every Other Day, Allowing Them To De-Odorize And Retain Their Shapes</p>;;;;;zerotype;;Winter;;No
2183895;71-9190-11-45-Black-2183895;71-9190;Draft;Casual Shoes;Metro;Adults-Men;Men;Black;;;Fashion;;2017;40,MTROCASH00001452,41,MTROCASH00001453,42,MTROCASH00001454,43,MTROCASH00001455,44,MTROCASH00001456,45,MTROCASH00001457;2990.00;;;<p>Rotate Your Pair Of Shoes Once Every Other Day, Allowing Them To De-Odorize And Retain Their Shapes</p>;;;;;zerotype;;Winter;;No
