Style ID;Vendor Article Number;Vendor Article Name;Active Status;Article type;Brand;Age Group;Gender;Base Colour;Colour1;Colour2;Fashion Type;Usage;Year;Size - SKU code pair;MRP;Style Description;Style Note;Materials and Care Description;Size and Fit Description;Size Chart Path;Product Display Name;Tags;Product Type;Classification Brand;Season;Comments;Upload Images
2089595;PIBW200046INDIGO16-INDIGO-2089595;PIBW200046;Draft;Shirts;Pepe Jeans;Kids-Boys;Boys;NA;;;Fashion;;2017;10,PEJESHRT00010480,12,PEJESHRT00010481,14,PEJESHRT00010482,16,PEJESHRT00010483;2099.00;;;<p>99% COTTON,  1% SPANDEX</p>;;;;;zerotype;;Winter;;No
2089594;PIBW200045INDIGO8-INDIGO-2089594;PIBW200045;Draft;Shirts;Pepe Jeans;Kids-Boys;Boys;NA;;;Fashion;;2017;4,PEJESHRT00010477,6,PEJESHRT00010478,8,PEJESHRT00010479;2099.00;;;<p>99% COTTON,  1% SPANDEX</p>;;;;;zerotype;;Winter;;No
2089586;PIBW200036SKY16-SKY-2089586;PIBW200036;Draft;Shirts;Pepe Jeans;Kids-Boys;Boys;NA;;;Fashion;;2017;10,PEJESHRT00010452,12,PEJESHRT00010453,14,PEJESHRT00010454,16,PEJESHRT00010455;1699.00;;;<p>100% COTTON</p>;;;;;zerotype;;Winter;;No
2089585;PIBW200035SKY8-SKY-2089585;PIBW200035;Draft;Shirts;Pepe Jeans;Kids-Boys;Boys;NA;;;Fashion;;2017;4,PEJESHRT00010449,6,PEJESHRT00010450,8,PEJESHRT00010451;1599.00;;;<p>100% COTTON</p>;;;;;zerotype;;Winter;;No
2068118;PM3032317283XL-OLIVE-2068118;PIMW200122;Draft;Shirts;Pepe Jeans;Adults-Men;Men;;;;Fashion;;2017;38,PEJESHRT00010419,40,PEJESHRT00010420,42,PEJESHRT00010421,44,PEJESHRT00010422,46,PEJESHRT00010423,48,PEJESHRT00010424;2799.00;;;<p>100% COTTON</p>;;;;;zerotype;;Winter;;No
2068116;PM3032596653XL-GREEN-2068116;PIMW200112;Draft;Shirts;Pepe Jeans;Adults-Men;Men;;;;Fashion;;2017;38,PEJESHRT00010407,40,PEJESHRT00010408,42,PEJESHRT00010409,44,PEJESHRT00010410,46,PEJESHRT00010411,48,PEJESHRT00010412;2699.00;;;<p>100% COTTON</p>;;;;;zerotype;;Winter;;No
2068115;PM3032837283XL-OLIVE-2068115;PIMW200106;Draft;Shirts;Pepe Jeans;Adults-Men;Men;;;;Fashion;;2017;38,PEJESHRT00010401,40,PEJESHRT00010402,42,PEJESHRT00010403,44,PEJESHRT00010404,46,PEJESHRT00010405,48,PEJESHRT00010406;1999.00;;;<p>55% COTTON 45% LINEN</p>;;;;;zerotype;;Winter;;No
2068114;PM303283878XXL-BROWN-2068114;PIMW200106;Draft;Shirts;Pepe Jeans;Adults-Men;Men;;;;Fashion;;2017;38,PEJESHRT00010396,40,PEJESHRT00010397,42,PEJESHRT00010398,44,PEJESHRT00010399,46,PEJESHRT00010400;1999.00;;;<p>55% COTTON 45% LINEN</p>;;;;ftod-bbd17;zerotype;;Winter;ftod-bbd17;No
2068113;PM3033421353XL-ORANGE-2068113;PIMW200101;Draft;Shirts;Pepe Jeans;Adults-Men;Men;;;;Fashion;;2017;38,PEJESHRT00010390,40,PEJESHRT00010391,42,PEJESHRT00010392,44,PEJESHRT00010393,46,PEJESHRT00010394,48,PEJESHRT00010395;2299.00;;;<p>100% COTTON</p>;;;;ftod-bbd17;zerotype;;Winter;ftod-bbd17;No
2068110;PM3033428783XL-BROWN-2068110;PIMW200101;Draft;Shirts;Pepe Jeans;Adults-Men;Men;;;;Fashion;;2017;38,PEJESHRT00010372,40,PEJESHRT00010373,42,PEJESHRT00010374,44,PEJESHRT00010375,46,PEJESHRT00010376,48,PEJESHRT00010377;2299.00;;;<p>100% COTTON</p>;;;;;zerotype;;Winter;;No
2068109;PM3032865953XL-NAVY-2068109;PIMW200095;Draft;Shirts;Pepe Jeans;Adults-Men;Men;;;;Fashion;;2017;38,PEJESHRT00010366,40,PEJESHRT00010367,42,PEJESHRT00010368,44,PEJESHRT00010369,46,PEJESHRT00010370,48,PEJESHRT00010371;1999.00;;;<p>100% COTTON</p>;;;;ftod-bbd17;zerotype;;Winter;ftod-bbd17;No
2068108;PM3032255953XL-NAVY-2068108;PIMW200072;Draft;Shirts;Pepe Jeans;Adults-Men;Men;;;;Fashion;;2017;38,PEJESHRT00010360,40,PEJESHRT00010361,42,PEJESHRT00010362,44,PEJESHRT00010363,46,PEJESHRT00010364,48,PEJESHRT00010365;2699.00;;;<p>100% COTTON</p>;;;;ftod-bbd17;zerotype;;Winter;ftod-bbd17;No
2068107;PM3031945513XL-BLUE-2068107;PIMW200069;Draft;Shirts;Pepe Jeans;Adults-Men;Men;;;;Fashion;;2017;38,PEJESHRT00010354,40,PEJESHRT00010355,42,PEJESHRT00010356,44,PEJESHRT00010357,46,PEJESHRT00010358,48,PEJESHRT00010359;2999.00;;;<p>100% COTTON</p>;;;;;zerotype;;Winter;;No
2068104;PM3032025953XL-NAVY-2068104;PIMW200061;Draft;Shirts;Pepe Jeans;Adults-Men;Men;;;;Fashion;;2017;38,PEJESHRT00010340,40,PEJESHRT00010341,42,PEJESHRT00010342,44,PEJESHRT00010343,46,PEJESHRT00010344,48,PEJESHRT00010345;2999.00;;;<p>100% COTTON</p>;;;;;zerotype;;Winter;;No
2068103;PM3032345953XL-NAVY-2068103;PIMW200051;Draft;Shirts;Pepe Jeans;Adults-Men;Men;;;;Fashion;;2017;38,PEJESHRT00010334,40,PEJESHRT00010335,42,PEJESHRT00010336,44,PEJESHRT00010337,46,PEJESHRT00010338,48,PEJESHRT00010339;2799.00;;;<p>100% COTTON</p>;;;;ftod-bbd17;zerotype;;Winter;ftod-bbd17;No
2068102;PM3032015073XL-ICE-2068102;PIMW200049;Draft;Shirts;Pepe Jeans;Adults-Men;Men;;;;Fashion;;2017;38,PEJESHRT00010328,40,PEJESHRT00010329,42,PEJESHRT00010330,44,PEJESHRT00010331,46,PEJESHRT00010332,48,PEJESHRT00010333;2499.00;;;<p>100% COTTON</p>;;;;ftod-bbd17;zerotype;;Winter;ftod-bbd17;No
2068101;PM3032015813XL-DK-BLUE-2068101;PIMW200049;Draft;Shirts;Pepe Jeans;Adults-Men;Men;;;;Fashion;;2017;38,PEJESHRT00010322,40,PEJESHRT00010323,42,PEJESHRT00010324,44,PEJESHRT00010325,46,PEJESHRT00010326,48,PEJESHRT00010327;2499.00;;;<p>100% COTTON</p>;;;;;zerotype;;Winter;;No
2068098;PM3032365953XL-NAVY-2068098;PIMW200036;Draft;Shirts;Pepe Jeans;Adults-Men;Men;;;;Fashion;;2017;38,PEJESHRT00010304,40,PEJESHRT00010305,42,PEJESHRT00010306,44,PEJESHRT00010307,46,PEJESHRT00010308,48,PEJESHRT00010309;1999.00;;;<p>100% COTTON</p>;;;;;zerotype;;Winter;;No
2068096;PM3032388003XL-WHITE-2068096;PIMW200014;Draft;Shirts;Pepe Jeans;Adults-Men;Men;;;;Fashion;;2017;38,PEJESHRT00010292,40,PEJESHRT00010293,42,PEJESHRT00010294,44,PEJESHRT00010295,46,PEJESHRT00010296,48,PEJESHRT00010297;1899.00;;;<p>100% COTTON</p>;;;;;zerotype;;Winter;;No
2068095;PM3031965953XL-NAVY-2068095;PIMW200004;Draft;Shirts;Pepe Jeans;Adults-Men;Men;;;;Fashion;;2017;38,PEJESHRT00010286,40,PEJESHRT00010287,42,PEJESHRT00010288,44,PEJESHRT00010289,46,PEJESHRT00010290,48,PEJESHRT00010291;1899.00;;;<p>100% COTTON</p>;;;;ftod-bbd17;zerotype;;Winter;ftod-bbd17;No
2068094;PM3032742553XL-RED-2068094;PIMW200003;Draft;Shirts;Pepe Jeans;Adults-Men;Men;;;;Fashion;;2017;38,PEJESHRT00010280,40,PEJESHRT00010281,42,PEJESHRT00010282,44,PEJESHRT00010283,46,PEJESHRT00010284,48,PEJESHRT00010285;1999.00;;;<p>100% COTTON</p>;;;;ftod-bbd17;zerotype;;Winter;ftod-bbd17;No
2068093;PM3033516653XL-GREEN-2068093;PIMW200001;Draft;Shirts;Pepe Jeans;Adults-Men;Men;;;;Fashion;;2017;38,PEJESHRT00010274,40,PEJESHRT00010275,42,PEJESHRT00010276,44,PEJESHRT00010277,46,PEJESHRT00010278,48,PEJESHRT00010279;1999.00;;;<p>100% COTTON</p>;;;;ftod-bbd17;zerotype;;Winter;ftod-bbd17;No
