Style ID;Vendor Article Number;Vendor Article Name;Active Status;Article type;Brand;Age Group;Gender;Base Colour;Colour1;Colour2;Fashion Type;Usage;Year;Size - SKU code pair;MRP;Style Description;Style Note;Materials and Care Description;Size and Fit Description;Size Chart Path;Product Display Name;Tags;Product Type;Classification Brand;Season;Comments;Upload Images
1959006;A5335er-White-1959006;Earrings;Draft;Earrings;Shining Diva;Adults-Women;Women;;;;Fashion;;2017;Onesize,SHDVEARR00000308;832.00;;;;;;;;zerotype;;Summer;;No
1959005;A8479r-Blue-1959005;Ring;Draft;Ring;Shining Diva;Adults-Women;Women;;;;Fashion;;2017;Onesize,SHDVRING00000017;832.00;;;;;;;;zerotype;;Summer;;No
1959004;A8468r-Gold-1959004;Ring;Draft;Ring;Shining Diva;Adults-Women;Women;;;;Fashion;;2017;Onesize,SHDVRING00000016;832.00;;;;;;;;zerotype;;Summer;;No
1959003;A8467r-Silver-1959003;Ring;Draft;Ring;Shining Diva;Adults-Women;Women;;;;Fashion;;2017;Onesize,SHDVRING00000015;713.00;;;;;;;;zerotype;;Summer;;No
1959002;A8466r-Silver-1959002;Ring;Draft;Ring;Shining Diva;Adults-Women;Women;;;;Fashion;;2017;Onesize,SHDVRING00000014;832.00;;;;;;;;zerotype;;Summer;;No
1959001;A8469r-Gold-1959001;Ring;Draft;Ring;Shining Diva;Adults-Women;Women;;;;Fashion;;2017;Onesize,SHDVRING00000013;832.00;;;;;;;;zerotype;;Summer;;No
1959000;A8465r-Silver-1959000;Ring;Draft;Ring;Shining Diva;Adults-Women;Women;;;;Fashion;;2017;Onesize,SHDVRING00000012;832.00;;;;;;;;zerotype;;Summer;;No
1958999;A8464r-Silver-1958999;Ring;Draft;Ring;Shining Diva;Adults-Women;Women;;;;Fashion;;2017;Onesize,SHDVRING00000011;832.00;;;;;;;;zerotype;;Summer;;No
1958998;A8463r-Multi-1958998;Ring;Draft;Ring;Shining Diva;Adults-Women;Women;;;;Fashion;;2017;Onesize,SHDVRING00000010;832.00;;;;;;;;zerotype;;Summer;;No
1958997;A8242r-Silver-1958997;Ring;Draft;Ring;Shining Diva;Adults-Women;Women;;;;Fashion;;2017;Onesize,SHDVRING00000009;832.00;;;;;;;;zerotype;;Summer;;No
1958996;A8241r-Silver-1958996;Ring;Draft;Ring;Shining Diva;Adults-Women;Women;;;;Fashion;;2017;Onesize,SHDVRING00000008;832.00;;;;;;;;zerotype;;Summer;;No
1958995;A8240r-Gold-1958995;Ring;Draft;Ring;Shining Diva;Adults-Women;Women;;;;Fashion;;2017;Onesize,SHDVRING00000007;832.00;;;;;;;;zerotype;;Summer;;No
1958994;A8109r-Silver-1958994;Ring;Draft;Ring;Shining Diva;Adults-Women;Women;;;;Fashion;;2017;Onesize,SHDVRING00000006;832.00;;;;;;;;zerotype;;Summer;;No
1958993;A7092r-Gold-1958993;Ring;Draft;Ring;Shining Diva;Adults-Women;Women;;;;Fashion;;2017;Onesize,SHDVRING00000005;713.00;;;;;;;;zerotype;;Summer;;No
1958992;A6885r-Black-1958992;Ring;Draft;Ring;Shining Diva;Adults-Women;Women;;;;Fashion;;2017;Onesize,SHDVRING00000004;713.00;;;;;;;;zerotype;;Summer;;No
1958991;A6875r-Gold-1958991;Ring;Draft;Ring;Shining Diva;Adults-Women;Women;;;;Fashion;;2017;Onesize,SHDVRING00000003;713.00;;;;;;;;zerotype;;Summer;;No
1958990;A6870r-Multi-1958990;Ring;Draft;Ring;Shining Diva;Adults-Women;Women;;;;Fashion;;2017;Onesize,SHDVRING00000002;713.00;;;;;;;;zerotype;;Summer;;No
1958989;A4550r-Silver-1958989;Ring;Draft;Ring;Shining Diva;Adults-Women;Women;;;;Fashion;;2017;Onesize,SHDVRING00000001;832.00;;;;;;;;zerotype;;Summer;;No
1958988;A8539np-Black-1958988;Necklace;Draft;Necklace and Chains;Shining Diva;Adults-Women;Women;;;;Fashion;;2017;Onesize,SHDVNECK00000347;998.00;;;;;;;;zerotype;;Summer;;No
1958987;A8547np-Silver-1958987;Necklace;Draft;Necklace and Chains;Shining Diva;Adults-Women;Women;;;;Fashion;;2017;Onesize,SHDVNECK00000346;1165.00;;;;;;;;zerotype;;Summer;;No
1958986;A8548np-Silver-1958986;Necklace;Draft;Necklace and Chains;Shining Diva;Adults-Women;Women;;;;Fashion;;2017;Onesize,SHDVNECK00000345;1165.00;;;;;;;;zerotype;;Summer;;No
1958985;A8549np-Silver-1958985;Necklace;Draft;Necklace and Chains;Shining Diva;Adults-Women;Women;;;;Fashion;;2017;Onesize,SHDVNECK00000344;998.00;;;;;;;;zerotype;;Summer;;No
1958984;A8501np-Silver-1958984;Necklace;Draft;Necklace and Chains;Shining Diva;Adults-Women;Women;;;;Fashion;;2017;Onesize,SHDVNECK00000343;832.00;;;;;;;;zerotype;;Summer;;No
1958983;A8475np-Blue-1958983;Necklace;Draft;Necklace and Chains;Shining Diva;Adults-Women;Women;;;;Fashion;;2017;Onesize,SHDVNECK00000342;832.00;;;;;;;;zerotype;;Summer;;No
1958982;A8489np-Red-1958982;Necklace;Draft;Necklace and Chains;Shining Diva;Adults-Women;Women;;;;Fashion;;2017;Onesize,SHDVNECK00000341;832.00;;;;;;;;zerotype;;Summer;;No
1958981;A8483np-Silver-1958981;Necklace;Draft;Necklace and Chains;Shining Diva;Adults-Women;Women;;;;Fashion;;2017;Onesize,SHDVNECK00000340;915.00;;;;;;;;zerotype;;Summer;;No
1958980;A8482np-Silver-1958980;Necklace;Draft;Necklace and Chains;Shining Diva;Adults-Women;Women;;;;Fashion;;2017;Onesize,SHDVNECK00000339;998.00;;;;;;;;zerotype;;Summer;;No
1958979;A8481np-Silver-1958979;Necklace;Draft;Necklace and Chains;Shining Diva;Adults-Women;Women;;;;Fashion;;2017;Onesize,SHDVNECK00000338;998.00;;;;;;;;zerotype;;Summer;;No
1958978;A8474np-Silver-1958978;Necklace;Draft;Necklace and Chains;Shining Diva;Adults-Women;Women;;;;Fashion;;2017;Onesize,SHDVNECK00000337;1082.00;;;;;;;;zerotype;;Summer;;No
1958977;A8101np-Multi-1958977;Necklace;Draft;Necklace and Chains;Shining Diva;Adults-Women;Women;;;;Fashion;;2017;Onesize,SHDVNECK00000336;998.00;;;;;;;;zerotype;;Summer;;No
1958976;A8095np-Red-1958976;Necklace;Draft;Necklace and Chains;Shining Diva;Adults-Women;Women;;;;Fashion;;2017;Onesize,SHDVNECK00000335;998.00;;;;;;;;zerotype;;Summer;;No
1958975;A8437np-Silver-1958975;Necklace;Draft;Necklace and Chains;Shining Diva;Adults-Women;Women;;;;Fashion;;2017;Onesize,SHDVNECK00000334;915.00;;;;;;;;zerotype;;Summer;;No
1958974;A8435np-Silver-1958974;Necklace;Draft;Necklace and Chains;Shining Diva;Adults-Women;Women;;;;Fashion;;2017;Onesize,SHDVNECK00000333;915.00;;;;;;;;zerotype;;Summer;;No
1958973;A8433np-Gold-1958973;Necklace;Draft;Necklace and Chains;Shining Diva;Adults-Women;Women;;;;Fashion;;2017;Onesize,SHDVNECK00000332;915.00;;;;;;;;zerotype;;Summer;;No
1958972;A8430np-Gold-1958972;Necklace;Draft;Necklace and Chains;Shining Diva;Adults-Women;Women;;;;Fashion;;2017;Onesize,SHDVNECK00000331;832.00;;;;;;;;zerotype;;Summer;;No
1958971;A8429np-Gold-1958971;Necklace;Draft;Necklace and Chains;Shining Diva;Adults-Women;Women;;;;Fashion;;2017;Onesize,SHDVNECK00000330;1165.00;;;;;;;;zerotype;;Summer;;No
1958970;A8428np-Silver-1958970;Necklace;Draft;Necklace and Chains;Shining Diva;Adults-Women;Women;;;;Fashion;;2017;Onesize,SHDVNECK00000329;1165.00;;;;;;;;zerotype;;Summer;;No
1958969;A8427np-Black-1958969;Necklace;Draft;Necklace and Chains;Shining Diva;Adults-Women;Women;;;;Fashion;;2017;Onesize,SHDVNECK00000328;998.00;;;;;;;;zerotype;;Summer;;No
1958968;A8405np-Black-1958968;Necklace;Draft;Necklace and Chains;Shining Diva;Adults-Women;Women;;;;Fashion;;2017;Onesize,SHDVNECK00000327;832.00;;;;;;;;zerotype;;Summer;;No
1958967;A8398np-Blue-1958967;Necklace;Draft;Necklace and Chains;Shining Diva;Adults-Women;Women;;;;Fashion;;2017;Onesize,SHDVNECK00000326;998.00;;;;;;;;zerotype;;Summer;;No
1958966;A8385np-Black-1958966;Necklace;Draft;Necklace and Chains;Shining Diva;Adults-Women;Women;;;;Fashion;;2017;Onesize,SHDVNECK00000325;832.00;;;;;;;;zerotype;;Summer;;No
1958965;A8383np-Black-1958965;Necklace;Draft;Necklace and Chains;Shining Diva;Adults-Women;Women;;;;Fashion;;2017;Onesize,SHDVNECK00000324;832.00;;;;;;;;zerotype;;Summer;;No
1958964;A8382np-Black-1958964;Necklace;Draft;Necklace and Chains;Shining Diva;Adults-Women;Women;;;;Fashion;;2017;Onesize,SHDVNECK00000323;832.00;;;;;;;;zerotype;;Summer;;No
1958963;A8381np-Black-1958963;Necklace;Draft;Necklace and Chains;Shining Diva;Adults-Women;Women;;;;Fashion;;2017;Onesize,SHDVNECK00000322;832.00;;;;;;;;zerotype;;Summer;;No
1958962;A8380np-Black-1958962;Necklace;Draft;Necklace and Chains;Shining Diva;Adults-Women;Women;;;;Fashion;;2017;Onesize,SHDVNECK00000321;832.00;;;;;;;;zerotype;;Summer;;No
1958961;A8379np-Black-1958961;Necklace;Draft;Necklace and Chains;Shining Diva;Adults-Women;Women;;;;Fashion;;2017;Onesize,SHDVNECK00000320;832.00;;;;;;;;zerotype;;Summer;;No
1958960;A8378np-Red-1958960;Necklace;Draft;Necklace and Chains;Shining Diva;Adults-Women;Women;;;;Fashion;;2017;Onesize,SHDVNECK00000319;832.00;;;;;;;;zerotype;;Summer;;No
1958959;A8377np-Black-1958959;Necklace;Draft;Necklace and Chains;Shining Diva;Adults-Women;Women;;;;Fashion;;2017;Onesize,SHDVNECK00000318;832.00;;;;;;;;zerotype;;Summer;;No
1958958;A8376np-Black-1958958;Necklace;Draft;Necklace and Chains;Shining Diva;Adults-Women;Women;;;;Fashion;;2017;Onesize,SHDVNECK00000317;832.00;;;;;;;;zerotype;;Summer;;No
1958957;A8375np-Black-1958957;Necklace;Draft;Necklace and Chains;Shining Diva;Adults-Women;Women;;;;Fashion;;2017;Onesize,SHDVNECK00000316;832.00;;;;;;;;zerotype;;Summer;;No
1958956;A8374np-Black-1958956;Necklace;Draft;Necklace and Chains;Shining Diva;Adults-Women;Women;;;;Fashion;;2017;Onesize,SHDVNECK00000315;832.00;;;;;;;;zerotype;;Summer;;No
1958955;A8373np-Black-1958955;Necklace;Draft;Necklace and Chains;Shining Diva;Adults-Women;Women;;;;Fashion;;2017;Onesize,SHDVNECK00000314;832.00;;;;;;;;zerotype;;Summer;;No
1958954;A8372np-Black-1958954;Necklace;Draft;Necklace and Chains;Shining Diva;Adults-Women;Women;;;;Fashion;;2017;Onesize,SHDVNECK00000313;832.00;;;;;;;;zerotype;;Summer;;No
1958953;A8371np-Black-1958953;Necklace;Draft;Necklace and Chains;Shining Diva;Adults-Women;Women;;;;Fashion;;2017;Onesize,SHDVNECK00000312;832.00;;;;;;;;zerotype;;Summer;;No
1958952;A8370np-Black-1958952;Necklace;Draft;Necklace and Chains;Shining Diva;Adults-Women;Women;;;;Fashion;;2017;Onesize,SHDVNECK00000311;832.00;;;;;;;;zerotype;;Summer;;No
1958951;A8369np-White-1958951;Necklace;Draft;Necklace and Chains;Shining Diva;Adults-Women;Women;;;;Fashion;;2017;Onesize,SHDVNECK00000310;832.00;;;;;;;;zerotype;;Summer;;No
1958950;A8368np-Black-1958950;Necklace;Draft;Necklace and Chains;Shining Diva;Adults-Women;Women;;;;Fashion;;2017;Onesize,SHDVNECK00000309;832.00;;;;;;;;zerotype;;Summer;;No
1958949;A8367np-Purple-1958949;Necklace;Draft;Necklace and Chains;Shining Diva;Adults-Women;Women;;;;Fashion;;2017;Onesize,SHDVNECK00000308;832.00;;;;;;;;zerotype;;Summer;;No
1958948;A8366np-Black-1958948;Necklace;Draft;Necklace and Chains;Shining Diva;Adults-Women;Women;;;;Fashion;;2017;Onesize,SHDVNECK00000307;832.00;;;;;;;;zerotype;;Summer;;No
1958947;A8365np-Multi-1958947;Necklace;Draft;Necklace and Chains;Shining Diva;Adults-Women;Women;;;;Fashion;;2017;Onesize,SHDVNECK00000306;832.00;;;;;;;;zerotype;;Summer;;No
1958946;A8364np-Multi-1958946;Necklace;Draft;Necklace and Chains;Shining Diva;Adults-Women;Women;;;;Fashion;;2017;Onesize,SHDVNECK00000305;832.00;;;;;;;;zerotype;;Summer;;No
1958945;A8057np-Multi-1958945;Necklace;Draft;Necklace and Chains;Shining Diva;Adults-Women;Women;;;;Fashion;;2017;Onesize,SHDVNECK00000304;998.00;;;;;;;;zerotype;;Summer;;No
1958944;A8054np-Blue-1958944;Necklace;Draft;Necklace and Chains;Shining Diva;Adults-Women;Women;;;;Fashion;;2017;Onesize,SHDVNECK00000303;832.00;;;;;;;;zerotype;;Summer;;No
1958943;A7324np-Multi-1958943;Necklace;Draft;Necklace and Chains;Shining Diva;Adults-Women;Women;;;;Fashion;;2017;Onesize,SHDVNECK00000302;998.00;;;;;;;;zerotype;;Summer;;No
1958942;A8230np-Gold-1958942;Necklace;Draft;Necklace and Chains;Shining Diva;Adults-Women;Women;;;;Fashion;;2017;Onesize,SHDVNECK00000301;998.00;;;;;;;;zerotype;;Summer;;No
1958941;A8096np-Black-1958941;Necklace;Draft;Necklace and Chains;Shining Diva;Adults-Women;Women;;;;Fashion;;2017;Onesize,SHDVNECK00000300;998.00;;;;;;;;zerotype;;Summer;;No
1958940;A8215np-Black-1958940;Necklace;Draft;Necklace and Chains;Shining Diva;Adults-Women;Women;;;;Fashion;;2017;Onesize,SHDVNECK00000299;832.00;;;;;;;;zerotype;;Summer;;No
1958939;A8094np-White-1958939;Necklace;Draft;Necklace and Chains;Shining Diva;Adults-Women;Women;;;;Fashion;;2017;Onesize,SHDVNECK00000298;998.00;;;;;;;;zerotype;;Summer;;No
1958938;A8093np-Green-1958938;Necklace;Draft;Necklace and Chains;Shining Diva;Adults-Women;Women;;;;Fashion;;2017;Onesize,SHDVNECK00000297;998.00;;;;;;;;zerotype;;Summer;;No
1958937;A7988s-Red-1958937;Necklace;Draft;Necklace and Chains;Shining Diva;Adults-Women;Women;;;;Fashion;;2017;Onesize,SHDVNECK00000296;2415.00;;;;;;;;zerotype;;Summer;;No
1958936;A7987s-Green-1958936;Necklace;Draft;Necklace and Chains;Shining Diva;Adults-Women;Women;;;;Fashion;;2017;Onesize,SHDVNECK00000295;2665.00;;;;;;;;zerotype;;Summer;;No
1958935;A8014np-Gold-1958935;Necklace;Draft;Necklace and Chains;Shining Diva;Adults-Women;Women;;;;Fashion;;2017;Onesize,SHDVNECK00000294;832.00;;;;;;;;zerotype;;Summer;;No
1958934;A7924np-Gold-1958934;Necklace;Draft;Necklace and Chains;Shining Diva;Adults-Women;Women;;;;Fashion;;2017;Onesize,SHDVNECK00000293;832.00;;;;;;;;zerotype;;Summer;;No
1958933;A7389np-White-1958933;Necklace;Draft;Necklace and Chains;Shining Diva;Adults-Women;Women;;;;Fashion;;2017;Onesize,SHDVNECK00000292;832.00;;;;;;;;zerotype;;Summer;;No
1958932;A7083np-Black-1958932;Necklace;Draft;Necklace and Chains;Shining Diva;Adults-Women;Women;;;;Fashion;;2017;Onesize,SHDVNECK00000291;832.00;;;;;;;;zerotype;;Summer;;No
1958931;A6889np-Gold-1958931;Necklace;Draft;Necklace and Chains;Shining Diva;Adults-Women;Women;;;;Fashion;;2017;Onesize,SHDVNECK00000290;832.00;;;;;;;;zerotype;;Summer;;No
1958930;A6549np-Multi-1958930;Necklace;Draft;Necklace and Chains;Shining Diva;Adults-Women;Women;;;;Fashion;;2017;Onesize,SHDVNECK00000289;998.00;;;;;;;;zerotype;;Summer;;No
1958929;A6151np-Black-1958929;Necklace;Draft;Necklace and Chains;Shining Diva;Adults-Women;Women;;;;Fashion;;2017;Onesize,SHDVNECK00000288;832.00;;;;;;;;zerotype;;Summer;;No
1958928;A6149np-Black-1958928;Necklace;Draft;Necklace and Chains;Shining Diva;Adults-Women;Women;;;;Fashion;;2017;Onesize,SHDVNECK00000287;832.00;;;;;;;;zerotype;;Summer;;No
1958927;A6049np-Gold-1958927;Necklace;Draft;Necklace and Chains;Shining Diva;Adults-Women;Women;;;;Fashion;;2017;Onesize,SHDVNECK00000286;832.00;;;;;;;;zerotype;;Summer;;No
1958926;A5596np-Multi-1958926;Necklace;Draft;Necklace and Chains;Shining Diva;Adults-Women;Women;;;;Fashion;;2017;Onesize,SHDVNECK00000285;998.00;;;;;;;;zerotype;;Summer;;No
1958925;A4825np-Black-1958925;Necklace;Draft;Necklace and Chains;Shining Diva;Adults-Women;Women;;;;Fashion;;2017;Onesize,SHDVNECK00000284;998.00;;;;;;;;zerotype;;Summer;;No
1958924;A4684np-Gold-1958924;Necklace;Draft;Necklace and Chains;Shining Diva;Adults-Women;Women;;;;Fashion;;2017;Onesize,SHDVNECK00000283;998.00;;;;;;;;zerotype;;Summer;;No
1958923;A3202np-Multi-1958923;Necklace;Draft;Necklace and Chains;Shining Diva;Adults-Women;Women;;;;Fashion;;2017;Onesize,SHDVNECK00000282;832.00;;;;;;;;zerotype;;Summer;;No
1958922;A2417np-Multi-1958922;Necklace;Draft;Necklace and Chains;Shining Diva;Adults-Women;Women;;;;Fashion;;2017;Onesize,SHDVNECK00000281;998.00;;;;;;;;zerotype;;Summer;;No
1958921;A2414np-Gold-1958921;Necklace;Draft;Necklace and Chains;Shining Diva;Adults-Women;Women;;;;Fashion;;2017;Onesize,SHDVNECK00000280;998.00;;;;;;;;zerotype;;Summer;;No
1958920;A1927np-Gold-1958920;Necklace;Draft;Necklace and Chains;Shining Diva;Adults-Women;Women;;;;Fashion;;2017;Onesize,SHDVNECK00000279;998.00;;;;;;;;zerotype;;Summer;;No
1958919;A1921np-Green-1958919;Necklace;Draft;Necklace and Chains;Shining Diva;Adults-Women;Women;;;;Fashion;;2017;Onesize,SHDVNECK00000278;998.00;;;;;;;;zerotype;;Summer;;No
1958918;A1912np-Black-1958918;Necklace;Draft;Necklace and Chains;Shining Diva;Adults-Women;Women;;;;Fashion;;2017;Onesize,SHDVNECK00000277;998.00;;;;;;;;zerotype;;Summer;;No
1958917;A1465np-Gold-1958917;Necklace;Draft;Necklace and Chains;Shining Diva;Adults-Women;Women;;;;Fashion;;2017;Onesize,SHDVNECK00000276;998.00;;;;;;;;zerotype;;Summer;;No
1958916;A7896np-Blue-1958916;Chain pendant;Draft;Pendant;Shining Diva;Adults-Women;Women;;;;Fashion;;2017;Onesize,SHDVPEND00000078;998.00;;;;;;;;zerotype;;Summer;;No
1958915;A6616np-Blue-1958915;Chain pendant;Draft;Pendant;Shining Diva;Adults-Women;Women;;;;Fashion;;2017;Onesize,SHDVPEND00000077;998.00;;;;;;;;zerotype;;Summer;;No
1958914;A6099np-Multi-1958914;Chain pendant;Draft;Pendant;Shining Diva;Adults-Women;Women;;;;Fashion;;2017;Onesize,SHDVPEND00000076;713.00;;;;;;;;zerotype;;Summer;;No
1958913;A6093np-Gold-1958913;Chain pendant;Draft;Pendant;Shining Diva;Adults-Women;Women;;;;Fashion;;2017;Onesize,SHDVPEND00000075;713.00;;;;;;;;zerotype;;Summer;;No
1958912;A6025np-Gold-1958912;Chain pendant;Draft;Pendant;Shining Diva;Adults-Women;Women;;;;Fashion;;2017;Onesize,SHDVPEND00000074;713.00;;;;;;;;zerotype;;Summer;;No
1958911;A5976np-Silver-1958911;Chain pendant;Draft;Pendant;Shining Diva;Adults-Women;Women;;;;Fashion;;2017;Onesize,SHDVPEND00000073;713.00;;;;;;;;zerotype;;Summer;;No
1958910;A5949np-Purple-1958910;Chain pendant;Draft;Pendant;Shining Diva;Adults-Women;Women;;;;Fashion;;2017;Onesize,SHDVPEND00000072;713.00;;;;;;;;zerotype;;Summer;;No
1958909;A4806np-Gold-1958909;Chain pendant;Draft;Pendant;Shining Diva;Adults-Women;Women;;;;Fashion;;2017;Onesize,SHDVPEND00000071;713.00;;;;;;;;zerotype;;Summer;;No
1958908;A4799np-Multi-1958908;Chain pendant;Draft;Pendant;Shining Diva;Adults-Women;Women;;;;Fashion;;2017;Onesize,SHDVPEND00000070;713.00;;;;;;;;zerotype;;Summer;;No
