Style ID;Vendor Article Number;Vendor Article Name;Active Status;Article type;Brand;Age Group;Gender;Base Colour;Colour1;Colour2;Fashion Type;Usage;Year;Size - SKU code pair;MRP;Style Description;Style Note;Materials and Care Description;Size and Fit Description;Size Chart Path;Product Display Name;Tags;Product Type;Classification Brand;Season;Comments;Upload Images
2521460;PA14572-DE-2521460;Tracks;Draft;Track Pants;Proline Active;Adults-Men;Men;Grey;;;Fashion;;2018;S,PLAVTRPT00001508,M,PLAVTRPT00001509,L,PLAVTRPT00001510,XL,PLAVTRPT00001511,XXL,PLAVTRPT00001512;1199.00;<p>WOVEN TRACKS WITH WEBBING TAPE DETAIL</p>;;<p>WOVEN, 100% POLYESTER</p>;;;;;zerotype;;Summer;;No
2521459;PA023-BK-2521459;Tracks;Draft;Track Pants;Proline Active;Adults-Men;Men;Black;;;Fashion;;2018;S,PLAVTRPT00001503,M,PLAVTRPT00001504,L,PLAVTRPT00001505,XL,PLAVTRPT00001506,XXL,PLAVTRPT00001507;1249.00;<p>TRACKS WITH MESH PANEL DETAIL</p>;;<p>SPACE DYED, PLAITED FABRIC & BUBBLE KNIT MESH, COTTON POLYESTER</p>;;;;;zerotype;;Summer;;No
2521458;PA023-NB-2521458;Tracks;Draft;Track Pants;Proline Active;Adults-Men;Men;Navy Blue;;;Fashion;;2018;S,PLAVTRPT00001498,M,PLAVTRPT00001499,L,PLAVTRPT00001500,XL,PLAVTRPT00001501,XXL,PLAVTRPT00001502;1249.00;<p>TRACKS WITH MESH PANEL DETAIL</p>;;<p>SPACE DYED, PLAITED FABRIC & BUBBLE KNIT MESH, COTTON POLYESTER</p>;;;;;zerotype;;Summer;;No
2521457;PA14545-BK-2521457;Shorts;Draft;Shorts;Proline Active;Adults-Men;Men;Black;;;Fashion;;2018;S,PLAVSHOR00000644,M,PLAVSHOR00000645,L,PLAVSHOR00000646,XL,PLAVSHOR00000647,XXL,PLAVSHOR00000648;949.00;<p>SHORTS WITH PRINT DETAIL</p>;;<p>PLAITED FABRIC , COTTON POLYESTER , 240 GSM</p>;;;;;zerotype;;Summer;;No
2521456;PA14545-WH-2521456;Shorts;Draft;Shorts;Proline Active;Adults-Men;Men;White;;;Fashion;;2018;S,PLAVSHOR00000639,M,PLAVSHOR00000640,L,PLAVSHOR00000641,XL,PLAVSHOR00000642,XXL,PLAVSHOR00000643;949.00;<p>SHORTS WITH PRINT DETAIL</p>;;<p>PLAITED FABRIC , COTTON POLYESTER , 240 GSM</p>;;;;;zerotype;;Summer;;No
2521455;PA14544-DESD-2521455;Shorts;Draft;Shorts;Proline Active;Adults-Men;Men;Grey;;;Fashion;;2018;S,PLAVSHOR00000634,M,PLAVSHOR00000635,L,PLAVSHOR00000636,XL,PLAVSHOR00000637,XXL,PLAVSHOR00000638;899.00;<p>SHORTS WITH MESH INSERT AT BACK YOKE AND BRAND CARRIER</p>;;<p>SPACE DYED PLAITED FABRIC , cotton polyester</p>;;;;;zerotype;;Summer;;No
2521454;PA037-RDSD-2521454;Tee Shirt;Draft;Tshirts;Proline Active;Adults-Men;Men;Red;;;Fashion;;2018;S,PLAVTSHT00001600,M,PLAVTSHT00001601,L,PLAVTSHT00001602,XL,PLAVTSHT00001603,XXL,PLAVTSHT00001604;699.00;<p>ROUND NECK RAGLAN SHORT SLEEVE TEE WITH CONTRAST STITCH DETAIL</p>;;<p>interlock &  SINGLE JERSEY (DMS YARN)  , 100% POLYESTER</p>;;;;;zerotype;;Summer;;No
2521453;PA14509-BK-2521453;Tee Shirt;Draft;Tshirts;Proline Active;Adults-Men;Men;Black;;;Fashion;;2018;S,PLAVTSHT00001595,M,PLAVTSHT00001596,L,PLAVTSHT00001597,XL,PLAVTSHT00001598,XXL,PLAVTSHT00001599;849.00;<p>ROUND NECK SHORT SLEEVE TEE WITH  FRONT PANEL AND SLEEVE PRINT DETAIL</p>;;<p>SINGLE JERSEY, 100% COTTON,compact YARN</p>;;;;;zerotype;;Summer;;No
2517663;POKU318C006761-WhiteSolid-2517663;POKU318C006761;Draft;Kurtas;Peter England;Adults-Men;Men;White;;;Fashion;;2018;42,PTENKRTA00000595,36,PTENKRTA00000596,46,PTENKRTA00000597,40,PTENKRTA00000598,38,PTENKRTA00000599,44,PTENKRTA00000600;799.00;;;<p>60%Cotton40%Polyester</p>;;;;;zerotype;;Summer;;No
2517655;POKU318C003999-White-2517655;POKU318C003999;Draft;Kurtas;Peter England;Adults-Men;Men;White;;;Fashion;;2018;38,PTENKRTA00000581,44,PTENKRTA00000582,42,PTENKRTA00000583,40,PTENKRTA00000584;1399.00;;;<p>100%Cotton</p>;;;;;zerotype;;Summer;;No
2517649;POKU318C003974-BlackSolid-2517649;POKU318C003974;Draft;Kurtas;Peter England;Adults-Men;Men;Black;;;Fashion;;2018;44,PTENKRTA00000569,42,PTENKRTA00000570,38,PTENKRTA00000571,40,PTENKRTA00000572;1199.00;;;<p>100%Cotton</p>;;;;;zerotype;;Summer;;No
2517646;POKU318C003971-DarkRedSolid-2517646;POKU318C003971;Draft;Kurtas;Peter England;Adults-Men;Men;Red;;;Fashion;;2018;40,PTENKRTA00000565,44,PTENKRTA00000566,42,PTENKRTA00000567,38,PTENKRTA00000568;1399.00;;;<p>100%Cotton</p>;;;;;zerotype;;Summer;;No
2517644;POKU318C003970-DarkRedSolid-2517644;POKU318C003970;Draft;Kurtas;Peter England;Adults-Men;Men;Red;;;Fashion;;2018;42,PTENKRTA00000561,44,PTENKRTA00000562,40,PTENKRTA00000563,38,PTENKRTA00000564;1199.00;;;<p>100%Cotton</p>;;;;;zerotype;;Summer;;No
2517638;POKU318C003940-DarkGreenWithGreen-2517638;POKU318C003940;Draft;Kurtas;Peter England;Adults-Men;Men;Green;;;Fashion;;2018;44,PTENKRTA00000537,40,PTENKRTA00000538,38,PTENKRTA00000539,42,PTENKRTA00000540;1499.00;;;<p>100%Cotton</p>;;;;;zerotype;;Summer;;No
2515325;VISTA-N-J-17-ABG022232-ABG022232-2515325;VISTA-N-J-17-ABG022232;Draft;Jackets;Theme;Adults-Men;Men;Black;;;Fashion;;2018;38,THMEJCKT00001007,40,THMEJCKT00001008,42,THMEJCKT00001009,44,THMEJCKT00001010,46,THMEJCKT00001011;5199.00;;;;;;;;zerotype;;Spring;;No
2515324;ULTIMA-J-SV-TP-17-ABG022628-ABG022628-2515324;ULTIMA-J-SV-TP-17-ABG022628;Draft;Jackets;Theme;Adults-Men;Men;Beige;;;Fashion;;2018;38,THMEJCKT00001003,40,THMEJCKT00001004,42,THMEJCKT00001005,44,THMEJCKT00001006;6699.00;;;;;;;;zerotype;;Spring;;No
2515320;ULTIMA-J-CV-P-17-ABG022131-ABG022131-2515320;ULTIMA-J-CV-P-17-ABG022131;Draft;Jackets;Theme;Adults-Men;Men;Navy Blue;;;Fashion;;2018;38,THMEJCKT00000988,40,THMEJCKT00000989,42,THMEJCKT00000990,44,THMEJCKT00000991;5199.00;;;;;;;;zerotype;;Spring;;No
2515318;TUXEDO-3-F-J-17-ABG022031-ABG022031-2515318;TUXEDO-3-F-J-17-ABG022031;Draft;Jackets;Theme;Adults-Men;Men;Navy Blue;;;Fashion;;2018;38,THMEJCKT00000980,40,THMEJCKT00000981,42,THMEJCKT00000982,44,THMEJCKT00000983;5199.00;;;;;;;;zerotype;;Spring;;No
2515317;MARIO-F-N-17-ABG022332-ABG022332-2515317;MARIO-F-N-17-ABG022332;Draft;Jackets;Theme;Adults-Men;Men;Black;;;Fashion;;2018;38,THMEJCKT00000975,40,THMEJCKT00000976,42,THMEJCKT00000977,44,THMEJCKT00000978,46,THMEJCKT00000979;5199.00;;;;;;;;zerotype;;Spring;;No
2515316;MARIO-F-N-17-ABG021916-ABG021916-2515316;MARIO-F-N-17-ABG021916;Draft;Jackets;Theme;Adults-Men;Men;Grey;;;Fashion;;2018;38,THMEJCKT00000971,40,THMEJCKT00000972,42,THMEJCKT00000973,44,THMEJCKT00000974;5399.00;;;;;;;;zerotype;;Spring;;No
2515314;LEXUS-A1-J-17-ABG021832-ABG021832-2515314;LEXUS-A1-J-17-ABG021832;Draft;Jackets;Theme;Adults-Men;Men;Black;;;Fashion;;2018;38,THMEJCKT00000962,40,THMEJCKT00000963,42,THMEJCKT00000964,44,THMEJCKT00000965,46,THMEJCKT00000966;5299.00;;;;;;;;zerotype;;Spring;;No
2515311;RAWAT-CA-15-035396239-035396239-2515311;RAWAT-CA-15-035396239;Draft;Nehru Jackets;Theme;Adults-Men;Men;White;;;Fashion;;2017;38,THMENHJK00000049,40,THMENHJK00000050,42,THMENHJK00000051,44,THMENHJK00000052;2995.00;;;;;;;;zerotype;;Spring;;No
2507391;PM204188J83-BASIC GREY DLX-2507391;HANK E GREY IP;Draft;Jeans;Pepe Jeans;Adults-Men;Men;White;;;Fashion;Casual;2018;28,PEJEJENS00012131,30,PEJEJENS00012132,32,PEJEJENS00012133,34,PEJEJENS00012134,36,PEJEJENS00012135,38,PEJEJENS00012136,40,PEJEJENS00012137;2999.00;;;<p>98% COTTON, 2% ELASTANE</p>;;;;;zerotype;;Summer;;No
2507389;PM204183P41-DARK BLUE WORN-2507389;GRANTT CN IP;Draft;Jeans;Pepe Jeans;Adults-Men;Men;Blue;;;Fashion;Casual;2018;28,PEJEJENS00012126,30,PEJEJENS00012127,32,PEJEJENS00012128,34,PEJEJENS00012129,36,PEJEJENS00012130;3599.00;;;<p>80% COTTON, 18% POLYESTER, 2% ELASTANE</p>;;;;;zerotype;;Summer;;No
2507355;PM204144Q07-GREY USED-2507355;CARI IP;Draft;Jeans;Pepe Jeans;Adults-Men;Men;Grey;;;Fashion;Casual;2018;28,PEJEJENS00012063,30,PEJEJENS00012064,32,PEJEJENS00012065,34,PEJEJENS00012066,36,PEJEJENS00012067,38,PEJEJENS00012068,40,PEJEJENS00012069;3999.00;;;<p>68% COTTON, 30% POLYESTER, 2% ELASTANE</p>;;;;;zerotype;;Summer;;No
2507344;PM204121G71-DEEP INDIGO-2507344;ALDRED CN IP;Draft;Jeans;Pepe Jeans;Adults-Men;Men;Blue;;;Fashion;Casual;2018;28,PEJEJENS00012037,30,PEJEJENS00012038,32,PEJEJENS00012039,34,PEJEJENS00012040,36,PEJEJENS00012041;3599.00;;;<p>65% COTTON, 34% POLYESTER, 1% ELASTANE</p>;;;;;zerotype;;Summer;;No
2503886;PTF318001281-MediumgreyWithWhite-2503886;PTF318001281;Draft;Trousers;Peter England;Adults-Men;Men;Grey;;;Fashion;;2018;32,PTENTRSR00009367,36,PTENTRSR00009368,34,PTENTRSR00009369,28,PTENTRSR00009370,102,PTENTRSR00009371,38,PTENTRSR00009372,30,PTENTRSR00009373;1299.00;;;<p>65%Polyester35%Viscose</p>;;;;mcw-ss18-all;zerotype;;Spring;mcw-ss18-all;No
2503884;PTF318001258-DarkblueWithblue-2503884;PTF318001258;Draft;Trousers;Peter England;Adults-Men;Men;Blue;;;Fashion;;2018;34,PTENTRSR00009359,30,PTENTRSR00009360,32,PTENTRSR00009361,36,PTENTRSR00009362,38,PTENTRSR00009363,28,PTENTRSR00009364;1899.00;;;<p>65%Polyester35%Viscose</p>;;;;mcw-ss18-all;zerotype;;Spring;mcw-ss18-all;No
2503882;PTF318001254-DarkblueWithblue-2503882;PTF318001254;Draft;Trousers;Peter England;Adults-Men;Men;Blue;;;Fashion;;2018;30,PTENTRSR00009354,28,PTENTRSR00009355,34,PTENTRSR00009356,38,PTENTRSR00009357,32,PTENTRSR00009358;1899.00;;;<p>65%Polyester35%Viscose</p>;;;;mcw-ss18-all;zerotype;;Spring;mcw-ss18-all;No
2503881;PTF318001214-DarkGreywithBlack-2503881;PTF318001214;Draft;Trousers;Peter England;Adults-Men;Men;Grey;;;Fashion;;2018;38,PTENTRSR00009348,36,PTENTRSR00009349,30,PTENTRSR00009350,32,PTENTRSR00009351,34,PTENTRSR00009352,28,PTENTRSR00009353;1499.00;;;<p>68%Polyester5%Linen27%Viscose</p>;;;;mcw-ss18-all;zerotype;;Spring;mcw-ss18-all;No
2503880;PTF318001211-DarkblueWithblue-2503880;PTF318001211;Draft;Trousers;Peter England;Adults-Men;Men;Blue;;;Fashion;;2018;30,PTENTRSR00009342,28,PTENTRSR00009343,38,PTENTRSR00009344,32,PTENTRSR00009345,34,PTENTRSR00009346,36,PTENTRSR00009347;1499.00;;;<p>68%Polyester5%Linen27%Viscose</p>;;;;mcw-ss18-all;zerotype;;Spring;mcw-ss18-all;No
2503879;PTF318001169-WhiteWithblue-2503879;PTF318001169;Draft;Trousers;Peter England;Adults-Men;Men;White;;;Fashion;;2018;28,PTENTRSR00009336,36,PTENTRSR00009337,30,PTENTRSR00009338,38,PTENTRSR00009339,34,PTENTRSR00009340,32,PTENTRSR00009341;1499.00;;;<p>65%Polyester35%Viscose</p>;;;;mcw-ss18-all;zerotype;;Spring;mcw-ss18-all;No
2503878;PTF318001166-Blackwithygrey-2503878;PTF318001166;Draft;Trousers;Peter England;Adults-Men;Men;Black;;;Fashion;;2018;38,PTENTRSR00009329,102,PTENTRSR00009330,28,PTENTRSR00009331,34,PTENTRSR00009332,36,PTENTRSR00009333,32,PTENTRSR00009334,30,PTENTRSR00009335;1499.00;;;<p>80%Polyester20%Viscose</p>;;;;mcw-ss18-all;zerotype;;Spring;mcw-ss18-all;No
2503877;ITF318001668-DarkblueWithblue-2503877;ITF318001668;Draft;Trousers;Peter England;Adults-Men;Men;Blue;;;Fashion;;2018;30,PTENTRSR00009323,38,PTENTRSR00009324,28,PTENTRSR00009325,36,PTENTRSR00009326,32,PTENTRSR00009327,34,PTENTRSR00009328;2299.00;;;<p>84%Terelene16%Rayon</p>;;;;mcw-ss18-all;zerotype;;Spring;mcw-ss18-all;No
2503876;ITF318001649-DarkblueWithblue-2503876;ITF318001649;Draft;Trousers;Peter England;Adults-Men;Men;Blue;;;Fashion;;2018;34,PTENTRSR00009317,28,PTENTRSR00009318,30,PTENTRSR00009319,36,PTENTRSR00009320,38,PTENTRSR00009321,32,PTENTRSR00009322;2299.00;;;<p>84%Terelene16%Rayon</p>;;;;mcw-ss18-all;zerotype;;Spring;mcw-ss18-all;No
2503875;ITF318001639-DarkBrownWithBrown-2503875;ITF318001639;Draft;Trousers;Peter England;Adults-Men;Men;Brown;;;Fashion;;2018;34,PTENTRSR00009311,38,PTENTRSR00009312,30,PTENTRSR00009313,32,PTENTRSR00009314,36,PTENTRSR00009315,28,PTENTRSR00009316;2299.00;;;<p>70%Terelene30%Rayon</p>;;;;mcw-ss18-all;zerotype;;Spring;mcw-ss18-all;No
2503874;ETF318006381-WhiteSolid-2503874;ETF318006381;Draft;Trousers;Peter England Casuals;Adults-Men;Men;White;;;Fashion;;2018;36,PEDCTRSR00001085,30,PEDCTRSR00001086,38,PEDCTRSR00001087,102,PEDCTRSR00001088,32,PEDCTRSR00001089,34,PEDCTRSR00001090;999.00;;;<p>100%Cotton</p>;;;;mcw-ss18-all;zerotype;;Spring;mcw-ss18-all;No
2503872;ETF318000447-DarkblueSolid-2503872;ETF318000447;Draft;Trousers;Peter England Casuals;Adults-Men;Men;Blue;;;Fashion;;2018;38,PEDCTRSR00001080,30,PEDCTRSR00001081,32,PEDCTRSR00001082,34,PEDCTRSR00001083,36,PEDCTRSR00001084;1799.00;;;<p>100%Cotton</p>;;;;mcw-ss18-all;zerotype;;Spring;mcw-ss18-all;No
2503871;ETF318000446-DarkBrownSolid-2503871;ETF318000446;Draft;Trousers;Peter England Casuals;Adults-Men;Men;Brown;;;Fashion;;2018;30,PEDCTRSR00001075,32,PEDCTRSR00001076,34,PEDCTRSR00001077,38,PEDCTRSR00001078,36,PEDCTRSR00001079;1799.00;;;<p>100%Cotton</p>;;;;mcw-ss18-all;zerotype;;Spring;mcw-ss18-all;No
2503869;JDN318006027-DarkblueWithblue-2503869;JDN318006027;Draft;Jeans;Peter England Casuals;Adults-Men;Men;Blue;;;Fashion;;2018;30,PEDCJENS00001536,32,PEDCJENS00001537,36,PEDCJENS00001538,28,PEDCJENS00001539,34,PEDCJENS00001540,38,PEDCJENS00001541;1799.00;;;<p>98%Cotton2%Spandex</p>;;;;mcw-ss18-all;zerotype;;Spring;mcw-ss18-all;No
2503867;JDN318006015-DarkblueWithblue-2503867;JDN318006015;Draft;Jeans;Peter England Casuals;Adults-Men;Men;Blue;;;Fashion;;2018;38,PEDCJENS00001529,30,PEDCJENS00001530,34,PEDCJENS00001531,28,PEDCJENS00001532,36,PEDCJENS00001533,32,PEDCJENS00001534;1599.00;;;<p>98%Cotton2%Spandex</p>;;;;mcw-ss18-all;zerotype;;Spring;mcw-ss18-all;No
2503865;JDN318005906-DarkblueWithblue-2503865;JDN318005906;Draft;Jeans;Peter England Casuals;Adults-Men;Men;Blue;;;Fashion;;2018;38,PEDCJENS00001522,28,PEDCJENS00001523,30,PEDCJENS00001524,32,PEDCJENS00001525,34,PEDCJENS00001526,36,PEDCJENS00001527;1999.00;;;<p>98%Cotton2%Spandex</p>;;;;mcw-ss18-all;zerotype;;Spring;mcw-ss18-all;No
2503846;PSH318003654-DarkblueWithWhite-2503846;PSH318003654;Draft;Shirts;Peter England;Adults-Men;Men;Blue;;;Fashion;;2018;36,PTENSHRT00026124,38,PTENSHRT00026125,42,PTENSHRT00026126,40,PTENSHRT00026127,39,PTENSHRT00026128;1499.00;;;<p>100%Cotton</p>;;;;mcw-ss18-all;zerotype;;Spring;mcw-ss18-all;No
2503845;PSH318003396-LightYellowWithblue-2503845;PSH318003396;Draft;Shirts;Peter England;Adults-Men;Men;Yellow;;;Fashion;;2018;39,PTENSHRT00026119,38,PTENSHRT00026120,36,PTENSHRT00026121,40,PTENSHRT00026122,42,PTENSHRT00026123;999.00;;;<p>65%Polyester35%Cotton</p>;;;;mcw-ss18-all;zerotype;;Spring;mcw-ss18-all;No
2503843;PSH318002998-MediumblueWithWhite-2503843;PSH318002998;Draft;Shirts;Peter England;Adults-Men;Men;Blue;;;Fashion;;2018;36,PTENSHRT00026114,42,PTENSHRT00026115,39,PTENSHRT00026116,40,PTENSHRT00026117,38,PTENSHRT00026118;1199.00;;;<p>50%Cotton50%Polyester</p>;;;;mcw-ss18-all;zerotype;;Spring;mcw-ss18-all;No
2503842;PSH318002822-LightblueWithWhite-2503842;PSH318002822;Draft;Shirts;Peter England;Adults-Men;Men;Blue;;;Fashion;;2018;42,PTENSHRT00026109,38,PTENSHRT00026110,39,PTENSHRT00026111,36,PTENSHRT00026112,40,PTENSHRT00026113;1199.00;;;<p>55%Polyester45%Cotton</p>;;;;mcw-ss18-all;zerotype;;Spring;mcw-ss18-all;No
2503840;PSF318003751-DarkblueWithWhite-2503840;PSF318003751;Draft;Shirts;Peter England;Adults-Men;Men;Blue;;;Fashion;;2018;36,PTENSHRT00026099,38,PTENSHRT00026100,39,PTENSHRT00026101,40,PTENSHRT00026102,42,PTENSHRT00026103;1299.00;;;<p>60%Cotton40%Polyester</p>;;;;mcw-ss18-all;zerotype;;Spring;mcw-ss18-all;No
2503839;PSF318003731-MediumblueWithRed-2503839;PSF318003731;Draft;Shirts;Peter England;Adults-Men;Men;Blue;;;Fashion;;2018;40,PTENSHRT00026094,38,PTENSHRT00026095,39,PTENSHRT00026096,36,PTENSHRT00026097,42,PTENSHRT00026098;1299.00;;;<p>60%Cotton40%Polyester</p>;;;;mcw-ss18-all;zerotype;;Spring;mcw-ss18-all;No
2503838;PSF318003618-DarkRedSolid-2503838;PSF318003618;Draft;Shirts;Peter England;Adults-Men;Men;Red;;;Fashion;;2018;38,PTENSHRT00026088,42,PTENSHRT00026089,36,PTENSHRT00026090,39,PTENSHRT00026091,40,PTENSHRT00026092,44,PTENSHRT00026093;899.00;;;<p>60%Cotton40%Polyester</p>;;;;mcw-ss18-all;zerotype;;Spring;mcw-ss18-all;No
2503837;PSF318003610-DarkRedWithOrange-2503837;PSF318003610;Draft;Shirts;Peter England;Adults-Men;Men;Red;;;Fashion;;2018;40,PTENSHRT00026084,38,PTENSHRT00026085,39,PTENSHRT00026086,36,PTENSHRT00026087;999.00;;;<p>48%Polyester29%Cotton23%Modal</p>;;;;mcw-ss18-all;zerotype;;Spring;mcw-ss18-all;No
2503835;PSF318003597-LightkhakiSolid-2503835;PSF318003597;Draft;Shirts;Peter England;Adults-Men;Men;Khaki;;;Fashion;;2018;42,PTENSHRT00026078,44,PTENSHRT00026079,38,PTENSHRT00026080,39,PTENSHRT00026081,36,PTENSHRT00026082,40,PTENSHRT00026083;1199.00;;;<p>60%Cotton40%Polyester</p>;;;;mcw-ss18-all;zerotype;;Spring;mcw-ss18-all;No
2503834;PSF318003230-DarkPinkwithWhite-2503834;PSF318003230;Draft;Shirts;Peter England;Adults-Men;Men;Pink;;;Fashion;;2018;36,PTENSHRT00026074,39,PTENSHRT00026075,40,PTENSHRT00026076,38,PTENSHRT00026077;1299.00;;;<p>50%Cotton50%Polyester</p>;;;;mcw-ss18-all;zerotype;;Spring;mcw-ss18-all;No
2503833;PSF318003195-BlackSolid-2503833;PSF318003195;Draft;Shirts;Peter England;Adults-Men;Men;Black;;;Fashion;;2018;36,PTENSHRT00026069,38,PTENSHRT00026070,39,PTENSHRT00026071,40,PTENSHRT00026072,42,PTENSHRT00026073;899.00;;;<p>60%Cotton40%Polyester</p>;;;;mcw-ss18-all;zerotype;;Spring;mcw-ss18-all;No
2503832;PSF318003186-LightPurpleWithWhite-2503832;PSF318003186;Draft;Shirts;Peter England;Adults-Men;Men;Purple;;;Fashion;;2018;40,PTENSHRT00026068;999.00;;;<p>55%Polyester45%Cotton</p>;;;;mcw-ss18-all;zerotype;;Spring;mcw-ss18-all;No
2503831;PSF318002927-LightblueWithWhite-2503831;PSF318002927;Draft;Shirts;Peter England;Adults-Men;Men;Blue;;;Fashion;;2018;39,PTENSHRT00026063,36,PTENSHRT00026064,42,PTENSHRT00026065,40,PTENSHRT00026066,38,PTENSHRT00026067;999.00;;;<p>100%Cotton</p>;;;;mcw-ss18-all;zerotype;;Spring;mcw-ss18-all;No
2503829;PSF318002399-MediumblueSolid-2503829;PSF318002399;Draft;Shirts;Peter England;Adults-Men;Men;Blue;;;Fashion;;2018;36,PTENSHRT00026055,39,PTENSHRT00026056,40,PTENSHRT00026057,38,PTENSHRT00026058,42,PTENSHRT00026059;1499.00;;;<p>50%Cotton50%Linen</p>;;;;mcw-ss18-all;zerotype;;Spring;mcw-ss18-all;No
2503828;PSF318001874-MediumblueWithWhite-2503828;PSF318001874;Draft;Shirts;Peter England;Adults-Men;Men;Blue;;;Fashion;;2018;38,PTENSHRT00026050,39,PTENSHRT00026051,42,PTENSHRT00026052,40,PTENSHRT00026053,36,PTENSHRT00026054;1499.00;;;<p>100%Cotton</p>;;;;mcw-ss18-all;zerotype;;Spring;mcw-ss18-all;No
2503827;JSF318002554-DarkblueWithWhite-2503827;JSF318002554;Draft;Shirts;Peter England Casuals;Adults-Men;Men;Blue;;;Fashion;;2018;38,PEDCSHRT00003362,44,PEDCSHRT00003363,42,PEDCSHRT00003364,40,PEDCSHRT00003365,39,PEDCSHRT00003366;1499.00;;;<p>100%Cotton</p>;;;;mcw-ss18-all;zerotype;;Spring;mcw-ss18-all;No
2503826;JSF318002545-DarkRedWithblue-2503826;JSF318002545;Draft;Shirts;Peter England Casuals;Adults-Men;Men;Red;;;Fashion;;2018;44,PEDCSHRT00003357,38,PEDCSHRT00003358,42,PEDCSHRT00003359,40,PEDCSHRT00003360,39,PEDCSHRT00003361;1899.00;;;<p>100%Cotton</p>;;;;mcw-ss18-all;zerotype;;Spring;mcw-ss18-all;No
2503825;ESH318005132-MediumblueWithWhite-2503825;ESH318005132;Draft;Shirts;Peter England Casuals;Adults-Men;Men;Blue;;;Fashion;;2018;38,PEDCSHRT00003351,44,PEDCSHRT00003352,42,PEDCSHRT00003353,39,PEDCSHRT00003354,36,PEDCSHRT00003355,40,PEDCSHRT00003356;999.00;;;<p>100%Cotton</p>;;;;mcw-ss18-all;zerotype;;Spring;mcw-ss18-all;No
2503823;ESF318001765-MediumYellowSolid-2503823;ESF318001765;Draft;Shirts;Peter England Casuals;Adults-Men;Men;Yellow;;;Fashion;;2018;42,PEDCSHRT00003346,38,PEDCSHRT00003347,44,PEDCSHRT00003348,40,PEDCSHRT00003349;999.00;;;<p>65%Cotton35%Linen</p>;;;;mcw-ss18-all;zerotype;;Spring;mcw-ss18-all;No
2503821;ESF318000804-WhiteSolid-2503821;ESF318000804;Draft;Shirts;Peter England Casuals;Adults-Men;Men;White;;;Fashion;;2018;39,PEDCSHRT00003341,40,PEDCSHRT00003342,44,PEDCSHRT00003343,42,PEDCSHRT00003344,38,PEDCSHRT00003345;1499.00;;;<p>100%Cotton</p>;;;;mcw-ss18-all;zerotype;;Spring;mcw-ss18-all;No
2503820;ESF318000220-MediumkhakiWithblue-2503820;ESF318000220;Draft;Shirts;Peter England Casuals;Adults-Men;Men;Khaki;;;Fashion;;2018;39,PEDCSHRT00003336,40,PEDCSHRT00003337,42,PEDCSHRT00003338,44,PEDCSHRT00003339,38,PEDCSHRT00003340;1299.00;;;<p>100%Cotton</p>;;;;mcw-ss18-all;zerotype;;Spring;mcw-ss18-all;No
2503818;ESF318000218-MediumkhakiWithYellow-2503818;ESF318000218;Draft;Shirts;Peter England Casuals;Adults-Men;Men;Khaki;;;Fashion;;2018;44,PEDCSHRT00003330,39,PEDCSHRT00003331,40,PEDCSHRT00003332,42,PEDCSHRT00003333,38,PEDCSHRT00003334;1299.00;;;<p>100%Cotton</p>;;;;mcw-ss18-all;zerotype;;Spring;mcw-ss18-all;No
2503817;ESF318000091-DarkRedWithblue-2503817;ESF318000091;Draft;Shirts;Peter England Casuals;Adults-Men;Men;Red;;;Fashion;;2018;42,PEDCSHRT00003323,39,PEDCSHRT00003324,40,PEDCSHRT00003325,44,PEDCSHRT00003326,38,PEDCSHRT00003327;1699.00;;;<p>97%Cotton3%Spandex</p>;;;;mcw-ss18-all;zerotype;;Spring;mcw-ss18-all;No
2503815;CSF318004020-DarkGreywithBlack-2503815;CSF318004020;Draft;Shirts;Peter England Casuals;Adults-Men;Men;Grey;;;Fashion;;2018;44,PEDCSHRT00003317,40,PEDCSHRT00003318,38,PEDCSHRT00003319,42,PEDCSHRT00003320,39,PEDCSHRT00003321;1699.00;;;<p>96%Cotton4%Lycra</p>;;;;mcw-ss18-all;zerotype;;Spring;mcw-ss18-all;No
2485634;1000862093006-DKINDIGO-2485634;LCJS-4181-MF124-A-LC08, 38, DARK INDIGO;Draft;Jeans;Lee Cooper;Adults-Men;Men;NA;;;Fashion;;2018;28,LEECJENS00003938,30,LEECJENS00003939,32,LEECJENS00003940,34,LEECJENS00003941,36,LEECJENS00003942,38,LEECJENS00003943;2799.00;;;<p>Machine Wash Cold, Wash Dark Colors Separately,Do Not Bleach, Tumble Dry Low, Do Not Dry In Direct Sunlight, Flat Dry,Do not wring reshape, Warm Iron(Do Not Iron On Decoration)</p>;;;;;zerotype;;Spring;;No
2485633;1000862090005-INDIGO-2485633;LCJS-4181-MF135-A-LC12, 36, INDIGO;Draft;Jeans;Lee Cooper;Adults-Men;Men;NA;;;Fashion;;2018;28,LEECJENS00003933,30,LEECJENS00003934,32,LEECJENS00003935,34,LEECJENS00003936,36,LEECJENS00003937;2799.00;;;<p>Machine Wash Cold, Wash Dark Colors Separately,Do Not Bleach, Tumble Dry Low, Do Not Dry In Direct Sunlight, Flat Dry,Do not wring reshape, Warm Iron(Do Not Iron On Decoration)</p>;;;;;zerotype;;Spring;;No
2485632;1000862083006-LTGREY-2485632;LCJS-4181-HF153-A-LC10, 38, LT GREY;Draft;Jeans;Lee Cooper;Adults-Men;Men;NA;;;Fashion;;2018;28,LEECJENS00003927,30,LEECJENS00003928,32,LEECJENS00003929,34,LEECJENS00003930,36,LEECJENS00003931,38,LEECJENS00003932;2999.00;;;<p>Machine Wash Cold, Wash Dark Colors Separately,Do Not Bleach, Tumble Dry Low, Do Not Dry In Direct Sunlight, Flat Dry,Do not wring reshape, Warm Iron(Do Not Iron On Decoration)</p>;;;;;zerotype;;Spring;;No
2485630;1000862063007-M.STONE-2485630;LCJS-4181-CR101-A-LC08, 40, M STONE;Draft;Jeans;Lee Cooper;Adults-Men;Men;NA;;;Fashion;;2018;28,LEECJENS00003914,30,LEECJENS00003915,32,LEECJENS00003916,34,LEECJENS00003917,36,LEECJENS00003918,38,LEECJENS00003919,40,LEECJENS00003920;2199.00;;;<p>Machine Wash Cold, Wash Dark Colors Separately,Do Not Bleach, Tumble Dry Low, Do Not Dry In Direct Sunlight, Flat Dry,Do not wring reshape, Warm Iron(Do Not Iron On Decoration)</p>;;;;;zerotype;;Spring;;No
2485629;1000862054006-BLACK-2485629;LCJS-4181-HF149-B-LC08, 38, BLACK;Draft;Jeans;Lee Cooper;Adults-Men;Men;NA;;;Fashion;;2018;28,LEECJENS00003908,30,LEECJENS00003909,32,LEECJENS00003910,34,LEECJENS00003911,36,LEECJENS00003912,38,LEECJENS00003913;2999.00;;;<p>Machine Wash Cold, Wash Dark Colors Separately,Do Not Bleach, Tumble Dry Low, Do Not Dry In Direct Sunlight, Flat Dry,Do not wring reshape, Warm Iron(Do Not Iron On Decoration)</p>;;;;;zerotype;;Spring;;No
2485627;1000862084006-M.STONE-2485627;LCJS-4181-SHT161-B-SHT, 38, M STONE;Draft;Shorts;Lee Cooper;Adults-Men;Men;NA;;;Fashion;;2018;28,LEECSHOR00000215,30,LEECSHOR00000216,32,LEECSHOR00000217,34,LEECSHOR00000218,36,LEECSHOR00000219,38,LEECSHOR00000220;1999.00;;;<p>Machine Wash Cold, Wash Dark Colors Separately,Do Not Bleach, Tumble Dry Low, Do Not Dry In Direct Sunlight, Flat Dry,Do not wring reshape, Warm Iron(Do Not Iron On Decoration)</p>;;;;;zerotype;;Spring;;No
2485626;1000862082007-LTSTONE-2485626;LCJS-4181-SHT159-B-SHT, 40, LT STONE;Draft;Shorts;Lee Cooper;Adults-Men;Men;NA;;;Fashion;;2018;28,LEECSHOR00000208,30,LEECSHOR00000209,32,LEECSHOR00000210,34,LEECSHOR00000211,36,LEECSHOR00000212,38,LEECSHOR00000213,40,LEECSHOR00000214;1999.00;;;<p>Machine Wash Cold, Wash Dark Colors Separately,Do Not Bleach, Tumble Dry Low, Do Not Dry In Direct Sunlight, Flat Dry,Do not wring reshape, Warm Iron(Do Not Iron On Decoration)</p>;;;;;zerotype;;Spring;;No
2485625;1000862081006-DKINDIGO-2485625;LCJS-4181-SHT165-B-SHT, 38, DARK INDIGO;Draft;Shorts;Lee Cooper;Adults-Men;Men;NA;;;Fashion;;2018;28,LEECSHOR00000202,30,LEECSHOR00000203,32,LEECSHOR00000204,34,LEECSHOR00000205,36,LEECSHOR00000206,38,LEECSHOR00000207;1999.00;;;<p>Machine Wash Cold, Wash Dark Colors Separately,Do Not Bleach, Tumble Dry Low, Do Not Dry In Direct Sunlight, Flat Dry,Do not wring reshape, Warm Iron(Do Not Iron On Decoration)</p>;;;;;zerotype;;Spring;;No
2485623;1000865156004-BLACK-2485623;LCTS-4181-TS-85-C-HS-VN, XL, BLACK;Draft;Tshirts;Lee Cooper;Adults-Men;Men;NA;;;Fashion;;2018;S,LEECTSHT00005746,M,LEECTSHT00005747,L,LEECTSHT00005748,XL,LEECTSHT00005749;1099.00;;;<p>Machine Wash Cold, Wash Dark Colors Separately,Do Not Bleach, Tumble Dry Low, Do Not Dry In Direct Sunlight, Flat Dry,Do not wring reshape, Warm Iron(Do Not Iron On Decoration)</p>;;;;;zerotype;;Spring;;No
2485621;1000863811005-BLACK&WHITE-2485621;LCTS-4181-TS-24-A-HS, XXL, BLACK & WHITE;Draft;Tshirts;Lee Cooper;Adults-Men;Men;NA;;;Fashion;;2018;S,LEECTSHT00005736,M,LEECTSHT00005737,L,LEECTSHT00005738,XL,LEECTSHT00005739,XXL,LEECTSHT00005740;999.00;;;<p>Machine Wash Cold, Wash Dark Colors Separately,Do Not Bleach, Tumble Dry Low, Do Not Dry In Direct Sunlight, Flat Dry,Do not wring reshape, Warm Iron(Do Not Iron On Decoration)</p>;;;;;zerotype;;Spring;;No
2485618;1000863779005-BLACK-2485618;LCTS-4181-TS-30-C-HS-CN, XXL, BLACK;Draft;Tshirts;Lee Cooper;Adults-Men;Men;NA;;;Fashion;;2018;S,LEECTSHT00005722,M,LEECTSHT00005723,L,LEECTSHT00005724,XL,LEECTSHT00005725,XXL,LEECTSHT00005726;999.00;;;<p>Machine Wash Cold, Wash Dark Colors Separately,Do Not Bleach, Tumble Dry Low, Do Not Dry In Direct Sunlight, Flat Dry,Do not wring reshape, Warm Iron(Do Not Iron On Decoration)</p>;;;;;zerotype;;Spring;;No
2485617;1000863749005-WHITE-2485617;LCTS-4181-TS-14-B-HS-CN, XXL, WHITE;Draft;Tshirts;Lee Cooper;Adults-Men;Men;NA;;;Fashion;;2018;S,LEECTSHT00005717,M,LEECTSHT00005718,L,LEECTSHT00005719,XL,LEECTSHT00005720,XXL,LEECTSHT00005721;999.00;;;<p>Machine Wash Cold, Wash Dark Colors Separately,Do Not Bleach, Tumble Dry Low, Do Not Dry In Direct Sunlight, Flat Dry,Do not wring reshape, Warm Iron(Do Not Iron On Decoration)</p>;;;;;zerotype;;Spring;;No
2485615;1000863709005-RUST-2485615;LCTS-4181-TS-18-B-HS-CN, XXL, RUST;Draft;Tshirts;Lee Cooper;Adults-Men;Men;NA;;;Fashion;;2018;S,LEECTSHT00005708,M,LEECTSHT00005709,L,LEECTSHT00005710,XL,LEECTSHT00005711,XXL,LEECTSHT00005712;799.00;;;<p>Machine Wash Cold, Wash Dark Colors Separately,Do Not Bleach, Tumble Dry Low, Do Not Dry In Direct Sunlight, Flat Dry,Do not wring reshape, Warm Iron(Do Not Iron On Decoration)</p>;;;;;zerotype;;Spring;;No
2485614;1000863541009-GREEN-2485614;LCTS-4181-TS-76-C-HS-CN, XL, GREEN;Draft;Tshirts;Lee Cooper;Adults-Men;Men;NA;;;Fashion;;2018;S,LEECTSHT00005704,M,LEECTSHT00005705,L,LEECTSHT00005706,XL,LEECTSHT00005707;999.00;;;<p>Machine Wash Cold, Wash Dark Colors Separately,Do Not Bleach, Tumble Dry Low, Do Not Dry In Direct Sunlight, Flat Dry,Do not wring reshape, Warm Iron(Do Not Iron On Decoration)</p>;;;;;zerotype;;Spring;;No
2485611;1000863630005-WHITE-2485611;LCSH-4181-SH-57-B-FS, XXL, WHITE;Draft;Shirts;Lee Cooper;Adults-Men;Men;NA;;;Fashion;;2018;S,LEECSHRT00003587,M,LEECSHRT00003588,L,LEECSHRT00003589,XL,LEECSHRT00003590,XXL,LEECSHRT00003591;1799.00;;;<p>Machine Wash Cold, Wash Dark Colors Separately,Do Not Bleach, Tumble Dry Low, Do Not Dry In Direct Sunlight, Flat Dry,Do not wring reshape, Warm Iron(Do Not Iron On Decoration)</p>;;;;;zerotype;;Spring;;No
2485610;1000863621009-NAVY-2485610;LCSH-4181-SH-47-C-FS, XL, NAVY;Draft;Shirts;Lee Cooper;Adults-Men;Men;NA;;;Fashion;;2018;S,LEECSHRT00003583,M,LEECSHRT00003584,L,LEECSHRT00003585,XL,LEECSHRT00003586;1799.00;;;<p>Machine Wash Cold, Wash Dark Colors Separately,Do Not Bleach, Tumble Dry Low, Do Not Dry In Direct Sunlight, Flat Dry,Do not wring reshape, Warm Iron(Do Not Iron On Decoration)</p>;;;;;zerotype;;Spring;;No
2485609;1000863591004-M.STONE-2485609;LCSH-4181-SH-83-B-FS, XL, M STONE;Draft;Shirts;Lee Cooper;Adults-Men;Men;NA;;;Fashion;;2018;S,LEECSHRT00003579,M,LEECSHRT00003580,L,LEECSHRT00003581,XL,LEECSHRT00003582;2199.00;;;<p>Machine Wash Cold, Wash Dark Colors Separately,Do Not Bleach, Tumble Dry Low, Do Not Dry In Direct Sunlight, Flat Dry,Do not wring reshape, Warm Iron(Do Not Iron On Decoration)</p>;;;;;zerotype;;Spring;;No
2485608;1000863579005-BLUE-2485608;LCSH-4181-SH-106-A-FS, XXL, BLUE;Draft;Shirts;Lee Cooper;Adults-Men;Men;NA;;;Fashion;;2018;S,LEECSHRT00003574,M,LEECSHRT00003575,L,LEECSHRT00003576,XL,LEECSHRT00003577,XXL,LEECSHRT00003578;1799.00;;;<p>Machine Wash Cold, Wash Dark Colors Separately,Do Not Bleach, Tumble Dry Low, Do Not Dry In Direct Sunlight, Flat Dry,Do not wring reshape, Warm Iron(Do Not Iron On Decoration)</p>;;;;;zerotype;;Spring;;No
2485607;1000863534005-NAVY-2485607;LCSH-4181-SH-113-B-FS, XXL, NAVY;Draft;Shirts;Lee Cooper;Adults-Men;Men;NA;;;Fashion;;2018;S,LEECSHRT00003569,M,LEECSHRT00003570,L,LEECSHRT00003571,XL,LEECSHRT00003572,XXL,LEECSHRT00003573;1999.00;;;<p>Machine Wash Cold, Wash Dark Colors Separately,Do Not Bleach, Tumble Dry Low, Do Not Dry In Direct Sunlight, Flat Dry,Do not wring reshape, Warm Iron(Do Not Iron On Decoration)</p>;;;;;zerotype;;Spring;;No
2485606;1000863482014-Olive-2485606;LCSH-4181-SH-63-A-FS, XL, Olive;Draft;Shirts;Lee Cooper;Adults-Men;Men;NA;;;Fashion;;2018;S,LEECSHRT00003565,M,LEECSHRT00003566,L,LEECSHRT00003567,XL,LEECSHRT00003568;2199.00;;;<p>Machine Wash Cold, Wash Dark Colors Separately,Do Not Bleach, Tumble Dry Low, Do Not Dry In Direct Sunlight, Flat Dry,Do not wring reshape, Warm Iron(Do Not Iron On Decoration)</p>;;;;;zerotype;;Spring;;No
2485605;1000863469005-RED-2485605;LCSH-4181-SH-41-A-FS, XXL, RED;Draft;Shirts;Lee Cooper;Adults-Men;Men;NA;;;Fashion;;2018;S,LEECSHRT00003560,M,LEECSHRT00003561,L,LEECSHRT00003562,XL,LEECSHRT00003563,XXL,LEECSHRT00003564;1799.00;;;<p>Machine Wash Cold, Wash Dark Colors Separately,Do Not Bleach, Tumble Dry Low, Do Not Dry In Direct Sunlight, Flat Dry,Do not wring reshape, Warm Iron(Do Not Iron On Decoration)</p>;;;;;zerotype;;Spring;;No
2485604;1000863405005-WHITE-2485604;LCSH-4181-SH-53-B-FS, XXL, WHITE;Draft;Shirts;Lee Cooper;Adults-Men;Men;NA;;;Fashion;;2018;S,LEECSHRT00003555,M,LEECSHRT00003556,L,LEECSHRT00003557,XL,LEECSHRT00003558,XXL,LEECSHRT00003559;1799.00;;;<p>Machine Wash Cold, Wash Dark Colors Separately,Do Not Bleach, Tumble Dry Low, Do Not Dry In Direct Sunlight, Flat Dry,Do not wring reshape, Warm Iron(Do Not Iron On Decoration)</p>;;;;;zerotype;;Spring;;No
2485603;1000863404005-M.STONE-2485603;LCSH-4181-SH-14-A-FS, XXL, M STONE;Draft;Shirts;Lee Cooper;Adults-Men;Men;NA;;;Fashion;;2018;S,LEECSHRT00003550,M,LEECSHRT00003551,L,LEECSHRT00003552,XL,LEECSHRT00003553,XXL,LEECSHRT00003554;1999.00;;;<p>Machine Wash Cold, Wash Dark Colors Separately,Do Not Bleach, Tumble Dry Low, Do Not Dry In Direct Sunlight, Flat Dry,Do not wring reshape, Warm Iron(Do Not Iron On Decoration)</p>;;;;;zerotype;;Spring;;No
2485602;1000733335005-BLACK-2485602;LCSH-4181-B-SH-116-FS, XXL, BLACK;Draft;Shirts;Lee Cooper;Adults-Men;Men;NA;;;Fashion;;2018;S,LEECSHRT00003545,M,LEECSHRT00003546,L,LEECSHRT00003547,XL,LEECSHRT00003548,XXL,LEECSHRT00003549;1999.00;;;<p>Machine Wash Cold, Wash Dark Colors Separately,Do Not Bleach, Tumble Dry Low, Do Not Dry In Direct Sunlight, Flat Dry,Do not wring reshape, Warm Iron(Do Not Iron On Decoration)</p>;;;;;zerotype;;Spring;;No
2475974;TB0A1N1CF141-Blue-2475974;AF Squm Co/Ln Chno TurnUp Oil;Draft;Shorts;Timberland;Adults-Men;Men;;;;Fashion;;2017;30,TMLDSHOR00000160,32,TMLDSHOR00000161,34,TMLDSHOR00000162,36,TMLDSHOR00000163;5099.00;;;<p>M Woven Shorts, 55% Linen 45% Cotton</p>;;;;luxury-flash-sale;zerotype;;Winter;luxury-flash-sale;No
2475965;TB0A1MMIB681-Dark Shadow-2475965;AF SS Mill Co/Ln Strp Tee Dark;Draft;Tshirts;Timberland;Adults-Men;Men;;;;Fashion;;2017;L,TMLDTSHT00098787,M,TMLDTSHT00098788,S,TMLDTSHT00098789,XL,TMLDTSHT00098790;2699.00;;;;;;;luxury-flash-sale;zerotype;;Fall;luxury-flash-sale;No
2475964;TB0A1ML91301-Dark Shadow-2475964;AF SS Still Clmx Grph tee Pick;Draft;Tshirts;Timberland;Adults-Men;Men;;;;Fashion;;2017;L,TMLDTSHT00098783,M,TMLDTSHT00098784,S,TMLDTSHT00098785,XL,TMLDTSHT00098786;2699.00;;;;;;;luxury-flash-sale;zerotype;;Fall;luxury-flash-sale;No
2475055;TB0A1V6Y0011-Black-2475055;AF Srgt Strch Twill Chino BLAC;Draft;Trousers;Timberland;Adults-Men;Men;;;;Fashion;;2017;30,TMLDTRSR00097122,32,TMLDTRSR00097123,34,TMLDTRSR00097124,36,TMLDTRSR00097125;7399.00;;;<p>M Woven Pants, 97% Cotton 3% Elastane</p>;;;;luxury-flash-sale;zerotype;;Fall;luxury-flash-sale;No
2475047;TB0A1UFVH201-Tibetan Red-2475047;AF Bear Head Jacket Updte Tibe;Draft;Jackets;Timberland;Adults-Men;Men;;;;Fashion;;2017;L,TMLDJCKT00081742,M,TMLDJCKT00081743,S,TMLDJCKT00081744,XL,TMLDJCKT00081745;15499.00;;;<p>M Woven Jacket, 100% Polyester</p>;;;;luxury-flash-sale;zerotype;;Winter;luxury-flash-sale;No
2475036;TB0A1UDO4331-Dark Sapphire-2475036;AF Mt Hight MA1 Bmbr Jckt DARK;Draft;Jackets;Timberland;Adults-Men;Men;;;;Fashion;;2017;L,TMLDJCKT00081698,M,TMLDJCKT00081699,S,TMLDJCKT00081700,XL,TMLDJCKT00081701;12299.00;;;<p>M Woven Jacket, 100% Nylon</p>;;;;luxury-flash-sale;zerotype;;Winter;luxury-flash-sale;No
2475033;TB0A1U8YH081-Olive Night-2475033;AF DV Rgd Mt Pckb Jkt CLS Oliv;Draft;Jackets;Timberland;Adults-Men;Men;;;;Fashion;;2017;L,TMLDJCKT00081686,M,TMLDJCKT00081687,S,TMLDJCKT00081688,XL,TMLDJCKT00081689;11499.00;;;<p>M Woven Water Resistant Jacket, 80% Polyester 20% Cotton</p>;;;;luxury-flash-sale;zerotype;;Winter;luxury-flash-sale;No
2475032;TB0A1U8Y6041-Chili Pepper-2475032;AF DV Rgd Mt Pckb Jkt CLS Chil;Draft;Jackets;Timberland;Adults-Men;Men;;;;Fashion;;2017;L,TMLDJCKT00081682,M,TMLDJCKT00081683,S,TMLDJCKT00081684,XL,TMLDJCKT00081685;11499.00;;;<p>M Woven Water Resistant Jacket, 80% Polyester 20% Cotton</p>;;;;luxury-flash-sale;zerotype;;Winter;luxury-flash-sale;No
2475031;TB0A1U8Y4331-Dark Sapphire-2475031;AF DV Rgd Mt Pckb Jkt CLS DARK;Draft;Jackets;Timberland;Adults-Men;Men;;;;Fashion;;2017;L,TMLDJCKT00081678,M,TMLDJCKT00081679,S,TMLDJCKT00081680,XL,TMLDJCKT00081681;11499.00;;;<p>M Woven Water Resistant Jacket, 80% Polyester 20% Cotton</p>;;;;luxury-flash-sale;zerotype;;Winter;luxury-flash-sale;No
2475028;TB0A1LH3D041-Worn In Rinse-2475028;AF Prfile Lk Rlx Tprd Dnm WORN;Draft;Jeans;Timberland;Adults-Men;Men;;;;Fashion;;2017;30,TMLDJENS00000061,32,TMLDJENS00000062,34,TMLDJENS00000063,36,TMLDJENS00000064;7399.00;;;<p>M Woven Blue Denim Pants, 98.5% Cotton 1.5% Elastane</p>;;;;luxury-flash-sale;zerotype;;Winter;luxury-flash-sale;No
2475027;TB0A1LELF751-JKid Wash-2475027;AF Squam Lake Stretch Dnm JKID;Draft;Jeans;Timberland;Adults-Men;Men;;;;Fashion;;2017;30,TMLDJENS00000057,32,TMLDJENS00000058,34,TMLDJENS00000059,36,TMLDJENS00000060;7399.00;;;<p>M Woven Deinm Pants, 98.5% Cotton 1.5% Elastane</p>;;;;luxury-flash-sale;zerotype;;Winter;luxury-flash-sale;No
2475025;TB0A1LELA111-Mid Indigo-2475025;AF Squam Lake Stretch Dnm MID;Draft;Jeans;Timberland;Adults-Men;Men;;;;Fashion;;2017;30,TMLDJENS00000049,32,TMLDJENS00000050,34,TMLDJENS00000051,36,TMLDJENS00000052;7399.00;;;<p>M Woven Deinm Pants, 98.5% Cotton 1.5% Elastane</p>;;;;luxury-flash-sale;zerotype;;Winter;luxury-flash-sale;No
2475024;TB0A1VBZH141-Orion Blue Print-2475024;AF Sqm Rvsb Crgo Pttn Sht Orio;Draft;Shorts;Timberland;Adults-Men;Men;;;;Fashion;;2017;30,TMLDSHOR00000156,32,TMLDSHOR00000157,34,TMLDSHOR00000158,36,TMLDSHOR00000159;6199.00;;;<p>M Woven Shorts, 97% Cotton 3% Elastane</p>;;;;luxury-flash-sale;zerotype;;Winter;luxury-flash-sale;No
2475023;TB0A1VBZH101-Olive Night-2475023;AF Sqm Rvsb Crgo Pttn Sht Oliv;Draft;Shorts;Timberland;Adults-Men;Men;;;;Fashion;;2017;30,TMLDSHOR00000152,32,TMLDSHOR00000153,34,TMLDSHOR00000154,36,TMLDSHOR00000155;6199.00;;;<p>M Woven Shorts, 97% Cotton 3% Elastane</p>;;;;luxury-flash-sale;zerotype;;Winter;luxury-flash-sale;No
2475022;TB0A1VBZG791-Gargoyle Print-2475022;AF Sqm Rvsb Crgo Pttn Sht GARG;Draft;Shorts;Timberland;Adults-Men;Men;;;;Fashion;;2017;30,TMLDSHOR00000148,32,TMLDSHOR00000149,34,TMLDSHOR00000150,36,TMLDSHOR00000151;6199.00;;;<p>M Woven Shorts, 97% Cotton 3% Elastane</p>;;;;luxury-flash-sale;zerotype;;Winter;luxury-flash-sale;No
2475021;TB0A1VBOH121-Orion Blue-2475021;AF Sqm Chino Turn Up Shrt Orio;Draft;Shorts;Timberland;Adults-Men;Men;;;;Fashion;;2017;30,TMLDSHOR00000144,32,TMLDSHOR00000145,34,TMLDSHOR00000146,36,TMLDSHOR00000147;5699.00;;;<p>M Woven Shorts, 98% Cotton 2% Elastane</p>;;;;luxury-flash-sale;zerotype;;Winter;luxury-flash-sale;No
2475020;TB0A1VBOH081-Olive Night-2475020;AF Sqm Chino Turn Up Shrt Oliv;Draft;Shorts;Timberland;Adults-Men;Men;;;;Fashion;;2017;30,TMLDSHOR00000140,32,TMLDSHOR00000141,34,TMLDSHOR00000142,36,TMLDSHOR00000143;5699.00;;;<p>M Woven Shorts, 98% Cotton 2% Elastane</p>;;;;luxury-flash-sale;zerotype;;Winter;luxury-flash-sale;No
2475019;TB0A1VBO4331-Dark Sapphire-2475019;AF Sqm Chino Turn Up Shrt DARK;Draft;Shorts;Timberland;Adults-Men;Men;;;;Fashion;;2017;30,TMLDSHOR00000136,32,TMLDSHOR00000137,34,TMLDSHOR00000138,36,TMLDSHOR00000139;5699.00;;;<p>M Woven Shorts, 98% Cotton 2% Elastane</p>;;;;luxury-flash-sale;zerotype;;Winter;luxury-flash-sale;No
2475018;TB0A1LEU4331-Dark Sapphire-2475018;AF Sqm Lk Textd Chno Shrt DARK;Draft;Shorts;Timberland;Adults-Men;Men;;;;Fashion;;2017;30,TMLDSHOR00000132,32,TMLDSHOR00000133,34,TMLDSHOR00000134,36,TMLDSHOR00000135;5399.00;;;<p>M Woven Shorts, 97% Cotton 3% Elastane</p>;;;;luxury-flash-sale;zerotype;;Winter;luxury-flash-sale;No
2475017;TB0A1LEU0281-Dark Shadow-2475017;AF Sqm Lk Textd Chno Shrt Dark;Draft;Shorts;Timberland;Adults-Men;Men;;;;Fashion;;2017;30,TMLDSHOR00000128,32,TMLDSHOR00000129,34,TMLDSHOR00000130,36,TMLDSHOR00000131;5399.00;;;<p>M Woven Shorts, 97% Cotton 3% Elastane</p>;;;;luxury-flash-sale;zerotype;;Winter;luxury-flash-sale;No
2475004;TB0A1UZ23171-Green Gables-2475004;AF SS Dead Brshd Mlti Tee Gree;Draft;Tshirts;Timberland;Adults-Men;Men;;;;Fashion;;2017;L,TMLDTSHT00098759,M,TMLDTSHT00098760,S,TMLDTSHT00098761,XL,TMLDTSHT00098762;3299.00;;;<p>M Knit Tee, 100% Cotton</p>;;;;luxury-flash-sale;zerotype;;Fall;luxury-flash-sale;No
2475003;TB0A1UZ20521-Medium Grey Heather-2475003;AF SS Dead Brshd Mlti Tee Medi;Draft;Tshirts;Timberland;Adults-Men;Men;;;;Fashion;;2017;L,TMLDTSHT00098755,M,TMLDTSHT00098756,S,TMLDTSHT00098757,XL,TMLDTSHT00098758;3299.00;;;<p>M Knit Tee, 100% Cotton</p>;;;;luxury-flash-sale;zerotype;;Fall;luxury-flash-sale;No
2475002;TB0A1UYFI441-Orion Blue Jaspe Axe-2475002;AF SS Kbc Livd in MGr Tee Orio;Draft;Tshirts;Timberland;Adults-Men;Men;;;;Fashion;;2017;L,TMLDTSHT00098751,M,TMLDTSHT00098752,S,TMLDTSHT00098753,XL,TMLDTSHT00098754;3299.00;;;<p>M Knit Tee, 100% Cotton</p>;;;;luxury-flash-sale;zerotype;;Fall;luxury-flash-sale;No
2475001;TB0A1UYFI411-Picket Fence Jaspe Bike-2475001;AF SS Kbc Livd in MGr Tee Pick;Draft;Tshirts;Timberland;Adults-Men;Men;;;;Fashion;;2017;L,TMLDTSHT00098747,M,TMLDTSHT00098748,S,TMLDTSHT00098749,XL,TMLDTSHT00098750;3299.00;;;<p>M Knit Tee, 100% Cotton</p>;;;;luxury-flash-sale;zerotype;;Fall;luxury-flash-sale;No
2475000;TB0A1UYFI391-Black Jaspe Bike-2475000;AF SS Kbc Livd in MGr Tee BLAC;Draft;Tshirts;Timberland;Adults-Men;Men;;;;Fashion;;2017;L,TMLDTSHT00098743,M,TMLDTSHT00098744,S,TMLDTSHT00098745,XL,TMLDTSHT00098746;3299.00;;;<p>M Knit Tee, 100% Cotton</p>;;;;luxury-flash-sale;zerotype;;Fall;luxury-flash-sale;No
2474999;TB0A1UYFH451-Lyons Blue Jaspe-2474999;AF SS Kbc Livd in MGr Tee Lyon;Draft;Tshirts;Timberland;Adults-Men;Men;;;;Fashion;;2017;L,TMLDTSHT00098739,M,TMLDTSHT00098740,S,TMLDTSHT00098741,XL,TMLDTSHT00098742;3299.00;;;<p>M Knit Tee, 100% Cotton</p>;;;;luxury-flash-sale;zerotype;;Fall;luxury-flash-sale;No
2474998;TB0A1UY4C881-Cyber Yellow-2474998;AF SS Kbc Livd in Sty Tee Cybe;Draft;Tshirts;Timberland;Adults-Men;Men;;;;Fashion;;2017;L,TMLDTSHT00098735,M,TMLDTSHT00098736,S,TMLDTSHT00098737,XL,TMLDTSHT00098738;3299.00;;;<p>M Knit Tee, 100% Cotton</p>;;;;luxury-flash-sale;zerotype;;Fall;luxury-flash-sale;No
2474997;TB0A1UY41301-Picket Fence-2474997;AF SS Kbc Livd in Sty Tee Pick;Draft;Tshirts;Timberland;Adults-Men;Men;;;;Fashion;;2017;L,TMLDTSHT00098731,M,TMLDTSHT00098732,S,TMLDTSHT00098733,XL,TMLDTSHT00098734;3299.00;;;<p>M Knit Tee, 100% Cotton</p>;;;;luxury-flash-sale;zerotype;;Fall;luxury-flash-sale;No
2474996;TB0A1UY40011-Black-2474996;AF SS Kbc Livd in Sty Tee BLAC;Draft;Tshirts;Timberland;Adults-Men;Men;;;;Fashion;;2017;L,TMLDTSHT00098727,M,TMLDTSHT00098728,S,TMLDTSHT00098729,XL,TMLDTSHT00098730;3299.00;;;<p>M Knit Tee, 100% Cotton</p>;;;;luxury-flash-sale;zerotype;;Fall;luxury-flash-sale;No
2474995;TB0A1UXSH081-Olive Night-2474995;AF SS Knbc EK Bt 10th Tee Oliv;Draft;Tshirts;Timberland;Adults-Men;Men;;;;Fashion;;2017;L,TMLDTSHT00098723,M,TMLDTSHT00098724,S,TMLDTSHT00098725,XL,TMLDTSHT00098726;3299.00;;;<p>M Knit Tee, 100% Cotton</p>;;;;luxury-flash-sale;zerotype;;Fall;luxury-flash-sale;No
2474994;TB0A1UXS4331-Dark Sapphire-2474994;AF SS Knbc EK Bt 10th Tee DARK;Draft;Tshirts;Timberland;Adults-Men;Men;;;;Fashion;;2017;L,TMLDTSHT00098719,M,TMLDTSHT00098720,S,TMLDTSHT00098721,XL,TMLDTSHT00098722;3299.00;;;<p>M Knit Tee, 100% Cotton</p>;;;;luxury-flash-sale;zerotype;;Fall;luxury-flash-sale;No
2474993;TB0A1UX6H121-Orion Blue-2474993;AF SS Knbc Elvtd TBL Brnd Orio;Draft;Tshirts;Timberland;Adults-Men;Men;;;;Fashion;;2017;L,TMLDTSHT00098715,M,TMLDTSHT00098716,S,TMLDTSHT00098717,XL,TMLDTSHT00098718;2999.00;;;<p>M Knit Pullover, 100% Cotton</p>;;;;luxury-flash-sale;zerotype;;Fall;luxury-flash-sale;No
2474992;TB0A1UX6C881-Cyber Yellow-2474992;AF SS Knbc Elvtd TBL Brnd Cybe;Draft;Tshirts;Timberland;Adults-Men;Men;;;;Fashion;;2017;L,TMLDTSHT00098711,M,TMLDTSHT00098712,S,TMLDTSHT00098713,XL,TMLDTSHT00098714;2999.00;;;<p>M Knit Pullover, 100% Cotton</p>;;;;luxury-flash-sale;zerotype;;Fall;luxury-flash-sale;No
2474991;TB0A1UX66041-Chili Pepper-2474991;AF SS Knbc Elvtd TBL Brnd Chil;Draft;Tshirts;Timberland;Adults-Men;Men;;;;Fashion;;2017;L,TMLDTSHT00098707,M,TMLDTSHT00098708,S,TMLDTSHT00098709,XL,TMLDTSHT00098710;2999.00;;;<p>M Knit Pullover, 100% Cotton</p>;;;;luxury-flash-sale;zerotype;;Fall;luxury-flash-sale;No
2474990;TB0A1UX60521-Medium Grey Heather-2474990;AF SS Knbc Elvtd TBL Brnd Medi;Draft;Tshirts;Timberland;Adults-Men;Men;;;;Fashion;;2017;L,TMLDTSHT00098703,M,TMLDTSHT00098704,S,TMLDTSHT00098705,XL,TMLDTSHT00098706;2999.00;;;<p>M Knit Pullover, 100% Cotton</p>;;;;luxury-flash-sale;zerotype;;Fall;luxury-flash-sale;No
2474985;TB0A1UUYH101-Olive Night Print-2474985;AF SS Mil Camo Pique Polo Oliv;Draft;Tshirts;Timberland;Adults-Men;Men;;;;Fashion;;2017;L,TMLDTSHT00098683,M,TMLDTSHT00098684,S,TMLDTSHT00098685,XL,TMLDTSHT00098686;5399.00;;;<p>M Knit Shirt, 100% Cotton</p>;;;;luxury-flash-sale;zerotype;;Fall;luxury-flash-sale;No
2474984;TB0A1UUYG791-Gargoyle Print-2474984;AF SS Mil Camo Pique Polo GARG;Draft;Tshirts;Timberland;Adults-Men;Men;;;;Fashion;;2017;L,TMLDTSHT00098679,M,TMLDTSHT00098680,S,TMLDTSHT00098681,XL,TMLDTSHT00098682;5399.00;;;<p>M Knit Shirt, 100% Cotton</p>;;;;luxury-flash-sale;zerotype;;Fall;luxury-flash-sale;No
2474983;TB0A1UUYB691-Dark Sapphire Print-2474983;AF SS Mil Camo Pique Polo Dark;Draft;Tshirts;Timberland;Adults-Men;Men;;;;Fashion;;2017;L,TMLDTSHT00098675,M,TMLDTSHT00098676,S,TMLDTSHT00098677,XL,TMLDTSHT00098678;5399.00;;;<p>M Knit Shirt, 100% Cotton</p>;;;;luxury-flash-sale;zerotype;;Fall;luxury-flash-sale;No
2474979;TB0A1S2YI361-Cyber Yellow YD-2474979;AF SS Miller Rvr Str Polo CYBE;Draft;Tshirts;Timberland;Adults-Men;Men;;;;Fashion;;2017;L,TMLDTSHT00098659,M,TMLDTSHT00098660,S,TMLDTSHT00098661,XL,TMLDTSHT00098662;4899.00;;;<p>M Knit Shirt, 100% Cotton</p>;;;;luxury-flash-sale;zerotype;;Fall;luxury-flash-sale;No
2474978;TB0A1S2YI331-Chili Pepper YD-2474978;AF SS Miller Rvr Str Polo CHIL;Draft;Tshirts;Timberland;Adults-Men;Men;;;;Fashion;;2017;L,TMLDTSHT00098655,M,TMLDTSHT00098656,S,TMLDTSHT00098657,XL,TMLDTSHT00098658;4899.00;;;<p>M Knit Shirt, 100% Cotton</p>;;;;luxury-flash-sale;zerotype;;Fall;luxury-flash-sale;No
2474977;TB0A1S2YG971-Lyons Blue YD-2474977;AF SS Miller Rvr Str Polo LYON;Draft;Tshirts;Timberland;Adults-Men;Men;;;;Fashion;;2017;L,TMLDTSHT00098651,M,TMLDTSHT00098652,S,TMLDTSHT00098653,XL,TMLDTSHT00098654;4899.00;;;<p>M Knit Shirt, 100% Cotton</p>;;;;luxury-flash-sale;zerotype;;Fall;luxury-flash-sale;No
2474976;TB0A1S2NC881-Cyber Yellow-2474976;AF SS Millers River Polo Cyber;Draft;Tshirts;Timberland;Adults-Men;Men;;;;Fashion;;2017;L,TMLDTSHT00098647,M,TMLDTSHT00098648,S,TMLDTSHT00098649,XL,TMLDTSHT00098650;4099.00;;;<p>M Knit Shirt, 100% Cotton</p>;;;;luxury-flash-sale;zerotype;;Fall;luxury-flash-sale;No
2474975;TB0A1S2N6041-Chili Pepper-2474975;AF SS Millers River Polo Chili;Draft;Tshirts;Timberland;Adults-Men;Men;;;;Fashion;;2017;L,TMLDTSHT00098643,M,TMLDTSHT00098644,S,TMLDTSHT00098645,XL,TMLDTSHT00098646;4099.00;;;<p>M Knit Shirt, 100% Cotton</p>;;;;luxury-flash-sale;zerotype;;Fall;luxury-flash-sale;No
2474973;TB0A1LDMH141-Orion Blue Print-2474973;AF SS Camo MultiS Tee FA Orion;Draft;Tshirts;Timberland;Adults-Men;Men;;;;Fashion;;2017;L,TMLDTSHT00098635,M,TMLDTSHT00098636,S,TMLDTSHT00098637,XL,TMLDTSHT00098638;3299.00;;;<p>M Knit Tee, 100% Cotton</p>;;;;luxury-flash-sale;zerotype;;Fall;luxury-flash-sale;No
2474972;TB0A1LDMG791-Gargoyle-2474972;AF SS Camo MultiS Tee FA GARGO;Draft;Tshirts;Timberland;Adults-Men;Men;;;;Fashion;;2017;L,TMLDTSHT00098631,M,TMLDTSHT00098632,S,TMLDTSHT00098633,XL,TMLDTSHT00098634;3299.00;;;<p>M Knit Tee, 100% Cotton</p>;;;;luxury-flash-sale;zerotype;;Fall;luxury-flash-sale;No
2474971;TB0A1LDM1301-Picket Fence-2474971;AF SS Camo MultiS Tee FA Picke;Draft;Tshirts;Timberland;Adults-Men;Men;;;;Fashion;;2017;L,TMLDTSHT00098627,M,TMLDTSHT00098628,S,TMLDTSHT00098629,XL,TMLDTSHT00098630;3299.00;;;<p>M Knit Tee, 100% Cotton</p>;;;;luxury-flash-sale;zerotype;;Fall;luxury-flash-sale;No
2474970;TB0A1LDM0521-Medium Grey Heather-2474970;AF SS Camo MultiS Tee FA Mediu;Draft;Tshirts;Timberland;Adults-Men;Men;;;;Fashion;;2017;L,TMLDTSHT00098623,M,TMLDTSHT00098624,S,TMLDTSHT00098625,XL,TMLDTSHT00098626;3299.00;;;<p>M Knit Tee, 100% Cotton</p>;;;;luxury-flash-sale;zerotype;;Fall;luxury-flash-sale;No
2474968;TB0A1UQ9G331-Ashley Blue YD-2474968;AF LS Lane Oxfd Slim Shrt ASHL;Draft;Shirts;Timberland;Adults-Men;Men;;;;Fashion;;2017;L,TMLDSHRT00100932,M,TMLDSHRT00100933,S,TMLDSHRT00100934,XL,TMLDSHRT00100935;5699.00;;;<p>M Woven Yarn Dye Shirt, 100% Cotton</p>;;;;luxury-flash-sale;zerotype;;Winter;luxury-flash-sale;No
2474966;TB0A1UQ9A941-White YD-2474966;AF LS Lane Oxfd Slim Shrt WHIT;Draft;Shirts;Timberland;Adults-Men;Men;;;;Fashion;;2017;L,TMLDSHRT00100924,M,TMLDSHRT00100925,S,TMLDSHRT00100926,XL,TMLDSHRT00100927;5699.00;;;<p>M Woven Yarn Dye Shirt, 100% Cotton</p>;;;;luxury-flash-sale;zerotype;;Winter;luxury-flash-sale;No
2474965;TB0A1UPBG801-Gargoyle YD-2474965;AF LS Mford Rv Camo Chbry GARG;Draft;Shirts;Timberland;Adults-Men;Men;;;;Fashion;;2017;L,TMLDSHRT00100920,M,TMLDSHRT00100921,S,TMLDSHRT00100922,XL,TMLDSHRT00100923;6999.00;;;<p>M Woven Shirt, 100% Cotton</p>;;;;luxury-flash-sale;zerotype;;Winter;luxury-flash-sale;No
2474964;TB0A1UPBB681-Dark Sapphire YD-2474964;AF LS Mford Rv Camo Chbry Dark;Draft;Shirts;Timberland;Adults-Men;Men;;;;Fashion;;2017;L,TMLDSHRT00100916,M,TMLDSHRT00100917,S,TMLDSHRT00100918,XL,TMLDSHRT00100919;6999.00;;;<p>M Woven Shirt, 100% Cotton</p>;;;;luxury-flash-sale;zerotype;;Winter;luxury-flash-sale;No
2474958;TB0A1UMHI331-Chili Pepper YD-2474958;AF SS Lane Rv Oxford Slim CHIL;Draft;Shirts;Timberland;Adults-Men;Men;;;;Fashion;;2017;L,TMLDSHRT00100892,M,TMLDSHRT00100893,S,TMLDSHRT00100894,XL,TMLDSHRT00100895;4899.00;;;<p>M Woven Yarn Dye Shirt, 100% Cotton</p>;;;;luxury-flash-sale;zerotype;;Winter;luxury-flash-sale;No
2474957;TB0A1UMHG331-Ashley Blue YD-2474957;AF SS Lane Rv Oxford Slim ASHL;Draft;Shirts;Timberland;Adults-Men;Men;;;;Fashion;;2017;L,TMLDSHRT00100888,M,TMLDSHRT00100889,S,TMLDSHRT00100890,XL,TMLDSHRT00100891;4899.00;;;<p>M Woven Yarn Dye Shirt, 100% Cotton</p>;;;;luxury-flash-sale;zerotype;;Winter;luxury-flash-sale;No
2474956;TB0A1UMHA941-White YD-2474956;AF SS Lane Rv Oxford Slim WHIT;Draft;Shirts;Timberland;Adults-Men;Men;;;;Fashion;;2017;L,TMLDSHRT00100884,M,TMLDSHRT00100885,S,TMLDSHRT00100886,XL,TMLDSHRT00100887;4899.00;;;<p>M Woven Yarn Dye Shirt, 100% Cotton</p>;;;;luxury-flash-sale;zerotype;;Winter;luxury-flash-sale;No
2474953;TB0A1ULUG291-Ashley Blue-2474953;AF LS Mmfd Rv Chbr Neps Ashley;Draft;Shirts;Timberland;Adults-Men;Men;;;;Fashion;;2017;L,TMLDSHRT00100872,M,TMLDSHRT00100873,S,TMLDSHRT00100874,XL,TMLDSHRT00100875;6999.00;;;<p>M Woven Shirt, 100% Cotton</p>;;;;luxury-flash-sale;zerotype;;Winter;luxury-flash-sale;No
2474952;TB0A1ULU4321-Vintage Indigo-2474952;AF LS Mmfd Rv Chbr Neps Vintag;Draft;Shirts;Timberland;Adults-Men;Men;;;;Fashion;;2017;L,TMLDSHRT00100868,M,TMLDSHRT00100869,S,TMLDSHRT00100870,XL,TMLDSHRT00100871;6999.00;;;<p>M Woven Shirt, 100% Cotton</p>;;;;luxury-flash-sale;zerotype;;Winter;luxury-flash-sale;No
2474943;TB0A1M58I361-Cyber Yellow YD-2474943;AF SS Slm Popln Smll Ging CYBE;Draft;Shirts;Timberland;Adults-Men;Men;;;;Fashion;;2017;L,TMLDSHRT00100832,M,TMLDSHRT00100833,S,TMLDSHRT00100834,XL,TMLDSHRT00100835;5399.00;;;<p>M Woven Yarn Dye Shirt, 100% Cotton</p>;;;;luxury-flash-sale;zerotype;;Winter;luxury-flash-sale;No
2474942;TB0A1M58I331-Chili Pepper YD-2474942;AF SS Slm Popln Smll Ging CHIL;Draft;Shirts;Timberland;Adults-Men;Men;;;;Fashion;;2017;L,TMLDSHRT00100828,M,TMLDSHRT00100829,S,TMLDSHRT00100830,XL,TMLDSHRT00100831;5399.00;;;<p>M Woven Yarn Dye Shirt, 100% Cotton</p>;;;;luxury-flash-sale;zerotype;;Winter;luxury-flash-sale;No
2461963;CC-LINMAN-LIGHT GREY-2461963;AM-Casual Wear-Pant;Draft;Trousers;CODE by Lifestyle;Adults-Men;Men;NA;;;Fashion;;2018;30,CODETRSR00001623,32,CODETRSR00001624,34,CODETRSR00001625,36,CODETRSR00001626,38,CODETRSR00001627;1699.00;;;<p>Machine wash at 40'C,do not bleach, warm iron, donot dryclean, Tumble dry low,Wash dark colors seperately.</p>;;;;SS18-MC-ALL,MCW-SS18-ALL,mcw-ss18-all;zerotype;;Spring;mcw-ss18-all;No
2461962;CC-LINMAN-KHAKI-2461962;AM-Casual Wear-Pant;Draft;Trousers;CODE by Lifestyle;Adults-Men;Men;NA;;;Fashion;;2018;30,CODETRSR00001618,32,CODETRSR00001619,34,CODETRSR00001620,36,CODETRSR00001621,38,CODETRSR00001622;1699.00;;;<p>Machine wash at 40'C,do not bleach, warm iron, donot dryclean, Tumble dry low,Wash dark colors seperately.</p>;;;;SS18-MC-ALL,MCW-SS18-ALL,mcw-ss18-all;zerotype;;Spring;mcw-ss18-all;No
2461899;CF-TROOPER-PLUM-2461899;AM-Formal Wear-T Shirt;Draft;Tshirts;CODE by Lifestyle;Adults-Men;Men;NA;;;Fashion;;2018;L,CODETSHT00000561,M,CODETSHT00000562,S,CODETSHT00000563,XL,CODETSHT00000564,XXL,CODETSHT00000565;999.00;;;<p>Machine wash at 40'C,do not bleach, warm iron, donot dryclean, Tumble dry low,Wash dark colors seperately.</p>;;;;SS18-MC-ALL,MCW-SS18-ALL,mcw-ss18-all;zerotype;;Spring;mcw-ss18-all;No
2461897;CF-TROOPER-GREEN-2461897;AM-Formal Wear-T Shirt;Draft;Tshirts;CODE by Lifestyle;Adults-Men;Men;NA;;;Fashion;;2018;L,CODETSHT00000556,M,CODETSHT00000557,S,CODETSHT00000558,XL,CODETSHT00000559,XXL,CODETSHT00000560;999.00;;;<p>Machine wash at 40'C,do not bleach, warm iron, donot dryclean, Tumble dry low,Wash dark colors seperately.</p>;;;;SS18-MC-ALL,MCW-SS18-ALL,mcw-ss18-all;zerotype;;Spring;mcw-ss18-all;No
2461895;CF-TAKUU REVERSE-NAVY-2461895;AM-Formal Wear-T Shirt;Draft;Tshirts;CODE by Lifestyle;Adults-Men;Men;NA;;;Fashion;;2018;L,CODETSHT00000551,M,CODETSHT00000552,S,CODETSHT00000553,XL,CODETSHT00000554,XXL,CODETSHT00000555;1299.00;;;<p>Machine wash at 40'C,do not bleach, warm iron, donot dryclean, Tumble dry low,Wash dark colors seperately.</p>;;;;SS18-MC-ALL,MCW-SS18-ALL,mcw-ss18-all;zerotype;;Spring;mcw-ss18-all;No
2461892;CF-TAKUU-NAVY-2461892;AM-Formal Wear-T Shirt;Draft;Tshirts;CODE by Lifestyle;Adults-Men;Men;NA;;;Fashion;;2018;L,CODETSHT00000546,M,CODETSHT00000547,S,CODETSHT00000548,XL,CODETSHT00000549,XXL,CODETSHT00000550;1299.00;;;<p>Machine wash at 40'C,do not bleach, warm iron, donot dryclean, Tumble dry low,Wash dark colors seperately.</p>;;;;SS18-MC-ALL,MCW-SS18-ALL,mcw-ss18-all;zerotype;;Spring;mcw-ss18-all;No
2461883;CF-PHANTOM-TEAL-2461883;AM-Formal Wear-T Shirt;Draft;Tshirts;CODE by Lifestyle;Adults-Men;Men;NA;;;Fashion;;2018;L,CODETSHT00000526,M,CODETSHT00000527,S,CODETSHT00000528,XL,CODETSHT00000529,XXL,CODETSHT00000530;1299.00;;;<p>Machine wash at 40'C,do not bleach, warm iron, donot dryclean, Tumble dry low,Wash dark colors seperately.</p>;;;;SS18-MC-ALL,MCW-SS18-ALL,mcw-ss18-all;zerotype;;Spring;mcw-ss18-all;No
2461880;CF-PHANTOM-PLUM-2461880;AM-Formal Wear-T Shirt;Draft;Tshirts;CODE by Lifestyle;Adults-Men;Men;NA;;;Fashion;;2018;L,CODETSHT00000521,M,CODETSHT00000522,S,CODETSHT00000523,XL,CODETSHT00000524,XXL,CODETSHT00000525;1299.00;;;<p>Machine wash at 40'C,do not bleach, warm iron, donot dryclean, Tumble dry low,Wash dark colors seperately.</p>;;;;SS18-MC-ALL,MCW-SS18-ALL,mcw-ss18-all;zerotype;;Spring;mcw-ss18-all;No
2461878;CF-OTTO-RED-2461878;AM-Formal Wear-T Shirt;Draft;Tshirts;CODE by Lifestyle;Adults-Men;Men;NA;;;Fashion;;2018;L,CODETSHT00000516,M,CODETSHT00000517,S,CODETSHT00000518,XL,CODETSHT00000519,XXL,CODETSHT00000520;999.00;;;<p>Machine wash at 40'C,do not bleach, warm iron, donot dryclean, Tumble dry low,Wash dark colors seperately.</p>;;;;SS18-MC-ALL,MCW-SS18-ALL,mcw-ss18-all;zerotype;;Spring;mcw-ss18-all;No
2461876;CF-OTTO-GREEN-2461876;AM-Formal Wear-T Shirt;Draft;Tshirts;CODE by Lifestyle;Adults-Men;Men;NA;;;Fashion;;2018;L,CODETSHT00000511,M,CODETSHT00000512,S,CODETSHT00000513,XL,CODETSHT00000514,XXL,CODETSHT00000515;999.00;;;<p>Machine wash at 40'C,do not bleach, warm iron, donot dryclean, Tumble dry low,Wash dark colors seperately.</p>;;;;SS18-MC-ALL,MCW-SS18-ALL,mcw-ss18-all;zerotype;;Spring;mcw-ss18-all;No
2443142;CF-PVL-NAPOLI-NAVY-2443142;AM-Formal Wear-Pant;Draft;Trousers;CODE by Lifestyle;Adults-Men;Men;;;;Fashion;;2018;30,CODETRSR00001558,32,CODETRSR00001559,34,CODETRSR00001560,36,CODETRSR00001561,38,CODETRSR00001562,40,CODETRSR00001563;1699.00;;;<p>Machine wash at 40'C,do not bleach, warm iron, donot dryclean, Tumble dry low,Wash dark colors seperately.</p>;;;;SS18-MC-ALL,MCW-SS18-ALL,mcw-ss18-all;zerotype;;Spring;mcw-ss18-all;No
2443136;CF-PV-DANO-NAVY-2443136;AM-Formal Wear-Pant;Draft;Trousers;CODE by Lifestyle;Adults-Men;Men;;;;Fashion;;2018;30,CODETRSR00001526,32,CODETRSR00001527,34,CODETRSR00001528,36,CODETRSR00001529,38,CODETRSR00001530,40,CODETRSR00001531;1499.00;;;<p>Machine wash at 40'C,do not bleach, warm iron, donot dryclean, Tumble dry low,Wash dark colors seperately.</p>;;;;SS18-MC-ALL,MCW-SS18-ALL,mcw-ss18-all;zerotype;;Spring;mcw-ss18-all;No
2442986;CF-WATERLY-NAVY-2442986;AM-Formal Wear-Shirt;Draft;Shirts;CODE by Lifestyle;Adults-Men;Men;;;;Fashion;;2018;39,CODESHRT00003483,40,CODESHRT00003484,42,CODESHRT00003485,44,CODESHRT00003486;1499.00;;;<p>Machine wash at 40'C,do not bleach, warm iron, donot dryclean, Tumble dry low,Wash dark colors seperately.</p>;;;;SS18-MC-ALL,MCW-SS18-ALL,mcw-ss18-all;zerotype;;Spring;mcw-ss18-all;No
2442963;CF-GOONJ-WHITE-2442963;AM-Formal Wear-Shirt;Draft;Shirts;CODE by Lifestyle;Adults-Men;Men;;;;Fashion;;2018;39,CODESHRT00003414,40,CODESHRT00003415,42,CODESHRT00003416,44,CODESHRT00003417;999.00;;;<p>Machine wash at 40'C,do not bleach, warm iron, donot dryclean, Tumble dry low,Wash dark colors seperately.</p>;;;;SS18-MC-ALL,MCW-SS18-ALL,mcw-ss18-all;zerotype;;Spring;mcw-ss18-all;No
2442962;CF-GOONJ-NAVY-2442962;AM-Formal Wear-Shirt;Draft;Shirts;CODE by Lifestyle;Adults-Men;Men;;;;Fashion;;2018;39,CODESHRT00003410,40,CODESHRT00003411,42,CODESHRT00003412,44,CODESHRT00003413;999.00;;;<p>Machine wash at 40'C,do not bleach, warm iron, donot dryclean, Tumble dry low,Wash dark colors seperately.</p>;;;;SS18-MC-ALL,MCW-SS18-ALL,mcw-ss18-all;zerotype;;Spring;mcw-ss18-all;No
2442947;CF-FLAMINGO-NAVY-2442947;AM-Formal Wear-Shirt;Draft;Shirts;CODE by Lifestyle;Adults-Men;Men;;;;Fashion;;2018;39,CODESHRT00003350,40,CODESHRT00003351,42,CODESHRT00003352,44,CODESHRT00003353;1299.00;;;<p>Machine wash at 40'C,do not bleach, warm iron, donot dryclean, Tumble dry low,Wash dark colors seperately.</p>;;;;SS18-MC-ALL,MCW-SS18-ALL,mcw-ss18-all;zerotype;;Spring;mcw-ss18-all;No
2442924;CFF-ADIE-WHITE-2442924;AM-Formal Wear-Shirt;Draft;Shirts;CODE by Lifestyle;Adults-Men;Men;;;;Fashion;;2018;39,CODESHRT00003258,40,CODESHRT00003259,42,CODESHRT00003260,44,CODESHRT00003261;1299.00;;;<p>Machine wash at 40'C,do not bleach, warm iron, donot dryclean, Tumble dry low,Wash dark colors seperately.</p>;;;;SS18-MC-ALL,MCW-SS18-ALL,mcw-ss18-all;zerotype;;Spring;mcw-ss18-all;No
2442923;CFF-ADIE-BLACK-2442923;AM-Formal Wear-Shirt;Draft;Shirts;CODE by Lifestyle;Adults-Men;Men;;;;Fashion;;2018;39,CODESHRT00003254,40,CODESHRT00003255,42,CODESHRT00003256,44,CODESHRT00003257;1299.00;;;<p>Machine wash at 40'C,do not bleach, warm iron, donot dryclean, Tumble dry low,Wash dark colors seperately.</p>;;;;SS18-MC-ALL,MCW-SS18-ALL,mcw-ss18-all;zerotype;;Spring;mcw-ss18-all;No
2442916;CF-CRO-SAND-2442916;AM-Formal Wear-Shirt;Draft;Shirts;CODE by Lifestyle;Adults-Men;Men;;;;Fashion;;2018;39,CODESHRT00003226,40,CODESHRT00003227,42,CODESHRT00003228,44,CODESHRT00003229;1299.00;;;<p>Machine wash at 40'C,do not bleach, warm iron, donot dryclean, Tumble dry low,Wash dark colors seperately.</p>;;;;SS18-MC-ALL,MCW-SS18-ALL,mcw-ss18-all;zerotype;;Spring;mcw-ss18-all;No
2442915;CF-CRO-BLUE-2442915;AM-Formal Wear-Shirt;Draft;Shirts;CODE by Lifestyle;Adults-Men;Men;;;;Fashion;;2018;39,CODESHRT00003222,40,CODESHRT00003223,42,CODESHRT00003224,44,CODESHRT00003225;1299.00;;;<p>Machine wash at 40'C,do not bleach, warm iron, donot dryclean, Tumble dry low,Wash dark colors seperately.</p>;;;;SS18-MC-ALL,MCW-SS18-ALL,mcw-ss18-all;zerotype;;Spring;mcw-ss18-all;No
2442911;CF-BUBBLE-WINE-2442911;AM-Formal Wear-Shirt;Draft;Shirts;CODE by Lifestyle;Adults-Men;Men;;;;Fashion;;2018;39,CODESHRT00003203,40,CODESHRT00003204,42,CODESHRT00003205,44,CODESHRT00003206;1299.00;;;<p>Machine wash at 40'C,do not bleach, warm iron, donot dryclean, Tumble dry low,Wash dark colors seperately.</p>;;;;SS18-MC-ALL,MCW-SS18-ALL,mcw-ss18-all;zerotype;;Spring;mcw-ss18-all;No
2442896;CC-TEXTURE-NAVY-2442896;AM-Casual Wear-Shirt;Draft;Shirts;CODE by Lifestyle;Adults-Men;Men;;;;Fashion;;2018;39,CODESHRT00003142,40,CODESHRT00003143,42,CODESHRT00003144,44,CODESHRT00003145,46,CODESHRT00003146;1299.00;;;<p>Machine wash at 40'C,do not bleach, warm iron, donot dryclean, Tumble dry low,Wash dark colors seperately.</p>;;;;SS18-MC-ALL,MCW-SS18-ALL,mcw-ss18-all;zerotype;;Spring;mcw-ss18-all;No
2442894;CC-TEXTURE-CHARCOAL-2442894;AM-Casual Wear-Shirt;Draft;Shirts;CODE by Lifestyle;Adults-Men;Men;;;;Fashion;;2018;46,CODESHRT00003137,39,CODESHRT00003138,40,CODESHRT00003139,42,CODESHRT00003140,44,CODESHRT00003141;1299.00;;;<p>Machine wash at 40'C,do not bleach, warm iron, donot dryclean, Tumble dry low,Wash dark colors seperately.</p>;;;;SS18-MC-ALL,MCW-SS18-ALL,mcw-ss18-all;zerotype;;Spring;mcw-ss18-all;No
2442887;CC-SULPHUR-MID BLUE-2442887;AM-Casual Wear-Shirt;Draft;Shirts;CODE by Lifestyle;Adults-Men;Men;;;;Fashion;;2018;39,CODESHRT00003122,40,CODESHRT00003123,42,CODESHRT00003124,44,CODESHRT00003125,46,CODESHRT00003126;1299.00;;;<p>Machine wash at 40'C,do not bleach, warm iron, donot dryclean, Tumble dry low,Wash dark colors seperately.</p>;;;;SS18-MC-ALL,MCW-SS18-ALL,mcw-ss18-all;zerotype;;Spring;mcw-ss18-all;No
2442885;CC-SULPHUR-BLACK-2442885;AM-Casual Wear-Shirt;Draft;Shirts;CODE by Lifestyle;Adults-Men;Men;;;;Fashion;;2018;39,CODESHRT00003117,40,CODESHRT00003118,42,CODESHRT00003119,44,CODESHRT00003120,46,CODESHRT00003121;1299.00;;;<p>Machine wash at 40'C,do not bleach, warm iron, donot dryclean, Tumble dry low,Wash dark colors seperately.</p>;;;;SS18-MC-ALL,MCW-SS18-ALL,mcw-ss18-all;zerotype;;Spring;mcw-ss18-all;No
2442866;CC-RASPER-NAVY-2442866;AM-Casual Wear-Shirt;Draft;Shirts;CODE by Lifestyle;Adults-Men;Men;;;;Fashion;;2018;39,CODESHRT00003072,40,CODESHRT00003073,42,CODESHRT00003074,44,CODESHRT00003075,46,CODESHRT00003076;1299.00;;;<p>Machine wash at 40'C,do not bleach, warm iron, donot dryclean, Tumble dry low,Wash dark colors seperately.</p>;;;;SS18-MC-ALL,MCW-SS18-ALL,mcw-ss18-all;zerotype;;Spring;mcw-ss18-all;No
2442864;CC-RASPER-MID BLUE-2442864;AM-Casual Wear-Shirt;Draft;Shirts;CODE by Lifestyle;Adults-Men;Men;;;;Fashion;;2018;39,CODESHRT00003067,40,CODESHRT00003068,42,CODESHRT00003069,44,CODESHRT00003070,46,CODESHRT00003071;1299.00;;;<p>Machine wash at 40'C,do not bleach, warm iron, donot dryclean, Tumble dry low,Wash dark colors seperately.</p>;;;;SS18-MC-ALL,MCW-SS18-ALL,mcw-ss18-all;zerotype;;Spring;mcw-ss18-all;No
2442860;CC-MELANGE CHECK-WHITE-2442860;AM-Casual Wear-Shirt;Draft;Shirts;CODE by Lifestyle;Adults-Men;Men;;;;Fashion;;2018;39,CODESHRT00003057,40,CODESHRT00003058,42,CODESHRT00003059,44,CODESHRT00003060,46,CODESHRT00003061;1299.00;;;<p>Machine wash at 40'C,do not bleach, warm iron, donot dryclean, Tumble dry low,Wash dark colors seperately.</p>;;;;SS18-MC-ALL,MCW-SS18-ALL,mcw-ss18-all;zerotype;;Spring;mcw-ss18-all;No
2442857;CC-MELANGE CHECK-DARK RED-2442857;AM-Casual Wear-Shirt;Draft;Shirts;CODE by Lifestyle;Adults-Men;Men;;;;Fashion;;2018;42,CODESHRT00003052,44,CODESHRT00003053,46,CODESHRT00003054,39,CODESHRT00003055,40,CODESHRT00003056;1299.00;;;<p>Machine wash at 40'C,do not bleach, warm iron, donot dryclean, Tumble dry low,Wash dark colors seperately.</p>;;;;SS18-MC-ALL,MCW-SS18-ALL,mcw-ss18-all;zerotype;;Spring;mcw-ss18-all;No
2442830;CC-HORIZONATAL SPACE-WHITE-2442830;AM-Casual Wear-Shirt;Draft;Shirts;CODE by Lifestyle;Adults-Men;Men;;;;Fashion;;2018;39,CODESHRT00002987,40,CODESHRT00002988,42,CODESHRT00002989,44,CODESHRT00002990,46,CODESHRT00002991;1499.00;;;<p>Machine wash at 40'C,do not bleach, warm iron, donot dryclean, Tumble dry low,Wash dark colors seperately.</p>;;;;SS18-MC-ALL,MCW-SS18-ALL,mcw-ss18-all;zerotype;;Spring;mcw-ss18-all;No
2442806;CC-BROKEN DENIM-RINSE WASH-2442806;AM-Casual Wear-Shirt;Draft;Shirts;CODE by Lifestyle;Adults-Men;Men;;;;Fashion;;2018;40,CODESHRT00002928,42,CODESHRT00002929,44,CODESHRT00002930,46,CODESHRT00002931,39,CODESHRT00003508;1299.00;;;<p>Machine wash at 40'C,do not bleach, warm iron, donot dryclean, Tumble dry low,Wash dark colors seperately.</p>;;;;SS18-MC-ALL,MCW-SS18-ALL,mcw-ss18-all;zerotype;;Spring;mcw-ss18-all;No
2442804;CC-BROKEN DENIM-MEDIUM WASH-2442804;AM-Casual Wear-Shirt;Draft;Shirts;CODE by Lifestyle;Adults-Men;Men;;;;Fashion;;2018;46,CODESHRT00002923,39,CODESHRT00002924,40,CODESHRT00002925,42,CODESHRT00002926,44,CODESHRT00002927;1299.00;;;<p>Machine wash at 40'C,do not bleach, warm iron, donot dryclean, Tumble dry low,Wash dark colors seperately.</p>;;;;SS18-MC-ALL,MCW-SS18-ALL,mcw-ss18-all;zerotype;;Spring;mcw-ss18-all;No
2437456;JDN318006603-DarkblueWithblue-2437456;JDN318006603;Draft;Jeans;Peter England Casuals;Adults-Men;Men;Blue;;;Fashion;;2018;30,PEDCJENS00001127,36,PEDCJENS00001128,32,PEDCJENS00001129,28,PEDCJENS00001130,34,PEDCJENS00001131,38,PEDCJENS00001132,40,PEDCJENS00001133;1399.00;;;<p>98%Cotton2%Spandex</p>;;;;SS18-MC-ALL,MCW-SS18-ALL,mcw-ss18-all;zerotype;;Spring;mcw-ss18-all;No
2437455;JDN318006602-DarkblueWithblue-2437455;JDN318006602;Draft;Jeans;Peter England Casuals;Adults-Men;Men;Blue;;;Fashion;;2018;32,PEDCJENS00001120,28,PEDCJENS00001121,38,PEDCJENS00001122,30,PEDCJENS00001123,34,PEDCJENS00001124,36,PEDCJENS00001125,40,PEDCJENS00001126;1599.00;;;<p>98%Cotton2%Spandex</p>;;;;SS18-MC-ALL,MCW-SS18-ALL,mcw-ss18-all;zerotype;;Spring;mcw-ss18-all;No
2437454;JDN318006601-DarkblueWithblue-2437454;JDN318006601;Draft;Jeans;Peter England Casuals;Adults-Men;Men;Blue;;;Fashion;;2018;32,PEDCJENS00001113,34,PEDCJENS00001114,38,PEDCJENS00001115,36,PEDCJENS00001116,28,PEDCJENS00001117,30,PEDCJENS00001118,40,PEDCJENS00001119;1399.00;;;<p>98%Cotton2%Spandex</p>;;;;SS18-MC-ALL,MCW-SS18-ALL,mcw-ss18-all;zerotype;;Spring;mcw-ss18-all;No
2437453;JDN318006600-DarkblueWithblue-2437453;JDN318006600;Draft;Jeans;Peter England Casuals;Adults-Men;Men;Blue;;;Fashion;;2018;28,PEDCJENS00001106,30,PEDCJENS00001107,34,PEDCJENS00001108,38,PEDCJENS00001109,32,PEDCJENS00001110,36,PEDCJENS00001111,40,PEDCJENS00001112;1799.00;;;<p>98%Cotton2%Spandex</p>;;;;SS18-MC-ALL,MCW-SS18-ALL,mcw-ss18-all;zerotype;;Spring;mcw-ss18-all;No
2437452;JDN318006599-DarkblueWithblue-2437452;JDN318006599;Draft;Jeans;Peter England Casuals;Adults-Men;Men;Blue;;;Fashion;;2018;28,PEDCJENS00001099,38,PEDCJENS00001100,30,PEDCJENS00001101,36,PEDCJENS00001102,32,PEDCJENS00001103,34,PEDCJENS00001104,40,PEDCJENS00001105;1799.00;;;<p>98%Cotton2%Spandex</p>;;;;SS18-MC-ALL,MCW-SS18-ALL,mcw-ss18-all;zerotype;;Spring;mcw-ss18-all;No
2437442;JSF10717001953-White-2437442;JSF10717001953;Draft;Shirts;Peter England Casuals;Adults-Men;Men;White;;;Fashion;;2018;39,PEDCSHRT00002707,40,PEDCSHRT00002708,44,PEDCSHRT00002709,38,PEDCSHRT00002710,42,PEDCSHRT00002711,36,PEDCSHRT00002712;999.00;;;<p>100%Cotton</p>;;;;SS18-MC-ALL,MCW-SS18-ALL,mcw-ss18-all;zerotype;;Spring;mcw-ss18-all;No
2437441;ESH318000056-LightRedSolid-2437441;ESH318000056;Draft;Shirts;Peter England Casuals;Adults-Men;Men;Red;;;Fashion;;2018;38,PEDCSHRT00002702,42,PEDCSHRT00002703,39,PEDCSHRT00002704,40,PEDCSHRT00002705,36,PEDCSHRT00002706;1499.00;;;<p>100%Cotton</p>;;;;SS18-MC-ALL,MCW-SS18-ALL,mcw-ss18-all;zerotype;;Spring;mcw-ss18-all;No
2301903;PIMW100217-BLUE-2301903;WILKENS;On Hold - Sample;Shorts;Pepe Jeans;Adults-Men;Men;;;;Fashion;Casual;2017;30,PEJESHOR00001113,32,PEJESHOR00001114,34,PEJESHOR00001115,36,PEJESHOR00001116,38,PEJESHOR00001117;1999.00;;;<p>PTD.  STRETCH TWILL</p>;;;;;zerotype;;Summer;Broken size;No
2301807;PIMW100104-NAVY-2301807;MILAN LS;On Hold - Sample;Shirts;Pepe Jeans;Adults-Men;Men;;;;Fashion;Casual;2017;S,PEJESHRT00011205,M,PEJESHRT00011206,L,PEJESHRT00011207,XL,PEJESHRT00011208,XXL,PEJESHRT00011209;2299.00;;;<p>100% Cotton</p>;;;;;zerotype;;Summer;Broken size;No
2301798;PIMW100071-GREEN-2301798;BARRY LS;On Hold - Sample;Shirts;Pepe Jeans;Adults-Men;Men;;;;Fashion;Casual;2017;S,PEJESHRT00011178,L,PEJESHRT00011179,XL,PEJESHRT00011180,XXL,PEJESHRT00011181;2099.00;;;<p>100% Cotton</p>;;;;;zerotype;;Summer;Broken size;No
2282102;PMJB00105-X2-NA-2282102;SB 3 BTN -REG LAPEL;Draft;Jackets;Park Avenue;Adults-Men;Men;NA;;;Fashion;;2014;92,PKAVJCKT00001753,96,PKAVJCKT00001754,100,PKAVJCKT00001755;5999.00;;;<p>DRY CLEAN ONLY,Wool</p>;;;;workwear-styles,formal-aug-mb;zerotype;;Winter;formal;No
2270933;50010857332005-BLUE-2270933;PSCUL-S-SL76391-0110, 46, BLUE;On Hold - Sample;Shirts;SCULLERS;Adults-Men;Men;Blue;;;Fashion;;2017;39,SCUMSHRT00102323,40,SCUMSHRT00102324,42,SCUMSHRT00102325,46,SCUMSHRT00102326;1599.00;;;<p>WASH DARK COLORS SEPERATELY. HAND WASH OR MACHINE WASH COLD. USE MILD DETERGENT.TUMBLE DRY LOW. DRY IN SHADE. DO NOT BLEACH. WARM IRON</p>;;;;;zerotype;;Fall;Broken size;No
2270880;50009990041005-BLUE-2270880;PSCUL-S-SL65742-16S1, 46, BLUE;Draft;Shirts;SCULLERS;Adults-Men;Men;Blue;;;Fashion;;2017;40,SCUMSHRT00102218,42,SCUMSHRT00102219,46,SCUMSHRT00102220;1799.00;;;<p>WASH DARK COLORS SEPERATELY. HAND WASH OR MACHINE WASH COLD. USE MILD DETERGENT.TUMBLE DRY LOW. DRY IN SHADE. DO NOT BLEACH. WARM IRON</p>;;;;;zerotype;;Fall;;No
2270037;50010873931006-BROWN-2270037;PSCUL-S-ST64051-0110, 40, BROWN;Draft;Trousers;SCULLERS;Adults-Men;Men;Brown;;;Fashion;;2017;30,SCUMTRSR00101169,32,SCUMTRSR00101170,34,SCUMTRSR00101171,40,SCUMTRSR00101172;2199.00;;;<p>WASH DARK COLORS SEPERATELY. HAND WASH OR MACHINE WASH COLD. USE MILD DETERGENT. DO NOT WRING. FLAT DRY IN SHADE. SON NOT BLEACH. DO NOT IRON ON PTINT</p>;;;;;zerotype;;Fall;;No
2270034;50010873703006-KHAKHI-2270034;PSCUL-S-ST63971-4171, 40, KHAKHI;Draft;Trousers;SCULLERS;Adults-Men;Men;Khaki;;;Fashion;;2017;30,SCUMTRSR00101157,32,SCUMTRSR00101158,38,SCUMTRSR00101159,40,SCUMTRSR00101160;2199.00;;;<p>WASH DARK COLORS SEPERATELY. HAND WASH OR MACHINE WASH COLD. USE MILD DETERGENT. DO NOT WRING. FLAT DRY IN SHADE. SON NOT BLEACH. DO NOT IRON ON PTINT</p>;;;;;zerotype;;Fall;;No
2267236;50011113024004-WHITE-2267236;PSCUL-M-SJ03572-4172, 44, WHITE;Draft;Jackets;SCULLERS;Adults-Men;Men;White;;;Fashion;;2017;38,SCUMJCKT00094711,40,SCUMJCKT00094712,44,SCUMJCKT00094713;4999.00;;;<p>WASH DARK COLOUR SEPERATELY, HAND WASH OR MACHINE WASH COLD,USE MILD DETERGENT, DO NOT WRING, FLAT DRY IN SHADE, DONT BLEACH, DO NOT IRON ON PRINT</p>;;;;;zerotype;;Fall;;No
2267197;50009252793005-NAVY-2267197;PSCUL-M-ST60021-15A1, 38, NAVY;Draft;Shorts;SCULLERS;Adults-Men;Men;Navy Blue;;;Fashion;;2017;30,SCUMSHOR00000091,32,SCUMSHOR00000092,34,SCUMSHOR00000093,36,SCUMSHOR00000094,38,SCUMSHOR00000095;1499.00;;;<p>WASH DARK COLORS SEPERATELY. HAND WASH OR MACHINE WASH COLD. USE MILD DETERGENT. DO NOT WRING. FLAT DRY IN SHADE. SON NOT BLEACH. DO NOT IRON ON PTINT</p>;;;;;zerotype;;Fall;;No
2267189;50010442962002-BROWN-2267189;PSCUL-S-Sz00872-16A1, BROWN, M;On Hold - Sample;Sweatshirts;SCULLERS;Adults-Men;Men;Brown;;;Fashion;;2017;L,SCUMSWSH00000005,XL,SCUMSWSH00000006,XXL,SCUMSWSH00000007,M,SCUMSWSH00000008;1799.00;;;<p>WASH DARK COLORS SEPERATELY. HAND WASH OR MACHINE WASH COLD. USE MILD DETERGENT. DO NOT WRING. FLAT DRY IN SHADE. SON NOT BLEACH. DO NOT IRON ON PTINT</p>;;;;;zerotype;;Fall;Broken size;No
2267187;50010885121005-BLUE-2267187;PSCST-S-XT04111-4171, 38, BLUE;On Hold - Sample;Jeans;Scullers Sport;Adults-Men;Men;Blue;;;Fashion;;2017;30,SCSTJENS00000165,32,SCSTJENS00000166,36,SCSTJENS00000167,38,SCSTJENS00000168;2799.00;;;<p>WASH DARK COLORS SEPERATELY. HAND WASH OR MACHINE WASH COLD. USE MILD DETERGENT. DO NOT WRING. FLAT DRY IN SHADE. SON NOT BLEACH. DO NOT IRON ON PTINT</p>;;;;;zerotype;;Fall;Broken size;No
2141142;PIMD200168-DK-USED-2141142;NICK V;Draft;Jeans;Pepe Jeans;Adults-Men;Men;;;;Fashion;;2017;32,PEJEJENS00009450,34,PEJEJENS00009451,36,PEJEJENS00009452,38,PEJEJENS00009453;3799.00;;;<p>65%COTTON  33%POLYSTER  2%ELASTANE</p>;;;;;zerotype;;Winter;;No
