Style ID;Vendor Article Number;Vendor Article Name;Active Status;Article type;Brand;Age Group;Gender;Base Colour;Colour1;Colour2;Fashion Type;Usage;Year;Size - SKU code pair;MRP;Style Description;Style Note;Materials and Care Description;Size and Fit Description;Size Chart Path;Product Display Name;Tags;Product Type;Classification Brand;Season;Comments;Upload Images
1908484;A96-Black-S-Black-1908484;Secret Wish Black Solid Lacy Top;Draft;Bra;Secret Wish;Adults-Women;Women;;;;Fashion;;2017;L,SCWHBRAA00000570,M,SCWHBRAA00000571,S,SCWHBRAA00000572;1199.00;;;;;;;;zerotype;;Summer;;No
1908483;A24-White-S-White-1908483;Secret Wish White Lacy Tube Bra;Draft;Bra;Secret Wish;Adults-Women;Women;;;;Fashion;;2017;M,SCWHBRAA00000568,S,SCWHBRAA00000569;499.00;;;;;;;;zerotype;;Summer;;No
1908482;A24-Black-S-Black-1908482;Secret Wish White Lacy Tube Bra;Draft;Bra;Secret Wish;Adults-Women;Women;;;;Fashion;;2017;M,SCWHBRAA00000566,S,SCWHBRAA00000567;499.00;;;;;;;;zerotype;;Summer;;No
1908481;9984-Skin-S-Nude-1908481;Secret Wish Full Coverage Bralette in Skin;Draft;Bra;Secret Wish;Adults-Women;Women;;;;Fashion;;2017;L,SCWHBRAA00000563,M,SCWHBRAA00000564,S,SCWHBRAA00000565;849.00;;;;;;;;zerotype;;Summer;;No
1908480;8862-White-S-White-1908480;Secret Wish White Lace Bralette;Draft;Bra;Secret Wish;Adults-Women;Women;;;;Fashion;;2017;L,SCWHBRAA00000560,M,SCWHBRAA00000561,S,SCWHBRAA00000562;899.00;;;;;;;;zerotype;;Summer;;No
1908479;8862-Black-S-Black-1908479;Secret Wish Black Lace Bralette;Draft;Bra;Secret Wish;Adults-Women;Women;;;;Fashion;;2017;L,SCWHBRAA00000557,M,SCWHBRAA00000558,S,SCWHBRAA00000559;899.00;;;;;;;;zerotype;;Summer;;No
1908478;5070-White-S-White-1908478;Secret Wish White Cage Bralette;Draft;Bra;Secret Wish;Adults-Women;Women;;;;Fashion;;2017;M,SCWHBRAA00000555,S,SCWHBRAA00000556;699.00;;;;;;;;zerotype;;Summer;;No
1908477;5070-Black-S-Black-1908477;Secret Wish Black Cage Bralette;Draft;Bra;Secret Wish;Adults-Women;Women;;;;Fashion;;2017;M,SCWHBRAA00000553,S,SCWHBRAA00000554;699.00;;;;;;;;zerotype;;Summer;;No
1908476;2689-Grey-S-Grey-1908476;Secret Wish Grey Activewear Sports Bra;Draft;Bra;Secret Wish;Adults-Women;Women;;;;Fashion;;2017;M,SCWHBRAA00000551,S,SCWHBRAA00000552;1099.00;;;;;;;;zerotype;;Summer;;No
1908475;2625-White-S-White-1908475;Secret Wish White Lacy Tube Bra;Draft;Bra;Secret Wish;Adults-Women;Women;;;;Fashion;;2017;M,SCWHBRAA00000549,S,SCWHBRAA00000550;599.00;;;;;;;;zerotype;;Summer;;No
1908474;2625-Black-S-Black-1908474;Secret Wish White Lacy Tube Bra;Draft;Bra;Secret Wish;Adults-Women;Women;;;;Fashion;;2017;M,SCWHBRAA00000547,S,SCWHBRAA00000548;599.00;;;;;;;;zerotype;;Summer;;No
1908473;2102-Yellow-S-Yellow-1908473;Secret Wish Solid Yellow Sports Bra;Draft;Bra;Secret Wish;Adults-Women;Women;;;;Fashion;;2017;M,SCWHBRAA00000545,S,SCWHBRAA00000546;849.00;;;;;;;;zerotype;;Summer;;No
1908472;2102-Pink-S-Pink-1908472;Secret Wish Solid Pink Sports Bra;Draft;Bra;Secret Wish;Adults-Women;Women;;;;Fashion;;2017;M,SCWHBRAA00000543,S,SCWHBRAA00000544;849.00;;;;;;;;zerotype;;Summer;;No
1908471;2102-Orange-S-Orange-1908471;Secret Wish Solid Orange Sports Bra;Draft;Bra;Secret Wish;Adults-Women;Women;;;;Fashion;;2017;M,SCWHBRAA00000541,S,SCWHBRAA00000542;699.00;;;;;;;;zerotype;;Summer;;No
1908470;2102-Grey-S-Grey-1908470;Secret Wish Solid Grey Sports Bra;Draft;Bra;Secret Wish;Adults-Women;Women;;;;Fashion;;2017;M,SCWHBRAA00000539,S,SCWHBRAA00000540;849.00;;;;;;;;zerotype;;Summer;;No
1908469;2102-Blue-S-Blue-1908469;Secret Wish Solid Blue Sports Bra;Draft;Bra;Secret Wish;Adults-Women;Women;;;;Fashion;;2017;M,SCWHBRAA00000537,S,SCWHBRAA00000538;849.00;;;;;;;;zerotype;;Summer;;No
1908468;2088-Yellow-S-Yellow-1908468;Secret Wish Yellow Sports Bra With Racer Back;Draft;Bra;Secret Wish;Adults-Women;Women;;;;Fashion;;2017;L,SCWHBRAA00000534,M,SCWHBRAA00000535,S,SCWHBRAA00000536;849.00;;;;;;;;zerotype;;Summer;;No
1908467;2088-Skin-S-Nude-1908467;Secret Wish Skin Sports Bra With Racer Back;Draft;Bra;Secret Wish;Adults-Women;Women;;;;Fashion;;2017;L,SCWHBRAA00000531,M,SCWHBRAA00000532,S,SCWHBRAA00000533;849.00;;;;;;;;zerotype;;Summer;;No
1908466;2088-Orange-S-Orange-1908466;Secret Wish Orange Sports Bra With Racer Back;Draft;Bra;Secret Wish;Adults-Women;Women;;;;Fashion;;2017;L,SCWHBRAA00000528,M,SCWHBRAA00000529,S,SCWHBRAA00000530;849.00;;;;;;;;zerotype;;Summer;;No
1908465;2088-Pink-S-Pink-1908465;Secret Wish Neon Green Sports Bra With Racer Back;Draft;Bra;Secret Wish;Adults-Women;Women;;;;Fashion;;2017;L,SCWHBRAA00000525,M,SCWHBRAA00000526,S,SCWHBRAA00000527;849.00;;;;;;;;zerotype;;Summer;;No
1908464;2088-Green-S-Green-1908464;Secret Wish Neon Green Sports Bra With Racer Back;Draft;Bra;Secret Wish;Adults-Women;Women;;;;Fashion;;2017;L,SCWHBRAA00000522,M,SCWHBRAA00000523,S,SCWHBRAA00000524;849.00;;;;;;;;zerotype;;Summer;;No
1908463;2088-Hot-Pink-S-Pink-1908463;Secret Wish Hot Pink Sports Bra With Racer Back;Draft;Bra;Secret Wish;Adults-Women;Women;;;;Fashion;;2017;L,SCWHBRAA00000519,M,SCWHBRAA00000520,S,SCWHBRAA00000521;849.00;;;;;;;;zerotype;;Summer;;No
1908462;2088-Blue-S-Blue-1908462;Secret Wish Blue Sports Bra With Racer Back;Draft;Bra;Secret Wish;Adults-Women;Women;;;;Fashion;;2017;L,SCWHBRAA00000516,M,SCWHBRAA00000517,S,SCWHBRAA00000518;849.00;;;;;;;;zerotype;;Summer;;No
1908461;2088-Black-S-Black-1908461;Secret Wish Black Sports Bra With Racer Back;Draft;Bra;Secret Wish;Adults-Women;Women;;;;Fashion;;2017;L,SCWHBRAA00000513,M,SCWHBRAA00000514,S,SCWHBRAA00000515;849.00;;;;;;;;zerotype;;Summer;;No
1908460;2045-White-S-White-1908460;Secret Wish White Bralette With Criss-Cross Back;Draft;Bra;Secret Wish;Adults-Women;Women;;;;Fashion;;2017;M,SCWHBRAA00000511,S,SCWHBRAA00000512;799.00;;;;;;;;zerotype;;Summer;;No
1908459;2045-Black-S-Black-1908459;Secret Wish Black Bralette With Criss-Cross Back;Draft;Bra;Secret Wish;Adults-Women;Women;;;;Fashion;;2017;M,SCWHBRAA00000509,S,SCWHBRAA00000510;799.00;;;;;;;;zerotype;;Summer;;No
1908458;1803-Skin-S-Nude-1908458;Secret Wish Skin Solid Bralette Top;Draft;Bra;Secret Wish;Adults-Women;Women;;;;Fashion;;2017;L,SCWHBRAA00000506,M,SCWHBRAA00000507,S,SCWHBRAA00000508;1199.00;;;;;;;;zerotype;;Summer;;No
1908457;1769-Purple-Free-Purple-1908457;Secret Wish Purple Tube Bra;Draft;Bra;Secret Wish;Adults-Women;Women;;;;Fashion;;2017;Onesize,SCWHBRAA00000505;699.00;;;;;;;;zerotype;;Summer;;No
1908456;1769-Pink-Free-Pink-1908456;Secret Wish Pink Tube Bra;Draft;Bra;Secret Wish;Adults-Women;Women;;;;Fashion;;2017;Onesize,SCWHBRAA00000504;699.00;;;;;;;;zerotype;;Summer;;No
1908455;1768-Skin-Free-Nude-1908455;Secret Wish Skin Colored Paded Bralette;Draft;Bra;Secret Wish;Adults-Women;Women;;;;Fashion;;2017;Onesize,SCWHBRAA00000503;1199.00;;;;;;;;zerotype;;Summer;;No
1908454;1589-Yellow-S-Yellow-1908454;Secret Wish Yellow Coloured Bralette;Draft;Bra;Secret Wish;Adults-Women;Women;;;;Fashion;;2017;M,SCWHBRAA00000501,S,SCWHBRAA00000502;849.00;;;;;;;;zerotype;;Summer;;No
1908453;1589-White-S-White-1908453;Secret Wish White Coloured Bralette;Draft;Bra;Secret Wish;Adults-Women;Women;;;;Fashion;;2017;M,SCWHBRAA00000499,S,SCWHBRAA00000500;849.00;;;;;;;;zerotype;;Summer;;No
1908452;1589-Pink-S-Pink-1908452;Secret Wish Pink Coloured Bralette;Draft;Bra;Secret Wish;Adults-Women;Women;;;;Fashion;;2017;M,SCWHBRAA00000497,S,SCWHBRAA00000498;849.00;;;;;;;;zerotype;;Summer;;No
1908451;1589-Orange-S-Orange-1908451;Secret Wish Orange Coloured Bralette;Draft;Bra;Secret Wish;Adults-Women;Women;;;;Fashion;;2017;M,SCWHBRAA00000495,S,SCWHBRAA00000496;849.00;;;;;;;;zerotype;;Summer;;No
1908450;1589-Green-S-Green-1908450;Secret Wish Neon Green Coloured Bralette;Draft;Bra;Secret Wish;Adults-Women;Women;;;;Fashion;;2017;M,SCWHBRAA00000493,S,SCWHBRAA00000494;849.00;;;;;;;;zerotype;;Summer;;No
1908449;1589-Blue-S-Blue-1908449;Secret Wish Blue Coloured Bralette;Draft;Bra;Secret Wish;Adults-Women;Women;;;;Fashion;;2017;M,SCWHBRAA00000491,S,SCWHBRAA00000492;849.00;;;;;;;;zerotype;;Summer;;No
1908448;1589-Black-S-Black-1908448;Secret Wish Black Coloured Bralette;Draft;Bra;Secret Wish;Adults-Women;Women;;;;Fashion;;2017;M,SCWHBRAA00000489,S,SCWHBRAA00000490;849.00;;;;;;;;zerotype;;Summer;;No
1908447;1581-Pink-S-Pink-1908447;Secret Wish Pink-Full Coverage Sports Bra;Draft;Bra;Secret Wish;Adults-Women;Women;;;;Fashion;;2017;M,SCWHBRAA00000487,S,SCWHBRAA00000488;1099.00;;;;;;;;zerotype;;Summer;;No
1908446;1581-Blue-S-Blue-1908446;Secret Wish Dark Blue-Full Coverage Sports Bra;Draft;Bra;Secret Wish;Adults-Women;Women;;;;Fashion;;2017;M,SCWHBRAA00000485,S,SCWHBRAA00000486;1099.00;;;;;;;;zerotype;;Summer;;No
1908445;1581-Turquoise-Blue-S-Turquoise Blue-1908445;Secret Wish Blue-Full Coverage Sports Bra;Draft;Bra;Secret Wish;Adults-Women;Women;;;;Fashion;;2017;M,SCWHBRAA00000483,S,SCWHBRAA00000484;1099.00;;;;;;;;zerotype;;Summer;;No
1908444;1581-Black-S-Black-1908444;Secret Wish Black-Full Coverage Sports Bra;Draft;Bra;Secret Wish;Adults-Women;Women;;;;Fashion;;2017;M,SCWHBRAA00000481,S,SCWHBRAA00000482;1499.00;;;;;;;;zerotype;;Summer;;No
1908443;1578-Blue-S-Blue-1908443;Secret Wish Racer Back Padded Wireless Sports Bra-Blue;Draft;Bra;Secret Wish;Adults-Women;Women;;;;Fashion;;2017;L,SCWHBRAA00000478,M,SCWHBRAA00000479,S,SCWHBRAA00000480;999.00;;;;;;;;zerotype;;Summer;;No
1908442;1578-Red-S-Red-1908442;Secret Wish Racer Back Padded Wireless Sports Bra - Red;Draft;Bra;Secret Wish;Adults-Women;Women;;;;Fashion;;2017;L,SCWHBRAA00000475,M,SCWHBRAA00000476,S,SCWHBRAA00000477;999.00;;;;;;;;zerotype;;Summer;;No
1908441;1578-Pink-S-Pink-1908441;Secret Wish Racer Back Padded Wireless Sports Bra - Pink;Draft;Bra;Secret Wish;Adults-Women;Women;;;;Fashion;;2017;L,SCWHBRAA00000472,M,SCWHBRAA00000473,S,SCWHBRAA00000474;999.00;;;;;;;;zerotype;;Summer;;No
1908440;1578-Fluorescent-Green-S-Fluorescent Green-1908440;Secret Wish Racer Back Padded Wireless Sports Bra - Green;Draft;Bra;Secret Wish;Adults-Women;Women;;;;Fashion;;2017;L,SCWHBRAA00000469,M,SCWHBRAA00000470,S,SCWHBRAA00000471;999.00;;;;;;;;zerotype;;Summer;;No
1908439;1578-Black-S-Black-1908439;Secret Wish Racer Back Padded Wireless Sports Bra - Black;Draft;Bra;Secret Wish;Adults-Women;Women;;;;Fashion;;2017;L,SCWHBRAA00000466,M,SCWHBRAA00000467,S,SCWHBRAA00000468;999.00;;;;;;;;zerotype;;Summer;;No
1908438;1518-Yellow-S-Yellow-1908438;Secret Wish Yellow Full Coverange Bralette;Draft;Bra;Secret Wish;Adults-Women;Women;;;;Fashion;;2017;M,SCWHBRAA00000464,S,SCWHBRAA00000465;1099.00;;;;;;;;zerotype;;Summer;;No
1908437;1518-Skin-S-Nude-1908437;Secret Wish Skin Full Coverange Bralette;Draft;Bra;Secret Wish;Adults-Women;Women;;;;Fashion;;2017;M,SCWHBRAA00000462,S,SCWHBRAA00000463;1099.00;;;;;;;;zerotype;;Summer;;No
1908436;1518-Red-S-Red-1908436;Secret Wish Red Full Coverange Bralette;Draft;Bra;Secret Wish;Adults-Women;Women;;;;Fashion;;2017;M,SCWHBRAA00000460,S,SCWHBRAA00000461;1099.00;;;;;;;;zerotype;;Summer;;No
1908435;1518-Orange-S-Orange-1908435;Secret Wish Orange Full Coverange Bralette;Draft;Bra;Secret Wish;Adults-Women;Women;;;;Fashion;;2017;M,SCWHBRAA00000458,S,SCWHBRAA00000459;1099.00;;;;;;;;zerotype;;Summer;;No
1908434;1518-Light-Blue-S-Blue-1908434;Secret Wish Light Blue Full Coverange Bralette;Draft;Bra;Secret Wish;Adults-Women;Women;;;;Fashion;;2017;M,SCWHBRAA00000456,S,SCWHBRAA00000457;1099.00;;;;;;;;zerotype;;Summer;;No
1908433;1517-White-S-White-1908433;Secret Wish White Solid Bralette Top;Draft;Bra;Secret Wish;Adults-Women;Women;;;;Fashion;;2017;M,SCWHBRAA00000454,S,SCWHBRAA00000455;899.00;;;;;;;;zerotype;;Summer;;No
1908432;1517-Orange-S-Orange-1908432;Secret Wish Orange Solid Bralette Top;Draft;Bra;Secret Wish;Adults-Women;Women;;;;Fashion;;2017;M,SCWHBRAA00000452,S,SCWHBRAA00000453;899.00;;;;;;;;zerotype;;Summer;;No
1908431;1517-Light-Blue-S-Blue-1908431;Secret Wish Light Blue Solid Bralette Top;Draft;Bra;Secret Wish;Adults-Women;Women;;;;Fashion;;2017;M,SCWHBRAA00000448,S,SCWHBRAA00000449;899.00;;;;;;;;zerotype;;Summer;;No
1908430;1517-Baby-Pink-S-Pink-1908430;Secret Wish Baby Pink Solid Bralette Top;Draft;Bra;Secret Wish;Adults-Women;Women;;;;Fashion;;2017;M,SCWHBRAA00000446,S,SCWHBRAA00000447;899.00;;;;;;;;zerotype;;Summer;;No
1908429;1516-Pink-S-Pink-1908429;Secret Wish Pink Activewear Sports Bra;Draft;Bra;Secret Wish;Adults-Women;Women;;;;Fashion;;2017;L,SCWHBRAA00000443,M,SCWHBRAA00000444,S,SCWHBRAA00000445;1099.00;;;;;;;;zerotype;;Summer;;No
1908428;1516-Blue-S-Blue-1908428;Secret Wish Blue Activewear Sports Bra;Draft;Bra;Secret Wish;Adults-Women;Women;;;;Fashion;;2017;L,SCWHBRAA00000440,M,SCWHBRAA00000441,S,SCWHBRAA00000442;1099.00;;;;;;;;zerotype;;Summer;;No
1908427;1515-Light-Blue-S-Blue-1908427;Secret Wish Padded Sports Bra in Light Blue;Draft;Bra;Secret Wish;Adults-Women;Women;;;;Fashion;;2017;M,SCWHBRAA00000438,S,SCWHBRAA00000439;850.00;;;;;;;;zerotype;;Summer;;No
1908426;887-Skin-L-Nude-1908426;Secret Wish Padded Sports Bra in Skin;Draft;Bra;Secret Wish;Adults-Women;Women;;;;Fashion;;2017;L,SCWHBRAA00000437;1499.00;;;;;;;;zerotype;;Summer;;No
1908425;887-Hot-Pink-L-Pink-1908425;Secret Wish Padded Sports Bra in Hot Pink;Draft;Bra;Secret Wish;Adults-Women;Women;;;;Fashion;;2017;L,SCWHBRAA00000436;1499.00;;;;;;;;zerotype;;Summer;;No
1908424;887-Black-L-Black-1908424;Secret Wish Padded Sports Bra in Black;Draft;Bra;Secret Wish;Adults-Women;Women;;;;Fashion;;2017;L,SCWHBRAA00000435;1499.00;;;;;;;;zerotype;;Summer;;No
1908423;0242-Yellow-S-Yellow-1908423;Secret Wish Yellow Racer Back Sports Bra;Draft;Bra;Secret Wish;Adults-Women;Women;;;;Fashion;;2017;L,SCWHBRAA00000432,M,SCWHBRAA00000433,S,SCWHBRAA00000434;899.00;;;;;;;;zerotype;;Summer;;No
1908422;0242-Purple-S-Purple-1908422;Secret Wish Purple Racer Back Sports Bra;Draft;Bra;Secret Wish;Adults-Women;Women;;;;Fashion;;2017;L,SCWHBRAA00000429,M,SCWHBRAA00000430,S,SCWHBRAA00000431;899.00;;;;;;;;zerotype;;Summer;;No
1908421;0242-Pink-S-Pink-1908421;Secret Wish Pink Racer Back Sports Bra;Draft;Bra;Secret Wish;Adults-Women;Women;;;;Fashion;;2017;L,SCWHBRAA00000423,M,SCWHBRAA00000424,S,SCWHBRAA00000425;899.00;;;;;;;;zerotype;;Summer;;No
1908420;0242-Orange-S-Orange-1908420;Secret Wish Orange Racer Back Sports Bra;Draft;Bra;Secret Wish;Adults-Women;Women;;;;Fashion;;2017;L,SCWHBRAA00000420,M,SCWHBRAA00000421,S,SCWHBRAA00000422;899.00;;;;;;;;zerotype;;Summer;;No
1908419;0242-Grey-S-Grey-1908419;Secret Wish Grey Racer Back Sports Bra;Draft;Bra;Secret Wish;Adults-Women;Women;;;;Fashion;;2017;L,SCWHBRAA00000417,M,SCWHBRAA00000418,S,SCWHBRAA00000419;899.00;;;;;;;;zerotype;;Summer;;No
1908418;0242-Blue-S-Blue-1908418;Secret Wish Blue Racer Back Sports Bra;Draft;Bra;Secret Wish;Adults-Women;Women;;;;Fashion;;2017;L,SCWHBRAA00000414,M,SCWHBRAA00000415,S,SCWHBRAA00000416;899.00;;;;;;;;zerotype;;Summer;;No
