Style ID;Vendor Article Number;Vendor Article Name;Active Status;Article type;Brand;Age Group;Gender;Base Colour;Colour1;Colour2;Fashion Type;Usage;Year;Size - SKU code pair;MRP;Style Description;Style Note;Materials and Care Description;Size and Fit Description;Size Chart Path;Product Display Name;Tags;Product Type;Classification Brand;Season;Comments;Upload Images
1918067;F.2.1005.01-White-1918067;Freelook F.2.1005.01;Draft;Watches;Freelook;Adults-Women;Women;White;;;Fashion;Casual;2017;Onesize,FELKWTCH00000055;17950.00;;;;;;;;zerotype;;Spring;;No
1918066;F.4.1001.01-White-1918066;Freelook F.4.1001.01;Draft;Watches;Freelook;Adults-Women;Women;White;;;Fashion;Casual;2017;Onesize,FELKWTCH00000054;13950.00;;;;;;;;zerotype;;Spring;;No
1918065;F.4.1001.05-Blue-1918065;Freelook F.4.1001.05;Draft;Watches;Freelook;Adults-Women;Women;Blue;;;Fashion;Casual;2017;Onesize,FELKWTCH00000053;14500.00;;;;;;;;zerotype;;Spring;;No
1918064;F.1.1014.01-Gold-1918064;Freelook F.1.1014.01;Draft;Watches;Freelook;Adults-Women;Women;Gold;;;Fashion;Casual;2017;Onesize,FELKWTCH00000052;17950.00;;;;;;;;zerotype;;Spring;;No
1918063;F.4.1023.02-White-1918063;Freelook F.4.1023.02;Draft;Watches;Freelook;Adults-Women;Women;White;;;Fashion;Casual;2017;Onesize,FELKWTCH00000051;13550.00;;;;;;;;zerotype;;Spring;;No
1918062;F.1.1015.01-White-1918062;Freelook F.1.1015.01;Draft;Watches;Freelook;Adults-Women;Women;White;;;Fashion;Casual;2017;Onesize,FELKWTCH00000050;13950.00;;;;;;;;zerotype;;Spring;;No
1918061;F.4.1011.02-White-1918061;Freelook F.4.1011.02;Draft;Watches;Freelook;Adults-Women;Women;White;;;Fashion;Casual;2017;Onesize,FELKWTCH00000049;16600.00;;;;;;;;zerotype;;Spring;;No
1918060;F.1.1014.02-White-1918060;Freelook F.1.1014.02;Draft;Watches;Freelook;Adults-Women;Women;White;;;Fashion;Casual;2017;Onesize,FELKWTCH00000048;17950.00;;;;;;;;zerotype;;Spring;;No
1918059;F.2.1022.01-White-1918059;Freelook F.2.1022.01;Draft;Watches;Freelook;Adults-Women;Women;White;;;Fashion;Casual;2017;Onesize,FELKWTCH00000047;10250.00;;;;;;;;zerotype;;Spring;;No
1918058;F.3.1006.04-White-1918058;Freelook F.3.1006.04;Draft;Watches;Freelook;Adults-Women;Women;White;;;Fashion;Casual;2017;Onesize,FELKWTCH00000046;16950.00;;;;;;;;zerotype;;Spring;;No
1918057;F.6.1016.06-Brown-1918057;Freelook F.6.1016.06;Draft;Watches;Freelook;Adults-Women;Women;Brown;;;Fashion;Casual;2017;Onesize,FELKWTCH00000045;17950.00;;;;;;;;zerotype;;Spring;;No
1918056;F.3.1006.02-White-1918056;Freelook F.3.1006.02;Draft;Watches;Freelook;Adults-Women;Women;White;;;Fashion;Casual;2017;Onesize,FELKWTCH00000044;16450.00;;;;;;;;zerotype;;Spring;;No
1918055;F.2.1013.01-White-1918055;Freelook F.2.1013.01;Draft;Watches;Freelook;Adults-Women;Women;White;;;Fashion;Casual;2017;Onesize,FELKWTCH00000043;12950.00;;;;;;;;zerotype;;Spring;;No
1918054;F.1.1008.01-Cream-1918054;Freelook F.1.1008.01;Draft;Watches;Freelook;Adults-Women;Women;Cream;;;Fashion;Casual;2017;Onesize,FELKWTCH00000042;12950.00;;;;;;;;zerotype;;Spring;;No
1918053;F.4.1011.01-White-1918053;Freelook F.4.1011.01;Draft;Watches;Freelook;Adults-Women;Women;White;;;Fashion;Casual;2017;Onesize,FELKWTCH00000041;16350.00;;;;;;;;zerotype;;Spring;;No
1918052;F.1.1014.03-Silver-1918052;Freelook F.1.1014.03;Draft;Watches;Freelook;Adults-Women;Women;Silver;;;Fashion;Casual;2017;Onesize,FELKWTCH00000040;16950.00;;;;;;;;zerotype;;Spring;;No
1918051;F.2.1015.01-White-1918051;Freelook F.2.1015.01;Draft;Watches;Freelook;Adults-Women;Women;White;;;Fashion;Casual;2017;Onesize,FELKWTCH00000039;7550.00;;;;;;;;zerotype;;Spring;;No
1918050;F.2.1015.04-White-1918050;Freelook F.2.1015.04;Draft;Watches;Freelook;Adults-Women;Women;White;;;Fashion;Casual;2017;Onesize,FELKWTCH00000038;7550.00;;;;;;;;zerotype;;Spring;;No
1918049;F.4.1001.04-Brown-1918049;Freelook F.4.1001.04;Draft;Watches;Freelook;Adults-Women;Women;Brown;;;Fashion;Casual;2017;Onesize,FELKWTCH00000037;13950.00;;;;;;;;zerotype;;Spring;;No
1918048;F.4.1001.03-White-1918048;Freelook F.4.1001.03;Draft;Watches;Freelook;Adults-Women;Women;White;;;Fashion;Casual;2017;Onesize,FELKWTCH00000036;13950.00;;;;;;;;zerotype;;Spring;;No
1918047;F.6.1016.04-White-1918047;Freelook F.6.1016.04;Draft;Watches;Freelook;Adults-Women;Women;White;;;Fashion;Casual;2017;Onesize,FELKWTCH00000035;16950.00;;;;;;;;zerotype;;Spring;;No
1918046;F.6.1016.03-White-1918046;Freelook F.6.1016.03;Draft;Watches;Freelook;Adults-Women;Women;White;;;Fashion;Casual;2017;Onesize,FELKWTCH00000034;16950.00;;;;;;;;zerotype;;Spring;;No
1918045;F.3.1013.01-Cream-1918045;Freelook F.3.1013.01;Draft;Watches;Freelook;Adults-Women;Women;Cream;;;Fashion;Casual;2017;Onesize,FELKWTCH00000033;18450.00;;;;;;;;zerotype;;Spring;;No
1918044;F.1.1008.04-White-1918044;Freelook F.1.1008.04;Draft;Watches;Freelook;Adults-Women;Women;White;;;Fashion;Casual;2017;Onesize,FELKWTCH00000032;12950.00;;;;;;;;zerotype;;Spring;;No
1918043;F.1.1008.02-Cream-1918043;Freelook F.1.1008.02;Draft;Watches;Freelook;Adults-Women;Women;Cream;;;Fashion;Casual;2017;Onesize,FELKWTCH00000031;12950.00;;;;;;;;zerotype;;Spring;;No
1918042;F.1.1010.01-White-1918042;Freelook F.1.1010.01;Draft;Watches;Freelook;Adults-Women;Women;White;;;Fashion;Casual;2017;Onesize,FELKWTCH00000030;14000.00;;;;;;;;zerotype;;Spring;;No
1918041;F.4.1023.03-White-1918041;Freelook F.4.1023.03;Draft;Watches;Freelook;Adults-Women;Women;White;;;Fashion;Casual;2017;Onesize,FELKWTCH00000029;15550.00;;;;;;;;zerotype;;Spring;;No
1918040;F.3.1004.02-White-1918040;Freelook F.3.1004.02;Draft;Watches;Freelook;Adults-Women;Women;White;;;Fashion;Casual;2017;Onesize,FELKWTCH00000028;14950.00;;;;;;;;zerotype;;Spring;;No
1918039;F.1.1011.05-Gray-1918039;Freelook F.1.1011.05;Draft;Watches;Freelook;Adults-Women;Women;Grey;;;Fashion;Casual;2017;Onesize,FELKWTCH00000027;16950.00;;;;;;;;zerotype;;Spring;;No
1918038;F.2.1013.03-Brown-1918038;Freelook F.2.1013.03;Draft;Watches;Freelook;Adults-Women;Women;Brown;;;Fashion;Casual;2017;Onesize,FELKWTCH00000026;13950.00;;;;;;;;zerotype;;Spring;;No
1918037;F.1.1011.01-White-1918037;Freelook F.1.1011.01;Draft;Watches;Freelook;Adults-Women;Women;White;;;Fashion;Casual;2017;Onesize,FELKWTCH00000025;15950.00;;;;;;;;zerotype;;Spring;;No
1918036;F.2.1005.02-White-1918036;Freelook F.2.1005.02;Draft;Watches;Freelook;Adults-Women;Women;White;;;Fashion;Casual;2017;Onesize,FELKWTCH00000024;18950.00;;;;;;;;zerotype;;Spring;;No
1918035;F.1.1015.02-Cream-1918035;Freelook F.1.1015.02;Draft;Watches;Freelook;Adults-Women;Women;Cream;;;Fashion;Casual;2017;Onesize,FELKWTCH00000023;14950.00;;;;;;;;zerotype;;Spring;;No
1918034;F.3.1004.03-Blue-1918034;Freelook F.3.1004.03;Draft;Watches;Freelook;Adults-Women;Women;Blue;;;Fashion;Casual;2017;Onesize,FELKWTCH00000022;14950.00;;;;;;;;zerotype;;Spring;;No
1918033;F.3.1008.04-Cream-1918033;Freelook F.3.1008.04;Draft;Watches;Freelook;Adults-Women;Women;Cream;;;Fashion;Casual;2017;Onesize,FELKWTCH00000021;12950.00;;;;;;;;zerotype;;Spring;;No
1918032;F.4.1023.04-Cream-1918032;Freelook F.4.1023.04;Draft;Watches;Freelook;Adults-Women;Women;Cream;;;Fashion;Casual;2017;Onesize,FELKWTCH00000020;14950.00;;;;;;;;zerotype;;Spring;;No
1918031;F.3.1005.01-White-1918031;Freelook F.3.1005.01;Draft;Watches;Freelook;Adults-Women;Women;White;;;Fashion;Casual;2017;Onesize,FELKWTCH00000019;13950.00;;;;;;;;zerotype;;Spring;;No
1918030;F.3.1006.03-Blue-1918030;Freelook F.3.1006.03;Draft;Watches;Freelook;Adults-Women;Women;Blue;;;Fashion;Casual;2017;Onesize,FELKWTCH00000018;16950.00;;;;;;;;zerotype;;Spring;;No
1918029;F.1.1002.02-White-1918029;Freelook F.1.1002.02;Draft;Watches;Freelook;Adults-Women;Women;White;;;Fashion;Casual;2017;Onesize,FELKWTCH00000017;16450.00;;;;;;;;zerotype;;Spring;;No
1918028;F.1.1010.03-White-1918028;Freelook F.1.1010.03;Draft;Watches;Freelook;Adults-Women;Women;White;;;Fashion;Casual;2017;Onesize,FELKWTCH00000016;16450.00;;;;;;;;zerotype;;Spring;;No
1918027;F.1.1011.02-White-1918027;Freelook F.1.1011.02;Draft;Watches;Freelook;Adults-Women;Women;White;;;Fashion;Casual;2017;Onesize,FELKWTCH00000015;16950.00;;;;;;;;zerotype;;Spring;;No
1918026;F.3.1013.02-Silver-1918026;Freelook F.3.1013.02;Draft;Watches;Freelook;Adults-Women;Women;Silver;;;Fashion;Casual;2017;Onesize,FELKWTCH00000014;17450.00;;;;;;;;zerotype;;Spring;;No
1918025;F.3.1008.01-Cream-1918025;Freelook F.3.1008.01;Draft;Watches;Freelook;Adults-Women;Women;Cream;;;Fashion;Casual;2017;Onesize,FELKWTCH00000013;12950.00;;;;;;;;zerotype;;Spring;;No
1918024;F.3.1006.01-Cream-1918024;Freelook F.3.1006.01;Draft;Watches;Freelook;Adults-Women;Women;Cream;;;Fashion;Casual;2017;Onesize,FELKWTCH00000012;16450.00;;;;;;;;zerotype;;Spring;;No
1918023;F.4.1023.01-Cream-1918023;Freelook F.4.1023.01;Draft;Watches;Freelook;Adults-Women;Women;Cream;;;Fashion;Casual;2017;Onesize,FELKWTCH00000011;14950.00;;;;;;;;zerotype;;Spring;;No
1918022;F.1.1010.02-Cream-1918022;Freelook F.1.1010.02;Draft;Watches;Freelook;Adults-Women;Women;Cream;;;Fashion;Casual;2017;Onesize,FELKWTCH00000010;16450.00;;;;;;;;zerotype;;Spring;;No
1918021;F.6.1016.01-Blue-1918021;Freelook F.6.1016.01;Draft;Watches;Freelook;Adults-Women;Women;Blue;;;Fashion;Casual;2017;Onesize,FELKWTCH00000009;17950.00;;;;;;;;zerotype;;Spring;;No
1918020;F.1.1013.04-White-1918020;Freelook F.1.1013.04;Draft;Watches;Freelook;Adults-Women;Women;White;;;Fashion;Formal;2017;Onesize,FELKWTCH00000008;14950.00;;;;;;;;zerotype;;Spring;;No
1918019;F.4.1019.03-Off White-1918019;Freelook F.4.1019.03;Draft;Watches;Freelook;Adults-Women;Women;Off White;;;Fashion;Casual;2017;Onesize,FELKWTCH00000007;14950.00;;;;;;;;zerotype;;Spring;;No
1918018;F.3.1013.04-Black-1918018;Freelook F.3.1013.04;Draft;Watches;Freelook;Adults-Women;Women;Black;;;Fashion;Party;2017;Onesize,FELKWTCH00000006;18950.00;;;;;;;;zerotype;;Spring;;No
1918017;F.3.1005.03-Blue-1918017;Freelook F.3.1005.03;Draft;Watches;Freelook;Adults-Women;Women;Blue;;;Fashion;Casual;2017;Onesize,FELKWTCH00000005;13950.00;;;;;;;;zerotype;;Spring;;No
1918016;F.6.1012.04-Gold-1918016;Freelook F.6.1012.04;Draft;Watches;Freelook;Adults-Women;Women;Gold;;;Fashion;Casual;2017;Onesize,FELKWTCH00000004;11950.00;;;;;;;;zerotype;;Spring;;No
1918015;F.1.1011.04-Black-1918015;Freelook F.1.1011.04;Draft;Watches;Freelook;Adults-Women;Women;Black;;;Fashion;Party;2017;Onesize,FELKWTCH00000003;16950.00;;;;;;;;zerotype;;Spring;;No
1918013;F.1.1013.03-White-1918013;Freelook F.1.1013.03;Draft;Watches;Freelook;Adults-Women;Women;White;;;Fashion;Party;2017;Onesize,FELKWTCH00000002;12950.00;;;;;;;;zerotype;;Spring;;No
1918012;F.1.1002.04-Gold-1918012;Freelook F.1.1002.04;Draft;Watches;Freelook;Adults-Women;Women;Gold;;;Fashion;Casual;2017;Onesize,FELKWTCH00000001;16450.00;;;;;;;;zerotype;;Spring;;No
