Style ID;Vendor Article Number;Vendor Article Name;Active Status;Article type;Brand;Age Group;Gender;Base Colour;Colour1;Colour2;Fashion Type;Usage;Year;Size - SKU code pair;MRP;Style Description;Style Note;Materials and Care Description;Size and Fit Description;Size Chart Path;Product Display Name;Tags;Product Type;Classification Brand;Season;Comments;Upload Images
2028993;SOCH NC KT 3435-CREAM-LIGHT PURPLE-Cream-2028993;SOCH NC KT 3435-CREAM-LIGHT PURPLE;Draft;Kurtis;Soch;Adults-Women;Women;Cream;Cream;;Fashion;;2017;L,SOCHKRTI00008897,S,SOCHKRTI00008898,XS,SOCHKRTI00008899,2XL,SOCHKRTI00008900,3XL,SOCHKRTI00008901,XL,SOCHKRTI00008902,M,SOCHKRTI00008903;498.00;;;<p>Dry Clean Only</p>;;;;;zerotype;;Summer;;No
2028992;SOCH NC KT 3435-CREAM-GREY-Cream-2028992;SOCH NC KT 3435-CREAM-GREY;Draft;Kurtis;Soch;Adults-Women;Women;Cream;Cream;;Fashion;;2017;3XL,SOCHKRTI00008890,2XL,SOCHKRTI00008891,M,SOCHKRTI00008892,S,SOCHKRTI00008893,XL,SOCHKRTI00008894,XS,SOCHKRTI00008895,L,SOCHKRTI00008896;498.00;;;<p>Dry Clean Only</p>;;;;;zerotype;;Summer;;No
2028990;SOCH NC KT 3434-CREAM-ROYAL BLUE-Cream-2028990;SOCH NC KT 3434-CREAM-ROYAL BLUE;Draft;Kurtis;Soch;Adults-Women;Women;Cream;Cream;;Fashion;;2017;XS,SOCHKRTI00008876,XL,SOCHKRTI00008877,M,SOCHKRTI00008878,L,SOCHKRTI00008879,S,SOCHKRTI00008880,3XL,SOCHKRTI00008881,2XL,SOCHKRTI00008882;498.00;;;<p>Dry Clean Only</p>;;;;;zerotype;;Summer;;No
2028988;SOCH NC KT 3434-CREAM-MUSTARD-Cream-2028988;SOCH NC KT 3434-CREAM-MUSTARD;Draft;Kurtis;Soch;Adults-Women;Women;Cream;Cream;;Fashion;;2017;S,SOCHKRTI00008862,M,SOCHKRTI00008863,XL,SOCHKRTI00008864,3XL,SOCHKRTI00008865,L,SOCHKRTI00008866,XS,SOCHKRTI00008867,2XL,SOCHKRTI00008868;498.00;;;<p>Dry Clean Only</p>;;;;;zerotype;;Summer;;No
2028986;SOCH NC KT 3369-YELLOW-WHITE-Yellow-2028986;SOCH NC KT 3369-YELLOW-WHITE;Draft;Kurtis;Soch;Adults-Women;Women;Yellow;Yellow;;Fashion;;2017;L,SOCHKRTI00008848,XL,SOCHKRTI00008849,S,SOCHKRTI00008850,M,SOCHKRTI00008851,2XL,SOCHKRTI00008852,3XL,SOCHKRTI00008853,XS,SOCHKRTI00008854;1098.00;;;<p>Dry Clean Only</p>;;;;;zerotype;;Summer;;No
2028985;SOCH NC KT 3369-WHITE-BLACK-White-2028985;SOCH NC KT 3369-WHITE-BLACK;Draft;Kurtis;Soch;Adults-Women;Women;White;White;;Fashion;;2017;2XL,SOCHKRTI00008841,M,SOCHKRTI00008842,S,SOCHKRTI00008843,L,SOCHKRTI00008844,XS,SOCHKRTI00008845,3XL,SOCHKRTI00008846,XL,SOCHKRTI00008847;1098.00;;;<p>Dry Clean Only</p>;;;;;zerotype;;Summer;;No
2028984;SOCH NC KT 3369-PEACOCK GREEN-WHITE-Green-2028984;SOCH NC KT 3369-PEACOCK GREEN-WHITE;Draft;Kurtis;Soch;Adults-Women;Women;Green;Green;;Fashion;;2017;3XL,SOCHKRTI00008834,L,SOCHKRTI00008835,M,SOCHKRTI00008836,S,SOCHKRTI00008837,XS,SOCHKRTI00008838,XL,SOCHKRTI00008839,2XL,SOCHKRTI00008840;1098.00;;;<p>Dry Clean Only</p>;;;;;zerotype;;Summer;;No
2028983;SOCH NC KT 3369-LIGHT GREEN-WHITE-Green-2028983;SOCH NC KT 3369-LIGHT GREEN-WHITE;Draft;Kurtis;Soch;Adults-Women;Women;Green;Green;;Fashion;;2017;3XL,SOCHKRTI00008827,M,SOCHKRTI00008828,S,SOCHKRTI00008829,XS,SOCHKRTI00008830,L,SOCHKRTI00008831,2XL,SOCHKRTI00008832,XL,SOCHKRTI00008833;1098.00;;;<p>Dry Clean Only</p>;;;;;zerotype;;Summer;;No
2028982;SOCH NC KT 3369-DARK PINK-WHITE-Pink-2028982;SOCH NC KT 3369-DARK PINK-WHITE;Draft;Kurtis;Soch;Adults-Women;Women;Pink;Pink;;Fashion;;2017;XL,SOCHKRTI00008820,2XL,SOCHKRTI00008821,M,SOCHKRTI00008822,3XL,SOCHKRTI00008823,L,SOCHKRTI00008824,XS,SOCHKRTI00008825,S,SOCHKRTI00008826;1098.00;;;<p>Dry Clean Only</p>;;;;;zerotype;;Summer;;No
2028980;SOCH NC KT 3369-CORAL-WHITE-Coral-2028980;SOCH NC KT 3369-CORAL-WHITE;Draft;Kurtis;Soch;Adults-Women;Women;Coral;Coral;;Fashion;;2017;L,SOCHKRTI00008813,XS,SOCHKRTI00008814,3XL,SOCHKRTI00008815,S,SOCHKRTI00008816,M,SOCHKRTI00008817,XL,SOCHKRTI00008818,2XL,SOCHKRTI00008819;1098.00;;;<p>Dry Clean Only</p>;;;;;zerotype;;Summer;;No
2028979;SOCH NC KT 3369-BLACK-WHITE-Black-2028979;SOCH NC KT 3369-BLACK-WHITE;Draft;Kurtis;Soch;Adults-Women;Women;Black;Black;;Fashion;;2017;XS,SOCHKRTI00008806,L,SOCHKRTI00008807,2XL,SOCHKRTI00008808,XL,SOCHKRTI00008809,M,SOCHKRTI00008810,3XL,SOCHKRTI00008811,S,SOCHKRTI00008812;1098.00;;;<p>Dry Clean Only</p>;;;;;zerotype;;Summer;;No
2028978;SOCH NC KT 3368-WHITE-RED-White-2028978;SOCH NC KT 3368-WHITE-RED;Draft;Kurtis;Soch;Adults-Women;Women;White;White;;Fashion;;2017;S,SOCHKRTI00008799,L,SOCHKRTI00008800,2XL,SOCHKRTI00008801,XL,SOCHKRTI00008802,XS,SOCHKRTI00008803,3XL,SOCHKRTI00008804,M,SOCHKRTI00008805;1098.00;;;<p>Dry Clean Only</p>;;;;;zerotype;;Summer;;No
2028977;SOCH NC KT 3368-WHITE-LIGHT GREEN-White-2028977;SOCH NC KT 3368-WHITE-LIGHT GREEN;Draft;Kurtis;Soch;Adults-Women;Women;White;White;;Fashion;;2017;3XL,SOCHKRTI00008792,2XL,SOCHKRTI00008793,XS,SOCHKRTI00008794,XL,SOCHKRTI00008795,L,SOCHKRTI00008796,S,SOCHKRTI00008797,M,SOCHKRTI00008798;1098.00;;;<p>Dry Clean Only</p>;;;;;zerotype;;Summer;;No
2028976;SOCH NC KT 3367-CREAM-NAVY BLUE-Cream-2028976;SOCH NC KT 3367-CREAM-NAVY BLUE;Draft;Kurtis;Soch;Adults-Women;Women;Cream;Cream;;Fashion;;2017;XL,SOCHKRTI00008785,S,SOCHKRTI00008786,L,SOCHKRTI00008787,3XL,SOCHKRTI00008788,2XL,SOCHKRTI00008789,M,SOCHKRTI00008790,XS,SOCHKRTI00008791;498.00;;;<p>Dry Clean Only</p>;;;;;zerotype;;Summer;;No
2028974;SOCH NC KT 3366-RED-ROYAL BLUE-Red-2028974;SOCH NC KT 3366-RED-ROYAL BLUE;Draft;Kurtis;Soch;Adults-Women;Women;Red;Red;;Fashion;;2017;M,SOCHKRTI00008771,3XL,SOCHKRTI00008772,XS,SOCHKRTI00008773,XL,SOCHKRTI00008774,S,SOCHKRTI00008775,2XL,SOCHKRTI00008776,L,SOCHKRTI00008777;498.00;;;<p>Dry Clean Only</p>;;;;;zerotype;;Summer;;No
2028973;SOCH NC KT 3366-DARK GREEN-DARK PINK-Green-2028973;SOCH NC KT 3366-DARK GREEN-DARK PINK;Draft;Kurtis;Soch;Adults-Women;Women;Green;Green;;Fashion;;2017;XS,SOCHKRTI00008764,3XL,SOCHKRTI00008765,XL,SOCHKRTI00008766,2XL,SOCHKRTI00008767,L,SOCHKRTI00008768,S,SOCHKRTI00008769,M,SOCHKRTI00008770;498.00;;;<p>Dry Clean Only</p>;;;;;zerotype;;Summer;;No
2028971;SOCH NC KT 3365-CREAM-RED-Cream-2028971;SOCH NC KT 3365-CREAM-RED;Draft;Kurtis;Soch;Adults-Women;Women;Cream;Cream;;Fashion;;2017;S,SOCHKRTI00008750,XS,SOCHKRTI00008751,3XL,SOCHKRTI00008752,L,SOCHKRTI00008753,M,SOCHKRTI00008754,2XL,SOCHKRTI00008755,XL,SOCHKRTI00008756;498.00;;;<p>Dry Clean Only</p>;;;;;zerotype;;Summer;;No
2028969;SOCH NC KT 3364-CREAM-ORANGE-Cream-2028969;SOCH NC KT 3364-CREAM-ORANGE;Draft;Kurtis;Soch;Adults-Women;Women;Cream;Cream;;Fashion;;2017;M,SOCHKRTI00008743,2XL,SOCHKRTI00008744,XS,SOCHKRTI00008745,S,SOCHKRTI00008746,XL,SOCHKRTI00008747,3XL,SOCHKRTI00008748,L,SOCHKRTI00008749;498.00;;;<p>Dry Clean Only</p>;;;;;zerotype;;Summer;;No
2028968;SOCH NC KT 3364-CREAM-BLUE-Cream-2028968;SOCH NC KT 3364-CREAM-BLUE;Draft;Kurtis;Soch;Adults-Women;Women;Cream;Cream;;Fashion;;2017;XL,SOCHKRTI00008736,L,SOCHKRTI00008737,S,SOCHKRTI00008738,M,SOCHKRTI00008739,XS,SOCHKRTI00008740,3XL,SOCHKRTI00008741,2XL,SOCHKRTI00008742;498.00;;;<p>Dry Clean Only</p>;;;;;zerotype;;Summer;;No
2028967;SOCH NC KT 3363-BLACK-RED-Black-2028967;SOCH NC KT 3363-BLACK-RED;Draft;Kurtis;Soch;Adults-Women;Women;Black;Black;;Fashion;;2017;2XL,SOCHKRTI00008729,XS,SOCHKRTI00008730,S,SOCHKRTI00008731,3XL,SOCHKRTI00008732,M,SOCHKRTI00008733,L,SOCHKRTI00008734,XL,SOCHKRTI00008735;498.00;;;<p>Dry Clean Only</p>;;;;;zerotype;;Summer;;No
2028966;SOCH NC KT 3362-NAVY BLUE-DARK PINK-Navy Blue-2028966;SOCH NC KT 3362-NAVY BLUE-DARK PINK;Draft;Kurtis;Soch;Adults-Women;Women;Navy Blue;Navy Blue;;Fashion;;2017;XL,SOCHKRTI00008722,2XL,SOCHKRTI00008723,3XL,SOCHKRTI00008724,L,SOCHKRTI00008725,M,SOCHKRTI00008726,S,SOCHKRTI00008727,XS,SOCHKRTI00008728;498.00;;;<p>Dry Clean Only</p>;;;;;zerotype;;Summer;;No
2028965;SOCH NC KT 3361-INDIGO-WHITE-Blue-2028965;SOCH NC KT 3361-INDIGO-WHITE;Draft;Kurtis;Soch;Adults-Women;Women;Blue;Blue;;Fashion;;2017;L,SOCHKRTI00008715,M,SOCHKRTI00008716,XL,SOCHKRTI00008717,3XL,SOCHKRTI00008718,S,SOCHKRTI00008719,2XL,SOCHKRTI00008720,XS,SOCHKRTI00008721;1498.00;;;<p>Dry Clean Only</p>;;;;;zerotype;;Summer;;No
2028964;SOCH NC KT 3360-GREY-NAVY BLUE-Grey-2028964;SOCH NC KT 3360-GREY-NAVY BLUE;Draft;Kurtis;Soch;Adults-Women;Women;Grey;Grey;;Fashion;;2017;S,SOCHKRTI00008708,M,SOCHKRTI00008709,L,SOCHKRTI00008710,2XL,SOCHKRTI00008711,XS,SOCHKRTI00008712,XL,SOCHKRTI00008713,3XL,SOCHKRTI00008714;1098.00;;;<p>Dry Clean Only</p>;;;;;zerotype;;Summer;;No
2028963;SOCH NC KT 3359-MAROON-NAVY BLUE-Maroon-2028963;SOCH NC KT 3359-MAROON-NAVY BLUE;Draft;Kurtis;Soch;Adults-Women;Women;Maroon;Maroon;;Fashion;;2017;M,SOCHKRTI00008701,2XL,SOCHKRTI00008702,3XL,SOCHKRTI00008703,S,SOCHKRTI00008704,L,SOCHKRTI00008705,XS,SOCHKRTI00008706,XL,SOCHKRTI00008707;1298.00;;;<p>Dry Clean Only</p>;;;;;zerotype;;Summer;;No
2028962;SOCH NC KT 3358-LIGHT GREEN-DARK GREEN-Green-2028962;SOCH NC KT 3358-LIGHT GREEN-DARK GREEN;Draft;Kurtis;Soch;Adults-Women;Women;Green;Green;;Fashion;;2017;XS,SOCHKRTI00008694,L,SOCHKRTI00008695,3XL,SOCHKRTI00008696,XL,SOCHKRTI00008697,2XL,SOCHKRTI00008698,M,SOCHKRTI00008699,S,SOCHKRTI00008700;1298.00;;;<p>Dry Clean Only</p>;;;;;zerotype;;Summer;;No
2028961;SOCH NC KT 3357-LIGHT GREEN-ROYAL BLUE-Green-2028961;SOCH NC KT 3357-LIGHT GREEN-ROYAL BLUE;Draft;Kurtis;Soch;Adults-Women;Women;Green;Green;;Fashion;;2017;XL,SOCHKRTI00008687,3XL,SOCHKRTI00008688,M,SOCHKRTI00008689,L,SOCHKRTI00008690,S,SOCHKRTI00008691,XS,SOCHKRTI00008692,2XL,SOCHKRTI00008693;1298.00;;;<p>Dry Clean Only</p>;;;;;zerotype;;Summer;;No
2028959;SOCH NC KT 3312-CREAM-ROYAL BLUE-Cream-2028959;SOCH NC KT 3312-CREAM-ROYAL BLUE;Draft;Kurtis;Soch;Adults-Women;Women;Cream;Cream;;Fashion;;2017;L,SOCHKRTI00008681,2XL,SOCHKRTI00008682,3XL,SOCHKRTI00008683,S,SOCHKRTI00008684,XL,SOCHKRTI00008685,M,SOCHKRTI00008686;1098.00;;;<p>Dry Clean Only</p>;;;;;zerotype;;Summer;;No
2028957;SOCH NC KT 3312-CREAM-LIGHT GREEN-Cream-2028957;SOCH NC KT 3312-CREAM-LIGHT GREEN;Draft;Kurtis;Soch;Adults-Women;Women;Cream;Cream;;Fashion;;2017;M,SOCHKRTI00008669,L,SOCHKRTI00008670,XL,SOCHKRTI00008671,S,SOCHKRTI00008672,3XL,SOCHKRTI00008673,2XL,SOCHKRTI00008674;1098.00;;;<p>Dry Clean Only</p>;;;;;zerotype;;Summer;;No
2028956;SOCH NC KT 3312-CREAM-GREY-Cream-2028956;SOCH NC KT 3312-CREAM-GREY;Draft;Kurtis;Soch;Adults-Women;Women;Cream;Cream;;Fashion;;2017;M,SOCHKRTI00008663,3XL,SOCHKRTI00008664,2XL,SOCHKRTI00008665,S,SOCHKRTI00008666,L,SOCHKRTI00008667,XL,SOCHKRTI00008668;1098.00;;;<p>Dry Clean Only</p>;;;;;zerotype;;Summer;;No
2028954;SOCH NC KT 3307-NAVY BLUE-CREAM-Navy Blue-2028954;SOCH NC KT 3307-NAVY BLUE-CREAM;Draft;Kurtis;Soch;Adults-Women;Women;Navy Blue;Navy Blue;;Fashion;;2017;M,SOCHKRTI00008651,S,SOCHKRTI00008652,3XL,SOCHKRTI00008653,XL,SOCHKRTI00008654,L,SOCHKRTI00008655,2XL,SOCHKRTI00008656;1098.00;;;<p>Dry Clean Only</p>;;;;;zerotype;;Summer;;No
2028953;SOCH NC KT 3307-BLUE-CREAM-Blue-2028953;SOCH NC KT 3307-BLUE-CREAM;Draft;Kurtis;Soch;Adults-Women;Women;Blue;Blue;;Fashion;;2017;XL,SOCHKRTI00008645,M,SOCHKRTI00008646,L,SOCHKRTI00008647,S,SOCHKRTI00008648,2XL,SOCHKRTI00008649,3XL,SOCHKRTI00008650;1098.00;;;<p>Dry Clean Only</p>;;;;;zerotype;;Summer;;No
2028952;SOCH NC KT 3302-CREAM-LIGHT GREEN-Cream-2028952;SOCH NC KT 3302-CREAM-LIGHT GREEN;Draft;Kurtis;Soch;Adults-Women;Women;Cream;Cream;;Fashion;;2017;L,SOCHKRTI00008638,S,SOCHKRTI00008639,M,SOCHKRTI00008640,XS,SOCHKRTI00008641,XL,SOCHKRTI00008642,2XL,SOCHKRTI00008643,3XL,SOCHKRTI00008644;1498.00;;;<p>Dry Clean Only</p>;;;;;zerotype;;Summer;;No
2028951;SOCH NC KT 3258-NAVY BLUE-DARK PINK-Navy Blue-2028951;SOCH NC KT 3258-NAVY BLUE-DARK PINK;Draft;Kurtis;Soch;Adults-Women;Women;Navy Blue;Navy Blue;;Fashion;;2017;2XL,SOCHKRTI00008631,XL,SOCHKRTI00008632,L,SOCHKRTI00008633,M,SOCHKRTI00008634,S,SOCHKRTI00008635,XS,SOCHKRTI00008636,3XL,SOCHKRTI00008637;1098.00;;;<p>Dry Clean Only</p>;;;;;zerotype;;Summer;;No
2028948;SOCH NC KT 3258-DARK PINK-NAVY BLUE-Pink-2028948;SOCH NC KT 3258-DARK PINK-NAVY BLUE;Draft;Kurtis;Soch;Adults-Women;Women;Pink;Pink;;Fashion;;2017;L,SOCHKRTI00008617,XS,SOCHKRTI00008618,XL,SOCHKRTI00008619,M,SOCHKRTI00008620,2XL,SOCHKRTI00008621,3XL,SOCHKRTI00008622,S,SOCHKRTI00008623;1098.00;;;<p>Dry Clean Only</p>;;;;;zerotype;;Summer;;No
2028947;SOCH NC KT 3257-NAVY BLUE-BEIGE-Navy Blue-2028947;SOCH NC KT 3257-NAVY BLUE-BEIGE;Draft;Kurtis;Soch;Adults-Women;Women;Navy Blue;Navy Blue;;Fashion;;2017;2XL,SOCHKRTI00008610,L,SOCHKRTI00008611,3XL,SOCHKRTI00008612,XL,SOCHKRTI00008613,XS,SOCHKRTI00008614,S,SOCHKRTI00008615,M,SOCHKRTI00008616;1098.00;;;<p>Dry Clean Only</p>;;;;;zerotype;;Summer;;No
2028945;SOCH NC KT 3257-CORAL-NAVY BLUE-Coral-2028945;SOCH NC KT 3257-CORAL-NAVY BLUE;Draft;Kurtis;Soch;Adults-Women;Women;Coral;Coral;;Fashion;;2017;XL,SOCHKRTI00008603,L,SOCHKRTI00008604,2XL,SOCHKRTI00008605,M,SOCHKRTI00008606,XS,SOCHKRTI00008607,S,SOCHKRTI00008608,3XL,SOCHKRTI00008609;1098.00;;;<p>Dry Clean Only</p>;;;;;zerotype;;Summer;;No
2028941;SOCH NC KT 2853-CORAL-YELLOW-Coral-2028941;SOCH NC KT 2853-CORAL-YELLOW;Draft;Kurtis;Soch;Adults-Women;Women;Coral;Coral;;Fashion;;2017;L,SOCHKRTI00008575,M,SOCHKRTI00008576,XL,SOCHKRTI00008577,3XL,SOCHKRTI00008578,2XL,SOCHKRTI00008579,XS,SOCHKRTI00008580,S,SOCHKRTI00008581;998.00;;;<p>Dry Clean Only</p>;;;;;zerotype;;Summer;;No
2028940;SOCH NC KT 2849-NAVY BLUE-BLUE-Navy Blue-2028940;SOCH NC KT 2849-NAVY BLUE-BLUE;Draft;Kurtis;Soch;Adults-Women;Women;Navy Blue;Navy Blue;;Fashion;;2017;2XL,SOCHKRTI00008568,XL,SOCHKRTI00008569,3XL,SOCHKRTI00008570,S,SOCHKRTI00008571,L,SOCHKRTI00008572,XS,SOCHKRTI00008573,M,SOCHKRTI00008574;798.00;;;<p>Dry Clean Only</p>;;;;;zerotype;;Summer;;No
2028936;SOCH NC KT 2846-BLACK-CREAM-Black-2028936;SOCH NC KT 2846-BLACK-CREAM;Draft;Kurtis;Soch;Adults-Women;Women;Black;Black;;Fashion;;2017;S,SOCHKRTI00008547,L,SOCHKRTI00008548,3XL,SOCHKRTI00008549,2XL,SOCHKRTI00008550,M,SOCHKRTI00008551,XS,SOCHKRTI00008552,XL,SOCHKRTI00008553;898.00;;;<p>Dry Clean Only</p>;;;;;zerotype;;Summer;;No
2028935;SOCH NC KT 2845-LIGHT PINK-CREAM-Pink-2028935;SOCH NC KT 2845-LIGHT PINK-CREAM;Draft;Kurtis;Soch;Adults-Women;Women;Pink;Pink;;Fashion;;2017;M,SOCHKRTI00008540,XS,SOCHKRTI00008541,3XL,SOCHKRTI00008542,2XL,SOCHKRTI00008543,S,SOCHKRTI00008544,L,SOCHKRTI00008545,XL,SOCHKRTI00008546;898.00;;;<p>Dry Clean Only</p>;;;;;zerotype;;Summer;;No
2028934;SOCH NC KT 2844-RED-BLACK-Red-2028934;SOCH NC KT 2844-RED-BLACK;Draft;Kurtis;Soch;Adults-Women;Women;Red;Red;;Fashion;;2017;S,SOCHKRTI00008533,L,SOCHKRTI00008534,3XL,SOCHKRTI00008535,XS,SOCHKRTI00008536,M,SOCHKRTI00008537,2XL,SOCHKRTI00008538,XL,SOCHKRTI00008539;898.00;;;<p>Dry Clean Only</p>;;;;;zerotype;;Summer;;No
2020998;FMJN3817-Blue-2020998;FMJN3817;BIS + Content Complete;Jeans;Flying Machine;Adults-Men;Men;Charcoal;;;Fashion;Casual;2017;30,FLYMJENS00005941,32,FLYMJENS00005942,34,FLYMJENS00005943,36,FLYMJENS00005944,38,FLYMJENS00005945,40,FLYMJENS00005946;2499.00;Charcoal dark wash 5-pocket mid-rise jeans, clean look with heavy fade, has a button and zip closure, waistband with belt loops;Show off your great sense of style with this trendsetting Flying Machine slim jeans.  They can be worn with Chelsea boots and a printed T-shirt when you need a casual date night ensemble.;Cotton and elastane <br> Machine-wash;Slim fit<br>  Stretchable<br> The model (height 6') is wearing a size 32;;Flying Machine Men Charcoal Slim Fit Mid-Rise Clean Look Stretchable Jeans;Flying Machine;zerotype;;Spring;;No
2009443;TWEG15103-Silver-2009443;Timex Watches;Inactive - PMM - Catalog;Watches;Timex;Adults-Men;Men;Bronze;;Black;Fashion;Casual;2017;ONESIZE,TMEXWTCH00002450;4395.00;Display: Analogue <br />Movement: Electronic<br />Power source: Solar<br />Dial style: Solid round alloy dial<br />Features: Eco Drive, Multi Function, Eco Drive<br />Strap style: Black regular, stainless steel strap with a foldover closure <br />Water resistance: 30 m<br />Warranty: 1 year;This impressive, trendy watch from Timex is sure to draw attention when you tell the time.  Match this bronze piece with slim jeans and a basic tee for a super-cool date outfit.;;Dial width:<br />Strap Width;;Timex Men Bronze-Toned Analogue Watch;g;zerotype;;Winter;Image Mismatch;No
2002516;OS17HB148 B-Multi-2002516;Set of 3 Hair Band;Inactive - PMM - Catalog;Hair Accessory;ToniQ;Adults-Women;Women;Black;Navy Blue;Purple;Fashion;Casual;2017;ONESIZE,TONQHRAC00000888;829.00;Set of three hairbands in navy blue, purple and black;This set of hairbands will be a trendy addition to your hair accessory collection. Ideal to hold those messy tresses, flaunt it and head out in style this season.;Synthetic<br />Wipe with a clean, dry cloth when needed;;;ToniQ Set of 3 Hairbands;ToniQ;zerotype;;Fall;Re- call the sample;No
2002467;OS17ER320-Gold-2002467;Gold Gypsy Queen Earrings;Inactive - PMM - Catalog;Earrings;ToniQ;Adults-Women;Women;Gold;;;Fashion;Ethnic;2017;ONESIZE,TONQEARR00001379;999.00;;Every woman will fall in love with these in-season earrings from ToniQ.  Match this gold pair with a maxi or flared dress for your next lunch date.;Metal <br /> Wipe with a clean cotton swab when needed;Length:;;ToniQ Gold-Toned Crescent Shaped Chandbalis;ToniQ;zerotype;;Fall;Re- call the sample;No
1998007;MN317B-Yellow-1998007;Anouk Kurta;BIS + Content Complete;Kurtas;Anouk;Adults-Women;Women;Yellow;;;Fashion;Ethnic;2017;S,ANUKKRTA00032219,M,ANUKKRTA00032220,L,ANUKKRTA00032221,XL,ANUKKRTA00032222;1399.00;<a href='/yellow?src=pd' class='seolink'>Yellow</a> printed straight <a href='/kurta?src=pd' class='seolink'>kurta</a>, has a mandarin collar, three-quarter sleeves, straight hem, side slits;This modern kurta from Anouk will take your personal style to new heights.  Dress up for your next family event by pairing this yellow piece with your best Kolhapuris and simple jewellery.;Polyester <br> Hand-wash;The model (height 5'8") is wearing a size S;;Anouk Women Yellow Printed Straight Kurta;Anouk,anouk-aug-inward,anouk-aw17-semifestive;zerotype;;Fall;anouk-aw17-semifestive;No
1997406;4-MASAO-ANTHRA MEL-1997406;Mens Solid V Neck T-Shirt;Draft;Tshirts;Roadster;Adults-Men;Men;;;;Fashion;;2017;S,RDSTTSHT00037662,M,RDSTTSHT00037663,L,RDSTTSHT00037664,XL,RDSTTSHT00037665;399.00;;;;;;;;zerotype;;Fall;;No
1997164;NARNIA-02-LT GREY MELANGE-1997164;Mens Graphic T-Shirt;Draft;Tshirts;Roadster;Adults-Men;Men;;;;Fashion;;2017;S,RDSTTSHT00036693,M,RDSTTSHT00036694,L,RDSTTSHT00036695,XL,RDSTTSHT00036696;599.00;;;;;;;;zerotype;;Fall;;No
1992298;RDW-DYCR-03-Indigo-1992298;Indigo Denim Jeans;Draft;Jeans;Roadster;Adults-Women;Women;;;;Fashion;;2017;26,RDSTJENS00016258,28,RDSTJENS00016259,30,RDSTJENS00016260,32,RDSTJENS00016261,34,RDSTJENS00016262,36,RDSTJENS00016263;1499.00;;;;;;;;zerotype;;Spring;;No
1992297;RDW-DYCR-02-Indigo-1992297;Indigo Denim Jeans;Draft;Jeans;Roadster;Adults-Women;Women;;;;Fashion;;2017;26,RDSTJENS00016252,28,RDSTJENS00016253,30,RDSTJENS00016254,32,RDSTJENS00016255,34,RDSTJENS00016256,36,RDSTJENS00016257;1299.00;;;;;;;;zerotype;;Spring;;No
1992296;RDW-DYCR-01-Indigo-1992296;Indigo Denim Jeans;Draft;Jeans;Roadster;Adults-Women;Women;;;;Fashion;;2017;26,RDSTJENS00016246,28,RDSTJENS00016247,30,RDSTJENS00016248,32,RDSTJENS00016249,34,RDSTJENS00016250,36,RDSTJENS00016251;1499.00;;;;;;;;zerotype;;Spring;;No
1989143;HRXSS - JTMJ - 04-Indigo-1989143;HRX;Draft;Jeans;HRX by Hrithik Roshan;Adults-Men;Men;;;;Fashion;;2017;28,HBHRJENS00002247,30,HBHRJENS00002248,32,HBHRJENS00002249,34,HBHRJENS00002250,36,HBHRJENS00002251;2299.00;;;;;;;;zerotype;;Spring;;No
1987979;HRX-BNEX-004-Indigo-1987979;Indigo Denim Jeans;Draft;Jeans;HRX by Hrithik Roshan;Adults-Women;Women;NA;;;Fashion;NA;2017;26,HBHRJENS00002226,28,HBHRJENS00002227,30,HBHRJENS00002228,32,HBHRJENS00002229,34,HBHRJENS00002230,36,HBHRJENS00002231;1899.00;;;<p>100% COTTON</p>;;;;;zerotype;;Spring;;No
1987978;HRX-BNEX-003-Indigo-1987978;Indigo Denim Jeans;Draft;Jeans;HRX by Hrithik Roshan;Adults-Women;Women;NA;;;Fashion;NA;2017;26,HBHRJENS00002220,28,HBHRJENS00002221,30,HBHRJENS00002222,32,HBHRJENS00002223,34,HBHRJENS00002224,36,HBHRJENS00002225;1899.00;;;<p>100% COTTON</p>;;;;;zerotype;;Spring;;No
1987977;HRX-BNEX-002-Indigo-1987977;Indigo Denim Jeans;Draft;Jeans;HRX by Hrithik Roshan;Adults-Women;Women;NA;;;Fashion;NA;2017;26,HBHRJENS00002214,28,HBHRJENS00002215,30,HBHRJENS00002216,32,HBHRJENS00002217,34,HBHRJENS00002218,36,HBHRJENS00002219;1899.00;;;<p>100% COTTON</p>;;;;;zerotype;;Spring;;No
1987944;G2038-44-Pink-1987944;GIO COLLECTION Watches;Inactive - PMM - Catalog;Watches;GIO COLLECTION;Adults-Women;Women;Off White;;;Fashion;Casual;2017;ONESIZE,GOCNWTCH00000850;5795.00;Display: Analogue <br />Movement: Mechanical<br />Power source: Battery<br />Dial style: Patterned round stainless steel dial<br />Features: Reset Time<br />Strap style: Silver-Toned bracelet style, metal strap with a butterfly closure <br />Water resistance: 50 m<br />Warranty: 1 year;The perfect everyday accessory, this GIO COLLECTION watch is both practical and stylish.  This off-white piece can be worn with your favourite shirt and some slim jeans for your casual date night.;;Dial width:<br />Strap width;;GIO COLLECTION Women Off-White Analogue Watch;GIO COLLECTION;zerotype;;Winter;Re-call the sample;No
1987227;KORS17AWSL 4-Blue / Green-1987227;KORS;Draft;Shirts;Roadster;Adults-Women;Women;;;;Fashion;;2017;S,RDSTSHRT00022239,M,RDSTSHRT00022240,L,RDSTSHRT00022241,XL,RDSTSHRT00022242;1399.00;;;;;;;rd-al-24,rd-am-24,rd-as-24,rd-se-24;zerotype;;Fall;rd-se-24;No
1987226;KORS17AWSL 3-Navy Green-1987226;KORS;Draft;Shirts;Roadster;Adults-Women;Women;;;;Fashion;;2017;S,RDSTSHRT00022235,M,RDSTSHRT00022236,L,RDSTSHRT00022237,XL,RDSTSHRT00022238;1399.00;;;;;;;rd-al-24,rd-am-24,rd-as-24,rd-se-24;zerotype;;Fall;rd-se-24;No
1987225;KORS17AWSL 2-Navy / White-1987225;KORS;Draft;Shirts;Roadster;Adults-Women;Women;;;;Fashion;;2017;S,RDSTSHRT00022231,M,RDSTSHRT00022232,L,RDSTSHRT00022233,XL,RDSTSHRT00022234;1399.00;;;;;;;rd-al-24,rd-am-24,rd-as-24,rd-se-24;zerotype;;Fall;rd-se-24;No
1987224;KORS17AWSL 1-Green / White-1987224;KORS;Draft;Shirts;Roadster;Adults-Women;Women;;;;Fashion;;2017;S,RDSTSHRT00022227,M,RDSTSHRT00022228,L,RDSTSHRT00022229,XL,RDSTSHRT00022230;1399.00;;;;;;;rd-al-24,rd-am-24,rd-as-24,rd-se-24;zerotype;;Fall;rd-se-24;No
1934452;117DBWSLD025142 B-MARITAN BLUE-1934452;Skirts;BIS + Content Complete;Skirts;DressBerry;Adults-Women;Women;Navy Blue;;;Fashion;Casual;2017;26,DSBYSKRT00000853,28,DSBYSKRT00000854,30,DSBYSKRT00000855,32,DSBYSKRT00000856,34,DSBYSKRT00000857;1299.00;Navy blue A-line mini skirt, has a waistband with a concealed zip closure on the side, two pockets with embellished detail;Up the glamour quotient with this skirt by DressBerry. Team it with a crop top, a box clutch and heels for a night out with the girls.;100% cotton<br />Machine-wash;The model (height 5'8'') is wearing a size 28;;DressBerry Navy A-Line Mini Skirt;DressBerry;zerotype;;Summer;new;No
1934451;117DBWSLD025142 A-AVOCADO-1934451;Skirts;BIS + Content Complete;Skirts;DressBerry;Adults-Women;Women;Olive;;;Fashion;Casual;2017;26,DSBYSKRT00000848,28,DSBYSKRT00000849,30,DSBYSKRT00000850,32,DSBYSKRT00000851,34,DSBYSKRT00000852;1299.00;Olive green woven A-line skirt with metallic detail, has two insert pockets, a waistband, a concealed zip closure on one side;Designed for the fashion-conscious woman, this skirt from DressBerry is an ideal addition to your wardrobe. Wear it with a casual top and wedges to look stylish.;100% cotton<br />Machine-wash;The model (height 5'8'') is wearing a size 28;;DressBerry Women Olive Green Mini Skirt;DB-Augnewarrival;zerotype;;Summer;new;No
1933931;UT15KE092-Gold-1933931;Tribal Earrings;Inactive - PMM - Catalog;Earrings;Infuzze;Adults-Women;Women;Gold;;;Fashion;;2017;Onesize,IFZEEARR00000911;900.00;;;<p>Clean with a dry cotton swab.</p>;;;;;zerotype;;Spring;Re-call the sample;No
1929732;HD-10315-C-GREY-1929732;LADIES JACKETS;Draft;Jackets;Roadster;Adults-Women;Women;;;;Fashion;;2017;S,RDSTJCKT00005056,M,RDSTJCKT00005057,L,RDSTJCKT00005058,XL,RDSTJCKT00005059;3699.00;;;;;;;rd-al-24,rd-am-24,rd-as-24,rd-se-24;zerotype;;Fall;rd-se-24;No
1929731;HD-10315-B-TAN-1929731;LADIES JACKETS;Draft;Jackets;Roadster;Adults-Women;Women;;;;Fashion;;2017;S,RDSTJCKT00005052,M,RDSTJCKT00005053,L,RDSTJCKT00005054,XL,RDSTJCKT00005055;3699.00;;;;;;;rd-al-24,rd-am-24,rd-as-24,rd-se-24;zerotype;;Fall;rd-se-24;No
1929730;HD-10315-A-BLACK-1929730;LADIES JACKETS;Draft;Jackets;Roadster;Adults-Women;Women;;;;Fashion;;2017;S,RDSTJCKT00005048,M,RDSTJCKT00005049,L,RDSTJCKT00005050,XL,RDSTJCKT00005051;3699.00;;;;;;;rd-al-24,rd-am-24,rd-as-24,rd-se-24;zerotype;;Fall;rd-se-24;No
1929728;HD-10310-B-OFF. WHITE-1929728;LADIES JACKETS;Draft;Jackets;Roadster;Adults-Women;Women;;;;Fashion;;2017;S,RDSTJCKT00005040,M,RDSTJCKT00005041,L,RDSTJCKT00005042,XL,RDSTJCKT00005043;3999.00;;;;;;;rd-al-24,rd-am-24,rd-as-24,rd-se-24;zerotype;;Fall;rd-se-24;No
1929727;HD-10310-A-TAN-1929727;LADIES JACKETS;Draft;Jackets;Roadster;Adults-Women;Women;;;;Fashion;;2017;S,RDSTJCKT00005036,M,RDSTJCKT00005037,L,RDSTJCKT00005038,XL,RDSTJCKT00005039;3999.00;;;;;;;rd-al-24,rd-am-24,rd-as-24,rd-se-24;zerotype;;Fall;rd-se-24;No
1929726;HD-10306-C-OFF. WHITE-1929726;LADIES JACKETS;Draft;Jackets;Roadster;Adults-Women;Women;;;;Fashion;;2017;S,RDSTJCKT00005032,M,RDSTJCKT00005033,L,RDSTJCKT00005034,XL,RDSTJCKT00005035;3499.00;;;;;;;rd-al-24,rd-am-24,rd-as-24,rd-se-24;zerotype;;Fall;rd-se-24;No
1929725;HD-10306-B-BLACK-1929725;LADIES JACKETS;Draft;Jackets;Roadster;Adults-Women;Women;;;;Fashion;;2017;S,RDSTJCKT00005028,M,RDSTJCKT00005029,L,RDSTJCKT00005030,XL,RDSTJCKT00005031;3499.00;;;;;;;rd-al-24,rd-am-24,rd-as-24,rd-se-24;zerotype;;Fall;rd-se-24;No
1929724;HD-10306-A-OLIVE-1929724;LADIES JACKETS;Draft;Jackets;Roadster;Adults-Women;Women;;;;Fashion;;2017;S,RDSTJCKT00005024,M,RDSTJCKT00005025,L,RDSTJCKT00005026,XL,RDSTJCKT00005027;3499.00;;;;;;;rd-al-24,rd-am-24,rd-as-24,rd-se-24;zerotype;;Fall;rd-se-24;No
1929723;HD-10316-C-PEACH-1929723;LADIES JACKETS;Draft;Jackets;Roadster;Adults-Women;Women;;;;Fashion;;2017;S,RDSTJCKT00005020,M,RDSTJCKT00005021,L,RDSTJCKT00005022,XL,RDSTJCKT00005023;3899.00;;;;;;;rd-al-24,rd-am-24,rd-as-24,rd-se-24;zerotype;;Fall;rd-se-24;No
1929722;HD-10316-B-BROWN-1929722;LADIES JACKETS;Draft;Jackets;Roadster;Adults-Women;Women;;;;Fashion;;2017;S,RDSTJCKT00005016,M,RDSTJCKT00005017,L,RDSTJCKT00005018,XL,RDSTJCKT00005019;3899.00;;;;;;;rd-al-24,rd-am-24,rd-as-24,rd-se-24;zerotype;;Fall;rd-se-24;No
1929721;HD-10316-A-BLACK-1929721;LADIES JACKETS;Draft;Jackets;Roadster;Adults-Women;Women;;;;Fashion;;2017;S,RDSTJCKT00005012,M,RDSTJCKT00005013,L,RDSTJCKT00005014,XL,RDSTJCKT00005015;3899.00;;;;;;;rd-al-24,rd-am-24,rd-as-24,rd-se-24;zerotype;;Fall;rd-se-24;No
1929720;HD-10322LS-C-MAUVE-1929720;LADIES JACKETS;Draft;Jackets;Roadster;Adults-Women;Women;;;;Fashion;;2017;S,RDSTJCKT00005008,M,RDSTJCKT00005009,L,RDSTJCKT00005010,XL,RDSTJCKT00005011;3899.00;;;;;;;rd-al-24,rd-am-24,rd-as-24,rd-se-24;zerotype;;Fall;rd-se-24;No
1929719;HD-10322LS-B-RUST RED-1929719;LADIES JACKETS;Draft;Jackets;Roadster;Adults-Women;Women;;;;Fashion;;2017;S,RDSTJCKT00005004,M,RDSTJCKT00005005,L,RDSTJCKT00005006,XL,RDSTJCKT00005007;3899.00;;;;;;;rd-al-24,rd-am-24,rd-as-24,rd-se-24;zerotype;;Fall;rd-se-24;No
1929718;HD-10322LS-A-TAN-1929718;LADIES JACKETS;Draft;Jackets;Roadster;Adults-Women;Women;;;;Fashion;;2017;S,RDSTJCKT00005000,M,RDSTJCKT00005001,L,RDSTJCKT00005002,XL,RDSTJCKT00005003;3899.00;;;;;;;rd-al-24,rd-am-24,rd-as-24,rd-se-24;zerotype;;Fall;rd-se-24;No
1929717;HD-10307LS-C-BLACK-1929717;LADIES JACKETS;Draft;Jackets;Roadster;Adults-Women;Women;;;;Fashion;;2017;S,RDSTJCKT00004996,M,RDSTJCKT00004997,L,RDSTJCKT00004998,XL,RDSTJCKT00004999;3899.00;;;;;;;rd-al-24,rd-am-24,rd-as-24,rd-se-24;zerotype;;Fall;rd-se-24;No
1929715;HD-10307LS-B-CAMEL-1929715;LADIES JACKETS;Draft;Jackets;Roadster;Adults-Women;Women;;;;Fashion;;2017;S,RDSTJCKT00004992,M,RDSTJCKT00004993,L,RDSTJCKT00004994,XL,RDSTJCKT00004995;3899.00;;;;;;;rd-al-24,rd-am-24,rd-as-24,rd-se-24;zerotype;;Fall;rd-se-24;No
1929714;HD-10307LS-A-OLIVE-1929714;LADIES JACKETS;Draft;Jackets;Roadster;Adults-Women;Women;;;;Fashion;;2017;S,RDSTJCKT00004988,M,RDSTJCKT00004989,L,RDSTJCKT00004990,XL,RDSTJCKT00004991;3899.00;;;;;;;rd-al-24,rd-am-24,rd-as-24,rd-se-24;zerotype;;Fall;rd-se-24;No
1929712;HD-10322-C-MAUVE-1929712;LADIES JACKETS;Draft;Jackets;Roadster;Adults-Women;Women;;;;Fashion;;2017;S,RDSTJCKT00004984,M,RDSTJCKT00004985,L,RDSTJCKT00004986,XL,RDSTJCKT00004987;3499.00;;;;;;;rd-al-24,rd-am-24,rd-as-24,rd-se-24;zerotype;;Fall;rd-se-24;No
1929711;HD-10322-B-RUST RED-1929711;LADIES JACKETS;Draft;Jackets;Roadster;Adults-Women;Women;;;;Fashion;;2017;S,RDSTJCKT00004980,M,RDSTJCKT00004981,L,RDSTJCKT00004982,XL,RDSTJCKT00004983;3499.00;;;;;;;rd-al-24,rd-am-24,rd-as-24,rd-se-24;zerotype;;Fall;rd-se-24;No
1929709;HD-10322-A-TAN-1929709;LADIES JACKETS;Draft;Jackets;Roadster;Adults-Women;Women;;;;Fashion;;2017;S,RDSTJCKT00004976,M,RDSTJCKT00004977,L,RDSTJCKT00004978,XL,RDSTJCKT00004979;3499.00;;;;;;;rd-al-24,rd-am-24,rd-as-24,rd-se-24;zerotype;;Fall;rd-se-24;No
1929708;HD-10307-C-BLACK-1929708;LADIES JACKETS;Draft;Jackets;Roadster;Adults-Women;Women;;;;Fashion;;2017;S,RDSTJCKT00004972,M,RDSTJCKT00004973,L,RDSTJCKT00004974,XL,RDSTJCKT00004975;3499.00;;;;;;;rd-al-24,rd-am-24,rd-as-24,rd-se-24;zerotype;;Fall;rd-se-24;No
1929706;HD-10307-B-CAMEL-1929706;LADIES JACKETS;Draft;Jackets;Roadster;Adults-Women;Women;;;;Fashion;;2017;S,RDSTJCKT00004968,M,RDSTJCKT00004969,L,RDSTJCKT00004970,XL,RDSTJCKT00004971;3499.00;;;;;;;rd-al-24,rd-am-24,rd-as-24,rd-se-24;zerotype;;Fall;rd-se-24;No
1929705;HD-10307-A-OLIVE-1929705;LADIES JACKETS;Draft;Jackets;Roadster;Adults-Women;Women;;;;Fashion;;2017;S,RDSTJCKT00004964,M,RDSTJCKT00004965,L,RDSTJCKT00004966,XL,RDSTJCKT00004967;3499.00;;;;;;;rd-al-24,rd-am-24,rd-as-24,rd-se-24;zerotype;;Fall;rd-se-24;No
1927048;WS17210GR-GREY-1927048;Dina Bralette in Gray;Inactive - PMM - Catalog;Bra;SATVA;Adults-Women;Women;Grey Melange;;;Fashion;Sports;2017;XS,SAVABRAA00000013,S,SAVABRAA00000014,M,SAVABRAA00000015,L,SAVABRAA00000016;1599.00;Grey Melange solid full-coverage Sports bra<br />Lightly Padded and Non-Wired cut and sew cups<br />Regular straps and front closure<br />Back style: Racerback<br />Feature: Organic;This soft and durable sports bra from SATVA will keep you both trendy and comfortable during each and every workout.  Wear it under a trendy piece and some cute yoga pants and enjoy an afternoon of walking around the park with your friends.;Cotton and elastane <br /> Machine-wash;The model (height 5'8") is wearing a size S;;SATVA Grey Melange Solid Non-Wired Lightly Padded Sports Bra;SATVA,myntra-store-01,ANNA061,sportsallstyles-2017,jun08-wonder-hour,offer-11jun,mumbai-duty-free,mumbai-airport-duty,eors-tshirts-tops,eors-atheleisure,eors17-rsoff-coupon,eors17-perc-coupon,eorsjun17-uber-offer,wonder-hour-jun25,wishlist-eors,welcome-to-myntra-july,duty-offer-new,signup-july-2017,eors-half-price-store,bss-uber-offer,duty-offer-august,welcome-to-myntra-august17,a-listers-csale,extra500-jul24,uber-offer-jul31,buy2-1999-3107,uber-offer-aug,dutyfree-august17,all-sports-styles-2017;zerotype;;Spring;all-sports-styles-2017;No
1899232;RDSS-QTWJ-747-INDIGO-1899232;Indigo Dyed Jeans;Draft;Jeans;Roadster;Adults-Women;Women;;;;Fashion;;2017;26,RDSTJENS00015211,28,RDSTJENS00015212,30,RDSTJENS00015213,32,RDSTJENS00015214,34,RDSTJENS00015215,36,RDSTJENS00015216;1499.00;;;;;;;rd-al-24,rd-am-24,rd-as-24,rd-se-24;zerotype;;Spring;rd-se-24;No
1897311;DB-95-PINK-1897311;DB-95 PINK;Draft;Flats;DressBerry;Adults-Women;Women;;;;Fashion;;2017;Euro 36,DSBYFlats00013566,Euro 37,DSBYFlats00013567,Euro 38,DSBYFlats00013568,Euro 39,DSBYFlats00013569,Euro 40,DSBYFlats00013570;1299.00;;;;;;;;zerotype;;Fall;update;No
1885247;KS17ORGJN-037A-blue ombrey-1885247;Indigo Dyed Jeans;Draft;Jeans;Kook N Keech;Adults-Men;Men;;;;Fashion;;2017;28,KNKHJENS00001828,30,KNKHJENS00001829,32,KNKHJENS00001830,34,KNKHJENS00001831,36,KNKHJENS00001832,38,KNKHJENS00001833;2299.00;;;;;;;;zerotype;;Spring;;No
1881462;RD-MJ-1298-INDIGO-1881462;Denim-Pant;On Hold - Other;Jeans;Roadster;Adults-Men;Men;Blue;;;Fashion;Casual;2017;28,RDSTJENS00014829,30,RDSTJENS00014830,32,RDSTJENS00014831,34,RDSTJENS00014832,36,RDSTJENS00014833;1199.00;Blue medium wash 5-pocket mid-rise jeans, slash knee with light fade and whiskers, has a button and zip closure, waistband with belt loops;Upgrade your denims collection with these top-of-the-line slim jeans from Roadster.  Team them with a printed T-shirt and leather boots for a cool and casual weekend look.;Cotton <br />Machine-wash;Slim fit<br />The model (height 6') is wearing a size 32;;Roadster Men Blue Slim Fit Mid-Rise Slash Knee Jeans;Roadster,rd-men-naug,rd-al-24,rd-am-24,rd-as-24,rd-se-24;zerotype;;Fall;rd-se-24;No
1870683;RDSTR-MJ-1457-Indigo-1870683;DENIM JEANS;BIS + Content Complete;Jeans;RDSTR;Adults-Men;Men;Blue;;;Fashion;Casual;2017;28,RDSRJENS00000431,30,RDSRJENS00000432,32,RDSRJENS00000433,34,RDSRJENS00000434,36,RDSRJENS00000435;2699.00;Blue dark wash 5-pocket mid-rise jeans, clean look with light fade, has a button and zip closure, waistband with belt loops;These high-fashion jeans from RDSTR will make a great addition to your trendy wardrobe.  These can be matched with espadrilles and a classic tee when you're going out for a walk.;Cotton and elastane <br> Machine-wash;Regular Fit<br>  Stretchable<br> The model (height 6') is wearing a size 32;;RDSTR Men Blue Regular Fit Mid-Rise Clean Look Stretchable Jeans;Roadster;zerotype;;Spring;;No
1860218;MNH-801433 - AA-GREY MEL/CORAL /WHITE/ NAVY-1860218;Mens sweatshirt;Draft;Sweatshirts;Mast & Harbour;Adults-Men;Men;;;;Fashion;;2017;L,MTHBSWSH00002624,M,MTHBSWSH00002625,S,MTHBSWSH00002626,XL,MTHBSWSH00002627;1699.00;;;;;;;;zerotype;;Spring;;No
1860202;MNH-801421-A-GreyMel/ Red-1860202;Mens sweatshirt;Draft;Sweatshirts;Mast & Harbour;Adults-Men;Men;;;;Fashion;;2017;L,MTHBSWSH00002588,M,MTHBSWSH00002589,S,MTHBSWSH00002590,XL,MTHBSWSH00002591;1499.00;;;;;;;;zerotype;;Spring;;No
1860198;MNH-1345940-A-charocal / Navy-1860198;Mens sweatshirt;Draft;Sweatshirts;Mast & Harbour;Adults-Men;Men;;;;Fashion;;2017;L,MTHBSWSH00002580,M,MTHBSWSH00002581,S,MTHBSWSH00002582,XL,MTHBSWSH00002583;1499.00;;;;;;;;zerotype;;Spring;;No
1859297;AAYEOKA2108 A-OA-161-CO-01-1859297;Kurtas;Draft;Kurtas;all about you;Adults-Women;Women;;;;Fashion;;2017;S,AATUKRTA00001552,M,AATUKRTA00001553,L,AATUKRTA00001554,XL,AATUKRTA00001555;1699.00;;;;;;;aay-kurtas21sep,aay-ethnic2017,aay-newstyles,aay-kurtas-sis;zerotype;;Winter;sis;No
1853881;AAYAW17SWT039B-APRICOT-1853881;Sweaters;Draft;Sweaters;all about you;Adults-Women;Women;;;;Fashion;;2017;S,AATUSWTR00000475,M,AATUSWTR00000476,L,AATUSWTR00000477,XL,AATUSWTR00000478;2299.00;;;;;;;aay-ww2017;zerotype;;Fall;removed nonethnic;No
1853880;AAYAW17SWT039A-MEHANDI-1853880;Sweaters;Draft;Sweaters;all about you;Adults-Women;Women;;;;Fashion;;2017;S,AATUSWTR00000471,M,AATUSWTR00000472,L,AATUSWTR00000473,XL,AATUSWTR00000474;2299.00;;;;;;;aay-ww2017;zerotype;;Fall;removed nonethnic;No
1811544;S17BR15 T-Multi-1811544;Multicolor Stretch bracelets;Inactive - PMM - Catalog;Bracelet;ToniQ;Adults-Women;Women;Black;Gold;;Fashion;Casual;2017;Onesize,TONQBRCT00000311;849.00;Set of three <a href='/black?src=pd' class='seolink'>black</a> and <a href='/gold?src=pd' class='seolink'>gold</a>-toned <a href='/bracelets?src=pd' class='seolink'>bracelets</a><br />One with beaded and stone-studded detail<br />One with stone-studded and tasseled detail<br />One with stone-studded detail<br />All three are elasticated;Minimal yet trendy, these bracelets will make a perfect addition to your casual ensemble. Wear yours with a draped dress and gladiator flats.;Metal, stones and beads<br />Wipe with a clean, cotton swab when needed;Diameter: 6.5 cm;;ToniQ Set of 3 Black & Gold-Toned Bracelets;ToniQ,apr12-super-hour,new-season-styles-apr13,take20-apr17,apr15-hh,boho-tassel,bracelet-less,coupon-crush-bb,flat40-extra30-bb,min30-extra1000,gold22-bb,power500-bb,b3-20-power20,newseason20-bb,flat50-extra15-bb,flash-sale-bb21,mse-all,extra15-0305,crush24-ccmay,flat50-extra20-may9,super-hour-may9,big10-lucky20,big10-super-hour20,flash-sale-may17,may20-flash-sale,may21-hh,extra500-may22,ladies-night-coupon1,ladies-night-coupon2,may27-price-surge,hh-jun2,coupon-crush-jun6,jun08-wonder-hour,ftod-eorsj17-30,wonder-hour-jun25,ola-offer-jul17,extra500-jul24,coupon-offer-aug19;zerotype;;Summer;Image Mismatch;No
1811523;S17BR15 I-Multi-1811523;Multicolor Stretch bracelets;Inactive - PMM - Catalog;Bracelet;ToniQ;Adults-Women;Women;Grey;Gold;;Fashion;Casual;2017;Onesize,TONQBRCT00000290;849.00;Set of three grey and gold-toned beaded bracelets<br />Two grey elasticated beaded bracelets, one has a coin-shaped detail<br />One gold-toned and beige beaded elasticated bracelet with a tasseled detail;These cute set of bracelets is all that you need to look lovely this season. Team them up with your casual outfits to add a breath of freshness.;Metal, synthetic and beads<br />Wipe with a clean, dry cloth when needed;Diameters of the bracelets 1, 2 and 3: 8.2 cm, 6.5 cm, 6.5 cm;;ToniQ Set of 3 Bracelets;ToniQ,apr12-super-hour,new-season-styles-apr13,take20-apr17,apr15-hh,boho-tassel,bracelet-less,coupon-crush-bb,flat40-extra30-bb,min30-extra1000,gold22-bb,power500-bb,b3-20-power20,flat50-extra15-bb,flash-sale-bb21,mse-all,crush24-ccmay,flat50-extra20-may9,b3-60-may9,super-hour-may9,big10-flash50,big10-extra40,big10-super-hour25,may21-hh,ladies-night-coupon1,ladies-night-coupon2,hh-jun2,myntra-store-02,coupon-crush-jun6,jun08-wonder-hour,wonder-hour-jun25,ola-offer-jul17,duty-offer-new,signup-july-2017,womenpage-stack-bracelets-531760,ladies-night-jul18,welcome-to-myntra-august17,uber-offer-aug,welcome-to-myntra-aug17-new,rakhi-deals,rakhi-acc-799,dutyfree-august17,uber-offer-new-aug,accessories-rtf,coupon-offer-aug19;zerotype;;Summer;Image Mismatch;No
1808323;217037009TS-2-44-LIGHT BLUE GREY-1808323;MEN'S TSHIRT-COLLAR-H/S;Inactive - PMM - Catalog;Tshirts;Monte Carlo;Adults-Men;Men;Grey Melange;Black;;Fashion;Casual;2017;38,MTCLTSHT00004540,40,MTCLTSHT00004541,42,MTCLTSHT00004542,44,MTCLTSHT00004543;1320.00;Grey melange and black striped waist length polo T-shirt, has a polo collar, short button placket, short sleeves;Stand out this season when you go with the sleek style of a Monte Carlo T-shirt.  Whether you're running errands or meeting friends for coffee, sport this grey melange number with slim black jeans or cutoff shorts for a relaxed style.;Cotton <br /> Machine-wash;The model (height 6') is wearing a size M;;Monte Carlo Men Grey Melange Striped Polo Collar T-shirt;Monte Carlo,PTRA002,apr12-super-hour,new-season-styles-apr13,gold22-bb,b3-20-power20,mantastic-intern,never-settle,stripacular-tshirts,big10-mse-all,big10-350off,big10-super-hour25,gratification-jun2,eorsjun17-uber-offer,wonder-hour-jun25,wishlist-eors,bss-uber-offer,extra500-jul24,mcf-aug-2238,casualfest-june17,extra50-aug03,uber-offer-aug-rtf,uber-offer-16aug;zerotype;;Summer;uber-offer-16aug;No
1804147;117DBWSLD025100B-DARK WASH-1804147;Dresses;BIS + Content Complete;Dresses;DressBerry;Adults-Women;Women;Blue;;;Fashion;Casual;2017;XS,DSBYDRSS00007160,S,DSBYDRSS00007161,M,DSBYDRSS00007162,L,DSBYDRSS00007163,XL,DSBYDRSS00007164;1699.00;Blue solid woven A-line dress, has a V-neck, short sleeves, zip closure, , straight hem;Show off your great sense of fashion when you opt for this DressBerry dress.  Wow your date by pairing this solid blue piece with platform heels and a chic blazer.;Cotton <br> Machine-wash;Regular Fit<br> The model (height 5'8") is wearing a size S;;DressBerry Women Blue Solid A-Line Dress;DressBerry;zerotype;;Spring;new;No
1804146;117DBWSLD025100A-LIGHT WASH-1804146;Dresses;BIS + Content Complete;Dresses;DressBerry;Adults-Women;Women;Blue;;;Fashion;Casual;2017;XS,DSBYDRSS00007155,S,DSBYDRSS00007156,M,DSBYDRSS00007157,L,DSBYDRSS00007158,XL,DSBYDRSS00007159;1699.00;Blue solid woven A-line dress, has a V-neck, short sleeves, zip closure, , straight hem;Set the tone for this season with this one-of-a-kind DressBerry dress.  When you need an outfit for work and dinner after work, wear this solid blue piece with platform heels and some minimalistic silver jewellery.;Polyester <br> Machine-wash;Regular Fit<br> The model (height 5'8") is wearing a size S;;DressBerry Women Blue Solid A-Line Dress;DressBerry;zerotype;;Spring;new;No
1790315;APR-DENIM-04N-BLUE DENIM WASH 4-1790315;MATTHEW HW DENIM;BIS + Content Complete;Shirts;Roadster;Adults-Men;Men;Blue;;;Fashion;Casual;2017;S,RDSTSHRT00020376,M,RDSTSHRT00020377,L,RDSTSHRT00020378,XL,RDSTSHRT00020379;1699.00;Blue faded casual shirt, has a spread collar, button placket, 2 pockets, long sleeves, curved hem;You'll love the design of this high-fashion Roadster shirt.  When you're going out on a dinner date, match this blue piece with chinos and a pair of easy loafers.;Cotton <br> Machine-wash;Regular Fit<br> The model (height 6') is wearing a size M;;Roadster Men Blue Regular Fit Faded Casual Shirt;Roadster,rd-al-24,rd-am-24,rd-as-24,rd-se-24;zerotype;;Spring;rd-se-24;No
1784360;DBS/MAAY/OA/ KU0344 B-Printed-1784360;Kurtas;Draft;Kurtas;all about you;Adults-Women;Women;;;;Fashion;;2017;S,AATUKRTA00001412,M,AATUKRTA00001413,L,AATUKRTA00001414,XL,AATUKRTA00001415;1999.00;;;;;;;aay-ss179mar,aay-kurtas21sep,aay-ethnic2017,aay-newstyles,aay-kurtas-sis;zerotype;;Spring;sis;No
1784357;DBS/MAAY/OA/ KU0341 B-Blue-1784357;Kurtas;BIS + Content Complete;Kurtas;all about you;Adults-Women;Women;Blue;;;Fashion;Ethnic;2017;S,AATUKRTA00001400,M,AATUKRTA00001401,L,AATUKRTA00001402,XL,AATUKRTA00001403;1999.00;Blue yoke design straight kurta, has a round neck, three-quarter sleeves, straight hem, side slits;You'll love the elegant design and fit of this stunning kurta from all about you.  Sport this blue piece with studded flats and minimal jewellery for a simple yet stunning evening ensemble.;Polyester <br> Machine-wash;The model (height 5'8") is wearing a size S;;all about you Women Blue Yoke Design Straight Kurta;all about you from Deepika Padukone, aay-ss179mar,aay-kurtas21sep,aay-ethnic2017,aay-newstyles,aay-kurtas-sis;zerotype;;Spring;sis;No
1784356;DBS/MAAY/OA/ KU0341 A-Egret-1784356;Kurtas;BIS + Content Complete;Kurtas;all about you;Adults-Women;Women;Off White;;;Fashion;Ethnic;2017;S,AATUKRTA00001396,M,AATUKRTA00001397,L,AATUKRTA00001398,XL,AATUKRTA00001399;1999.00;Off-White yoke design straight kurta, has a round neck, three-quarter sleeves, straight hem, side slits;Make a statement with this elegant kurta from all about you.  Look chic for the day with this off-white kurta and leggings.;Polyester <br> Machine-wash;The model (height 5'8") is wearing a size S;;all about you Women Off-White Yoke Design Straight Kurta;all about you from Deepika Padukone, aay-ss179mar,aay-kurtas21sep,aay-ethnic2017,aay-newstyles,aay-kurtas-sis;zerotype;;Spring;sis;No
1783918;216MGPKSLD010065-03-BIKING MAROON-1783918;Moto GP Mens Graphic T-Shirt;Draft;Tshirts;Roadster;Adults-Men;Men;;;;Fashion;;2017;S,RDSTTSHT00029686,M,RDSTTSHT00029687,L,RDSTTSHT00029688,XL,RDSTTSHT00029689;599.00;;;;;;;rd-men-naug,rd-al-24,rd-am-24,rd-as-24,rd-se-24;zerotype;;Spring;rd-se-24;No
1783917;216MGPKSLD010065-02-NAVY-1783917;Moto GP Mens Graphic T-Shirt;Draft;Tshirts;Roadster;Adults-Men;Men;;;;Fashion;;2017;S,RDSTTSHT00029682,M,RDSTTSHT00029683,L,RDSTTSHT00029684,XL,RDSTTSHT00029685;599.00;;;;;;;rd-men-naug,rd-al-24,rd-am-24,rd-as-24,rd-se-24;zerotype;;Spring;rd-se-24;No
1783916;216MGPKSLD010065-01-GREY-1783916;Moto GP Mens Graphic T-Shirt;Draft;Tshirts;Roadster;Adults-Men;Men;;;;Fashion;;2017;S,RDSTTSHT00029678,M,RDSTTSHT00029679,L,RDSTTSHT00029680,XL,RDSTTSHT00029681;599.00;;;;;;;rd-men-naug,rd-al-24,rd-am-24,rd-as-24,rd-se-24;zerotype;;Spring;rd-se-24;No
1783908;216MGPKSLD010054-03-NAVY /TEAL-1783908;Moto GP Mens Graphic T-Shirt;Draft;Tshirts;Roadster;Adults-Men;Men;;;;Fashion;;2017;S,RDSTTSHT00029646,M,RDSTTSHT00029647,L,RDSTTSHT00029648,XL,RDSTTSHT00029649;999.00;;;;;;;rd-men-naug,rd-al-24,rd-am-24,rd-as-24,rd-se-24;zerotype;;Spring;rd-se-24;No
1783907;216MGPKSLD010054-02-GREY /WHITE WATER-1783907;Moto GP Mens Graphic T-Shirt;Draft;Tshirts;Roadster;Adults-Men;Men;;;;Fashion;;2017;S,RDSTTSHT00029642,M,RDSTTSHT00029643,L,RDSTTSHT00029644,XL,RDSTTSHT00029645;999.00;;;;;;;rd-men-naug,rd-al-24,rd-am-24,rd-as-24,rd-se-24;zerotype;;Spring;rd-se-24;No
1783906;216MGPKSLD010054-01-BLACK/CHARCOAL-1783906;Moto GP Mens Graphic T-Shirt;Draft;Tshirts;Roadster;Adults-Men;Men;;;;Fashion;;2017;S,RDSTTSHT00029638,M,RDSTTSHT00029639,L,RDSTTSHT00029640,XL,RDSTTSHT00029641;999.00;;;;;;;rd-men-naug,rd-al-24,rd-am-24,rd-as-24,rd-se-24;zerotype;;Spring;rd-se-24;No
1753384;16517-DK.TAN-1753384;16517 DK.TAN;Inactive - PMM - Catalog;Formal Shoes;INVICTUS;Adults-Men;Men;Tan;;;Fashion;Formal;2017;UK6,TILCFOSH00001492,UK7,TILCFOSH00001493,UK8,TILCFOSH00001494,UK9,TILCFOSH00001495,UK10,TILCFOSH00001496;3299.00;A pair of tan brown monks, has a buckle detail<br />Leather upper<br />Cushioned footbed<br />Textured outsole with a stacked heel<br />Warranty: 90 days against manufacturing defects;Up your style game by stepping into this pair of shoes from INVICTUS. For a smart and sophisticated appeal, team it with slim trousers and a crisp shirt.;Leather<br />Use a branded leather conditioner to clean the product;;;INVICTUS Men Tan Brown Leather Monks;INVICTUS,Office-Appropriate,price-surge,pp-extra25-off,apr15-hh,crush24-ccmay,rs300off-ccmay,new-season30-ccmay,super-hour-ccmay,men-offer-may05,coupon-offer-may,extra400-may9,rs300off-1105,big10-flash30,big10-ftod,big10-lucky10,big10-price-surge,big10-rs501off,big10-super-hour25,myntra-icici-offer,big10-mse-all,big10-350off,flash-sale-may17,may20-500off,may21-hh,big10-gratification,crush350-may25,price-surge-may25,look4-mitm-formals,may27-price-surge,extra15-may27,extra500-may29,payday500-jun1,gratification-jun2,hh-jun2,myntra-store-01,corneroffice-intern,corneroffice-firstjob,corneroffice-mngr,corneroffice-cxo,corneroffice-boardroom,corneroffice-june17,extra25-jun15,eors-wishlist16,eors17-perc-coupon,eorsjun17-uber-offer,wishlist-eors,MIN60OFFONFTW,bss-uber-offer,extra500-jul24,duty-offer-august,welcome-to-myntra-august17,a-listers-csale,uber-offer-jul31,uber-offer-aug,welcome-to-myntra-aug17-new,dutyfree-august17,extra30-aug09,uber-offer-new-aug,uber-offer-aug-rtf,extra500-16aug,uber-offer-16aug,welcome-to-myntra-aug-v2,coupon-offer-aug19;zerotype;;Spring;Image Mismatch;No
1556041;FMTS7872-LT. BLUE-1556041;T SHIRT BRICK RED;Inactive - PMM - Catalog;Tshirts;Flying Machine;Adults-Men;Men;Red;;;Fashion;Casual;2016;L,FLYMTSHT00005485,M,FLYMTSHT00005486,S,FLYMTSHT00005487,XL,FLYMTSHT00005488,XXL,FLYMTSHT00005489;1199.00;Red menlange self-design waist length Henley T-shirt, has a Henley neck, long sleeves with roll-up tabs;Elevate the look of your wardrobe with a few more basic tees like this high-end polyester one from Flying Machine.  You'll feel entirely at ease in this piece on top of a relaxed-fit chino and slip-on tennis shoe when you're going out shopping or catching a movie.;50% polyester, 50% cotton<br /> Machine-wash;The model (height 6' and shoulders 18") is wearing a size M;;Flying Machine Men Red Melange Henley T-shirt;Flying Machine,NIKO0387,extra20-25oct,of-all-things-new,never-before-on-discount-12november,new-on-discount,styles-for-flash-10,new-mens-casual,mens-new-style,aw16-dec16,winter-summer-2016,fm-handpicked-sushant,HH12JAN17,budget-deal,cohort-customers,HH07FEB17,v-day-styles,vday-coupon-offer,welcome-to-myntra-feb-new,bday-happy-hour,coupon-crush-11,weekend-coupon-offer,brandrush-4,superhour-feb26,wishlisters-wish10-feb25,coupon-offer-monday,holi-super,happy-hour-mar19,mar29-super-hour,bfg-event-apr,ftod-bb-apr20,fm-denim-diaries,fm-back-to-campus,buy50-extra50-may03,beat-the-heat-summer-lounge-wear,summer-lounge-wear-fest,lounge-fest-summer,menswear-fest-relaxed-wear,bestsellers-may6,menswear-fest-relaxedwear,relaxed-weekend-menswear,super-hour-may9,welcome-to-myntra-may-big,big10-mse-all,big10-coupon-offer,best-seller-1905,may21-hh,look1-mitm-casual,mitm17,price-surge-may25,may27-price-surge,hh-jun2,welcome-to-myntra-june17,coupon-crush-jun6,jun08-wonder-hour,jun8-offer999,offer-11jun,min30-jun12,tops-tees-june17,sushant-fm,must-havetees-eoss,eoss-menswear,ftod-eoss-bbsjul17,bb-flash-50,mitm-collegejuly,mitm-july,bestsellers-mcf-2238,mcf-aug-2238,casualfest-june17,mitm-college-aug;zerotype;;Fall;mitm-college-aug;No
1486958;8903338054887-Black-1486958;Sail 2;Inactive - PMM - Catalog;Backpacks;Wildcraft;Adults-Men;Men;Navy Blue;Black;;Fashion;Casual;2016;Onesize,WDCTBAPK00100411;1699.00;Navy blue&nbsp and black <a href='/backpack?src=pd' class='seolink'>backpack</a><br>Two haul loop, two padded mesh and adjustable shoulder straps<br>Two main zip compartments, one has an organiser sleeve<br>An external zip pocket on the front<br>One mesh&nbsp stash pocket on one side<br>Padded mesh back<br>Warranty: 5 years&nbsp against manufacturing defects<br>;Carry your essentials comfortably&nbsp in this backpack from Wiki by&nbsp Wildcraft. Team&nbsp it&nbsp with a pair of jeans and a printed tee for a stylish look.;Polyester<br>Wipe with a clean, dry cloth when needed<br>;Height: 49.5 cm<br>Width: 33 cm<br>Depth: 21.6 cm<br>;;Wiki by Wildcraft Men Navy & Black Backpack;Wildcraft,men-work-crop-bags,wild-nondis,awmbp-nondis16,bbd-pre-sale-2016,myntra-open-coupon-offer,styles-for-flash-10,extra20-flash20-dec2,empsalelta,next-day-delivery-bng,bfg-wanderlust-men-outdooressentials,outdoor-sports-25july;zerotype;;Winter;Image Mismatch;No
1486936;8903338062851-Black-1486936;Utility 3 2016;Inactive - PMM - Catalog;Backpacks;Wildcraft;Adults-Men;Men;Black;;;Fashion;Casual;2016;Onesize,WDCTBAPK00100389;999.00;Black&nbsp <a href='/backpack?src=pd' class='seolink'>backpack</a><br>One haul loop, two padded mesh&nbsp and adjustable shoulder straps<br>Two main zip compartments<br>One external pocket on the front<br>One stash pocket on one side<br>Padded mesh back<br>Warranty: 18 months&nbsp against manufacturing defects<br>;Carry your essentials comfortably&nbsp in this backpack from&nbsp Wildcraft. Team&nbsp it&nbsp with a pair of jeans and a printed tee for a stylish look.;Polyester<br>Wipe with a clean, dry cloth when needed<br>;Height: 48 cm<br>Width: 33 cm<br>Depth: 19 cm;;Wiki by Wildcraft Men Black Utility Backpack;Wiki by Wildcraft,men-work-crop-bags,wild-nondis,awmbp-nondis16,bbd-pre-sale-2016,myntra-open-coupon-offer,styles-for-flash-10,bfg-wanderlust-men-outdooressentials,ndd-gurgaon,big10-350off,big10-super-hour25,sportsbp,lta-backpacks-under999,eors-wishlist13,eors17-rsoff-coupon,eorsjun17-uber-offer,wishlist-eors,outdoor-sports-25july,extra500-jul24,min500-jul29,eors-sports-under999;zerotype;;Winter;Image Mismatch;No
1387895;ATNF6399-BLACK-1387895;TR AR SS14 FF/PL ROAD SHOW SAMPLES;Inactive - PMM - Catalog;Trousers;Arrow;Adults-Men;Men;Black;;;Fashion;Formal;2016;30,ARRWTRSR00001646,32,ARRWTRSR00001647,36,ARRWTRSR00001648,38,ARRWTRSR00001649,34,ARRWTRSR00001650;1999.00;Black solid mid-rise formal trousers, has a button closure and a concealed hook-and-bar closure, 3 pockets<br />Our stylist has paired these trousers with a belt<br />This pair of trousers does not come with a belt;Elevate your year-round style with these must-have trousers from Arrow. When you're celebrating your anniversary, match this black pair with your favourite shirt and a trendy tie.;64% polyester, 34% viscose and 2% Lycra<br /> Machine-wash;The model (height 6') is wearing a size 32;;Arrow Men Black Solid Formal Trousers;Arrow,DINO026,myntra-store-01,ftod-eorsj17-20,formals-2238,ftod-rtf,welcome-to-myntra-aug-v2;zerotype;;Summer;Image Mismatch;No
913668;A1033-01-Blue-913668;Giordano Watches;Inactive - PMM - Catalog;Watches;GIORDANO;Adults-Men;Men;White;;;Fashion;Casual;2016;ONESIZE,GDNOWTCH00000531;8950.00;Case style: Analogue watch with a circular case that has markings and a stainless steel back<br />Dial style: White textured dial<br />Features: A date aperture, a screw to reset the time<br />Strap style: Brown genuine leather strap, secured with a tang clasp<br />Water-resistant up to 30 m<br />Comes in a signature GIORDANO case<br />International warranty: 2 year;Designed keeping a man with distinguished tastes in mind, this GIORDANO watch comes with an element class and exclusivity. Wear it with a shirt, a pair of chinos and loafers for a trendy look.;;Dial width: 30 mm<br />Strap width: 20 mm;;GIORDANO Men White Dial Watch A1033-01;GIORDANO,min3000off-26jan,min2000off-26jan,min1000off-26jan,,rs3000off-30jan,rs2000off-30jan,rs1000off-30jan,,watchstoremen-strapleather,rs3000off-30jan,rs2000off-30jan,rs1000off-30jan,,rs3000off-30jan,rs2000off-30jan,rs1000off-30jan,,1000rs-off-6feb2016,2000rs-off-6feb2016,3000rs-off-6feb2016,watchstoremen-trendrosegoldrs-3000-off-13feb,rs-2000-off-13feb,rs-1000-off-13feb,,rs-3000-off-14feb16,rs-2000-off-14feb16,rs-1000-off-14feb16,,rs-2000-off-16febrs-2000-off-16feb,rs-1500-off-16feb,rs-1000-off-16feb,,rs3000off-20feb,rs1500off-20feb,rs2000off-20feb,rs1000off-20feb,,1000rsoff-22feb2016,1500rsoff-22feb2016,2000rsoff-22feb2016,,first-login-offer,minimum-rs-500-off-23mar,ss16vacationstore-citymen-watches,ss16vacationstore-hillsmen-watches,min-rs-500-off-13apr,rs-2000-off-15may,rs-1500-off-15may,rs-1000-off-15may,coupon-offer-18may,1000-rs-off-20-May,1500-rs-off-20-May,2000-rs-off-20-May,rs-2000-off-22may,rs-500-off-22may,rs-1000-off-22may,rs-2000-off-28may,rs-1000-off-28may,rs-500-off-28may,rs-1500-off-28may,2000rs-1jun,1000rs-1jun,500rs-1jun,rs-2000-off-5jun,rs-1000-off-5jun,rs-500-off-5jun,rs-2000-off-june,rs-1000-off-june,rs-500-off-june-pn,rs-1000-off-17june,rs-1000-off-26june,rs-500-off-26june,first-time-on-discount-eors,watches-eors-flashsale,3000-all-3jul,500rs-5jul,1000rs-5jul,2000rs-5jul,rs2000-off-17july,may21-hh,big10-price-surge,big10-gratification,extra500-may29,hot-offers-mds17,payday500-jun1,welcome-to-myntra-june17,myntra-store-03,watches-fest-menu-best-sellers,coupon-crush-jun6,june-crush06,jun08-wonder-hour,jun8-offer999,watches-min-4000-off;zerotype;GIORDANO;Winter;Image Mismatch;No
227258;7116D-BLUE-227258;7116D;Inactive - PMM - Catalog;Flats;Catwalk;Adults-Women;Women;Blue;;;Fashion;Casual;2016;UK4,CTWKFlats00496,UK5,CTWKFlats00497,UK6,CTWKFlats00498,UK7,CTWKFlats00499,UK8,CTWKFlats00500,UK9,CTWKFlats00544;1595.00;A pair of blue flats<br />Synthetic upper with metallic detail, has a thong-style strap and a backfoot strap<br />Textured outsole with patterned grooves<br />Warranty: 15 days warranty for sole debonding only<br />No warranty on studs, sequins or other accessories (warranty not valid on products under discount or promotional offer);This pair of stylish flats from Catwalk is an absolute closet essential. Team it with a crop top and a pair of shorts for a breezy look.;Synthetic<br />Wipe with a clean, dry cloth when needed;Catwalk runs a size smaller. Pick one size bigger for a more comfortable fit.;;Catwalk Women Blue Flats;Catwalk,offer1020,allexceptglobal,webengfirstlog,premium-non-discount,,HH-19aug,,,,afterhour26dec,SALESOPS20,SALESOPS30,HH28APRIL2015,HH21OCT2015,dailyopenoffer20,,HH19NOV2015,MINIHH23NOV,ios-promotion-25nov,HH26NOV2015,HH16DEC,bonkersaboutballerinas,just-gone-on-discount,hh08jan16,HH18JAN15,new-styles-on-discount-26jan,new-styles-on-discount-26jan,HH10FEB16,madabtshoes-franticflats-ballerinas,first-on-discount-8mar,first-login-offer,new-styles-on-discount-7apr,madabtshoes-franticflats-slipons,madabtshoes-shoeguide-opentoepeeptoe,appsale-top-brands-women-footwear,appsale-women-footwear-slipons,madabtshoes-franticflats-tstraps,madabtshoes-madabouttrends-summerflats,JIT,madabtshoes-shopbysize-37,madabtshoes-shopbysize-38,madabtshoes-shopbysize-39,madabtshoes-shopbysize-40,madabtshoes-shopbysize-41,madabtshoes-shopbysize-42,eors-16-highsize,madabtshoes-shopbysize-35,madabtshoes-shopbysize-36,fk-lenovo-offer,fk-tv-offer,welcome-to-myn-log-off,wedding-bride-honeymoon-flats,welcome-to-myntra-sept,wedding-bride-honeymoon-pack-list-all,happyhour-rs-off,welcome-to-eors,eors-coupon-4jan,HH20JAN17,stylesforextra5-jan17,lasttime-discount-rd,myntra-wishlisters-jan,extra15-wishlisters-2017,budget-deal,cohort-customers,HH12JAN17,v-day-styles,welcome-to-myntra-feb,vday-coupon-offer,superhour-feb26,coupon-15-mar14,happy-hour-mar19,super-hour-mar17,rs500off-crush500,crush20-mar28,cc-articles-2803,welcome-to-march-new,catwalk-ss17-footwear-mbs,welcome-to-mar17-new,rs300-off-mar17,mar29-super-hour,welcome-to-myntra-april,hh-0104,chill-summer-apr,bfg-mini-gig-headsoverheels-couponcodes,bfg-event-apr,bfg-extra10,bfg-extra20,bfg-extra30,ftod-bfg,apr12-super-hour,bnb-styles-apr,summer-style-apr,after-match-apr,upto40-extra20-bb,gold22-bb,b3-20-power20,apr15-hh,coupon-crush05,mse-all,price-surge,pp-extra25-off,crush24-ccmay,super-hour-ccmay,women-offer-may05,rs300off-ccmay,super-hour-may9,ndd-mumbai,big10-lucky10,big10-price-surge,big10-super-hour25,welcome-to-myntra-may-big,flash-sale-may17,may21-hh,big10-gratification,ladies-night-coupon1,ladies-night-coupon2,crush350-may25,price-surge-may25,extra500-may29,hh-jun2,myntra-store-03,jun08-wonder-hour,eors-wishlist04,wonder-hour-jun25,welcome-to-myntra-july,duty-offer-new,bss-uber-offer,extra500-jul24,uber-offer-aug-rtf,buy3-rs2499-rtf,extra500-16aug,uber-offer-16aug,deal-aug-buy3-2499,coupon-offer-aug19;Flats;Catwalk;Winter;Image Mismach;No
