Style ID;Vendor Article Number;Vendor Article Name;Active Status;Article type;Brand;Age Group;Gender;Base Colour;Colour1;Colour2;Fashion Type;Usage;Year;Size - SKU code pair;MRP;Style Description;Style Note;Materials and Care Description;Size and Fit Description;Size Chart Path;Product Display Name;Tags;Product Type;Classification Brand;Season;Comments;Upload Images
1874716;RJMAP17-008-1-Black-1874716;ROADIES BY JUSTANNED BLACK MEN'S LEATHER JACK;Draft;Jackets;Justanned;Adults-Men;Men;;;;Fashion;;2017;S,JSTDJCKT00000989,M,JSTDJCKT00000990,L,JSTDJCKT00000991,XL,JSTDJCKT00000992,XXL,JSTDJCKT00000993;15000.00;;;;;;;;zerotype;;Spring;;No
1874715;RJMAP17-007-1-Black-1874715;ROADIES BY JUSTANNED BLACK MEN'S LEATHER JACK;Draft;Jackets;Justanned;Adults-Men;Men;;;;Fashion;;2017;S,JSTDJCKT00000984,M,JSTDJCKT00000985,L,JSTDJCKT00000986,XL,JSTDJCKT00000987,XXL,JSTDJCKT00000988;18000.00;;;;;;;;zerotype;;Spring;;No
1874714;RJMAP17-004-1-Black-1874714;ROADIES by JUSTANNED BLACK MEN'S LEATHER JACK;Draft;Jackets;Justanned;Adults-Men;Men;;;;Fashion;;2017;S,JSTDJCKT00000979,M,JSTDJCKT00000980,L,JSTDJCKT00000981,XL,JSTDJCKT00000982,XXL,JSTDJCKT00000983;14000.00;;;;;;;;zerotype;;Spring;;No
1874713;RJMAP17-003-1-Black-1874713;ROADIES by JUSTANNED BLACK MEN'S LEATHER JACK;Draft;Jackets;Justanned;Adults-Men;Men;;;;Fashion;;2017;S,JSTDJCKT00000974,M,JSTDJCKT00000975,L,JSTDJCKT00000976,XL,JSTDJCKT00000977,XXL,JSTDJCKT00000978;15000.00;;;;;;;;zerotype;;Spring;;No
1874712;RJMAP17-002-20-Burgundy-1874712;ROADIES BY JUSTANNED MAROON MEN'S LEATHER JAC;Draft;Jackets;Justanned;Adults-Men;Men;;;;Fashion;;2017;S,JSTDJCKT00000969,M,JSTDJCKT00000970,L,JSTDJCKT00000971,XL,JSTDJCKT00000972,XXL,JSTDJCKT00000973;20000.00;;;;;;;;zerotype;;Spring;;No
1874711;RJMAP17-002-2-Brown-1874711;ROADIES BY JUSTANNED GREY MEN'S LEATHER JACKE;Draft;Jackets;Justanned;Adults-Men;Men;;;;Fashion;;2017;S,JSTDJCKT00000964,M,JSTDJCKT00000965,L,JSTDJCKT00000966,XL,JSTDJCKT00000967,XXL,JSTDJCKT00000968;20000.00;;;;;;;;zerotype;;Spring;;No
1874710;RJMAP17-002-1-Black-1874710;ROADIES by JUSTANNED BLACK MEN'S LEATHER JACK;Draft;Jackets;Justanned;Adults-Men;Men;;;;Fashion;;2017;S,JSTDJCKT00000959,M,JSTDJCKT00000960,L,JSTDJCKT00000961,XL,JSTDJCKT00000962,XXL,JSTDJCKT00000963;20000.00;;;;;;;;zerotype;;Spring;;No
1874709;RJMAP17-001-6-Red-1874709;ROADIES by JUSTANNED RED MEN'S LEATHER JACKET;Draft;Jackets;Justanned;Adults-Men;Men;;;;Fashion;;2017;S,JSTDJCKT00000954,M,JSTDJCKT00000955,L,JSTDJCKT00000956,XL,JSTDJCKT00000957,XXL,JSTDJCKT00000958;18000.00;;;;;;;;zerotype;;Spring;;No
1874708;RJMAP17-001-2-Brown-1874708;ROADIES BY JUSTANNED BROWN MEN'S LEATHER JACK;Draft;Jackets;Justanned;Adults-Men;Men;;;;Fashion;;2017;S,JSTDJCKT00000949,M,JSTDJCKT00000950,L,JSTDJCKT00000951,XL,JSTDJCKT00000952,XXL,JSTDJCKT00000953;18000.00;;;;;;;;zerotype;;Spring;;No
1874707;RJMAP17-001-1-Black-1874707;ROADIES BY JUSTANNED BLACK MEN'S LEATHER JACK;Draft;Jackets;Justanned;Adults-Men;Men;;;;Fashion;;2017;S,JSTDJCKT00000944,M,JSTDJCKT00000945,L,JSTDJCKT00000946,XL,JSTDJCKT00000947,XXL,JSTDJCKT00000948;18000.00;;;;;;;;zerotype;;Spring;;No
