Style ID;Vendor Article Number;Vendor Article Name;Active Status;Article type;Brand;Age Group;Gender;Base Colour;Colour1;Colour2;Fashion Type;Usage;Year;Size - SKU code pair;MRP;Style Description;Style Note;Materials and Care Description;Size and Fit Description;Size Chart Path;Product Display Name;Tags;Product Type;Classification Brand;Season;Comments;Upload Images
2498819;PSU318006752-DarkblueSolid-2498819;PSU318006752;Draft;Suits;Peter England;Adults-Men;Men;Blue;;;Fashion;;2018;42,PTENSUIT00000746,38,PTENSUIT00000747,40,PTENSUIT00000748,44,PTENSUIT00000749;5999.00;;;<p>85%Terelene15%Rayon</p>;;;;;zerotype;;Summer;;No
2498818;PSU318006751-DarkGreywithBlack-2498818;PSU318006751;Draft;Suits;Peter England;Adults-Men;Men;Grey;;;Fashion;;2018;42,PTENSUIT00000742,40,PTENSUIT00000743,44,PTENSUIT00000744,38,PTENSUIT00000745;6999.00;;;<p>90%Terelene10%Rayon</p>;;;;;zerotype;;Summer;;No
2498817;PSU318006750-DarkGreywithBlack-2498817;PSU318006750;Draft;Suits;Peter England;Adults-Men;Men;Grey;;;Fashion;;2018;42,PTENSUIT00000738,40,PTENSUIT00000739,44,PTENSUIT00000740,38,PTENSUIT00000741;6999.00;;;<p>84%Terelene16%Rayon</p>;;;;;zerotype;;Summer;;No
2498816;PSU318006748-BlackSolid-2498816;PSU318006748;Draft;Suits;Peter England;Adults-Men;Men;Black;;;Fashion;;2018;44,PTENSUIT00000734,42,PTENSUIT00000735,40,PTENSUIT00000736,38,PTENSUIT00000737;5999.00;;;<p>100%Polyester</p>;;;;;zerotype;;Summer;;No
2498814;PBZ318006758-DarkblueWithWhite-2498814;PBZ318006758;Draft;Blazers;Peter England;Adults-Men;Men;Blue;;;Fashion;;2018;42,PTENBLZR00000989,38,PTENBLZR00000990,44,PTENBLZR00000991,40,PTENBLZR00000992;4999.00;;;<p>72%Polyester26%Viscose2%Linen</p>;;;;;zerotype;;Summer;;No
2498813;PBZ318006756-LightgreyWithgrey-2498813;PBZ318006756;Draft;Blazers;Peter England;Adults-Men;Men;Grey;;;Fashion;;2018;38,PTENBLZR00000985,42,PTENBLZR00000986,44,PTENBLZR00000987,40,PTENBLZR00000988;4999.00;;;<p>65%Polyester35%Viscose</p>;;;;;zerotype;;Summer;;No
2496628;PV12263-NB-2496628;Jogger;Draft;Track Pants;Proline Active;Adults-Men;Men;Navy Blue;;;Fashion;;2018;L,PLAVTRPT00001479,M,PLAVTRPT00001480,XL,PLAVTRPT00001481,XXL,PLAVTRPT00001482;1399.00;<p>Cuffed Tracks with Flap Pockets and Cut and sew Panel detail</p>;;<p>Fleece,  Cotton - Polyester</p>;;;;;zerotype;;Summer;;No
2496627;PV12263-BK-2496627;Jogger;Draft;Track Pants;Proline Active;Adults-Men;Men;Black;;;Fashion;;2018;L,PLAVTRPT00001475,M,PLAVTRPT00001476,XL,PLAVTRPT00001477,XXL,PLAVTRPT00001478;1399.00;<p>Cuffed Tracks with Flap Pockets and Cut and sew Panel detail</p>;;<p>Fleece,  Cotton - Polyester</p>;;;;;zerotype;;Summer;;No
2496626;PC14026-MEML-2496626;Jogger;Draft;Track Pants;Proline Active;Adults-Men;Men;Grey;;;Fashion;;2018;L,PLAVTRPT00001470,M,PLAVTRPT00001471,S,PLAVTRPT00001472,XL,PLAVTRPT00001473,XXL,PLAVTRPT00001474;1049.00;<p>KNIT JOGGER WITH PRINT</p>;;<p>FOMA ,COTTON POLYESTER</p>;;;;;zerotype;;Summer;;No
2496625;PC14021-CML-2496625;Shorts;Draft;Shorts;Proline Active;Adults-Men;Men;Charcoal;;;Fashion;;2018;L,PLAVSHOR00000614,M,PLAVSHOR00000615,S,PLAVSHOR00000616,XL,PLAVSHOR00000617,XXL,PLAVSHOR00000618;749.00;<p>KNIT SHORTS WITH Printed side PANEL</p>;;<p>FOMA,COTTON POLYESTER</p>;;;;;zerotype;;Summer;;No
2496624;PA14550-MEML-2496624;Shorts;Draft;Shorts;Proline Active;Adults-Men;Men;Grey;;;Fashion;;2018;L,PLAVSHOR00000609,M,PLAVSHOR00000610,S,PLAVSHOR00000611,XL,PLAVSHOR00000612,XXL,PLAVSHOR00000613;1149.00;<p>COLOUR BLOCKED LONG SHORTS WITH PRINTED STRIPER ON FRONT PANEL</p>;;<p>FOMA FABRIC , COTTON POLYESTER</p>;;;;;zerotype;;Summer;;No
2496623;PA14548-LEML-2496623;Shorts;Draft;Shorts;Proline Active;Adults-Men;Men;Grey;;;Fashion;;2018;L,PLAVSHOR00000604,M,PLAVSHOR00000605,S,PLAVSHOR00000606,XL,PLAVSHOR00000607,XXL,PLAVSHOR00000608;1049.00;<p>LONG SHORTS WITH MESH DETAILING AND PRINT AT WLHS</p>;;<p>FOMA FABRIC ,COTTON POLYESTER</p>;;;;;zerotype;;Summer;;No
2496622;PA14542-DBML-2496622;Shorts;Draft;Shorts;Proline Active;Adults-Men;Men;Navy Blue;;;Fashion;;2018;L,PLAVSHOR00000599,M,PLAVSHOR00000600,S,PLAVSHOR00000601,XL,PLAVSHOR00000602,XXL,PLAVSHOR00000603;949.00;<p>SHORTS WITH  TONAL COLOUR BLOCKING DETAIL</p>;;<p>PLAITED FABRIC , COTTON POLYESTER</p>;;;;;zerotype;;Summer;;No
2496621;PA022-LEML-2496621;Shorts;Draft;Shorts;Proline Active;Adults-Men;Men;Grey;;;Fashion;;2018;L,PLAVSHOR00000595,M,PLAVSHOR00000596,S,PLAVSHOR00000597,XL,PLAVSHOR00000598;799.00;<p>SHORTS WITH MESH TRIM DETAIL</p>;;<p>Interlock  & mesh  , 100% POLYESTER</p>;;;;;zerotype;;Summer;;No
2496620;PC14003-EML-2496620;EML;Draft;Tshirts;Proline Active;Adults-Men;Men;Beige;;;Fashion;;2018;L,PLAVTSHT00001580,M,PLAVTSHT00001581,S,PLAVTSHT00001582,XL,PLAVTSHT00001583,XXL,PLAVTSHT00001584;649.00;<p>SHORT SLEEVE HENLEY TEE</p>;;<p>SINGLE JERSEY,COTTON POLYESTER</p>;;;;;zerotype;;Summer;;No
2496619;PA14531-NB-2496619;NB;Draft;Tshirts;Proline Active;Adults-Men;Men;Navy Blue;;;Fashion;;2018;L,PLAVTSHT00001575,M,PLAVTSHT00001576,S,PLAVTSHT00001577,XL,PLAVTSHT00001578,XXL,PLAVTSHT00001579;1249.00;<p>POLO WITH FRONT PANEL SUBLIMATION AND BACK MESH GUSSET DETAIL</p>;;<p>INTERLOCK & MESH, 100% POLYESTER</p>;;;;;zerotype;;Summer;;No
2496618;PA14520-OW-2496618;OW;Draft;Tshirts;Proline Active;Adults-Men;Men;Off White;;;Fashion;;2018;L,PLAVTSHT00001570,M,PLAVTSHT00001571,S,PLAVTSHT00001572,XL,PLAVTSHT00001573,XXL,PLAVTSHT00001574;1049.00;<p>ROUND NECK SHORT SLEEVE TEE WITH SUBLIMATED GRAPHIC</p>;;<p>INTERLOCK & MESH, 100% POLYESTER</p>;;;;;zerotype;;Summer;;No
2496617;PA14520-BK-2496617;BK;Draft;Tshirts;Proline Active;Adults-Men;Men;Black;;;Fashion;;2018;L,PLAVTSHT00001565,M,PLAVTSHT00001566,S,PLAVTSHT00001567,XL,PLAVTSHT00001568,XXL,PLAVTSHT00001569;1049.00;<p>ROUND NECK SHORT SLEEVE TEE WITH SUBLIMATED GRAPHIC</p>;;<p>INTERLOCK & MESH, 100% POLYESTER</p>;;;;;zerotype;;Summer;;No
2496616;PA14509-OW-2496616;OW;Draft;Tshirts;Proline Active;Adults-Men;Men;Off White;;;Fashion;;2018;L,PLAVTSHT00001560,M,PLAVTSHT00001561,S,PLAVTSHT00001562,XL,PLAVTSHT00001563,XXL,PLAVTSHT00001564;849.00;<p>ROUND NECK SHORT SLEEVE TEE WITH  FRONT PANEL AND SLEEVE PRINT DETAIL</p>;;<p>SINGLE JERSEY, 100% COTTON,compact YARN</p>;;;;;zerotype;;Summer;;No
2496615;PA038-DE-2496615;DE;Draft;Tshirts;Proline Active;Adults-Men;Men;Grey;;;Fashion;;2018;L,PLAVTSHT00001555,M,PLAVTSHT00001556,S,PLAVTSHT00001557,XL,PLAVTSHT00001558,XXL,PLAVTSHT00001559;699.00;<p>COLOUR BLOCKED ROUND NECK RAGLAN SHORT SLEEVE TEE WITH CONTRAST STITCH DETAIL</p>;;<p>interlock &  SINGLE JERSEY (DMS YARN)  , 100% POLYESTER</p>;;;;;zerotype;;Summer;;No
2496614;PA037-BK-2496614;BK;Draft;Tshirts;Proline Active;Adults-Men;Men;Black;;;Fashion;;2018;L,PLAVTSHT00001550,M,PLAVTSHT00001551,S,PLAVTSHT00001552,XL,PLAVTSHT00001553,XXL,PLAVTSHT00001554;699.00;<p>ROUND NECK RAGLAN SHORT SLEEVE TEE WITH CONTRAST STITCH DETAIL</p>;;<p>interlock &  SINGLE JERSEY (DMS YARN)  , 100% POLYESTER</p>;;;;;zerotype;;Summer;;No
2496613;PA036-OLSD-2496613;OLSD;Draft;Tshirts;Proline Active;Adults-Men;Men;Olive;;;Fashion;;2018;L,PLAVTSHT00001545,M,PLAVTSHT00001546,S,PLAVTSHT00001547,XL,PLAVTSHT00001548,XXL,PLAVTSHT00001549;549.00;<p>ROUND NECK SLEEVELESS TOP</p>;;<p>interlock &  SINGLE JERSEY (DMS YARN)  , 100% POLYESTER</p>;;;;;zerotype;;Summer;;No
2496612;PA036-MBSD-2496612;MBSD;Draft;Tshirts;Proline Active;Adults-Men;Men;Blue;;;Fashion;;2018;L,PLAVTSHT00001540,M,PLAVTSHT00001541,S,PLAVTSHT00001542,XL,PLAVTSHT00001543,XXL,PLAVTSHT00001544;549.00;<p>ROUND NECK SLEEVELESS TOP</p>;;<p>interlock &  SINGLE JERSEY (DMS YARN)  , 100% POLYESTER</p>;;;;;zerotype;;Summer;;No
2496611;PA036-DE-2496611;DE;Draft;Tshirts;Proline Active;Adults-Men;Men;Grey;;;Fashion;;2018;L,PLAVTSHT00001535,M,PLAVTSHT00001536,S,PLAVTSHT00001537,XL,PLAVTSHT00001538,XXL,PLAVTSHT00001539;549.00;<p>ROUND NECK SLEEVELESS TOP</p>;;<p>interlock &  SINGLE JERSEY (DMS YARN)  , 100% POLYESTER</p>;;;;;zerotype;;Summer;;No
2496610;PA036-BK-2496610;BK;Draft;Tshirts;Proline Active;Adults-Men;Men;Black;;;Fashion;;2018;L,PLAVTSHT00001530,M,PLAVTSHT00001531,S,PLAVTSHT00001532,XL,PLAVTSHT00001533,XXL,PLAVTSHT00001534;549.00;<p>ROUND NECK SLEEVELESS TOP</p>;;<p>interlock &  SINGLE JERSEY (DMS YARN)  , 100% POLYESTER</p>;;;;;zerotype;;Summer;;No
2496609;PA035-MBSD-2496609;MBSD;Draft;Tshirts;Proline Active;Adults-Men;Men;Blue;;;Fashion;;2018;L,PLAVTSHT00001525,M,PLAVTSHT00001526,S,PLAVTSHT00001527,XL,PLAVTSHT00001528,XXL,PLAVTSHT00001529;549.00;<p>SINGLET WITH CONTRAST NECKLINE AND ARMHOLE BINDING</p>;;<p>SINGLE JERSEY (DMS YARN)  , 100% POLYESTER</p>;;;;;zerotype;;Summer;;No
2496608;PA035-DESD-2496608;DESD;Draft;Tshirts;Proline Active;Adults-Men;Men;Grey;;;Fashion;;2018;L,PLAVTSHT00001520,M,PLAVTSHT00001521,S,PLAVTSHT00001522,XL,PLAVTSHT00001523,XXL,PLAVTSHT00001524;549.00;<p>SINGLET WITH CONTRAST NECKLINE AND ARMHOLE BINDING</p>;;<p>SINGLE JERSEY (DMS YARN)  , 100% POLYESTER</p>;;;;;zerotype;;Summer;;No
2496607;PA021-MBSD-2496607;MBSD;Draft;Tshirts;Proline Active;Adults-Men;Men;Blue;;;Fashion;;2018;L,PLAVTSHT00001515,M,PLAVTSHT00001516,S,PLAVTSHT00001517,XL,PLAVTSHT00001518,XXL,PLAVTSHT00001519;799.00;<p>ROUND NECK LONG SLEEVE WITH CONTRAST STITCH LINE AND THUMB HOLE DETAIL</p>;;<p>SINGLE JERSEY (DMS YARN)  , 100% POLYESTER</p>;;;;;zerotype;;Summer;;No
2496606;PA021-DESD-2496606;DESD;Draft;Tshirts;Proline Active;Adults-Men;Men;Grey;;;Fashion;;2018;L,PLAVTSHT00001510,M,PLAVTSHT00001511,S,PLAVTSHT00001512,XL,PLAVTSHT00001513,XXL,PLAVTSHT00001514;799.00;<p>ROUND NECK LONG SLEEVE WITH CONTRAST STITCH LINE AND THUMB HOLE DETAIL</p>;;<p>SINGLE JERSEY (DMS YARN)  , 100% POLYESTER</p>;;;;;zerotype;;Summer;;No
2496605;PA020-MBSD-2496605;MBSD;Draft;Tshirts;Proline Active;Adults-Men;Men;Blue;;;Fashion;;2018;L,PLAVTSHT00001506,M,PLAVTSHT00001507,XL,PLAVTSHT00001508,XXL,PLAVTSHT00001509;899.00;<p>POLO SHORT SLEEVE TEE WITH CONTRAST INNER PLACKET AND MESH VENT</p>;;<p>SINGLE JERSEY (DMS YARN) & DOTTED MESH , 100% POLYESTER</p>;;;;;zerotype;;Summer;;No
2492182;50011805238004-MAROON-2492182;PTLBL-M-5501652-4181, 44, MAROON;Draft;Kurtas;Lombard;Adults-Men;Men;Maroon;;;Fashion;;2018;39,LMBDKRTA00000111,40,LMBDKRTA00000112,42,LMBDKRTA00000113,44,LMBDKRTA00000114;1299.00;;;<p>WASH DARK COLOURS SEPARATELY , HAND WASH / MACHINE WASH COLD  , USE MILD DETERGENT , TUMBLE DRY LOW , DRY IN SHADE , DO NOT BLEACH , WARM IRON.</p>;;;;;zerotype;;Spring;;No
2492181;50011805237004-BLUE-2492181;PTLBL-M-5501642-4181, 44, BLUE;Draft;Kurtas;Lombard;Adults-Men;Men;Blue;;;Fashion;;2018;39,LMBDKRTA00000107,40,LMBDKRTA00000108,42,LMBDKRTA00000109,44,LMBDKRTA00000110;1299.00;;;<p>WASH DARK COLOURS SEPARATELY , HAND WASH / MACHINE WASH COLD  , USE MILD DETERGENT , TUMBLE DRY LOW , DRY IN SHADE , DO NOT BLEACH , WARM IRON.</p>;;;;;zerotype;;Spring;;No
2492180;50011805236004-offwhite-2492180;PTLBL-M-5501632-4181, 44, offwhite;Draft;Kurtas;Lombard;Adults-Men;Men;Off White;;;Fashion;;2018;39,LMBDKRTA00000103,40,LMBDKRTA00000104,42,LMBDKRTA00000105,44,LMBDKRTA00000106;1299.00;;;<p>WASH DARK COLOURS SEPARATELY , HAND WASH / MACHINE WASH COLD  , USE MILD DETERGENT , TUMBLE DRY LOW , DRY IN SHADE , DO NOT BLEACH , WARM IRON.</p>;;;;;zerotype;;Spring;;No
2487038;50011795351004-YELLOW-2487038;PJMSP-TBP-0005071, XL, YELLOW;Draft;Tshirts;JM Sport;Adults-Men;Men;Yellow;;;Fashion;Casual;2018;S,JMSTTSHT00000172,M,JMSTTSHT00000173,L,JMSTTSHT00000174,XL,JMSTTSHT00000175;1199.00;;;<p>100% CTN Pique 220 gsm</p>;;;;;zerotype;;Spring;;No
2487036;50011795349004-GREEN-2487036;PJMSP-TBP-0005072, XL, GREEN;Draft;Tshirts;JM Sport;Adults-Men;Men;Green;;;Fashion;Casual;2018;S,JMSTTSHT00000167,M,JMSTTSHT00000168,L,JMSTTSHT00000169,XL,JMSTTSHT00000170;1199.00;;;<p>100% CTN Pique 220 gsm</p>;;;;;zerotype;;Spring;;No
2487032;50011795347004-GREY-2487032;PJMSP-TBP-0005090, XL, GREY;Draft;Tshirts;JM Sport;Adults-Men;Men;Grey;;;Fashion;Casual;2018;S,JMSTTSHT00000158,M,JMSTTSHT00000159,L,JMSTTSHT00000160,XL,JMSTTSHT00000161;1199.00;;;<p>100% CTN Pique 220 gsm</p>;;;;;zerotype;;Spring;;No
2487030;50011795346004-RED-2487030;PJMSP-TBP-0005073, XL, RED;Draft;Tshirts;JM Sport;Adults-Men;Men;Red;;;Fashion;Casual;2018;S,JMSTTSHT00000153,M,JMSTTSHT00000154,L,JMSTTSHT00000155,XL,JMSTTSHT00000156;1199.00;;;<p>100% CTN Pique 220 gsm</p>;;;;;zerotype;;Spring;;No
2487029;50011795331005-NAVY-2487029;PJMSP-TBP-0005217, XXL, NAVY;Draft;Tshirts;JM Sport;Adults-Men;Men;Navy Blue;;;Fashion;Casual;2018;S,JMSTTSHT00000148,M,JMSTTSHT00000149,L,JMSTTSHT00000150,XL,JMSTTSHT00000151,XXL,JMSTTSHT00000152;999.00;;;<p>100% CTN PIQUE 220 GSM</p>;;;;;zerotype;;Spring;;No
2487028;50011795330005-GREEN-2487028;PJMSP-TBP-0005220, XXL, GREEN;Draft;Tshirts;JM Sport;Adults-Men;Men;Green;;;Fashion;Casual;2018;S,JMSTTSHT00000143,M,JMSTTSHT00000144,L,JMSTTSHT00000145,XL,JMSTTSHT00000146,XXL,JMSTTSHT00000147;999.00;;;<p>100% CTN PIQUE 220 GSM</p>;;;;;zerotype;;Spring;;No
2487026;50011795329004-TEAL-2487026;PJMSP-TBP-0005093, XL, TEAL;Draft;Tshirts;JM Sport;Adults-Men;Men;Teal;;;Fashion;Casual;2018;S,JMSTTSHT00000138,M,JMSTTSHT00000139,L,JMSTTSHT00000140,XL,JMSTTSHT00000141;1199.00;;;<p>100% CTN Pique 220 gsm</p>;;;;;zerotype;;Spring;;No
2487024;50011795313004-WHITE-2487024;PJMSP-TBP-0005176, XL, WHITE;Draft;Tshirts;JM Sport;Adults-Men;Men;White;;;Fashion;Casual;2018;S,JMSTTSHT00000133,M,JMSTTSHT00000134,L,JMSTTSHT00000135,XL,JMSTTSHT00000136;1199.00;;;<p>100% CTN Pique 220 gsm</p>;;;;;zerotype;;Spring;;No
2487021;50011795231005-NAVY-2487021;PJMSP-POL-0005255, XXL, NAVY;Draft;Tshirts;JM Sport;Adults-Men;Men;Navy Blue;;;Fashion;Casual;2018;S,JMSTTSHT00000124,M,JMSTTSHT00000125,L,JMSTTSHT00000126,XXL,JMSTTSHT00000127;999.00;;;<p>100% CTN PIQUE 240 GSM</p>;;;;;zerotype;;Spring;;No
2487020;50011795214005-PURPLE-2487020;PJMSP-POL-0005256, XXL, PURPLE;Draft;Tshirts;JM Sport;Adults-Men;Men;Purple;;;Fashion;Casual;2018;S,JMSTTSHT00000120,M,JMSTTSHT00000121,L,JMSTTSHT00000122,XXL,JMSTTSHT00000123;999.00;;;<p>100% CTN PIQUE 240 GSM</p>;;;;;zerotype;;Spring;;No
2487018;50011795213004-ORANGE-2487018;PJMSP-TBP-0005091, XL, ORANGE;Draft;Tshirts;JM Sport;Adults-Men;Men;Orange;;;Fashion;Casual;2018;S,JMSTTSHT00000115,M,JMSTTSHT00000116,L,JMSTTSHT00000117,XL,JMSTTSHT00000118;1199.00;;;<p>100% CTN Pique 220 gsm</p>;;;;;zerotype;;Spring;;No
2475037;TB0A1UDZ0011-Black-2475037;AF Bear Head Dwn Vst BLACK;Draft;Jackets;Timberland;Adults-Men;Men;;;;Fashion;;2017;L,TMLDJCKT00081702,M,TMLDJCKT00081703,S,TMLDJCKT00081704,XL,TMLDJCKT00081705;13099.00;;;<p>M Woven Down Vest, 100% Polyester</p>;;;;luxury-flash-sale;zerotype;;Winter;luxury-flash-sale;No
2469158;CMTU11232-K8-Black-2469158;CP/MLT/TFPF - 45;Draft;Trousers;ColorPlus;Adults-Men;Men;Black;;;Fashion;;2017;30,CRPSTRSR00003678,32,CRPSTRSR00003679,34,CRPSTRSR00003680,36,CRPSTRSR00003681,38,CRPSTRSR00003682,40,CRPSTRSR00003683,42,CRPSTRSR00003684;3899.00;;;<p>Wash Dark Color Separately,Cotton 100%</p>;;;;;zerotype;;Winter;;No
2469155;CMTU11185-K8-Black-2469155;FF SLNT PKT BK WELT FNCHINNO TAI FIT;Draft;Trousers;ColorPlus;Adults-Men;Men;Black;;;Fashion;;2017;30,CRPSTRSR00003657,32,CRPSTRSR00003658,34,CRPSTRSR00003659,36,CRPSTRSR00003660,38,CRPSTRSR00003661,40,CRPSTRSR00003662,42,CRPSTRSR00003663;2499.00;;;<p>Wash Dark Color Separately,Cotton 100%</p>;;;;;zerotype;;Winter;;No
2469152;CMTU11185-G3-Grey-2469152;FF SLNT PKT BK WELT FNCHINNO TAI FIT;Draft;Trousers;ColorPlus;Adults-Men;Men;Grey;;;Fashion;;2017;30,CRPSTRSR00003636,32,CRPSTRSR00003637,34,CRPSTRSR00003638,36,CRPSTRSR00003639,38,CRPSTRSR00003640,40,CRPSTRSR00003641,42,CRPSTRSR00003642;2499.00;;;<p>Wash Dark Color Separately,Cotton 100%</p>;;;;;zerotype;;Winter;;No
2469148;CMTU11185-BE-Navy Blue-2469148;FF SLNT PKT BK WELT FNCHINNO TAI FIT;Draft;Trousers;ColorPlus;Adults-Men;Men;Navy Blue;;;Fashion;;2017;30,CRPSTRSR00003622,32,CRPSTRSR00003623,34,CRPSTRSR00003624,36,CRPSTRSR00003625,38,CRPSTRSR00003626,40,CRPSTRSR00003627,42,CRPSTRSR00003628;2499.00;;;<p>Wash Dark Color Separately,Cotton 100%</p>;;;;;zerotype;;Winter;;No
2469104;RMSX05913-B4-Blue-2469104;F/S SEMI CUTAWY CLR CHSL PKT&CUF-CONT FT;Draft;Shirts;Raymond;Adults-Men;Men;Blue;;;Fashion;;2017;38,RYMDSHRT00013827,39,RYMDSHRT00013828,40,RYMDSHRT00013829,42,RYMDSHRT00013830,44,RYMDSHRT00013831,46,RYMDSHRT00013832;1699.00;;;<p>Machine Wash Warm Gentle Cycle,Cotton 100%</p>;;;;;zerotype;;Winter;;No
2469102;RMSX05910-W0-White-2469102;F/S SEMI CUTAWY CLR CHSL PKT&CUF-CONT FT;Draft;Shirts;Raymond;Adults-Men;Men;White;;;Fashion;;2017;38,RYMDSHRT00013821,39,RYMDSHRT00013822,40,RYMDSHRT00013823,42,RYMDSHRT00013824,44,RYMDSHRT00013825,46,RYMDSHRT00013826;1699.00;;;<p>Machine Wash Warm Gentle Cycle,Cotton 100%</p>;;;;;zerotype;;Winter;;No
2459611;ACJN436-40-Medium Blue-2459611;American Crew Men's Medium Blue Slim Fit Jeans;Draft;Jeans;American Crew;Adults-Men;Men;Blue;;;Fashion;;2018;30,ANCWJENS00000739,32,ANCWJENS00000740,34,ANCWJENS00000741,36,ANCWJENS00000742,38,ANCWJENS00000743,40,ANCWJENS00000744;2999.00;;;<p>Machine wash cold, tumble dry low, do not iron on print, do not bleach</p>;;;;;zerotype;;Summer;;No
2459608;ACJN435-40-Medium Blue-2459608;American Crew Men's Medium Blue Slim Fit Jeans;Draft;Jeans;American Crew;Adults-Men;Men;Blue;;;Fashion;;2018;30,ANCWJENS00000733,32,ANCWJENS00000734,34,ANCWJENS00000735,36,ANCWJENS00000736,38,ANCWJENS00000737,40,ANCWJENS00000738;2999.00;;;<p>Machine wash cold, tumble dry low, do not iron on print, do not bleach</p>;;;;;zerotype;;Summer;;No
2459607;ACJN434-40-Dark Blue-2459607;American Crew Men's Dark Blue Slim Fit Jeans;Draft;Jeans;American Crew;Adults-Men;Men;Blue;;;Fashion;;2018;30,ANCWJENS00000727,32,ANCWJENS00000728,34,ANCWJENS00000729,36,ANCWJENS00000730,38,ANCWJENS00000731,40,ANCWJENS00000732;2999.00;;;<p>Machine wash cold, tumble dry low, do not iron on print, do not bleach</p>;;;;;zerotype;;Summer;;No
2446920;CMKF13528-Y4-Yellow-2446920;CLASSIC FIT HS WITH  POCKET;Draft;Tshirts;ColorPlus;Adults-Men;Men;Yellow;;;Fashion;;2017;00L,CRPSTSHT00002530,00M,CRPSTSHT00002531,00S,CRPSTSHT00002532,0XL,CRPSTSHT00002533,0XS,CRPSTSHT00002534,2XL,CRPSTSHT00002535;1499.00;;;<p>Wash Dark Color Separately,Cotton</p>;;;;;zerotype;;Winter;;No
2446917;CMKF13528-M8-Maroon-2446917;CLASSIC FIT HS WITH  POCKET;Draft;Tshirts;ColorPlus;Adults-Men;Men;Maroon;;;Fashion;;2017;00L,CRPSTSHT00002518,00M,CRPSTSHT00002519,00S,CRPSTSHT00002520,0XL,CRPSTSHT00002521,0XS,CRPSTSHT00002522,2XL,CRPSTSHT00002523;1499.00;;;<p>Wash Dark Color Separately,Cotton</p>;;;;;zerotype;;Winter;;No
2446915;CMKF13528-K8-Black-2446915;CLASSIC FIT HS WITH  POCKET;Draft;Tshirts;ColorPlus;Adults-Men;Men;Black;;;Fashion;;2017;00L,CRPSTSHT00002512,00M,CRPSTSHT00002513,00S,CRPSTSHT00002514,0XL,CRPSTSHT00002515,0XS,CRPSTSHT00002516,2XL,CRPSTSHT00002517;1499.00;;;<p>Wash Dark Color Separately,Cotton</p>;;;;;zerotype;;Winter;;No
2446845;CMSD26153-W0-White-2446845;CLASSIC FIT HS;Draft;Shirts;ColorPlus;Adults-Men;Men;White;;;Fashion;;2017;00L,CRPSSHRT00006302,00M,CRPSSHRT00006303,00S,CRPSSHRT00006304,0XL,CRPSSHRT00006305,0XS,CRPSSHRT00006306,2XL,CRPSSHRT00006307;1999.00;;;<p>Wash Dark Color Separately,Cotton</p>;;;;;zerotype;;Winter;;No
2446834;CMSB26174-W1-White-2446834;CLASSIC FIT HS;Draft;Shirts;ColorPlus;Adults-Men;Men;White;;;Fashion;;2017;00L,CRPSSHRT00006272,00M,CRPSSHRT00006273,00S,CRPSSHRT00006274,0XL,CRPSSHRT00006275,0XS,CRPSSHRT00006276,2XL,CRPSSHRT00006277;3099.00;;;<p>Wash Dark Color Separately,Linen</p>;;;;;zerotype;;Winter;;No
2446832;CMSB26174-K8-Black-2446832;CLASSIC FIT HS;Draft;Shirts;ColorPlus;Adults-Men;Men;Black;;;Fashion;;2017;00L,CRPSSHRT00006266,00M,CRPSSHRT00006267,00S,CRPSSHRT00006268,0XL,CRPSSHRT00006269,0XS,CRPSSHRT00006270,2XL,CRPSSHRT00006271;3099.00;;;<p>Wash Dark Color Separately,Linen</p>;;;;;zerotype;;Winter;;No
2446830;CMSB26174-F5-Beige-2446830;CLASSIC FIT HS;Draft;Shirts;ColorPlus;Adults-Men;Men;Beige;;;Fashion;;2017;00L,CRPSSHRT00006262,00M,CRPSSHRT00006263,00S,CRPSSHRT00006264,0XS,CRPSSHRT00006265;3099.00;;;<p>Wash Dark Color Separately,Linen</p>;;;;;zerotype;;Winter;;No
2446803;CMSA26174-Y3-Yellow-2446803;CLASSIC FIT FS;Draft;Shirts;ColorPlus;Adults-Men;Men;Yellow;;;Fashion;;2017;00L,CRPSSHRT00006220,00M,CRPSSHRT00006221,00S,CRPSSHRT00006222,0XL,CRPSSHRT00006223,0XS,CRPSSHRT00006224,2XL,CRPSSHRT00006225;3099.00;;;<p>Wash Dark Color Separately,Linen</p>;;;;;zerotype;;Winter;;No
2446797;CMSA26174-W1-White-2446797;CLASSIC FIT FS;Draft;Shirts;ColorPlus;Adults-Men;Men;White;;;Fashion;;2017;00L,CRPSSHRT00006214,00M,CRPSSHRT00006215,00S,CRPSSHRT00006216,0XL,CRPSSHRT00006217,0XS,CRPSSHRT00006218,2XL,CRPSSHRT00006219;3099.00;;;<p>Wash Dark Color Separately,Linen</p>;;;;;zerotype;;Winter;;No
2446791;CMSA26174-F5-Beige-2446791;CLASSIC FIT FS;Draft;Shirts;ColorPlus;Adults-Men;Men;Beige;;;Fashion;;2017;00L,CRPSSHRT00006208,00M,CRPSSHRT00006209,00S,CRPSSHRT00006210,0XL,CRPSSHRT00006211,0XS,CRPSSHRT00006212,2XL,CRPSSHRT00006213;3099.00;;;<p>Wash Dark Color Separately,Linen</p>;;;;;zerotype;;Winter;;No
2446781;CMSA26153-W0-White-2446781;CLASSIC FIT FS;Draft;Shirts;ColorPlus;Adults-Men;Men;White;;;Fashion;;2017;00L,CRPSSHRT00006196,00M,CRPSSHRT00006197,00S,CRPSSHRT00006198,0XL,CRPSSHRT00006199,0XS,CRPSSHRT00006200,2XL,CRPSSHRT00006201;1999.00;;;<p>Wash Dark Color Separately,Cotton</p>;;;;;zerotype;;Winter;;No
2446776;CMSA26153-V8-Purple-2446776;CLASSIC FIT FS;Draft;Shirts;ColorPlus;Adults-Men;Men;Purple;;;Fashion;;2017;00L,CRPSSHRT00006190,00M,CRPSSHRT00006191,00S,CRPSSHRT00006192,0XL,CRPSSHRT00006193,0XS,CRPSSHRT00006194,2XL,CRPSSHRT00006195;1999.00;;;<p>Wash Dark Color Separately,Cotton</p>;;;;;zerotype;;Winter;;No
2446769;CMSA26153-F2-Beige-2446769;CLASSIC FIT FS;Draft;Shirts;ColorPlus;Adults-Men;Men;Beige;;;Fashion;;2017;00L,CRPSSHRT00006178,00M,CRPSSHRT00006179,00S,CRPSSHRT00006180,0XL,CRPSSHRT00006181,0XS,CRPSSHRT00006182,2XL,CRPSSHRT00006183;1999.00;;;<p>Wash Dark Color Separately,Cotton</p>;;;;;zerotype;;Winter;;No
2444006;VSTF318S007391-brown-2444006;Trouser;Draft;Trousers;Van Heusen Sport;Adults-Men;Men;Brown;;;Fashion;;2018;34,VHSPTRSR00002513,38,VHSPTRSR00002514,28,VHSPTRSR00002515,36,VHSPTRSR00002516,32,VHSPTRSR00002517,30,VHSPTRSR00002518,40,VHSPTRSR00002519;1899.00;;;<p>100%Cotton</p>;;;;SS18-MC-ALL,MCW-SS18-ALL,mcw-ss18-all;zerotype;;Summer;mcw-ss18-all;No
2444005;VSTF318S007389-blue-2444005;Trouser;Draft;Trousers;Van Heusen Sport;Adults-Men;Men;Blue;;;Fashion;;2018;34,VHSPTRSR00002506,38,VHSPTRSR00002507,28,VHSPTRSR00002508,36,VHSPTRSR00002509,32,VHSPTRSR00002510,30,VHSPTRSR00002511,40,VHSPTRSR00002512;1899.00;;;<p>100%Cotton</p>;;;;SS18-MC-ALL,MCW-SS18-ALL,mcw-ss18-all;zerotype;;Summer;mcw-ss18-all;No
2444004;VSTF318S004155-Khaki-2444004;Trouser;Draft;Trousers;Van Heusen Sport;Adults-Men;Men;Khaki;;;Fashion;;2018;34,VHSPTRSR00002499,38,VHSPTRSR00002500,28,VHSPTRSR00002501,36,VHSPTRSR00002502,32,VHSPTRSR00002503,30,VHSPTRSR00002504,40,VHSPTRSR00002505;1999.00;;;<p>100%Cotton</p>;;;;SS18-MC-ALL,MCW-SS18-ALL,mcw-ss18-all;zerotype;;Summer;mcw-ss18-all;No
2444002;VSTF318S004153-green-2444002;Trousers;Draft;Trousers;Van Heusen Sport;Adults-Men;Men;Green;;;Fashion;;2018;34,VHSPTRSR00002485,28,VHSPTRSR00002486,32,VHSPTRSR00002487,38,VHSPTRSR00002488,30,VHSPTRSR00002489,36,VHSPTRSR00002490,40,VHSPTRSR00002491;1999.00;;;<p>100%Cotton</p>;;;;SS18-MC-ALL,MCW-SS18-ALL,mcw-ss18-all;zerotype;;Summer;mcw-ss18-all;No
2444001;VSTF318S004152-blue-2444001;Trouser;Draft;Trousers;Van Heusen Sport;Adults-Men;Men;Blue;;;Fashion;;2018;34,VHSPTRSR00002478,38,VHSPTRSR00002479,28,VHSPTRSR00002480,36,VHSPTRSR00002481,32,VHSPTRSR00002482,30,VHSPTRSR00002483,40,VHSPTRSR00002484;1999.00;;;<p>100%Cotton</p>;;;;SS18-MC-ALL,MCW-SS18-ALL,mcw-ss18-all;zerotype;;Summer;mcw-ss18-all;No
2444000;VSTF318S004151-brown-2444000;Trouser;Draft;Trousers;Van Heusen Sport;Adults-Men;Men;Brown;;;Fashion;;2018;34,VHSPTRSR00002471,38,VHSPTRSR00002472,28,VHSPTRSR00002473,36,VHSPTRSR00002474,32,VHSPTRSR00002475,30,VHSPTRSR00002476,40,VHSPTRSR00002477;1999.00;;;<p>100%Cotton</p>;;;;SS18-MC-ALL,MCW-SS18-ALL,mcw-ss18-all;zerotype;;Summer;mcw-ss18-all;No
2443999;VSTF318S004150-ivory-2443999;Trouser;Draft;Trousers;Van Heusen Sport;Adults-Men;Men;;;;Fashion;;2018;34,VHSPTRSR00002464,38,VHSPTRSR00002465,28,VHSPTRSR00002466,36,VHSPTRSR00002467,32,VHSPTRSR00002468,30,VHSPTRSR00002469,40,VHSPTRSR00002470;1999.00;;;<p>100%Cotton</p>;;;;SS18-MC-ALL,MCW-SS18-ALL,mcw-ss18-all;zerotype;;Summer;mcw-ss18-all;No
2443991;VHTF318M001664-blue-2443991;Trousers;Draft;Trousers;Van Heusen;Adults-Men;Men;Blue;;;Fashion;;2018;34,VNHSTRSR00008783,28,VNHSTRSR00008784,32,VNHSTRSR00008785,36,VNHSTRSR00008786,38,VNHSTRSR00008787,30,VNHSTRSR00008788,40,VNHSTRSR00008789;2299.00;;;<p>70%Polyester30%Viscose</p>;;;;SS18-MC-ALL,MCW-SS18-ALL;zerotype;;Summer;MCW-SS18-ALL;No
2443989;VHTF318M001621-brown-2443989;Trousers;Draft;Trousers;Van Heusen;Adults-Men;Men;Brown;;;Fashion;;2018;38,VNHSTRSR00008769,34,VNHSTRSR00008770,32,VNHSTRSR00008771,36,VNHSTRSR00008772,30,VNHSTRSR00008773,28,VNHSTRSR00008774,40,VNHSTRSR00008775;1899.00;;;<p>65%Polyester35%Viscose</p>;;;;SS18-MC-ALL,MCW-SS18-ALL;zerotype;;Summer;MCW-SS18-ALL;No
2443987;VHTF318M001619-grey-2443987;Trousers;Draft;Trousers;Van Heusen;Adults-Men;Men;Grey;;;Fashion;;2018;34,VNHSTRSR00008755,30,VNHSTRSR00008756,38,VNHSTRSR00008757,32,VNHSTRSR00008758,28,VNHSTRSR00008759,36,VNHSTRSR00008760,40,VNHSTRSR00008761;1899.00;;;<p>65%Polyester35%Viscose</p>;;;;SS18-MC-ALL,MCW-SS18-ALL;zerotype;;Summer;MCW-SS18-ALL;No
2443986;VHTF318M001618-grey-2443986;Trouser;Draft;Trousers;Van Heusen;Adults-Men;Men;Grey;;;Fashion;;2018;34,VNHSTRSR00008748,38,VNHSTRSR00008749,28,VNHSTRSR00008750,36,VNHSTRSR00008751,32,VNHSTRSR00008752,30,VNHSTRSR00008753,40,VNHSTRSR00008754;1899.00;;;<p>65%Polyester35%Viscose</p>;;;;SS18-MC-ALL,MCW-SS18-ALL;zerotype;;Summer;MCW-SS18-ALL;No
2443984;VDTF318E002449-OTHERS-2443984;Trouser;Draft;Trousers;V Dot;Adults-Men;Men;;;;Fashion;;2018;34,VDOTTRSR00002353,38,VDOTTRSR00002354,28,VDOTTRSR00002355,36,VDOTTRSR00002356,32,VDOTTRSR00002357,30,VDOTTRSR00002358,40,VDOTTRSR00002359;1999.00;;;<p>73%Terelene25%Rayon2%XLA</p>;;;;SS18-MC-ALL,MCW-SS18-ALL,mcw-ss18-all;zerotype;;Summer;mcw-ss18-all;No
2443983;VDTF318E002444-blue-2443983;Trouser;Draft;Trousers;V Dot;Adults-Men;Men;Blue;;;Fashion;;2018;34,VDOTTRSR00002346,38,VDOTTRSR00002347,28,VDOTTRSR00002348,36,VDOTTRSR00002349,32,VDOTTRSR00002350,30,VDOTTRSR00002351,40,VDOTTRSR00002352;1799.00;;;<p>65%Polyester35%Viscose</p>;;;;SS18-MC-ALL,MCW-SS18-ALL,mcw-ss18-all;zerotype;;Summer;mcw-ss18-all;No
2443981;VDTF318E002437-OTHERS-2443981;Trouser;Draft;Trousers;V Dot;Adults-Men;Men;;;;Fashion;;2018;34,VDOTTRSR00002332,38,VDOTTRSR00002333,28,VDOTTRSR00002334,36,VDOTTRSR00002335,32,VDOTTRSR00002336,30,VDOTTRSR00002337,40,VDOTTRSR00002338;1999.00;;;<p>73%Terelene25%Rayon2%XLA</p>;;;;SS18-MC-ALL,MCW-SS18-ALL,mcw-ss18-all;zerotype;;Summer;mcw-ss18-all;No
2443980;VDTF318E002436-black-2443980;Trousers;Draft;Trousers;V Dot;Adults-Men;Men;Black;;;Fashion;;2018;36,VDOTTRSR00002326,34,VDOTTRSR00002327,32,VDOTTRSR00002328,38,VDOTTRSR00002329,30,VDOTTRSR00002330,40,VDOTTRSR00002331;1799.00;;;<p>70%Polyester30%Viscose</p>;;;;SS18-MC-ALL,MCW-SS18-ALL,mcw-ss18-all;zerotype;;Summer;mcw-ss18-all;No
2443978;VDTF318D004076-Khaki-2443978;Trouser;Draft;Trousers;V Dot;Adults-Men;Men;Khaki;;;Fashion;;2018;34,VDOTTRSR00002314,38,VDOTTRSR00002315,28,VDOTTRSR00002316,36,VDOTTRSR00002317,32,VDOTTRSR00002318,30,VDOTTRSR00002319,40,VDOTTRSR00002320;1999.00;;;<p>98% Cotton2% Elastine</p>;;;;SS18-MC-ALL,MCW-SS18-ALL,mcw-ss18-all;zerotype;;Summer;mcw-ss18-all;No
2443973;VSKP318S000015-red-2443973;T Shirt;Draft;Tshirts;Van Heusen Sport;Adults-Men;Men;;;;Fashion;;2018;M,VHSPTSHT00001257,XL,VHSPTSHT00001258,XXL,VHSPTSHT00001259,S,VHSPTSHT00001260,L,VHSPTSHT00001261;1399.00;;;<p>100%Cotton</p>;;;;SS18-MC-ALL,MCW-SS18-ALL,mcw-ss18-all;zerotype;;Summer;mcw-ss18-all;No
2443972;VSKP318S000012-red-2443972;T Shirt;Draft;Tshirts;Van Heusen Sport;Adults-Men;Men;;;;Fashion;;2018;M,VHSPTSHT00001252,XXL,VHSPTSHT00001253,L,VHSPTSHT00001254,XL,VHSPTSHT00001255,S,VHSPTSHT00001256;1399.00;;;<p>100%Cotton</p>;;;;SS18-MC-ALL,MCW-SS18-ALL,mcw-ss18-all;zerotype;;Summer;mcw-ss18-all;No
2443970;VSKP318S000010-grey-2443970;T Shirt;Draft;Tshirts;Van Heusen Sport;Adults-Men;Men;;;;Fashion;;2018;M,VHSPTSHT00001242,XXL,VHSPTSHT00001243,L,VHSPTSHT00001244,XL,VHSPTSHT00001245,S,VHSPTSHT00001246;1399.00;;;<p>100%Cotton</p>;;;;SS18-MC-ALL,MCW-SS18-ALL,mcw-ss18-all;zerotype;;Summer;mcw-ss18-all;No
2443968;VSKP318S000008-white-2443968;T Shirt;Draft;Tshirts;Van Heusen Sport;Adults-Men;Men;;;;Fashion;;2018;M,VHSPTSHT00001232,XXL,VHSPTSHT00001233,L,VHSPTSHT00001234,XL,VHSPTSHT00001235,S,VHSPTSHT00001236;1399.00;;;<p>100%Cotton</p>;;;;SS18-MC-ALL,MCW-SS18-ALL,mcw-ss18-all;zerotype;;Summer;mcw-ss18-all;No
2443955;VHKP318M000127-red-2443955;T Shirt;Draft;Tshirts;Van Heusen;Adults-Men;Men;;;;Fashion;;2018;M,VNHSTSHT00003792,XXL,VNHSTSHT00003793,L,VNHSTSHT00003794,XL,VNHSTSHT00003795,S,VNHSTSHT00003796;1499.00;;;<p>65%Cotton35%Polyester</p>;;;;SS18-MC-ALL,MCW-SS18-ALL;zerotype;;Summer;MCW-SS18-ALL;No
2443954;VHKP318M000100-yellow-2443954;T Shirt;Draft;Tshirts;Van Heusen;Adults-Men;Men;;;;Fashion;;2018;M,VNHSTSHT00003787,XXL,VNHSTSHT00003788,L,VNHSTSHT00003789,XL,VNHSTSHT00003790,S,VNHSTSHT00003791;1199.00;;;<p>65%Cotton35%Polyester</p>;;;;SS18-MC-ALL,MCW-SS18-ALL;zerotype;;Summer;MCW-SS18-ALL;No
2443951;VHKP318M000090-blue-2443951;T Shirt;Draft;Tshirts;Van Heusen;Adults-Men;Men;;;;Fashion;;2018;M,VNHSTSHT00003772,XXL,VNHSTSHT00003773,L,VNHSTSHT00003774,XL,VNHSTSHT00003775,S,VNHSTSHT00003776;1499.00;;;<p>65%Cotton35%Polyester</p>;;;;SS18-MC-ALL,MCW-SS18-ALL;zerotype;;Summer;MCW-SS18-ALL;No
2443946;VHKP318M000085-blue-2443946;T Shirt;Draft;Tshirts;Van Heusen;Adults-Men;Men;;;;Fashion;;2018;M,VNHSTSHT00003747,XXL,VNHSTSHT00003748,L,VNHSTSHT00003749,XL,VNHSTSHT00003750,S,VNHSTSHT00003751;1199.00;;;<p>100%Cotton</p>;;;;SS18-MC-ALL,MCW-SS18-ALL;zerotype;;Summer;MCW-SS18-ALL;No
2443945;VHKP318M000084-white-2443945;T Shirt;Draft;Tshirts;Van Heusen;Adults-Men;Men;;;;Fashion;;2018;M,VNHSTSHT00003742,XXL,VNHSTSHT00003743,L,VNHSTSHT00003744,XL,VNHSTSHT00003745,S,VNHSTSHT00003746;1199.00;;;<p>100%Cotton</p>;;;;SS18-MC-ALL,MCW-SS18-ALL;zerotype;;Summer;MCW-SS18-ALL;No
2443944;VHKP318M000083-black-2443944;T Shirt;Draft;Tshirts;Van Heusen;Adults-Men;Men;;;;Fashion;;2018;M,VNHSTSHT00003737,XXL,VNHSTSHT00003738,L,VNHSTSHT00003739,XL,VNHSTSHT00003740,S,VNHSTSHT00003741;1199.00;;;<p>100%Cotton</p>;;;;SS18-MC-ALL,MCW-SS18-ALL;zerotype;;Summer;MCW-SS18-ALL;No
2443935;VDKP318E000034-red-2443935;T Shirt;Draft;Tshirts;V Dot;Adults-Men;Men;;;;Fashion;;2018;M,VDOTTSHT00001300,XXL,VDOTTSHT00001301,L,VDOTTSHT00001302,XL,VDOTTSHT00001303,S,VDOTTSHT00001304;1499.00;;;<p>100%Cotton</p>;;;;SS18-MC-ALL,MCW-SS18-ALL,mcw-ss18-all;zerotype;;Summer;mcw-ss18-all;No
2443932;VDKC318E000220-White-2443932;T Shirt;Draft;Tshirts;V Dot;Adults-Men;Men;;;;Fashion;;2018;M,VDOTTSHT00001285,XL,VDOTTSHT00001286,S,VDOTTSHT00001287,XXL,VDOTTSHT00001288,L,VDOTTSHT00001289;999.00;;;<p>100%Cotton</p>;;;;SS18-MC-ALL,MCW-SS18-ALL,mcw-ss18-all;zerotype;;Summer;mcw-ss18-all;No
2443930;VDKC318E000211-Grey-2443930;T Shirt;Draft;Tshirts;V Dot;Adults-Men;Men;;;;Fashion;;2018;XL,VDOTTSHT00001275,XXL,VDOTTSHT00001276,M,VDOTTSHT00001277,L,VDOTTSHT00001278,S,VDOTTSHT00001279;1299.00;;;<p>100%Cotton</p>;;;;SS18-MC-ALL,MCW-SS18-ALL,mcw-ss18-all;zerotype;;Summer;mcw-ss18-all;No
2443927;VSSF318S005251-yellow-2443927;Shirts;Draft;Shirts;Van Heusen Sport;Adults-Men;Men;;;;Fashion;;2018;42,VHSPSHRT00005843,40,VHSPSHRT00005844,38,VHSPSHRT00005845,39,VHSPSHRT00005846,46,VHSPSHRT00005847,44,VHSPSHRT00005848;1599.00;;;<p>100%Cotton</p>;;;;SS18-MC-ALL,MCW-SS18-ALL,mcw-ss18-all;zerotype;;Summer;mcw-ss18-all;No
2443925;VSSF318S005106-red-2443925;Shirts;Draft;Shirts;Van Heusen Sport;Adults-Men;Men;;;;Fashion;;2018;42,VHSPSHRT00005831,40,VHSPSHRT00005832,38,VHSPSHRT00005833,39,VHSPSHRT00005834,46,VHSPSHRT00005835,44,VHSPSHRT00005836;1799.00;;;<p>100%Cotton</p>;;;;SS18-MC-ALL,MCW-SS18-ALL,mcw-ss18-all;zerotype;;Summer;mcw-ss18-all;No
2443924;VSSF318S005104-blue-2443924;Shirts;Draft;Shirts;Van Heusen Sport;Adults-Men;Men;;;;Fashion;;2018;42,VHSPSHRT00005825,40,VHSPSHRT00005826,38,VHSPSHRT00005827,39,VHSPSHRT00005828,46,VHSPSHRT00005829,44,VHSPSHRT00005830;1599.00;;;<p>100%Cotton</p>;;;;SS18-MC-ALL,MCW-SS18-ALL,mcw-ss18-all;zerotype;;Summer;mcw-ss18-all;No
2443923;VSSF318S004610-ivory-2443923;Shirts;Draft;Shirts;Van Heusen Sport;Adults-Men;Men;;;;Fashion;;2018;42,VHSPSHRT00005819,40,VHSPSHRT00005820,38,VHSPSHRT00005821,39,VHSPSHRT00005822,46,VHSPSHRT00005823,44,VHSPSHRT00005824;1699.00;;;<p>100%Cotton</p>;;;;SS18-MC-ALL,MCW-SS18-ALL,mcw-ss18-all;zerotype;;Summer;mcw-ss18-all;No
2443922;VSSF318S004609-white-2443922;Shirts;Draft;Shirts;Van Heusen Sport;Adults-Men;Men;;;;Fashion;;2018;39,VHSPSHRT00005813,42,VHSPSHRT00005814,38,VHSPSHRT00005815,40,VHSPSHRT00005816,46,VHSPSHRT00005817,44,VHSPSHRT00005818;1699.00;;;<p>100%Cotton</p>;;;;SS18-MC-ALL,MCW-SS18-ALL,mcw-ss18-all;zerotype;;Summer;mcw-ss18-all;No
2443920;VSSF318S002977-green-2443920;Shirts;Draft;Shirts;Van Heusen Sport;Adults-Men;Men;;;;Fashion;;2018;42,VHSPSHRT00005802,40,VHSPSHRT00005803,38,VHSPSHRT00005804,39,VHSPSHRT00005805,46,VHSPSHRT00005806,44,VHSPSHRT00005807;1599.00;;;<p>100%Cotton</p>;;;;SS18-MC-ALL,MCW-SS18-ALL,mcw-ss18-all;zerotype;;Summer;mcw-ss18-all;No
2443919;VSSF318S002597-Pink-2443919;Shirts;Draft;Shirts;Van Heusen Sport;Adults-Men;Men;;;;Fashion;;2018;42,VHSPSHRT00005796,38,VHSPSHRT00005797,39,VHSPSHRT00005798,40,VHSPSHRT00005799,44,VHSPSHRT00005800,46,VHSPSHRT00005801;1699.00;;;<p>100%Cotton</p>;;;;SS18-MC-ALL,MCW-SS18-ALL,mcw-ss18-all;zerotype;;Summer;mcw-ss18-all;No
2443916;VSSF318S002547-grey-2443916;Shirts;Draft;Shirts;Van Heusen Sport;Adults-Men;Men;;;;Fashion;;2018;40,VHSPSHRT00005778,42,VHSPSHRT00005779,38,VHSPSHRT00005780,39,VHSPSHRT00005781,46,VHSPSHRT00005782,44,VHSPSHRT00005783;1799.00;;;<p>80%Tencel20%Cotton</p>;;;;SS18-MC-ALL,MCW-SS18-ALL,mcw-ss18-all;zerotype;;Summer;mcw-ss18-all;No
2443914;VSSF318S001465-yellow-2443914;Shirts;Draft;Shirts;Van Heusen Sport;Adults-Men;Men;;;;Fashion;;2018;42,VHSPSHRT00005767,40,VHSPSHRT00005768,38,VHSPSHRT00005769,39,VHSPSHRT00005770,46,VHSPSHRT00005771,44,VHSPSHRT00005772;1799.00;;;<p>100%Cotton</p>;;;;SS18-MC-ALL,MCW-SS18-ALL,mcw-ss18-all;zerotype;;Summer;mcw-ss18-all;No
2443912;VSSF318S001419-Blue-2443912;Shirts;Draft;Shirts;Van Heusen Sport;Adults-Men;Men;;;;Fashion;;2018;40,VHSPSHRT00005757,38,VHSPSHRT00005758,42,VHSPSHRT00005759,39,VHSPSHRT00005760,44,VHSPSHRT00005761,46,VHSPSHRT00005762;1699.00;;;<p>100%Cotton</p>;;;;SS18-MC-ALL,MCW-SS18-ALL,mcw-ss18-all;zerotype;;Summer;mcw-ss18-all;No
2443911;VSSF318S001418-yellow-2443911;Shirts;Draft;Shirts;Van Heusen Sport;Adults-Men;Men;;;;Fashion;;2018;42,VHSPSHRT00005751,40,VHSPSHRT00005752,38,VHSPSHRT00005753,39,VHSPSHRT00005754,46,VHSPSHRT00005755,44,VHSPSHRT00005756;1699.00;;;<p>100%Cotton</p>;;;;SS18-MC-ALL,MCW-SS18-ALL,mcw-ss18-all;zerotype;;Summer;mcw-ss18-all;No
2443910;VSSF318S001416-Blue-2443910;Shirts;Draft;Shirts;Van Heusen Sport;Adults-Men;Men;;;;Fashion;;2018;42,VHSPSHRT00005745,38,VHSPSHRT00005746,40,VHSPSHRT00005747,39,VHSPSHRT00005748,44,VHSPSHRT00005749,46,VHSPSHRT00005750;1699.00;;;<p>100%Cotton</p>;;;;SS18-MC-ALL,MCW-SS18-ALL,mcw-ss18-all;zerotype;;Summer;mcw-ss18-all;No
2443909;VSSF318S001401-Ivory-2443909;Shirts;Draft;Shirts;Van Heusen Sport;Adults-Men;Men;;;;Fashion;;2018;39,VHSPSHRT00005739,42,VHSPSHRT00005740,38,VHSPSHRT00005741,40,VHSPSHRT00005742,46,VHSPSHRT00005743,44,VHSPSHRT00005744;1899.00;;;<p>97%Cotton3%Spandex</p>;;;;SS18-MC-ALL,MCW-SS18-ALL,mcw-ss18-all;zerotype;;Summer;mcw-ss18-all;No
2443904;VSSF318S001245-grey-2443904;Shirts;Draft;Shirts;Van Heusen Sport;Adults-Men;Men;;;;Fashion;;2018;42,VHSPSHRT00005709,40,VHSPSHRT00005710,38,VHSPSHRT00005711,39,VHSPSHRT00005712,46,VHSPSHRT00005713,44,VHSPSHRT00005714;1699.00;;;<p>100%Cotton</p>;;;;SS18-MC-ALL,MCW-SS18-ALL,mcw-ss18-all;zerotype;;Summer;mcw-ss18-all;No
2443902;VHSF318M007244-blue-2443902;Shirts;Draft;Shirts;Van Heusen;Adults-Men;Men;;;;Fashion;;2018;42,VNHSSHRT00017470,40,VNHSSHRT00017471,38,VNHSSHRT00017472,39,VNHSSHRT00017473,46,VNHSSHRT00017474,44,VNHSSHRT00017475;1999.00;;;<p>100%Cotton</p>;;;;SS18-MC-ALL,MCW-SS18-ALL;zerotype;;Summer;MCW-SS18-ALL;No
2443901;VHSF318M007243-blue-2443901;Shirts;Draft;Shirts;Van Heusen;Adults-Men;Men;;;;Fashion;;2018;42,VNHSSHRT00017464,40,VNHSSHRT00017465,38,VNHSSHRT00017466,39,VNHSSHRT00017467,46,VNHSSHRT00017468,44,VNHSSHRT00017469;1999.00;;;<p>100%Cotton</p>;;;;SS18-MC-ALL,MCW-SS18-ALL;zerotype;;Summer;MCW-SS18-ALL;No
2443899;VHSF318M007064-Black-2443899;Shirts;Draft;Shirts;Van Heusen;Adults-Men;Men;;;;Fashion;;2018;38,VNHSSHRT00017452,40,VNHSSHRT00017453,42,VNHSSHRT00017454,39,VNHSSHRT00017455,46,VNHSSHRT00017456,44,VNHSSHRT00017457;1599.00;;;<p>100%Cotton</p>;;;;SS18-MC-ALL,MCW-SS18-ALL;zerotype;;Summer;MCW-SS18-ALL;No
2443895;VHSF318M007025-blue-2443895;Shirts;Draft;Shirts;Van Heusen;Adults-Men;Men;;;;Fashion;;2018;42,VNHSSHRT00017428,40,VNHSSHRT00017429,38,VNHSSHRT00017430,39,VNHSSHRT00017431,46,VNHSSHRT00017432,44,VNHSSHRT00017433;1799.00;;;<p>100%Cotton</p>;;;;SS18-MC-ALL,MCW-SS18-ALL;zerotype;;Summer;MCW-SS18-ALL;No
2443894;VHSF318M007014-blue-2443894;Shirts;Draft;Shirts;Van Heusen;Adults-Men;Men;;;;Fashion;;2018;42,VNHSSHRT00017422,40,VNHSSHRT00017423,38,VNHSSHRT00017424,39,VNHSSHRT00017425,46,VNHSSHRT00017426,44,VNHSSHRT00017427;1799.00;;;<p>100%Cotton</p>;;;;SS18-MC-ALL,MCW-SS18-ALL;zerotype;;Summer;MCW-SS18-ALL;No
2443872;VHSF318M003745-blue-2443872;Shirts;Draft;Shirts;Van Heusen;Adults-Men;Men;;;;Fashion;;2018;42,VNHSSHRT00017350,40,VNHSSHRT00017351,38,VNHSSHRT00017352,39,VNHSSHRT00017353,46,VNHSSHRT00017354,44,VNHSSHRT00017355;1999.00;;;<p>100%Cotton</p>;;;;SS18-MC-ALL,MCW-SS18-ALL;zerotype;;Summer;MCW-SS18-ALL;No
2443868;VHSF318M003732-Blue-2443868;Shirts;Draft;Shirts;Van Heusen;Adults-Men;Men;;;;Fashion;;2018;38,VNHSSHRT00017338,40,VNHSSHRT00017339,39,VNHSSHRT00017340,42,VNHSSHRT00017341,44,VNHSSHRT00017342,46,VNHSSHRT00017343;1899.00;;;<p>100%Cotton</p>;;;;SS18-MC-ALL,MCW-SS18-ALL;zerotype;;Summer;MCW-SS18-ALL;No
2443866;VHSF318M003715-Blue-2443866;Shirts;Draft;Shirts;Van Heusen;Adults-Men;Men;;;;Fashion;;2018;42,VNHSSHRT00017332,40,VNHSSHRT00017333,38,VNHSSHRT00017334,39,VNHSSHRT00017335,46,VNHSSHRT00017336,44,VNHSSHRT00017337;1799.00;;;<p>100%Cotton</p>;;;;SS18-MC-ALL,MCW-SS18-ALL;zerotype;;Summer;MCW-SS18-ALL;No
2443859;VHSF318M003676-blue-2443859;Shirts;Draft;Shirts;Van Heusen;Adults-Men;Men;;;;Fashion;;2018;42,VNHSSHRT00017308,40,VNHSSHRT00017309,38,VNHSSHRT00017310,39,VNHSSHRT00017311,46,VNHSSHRT00017312,44,VNHSSHRT00017313;1699.00;;;<p>100%Cotton</p>;;;;SS18-MC-ALL,MCW-SS18-ALL;zerotype;;Summer;MCW-SS18-ALL;No
2443857;VHSF318M003652-white-2443857;Shirts;Draft;Shirts;Van Heusen;Adults-Men;Men;;;;Fashion;;2018;42,VNHSSHRT00017302,40,VNHSSHRT00017303,38,VNHSSHRT00017304,39,VNHSSHRT00017305,46,VNHSSHRT00017306,44,VNHSSHRT00017307;1599.00;;;<p>100%Cotton</p>;;;;SS18-MC-ALL,MCW-SS18-ALL;zerotype;;Summer;MCW-SS18-ALL;No
2443855;VHSF318M003485-blue-2443855;Shirts;Draft;Shirts;Van Heusen;Adults-Men;Men;;;;Fashion;;2018;42,VNHSSHRT00017296,40,VNHSSHRT00017297,38,VNHSSHRT00017298,39,VNHSSHRT00017299,46,VNHSSHRT00017300,44,VNHSSHRT00017301;1599.00;;;<p>100%Cotton</p>;;;;SS18-MC-ALL,MCW-SS18-ALL;zerotype;;Summer;MCW-SS18-ALL;No
2443846;VHSF318M003460-green-2443846;Shirts;Draft;Shirts;Van Heusen;Adults-Men;Men;;;;Fashion;;2018;38,VNHSSHRT00017267,39,VNHSSHRT00017268,42,VNHSSHRT00017269,40,VNHSSHRT00017270,46,VNHSSHRT00017271,44,VNHSSHRT00017272;1899.00;;;<p>100%Cotton</p>;;;;SS18-MC-ALL,MCW-SS18-ALL;zerotype;;Summer;MCW-SS18-ALL;No
2443845;VHSF318M003454-Purple-2443845;Shirts;Draft;Shirts;Van Heusen;Adults-Men;Men;;;;Fashion;;2018;40,VNHSSHRT00017261,39,VNHSSHRT00017262,42,VNHSSHRT00017263,38,VNHSSHRT00017264,46,VNHSSHRT00017265,44,VNHSSHRT00017266;1999.00;;;<p>100%Cotton</p>;;;;SS18-MC-ALL,MCW-SS18-ALL;zerotype;;Summer;MCW-SS18-ALL;No
2443839;VHSF318M003274-blue-2443839;Shirts;Draft;Shirts;Van Heusen;Adults-Men;Men;;;;Fashion;;2018;42,VNHSSHRT00017243,40,VNHSSHRT00017244,38,VNHSSHRT00017245,39,VNHSSHRT00017246,46,VNHSSHRT00017247,44,VNHSSHRT00017248;1999.00;;;<p>100%Cotton</p>;;;;SS18-MC-ALL,MCW-SS18-ALL;zerotype;;Summer;MCW-SS18-ALL;No
2443838;VHSF318M003273-white-2443838;Shirts;Draft;Shirts;Van Heusen;Adults-Men;Men;;;;Fashion;;2018;42,VNHSSHRT00017237,40,VNHSSHRT00017238,38,VNHSSHRT00017239,39,VNHSSHRT00017240,46,VNHSSHRT00017241,44,VNHSSHRT00017242;1699.00;;;<p>100%Cotton</p>;;;;SS18-MC-ALL,MCW-SS18-ALL;zerotype;;Summer;MCW-SS18-ALL;No
2443832;VHSF318M003225-pink-2443832;Shirts;Draft;Shirts;Van Heusen;Adults-Men;Men;;;;Fashion;;2018;42,VNHSSHRT00017219,40,VNHSSHRT00017220,38,VNHSSHRT00017221,39,VNHSSHRT00017222,46,VNHSSHRT00017223,44,VNHSSHRT00017224;1599.00;;;<p>100%Cotton</p>;;;;SS18-MC-ALL,MCW-SS18-ALL;zerotype;;Summer;MCW-SS18-ALL;No
2443829;VHSF318M003222-Black-2443829;Shirts;Draft;Shirts;Van Heusen;Adults-Men;Men;;;;Fashion;;2018;42,VNHSSHRT00017207,40,VNHSSHRT00017208,38,VNHSSHRT00017209,39,VNHSSHRT00017210,46,VNHSSHRT00017211,44,VNHSSHRT00017212;1699.00;;;<p>100%Cotton</p>;;;;SS18-MC-ALL,MCW-SS18-ALL;zerotype;;Summer;MCW-SS18-ALL;No
2443827;VHSF318M003218-pink-2443827;Shirts;Draft;Shirts;Van Heusen;Adults-Men;Men;;;;Fashion;;2018;42,VNHSSHRT00017195,40,VNHSSHRT00017196,38,VNHSSHRT00017197,39,VNHSSHRT00017198,46,VNHSSHRT00017199,44,VNHSSHRT00017200;1799.00;;;<p>100%Cotton</p>;;;;SS18-MC-ALL,MCW-SS18-ALL;zerotype;;Summer;MCW-SS18-ALL;No
2443826;VHSF318M003217-white-2443826;Shirts;Draft;Shirts;Van Heusen;Adults-Men;Men;;;;Fashion;;2018;42,VNHSSHRT00017189,40,VNHSSHRT00017190,38,VNHSSHRT00017191,39,VNHSSHRT00017192,46,VNHSSHRT00017193,44,VNHSSHRT00017194;1799.00;;;<p>100%Cotton</p>;;;;SS18-MC-ALL,MCW-SS18-ALL;zerotype;;Summer;MCW-SS18-ALL;No
2443825;VHSF318M003216-pink-2443825;Shirts;Draft;Shirts;Van Heusen;Adults-Men;Men;;;;Fashion;;2018;42,VNHSSHRT00017183,40,VNHSSHRT00017184,38,VNHSSHRT00017185,39,VNHSSHRT00017186,46,VNHSSHRT00017187,44,VNHSSHRT00017188;1699.00;;;<p>100%Cotton</p>;;;;SS18-MC-ALL,MCW-SS18-ALL;zerotype;;Summer;MCW-SS18-ALL;No
2443824;VHSF318M003215-white-2443824;Shirts;Draft;Shirts;Van Heusen;Adults-Men;Men;;;;Fashion;;2018;42,VNHSSHRT00017177,40,VNHSSHRT00017178,38,VNHSSHRT00017179,39,VNHSSHRT00017180,46,VNHSSHRT00017181,44,VNHSSHRT00017182;1699.00;;;<p>100%Cotton</p>;;;;SS18-MC-ALL,MCW-SS18-ALL;zerotype;;Summer;MCW-SS18-ALL;No
2443823;VHSF318M003195-Yellow-2443823;Shirts;Draft;Shirts;Van Heusen;Adults-Men;Men;;;;Fashion;;2018;42,VNHSSHRT00017171,38,VNHSSHRT00017172,40,VNHSSHRT00017173,39,VNHSSHRT00017174,46,VNHSSHRT00017175,44,VNHSSHRT00017176;1999.00;;;<p>100%Cotton</p>;;;;SS18-MC-ALL,MCW-SS18-ALL;zerotype;;Summer;MCW-SS18-ALL;No
2443819;VHSF318M003179-blue-2443819;Shirts;Draft;Shirts;Van Heusen;Adults-Men;Men;;;;Fashion;;2018;42,VNHSSHRT00017147,40,VNHSSHRT00017148,38,VNHSSHRT00017149,39,VNHSSHRT00017150,46,VNHSSHRT00017151,44,VNHSSHRT00017152;1999.00;;;<p>100%Cotton</p>;;;;SS18-MC-ALL,MCW-SS18-ALL;zerotype;;Summer;MCW-SS18-ALL;No
2443814;VHSF318M003086-blue-2443814;Shirts;Draft;Shirts;Van Heusen;Adults-Men;Men;;;;Fashion;;2018;42,VNHSSHRT00017118,40,VNHSSHRT00017119,38,VNHSSHRT00017120,39,VNHSSHRT00017121,46,VNHSSHRT00017122,44,VNHSSHRT00017123;1699.00;;;<p>100%Cotton</p>;;;;SS18-MC-ALL,MCW-SS18-ALL;zerotype;;Summer;MCW-SS18-ALL;No
2443812;VHSF318M003079-blue-2443812;Shirts;Draft;Shirts;Van Heusen;Adults-Men;Men;;;;Fashion;;2018;42,VNHSSHRT00017106,40,VNHSSHRT00017107,38,VNHSSHRT00017108,39,VNHSSHRT00017109,46,VNHSSHRT00017110,44,VNHSSHRT00017111;1799.00;;;<p>100%Cotton</p>;;;;SS18-MC-ALL,MCW-SS18-ALL;zerotype;;Summer;MCW-SS18-ALL;No
2443808;VHSF318M002234-blue-2443808;Shirts;Draft;Shirts;Van Heusen;Adults-Men;Men;;;;Fashion;;2018;42,VNHSSHRT00017082,38,VNHSSHRT00017083,40,VNHSSHRT00017084,39,VNHSSHRT00017085,46,VNHSSHRT00017086,44,VNHSSHRT00017087;1999.00;;;<p>100%Cotton</p>;;;;SS18-MC-ALL,MCW-SS18-ALL;zerotype;;Summer;MCW-SS18-ALL;No
2443807;VDSH318E005708-Blue-2443807;Shirts;Draft;Shirts;V Dot;Adults-Men;Men;;;;Fashion;;2018;38,VDOTSHRT00004342,42,VDOTSHRT00004343,40,VDOTSHRT00004344,39,VDOTSHRT00004345,46,VDOTSHRT00004346,44,VDOTSHRT00004347;1799.00;;;<p>74%Cotton3%Spandex23%Polyester</p>;;;;SS18-MC-ALL,MCW-SS18-ALL,mcw-ss18-all;zerotype;;Summer;mcw-ss18-all;No
2443803;VDSF318E005307-white-2443803;Shirts;Draft;Shirts;V Dot;Adults-Men;Men;;;;Fashion;;2018;42,VDOTSHRT00004323,40,VDOTSHRT00004324,38,VDOTSHRT00004325,39,VDOTSHRT00004326,46,VDOTSHRT00004327,44,VDOTSHRT00004328;1799.00;;;<p>100%Cotton</p>;;;;SS18-MC-ALL,MCW-SS18-ALL,mcw-ss18-all;zerotype;;Summer;mcw-ss18-all;No
2443800;VDSF318E002101-Black-2443800;Shirts;Draft;Shirts;V Dot;Adults-Men;Men;;;;Fashion;;2018;42,VDOTSHRT00004305,40,VDOTSHRT00004306,38,VDOTSHRT00004307,39,VDOTSHRT00004308,46,VDOTSHRT00004309,44,VDOTSHRT00004310;1799.00;;;<p>98%Cotton2%Spandex</p>;;;;SS18-MC-ALL,MCW-SS18-ALL,mcw-ss18-all;zerotype;;Summer;mcw-ss18-all;No
2443795;VDSF318E001453-Red-2443795;Shirts;Draft;Shirts;V Dot;Adults-Men;Men;;;;Fashion;;2018;39,VDOTSHRT00004276,40,VDOTSHRT00004277,42,VDOTSHRT00004278,38,VDOTSHRT00004279,44,VDOTSHRT00004280,46,VDOTSHRT00004281;1799.00;;;<p>100%Cotton</p>;;;;SS18-MC-ALL,MCW-SS18-ALL,mcw-ss18-all;zerotype;;Summer;mcw-ss18-all;No
2443465;WCT-05-Yellow-2443465;WCT-05;Draft;Nehru Jackets;The Indian Garage Co;Adults-Men;Men;Yellow;;;Fashion;Ethnic;2018;M/40,TIGCNHJK00000099,L/42,TIGCNHJK00000100,XL/44,TIGCNHJK00000101,XXL/46,TIGCNHJK00000102;1599.00;;;<p>Machine Wash Warm</p>;;;;;zerotype;;Summer;;No
2443464;WCT-05-Red-2443464;WCT-05;Draft;Nehru Jackets;The Indian Garage Co;Adults-Men;Men;Red;;;Fashion;Ethnic;2018;M/40,TIGCNHJK00000095,L/42,TIGCNHJK00000096,XL/44,TIGCNHJK00000097,XXL/46,TIGCNHJK00000098;1599.00;;;<p>Machine Wash Warm</p>;;;;;zerotype;;Summer;;No
2443463;WCT-05-Navy-2443463;WCT-05;Draft;Nehru Jackets;The Indian Garage Co;Adults-Men;Men;Navy Blue;;;Fashion;Ethnic;2018;M/40,TIGCNHJK00000091,L/42,TIGCNHJK00000092,XL/44,TIGCNHJK00000093,XXL/46,TIGCNHJK00000094;1599.00;;;<p>Machine Wash Warm</p>;;;;;zerotype;;Summer;;No
2443461;WCT-05-Magenta-2443461;WCT-05;Draft;Nehru Jackets;The Indian Garage Co;Adults-Men;Men;Magenta;;;Fashion;Ethnic;2018;M/40,TIGCNHJK00000087,L/42,TIGCNHJK00000088,XL/44,TIGCNHJK00000089,XXL/46,TIGCNHJK00000090;1599.00;;;<p>Machine Wash Warm</p>;;;;;zerotype;;Summer;;No
2443460;WCT-05-Khakhi Melange-2443460;WCT-05;Draft;Nehru Jackets;The Indian Garage Co;Adults-Men;Men;Khaki;;;Fashion;Ethnic;2018;M/40,TIGCNHJK00000083,L/42,TIGCNHJK00000084,XL/44,TIGCNHJK00000085,XXL/46,TIGCNHJK00000086;1599.00;;;<p>Machine Wash Warm</p>;;;;;zerotype;;Summer;;No
2443459;WCT-05-Khakhi-2443459;WCT-05;Draft;Nehru Jackets;The Indian Garage Co;Adults-Men;Men;Khaki;;;Fashion;Ethnic;2018;M/40,TIGCNHJK00000079,L/42,TIGCNHJK00000080,XL/44,TIGCNHJK00000081,XXL/46,TIGCNHJK00000082;1599.00;;;<p>Machine Wash Warm</p>;;;;;zerotype;;Summer;;No
2443457;WCT-05-Green-2443457;WCT-05;Draft;Nehru Jackets;The Indian Garage Co;Adults-Men;Men;Green;;;Fashion;Ethnic;2018;M/40,TIGCNHJK00000071,L/42,TIGCNHJK00000072,XL/44,TIGCNHJK00000073,XXL/46,TIGCNHJK00000074;1599.00;;;<p>Machine Wash Warm</p>;;;;;zerotype;;Summer;;No
2443456;WCT-05-Blue Melange-2443456;WCT-05;Draft;Nehru Jackets;The Indian Garage Co;Adults-Men;Men;Blue;;;Fashion;Ethnic;2018;M/40,TIGCNHJK00000067,L/42,TIGCNHJK00000068,XL/44,TIGCNHJK00000069,XXL/46,TIGCNHJK00000070;1599.00;;;<p>Machine Wash Warm</p>;;;;;zerotype;;Summer;;No
2443454;WCT-05-Blue-2443454;WCT-05;Draft;Nehru Jackets;The Indian Garage Co;Adults-Men;Men;Blue;;;Fashion;Ethnic;2018;M/40,TIGCNHJK00000063,L/42,TIGCNHJK00000064,XL/44,TIGCNHJK00000065,XXL/46,TIGCNHJK00000066;1599.00;;;<p>Machine Wash Warm</p>;;;;;zerotype;;Summer;;No
2443453;WCT-05-Black Melange-2443453;WCT-05;Draft;Nehru Jackets;The Indian Garage Co;Adults-Men;Men;Black;;;Fashion;Ethnic;2018;M/40,TIGCNHJK00000059,L/42,TIGCNHJK00000060,XL/44,TIGCNHJK00000061,XXL/46,TIGCNHJK00000062;1599.00;;;<p>Machine Wash Warm</p>;;;;;zerotype;;Summer;;No
2443452;WCT-05-Black-2443452;WCT-05;Draft;Nehru Jackets;The Indian Garage Co;Adults-Men;Men;Black;;;Fashion;Ethnic;2018;M/40,TIGCNHJK00000055,L/42,TIGCNHJK00000056,XL/44,TIGCNHJK00000057,XXL/46,TIGCNHJK00000058;1599.00;;;<p>Machine Wash Warm</p>;;;;;zerotype;;Summer;;No
2443449;TIG-BLZ18-06-Grey Polka-2443449;TIG-BLZ18-06;Draft;Blazers;The Indian Garage Co;Adults-Men;Men;Grey;;;Fashion;Casual;2018;S/38,TIGCBLZR00000837,M/40,TIGCBLZR00000838,L/42,TIGCBLZR00000839,XL/44,TIGCBLZR00000840,2XL/46,TIGCBLZR00000841;3399.00;;;<p>Dry Clean Only</p>;;;;;zerotype;;Summer;;No
2443445;TIG-BLZ18-06-Black Camo-2443445;TIG-BLZ18-06;Draft;Blazers;The Indian Garage Co;Adults-Men;Men;Black;;;Fashion;Casual;2018;S/38,TIGCBLZR00000822,M/40,TIGCBLZR00000823,L/42,TIGCBLZR00000824,XL/44,TIGCBLZR00000825,2XL/46,TIGCBLZR00000826;3399.00;;;<p>Dry Clean Only</p>;;;;;zerotype;;Summer;;No
2431835;50011895133004-BROWN-2431835;PTLBL-M-5J02122, XL, BROWN;Draft;Jackets;Lombard;Adults-Men;Men;Brown;;;Fashion;;2018;38,LMBDJCKT00000081,40,LMBDJCKT00000082,42,LMBDJCKT00000083,44,LMBDJCKT00000084;7999.00;;;<p>Dry Clean</p>;;;;;zerotype;;Spring;;No
2431831;50011805243004-NAVY-2431831;PTLBL-M-5J02062-4181, 44, NAVY;Draft;Jackets;Lombard;Adults-Men;Men;Navy Blue;;;Fashion;;2018;38,LMBDJCKT00000065,40,LMBDJCKT00000066,42,LMBDJCKT00000067,44,LMBDJCKT00000068;6999.00;;;<p>Dry Clean</p>;;;;;zerotype;;Spring;;No
2431822;50011847237004-GOLDEN-2431822;PTLBL-M-5S04692-4181, 44, GOLDEN;Draft;Shirts;Lombard;Adults-Men;Men;Gold;;;Fashion;;2018;39,LMBDSHRT00000539,40,LMBDSHRT00000540,42,LMBDSHRT00000541,44,LMBDSHRT00000542;2799.00;;;<p>WASH DARK COLOURS SEPARATELY , HAND WASH / MACHINE WASH COLD  , USE MILD DETERGENT , TUMBLE DRY LOW , DRY IN SHADE , DO NOT BLEACH , WARM IRON.</p>;;;;;zerotype;;Spring;;No
2431821;50011805323004-WHITE-2431821;PTLBL-M-5S04952-4181, 44, WHITE;Draft;Shirts;Lombard;Adults-Men;Men;White;;;Fashion;;2018;39,LMBDSHRT00000535,40,LMBDSHRT00000536,42,LMBDSHRT00000537,44,LMBDSHRT00000538;1949.00;;;<p>WASH DARK COLOURS SEPARATELY , HAND WASH / MACHINE WASH COLD  , USE MILD DETERGENT , TUMBLE DRY LOW , DRY IN SHADE , DO NOT BLEACH , WARM IRON.</p>;;;;;zerotype;;Spring;;No
2431820;50011805322004-BLUE-2431820;PTLBL-M-5S04942-4181, 44, BLUE;Draft;Shirts;Lombard;Adults-Men;Men;Blue;;;Fashion;;2018;39,LMBDSHRT00000531,40,LMBDSHRT00000532,42,LMBDSHRT00000533,44,LMBDSHRT00000534;1949.00;;;<p>WASH DARK COLOURS SEPARATELY , HAND WASH / MACHINE WASH COLD  , USE MILD DETERGENT , TUMBLE DRY LOW , DRY IN SHADE , DO NOT BLEACH , WARM IRON.</p>;;;;;zerotype;;Spring;;No
2431800;50011805291004-GREEN-2431800;PTLBL-M-5S04742-4181, 44, GREEN;Draft;Shirts;Lombard;Adults-Men;Men;Green;;;Fashion;;2018;39,LMBDSHRT00000451,40,LMBDSHRT00000452,42,LMBDSHRT00000453,44,LMBDSHRT00000454;2749.00;;;<p>WASH DARK COLOURS SEPARATELY , HAND WASH / MACHINE WASH COLD  , USE MILD DETERGENT , TUMBLE DRY LOW , DRY IN SHADE , DO NOT BLEACH , WARM IRON.</p>;;;;;zerotype;;Spring;;No
2431799;50011805290004-BLUE-2431799;PTLBL-M-5S04732-4181, 44, BLUE;Draft;Shirts;Lombard;Adults-Men;Men;Blue;;;Fashion;;2018;39,LMBDSHRT00000447,40,LMBDSHRT00000448,42,LMBDSHRT00000449,44,LMBDSHRT00000450;2749.00;;;<p>WASH DARK COLOURS SEPARATELY , HAND WASH / MACHINE WASH COLD  , USE MILD DETERGENT , TUMBLE DRY LOW , DRY IN SHADE , DO NOT BLEACH , WARM IRON.</p>;;;;;zerotype;;Spring;;No
2431798;50011805289004-RED-2431798;PTLBL-M-5S04722-4181, 44, RED;Draft;Shirts;Lombard;Adults-Men;Men;Red;;;Fashion;;2018;39,LMBDSHRT00000443,40,LMBDSHRT00000444,42,LMBDSHRT00000445,44,LMBDSHRT00000446;2749.00;;;<p>WASH DARK COLOURS SEPARATELY , HAND WASH / MACHINE WASH COLD  , USE MILD DETERGENT , TUMBLE DRY LOW , DRY IN SHADE , DO NOT BLEACH , WARM IRON.</p>;;;;;zerotype;;Spring;;No
2431793;50011805240004-NAVY-2431793;PTLBL-M-5J02031-4181, 44, NAVY;Draft;Waistcoat;Lombard;Adults-Men;Men;Navy Blue;;;Fashion;;2018;38,LMBDWACO00000095,40,LMBDWACO00000096,42,LMBDWACO00000097,44,LMBDWACO00000098;5999.00;;;<p>Dry Clean Only</p>;;;;;zerotype;;Spring;;No
2426183;50011787097001-BLUE-2426183;PINNA-M-ISF5942-4181, 38, BLUE;Draft;Shirts;Indigo Nation;Adults-Men;Men;Blue;;;Fashion;;2018;39,INNASHRT00103405,40,INNASHRT00103406,42,INNASHRT00103407,44,INNASHRT00103408,38,INNASHRT00103494;1499.00;;;<p>100% cotton wash dark colors separately, hand wash or machine, wash cold, use mild detergent, tumble dry low, dry in shade, do not bleach, warm iron</p>;;;;SS18-MC-ALL,MCW-SS18-ALL,mcw-ss18-all;zerotype;;Spring;mcw-ss18-all;No
2423799;PSU10417001864-MediumblueWithBlack-2423799;PSU10417001864;On Hold - Sample;Suits;Peter England;Adults-Men;Men;Blue;;;Fashion;;2017;38,PTENSUIT00000605,42,PTENSUIT00000606,40,PTENSUIT00000607,44,PTENSUIT00000608,36,PTENSUIT00000609,46,PTENSUIT00000610;6999.00;;;;;;;;zerotype;;Winter;Broken size;No
2400316;L31417CB0409-JSW-BLACK-2400316;AMANDA;QC Reject;Tshirts;Lee;Adults-Men;Men;Black;;;Fashion;Casual;2018;L,LEEETSHT00106150,M,LEEETSHT00106151,S,LEEETSHT00106152,XL,LEEETSHT00106153;999.00;Black printed T-shirt, has a round neck, short sleeves;Keep it modish and casual this season with this high-quality Lee tee.  When you're going for a stroll in the park, put this black piece with a pair of chinos and sneakers to feel both comfortable and stylish outside.;Cotton <br> Machine-wash;The model (height 6') is wearing a size M;;Lee Men Black Printed Round Neck T-shirt;Lee-SS-18-563051;zerotype;;Spring;U card Reject;No
2400314;L31406CB0393-JSW-BLACK-2400314;DAPHY;QC Reject;Tshirts;Lee;Adults-Men;Men;Black;;;Fashion;Casual;2018;L,LEEETSHT00106143,M,LEEETSHT00106144,S,LEEETSHT00106145,XL,LEEETSHT00106146;1299.00;Black solid T-shirt, has a round neck, short sleeves;Amp up your casual style with a well-structured T-shirt from Lee.  A quick drink with the gang is as easy as putting this black piece in league with some slim black jeans and a sturdy overshirt.;Cotton <br> Machine-wash;The model (height 6') is wearing a size M;;Lee Men Black Solid Round Neck T-shirt;Lee-SS-18-563051;zerotype;;Spring;U card Reject;No
2400313;L31397CB0807-JSW-NAVY/WHITE-2400313;TEAL;QC Reject;Tshirts;Lee;Adults-Men;Men;Navy Blue;White;;Fashion;Casual;2018;L,LEEETSHT00106139,M,LEEETSHT00106140,S,LEEETSHT00106141,XL,LEEETSHT00106142;1199.00;Navy Blue and white solid T-shirt, has a round neck, short sleeves, 1 pocket;Keep it cool and casual this season with this high-quality Lee tee.  You can pair this navy blue piece with slick black jeans and Chelsea boots for a fashionable weekend outfit.;Cotton<br> Machine-wash;The model (height 6') is wearing a size M;;Lee Men Navy Blue Solid Round Neck T-shirt;Lee-SS-18-563051;zerotype;;Spring;U card Reject;No
2400312;L31396CB0393-JSW-WHITE/NAVY-2400312;TEAL;QC Reject;Tshirts;Lee;Adults-Men;Men;White;Blue;;Fashion;Casual;2018;L,LEEETSHT00106135,M,LEEETSHT00106136,S,LEEETSHT00106137,XL,LEEETSHT00106138;1199.00;White and blue striped T-shirt, has a round neck, short sleeves, 1 pocket;This top-notch T-shirt from Lee will have you looking fresh all year long.  This white shirt is the perfect note to strike with a pair of skinny jeans when you're looking for a simple night out at the bars.;Cotton <br> Machine-wash;The model (height 6') is wearing a size M;;Lee Men White Striped Round Neck T-shirt;Lee-SS-18-563051;zerotype;;Spring;U card Reject;No
2400310;L31377CB0B7D-JSW-WHITE-2400310;SARAH;QC Reject;Tshirts;Lee;Adults-Men;Men;White;;;Fashion;Casual;2018;L,LEEETSHT00106128,M,LEEETSHT00106129,S,LEEETSHT00106130,XL,LEEETSHT00106131;999.00;White printed T-shirt, has a round neck, short sleeves;Slip into this snug T-shirt from Lee and look your very best.  This white piece can be styled with dark denims and canvas shoes when you're going out to eat with your friends.;Cotton <br> Machine-wash;The model (height 6') is wearing a size M;;Lee Men White Printed Round Neck T-shirt;Lee-SS-18-563051;zerotype;;Spring;U card Reject;No
2400309;L31374CB0A49-JSW-PEACOAT-2400309;EVE;QC Reject;Tshirts;Lee;Adults-Men;Men;Navy Blue;;;Fashion;Casual;2018;L,LEEETSHT00106124,M,LEEETSHT00106125,S,LEEETSHT00106126,XL,LEEETSHT00106127;799.00;Navy Blue printed T-shirt, has a round neck, short sleeves;Sometimes dressing up can be a bit much for the occasion. That's why you should consider one of these amazing T-shirts from Lee.  This navy blue shirt is the perfect note to strike with a pair of skinny jeans when you're looking for a simple night out at the bars.;Cotton <br> Machine-wash;The model (height 6') is wearing a size M;;Lee Men Navy Blue Printed Round Neck T-shirt;Lee-SS-18-563051;zerotype;;Spring;U card Reject;No
2397823;8907599067075-AIR BLUE-2397823;BT-SOFK01:AIR BLUE;On Hold - Sample;Shirts;Blackberrys;Adults-Men;Men;Blue;;;Fashion;Casual;2017;40,BKBRSHRT00009537,42,BKBRSHRT00009538,44,BKBRSHRT00009539;1995.00;Blue solid casual shirt, has a spread collar, button placket, 1 pocket, long sleeves, curved hem;Add this well-designed shirt from Blackberrys to your wardrobe and stay warm all year long.  When you need a laid-back weekend ensemble, rock this blue piece with trim denims and sneakers.;Cotton <br> Machine-wash;Slim fit<br> The model (height 6') is wearing a size M;;Blackberrys Men Blue Slim Fit Solid Casual Shirt;Blackberrys,formal-aug-mb;zerotype;;Winter;broken size;No
2308311;1981464006-White-2308311;JCOBARRY TEE SS CREW NECK;On Hold - Sample;Tshirts;Jack & Jones;Adults-Men;Men;;;;Fashion;;2017;L,JAJOTSHT00018162,XXL,JAJOTSHT00018163,M,JAJOTSHT00018164,XL,JAJOTSHT00018165,S,JAJOTSHT00018166;1699.00;;;<p>Hand Wash</p>;;;;jeans-streetwear,bestseller-jj;zerotype;;Winter;Broken size;No
2287933;VAPOUR.A-SMOKE BL-2287933;VAPOUR;Draft;Jeans;Pepe Jeans;Adults-Men;Men;Blue;;;Core;;2017;30,PEJEJENS00010546,32,PEJEJENS00010547,34,PEJEJENS00010548;2699.00;;;<p>Cotton 98.2%, Spandex 1.8%</p>;;;;;zerotype;;Winter;;No
2287737;HOLBORNE.2-DEEP BLU-2287737;HOLBORNE.2;Draft;Jeans;Pepe Jeans;Adults-Men;Men;Blue;;;Core;;2017;30,PEJEJENS00010039,32,PEJEJENS00010040,34,PEJEJENS00010041,38,PEJEJENS00010042;2699.00;;;<p>COTTON 98% LYCRA 2%</p>;;;;;zerotype;;Winter;;No
2192300;S52W153885-NAVY-2192300;S52WSKTP033FNAVYXXL/36;Draft;Track Pants;FIFTY TWO;Adults-Men;Men;Navy Blue;;;Core;;2017;32,FTTOTRPT00001095,34,FTTOTRPT00001096,36,FTTOTRPT00001097;1695.00;;;<p>Dry Clean Preferred, Wash Inside Out Separately, Use Mild Detergent, Do Not Bleach, Drip Dry in Shade, Warm Iron, Do Not Iron on Decoration</p>;;;;;zerotype;;Winter;;No
2084037;BR4207-BLUNIT-2084037;FREELIFT CL;Active;Tshirts;Adidas;Adults-Men;Men;Teal;;;Fashion;Sports;2017;XL,ADDSTSHT00117149,2XL,ADDSTSHT00117150,L,ADDSTSHT00117151,M,ADDSTSHT00117152,S,ADDSTSHT00117153;1299.00;Teal blue solid T-shirt, has a round neck, short sleeves<br />Engineered with climalite technology<br />Warranty: 3 months from the date of purchase against manufacturing defects.;Pull over this snug tee to keep your style looking fresh. When you're attending an after-work happy hour, wear this piece with jeans and easy loafers.;100% polyester<br />Machine-wash;The model (height 6') is wearing a size M;;Adidas Men Teal Blue FREELIFT Clean Solid Round Neck T-shirt;Adidas,FW17-SPORTS-NEW,fw-17-sports-new,express-delivery-17,try-and-buy-17,adidas-fw17-uprising,bfg17-non-disc,sportsallstyles-2017,aw-2017,styles-aw-17,eorsdec17-ftod,coupon-eorsdec17,blockbuster-men-goal-559320,combo-buy3-jan1,bestsellers-styles,welcome-to-myntra-oct17,jerseys-2017,all-sports-styles-2017,buy3-jan20,express-delivery-jan18,coupon-offer-rtf18,buy3-jan25,uber-offer-feb18;zerotype;;Fall;uber-offer-feb18;No
2077617;ITA16SWK102-Tang. M.-2077617;Tang. M.;Active;Sweaters;Indian Terrain;Adults-Men;Men;Orange;;;Fashion;Casual;2016;S,INTRSWTR00001936,M,INTRSWTR00001937,L,INTRSWTR00001938,XL,INTRSWTR00001939,XXL,INTRSWTR00001940;2499.00;Orange solid sweater vest, has a V-neck, sleeveless, ribbed hem;All season long, this Indian Terrain sweater is ready to help you brace those winter winds.  For a sharp work ensemble, pair this orange piece with sleek trousers and Oxfords.;80% wool, 20% nylon<br />Dry-clean;The model (height 6') is wearing a size M;;Indian Terrain Men Orange Solid Sweater Vest;Indian Terrain,menswinterwear-eors,coupon-eorsdec17,coupon-offer-dec2017,combo-buy2-dec27,welcome-to-myntra-oct17,scantastic-jan12,buy3-jan20,mitm-jan-18,effortless-casual,express-delivery-jan18;zerotype;;Fall;image mismatch;No
2053730;8902789854206-Beige-2053730;WSMWJAA160072;Active;Jackets;Wills Lifestyle;Adults-Men;Men;Beige;;;Fashion;Casual;2016;M,WILIJCKT00000565,L,WILIJCKT00000566,XL,WILIJCKT00000567,S,WILIJCKT00000568,XXL,WILIJCKT00000569;5999.00;<a href='/beige?src=pd' class='seolink'>Beige</a> <a href='/solid?src=pd' class='seolink'>solid</a> padded jacket, has a mock collar, three pockets, a full button placket, long sleeves, a straight hem, and has an attached lining;This handsome jacket in beige will be the talk of the town. This Wills Lifestyle jacket can be styled with your favourite shirt and a pair of slim jeans for a casual date night.;Polyester <br />Hand-wash cold;The model (height 6') is wearing a size M;;Wills Lifestyle Men Beige Solid Padded Jacket;Wills Lifestyle,coh-exp-aug,welcome-to-myntra-oct17,menscasualfest-oct,coupon-offer-diwali17,menscasualfest-nov,menscasualfestoct2,express-delivery-17,try-and-buy-17,youngistan-mainbanner,mantastic-nov-ww,formal-men-nov10,winterwear-men-nov,bfg17-non-disc,winterwear-dec1,winterwear-dec2,groovy-gang-dec,groovy-gang-winter,workwear-styles,winterwear-dec15,men-eors17-casual-winter-edit-5575,men-eors17-winter-chill-557594,menswinterwear-eors,mensworkwear-eors,coupon-eorsdec17,bestsellers-styles,formal-aug-mb;zerotype;;Winter;formal;No
2043521;8907349021630-Cocoa Brown-2043521;ZCMWJAA160008;Inactive - PMM - Catalog;Jackets;John Players;Adults-Men;Men;Brown;;;Fashion;Casual;2016;L,JOPLJCKT00000830,M,JOPLJCKT00000831,S,JOPLJCKT00000832,XL,JOPLJCKT00000833,XXL,JOPLJCKT00000834;4799.00;<a href='/brown?src=pd' class='seolink'>Brown</a> <a href='/solid?src=pd' class='seolink'>solid</a> <a href='/bomber-jacket?src=pd' class='seolink'>bomber jacket</a>, has a mock collar, <a href='/3?src=pd' class='seolink'>3</a> pockets, a full zip closure, long sleeves, straight hem, faux fur lining;This fashionable brown jacket will elevate your overall style.  This jacket from John Players can be worn with distressed denims and a modern tee for a laid-back brunch outfit.;Shell: 100% cotton<br />Lining: 100% polyester <br /> Dry-clean;The model (height 6') is wearing a size M;;John Players Men Brown Solid Bomber Jacket;John Players,coh-exp-aug,jp-casual,welcome-to-myntra-oct17,menscasualfest-oct,coupon-offer-diwali17,flash-sale-oct17,menscasualfest-nov,menscasualfestoct2,express-delivery-17,try-and-buy-17,youngistan-mainbanner,mantastic-nov-ww,bfg17-non-disc,winterwear-dec1,winterwear-dec2,party-store-2017-men-jackets-waistcoats,party-store-2017-view-all,menscasualfest-dec,popularstyles-2017,winterwear-dec15,menscasualwear-eors,menswinterwear-eors,coupon-eorsdec17,bestsellers-styles,JIT,scantastic-jan12,mitm-jan-18,effortless-casual,express-delivery-jan18,menscasualfest-feb,trending-bangalore,trending-delhi,trending-kolkatta,trending-pune,trending-mumbai;zerotype;;Winter;trending-mumbai;No
2025562;VDSF316E10152-Blue-2025562;VDSF316E10152;Inactive - PMM - Catalog;Shirts;V Dot;Adults-Men;Men;Black;;;Fashion;Formal;2017;39,VDOTSHRT00003462,40,VDOTSHRT00003463,42,VDOTSHRT00003464,44,VDOTSHRT00003465;2799.00;<a href='/black?src=pd' class='seolink'>Black</a> printed <a href='/formal?src=pd' class='seolink'>formal</a> shirt, has a <a href='/spread?src=pd' class='seolink'>spread</a> collar, button placket, long sleeves, curved hem;This shirt from V Dot can make any outfit formal.  When you're attending a family outing, pair this black piece with slim jeans and easy loafers.;100% cotton <br /> Machine-wash;Slim fit<br /> The model (height 6') is wearing a size 40;;V Dot Men Black Slim Fit Printed Formal Shirt;V Dot,welcome-to-myntra-oct17,formalwear-min30sale,menscasualfest-oct,mitm-formals-oct,menscasualfest-nov,express-delivery-17,try-and-buy-17,bfg17-non-disc,party-store-2017-men-printed-shirts,party-store-2017-men-stylised-shirts-554689,mmb-formalshirts,workwear-styles,mensworkwear-eors,mitm-jan-18,corporate-jetsetter;zerotype;;Summer;image mismatch;No
2010563;BHNDC7048-BEIGE-2010563;CHINO;Inactive - PMM - Catalog;Trousers;Being Human;Adults-Men;Men;Navy Blue;;;Fashion;Casual;2017;76CM/28,BGHMTRSR00002332,81CM/30,BGHMTRSR00002333,86CM/32,BGHMTRSR00002334,91CM/34,BGHMTRSR00002335,96CM/36,BGHMTRSR00002336,101CM/38,BGHMTRSR00002337;2199.00;Navy blue solid mid-rise chinos, has a button closure closure, 4 pockets;These trendy chino trousers from Being Human will help you elevate your everyday style.  You can style this blue pair with a Polo T-shirt and easy loafers when you're going to lunch with your friends.;98% cotton and 2% elastane <br /> Machine-wash;Regular fit<br />The model (height 6') is wearing a size 32;;Being Human Clothing Men Navy Regular Fit Solid Chino Trousers;MAXI0481,Being Human Clothing,bh-aw-17,Mitm-aw-aug,mantastic-styles-august1,mitm-new-season,bbd17-extra20,menscasualfest-oct,ftod-sep30,men-apparel-being-human-aw17,bh-bday-50;zerotype;;Winter;image mismatch;No
1984296;G4FEARLESSTYPOWHITE-White-1984296;SayItLoud Men's Printed Round Neck Vest;Inactive - PMM - Catalog;Innerwear Vests;SayItLoud;Adults-Men;Men;White;;;Fashion;Casual;2017;3XL,SYLDVEST00000057,L,SYLDVEST00000058,M,SYLDVEST00000059,S,SYLDVEST00000060,XL,SYLDVEST00000061,XS,SYLDVEST00000062,XXL,SYLDVEST00000063;599.00;White printed vest, has a round neck, sleeveless;This innerwear vest from SayItLoud will provide you comfort in style. Team it with a pair of lounge pants or shorts and enjoy your day at home.;Cotton<br />Machine-wash;The model (height 6') is wearing a size M;;SayItLoud White Printed Vest;SayItLoud,JIT,uber-offer-aug-rtf,buy3-rs2499-rtf,uber-offer-16aug,deal-aug-buy3-2499,coupon-offer-23aug,coh-exp-aug,aug31-acc,welcome-to-mynt-v2sep2017,welcome-to-myntra-sep2017,dutyfree-sept17,welcome-to-myntra-oct17,menscasualfest-oct,coupon-offer-sep30,combo-deals,combo-buy2-sep30,menscasualfest-nov,buy40-oct25,coupon-eorsdec17,Women-Inside-Story,RTF,RTF-IW,ebd-feb2,fitness-men-2-0,trending-bangalore,trending-delhi,trending-kolkatta,trending-pune,trending-mumbai;zerotype;;Summer;trending-mumbai;No
1929489;VAPOUR.2W8/AW1538-W8/AW15-1929489;VAPOUR.2;On Hold - Sample;Jeans;Pepe Jeans;Adults-Men;Men;;;;Core;;2017;30,PEJEJENS00008013,32,PEJEJENS00008014,34,PEJEJENS00008015,36,PEJEJENS00008016,38,PEJEJENS00008017;1799.00;;;;;;;;zerotype;;Summer;Broken size;No
1849160;CMST26156-Y3-Yellow-1849160;TAILORED FIT HS;Draft;Shirts;ColorPlus;Adults-Men;Men;Yellow;;;Fashion;;2017;0XL,CRPSSHRT00002675,2XL,CRPSSHRT00002676,3XL,CRPSSHRT00002677,00L,CRPSSHRT00006388,00M,CRPSSHRT00006389,00S,CRPSSHRT00006390,0XS,CRPSSHRT00006391;1999.00;<p><a href='/cotton?src=pd' class='seolink'>Cotton</a></p>;;<p>Wash Dark Color Separately,Cotton</p>;;;;never-settle,workwear-styles,formal-aug-mb;zerotype;;Winter;formal;No
1042475;10205-RED-1042475;LINEN LUXURY 2;Inactive - PMM - Catalog;Shirts;L.A. SEVEN;Adults-Men;Men;Red;;;Fashion;Casual;2015;38,LASVSHRT00001083,40,LASVSHRT00001084,42,LASVSHRT00001085,44,LASVSHRT00001086;1699.00;Red casual shirt, has a mandarin collar, short button placket, long sleeves, curved hem;<span>This shirt is an effortlessly stylish piece. We suggest that you team it with a pair of slim fit trousers or jeans and casual shoes for the perfect look.<br></span>;<span>Linen and cotton<br>Machine-wash</span>;Slim fit <br>The model (height 6') is wearing a size 40;;L.A. SEVEN Red Linen Slim Fit Casual Shirt;L.A.SEVEN,JIT,HH21OCT2015,,dailyopenoffer30,HH19NOV2015,wishlist2211,MINIHH23NOV,extra20,extra10-24nov,ios-promotion-25nov,ios-promo-25nov,HH26NOV2015,best-of-best-4dec,hh08jan16,HH10FEB16,first-login-offer,fff-casualwear,rs500-off-17aug,rs-500-24aug,off-1000-500-8sep,500-13sep,men-work-casual-topwear-after-hours,solid-shirt-navaratri,men-work-casual-all,men-work-casual-shirts-solid-brights,after-sale-price,diwali-25thoctober,cohort-25thoctober,myntra-open-coupon-offer,welcome-to-myntra-sept,off-500-1000-nov,flat30-extra40-21nov,happyhours-dec23,mens-mandarin-shirts,happy-hour-december,welcome-to-eors,foryou20,foryou15,myntra-wishlisters-jan,extra15-wishlisters-2017,HH12JAN17,vday-coupon-offer,wishlisters-wish10,wishlisters-wish10-feb25,welcome-to-march,superhour-feb26,Holimensethnic,holi-basket-mar,coupon-15-mar14,spring15-mar20,super-hour-mar17,rs500off-crush500,crush20-mar28,cc-articles-2803,welcome-to-march-new,welcome-to-mar17-new,rs300-off-mar17,welcome-to-myntra-april,hh-0104,chill-summer-apr,bfg-event-apr,bfg-extra10,bfg-extra20,bfg-extra30,apr12-super-hour,indus-apr13,bnb-styles-apr,take20-apr17,apr15-hh,coupon-crush-bb,flat40-extra30-bb,min30-extra1000,gold22-bb,power500-bb,b3-20-power20,flash-sale-bb21,buy-one-get-one,coupon-crush05,never-settle,super-hour-ccmay,super-hour-may9,ndd-mumbai,welcome-to-myntra-may-big,extra30-may19,price-surge-may25,may27-price-surge,gratification-jun2,hh-jun2,myntra-store-03,jun08-wonder-hour,offer-11jun,min30-jun12,groovy-gangjune17,wonder-hour-jun25,signup-july-2017,bss-uber-offer,extra500-jul24,groovy-styles-july,uber-offer-aug-rtf,welcome-to-myntra-aug-v2,deal-aug-buy3-2499,coupon-offer-aug19,groovy-styles-aug,all-groovy-aug,groovy-aug-mb,buy2-1999-23aug,mitm-college-aug,dutyfree-sept17,bbd17-coupon-offer,bigxtra500,coh-exp-aug,bbd17-combo-buy3,uber-offer-sept25,bbd17-extra20,welcome-to-myntra-oct17,menscasualfest-oct,coupon-offer-diwali17,ds17-buy2-1999,combo-ds17,buy2-oct15,groovy-gang-october,mitm-mainbanner-oct,menscasualfest-nov,menscasualfestoct2,buy3-oct25,try-and-buy-17,nov-buy3-2499,buy3-nov9,buy3-nov13,buy3-nov17,bfg17-coupon-offer,bfg17-non-disc,bfg17-extra20,season-topsellers,groovy-gang-dec,party-store-2017-men-mandarin-shirts,mmb-casualshirts,menscasualfest-dec,men-eors17-casual-party-edit-557597,men-eors17-party-time-557596,menscasualwear-eors,eorsdec2017-emeocc,bestsellers-styles,express-delivery-jan18,coupon-offer-rtf18,flash-sale-29thjan,extra30-jan29,extra300-dec28,combo-buy3-jan31,buy2-feb09,combo1999-feb14,uber-offer-feb18,combo-shirts-feb17,trending-bangalore,trending-delhi,trending-kolkatta,trending-pune;Shirts;L.A. SEVEN;Winter;trending-pune;No
