Style ID;Vendor Article Number;Vendor Article Name;Active Status;Article type;Brand;Age Group;Gender;Base Colour;Colour1;Colour2;Fashion Type;Usage;Year;Size - SKU code pair;MRP;Style Description;Style Note;Materials and Care Description;Size and Fit Description;Size Chart Path;Product Display Name;Tags;Product Type;Classification Brand;Season;Comments;Upload Images
4448014;LJEW2894-ENZYMEWASH-8XL-EnzymeWash-4448014;plusS Womens Jeans;Draft;Jeans;plusS;Adults-Women;Women;Blue;;;Fashion;Casual;2018;XL,PLUSJENS00000999,XXL,PLUSJENS00001000,3XL,PLUSJENS00001001,4XL,PLUSJENS00001002,5XL,PLUSJENS00001003,6XL,PLUSJENS00001004,7XL,PLUSJENS00001005,8XL,PLUSJENS00001006;2599.00;<p>plusS Womens Solid Jeans</p>;;<p>98% Cotton 2% Spandex (Machine Wash)</p>;;;n;;zerotype;;Summer;;No
4448013;LJEW3168-ENZYMEWASH-8XL-EnzymeWash-4448013;plusS Womens Jeans;Draft;Jeans;plusS;Adults-Women;Women;Blue;;;Fashion;Casual;2018;XXL,PLUSJENS00000991,XL,PLUSJENS00000992,3XL,PLUSJENS00000993,4XL,PLUSJENS00000994,5XL,PLUSJENS00000995,6XL,PLUSJENS00000996,7XL,PLUSJENS00000997,8XL,PLUSJENS00000998;2499.00;<p>plusS Womens Solid Jeans</p>;;<p>98% Cotton 2% Spandex (Machine Wash)</p>;;;n;;zerotype;;Summer;;No
4448012;LJEW3169-BATAWASH-8XL-BataWash-4448012;plusS Womens Jeans;Draft;Jeans;plusS;Adults-Women;Women;Blue;;;Fashion;Casual;2018;XL,PLUSJENS00000983,XXL,PLUSJENS00000984,3XL,PLUSJENS00000985,4XL,PLUSJENS00000986,5XL,PLUSJENS00000987,6XL,PLUSJENS00000988,7XL,PLUSJENS00000989,8XL,PLUSJENS00000990;2499.00;<p>plusS Womens Solid Jeans</p>;;<p>98% Cotton 2% Spandex (Machine Wash)</p>;;;n;;zerotype;;Summer;;No
4448000;LPZO2980-NAVY-XL-Navy-4448000;plusS Womens Palazzo;Draft;Palazzos;plusS;Adults-Women;Women;Navy Blue;;;Fashion;Casual;2018;XXL,PLUSPLZS00000053,6XL,PLUSPLZS00000054,5XL,PLUSPLZS00000055,4XL,PLUSPLZS00000056,8XL,PLUSPLZS00000057,7XL,PLUSPLZS00000058,3XL,PLUSPLZS00000059,XL,PLUSPLZS00000060;1299.00;<p>plusS Womens Solid Palazzo</p>;;<p>Polyester (Machine Wash)</p>;;;n;;zerotype;;Summer;;No
4447999;LPZO2980-BLACK-XL-Black-4447999;plusS Womens Palazzo;Draft;Palazzos;plusS;Adults-Women;Women;Black;;;Fashion;Casual;2018;8XL,PLUSPLZS00000045,7XL,PLUSPLZS00000046,4XL,PLUSPLZS00000047,6XL,PLUSPLZS00000048,3XL,PLUSPLZS00000049,5XL,PLUSPLZS00000050,XXL,PLUSPLZS00000051,XL,PLUSPLZS00000052;1299.00;<p>plusS Womens Solid Palazzo</p>;;<p>Polyester (Machine Wash)</p>;;;n;;zerotype;;Summer;;No
4447998;LPZO2980-RED-3XL-Red-4447998;plusS Womens Palazzo;Draft;Palazzos;plusS;Adults-Women;Women;Red;;;Fashion;Casual;2018;8XL,PLUSPLZS00000037,7XL,PLUSPLZS00000038,XXL,PLUSPLZS00000039,XL,PLUSPLZS00000040,6XL,PLUSPLZS00000041,5XL,PLUSPLZS00000042,4XL,PLUSPLZS00000043,3XL,PLUSPLZS00000044;1299.00;<p>plusS Womens Solid Palazzo</p>;;<p>Polyester (Machine Wash)</p>;;;n;;zerotype;;Summer;;No
4447994;LCP3284-LT.GREYMEL-XL-LT.GreyMel-4447994;plusS Womens Trackpant;Draft;Capris;plusS;Adults-Women;Women;Grey;;;Fashion;Casual;2018;6XL,PLUSCPRI00000539,5XL,PLUSCPRI00000540,4XL,PLUSCPRI00000541,8XL,PLUSCPRI00000542,3XL,PLUSCPRI00000543,XXL,PLUSCPRI00000544,7XL,PLUSCPRI00000545,XL,PLUSCPRI00000546;1299.00;<p>plusS Womens Capri</p>;;<p>Cotton (Machine Wash)</p>;;;n;;zerotype;;Summer;;No
4447993;LCP3284-DK.GREY-6XL-DK.Grey-4447993;plusS Womens Trackpant;Draft;Capris;plusS;Adults-Women;Women;Grey;;;Fashion;Casual;2018;XXL,PLUSCPRI00000531,XL,PLUSCPRI00000532,8XL,PLUSCPRI00000533,7XL,PLUSCPRI00000534,5XL,PLUSCPRI00000535,4XL,PLUSCPRI00000536,3XL,PLUSCPRI00000537,6XL,PLUSCPRI00000538;1299.00;<p>plusS Womens Capri</p>;;<p>Cotton (Machine Wash)</p>;;;n;;zerotype;;Summer;;No
4447992;LCP3284-PINKMELANGE-5XL-PinkMelange-4447992;plusS Womens Trackpant;Draft;Capris;plusS;Adults-Women;Women;Grey;;;Fashion;Casual;2018;4XL,PLUSCPRI00000523,3XL,PLUSCPRI00000524,XXL,PLUSCPRI00000525,XL,PLUSCPRI00000526,8XL,PLUSCPRI00000527,7XL,PLUSCPRI00000528,6XL,PLUSCPRI00000529,5XL,PLUSCPRI00000530;1299.00;<p>plusS Womens Capri</p>;;<p>Cotton (Machine Wash)</p>;;;n;;zerotype;;Summer;;No
4447940;GR5512-NAVY-Navy Blue-4447940;GR5512NAVY;Draft;Dresses;Harpa;Adults-Women;Women;Navy Blue;;;Fashion;Casual;2018;S,HRPADRSS00008028,M,HRPADRSS00008029,L,HRPADRSS00008030,XL,HRPADRSS00008031;2199.00;;;<p>95% Polyester 5% Elastane. Hand Wash in Cold Water. Dry in Shade for Lasting Color.</p>;;;n;;zerotype;;Summer;;No
4447939;GR5535-NAVY-Navy Blue-4447939;GR5535NAVY;Draft;Dresses;Harpa;Adults-Women;Women;Navy Blue;;;Fashion;Casual;2018;S,HRPADRSS00008024,M,HRPADRSS00008025,L,HRPADRSS00008026,XL,HRPADRSS00008027;1799.00;;;<p>100% Polyester. Hand Wash in cold Water. Dry in shade for Lasting Color.</p>;;;n;;zerotype;;Summer;;No
4447937;GR5430-MUSTARD-Mustard-4447937;GR5430MUSTARD;Draft;Dresses;Harpa;Adults-Women;Women;Mustard;;;Fashion;Casual;2018;S,HRPADRSS00008020,M,HRPADRSS00008021,L,HRPADRSS00008022,XL,HRPADRSS00008023;1699.00;;;<p>100% Polyester. Hand Wash in cold Water. Dry in shade for Lasting Color.</p>;;;n;;zerotype;;Summer;;No
4447936;GR5478-BLACK-Black-4447936;GR5478BLACK;Draft;Dresses;Harpa;Adults-Women;Women;Black;;;Fashion;Casual;2018;S,HRPADRSS00008016,M,HRPADRSS00008017,L,HRPADRSS00008018,XL,HRPADRSS00008019;1799.00;;;<p>95% Polyester 5% Elastane. Hand Wash in Cold Water. Dry in Shade for Lasting Color.</p>;;;n;;zerotype;;Summer;;No
4447934;GR5544-BLACK-Black-4447934;GR5544BLACK;Draft;Dresses;Harpa;Adults-Women;Women;Black;;;Fashion;Casual;2018;S,HRPADRSS00008012,M,HRPADRSS00008013,L,HRPADRSS00008014,XL,HRPADRSS00008015;1999.00;;;<p>100% Polyester. Hand Wash in cold Water. Dry in shade for Lasting Color.</p>;;;n;;zerotype;;Summer;;No
4447932;GR3873-WINE-Maroon-4447932;GR3873WINE;Draft;Dresses;Harpa;Adults-Women;Women;Maroon;;;Fashion;Casual;2018;S,HRPADRSS00008008,M,HRPADRSS00008009,L,HRPADRSS00008010,XL,HRPADRSS00008011;1699.00;;;<p>100% Polyester. hand Wash in cold Water. Dry in shade for Lasting Color.</p>;;;n;;zerotype;;Summer;;No
4447931;GR5533-MAROON-Maroon-4447931;GR5533MAROON;Draft;Dresses;Harpa;Adults-Women;Women;Maroon;;;Fashion;Casual;2018;S,HRPADRSS00008004,M,HRPADRSS00008005,L,HRPADRSS00008006,XL,HRPADRSS00008007;1699.00;;;<p>100%Rayon. Hand Wash in Cold Water. Dry in Shade for Lasting Colour.</p>;;;n;;zerotype;;Summer;;No
4447929;GR5478-MUSTARD-Mustard-4447929;GR5478MUSTARD;Draft;Dresses;Harpa;Adults-Women;Women;Mustard;;;Fashion;Casual;2018;S,HRPADRSS00008000,M,HRPADRSS00008001,L,HRPADRSS00008002,XL,HRPADRSS00008003;1799.00;;;<p>95% Polyester 5% Elastane. Hand Wash in Cold Water. Dry in Shade for Lasting Color.</p>;;;n;;zerotype;;Summer;;No
4447928;GR3873A-MUSTARD-Mustard-4447928;GR3873AMUSTARD;Draft;Dresses;Harpa;Adults-Women;Women;Mustard;;;Fashion;Casual;2018;S,HRPADRSS00007996,M,HRPADRSS00007997,L,HRPADRSS00007998,XL,HRPADRSS00007999;1599.00;;;<p>100% Polyester. hand Wash in cold Water. Dry in shade for Lasting Color.</p>;;;n;;zerotype;;Summer;;No
4447926;GR5474-CORAL-Coral-4447926;GR5474CORAL;Draft;Dresses;Harpa;Adults-Women;Women;Red;;;Fashion;Casual;2018;S,HRPADRSS00007992,M,HRPADRSS00007993,L,HRPADRSS00007994,XL,HRPADRSS00007995;1699.00;;;<p>95% Polyester 5% Elastane. Hand Wash in Cold Water. Dry in Shade for Lasting Color.</p>;;;n;;zerotype;;Summer;;No
4447925;GR5521-PURPLE-Purple-4447925;GR5521PURPLE;Draft;Dresses;Harpa;Adults-Women;Women;Pink;;;Fashion;Casual;2018;S,HRPADRSS00007988,M,HRPADRSS00007989,L,HRPADRSS00007990,XL,HRPADRSS00007991;1699.00;;;<p>100% Polyester. Hand Wash in cold Water. Dry in shade for Lasting Color.</p>;;;n;;zerotype;;Summer;;No
4447923;GR5430-BLACK-Black-4447923;GR5430BLACK;Draft;Dresses;Harpa;Adults-Women;Women;Black;;;Fashion;Casual;2018;S,HRPADRSS00007984,M,HRPADRSS00007985,L,HRPADRSS00007986,XL,HRPADRSS00007987;1699.00;;;<p>100% Polyester. Hand Wash in cold Water. Dry in shade for Lasting Color.</p>;;;n;;zerotype;;Summer;;No
4447922;GR3873A-BLACK-Black-4447922;GR3873ABLACK;Draft;Dresses;Harpa;Adults-Women;Women;Black;;;Fashion;Casual;2018;S,HRPADRSS00007980,M,HRPADRSS00007981,L,HRPADRSS00007982,XL,HRPADRSS00007983;1599.00;;;<p>100% Polyester. hand Wash in cold Water. Dry in shade for Lasting Color.</p>;;;n;;zerotype;;Summer;;No
4447920;GR5533-CORAL-Coral-4447920;GR5533CORAL;Draft;Dresses;Harpa;Adults-Women;Women;Orange;;;Fashion;Casual;2018;S,HRPADRSS00007976,M,HRPADRSS00007977,L,HRPADRSS00007978,XL,HRPADRSS00007979;1699.00;;;<p>100%Rayon. Hand Wash in Cold Water. Dry in Shade for Lasting Colour.</p>;;;n;;zerotype;;Summer;;No
4447918;GR5473-PINK-Pink-4447918;GR5473PINK;Draft;Dresses;Harpa;Adults-Women;Women;Pink;;;Fashion;Casual;2018;S,HRPADRSS00007972,M,HRPADRSS00007973,L,HRPADRSS00007974,XL,HRPADRSS00007975;1999.00;;;<p>95% Polyester 5% Elastane. Hand Wash in Cold Water. Dry in Shade for Lasting Color.</p>;;;n;;zerotype;;Summer;;No
4447917;GR5551-BLACK-Black-4447917;GR5551BLACK;Draft;Dresses;Harpa;Adults-Women;Women;Black;;;Fashion;Casual;2018;S,HRPADRSS00007968,M,HRPADRSS00007969,L,HRPADRSS00007970,XL,HRPADRSS00007971;1999.00;;;<p>100% Polyester. Hand Wash in cold Water. Dry in shade for Lasting Color.</p>;;;n;;zerotype;;Summer;;No
4447915;GR5515A-MAROON-Maroon-4447915;GR5515AMAROON;Draft;Dresses;Harpa;Adults-Women;Women;Red;;;Fashion;Casual;2018;S,HRPADRSS00007964,M,HRPADRSS00007965,L,HRPADRSS00007966,XL,HRPADRSS00007967;1899.00;;;<p>100% Polyester. Hand Wash in cold Water. Dry in shade for Lasting Color.</p>;;;n;;zerotype;;Summer;;No
4447914;GR5515A-MUSTARD-Mustard-4447914;GR5515AMUSTARD;Draft;Dresses;Harpa;Adults-Women;Women;Mustard;;;Fashion;Casual;2018;S,HRPADRSS00007960,M,HRPADRSS00007961,L,HRPADRSS00007962,XL,HRPADRSS00007963;1899.00;;;<p>100% Polyester. Hand Wash in cold Water. Dry in shade for Lasting Color.</p>;;;n;;zerotype;;Summer;;No
4447912;GR5544-WHITE-White-4447912;GR5544WHITE;Draft;Dresses;Harpa;Adults-Women;Women;White;;;Fashion;Casual;2018;S,HRPADRSS00007956,M,HRPADRSS00007957,L,HRPADRSS00007958,XL,HRPADRSS00007959;1999.00;;;<p>100% Polyester. Hand Wash in cold Water. Dry in shade for Lasting Color.</p>;;;n;;zerotype;;Summer;;No
4447911;GR5468-BLACK-Black-4447911;GR5468BLACK;Draft;Dresses;Harpa;Adults-Women;Women;Black;;;Fashion;Casual;2018;S,HRPADRSS00007952,M,HRPADRSS00007953,L,HRPADRSS00007954,XL,HRPADRSS00007955;1999.00;;;<p>95% Polyester 5% Elastane. Hand Wash in Cold Water. Dry in Shade for Lasting Color.</p>;;;n;;zerotype;;Summer;;No
4447910;GR5515-BEIGE-Beige-4447910;GR5515BEIGE;Draft;Dresses;Harpa;Adults-Women;Women;Beige;;;Fashion;Casual;2018;S,HRPADRSS00007948,M,HRPADRSS00007949,L,HRPADRSS00007950,XL,HRPADRSS00007951;1899.00;;;<p>100% Polyester. Hand Wash in cold Water. Dry in shade for Lasting Color.</p>;;;n;;zerotype;;Summer;;No
4447909;GR5515A-GREEN-Green-4447909;GR5515AGREEN;Draft;Dresses;Harpa;Adults-Women;Women;Green;;;Fashion;Casual;2018;S,HRPADRSS00007944,M,HRPADRSS00007945,L,HRPADRSS00007946,XL,HRPADRSS00007947;1899.00;;;<p>100% Polyester. Hand Wash in cold Water. Dry in shade for Lasting Color.</p>;;;n;;zerotype;;Summer;;No
4447908;GR5544-GREEN-Green-4447908;GR5544GREEN;Draft;Dresses;Harpa;Adults-Women;Women;Teal;;;Fashion;Casual;2018;S,HRPADRSS00007940,M,HRPADRSS00007941,L,HRPADRSS00007942,XL,HRPADRSS00007943;1999.00;;;<p>100% Polyester. Hand Wash in cold Water. Dry in shade for Lasting Color.</p>;;;n;;zerotype;;Summer;;No
4447907;GR5551A-BLACK-Black-4447907;GR5551ABLACK;Draft;Dresses;Harpa;Adults-Women;Women;Black;;;Fashion;Casual;2018;S,HRPADRSS00007936,M,HRPADRSS00007937,L,HRPADRSS00007938,XL,HRPADRSS00007939;1999.00;;;<p>100% Polyester. Hand Wash in cold Water. Dry in shade for Lasting Color.</p>;;;n;;zerotype;;Summer;;No
4447906;GR5515A-BLACK-Black-4447906;GR5515ABLACK;Draft;Dresses;Harpa;Adults-Women;Women;Black;;;Fashion;Casual;2018;S,HRPADRSS00007932,M,HRPADRSS00007933,L,HRPADRSS00007934,XL,HRPADRSS00007935;1899.00;;;<p>100% Polyester. Hand Wash in cold Water. Dry in shade for Lasting Color.</p>;;;n;;zerotype;;Summer;;No
4447905;GR5515-NAVY-Navy Blue-4447905;GR5515NAVY;Draft;Dresses;Harpa;Adults-Women;Women;Navy Blue;;;Fashion;Casual;2018;S,HRPADRSS00007928,M,HRPADRSS00007929,L,HRPADRSS00007930,XL,HRPADRSS00007931;1899.00;;;<p>100% Polyester. Hand Wash in cold Water. Dry in shade for Lasting Color.</p>;;;n;;zerotype;;Summer;;No
4447904;GR5468-MUSTARD-Mustard-4447904;GR5468MUSTARD;Draft;Dresses;Harpa;Adults-Women;Women;Mustard;;;Fashion;Casual;2018;S,HRPADRSS00007924,M,HRPADRSS00007925,L,HRPADRSS00007926,XL,HRPADRSS00007927;1999.00;;;<p>95% Polyester 5% Elastane. Hand Wash in Cold Water. Dry in Shade for Lasting Color.</p>;;;n;;zerotype;;Summer;;No
4447903;GR5468-CORAL-Coral-4447903;GR5468CORAL;Draft;Dresses;Harpa;Adults-Women;Women;Coral;;;Fashion;Casual;2018;S,HRPADRSS00007920,M,HRPADRSS00007921,L,HRPADRSS00007922,XL,HRPADRSS00007923;1999.00;;;<p>95% Polyester 5% Elastane. Hand Wash in Cold Water. Dry in Shade for Lasting Color.</p>;;;n;;zerotype;;Summer;;No
4447902;GR5470-MAROON-Maroon-4447902;GR5470MAROON;Draft;Dresses;Harpa;Adults-Women;Women;Maroon;;;Fashion;Casual;2018;S,HRPADRSS00007916,M,HRPADRSS00007917,L,HRPADRSS00007918,XL,HRPADRSS00007919;1899.00;;;<p>95% Polyester 5% Elastane. Hand Wash in Cold Water. Dry in Shade for Lasting Color.</p>;;;n;;zerotype;;Summer;;No
4447901;GR5515-BLACK-Black-4447901;GR5515BLACK;Draft;Dresses;Harpa;Adults-Women;Women;Black;;;Fashion;Casual;2018;S,HRPADRSS00007912,M,HRPADRSS00007913,L,HRPADRSS00007914,XL,HRPADRSS00007915;1899.00;;;<p>100% Polyester. Hand Wash in cold Water. Dry in shade for Lasting Color.</p>;;;n;;zerotype;;Summer;;No
4447900;GR5521-BLACK-Black-4447900;GR5521BLACK;Draft;Dresses;Harpa;Adults-Women;Women;Black;;;Fashion;Casual;2018;S,HRPADRSS00007908,M,HRPADRSS00007909,L,HRPADRSS00007910,XL,HRPADRSS00007911;1699.00;;;<p>100% Polyester. Hand Wash in cold Water. Dry in shade for Lasting Color.</p>;;;n;;zerotype;;Summer;;No
4447899;GR5470-CORAL-Coral-4447899;GR5470CORAL;Draft;Dresses;Harpa;Adults-Women;Women;Coral;;;Fashion;Casual;2018;S,HRPADRSS00007904,M,HRPADRSS00007905,L,HRPADRSS00007906,XL,HRPADRSS00007907;1899.00;;;<p>95% Polyester 5% Elastane. Hand Wash in Cold Water. Dry in Shade for Lasting Color.</p>;;;n;;zerotype;;Summer;;No
4447898;GR5430-PINK-Pink-4447898;GR5430PINK;Draft;Dresses;Harpa;Adults-Women;Women;Pink;;;Fashion;Casual;2018;S,HRPADRSS00007900,M,HRPADRSS00007901,L,HRPADRSS00007902,XL,HRPADRSS00007903;1699.00;;;<p>100% Polyester. Hand Wash in cold Water. Dry in shade for Lasting Color.</p>;;;n;;zerotype;;Summer;;No
4447897;GR5473-WINE-Maroon-4447897;GR5473WINE;Draft;Dresses;Harpa;Adults-Women;Women;Maroon;;;Fashion;Casual;2018;S,HRPADRSS00007896,M,HRPADRSS00007897,L,HRPADRSS00007898,XL,HRPADRSS00007899;1999.00;;;<p>95% Polyester 5% Elastane. Hand Wash in Cold Water. Dry in Shade for Lasting Color.</p>;;;n;;zerotype;;Summer;;No
4447896;GR5521-BEIGE-Beige-4447896;GR5521BEIGE;Draft;Dresses;Harpa;Adults-Women;Women;Beige;;;Fashion;Casual;2018;S,HRPADRSS00007892,M,HRPADRSS00007893,L,HRPADRSS00007894,XL,HRPADRSS00007895;1699.00;;;<p>100% Polyester. Hand Wash in cold Water. Dry in shade for Lasting Color.</p>;;;n;;zerotype;;Summer;;No
4447895;GR5544-MAROON-Maroon-4447895;GR5544MAROON;Draft;Dresses;Harpa;Adults-Women;Women;Maroon;;;Fashion;Casual;2018;S,HRPADRSS00007888,M,HRPADRSS00007889,L,HRPADRSS00007890,XL,HRPADRSS00007891;1999.00;;;<p>100% Polyester. Hand Wash in cold Water. Dry in shade for Lasting Color.</p>;;;n;;zerotype;;Summer;;No
4447894;GR5512-BLACK-Black-4447894;GR5512BLACK;Draft;Dresses;Harpa;Adults-Women;Women;Black;;;Fashion;Casual;2018;S,HRPADRSS00007884,M,HRPADRSS00007885,L,HRPADRSS00007886,XL,HRPADRSS00007887;2199.00;;;<p>95% Polyester 5% Elastane. Hand Wash in Cold Water. Dry in Shade for Lasting Color.</p>;;;n;;zerotype;;Summer;;No
4447893;GR5533-RUST-Rust-4447893;GR5533RUST;Draft;Dresses;Harpa;Adults-Women;Women;Pink;;;Fashion;Casual;2018;S,HRPADRSS00007880,M,HRPADRSS00007881,L,HRPADRSS00007882,XL,HRPADRSS00007883;1699.00;;;<p>100%Rayon. Hand Wash in Cold Water. Dry in Shade for Lasting Colour.</p>;;;n;;zerotype;;Summer;;No
4447892;GR5474-BLACK-Black-4447892;GR5474BLACK;Draft;Dresses;Harpa;Adults-Women;Women;Black;;;Fashion;Casual;2018;S,HRPADRSS00007876,M,HRPADRSS00007877,L,HRPADRSS00007878,XL,HRPADRSS00007879;1699.00;;;<p>95% Polyester 5% Elastane. Hand Wash in Cold Water. Dry in Shade for Lasting Color.</p>;;;n;;zerotype;;Summer;;No
4447891;GR5551-BEIGE-Beige-4447891;GR5551BEIGE;Draft;Dresses;Harpa;Adults-Women;Women;Beige;;;Fashion;Casual;2018;S,HRPADRSS00007872,M,HRPADRSS00007873,L,HRPADRSS00007874,XL,HRPADRSS00007875;1999.00;;;<p>100% Polyester. Hand Wash in cold Water. Dry in shade for Lasting Color.</p>;;;n;;zerotype;;Summer;;No
4447890;GR5470-BLACK-Black-4447890;GR5470BLACK;Draft;Dresses;Harpa;Adults-Women;Women;Black;;;Fashion;Casual;2018;S,HRPADRSS00007868,M,HRPADRSS00007869,L,HRPADRSS00007870,XL,HRPADRSS00007871;1899.00;;;<p>95% Polyester 5% Elastane. Hand Wash in Cold Water. Dry in Shade for Lasting Color.</p>;;;n;;zerotype;;Summer;;No
4447889;GR5515B-BLACK-Black-4447889;GR5515BBLACK;Draft;Dresses;Harpa;Adults-Women;Women;Black;;;Fashion;Casual;2018;S,HRPADRSS00007864,M,HRPADRSS00007865,L,HRPADRSS00007866,XL,HRPADRSS00007867;1799.00;;;<p>100% Polyester. Hand Wash in cold Water. Dry in shade for Lasting Color.</p>;;;n;;zerotype;;Summer;;No
4447888;GR5551-NAVY-Navy Blue-4447888;GR5551NAVY;Draft;Dresses;Harpa;Adults-Women;Women;Navy Blue;;;Fashion;Casual;2018;S,HRPADRSS00007860,M,HRPADRSS00007861,L,HRPADRSS00007862,XL,HRPADRSS00007863;1999.00;;;<p>100% Polyester. Hand Wash in cold Water. Dry in shade for Lasting Color.</p>;;;n;;zerotype;;Summer;;No
4447887;GR5335A-BLACK-Black-4447887;GR5335ABLACK;Draft;Dresses;Harpa;Adults-Women;Women;Black;;;Fashion;Casual;2018;S,HRPADRSS00007856,M,HRPADRSS00007857,L,HRPADRSS00007858,XL,HRPADRSS00007859;1999.00;;;<p>100% Polyester. hand Wash in cold Water. Dry in shade for Lasting Color.</p>;;;n;;zerotype;;Summer;;No
4447886;GR5532-MULTI-Multi-4447886;GR5532MULTI;Draft;Dresses;Harpa;Adults-Women;Women;Pink;Blue;;Fashion;Casual;2018;S,HRPADRSS00007852,M,HRPADRSS00007853,L,HRPADRSS00007854,XL,HRPADRSS00007855;1799.00;;;<p>100% Rayon hand Wash in cold Water. Dry in shade for Lasting Color.</p>;;;n;;zerotype;;Summer;;No
4447884;GR3873-BLACK-Black-4447884;GR3873BLACK;Draft;Dresses;Harpa;Adults-Women;Women;Black;;;Fashion;Casual;2018;S,HRPADRSS00007848,M,HRPADRSS00007849,L,HRPADRSS00007850,XL,HRPADRSS00007851;1699.00;;;<p>100% Polyester. hand Wash in cold Water. Dry in shade for Lasting Color.</p>;;;n;;zerotype;;Summer;;No
