Style ID;Vendor Article Number;Vendor Article Name;Active Status;Article type;Brand;Age Group;Gender;Base Colour;Colour1;Colour2;Fashion Type;Usage;Year;Size - SKU code pair;MRP;Style Description;Style Note;Materials and Care Description;Size and Fit Description;Size Chart Path;Product Display Name;Tags;Product Type;Classification Brand;Season;Comments;Upload Images
1858499;TS-SOREALS_SIL-Silver-1858499;TS-SOREALS_SIL;Draft;Sunglasses;Ted Smith;Adults-Women;Women;;;;Fashion;;2017;58,TDSHSGLS00000290;2280.00;;;;;;;;zerotype;;Summer;;No
1858498;TS-SOREALS_PINK-Pink-1858498;TS-SOREALS_PINK;Draft;Sunglasses;Ted Smith;Adults-Women;Women;;;;Fashion;;2017;58,TDSHSGLS00000289;2280.00;;;;;;;;zerotype;;Summer;;No
1858497;TS-SOREALS_GLDGRY-Grey-1858497;TS-SOREALS_GLDGRY;Draft;Sunglasses;Ted Smith;Adults-Women;Women;;;;Fashion;;2017;58,TDSHSGLS00000288;2280.00;;;;;;;;zerotype;;Summer;;No
1858496;TS-SOREALS_GLDGRN-Green-1858496;TS-SOREALS_GLDGRN;Draft;Sunglasses;Ted Smith;Adults-Women;Women;;;;Fashion;;2017;58,TDSHSGLS00000287;2280.00;;;;;;;;zerotype;;Summer;;No
1858495;TS-SOREALS_GLD-Gold-1858495;TS-SOREALS_GLD;Draft;Sunglasses;Ted Smith;Adults-Women;Women;;;;Fashion;;2017;58,TDSHSGLS00000286;2280.00;;;;;;;;zerotype;;Summer;;No
1858494;TS-SOREALS_BLK-Grey-1858494;TS-SOREALS_BLK;Draft;Sunglasses;Ted Smith;Adults-Women;Women;;;;Fashion;;2017;58,TDSHSGLS00000285;2280.00;;;;;;;;zerotype;;Summer;;No
1858493;TS-J922S_SILBLU-Blue-1858493;TS-J922S_SILBLU;Draft;Sunglasses;Ted Smith;Adults-Unisex;Unisex;;;;Fashion;;2017;58,TDSHSGLS00000284;2490.00;;;;;;;;zerotype;;Summer;;No
1858492;TS-J922S_SIL-Silver-1858492;TS-J922S_SIL;Draft;Sunglasses;Ted Smith;Adults-Unisex;Unisex;;;;Fashion;;2017;58,TDSHSGLS00000283;2490.00;;;;;;;;zerotype;;Summer;;No
1858491;TS-J922S_GLDPINK-Pink-1858491;TS-J922S_GLDPINK;Draft;Sunglasses;Ted Smith;Adults-Unisex;Unisex;;;;Fashion;;2017;58,TDSHSGLS00000282;2490.00;;;;;;;;zerotype;;Summer;;No
1858490;TS-J922S_GLD-Grey-1858490;TS-J922S_GLD;Draft;Sunglasses;Ted Smith;Adults-Unisex;Unisex;;;;Fashion;;2017;58,TDSHSGLS00000281;2490.00;;;;;;;;zerotype;;Summer;;No
1858489;TS-J897S_GLD-Brown-1858489;TS-J897S_GLD;Draft;Sunglasses;Ted Smith;Adults-Women;Women;;;;Fashion;;2017;56,TDSHSGLS00000280;2890.00;;;;;;;;zerotype;;Summer;;No
1858488;TS-J897S_BLKSIL-Silver-1858488;TS-J897S_BLKSIL;Draft;Sunglasses;Ted Smith;Adults-Women;Women;;;;Fashion;;2017;56,TDSHSGLS00000279;2890.00;;;;;;;;zerotype;;Summer;;No
1858487;TS-J888S_BLKSIL-Silver-1858487;TS-J888S_BLKSIL;Draft;Sunglasses;Ted Smith;Adults-Unisex;Unisex;;;;Fashion;;2017;62,TDSHSGLS00000278;2490.00;;;;;;;;zerotype;;Summer;;No
1858486;TS-J888S_BLKGRY-Grey-1858486;TS-J888S_BLKGRY;Draft;Sunglasses;Ted Smith;Adults-Unisex;Unisex;;;;Fashion;;2017;62,TDSHSGLS00000277;2490.00;;;;;;;;zerotype;;Summer;;No
1858485;TS-J888S_BLKBLU-Blue-1858485;TS-J888S_BLKBLU;Draft;Sunglasses;Ted Smith;Adults-Unisex;Unisex;;;;Fashion;;2017;62,TDSHSGLS00000276;2490.00;;;;;;;;zerotype;;Summer;;No
1858484;TS-J1030S_SILBLU-Blue-1858484;TS-J1030S_SILBLU;Draft;Sunglasses;Ted Smith;Adults-Women;Women;;;;Fashion;;2017;52,TDSHSGLS00000275;2280.00;;;;;;;;zerotype;;Summer;;No
1858483;TS-J1030S_GLDBRN-Brown-1858483;TS-J1030S_GLDBRN;Draft;Sunglasses;Ted Smith;Adults-Women;Women;;;;Fashion;;2017;52,TDSHSGLS00000274;2280.00;;;;;;;;zerotype;;Summer;;No
1858482;TS-J1030S_GLD-Yellow-1858482;TS-J1030S_GLD;Draft;Sunglasses;Ted Smith;Adults-Women;Women;;;;Fashion;;2017;52,TDSHSGLS00000273;2280.00;;;;;;;;zerotype;;Summer;;No
1858481;TS-J1020S_SIL-Silver-1858481;TS-J1020S_SIL;Draft;Sunglasses;Ted Smith;Adults-Women;Women;;;;Fashion;;2017;53,TDSHSGLS00000272;2490.00;;;;;;;;zerotype;;Summer;;No
1858480;TS-J1020S_GLD-Gold-1858480;TS-J1020S_GLD;Draft;Sunglasses;Ted Smith;Adults-Women;Women;;;;Fashion;;2017;53,TDSHSGLS00000271;2490.00;;;;;;;;zerotype;;Summer;;No
1858479;TS-J1018S_SILBLU-Blue-1858479;TS-J1018S_SILBLU;Draft;Sunglasses;Ted Smith;Adults-Unisex;Unisex;;;;Fashion;;2017;54,TDSHSGLS00000270;2280.00;;;;;;;;zerotype;;Summer;;No
1858478;TS-J1018S_SIL-Silver-1858478;TS-J1018S_SIL;Draft;Sunglasses;Ted Smith;Adults-Unisex;Unisex;;;;Fashion;;2017;54,TDSHSGLS00000269;2280.00;;;;;;;;zerotype;;Summer;;No
1858477;TS-J1018S_GLDPINK-Pink-1858477;TS-J1018S_GLDPINK;Draft;Sunglasses;Ted Smith;Adults-Unisex;Unisex;;;;Fashion;;2017;54,TDSHSGLS00000268;2280.00;;;;;;;;zerotype;;Summer;;No
1858476;TS-J1018S_GLDGRY-Grey-1858476;TS-J1018S_GLDGRY;Draft;Sunglasses;Ted Smith;Adults-Unisex;Unisex;;;;Fashion;;2017;54,TDSHSGLS00000267;2280.00;;;;;;;;zerotype;;Summer;;No
1858475;TS-J1018S_GLD-Brown-1858475;TS-J1018S_GLD;Draft;Sunglasses;Ted Smith;Adults-Unisex;Unisex;;;;Fashion;;2017;54,TDSHSGLS00000266;2280.00;;;;;;;;zerotype;;Summer;;No
1858474;TS-J1010S_WHTBLU-Blue-1858474;TS-J1010S_WHTBLU;Draft;Sunglasses;Ted Smith;Adults-Women;Women;;;;Fashion;;2017;57,TDSHSGLS00000265;2490.00;;;;;;;;zerotype;;Summer;;No
1858473;TS-J1010S_BLKSIL-Silver-1858473;TS-J1010S_BLKSIL;Draft;Sunglasses;Ted Smith;Adults-Women;Women;;;;Fashion;;2017;57,TDSHSGLS00000264;2490.00;;;;;;;;zerotype;;Summer;;No
1858472;TS-J1010S_BLKPINK-Pink-1858472;TS-J1010S_BLKPINK;Draft;Sunglasses;Ted Smith;Adults-Women;Women;;;;Fashion;;2017;57,TDSHSGLS00000263;2490.00;;;;;;;;zerotype;;Summer;;No
1858471;TS-J1003S_SIL-Silver-1858471;TS-J1003S_SIL;Draft;Sunglasses;Ted Smith;Adults-Unisex;Unisex;;;;Fashion;;2017;54,TDSHSGLS00000262;2890.00;;;;;;;;zerotype;;Summer;;No
1858470;TS-J1003S_GLDGRY-Grey-1858470;TS-J1003S_GLDGRY;Draft;Sunglasses;Ted Smith;Adults-Unisex;Unisex;;;;Fashion;;2017;54,TDSHSGLS00000261;2890.00;;;;;;;;zerotype;;Summer;;No
1858469;TS-J1003S_GLDBRN-Brown-1858469;TS-J1003S_GLDBRN;Draft;Sunglasses;Ted Smith;Adults-Unisex;Unisex;;;;Fashion;;2017;54,TDSHSGLS00000260;2890.00;;;;;;;;zerotype;;Summer;;No
1858468;TS-J1003S_BLKGRY-Grey-1858468;TS-J1003S_BLKGRY;Draft;Sunglasses;Ted Smith;Adults-Unisex;Unisex;;;;Fashion;;2017;54,TDSHSGLS00000259;2890.00;;;;;;;;zerotype;;Summer;;No
1858467;TS-875S_GLDPINK-Pink-1858467;TS-875S_GLDPINK;Draft;Sunglasses;Ted Smith;Adults-Unisex;Unisex;;;;Fashion;;2017;58,TDSHSGLS00000258;2280.00;;;;;;;;zerotype;;Summer;;No
1858466;TS-875S_GLDBRN-Brown-1858466;TS-875S_GLDBRN;Draft;Sunglasses;Ted Smith;Adults-Unisex;Unisex;;;;Fashion;;2017;58,TDSHSGLS00000257;2280.00;;;;;;;;zerotype;;Summer;;No
1858465;TS-875S_BLKGRY-Grey-1858465;TS-875S_BLKGRY;Draft;Sunglasses;Ted Smith;Adults-Unisex;Unisex;;;;Fashion;;2017;58,TDSHSGLS00000256;2280.00;;;;;;;;zerotype;;Summer;;No
1858464;TS-86010S_SILBLU-Blue-1858464;TS-86010S_SILBLU;Draft;Sunglasses;Ted Smith;Adults-Women;Women;;;;Fashion;;2017;59,TDSHSGLS00000255;2890.00;;;;;;;;zerotype;;Summer;;No
1858463;TS-86010S_SIL-Silver-1858463;TS-86010S_SIL;Draft;Sunglasses;Ted Smith;Adults-Women;Women;;;;Fashion;;2017;59,TDSHSGLS00000254;2890.00;;;;;;;;zerotype;;Summer;;No
1858462;TS-86010S_GLD-Gold-1858462;TS-86010S_GLD;Draft;Sunglasses;Ted Smith;Adults-Women;Women;;;;Fashion;;2017;59,TDSHSGLS00000253;2890.00;;;;;;;;zerotype;;Summer;;No
1858461;TS-86010S_BLK-Grey-1858461;TS-86010S_BLK;Draft;Sunglasses;Ted Smith;Adults-Women;Women;;;;Fashion;;2017;59,TDSHSGLS00000252;2890.00;;;;;;;;zerotype;;Summer;;No
1858460;TS-808S_SIL-Silver-1858460;TS-808S_SIL;Draft;Sunglasses;Ted Smith;Adults-Women;Women;;;;Fashion;;2017;58,TDSHSGLS00000251;2280.00;;;;;;;;zerotype;;Summer;;No
1858459;TS-808S_GLDPINK-Pink-1858459;TS-808S_GLDPINK;Draft;Sunglasses;Ted Smith;Adults-Women;Women;;;;Fashion;;2017;58,TDSHSGLS00000250;2280.00;;;;;;;;zerotype;;Summer;;No
1858458;TS-5679S_BLKSIL-Silver-1858458;TS-5679S_BLKSIL;Draft;Sunglasses;Ted Smith;Adults-Unisex;Unisex;;;;Fashion;;2017;53,TDSHSGLS00000249;2490.00;;;;;;;;zerotype;;Summer;;No
1858457;TS-5679S_BLKGRY-Grey-1858457;TS-5679S_BLKGRY;Draft;Sunglasses;Ted Smith;Adults-Unisex;Unisex;;;;Fashion;;2017;53,TDSHSGLS00000248;2490.00;;;;;;;;zerotype;;Summer;;No
1858456;TS-5679S_BLKBLU-Blue-1858456;TS-5679S_BLKBLU;Draft;Sunglasses;Ted Smith;Adults-Unisex;Unisex;;;;Fashion;;2017;53,TDSHSGLS00000247;2490.00;;;;;;;;zerotype;;Summer;;No
1858455;TS-0770S_SIL-Silver-1858455;TS-0770S_SIL;Draft;Sunglasses;Ted Smith;Adults-Unisex;Unisex;;;;Fashion;;2017;58,TDSHSGLS00000246;2490.00;;;;;;;;zerotype;;Summer;;No
1858454;TS-0770S_M.BLK-Grey-1858454;TS-0770S_M.BLK;Draft;Sunglasses;Ted Smith;Adults-Unisex;Unisex;;;;Fashion;;2017;58,TDSHSGLS00000245;2490.00;;;;;;;;zerotype;;Summer;;No
1858453;TS-0770S_GLDPINK-Pink-1858453;TS-0770S_GLDPINK;Draft;Sunglasses;Ted Smith;Adults-Unisex;Unisex;;;;Fashion;;2017;58,TDSHSGLS00000244;2490.00;;;;;;;;zerotype;;Summer;;No
1858452;TS-0770S_GLDGRY-Grey-1858452;TS-0770S_GLDGRY;Draft;Sunglasses;Ted Smith;Adults-Unisex;Unisex;;;;Fashion;;2017;58,TDSHSGLS00000243;2490.00;;;;;;;;zerotype;;Summer;;No
1858451;TS-0770S_GLDBRN-Brown-1858451;TS-0770S_GLDBRN;Draft;Sunglasses;Ted Smith;Adults-Unisex;Unisex;;;;Fashion;;2017;58,TDSHSGLS00000242;2490.00;;;;;;;;zerotype;;Summer;;No
1858450;TS-0770S_GLDBLU-Blue-1858450;TS-0770S_GLDBLU;Draft;Sunglasses;Ted Smith;Adults-Unisex;Unisex;;;;Fashion;;2017;58,TDSHSGLS00000241;2490.00;;;;;;;;zerotype;;Summer;;No
1858449;TS-0770S_GLD-Gold-1858449;TS-0770S_GLD;Draft;Sunglasses;Ted Smith;Adults-Unisex;Unisex;;;;Fashion;;2017;58,TDSHSGLS00000240;2490.00;;;;;;;;zerotype;;Summer;;No
1858448;TS-7999S_C7-BLKBLU-Blue-1858448;TS-7999S_C7-BLKBLU;Draft;Sunglasses;Ted Smith;Adults-Women;Women;;;;Fashion;;2017;55,TDSHSGLS00000239;2890.00;;;;;;;;zerotype;;Summer;;No
1858447;TS-7989S_C7-BLK-Grey-1858447;TS-7989S_C7-BLK;Draft;Sunglasses;Ted Smith;Adults-Women;Women;;;;Fashion;;2017;55,TDSHSGLS00000238;2890.00;;;;;;;;zerotype;;Summer;;No
1858446;TS-7989S_C103-Grey-1858446;TS-7989S_C103;Draft;Sunglasses;Ted Smith;Adults-Women;Women;;;;Fashion;;2017;55,TDSHSGLS00000237;2890.00;;;;;;;;zerotype;;Summer;;No
1858445;TS-7985S_C7-BLK-Grey-1858445;TS-7985S_C7-BLK;Draft;Sunglasses;Ted Smith;Adults-Women;Women;;;;Fashion;;2017;53,TDSHSGLS00000236;2890.00;;;;;;;;zerotype;;Summer;;No
1858444;TS-7985S_C47-Pink-1858444;TS-7985S_C47;Draft;Sunglasses;Ted Smith;Adults-Women;Women;;;;Fashion;;2017;53,TDSHSGLS00000235;2890.00;;;;;;;;zerotype;;Summer;;No
1858443;TS-7981S_C7-BLKSIL-Silver-1858443;TS-7981S_C7-BLKSIL;Draft;Sunglasses;Ted Smith;Adults-Women;Women;;;;Fashion;;2017;53,TDSHSGLS00000234;2890.00;;;;;;;;zerotype;;Summer;;No
1858442;TS-7981S_C7-BLK-Grey-1858442;TS-7981S_C7-BLK;Draft;Sunglasses;Ted Smith;Adults-Women;Women;;;;Fashion;;2017;53,TDSHSGLS00000233;2890.00;;;;;;;;zerotype;;Summer;;No
1858441;TS-7981S_C47-Pink-1858441;TS-7981S_C47;Draft;Sunglasses;Ted Smith;Adults-Women;Women;;;;Fashion;;2017;53,TDSHSGLS00000232;2890.00;;;;;;;;zerotype;;Summer;;No
1858440;TS-7981S_C25-Brown-1858440;TS-7981S_C25;Draft;Sunglasses;Ted Smith;Adults-Women;Women;;;;Fashion;;2017;53,TDSHSGLS00000231;2890.00;;;;;;;;zerotype;;Summer;;No
1858439;TS-7979S_C7-BLKSIL-Silver-1858439;TS-7979S_C7-BLKSIL;Draft;Sunglasses;Ted Smith;Adults-Women;Women;;;;Fashion;;2017;54,TDSHSGLS00000230;2890.00;;;;;;;;zerotype;;Summer;;No
1858438;TS-7979S_C7-BLK-Grey-1858438;TS-7979S_C7-BLK;Draft;Sunglasses;Ted Smith;Adults-Women;Women;;;;Fashion;;2017;54,TDSHSGLS00000229;2890.00;;;;;;;;zerotype;;Summer;;No
1858437;TS-7979S_C54-Silver-1858437;TS-7979S_C54;Draft;Sunglasses;Ted Smith;Adults-Women;Women;;;;Fashion;;2017;54,TDSHSGLS00000228;2890.00;;;;;;;;zerotype;;Summer;;No
1858436;TS-7979S_C47-Pink-1858436;TS-7979S_C47;Draft;Sunglasses;Ted Smith;Adults-Women;Women;;;;Fashion;;2017;54,TDSHSGLS00000227;2890.00;;;;;;;;zerotype;;Summer;;No
1858435;TS-7961S_C7-Purple-1858435;TS-7961S_C7;Draft;Sunglasses;Ted Smith;Adults-Women;Women;;;;Fashion;;2017;55,TDSHSGLS00000226;2890.00;;;;;;;;zerotype;;Summer;;No
1858434;TS-7961S_C54-Grey-1858434;TS-7961S_C54;Draft;Sunglasses;Ted Smith;Adults-Women;Women;;;;Fashion;;2017;55,TDSHSGLS00000225;2890.00;;;;;;;;zerotype;;Summer;;No
1858433;TS-7961S_C24-Brown-1858433;TS-7961S_C24;Draft;Sunglasses;Ted Smith;Adults-Women;Women;;;;Fashion;;2017;55,TDSHSGLS00000224;2890.00;;;;;;;;zerotype;;Summer;;No
1858432;TS-7961S_C159-Brown-1858432;TS-7961S_C159;Draft;Sunglasses;Ted Smith;Adults-Women;Women;;;;Fashion;;2017;55,TDSHSGLS00000223;2890.00;;;;;;;;zerotype;;Summer;;No
1858431;TS-7930S_C7BLKBLU-Blue-1858431;TS-7930S_C7BLKBLU;Draft;Sunglasses;Ted Smith;Adults-Women;Women;;;;Fashion;;2017;53,TDSHSGLS00000222;2890.00;;;;;;;;zerotype;;Summer;;No
1858430;TS-7930S_C7-BLK-Grey-1858430;TS-7930S_C7-BLK;Draft;Sunglasses;Ted Smith;Adults-Women;Women;;;;Fashion;;2017;53,TDSHSGLS00000221;2890.00;;;;;;;;zerotype;;Summer;;No
1858429;TS-7928S_C7-Grey-1858429;TS-7928S_C7;Draft;Sunglasses;Ted Smith;Adults-Women;Women;;;;Fashion;;2017;60,TDSHSGLS00000220;2890.00;;;;;;;;zerotype;;Summer;;No
1858428;TS-7928S_C25-Brown-1858428;TS-7928S_C25;Draft;Sunglasses;Ted Smith;Adults-Women;Women;;;;Fashion;;2017;60,TDSHSGLS00000219;2890.00;;;;;;;;zerotype;;Summer;;No
1858427;TS-7928S_C248-Blue-1858427;TS-7928S_C248;Draft;Sunglasses;Ted Smith;Adults-Women;Women;;;;Fashion;;2017;60,TDSHSGLS00000218;2890.00;;;;;;;;zerotype;;Summer;;No
1858426;TS-7921S_C7-Grey-1858426;TS-7921S_C7;Draft;Sunglasses;Ted Smith;Adults-Women;Women;;;;Fashion;;2017;52,TDSHSGLS00000217;2890.00;;;;;;;;zerotype;;Summer;;No
1858425;TS-7921S_C47-Pink-1858425;TS-7921S_C47;Draft;Sunglasses;Ted Smith;Adults-Women;Women;;;;Fashion;;2017;52,TDSHSGLS00000216;2890.00;;;;;;;;zerotype;;Summer;;No
1858424;TS-79171S_C7-Silver-1858424;TS-79171S_C7;Draft;Sunglasses;Ted Smith;Adults-Women;Women;;;;Fashion;;2017;63,TDSHSGLS00000215;2890.00;;;;;;;;zerotype;;Summer;;No
1858423;TS-79171S_C57-Brown-1858423;TS-79171S_C57;Draft;Sunglasses;Ted Smith;Adults-Women;Women;;;;Fashion;;2017;63,TDSHSGLS00000214;2890.00;;;;;;;;zerotype;;Summer;;No
1858422;TS-79171S_C47-Pink-1858422;TS-79171S_C47;Draft;Sunglasses;Ted Smith;Adults-Women;Women;;;;Fashion;;2017;63,TDSHSGLS00000213;2890.00;;;;;;;;zerotype;;Summer;;No
1858421;TS-79164S_C7-BLKSIL-Silver-1858421;TS-79164S_C7-BLKSIL;Draft;Sunglasses;Ted Smith;Adults-Women;Women;;;;Fashion;;2017;58,TDSHSGLS00000212;2890.00;;;;;;;;zerotype;;Summer;;No
1858420;TS-79164S_C7-BLK-Grey-1858420;TS-79164S_C7-BLK;Draft;Sunglasses;Ted Smith;Adults-Women;Women;;;;Fashion;;2017;58,TDSHSGLS00000211;2890.00;;;;;;;;zerotype;;Summer;;No
1858419;TS-79164S_C103-Grey-1858419;TS-79164S_C103;Draft;Sunglasses;Ted Smith;Adults-Women;Women;;;;Fashion;;2017;58,TDSHSGLS00000210;2890.00;;;;;;;;zerotype;;Summer;;No
1858418;TS-79141S_C7-Grey-1858418;TS-79141S_C7;Draft;Sunglasses;Ted Smith;Adults-Women;Women;;;;Fashion;;2017;52,TDSHSGLS00000209;2890.00;;;;;;;;zerotype;;Summer;;No
1858417;TS-79141S_C311-Brown-1858417;TS-79141S_C311;Draft;Sunglasses;Ted Smith;Adults-Women;Women;;;;Fashion;;2017;52,TDSHSGLS00000208;2890.00;;;;;;;;zerotype;;Summer;;No
1858416;TS-79141S_C197-Pink-1858416;TS-79141S_C197;Draft;Sunglasses;Ted Smith;Adults-Women;Women;;;;Fashion;;2017;52,TDSHSGLS00000207;2890.00;;;;;;;;zerotype;;Summer;;No
1858415;TS-79134S_C7-Grey-1858415;TS-79134S_C7;Draft;Sunglasses;Ted Smith;Adults-Women;Women;;;;Fashion;;2017;62,TDSHSGLS00000206;2890.00;;;;;;;;zerotype;;Summer;;No
1858414;TS-79134S_C25-Brown-1858414;TS-79134S_C25;Draft;Sunglasses;Ted Smith;Adults-Women;Women;;;;Fashion;;2017;62,TDSHSGLS00000205;2890.00;;;;;;;;zerotype;;Summer;;No
1858413;TS-79128S_C92-Blue-1858413;TS-79128S_C92;Draft;Sunglasses;Ted Smith;Adults-Women;Women;;;;Fashion;;2017;52,TDSHSGLS00000204;2890.00;;;;;;;;zerotype;;Summer;;No
1858412;TS-79128S_C7-Silver-1858412;TS-79128S_C7;Draft;Sunglasses;Ted Smith;Adults-Women;Women;;;;Fashion;;2017;52,TDSHSGLS00000203;2890.00;;;;;;;;zerotype;;Summer;;No
1858411;TS-79128S_C47-Pink-1858411;TS-79128S_C47;Draft;Sunglasses;Ted Smith;Adults-Women;Women;;;;Fashion;;2017;52,TDSHSGLS00000202;2890.00;;;;;;;;zerotype;;Summer;;No
1858410;TS-79120S_C7-BLU-Blue-1858410;TS-79120S_C7-BLU;Draft;Sunglasses;Ted Smith;Adults-Unisex;Unisex;;;;Fashion;;2017;54,TDSHSGLS00000201;2890.00;;;;;;;;zerotype;;Summer;;No
1858409;TS-79120S_C7-BLK-Grey-1858409;TS-79120S_C7-BLK;Draft;Sunglasses;Ted Smith;Adults-Unisex;Unisex;;;;Fashion;;2017;54,TDSHSGLS00000200;2890.00;;;;;;;;zerotype;;Summer;;No
1858408;TS-79120S_C29-Brown-1858408;TS-79120S_C29;Draft;Sunglasses;Ted Smith;Adults-Unisex;Unisex;;;;Fashion;;2017;54,TDSHSGLS00000199;2890.00;;;;;;;;zerotype;;Summer;;No
1858407;TS-7912S_C7-Grey-1858407;TS-7912S_C7;Draft;Sunglasses;Ted Smith;Adults-Women;Women;;;;Fashion;;2017;52,TDSHSGLS00000198;2890.00;;;;;;;;zerotype;;Summer;;No
1858406;TS-7912S_C28-Brown-1858406;TS-7912S_C28;Draft;Sunglasses;Ted Smith;Adults-Women;Women;;;;Fashion;;2017;52,TDSHSGLS00000197;2890.00;;;;;;;;zerotype;;Summer;;No
1858405;TS-7911S_C7-Silver-1858405;TS-7911S_C7;Draft;Sunglasses;Ted Smith;Adults-Women;Women;;;;Fashion;;2017;55,TDSHSGLS00000196;2890.00;;;;;;;;zerotype;;Summer;;No
1858404;TS-79108S_C91-Brown-1858404;TS-79108S_C91;Draft;Sunglasses;Ted Smith;Adults-Women;Women;;;;Fashion;;2017;55,TDSHSGLS00000195;2890.00;;;;;;;;zerotype;;Summer;;No
1858403;TS-79108S_C7-Grey-1858403;TS-79108S_C7;Draft;Sunglasses;Ted Smith;Adults-Women;Women;;;;Fashion;;2017;55,TDSHSGLS00000194;2890.00;;;;;;;;zerotype;;Summer;;No
1858402;TS-7909S_C7-BLKSIL-Silver-1858402;TS-7909S_C7-BLKSIL;Draft;Sunglasses;Ted Smith;Adults-Women;Women;;;;Fashion;;2017;51,TDSHSGLS00000193;2890.00;;;;;;;;zerotype;;Summer;;No
1858401;TS-7909S_C7-BLK-Grey-1858401;TS-7909S_C7-BLK;Draft;Sunglasses;Ted Smith;Adults-Women;Women;;;;Fashion;;2017;51,TDSHSGLS00000192;2890.00;;;;;;;;zerotype;;Summer;;No
1858400;TS-7909S_C121-Brown-1858400;TS-7909S_C121;Draft;Sunglasses;Ted Smith;Adults-Women;Women;;;;Fashion;;2017;51,TDSHSGLS00000191;2890.00;;;;;;;;zerotype;;Summer;;No
1858399;TS-7903S_C7-BLK-Grey-1858399;TS-7903S_C7-BLK;Draft;Sunglasses;Ted Smith;Adults-Women;Women;;;;Fashion;;2017;53,TDSHSGLS00000190;2890.00;;;;;;;;zerotype;;Summer;;No
1858398;TS-7903S_C7-1-Silver-1858398;TS-7903S_C7-1;Draft;Sunglasses;Ted Smith;Adults-Women;Women;;;;Fashion;;2017;53,TDSHSGLS00000189;2890.00;;;;;;;;zerotype;;Summer;;No
1858397;TS-7903S_C24-Brown-1858397;TS-7903S_C24;Draft;Sunglasses;Ted Smith;Adults-Women;Women;;;;Fashion;;2017;53,TDSHSGLS00000188;2890.00;;;;;;;;zerotype;;Summer;;No
1858396;TS-1601S_C94-Blue-1858396;TS-1601S_C94;Draft;Sunglasses;Ted Smith;Adults-Women;Women;;;;Fashion;;2017;60,TDSHSGLS00000187;2890.00;;;;;;;;zerotype;;Summer;;No
1858395;TS-1601S_C7-SIL-Silver-1858395;TS-1601S_C7-SIL;Draft;Sunglasses;Ted Smith;Adults-Women;Women;;;;Fashion;;2017;60,TDSHSGLS00000186;2890.00;;;;;;;;zerotype;;Summer;;No
1858394;TS-1601S_C7-Grey-1858394;TS-1601S_C7;Draft;Sunglasses;Ted Smith;Adults-Women;Women;;;;Fashion;;2017;60,TDSHSGLS00000185;2890.00;;;;;;;;zerotype;;Summer;;No
1858393;TS-1601S_C47-Pink-1858393;TS-1601S_C47;Draft;Sunglasses;Ted Smith;Adults-Women;Women;;;;Fashion;;2017;60,TDSHSGLS00000184;2890.00;;;;;;;;zerotype;;Summer;;No
1858392;TS-JS110005_M.BLKGLD-GRN-Green-1858392;TS-JS110005_M.BLKGLD-GRN;Draft;Sunglasses;Ted Smith;Adults-Unisex;Unisex;;;;Fashion;;2017;65,TDSHSGLS00000183;1690.00;;;;;;;;zerotype;;Summer;;No
1858391;TS-JS110005_M.BLKGLD-Purple-1858391;TS-JS110005_M.BLKGLD;Draft;Sunglasses;Ted Smith;Adults-Unisex;Unisex;;;;Fashion;;2017;65,TDSHSGLS00000182;1690.00;;;;;;;;zerotype;;Summer;;No
1858390;TS-J33035-C1-Grey-1858390;TS-J33035-C1;Draft;Sunglasses;Ted Smith;Adults-Women;Women;;;;Fashion;;2017;53,TDSHSGLS00000181;2490.00;;;;;;;;zerotype;;Summer;;No
1858389;TS-G5028_C3-Silver-1858389;TS-G5028_C3;Draft;Sunglasses;Ted Smith;Adults-Unisex;Unisex;;;;Fashion;;2017;52,TDSHSGLS00000180;2490.00;;;;;;;;zerotype;;Summer;;No
1858388;TS-C2140-M.ORNG-Gold-1858388;TS-C2140-M.ORNG;Draft;Sunglasses;Ted Smith;Adults-Unisex;Unisex;;;;Fashion;;2017;52,TDSHSGLS00000179;2490.00;;;;;;;;zerotype;;Summer;;No
1858387;TS-C2140-M.CRYST-Blue-1858387;TS-C2140-M.CRYST;Draft;Sunglasses;Ted Smith;Adults-Unisex;Unisex;;;;Fashion;;2017;52,TDSHSGLS00000178;2490.00;;;;;;;;zerotype;;Summer;;No
1858386;TS-C2140_M.BLU-Blue-1858386;TS-C2140_M.BLU;Draft;Sunglasses;Ted Smith;Adults-Unisex;Unisex;;;;Fashion;;2017;52,TDSHSGLS00000177;2490.00;;;;;;;;zerotype;;Summer;;No
1858385;TS-889-C2-Purple-1858385;TS-889-C2;Draft;Sunglasses;Ted Smith;Adults-Unisex;Unisex;;;;Fashion;;2017;60,TDSHSGLS00000176;2490.00;;;;;;;;zerotype;;Summer;;No
1858384;TS-86709-M.BLK-Purple-1858384;TS-86709-M.BLK;Draft;Sunglasses;Ted Smith;Adults-Unisex;Unisex;;;;Fashion;;2017;59,TDSHSGLS00000175;1890.00;;;;;;;;zerotype;;Summer;;No
1858383;TS-86678-M.BRNDY-Brown-1858383;TS-86678-M.BRNDY;Draft;Sunglasses;Ted Smith;Adults-Unisex;Unisex;;;;Fashion;;2017;62,TDSHSGLS00000174;1890.00;;;;;;;;zerotype;;Summer;;No
1858382;TS-86678-BLK-Purple-1858382;TS-86678-BLK;Draft;Sunglasses;Ted Smith;Adults-Unisex;Unisex;;;;Fashion;;2017;62,TDSHSGLS00000173;2190.00;;;;;;;;zerotype;;Summer;;No
1858381;TS-10197-GUN-Purple-1858381;TS-10197-GUN;Draft;Sunglasses;Ted Smith;Adults-Unisex;Unisex;;;;Fashion;;2017;63,TDSHSGLS00000172;2490.00;;;;;;;;zerotype;;Summer;;No
1832951;TS-PK103_M.BRN-Brown-1832951;TS-PK103_M.BRN;Active;Sunglasses;Ted Smith;Adults-Unisex;Unisex;Brown;;;Fashion;Casual;2017;58,TDSHSGLS00000171;1490.00;Lens colour: Graduated <a href='/brown?src=pd' class='seolink'>brown</a><br />Lens feature: UV-protected lens<br />Frame material: Acetate<br />Frame style: Stylised square full frame<br />Best suited for: Oval <a href='/face?src=pd' class='seolink'>face</a> shape<br />Comes in a signature Ted Smith <a href='/hard-case?src=pd' class='seolink'>hard case</a><br />Warranty: <a href='/1?src=pd' class='seolink'>1</a> month;Keep your style in check with a pair of sleek square sunglasses from Ted Smith.  This brown pair can be matched with slim jeans and a high-quality tee when you're going for a stroll around the park.;Acetate<br />Remove dust and grime by gently wiping the lens with a cloth;Lens width: 58 mm;http://assets.myntassets.com/assets/images/sizechart/2016/4/25/11461584543399-Sunglasses_and_frames_size_chart.jpg;Ted Smith Unisex Square Sunglasses TS-PK103_M;Ted Smith;zerotype;;Summer;P;No
1832949;TS-JS110005_M.BRN-Brown-1832949;TS-JS110005_M.BRN;Active;Sunglasses;Ted Smith;Adults-Unisex;Unisex;Brown;;;Fashion;Casual;2017;65,TDSHSGLS00000170;1690.00;Lens colour: Graduated <a href='/brown?src=pd' class='seolink'>brown</a><br />Lens feature: UV-protected lens<br />Frame material: Acetate and metal<br />Frame style: Round full frame<br />Best suited for: Oval <a href='/face?src=pd' class='seolink'>face</a> shape<br />Comes in a signature Ted Smith <a href='/hard-case?src=pd' class='seolink'>hard case</a><br />Warranty: <a href='/1?src=pd' class='seolink'>1</a> month;Show off your shapely brows when you wear these Ted Smith browline sunglasses.  When you're going out for lunch with your friends, wear this brown piece with slim jeans and a contemporary tee.;Acetate<br />Remove dust and grime by gently wiping the lens with a cloth;Lens width: 65 mm;http://assets.myntassets.com/assets/images/sizechart/2016/4/25/11461584543399-Sunglasses_and_frames_size_chart.jpg;Ted Smith Unisex Clubround Sunglasses TS-JS110005;Ted Smith;zerotype;;Summer;P;No
1832943;TS-C2140-M.PURP-Purple-1832943;TS-C2140-M.PURP;Active;Sunglasses;Ted Smith;Adults-Unisex;Unisex;Brown;;;Fashion;Casual;2017;52,TDSHSGLS00000165;2490.00;Lens colour: Mirrored<br />Lens feature: UV-protected lens<br />Frame material: Acetate<br />Frame style: Square full frame<br />Best suited for: Oval <a href='/face?src=pd' class='seolink'>face</a> shape<br />Comes in a signature Ted Smith <a href='/hard-case?src=pd' class='seolink'>hard case</a><br />Warranty: <a href='/1?src=pd' class='seolink'>1</a> month;Maintain a classy appearance with these in-style wayfarer sunglasses by Ted Smith.  This purple pair can be worn with slim jeans and a fashionable T-shirt when you're going to the beach with your friends.;Acetate<br />Remove dust and grime by gently wiping the lens with a cloth;Lens width: 52 mm;http://assets.myntassets.com/assets/images/sizechart/2016/4/25/11461584543399-Sunglasses_and_frames_size_chart.jpg;Ted Smith Unisex Mirrored Wayfarer Sunglasses TS-C2140-M;Ted Smith;zerotype;;Summer;P;No
