Style ID;Vendor Article Number;Vendor Article Name;Active Status;Article type;Brand;Age Group;Gender;Base Colour;Colour1;Colour2;Fashion Type;Usage;Year;Size - SKU code pair;MRP;Style Description;Style Note;Materials and Care Description;Size and Fit Description;Size Chart Path;Product Display Name;Tags;Product Type;Classification Brand;Season;Comments;Upload Images
1832122;TB0A17GD4101-Black Iris Hammer II-1832122;NAPLES TRAIL PT OX NAVY,FQ;Draft;Casual Shoes;Timberland;Adults-Men;Men;;;;Fashion;;2017;US7.5,TMLDCASH00100917,US8.5,TMLDCASH00100918,US9.5,TMLDCASH00100919,US10.5,TMLDCASH00100920;11199.00;<p>Leather</p>;;;;;;;zerotype;;Summer;;No
1831955;TB0A1JUN3581-Red Brown Oiled-1831955;ADV2.0 CHUKKA BROWN,FQ;Draft;Casual Shoes;Timberland;Adults-Men;Men;;;;Fashion;;2017;US7.5,TMLDCASH00100852,US8.5,TMLDCASH00100853,US9.5,TMLDCASH00100854,US10.5,TMLDCASH00100855,US11.5,TMLDCASH00100856;9699.00;<p>Leather</p>;;;;;;;zerotype;;Summer;;No
1831954;TB0A1JU12311-Burnished Wheat NB-1831954;ADV2.0 CHUKKA WHEAT BRNSH,FQ;Draft;Casual Shoes;Timberland;Adults-Men;Men;;;;Fashion;;2017;US7.5,TMLDCASH00100847,US8.5,TMLDCASH00100848,US9.5,TMLDCASH00100849,US10.5,TMLDCASH00100850,US11.5,TMLDCASH00100851;9699.00;<p>Leather</p>;;;;;;;zerotype;;Summer;;No
1831953;TB0A1JKL9011-Canteen-1831953;KILLINGTON OX OLIVE,FQ;Draft;Casual Shoes;Timberland;Adults-Men;Men;;;;Fashion;;2017;US7.5,TMLDCASH00100842,US8.5,TMLDCASH00100843,US9.5,TMLDCASH00100844,US10.5,TMLDCASH00100845,US11.5,TMLDCASH00100846;9799.00;<p>Canvas</p>;;;;;;;zerotype;;Summer;;No
1831952;TB0A1JKA4101-Navy-1831952;KILLINGTON OX NAVY,FQ;Draft;Casual Shoes;Timberland;Adults-Men;Men;;;;Fashion;;2017;US7.5,TMLDCASH00100838,US8.5,TMLDCASH00100839,US9.5,TMLDCASH00100840,US11.5,TMLDCASH00100841;9799.00;<p>Canvas</p>;;;;;;;zerotype;;Summer;;No
1831951;TB0A1JJC4101-Navy-1831951;KILLINGTON L/F CHK NAVY,FQ;Draft;Casual Shoes;Timberland;Adults-Men;Men;;;;Fashion;;2017;US7.5,TMLDCASH00100833,US8.5,TMLDCASH00100834,US9.5,TMLDCASH00100835,US10.5,TMLDCASH00100836,US11.5,TMLDCASH00100837;11499.00;<p>Leather</p>;;;;;;;zerotype;;Summer;;No
1831950;TB0A1J4H2141-Teak Trailblazer Full Grain-1831950;MT MADDSEN LTHR WP BRN,FQ;Draft;Casual Shoes;Timberland;Adults-Men;Men;;;;Fashion;;2017;US7.5,TMLDCASH00100828,US8.5,TMLDCASH00100829,US9.5,TMLDCASH00100830,US10.5,TMLDCASH00100831,US11.5,TMLDCASH00100832;11199.00;<p>Leather</p>;;;;;;;zerotype;;Summer;;No
1831949;TB0A1HC72311-CNY Wheat Waterbuck-1831949;AF RT WHEAT NUBUCK CNY,FQ;Draft;Casual Shoes;Timberland;Adults-Men;Men;;;;Fashion;;2017;US7.5,TMLDCASH00100823,US8.5,TMLDCASH00100824,US9.5,TMLDCASH00100825,US10.5,TMLDCASH00100826,US11.5,TMLDCASH00100827;11999.00;<p>Leather</p>;;;;;;;zerotype;;Summer;;No
1831948;TB0A1HBW0011-CNY Black Smooth-1831948;AF RT BLACK SMOOTH CNY,FQ;Draft;Casual Shoes;Timberland;Adults-Men;Men;;;;Fashion;;2017;US7.5,TMLDCASH00100818,US8.5,TMLDCASH00100819,US9.5,TMLDCASH00100820,US10.5,TMLDCASH00100821,US11.5,TMLDCASH00100822;11999.00;<p>Leather</p>;;;;;;;zerotype;;Summer;;No
1831947;TB0A1HBV2311-CNY Wheat Waterbuck-1831947;6 IN PREM BT CNY WHEAT,FQ;Draft;Casual Shoes;Timberland;Adults-Men;Men;;;;Fashion;;2017;US8.5,TMLDCASH00100813,US9.5,TMLDCASH00100814,US10.5,TMLDCASH00100815,US11.5,TMLDCASH00100816,US7.5,TMLDCASH00100817;14899.00;<p>Leather</p>;;;;;;;zerotype;;Summer;;No
1831946;TB0A1HBL0011-CNY Black Smooth-1831946;6 IN PREM BT CNY BLACK,FQ;Draft;Casual Shoes;Timberland;Adults-Men;Men;;;;Fashion;;2017;US7.5,TMLDCASH00100808,US8.5,TMLDCASH00100809,US9.5,TMLDCASH00100810,US10.5,TMLDCASH00100811,US11.5,TMLDCASH00100812;14899.00;<p>Leather</p>;;;;;;;zerotype;;Summer;;No
1831945;TB0A1H299311-Potting Soil Eastlook-1831945;PRESTON HILL PT CHKA BRN,FQ;Draft;Casual Shoes;Timberland;Adults-Men;Men;;;;Fashion;;2017;US7.5,TMLDCASH00100803,US8.5,TMLDCASH00100804,US9.5,TMLDCASH00100805,US10.5,TMLDCASH00100806,US11.5,TMLDCASH00100807;13999.00;<p>Leather</p>;;;;;;;zerotype;;Summer;;No
1831944;TB0A1H1X0011-Black Brando-1831944;PRESTON HILL PT CHKA BLK,FQ;Draft;Casual Shoes;Timberland;Adults-Men;Men;;;;Fashion;;2017;US7.5,TMLDCASH00100798,US8.5,TMLDCASH00100799,US9.5,TMLDCASH00100800,US10.5,TMLDCASH00100801,US11.5,TMLDCASH00100802;13999.00;<p>Leather</p>;;;;;;;zerotype;;Summer;;No
1831943;TB0A1GVA0011-Black Spikey Helcor-1831943;6" PREM BOOT HELCOR BLK,FQ;Draft;Casual Shoes;Timberland;Adults-Men;Men;;;;Fashion;;2017;US7,TMLDCASH00100791,US7.5,TMLDCASH00100792,US8.5,TMLDCASH00100793,US9.5,TMLDCASH00100794,US10.5,TMLDCASH00100795,US11.5,TMLDCASH00100796,US12,TMLDCASH00100797;14899.00;<p>Leather</p>;;;;;;;zerotype;;Summer;;No
1831942;TB0A1GUYG251-Running White Spikey Helcor-1831942;6" PREM BOOT HELCOR WHT,FQ;Draft;Casual Shoes;Timberland;Adults-Men;Men;;;;Fashion;;2017;US7.5,TMLDCASH00100786,US8.5,TMLDCASH00100787,US9.5,TMLDCASH00100788,US10.5,TMLDCASH00100789,US11.5,TMLDCASH00100790;14899.00;<p>Leather</p>;;;;;;;zerotype;;Summer;;No
1831941;TB0A1GPY1001-White Helcor Spiky-1831941;ADV2.0CUPALPOX WHISPKHLCR,FQ;Draft;Casual Shoes;Timberland;Adults-Men;Men;;;;Fashion;;2017;US8,TMLDCASH00100784,US9,TMLDCASH00100785;8299.00;<p>Leather</p>;;;;;;;zerotype;;Summer;;No
1831940;TB0A1GFK0191-Black Iris Waterbuck w/Patchwork Collar-1831940;6" PREM RT TPU BOOT BLU,FQ;Draft;Casual Shoes;Timberland;Adults-Men;Men;;;;Fashion;;2017;US7,TMLDCASH00100778,US8,TMLDCASH00100779,US9,TMLDCASH00100780,US10,TMLDCASH00100781,US11,TMLDCASH00100782,US12,TMLDCASH00100783;11999.00;<p>Leather</p>;;;;;;;zerotype;;Summer;;No
1831939;TB0A1GC4F491-Steeple Grey Escape-1831939;6" PREM BROGUE BOOT GRY,FQ;Draft;Casual Shoes;Timberland;Adults-Men;Men;;;;Fashion;;2017;US7.5,TMLDCASH00100773,US8.5,TMLDCASH00100774,US9.5,TMLDCASH00100775,US10.5,TMLDCASH00100776,US11.5,TMLDCASH00100777;16499.00;<p>Leather</p>;;;;;;;zerotype;;Summer;;No
1831938;TB0A1GBSE821-Croissant Escape-1831938;6" PREM BROGUE BOOT BRN,FQ;Draft;Casual Shoes;Timberland;Adults-Men;Men;;;;Fashion;;2017;US7.5,TMLDCASH00100768,US8.5,TMLDCASH00100769,US9.5,TMLDCASH00100770,US10.5,TMLDCASH00100771,US11.5,TMLDCASH00100772;16499.00;<p>Leather</p>;;;;;;;zerotype;;Summer;;No
1831937;TB0A1GAU0931-Flint Grey Waterbuck-1831937;6" PREM BOOT GRY,FQ;Draft;Casual Shoes;Timberland;Adults-Men;Men;;;;Fashion;;2017;US7.5,TMLDCASH00100763,US8.5,TMLDCASH00100764,US9.5,TMLDCASH00100765,US10.5,TMLDCASH00100766,US11.5,TMLDCASH00100767;14899.00;<p>Leather</p>;;;;;;;zerotype;;Summer;;No
1831936;TB0A1FXWD961-Tandori Spice Waterbuck-1831936;6" PREM BOOT RED,FQ;Draft;Casual Shoes;Timberland;Adults-Men;Men;;;;Fashion;;2017;US7.5,TMLDCASH00100760,US8.5,TMLDCASH00100761,US9.5,TMLDCASH00100762;14899.00;<p>Leather</p>;;;;;;;zerotype;;Summer;;No
1831935;TB0A1BHZD801-Silt Green Floral Canvas-1831935;6IN PRM CANVS LT GRN FLWR,FQ;Draft;Casual Shoes;Timberland;Adults-Women;Women;;;;Fashion;;2017;US6.5,TMLDCASH00100756,US7.5,TMLDCASH00100757,US8.5,TMLDCASH00100758,US9.5,TMLDCASH00100759;11199.00;<p>Canvas</p>;;;;;;;zerotype;;Summer;;No
1831934;TB0A1BGY9321-Rubber Hammer II-1831934;NAPLES TRAIL CHKA BRN,FQ;Draft;Casual Shoes;Timberland;Adults-Men;Men;;;;Fashion;;2017;US7.5,TMLDCASH00100751,US8.5,TMLDCASH00100752,US9.5,TMLDCASH00100753,US10.5,TMLDCASH00100754,US11.5,TMLDCASH00100755;11999.00;<p>Leather</p>;;;;;;;zerotype;;Summer;;No
1831933;TB0A1BBLE821-Croissant Waterbuck-1831933;6" PREM BOOT BRN,FQ;Draft;Casual Shoes;Timberland;Adults-Men;Men;;;;Fashion;;2017;US7.5,TMLDCASH00100746,US8.5,TMLDCASH00100747,US9.5,TMLDCASH00100748,US10.5,TMLDCASH00100749,US11.5,TMLDCASH00100750;14899.00;<p>Leather</p>;;;;;;;zerotype;;Summer;;No
1831932;TB0A19892311-Wheat Nubuck-1831932;BRADST CHKKA WHT,FQ;Draft;Casual Shoes;Timberland;Adults-Men;Men;;;;Fashion;;2017;US7,TMLDCASH00100740,US8,TMLDCASH00100741,US9,TMLDCASH00100742,US10,TMLDCASH00100743,US11,TMLDCASH00100744,US12,TMLDCASH00100745;10499.00;<p>Leather</p>;;;;;;;zerotype;;Summer;;No
1831931;TB0A15AL0011-Blackout-1831931;KILLINGTON OX BLACKOUT,FQ;Draft;Casual Shoes;Timberland;Adults-Men;Men;;;;Fashion;;2017;US7.5,TMLDCASH00100735,US8.5,TMLDCASH00100736,US9.5,TMLDCASH00100737,US10.5,TMLDCASH00100738,US11.5,TMLDCASH00100739;9799.00;<p>Canvas</p>;;;;;;;zerotype;;Summer;;No
1831930;TB0A13H34101-Black Iris Nubuck-1831930;BRADSTREET CHUKKA NAVY,FQ;Draft;Casual Shoes;Timberland;Adults-Men;Men;;;;Fashion;;2017;US7,TMLDCASH00100731,US8,TMLDCASH00100732,US9,TMLDCASH00100733,US10,TMLDCASH00100734;10499.00;<p>Leather</p>;;;;;;;zerotype;;Summer;;No
1831929;TB0755100011-BURNISHED BLACK-1831929;WODEHOUSE PTC BLACK,FQ;Draft;Casual Shoes;Timberland;Adults-Men;Men;;;;Fashion;;2017;US8,TMLDCASH00100726,US9,TMLDCASH00100727,US10,TMLDCASH00100728,US11,TMLDCASH00100729,US12,TMLDCASH00100730;21599.00;<p>Leather</p>;;;;;;;zerotype;;Summer;;No
1831928;TB0755080011-BURNISHED BLACK-1831928;WODEHOUSE CTO BLACK,FQ;Draft;Casual Shoes;Timberland;Adults-Men;Men;;;;Fashion;;2017;US8,TMLDCASH00100721,US9,TMLDCASH00100722,US10,TMLDCASH00100723,US11,TMLDCASH00100724,US12,TMLDCASH00100725;18699.00;<p>Leather</p>;;;;;;;zerotype;;Summer;;No
1831927;TB06635A0011-Black Nubuck with Cordura-1831927;BASIC ROLL TOP BLACK NB,FQ;Draft;Casual Shoes;Timberland;Adults-Men;Men;;;;Fashion;;2017;US7,TMLDCASH00100714,US7.5,TMLDCASH00100715,US8.5,TMLDCASH00100716,US9.5,TMLDCASH00100717,US10.5,TMLDCASH00100718,US11.5,TMLDCASH00100719,US12,TMLDCASH00100720;10499.00;<p>Leather</p>;;;;;;;zerotype;;Summer;;No
1831926;TB06634A2311-Wheat Nubuck with Cordura-1831926;BASIC ROLL TOP WHEAT NB,FQ;Draft;Casual Shoes;Timberland;Adults-Men;Men;;;;Fashion;;2017;US7,TMLDCASH00100707,US7.5,TMLDCASH00100708,US8.5,TMLDCASH00100709,US9.5,TMLDCASH00100710,US10.5,TMLDCASH00100711,US11.5,TMLDCASH00100712,US12,TMLDCASH00100713;10499.00;<p>Leather</p>;;;;;;;zerotype;;Summer;;No
1829070;GCRMGCOSAA0138-Beige-1829070;GCRMGCOSAA0138gocoop;QC Reject;Traditional Sari;gocoop;Adults-Women;Women;;;;Fashion;;2017;Onesize,GCOPTDSR00000986;3009.00;;;<p>Dry clean only</p>;;;;;zerotype;;Summer;Onhold Sample requested;No
1823504;1028721-Blue-1823504;WELHOME Amentiri Double Bed sheet 2 Pillow;QC Reject;Bedsheets;WELHOME;Adults-Unisex;Unisex;Blue;;;Core;Home;2017;Double,WLHEBDST00000241;2199.00;;;<p>Machine wash separately in warm water. Gentle cycle tumble dry low. Do not iron. Do not dry clean.</p>;<p>Bedsht 229cmx274cm , PlwCovr46cmx68cm</p>;;;;zerotype;;Summer;Onhold Sample requested;No
1823503;1028720-Red-1823503;WELHOME Amentiri Double Bed sheet 2 Pillow;QC Reject;Bedsheets;WELHOME;Adults-Unisex;Unisex;Red;;;Core;Home;2017;Double,WLHEBDST00000240;2199.00;;;<p>Machine wash separately in warm water. Gentle cycle tumble dry low. Do not iron. Do not dry clean.</p>;<p>Bedsht 229cmx274cm , PlwCovr 46cmx68cm</p>;;;;zerotype;;Summer;Onhold Sample requested;No
1823502;1028719-Pink-1823502;WELHOME Amentiri Double Bed sheet 2 Pillow;QC Reject;Bedsheets;WELHOME;Adults-Unisex;Unisex;Pink;;;Core;Home;2017;Double,WLHEBDST00000239;2199.00;;;<p>Machine wash separately in warm water. Gentle cycle tumble dry low. Do not iron. Do not dry clean.</p>;<p>Bedsht 229 cmx274cm , PlwCovr46cmx68cm</p>;;;;zerotype;;Summer;Onhold Sample requested;No
1823501;1028718-Orange-1823501;WELHOME Amentiri Double Bed sheet 2 Pillow;QC Reject;Bedsheets;WELHOME;Adults-Unisex;Unisex;Orange;;;Core;Home;2017;Double,WLHEBDST00000238;2199.00;;;<p>Machine wash separately in warm water. Gentle cycle tumble dry low. Do not iron. Do not dry clean.</p>;<p>Bedsht 229cmx274cm , PlwCovr46cmx68cm</p>;;;;zerotype;;Summer;Onhold Sample requested;No
1823500;1026926-Blue-1823500;SPACES Allure Blue Bed sheet 2 Pillow Cove;QC Reject;Bedsheets;SPACES;Adults-Unisex;Unisex;Blue;;;Core;Home;2017;Double,SPCSBDST00000602;1495.00;;;<p>Machine wash separately with like Colors, Tumble dry at low temperature, Do not bleach or iron</p>;<p>Bedsht 223cmx254cm, PlwCovr43cmx68cm</p>;;;;zerotype;;Summer;Onhold Sample requested;No
1823498;1026928-Violet-1823498;SPACES Allure Violet Double Bed sheet 2 Pi;QC Reject;Bedsheets;SPACES;Adults-Unisex;Unisex;Purple;;;Core;Home;2017;Double,SPCSBDST00000600;1495.00;;;<p>Machine wash separately with like Colors, Tumble dry at low temperature, Do not bleach or iron</p>;<p>Bedsht 223cmx254cm , PlwCovr43cmx68cm</p>;;;;zerotype;;Summer;Onhold Sample requested;No
1823497;1026466-Lime Green-1823497;WELHOME Cloudz Double Bedsheet 2 Pillow Co;QC Reject;Bedsheets;WELHOME;Adults-Unisex;Unisex;Multi;;;Core;Home;2017;Double,WLHEBDST00000237;799.00;;;<p>Machine wash seperately with like colors, Tumble dry at low temperature, Do not bleach or iron</p>;<p>Bedsht 224cmx254cm, PlwCovr 43cmx68cm</p>;;;;zerotype;;Summer;Onhold Sample requested;No
1823047;CCMYSS1445-Green-1823047;The Chennai Silks - Kanchipuram Silk Saree;QC Reject;Traditional Sari;The Chennai Silks;Adults-Women;Women;;;;Fashion;;2017;Onesize,CHNSTDSR00000908;4099.00;;;<p>Washing Instructions: Dry Clean only. Color May vary Slightly Due to Photographic Lighting and Screen Resolution </p>;;;;;zerotype;;Summer;Onhold Sample requested;No
1823008;CCMYSS1405-Red-1823008;The Chennai Silks - Kanchipuram Art Silk S;QC Reject;Traditional Sari;The Chennai Silks;Adults-Women;Women;;;;Fashion;;2017;Onesize,CHNSTDSR00000869;1499.00;;;<p>Washing Instructions: Dry Clean only. Color May vary Slightly Due to Photographic Lighting and Screen Resolution </p>;;;;;zerotype;;Summer;Onhold Sample requested;No
1822988;CCMYSC1383-Navy Blue-1822988;The Chennai Silks - Arani Silk Cotton Sare;QC Reject;Traditional Sari;The Chennai Silks;Adults-Women;Women;;;;Fashion;;2017;Onesize,CHNSTDSR00000849;3995.00;;;<p>Washing Instructions: Dry Clean only. Color May vary Slightly Due to Photographic Lighting and Screen Resolution </p>;;;;;zerotype;;Summer;Onhold Sample requested;No
1822954;CCMYFA1314-Mustard-1822954;The Chennai Silks - Banglore Printed Crepe;QC Reject;Printed Sari;The Chennai Silks;Adults-Women;Women;;;;Fashion;;2017;Onesize,CHNSPTSR00000044;1699.00;;;<p>Washing Instructions: Dry Clean only. Color May vary Slightly Due to Photographic Lighting and Screen Resolution </p>;;;;;zerotype;;Summer;Onhold Sample requested;No
1822942;CCMYFA1302-Blue-1822942;The Chennai Silks - Banglore Printed Crepe;QC Reject;Printed Sari;The Chennai Silks;Adults-Women;Women;;;;Fashion;;2017;Onesize,CHNSPTSR00000032;1699.00;;;<p>Washing Instructions: Dry Clean only. Color May vary Slightly Due to Photographic Lighting and Screen Resolution </p>;;;;;zerotype;;Summer;Onhold Sample requested;No
1822940;CCMYFA1300-Mustard-1822940;The Chennai Silks - Banglore Printed Crepe;QC Reject;Printed Sari;The Chennai Silks;Adults-Women;Women;;;;Fashion;;2017;Onesize,CHNSPTSR00000030;1699.00;;;<p>Washing Instructions: Dry Clean only. Color May vary Slightly Due to Photographic Lighting and Screen Resolution </p>;;;;;zerotype;;Summer;Onhold Sample requested;No
1822923;CCMYFA1283-Green-1822923;The Chennai Silks - Banglore Printed Crepe;QC Reject;Printed Sari;The Chennai Silks;Adults-Women;Women;;;;Fashion;;2017;Onesize,CHNSPTSR00000013;1699.00;;;<p>Washing Instructions: Dry Clean only. Color May vary Slightly Due to Photographic Lighting and Screen Resolution </p>;;;;;zerotype;;Summer;Onhold Sample requested;No
1822914;CCMYFA1274-Orange-1822914;The Chennai Silks - Banglore Printed Crepe;QC Reject;Printed Sari;The Chennai Silks;Adults-Women;Women;;;;Fashion;;2017;Onesize,CHNSPTSR00000004;1699.00;;;<p>Washing Instructions: Dry Clean only. Color May vary Slightly Due to Photographic Lighting and Screen Resolution </p>;;;;;zerotype;;Summer;Onhold Sample requested;No
1822895;CCMYFS1507-Pink-1822895;The Chennai Silks - Organza Saree Stone Wo;QC Reject;Embellished Saree;The Chennai Silks;Adults-Women;Women;;;;Fashion;;2017;Onesize,CHNSEBSR00000183;2699.00;;;<p>Washing Instructions: Dry Clean only. Color May vary Slightly Due to Photographic Lighting and Screen Resolution </p>;;;;;zerotype;;Summer;Onhold Sample requested;No
1822894;CCMYFS1506-Yellow-1822894;The Chennai Silks - Organza Saree Stone Wo;QC Reject;Embellished Saree;The Chennai Silks;Adults-Women;Women;;;;Fashion;;2017;Onesize,CHNSEBSR00000182;2699.00;;;<p>Washing Instructions: Dry Clean only. Color May vary Slightly Due to Photographic Lighting and Screen Resolution </p>;;;;;zerotype;;Summer;Onhold Sample requested;No
1822891;CCMYFS1503-Orange-1822891;The Chennai Silks - Organza Saree Stone Wo;QC Reject;Embellished Saree;The Chennai Silks;Adults-Women;Women;;;;Fashion;;2017;Onesize,CHNSEBSR00000179;2699.00;;;<p>Washing Instructions: Dry Clean only. Color May vary Slightly Due to Photographic Lighting and Screen Resolution </p>;;;;;zerotype;;Summer;Onhold Sample requested;No
1822882;CCMYFS1494-Green-1822882;The Chennai Silks - Rawsilk Saree Metal St;QC Reject;Embellished Saree;The Chennai Silks;Adults-Women;Women;;;;Fashion;;2017;Onesize,CHNSEBSR00000170;1499.00;;;<p>Washing Instructions: Dry Clean only. Color May vary Slightly Due to Photographic Lighting and Screen Resolution </p>;;;;;zerotype;;Summer;Onhold Sample requested;No
1816927;GCAMBSCSAA0116-navy blue-1816927;GCAMBSCSAA0116gocoop;QC Reject;Traditional Sari;gocoop;Adults-Women;Women;;;;Fashion;;2017;Onesize,GCOPTDSR00000737;2609.00;;;;;;;;zerotype;;Summer;Onhold Sample requested;No
1816926;GCAMBSCSAA0115-mauve-1816926;GCAMBSCSAA0115gocoop;QC Reject;Traditional Sari;gocoop;Adults-Women;Women;;;;Fashion;;2017;Onesize,GCOPTDSR00000736;2609.00;;;;;;;;zerotype;;Summer;Onhold Sample requested;No
1816925;GCAMBSCSAA0114-khaki-1816925;GCAMBSCSAA0114gocoop;QC Reject;Traditional Sari;gocoop;Adults-Women;Women;;;;Fashion;;2017;Onesize,GCOPTDSR00000735;2609.00;;;;;;;;zerotype;;Summer;Onhold Sample requested;No
1816917;GCASHSCSAA0107-Green-1816917;GCASHSCSAA0107gocoop;QC Reject;Traditional Sari;gocoop;Adults-Women;Women;;;;Fashion;;2017;Onesize,GCOPTDSR00000727;3859.00;;;;;;;;zerotype;;Summer;Onhold Sample requested;No
1816875;GCHANSCSAA0138-Pink-1816875;GCHANSCSAA0138gocoop;QC Reject;Traditional Sari;gocoop;Adults-Women;Women;;;;Fashion;;2017;Onesize,GCOPTDSR00000685;4169.00;;;;;;;;zerotype;;Summer;Onhold Sample requested;No
1816825;GCNALCOSAA0145-Magenta-1816825;GCNALCOSAA0145gocoop;QC Reject;Traditional Sari;gocoop;Adults-Women;Women;;;;Fashion;;2017;Onesize,GCOPTDSR00000635;2509.00;;;;;;;;zerotype;;Summer;Onhold Sample requested;No
1816809;GCNALCOSAA0129-Pink-1816809;GCNALCOSAA0129gocoop;QC Reject;Traditional Sari;gocoop;Adults-Women;Women;;;;Fashion;;2017;Onesize,GCOPTDSR00000619;2299.00;;;;;;;;zerotype;;Summer;Onhold Sample requested;No
1816776;GCDBKCOSAA0133-Charcoal-1816776;GCDBKCOSAA0133gocoop;QC Reject;Traditional Sari;gocoop;Adults-Women;Women;;;;Fashion;;2017;Onesize,GCOPTDSR00000586;1049.00;;;<p>Dry clean only</p>;;;;;zerotype;;Summer;Onhold Sample requested;No
1816409;Chrome D1 Decor D1 White N4-Large-White/Yellow-1816409;Chrome D1 Decor D1 White N4;QC Reject;Helmets;Studds;Adults-Men;Men;;;;Fashion;;2017;L,SUDSHLMT00000095;1050.00;;;<p>Full Face</p>;<p>Graphic Print</p>;http://assets.myntassets.com/assets/images/sizechart/2016/10/20/11476951800195-Helmets_size_chart.jpg;;;zerotype;;Spring;Onhold Sample requested;No
1816353;Shifter D8 Matt Black N4-Extra Large-Grey-1816353;Shifter D8 Matt Black N4;QC Reject;Helmets;Studds;Adults-Men;Men;;;;Fashion;;2017;L,SUDSHLMT00000042,XL,SUDSHLMT00000043;2165.00;;;<p>Full Face</p>;<p>Graphic Print</p>;http://assets.myntassets.com/assets/images/sizechart/2016/10/20/11476951800195-Helmets_size_chart.jpg;;;zerotype;;Spring;Onhold Sample requested;No
1816337;Shifter D8 Matt Black N1-Extra Large-Blue-1816337;Shifter D8 Matt Black N1;QC Reject;Helmets;Studds;Adults-Men;Men;;;;Fashion;;2017;L,SUDSHLMT00000027,XL,SUDSHLMT00000028;2165.00;;;<p>Full Face</p>;<p>Graphic Print</p>;http://assets.myntassets.com/assets/images/sizechart/2016/10/20/11476951800195-Helmets_size_chart.jpg;;;zerotype;;Spring;Onhold Sample requested;No
1816324;Downtown Full Face Black-Large-Black-1816324;Downtown Full Face Black;QC Reject;Helmets;Studds;Adults-Men;Men;;;;Fashion;;2017;L,SUDSHLMT00000013;1895.00;;;<p>Full Face</p>;<p>Solid</p>;http://assets.myntassets.com/assets/images/sizechart/2016/10/20/11476951800195-Helmets_size_chart.jpg;;;zerotype;;Spring;Onhold Sample requested;No
1816251;TBS17TSK163-Aqua-1816251;BOY'S T-SHIRT;QC Reject;Tshirts;Indian Terrain;Kids-Boys;Boys;;;;;;;EL,INTRTSHT00105190,EEL,INTRTSHT00105191;899.00;;;;;;;;zerotype;;;Onhold Sample requested;No
1816250;TBS17TSK163-Aqua-1816250;BOY'S T-SHIRT;QC Reject;Tshirts;Indian Terrain;Kids-Boys;Boys;;;;;;;S,INTRTSHT00105188,M,INTRTSHT00105189;799.00;;;;;;;;zerotype;;;Onhold Sample requested;No
1816222;TBS17TSK134-Gold-1816222;BOY'S T-SHIRT;QC Reject;Tshirts;Indian Terrain;Kids-Boys;Boys;;;;;;;S,INTRTSHT00105097,M,INTRTSHT00105098;699.00;;;;;;;;zerotype;;;Onhold Sample requested;No
1816220;TBS17TSK134-Gasoline-1816220;BOY'S T-SHIRT;QC Reject;Tshirts;Indian Terrain;Kids-Boys;Boys;;;;Fashion;;2017;S,INTRTSHT00105091,M,INTRTSHT00105092,EES,INTRTSHT00105093;699.00;<p>Cotton</p>;;;;;;;zerotype;;Summer;Onhold Sample requested;No
1816158;TBS17TSK102-Prussian-1816158;BOY'S T-SHIRT;QC Reject;Tshirts;Indian Terrain;Kids-Boys;Boys;;;;;;;S,INTRTSHT00104880,EES,INTRTSHT00104881;899.00;;;;;;;;zerotype;;;Onhold Sample requested;No
1808818;CG0741-MGSOGR-1808818;STADIUM PANT;QC Reject;Track Pants;Adidas;Adults-Women;Women;Grey;;;Fashion;Sports;2017;L,ADDSTRPT00102615,S,ADDSTRPT00102616,XL,ADDSTRPT00102617,XS,ADDSTRPT00102618,M,ADDSTRPT00102619;2999.00;A pair of grey knitted mid-rise track pants with flecked effect, has an elasticated waistband, three pockets cuffed hems<br />Warranty: 3 months from the date of purchase against manufacturing defects;This pair of stylish track pants is a piece that you are going to love for the comfort and free movement it offers. Team it up with a sports bra or a crop top and sports shoes for a casual look;67% cotton, 33% polyester<br />Machine-wash warm;Mid-rise<br />The model (height 5'8'') is wearing a size 28;;Adidas Grey Melange Stadium Track Pants;Adidas;zerotype;;Summer;Onhold Sample requested;No
1808693;BR9936-BLACK-1808693;ESS AOP PKT T;QC Reject;Tshirts;Adidas;Adults-Men;Men;;;;Fashion;;2017;L,ADDSTSHT00115403,XL,ADDSTSHT00115404,XXL,ADDSTSHT00115405,S,ADDSTSHT00115406,M,ADDSTSHT00115407;1399.00;<p>Polyester</p>;;;;;;;zerotype;;Summer;Onhold Sample requested;No
1808299;MBWT0283-WHITE-1808299;WOMENS WESTERN WEAR  TOP;Draft;Tops;Ms.Taken;Adults-Women;Women;;;;Fashion;;2017;XS,MTENTOPS00001509,S,MTENTOPS00001510,M,MTENTOPS00001511,L,MTENTOPS00001512,XL,MTENTOPS00001513;1299.00;;;;;;;;zerotype;;Spring;;No
1807715;USTS5496-BLUE-1807715;TSHIRT DENIM BLUE;QC Reject;Tshirts;U.S. Polo Assn.;Adults-Men;Men;;;;Fashion;;2017;L,USPOTSHT00005602,S,USPOTSHT00005603,XL,USPOTSHT00005604,XXL,USPOTSHT00005605,M,USPOTSHT00005606;1899.00;<p>Cotton</p>;;;;;;uspa-true-indigo,uspa-ss17-all;zerotype;;Summer;Onhold Sample requested;No
1807696;USTS5427-BLUE-1807696;TSHIRT DENIM BLUE;QC Reject;Tshirts;U.S. Polo Assn.;Adults-Men;Men;;;;Fashion;;2017;L,USPOTSHT00005507,S,USPOTSHT00005508,XL,USPOTSHT00005509,XXL,USPOTSHT00005510,M,USPOTSHT00005511;1299.00;<p>Cotton</p>;;;;;;uspa-true-indigo,uspa-ss17-all;zerotype;;Summer;Onhold Sample requested;No
1807659;USTS5350-Yellow-1807659;TSHIRT SAMOAN SUN MELANGE;QC Reject;Tshirts;U.S. Polo Assn.;Adults-Men;Men;;;;Fashion;;2017;L,USPOTSHT00005320,S,USPOTSHT00005321,XL,USPOTSHT00005322,XXL,USPOTSHT00005323,M,USPOTSHT00005324;1999.00;<p>Cotton</p>;;;;;;uspa-ss17-all;zerotype;;Summer;Onhold Sample requested;No
1807495;USSH5101-WHITE-1807495;WHITE MENS SHIRT;QC Reject;Shirts;U.S. Polo Assn.;Adults-Men;Men;;;;Fashion;;2017;3XL,USPOSHRT00006401,L,USPOSHRT00006402,S,USPOSHRT00006403,XL,USPOSHRT00006404,XXL,USPOSHRT00006405,M,USPOSHRT00006406;1899.00;<p>Cotton</p>;;;;;;uspa-polo-club,uspa-ss17-all;zerotype;;Summer;Onhold Sample requested;No
1807254;MBSK0363-BLACK-1807254;WOMENS WESTERN WEAR  OTHERS;Draft;Skirts;Ms.Taken;Adults-Women;Women;;;;Fashion;;2017;XS,MTENSKRT00000131,S,MTENSKRT00000132,M,MTENSKRT00000133,L,MTENSKRT00000134,XL,MTENSKRT00000135;1099.00;;;;;;;;zerotype;;Spring;;No
1807252;MBSK0101-NUDE-1807252;WOMENS WESTERN WEAR  OTHERS;Draft;Skirts;Ms.Taken;Adults-Women;Women;;;;Fashion;;2017;XS,MTENSKRT00000121,S,MTENSKRT00000122,M,MTENSKRT00000123,L,MTENSKRT00000124,XL,MTENSKRT00000125;1799.00;;;;;;;;zerotype;;Spring;;No
1797755;110026158-NAVY-CORAL-1797755;110026158NAVY-CORAL;QC Reject;Tshirts;Honey by Pantaloons;Adults-Women;Women;Navy Blue;Coral;;Core;Casual;2017;2XL,AJLETSHT00003242,L,AJLETSHT00003243,M,AJLETSHT00003244,S,AJLETSHT00003245,XL,AJLETSHT00003246;599.00;Navy blue and coral printed cropped T-shirt, each has a round neck, short sleeves;Show off your casual side with this comfortable and chic Honey by Pantaloons tee.  Pair this coral piece with slim jeans and canvas shoes when you're going out for ice cream with your friends.;100% cotton <br />Machine-wash;The model (height 5'8") is wearing a size S;;Honey by Pantaloons Women Women Pack Of Two Printed T-Shirt;Honey by Pantaloons;zerotype;;Spring;Product mismatch;No
1797752;110025918-RED-GREY MELANGE-1797752;110025918RED-GREY MELANGE;QC Reject;Tshirts;Honey by Pantaloons;Adults-Women;Women;Grey Melange;Red;;Core;Casual;2017;2XL,AJLETSHT00003237,L,AJLETSHT00003238,M,AJLETSHT00003239,S,AJLETSHT00003240,XL,AJLETSHT00003241;599.00;Grey melange and red printed cropped T-shirt, each has a round neck, short sleeves;Show off your casual side with this comfortable and chic Honey by Pantaloons tee.  Pair this coral piece with slim jeans and canvas shoes when you're going out for ice cream with your friends.;86% cotton, 14% polyester<br />Machine-wash;The model (height 5'8") is wearing a size S;;Honey by Pantaloons Women Pack Of Two Printed T-Shirt;Honey by Pantaloons;zerotype;;Spring;Product mismatch;No
1796579;XMTT02180-O8-Brown-1796579;Trousers;Draft;Trousers;Parx;Adults-Men;Men;Brown;;;Fashion;;2016;30,PARXTRSR00001408,32,PARXTRSR00001409,34,PARXTRSR00001410,36,PARXTRSR00001411,38,PARXTRSR00001412;2099.00;;;<p>PATCH BK PKT TROUSER IN SLIM TAPERED FIT</p>;;;;;zerotype;;Winter;;No
1796543;RMTX02159-B7-Blue-1796543;Trousers;Draft;Trousers;Raymond;Adults-Men;Men;Blue;;;Fashion;;2016;100,RYMDTRSR00001654,76,RYMDTRSR00001655,82,RYMDTRSR00001656,86,RYMDTRSR00001657,92,RYMDTRSR00001658,96,RYMDTRSR00001659;2399.00;;;<p>Basic Flat Frnt -Contemporary Fit</p>;;;;;zerotype;;Winter;;No
1796466;PMTF04653-G6-Grey-1796466;Trousers;Draft;Trousers;Park Avenue;Adults-Men;Men;Grey;;;Fashion;;2016;100,PKAVTRSR00003937,82,PKAVTRSR00003938,86,PKAVTRSR00003939,92,PKAVTRSR00003940;1899.00;;;<p>Flat front cross pocket super slim fit</p>;;;;;zerotype;;Winter;;No
1795713;RCHX00021-R5-Red-1795713;Shorts;Draft;Shorts;Raymond;Adults-Men;Men;Red;;;Fashion;;2015;100,RYMDSHOR00000012,76,RYMDSHOR00000013,82,RYMDSHOR00000014,86,RYMDSHOR00000015,92,RYMDSHOR00000016,96,RYMDSHOR00000017;2099.00;;;<p>GOLF SHORTS-CONTP FIT</p>;;;;;zerotype;;Winter;;No
1795363;VV698S-Pink-1795363;Pink Satin Printed Maxi;QC Reject;Dresses;VVINE;Adults-Women;Women;;;;Fashion;;2017;L,VVNEDRSS00000714,M,VVNEDRSS00000715,XL,VVNEDRSS00000716,XS,VVNEDRSS00000717,S,VVNEDRSS00000718;1549.00;<p>Blended</p>;;;;;;;zerotype;;Summer;Onhold Sample requested;No
1794893;110024082006-GREEN-1794893;110024082GREEN;Draft;Tshirts;SF JEANS by Pantaloons;Adults-Men;Men;;;;Fashion;;2017;XS,SJBPTSHT00001119,S,SJBPTSHT00001120,L,SJBPTSHT00001121,XL,SJBPTSHT00001122,2XL,SJBPTSHT00001123;599.00;<p>Cotton</p>;;;;;;;zerotype;;Spring;;No
1794890;110024077012-LIGHT BLUE-1794890;110024077LIGHT BLUE;Draft;Tshirts;SF JEANS by Pantaloons;Adults-Men;Men;;;;Fashion;;2017;XS,SJBPTSHT00001114,S,SJBPTSHT00001115,L,SJBPTSHT00001116,XL,SJBPTSHT00001117,2XL,SJBPTSHT00001118;699.00;<p>Cotton</p>;;;;;;;zerotype;;Spring;;No
1791731;50010886834006-BLUE-1791731;PJNML-M-OS92522-4171, 44, BLUE;QC Reject;Shirts;John Miller;Adults-Men;Men;;;;Fashion;;2017;39,JHMISHRT00101253,42,JHMISHRT00101254,44,JHMISHRT00101255;1199.00;<p>Cotton</p>;;;;;;;zerotype;;Summer;Onhold Sample requested;No
1791730;50010886833006-RED-1791730;PJNML-M-OS92512-4171, 44, RED;QC Reject;Shirts;John Miller;Adults-Men;Men;;;;Fashion;;2017;39,JHMISHRT00101250,42,JHMISHRT00101251,44,JHMISHRT00101252;1199.00;<p>Cotton</p>;;;;;;;zerotype;;Summer;Onhold Sample requested;No
1791715;50010875539004-YELLOW-1791715;PJHMH-M-VS07642-4171, 44, YELLOW;QC Reject;Shirts;John Miller Hangout;Adults-Men;Men;;;;Fashion;;2017;39,JMHTSHRT00000281,42,JMHTSHRT00000282,44,JMHTSHRT00000283;1299.00;<p>Cotton</p>;;;;;;;zerotype;;Summer;Onhold Sample requested;No
1791565;50010395832005-BLUE-1791565;PINNA-M-ISE6792-16A1, 44, BLUE;QC Reject;Shirts;Indigo Nation;Adults-Men;Men;;;;Fashion;;2017;39,INNASHRT00101454,40,INNASHRT00101455,42,INNASHRT00101456,44,INNASHRT00101457;1399.00;<p>Cotton</p>;;;;;;;zerotype;;Summer;Onhold Sample requested;No
1790410;201831-22Y-M9W11-Espresso/Khaki-1790410;CitiLane Clog;QC Reject;Clogs;Crocs;Adults-Unisex;Unisex;Brown;;;Fashion;;2017;M10W12,CROCCLGS00000942,M11,CROCCLGS00000943,M8W10,CROCCLGS00000944,M9W11,CROCCLGS00000945;2995.00;;;<p>Croslite</p>;;;;;zerotype;;Summer;Onhold Sample requested;No
1785744;50010877784005-PINK-1785744;PURBA-M-US40112-4171, 46, PINK;QC Reject;Shirts;Urbana;Adults-Men;Men;;;;Fashion;;2017;39,URBNSHRT00000372,40,URBNSHRT00000373,42,URBNSHRT00000374,44,URBNSHRT00000375,46,URBNSHRT00000376;1999.00;<p>Cotton</p>;;;;;;;zerotype;;Summer;Onhold Sample requested;No
1785743;50010877783006-BEIGE-1785743;PURBA-M-US40102-4171, 44, BEIGE;QC Reject;Shirts;Urbana;Adults-Men;Men;;;;Fashion;;2017;39,URBNSHRT00000366,40,URBNSHRT00000367,41,URBNSHRT00000368,42,URBNSHRT00000369,43,URBNSHRT00000370,44,URBNSHRT00000371;1999.00;<p>Cotton</p>;;;;;;;zerotype;;Summer;Onhold Sample requested;No
1785735;50010876711005-WHITE-1785735;PURBA-S-US39842-4171, 46, WHITE;QC Reject;Shirts;Urbana;Adults-Men;Men;;;;Fashion;;2017;39,URBNSHRT00000328,40,URBNSHRT00000329,42,URBNSHRT00000330,44,URBNSHRT00000331,46,URBNSHRT00000332;2199.00;<p>Cotton</p>;;;;;;;zerotype;;Summer;Onhold Sample requested;No
1784761;LYSH315S06284-Light blue Solid-1784761;Shirt;QC Reject;Shirts;Louis Philippe Sport;Adults-Men;Men;;;;Fashion;;2017;42,LSPSSHRT00002385,39,LSPSSHRT00002386,40,LSPSSHRT00002387;2999.00;<p>Linen</p>;;;;;;LPSS17,LP-SS17;zerotype;;Summer;Onhold Sample requested;No
1782581;13001284-PEA/RD-1782581;RAFAEL;Draft;Bag;FILA;Adults-Unisex;Unisex;;;;Fashion;;2017;Onesize,FILABAGS00000079;999.00;;;<p>Wipe with a clean, dry cloth when needed</p>;;;;;zerotype;;Summer;;No
1782569;13001264-BLK-1782569;STAN;Draft;Bag;FILA;Adults-Unisex;Unisex;;;;Fashion;;2017;Onesize,FILABAGS00000067;1499.00;;;<p>Wipe with a clean, dry cloth when needed</p>;;;;;zerotype;;Summer;;No
1782557;13001260-TAN-1782557;MARKO;Draft;Backpacks;FILA;Adults-Unisex;Unisex;;;;Fashion;;2017;Onesize,FILABAPK00000082;2499.00;;;<p>Wipe with a clean, dry cloth when needed</p>;;;;;zerotype;;Summer;;No
1781103;S17JAMTU114B-ORANGE & PINK-1781103;PINTUCK ASYMMETRICAL KURTA;Draft;Tunics;IMARA;Adults-Women;Women;;;;Fashion;;2017;S,IMRATNIC00000880,M,IMRATNIC00000881,L,IMRATNIC00000882,XL,IMRATNIC00000883,XXL,IMRATNIC00000884;1199.00;;;;;;;;zerotype;;Spring;;No
1780437;S17THRKA461A-RED-1780437;COLOR BLOCKED PLACEMENT PRINT KURTA;Draft;Kurtas;IMARA;Adults-Women;Women;;;;Fashion;;2017;S,IMRAKRTA00002963,M,IMRAKRTA00002964,L,IMRAKRTA00002965,XL,IMRAKRTA00002966,XXL,IMRAKRTA00002967;1299.00;;;;;;;;zerotype;;Spring;;No
1780421;S17JAMKA119B-ORANGE & PINK-1780421;STRAIGHT POCKET KURTA;Draft;Kurtas;IMARA;Adults-Women;Women;;;;Fashion;;2017;S,IMRAKRTA00002883,M,IMRAKRTA00002884,L,IMRAKRTA00002885,XL,IMRAKRTA00002886,XXL,IMRAKRTA00002887;1199.00;;;;;;;;zerotype;;Spring;;No
1775681;TB0A1EBF4331-Dark Sapphire-1775681;AF Chapman Lk LW Pant Dark Sap,FQ;QC Reject;Trousers;Timberland;Adults-Men;Men;;;;Fashion;;2017;35,TMLDTRSR00097007,33,TMLDTRSR00097008,31,TMLDTRSR00097009;7799.00;<p>Cotton</p>;;;;;;;zerotype;;Summer;Onhold Sample requested;No
1775680;TB0A18WZ4331-Black-1775680;AF Squam Lake Twill Chino DARK,FQ;QC Reject;Trousers;Timberland;Adults-Men;Men;;;;Fashion;;2017;35,TMLDTRSR00097004,33,TMLDTRSR00097005,31,TMLDTRSR00097006;6099.00;<p>Cotton</p>;;;;;;;zerotype;;Summer;Onhold Sample requested;No
1773690;117YKKSLD60184-W.Melange-1773690;Boys Tshirt;QC Reject;Tshirts;YK;Kids-Boys;Boys;;;;Fashion;;2016;7-8Y,YKYKTSHT00004484,8-9Y,YKYKTSHT00004485,10-11Y,YKYKTSHT00004486,11-12Y,YKYKTSHT00004487,13-14Y,YKYKTSHT00004488;699.00;;;;;;;;zerotype;;Fall;Onhold Sample requested;No
1773683;117YKKSLD60181-Navy-1773683;Boys Tshirt;QC Reject;Tshirts;YK;Kids-Boys;Boys;;;;Fashion;;2016;7-8Y,YKYKTSHT00004449,8-9Y,YKYKTSHT00004450,10-11Y,YKYKTSHT00004451,11-12Y,YKYKTSHT00004452,13-14Y,YKYKTSHT00004453;699.00;;;;;;;;zerotype;;Fall;Onhold Sample requested;No
1773662;117YKKSLD50184-Papaya Punch-1773662;Boys Tshirt;QC Reject;Tshirts;YK;Kids-Boys;Boys;;;;Fashion;;2016;2-3Y,YKYKTSHT00004344,3-4Y,YKYKTSHT00004345,4-5Y,YKYKTSHT00004346,5-6Y,YKYKTSHT00004347,6-7Y,YKYKTSHT00004348;549.00;;;;;;;;zerotype;;Fall;Onhold Sample requested;No
1773652;117YKKSLD50172-Papaya Punch-1773652;Boys Tshirt;QC Reject;Tshirts;YK;Kids-Boys;Boys;;;;Fashion;;2016;2-3Y,YKYKTSHT00004294,3-4Y,YKYKTSHT00004295,4-5Y,YKYKTSHT00004296,5-6Y,YKYKTSHT00004297,6-7Y,YKYKTSHT00004298;549.00;;;;;;;;zerotype;;Fall;Onhold Sample requested;No
1773650;117YKKSLD50170-Nautical Blue-1773650;Boys Tshirt;QC Reject;Tshirts;YK;Kids-Boys;Boys;;;;Fashion;;2016;2-3Y,YKYKTSHT00004284,3-4Y,YKYKTSHT00004285,4-5Y,YKYKTSHT00004286,5-6Y,YKYKTSHT00004287,6-7Y,YKYKTSHT00004288;549.00;;;;;;;;zerotype;;Fall;Onhold Sample requested;No
1773638;117YKKSLD50158-Nautical Blue-1773638;Boys Tshirt;QC Reject;Tshirts;YK;Kids-Boys;Boys;;;;Fashion;;2016;2-3Y,YKYKTSHT00004224,3-4Y,YKYKTSHT00004225,4-5Y,YKYKTSHT00004226,5-6Y,YKYKTSHT00004227,6-7Y,YKYKTSHT00004228;599.00;;;;;;;;zerotype;;Fall;Onhold Sample requested;No
1771383;RD-MJ-1463-Indigo-1771383;DENIM JEANS;Draft;Jeans;Roadster;Adults-Men;Men;;;;Fashion;;2017;28,RDSTJENS00014065,30,RDSTJENS00014066,32,RDSTJENS00014067,34,RDSTJENS00014068,36,RDSTJENS00014069;2199.00;;;;;;;;zerotype;;Spring;;No
1771382;RD-MJ-1461-Indigo-1771382;DENIM JEANS;Draft;Jeans;Roadster;Adults-Men;Men;;;;Fashion;;2017;28,RDSTJENS00014060,30,RDSTJENS00014061,32,RDSTJENS00014062,34,RDSTJENS00014063,36,RDSTJENS00014064;2199.00;;;;;;;;zerotype;;Spring;;No
1771379;RD-MJ-1445-Indigo-1771379;DENIM JEANS;Draft;Jeans;Roadster;Adults-Men;Men;;;;Fashion;;2017;28,RDSTJENS00014045,30,RDSTJENS00014046,32,RDSTJENS00014047,34,RDSTJENS00014048,36,RDSTJENS00014049;2199.00;;;;;;;;zerotype;;Spring;;No
1771376;RD-MJ-1413-Indigo-1771376;DENIM JEANS;Draft;Jeans;Roadster;Adults-Men;Men;;;;Fashion;;2017;28,RDSTJENS00014030,30,RDSTJENS00014031,32,RDSTJENS00014032,34,RDSTJENS00014033,36,RDSTJENS00014034;2299.00;;;;;;;;zerotype;;Spring;;No
1768281;PMTL04510-B5-Blue-1768281;FF CROSS.PKT.DBL.BACK BONE PKT.SMART FIT;QC Reject;Trousers;Park Avenue;Adults-Men;Men;;;;Fashion;;2017;76,PKAVTRSR00003671,86,PKAVTRSR00003672,92,PKAVTRSR00003673,96,PKAVTRSR00003674,82,PKAVTRSR00003675;2299.00;<p>Blended</p>;;;;;;Park-AvenueSS17;zerotype;;Spring;Onhold Sample requested;No
1765859;8903414593842-NAVY BLUE-1765859;LW PUN DORA NAVY BLUE;QC Reject;Wallets;Baggit;Adults-Women;Women;;;;Fashion;;2017;Onesize,BGGTWLLT00002651;950.00;;;;;;;;zerotype;;Spring;Onhold Sample requested;No
1765413;117YKKSLD60121-Blue-1765413;Boys Tshirt;QC Reject;Tshirts;YK;Kids-Boys;Boys;;;;Fashion;;2017;7-8Y,YKYKTSHT00004044,8-9Y,YKYKTSHT00004045,10-11Y,YKYKTSHT00004046,11-12Y,YKYKTSHT00004047,13-14Y,YKYKTSHT00004048;699.00;;;;;;;;zerotype;;Spring;Onhold Sample requested;No
1765401;117YKKSLD50132-Coral Haze-1765401;Boys Tshirt;QC Reject;Tshirts;YK;Kids-Boys;Boys;;;;Fashion;;2016;2-3Y,YKYKTSHT00003999,3-4Y,YKYKTSHT00004000,4-5Y,YKYKTSHT00004001,5-6Y,YKYKTSHT00004002,6-7Y,YKYKTSHT00004003;599.00;;;;;;;;zerotype;;Fall;Onhold Sample requested;No
1761340;RD-MJ-1340-Indigo-1761340;Mens Indigo Jeans;Draft;Jeans;Roadster;Adults-Men;Men;;;;Fashion;;2017;28,RDSTJENS00013910,30,RDSTJENS00013911,32,RDSTJENS00013912,34,RDSTJENS00013913,36,RDSTJENS00013914;1499.00;;;;;;;;zerotype;;Spring;;No
1756926;TB0A15J32641-Travertine Waxed Canvas-1756926;HKSTHC FBRCSO TAN WXD,FQ;QC Reject;Casual Shoes;Timberland;Adults-Men;Men;;;;Fashion;;2017;US9,TMLDCASH00100648,US8,TMLDCASH00100649,US8.5,TMLDCASH00100650,US7,TMLDCASH00100651,US10,TMLDCASH00100652;6799.00;<p>Canvas / Fabric</p>;;;;;;;zerotype;;Summer;Onhold Sample requested;No
1756925;TB0A15I53571-Smoke Green-1756925;HKSTHC FBRC SO SMOKE GRN,FQ;QC Reject;Casual Shoes;Timberland;Adults-Men;Men;;;;Fashion;;2017;US9,TMLDCASH00100644,US8.5,TMLDCASH00100645,US11,TMLDCASH00100646,US10,TMLDCASH00100647;6799.00;<p>Canvas / Fabric</p>;;;;;;;zerotype;;Summer;Onhold Sample requested;No
1756924;TB0A15HI3571-Smoke Green-1756924;HKSTHC CNVS BOAT SMOKEGRN,FQ;QC Reject;Casual Shoes;Timberland;Adults-Men;Men;;;;Fashion;;2017;US9.5,TMLDCASH00100642,US10,TMLDCASH00100643;7399.00;<p>Canvas / Fabric</p>;;;;;;;zerotype;;Summer;Onhold Sample requested;No
1756923;TB0A15H74321-Vintage Indigo-1756923;HKSTHC CNVS BOAT BLUDENIM,FQ;QC Reject;Casual Shoes;Timberland;Adults-Men;Men;;;;Fashion;;2017;US8,TMLDCASH00100637,US7,TMLDCASH00100638,US7.5,TMLDCASH00100639,US12,TMLDCASH00100640,US11,TMLDCASH00100641;7399.00;<p>Canvas / Fabric</p>;;;;;;;zerotype;;Summer;Onhold Sample requested;No
1756922;TB09859A2301-Tan Burlap-1756922;CITYSHUFFLR SLIPON TAN,FQ;QC Reject;Casual Shoes;Timberland;Adults-Men;Men;;;;Fashion;;2017;US8.5,TMLDCASH00100635,US7.5,TMLDCASH00100636;6099.00;<p>Leather</p>;;;;;;;zerotype;;Summer;Onhold Sample requested;No
1756921;TB09140B0651-Slate Burlap-1756921;CITYSHUFFLR SLIPON SLATE,FQ;QC Reject;Casual Shoes;Timberland;Adults-Men;Men;;;;Fashion;;2017;US8.5,TMLDCASH00100633,US7.5,TMLDCASH00100634;6099.00;<p>Leather</p>;;;;;;;zerotype;;Summer;Onhold Sample requested;No
1756920;TB07711A2421-Dark Brown-1756920;EK HOLBROOK SANDAL DK BRN,FQ;QC Reject;Casual Shoes;Timberland;Adults-Men;Men;;;;Fashion;;2017;US7,TMLDCASH00100628;7499.00;<p>Leather</p>;;;;;;;zerotype;;Summer;Onhold Sample requested;No
1756919;TB0740364841-Navy Smooth-1756919;CLS2I BOAT NAVY SM,FQ;QC Reject;Casual Shoes;Timberland;Adults-Men;Men;;;;Fashion;;2017;US9.5,TMLDCASH00100624,US8.5,TMLDCASH00100625,US11.5,TMLDCASH00100626,US10.5,TMLDCASH00100627;9599.00;<p>Leather</p>;;;;;;;zerotype;;Summer;Onhold Sample requested;No
1753524;NICOLAS-03-WHITE-1753524;MEN’S H/SLEEVE TEE;Draft;Tshirts;Roadster;Adults-Men;Men;;;;Fashion;;2017;S,RDSTTSHT00028048,M,RDSTTSHT00028049,L,RDSTTSHT00028050,XL,RDSTTSHT00028051;499.00;;;;;;;;zerotype;;Spring;;No
1753522;NICOLAS-01-COBALT BLUE-1753522;MEN’S H/SLEEVE TEE;Draft;Tshirts;Roadster;Adults-Men;Men;;;;Fashion;;2017;S,RDSTTSHT00028040,M,RDSTTSHT00028041,L,RDSTTSHT00028042,XL,RDSTTSHT00028043;499.00;;;;;;;;zerotype;;Spring;;No
1753518;NICKMAN-03-ANTHRA MELANGE-1753518;MEN’S H/SLEEVE TEE;Draft;Tshirts;Roadster;Adults-Men;Men;;;;Fashion;;2017;S,RDSTTSHT00028024,M,RDSTTSHT00028025,L,RDSTTSHT00028026,XL,RDSTTSHT00028027;499.00;;;;;;;;zerotype;;Spring;;No
1753510;SCHIFF-01-INDIGO-1753510;SLEEVLESS TEE WITH PRINTED STRIPE;Draft;Tshirts;Roadster;Adults-Men;Men;;;;Fashion;;2017;S,RDSTTSHT00027992,M,RDSTTSHT00027993,L,RDSTTSHT00027994,XL,RDSTTSHT00027995;499.00;;;;;;;;zerotype;;Spring;;No
1753508;SANTANA-02-MILITARY OLIVE-1753508;COWL ACID WASHED SLEEVELESS TEE;Draft;Tshirts;Roadster;Adults-Men;Men;;;;Fashion;;2017;S,RDSTTSHT00027984,M,RDSTTSHT00027985,L,RDSTTSHT00027986,XL,RDSTTSHT00027987;399.00;;;;;;;;zerotype;;Spring;;No
1753507;SANTANA-01-CHARCOAL GREY-1753507;COWL ACID WASHED SLEEVELESS TEE;Draft;Tshirts;Roadster;Adults-Men;Men;;;;Fashion;;2017;S,RDSTTSHT00027980,M,RDSTTSHT00027981,L,RDSTTSHT00027982,XL,RDSTTSHT00027983;399.00;;;;;;;;zerotype;;Spring;;No
1753503;SANDVOSS-04-BLACK/ CHARCOAL GREY PRINT-1753503;SLEEVLESS TEE WITHBIKING GRAPHICS;Draft;Tshirts;Roadster;Adults-Men;Men;;;;Fashion;;2017;S,RDSTTSHT00027964,M,RDSTTSHT00027965,L,RDSTTSHT00027966,XL,RDSTTSHT00027967;499.00;;;;;;;;zerotype;;Spring;;No
1753500;SANDVOSS-01-navy/ indigo-1753500;SLEEVLESS TEE WITHBIKING GRAPHICS;Draft;Tshirts;Roadster;Adults-Men;Men;;;;Fashion;;2017;S,RDSTTSHT00027952,M,RDSTTSHT00027953,L,RDSTTSHT00027954,XL,RDSTTSHT00027955;499.00;;;;;;;;zerotype;;Spring;;No
1753328;117YKKSLD50201-Whisper White-1753328;Clothing Set;QC Reject;Clothing Set;YK;Kids-Boys;Boys;;;;Fashion;;2017;2-3Y,YKYKCLST00000001,3-4Y,YKYKCLST00000002,4-5Y,YKYKCLST00000003,5-6Y,YKYKCLST00000004,6-7Y,YKYKCLST00000005;899.00;;;;;;;;zerotype;;Summer;Onhold Sample requested;No
1738012;INV-SS17S123-White-1738012;Invictus Slim Fit Linen Shirt;QC Reject;Shirts;INVICTUS;Adults-Men;Men;White;;;Fashion;;2017;38,TILCSHRT00005053,39,TILCSHRT00005054,40,TILCSHRT00005055,42,TILCSHRT00005056,44,TILCSHRT00005057;2799.00;;;;;;;;zerotype;;Spring;Onhold Sample requested;No
1736539;SP_MYS30-Orange-1736539;SUDARSHAN COLORFUL DESIGNER SAREE-Orange-MYS3;QC Reject;Embellished Saree;Sudarshan Silks;Adults-Women;Women;;;;Fashion;;2017;Onesize,SDSLEBSR00000224;1499.00;;;;;;;;zerotype;;Summer;Onhold Sample requested;No
1736504;SP_VPS24-Gold-1736504;Sudarshan Silks Fancy Silk Sarees;QC Reject;Traditional Sari;Sudarshan Silks;Adults-Women;Women;;;;Fashion;;2017;Onesize,SDSLTDSR00001658;9799.00;<p>Silk</p>;;;;;;;zerotype;;Summer;Onhold Sample requested;No
1736377;SP_PUP66-Pink-1736377;SUDARSHAN LATEST DESIGNER SAREE-Pink-PUP66-MN;QC Reject;Traditional Sari;Sudarshan Silks;Adults-Women;Women;;;;Fashion;;2017;Onesize,SDSLTDSR00001531;2499.00;<p>Tussar</p>;;;;;;;zerotype;;Summer;Onhold Sample requested;No
1736338;SP_PUP3-Pink-1736338;SUDARSHAN LATEST DESIGNER SAREE-Pink-PUP3-MN-;QC Reject;Traditional Sari;Sudarshan Silks;Adults-Women;Women;;;;Fashion;;2017;Onesize,SDSLTDSR00001492;2299.00;<p>Tussar</p>;;;;;;;zerotype;;Summer;Onhold Sample requested;No
1736334;SP_PUP26-Multicolor-1736334;SUDARSHAN LATEST DESIGNER SAREE-PUP26-MN-Tuss;QC Reject;Traditional Sari;Sudarshan Silks;Adults-Women;Women;;;;Fashion;;2017;Onesize,SDSLTDSR00001488;2999.00;<p>Tussar</p>;;;;;;;zerotype;;Summer;Onhold Sample requested;No
1736117;SP_AJS347-Dark Blue-1736117;DOUBLE COLOR CONTRAST COTTON SAREE;QC Reject;Traditional Sari;Sudarshan Silks;Adults-Women;Women;;;;Fashion;;2017;Onesize,SDSLTDSR00001297;3599.00;<p>Cotton</p>;;;;;;;zerotype;;Summer;Onhold Sample requested;No
1725952;RMTX02387-G6-Grey-1725952;BASIC FLAT FRNT -CONTEMPORARY FIT;QC Reject;Trousers;Raymond;Adults-Men;Men;;;;Fashion;;2017;82,RYMDTRSR00001384,86,RYMDTRSR00001385,92,RYMDTRSR00001386,96,RYMDTRSR00001387,100,RYMDTRSR00001388,104,RYMDTRSR00001389;2399.00;<p>Blended</p>;;;;;;RaymondSS17;zerotype;;Spring;Onhold Sample requested;No
1723629;S17HMGCKD315A-YELLOW-1723629;HALF AND HALF WITH PRINT AND ROLLED UPSLEEVES;Draft;Kurtas;IMARA;Adults-Women;Women;;;;Fashion;;2017;S,IMRAKRTA00002338,M,IMRAKRTA00002339,L,IMRAKRTA00002340,XL,IMRAKRTA00002341,XXL,IMRAKRTA00002342;2499.00;;;;;;;;zerotype;;Spring;;No
1716373;RD-MJ-1341-Black-1716373;Black Denim;QC Reject;Jeans;Roadster;Adults-Men;Men;;;;Fashion;;2017;28,RDSTJENS00013456,30,RDSTJENS00013457,32,RDSTJENS00013458,34,RDSTJENS00013459,36,RDSTJENS00013460;1899.00;;;;;;;;zerotype;;Spring;Onhold Sample requested;No
1716245;RD-MJ-1412-Indigo-1716245;DENIM JEANS;Draft;Jeans;Roadster;Adults-Men;Men;;;;Fashion;;2017;28,RDSTJENS00013321,30,RDSTJENS00013322,32,RDSTJENS00013323,34,RDSTJENS00013324,36,RDSTJENS00013325;2299.00;;;;;;;;zerotype;;Spring;;No
1715937;117YKKSLD50123-Coral Rose-1715937;Boys Tshirt;QC Reject;Tshirts;YK;Kids-Boys;Boys;;;;Fashion;;2016;2-3Y,YKYKTSHT00002799,3-4Y,YKYKTSHT00002800,4-5Y,YKYKTSHT00002801,5-6Y,YKYKTSHT00002802,6-7Y,YKYKTSHT00002803;649.00;;;;;;;;zerotype;;Fall;Onhold Sample requested;No
1706574;MNHMANSS17TRUCKER-001-C-Deep Navy-1706574;Men's Trucker;QC Reject;Blazers;Mast & Harbour;Adults-Men;Men;;;;Fashion;;2017;S,MTHBBLZR00000449,M,MTHBBLZR00000450,L,MTHBBLZR00000451;4999.00;;;;;;;mnh-ss17-men-newarv,ss17-apr-newarv;zerotype;;Spring;add tag;No
1706572;MNHMANSS17TRUCKER-001-B-Black-1706572;Men's Trucker;QC Reject;Blazers;Mast & Harbour;Adults-Men;Men;;;;Fashion;;2017;S,MTHBBLZR00000446,M,MTHBBLZR00000447,L,MTHBBLZR00000448;4999.00;;;;;;;mnh-ss17-men-newarv,ss17-apr-newarv;zerotype;;Spring;add tag;No
1706570;MNHMANSS17TRUCKER-001-A-Camel-1706570;Men's Trucker;QC Reject;Blazers;Mast & Harbour;Adults-Men;Men;;;;Fashion;;2017;S,MTHBBLZR00000443,M,MTHBBLZR00000444,L,MTHBBLZR00000445;4999.00;;;;;;;mnh-ss17-men-newarv,ss17-apr-newarv;zerotype;;Spring;add tag;No
1704608;BAGBY-02-CLASSIC RED/ANTHRA MEL/BLACK/CHILLI RED-1704608;MENS YD STRIPER POLO;Draft;Tshirts;Roadster;Adults-Men;Men;;;;Fashion;;2017;S,RDSTTSHT00025999,M,RDSTTSHT00026000,L,RDSTTSHT00026001,XL,RDSTTSHT00026002;899.00;;;;;;;;zerotype;;Spring;;No
1704595;BACKUS-02-BLACK/LT GREY MEL/CLASSIC RED/ANTHRA-1704595;MENS YD STRIPER POLO;Draft;Tshirts;Roadster;Adults-Men;Men;;;;Fashion;;2017;S,RDSTTSHT00025947,M,RDSTTSHT00025948,L,RDSTTSHT00025949,XL,RDSTTSHT00025950;899.00;;;;;;;;zerotype;;Spring;;No
1606043;PTF51603285-WhiteWithBlack-1606043;PTF51603285;QC Reject;Trousers;Peter England;Adults-Men;Men;Grey;;;Fashion;Party;2016;102,PTENTRSR00004143,96,PTENTRSR00004144,86,PTENTRSR00004145,82,PTENTRSR00004146,92,PTENTRSR00004147,76,PTENTRSR00004148,108,PTENTRSR00004149;1899.00;Grey solid mid-rise party wear trousers, has 4 pockets, a zip fly with hook-and-bar and button closure, a waistband with belt loops;Complete your wardrobe with a pair of fashionable Peter England trousers. You'll be ready for any formal or party event when you throw on a collared shirt and your best brogues with this pair.;77% polyester, 23% viscose<br />Hand-wash;Slim fit<br />The model (height 6' and waist 32") is wearing a size 32;;Peter England Men Grey Solid Slim Fit Party Wear Trousers;Peter England;zerotype;;Fall;Onhold Sample requested;No
1571381;1827396001-Scarab-1571381;JJPR COLE SHIRT L/S IN;QC Reject;Shirts;Jack & Jones;Adults-Men;Men;;;;Fashion;;2016;L,JAJOSHRT00006431,M,JAJOSHRT00006432,S,JAJOSHRT00006433,XL,JAJOSHRT00006434,XXL,JAJOSHRT00006435;2999.00;<p>Cotton</p>;;;;;;;zerotype;;Fall;Onhold Sample requested;No
1569938;1029553-Navy-1569938;SPACES Courtyard Navy 210 TC Cotton King XL B;QC Reject;Bedsheets;SPACES;Adults-Unisex;Unisex;;;;Core;;2016;Double,SPCSBDST00000523;3295.00;<p>Cotton</p>;;;;;;;zerotype;;Winter;Onhold Sample requested;No
1513431;SAK45-JK-53SLH_GREEN_18-GREEN-1513431;SAK45-JK-53SLH;QC Reject;Shrug;AND;Adults-Women;Women;Green;White;;Fashion;Casual;2016;UK10,ANDJCKT00000548,UK12,ANDJCKT00000549,UK14,ANDJCKT00000550,UK16,ANDJCKT00000551,UK18,ANDJCKT00000552;1499.00;<div>Green and white striped shrug, has an open front, long sleeves</div>;Upgrade your personal style with this stylish shrug. You can team this piece with distressed denims and high heels&nbsp for a relaxed date night outfit.<div></div><div></div><div></div>;95% viscose, 5% elastane<br>Dry-clean;<div><div><div>The model (height 5'8" and chest 33") is wearing a size S</div><div></div></div><div></div></div><div></div>;;AND by Anita Dongre Green & White Striped Shrug;AND by Anita Dongre;zerotype;;Fall;Onhold Sample requested;No
1512709;1029990-Multicolour-1512709;Bedsheets;QC Reject;Bedsheets;SPACES;Adults-Unisex;Unisex;;;;Core;Home;2016;Double,SPCSBDST00000507;3999.00;;;<p>Machine wash seperately with like colors, Tumble dry at low temperature, Do not bleach or iron</p>;;;;;zerotype;;Fall;Onhold Sample requested;No
1486921;8903338062813-Blue-1486921;Utility 1 2016;QC Reject;Backpacks;Wildcraft;Adults-Men;Men;Blue;;;Fashion;Casual;2016;Onesize,WDCTBAPK00100374;799.00;;;<p>wipe with a clean dry cloth</p>;<p>8.5in(l) x 13in(w) x 19.5in(h)</p>;;;;zerotype;;Winter;Onhold Sample requested;No
1486919;8903338062790-Black-1486919;Utility 1 2016;QC Reject;Backpacks;Wildcraft;Adults-Men;Men;Black;;;Fashion;Casual;2016;Onesize,WDCTBAPK00100372;799.00;;;<p>wipe with a clean dry cloth</p>;<p>8.5in(l) x 13in(w) x 19.5in(h)</p>;;;;zerotype;;Winter;Onhold Sample requested;No
1486909;8903338059356-Red-1486909;Kailash;QC Reject;Rucksacks;Wildcraft;Adults-Men;Men;Red;;;Fashion;Casual;2016;Onesize,WDCTRUBA00000154;5999.00;;;<p>wipe with a clean dry cloth</p>;<p>8in(l) x 14in(w) x 30in(h)</p>;;;;zerotype;;Winter;Onhold Sample requested;No
1486907;8903338059332-Orange-1486907;Kailash;QC Reject;Rucksacks;Wildcraft;Adults-Men;Men;Orange;;;Fashion;Casual;2016;Onesize,WDCTRUBA00000152;5999.00;;;<p>wipe with a clean dry cloth</p>;<p>9.5in(l) x 13in(w) x 22in(h)</p>;;;;zerotype;;Winter;Onhold Sample requested;No
1486906;8903338059325-Green-1486906;Kailash;QC Reject;Rucksacks;Wildcraft;Adults-Men;Men;Green;;;Fashion;Casual;2016;Onesize,WDCTRUBA00000151;5999.00;;;<p>wipe with a clean dry cloth</p>;<p>9.5in(l) x 13in(w) x 22in(h)</p>;;;;zerotype;;Winter;Onhold Sample requested;No
1486905;8903338058557-Red-1486905;Savan D Plus;QC Reject;Rucksacks;Wildcraft;Adults-Men;Men;Red;;;Fashion;Casual;2016;Onesize,WDCTRUBA00000150;4499.00;;;<p>wipe with a clean dry cloth</p>;<p>8in(l) x 13in(w) x 28in(h)</p>;;;;zerotype;;Winter;Onhold Sample requested;No
1486880;8903338059172-Blue-1486880;Rock;QC Reject;Rucksacks;Wildcraft;Adults-Men;Men;Blue;;;Fashion;Casual;2016;Onesize,WDCTRUBA00000125;2299.00;;;<p>wipe with a clean dry cloth</p>;<p>7.5in(l) x 12in(w) x 21in(h)</p>;;;;zerotype;;Winter;Onhold Sample requested;No
1486873;8903338052166-Grey-1486873;Trident XL;QC Reject;Laptop Bag;Wildcraft;Adults-Men;Men;Grey;;;Fashion;Casual;2016;Onesize,WDCTLABA00000176;2995.00;<p>5 year Warranty</p>;;<p>wipe with a clean dry cloth</p>;<p>9in(l) x 14in(w) x 20in(h)</p>;;;;zerotype;;Winter;Onhold Sample requested;No
1486861;8903338054696-Black-1486861;Avya;QC Reject;Laptop Bag;Wildcraft;Adults-Men;Men;Black;;;Fashion;Casual;2016;Onesize,WDCTLABA00000164;2099.00;<p>5 year Warranty</p>;;<p>wipe with a clean dry cloth</p>;<p>8in(l) x 13.5in(w) x 20in(h)</p>;;;;zerotype;;Winter;Onhold Sample requested;No
1486846;8903338065661-Blue-1486846;Ace;QC Reject;Laptop Bag;Wildcraft;Adults-Men;Men;Blue;;;Fashion;Casual;2016;Onesize,WDCTLABA00000149;1499.00;<p>5 year Warranty</p>;;<p>wipe with a clean dry cloth</p>;<p>8in(l) x 13.5in(w) x 20in(h)</p>;;;;zerotype;;Winter;Onhold Sample requested;No
1486828;8903338053118-Purple-1486828;Shuttle Nova;QC Reject;Duffel Bag;Wildcraft;Adults-Men;Men;Purple;;;Fashion;;2016;Onesize,WDCTDFBG00000092;1149.00;;;<p>wipe with a clean dry cloth</p>;<p>11in(l) x 22in(w) x 11.5in(h)</p>;;;;zerotype;;Winter;Onhold Sample requested;No
1486747;8903338052531-Blue-1486747;Bum Bag;QC Reject;Travel Accessory;Wildcraft;Adults-Men;Men;Blue;;;Fashion;Casual;2016;Onesize,WDCTTRAC00000090;1595.00;;;<p>Wipe with a clean dry cloth</p>;<p>5in(l) x 13in(w) x 10in(h)</p>;;;;zerotype;;Winter;Onhold Sample requested;No
1486735;8903338059738-Green-1486735;Women's Zip Wallet;QC Reject;Travel Accessory;Wildcraft;Adults-Men;Men;Green;;;Fashion;Casual;2016;Onesize,WDCTTRAC00000078;849.00;<p>18 month Warranty</p>;;<p>Wipe with a clean dry cloth</p>;<p>4in(w) x 8in(h)</p>;;;;zerotype;;Winter;Onhold Sample requested;No
1486734;8903338059721-Red-1486734;Women's Zip Wallet;QC Reject;Travel Accessory;Wildcraft;Adults-Men;Men;Red;;;Fashion;Casual;2016;Onesize,WDCTTRAC00000077;849.00;<p>18 month Warranty</p>;;<p>Wipe with a clean dry cloth</p>;<p>4in(w) x 8in(h)</p>;;;;zerotype;;Winter;Onhold Sample requested;No
1486733;8903338059714-Black-1486733;Women's Zip Wallet;QC Reject;Travel Accessory;Wildcraft;Adults-Men;Men;Black;;;Fashion;Casual;2016;Onesize,WDCTTRAC00000076;849.00;<p>18 month Warranty</p>;;<p>Wipe with a clean dry cloth</p>;<p>4in(w) x 8in(h)</p>;;;;zerotype;;Winter;Onhold Sample requested;No
1486721;8903338052692-Orange-1486721;Pac n Go Messenger;QC Reject;Travel Accessory;Wildcraft;Adults-Men;Men;Orange;;;Fashion;Casual;2016;Onesize,WDCTTRAC00000064;645.00;;;<p>Wipe with a clean dry cloth</p>;<p>6in(l) x 15.5in(w) x 11in(h)</p>;;;;zerotype;;Winter;Onhold Sample requested;No
1486720;8903338052685-Green-1486720;Pac n Go Messenger;QC Reject;Travel Accessory;Wildcraft;Adults-Men;Men;Green;;;Fashion;Casual;2016;Onesize,WDCTTRAC00000063;645.00;;;<p>Wipe with a clean dry cloth</p>;<p>6in(l) x 15.5in(w) x 11in(h)</p>;;;;zerotype;;Winter;Onhold Sample requested;No
1486719;8903338052678-Blue-1486719;Pac n Go Messenger;QC Reject;Travel Accessory;Wildcraft;Adults-Men;Men;Blue;;;Fashion;Casual;2016;Onesize,WDCTTRAC00000062;645.00;;;<p>Wipe with a clean dry cloth</p>;<p>6in(l) x 15.5in(w) x 11in(h)</p>;;;;zerotype;;Winter;Onhold Sample requested;No
1481272;VOTS0924-Multi-1481272;VOTS0924;QC Reject;Tshirts;Voi Jeans;Adults-Men;Men;;;;Fashion;;2016;L,VIJNTSHT00002023,M,VIJNTSHT00002024,S,VIJNTSHT00002025,XL,VIJNTSHT00002026,XXL,VIJNTSHT00002027;1399.00;<p>Blended</p>;;;;;;;zerotype;;Fall;Onhold Sample requested;No
1469850;216ROKSLD021042-D-Grape Leaf-1469850;WOMEN TSHIRT;QC Reject;Tshirts;Roadster;Adults-Women;Women;;;;Fashion;;2016;S,RDSTTSHT00024327,M,RDSTTSHT00024328,L,RDSTTSHT00024329,XL,RDSTTSHT00024330;799.00;;;;;;;;zerotype;;Fall;Onhold Sample requested;No
1469849;216ROKSLD021042-C-Castel Rock-1469849;WOMEN TSHIRT;QC Reject;Tshirts;Roadster;Adults-Women;Women;;;;Fashion;;2016;S,RDSTTSHT00024323,M,RDSTTSHT00024324,L,RDSTTSHT00024325,XL,RDSTTSHT00024326;799.00;;;;;;;;zerotype;;Fall;Onhold Sample requested;No
1469848;216ROKSLD021042-B-Purple Potion-1469848;WOMEN TSHIRT;QC Reject;Tshirts;Roadster;Adults-Women;Women;;;;Fashion;;2016;S,RDSTTSHT00024319,M,RDSTTSHT00024320,L,RDSTTSHT00024321,XL,RDSTTSHT00024322;799.00;;;;;;;;zerotype;;Fall;Onhold Sample requested;No
1469847;216ROKSLD021042-A-Blue Stone-1469847;WOMEN TSHIRT;QC Reject;Tshirts;Roadster;Adults-Women;Women;;;;Fashion;;2016;S,RDSTTSHT00024315,M,RDSTTSHT00024316,L,RDSTTSHT00024317,XL,RDSTTSHT00024318;799.00;;;;;;;;zerotype;;Fall;Onhold Sample requested;No
1469838;216ROKSLD021039-C-Calla Green-1469838;WOMEN TSHIRT;QC Reject;Tshirts;Roadster;Adults-Women;Women;;;;Fashion;;2016;S,RDSTTSHT00024279,M,RDSTTSHT00024280,L,RDSTTSHT00024281,XL,RDSTTSHT00024282;599.00;;;;;;;;zerotype;;Fall;Onhold Sample requested;No
1469830;216ROKSLD021037-D-Raven-1469830;WOMEN TSHIRT;QC Reject;Tshirts;Roadster;Adults-Women;Women;;;;Fashion;;2016;S,RDSTTSHT00024247,M,RDSTTSHT00024248,L,RDSTTSHT00024249,XL,RDSTTSHT00024250;799.00;;;;;;;;zerotype;;Fall;Onhold Sample requested;No
1469829;216ROKSLD021037-C-Grey Mel-1469829;WOMEN TSHIRT;QC Reject;Tshirts;Roadster;Adults-Women;Women;;;;Fashion;;2016;S,RDSTTSHT00024243,M,RDSTTSHT00024244,L,RDSTTSHT00024245,XL,RDSTTSHT00024246;799.00;;;;;;;;zerotype;;Fall;Onhold Sample requested;No
1469826;216ROKSLD021036-E-Red Ochre-1469826;WOMEN TSHIRT;QC Reject;Tshirts;Roadster;Adults-Women;Women;;;;Fashion;;2016;S,RDSTTSHT00024231,M,RDSTTSHT00024232,L,RDSTTSHT00024233,XL,RDSTTSHT00024234;799.00;;;;;;;;zerotype;;Fall;Onhold Sample requested;No
1469805;216ROKSLD021057-B-Grey Mel-1469805;WOMEN TSHIRT;QC Reject;Tshirts;Roadster;Adults-Women;Women;;;;Fashion;;2016;S,RDSTTSHT00024147,M,RDSTTSHT00024148,L,RDSTTSHT00024149,XL,RDSTTSHT00024150;699.00;;;;;;;;zerotype;;Fall;Onhold Sample requested;No
1449425;1025595-Purple-1449425;Bedsheets Purple Unisex Core;QC Reject;Bedsheets;WELHOME;Adults-Unisex;Unisex;;;;Core;Home;2016;Double,WLHEBDST00000150;1599.00;;;<p>It can be washed in washing machine . Please wash seperately with like colors, Tumble dry at low temperature, Do not bleach or iron.Ensure that you wash the bed linen before use. This will help get rid of any excess fibres.Tumble dry at low temperatures after wash.</p>;;;;;zerotype;;Fall;Onhold Sample requested;No
1367021;8903338074120-Pink-1367021;Pumori 40;QC Reject;Rucksacks;Wildcraft;Adults-Women;Women;;;;Fashion;Travel;2016;Onesize,WDCTRUBA00000096;4599.00;<span>Orange rucksack<br>One haul loop, two padded and adjustable shoulder straps, has a sternum strap and a</span>&nbsp padded waistband secured with click clasps<span><br>One main zip compartment<br>An external zip pocket on the flap<br>An external&nbsp zip pocket on the front<br>Two mesh stash pockets on either side<br>Padded back with mesh detail<br>Note: The inner lining material/colour may vary from what is shown in the image</span><span><br>Please note that the thread colour in the brand logo may vary from the image shown</span>;For those who love outdoor adventures, this rucksack from Wildcraft&nbsp is just what you need. A practical design with lots of support, space and carrying ease,&nbsp this one is a must-have for your adventurous activities.;210D nylon ripstop and&nbsp 420D nylon dobby<br>Wipe with a clean, dry cloth when needed;Height: 69 cm<br>Width: 33 cm<br>Depth: 23 cm<br>Volume: 50 L;;Wildcraft Unisex Orange Rucksack;Wildcraft,JIT;zerotype;;Summer;Onhold Sample requested;No
1367017;8903338074083-Alg_Blue-1367017;Spiti 35;QC Reject;Rucksacks;Wildcraft;Adults-Women;Women;;;;Fashion;Travel;2016;Onesize,WDCTRUBA00000092;3999.00;<span>Orange rucksack<br>One haul loop, two padded and adjustable shoulder straps, has a sternum strap and a</span>&nbsp padded waistband secured with click clasps<span><br>One main zip compartment<br>An external zip pocket on the flap<br>An external&nbsp zip pocket on the front<br>Two mesh stash pockets on either side<br>Padded back with mesh detail<br>Note: The inner lining material/colour may vary from what is shown in the image</span><span><br>Please note that the thread colour in the brand logo may vary from the image shown</span>;For those who love outdoor adventures, this rucksack from Wildcraft&nbsp is just what you need. A practical design with lots of support, space and carrying ease,&nbsp this one is a must-have for your adventurous activities.;210D nylon ripstop and&nbsp 420D nylon dobby<br>Wipe with a clean, dry cloth when needed;Height: 69 cm<br>Width: 33 cm<br>Depth: 23 cm<br>Volume: 50 L;;Wildcraft Unisex Orange Rucksack;Wildcraft,JIT;zerotype;;Summer;Onhold Sample requested;No
1362597;8903338061496-Black-1362597;Wildcraft Melange 3 Backpack;QC Reject;Backpacks;Wildcraft;Adults-Unisex;Unisex;Grey Melange;;;Fashion;Casual;2016;Onesize,WDCTBAPK00100288;1549.00;<span>Grey melange&nbsp backpack<br>One haul loop, two padded and adjustable shoulder straps<br>Two main zip compartments<br>A zip pocket on the front<br>A mesh stash pocket on one side<br>Padded back with mesh detail</span><br>Disclaimer: Please note that the thread colour in the brand logo may vary from the image shown<span><br>Note: The inner lining material/colour may vary from what is shown in the image</span><br>;This backpack from Wildcraft is well compartmentalised and spacious. Great to carry all your essentials, take it along as you head outdoors.<br>;Polyester and nylon<br>Wipe with a clean, dry cloth when needed;Height: 47 cm<br>Width: 31.7 cm<br>Depth: 22.8 cm;;Wildcraft Unisex Grey Melange Backpack;Wildcraft,JIT,btswildcraftbackpacks,wildcrafthypalitebackpacks,bbd-pre-sale-2016;zerotype;;Spring;Onhold Sample requested;No
1341090;8903414573295-SMOKE-1341090;LMP AURUS ANDREW SMO;QC Reject;Mobile Pouch;Baggit;Adults-Women;Women;;;;Fashion;;2016;Onesize,BGGTMOPO00000940;850.00;;;<p>Non Water Resistant</p>;;;;;zerotype;;Summer;Onhold Sample requested;No
1341063;8903414570478-SMOKE-1341063;GW DEMO N STELLA SMO;QC Reject;Wallets;Baggit;;Men;;;;Fashion;;2016;Onesize,BGGTWLLT00002020;950.00;;;<p>Non Water Resistant</p>;;;;;zerotype;;Summer;Onhold Sample requested;No
1341051;8903414564934-WINE-1341051;L GAGA TARZEN WINE (;QC Reject;Handbags;Baggit;Adults-Women;Women;;;;Fashion;;2016;Onesize,BGGTHDBG00001761;4225.00;;;<p>Non Water Resistant</p>;;;;appsale-top-brands-women-handbags;zerotype;;Summer;Onhold Sample requested;No
1296833;RMSX05488-W0-White-1296833;Shirts;QC Reject;Shirts;Raymond;Adults-Men;Men;;;;Fashion;;2016;39,RYMDSHRT00002964,40,RYMDSHRT00002965,42,RYMDSHRT00002966,44,RYMDSHRT00002967;2499.00;<p>Cotton</p>;;;;;;;zerotype;;Summer;Onhold Sample requested;No
1272026;RMTX02007-G6-Grey-1272026;Basic Flat Frnt -Contemporary Fit;QC Reject;Trousers;Raymond;Adults-Men;Men;;;;Core;;2016;76,RYMDTRSR00000896,82,RYMDTRSR00000897,86,RYMDTRSR00000898,92,RYMDTRSR00000899,96,RYMDTRSR00000900,100,RYMDTRSR00000901;2699.00;<p>Poly 55%/Wool 45%</p>;;;;;;;zerotype;;Summer;Onhold Sample requested;No
1272025;RMTX02007-B6-Blue-1272025;Basic Flat Frnt -Contemporary Fit;QC Reject;Trousers;Raymond;Adults-Men;Men;;;;Core;;2016;76,RYMDTRSR00000890,82,RYMDTRSR00000891,86,RYMDTRSR00000892,92,RYMDTRSR00000893,96,RYMDTRSR00000894,100,RYMDTRSR00000895;2699.00;<p>Poly 55%/Wool 45%</p>;;;;;;;zerotype;;Summer;Onhold Sample requested;No
1272024;RMTX02006-O8-Brown-1272024;Basic Flat Frnt -Contemporary Fit;QC Reject;Trousers;Raymond;Adults-Men;Men;;;;Core;;2016;76,RYMDTRSR00000884,82,RYMDTRSR00000885,86,RYMDTRSR00000886,92,RYMDTRSR00000887,96,RYMDTRSR00000888,100,RYMDTRSR00000889;2499.00;<p>Poly60%/Viscose20%/Wool20%</p>;;;;;;;zerotype;;Summer;Onhold Sample requested;No
1270496;PM302343-GREY-1270496;GENE LS;QC Reject;Shirts;Pepe Jeans;Adults-Men;Men;;;;Fashion;;2016;S,PEJESHRT00005732,L,PEJESHRT00005733,XL,PEJESHRT00005734,XXL,PEJESHRT00005735,M,PEJESHRT00005736;1999.00;<p>100% COTTON</p>;;;;;;pepe-bundle-offer,pepe-urban;zerotype;;Summer;Onhold Sample requested;No
953323;8903338037132-Black-953323;Jim Black;QC Reject;Duffel Bag;Wildcraft;Adults-Unisex;Unisex;;;;Fashion;;2015;Onesize,WDCTDFBG00000071;1295.00;;;;;;;;zerotype;;Fall;Onhold Sample requested;No
393314;MHCPDTS-001C-SKY-393314;Mast & Harbour ColdPigment Dyed T-shirt;QC Reject;Tshirts;Mast & Harbour;Adults-Men;Men;Beige;Beige;Beige;Fashion;Casual;2015;S,MTHBTSHT00716,M,MTHBTSHT00717,L,MTHBTSHT00718,XL,MTHBTSHT00719;899.00;;;;;;;,dailyopenoffer30,dailyopenoffer20,mnh-oct-newarv,next-day-delivery-bng;Tshirts;Mast & Harbour;Winter;Onhold Sample requested;No
