Style ID;Vendor Article Number;Vendor Article Name;Active Status;Article type;Brand;Age Group;Gender;Base Colour;Colour1;Colour2;Fashion Type;Usage;Year;Size - SKU code pair;MRP;Style Description;Style Note;Materials and Care Description;Size and Fit Description;Size Chart Path;Product Display Name;Tags;Product Type;Classification Brand;Season;Comments;Upload Images
2348649;BBAPLIN36522_40-Black White-2348649;Innocence Printed lightly padded seamless bra;Draft;Bra;Innocence;Adults-Women;Women;Black;White;;Fashion;Casual;2017;32B,INOCBRAA00000566,34B,INOCBRAA00000567,36B,INOCBRAA00000568,38B,INOCBRAA00000569,40B,INOCBRAA00000570;999.00;;;<p>Hand Wash</p>;;;m;;zerotype;;Winter;;No
2348646;BBAPLIN36514_40-Red-2348646;Red Cotton/Spandex Bra;Draft;Bra;Innocence;Adults-Women;Women;Red;;;Fashion;Casual;2017;32B,INOCBRAA00000561,34B,INOCBRAA00000562,36B,INOCBRAA00000563,38B,INOCBRAA00000564,40B,INOCBRAA00000565;899.00;;;<p>Hand Wash</p>;;;m;;zerotype;;Winter;;No
2348644;BBAPLIN36513_40-Red-2348644;Pink Cotton/Spandex Bra;Draft;Bra;Innocence;Adults-Women;Women;Red;;;Fashion;Casual;2017;32B,INOCBRAA00000556,34B,INOCBRAA00000557,36B,INOCBRAA00000558,38B,INOCBRAA00000559,40B,INOCBRAA00000560;899.00;;;<p>Hand Wash</p>;;;m;;zerotype;;Winter;;No
2348642;BBAPLIN36512_40-Blue Cream-2348642;Blue Cotton/Spandex Bra;Draft;Bra;Innocence;Adults-Women;Women;Blue;Cream;;Fashion;Casual;2017;32B,INOCBRAA00000551,34B,INOCBRAA00000552,36B,INOCBRAA00000553,38B,INOCBRAA00000554,40B,INOCBRAA00000555;899.00;;;<p>Hand Wash</p>;;;m;;zerotype;;Winter;;No
2348639;BBAPLIN36510_40-Red-2348639;Maroon Cotton/Spandex Bra;Draft;Bra;Innocence;Adults-Women;Women;Red;;;Fashion;Casual;2017;32B,INOCBRAA00000546,34B,INOCBRAA00000547,36B,INOCBRAA00000548,38B,INOCBRAA00000549,40B,INOCBRAA00000550;899.00;;;<p>Hand Wash</p>;;;m;;zerotype;;Winter;;No
2348637;BBAPLIN36509_40-Pink-2348637;Pink Cotton/Spandex Bra;Draft;Bra;Innocence;Adults-Women;Women;Pink;;;Fashion;Casual;2017;32B,INOCBRAA00000541,34B,INOCBRAA00000542,36B,INOCBRAA00000543,38B,INOCBRAA00000544,40B,INOCBRAA00000545;899.00;;;<p>Hand Wash</p>;;;m;;zerotype;;Winter;;No
2348635;BBAPLIN36475_40-Burgundy-2348635;Wine Cotton Bra;Draft;Bra;Innocence;Adults-Women;Women;Burgundy;;;Fashion;Casual;2017;32B,INOCBRAA00000536,34B,INOCBRAA00000537,36B,INOCBRAA00000538,38B,INOCBRAA00000539,40B,INOCBRAA00000540;349.00;;;<p>Hand Wash</p>;;;m;;zerotype;;Winter;;No
