Style ID;Vendor Article Number;Vendor Article Name;Active Status;Article type;Brand;Age Group;Gender;Base Colour;Colour1;Colour2;Fashion Type;Usage;Year;Size - SKU code pair;MRP;Style Description;Style Note;Materials and Care Description;Size and Fit Description;Size Chart Path;Product Display Name;Tags;Product Type;Classification Brand;Season;Comments;Upload Images
1905864;ALTMT134484-Blue-1905864;MEN'S ALCIS WORKOUT TEE;Draft;Tshirts;Alcis;Adults-Men;Men;;;;Core;;2017;L,ALCSTSHT00000935,M,ALCSTSHT00000936,S,ALCSTSHT00000937,XL,ALCSTSHT00000938,XXL,ALCSTSHT00000939;999.00;;;;;;;;zerotype;;Spring;;No
1905863;ALTMT134482-ORANGE-1905863;MEN'S ALCIS WORKOUT TEE;Draft;Tshirts;Alcis;Adults-Men;Men;;;;Core;;2017;L,ALCSTSHT00000930,M,ALCSTSHT00000931,S,ALCSTSHT00000932,XL,ALCSTSHT00000933,XXL,ALCSTSHT00000934;999.00;;;;;;;;zerotype;;Spring;;No
1905862;ALTMP134520-ORANGE-1905862;MES'S ALCIS WORKOUT PERFORMANCE POLO;Draft;Tshirts;Alcis;Adults-Men;Men;;;;Core;;2017;L,ALCSTSHT00000925,M,ALCSTSHT00000926,S,ALCSTSHT00000927,XL,ALCSTSHT00000928,XXL,ALCSTSHT00000929;1199.00;;;;;;;;zerotype;;Spring;;No
1905861;AKTRMSL0970262-Dark blue-1905861;ALCIS TRAINING WORKOUT SINGLET;Draft;Tshirts;Alcis;Adults-Men;Men;;;;Core;;2017;S,ALCSTSHT00000920,M,ALCSTSHT00000921,L,ALCSTSHT00000922,XL,ALCSTSHT00000923,XXL,ALCSTSHT00000924;799.00;;;;;;;;zerotype;;Spring;;No
1905860;AKTRMSL0970260-white-1905860;ALCIS TRAINING WORKOUT SINGLET;Draft;Tshirts;Alcis;Adults-Men;Men;;;;Core;;2017;S,ALCSTSHT00000915,M,ALCSTSHT00000916,L,ALCSTSHT00000917,XL,ALCSTSHT00000918,XXL,ALCSTSHT00000919;799.00;;;;;;;;zerotype;;Spring;;No
1905859;AKTNMTE0330082-Black-1905859;MENS TENNIS COURT TEE;Draft;Tshirts;Alcis;Adults-Men;Men;;;;Core;;2017;S,ALCSTSHT00000910,M,ALCSTSHT00000911,L,ALCSTSHT00000912,XL,ALCSTSHT00000913,XXL,ALCSTSHT00000914;799.00;;;;;;;;zerotype;;Spring;;No
1905858;AKTNMTE0320079-Black-1905858;ALCIS TENNIS PRO TEE;Draft;Tshirts;Alcis;Adults-Men;Men;;;;Core;;2017;S,ALCSTSHT00000905,M,ALCSTSHT00000906,L,ALCSTSHT00000907,XL,ALCSTSHT00000908,XXL,ALCSTSHT00000909;799.00;;;;;;;;zerotype;;Spring;;No
1905857;AKTNMTE0310078-Blue-1905857;ALCIS TENNIS CLUB TEE;Draft;Tshirts;Alcis;Adults-Men;Men;;;;Core;;2017;S,ALCSTSHT00000900,M,ALCSTSHT00000901,L,ALCSTSHT00000902,XL,ALCSTSHT00000903,XXL,ALCSTSHT00000904;999.00;;;;;;;;zerotype;;Spring;;No
1905856;AKRUMTE0600193-red-1905856;DOT ART GRAPHIC SHORT SLEEVE TEE;Draft;Tshirts;Alcis;Adults-Men;Men;;;;Core;;2017;S,ALCSTSHT00000895,M,ALCSTSHT00000896,L,ALCSTSHT00000897,XL,ALCSTSHT00000898,XXL,ALCSTSHT00000899;999.00;;;;;;;;zerotype;;Spring;;No
1905855;AKRUMTE0600192-Black-1905855;DOT ART GRAPHIC SHORT SLEEVE TEE;Draft;Tshirts;Alcis;Adults-Men;Men;;;;Core;;2017;S,ALCSTSHT00000890,M,ALCSTSHT00000891,L,ALCSTSHT00000892,XL,ALCSTSHT00000893,XXL,ALCSTSHT00000894;999.00;;;;;;;;zerotype;;Spring;;No
1905854;AKRUMTE0570187-blue-1905854;ACCELERATE TEE;Draft;Tshirts;Alcis;Adults-Men;Men;;;;Core;;2017;S,ALCSTSHT00000885,M,ALCSTSHT00000886,L,ALCSTSHT00000887,XL,ALCSTSHT00000888,XXL,ALCSTSHT00000889;799.00;;;;;;;;zerotype;;Spring;;No
1905853;AKRUMTE0570186-Orange-1905853;ACCELERATE TEE;Draft;Tshirts;Alcis;Adults-Men;Men;;;;Core;;2017;S,ALCSTSHT00000880,M,ALCSTSHT00000881,L,ALCSTSHT00000882,XL,ALCSTSHT00000883,XXL,ALCSTSHT00000884;799.00;;;;;;;;zerotype;;Spring;;No
1905852;AKRUMSL0560186-Black-1905852;BURN-IT-AS-FUEL TANK;Draft;Tshirts;Alcis;Adults-Men;Men;;;;Core;;2017;S,ALCSTSHT00000875,M,ALCSTSHT00000876,L,ALCSTSHT00000877,XL,ALCSTSHT00000878,XXL,ALCSTSHT00000879;699.00;;;;;;;;zerotype;;Spring;;No
1905851;AKRUMSL0560185-Blue-1905851;BURN-IT-AS-FUEL TANK;Draft;Tshirts;Alcis;Adults-Men;Men;;;;Core;;2017;S,ALCSTSHT00000870,M,ALCSTSHT00000871,L,ALCSTSHT00000872,XL,ALCSTSHT00000873,XXL,ALCSTSHT00000874;699.00;;;;;;;;zerotype;;Spring;;No
1905850;AKRUMSL0550183-Marron-1905850;ALCIS RACER TANK;Draft;Tshirts;Alcis;Adults-Men;Men;;;;Core;;2017;S,ALCSTSHT00000865,M,ALCSTSHT00000866,L,ALCSTSHT00000867,XL,ALCSTSHT00000868,XXL,ALCSTSHT00000869;699.00;;;;;;;;zerotype;;Spring;;No
1905849;ASS16MSS011-Blue-1905849;ALCIS SUBLIMATION SHORTS;Draft;Shorts;Alcis;Adults-Men;Men;;;;Core;;2017;S,ALCSSHOR00000136,M,ALCSSHOR00000137,L,ALCSSHOR00000138,XL,ALCSSHOR00000139,XXL,ALCSSHOR00000140;899.00;;;;;;;;zerotype;;Spring;;No
1905848;ALMSH003029-Blue-1905848;ALCIS CORE CLUB SHORTS;Draft;Shorts;Alcis;Adults-Men;Men;;;;Core;;2017;L,ALCSSHOR00000131,M,ALCSSHOR00000132,S,ALCSSHOR00000133,XL,ALCSSHOR00000134,XXL,ALCSSHOR00000135;699.00;;;;;;;;zerotype;;Spring;;No
1905847;AWRUMSO0670206-Black-1905847;ALCIS PRECISON RUN SHORTS;Draft;Shorts;Alcis;Adults-Men;Men;;;;Core;;2017;S,ALCSSHOR00000126,M,ALCSSHOR00000127,L,ALCSSHOR00000128,XL,ALCSSHOR00000129,XXL,ALCSSHOR00000130;799.00;;;;;;;;zerotype;;Spring;;No
1905846;AWRUMSO0670207-Charcoal-1905846;ALCIS PRECISON RUN SHORTS;Draft;Shorts;Alcis;Adults-Men;Men;;;;Core;;2017;S,ALCSSHOR00000121,M,ALCSSHOR00000122,L,ALCSSHOR00000123,XL,ALCSSHOR00000124,XXL,ALCSSHOR00000125;799.00;;;;;;;;zerotype;;Spring;;No
1905845;AKTNMSO0370090-Black-1905845;MEN'S ALCIS  TENNIS CLUB SHORTS;Draft;Shorts;Alcis;Adults-Men;Men;;;;Core;;2017;S,ALCSSHOR00000116,M,ALCSSHOR00000117,L,ALCSSHOR00000118,XL,ALCSSHOR00000119,XXL,ALCSSHOR00000120;899.00;;;;;;;;zerotype;;Spring;;No
1905844;AKTNMSO0370089-Dark Blue-1905844;MEN'S ALCIS  TENNIS CLUB SHORTS;Draft;Shorts;Alcis;Adults-Men;Men;;;;Core;;2017;S,ALCSSHOR00000111,M,ALCSSHOR00000112,L,ALCSSHOR00000113,XL,ALCSSHOR00000114,XXL,ALCSSHOR00000115;899.00;;;;;;;;zerotype;;Spring;;No
1905843;AFW16RMWS01102-Navy Blue-1905843;ALCIS SPRINT SHORTS;Draft;Shorts;Alcis;Adults-Men;Men;;;;Core;;2017;S,ALCSSHOR00000106,M,ALCSSHOR00000107,L,ALCSSHOR00000108,XL,ALCSSHOR00000109,XXL,ALCSSHOR00000110;699.00;;;;;;;;zerotype;;Spring;;No
1905842;Light1002-Navy Blue-1905842;LIGHT CORE RUN PANT;Draft;Track Pants;Alcis;Adults-Men;Men;;;;Core;;2017;S,ALCSTRPT00000100,M,ALCSTRPT00000101,L,ALCSTRPT00000102,XL,ALCSTRPT00000103,XXL,ALCSTRPT00000104;699.00;;;;;;;;zerotype;;Spring;;No
1905840;Light1004-Grey-1905840;LIGHT CORE RUN PANT;Draft;Track Pants;Alcis;Adults-Men;Men;;;;Core;;2017;S,ALCSTRPT00000095,M,ALCSTRPT00000096,L,ALCSTRPT00000097,XL,ALCSTRPT00000098,XXL,ALCSTRPT00000099;699.00;;;;;;;;zerotype;;Spring;;No
1905839;Light1001-black-1905839;LIGHT CORE RUN PANT;Draft;Track Pants;Alcis;Adults-Men;Men;;;;Core;;2017;S,ALCSTRPT00000090,M,ALCSTRPT00000091,L,ALCSTRPT00000092,XL,ALCSTRPT00000093,XXL,ALCSTRPT00000094;699.00;;;;;;;;zerotype;;Spring;;No
1905837;ALMPA003019-grey melange-1905837;Alcis Core Performance Pant;Draft;Track Pants;Alcis;Adults-Men;Men;;;;Core;;2017;L,ALCSTRPT00000085,M,ALCSTRPT00000086,S,ALCSTRPT00000087,XL,ALCSTRPT00000088,XXL,ALCSTRPT00000089;999.00;;;;;;;;zerotype;;Spring;;No
1905835;AKYGMTP01240177-black-1905835;YOGA DISCIPLINE PANT;Draft;Track Pants;Alcis;Adults-Men;Men;;;;Core;;2017;S,ALCSTRPT00000080,M,ALCSTRPT00000081,L,ALCSTRPT00000082,XL,ALCSTRPT00000083,XXL,ALCSTRPT00000084;1199.00;;;;;;;;zerotype;;Spring;;No
1813057;AKYGMTP01240176-Grey-1813057;YOGA DISCIPLINE PANT;Active;Track Pants;Alcis;Adults-Men;Men;Grey;;;Core;Sports;2017;S,ALCSTRPT00000031,L,ALCSTRPT00000032,XL,ALCSTRPT00000033,XXL,ALCSTRPT00000034,M,ALCSTRPT00000035;1199.00;<a href='/grey?src=pd' class='seolink'>Grey</a> woven mid-rise <a href='/track-pants?src=pd' class='seolink'>track pants</a>, has three pockets, an elasticated waistband, a mock fly;Wear the latest track pants collection from Alcis to make an efficient addition to your active wear collection. Team this pair with a compression tee and sports shoes.;Cotton and elastane<br />Machine-wash;The model (height 6') is wearing a size S;;Alcis Grey Track Pants;Alcis,JIT,tbfg-fitfabulous-sports,tbfg-sportsfanatic,bfg-event-apr,tbfg-sportsfashion-athleisurelyyours-viewall,tbfg-sportsfashion-athleisurelyyours-joggers,tbfg-sports-fitfabulous-day2-apparel,apr12-super-hour,new-season-styles-apr13,sportsathleisure,super-hour-ccmay,new-season30-ccmay,men-offer-may05,price-surge,super-hour-may9,big10-lucky20,big10-price-surge,big10-super-hour25,sportsallstyles-2017;zerotype;;Spring;sportsallstyles-2017;No
1787064;ASS16MST011-Blue Green-1787064;ALCIS SUBLIMATION TEE;Inactive - Marketplace - Reject;Tshirts;Alcis;Adults-Men;Men;Blue;;;Core;Sports;2017;L,ALCSTSHT00000361,M,ALCSTSHT00000362,S,ALCSTSHT00000363,XL,ALCSTSHT00000364,XXL,ALCSTSHT00000365;999.00;<a href='/blue?src=pd' class='seolink'>Blue</a> printed waist length T-shirt, has a round neck, <a href='/short?src=pd' class='seolink'>short</a> sleeves;Sport this trendsetting Alcis tee when you're ready to take your style to the next level.  Wear this blue piece many ways, with dark wash jeans, cuffed chinos and more.;Polyester <br /> Machine-wash;The model (height 6' and shoulders 18") is wearing a size M;;Alcis Men Blue Printed Round Neck T-shirt;Alcis,JIT;zerotype;;Fall;Wrong Shoulder measurement;No
1787063;ASS16MSL012-Black Grey-1787063;ALCIS SUBLIMATION SLEEVELESS;Inactive - Marketplace - Reject;Tshirts;Alcis;Adults-Men;Men;Black;Grey;;Core;Sports;2017;L,ALCSTSHT00000356,M,ALCSTSHT00000357,S,ALCSTSHT00000358,XL,ALCSTSHT00000359,XXL,ALCSTSHT00000360;799.00;<a href='/black?src=pd' class='seolink'>Black</a> and <a href='/grey?src=pd' class='seolink'>grey</a> printed waist length T-shirt, has a round neck, <a href='/short?src=pd' class='seolink'>short</a> sleeves;This top-notch T-shirt from Alcis will have you looking fresh all year long. When you're attending an after-work happy hour, wear this black piece with chinos and easy loafers.;Polyester <br /> Machine-wash;The model (height 6' and shoulders 18") is wearing a size M;;Alcis Men Black & Grey Printed Round Neck T-shirt;Alcis,JIT;zerotype;;Fall;Wrong Shoulder measurement;No
1787048;ALTMP134521-White Navy Blue-1787048;ASS16TMP001;Draft;Tshirts;Alcis;Adults-Men;Men;Black;;;Core;Sports;2017;L,ALCSTSHT00000281,M,ALCSTSHT00000282,S,ALCSTSHT00000283,XL,ALCSTSHT00000284,XXL,ALCSTSHT00000285;1199.00;Black printed waist length T-shirt, has a round neck, short sleeves;Make a name for yourself this season with this cool T-shirt from Alcis.  This black shirt is the perfect note to strike with a pair of skinny jeans when you're looking for a simple night out at the bars.;Cotton  Machine-wash;The model (height 6' and shoulders 18") is wearing a size M;;Alcis Men Black Printed Round Neck T-Shirt;Alcis,JIT;zerotype;;Fall;;No
