Style ID;Vendor Article Number;Vendor Article Name;Active Status;Article type;Brand;Age Group;Gender;Base Colour;Colour1;Colour2;Fashion Type;Usage;Year;Size - SKU code pair;MRP;Style Description;Style Note;Materials and Care Description;Size and Fit Description;Size Chart Path;Product Display Name;Tags;Product Type;Classification Brand;Season;Comments;Upload Images
2266717;SV59DSP8Y-Blue-2266717;Bella Moda Solid Denim;Draft;Jeans;Bella Moda;Kids-Boys;Boys;Blue;;;Fashion;Casual;2017;7-8Y,BAMAJENS00000094,5-6Y,BAMAJENS00000095,4-5Y,BAMAJENS00000096,3-4Y,BAMAJENS00000097,6-7Y,BAMAJENS00000098,8-9Y,BAMAJENS00000099;1797.00;;;<p>Machine wash as per tag</p>;;;na;;zerotype;;Winter;;No
2266716;SV56DS12M-Blue-2266716;Bella Moda Solid Denim;Draft;Jeans;Bella Moda;Kids-Boys;Boys;Blue;;;Fashion;Casual;2017;4-5Y,BAMAJENS00000088,3-4Y,BAMAJENS00000089,2-3Y,BAMAJENS00000090,18-24M,BAMAJENS00000091,5-6Y,BAMAJENS00000092,12-18M,BAMAJENS00000093;1797.00;;;<p>Machine wash as per tag</p>;;;na;;zerotype;;Winter;;No
2266715;SV55DP6M-Blue-2266715;Bella Moda Solid Denim;Draft;Jeans;Bella Moda;Kids-Boys;Boys;Blue;;;Fashion;Casual;2017;4-5Y,BAMAJENS00000084,3-4Y,BAMAJENS00000085,12-18M,BAMAJENS00000086,6-12M,BAMAJENS00000087;1747.00;;;<p>Machine wash as per tag</p>;;;na;;zerotype;;Winter;;No
2266714;SV54DS5Y-Blue-2266714;Bella Moda Solid Denim;Draft;Jeans;Bella Moda;Kids-Boys;Boys;Blue;;;Fashion;Casual;2017;5-6Y,BAMAJENS00000078,2-3Y,BAMAJENS00000079,4-5Y,BAMAJENS00000080,12-18M,BAMAJENS00000081,3-4Y,BAMAJENS00000082,6-7Y,BAMAJENS00000083;1797.00;;;<p>Machine wash as per tag</p>;;;na;;zerotype;;Winter;;No
2266713;SV53TP3Y-Blue-2266713;Bella Moda Solid Denim;Draft;Jeans;Bella Moda;Kids-Boys;Boys;Blue;;;Fashion;Casual;2017;2-3Y,BAMAJENS00000072,6-7Y,BAMAJENS00000073,5-6Y,BAMAJENS00000074,18-24M,BAMAJENS00000075,12-18M,BAMAJENS00000076,3-4Y,BAMAJENS00000077;2697.00;;;<p>Machine wash as per tag</p>;;;na;;zerotype;;Winter;;No
2266712;SV52DDP4Y-Black-2266712;Bella Moda Solid Denim;Draft;Jeans;Bella Moda;Kids-Boys;Boys;Black;;;Fashion;Casual;2017;2-3Y,BAMAJENS00000067,12-18M,BAMAJENS00000068,5-6Y,BAMAJENS00000069,3-4Y,BAMAJENS00000070,4-5Y,BAMAJENS00000071;1647.00;;;<p>Machine wash as per tag</p>;;;na;;zerotype;;Winter;;No
2266711;SV51DS6M-Blue-2266711;Bella Moda Solid Denim;Draft;Jeans;Bella Moda;Kids-Boys;Boys;Blue;;;Fashion;Casual;2017;9-12M,BAMAJENS00000061,2-3Y,BAMAJENS00000062,12-18M,BAMAJENS00000063,3-4Y,BAMAJENS00000064,18-24M,BAMAJENS00000065,6-12M,BAMAJENS00000066;1797.00;;;<p>Machine wash as per tag</p>;;;na;;zerotype;;Winter;;No
2266710;SV50DSP6Y-Blue-2266710;Bella Moda Solid Denim;Draft;Jeans;Bella Moda;Kids-Boys;Boys;Blue;;;Fashion;Casual;2017;5-6Y,BAMAJENS00000055,2-3Y,BAMAJENS00000056,4-5Y,BAMAJENS00000057,3-4Y,BAMAJENS00000058,12-18M,BAMAJENS00000059,6-7Y,BAMAJENS00000060;1797.00;;;<p>Machine wash as per tag</p>;;;na;;zerotype;;Winter;;No
2266709;SV49DSP2Y-Blue-2266709;Bella Moda Solid Denim;Draft;Jeans;Bella Moda;Kids-Boys;Boys;Blue;;;Fashion;Casual;2017;18-24M,BAMAJENS00000051,9-12M,BAMAJENS00000052,12-18M,BAMAJENS00000053,2-3Y,BAMAJENS00000054;1797.00;;;<p>Machine wash as per tag</p>;;;na;;zerotype;;Winter;;No
2266708;SV48DSP4Y-Blue-2266708;Bella Moda Solid Denim;Draft;Jeans;Bella Moda;Kids-Boys;Boys;Blue;;;Fashion;Casual;2017;5-6Y,BAMAJENS00000045,6-7Y,BAMAJENS00000046,18-24M,BAMAJENS00000047,3-4Y,BAMAJENS00000048,2-3Y,BAMAJENS00000049,4-5Y,BAMAJENS00000050;1797.00;;;<p>Machine wash as per tag</p>;;;na;;zerotype;;Winter;;No
2266707;SV47DP12M-Grey-2266707;Bella Moda Solid Denim;Draft;Jeans;Bella Moda;Kids-Boys;Boys;Grey;;;Fashion;Casual;2017;18-24M,BAMAJENS00000041,6-12M,BAMAJENS00000042,2-3Y,BAMAJENS00000043,12-18M,BAMAJENS00000044;1747.00;;;<p>Machine wash as per tag</p>;;;na;;zerotype;;Winter;;No
2266706;SV46DP12M-Blue-2266706;Bella Moda Solid Denim;Draft;Jeans;Bella Moda;Kids-Boys;Boys;Blue;;;Fashion;Casual;2017;18-24M,BAMAJENS00000037,2-3Y,BAMAJENS00000038,6-12M,BAMAJENS00000039,12-18M,BAMAJENS00000040;1747.00;;;<p>Machine wash as per tag</p>;;;na;;zerotype;;Winter;;No
