Style ID;Vendor Article Number;Vendor Article Name;Active Status;Article type;Brand;Age Group;Gender;Base Colour;Colour1;Colour2;Fashion Type;Usage;Year;Size - SKU code pair;MRP;Style Description;Style Note;Materials and Care Description;Size and Fit Description;Size Chart Path;Product Display Name;Tags;Product Type;Classification Brand;Season;Comments;Upload Images
2272626;Katappa-Yellow-Yellow-2272626;Katappa-Yellow;Draft;Flats;Shoetopia;Adults-Women;Women;Yellow;;;Fashion;Casual;2017;37,SHPAFlats00004704,40,SHPAFlats00004705,39,SHPAFlats00004706,36,SHPAFlats00004707,38,SHPAFlats00004708,41,SHPAFlats00004709;499.00;;;<p>Clean with soft clothes only.</p>;;;na;;zerotype;;Spring;;No
2272625;Flat-122-Peach-Peach-2272625;Flat-122-Peach;Draft;Flats;Shoetopia;Adults-Women;Women;Peach;;;Fashion;Casual;2017;36,SHPAFlats00004698,41,SHPAFlats00004699,40,SHPAFlats00004700,38,SHPAFlats00004701,37,SHPAFlats00004702,39,SHPAFlats00004703;499.00;;;<p>Clean with soft clothes only.</p>;;;na;;zerotype;;Spring;;No
2272624;Flat-122-Cream-Cream-2272624;Flat-122-Cream;Draft;Flats;Shoetopia;Adults-Women;Women;Cream;;;Fashion;Casual;2017;37,SHPAFlats00004692,41,SHPAFlats00004693,40,SHPAFlats00004694,36,SHPAFlats00004695,39,SHPAFlats00004696,38,SHPAFlats00004697;499.00;;;<p>Clean with soft clothes only.</p>;;;na;;zerotype;;Spring;;No
2272623;Flat-122-Black-Black-2272623;Flat-122-Black;Draft;Flats;Shoetopia;Adults-Women;Women;Black;;;Fashion;Casual;2017;36,SHPAFlats00004686,40,SHPAFlats00004687,39,SHPAFlats00004688,38,SHPAFlats00004689,37,SHPAFlats00004690,41,SHPAFlats00004691;499.00;;;<p>Clean with soft clothes only.</p>;;;na;;zerotype;;Spring;;No
2272622;2323-B-Black-Black-2272622;2323-B-Black;Draft;Flats;Shoetopia;Adults-Women;Women;Black;;;Fashion;Casual;2017;41,SHPAFlats00004680,40,SHPAFlats00004681,39,SHPAFlats00004682,38,SHPAFlats00004683,37,SHPAFlats00004684,36,SHPAFlats00004685;499.00;;;<p>Clean with soft clothes only.</p>;;;na;;zerotype;;Spring;;No
2272621;3-Star-White-White-2272621;3-Star-White;Draft;Casual Shoes;Shoetopia;Adults-Women;Women;White;;;Fashion;Smart Casual;2017;39,SHPACASH00002306,41,SHPACASH00002307,38,SHPACASH00002308,40,SHPACASH00002309,37,SHPACASH00002310,36,SHPACASH00002311;1199.00;;;<p>Clean with soft clothes only.</p>;;;na;;zerotype;;Spring;;No
2272620;Wedges-1950-White-White-2272620;Wedges-1950-White;Draft;Heels;Shoetopia;Adults-Women;Women;White;;;Fashion;Casual;2017;40,SHPAHeels00004062,39,SHPAHeels00004063,38,SHPAHeels00004064,37,SHPAHeels00004065,36,SHPAHeels00004066,41,SHPAHeels00004067;1199.00;;;<p>Clean with the soft clothes only.</p>;;;na;;zerotype;;Spring;;No
2272619;Wedges-1950-Black-Black-2272619;Wedges-1950-Black;Draft;Heels;Shoetopia;Adults-Women;Women;Black;;;Fashion;Casual;2017;41,SHPAHeels00004056,40,SHPAHeels00004057,39,SHPAHeels00004058,38,SHPAHeels00004059,37,SHPAHeels00004060,36,SHPAHeels00004061;1199.00;;;<p>Clean with the soft clothes only.</p>;;;na;;zerotype;;Spring;;No
