Style ID;Vendor Article Number;Vendor Article Name;Active Status;Article type;Brand;Age Group;Gender;Base Colour;Colour1;Colour2;Fashion Type;Usage;Year;Size - SKU code pair;MRP;Style Description;Style Note;Materials and Care Description;Size and Fit Description;Size Chart Path;Product Display Name;Tags;Product Type;Classification Brand;Season;Comments;Upload Images
2118227;131246518861 C656-Blue-2118227;CR OCTAVE SHI C656;Draft;Shirts;Palm Tree;Kids-Boys;Boys;Blue;;;Fashion;Casual;2017;18M,PMTRSHRT00001867,24M,PMTRSHRT00001868;699.00;<p>SHIRT FULL SLEEVES</p>;;<p>Machine Wash</p>;;;;;zerotype;;Winter;;No
2118226;131246518861 C656-Blue-2118226;CR OCTAVE SHI C656;Draft;Shirts;Palm Tree;Kids-Boys;Boys;Blue;;;Fashion;Casual;2017;14,PMTRSHRT00001865,16,PMTRSHRT00001866;899.00;<p>SHIRT FULL SLEEVES</p>;;<p>Machine Wash</p>;;;;;zerotype;;Winter;;No
2118225;131246518861 C656-Blue-2118225;CR OCTAVE SHI C656;Draft;Shirts;Palm Tree;Kids-Boys;Boys;Blue;;;Fashion;Casual;2017;12M,PMTRSHRT00001864;699.00;<p>SHIRT FULL SLEEVES</p>;;<p>Machine Wash</p>;;;;;zerotype;;Winter;;No
2118224;131246518861 C656-Blue-2118224;CR OCTAVE SHI C656;Draft;Shirts;Palm Tree;Kids-Boys;Boys;Blue;;;Fashion;Casual;2017;10,PMTRSHRT00001862,12,PMTRSHRT00001863;899.00;<p>SHIRT FULL SLEEVES</p>;;<p>Machine Wash</p>;;;;;zerotype;;Winter;;No
2118223;131246518861 C656-Blue-2118223;CR OCTAVE SHI C656;Draft;Shirts;Palm Tree;Kids-Boys;Boys;Blue;;;Fashion;Casual;2017;02,PMTRSHRT00001858,04,PMTRSHRT00001859,06,PMTRSHRT00001860,08,PMTRSHRT00001861;799.00;<p>SHIRT FULL SLEEVES</p>;;<p>Machine Wash</p>;;;;;zerotype;;Winter;;No
2118222;131246517738 C151-Brown-2118222;CR FRED SHI C151;Draft;Shirts;Palm Tree;Kids-Boys;Boys;Brown;;;Fashion;Casual;2017;18M,PMTRSHRT00001856,24M,PMTRSHRT00001857;699.00;<p>SHIRT FULL SLEEVES</p>;;<p>Machine Wash</p>;;;;;zerotype;;Winter;;No
2118220;131246517738 C151-Brown-2118220;CR FRED SHI C151;Draft;Shirts;Palm Tree;Kids-Boys;Boys;Brown;;;Fashion;Casual;2017;14,PMTRSHRT00001854,16,PMTRSHRT00001855;899.00;<p>SHIRT FULL SLEEVES</p>;;<p>Machine Wash</p>;;;;;zerotype;;Winter;;No
2118218;131246517738 C151-Brown-2118218;CR FRED SHI C151;Draft;Shirts;Palm Tree;Kids-Boys;Boys;Brown;;;Fashion;Casual;2017;12M,PMTRSHRT00001853;699.00;<p>SHIRT FULL SLEEVES</p>;;<p>Machine Wash</p>;;;;;zerotype;;Winter;;No
2118216;131246517738 C151-Brown-2118216;CR FRED SHI C151;Draft;Shirts;Palm Tree;Kids-Boys;Boys;Brown;;;Fashion;Casual;2017;10,PMTRSHRT00001851,12,PMTRSHRT00001852;899.00;<p>SHIRT FULL SLEEVES</p>;;<p>Machine Wash</p>;;;;;zerotype;;Winter;;No
2118214;131246517738 C151-Brown-2118214;CR FRED SHI C151;Draft;Shirts;Palm Tree;Kids-Boys;Boys;Brown;;;Fashion;Casual;2017;02,PMTRSHRT00001847,04,PMTRSHRT00001848,06,PMTRSHRT00001849,08,PMTRSHRT00001850;799.00;<p>SHIRT FULL SLEEVES</p>;;<p>Machine Wash</p>;;;;;zerotype;;Winter;;No
2118212;131246517737 C656-Blue-2118212;CR FRON SHI C656;Draft;Shirts;Palm Tree;Kids-Boys;Boys;Blue;;;Fashion;Casual;2017;18M,PMTRSHRT00001845,24M,PMTRSHRT00001846;699.00;<p>SHIRT FULL SLEEVES</p>;;<p>Machine Wash</p>;;;;;zerotype;;Winter;;No
2118210;131246517737 C656-Blue-2118210;CR FRON SHI C656;Draft;Shirts;Palm Tree;Kids-Boys;Boys;Blue;;;Fashion;Casual;2017;14,PMTRSHRT00001843,16,PMTRSHRT00001844;899.00;<p>SHIRT FULL SLEEVES</p>;;<p>Machine Wash</p>;;;;;zerotype;;Winter;;No
2118208;131246517737 C656-Blue-2118208;CR FRON SHI C656;Draft;Shirts;Palm Tree;Kids-Boys;Boys;Blue;;;Fashion;Casual;2017;12M,PMTRSHRT00001842;699.00;<p>SHIRT FULL SLEEVES</p>;;<p>Machine Wash</p>;;;;;zerotype;;Winter;;No
2118205;131246517737 C656-Blue-2118205;CR FRON SHI C656;Draft;Shirts;Palm Tree;Kids-Boys;Boys;Blue;;;Fashion;Casual;2017;10,PMTRSHRT00001840,12,PMTRSHRT00001841;899.00;<p>SHIRT FULL SLEEVES</p>;;<p>Machine Wash</p>;;;;;zerotype;;Winter;;No
2118203;131246517737 C656-Blue-2118203;CR FRON SHI C656;Draft;Shirts;Palm Tree;Kids-Boys;Boys;Blue;;;Fashion;Casual;2017;02,PMTRSHRT00001836,04,PMTRSHRT00001837,06,PMTRSHRT00001838,08,PMTRSHRT00001839;799.00;<p>SHIRT FULL SLEEVES</p>;;<p>Machine Wash</p>;;;;;zerotype;;Winter;;No
2118201;131246517090 C462-Peach-2118201;CR HASTIE SHI C462;Draft;Shirts;Palm Tree;Kids-Boys;Boys;Peach;;;Fashion;Casual;2017;18M,PMTRSHRT00001834,24M,PMTRSHRT00001835;699.00;<p>SHIRT FULL SLEEVES</p>;;<p>Machine Wash</p>;;;;;zerotype;;Winter;;No
2118199;131246517090 C462-Peach-2118199;CR HASTIE SHI C462;Draft;Shirts;Palm Tree;Kids-Boys;Boys;Peach;;;Fashion;Casual;2017;14,PMTRSHRT00001832,16,PMTRSHRT00001833;899.00;<p>SHIRT FULL SLEEVES</p>;;<p>Machine Wash</p>;;;;;zerotype;;Winter;;No
2118197;131246517090 C462-Peach-2118197;CR HASTIE SHI C462;Draft;Shirts;Palm Tree;Kids-Boys;Boys;Peach;;;Fashion;Casual;2017;12M,PMTRSHRT00001831;699.00;<p>SHIRT FULL SLEEVES</p>;;<p>Machine Wash</p>;;;;;zerotype;;Winter;;No
2118195;131246517090 C462-Peach-2118195;CR HASTIE SHI C462;Draft;Shirts;Palm Tree;Kids-Boys;Boys;Peach;;;Fashion;Casual;2017;10,PMTRSHRT00001829,12,PMTRSHRT00001830;899.00;<p>SHIRT FULL SLEEVES</p>;;<p>Machine Wash</p>;;;;;zerotype;;Winter;;No
2118193;131246517090 C462-Peach-2118193;CR HASTIE SHI C462;Draft;Shirts;Palm Tree;Kids-Boys;Boys;Peach;;;Fashion;Casual;2017;02,PMTRSHRT00001825,04,PMTRSHRT00001826,06,PMTRSHRT00001827,08,PMTRSHRT00001828;799.00;<p>SHIRT FULL SLEEVES</p>;;<p>Machine Wash</p>;;;;;zerotype;;Winter;;No
2118191;131246517089 C656-Blue-2118191;CR HARWIN SHI C656;Draft;Shirts;Palm Tree;Kids-Boys;Boys;Blue;;;Fashion;Casual;2017;18M,PMTRSHRT00001823,24M,PMTRSHRT00001824;899.00;<p>SHIRT FULL SLEEVES</p>;;<p>Machine Wash</p>;;;;;zerotype;;Winter;;No
2118189;131246517089 C656-Blue-2118189;CR HARWIN SHI C656;Draft;Shirts;Palm Tree;Kids-Boys;Boys;Blue;;;Fashion;Casual;2017;14,PMTRSHRT00001821,16,PMTRSHRT00001822;1099.00;<p>SHIRT FULL SLEEVES</p>;;<p>Machine Wash</p>;;;;;zerotype;;Winter;;No
2118187;131246517089 C656-Blue-2118187;CR HARWIN SHI C656;Draft;Shirts;Palm Tree;Kids-Boys;Boys;Blue;;;Fashion;Casual;2017;12M,PMTRSHRT00001820;899.00;<p>SHIRT FULL SLEEVES</p>;;<p>Machine Wash</p>;;;;;zerotype;;Winter;;No
2118185;131246517089 C656-Blue-2118185;CR HARWIN SHI C656;Draft;Shirts;Palm Tree;Kids-Boys;Boys;Blue;;;Fashion;Casual;2017;10,PMTRSHRT00001818,12,PMTRSHRT00001819;1099.00;<p>SHIRT FULL SLEEVES</p>;;<p>Machine Wash</p>;;;;;zerotype;;Winter;;No
2118184;131246517089 C656-Blue-2118184;CR HARWIN SHI C656;Draft;Shirts;Palm Tree;Kids-Boys;Boys;Blue;;;Fashion;Casual;2017;02,PMTRSHRT00001814,04,PMTRSHRT00001815,06,PMTRSHRT00001816,08,PMTRSHRT00001817;999.00;<p>SHIRT FULL SLEEVES</p>;;<p>Machine Wash</p>;;;;;zerotype;;Winter;;No
2118182;131246517089 C101-White-2118182;CR HARWIN SHI C101;Draft;Shirts;Palm Tree;Kids-Boys;Boys;White;;;Fashion;Casual;2017;18M,PMTRSHRT00001812,24M,PMTRSHRT00001813;899.00;<p>SHIRT FULL SLEEVES</p>;;<p>Machine Wash</p>;;;;;zerotype;;Winter;;No
2118180;131246517089 C101-White-2118180;CR HARWIN SHI C101;Draft;Shirts;Palm Tree;Kids-Boys;Boys;White;;;Fashion;Casual;2017;14,PMTRSHRT00001810,16,PMTRSHRT00001811;1099.00;<p>SHIRT FULL SLEEVES</p>;;<p>Machine Wash</p>;;;;;zerotype;;Winter;;No
2118178;131246517089 C101-White-2118178;CR HARWIN SHI C101;Draft;Shirts;Palm Tree;Kids-Boys;Boys;White;;;Fashion;Casual;2017;12M,PMTRSHRT00001809;899.00;<p>SHIRT FULL SLEEVES</p>;;<p>Machine Wash</p>;;;;;zerotype;;Winter;;No
2118176;131246517089 C101-White-2118176;CR HARWIN SHI C101;Draft;Shirts;Palm Tree;Kids-Boys;Boys;White;;;Fashion;Casual;2017;10,PMTRSHRT00001807,12,PMTRSHRT00001808;1099.00;<p>SHIRT FULL SLEEVES</p>;;<p>Machine Wash</p>;;;;;zerotype;;Winter;;No
2118174;131246517089 C101-White-2118174;CR HARWIN SHI C101;Draft;Shirts;Palm Tree;Kids-Boys;Boys;White;;;Fashion;Casual;2017;02,PMTRSHRT00001803,04,PMTRSHRT00001804,06,PMTRSHRT00001805,08,PMTRSHRT00001806;999.00;<p>SHIRT FULL SLEEVES</p>;;<p>Machine Wash</p>;;;;;zerotype;;Winter;;No
2118172;131246517087 C207-Blue-2118172;UJ JERALD SHI C207;Draft;Shirts;Palm Tree;Kids-Boys;Boys;Blue;;;Fashion;Casual;2017;18M,PMTRSHRT00001801,24M,PMTRSHRT00001802;1099.00;<p>SHIRT FULL SLEEVES</p>;;<p>Machine Wash</p>;;;;;zerotype;;Winter;;No
2118170;131246517087 C207-Blue-2118170;UJ JERALD SHI C207;Draft;Shirts;Palm Tree;Kids-Boys;Boys;Blue;;;Fashion;Casual;2017;14,PMTRSHRT00001799,16,PMTRSHRT00001800;1299.00;<p>SHIRT FULL SLEEVES</p>;;<p>Machine Wash</p>;;;;;zerotype;;Winter;;No
2118168;131246517087 C207-Blue-2118168;UJ JERALD SHI C207;Draft;Shirts;Palm Tree;Kids-Boys;Boys;Blue;;;Fashion;Casual;2017;12M,PMTRSHRT00001798;1099.00;<p>SHIRT FULL SLEEVES</p>;;<p>Machine Wash</p>;;;;;zerotype;;Winter;;No
2118166;131246517087 C207-Blue-2118166;UJ JERALD SHI C207;Draft;Shirts;Palm Tree;Kids-Boys;Boys;Blue;;;Fashion;Casual;2017;10,PMTRSHRT00001796,12,PMTRSHRT00001797;1299.00;<p>SHIRT FULL SLEEVES</p>;;<p>Machine Wash</p>;;;;;zerotype;;Winter;;No
2118161;131246517087 C207-Blue-2118161;UJ JERALD SHI C207;Draft;Shirts;Palm Tree;Kids-Boys;Boys;Blue;;;Fashion;Casual;2017;02,PMTRSHRT00001792,04,PMTRSHRT00001793,06,PMTRSHRT00001794,08,PMTRSHRT00001795;1199.00;<p>SHIRT FULL SLEEVES</p>;;<p>Machine Wash</p>;;;;;zerotype;;Winter;;No
2118158;131246517086 6000-Blue-2118158;SS GANNON SHI 6000;Draft;Shirts;Palm Tree;Kids-Boys;Boys;Blue;;;Fashion;Casual;2017;18M,PMTRSHRT00001790,24M,PMTRSHRT00001791;899.00;<p>SHIRT FULL SLEEVES</p>;;<p>Machine Wash</p>;;;;;zerotype;;Winter;;No
2118157;131246517086 6000-Blue-2118157;SS GANNON SHI 6000;Draft;Shirts;Palm Tree;Kids-Boys;Boys;Blue;;;Fashion;Casual;2017;14,PMTRSHRT00001788,16,PMTRSHRT00001789;1099.00;<p>SHIRT FULL SLEEVES</p>;;<p>Machine Wash</p>;;;;;zerotype;;Winter;;No
2118156;131246517086 6000-Blue-2118156;SS GANNON SHI 6000;Draft;Shirts;Palm Tree;Kids-Boys;Boys;Blue;;;Fashion;Casual;2017;12M,PMTRSHRT00001787;899.00;<p>SHIRT FULL SLEEVES</p>;;<p>Machine Wash</p>;;;;;zerotype;;Winter;;No
2118154;131246517086 6000-Blue-2118154;SS GANNON SHI 6000;Draft;Shirts;Palm Tree;Kids-Boys;Boys;Blue;;;Fashion;Casual;2017;10,PMTRSHRT00001785,12,PMTRSHRT00001786;1099.00;<p>SHIRT FULL SLEEVES</p>;;<p>Machine Wash</p>;;;;;zerotype;;Winter;;No
2118150;131246517086 6000-Blue-2118150;SS GANNON SHI 6000;Draft;Shirts;Palm Tree;Kids-Boys;Boys;Blue;;;Fashion;Casual;2017;02,PMTRSHRT00001781,04,PMTRSHRT00001782,06,PMTRSHRT00001783,08,PMTRSHRT00001784;999.00;<p>SHIRT FULL SLEEVES</p>;;<p>Machine Wash</p>;;;;;zerotype;;Winter;;No
2118148;131246517082 C656-Blue-2118148;UJ JAREN SHI C656;Draft;Shirts;Palm Tree;Kids-Boys;Boys;Blue;;;Fashion;Casual;2017;18M,PMTRSHRT00001779,24M,PMTRSHRT00001780;1099.00;<p>SHIRT FULL SLEEVES</p>;;<p>Machine Wash</p>;;;;;zerotype;;Winter;;No
2118147;131246517082 C656-Blue-2118147;UJ JAREN SHI C656;Draft;Shirts;Palm Tree;Kids-Boys;Boys;Blue;;;Fashion;Casual;2017;14,PMTRSHRT00001777,16,PMTRSHRT00001778;1299.00;<p>SHIRT FULL SLEEVES</p>;;<p>Machine Wash</p>;;;;;zerotype;;Winter;;No
2118146;131246517082 C656-Blue-2118146;UJ JAREN SHI C656;Draft;Shirts;Palm Tree;Kids-Boys;Boys;Blue;;;Fashion;Casual;2017;12M,PMTRSHRT00001776;1099.00;<p>SHIRT FULL SLEEVES</p>;;<p>Machine Wash</p>;;;;;zerotype;;Winter;;No
2118143;131246517082 C656-Blue-2118143;UJ JAREN SHI C656;Draft;Shirts;Palm Tree;Kids-Boys;Boys;Blue;;;Fashion;Casual;2017;10,PMTRSHRT00001774,12,PMTRSHRT00001775;1299.00;<p>SHIRT FULL SLEEVES</p>;;<p>Machine Wash</p>;;;;;zerotype;;Winter;;No
2118140;131246517082 C656-Blue-2118140;UJ JAREN SHI C656;Draft;Shirts;Palm Tree;Kids-Boys;Boys;Blue;;;Fashion;Casual;2017;02,PMTRSHRT00001770,04,PMTRSHRT00001771,06,PMTRSHRT00001772,08,PMTRSHRT00001773;1199.00;<p>SHIRT FULL SLEEVES</p>;;<p>Machine Wash</p>;;;;;zerotype;;Winter;;No
2118138;131246517080 C656-Blue-2118138;SS GALVIN SHI C656;Draft;Shirts;Palm Tree;Kids-Boys;Boys;Blue;;;Fashion;Casual;2017;18M,PMTRSHRT00001768,24M,PMTRSHRT00001769;1099.00;<p>SHIRT FULL SLEEVES</p>;;<p>Machine Wash</p>;;;;;zerotype;;Winter;;No
2118137;131246517080 C656-Blue-2118137;SS GALVIN SHI C656;Draft;Shirts;Palm Tree;Kids-Boys;Boys;Blue;;;Fashion;Casual;2017;14,PMTRSHRT00001766,16,PMTRSHRT00001767;1299.00;<p>SHIRT FULL SLEEVES</p>;;<p>Machine Wash</p>;;;;;zerotype;;Winter;;No
2118134;131246517080 C656-Blue-2118134;SS GALVIN SHI C656;Draft;Shirts;Palm Tree;Kids-Boys;Boys;Blue;;;Fashion;Casual;2017;12M,PMTRSHRT00001765;1099.00;<p>SHIRT FULL SLEEVES</p>;;<p>Machine Wash</p>;;;;;zerotype;;Winter;;No
2118130;131246517080 C656-Blue-2118130;SS GALVIN SHI C656;Draft;Shirts;Palm Tree;Kids-Boys;Boys;Blue;;;Fashion;Casual;2017;10,PMTRSHRT00001763,12,PMTRSHRT00001764;1299.00;<p>SHIRT FULL SLEEVES</p>;;<p>Machine Wash</p>;;;;;zerotype;;Winter;;No
2118124;131246517080 C656-Blue-2118124;SS GALVIN SHI C656;Draft;Shirts;Palm Tree;Kids-Boys;Boys;Blue;;;Fashion;Casual;2017;02,PMTRSHRT00001759,04,PMTRSHRT00001760,06,PMTRSHRT00001761,08,PMTRSHRT00001762;1199.00;<p>SHIRT FULL SLEEVES</p>;;<p>Machine Wash</p>;;;;;zerotype;;Winter;;No
2118120;131246517080 C465-Red-2118120;SS GALVIN SHI C465;Draft;Shirts;Palm Tree;Kids-Boys;Boys;Red;;;Fashion;Casual;2017;18M,PMTRSHRT00001757,24M,PMTRSHRT00001758;1099.00;<p>SHIRT FULL SLEEVES</p>;;<p>Machine Wash</p>;;;;;zerotype;;Winter;;No
2118108;131246517080 C465-Red-2118108;SS GALVIN SHI C465;Draft;Shirts;Palm Tree;Kids-Boys;Boys;Red;;;Fashion;Casual;2017;14,PMTRSHRT00001755,16,PMTRSHRT00001756;1299.00;<p>SHIRT FULL SLEEVES</p>;;<p>Machine Wash</p>;;;;;zerotype;;Winter;;No
2118100;131246517080 C465-Red-2118100;SS GALVIN SHI C465;Draft;Shirts;Palm Tree;Kids-Boys;Boys;Red;;;Fashion;Casual;2017;12M,PMTRSHRT00001754;1099.00;<p>SHIRT FULL SLEEVES</p>;;<p>Machine Wash</p>;;;;;zerotype;;Winter;;No
2118090;131246517080 C465-Red-2118090;SS GALVIN SHI C465;Draft;Shirts;Palm Tree;Kids-Boys;Boys;Red;;;Fashion;Casual;2017;10,PMTRSHRT00001752,12,PMTRSHRT00001753;1299.00;<p>SHIRT FULL SLEEVES</p>;;<p>Machine Wash</p>;;;;;zerotype;;Winter;;No
2118070;131246517080 C465-Red-2118070;SS GALVIN SHI C465;Draft;Shirts;Palm Tree;Kids-Boys;Boys;Red;;;Fashion;Casual;2017;02,PMTRSHRT00001747,04,PMTRSHRT00001749,06,PMTRSHRT00001750,08,PMTRSHRT00001751;1199.00;<p>SHIRT FULL SLEEVES</p>;;<p>Machine Wash</p>;;;;;zerotype;;Winter;;No
2118057;131246517079 6000-Blue-2118057;SS GROWN SHI 6000;Draft;Shirts;Palm Tree;Kids-Boys;Boys;Blue;;;Fashion;Casual;2017;18M,PMTRSHRT00001743,24M,PMTRSHRT00001745;1099.00;<p>SHIRT FULL SLEEVES</p>;;<p>Machine Wash</p>;;;;;zerotype;;Winter;;No
2118044;131246517079 6000-Blue-2118044;SS GROWN SHI 6000;Draft;Shirts;Palm Tree;Kids-Boys;Boys;Blue;;;Fashion;Casual;2017;14,PMTRSHRT00001739,16,PMTRSHRT00001741;1299.00;<p>SHIRT FULL SLEEVES</p>;;<p>Machine Wash</p>;;;;;zerotype;;Winter;;No
2118037;131246517079 6000-Blue-2118037;SS GROWN SHI 6000;Draft;Shirts;Palm Tree;Kids-Boys;Boys;Blue;;;Fashion;Casual;2017;12M,PMTRSHRT00001737;1099.00;<p>SHIRT FULL SLEEVES</p>;;<p>Machine Wash</p>;;;;;zerotype;;Winter;;No
2118031;131246517079 6000-Blue-2118031;SS GROWN SHI 6000;Draft;Shirts;Palm Tree;Kids-Boys;Boys;Blue;;;Fashion;Casual;2017;10,PMTRSHRT00001733,12,PMTRSHRT00001736;1299.00;<p>SHIRT FULL SLEEVES</p>;;<p>Machine Wash</p>;;;;;zerotype;;Winter;;No
2118028;131246517079 6000-Blue-2118028;SS GROWN SHI 6000;Draft;Shirts;Palm Tree;Kids-Boys;Boys;Blue;;;Fashion;Casual;2017;02,PMTRSHRT00001725,04,PMTRSHRT00001727,06,PMTRSHRT00001729,08,PMTRSHRT00001731;1199.00;<p>SHIRT FULL SLEEVES</p>;;<p>Machine Wash</p>;;;;;zerotype;;Winter;;No
2118026;131246517077 C665-Blue-2118026;DC DALLEN SHI C665;Draft;Shirts;Palm Tree;Kids-Boys;Boys;Blue;;;Fashion;Casual;2017;18M,PMTRSHRT00001721,24M,PMTRSHRT00001723;899.00;<p>SHIRT FULL SLEEVES</p>;;<p>Machine Wash</p>;;;;;zerotype;;Winter;;No
2118024;131246517077 C665-Blue-2118024;DC DALLEN SHI C665;Draft;Shirts;Palm Tree;Kids-Boys;Boys;Blue;;;Fashion;Casual;2017;14,PMTRSHRT00001717,16,PMTRSHRT00001719;1099.00;<p>SHIRT FULL SLEEVES</p>;;<p>Machine Wash</p>;;;;;zerotype;;Winter;;No
2118022;131246517077 C665-Blue-2118022;DC DALLEN SHI C665;Draft;Shirts;Palm Tree;Kids-Boys;Boys;Blue;;;Fashion;Casual;2017;12M,PMTRSHRT00001714;899.00;<p>SHIRT FULL SLEEVES</p>;;<p>Machine Wash</p>;;;;;zerotype;;Winter;;No
2118021;131246517077 C665-Blue-2118021;DC DALLEN SHI C665;Draft;Shirts;Palm Tree;Kids-Boys;Boys;Blue;;;Fashion;Casual;2017;10,PMTRSHRT00001710,12,PMTRSHRT00001712;1099.00;<p>SHIRT FULL SLEEVES</p>;;<p>Machine Wash</p>;;;;;zerotype;;Winter;;No
2118018;131246517077 C665-Blue-2118018;DC DALLEN SHI C665;Draft;Shirts;Palm Tree;Kids-Boys;Boys;Blue;;;Fashion;Casual;2017;02,PMTRSHRT00001702,04,PMTRSHRT00001704,06,PMTRSHRT00001706,08,PMTRSHRT00001708;999.00;<p>SHIRT FULL SLEEVES</p>;;<p>Machine Wash</p>;;;;;zerotype;;Winter;;No
2118016;131246517077 C207-Black-2118016;DC DALLEN SHI C207;Draft;Shirts;Palm Tree;Kids-Boys;Boys;Black;;;Fashion;Casual;2017;18M,PMTRSHRT00001699,24M,PMTRSHRT00001701;899.00;<p>SHIRT FULL SLEEVES</p>;;<p>Machine Wash</p>;;;;;zerotype;;Winter;;No
2118014;131246517077 C207-Black-2118014;DC DALLEN SHI C207;Draft;Shirts;Palm Tree;Kids-Boys;Boys;Black;;;Fashion;Casual;2017;14,PMTRSHRT00001694,16,PMTRSHRT00001697;1099.00;<p>SHIRT FULL SLEEVES</p>;;<p>Machine Wash</p>;;;;;zerotype;;Winter;;No
2118012;131246517077 C207-Black-2118012;DC DALLEN SHI C207;Draft;Shirts;Palm Tree;Kids-Boys;Boys;Black;;;Fashion;Casual;2017;12M,PMTRSHRT00001692;899.00;<p>SHIRT FULL SLEEVES</p>;;<p>Machine Wash</p>;;;;;zerotype;;Winter;;No
2118010;131246517077 C207-Black-2118010;DC DALLEN SHI C207;Draft;Shirts;Palm Tree;Kids-Boys;Boys;Black;;;Fashion;Casual;2017;10,PMTRSHRT00001687,12,PMTRSHRT00001690;1099.00;<p>SHIRT FULL SLEEVES</p>;;<p>Machine Wash</p>;;;;;zerotype;;Winter;;No
2118007;131246517077 C207-Black-2118007;DC DALLEN SHI C207;Draft;Shirts;Palm Tree;Kids-Boys;Boys;Black;;;Fashion;Casual;2017;02,PMTRSHRT00001679,04,PMTRSHRT00001681,06,PMTRSHRT00001684,08,PMTRSHRT00001685;999.00;<p>SHIRT FULL SLEEVES</p>;;<p>Machine Wash</p>;;;;;zerotype;;Winter;;No
