Style ID;Vendor Article Number;Vendor Article Name;Active Status;Article type;Brand;Age Group;Gender;Base Colour;Colour1;Colour2;Fashion Type;Usage;Year;Size - SKU code pair;MRP;Style Description;Style Note;Materials and Care Description;Size and Fit Description;Size Chart Path;Product Display Name;Tags;Product Type;Classification Brand;Season;Comments;Upload Images
1888809;'6368588918763716440-BLACK-1888809;Maternity Lace Pyjama Set;Draft;Clothing Set;next;Adults-Women;Women;;;;Fashion;;2017;16,NEXTCLST00000364,18,NEXTCLST00000365,14,NEXTCLST00000366,12,NEXTCLST00000367,8,NEXTCLST00000368,10,NEXTCLST00000369,20,NEXTCLST00000370,22,NEXTCLST00000371;3590.00;;;;;;;;zerotype;;Summer;;No
1888808;'5882763778607500590-BLUE-1888808;Maternity Sports Trackpant;Draft;Track Pants;next;Adults-Women;Women;;;;Fashion;;2017;16R,NEXTTRPT00000885,14R,NEXTTRPT00000886,10R,NEXTTRPT00000887,20R,NEXTTRPT00000888,12R,NEXTTRPT00000889,18R,NEXTTRPT00000890,8R,NEXTTRPT00000891,22R,NEXTTRPT00000892;3890.00;;;;;;;;zerotype;;Summer;;No
1888807;'8832749670979058916-BLUE-1888807;Chambray Super Soft Pant;Draft;Lounge Pants;next;Adults-Women;Women;;;;Fashion;;2017;8L,NEXTLNGP00000190,18L,NEXTLNGP00000191,22R,NEXTLNGP00000192,20R,NEXTLNGP00000193,18R,NEXTLNGP00000194,14R,NEXTLNGP00000195,16L,NEXTLNGP00000196,12L,NEXTLNGP00000197,8R,NEXTLNGP00000198,16R,NEXTLNGP00000199,22L,NEXTLNGP00000200,10R,NEXTLNGP00000201,6R,NEXTLNGP00000202,10L,NEXTLNGP00000203,20L,NEXTLNGP00000204,12R,NEXTLNGP00000205,14L,NEXTLNGP00000206;2390.00;;;;;;;;zerotype;;Summer;;No
1888806;'8282410587656617776-WHITE-1888806;Grey/Ecru Stripe Pants;Draft;Lounge Pants;next;Adults-Women;Women;;;;Fashion;;2017;S,NEXTLNGP00000185,L,NEXTLNGP00000186,XS,NEXTLNGP00000187,M,NEXTLNGP00000188,XL,NEXTLNGP00000189;2390.00;;;;;;;;zerotype;;Summer;;No
1888805;'6692454914738228705-BLUE-1888805;Blue/White Cotton Stripe Pants;Draft;Lounge Pants;next;Adults-Women;Women;;;;Fashion;;2017;8,NEXTLNGP00000177,10,NEXTLNGP00000178,18,NEXTLNGP00000179,12,NEXTLNGP00000180,14,NEXTLNGP00000181,16,NEXTLNGP00000182,20,NEXTLNGP00000183,6,NEXTLNGP00000184;1990.00;;;;;;;;zerotype;;Summer;;No
1888804;'6833509688951878953-PINK-1888804;Pink Cord Skirt;Draft;Skirts;next;Adults-Women;Women;;;;Fashion;;2017;22,NEXTSKRT00000765,10,NEXTSKRT00000766,6,NEXTSKRT00000767,24,NEXTSKRT00000768,16,NEXTSKRT00000769,18,NEXTSKRT00000770,8,NEXTSKRT00000771,26,NEXTSKRT00000772,12,NEXTSKRT00000773,14,NEXTSKRT00000774,20,NEXTSKRT00000775;2690.00;;;;;;;;zerotype;;Summer;;No
1888803;'6626718542329439674-BLUE-1888803;Pinstripe Skirt;Draft;Skirts;next;Adults-Women;Women;;;;Fashion;;2017;16,NEXTSKRT00000757,10,NEXTSKRT00000758,18,NEXTSKRT00000759,6,NEXTSKRT00000760,12,NEXTSKRT00000761,20,NEXTSKRT00000762,8,NEXTSKRT00000763,14,NEXTSKRT00000764;3390.00;;;;;;;;zerotype;;Summer;;No
1888802;'6089752834814130877-PINK-1888802;Blush Dipped Hem Full Skirt;Draft;Skirts;next;Adults-Women;Women;;;;Fashion;;2017;18,NEXTSKRT00000749,8,NEXTSKRT00000750,20,NEXTSKRT00000751,12,NEXTSKRT00000752,6,NEXTSKRT00000753,14,NEXTSKRT00000754,16,NEXTSKRT00000755,10,NEXTSKRT00000756;7190.00;;;;;;;;zerotype;;Summer;;No
1888800;'5818232425799950331-GREEN-1888800;Khaki Historical Skirt;Draft;Skirts;next;Adults-Women;Women;;;;Fashion;;2017;20,NEXTSKRT00000740,12,NEXTSKRT00000741,8,NEXTSKRT00000742,18,NEXTSKRT00000743,22,NEXTSKRT00000744,14,NEXTSKRT00000745,6,NEXTSKRT00000746,10,NEXTSKRT00000747,16,NEXTSKRT00000748;4190.00;;;;;;;;zerotype;;Summer;;No
1888798;'5634666941138443099-GREY-1888798;Speckled High Waist Trouser;Draft;Trousers;next;Adults-Women;Women;;;;Fashion;;2017;22L,NEXTTRSR00002638,6R,NEXTTRSR00002639,18R,NEXTTRSR00002640,16L,NEXTTRSR00002641,12L,NEXTTRSR00002642,6L,NEXTTRSR00002643,10L,NEXTTRSR00002644,10R,NEXTTRSR00002645,8L,NEXTTRSR00002646,20L,NEXTTRSR00002647,14R,NEXTTRSR00002648,22R,NEXTTRSR00002649,8R,NEXTTRSR00002650,12R,NEXTTRSR00002651,14L,NEXTTRSR00002652,18L,NEXTTRSR00002653,20R,NEXTTRSR00002654,16R,NEXTTRSR00002655;4390.00;;;;;;;;zerotype;;Summer;;No
1888797;'8089190523503050723-TAN-1888797;Tie Waist Shorts;Draft;Shorts;next;Adults-Women;Women;;;;Fashion;;2017;6,NEXTSHOR00001152,10,NEXTSHOR00001153,8,NEXTSHOR00001154,16,NEXTSHOR00001155,22,NEXTSHOR00001156,12,NEXTSHOR00001157,20,NEXTSHOR00001158,14,NEXTSHOR00001159,18,NEXTSHOR00001160;3590.00;;;;;;;;zerotype;;Summer;;No
1888796;'9173593436517436972-BLACK-1888796;Tie Waist Shorts;Draft;Shorts;next;Adults-Women;Women;;;;Fashion;;2017;6,NEXTSHOR00001143,10,NEXTSHOR00001144,16,NEXTSHOR00001145,18,NEXTSHOR00001146,20,NEXTSHOR00001147,8,NEXTSHOR00001148,22,NEXTSHOR00001149,14,NEXTSHOR00001150,12,NEXTSHOR00001151;3590.00;;;;;;;;zerotype;;Summer;;No
1888795;'NE988WA91MEQINDFAS-BLACK-1888795;Cotton Footsie Three Pack;Draft;Socks;next;Adults-Women;Women;;;;Fashion;;2017;S/M,NEXTSCKS00000110;890.00;;;;;;;;zerotype;;Summer;;No
1888794;'9103490957471635033-GREY-1888794;Pilates Socks Two Pack;Draft;Socks;next;Adults-Women;Women;;;;Fashion;;2017;M/L,NEXTSCKS00000108,S/M,NEXTSCKS00000109;790.00;;;;;;;;zerotype;;Summer;;No
1888792;'8061999812432535984-GREY-1888792;Animal Ankle Socks Five Pack;Draft;Socks;next;Adults-Women;Women;;;;Fashion;;2017;Onesize,NEXTSCKS00000107;1190.00;;;;;;;;zerotype;;Summer;;No
1888791;'7898814640531336542-BLUE-1888791;Ditsy Trainer Socks Five Pack;Draft;Socks;next;Adults-Women;Women;;;;Fashion;;2017;Onesize,NEXTSCKS00000106;1090.00;;;;;;;;zerotype;;Summer;;No
1888790;'7349482578320834859-PINK-1888790;Invisible Trainer Socks Five Pack;Draft;Socks;next;Adults-Women;Women;;;;Fashion;;2017;M/L,NEXTSCKS00000104,S/M,NEXTSCKS00000105;1190.00;;;;;;;;zerotype;;Summer;;No
1888789;'6845965635152918829-BLACK-1888789;Stripe Heel And Toe Ankle Socks Two Pack;Draft;Socks;next;Adults-Women;Women;;;;Fashion;;2017;Onesize,NEXTSCKS00000103;1090.00;;;;;;;;zerotype;;Summer;;No
1888787;'6701841916302363114-BLUE-1888787;Invisible Socks Four Pack;Draft;Socks;next;Adults-Women;Women;;;;Fashion;;2017;M/L,NEXTSCKS00000101,S/M,NEXTSCKS00000102;1190.00;;;;;;;;zerotype;;Summer;;No
1888785;'6391683312155728082-PINK-1888785;Blue/Pink Low Rise Trainer Socks Three Pack;Draft;Socks;next;Adults-Women;Women;;;;Fashion;;2017;Onesize,NEXTSCKS00000100;1190.00;;;;;;;;zerotype;;Summer;;No
1888783;'6210398408301537820-WHITE-1888783;Cotton Footsie Three Pack;Draft;Socks;next;Adults-Women;Women;;;;Fashion;;2017;M/L,NEXTSCKS00000098,S/M,NEXTSCKS00000099;890.00;;;;;;;;zerotype;;Summer;;No
1888781;'6038983397423683838-WHITE-1888781;Sports Socks Three Pack;Draft;Socks;next;Adults-Women;Women;;;;Fashion;;2017;Onesize,NEXTSCKS00000097;890.00;;;;;;;;zerotype;;Summer;;No
1888780;'5763988734070423688-WHITE-1888780;Cotton Yoga Socks Two Pack;Draft;Socks;next;Adults-Women;Women;;;;Fashion;;2017;S/M,NEXTSCKS00000095,M/L,NEXTSCKS00000096;1090.00;;;;;;;;zerotype;;Summer;;No
1888779;'4970024163854160852-BLACK-1888779;Sports Socks Three Pack;Draft;Socks;next;Adults-Women;Women;;;;Fashion;;2017;Onesize,NEXTSCKS00000094;890.00;;;;;;;;zerotype;;Summer;;No
1888777;'4957692821176866027-BLACK-1888777;Sheer Ankle Socks Two Pack;Draft;Socks;next;Adults-Women;Women;;;;Fashion;;2017;Onesize,NEXTSCKS00000093;790.00;;;;;;;;zerotype;;Summer;;No
1888776;'4801942304625601101-GREY-1888776;Textured Footsies Three Pack;Draft;Socks;next;Adults-Women;Women;;;;Fashion;;2017;M/L,NEXTSCKS00000091,S/M,NEXTSCKS00000092;1190.00;;;;;;;;zerotype;;Summer;;No
1888770;'7151607442942374270-GREY-1888770;Lace High Waisted Briefs;Draft;Briefs;next;Adults-Women;Women;;;;Fashion;;2017;8,NEXTBREF00000346,18,NEXTBREF00000347,14,NEXTBREF00000348,16,NEXTBREF00000349,6,NEXTBREF00000350,10,NEXTBREF00000351,12,NEXTBREF00000352;1490.00;;;;;;;;zerotype;;Summer;;No
1888767;'6934947990544491902-CREAM-1888767;Lace Bikini Briefs;Draft;Briefs;next;Adults-Women;Women;;;;Fashion;;2017;12,NEXTBREF00000338,6,NEXTBREF00000339,18,NEXTBREF00000340,14,NEXTBREF00000341,16,NEXTBREF00000342,8,NEXTBREF00000343,10,NEXTBREF00000344,20,NEXTBREF00000345;1690.00;;;;;;;;zerotype;;Summer;;No
1888764;'9209645824344560639-BLUE-1888764;No Vpl Lace Brazilian Briefs Three Pack;Draft;Briefs;next;Adults-Women;Women;;;;Fashion;;2017;16,NEXTBREF00000331,12,NEXTBREF00000332,8,NEXTBREF00000333,18,NEXTBREF00000334,14,NEXTBREF00000335,10,NEXTBREF00000336,6,NEXTBREF00000337;1690.00;;;;;;;;zerotype;;Summer;;No
1888762;'8582435640174124991-BLUE-1888762;Relaxed Jeans;Draft;Jeans;next;Adults-Women;Women;;;;Fashion;;2017;8L,NEXTJENS00002761;3590.00;;;;;;;;zerotype;;Summer;;No
1888742;'8551747776192105533-WHITE-1888742;360 Super Skinny Jeans;Draft;Jeans;next;Adults-Women;Women;;;;Fashion;;2017;16L,NEXTJENS00002740,12R,NEXTJENS00002741,18L,NEXTJENS00002742,8R,NEXTJENS00002743,22R,NEXTJENS00002744,6R,NEXTJENS00002745,10L,NEXTJENS00002746,12XL,NEXTJENS00002747,14XL,NEXTJENS00002748,20R,NEXTJENS00002749,18R,NEXTJENS00002750,10XL,NEXTJENS00002751,10R,NEXTJENS00002752,12L,NEXTJENS00002753,22L,NEXTJENS00002754,14L,NEXTJENS00002755,16R,NEXTJENS00002756,16XL,NEXTJENS00002757,14R,NEXTJENS00002758,20L,NEXTJENS00002759,8L,NEXTJENS00002760;5590.00;;;;;;;;zerotype;;Summer;;No
1888741;'8357277933006782333-BLUE-1888741;Side Split Hem Jeans;Draft;Jeans;next;Adults-Women;Women;;;;Fashion;;2017;8L,NEXTJENS00002739;3390.00;;;;;;;;zerotype;;Summer;;No
1888740;'8352345224377653116-BLUE-1888740;Wideleg Ankle Jeans;Draft;Jeans;next;Adults-Women;Women;;;;Fashion;;2017;8L,NEXTJENS00002738;3390.00;;;;;;;;zerotype;;Summer;;No
1888739;'8321143546745746997-BLUE-1888739;Maternity Slash Knee Skinny Jeans;Draft;Jeans;next;Adults-Women;Women;;;;Fashion;;2017;8S,NEXTJENS00002737;3190.00;;;;;;;;zerotype;;Summer;;No
1888738;'7970729594581919048-BLACK-1888738;Embroidered Scribble Boyfit Jeans;Draft;Jeans;next;Adults-Women;Women;;;;Fashion;;2017;8L,NEXTJENS00002736;4190.00;;;;;;;;zerotype;;Summer;;No
1888737;'7365922348768584128-BLUE-1888737;Maternity Skinny Jean Over The Bump;Draft;Jeans;next;Adults-Women;Women;;;;Fashion;;2017;8S,NEXTJENS00002735;3390.00;;;;;;;;zerotype;;Summer;;No
1888736;'6759402482279281412-BLACK-1888736;Maternity Skinny Over The Bump Jeans;Draft;Jeans;next;Adults-Women;Women;;;;Fashion;;2017;8S,NEXTJENS00002734;3390.00;;;;;;;;zerotype;;Summer;;No
1888735;'6667450305467320774-BLUE-1888735;Distressed Button Fly Relaxed Jeans;Draft;Jeans;next;Adults-Women;Women;;;;Fashion;;2017;8L,NEXTJENS00002733;3390.00;;;;;;;;zerotype;;Summer;;No
1888733;'6593598876982522280-BLUE-1888733;Zip Ankle Grazer Jeans;Draft;Jeans;next;Adults-Women;Women;;;;Fashion;;2017;8L,NEXTJENS00002732;2890.00;;;;;;;;zerotype;;Summer;;No
1888732;'6528704014421306084-BLUE-1888732;Maternity Boot Cut Jean Over The Bump;Draft;Jeans;next;Adults-Women;Women;;;;Fashion;;2017;8S,NEXTJENS00002731;2890.00;;;;;;;;zerotype;;Summer;;No
1888731;'6517999484773267226-BLACK-1888731;Embroidered Cut Out Skinny Jeans;Draft;Jeans;next;Adults-Women;Women;;;;Fashion;;2017;8L,NEXTJENS00002730;5090.00;;;;;;;;zerotype;;Summer;;No
1888730;'6394726441628889076-BLUE-1888730;Maternity Ankle Zip Skinny Jeans;Draft;Jeans;next;Adults-Women;Women;;;;Fashion;;2017;8S,NEXTJENS00002729;3390.00;;;;;;;;zerotype;;Summer;;No
1888729;'5797674080953460347-BLUE-1888729;360 Super Skinny Jeans;Draft;Jeans;next;Adults-Women;Women;;;;Fashion;;2017;8L,NEXTJENS00002728;5590.00;;;;;;;;zerotype;;Summer;;No
1888727;'5646236263526830666-BLUE-1888727;Coated Pull On Jeans;Draft;Jeans;next;Adults-Women;Women;;;;Fashion;;2017;8,NEXTJENS00002726,18,NEXTJENS00002727;3190.00;;;;;;;;zerotype;;Summer;;No
1888725;'5536715202474437406-BLUE-1888725;Embroidered Flower Boyfit Jeans;Draft;Jeans;next;Adults-Women;Women;;;;Fashion;;2017;8L,NEXTJENS00002725;4190.00;;;;;;;;zerotype;;Summer;;No
1888723;'5068840538547623208-BLUE-1888723;Maternity Seam Jeans;Draft;Jeans;next;Adults-Women;Women;;;;Fashion;;2017;8S,NEXTJENS00002724;3890.00;;;;;;;;zerotype;;Summer;;No
1888722;'4830379345276325647-BLUE-1888722;Maternity Relax Fit Under The Bump Jeans;Draft;Jeans;next;Adults-Women;Women;;;;Fashion;;2017;8S,NEXTJENS00002723;3590.00;;;;;;;;zerotype;;Summer;;No
1888720;'4788929353072985376-BLUE-1888720;Maternity Skinny Jeans;Draft;Jeans;next;Adults-Women;Women;;;;Fashion;;2017;8S,NEXTJENS00002722;3390.00;;;;;;;;zerotype;;Summer;;No
1888719;'4729354339602942876-BLACK-1888719;Maternity Customised Under The Bump Jeans;Draft;Jeans;next;Adults-Women;Women;;;;Fashion;;2017;8S,NEXTJENS00002721;4390.00;;;;;;;;zerotype;;Summer;;No
1873978;5598401197094276131-CREAM-1873978;Bridal Wifey Briefs;Active;Briefs;next;Adults-Women;Women;Cream;;;Fashion;Casual;2017;16,NEXTBREF00000234,12,NEXTBREF00000235,18,NEXTBREF00000236,10,NEXTBREF00000237,6,NEXTBREF00000238,8,NEXTBREF00000239,14,NEXTBREF00000240;1490.00;Cream-coloured lace thong briefs with an elasticated waistband<br />Please note that this style will be directly shipped from UK and might take 18-20 days to be delivered;Physique-flattering fit and luxurious fabric make these briefs by next an ideal pick. Wear them under a pair of shorts or trousers for all day long comfort.;Nylon and spandex<br />Hand-wash;;;next Women Cream-Coloured Lace Thong Briefs 5598401197094276131;next,JIT;zerotype;;Summer;;No
