Style ID;Vendor Article Number;Vendor Article Name;Active Status;Article type;Brand;Age Group;Gender;Base Colour;Colour1;Colour2;Fashion Type;Usage;Year;Size - SKU code pair;MRP;Style Description;Style Note;Materials and Care Description;Size and Fit Description;Size Chart Path;Product Display Name;Tags;Product Type;Classification Brand;Season;Comments;Upload Images
1898906;5021468652087-Pink-1898906;IO MG SAF PNK AOP JSY JUMPSUI, PINK, 098;Draft;Rompers;mothercare;Kids-Girls;Girls;;;;Fashion;;2017;3-6M,MTCRRMPR00000722,6-9M,MTCRRMPR00000723,9-12M,MTCRRMPR00000724,12-18M,MTCRRMPR00000725,18-24M,MTCRRMPR00000726,2-3Y,MTCRRMPR00000727;999.00;;;;;;;;zerotype;;Summer;;No
1898905;5021468628655-Pink-1898905;NB BF FLORAL NEW SHAPE AIO, P.PNK, 080;Draft;Rompers;mothercare;Kids-Girls;Girls;;;;Fashion;;2017;Newborn,MTCRRMPR00000717,0-3M,MTCRRMPR00000718,3-6M,MTCRRMPR00000719,6-9M,MTCRRMPR00000720,9-12M,MTCRRMPR00000721;1099.00;;;;;;;;zerotype;;Summer;;No
1898904;5021468630108-White-1898904;IO U 2PK SS GRPH & AOP TOP, OAT, 080;Draft;Tshirts;mothercare;Kids-Unisex;Unisex;;;;Fashion;;2017;Newborn,MTCRTSHT00006984,0-3M,MTCRTSHT00006985,3-6M,MTCRTSHT00006986,6-9M,MTCRTSHT00006987,9-12M,MTCRTSHT00006988;899.00;;;;;;;;zerotype;;Summer;;No
1898903;5021468683050-Multi-1898903;NB BF 3PK GRAPHIC AOP AND PI, PASTM, 080;Draft;Tshirts;mothercare;Kids-Girls;Girls;;;;Fashion;;2017;Tiny Baby,MTCRTSHT00006978,Newborn,MTCRTSHT00006979,0-3M,MTCRTSHT00006980,3-6M,MTCRTSHT00006981,6-9M,MTCRTSHT00006982,9-12M,MTCRTSHT00006983;999.00;;;;;;;;zerotype;;Summer;;No
1898902;5021468635394-Blue-1898902;IO NB BF SS GRAPHIC TOP, LILAC, 086;Draft;Tshirts;mothercare;Kids-Girls;Girls;;;;Fashion;;2017;Tiny Baby,MTCRTSHT00006971,Newborn,MTCRTSHT00006972,0-3M,MTCRTSHT00006973,3-6M,MTCRTSHT00006974,6-9M,MTCRTSHT00006975,9-12M,MTCRTSHT00006976,12-18M,MTCRTSHT00006977;499.00;;;;;;;;zerotype;;Summer;;No
1898901;5021468682855-Multi-1898901;NB LF 3PK GRAPHIC AOP AND ST, BRIGM, 080;Draft;Tshirts;mothercare;Kids-Boys;Boys;;;;Fashion;;2017;Tiny Baby,MTCRTSHT00006965,Newborn,MTCRTSHT00006966,0-3M,MTCRTSHT00006967,3-6M,MTCRTSHT00006968,6-9M,MTCRTSHT00006969,9-12M,MTCRTSHT00006970;999.00;;;;;;;;zerotype;;Summer;;No
1898900;5021468566032-Grey-1898900;MB URBAN FARM  EASY PEASY SS, GMARL, 098;Draft;Tshirts;mothercare;Kids-Boys;Boys;;;;Fashion;;2017;3-6M,MTCRTSHT00006959,6-9M,MTCRTSHT00006960,9-12M,MTCRTSHT00006961,12-18M,MTCRTSHT00006962,18-24M,MTCRTSHT00006963,2-3Y,MTCRTSHT00006964;499.00;;;;;;;;zerotype;;Summer;;No
1898899;5021468735919-White-1898899;SR IO JG WSTRN SS BFF GRL TE, CREAM, 140;Draft;Tshirts;mothercare;Kids-Girls;Girls;;;;Fashion;;2017;2-3Y,MTCRTSHT00006951,3-4Y,MTCRTSHT00006952,4-5Y,MTCRTSHT00006953,5-6Y,MTCRTSHT00006954,6-7Y,MTCRTSHT00006955,7-8Y,MTCRTSHT00006956,8-9Y,MTCRTSHT00006957,9-10Y,MTCRTSHT00006958;599.00;;;;;;;;zerotype;;Summer;;No
1898898;5021468782173-Pink-1898898;PREPPY SS ANGL SLV TEE PNK, PINK, 140;Draft;Tshirts;mothercare;Kids-Girls;Girls;;;;Fashion;;2017;3-4Y,MTCRTSHT00006944,4-5Y,MTCRTSHT00006945,5-6Y,MTCRTSHT00006946,6-7Y,MTCRTSHT00006947,7-8Y,MTCRTSHT00006948,8-9Y,MTCRTSHT00006949,9-10Y,MTCRTSHT00006950;799.00;;;;;;;;zerotype;;Summer;;No
1898897;5021469233056-Yellow-1898897;IO MG SUN FLWR GRAPHIC LL TE, YELLO, 098;Draft;Tshirts;mothercare;Kids-Girls;Girls;;;;Fashion;;2017;3-6M,MTCRTSHT00006938,6-9M,MTCRTSHT00006939,9-12M,MTCRTSHT00006940,12-18M,MTCRTSHT00006941,18-24M,MTCRTSHT00006942,2-3Y,MTCRTSHT00006943;499.00;;;;;;;;zerotype;;Summer;;No
1898896;5021468649209-Cream-1898896;IO MG FRM SS DADDY I LOVE U, CREAM, 098;Draft;Tshirts;mothercare;Kids-Girls;Girls;;;;Fashion;;2017;3-6M,MTCRTSHT00006932,6-9M,MTCRTSHT00006933,9-12M,MTCRTSHT00006934,12-18M,MTCRTSHT00006935,18-24M,MTCRTSHT00006936,2-3Y,MTCRTSHT00006937;499.00;;;;;;;;zerotype;;Summer;;No
1898895;5021468705394-Black-1898895;IO JG MC61 £5 BLK DENIM JEGN;Draft;Jeggings;mothercare;Kids-Girls;Girls;;;;Fashion;;2017;2-3Y,MTCRJGNG00000088,3-4Y,MTCRJGNG00000089,4-5Y,MTCRJGNG00000090,5-6Y,MTCRJGNG00000091,6-7Y,MTCRJGNG00000092,7-8Y,MTCRJGNG00000093,8-9Y,MTCRJGNG00000094,9-10Y,MTCRJGNG00000095;899.00;;;;;;;;zerotype;;Summer;;No
1898894;5021468642477-Peach-1898894;IO NB BF INTERLOCK GRAPHIC SH;Draft;Shawl;mothercare;Kids-Girls;Girls;;;;Fashion;;2017;Onesize,MTCRSHWL00000012;1099.00;;;;;;;;zerotype;;Summer;;No
1898893;5021468808262-Red-1898893;SR MB VAC COOL SS TEE PJ;Draft;Clothing Set;mothercare;Kids-Boys;Boys;;;;Fashion;;2017;18-24M,MTCRCLST00000896,2-3Y,MTCRCLST00000897,3-6M,MTCRCLST00000898,6-9M,MTCRCLST00000899,9-12M,MTCRCLST00000900,12-18M,MTCRCLST00000901;1099.00;;;;;;;;zerotype;;Summer;;No
1898892;5021469250916-Pink-1898892;MG PREP SS PNK BOW BLSE & SHR, PINK, 098;Draft;Clothing Set;mothercare;Kids-Girls;Girls;;;;Fashion;;2017;3-6M,MTCRCLST00000890,6-9M,MTCRCLST00000891,9-12M,MTCRCLST00000892,12-18M,MTCRCLST00000893,18-24M,MTCRCLST00000894,2-3Y,MTCRCLST00000895;1499.00;;;;;;;;zerotype;;Summer;;No
1898891;5021468589581-Red-1898891;BOYS BY THE SEA SHORTIE - SR, BLUE, 140;Draft;Clothing Set;mothercare;Kids-Boys;Boys;;;;Fashion;;2017;2-3Y,MTCRCLST00000882,3-4Y,MTCRCLST00000883,4-5Y,MTCRCLST00000884,5-6Y,MTCRCLST00000885,6-7Y,MTCRCLST00000886,7-8Y,MTCRCLST00000887,8-9Y,MTCRCLST00000888,9-10Y,MTCRCLST00000889;999.00;;;;;;;;zerotype;;Summer;;No
1898890;5021468688185-Red-1898890;NB HG RED BRODERIE DRESS AND;Draft;Dresses;mothercare;Kids-Girls;Girls;;;;Fashion;;2017;Tiny Baby,MTCRDRSS00001912,Newborn,MTCRDRSS00001913,0-3M,MTCRDRSS00001914,3-6M,MTCRDRSS00001915,6-9M,MTCRDRSS00001916,9-12M,MTCRDRSS00001917;1499.00;;;;;;;;zerotype;;Summer;;No
1898889;5021468687539-Pink-1898889;NB BF HOT PINK BRODERIE DRESS;Draft;Dresses;mothercare;Kids-Girls;Girls;;;;Fashion;;2017;Tiny Baby,MTCRDRSS00001906,Newborn,MTCRDRSS00001907,0-3M,MTCRDRSS00001908,3-6M,MTCRDRSS00001909,6-9M,MTCRDRSS00001910,9-12M,MTCRDRSS00001911;1499.00;;;;;;;;zerotype;;Summer;;No
1898888;5021468541459-Pink-1898888;IO GIRLS 3PK SS MY FIRST LIT, P.PNK, 080;Draft;Bodysuit;mothercare;Kids-Girls;Girls;;;;Fashion;;2017;Tiny Baby,MTCRBYST00001294,Newborn,MTCRBYST00001295,0-3M,MTCRBYST00001296,3-6M,MTCRBYST00001297,6-9M,MTCRBYST00001298,9-12M,MTCRBYST00001299;899.00;;;;;;;;zerotype;;Summer;;No
1898887;5021468644730-Blue-1898887;IO MG MC61 DNM DK WSH SKEGGI, DENIM, 098;Draft;Leggings;mothercare;Kids-Girls;Girls;;;;Fashion;;2017;3-6M,MTCRLEGG00000841,6-9M,MTCRLEGG00000842,9-12M,MTCRLEGG00000843,12-18M,MTCRLEGG00000844,18-24M,MTCRLEGG00000845,2-3Y,MTCRLEGG00000846;599.00;;;;;;;;zerotype;;Summer;;No
1891778;5021468640473-Peach-1891778;NB BF SOFT PINK BRODERIE DRES;Active;Dresses;mothercare;Kids-Girls;Girls;Peach;;;Fashion;Casual;2017;Newborn,MTCRDRSS00001900,0-3M,MTCRDRSS00001901,3-6M,MTCRDRSS00001902,6-9M,MTCRDRSS00001903,9-12M,MTCRDRSS00001904,12-18M,MTCRDRSS00001905;1499.00;Peach-coloured woven fit and flare dress with gathered and cut-out detail throughout, has a round neck, cap sleeves, button closure on the back, flared hem<br />Comes with a matching pair of briefs;This dress from mothercare will have your little girl looking her best. She can layer this peach piece with a casual blazer and a trendy handbag for a chic school ensemble.;Cotton <br />Machine-wash;;;mothercare Girls Peach-Coloured Fit and Flare Dress with Briefs;mothercare,JIT;zerotype;;Summer;;No
1891748;5021468635516-Pink-1891748;NB BF SS LOVE DADDY BODYSUIT, P.PNK, 050;Draft;Bodysuit;mothercare;Kids-Boys;Boys;;;;Fashion;;2017;Newborn,MTCRBYST00001287,0-3M,MTCRBYST00001288,3-6M,MTCRBYST00001289,6-9M,MTCRBYST00001290,9-12M,MTCRBYST00001291,12-18M,MTCRBYST00001292,Tiny Baby,MTCRBYST00001293;499.00;;;;;;;;zerotype;;Summer;;No
1874863;5021464811686-Pink-1874863;G MFG 2PK IL AOP&PLN HAT, BAPNK, 004;Active;Caps;mothercare;Kids-Girls;Girls;White;Pink;;Fashion;Casual;2017;0-3M,MTCRCAPS00000275,3-6M,MTCRCAPS00000276,6-12M,MTCRCAPS00000277;499.00;Pack of two beanies<br />White printed beanie<br />Pink beanie with embroidered detail;Keep your child warm at all times with these beanies from mothercare. The soft fabric will avoid irritation and also keep your child comfortable at all times.;Cotton<br />Machine-wash;;;mothercare Girls Pack of 2 Beanies;mothercare,JIT;zerotype;;Summer;;No
1827899;5021468593717-Blue-1827899;GIRLSMEOWSSLLPJ;Active;Clothing Set;mothercare;Kids-Boys;Boys;Blue;White;;Fashion;Casual;2017;2-3Y,MTCRCLST00000768,3-4Y,MTCRCLST00000769,4-5Y,MTCRCLST00000770,5-6Y,MTCRCLST00000771,6-7Y,MTCRCLST00000772,7-8Y,MTCRCLST00000773,8-9Y,MTCRCLST00000774,9-10Y,MTCRCLST00000775;1099.00;Blue and white <a href='/printed-clothing-set?src=pd' class='seolink'>printed clothing set</a><br />Blue printed T-shirt, has a round neck, short sleeves<br />White and blue striped pyjamas, has an elasticated waistband;Your kid will love this comfortable clothing set from mothercare. The soft fabric will keep them relaxed all day long.;Cotton<br />Machine-wash;;;mothercare Boys Blue & White Clothing Set;mothercare,JIT,kidsss17nls;zerotype;;Summer;kidsss17nls;No
