Style ID;Vendor Article Number;Vendor Article Name;Active Status;Article type;Brand;Age Group;Gender;Base Colour;Colour1;Colour2;Fashion Type;Usage;Year;Size - SKU code pair;MRP;Style Description;Style Note;Materials and Care Description;Size and Fit Description;Size Chart Path;Product Display Name;Tags;Product Type;Classification Brand;Season;Comments;Upload Images
2412377;BUBLT1728-Maroon-2412377;BUCKLEUP MENS LEATHER BELT;Draft;Belts;BuckleUp;Adults-Men;Men;Maroon;;;Fashion;Formal;2018;40,BKUPBELT00004046,38,BKUPBELT00004047,36,BKUPBELT00004048,34,BKUPBELT00004049;2199.00;;;<p>clean with dry cloth</p>;;;na;;zerotype;;Winter;;No
2412376;BUBLT1737-Black-2412376;BUCKLEUP MENS LEATHER BELT;Draft;Belts;BuckleUp;Adults-Men;Men;Black;;;Fashion;Formal;2018;40,BKUPBELT00004042,38,BKUPBELT00004043,36,BKUPBELT00004044,34,BKUPBELT00004045;2199.00;;;<p>clean with dry cloth</p>;;;na;;zerotype;;Winter;;No
2412375;BUBLT1727-Blue-2412375;BUCKLEUP MENS LEATHER BELT;Draft;Belts;BuckleUp;Adults-Men;Men;Blue;;;Fashion;Formal;2018;40,BKUPBELT00004038,38,BKUPBELT00004039,36,BKUPBELT00004040,34,BKUPBELT00004041;2199.00;;;<p>clean with dry cloth</p>;;;na;;zerotype;;Winter;;No
2412374;BUBLT1736-Black-2412374;BUCKLEUP MENS LEATHER BELT;Draft;Belts;BuckleUp;Adults-Men;Men;Black;;;Fashion;Formal;2018;40,BKUPBELT00004034,38,BKUPBELT00004035,36,BKUPBELT00004036,34,BKUPBELT00004037;2199.00;;;<p>clean with dry cloth</p>;;;na;;zerotype;;Winter;;No
2412373;BUBLT1724-Blue-2412373;BUCKLEUP MENS LEATHER BELT;Draft;Belts;BuckleUp;Adults-Men;Men;Blue;;;Fashion;Formal;2018;40,BKUPBELT00004030,38,BKUPBELT00004031,36,BKUPBELT00004032,34,BKUPBELT00004033;2199.00;;;<p>clean with dry cloth</p>;;;na;;zerotype;;Winter;;No
2412372;BUBLT1734-Tan-2412372;BUCKLEUP MENS LEATHER BELT;Draft;Belts;BuckleUp;Adults-Men;Men;Tan;;;Fashion;Formal;2018;40,BKUPBELT00004026,38,BKUPBELT00004027,36,BKUPBELT00004028,34,BKUPBELT00004029;2199.00;;;<p>clean with dry cloth</p>;;;na;;zerotype;;Winter;;No
2412371;BUBLT1735-Tan-2412371;BUCKLEUP MENS LEATHER BELT;Draft;Belts;BuckleUp;Adults-Men;Men;Tan;;;Fashion;Formal;2018;40,BKUPBELT00004022,38,BKUPBELT00004023,36,BKUPBELT00004024,34,BKUPBELT00004025;2199.00;;;<p>clean with dry cloth</p>;;;na;;zerotype;;Winter;;No
2412370;BUBLT1726-Black-2412370;BUCKLEUP MENS LEATHER BELT;Draft;Belts;BuckleUp;Adults-Men;Men;Black;;;Fashion;Formal;2018;40,BKUPBELT00004018,38,BKUPBELT00004019,36,BKUPBELT00004020,34,BKUPBELT00004021;2199.00;;;<p>clean with dry cloth</p>;;;na;;zerotype;;Winter;;No
2412369;BUBLT1725-Maroon-2412369;BUCKLEUP MENS LEATHER BELT;Draft;Belts;BuckleUp;Adults-Men;Men;Maroon;;;Fashion;Formal;2018;40,BKUPBELT00004014,38,BKUPBELT00004015,36,BKUPBELT00004016,34,BKUPBELT00004017;2199.00;;;<p>clean with dry cloth</p>;;;na;;zerotype;;Winter;;No
2412368;BUBLT1731-Maroon-2412368;BUCKLEUP MENS LEATHER BELT;Draft;Belts;BuckleUp;Adults-Men;Men;Maroon;;;Fashion;Formal;2018;40,BKUPBELT00004010,38,BKUPBELT00004011,36,BKUPBELT00004012,34,BKUPBELT00004013;2199.00;;;<p>clean with dry cloth</p>;;;na;;zerotype;;Winter;;No
2412367;BUBLT1733-Maroon-2412367;BUCKLEUP MENS LEATHER BELT;Draft;Belts;BuckleUp;Adults-Men;Men;Maroon;;;Fashion;Formal;2018;40,BKUPBELT00004006,38,BKUPBELT00004007,36,BKUPBELT00004008,34,BKUPBELT00004009;2199.00;;;<p>clean with dry cloth</p>;;;na;;zerotype;;Winter;;No
2412366;BUBLT1729-Black-2412366;BUCKLEUP MENS LEATHER BELT;Draft;Belts;BuckleUp;Adults-Men;Men;Black;;;Fashion;Formal;2018;40,BKUPBELT00004002,38,BKUPBELT00004003,36,BKUPBELT00004004,34,BKUPBELT00004005;2199.00;;;<p>clean with dry cloth</p>;;;na;;zerotype;;Winter;;No
2412365;BUBLT1738-Blue-2412365;BUCKLEUP MENS LEATHER BELT;Draft;Belts;BuckleUp;Adults-Men;Men;Blue;;;Fashion;Formal;2018;40,BKUPBELT00003998,38,BKUPBELT00003999,36,BKUPBELT00004000,34,BKUPBELT00004001;2199.00;;;<p>clean with dry cloth</p>;;;na;;zerotype;;Winter;;No
2412364;BUBLT1732-Black-2412364;BUCKLEUP MENS LEATHER BELT;Draft;Belts;BuckleUp;Adults-Men;Men;Black;;;Fashion;Formal;2018;40,BKUPBELT00003994,38,BKUPBELT00003995,36,BKUPBELT00003996,34,BKUPBELT00003997;2199.00;;;<p>clean with dry cloth</p>;;;na;;zerotype;;Winter;;No
2412363;BUBLT1730-Black-2412363;BUCKLEUP MENS LEATHER BELT;Draft;Belts;BuckleUp;Adults-Men;Men;Black;;;Fashion;Formal;2018;40,BKUPBELT00003990,38,BKUPBELT00003991,36,BKUPBELT00003992,34,BKUPBELT00003993;2199.00;;;<p>clean with dry cloth</p>;;;na;;zerotype;;Winter;;No
