Style ID;Vendor Article Number;Vendor Article Name;Active Status;Article type;Brand;Age Group;Gender;Base Colour;Colour1;Colour2;Fashion Type;Usage;Year;Size - SKU code pair;MRP;Style Description;Style Note;Materials and Care Description;Size and Fit Description;Size Chart Path;Product Display Name;Tags;Product Type;Classification Brand;Season;Comments;Upload Images
2500079;GI05ST227559-Brown-2500079;Weave Tassel Loafer;Draft;Casual Shoes;next;Adults-Men;Men;Brown;Brown;;Fashion;Smart Casual;2018;6.5 EU 40,NEXTCASH00007586,7 EU 41,NEXTCASH00007587,8 EU 42,NEXTCASH00007588,9 EU 43,NEXTCASH00007589,10 EU 44,NEXTCASH00007590,11 EU 45,NEXTCASH00007591,11.5 EU 46,NEXTCASH00007592,12 EU 47,NEXTCASH00007593;5000.00;;;;;;next men brown casual shoes;next,JIT;zerotype;;Spring;;No
2500076;GH03ST080543-Grey-2500076;Suede Desert Boot;Draft;Casual Shoes;next;Adults-Men;Men;Grey;Coffee Brown;;Fashion;Smart Casual;2018;6.5 EU 40,NEXTCASH00007577,7 EU 41,NEXTCASH00007578,8 EU 42,NEXTCASH00007579,9 EU 43,NEXTCASH00007580,10 EU 44,NEXTCASH00007581,11 EU 45,NEXTCASH00007582,11.5 EU 46,NEXTCASH00007583,12 EU 47,NEXTCASH00007584,13 EU 48,NEXTCASH00007585;4800.00;;;;;;next men grey casual shoes;next,JIT;zerotype;;Spring;;No
2500075;GQ01135652-Brown-2500075;Moccasin;Draft;Casual Shoes;next;Adults-Men;Men;Brown;White;Mustard;Fashion;Casual;2018;6.5 EU 40,NEXTCASH00007569,7 EU 41,NEXTCASH00007570,8 EU 42,NEXTCASH00007571,9 EU 43,NEXTCASH00007572,10 EU 44,NEXTCASH00007573,11 EU 45,NEXTCASH00007574,11.5 EU 46,NEXTCASH00007575,12 EU 47,NEXTCASH00007576;2600.00;;;;;;next men brown casual shoes;next,JIT;zerotype;;Spring;;No
2500074;GH09ST218060-Grey-2500074;Textured Knit Trainer;Draft;Casual Shoes;next;Adults-Men;Men;Grey;Coffee Brown;;Fashion;Casual;2018;6.5 EU 40,NEXTCASH00007561,7 EU 41,NEXTCASH00007562,8 EU 42,NEXTCASH00007563,9 EU 43,NEXTCASH00007564,10 EU 44,NEXTCASH00007565,11 EU 45,NEXTCASH00007566,11.5 EU 46,NEXTCASH00007567,12 EU 47,NEXTCASH00007568;3800.00;;;;;;next men grey casual shoes;next,JIT;zerotype;;Spring;;No
2500073;GH02ST223918-Coffee Brown-2500073;Classic Chukka Boot;Draft;Casual Shoes;next;Adults-Men;Men;Coffee Brown;White;Mustard;Fashion;Smart Casual;2018;6.5 EU 40,NEXTCASH00007554,7 EU 41,NEXTCASH00007555,8 EU 42,NEXTCASH00007556,9 EU 43,NEXTCASH00007557,10 EU 44,NEXTCASH00007558,11 EU 45,NEXTCASH00007559,12 EU 47,NEXTCASH00007560;6800.00;;;;;;next men brown casual shoes;next,JIT;zerotype;;Spring;;No
2500071;GI02ST204659-Black-2500071;Chelsea Boot;Draft;Casual Shoes;next;Adults-Men;Men;Black;Brown;;Fashion;Smart Casual;2018;6.5 EU 40,NEXTCASH00007546,7 EU 41,NEXTCASH00007547,8 EU 42,NEXTCASH00007548,9 EU 43,NEXTCASH00007549,10 EU 44,NEXTCASH00007550,11 EU 45,NEXTCASH00007551,11.5 EU 46,NEXTCASH00007552,12 EU 47,NEXTCASH00007553;5000.00;;;;;;next men black casual shoes (boots);next,JIT;zerotype;;Spring;;No
2500070;GH03ST224102-Brown-2500070;Sport Mid Boot;Draft;Casual Shoes;next;Adults-Men;Men;Brown;Coffee Brown;;Fashion;Smart Casual;2018;6.5 EU 40,NEXTCASH00007538,7 EU 41,NEXTCASH00007539,8 EU 42,NEXTCASH00007540,9 EU 43,NEXTCASH00007541,10 EU 44,NEXTCASH00007542,11 EU 45,NEXTCASH00007543,11.5 EU 46,NEXTCASH00007544,12 EU 47,NEXTCASH00007545;6500.00;;;;;;next men brown casual shoes;next,JIT;zerotype;;Spring;;No
2500069;GI05ST225752-Brown-2500069;Suede Textured Derby;Draft;Casual Shoes;next;Adults-Men;Men;Brown;White;Mustard;Fashion;Smart Casual;2018;6.5 EU 40,NEXTCASH00007530,7 EU 41,NEXTCASH00007531,8 EU 42,NEXTCASH00007532,9 EU 43,NEXTCASH00007533,10 EU 44,NEXTCASH00007534,11 EU 45,NEXTCASH00007535,11.5 EU 46,NEXTCASH00007536,12 EU 47,NEXTCASH00007537;5000.00;;;;;;next men brown casual shoes;next,JIT;zerotype;;Spring;;No
2500068;GI02178069-Grey-2500068;Suede Chelsea Boot;Draft;Casual Shoes;next;Adults-Men;Men;Grey;Brown;;Fashion;Smart Casual;2018;6.5 EU 40,NEXTCASH00007522,7 EU 41,NEXTCASH00007523,8 EU 42,NEXTCASH00007524,9 EU 43,NEXTCASH00007525,10 EU 44,NEXTCASH00007526,11 EU 45,NEXTCASH00007527,11.5 EU 46,NEXTCASH00007528,12 EU 47,NEXTCASH00007529;5000.00;;;;;;next men grey casual shoes;next,JIT;zerotype;;Spring;;No
2500067;GI05ST225754-Grey-2500067;Suede Derby;Draft;Casual Shoes;next;Adults-Men;Men;Grey;Coffee Brown;;Fashion;Casual;2018;6.5 EU 40,NEXTCASH00007514,7 EU 41,NEXTCASH00007515,8 EU 42,NEXTCASH00007516,9 EU 43,NEXTCASH00007517,10 EU 44,NEXTCASH00007518,11 EU 45,NEXTCASH00007519,11.5 EU 46,NEXTCASH00007520,12 EU 47,NEXTCASH00007521;4800.00;;;;;;next men grey casual shoes;next,JIT;zerotype;;Spring;;No
2500066;GI02ST224220-Coffee Brown-2500066;Suede Chukka;Draft;Casual Shoes;next;Adults-Men;Men;Coffee Brown;White;Mustard;Fashion;Casual;2018;6.5 EU 40,NEXTCASH00007506,7 EU 41,NEXTCASH00007507,8 EU 42,NEXTCASH00007508,9 EU 43,NEXTCASH00007509,10 EU 44,NEXTCASH00007510,11 EU 45,NEXTCASH00007511,11.5 EU 46,NEXTCASH00007512,12 EU 47,NEXTCASH00007513;6000.00;;;;;;next men brown casual shoes;next,JIT;zerotype;;Spring;;No
2500065;GI05ST227559-Black-2500065;Weave Tassel Loafer;Draft;Casual Shoes;next;Adults-Men;Men;Black;Brown;;Fashion;Casual;2018;6.5 EU 40,NEXTCASH00007498,7 EU 41,NEXTCASH00007499,8 EU 42,NEXTCASH00007500,9 EU 43,NEXTCASH00007501,10 EU 44,NEXTCASH00007502,11 EU 45,NEXTCASH00007503,11.5 EU 46,NEXTCASH00007504,12 EU 47,NEXTCASH00007505;5000.00;;;;;;next men black casual shoes;next,JIT;zerotype;;Spring;;No
2500064;GH09ST218060-Maroon-2500064;Textured Knit Trainer;Draft;Casual Shoes;next;Adults-Men;Men;Maroon;Coffee Brown;;Fashion;Casual;2018;6.5 EU 40,NEXTCASH00007490,7 EU 41,NEXTCASH00007491,8 EU 42,NEXTCASH00007492,9 EU 43,NEXTCASH00007493,10 EU 44,NEXTCASH00007494,11 EU 45,NEXTCASH00007495,11.5 EU 46,NEXTCASH00007496,12 EU 47,NEXTCASH00007497;3800.00;;;;;;next men maroon casual shoes;next,JIT;zerotype;;Spring;;No
2500063;GH09ST218060-Grey-2500063;Textured Knit Trainer;Draft;Casual Shoes;next;Adults-Men;Men;Grey;White;Mustard;Fashion;Casual;2018;6.5 EU 40,NEXTCASH00007482,7 EU 41,NEXTCASH00007483,8 EU 42,NEXTCASH00007484,9 EU 43,NEXTCASH00007485,10 EU 44,NEXTCASH00007486,11 EU 45,NEXTCASH00007487,11.5 EU 46,NEXTCASH00007488,12 EU 47,NEXTCASH00007489;3800.00;;;;;;next men grey sneakers;next,JIT;zerotype;;Spring;;No
2500062;GH05ST224105-Brown-2500062;Waxed Leather Boat Shoe;Draft;Casual Shoes;next;Adults-Men;Men;Brown;Coffee Brown;;Fashion;Casual;2018;6.5 EU 40,NEXTCASH00007474,7 EU 41,NEXTCASH00007475,8 EU 42,NEXTCASH00007476,9 EU 43,NEXTCASH00007477,10 EU 44,NEXTCASH00007478,11 EU 45,NEXTCASH00007479,11.5 EU 46,NEXTCASH00007480,12 EU 47,NEXTCASH00007481;4800.00;;;;;;next men brown casual shoes;next,JIT;zerotype;;Spring;;No
2500061;GI02ST224220-Grey-2500061;Suede Chukka;Draft;Casual Shoes;next;Adults-Men;Men;Grey;White;Mustard;Fashion;Smart Casual;2018;6.5 EU 40,NEXTCASH00007466,7 EU 41,NEXTCASH00007467,8 EU 42,NEXTCASH00007468,9 EU 43,NEXTCASH00007469,10 EU 44,NEXTCASH00007470,11 EU 45,NEXTCASH00007471,11.5 EU 46,NEXTCASH00007472,12 EU 47,NEXTCASH00007473;6000.00;;;;;;next men grey casual shoes;next,JIT;zerotype;;Spring;;No
2500056;GI05ST225752-Grey-2500056;Suede Textured Derby;Draft;Casual Shoes;next;Adults-Men;Men;Grey;Brown;;Fashion;Smart Casual;2018;6.5 EU 40,NEXTCASH00007458,7 EU 41,NEXTCASH00007459,8 EU 42,NEXTCASH00007460,9 EU 43,NEXTCASH00007461,10 EU 44,NEXTCASH00007462,11 EU 45,NEXTCASH00007463,11.5 EU 46,NEXTCASH00007464,12 EU 47,NEXTCASH00007465;5000.00;;;;;;next men grey casual shoes;next,JIT;zerotype;;Spring;;No
2500055;GQ02ST210047-Brown-2500055;Luxury Tassel Moccasin;Draft;Casual Shoes;next;Adults-Men;Men;Brown;Coffee Brown;;Fashion;Casual;2018;6.5 EU 40,NEXTCASH00007450,7 EU 41,NEXTCASH00007451,8 EU 42,NEXTCASH00007452,9 EU 43,NEXTCASH00007453,10 EU 44,NEXTCASH00007454,11 EU 45,NEXTCASH00007455,11.5 EU 46,NEXTCASH00007456,12 EU 47,NEXTCASH00007457;3000.00;;;;;;next men brown casual shoes;next,JIT;zerotype;;Spring;;No
2500054;GH09ST218047-Brown-2500054;Suede Lace-Up;Draft;Casual Shoes;next;Adults-Men;Men;Brown;White;Mustard;Fashion;Casual;2018;6.5 EU 40,NEXTCASH00007442,7 EU 41,NEXTCASH00007443,8 EU 42,NEXTCASH00007444,9 EU 43,NEXTCASH00007445,10 EU 44,NEXTCASH00007446,11 EU 45,NEXTCASH00007447,11.5 EU 46,NEXTCASH00007448,12 EU 47,NEXTCASH00007449;3500.00;;;;;;next men brown casual shoes;next,JIT;zerotype;;Spring;;No
2500053;GI02ST150916-Brown-2500053;Punch Chelsea Boot;Draft;Casual Shoes;next;Adults-Men;Men;Brown;Brown;;Fashion;Smart Casual;2018;6.5 EU 40,NEXTCASH00007434,7 EU 41,NEXTCASH00007435,8 EU 42,NEXTCASH00007436,9 EU 43,NEXTCASH00007437,10 EU 44,NEXTCASH00007438,11 EU 45,NEXTCASH00007439,11.5 EU 46,NEXTCASH00007440,12 EU 47,NEXTCASH00007441;6200.00;;;;;;next men brown casual shoes (boots);next,JIT;zerotype;;Spring;;No
2500052;GI02ST167249-Brown-2500052;Suede Chelsea Boot;Draft;Casual Shoes;next;Adults-Men;Men;Brown;Coffee Brown;;Fashion;Smart Casual;2018;6.5 EU 40,NEXTCASH00007426,7 EU 41,NEXTCASH00007427,8 EU 42,NEXTCASH00007428,9 EU 43,NEXTCASH00007429,10 EU 44,NEXTCASH00007430,11 EU 45,NEXTCASH00007431,11.5 EU 46,NEXTCASH00007432,12 EU 47,NEXTCASH00007433;5000.00;;;;;;next men brown casual shoes;next,JIT;zerotype;;Spring;;No
2500051;GH03ST224102-Black-2500051;Sport Mid Boot;Draft;Casual Shoes;next;Adults-Men;Men;Black;White;Mustard;Fashion;Formal;2018;6.5 EU 40,NEXTCASH00007418,7 EU 41,NEXTCASH00007419,8 EU 42,NEXTCASH00007420,9 EU 43,NEXTCASH00007421,10 EU 44,NEXTCASH00007422,11 EU 45,NEXTCASH00007423,11.5 EU 46,NEXTCASH00007424,12 EU 47,NEXTCASH00007425;6500.00;;;;;;next men grey sneakers;next,JIT;zerotype;;Spring;;No
2500050;GI05ST225752-Grey-2500050;Suede Textured Derby;Draft;Casual Shoes;next;Adults-Men;Men;Grey;Brown;;Fashion;Smart Casual;2018;6.5 EU 40,NEXTCASH00007410,7 EU 41,NEXTCASH00007411,8 EU 42,NEXTCASH00007412,9 EU 43,NEXTCASH00007413,10 EU 44,NEXTCASH00007414,11 EU 45,NEXTCASH00007415,11.5 EU 46,NEXTCASH00007416,12 EU 47,NEXTCASH00007417;5000.00;;;;;;next men grey casual shoes;next,JIT;zerotype;;Spring;;No
2500049;GH09ST218060-Grey-2500049;Textured Knit Trainer;Draft;Casual Shoes;next;Adults-Men;Men;Grey;Coffee Brown;;Fashion;Casual;2018;6.5 EU 40,NEXTCASH00007402,7 EU 41,NEXTCASH00007403,8 EU 42,NEXTCASH00007404,9 EU 43,NEXTCASH00007405,10 EU 44,NEXTCASH00007406,11 EU 45,NEXTCASH00007407,11.5 EU 46,NEXTCASH00007408,12 EU 47,NEXTCASH00007409;3800.00;;;;;;next men grey sneakers;next,JIT;zerotype;;Spring;;No
2500048;GI05ST225754-Brown-2500048;Suede Derby;Draft;Casual Shoes;next;Adults-Men;Men;Brown;White;Mustard;Fashion;Casual;2018;6.5 EU 40,NEXTCASH00007394,7 EU 41,NEXTCASH00007395,8 EU 42,NEXTCASH00007396,9 EU 43,NEXTCASH00007397,10 EU 44,NEXTCASH00007398,11 EU 45,NEXTCASH00007399,11.5 EU 46,NEXTCASH00007400,12 EU 47,NEXTCASH00007401;4800.00;;;;;;next men brown casual shoes;next,JIT;zerotype;;Spring;;No
2500047;GI02ST167249-Brown-2500047;Suede Chelsea Boot;Draft;Casual Shoes;next;Adults-Men;Men;Brown;Coffee Brown;;Fashion;Casual;2018;6.5 EU 40,NEXTCASH00007386,7 EU 41,NEXTCASH00007387,8 EU 42,NEXTCASH00007388,9 EU 43,NEXTCASH00007389,10 EU 44,NEXTCASH00007390,11 EU 45,NEXTCASH00007391,11.5 EU 46,NEXTCASH00007392,12 EU 47,NEXTCASH00007393;5000.00;;;;;;next men brown casual shoes (boots);next,JIT;zerotype;;Spring;;No
2500044;GH09ST106470-Grey-2500044;Canvas Pump;Draft;Casual Shoes;next;Adults-Men;Men;Grey;White;Mustard;Fashion;Casual;2018;6.5 EU 40,NEXTCASH00007378,7 EU 41,NEXTCASH00007379,8 EU 42,NEXTCASH00007380,9 EU 43,NEXTCASH00007381,10 EU 44,NEXTCASH00007382,11 EU 45,NEXTCASH00007383,11.5 EU 46,NEXTCASH00007384,12 EU 47,NEXTCASH00007385;3000.00;;;;;;next men grey sneakers;next,JIT;zerotype;;Spring;;No
