Style ID;Vendor Article Number;Vendor Article Name;Active Status;Article type;Brand;Age Group;Gender;Base Colour;Colour1;Colour2;Fashion Type;Usage;Year;Size - SKU code pair;MRP;Style Description;Style Note;Materials and Care Description;Size and Fit Description;Size Chart Path;Product Display Name;Tags;Product Type;Classification Brand;Season;Comments;Upload Images
1951706;35266155-PEACH-1951706;W:BLUSH EMILY POINT;Draft;Heels;DOROTHY PERKINS;Adults-Women;Women;;;;Fashion;;2017;UK8,DYPNHeels00000416;3290.00;<p>Garment: Polyurethane(100%) Lining: Polyurethane(100%) Filler: Synthetic(100%)</p>;;;;;;;zerotype;;Summer;;No
1951704;35266127-GREY-1951704;W:GRY EMILY POINT;Draft;Heels;DOROTHY PERKINS;Adults-Women;Women;;;;Fashion;;2017;UK4,DYPNHeels00000407,UK5,DYPNHeels00000408,UK6,DYPNHeels00000409,UK7,DYPNHeels00000410,UK8,DYPNHeels00000411;3290.00;<p>Garment: Fabric(100%) Lining: Polyurethane(100%) Filler: Synthetic(100%)</p>;;;;;;;zerotype;;Summer;;No
1951702;35266035-PEACH-1951702;W:NDE WILAMINA COURT;Draft;Heels;DOROTHY PERKINS;Adults-Women;Women;;;;Fashion;;2017;UK4,DYPNHeels00000400,UK6,DYPNHeels00000401,UK7,DYPNHeels00000402;2690.00;<p>Garment: Polyurethane(100%) Lining: Polyurethane(100%) Filler: Synthetic(100%)</p>;;;;;;;zerotype;;Summer;;No
1951701;35266035-NUDE-1951701;Dorothy Perkins Women Heels;Draft;Heels;DOROTHY PERKINS;Adults-Women;Women;;;;Fashion;;2017;UK5,DYPNHeels00000399;2690.00;<p>100% Synthetic</p>;;;;;;;zerotype;;Summer;;No
1951700;35266010-BLACK-1951700;W:BLK WILAMINA COURT;Draft;Heels;DOROTHY PERKINS;Adults-Women;Women;;;;Fashion;;2017;UK3,DYPNHeels00000396,UK4,DYPNHeels00000397,UK7,DYPNHeels00000398;2690.00;<p>Garment: Fabric(100%) Lining: Polyurethane(100%) Filler: Synthetic(100%)</p>;;;;;;;zerotype;;Summer;;No
1951683;19987441-NAVY BLUE-1951683;DNM RYLIE PTFRM WDG;Draft;Heels;DOROTHY PERKINS;Adults-Women;Women;;;;Fashion;;2017;EURO36,DYPNHeels00000327,EURO37,DYPNHeels00000328,EURO38,DYPNHeels00000329,EURO39,DYPNHeels00000330,EURO40,DYPNHeels00000331,EURO41,DYPNHeels00000332;3290.00;<p>Garment: TEXTILE(100%) Lining: Polyurethane(100%)</p>;;;;;;;zerotype;;Summer;;No
1951682;19987410-BLACK-1951682;BLK RYLIE PTFRM WDG;Draft;Heels;DOROTHY PERKINS;Adults-Women;Women;;;;Fashion;;2017;EURO36,DYPNHeels00000321,EURO37,DYPNHeels00000322,EURO38,DYPNHeels00000323,EURO39,DYPNHeels00000324,EURO40,DYPNHeels00000325,EURO41,DYPNHeels00000326;3290.00;<p>Garment: TEXTILE(100%) Lining: Polyurethane(100%)</p>;;;;;;;zerotype;;Summer;;No
1951674;19972342-METALLIC-1951674;GLD GOTCHA TWIST;Draft;Heels;DOROTHY PERKINS;Adults-Women;Women;;;;Fashion;;2017;UK3,DYPNHeels00000278,UK4,DYPNHeels00000279,UK5,DYPNHeels00000280,UK6,DYPNHeels00000281,UK7,DYPNHeels00000282,UK8,DYPNHeels00000283;3490.00;<p>Garment: Polyurethane(100%) Lining: Polyurethane(100%) Filler: Synthetic(100%)</p>;;;;;;;zerotype;;Summer;;No
1951673;19972320-BLUE-1951673;BLU GOTCHA TWIST;Draft;Heels;DOROTHY PERKINS;Adults-Women;Women;;;;Fashion;;2017;UK3,DYPNHeels00000272,UK4,DYPNHeels00000273,UK5,DYPNHeels00000274,UK6,DYPNHeels00000275,UK7,DYPNHeels00000276,UK8,DYPNHeels00000277;3490.00;<p>Garment: TEXTILE(100%) Lining: Polyurethane(100%) Filler: Synthetic(100%)</p>;;;;;;;zerotype;;Summer;;No
1951672;19972255-PEACH-1951672;BLUSH CORINNA COURT;Draft;Heels;DOROTHY PERKINS;Adults-Women;Women;;;;Fashion;;2017;UK3,DYPNHeels00000266,UK4,DYPNHeels00000267,UK5,DYPNHeels00000268,UK6,DYPNHeels00000269,UK7,DYPNHeels00000270,UK8,DYPNHeels00000271;3090.00;<p>Garment: TEXTILE(100%) Lining: Polyurethane(100%) Filler: Synthetic(100%)</p>;;;;;;;zerotype;;Summer;;No
1951629;19987311-BLACK-1951629;Dorothy Perkins Women Flats;Draft;Flats;DOROTHY PERKINS;Adults-Women;Women;;;;Fashion;;2017;UK4,DYPNFlats00000088;3290.00;<p>100% Synthetic</p>;;;;;;;zerotype;;Summer;;No
1951627;19973450-TAN-1951627;Dorothy Perkins Women Flats;Draft;Flats;DOROTHY PERKINS;Adults-Women;Women;;;;Fashion;;2017;UK7,DYPNFlats00000086;2690.00;<p>100% Synthetic</p>;;;;;;;zerotype;;Summer;;No
1951625;19960910-BLACK-1951625;Dorothy Perkins Women Flats;Draft;Flats;DOROTHY PERKINS;Adults-Women;Women;;;;Fashion;;2017;UK6,DYPNFlats00000084;4090.00;<p>100% Synthetic</p>;;;;;;;zerotype;;Summer;;No
1951620;35266235-PEACH-1951620;W:NDE SUNDAE SANDAL;Draft;Casual Shoes;DOROTHY PERKINS;Adults-Women;Women;;;;Fashion;;2017;UK4,DYPNCASH00000786,UK5,DYPNCASH00000788,UK6,DYPNCASH00000789,UK7,DYPNCASH00000791,UK8,DYPNCASH00000793;2690.00;<p>Garment: Polyurethane(100%) Lining: Polyurethane(100%) Filler: Synthetic(100%)</p>;;;;;;;zerotype;;Summer;;No
1951610;35263820-WHITE-1951610;W:WHT FRANKIE PLN SD;Draft;Casual Shoes;DOROTHY PERKINS;Adults-Women;Women;;;;Fashion;;2017;UK3,DYPNCASH00000732,UK4,DYPNCASH00000734,UK5,DYPNCASH00000736,UK6,DYPNCASH00000738,UK7,DYPNCASH00000739;2190.00;<p>Garment: Polyurethane(100%) Lining: Polyurethane(100%) Filler: Plastic(100%)</p>;;;;;;;zerotype;;Summer;;No
1951606;19991420-METALLIC-1951606;GLD FINE STRAPPY SDL;Draft;Casual Shoes;DOROTHY PERKINS;Adults-Women;Women;;;;Fashion;;2017;UK3,DYPNCASH00000709,UK4,DYPNCASH00000710,UK5,DYPNCASH00000712,UK6,DYPNCASH00000714,UK7,DYPNCASH00000716,UK8,DYPNCASH00000719;2090.00;<p>Garment: Synthetic(100%) Lining: Synthetic(100%) Filler: TEXTILE(100%)</p>;;;;;;;zerotype;;Summer;;No
1951604;19991410-BLACK-1951604;BLK FINE STRAPPY SDL;Draft;Casual Shoes;DOROTHY PERKINS;Adults-Women;Women;;;;Fashion;;2017;UK3,DYPNCASH00000697,UK4,DYPNCASH00000699,UK5,DYPNCASH00000701,UK6,DYPNCASH00000703,UK7,DYPNCASH00000705,UK8,DYPNCASH00000707;2090.00;<p>Garment: Synthetic(100%) Lining: Synthetic(100%) Filler: TEXTILE(100%)</p>;;;;;;;zerotype;;Summer;;No
1951602;19991403-NAVY BLUE-1951602;NVY FINE STRAPPY SDL;Draft;Casual Shoes;DOROTHY PERKINS;Adults-Women;Women;;;;Fashion;;2017;UK3,DYPNCASH00000685,UK4,DYPNCASH00000687,UK5,DYPNCASH00000689,UK6,DYPNCASH00000690,UK7,DYPNCASH00000694,UK8,DYPNCASH00000696;2090.00;<p>Garment: TEXTILE(100%) Lining: Synthetic(100%) Filler: TEXTILE(100%)</p>;;;;;;;zerotype;;Summer;;No
1951600;19991402-BROWN-1951600;TAN FINE STRAPPY SDL;Draft;Casual Shoes;DOROTHY PERKINS;Adults-Women;Women;;;;Fashion;;2017;UK3,DYPNCASH00000673,UK4,DYPNCASH00000675,UK5,DYPNCASH00000677,UK6,DYPNCASH00000678,UK7,DYPNCASH00000681,UK8,DYPNCASH00000683;2090.00;<p>Garment: Synthetic(100%) Lining: Synthetic(100%) Filler: TEXTILE(100%)</p>;;;;;;;zerotype;;Summer;;No
1951594;19987520-WHITE-1951594;WHT CAZZY CUTOUT ESP;Draft;Casual Shoes;DOROTHY PERKINS;Adults-Women;Women;;;;Fashion;;2017;EURO36,DYPNCASH00000643,EURO37,DYPNCASH00000645,EURO38,DYPNCASH00000647,EURO39,DYPNCASH00000649,EURO40,DYPNCASH00000651;2190.00;<p>Garment: Polyurethane(100%) Lining: Polyurethane(100%)</p>;;;;;;;zerotype;;Summer;;No
1951592;19987510-BLACK-1951592;BLK CAZZY CUTOUT ESP;Draft;Casual Shoes;DOROTHY PERKINS;Adults-Women;Women;;;;Fashion;;2017;EURO36,DYPNCASH00000631,EURO37,DYPNCASH00000632,EURO38,DYPNCASH00000634,EURO39,DYPNCASH00000636,EURO40,DYPNCASH00000639,EURO41,DYPNCASH00000640;2190.00;<p>Garment: TEXTILE(100%) Lining: Polyurethane(100%)</p>;;;;;;;zerotype;;Summer;;No
1951560;19973450-BROWN-1951560;TAN LIANA PLAIT TM L;Draft;Casual Shoes;DOROTHY PERKINS;Adults-Women;Women;;;;Fashion;;2017;UK3,DYPNCASH00000450,UK4,DYPNCASH00000452,UK5,DYPNCASH00000454,UK6,DYPNCASH00000456;2690.00;<p>Garment: TEXTILE(100%) Lining: Synthetic(100%) Filler: TEXTILE(100%)</p>;;;;;;;zerotype;;Summer;;No
1951344;79981520-WHITE-1951344;WHITE OVOID TEE;Draft;Tshirts;DOROTHY PERKINS;Adults-Women;Women;;;;Fashion;;2017;UK6,DYPNTSHT00000156,UK8,DYPNTSHT00000157,UK10,DYPNTSHT00000158,UK12,DYPNTSHT00000159,UK14,DYPNTSHT00000160,UK16,DYPNTSHT00000161;590.00;<p>Garment: Viscose(100%)</p>;;;;;;;zerotype;;Summer;;No
1951343;56570467-GREY-1951343;GRY MARL OVOID TEE;Draft;Tshirts;DOROTHY PERKINS;Adults-Women;Women;;;;Fashion;;2017;UK6,DYPNTSHT00000150,UK8,DYPNTSHT00000151,UK10,DYPNTSHT00000152,UK12,DYPNTSHT00000153,UK14,DYPNTSHT00000154,UK16,DYPNTSHT00000155;790.00;<p>Garment: Viscose(100%)</p>;;;;;;;zerotype;;Summer;;No
1951342;56570453-RED-1951342;OXBLOOD OVOID TEE;Draft;Tshirts;DOROTHY PERKINS;Adults-Women;Women;;;;Fashion;;2017;UK6,DYPNTSHT00000148,UK10,DYPNTSHT00000149;790.00;<p>Garment: Viscose(100%)</p>;;;;;;;zerotype;;Summer;;No
1951340;5621236-ORANGE-1951340;ORANGE CS TEE 5795A;Draft;Tshirts;DOROTHY PERKINS;Adults-Women;Women;;;;Fashion;;2017;UK6,DYPNTSHT00000137,UK8,DYPNTSHT00000138,UK10,DYPNTSHT00000139,UK12,DYPNTSHT00000140,UK14,DYPNTSHT00000141,UK16,DYPNTSHT00000142;2390.00;<p>Garment: Elastane(3%) Polyester(97%)</p>;;;;;;;zerotype;;Summer;;No
1951335;79983649-BLUE-1951335;SS17 NEW MIDWSH EDEN;Draft;Jeggings;DOROTHY PERKINS;Adults-Women;Women;;;;Fashion;;2017;UK6,DYPNJGNG00000093,UK8,DYPNJGNG00000094,UK10,DYPNJGNG00000095,UK12,DYPNJGNG00000096,UK14,DYPNJGNG00000097;1990.00;<p>Garment: Cotton(81%) Lycra/Elastane(2%) Polyester(17%)</p>;;;;;;;zerotype;;Summer;;No
1951327;14764510-BLACK-1951327;BLK TIE WST MAX 98CM;Draft;Skirts;DOROTHY PERKINS;Adults-Women;Women;;;;Fashion;;2017;UK8,DYPNSKRT00000240,UK10,DYPNSKRT00000241,UK12,DYPNSKRT00000242,UK14,DYPNSKRT00000243,UK16,DYPNSKRT00000244;1790.00;<p>Garment: Elastane(4%) Viscose(96%)</p>;;;;;;;zerotype;;Summer;;No
1951326;14764310-YELLOW-1951326;CO:YEL LACE FULL SKT;Draft;Skirts;DOROTHY PERKINS;Adults-Women;Women;;;;Fashion;;2017;UK6,DYPNSKRT00000234,UK8,DYPNSKRT00000235,UK10,DYPNSKRT00000236,UK12,DYPNSKRT00000237,UK14,DYPNSKRT00000238,UK16,DYPNSKRT00000239;3790.00;<p>Garment: Nylon(40%) Viscose(60%) Lining: Polyester(100%)</p>;;;;;;;zerotype;;Summer;;No
1951325;14759916-PINK-1951325;O:CRL SPT FULL SKIRT;Draft;Skirts;DOROTHY PERKINS;Adults-Women;Women;;;;Fashion;;2017;UK6,DYPNSKRT00000228,UK8,DYPNSKRT00000229,UK10,DYPNSKRT00000230,UK12,DYPNSKRT00000231,UK14,DYPNSKRT00000232,UK16,DYPNSKRT00000233;3790.00;<p>Garment: Polyester(100%)</p>;;;;;;;zerotype;;Summer;;No
1951324;14759501-BLACK-1951324;Dorothy Perkins Women Skirt;Draft;Skirts;DOROTHY PERKINS;Adults-Women;Women;;;;Fashion;;2017;UK6,DYPNSKRT00000222,UK8,DYPNSKRT00000223,UK10,DYPNSKRT00000224,UK12,DYPNSKRT00000225,UK14,DYPNSKRT00000226,UK16,DYPNSKRT00000227;2790.00;<p>100% Cotton</p>;;;;;;;zerotype;;Summer;;No
1951322;14756621-BLUE-1951322;CBLT CHIFON MIDI SKT;Draft;Skirts;DOROTHY PERKINS;Adults-Women;Women;;;;Fashion;;2017;UK6,DYPNSKRT00000211,UK8,DYPNSKRT00000212,UK10,DYPNSKRT00000213,UK12,DYPNSKRT00000214,UK14,DYPNSKRT00000215,UK16,DYPNSKRT00000216;2390.00;<p>Garment: Polyester(100%) Lining: Polyester(100%)</p>;;;;;;;zerotype;;Summer;;No
1951321;14679785-MULTI BRIGHT-1951321;T:TRP FL PEP TB 5913;Draft;Skirts;DOROTHY PERKINS;Adults-Women;Women;;;;Fashion;;2017;UK6,DYPNSKRT00000206,UK8,DYPNSKRT00000207,UK10,DYPNSKRT00000208,UK12,DYPNSKRT00000209,UK14,DYPNSKRT00000210;1690.00;<p>Garment: Elastane(5%) Viscose(95%)</p>;;;;;;;zerotype;;Summer;;No
1951319;79985549-BLUE-1951319;MID ABRAS KNEE SHORT;Draft;Shorts;DOROTHY PERKINS;Adults-Women;Women;;;;Fashion;;2017;UK6,DYPNSHOR00000065,UK8,DYPNSHOR00000066,UK10,DYPNSHOR00000067,UK12,DYPNSHOR00000068,UK14,DYPNSHOR00000069;1990.00;<p>Garment: Cotton(99%) Elastane(1%)</p>;;;;;;;zerotype;;Summer;;No
1951318;79982450-BLUE-1951318;BLUE BOYFRIEND SHORT;Draft;Shorts;DOROTHY PERKINS;Adults-Women;Women;;;;Fashion;;2017;UK6,DYPNSHOR00000059,UK8,DYPNSHOR00000060,UK10,DYPNSHOR00000061,UK12,DYPNSHOR00000062,UK14,DYPNSHOR00000063,UK16,DYPNSHOR00000064;1890.00;<p>Garment: Cotton(100%)</p>;;;;;;;zerotype;;Summer;;No
1951317;74445723-NAVY BLUE-1951317;NAVY CHINO SHORTS;Draft;Shorts;DOROTHY PERKINS;Adults-Women;Women;;;;Fashion;;2017;UK6,DYPNSHOR00000054,UK8,DYPNSHOR00000055,UK12,DYPNSHOR00000056,UK14,DYPNSHOR00000057,UK16,DYPNSHOR00000058;1490.00;<p>Garment: Cotton(100%)</p>;;;;;;;zerotype;;Summer;;No
1951308;74447163-GREY-1951308;CHAR TWILL TROUSERS;Draft;Trousers;DOROTHY PERKINS;Adults-Women;Women;;;;Fashion;;2017;UK6,DYPNTRSR00000260,UK8,DYPNTRSR00000261,UK10,DYPNTRSR00000262,UK12,DYPNTRSR00000263,UK14,DYPNTRSR00000264,UK16,DYPNTRSR00000265;2090.00;<p>Garment: Viscose(100%)</p>;;;;;;;zerotype;;Summer;;No
1951307;74447084-GREEN-1951307;KHAKI TWILL TROUSERS;Draft;Trousers;DOROTHY PERKINS;Adults-Women;Women;;;;Fashion;;2017;UK6,DYPNTRSR00000254,UK8,DYPNTRSR00000255,UK10,DYPNTRSR00000256,UK12,DYPNTRSR00000257,UK14,DYPNTRSR00000258,UK16,DYPNTRSR00000259;2090.00;<p>Garment: Viscose(100%)</p>;;;;;;;zerotype;;Summer;;No
1951303;66884422-IVORY-1951303;IVRY SPLIT WIDE CROP;Draft;Trousers;DOROTHY PERKINS;Adults-Women;Women;;;;Fashion;;2017;UK6,DYPNTRSR00000230,UK8,DYPNTRSR00000231,UK10,DYPNTRSR00000232,UK12,DYPNTRSR00000233,UK14,DYPNTRSR00000234,UK16,DYPNTRSR00000235;2390.00;<p>Garment: Polyester(100%)</p>;;;;;;;zerotype;;Summer;;No
1951302;66884300-METALLIC-1951302;SLV OCN CRP TIE TPRD;Draft;Trousers;DOROTHY PERKINS;Adults-Women;Women;;;;Fashion;;2017;UK6,DYPNTRSR00000224,UK8,DYPNTRSR00000225,UK10,DYPNTRSR00000226,UK12,DYPNTRSR00000227,UK14,DYPNTRSR00000228,UK16,DYPNTRSR00000229;2490.00;<p>Garment: Elastane(8%) Polyester(72%) Viscose(20%)</p>;;;;;;;zerotype;;Summer;;No
1951301;66884210-BLACK-1951301;BLK OCN CRP TIE TPRD;Draft;Trousers;DOROTHY PERKINS;Adults-Women;Women;;;;Fashion;;2017;UK6,DYPNTRSR00000218,UK8,DYPNTRSR00000219,UK10,DYPNTRSR00000220,UK12,DYPNTRSR00000221,UK14,DYPNTRSR00000222,UK16,DYPNTRSR00000223;2490.00;<p>Garment: Elastane(8%) Polyester(72%) Viscose(20%)</p>;;;;;;;zerotype;;Summer;;No
1951300;66884127-GREY-1951300;GRY TIE TEXT TAPERED;Draft;Trousers;DOROTHY PERKINS;Adults-Women;Women;;;;Fashion;;2017;UK6,DYPNTRSR00000212,UK8,DYPNTRSR00000213,UK10,DYPNTRSR00000214,UK12,DYPNTRSR00000215,UK14,DYPNTRSR00000216,UK16,DYPNTRSR00000217;2490.00;<p>Garment: Polyester(100%)</p>;;;;;;;zerotype;;Summer;;No
1951299;66880445-PINK-1951299;W:PINK DBLE LOOP AG;Draft;Trousers;DOROTHY PERKINS;Adults-Women;Women;;;;Fashion;;2017;UK6,DYPNTRSR00000206,UK8,DYPNTRSR00000207,UK10,DYPNTRSR00000208,UK12,DYPNTRSR00000209,UK14,DYPNTRSR00000210,UK16,DYPNTRSR00000211;1990.00;<p>Garment: Elastane(5%) Polyester(76%) Viscose(19%)</p>;;;;;;;zerotype;;Summer;;No
1951298;66879845-PINK-1951298;PNK BELT PAPRBG WLEG;Draft;Trousers;DOROTHY PERKINS;Adults-Women;Women;;;;Fashion;;2017;UK8,DYPNTRSR00000201,UK10,DYPNTRSR00000202,UK12,DYPNTRSR00000203,UK14,DYPNTRSR00000204,UK16,DYPNTRSR00000205;2790.00;<p>Garment: Elastane(9%) Polyester(91%)</p>;;;;;;;zerotype;;Summer;;No
1951297;66877010-BLACK-1951297;S POLY STRAIGHT AW17;Draft;Trousers;DOROTHY PERKINS;Adults-Women;Women;;;;Fashion;;2017;UK6,DYPNTRSR00000197,UK8,DYPNTRSR00000198,UK10,DYPNTRSR00000199,UK16,DYPNTRSR00000200;1590.00;<p>Garment: Polyester(100%)</p>;;;;;;;zerotype;;Summer;;No
1951296;66876310-BLACK-1951296;EX BCKL TAB WIDE CRP;Draft;Trousers;DOROTHY PERKINS;Adults-Women;Women;;;;Fashion;;2017;UK6,DYPNTRSR00000191,UK8,DYPNTRSR00000192,UK10,DYPNTRSR00000193,UK12,DYPNTRSR00000194,UK14,DYPNTRSR00000195,UK16,DYPNTRSR00000196;2790.00;<p>Garment: Polyester(100%)</p>;;;;;;;zerotype;;Summer;;No
1951295;66876150-NAVY BLUE-1951295;BLUE FLORL CROP BENG;Draft;Trousers;DOROTHY PERKINS;Adults-Women;Women;;;;Fashion;;2017;UK6,DYPNTRSR00000185,UK8,DYPNTRSR00000186,UK10,DYPNTRSR00000187,UK12,DYPNTRSR00000188,UK14,DYPNTRSR00000189,UK16,DYPNTRSR00000190;2090.00;<p>Garment: Elastane(3%) Nylon(21%) Viscose(76%)</p>;;;;;;;zerotype;;Summer;;No
1951278;14761011-GREEN-1951278;S:GRN TROP TIE 5915;Draft;Trousers;DOROTHY PERKINS;Adults-Women;Women;;;;Fashion;;2017;UK6,DYPNTRSR00000115,UK8,DYPNTRSR00000116,UK10,DYPNTRSR00000117,UK12,DYPNTRSR00000118,UK14,DYPNTRSR00000119,UK16,DYPNTRSR00000120;2290.00;<p>Garment: Viscose(100%)</p>;;;;;;;zerotype;;Summer;;No
1951273;79995101-BLACK-1951273;GO BLK LACE MIX SHEL;Draft;Shirts;DOROTHY PERKINS;Adults-Women;Women;;;;Fashion;;2017;UK6,DYPNSHRT00000163,UK8,DYPNSHRT00000164,UK10,DYPNSHRT00000165,UK12,DYPNSHRT00000166,UK14,DYPNSHRT00000167,UK16,DYPNSHRT00000168;2290.00;<p>Garment: Elastane(8%) Nylon(92%)</p>;;;;;;;zerotype;;Summer;;No
1951272;79994482-IVORY-1951272;ROSE PRNT BARDOT;Draft;Shirts;DOROTHY PERKINS;Adults-Women;Women;;;;Fashion;;2017;UK6,DYPNSHRT00000157,UK8,DYPNSHRT00000158,UK10,DYPNSHRT00000159,UK12,DYPNSHRT00000160,UK14,DYPNSHRT00000161,UK16,DYPNSHRT00000162;1890.00;<p>Garment: Polyester(100%)</p>;;;;;;;zerotype;;Summer;;No
1951270;79981830-NAVY BLUE-1951270;NVY SLVLES SHRT;Draft;Shirts;DOROTHY PERKINS;Adults-Women;Women;;;;Fashion;;2017;UK6,DYPNSHRT00000151,UK8,DYPNSHRT00000152,UK10,DYPNSHRT00000153,UK12,DYPNSHRT00000154,UK14,DYPNSHRT00000155,UK16,DYPNSHRT00000156;1790.00;<p>Garment: Polyester(100%)</p>;;;;;;;zerotype;;Summer;;No
1951264;5701345-PINK-1951264;C:PNK TROP SHELL TOP;Draft;Shirts;DOROTHY PERKINS;Adults-Women;Women;;;;Fashion;;2017;UK8,DYPNSHRT00000126,UK10,DYPNSHRT00000127,UK12,DYPNSHRT00000128,UK14,DYPNSHRT00000129;2390.00;<p>Garment: Cotton(100%)</p>;;;;;;;zerotype;;Summer;;No
1951259;5667663-BLACK-1951259;B/W SPOT SLESS SHIRT;Draft;Shirts;DOROTHY PERKINS;Adults-Women;Women;;;;Fashion;;2017;UK6,DYPNSHRT00000109,UK8,DYPNSHRT00000110,UK10,DYPNSHRT00000111,UK12,DYPNSHRT00000112,UK14,DYPNSHRT00000113,UK16,DYPNSHRT00000114;2190.00;<p>Garment: Polyester(100%)</p>;;;;;;;zerotype;;Summer;;No
1951257;5552223-GREEN-1951257;KHA BUBBLE CS SHIRT;Draft;Shirts;DOROTHY PERKINS;Adults-Women;Women;;;;Fashion;;2017;UK6,DYPNSHRT00000097,UK8,DYPNSHRT00000098,UK10,DYPNSHRT00000099,UK12,DYPNSHRT00000100,UK14,DYPNSHRT00000101,UK16,DYPNSHRT00000102;2290.00;<p>Garment: Elastane(2%) Polyester(98%)</p>;;;;;;;zerotype;;Summer;;No
1951255;5552220-NAVY BLUE-1951255;NAV BUBBLE CS SHIRT;Draft;Shirts;DOROTHY PERKINS;Adults-Women;Women;;;;Fashion;;2017;UK6,DYPNSHRT00000091,UK8,DYPNSHRT00000092,UK10,DYPNSHRT00000093,UK12,DYPNSHRT00000094,UK14,DYPNSHRT00000095,UK16,DYPNSHRT00000096;2290.00;<p>Garment: Elastane(3%) Polyester(97%)</p>;;;;;;;zerotype;;Summer;;No
1951126;79995160-PINK-1951126;CRL C/S BLT UP JRSY;Draft;Tops;DOROTHY PERKINS;Adults-Women;Women;;;;Fashion;;2017;UK6,DYPNTOPS00001346,UK8,DYPNTOPS00001347,UK10,DYPNTOPS00001349,UK12,DYPNTOPS00001351,UK14,DYPNTOPS00001353,UK16,DYPNTOPS00001355;1790.00;<p>Garment: Elastane(3%) Polyester(97%)</p>;;;;;;;zerotype;;Summer;;No
1951124;79995155-NAVY BLUE-1951124;NAVY C/S BLT UP JRSY;Draft;Tops;DOROTHY PERKINS;Adults-Women;Women;;;;Fashion;;2017;UK6,DYPNTOPS00001334,UK8,DYPNTOPS00001336,UK10,DYPNTOPS00001338,UK12,DYPNTOPS00001339,UK14,DYPNTOPS00001342,UK16,DYPNTOPS00001344;1790.00;<p>Garment: Elastane(3%) Polyester(97%)</p>;;;;;;;zerotype;;Summer;;No
1951122;79995102-YELLOW-1951122;LEMN C/S BLT UP JRSY;Draft;Tops;DOROTHY PERKINS;Adults-Women;Women;;;;Fashion;;2017;UK6,DYPNTOPS00001322,UK8,DYPNTOPS00001324,UK10,DYPNTOPS00001326,UK12,DYPNTOPS00001328,UK14,DYPNTOPS00001330,UK16,DYPNTOPS00001332;1790.00;<p>Garment: Elastane(3%) Polyester(97%)</p>;;;;;;;zerotype;;Summer;;No
1951120;79993960-PEACH-1951120;BLUSH LACE BARDOT;Draft;Tops;DOROTHY PERKINS;Adults-Women;Women;;;;Fashion;;2017;UK6,DYPNTOPS00001310,UK8,DYPNTOPS00001312,UK10,DYPNTOPS00001314,UK12,DYPNTOPS00001316,UK14,DYPNTOPS00001318,UK16,DYPNTOPS00001320;1190.00;<p>Garment: Cotton(96%) Elastane(4%)</p>;;;;;;;zerotype;;Summer;;No
1951118;79993560-METALLIC-1951118;GO SHMR DBL C/SH TOP;Draft;Tops;DOROTHY PERKINS;Adults-Women;Women;;;;Fashion;;2017;UK6,DYPNTOPS00001301,UK8,DYPNTOPS00001302,UK10,DYPNTOPS00001304,UK12,DYPNTOPS00001306,UK14,DYPNTOPS00001308;2290.00;<p>Garment: Polyester(100%) Lining: Polyester(100%)</p>;;;;;;;zerotype;;Summer;;No
1951114;79993111-YELLOW-1951114;LEMN SLVLES LACE TOP;Draft;Tops;DOROTHY PERKINS;Adults-Women;Women;;;;Fashion;;2017;UK6,DYPNTOPS00001291,UK8,DYPNTOPS00001293,UK10,DYPNTOPS00001295,UK12,DYPNTOPS00001297,UK14,DYPNTOPS00001298;1790.00;<p>Garment: Polyamide(100%) Lining: Polyester(100%)</p>;;;;;;;zerotype;;Summer;;No
1951112;79987782-IVORY-1951112;WB:GO IVR EMBL NECK;Draft;Tops;DOROTHY PERKINS;Adults-Women;Women;;;;Fashion;;2017;UK6,DYPNTOPS00001282,UK8,DYPNTOPS00001283,UK10,DYPNTOPS00001285,UK12,DYPNTOPS00001287,UK14,DYPNTOPS00001289;2790.00;<p>Garment: Polyester(100%)</p>;;;;;;;zerotype;;Summer;;No
1951109;79987715-PINK-1951109;WB:GO PNK EMBL NECK;Draft;Tops;DOROTHY PERKINS;Adults-Women;Women;;;;Fashion;;2017;UK6,DYPNTOPS00001270,UK8,DYPNTOPS00001272,UK10,DYPNTOPS00001274,UK12,DYPNTOPS00001275,UK14,DYPNTOPS00001277,UK16,DYPNTOPS00001280;2790.00;<p>Garment: Polyester(100%) Lining: Polyester(100%)</p>;;;;;;;zerotype;;Summer;;No
1951107;79987382-IVORY-1951107;GO IVR SATIN FRL TOP;Draft;Tops;DOROTHY PERKINS;Adults-Women;Women;;;;Fashion;;2017;UK6,DYPNTOPS00001258,UK8,DYPNTOPS00001259,UK10,DYPNTOPS00001261,UK12,DYPNTOPS00001264,UK14,DYPNTOPS00001266,UK16,DYPNTOPS00001268;2290.00;<p>Garment: Polyester(100%)</p>;;;;;;;zerotype;;Summer;;No
1951105;79984650-BLUE-1951105;SCLLP LCE DETL CS TP;Draft;Tops;DOROTHY PERKINS;Adults-Women;Women;;;;Fashion;;2017;UK6,DYPNTOPS00001249,UK8,DYPNTOPS00001251,UK10,DYPNTOPS00001253,UK12,DYPNTOPS00001255;2190.00;<p>Garment: Cotton(100%)</p>;;;;;;;zerotype;;Summer;;No
1951103;79980001-BLACK-1951103;BLK BTTN FRONT CAMI;Draft;Tops;DOROTHY PERKINS;Adults-Women;Women;;;;Fashion;;2017;UK6,DYPNTOPS00001236,UK8,DYPNTOPS00001238,UK10,DYPNTOPS00001240,UK12,DYPNTOPS00001242,UK14,DYPNTOPS00001244,UK16,DYPNTOPS00001247;1390.00;<p>Garment: Polyester(100%)</p>;;;;;;;zerotype;;Summer;;No
1951101;79979882-IVORY-1951101;IVRY SS17 BUILT UP;Draft;Tops;DOROTHY PERKINS;Adults-Women;Women;;;;Fashion;;2017;UK6,DYPNTOPS00001225,UK8,DYPNTOPS00001227,UK10,DYPNTOPS00001229,UK12,DYPNTOPS00001230,UK14,DYPNTOPS00001232,UK16,DYPNTOPS00001234;1390.00;<p>Garment: Polyester(100%)</p>;;;;;;;zerotype;;Summer;;No
1951099;79979841-YELLOW-1951099;YEL SS17 BUILT UP;Draft;Tops;DOROTHY PERKINS;Adults-Women;Women;;;;Fashion;;2017;UK6,DYPNTOPS00001213,UK8,DYPNTOPS00001215,UK10,DYPNTOPS00001217,UK12,DYPNTOPS00001218,UK14,DYPNTOPS00001221,UK16,DYPNTOPS00001223;1390.00;<p>Garment: Polyester(100%)</p>;;;;;;;zerotype;;Summer;;No
1951097;79979820-BLUE-1951097;BLUE SS17 BUILT UP;Draft;Tops;DOROTHY PERKINS;Adults-Women;Women;;;;Fashion;;2017;UK6,DYPNTOPS00001201,UK8,DYPNTOPS00001203,UK10,DYPNTOPS00001205,UK12,DYPNTOPS00001207,UK14,DYPNTOPS00001209,UK16,DYPNTOPS00001211;1390.00;<p>Garment: Polyester(100%)</p>;;;;;;;zerotype;;Summer;;No
1951095;79975401-BLACK-1951095;BLK LACE C/SHLDR TOP;Draft;Tops;DOROTHY PERKINS;Adults-Women;Women;;;;Fashion;;2017;UK6,DYPNTOPS00001190,UK8,DYPNTOPS00001192,UK10,DYPNTOPS00001193,UK12,DYPNTOPS00001195,UK14,DYPNTOPS00001197,UK16,DYPNTOPS00001199;2290.00;<p>Garment: Polyester(100%) Filler: Nylon(100%)</p>;;;;;;;zerotype;;Summer;;No
1951065;56575053-RED-1951065;OXBLOOD OVOID TEE;Draft;Tops;DOROTHY PERKINS;Adults-Women;Women;;;;Fashion;;2017;UK8,DYPNTOPS00001047,UK12,DYPNTOPS00001048,UK14,DYPNTOPS00001050,UK16,DYPNTOPS00001052;790.00;<p>Garment: Viscose(100%)</p>;;;;;;;zerotype;;Summer;;No
1951063;56572900-NONE/DUMP-1951063;MLTI FLR FLTTR SLV T;Draft;Tops;DOROTHY PERKINS;Adults-Women;Women;;;;Fashion;;2017;UK6,DYPNTOPS00001035,UK8,DYPNTOPS00001037,UK10,DYPNTOPS00001039,UK12,DYPNTOPS00001041,UK14,DYPNTOPS00001043,UK16,DYPNTOPS00001045;1390.00;<p>Garment: Cotton(96%) Elastane(4%)</p>;;;;;;;zerotype;;Summer;;No
1951061;56572323-NAVY BLUE-1951061;NAVY FLR TRIM VEST;Draft;Tops;DOROTHY PERKINS;Adults-Women;Women;;;;Fashion;;2017;UK6,DYPNTOPS00001024,UK8,DYPNTOPS00001026,UK10,DYPNTOPS00001029,UK12,DYPNTOPS00001031,UK16,DYPNTOPS00001033;1390.00;<p>Garment: Cotton(100%)</p>;;;;;;;zerotype;;Summer;;No
1951059;56567923-NAVY BLUE-1951059;NVY BFLY LCE INSRT T;Draft;Tops;DOROTHY PERKINS;Adults-Women;Women;;;;Fashion;;2017;UK6,DYPNTOPS00001016,UK8,DYPNTOPS00001018,UK10,DYPNTOPS00001020,UK14,DYPNTOPS00001022;1490.00;<p>Garment: Cotton(100%) Lining: Polyester(100%)</p>;;;;;;;zerotype;;Summer;;No
1951058;56558932-MULTI BRIGHT-1951058;APR:IVR CTABT STR VS;Draft;Tops;DOROTHY PERKINS;Adults-Women;Women;;;;Fashion;;2017;UK8,DYPNTOPS00001011,UK10,DYPNTOPS00001013,UK12,DYPNTOPS00001014;1190.00;<p>Garment: Viscose(100%)</p>;;;;;;;zerotype;;Summer;;No
1951056;56557682-IVORY-1951056;IVORY GEO LACE SHELL;Draft;Tops;DOROTHY PERKINS;Adults-Women;Women;;;;Fashion;;2017;UK8,DYPNTOPS00001003,UK10,DYPNTOPS00001005,UK14,DYPNTOPS00001007,UK16,DYPNTOPS00001009;1790.00;<p>Garment: Cotton(50%) Nylon(50%) Lining: Polyester(100%)</p>;;;;;;;zerotype;;Summer;;No
1951053;56556216-PINK-1951053;COR GEO FLR STRAP BD;Draft;Tops;DOROTHY PERKINS;Adults-Women;Women;;;;Fashion;;2017;UK8,DYPNTOPS00000994,UK10,DYPNTOPS00000995,UK12,DYPNTOPS00000997,UK14,DYPNTOPS00000999,UK16,DYPNTOPS00001001;1690.00;<p>Garment: Cotton(93%) Elastane(7%)</p>;;;;;;;zerotype;;Summer;;No
1951050;56556123-NAVY BLUE-1951050;MAY:NVY/NDE GEO VEST;Draft;Tops;DOROTHY PERKINS;Adults-Women;Women;;;;Fashion;;2017;UK6,DYPNTOPS00000982,UK8,DYPNTOPS00000984,UK10,DYPNTOPS00000986,UK12,DYPNTOPS00000988,UK14,DYPNTOPS00000990,UK16,DYPNTOPS00000991;1190.00;<p>Garment: Viscose(100%)</p>;;;;;;;zerotype;;Summer;;No
1951048;56556050-BLUE-1951048;MAY:BLUE OS FLR VST;Draft;Tops;DOROTHY PERKINS;Adults-Women;Women;;;;Fashion;;2017;UK8,DYPNTOPS00000975,UK10,DYPNTOPS00000976,UK12,DYPNTOPS00000978,UK14,DYPNTOPS00000980,UK16,DYPNTOPS00000981;1190.00;<p>Garment: Viscose(100%)</p>;;;;;;;zerotype;;Summer;;No
1951046;56555923-NAVY BLUE-1951046;MAY:NVY GRDN FLR VST;Draft;Tops;DOROTHY PERKINS;Adults-Women;Women;;;;Fashion;;2017;UK6,DYPNTOPS00000964,UK8,DYPNTOPS00000965,UK10,DYPNTOPS00000967,UK12,DYPNTOPS00000969,UK14,DYPNTOPS00000971,UK16,DYPNTOPS00000973;1190.00;<p>Garment: Viscose(100%)</p>;;;;;;;zerotype;;Summer;;No
1951043;5906075-ORANGE-1951043;S17 WE:TANG XBUILTUP;Draft;Tops;DOROTHY PERKINS;Adults-Women;Women;;;;Fashion;;2017;UK6,DYPNTOPS00000949,UK8,DYPNTOPS00000951,UK10,DYPNTOPS00000952,UK12,DYPNTOPS00000954,UK14,DYPNTOPS00000956;1390.00;<p>Garment: Polyester(100%)</p>;;;;;;;zerotype;;Summer;;No
1951041;5906070-PURPLE-1951041;S17 WE:LILC XBUILTUP;Draft;Tops;DOROTHY PERKINS;Adults-Women;Women;;;;Fashion;;2017;UK6,DYPNTOPS00000939,UK8,DYPNTOPS00000941,UK10,DYPNTOPS00000943,UK12,DYPNTOPS00000945,UK14,DYPNTOPS00000947;1390.00;<p>Garment: Polyester(100%)</p>;;;;;;;zerotype;;Summer;;No
1951040;5906070-LILAC-1951040;Dorothy Perkins Women Top;Draft;Tops;DOROTHY PERKINS;Adults-Women;Women;;;;Fashion;;2017;UK18,DYPNTOPS00000938;1390.00;<p>100% Cotton</p>;;;;;;;zerotype;;Summer;;No
1951038;5906035-GREEN-1951038;S17 WE:LIME XBUILTUP;Draft;Tops;DOROTHY PERKINS;Adults-Women;Women;;;;Fashion;;2017;UK6,DYPNTOPS00000926,UK8,DYPNTOPS00000927,UK10,DYPNTOPS00000929,UK12,DYPNTOPS00000931,UK14,DYPNTOPS00000933,UK16,DYPNTOPS00000935;1390.00;<p>Garment: Polyester(100%)</p>;;;;;;;zerotype;;Summer;;No
1951018;5701720-WHITE-1951018;P:FLRL SPORT TRIM LS;Draft;Tops;DOROTHY PERKINS;Adults-Women;Women;;;;Fashion;;2017;UK6,DYPNTOPS00000827,UK8,DYPNTOPS00000828,UK10,DYPNTOPS00000829,UK12,DYPNTOPS00000830,UK14,DYPNTOPS00000831;2690.00;<p>Garment: Polyester(100%) Filler: Polyamide(10%) Polyester(90%)</p>;;;;;;;zerotype;;Summer;;No
1951017;5700774-ORANGE-1951017;WE:ORG FLDVR BTN CAM;Draft;Tops;DOROTHY PERKINS;Adults-Women;Women;;;;Fashion;;2017;UK6,DYPNTOPS00000822,UK10,DYPNTOPS00000823,UK12,DYPNTOPS00000824,UK14,DYPNTOPS00000825,UK16,DYPNTOPS00000826;1790.00;<p>Garment: Polyester(100%)</p>;;;;;;;zerotype;;Summer;;No
1951016;5700725-BLUE-1951016;WE:CHAM FLD BTN CAMI;Draft;Tops;DOROTHY PERKINS;Adults-Women;Women;;;;Fashion;;2017;UK6,DYPNTOPS00000817,UK8,DYPNTOPS00000818,UK10,DYPNTOPS00000819,UK12,DYPNTOPS00000820,UK14,DYPNTOPS00000821;1790.00;<p>Garment: Polyester(100%)</p>;;;;;;;zerotype;;Summer;;No
1951015;5700722-NAVY BLUE-1951015;NVY/ORG FLR FOLD CAM;Draft;Tops;DOROTHY PERKINS;Adults-Women;Women;;;;Fashion;;2017;UK6,DYPNTOPS00000813,UK8,DYPNTOPS00000814,UK10,DYPNTOPS00000815,UK12,DYPNTOPS00000816;1990.00;<p>Garment: Polyester(100%)</p>;;;;;;;zerotype;;Summer;;No
1951014;5700720-WHITE-1951014;WE:WHT FLDVR BTN CAM;Draft;Tops;DOROTHY PERKINS;Adults-Women;Women;;;;Fashion;;2017;UK8,DYPNTOPS00000808,UK10,DYPNTOPS00000809,UK12,DYPNTOPS00000810,UK14,DYPNTOPS00000811,UK16,DYPNTOPS00000812;1790.00;<p>Garment: Polyester(100%)</p>;;;;;;;zerotype;;Summer;;No
1951013;5699822-BLUE-1951013;TE:BLU KEYHOLE BTN T;Draft;Tops;DOROTHY PERKINS;Adults-Women;Women;;;;Fashion;;2017;UK8,DYPNTOPS00000805,UK10,DYPNTOPS00000806,UK12,DYPNTOPS00000807;2190.00;<p>Garment: Polyester(100%)</p>;;;;;;;zerotype;;Summer;;No
1951012;5699741-CREAM-1951012;WE:IVY CS TOP 5795A;Draft;Tops;DOROTHY PERKINS;Adults-Women;Women;;;;Fashion;;2017;UK6,DYPNTOPS00000799,UK8,DYPNTOPS00000800,UK10,DYPNTOPS00000801,UK12,DYPNTOPS00000802,UK14,DYPNTOPS00000803,UK16,DYPNTOPS00000804;2390.00;<p>Garment: Elastane(5%) Polyester(95%)</p>;;;;;;;zerotype;;Summer;;No
1951011;5694745-PINK-1951011;Dorothy Perkins Women Top;Draft;Tops;DOROTHY PERKINS;Adults-Women;Women;;;;Fashion;;2017;UK12,DYPNTOPS00000798;1499.00;<p>100% Cotton</p>;;;;;;;zerotype;;Summer;;No
1951010;5692070-PURPLE-1951010;D38:WE:LILAC RFF BRD;Draft;Tops;DOROTHY PERKINS;Adults-Women;Women;;;;Fashion;;2017;UK6,DYPNTOPS00000792,UK8,DYPNTOPS00000793,UK10,DYPNTOPS00000794,UK12,DYPNTOPS00000795,UK14,DYPNTOPS00000796,UK16,DYPNTOPS00000797;1590.00;<p>Garment: Elastane(3%) Polyester(97%)</p>;;;;;;;zerotype;;Summer;;No
1951009;5692041-YELLOW-1951009;LEMON RUFFLE BARDOT;Draft;Tops;DOROTHY PERKINS;Adults-Women;Women;;;;Fashion;;2017;UK6,DYPNTOPS00000787,UK8,DYPNTOPS00000788,UK10,DYPNTOPS00000789,UK12,DYPNTOPS00000790,UK14,DYPNTOPS00000791;1490.00;<p>Garment: Elastane(3%) Polyester(97%)</p>;;;;;;;zerotype;;Summer;;No
1951008;5692016-PINK-1951008;RED RUFFLE BARDOT;Draft;Tops;DOROTHY PERKINS;Adults-Women;Women;;;;Fashion;;2017;UK6,DYPNTOPS00000781,UK8,DYPNTOPS00000782,UK10,DYPNTOPS00000783,UK12,DYPNTOPS00000784,UK14,DYPNTOPS00000785,UK16,DYPNTOPS00000786;1490.00;<p>Garment: Elastane(3%) Polyester(97%)</p>;;;;;;;zerotype;;Summer;;No
1951004;5679332-NAVY BLUE-1951004;NAVY ROSE XBK BLTUP;Draft;Tops;DOROTHY PERKINS;Adults-Women;Women;;;;Fashion;;2017;UK6,DYPNTOPS00000766,UK8,DYPNTOPS00000767,UK10,DYPNTOPS00000768,UK12,DYPNTOPS00000769,UK14,DYPNTOPS00000770,UK16,DYPNTOPS00000771;1790.00;<p>Garment: Polyester(100%)</p>;;;;;;;zerotype;;Summer;;No
1950999;5612323-WHITE-1950999;Dorothy Perkins Women Top;Draft;Tops;DOROTHY PERKINS;Adults-Women;Women;;;;Fashion;;2017;UK8,DYPNTOPS00000747,UK10,DYPNTOPS00000748,UK12,DYPNTOPS00000749,UK14,DYPNTOPS00000750,UK16,DYPNTOPS00000751;1990.00;<p>100% Cotton</p>;;;;;;;zerotype;;Summer;;No
1950997;5556655-NAVY BLUE-1950997;NVY EMB CHOKER 5861A;Draft;Tops;DOROTHY PERKINS;Adults-Women;Women;;;;Fashion;;2017;UK6,DYPNTOPS00000736,UK8,DYPNTOPS00000737,UK10,DYPNTOPS00000738,UK12,DYPNTOPS00000739,UK14,DYPNTOPS00000740,UK16,DYPNTOPS00000741;2690.00;<p>Garment: Elastane(3%) Polyester(97%)</p>;;;;;;;zerotype;;Summer;;No
1950990;5255777-IVORY-1950990;IV NON CLLR BTN THRU;Draft;Tops;DOROTHY PERKINS;Adults-Women;Women;;;;Fashion;;2017;UK6,DYPNTOPS00000696,UK8,DYPNTOPS00000697,UK10,DYPNTOPS00000698,UK12,DYPNTOPS00000699,UK14,DYPNTOPS00000700,UK16,DYPNTOPS00000701;1690.00;<p>Garment: Polyester(100%)</p>;;;;;;;zerotype;;Summer;;No
1950989;5255666-BLACK-1950989;BL NON CLLR BTN THRU;Draft;Tops;DOROTHY PERKINS;Adults-Women;Women;;;;Fashion;;2017;UK6,DYPNTOPS00000690,UK8,DYPNTOPS00000691,UK10,DYPNTOPS00000692,UK12,DYPNTOPS00000693,UK14,DYPNTOPS00000694,UK16,DYPNTOPS00000695;1690.00;<p>Garment: Polyester(100%)</p>;;;;;;;zerotype;;Summer;;No
1950986;5255655-GREEN-1950986;KHA NON COLLAR SLESS;Draft;Tops;DOROTHY PERKINS;Adults-Women;Women;;;;Fashion;;2017;UK6,DYPNTOPS00000684,UK8,DYPNTOPS00000685,UK10,DYPNTOPS00000686,UK12,DYPNTOPS00000687,UK14,DYPNTOPS00000688,UK16,DYPNTOPS00000689;1690.00;<p>Garment: Polyester(100%)</p>;;;;;;;zerotype;;Summer;;No
1950783;18479002-NAVY BLUE-1950783;NVY/BNE SLIP PIPE TT;Draft;Handbags;DOROTHY PERKINS;Adults-Women;Women;;;;Fashion;;2017;Onesize,DYPNHDBG00000034;2900.00;<p>Garment: Polyurethane(100%)</p>;;;;;;;zerotype;;Summer;;No
1950782;18478902-WHITE-1950782;WHT O/S SMART TOTE;Draft;Handbags;DOROTHY PERKINS;Adults-Women;Women;;;;Fashion;;2017;Onesize,DYPNHDBG00000033;3800.00;<p>Garment: Polyurethane(100%)</p>;;;;;;;zerotype;;Summer;;No
1950781;18478983-PEACH-1950781;NUDE O/S SMART TOTE;Draft;Handbags;DOROTHY PERKINS;Adults-Women;Women;;;;Fashion;;2017;Onesize,DYPNHDBG00000032;3800.00;<p>Garment: Polyurethane(100%)</p>;;;;;;;zerotype;;Summer;;No
1950780;18478550-BROWN-1950780;TAN BELT LNDSCP SHPR;Draft;Handbags;DOROTHY PERKINS;Adults-Women;Women;;;;Fashion;;2017;Onesize,DYPNHDBG00000031;2900.00;<p>Garment: Polyurethane(100%)</p>;;;;;;;zerotype;;Summer;;No
1950767;18480516-PINK-1950767;SM:CRL CALLALILY CLT;Draft;Clutches;DOROTHY PERKINS;Adults-Women;Women;;;;Fashion;;2017;Onesize,DYPNCLTH00000018;1500.00;<p>Garment: Polyester(100%)</p>;;;;;;;zerotype;;Summer;;No
1950766;18479503-BLACK-1950766;SM:BLK SPOT SML CLTH;Draft;Clutches;DOROTHY PERKINS;Adults-Women;Women;;;;Fashion;;2017;Onesize,DYPNCLTH00000017;2100.00;<p>Garment: Polyurethane(100%)</p>;;;;;;;zerotype;;Summer;;No
1950500;79995023-NAVY BLUE-1950500;NVY FLRL RFL STRP DR;Draft;Dresses;DOROTHY PERKINS;Adults-Women;Women;;;;Fashion;;2017;UK6,DYPNDRSS00001254,UK8,DYPNDRSS00001255,UK10,DYPNDRSS00001256,UK12,DYPNDRSS00001257,UK14,DYPNDRSS00001258,UK16,DYPNDRSS00001259;2190.00;<p>Garment: Cotton(96%) Elastane(4%)</p>;;;;;;;zerotype;;Summer;;No
1950497;79990745-PINK-1950497;WB:PNK BRDT FLT SLV;Draft;Dresses;DOROTHY PERKINS;Adults-Women;Women;;;;Fashion;;2017;UK6,DYPNDRSS00001248,UK8,DYPNDRSS00001249,UK10,DYPNDRSS00001250,UK12,DYPNDRSS00001251,UK14,DYPNDRSS00001252,UK16,DYPNDRSS00001253;2190.00;<p>Garment: Polyester(100%)</p>;;;;;;;zerotype;;Summer;;No
1950495;79987974-ORANGE-1950495;WB:GO ORG C/SHD SHFT;Draft;Dresses;DOROTHY PERKINS;Adults-Women;Women;;;;Fashion;;2017;UK6,DYPNDRSS00001244,UK8,DYPNDRSS00001245,UK10,DYPNDRSS00001246,UK12,DYPNDRSS00001247;2990.00;<p>Garment: Polyester(100%) Lining: Polyester(100%)</p>;;;;;;;zerotype;;Summer;;No
1950493;79985663-BLACK-1950493;GO TRPICAL SCUBA DRS;Draft;Dresses;DOROTHY PERKINS;Adults-Women;Women;;;;Fashion;;2017;UK6,DYPNDRSS00001238,UK8,DYPNDRSS00001239,UK10,DYPNDRSS00001240,UK12,DYPNDRSS00001241,UK14,DYPNDRSS00001242,UK16,DYPNDRSS00001243;3590.00;<p>Garment: Elastane(11%) Polyester(89%)</p>;;;;;;;zerotype;;Summer;;No
1950491;79980810-BLUE-1950491;RT:BLUE DAISY SL F&F;Draft;Dresses;DOROTHY PERKINS;Adults-Women;Women;;;;Fashion;;2017;UK6,DYPNDRSS00001234,UK8,DYPNDRSS00001235,UK10,DYPNDRSS00001236,UK12,DYPNDRSS00001237;5890.00;<p>Garment: Polyester(100%) Lining: Polyester(100%)</p>;;;;;;;zerotype;;Summer;;No
1950489;79980183-PEACH-1950489;RT:FLURO LACE SHIFT;Draft;Dresses;DOROTHY PERKINS;Adults-Women;Women;;;;Fashion;;2017;UK6,DYPNDRSS00001229,UK8,DYPNDRSS00001230,UK10,DYPNDRSS00001231,UK12,DYPNDRSS00001232,UK14,DYPNDRSS00001233;5390.00;<p>Garment: Polyester(100%) Lining: Polyester(100%)</p>;;;;;;;zerotype;;Summer;;No
1950449;56570082-IVORY-1950449;IVY TROPICAL CAMI DR;Draft;Dresses;DOROTHY PERKINS;Adults-Women;Women;;;;Fashion;;2017;UK8,DYPNDRSS00001139,UK10,DYPNDRSS00001140,UK12,DYPNDRSS00001141,UK16,DYPNDRSS00001142;1690.00;<p>Garment: Cotton(100%)</p>;;;;;;;zerotype;;Summer;;No
1950446;56569750-BLUE-1950446;I:BLUE SEQUIN LCE DR;Draft;Dresses;DOROTHY PERKINS;Adults-Women;Women;;;;Fashion;;2017;UK6,DYPNDRSS00001133,UK8,DYPNDRSS00001134,UK10,DYPNDRSS00001135,UK12,DYPNDRSS00001136,UK14,DYPNDRSS00001137,UK16,DYPNDRSS00001138;2390.00;<p>Garment: Polyamide(100%)</p>;;;;;;;zerotype;;Summer;;No
1950444;56569610-BLACK-1950444;BLK SEQUIN LCE DR;Draft;Dresses;DOROTHY PERKINS;Adults-Women;Women;;;;Fashion;;2017;UK6,DYPNDRSS00001127,UK8,DYPNDRSS00001128,UK10,DYPNDRSS00001129,UK12,DYPNDRSS00001130,UK14,DYPNDRSS00001131,UK16,DYPNDRSS00001132;2390.00;<p>Garment: Polyamide(100%)</p>;;;;;;;zerotype;;Summer;;No
1950442;56564221-BLUE-1950442;COB STRAP BARDOT DRS;Draft;Dresses;DOROTHY PERKINS;Adults-Women;Women;;;;Fashion;;2017;UK6,DYPNDRSS00001121,UK8,DYPNDRSS00001122,UK10,DYPNDRSS00001123,UK12,DYPNDRSS00001124,UK14,DYPNDRSS00001125,UK16,DYPNDRSS00001126;1490.00;<p>Garment: Cotton(93%) Elastane(7%)</p>;;;;;;;zerotype;;Summer;;No
1950441;56556016-PINK-1950441;CORAL CAMI DRESS;Draft;Dresses;DOROTHY PERKINS;Adults-Women;Women;;;;Fashion;;2017;UK6,DYPNDRSS00001115,UK8,DYPNDRSS00001116,UK10,DYPNDRSS00001117,UK12,DYPNDRSS00001118,UK14,DYPNDRSS00001119,UK16,DYPNDRSS00001120;1490.00;<p>Garment: Cotton(95%) Elastane(5%)</p>;;;;;;;zerotype;;Summer;;No
1950439;12527930-NAVY BLUE-1950439;LF:NVY CONFETTI DRS;Draft;Dresses;DOROTHY PERKINS;Adults-Women;Women;;;;Fashion;;2017;UK6,DYPNDRSS00001106,UK8,DYPNDRSS00001107,UK10,DYPNDRSS00001108,UK12,DYPNDRSS00001109;5390.00;<p>Garment: Elastane(5%) Polyester(95%) Lining: Polyester(100%)</p>;;;;;;;zerotype;;Summer;;No
1950438;12527845-PINK-1950438;LF:PNK FLRL SHFT DRS;Draft;Dresses;DOROTHY PERKINS;Adults-Women;Women;;;;Fashion;;2017;UK6,DYPNDRSS00001100,UK8,DYPNDRSS00001101,UK10,DYPNDRSS00001102,UK12,DYPNDRSS00001103,UK14,DYPNDRSS00001104,UK16,DYPNDRSS00001105;5390.00;<p>Garment: Elastane(5%) Polyester(95%)</p>;;;;;;;zerotype;;Summer;;No
1950437;12527745-PINK-1950437;LF:PNK LS V NECK BDY;Draft;Dresses;DOROTHY PERKINS;Adults-Women;Women;;;;Fashion;;2017;UK6,DYPNDRSS00001096,UK8,DYPNDRSS00001097,UK10,DYPNDRSS00001098,UK12,DYPNDRSS00001099;5390.00;<p>Garment: Elastane(5%) Polyester(95%)</p>;;;;;;;zerotype;;Summer;;No
1950436;12527651-LIGHT GREEN-1950436;LF:KHAKI MANIP DRESS;Draft;Dresses;DOROTHY PERKINS;Adults-Women;Women;;;;Fashion;;2017;UK6,DYPNDRSS00001092,UK8,DYPNDRSS00001093,UK10,DYPNDRSS00001094,UK12,DYPNDRSS00001095;4890.00;<p>Garment: Polyester(100%) Lining: Polyester(100%)</p>;;;;;;;zerotype;;Summer;;No
1950435;12527621-MULTI BRIGHT-1950435;LF:ABSTRCT SIDE RUCH;Draft;Dresses;DOROTHY PERKINS;Adults-Women;Women;;;;Fashion;;2017;UK6,DYPNDRSS00001088,UK8,DYPNDRSS00001089,UK10,DYPNDRSS00001090,UK12,DYPNDRSS00001091;5390.00;<p>Garment: Elastane(5%) Polyester(95%) Lining: Polyester(100%)</p>;;;;;;;zerotype;;Summer;;No
1950434;12527501-GREEN-1950434;LF:CHARTREUSE MANIP;Draft;Dresses;DOROTHY PERKINS;Adults-Women;Women;;;;Fashion;;2017;UK6,DYPNDRSS00001084,UK8,DYPNDRSS00001085,UK10,DYPNDRSS00001086,UK12,DYPNDRSS00001087;4890.00;<p>Garment: Polyester(100%) Lining: Polyester(100%)</p>;;;;;;;zerotype;;Summer;;No
1950432;12526721-MULTI BRIGHT-1950432;L:CNDY FLRL BRDT PRM;Draft;Dresses;DOROTHY PERKINS;Adults-Women;Women;;;;Fashion;;2017;UK6,DYPNDRSS00001072,UK8,DYPNDRSS00001073,UK10,DYPNDRSS00001074,UK12,DYPNDRSS00001075,UK14,DYPNDRSS00001076,UK16,DYPNDRSS00001077;4690.00;<p>Garment: Polyester(100%) Lining: Polyester(100%)</p>;;;;;;;zerotype;;Summer;;No
1950431;12526211-YELLOW-1950431;S:LEMN JASMINE PRM;Draft;Dresses;DOROTHY PERKINS;Adults-Women;Women;;;;Fashion;;2017;UK8,DYPNDRSS00001067,UK10,DYPNDRSS00001068,UK12,DYPNDRSS00001069,UK14,DYPNDRSS00001070,UK16,DYPNDRSS00001071;5890.00;<p>Garment: Polyester(100%)</p>;;;;;;;zerotype;;Summer;;No
1950430;12525955-PEACH-1950430;B:BLSH FLRL MIDI DRS;Draft;Dresses;DOROTHY PERKINS;Adults-Women;Women;;;;Fashion;;2017;UK6,DYPNDRSS00001061,UK8,DYPNDRSS00001062,UK10,DYPNDRSS00001063,UK12,DYPNDRSS00001064,UK14,DYPNDRSS00001065,UK16,DYPNDRSS00001066;3990.00;<p>Garment: Polyester(100%) Lining: Polyester(100%)</p>;;;;;;;zerotype;;Summer;;No
1950429;12525330-BLACK-1950429;LF:MONO FLRL PAN BDY;Draft;Dresses;DOROTHY PERKINS;Adults-Women;Women;;;;Fashion;;2017;UK6,DYPNDRSS00001056,UK8,DYPNDRSS00001057,UK10,DYPNDRSS00001058,UK14,DYPNDRSS00001059,UK16,DYPNDRSS00001060;5190.00;<p>Garment: Elastane(5%) Polyester(95%) Lining: Polyester(100%)</p>;;;;;;;zerotype;;Summer;;No
1950428;12525230-NAVY BLUE-1950428;LF:NVY PLEATED BDYCO;Draft;Dresses;DOROTHY PERKINS;Adults-Women;Women;;;;Fashion;;2017;UK6,DYPNDRSS00001051,UK8,DYPNDRSS00001052,UK10,DYPNDRSS00001053,UK12,DYPNDRSS00001054,UK14,DYPNDRSS00001055;5190.00;<p>Garment: Elastane(5%) Polyester(95%) Lining: Polyester(100%)</p>;;;;;;;zerotype;;Summer;;No
1950427;12525121-MULTI BRIGHT-1950427;LF:MLTI FLRL BDYCON;Draft;Dresses;DOROTHY PERKINS;Adults-Women;Women;;;;Fashion;;2017;UK6,DYPNDRSS00001045,UK8,DYPNDRSS00001046,UK10,DYPNDRSS00001047,UK12,DYPNDRSS00001048,UK14,DYPNDRSS00001049,UK16,DYPNDRSS00001050;5190.00;<p>Garment: Elastane(5%) Polyester(95%) Lining: Polyester(100%)</p>;;;;;;;zerotype;;Summer;;No
1950426;12525045-PINK-1950426;LF:PNK ABSTRACT STRP;Draft;Dresses;DOROTHY PERKINS;Adults-Women;Women;;;;Fashion;;2017;UK6,DYPNDRSS00001041,UK8,DYPNDRSS00001042,UK10,DYPNDRSS00001043,UK16,DYPNDRSS00001044;5190.00;<p>Garment: Elastane(5%) Viscose(95%)</p>;;;;;;;zerotype;;Summer;;No
1950425;12524930-BLACK-1950425;LF:MONO FLRL MANIPUL;Draft;Dresses;DOROTHY PERKINS;Adults-Women;Women;;;;Fashion;;2017;UK6,DYPNDRSS00001035,UK8,DYPNDRSS00001036,UK10,DYPNDRSS00001037,UK12,DYPNDRSS00001038,UK14,DYPNDRSS00001039,UK16,DYPNDRSS00001040;5190.00;<p>Garment: Elastane(3%) Polyester(97%) Lining: Polyester(100%)</p>;;;;;;;zerotype;;Summer;;No
1950424;12524901-BLACK-1950424;LF:BLK MANIPUL DRESS;Draft;Dresses;DOROTHY PERKINS;Adults-Women;Women;;;;Fashion;;2017;UK6,DYPNDRSS00001029,UK8,DYPNDRSS00001030,UK10,DYPNDRSS00001031,UK12,DYPNDRSS00001032,UK14,DYPNDRSS00001033,UK16,DYPNDRSS00001034;5390.00;<p>Garment: Elastane(5%) Polyester(95%)</p>;;;;;;;zerotype;;Summer;;No
1950423;12524845-PINK-1950423;LF:PNK ABSTRCT SHIFT;Draft;Dresses;DOROTHY PERKINS;Adults-Women;Women;;;;Fashion;;2017;UK6,DYPNDRSS00001023,UK8,DYPNDRSS00001024,UK10,DYPNDRSS00001025,UK12,DYPNDRSS00001026,UK14,DYPNDRSS00001027,UK16,DYPNDRSS00001028;5190.00;<p>Garment: Elastane(5%) Polyester(95%)</p>;;;;;;;zerotype;;Summer;;No
1950422;12524721-MULTI BRIGHT-1950422;LF:SCAT SPOT MANIP D;Draft;Dresses;DOROTHY PERKINS;Adults-Women;Women;;;;Fashion;;2017;UK6,DYPNDRSS00001017,UK8,DYPNDRSS00001018,UK10,DYPNDRSS00001019,UK12,DYPNDRSS00001020,UK14,DYPNDRSS00001021,UK16,DYPNDRSS00001022;5190.00;<p>Garment: Elastane(5%) Viscose(95%)</p>;;;;;;;zerotype;;Summer;;No
1950421;12524045-PINK-1950421;RT L:PNK BLURD FLR;Draft;Dresses;DOROTHY PERKINS;Adults-Women;Women;;;;Fashion;;2017;UK6,DYPNDRSS00001011,UK8,DYPNDRSS00001012,UK10,DYPNDRSS00001013,UK12,DYPNDRSS00001014,UK14,DYPNDRSS00001015,UK16,DYPNDRSS00001016;4290.00;<p>Garment: Polyester(100%) Lining: Polyester(100%)</p>;;;;;;;zerotype;;Summer;;No
1950420;12524030-NAVY BLUE-1950420;LF:GEO PANEL V BDYCO;Draft;Dresses;DOROTHY PERKINS;Adults-Women;Women;;;;Fashion;;2017;UK6,DYPNDRSS00001007,UK8,DYPNDRSS00001008,UK10,DYPNDRSS00001009,UK12,DYPNDRSS00001010;5190.00;<p>Garment: Elastane(5%) Polyester(95%)</p>;;;;;;;zerotype;;Summer;;No
1950419;12523930-NAVY BLUE-1950419;RT L:NVY STRIPE DRS;Draft;Dresses;DOROTHY PERKINS;Adults-Women;Women;;;;Fashion;;2017;UK6,DYPNDRSS00001002,UK8,DYPNDRSS00001003,UK10,DYPNDRSS00001004,UK12,DYPNDRSS00001005,UK14,DYPNDRSS00001006;4490.00;<p>Garment: Polyester(100%) Lining: Polyester(100%) Filler: Polyester(100%)</p>;;;;;;;zerotype;;Summer;;No
1950418;12522902-BLUE-1950418;RT L:BLUE BARDOT PRM;Draft;Dresses;DOROTHY PERKINS;Adults-Women;Women;;;;Fashion;;2017;UK6,DYPNDRSS00000997,UK8,DYPNDRSS00000998,UK10,DYPNDRSS00000999,UK12,DYPNDRSS00001000,UK16,DYPNDRSS00001001;4990.00;<p>Garment: Polyester(100%) Lining: Polyester(100%)</p>;;;;;;;zerotype;;Summer;;No
1950412;12348610-MULTI BRIGHT-1950412;LF:STRIPE CREPE DRES;Draft;Dresses;DOROTHY PERKINS;Adults-Women;Women;;;;Fashion;;2017;UK6,DYPNDRSS00000971,UK8,DYPNDRSS00000972,UK10,DYPNDRSS00000973,UK12,DYPNDRSS00000974,UK14,DYPNDRSS00000975,UK16,DYPNDRSS00000976;5390.00;<p>Garment: Elastane(3%) Polyester(97%) Lining: Polyester(100%)</p>;;;;;;;zerotype;;Summer;;No
1950411;12348445-MULTI BRIGHT-1950411;LF:LEAF ABSTRACT DRS;Draft;Dresses;DOROTHY PERKINS;Adults-Women;Women;;;;Fashion;;2017;UK6,DYPNDRSS00000965,UK8,DYPNDRSS00000966,UK10,DYPNDRSS00000967,UK12,DYPNDRSS00000968,UK14,DYPNDRSS00000969,UK16,DYPNDRSS00000970;5390.00;<p>Garment: Elastane(5%) Polyester(95%)</p>;;;;;;;zerotype;;Summer;;No
1950410;12348343-GREEN-1950410;LF:KHAKI TULIP TWIST;Draft;Dresses;DOROTHY PERKINS;Adults-Women;Women;;;;Fashion;;2017;UK6,DYPNDRSS00000959,UK8,DYPNDRSS00000960,UK10,DYPNDRSS00000961,UK12,DYPNDRSS00000962,UK14,DYPNDRSS00000963,UK16,DYPNDRSS00000964;5390.00;<p>Garment: Elastane(5%) Viscose(95%)</p>;;;;;;;zerotype;;Summer;;No
1950402;7543210-BLUE-1950402;CBLT RUFFLE JUMPSUIT;Draft;Dresses;DOROTHY PERKINS;Adults-Women;Women;;;;Fashion;;2017;UK6,DYPNDRSS00000918,UK8,DYPNDRSS00000919,UK10,DYPNDRSS00000920,UK14,DYPNDRSS00000921;3990.00;<p>Garment: Elastane(3%) Polyester(97%)</p>;;;;;;;zerotype;;Summer;;No
1950401;7543101-BLACK-1950401;W32:PALM CHOKER SHFT;Draft;Dresses;DOROTHY PERKINS;Adults-Women;Women;;;;Fashion;;2017;UK8,DYPNDRSS00000913,UK10,DYPNDRSS00000914,UK12,DYPNDRSS00000915,UK14,DYPNDRSS00000916,UK16,DYPNDRSS00000917;2990.00;<p>Garment: Viscose(100%)</p>;;;;;;;zerotype;;Summer;;No
1950400;7542616-PINK-1950400;CRL BRDT FLTE SHFT;Draft;Dresses;DOROTHY PERKINS;Adults-Women;Women;;;;Fashion;;2017;UK6,DYPNDRSS00000907,UK8,DYPNDRSS00000908,UK10,DYPNDRSS00000909,UK12,DYPNDRSS00000910,UK14,DYPNDRSS00000911,UK16,DYPNDRSS00000912;2990.00;<p>Garment: Elastane(3%) Polyester(97%)</p>;;;;;;;zerotype;;Summer;;No
1950399;7542592-MULTI BRIGHT-1950399;TROP BARDOT MAXI DRS;Draft;Dresses;DOROTHY PERKINS;Adults-Women;Women;;;;Fashion;;2017;UK6,DYPNDRSS00000902,UK8,DYPNDRSS00000903,UK10,DYPNDRSS00000904,UK12,DYPNDRSS00000905,UK16,DYPNDRSS00000906;4290.00;<p>Garment: Polyester(100%)</p>;;;;;;;zerotype;;Summer;;No
1950398;7541510-MULTI BRIGHT-1950398;P:MULTI FLRL MIDI;Draft;Dresses;DOROTHY PERKINS;Adults-Women;Women;;;;Fashion;;2017;UK6,DYPNDRSS00000897,UK8,DYPNDRSS00000898,UK10,DYPNDRSS00000899,UK12,DYPNDRSS00000900,UK14,DYPNDRSS00000901;4290.00;<p>Garment: Polyester(100%)</p>;;;;;;;zerotype;;Summer;;No
1950397;7540623-NAVY BLUE-1950397;NVY TROP SATEEN DRSS;Draft;Dresses;DOROTHY PERKINS;Adults-Women;Women;;;;Fashion;;2017;UK6,DYPNDRSS00000891,UK8,DYPNDRSS00000892,UK10,DYPNDRSS00000893,UK12,DYPNDRSS00000894,UK14,DYPNDRSS00000895,UK16,DYPNDRSS00000896;3590.00;<p>Garment: Cotton(98%) Elastane(2%)</p>;;;;;;;zerotype;;Summer;;No
1950396;7539715-PEACH-1950396;BLUSH COTTON SATEEN;Draft;Dresses;DOROTHY PERKINS;Adults-Women;Women;;;;Fashion;;2017;UK6,DYPNDRSS00000885,UK8,DYPNDRSS00000886,UK10,DYPNDRSS00000887,UK12,DYPNDRSS00000888,UK14,DYPNDRSS00000889,UK16,DYPNDRSS00000890;3790.00;<p>Garment: Cotton(98%) Elastane(2%)</p>;;;;;;;zerotype;;Summer;;No
1950395;7539301-BLACK-1950395;BLK EMB TIE SLV SHFT;Draft;Dresses;DOROTHY PERKINS;Adults-Women;Women;;;;Fashion;;2017;UK6,DYPNDRSS00000880,UK8,DYPNDRSS00000881,UK10,DYPNDRSS00000882,UK12,DYPNDRSS00000883,UK16,DYPNDRSS00000884;3490.00;<p>Garment: Elastane(3%) Polyester(97%)</p>;;;;;;;zerotype;;Summer;;No
1950394;7538374-ORANGE-1950394;FF:ORG FLRL SATEN FF;Draft;Dresses;DOROTHY PERKINS;Adults-Women;Women;;;;Fashion;;2017;UK6,DYPNDRSS00000874,UK8,DYPNDRSS00000875,UK10,DYPNDRSS00000876,UK12,DYPNDRSS00000877,UK14,DYPNDRSS00000878,UK16,DYPNDRSS00000879;3790.00;<p>Garment: Cotton(98%) Elastane(2%)</p>;;;;;;;zerotype;;Summer;;No
1950393;7537282-IVORY-1950393;CRM SATEN DRS 5767A;Draft;Dresses;DOROTHY PERKINS;Adults-Women;Women;;;;Fashion;;2017;UK6,DYPNDRSS00000869,UK10,DYPNDRSS00000870,UK12,DYPNDRSS00000871,UK14,DYPNDRSS00000872,UK16,DYPNDRSS00000873;3790.00;<p>Garment: Cotton(97%) Elastane(3%)</p>;;;;;;;zerotype;;Summer;;No
1950392;7536482-IVORY-1950392;O:IVO/PNK SCUBA PNCL;Draft;Dresses;DOROTHY PERKINS;Adults-Women;Women;;;;Fashion;;2017;UK6,DYPNDRSS00000863,UK8,DYPNDRSS00000864,UK10,DYPNDRSS00000865,UK12,DYPNDRSS00000866,UK14,DYPNDRSS00000867,UK16,DYPNDRSS00000868;3590.00;<p>Garment: Elastane(5%) Polyester(95%)</p>;;;;;;;zerotype;;Summer;;No
1950391;7536140-YELLOW-1950391;MUSTRD CREPE WRP DRS;Draft;Dresses;DOROTHY PERKINS;Adults-Women;Women;;;;Fashion;;2017;UK8,DYPNDRSS00000858,UK10,DYPNDRSS00000859,UK12,DYPNDRSS00000860,UK14,DYPNDRSS00000861,UK16,DYPNDRSS00000862;3490.00;<p>Garment: Elastane(2%) Polyester(98%)</p>;;;;;;;zerotype;;Summer;;No
1950390;7536110-BLUE-1950390;CBLT CREPE WRAP DRSS;Draft;Dresses;DOROTHY PERKINS;Adults-Women;Women;;;;Fashion;;2017;UK6,DYPNDRSS00000852,UK8,DYPNDRSS00000853,UK10,DYPNDRSS00000854,UK12,DYPNDRSS00000855,UK14,DYPNDRSS00000856,UK16,DYPNDRSS00000857;3490.00;<p>Garment: Elastane(2%) Polyester(98%)</p>;;;;;;;zerotype;;Summer;;No
1950387;7534023-NAVY BLUE-1950387;O:NVY BELTED LCE F+F;Draft;Dresses;DOROTHY PERKINS;Adults-Women;Women;;;;Fashion;;2017;UK6,DYPNDRSS00000834,UK8,DYPNDRSS00000835,UK10,DYPNDRSS00000836,UK12,DYPNDRSS00000837,UK14,DYPNDRSS00000838,UK16,DYPNDRSS00000839;3990.00;<p>Garment: Elastane(13%) Nylon(87%)</p>;;;;;;;zerotype;;Summer;;No
1950386;7534010-BLACK-1950386;O:BLK BELTED LCE F+F;Draft;Dresses;DOROTHY PERKINS;Adults-Women;Women;;;;Fashion;;2017;UK6,DYPNDRSS00000828,UK8,DYPNDRSS00000829,UK10,DYPNDRSS00000830,UK12,DYPNDRSS00000831,UK14,DYPNDRSS00000832,UK16,DYPNDRSS00000833;3990.00;<p>Garment: Polyester(100%)</p>;;;;;;;zerotype;;Summer;;No
1950385;7349910-MULTI BRIGHT-1950385;O:MUL FLRL RUFLE MXI;Draft;Dresses;DOROTHY PERKINS;Adults-Women;Women;;;;Fashion;;2017;UK6,DYPNDRSS00000822,UK8,DYPNDRSS00000823,UK10,DYPNDRSS00000824,UK12,DYPNDRSS00000825,UK14,DYPNDRSS00000826,UK16,DYPNDRSS00000827;4190.00;<p>Garment: Polyester(100%) Lining: Polyester(100%)</p>;;;;;;;zerotype;;Summer;;No
1950384;7349820-BLUE-1950384;BLU/PNK STRIPE MAXI;Draft;Dresses;DOROTHY PERKINS;Adults-Women;Women;;;;Fashion;;2017;UK6,DYPNDRSS00000819,UK8,DYPNDRSS00000820,UK10,DYPNDRSS00000821;2390.00;<p>Garment: Elastane(4%) Viscose(96%)</p>;;;;;;;zerotype;;Summer;;No
1950383;7349616-PINK-1950383;COR GEO JERSEY MAXI;Draft;Dresses;DOROTHY PERKINS;Adults-Women;Women;;;;Fashion;;2017;UK6,DYPNDRSS00000814,UK8,DYPNDRSS00000815,UK10,DYPNDRSS00000816,UK12,DYPNDRSS00000817,UK14,DYPNDRSS00000818;2390.00;<p>Garment: Elastane(4%) Viscose(96%)</p>;;;;;;;zerotype;;Summer;;No
1950382;7349323-PEACH-1950382;EID:BLSH SEQUIN HILO;Draft;Dresses;DOROTHY PERKINS;Adults-Women;Women;;;;Fashion;;2017;UK6,DYPNDRSS00000810,UK10,DYPNDRSS00000811,UK14,DYPNDRSS00000812,UK16,DYPNDRSS00000813;5190.00;<p>Garment: Nylon(100%) Lining: Polyester(100%) Filler: Polyester(100%)</p>;;;;;;;zerotype;;Summer;;No
1950381;7348923-NAVY BLUE-1950381;NVY FLORAL JRSY MAXI;Draft;Dresses;DOROTHY PERKINS;Adults-Women;Women;;;;Fashion;;2017;UK6,DYPNDRSS00000806,UK8,DYPNDRSS00000807,UK10,DYPNDRSS00000808,UK12,DYPNDRSS00000809;2390.00;<p>Garment: Elastane(4%) Viscose(96%)</p>;;;;;;;zerotype;;Summer;;No
1950380;7348901-GREEN-1950380;GRN DOUBLE RUFLE SFT;Draft;Dresses;DOROTHY PERKINS;Adults-Women;Women;;;;Fashion;;2017;UK6,DYPNDRSS00000802,UK8,DYPNDRSS00000803,UK10,DYPNDRSS00000804,UK12,DYPNDRSS00000805;2890.00;<p>Garment: Polyester(100%) Lining: Polyester(100%)</p>;;;;;;;zerotype;;Summer;;No
1950379;7348510-MULTI BRIGHT-1950379;GEO C.SHOULDER MIDI;Draft;Dresses;DOROTHY PERKINS;Adults-Women;Women;;;;Fashion;;2017;UK6,DYPNDRSS00000798,UK8,DYPNDRSS00000799,UK10,DYPNDRSS00000800,UK12,DYPNDRSS00000801;1890.00;<p>Garment: Elastane(4%) Viscose(96%)</p>;;;;;;;zerotype;;Summer;;No
1950378;7347612-RED-1950378;RED CHIFFON BELTD FF;Draft;Dresses;DOROTHY PERKINS;Adults-Women;Women;;;;Fashion;;2017;UK8,DYPNDRSS00000794,UK10,DYPNDRSS00000795,UK12,DYPNDRSS00000796,UK14,DYPNDRSS00000797;2890.00;<p>Garment: Polyester(100%)</p>;;;;;;;zerotype;;Summer;;No
1950377;7338801-BLACK-1950377;O:BLK LACE SCUBA FF;Draft;Dresses;DOROTHY PERKINS;Adults-Women;Women;;;;Fashion;;2017;UK6,DYPNDRSS00000788,UK8,DYPNDRSS00000789,UK10,DYPNDRSS00000790,UK12,DYPNDRSS00000791,UK14,DYPNDRSS00000792,UK16,DYPNDRSS00000793;3290.00;<p>Garment: Elastane(10%) Polyester(90%) Lining: Polyester(100%)</p>;;;;;;;zerotype;;Summer;;No
1950376;7338410-MULTI BRIGHT-1950376;D31:EID PRINT MAXI;Draft;Dresses;DOROTHY PERKINS;Adults-Women;Women;;;;Fashion;;2017;UK6,DYPNDRSS00000783,UK10,DYPNDRSS00000784,UK12,DYPNDRSS00000785,UK14,DYPNDRSS00000786,UK16,DYPNDRSS00000787;4490.00;<p>Garment: Polyester(100%) Lining: Polyester(100%)</p>;;;;;;;zerotype;;Summer;;No
1950375;7338174-ORANGE-1950375;O:ORA TULIP FF;Draft;Dresses;DOROTHY PERKINS;Adults-Women;Women;;;;Fashion;;2017;UK6,DYPNDRSS00000778,UK8,DYPNDRSS00000779,UK10,DYPNDRSS00000780,UK12,DYPNDRSS00000781,UK14,DYPNDRSS00000782;4390.00;<p>Garment: Polyester(100%) Lining: Polyester(100%)</p>;;;;;;;zerotype;;Summer;;No
1950374;7338041-YELLOW-1950374;O:LEM BARDOT LACE PN;Draft;Dresses;DOROTHY PERKINS;Adults-Women;Women;;;;Fashion;;2017;UK6,DYPNDRSS00000774,UK8,DYPNDRSS00000775,UK10,DYPNDRSS00000776,UK12,DYPNDRSS00000777;3790.00;<p>Garment: Nylon(56%) Viscose(44%) Lining: Polyester(100%)</p>;;;;;;;zerotype;;Summer;;No
1950373;7337919-BLUE-1950373;O:BLU BARDOT LACE PN;Draft;Dresses;DOROTHY PERKINS;Adults-Women;Women;;;;Fashion;;2017;UK6,DYPNDRSS00000770,UK8,DYPNDRSS00000771,UK10,DYPNDRSS00000772,UK12,DYPNDRSS00000773;3790.00;<p>Garment: Nylon(56%) Viscose(44%) Lining: Polyester(100%)</p>;;;;;;;zerotype;;Summer;;No
1950372;7337916-PINK-1950372;O:COR BARDOT LACE PN;Draft;Dresses;DOROTHY PERKINS;Adults-Women;Women;;;;Fashion;;2017;UK6,DYPNDRSS00000766,UK8,DYPNDRSS00000767,UK10,DYPNDRSS00000768,UK12,DYPNDRSS00000769;3790.00;<p>Garment: Nylon(56%) Viscose(44%) Lining: Polyester(100%)</p>;;;;;;;zerotype;;Summer;;No
1950371;7319803-BLACK-1950371;RT:O MONO LCE PNCL;Draft;Dresses;DOROTHY PERKINS;Adults-Women;Women;;;;Fashion;;2017;UK8,DYPNDRSS00000763,UK10,DYPNDRSS00000764,UK12,DYPNDRSS00000765;5690.00;<p>Garment: Polyester(100%) Lining: Polyester(100%)</p>;;;;;;;zerotype;;Summer;;No
1950370;7319482-IVORY-1950370;EID:IVO/PUR PRNT PNL;Draft;Dresses;DOROTHY PERKINS;Adults-Women;Women;;;;Fashion;;2017;UK6,DYPNDRSS00000757,UK8,DYPNDRSS00000758,UK10,DYPNDRSS00000759,UK12,DYPNDRSS00000760,UK14,DYPNDRSS00000761,UK16,DYPNDRSS00000762;3790.00;<p>Garment: Elastane(10%) Polyester(90%) Lining: Polyester(100%)</p>;;;;;;;zerotype;;Summer;;No
