Style ID;Vendor Article Number;Vendor Article Name;Active Status;Article type;Brand;Age Group;Gender;Base Colour;Colour1;Colour2;Fashion Type;Usage;Year;Size - SKU code pair;MRP;Style Description;Style Note;Materials and Care Description;Size and Fit Description;Size Chart Path;Product Display Name;Tags;Product Type;Classification Brand;Season;Comments;Upload Images
4606694;ARY16776-White-4606694;Printed Kurta;Draft;Kurtas;Ayaany;Adults-Women;Women;White;;;Fashion;Smart Casual;2018;S,AYANKRTA00002675,M,AYANKRTA00002676,L,AYANKRTA00002677,XL,AYANKRTA00002678,XXL,AYANKRTA00002679;999.00;;;<p>100% cotton hand wash</p>;;;;;zerotype;;Summer;;No
4606693;ARY1388D-White-4606693;Kurta with Shrug;Draft;Kurtas;Ayaany;Adults-Women;Women;White;;;Fashion;Smart Casual;2018;S,AYANKRTA00002670,M,AYANKRTA00002671,L,AYANKRTA00002672,XL,AYANKRTA00002673,XXL,AYANKRTA00002674;1699.00;;;<p>100% cotton hand wash</p>;;;;;zerotype;;Summer;;No
4606692;ARY1644B-Red-4606692;Floral Printed Kurta;Draft;Kurtas;Ayaany;Adults-Women;Women;Red;;;Fashion;Smart Casual;2018;S,AYANKRTA00002665,M,AYANKRTA00002666,L,AYANKRTA00002667,XL,AYANKRTA00002668,XXL,AYANKRTA00002669;1499.00;;;<p>100% cotton hand wash</p>;;;;;zerotype;;Summer;;No
4606691;ARY1644A-Green-4606691;Floral Printed Kurta;Draft;Kurtas;Ayaany;Adults-Women;Women;Green;;;Fashion;Smart Casual;2018;S,AYANKRTA00002660,M,AYANKRTA00002661,L,AYANKRTA00002662,XL,AYANKRTA00002663,XXL,AYANKRTA00002664;1499.00;;;<p>100% cotton hand wash</p>;;;;;zerotype;;Summer;;No
4606690;ARY1676B-Multi-4606690;Printed Long Open Kurta;Draft;Kurtas;Ayaany;Adults-Women;Women;Multi;;;Fashion;Smart Casual;2018;S,AYANKRTA00002655,M,AYANKRTA00002656,L,AYANKRTA00002657,XL,AYANKRTA00002658,XXL,AYANKRTA00002659;1499.00;;;<p>100% cotton hand wash</p>;;;;;zerotype;;Summer;;No
4606689;ARY1676A-Multi-4606689;Printed Long Open Kurta;Draft;Kurtas;Ayaany;Adults-Women;Women;Multi;;;Fashion;Smart Casual;2018;S,AYANKRTA00002650,M,AYANKRTA00002651,L,AYANKRTA00002652,XL,AYANKRTA00002653,XXL,AYANKRTA00002654;1499.00;;;<p>100% cotton hand wash</p>;;;;;zerotype;;Summer;;No
4606688;ARY1673-Grey-4606688;Straight fit Check Kurta;Draft;Kurtas;Ayaany;Adults-Women;Women;Grey;;;Fashion;Smart Casual;2018;S,AYANKRTA00002645,M,AYANKRTA00002646,L,AYANKRTA00002647,XL,AYANKRTA00002648,XXL,AYANKRTA00002649;1299.00;;;<p>100% cotton hand wash</p>;;;;;zerotype;;Summer;;No
4606687;ARY1633-Grey-4606687;Long Printed Pleated Kurta;Draft;Kurtas;Ayaany;Adults-Women;Women;Grey;;;Fashion;Smart Casual;2018;S,AYANKRTA00002640,M,AYANKRTA00002641,L,AYANKRTA00002642,XL,AYANKRTA00002643,XXL,AYANKRTA00002644;1499.00;;;<p>100% cotton hand wash</p>;;;;;zerotype;;Summer;;No
4606686;ARY1632A-Mustard-4606686;Long Printed Kurta;Draft;Kurtas;Ayaany;Adults-Women;Women;Mustard;;;Fashion;Smart Casual;2018;S,AYANKRTA00002635,M,AYANKRTA00002636,L,AYANKRTA00002637,XL,AYANKRTA00002638,XXL,AYANKRTA00002639;1699.00;;;<p>100% cotton hand wash</p>;;;;;zerotype;;Summer;;No
4606685;ARY1631D-Mustard-4606685;Solid Pant;Draft;Trousers;Ayaany;Adults-Women;Women;Mustard;;;Core;;2018;S,AYANTRSR00000561,M,AYANTRSR00000562,L,AYANTRSR00000563,XL,AYANTRSR00000564,XXL,AYANTRSR00000565;999.00;;;<p>100% cotton hand wash</p>;;;;;zerotype;;Summer;;No
4606684;ARY1631C-Navy Blue-4606684;Solid Pant;Draft;Trousers;Ayaany;Adults-Women;Women;Navy Blue;;;Core;;2018;S,AYANTRSR00000556,M,AYANTRSR00000557,L,AYANTRSR00000558,XL,AYANTRSR00000559,XXL,AYANTRSR00000560;999.00;;;<p>100% cotton hand wash</p>;;;;;zerotype;;Summer;;No
4606683;ARY1631B-Red-4606683;Solid Pant;Draft;Trousers;Ayaany;Adults-Women;Women;Red;;;Core;;2018;S,AYANTRSR00000551,M,AYANTRSR00000552,L,AYANTRSR00000553,XL,AYANTRSR00000554,XXL,AYANTRSR00000555;999.00;;;<p>100% cotton hand wash</p>;;;;;zerotype;;Summer;;No
4606682;ARY1631A-Black-4606682;Solid Pant;Draft;Trousers;Ayaany;Adults-Women;Women;Black;;;Core;;2018;S,AYANTRSR00000546,M,AYANTRSR00000547,L,AYANTRSR00000548,XL,AYANTRSR00000549,XXL,AYANTRSR00000550;999.00;;;<p>100% cotton hand wash</p>;;;;;zerotype;;Summer;;No
4606681;ARY1528A-Navy Blue-4606681;Printed Palazzo;Draft;Palazzos;Ayaany;Adults-Women;Women;Navy Blue;;;Fashion;;2018;S,AYANPLZS00000056,M,AYANPLZS00000057,L,AYANPLZS00000058,XL,AYANPLZS00000059,XXL,AYANPLZS00000060;1099.00;;;<p>100% cotton hand wash</p>;;;;;zerotype;;Summer;;No
4606680;ARY1501B-Red-4606680;Printed Palazzo;Draft;Palazzos;Ayaany;Adults-Women;Women;Red;;;Fashion;;2018;S,AYANPLZS00000051,M,AYANPLZS00000052,L,AYANPLZS00000053,XL,AYANPLZS00000054,XXL,AYANPLZS00000055;1099.00;;;<p>100% cotton hand wash</p>;;;;;zerotype;;Summer;;No
4606679;ARY1638C-Black-4606679;Solid Top;Draft;Tops;Ayaany;Adults-Women;Women;Black;;;Core;;2018;S,AYANTOPS00000641,M,AYANTOPS00000642,L,AYANTOPS00000643,XL,AYANTOPS00000644,XXL,AYANTOPS00000645;1099.00;;;<p>100% cotton hand wash</p>;;;;;zerotype;;Summer;;No
4606678;ARY1638B-Blue-4606678;Solid Top;Draft;Tops;Ayaany;Adults-Women;Women;Blue;;;Core;;2018;S,AYANTOPS00000636,M,AYANTOPS00000637,L,AYANTOPS00000638,XL,AYANTOPS00000639,XXL,AYANTOPS00000640;1099.00;;;<p>100% cotton hand wash</p>;;;;;zerotype;;Summer;;No
4606677;ARY1638A-Mustard-4606677;Solid Top;Draft;Tops;Ayaany;Adults-Women;Women;Mustard;;;Core;;2018;S,AYANTOPS00000631,M,AYANTOPS00000632,L,AYANTOPS00000633,XL,AYANTOPS00000634,XXL,AYANTOPS00000635;1099.00;;;<p>100% cotton hand wash</p>;;;;;zerotype;;Summer;;No
4606676;ARYLGA006-Navy Blue-4606676;Solid 3/4th Length Legging;Draft;Leggings;Ayaany;Adults-Women;Women;Navy Blue;;;Core;;2018;S,AYANLEGG00000124,M,AYANLEGG00000125,L,AYANLEGG00000126,XL,AYANLEGG00000127,XXL,AYANLEGG00000128;399.00;;;<p>cotton hand wash</p>;;;;;zerotype;;Summer;;No
4606675;ARYLGA005-Black-4606675;Solid 3/4th Length Legging;Draft;Leggings;Ayaany;Adults-Women;Women;Black;;;Core;;2018;S,AYANLEGG00000119,M,AYANLEGG00000120,L,AYANLEGG00000121,XL,AYANLEGG00000122,XXL,AYANLEGG00000123;399.00;;;<p>cotton hand wash</p>;;;;;zerotype;;Summer;;No
4606674;ARYLGA004-Mustard-4606674;Solid 3/4th Length Legging;Draft;Leggings;Ayaany;Adults-Women;Women;Mustard;;;Core;;2018;S,AYANLEGG00000114,M,AYANLEGG00000115,L,AYANLEGG00000116,XL,AYANLEGG00000117,XXL,AYANLEGG00000118;399.00;;;<p>cotton hand wash</p>;;;;;zerotype;;Summer;;No
4606673;ARYLGA003-Pink-4606673;Solid 3/4th Length Legging;Draft;Leggings;Ayaany;Adults-Women;Women;Pink;;;Core;;2018;S,AYANLEGG00000109,M,AYANLEGG00000110,L,AYANLEGG00000111,XL,AYANLEGG00000112,XXL,AYANLEGG00000113;399.00;;;<p>cotton hand wash</p>;;;;;zerotype;;Summer;;No
4606672;ARYLGA002-Red-4606672;Solid 3/4th Length Legging;Draft;Leggings;Ayaany;Adults-Women;Women;Red;;;Core;;2018;S,AYANLEGG00000104,M,AYANLEGG00000105,L,AYANLEGG00000106,XL,AYANLEGG00000107,XXL,AYANLEGG00000108;399.00;;;<p>cotton hand wash</p>;;;;;zerotype;;Summer;;No
4606671;ARYLGA001-White-4606671;Solid 3/4th Length Legging;Draft;Leggings;Ayaany;Adults-Women;Women;White;;;Core;;2018;S,AYANLEGG00000099,M,AYANLEGG00000100,L,AYANLEGG00000101,XL,AYANLEGG00000102,XXL,AYANLEGG00000103;399.00;;;<p>cotton hand wash</p>;;;;;zerotype;;Summer;;No
4606670;ARYLGF006-Navy Blue-4606670;Solid Full Length Legging;Draft;Leggings;Ayaany;Adults-Women;Women;Navy Blue;;;Core;;2018;S,AYANLEGG00000094,M,AYANLEGG00000095,L,AYANLEGG00000096,XL,AYANLEGG00000097,XXL,AYANLEGG00000098;499.00;;;<p>cotton hand wash</p>;;;;;zerotype;;Summer;;No
4606669;ARYLGF005-Black-4606669;Solid Full Length Legging;Draft;Leggings;Ayaany;Adults-Women;Women;Black;;;Core;;2018;S,AYANLEGG00000089,M,AYANLEGG00000090,L,AYANLEGG00000091,XL,AYANLEGG00000092,XXL,AYANLEGG00000093;499.00;;;<p>cotton hand wash</p>;;;;;zerotype;;Summer;;No
4606668;ARYLGF004-Mustard-4606668;Solid Full Length Legging;Draft;Leggings;Ayaany;Adults-Women;Women;Mustard;;;Core;;2018;S,AYANLEGG00000084,M,AYANLEGG00000085,L,AYANLEGG00000086,XL,AYANLEGG00000087,XXL,AYANLEGG00000088;499.00;;;<p>cotton hand wash</p>;;;;;zerotype;;Summer;;No
4606667;ARYLGF003-Pink-4606667;Solid Full Length Legging;Draft;Leggings;Ayaany;Adults-Women;Women;Pink;;;Core;;2018;S,AYANLEGG00000079,M,AYANLEGG00000080,L,AYANLEGG00000081,XL,AYANLEGG00000082,XXL,AYANLEGG00000083;499.00;;;<p>cotton hand wash</p>;;;;;zerotype;;Summer;;No
4606666;ARYLGF002-Red-4606666;Solid Full Length Legging;Draft;Leggings;Ayaany;Adults-Women;Women;Red;;;Core;;2018;S,AYANLEGG00000074,M,AYANLEGG00000075,L,AYANLEGG00000076,XL,AYANLEGG00000077,XXL,AYANLEGG00000078;499.00;;;<p>cotton hand wash</p>;;;;;zerotype;;Summer;;No
4606665;ARYLGF001-White-4606665;Solid Full Length Legging;Draft;Leggings;Ayaany;Adults-Women;Women;White;;;Core;;2018;S,AYANLEGG00000069,M,AYANLEGG00000070,L,AYANLEGG00000071,XL,AYANLEGG00000072,XXL,AYANLEGG00000073;499.00;;;<p>cotton hand wash</p>;;;;;zerotype;;Summer;;No
4606664;ARY16777C-Blue-4606664;Printed Dhoti Pant;Draft;Dhotis;Ayaany;Adults-Women;Women;Blue;;;Fashion;;2018;S,AYANDHOT00000046,M,AYANDHOT00000047,L,AYANDHOT00000048,XL,AYANDHOT00000049,XXL,AYANDHOT00000050;1699.00;;;<p>Polyester hand wash</p>;;;;;zerotype;;Summer;;No
4606663;ARY16777B-Multi-4606663;Printed Dhoti Pant;Draft;Dhotis;Ayaany;Adults-Women;Women;Multi;;;Fashion;;2018;S,AYANDHOT00000041,M,AYANDHOT00000042,L,AYANDHOT00000043,XL,AYANDHOT00000044,XXL,AYANDHOT00000045;1699.00;;;<p>Polyester hand wash</p>;;;;;zerotype;;Summer;;No
4606662;ARY16777A-Multi-4606662;Printed Dhoti Pant;Draft;Dhotis;Ayaany;Adults-Women;Women;Multi;;;Fashion;;2018;S,AYANDHOT00000036,M,AYANDHOT00000037,L,AYANDHOT00000038,XL,AYANDHOT00000039,XXL,AYANDHOT00000040;1699.00;;;<p>Polyester hand wash</p>;;;;;zerotype;;Summer;;No
4606661;ARYIN003-White-4606661;Solid Camisoles;Draft;Camisoles;Ayaany;Adults-Women;Women;White;;;Core;;2018;S,AYANCMSL00000011,M,AYANCMSL00000012,L,AYANCMSL00000013,XL,AYANCMSL00000014,XXL,AYANCMSL00000015;499.00;;;<p>100% cotton hand wash</p>;;;;;zerotype;;Summer;;No
4606660;ARYIN002-Navy Blue-4606660;Solid Camisoles;Draft;Camisoles;Ayaany;Adults-Women;Women;Navy Blue;;;Core;;2018;S,AYANCMSL00000006,M,AYANCMSL00000007,L,AYANCMSL00000008,XL,AYANCMSL00000009,XXL,AYANCMSL00000010;499.00;;;<p>100% cotton hand wash</p>;;;;;zerotype;;Summer;;No
4606659;ARYIN001-Black-4606659;Solid Camisoles;Draft;Camisoles;Ayaany;Adults-Women;Women;Black;;;Core;;2018;S,AYANCMSL00000001,M,AYANCMSL00000002,L,AYANCMSL00000003,XL,AYANCMSL00000004,XXL,AYANCMSL00000005;499.00;;;<p>100% cotton hand wash</p>;;;;;zerotype;;Summer;;No
