Style ID;Vendor Article Number;Vendor Article Name;Active Status;Article type;Brand;Age Group;Gender;Base Colour;Colour1;Colour2;Fashion Type;Usage;Year;Size - SKU code pair;MRP;Style Description;Style Note;Materials and Care Description;Size and Fit Description;Size Chart Path;Product Display Name;Tags;Product Type;Classification Brand;Season;Comments;Upload Images
4287904;VSTF517S010524-Khaki-4287904;Trousers;Draft;Trousers;Van Heusen Sport;Adults-Men;Men;Khaki;;;Fashion;Casual;2017;40,VHSPTRSR00003968;2349.00;;;<p>97% Cotton and 3% Elastane</p>;;;Na;;zerotype;;Winter;;No
4287903;VSTF517S010522-Navy Blue-4287903;Trousers;Draft;Trousers;Van Heusen Sport;Adults-Men;Men;Navy Blue;;;Fashion;Casual;2017;40,VHSPTRSR00003967;2349.00;;;<p>97% Cotton and 3% Elastane</p>;;;NA;;zerotype;;Winter;;No
4287902;VSTF517S010520-Navy Blue-4287902;Trousers;Draft;Trousers;Van Heusen Sport;Adults-Men;Men;Navy Blue;;;Fashion;Casual;2017;32,VHSPTRSR00003961,34,VHSPTRSR00003962,36,VHSPTRSR00003963,38,VHSPTRSR00003964,28,VHSPTRSR00003965,30,VHSPTRSR00003966;2199.00;;;<p>97% Cotton and 3% Elastane</p>;;;Na;;zerotype;;Winter;;No
4287901;VSTF517S010522-Navy Blue-4287901;Trousers;Draft;Trousers;Van Heusen Sport;Adults-Men;Men;Navy Blue;;;Fashion;Casual;2017;32,VHSPTRSR00003955,34,VHSPTRSR00003956,36,VHSPTRSR00003957,38,VHSPTRSR00003958,28,VHSPTRSR00003959,30,VHSPTRSR00003960;2299.00;;;<p>97% Cotton and 3% Elastane</p>;;;NA;;zerotype;;Winter;;No
4287878;VSTF517S010524-Khaki-4287878;Trousers;Draft;Trousers;Van Heusen Sport;Adults-Men;Men;Khaki;;;Fashion;Casual;2017;32,VHSPTRSR00003949,34,VHSPTRSR00003950,36,VHSPTRSR00003951,38,VHSPTRSR00003952,28,VHSPTRSR00003953,30,VHSPTRSR00003954;2299.00;;;<p>97% Cotton and 3% Elastane</p>;;;NA;;zerotype;;Winter;;No
4287866;VSTF517S010520-Navy Blue-4287866;Trousers;Draft;Trousers;Van Heusen Sport;Adults-Men;Men;Navy Blue;;;Fashion;Casual;2017;40,VHSPTRSR00003948;2249.00;;;<p>97% Cotton and 3% Elastane</p>;;;NA;;zerotype;;Winter;;No
4287839;VSSF318S007961-Grey-4287839;Shirts;Draft;Shirts;Van Heusen Sport;Adults-Men;Men;Grey;;;Fashion;Casual;2018;38,VHSPSHRT00009088,40,VHSPSHRT00009089,42,VHSPSHRT00009090,39,VHSPSHRT00009091;1799.00;;;<p>100% Cotton</p>;;;NA;;zerotype;;Spring;;No
4287834;VSSF318S007985-Navy Blue-4287834;Shirts;Draft;Shirts;Van Heusen Sport;Adults-Men;Men;Navy Blue;;;Fashion;;2018;38,VHSPSHRT00009084,40,VHSPSHRT00009085,42,VHSPSHRT00009086,39,VHSPSHRT00009087;1899.00;;;<p>100% Cotton</p>;;;NA;;zerotype;;Spring;;No
4287830;VSSF517S04331-Blue-4287830;Shirts;Draft;Shirts;Van Heusen Sport;Adults-Men;Men;Blue;;;Fashion;Casual;2017;38,VHSPSHRT00009080,40,VHSPSHRT00009081,42,VHSPSHRT00009082,39,VHSPSHRT00009083;2199.00;;;<p>100% Cotton</p>;;;NA;;zerotype;;Winter;;No
4287826;VSSF517S007854-Brown-4287826;Shirts;Draft;Shirts;Van Heusen Sport;Adults-Men;Men;Brown;;;Fashion;;2017;38,VHSPSHRT00009076,40,VHSPSHRT00009077,42,VHSPSHRT00009078,39,VHSPSHRT00009079;2599.00;;;<p>100% Cotton</p>;;;NA;;zerotype;;Winter;;No
4287823;VSSF517S04331-Blue-4287823;Shirts;Draft;Shirts;Van Heusen Sport;Adults-Men;Men;Blue;;;Fashion;;2017;44,VHSPSHRT00009074,46,VHSPSHRT00009075;2299.00;;;<p>100% Cotton</p>;;;Na;;zerotype;;Winter;;No
4287821;VSSF517S007854-Brown-4287821;Shirts;Draft;Shirts;Van Heusen Sport;Adults-Men;Men;Brown;;;Fashion;Casual;2017;44,VHSPSHRT00009072,46,VHSPSHRT00009073;2699.00;;;<p>100% Cotton</p>;;;NA;;zerotype;;Winter;;No
4287820;VSSF318S007961-Grey-4287820;Shirts;Draft;Shirts;Van Heusen Sport;Adults-Men;Men;Grey;Maroon;;Fashion;Casual;2018;44,VHSPSHRT00009070,46,VHSPSHRT00009071;1899.00;;;<p>100% Cotton</p>;;;NA;;zerotype;;Spring;;No
4287816;VSSF318S007985-Navy Blue-4287816;Shirts;Draft;Shirts;Van Heusen Sport;Adults-Men;Men;Navy Blue;;;Fashion;Casual;2018;44,VHSPSHRT00009068,46,VHSPSHRT00009069;1999.00;;;<p>100% Cotton</p>;;;NA;;zerotype;;Spring;;No
3417909;VSTF517S008388-brown-3417909;VSTF517S008388;Draft;Trousers;Van Heusen Sport;Adults-Men;Men;Brown;;;Fashion;;2017;42,VHSPTRSR00003497,40,VHSPTRSR00003498;2249.00;;;<p>100%Cotton</p>;;;;;zerotype;;Summer;;No
3417885;VSTF517S008388-brown-3417885;VSTF517S008388;Draft;Trousers;Van Heusen Sport;Adults-Men;Men;Brown;;;Fashion;;2017;36,VHSPTRSR00003491,38,VHSPTRSR00003492,32,VHSPTRSR00003493,28,VHSPTRSR00003494,34,VHSPTRSR00003495,30,VHSPTRSR00003496;2199.00;;;<p>100%Cotton</p>;;;;;zerotype;;Summer;;No
3412479;VSSF517S06815-green-3412479;VSSF517S06815;Draft;Shirts;Van Heusen Sport;Adults-Men;Men;Green;;;Fashion;;2017;46,VHSPSHRT00006994,44,VHSPSHRT00006995;2099.00;;;<p>97%Cotton3%Spandex</p>;;;;;zerotype;;Summer;;No
3412471;VSSF517S06815-green-3412471;VSSF517S06815;Draft;Shirts;Van Heusen Sport;Adults-Men;Men;Green;;;Fashion;;2017;38,VHSPSHRT00006990,39,VHSPSHRT00006991,42,VHSPSHRT00006992,40,VHSPSHRT00006993;1999.00;;;<p>97%Cotton3%Spandex</p>;;;;;zerotype;;Summer;;No
3411012;VSSR318S009050-blue-3411012;VSSR318S009050;Draft;Shorts;Van Heusen Sport;Adults-Men;Men;Blue;;;Fashion;;2018;40,VHSPSHOR00000177;1749.00;;;<p>100%Cotton</p>;;;;;zerotype;;Spring;;No
3411004;VSSR318S009050-blue-3411004;VSSR318S009050;Draft;Shorts;Van Heusen Sport;Adults-Men;Men;Blue;;;Fashion;;2018;38,VHSPSHOR00000171,28,VHSPSHOR00000172,30,VHSPSHOR00000173,36,VHSPSHOR00000174,32,VHSPSHOR00000175,34,VHSPSHOR00000176;1699.00;;;<p>100%Cotton</p>;;;;;zerotype;;Spring;;No
