Style ID;Vendor Article Number;Vendor Article Name;Active Status;Article type;Brand;Age Group;Gender;Base Colour;Colour1;Colour2;Fashion Type;Usage;Year;Size - SKU code pair;MRP;Style Description;Style Note;Materials and Care Description;Size and Fit Description;Size Chart Path;Product Display Name;Tags;Product Type;Classification Brand;Season;Comments;Upload Images
2031641;YMHD244-BROWN-2031641;YMHD244;Draft;Sweatshirts;YWC;Adults-Men;Men;Brown;;;Fashion;;2017;S,YWCCSWSH00000247,M,YWCCSWSH00000248,L,YWCCSWSH00000249,XL,YWCCSWSH00000250;1599.00;;;<p>Mild machine wash</p>;;;;;zerotype;;Winter;;No
2031640;YMHD244-BLUE-2031640;YMHD244;Draft;Sweatshirts;YWC;Adults-Men;Men;Blue;;;Fashion;;2017;S,YWCCSWSH00000242,M,YWCCSWSH00000243,L,YWCCSWSH00000244,XL,YWCCSWSH00000245,XXL,YWCCSWSH00000246;1599.00;;;<p>Mild machine wash</p>;;;;;zerotype;;Winter;;No
2031639;YMHD244-BLACK-2031639;YMHD244;Draft;Sweatshirts;YWC;Adults-Men;Men;Black;;;Fashion;;2017;S,YWCCSWSH00000238,M,YWCCSWSH00000239,L,YWCCSWSH00000240,XL,YWCCSWSH00000241;1599.00;;;<p>Mild machine wash</p>;;;;;zerotype;;Winter;;No
2031636;YWC DNM 016-KHAKI-2031636;YWC DNM 016;Draft;Jeans;YWC;Adults-Men;Men;Khaki;;;Fashion;;2017;28,YWCCJENS00000073,30,YWCCJENS00000074,32,YWCCJENS00000075,34,YWCCJENS00000076,36,YWCCJENS00000077,38,YWCCJENS00000078;2699.00;;;<p>Mild machine wash</p>;;;;;zerotype;;Winter;;No
2031635;YWC DNM 015-WHITE-2031635;YWC DNM 015;Draft;Jeans;YWC;Adults-Men;Men;White;;;Fashion;;2017;28,YWCCJENS00000067,30,YWCCJENS00000068,32,YWCCJENS00000069,34,YWCCJENS00000070,36,YWCCJENS00000071,38,YWCCJENS00000072;2699.00;;;<p>Mild machine wash</p>;;;;;zerotype;;Winter;;No
2031634;YWC DNM 014-BLACK-2031634;YWC DNM 014;Draft;Jeans;YWC;Adults-Men;Men;Black;;;Fashion;;2017;28,YWCCJENS00000061,30,YWCCJENS00000062,32,YWCCJENS00000063,34,YWCCJENS00000064,36,YWCCJENS00000065,38,YWCCJENS00000066;2399.00;;;<p>Mild machine wash</p>;;;;;zerotype;;Winter;;No
2031633;YWC DNM 013-RAW-2031633;YWC DNM 013;Draft;Jeans;YWC;Adults-Men;Men;Black;;;Fashion;;2017;28,YWCCJENS00000055,30,YWCCJENS00000056,32,YWCCJENS00000057,34,YWCCJENS00000058,36,YWCCJENS00000059,38,YWCCJENS00000060;2399.00;;;<p>Mild machine wash</p>;;;;;zerotype;;Winter;;No
2031632;YWC DNM 011-DARK BLUE-2031632;YWC DNM 011;Draft;Jeans;YWC;Adults-Men;Men;Navy Blue;;;Fashion;;2017;28,YWCCJENS00000049,30,YWCCJENS00000050,32,YWCCJENS00000051,34,YWCCJENS00000052,36,YWCCJENS00000053,38,YWCCJENS00000054;3299.00;;;<p>Mild machine wash</p>;;;;;zerotype;;Winter;;No
2031555;SS17MR IIFA-018-MAROON-2031555;CREW NECK S SLV W CHST PRINT;Draft;Tshirts;Moda Rapido;Adults-Women;Women;;;;Fashion;;2017;S,MAROTSHT00005916,M,MAROTSHT00005917,L,MAROTSHT00005918,XL,MAROTSHT00005919;649.00;;;<p>100% COTTON MACHINE WASH WITH LIKE COLOURS DRY INSIDE OUT IN SHADE</p>;;;;;zerotype;;Fall;;No
2031554;SS17MR IIFA-017-BLACK-2031554;CREW NECK S SLV W CHST PRINT;Draft;Tshirts;Moda Rapido;Adults-Women;Women;;;;Fashion;;2017;S,MAROTSHT00005912,M,MAROTSHT00005913,L,MAROTSHT00005914,XL,MAROTSHT00005915;649.00;;;<p>100% COTTON MACHINE WASH WITH LIKE COLOURS DRY INSIDE OUT IN SHADE</p>;;;;;zerotype;;Fall;;No
2031553;SS17MR IIFA-016-NAVY-2031553;CREW NECK S SLV W CHST PRINT;Draft;Tshirts;Moda Rapido;Adults-Women;Women;;;;Fashion;;2017;S,MAROTSHT00005908,M,MAROTSHT00005909,L,MAROTSHT00005910,XL,MAROTSHT00005911;649.00;;;<p>100% COTTON MACHINE WASH WITH LIKE COLOURS DRY INSIDE OUT IN SHADE</p>;;;;;zerotype;;Fall;;No
2031552;SS17MR IIFA-015-GREY MEL-2031552;CREW NECK S SLV W CHST PRINT;Draft;Tshirts;Moda Rapido;Adults-Women;Women;;;;Fashion;;2017;S,MAROTSHT00005904,M,MAROTSHT00005905,L,MAROTSHT00005906,XL,MAROTSHT00005907;649.00;;;<p>100% COTTON MACHINE WASH WITH LIKE COLOURS DRY INSIDE OUT IN SHADE</p>;;;;;zerotype;;Fall;;No
2031551;SS17MR IIFA-014-MAROON-2031551;CREW NECK S SLV W CHST PRINT;Draft;Tshirts;Moda Rapido;Adults-Women;Women;;;;Fashion;;2017;S,MAROTSHT00005900,M,MAROTSHT00005901,L,MAROTSHT00005902,XL,MAROTSHT00005903;649.00;;;<p>100% COTTON MACHINE WASH WITH LIKE COLOURS DRY INSIDE OUT IN SHADE</p>;;;;;zerotype;;Fall;;No
2031549;SS17MR IIFA-05-GREY MEL-2031549;CREW NECK S SLV W CHST PRINT;Draft;Tshirts;Moda Rapido;Adults-Women;Women;;;;Fashion;;2017;S,MAROTSHT00005892,M,MAROTSHT00005893,L,MAROTSHT00005894,XL,MAROTSHT00005895;649.00;;;<p>100% COTTON MACHINE WASH WITH LIKE COLOURS DRY INSIDE OUT IN SHADE</p>;;;;;zerotype;;Fall;;No
2031547;SS17MR IIFA-03-MAROON-2031547;CREW NECK S SLV W CHST PRINT;Draft;Tshirts;Moda Rapido;Adults-Women;Women;;;;Fashion;;2017;S,MAROTSHT00005884,M,MAROTSHT00005885,L,MAROTSHT00005886,XL,MAROTSHT00005887;649.00;;;<p>100% COTTON MACHINE WASH WITH LIKE COLOURS DRY INSIDE OUT IN SHADE</p>;;;;;zerotype;;Fall;;No
2031546;SS17MR IIFA-02-GREY MEL-2031546;CREW NECK S SLV W CHST PRINT;Draft;Tshirts;Moda Rapido;Adults-Women;Women;;;;Fashion;;2017;S,MAROTSHT00005880,M,MAROTSHT00005881,L,MAROTSHT00005882,XL,MAROTSHT00005883;649.00;;;<p>100% COTTON MACHINE WASH WITH LIKE COLOURS DRY INSIDE OUT IN SHADE</p>;;;;;zerotype;;Fall;;No
2031529;YMV2208D-MAROON/BURG-2031529;YMV2208D;Draft;Tshirts;YWC;Adults-Men;Men;Maroon;;;Fashion;;2017;S,YWCCTSHT00002065,M,YWCCTSHT00002066,L,YWCCTSHT00002067,XL,YWCCTSHT00002068,XXL,YWCCTSHT00002069;999.00;;;<p>Mild machine wash</p>;;;;;zerotype;;Winter;;No
2031528;YMV2208C-CAMEL-2031528;YMV2208C;Draft;Tshirts;YWC;Adults-Men;Men;Yellow;;;Fashion;;2017;S,YWCCTSHT00002060,M,YWCCTSHT00002061,L,YWCCTSHT00002062,XL,YWCCTSHT00002063,XXL,YWCCTSHT00002064;999.00;;;<p>Mild machine wash</p>;;;;;zerotype;;Winter;;No
2031525;YMV2196B-MAROON/BURG-2031525;YMV2196B;Draft;Tshirts;YWC;Adults-Men;Men;Maroon;;;Fashion;;2017;S,YWCCTSHT00002045,M,YWCCTSHT00002046,L,YWCCTSHT00002047,XL,YWCCTSHT00002048,XXL,YWCCTSHT00002049;1299.00;;;<p>Mild machine wash</p>;;;;;zerotype;;Winter;;No
2031524;YMV2196A-M .BLUE-2031524;YMV2196A;Draft;Tshirts;YWC;Adults-Men;Men;Blue;;;Fashion;;2017;S,YWCCTSHT00002040,M,YWCCTSHT00002041,L,YWCCTSHT00002042,XL,YWCCTSHT00002043,XXL,YWCCTSHT00002044;1299.00;;;<p>Mild machine wash</p>;;;;;zerotype;;Winter;;No
2031523;YMV2116B-MAROON/BURG-2031523;YMV2116B;Draft;Tshirts;YWC;Adults-Men;Men;Maroon;;;Fashion;;2017;S,YWCCTSHT00002035,M,YWCCTSHT00002036,L,YWCCTSHT00002037,XL,YWCCTSHT00002038,XXL,YWCCTSHT00002039;999.00;;;<p>Mild machine wash</p>;;;;;zerotype;;Winter;;No
2031522;YMV2116A-M .BLUE-2031522;YMV2116A;Draft;Tshirts;YWC;Adults-Men;Men;Blue;;;Fashion;;2017;S,YWCCTSHT00002030,M,YWCCTSHT00002031,L,YWCCTSHT00002032,XL,YWCCTSHT00002033,XXL,YWCCTSHT00002034;999.00;;;<p>Mild machine wash</p>;;;;;zerotype;;Winter;;No
2031520;YMV2060D-MAROON/BURG-2031520;YMV2060D;Draft;Tshirts;YWC;Adults-Men;Men;Maroon;;;Fashion;;2017;S,YWCCTSHT00002020,M,YWCCTSHT00002021,L,YWCCTSHT00002022,XL,YWCCTSHT00002023,XXL,YWCCTSHT00002024;799.00;;;<p>Mild machine wash</p>;;;;;zerotype;;Winter;;No
2031519;YMV2060C-CAMEL-2031519;YMV2060C;Draft;Tshirts;YWC;Adults-Men;Men;Yellow;;;Fashion;;2017;S,YWCCTSHT00002015,M,YWCCTSHT00002016,L,YWCCTSHT00002017,XL,YWCCTSHT00002018,XXL,YWCCTSHT00002019;799.00;;;<p>Mild machine wash</p>;;;;;zerotype;;Winter;;No
2031515;YMTFS2114A-WHITE-2031515;YMTFS2114A;Draft;Tshirts;YWC;Adults-Men;Men;White;;;Fashion;;2017;S,YWCCTSHT00001995,M,YWCCTSHT00001996,L,YWCCTSHT00001997,XL,YWCCTSHT00001998,XXL,YWCCTSHT00001999;999.00;;;<p>Mild machine wash</p>;;;;;zerotype;;Winter;;No
2031493;YMT2157C-BLUE-2031493;YMT2157C;Draft;Tshirts;YWC;Adults-Men;Men;Blue;;;Fashion;;2017;S,YWCCTSHT00001895,M,YWCCTSHT00001896,L,YWCCTSHT00001897,XL,YWCCTSHT00001898,XXL,YWCCTSHT00001899;699.00;;;<p>Mild machine wash</p>;;;;;zerotype;;Winter;;No
2031491;YMT2157A-NAVY-2031491;YMT2157A;Draft;Tshirts;YWC;Adults-Men;Men;Navy Blue;;;Fashion;;2017;S,YWCCTSHT00001885,M,YWCCTSHT00001886,L,YWCCTSHT00001887,XL,YWCCTSHT00001888,XXL,YWCCTSHT00001889;699.00;;;<p>Mild machine wash</p>;;;;;zerotype;;Winter;;No
2031490;YMT2131B-BURNT ORANGE-2031490;YMT2131B;Draft;Tshirts;YWC;Adults-Men;Men;Orange;;;Fashion;;2017;S,YWCCTSHT00001880,M,YWCCTSHT00001881,L,YWCCTSHT00001882,XL,YWCCTSHT00001883,XXL,YWCCTSHT00001884;999.00;;;<p>Mild machine wash</p>;;;;;zerotype;;Winter;;No
2031489;YMT2131A-CHARCOAL R-97-2031489;YMT2131A;Draft;Tshirts;YWC;Adults-Men;Men;Charcoal;;;Fashion;;2017;S,YWCCTSHT00001875,M,YWCCTSHT00001876,L,YWCCTSHT00001877,XL,YWCCTSHT00001878,XXL,YWCCTSHT00001879;999.00;;;<p>Mild machine wash</p>;;;;;zerotype;;Winter;;No
2031488;YMT2114B-BLACK-2031488;YMT2114B;Draft;Tshirts;YWC;Adults-Men;Men;Black;;;Fashion;;2017;S,YWCCTSHT00001870,M,YWCCTSHT00001871,L,YWCCTSHT00001872,XL,YWCCTSHT00001873,XXL,YWCCTSHT00001874;899.00;;;<p>Mild machine wash</p>;;;;;zerotype;;Winter;;No
2031487;YMT2114A-WHITE-2031487;YMT2114A;Draft;Tshirts;YWC;Adults-Men;Men;White;;;Fashion;;2017;S,YWCCTSHT00001865,M,YWCCTSHT00001866,L,YWCCTSHT00001867,XL,YWCCTSHT00001868,XXL,YWCCTSHT00001869;899.00;;;<p>Mild machine wash</p>;;;;;zerotype;;Winter;;No
2031485;YMT2110C-RED-2031485;YMT2110C;Draft;Tshirts;YWC;Adults-Men;Men;Red;;;Fashion;;2017;S,YWCCTSHT00001860,M,YWCCTSHT00001861,L,YWCCTSHT00001862,XL,YWCCTSHT00001863,XXL,YWCCTSHT00001864;999.00;;;<p>Mild machine wash</p>;;;;;zerotype;;Winter;;No
2031484;YMT2110B-OLIVE-2031484;YMT2110B;Draft;Tshirts;YWC;Adults-Men;Men;Olive;;;Fashion;;2017;S,YWCCTSHT00001855,M,YWCCTSHT00001856,L,YWCCTSHT00001857,XL,YWCCTSHT00001858,XXL,YWCCTSHT00001859;999.00;;;<p>Mild machine wash</p>;;;;;zerotype;;Winter;;No
2031483;YMT2110A-BLUE-2031483;YMT2110A;Draft;Tshirts;YWC;Adults-Men;Men;Blue;;;Fashion;;2017;S,YWCCTSHT00001850,M,YWCCTSHT00001851,L,YWCCTSHT00001852,XL,YWCCTSHT00001853,XXL,YWCCTSHT00001854;999.00;;;<p>Mild machine wash</p>;;;;;zerotype;;Winter;;No
2031482;YMT2107B-INDIGO 960-2031482;YMT2107B;Draft;Tshirts;YWC;Adults-Men;Men;Navy Blue;;;Fashion;;2017;S,YWCCTSHT00001845,M,YWCCTSHT00001846,L,YWCCTSHT00001847,XL,YWCCTSHT00001848,XXL,YWCCTSHT00001849;999.00;;;<p>Mild machine wash</p>;;;;;zerotype;;Winter;;No
2031481;YMT2107A-BLACK-2031481;YMT2107A;Draft;Tshirts;YWC;Adults-Men;Men;Black;;;Fashion;;2017;S,YWCCTSHT00001840,M,YWCCTSHT00001841,L,YWCCTSHT00001842,XL,YWCCTSHT00001843,XXL,YWCCTSHT00001844;999.00;;;<p>Mild machine wash</p>;;;;;zerotype;;Winter;;No
2031478;YMT2099B-NAVY-2031478;YMT2099B;Draft;Tshirts;YWC;Adults-Men;Men;Navy Blue;;;Fashion;;2017;S,YWCCTSHT00001825,M,YWCCTSHT00001826,L,YWCCTSHT00001827,XL,YWCCTSHT00001828,XXL,YWCCTSHT00001829;999.00;;;<p>Mild machine wash</p>;;;;;zerotype;;Winter;;No
2031477;YMT2099A-WHITE-2031477;YMT2099A;Draft;Tshirts;YWC;Adults-Men;Men;White;;;Fashion;;2017;S,YWCCTSHT00001820,M,YWCCTSHT00001821,L,YWCCTSHT00001822,XL,YWCCTSHT00001823,XXL,YWCCTSHT00001824;999.00;;;<p>Mild machine wash</p>;;;;;zerotype;;Winter;;No
2031476;YMT2098B-WHITE-2031476;YMT2098B;Draft;Tshirts;YWC;Adults-Men;Men;White;;;Fashion;;2017;S,YWCCTSHT00001815,M,YWCCTSHT00001816,L,YWCCTSHT00001817,XL,YWCCTSHT00001818,XXL,YWCCTSHT00001819;1299.00;;;<p>Mild machine wash</p>;;;;;zerotype;;Winter;;No
2031475;YMT2098A-SKY BLUE-2031475;YMT2098A;Draft;Tshirts;YWC;Adults-Men;Men;Blue;;;Fashion;;2017;S,YWCCTSHT00001810,M,YWCCTSHT00001811,L,YWCCTSHT00001812,XL,YWCCTSHT00001813,XXL,YWCCTSHT00001814;1299.00;;;<p>Mild machine wash</p>;;;;;zerotype;;Winter;;No
2031474;YMT2091B-CHARCOAL R-97-2031474;YMT2091B;Draft;Tshirts;YWC;Adults-Men;Men;Charcoal;;;Fashion;;2017;S,YWCCTSHT00001805,M,YWCCTSHT00001806,L,YWCCTSHT00001807,XL,YWCCTSHT00001808,XXL,YWCCTSHT00001809;1399.00;;;<p>Mild machine wash</p>;;;;;zerotype;;Winter;;No
2031473;YMT2091A-NAVY-2031473;YMT2091A;Draft;Tshirts;YWC;Adults-Men;Men;Navy Blue;;;Fashion;;2017;S,YWCCTSHT00001800,M,YWCCTSHT00001801,L,YWCCTSHT00001802,XL,YWCCTSHT00001803,XXL,YWCCTSHT00001804;1399.00;;;<p>Mild machine wash</p>;;;;;zerotype;;Winter;;No
2031471;YMT2089B-ORANGE-2031471;YMT2089B;Draft;Tshirts;YWC;Adults-Men;Men;Orange;;;Fashion;;2017;S,YWCCTSHT00001795,M,YWCCTSHT00001796,L,YWCCTSHT00001797,XL,YWCCTSHT00001798,XXL,YWCCTSHT00001799;999.00;;;<p>Mild machine wash</p>;;;;;zerotype;;Winter;;No
2031470;YMT2089A-ROYAL BLUE-2031470;YMT2089A;Draft;Tshirts;YWC;Adults-Men;Men;Blue;;;Fashion;;2017;S,YWCCTSHT00001790,M,YWCCTSHT00001791,L,YWCCTSHT00001792,XL,YWCCTSHT00001793,XXL,YWCCTSHT00001794;999.00;;;<p>Mild machine wash</p>;;;;;zerotype;;Winter;;No
2031468;YMT2065B-WHITE-2031468;YMT2065B;Draft;Tshirts;YWC;Adults-Men;Men;White;;;Fashion;;2017;S,YWCCTSHT00001780,M,YWCCTSHT00001781,L,YWCCTSHT00001782,XL,YWCCTSHT00001783,XXL,YWCCTSHT00001784;999.00;;;<p>Mild machine wash</p>;;;;;zerotype;;Winter;;No
2031466;YMT2059E-OFF WHITE-2031466;YMT2059E;Draft;Tshirts;YWC;Adults-Men;Men;Off White;;;Fashion;;2017;S,YWCCTSHT00001770,M,YWCCTSHT00001771,L,YWCCTSHT00001772,XL,YWCCTSHT00001773,XXL,YWCCTSHT00001774;799.00;;;<p>Mild machine wash</p>;;;;;zerotype;;Winter;;No
2031465;YMT2059D-BLACK-2031465;YMT2059D;Draft;Tshirts;YWC;Adults-Men;Men;Black;;;Fashion;;2017;S,YWCCTSHT00001765,M,YWCCTSHT00001766,L,YWCCTSHT00001767,XL,YWCCTSHT00001768,XXL,YWCCTSHT00001769;799.00;;;<p>Mild machine wash</p>;;;;;zerotype;;Winter;;No
2031464;YMT2059C-RED-2031464;YMT2059C;Draft;Tshirts;YWC;Adults-Men;Men;Red;;;Fashion;;2017;S,YWCCTSHT00001760,M,YWCCTSHT00001761,L,YWCCTSHT00001762,XL,YWCCTSHT00001763,XXL,YWCCTSHT00001764;799.00;;;<p>Mild machine wash</p>;;;;;zerotype;;Winter;;No
2031463;YMT2059B-ROYAL BLUE-2031463;YMT2059B;Draft;Tshirts;YWC;Adults-Men;Men;Blue;;;Fashion;;2017;S,YWCCTSHT00001755,M,YWCCTSHT00001756,L,YWCCTSHT00001757,XL,YWCCTSHT00001758,XXL,YWCCTSHT00001759;799.00;;;<p>Mild machine wash</p>;;;;;zerotype;;Winter;;No
2031459;YMT2046C-CHARCOAL R-97-2031459;YMT2046C;Draft;Tshirts;YWC;Adults-Men;Men;Charcoal;;;Fashion;;2017;S,YWCCTSHT00001740,M,YWCCTSHT00001741,L,YWCCTSHT00001742,XL,YWCCTSHT00001743,XXL,YWCCTSHT00001744;899.00;;;<p>Mild machine wash</p>;;;;;zerotype;;Winter;;No
2031458;YMT2046B-OFF WHITE-2031458;YMT2046B;Draft;Tshirts;YWC;Adults-Men;Men;Off White;;;Fashion;;2017;S,YWCCTSHT00001735,M,YWCCTSHT00001736,L,YWCCTSHT00001737,XL,YWCCTSHT00001738,XXL,YWCCTSHT00001739;899.00;;;<p>Mild machine wash</p>;;;;;zerotype;;Winter;;No
2031457;YMT2046A-YELLOW-2031457;YMT2046A;Draft;Tshirts;YWC;Adults-Men;Men;Yellow;;;Fashion;;2017;S,YWCCTSHT00001730,M,YWCCTSHT00001731,L,YWCCTSHT00001732,XL,YWCCTSHT00001733,XXL,YWCCTSHT00001734;899.00;;;<p>Mild machine wash</p>;;;;;zerotype;;Winter;;No
2031452;YMT2027B-SKY BLUE-2031452;YMT2027B;Draft;Tshirts;YWC;Adults-Men;Men;Blue;;;Fashion;;2017;S,YWCCTSHT00001705,M,YWCCTSHT00001706,L,YWCCTSHT00001707,XL,YWCCTSHT00001708,XXL,YWCCTSHT00001709;999.00;;;<p>Mild machine wash</p>;;;;;zerotype;;Winter;;No
2031451;YMT2027A-WHITE-2031451;YMT2027A;Draft;Tshirts;YWC;Adults-Men;Men;White;;;Fashion;;2017;S,YWCCTSHT00001700,M,YWCCTSHT00001701,L,YWCCTSHT00001702,XL,YWCCTSHT00001703,XXL,YWCCTSHT00001704;999.00;;;<p>Mild machine wash</p>;;;;;zerotype;;Winter;;No
2031448;YMT2018A-GREY-2031448;YMT2018A;Draft;Tshirts;YWC;Adults-Men;Men;Grey;;;Fashion;;2017;S,YWCCTSHT00001690,M,YWCCTSHT00001691,L,YWCCTSHT00001692,XL,YWCCTSHT00001693,XXL,YWCCTSHT00001694;999.00;;;<p>Mild machine wash</p>;;;;;zerotype;;Winter;;No
2031447;YMT2007B-CHARCOAL R-97-2031447;YMT2007B;Draft;Tshirts;YWC;Adults-Men;Men;Charcoal;;;Fashion;;2017;S,YWCCTSHT00001685,M,YWCCTSHT00001686,L,YWCCTSHT00001687,XL,YWCCTSHT00001688,XXL,YWCCTSHT00001689;999.00;;;<p>Mild machine wash</p>;;;;;zerotype;;Winter;;No
2031446;YMT2007A-NAVY-2031446;YMT2007A;Draft;Tshirts;YWC;Adults-Men;Men;Navy Blue;;;Fashion;;2017;S,YWCCTSHT00001680,M,YWCCTSHT00001681,L,YWCCTSHT00001682,XL,YWCCTSHT00001683,XXL,YWCCTSHT00001684;999.00;;;<p>Mild machine wash</p>;;;;;zerotype;;Winter;;No
2031443;YMT2004B-OLIVE-2031443;YMT2004B;Draft;Tshirts;YWC;Adults-Men;Men;Olive;;;Fashion;;2017;S,YWCCTSHT00001665,M,YWCCTSHT00001666,L,YWCCTSHT00001667,XL,YWCCTSHT00001668,XXL,YWCCTSHT00001669;999.00;;;<p>Mild machine wash</p>;;;;;zerotype;;Winter;;No
2031437;YMP2052A-BLUE-2031437;YMP2052A;Draft;Tshirts;YWC;Adults-Men;Men;Blue;;;Fashion;;2017;S,YWCCTSHT00001635,M,YWCCTSHT00001636,L,YWCCTSHT00001637,XL,YWCCTSHT00001638,XXL,YWCCTSHT00001639;1599.00;;;<p>Mild machine wash</p>;;;;;zerotype;;Winter;;No
2031436;YMH2171D-OLIVE OLIVE-2031436;YMH2171D;Draft;Tshirts;YWC;Adults-Men;Men;Olive;;;Fashion;;2017;S,YWCCTSHT00001630,M,YWCCTSHT00001631,L,YWCCTSHT00001632,XL,YWCCTSHT00001633,XXL,YWCCTSHT00001634;1299.00;;;<p>Mild machine wash</p>;;;;;zerotype;;Winter;;No
2031435;YMH2171C-B ORANGE-2031435;YMH2171C;Draft;Tshirts;YWC;Adults-Men;Men;Orange;;;Fashion;;2017;S,YWCCTSHT00001625,M,YWCCTSHT00001626,L,YWCCTSHT00001627,XL,YWCCTSHT00001628,XXL,YWCCTSHT00001629;1299.00;;;<p>Mild machine wash</p>;;;;;zerotype;;Winter;;No
2031434;YMH2171B-BLACK-2031434;YMH2171B;Draft;Tshirts;YWC;Adults-Men;Men;Black;;;Fashion;;2017;S,YWCCTSHT00001620,M,YWCCTSHT00001621,L,YWCCTSHT00001622,XL,YWCCTSHT00001623,XXL,YWCCTSHT00001624;1299.00;;;<p>Mild machine wash</p>;;;;;zerotype;;Winter;;No
2021287;ANCHOR-LITA B-WHITE-2021287;WOMEN'S TOPS;Draft;Tops;Mast & Harbour;Adults-Women;Women;;;;Fashion;;2017;XS,MTHBTOPS00004330,S,MTHBTOPS00004331,M,MTHBTOPS00004332,L,MTHBTOPS00004333,XL,MTHBTOPS00004334;1299.00;;;;;;;;zerotype;;Fall;;No
2021286;ANCHOR-LITA A-NAVY-2021286;WOMEN'S TOPS;Draft;Tops;Mast & Harbour;Adults-Women;Women;;;;Fashion;;2017;XS,MTHBTOPS00004325,S,MTHBTOPS00004326,M,MTHBTOPS00004327,L,MTHBTOPS00004328,XL,MTHBTOPS00004329;1299.00;;;;;;;;zerotype;;Fall;;No
2021285;LT-RICARDO C-BLACK-2021285;WOMEN'S TOPS;Draft;Tops;Mast & Harbour;Adults-Women;Women;;;;Fashion;;2017;XS,MTHBTOPS00004320,S,MTHBTOPS00004321,M,MTHBTOPS00004322,L,MTHBTOPS00004323,XL,MTHBTOPS00004324;1499.00;;;;;;;;zerotype;;Fall;;No
2021284;LT-RICARDO B-ORANGE-2021284;WOMEN'S TOPS;Draft;Tops;Mast & Harbour;Adults-Women;Women;;;;Fashion;;2017;XS,MTHBTOPS00004315,S,MTHBTOPS00004316,M,MTHBTOPS00004317,L,MTHBTOPS00004318,XL,MTHBTOPS00004319;1499.00;;;;;;;;zerotype;;Fall;;No
2021283;LT-RICARDO A-OFF WHITE-2021283;WOMEN'S TOPS;Draft;Tops;Mast & Harbour;Adults-Women;Women;;;;Fashion;;2017;XS,MTHBTOPS00004310,S,MTHBTOPS00004311,M,MTHBTOPS00004312,L,MTHBTOPS00004313,XL,MTHBTOPS00004314;1499.00;;;;;;;;zerotype;;Fall;;No
2021281;LT-ROMANO B-MARRON-2021281;WOMEN'S TOPS;Draft;Tops;Mast & Harbour;Adults-Women;Women;;;;Fashion;;2017;XS,MTHBTOPS00004300,S,MTHBTOPS00004301,M,MTHBTOPS00004302,L,MTHBTOPS00004303,XL,MTHBTOPS00004304;1199.00;;;;;;;;zerotype;;Fall;;No
2021280;LT-ROMANO A-LIVING CORAL-2021280;WOMEN'S TOPS;Draft;Tops;Mast & Harbour;Adults-Women;Women;;;;Fashion;;2017;XS,MTHBTOPS00004295,S,MTHBTOPS00004296,M,MTHBTOPS00004297,L,MTHBTOPS00004298,XL,MTHBTOPS00004299;1199.00;;;;;;;;zerotype;;Fall;;No
2021278;LT-ROKA A-NAVY-2021278;WOMEN'S TOPS;Draft;Tops;Mast & Harbour;Adults-Women;Women;;;;Fashion;;2017;XS,MTHBTOPS00004285,S,MTHBTOPS00004286,M,MTHBTOPS00004287,L,MTHBTOPS00004288,XL,MTHBTOPS00004289;1499.00;;;;;;;;zerotype;;Fall;;No
1993438;217DBKSLD028102-B-Zinfandel-1993438;Tshirts;Draft;Tshirts;DressBerry;Adults-Women;Women;;;;Fashion;;2017;S,DSBYTSHT00000990,M,DSBYTSHT00000991,L,DSBYTSHT00000992,XL,DSBYTSHT00000993;899.00;;;;;;;;zerotype;;Fall;;No
1993432;217DBKSLD025197-B-Snow White-1993432;Tshirts;Draft;Tshirts;DressBerry;Adults-Women;Women;;;;Fashion;;2017;S,DSBYTSHT00000974,M,DSBYTSHT00000975,L,DSBYTSHT00000976,XL,DSBYTSHT00000977;699.00;;;;;;;;zerotype;;Fall;;No
1993430;217DBKSLD025197-A-Maritime Blue-1993430;Tshirts;Draft;Tshirts;DressBerry;Adults-Women;Women;;;;Fashion;;2017;S,DSBYTSHT00000970,M,DSBYTSHT00000971,L,DSBYTSHT00000972,XL,DSBYTSHT00000973;699.00;;;;;;;;zerotype;;Fall;;No
1993046;217DBKSLD025317-B-white & navy musical stripes-1993046;Tops;Draft;Tops;DressBerry;Adults-Women;Women;;;;Fashion;;2017;XS,DSBYTOPS00014317,S,DSBYTOPS00014318,M,DSBYTOPS00014319,L,DSBYTOPS00014320,XL,DSBYTOPS00014321;799.00;;;;;;;;zerotype;;Fall;;No
1993045;217DBKSLD025317-A-Snow White-1993045;Tops;Draft;Tops;DressBerry;Adults-Women;Women;;;;Fashion;;2017;XS,DSBYTOPS00014312,S,DSBYTOPS00014313,M,DSBYTOPS00014314,L,DSBYTOPS00014315,XL,DSBYTOPS00014316;799.00;;;;;;;;zerotype;;Fall;;No
1993022;217DBKSLD028115-B-Pompeian Red-1993022;Dresses;Draft;Dresses;DressBerry;Adults-Women;Women;;;;Fashion;;2017;XS,DSBYDRSS00007675,S,DSBYDRSS00007676,M,DSBYDRSS00007677,L,DSBYDRSS00007678,XL,DSBYDRSS00007679;1399.00;;;;;;;;zerotype;;Fall;;No
1993021;217DBKSLD028115-A-white & navy musical stripes-1993021;Dresses;Draft;Dresses;DressBerry;Adults-Women;Women;;;;Fashion;;2017;XS,DSBYDRSS00007670,S,DSBYDRSS00007671,M,DSBYDRSS00007672,L,DSBYDRSS00007673,XL,DSBYDRSS00007674;1399.00;;;;;;;;zerotype;;Fall;;No
1993016;217DBKSLD027207-B-Pompeian Red-1993016;Dresses;Draft;Dresses;DressBerry;Adults-Women;Women;;;;Fashion;;2017;XS,DSBYDRSS00007645,S,DSBYDRSS00007646,M,DSBYDRSS00007647,L,DSBYDRSS00007648,XL,DSBYDRSS00007649;1399.00;;;;;;;;zerotype;;Fall;Planner request;No
1993015;217DBKSLD027207-A-Maritime Blue-1993015;Dresses;Draft;Dresses;DressBerry;Adults-Women;Women;;;;Fashion;;2017;XS,DSBYDRSS00007640,S,DSBYDRSS00007641,M,DSBYDRSS00007642,L,DSBYDRSS00007643,XL,DSBYDRSS00007644;1399.00;;;;;;;;zerotype;;Fall;;No
1975066;CH AW 30B-BEIGE+ MAROOM-1975066;Shrug;Draft;Shrug;Anouk;Adults-Women;Women;;;;Fashion;;2017;S,ANUKSHRG00000218,M,ANUKSHRG00000219,L,ANUKSHRG00000220,XL,ANUKSHRG00000221;1699.00;;;;;;;;zerotype;;Fall;;No
1975065;CH AW 30A-NAVY + WHITE-1975065;Shrug;Draft;Shrug;Anouk;Adults-Women;Women;;;;Fashion;;2017;S,ANUKSHRG00000214,M,ANUKSHRG00000215,L,ANUKSHRG00000216,XL,ANUKSHRG00000217;1699.00;;;;;;;;zerotype;;Fall;;No
1934452;117DBWSLD025142 B-MARITAN BLUE-1934452;Skirts;Draft;Skirts;DressBerry;Adults-Women;Women;;;;Fashion;;2017;26,DSBYSKRT00000853,28,DSBYSKRT00000854,30,DSBYSKRT00000855,32,DSBYSKRT00000856,34,DSBYSKRT00000857;1299.00;;;;;;;DB-Augnewarrival;zerotype;;Summer;new;No
1934451;117DBWSLD025142 A-AVOCADO-1934451;Skirts;Draft;Skirts;DressBerry;Adults-Women;Women;;;;Fashion;;2017;26,DSBYSKRT00000848,28,DSBYSKRT00000849,30,DSBYSKRT00000850,32,DSBYSKRT00000851,34,DSBYSKRT00000852;1299.00;;;;;;;DB-Augnewarrival;zerotype;;Summer;new;No
1875881;HRXSS-QTMJ-316-Indigo-1875881;Indigo Dyed jeans;Draft;Jeans;HRX by Hrithik Roshan;Adults-Men;Men;;;;Fashion;;2017;28,HBHRJENS00002076,30,HBHRJENS00002077,32,HBHRJENS00002078,34,HBHRJENS00002079,36,HBHRJENS00002080;2499.00;;;;;;;;zerotype;;Spring;remove tags;No
1875878;HRXSS-QTMJ-317-Indigo-1875878;Indigo Dyed jeans;Draft;Jeans;HRX by Hrithik Roshan;Adults-Men;Men;;;;Fashion;;2017;28,HBHRJENS00002061,30,HBHRJENS00002062,32,HBHRJENS00002063,34,HBHRJENS00002064,36,HBHRJENS00002065;2499.00;;;;;;;;zerotype;;Spring;remove tags;No
1872845;MOTOGP-MJ-076-Indigo-1872845;Indigo Dyed jeans;Draft;Jeans;Roadster;Adults-Men;Men;;;;Fashion;;2017;28,RDSTJENS00014764,30,RDSTJENS00014765,32,RDSTJENS00014766,34,RDSTJENS00014767,36,RDSTJENS00014768;3299.00;;;;;;;rd-men-naug;zerotype;;Spring;rd-men-naug;No
1872844;MOTOGP-MJ-075-Indigo-1872844;Indigo Dyed jeans;Draft;Jeans;Roadster;Adults-Men;Men;;;;Fashion;;2017;28,RDSTJENS00014759,30,RDSTJENS00014760,32,RDSTJENS00014761,34,RDSTJENS00014762,36,RDSTJENS00014763;3299.00;;;;;;;rd-men-naug;zerotype;;Spring;rd-men-naug;No
1872843;MOTOGP-MJ-074-Indigo-1872843;Indigo Dyed jeans;Draft;Jeans;Roadster;Adults-Men;Men;;;;Fashion;;2017;28,RDSTJENS00014754,30,RDSTJENS00014755,32,RDSTJENS00014756,34,RDSTJENS00014757,36,RDSTJENS00014758;3299.00;;;;;;;rd-men-naug;zerotype;;Spring;rd-men-naug;No
1872842;MOTOGP-MJ-073-Indigo-1872842;Indigo Dyed jeans;Draft;Jeans;Roadster;Adults-Men;Men;;;;Fashion;;2017;28,RDSTJENS00014749,30,RDSTJENS00014750,32,RDSTJENS00014751,34,RDSTJENS00014752,36,RDSTJENS00014753;3299.00;;;;;;;rd-men-naug;zerotype;;Spring;rd-men-naug;No
1872841;MOTOGP-MJ-072-Indigo-1872841;Indigo Dyed jeans;Draft;Jeans;Roadster;Adults-Men;Men;;;;Fashion;;2017;28,RDSTJENS00014744,30,RDSTJENS00014745,32,RDSTJENS00014746,34,RDSTJENS00014747,36,RDSTJENS00014748;3299.00;;;;;;;rd-men-naug;zerotype;;Spring;rd-men-naug;No
1872840;MOTOGP-MJ-071-Black-1872840;Black Denim;Draft;Jeans;Roadster;Adults-Men;Men;;;;Fashion;;2017;28,RDSTJENS00014739,30,RDSTJENS00014740,32,RDSTJENS00014741,34,RDSTJENS00014742,36,RDSTJENS00014743;3499.00;;;;;;;rd-men-naug;zerotype;;Spring;rd-men-naug;No
1872839;MOTOGP-MJ-070-Indigo-1872839;Indigo Dyed jeans;Draft;Jeans;Roadster;Adults-Men;Men;;;;Fashion;;2017;28,RDSTJENS00014734,30,RDSTJENS00014735,32,RDSTJENS00014736,34,RDSTJENS00014737,36,RDSTJENS00014738;3499.00;;;;;;;rd-men-naug;zerotype;;Spring;rd-men-naug;No
1872838;MOTOGP-MJ-069-Black-1872838;Black Denim;Draft;Jeans;Roadster;Adults-Men;Men;;;;Fashion;;2017;28,RDSTJENS00014729,30,RDSTJENS00014730,32,RDSTJENS00014731,34,RDSTJENS00014732,36,RDSTJENS00014733;3499.00;;;;;;;rd-men-naug;zerotype;;Spring;rd-men-naug;No
1872837;MOTOGP-MJ-068-Indigo-1872837;Indigo Dyed jeans;Draft;Jeans;Roadster;Adults-Men;Men;;;;Fashion;;2017;28,RDSTJENS00014724,30,RDSTJENS00014725,32,RDSTJENS00014726,34,RDSTJENS00014727,36,RDSTJENS00014728;3299.00;;;;;;;rd-men-naug;zerotype;;Spring;rd-men-naug;No
1872836;MOTOGP-MJ-067-Black-1872836;Black Denim;Draft;Jeans;Roadster;Adults-Men;Men;;;;Fashion;;2017;28,RDSTJENS00014719,30,RDSTJENS00014720,32,RDSTJENS00014721,34,RDSTJENS00014722,36,RDSTJENS00014723;2999.00;;;;;;;rd-men-naug;zerotype;;Spring;rd-men-naug;No
1872834;MOTOGP-MJ-065-Indigo-1872834;Indigo Dyed jeans;Draft;Jeans;Roadster;Adults-Men;Men;;;;Fashion;;2017;28,RDSTJENS00014709,30,RDSTJENS00014710,32,RDSTJENS00014711,34,RDSTJENS00014712,36,RDSTJENS00014713;3499.00;;;;;;;rd-men-naug;zerotype;;Spring;rd-men-naug;No
1872833;MOTOGP-MJ-064-Indigo-1872833;Indigo Dyed jeans;Draft;Jeans;Roadster;Adults-Men;Men;;;;Fashion;;2017;28,RDSTJENS00014704,30,RDSTJENS00014705,32,RDSTJENS00014706,34,RDSTJENS00014707,36,RDSTJENS00014708;3499.00;;;;;;;rd-men-naug;zerotype;;Spring;rd-men-naug;No
1872832;MOTOGP-MJ-063-Black-1872832;Black Denim;Draft;Jeans;Roadster;Adults-Men;Men;;;;Fashion;;2017;28,RDSTJENS00014699,30,RDSTJENS00014700,32,RDSTJENS00014701,34,RDSTJENS00014702,36,RDSTJENS00014703;3299.00;;;;;;;rd-men-naug;zerotype;;Spring;rd-men-naug;No
1872831;MOTOGP-MJ-062-Indigo-1872831;Indigo Dyed jeans;Draft;Jeans;Roadster;Adults-Men;Men;;;;Fashion;;2017;28,RDSTJENS00014694,30,RDSTJENS00014695,32,RDSTJENS00014696,34,RDSTJENS00014697,36,RDSTJENS00014698;3299.00;;;;;;;rd-men-naug;zerotype;;Spring;rd-men-naug;No
1872830;MOTOGP-MJ-061-Indigo-1872830;Indigo Dyed jeans;Draft;Jeans;Roadster;Adults-Men;Men;;;;Fashion;;2017;28,RDSTJENS00014689,30,RDSTJENS00014690,32,RDSTJENS00014691,34,RDSTJENS00014692,36,RDSTJENS00014693;3299.00;;;;;;;rd-men-naug;zerotype;;Spring;rd-men-naug;No
1872829;MOTOGP-MJ-060-Indigo-1872829;Indigo Dyed jeans;Draft;Jeans;Roadster;Adults-Men;Men;;;;Fashion;;2017;28,RDSTJENS00014684,30,RDSTJENS00014685,32,RDSTJENS00014686,34,RDSTJENS00014687,36,RDSTJENS00014688;3299.00;;;;;;;rd-men-naug;zerotype;;Spring;rd-men-naug;No
1872827;MOTOGP-MJ-058-Black-1872827;Black Denim;Draft;Jeans;Roadster;Adults-Men;Men;;;;Fashion;;2017;28,RDSTJENS00014674,30,RDSTJENS00014675,32,RDSTJENS00014676,34,RDSTJENS00014677,36,RDSTJENS00014678;3299.00;;;;;;;rd-men-naug;zerotype;;Spring;rd-men-naug;No
1872826;MOTOGP-MJ-057-Indigo-1872826;Indigo Dyed jeans;Draft;Jeans;Roadster;Adults-Men;Men;;;;Fashion;;2017;28,RDSTJENS00014669,30,RDSTJENS00014670,32,RDSTJENS00014671,34,RDSTJENS00014672,36,RDSTJENS00014673;3299.00;;;;;;;rd-men-naug;zerotype;;Spring;rd-men-naug;No
1872825;MOTOGP-MJ-056-Indigo-1872825;Indigo Dyed jeans;Draft;Jeans;Roadster;Adults-Men;Men;;;;Fashion;;2017;28,RDSTJENS00014664,30,RDSTJENS00014665,32,RDSTJENS00014666,34,RDSTJENS00014667,36,RDSTJENS00014668;3299.00;;;;;;;rd-men-naug;zerotype;;Spring;rd-men-naug;No
1872815;MOTOGP-MJ-046-Black-1872815;Black Denim;Draft;Jeans;Roadster;Adults-Men;Men;;;;Fashion;;2017;28,RDSTJENS00014614,30,RDSTJENS00014615,32,RDSTJENS00014616,34,RDSTJENS00014617,36,RDSTJENS00014618;3999.00;;;;;;;rd-men-naug;zerotype;;Spring;rd-men-naug;No
1872813;MOTOGP-MJ-044-Indigo-1872813;Indigo Dyed jeans;Draft;Jeans;Roadster;Adults-Men;Men;;;;Fashion;;2017;28,RDSTJENS00014604,30,RDSTJENS00014605,32,RDSTJENS00014606,34,RDSTJENS00014607,36,RDSTJENS00014608;3999.00;;;;;;;rd-men-naug;zerotype;;Spring;rd-men-naug;No
1872812;MOTOGP-MJ-043-Indigo-1872812;Indigo Dyed jeans;Draft;Jeans;Roadster;Adults-Men;Men;;;;Fashion;;2017;28,RDSTJENS00014599,30,RDSTJENS00014600,32,RDSTJENS00014601,34,RDSTJENS00014602,36,RDSTJENS00014603;3999.00;;;;;;;rd-men-naug;zerotype;;Spring;rd-men-naug;No
1872811;MOTOGP-MJ-042-Indigo-1872811;Indigo Dyed jeans;Draft;Jeans;Roadster;Adults-Men;Men;;;;Fashion;;2017;28,RDSTJENS00014594,30,RDSTJENS00014595,32,RDSTJENS00014596,34,RDSTJENS00014597,36,RDSTJENS00014598;3999.00;;;;;;;rd-men-naug;zerotype;;Spring;rd-men-naug;No
1872810;MOTOGP-MJ-041-Indigo-1872810;Indigo Dyed jeans;Draft;Jeans;Roadster;Adults-Men;Men;;;;Fashion;;2017;28,RDSTJENS00014589,30,RDSTJENS00014590,32,RDSTJENS00014591,34,RDSTJENS00014592,36,RDSTJENS00014593;3999.00;;;;;;;rd-men-naug;zerotype;;Spring;rd-men-naug;No
1872809;MOTOGP-MJ-040-Indigo-1872809;Indigo Dyed jeans;Draft;Jeans;Roadster;Adults-Men;Men;;;;Fashion;;2017;28,RDSTJENS00014584,30,RDSTJENS00014585,32,RDSTJENS00014586,34,RDSTJENS00014587,36,RDSTJENS00014588;3999.00;;;;;;;rd-men-naug;zerotype;;Spring;rd-men-naug;No
1870117;KNKSS-QTMJ-247-GREY-1870117;MEN'S Denim-Pant;Draft;Jeans;Kook N Keech;Adults-Men;Men;;;;Fashion;;2017;28,KNKHJENS00001594,30,KNKHJENS00001595,32,KNKHJENS00001596,34,KNKHJENS00001597,36,KNKHJENS00001598,38,KNKHJENS00001599;2099.00;;;;;;;;zerotype;;Spring;;No
1865604;Motogpshirt5H-Indigo Denim Camo Laser-1865604;SHIRT-05;Draft;Shirts;Roadster;Adults-Men;Men;;;;Fashion;;2017;S,RDSTSHRT00021939,M,RDSTSHRT00021940,L,RDSTSHRT00021941,XL,RDSTSHRT00021942;2499.00;;;;;;;rd-men-naug;zerotype;;Spring;rd-men-naug;No
1865595;Motogpshirt10F-Sand Sink-1865595;SHIRT-10;Draft;Shirts;Roadster;Adults-Men;Men;;;;Fashion;;2017;S,RDSTSHRT00021903,M,RDSTSHRT00021904,L,RDSTSHRT00021905,XL,RDSTSHRT00021906;2199.00;;;;;;;rd-men-naug;zerotype;;Spring;rd-men-naug;No
1865594;Motogpshirt10E-Dk Khaki-1865594;SHIRT-10;Draft;Shirts;Roadster;Adults-Men;Men;;;;Fashion;;2017;S,RDSTSHRT00021899,M,RDSTSHRT00021900,L,RDSTSHRT00021901,XL,RDSTSHRT00021902;2199.00;;;;;;;rd-men-naug;zerotype;;Spring;rd-men-naug;No
1865593;Motogpshirt10D-Dk Denim-1865593;SHIRT-10;Draft;Shirts;Roadster;Adults-Men;Men;;;;Fashion;;2017;S,RDSTSHRT00021895,M,RDSTSHRT00021896,L,RDSTSHRT00021897,XL,RDSTSHRT00021898;2199.00;;;;;;;rd-men-naug;zerotype;;Spring;rd-men-naug;No
1865592;Motogpshirt10C-Camo Olive-1865592;SHIRT-10;Draft;Shirts;Roadster;Adults-Men;Men;;;;Fashion;;2017;S,RDSTSHRT00021891,M,RDSTSHRT00021892,L,RDSTSHRT00021893,XL,RDSTSHRT00021894;2199.00;;;;;;;rd-men-naug;zerotype;;Spring;rd-men-naug;No
1865591;Motogpshirt10B-Lt Grey-1865591;SHIRT-10;Draft;Shirts;Roadster;Adults-Men;Men;;;;Fashion;;2017;S,RDSTSHRT00021887,M,RDSTSHRT00021888,L,RDSTSHRT00021889,XL,RDSTSHRT00021890;2199.00;;;;;;;rd-men-naug;zerotype;;Spring;rd-men-naug;No
1865590;Motogpshirt10A-Camo White-1865590;SHIRT-10;Draft;Shirts;Roadster;Adults-Men;Men;;;;Fashion;;2017;S,RDSTSHRT00021883,M,RDSTSHRT00021884,L,RDSTSHRT00021885,XL,RDSTSHRT00021886;2199.00;;;;;;;rd-men-naug;zerotype;;Spring;rd-men-naug;No
1865579;Motogpshirt7I-Black Denim 1-1865579;SHIRT-07;Draft;Shirts;Roadster;Adults-Men;Men;;;;Fashion;;2017;S,RDSTSHRT00021839,M,RDSTSHRT00021840,L,RDSTSHRT00021841,XL,RDSTSHRT00021842;1899.00;;;;;;;rd-na-men-0206,rd-men-naug;zerotype;;Spring;rd-men-naug;No
1865578;Motogpshirt7G-Indigo Denim 2-1865578;SHIRT-07;Draft;Shirts;Roadster;Adults-Men;Men;;;;Fashion;;2017;S,RDSTSHRT00021835,M,RDSTSHRT00021836,L,RDSTSHRT00021837,XL,RDSTSHRT00021838;1899.00;;;;;;;rd-men-naug;zerotype;;Spring;rd-men-naug;No
1865576;Motogpshirt7E-Dry Oil Dust-1865576;SHIRT-07;Draft;Shirts;Roadster;Adults-Men;Men;;;;Fashion;;2017;S,RDSTSHRT00021827,M,RDSTSHRT00021828,L,RDSTSHRT00021829,XL,RDSTSHRT00021830;1899.00;;;;;;;rd-men-naug;zerotype;;Spring;rd-men-naug;No
1865575;Motogpshirt7D-Olive-1865575;SHIRT-07;Draft;Shirts;Roadster;Adults-Men;Men;;;;Fashion;;2017;S,RDSTSHRT00021823,M,RDSTSHRT00021824,L,RDSTSHRT00021825,XL,RDSTSHRT00021826;1899.00;;;;;;;rd-men-naug;zerotype;;Spring;rd-men-naug;No
1865574;Motogpshirt7C-Camo Dk Denim-1865574;SHIRT-07;Draft;Shirts;Roadster;Adults-Men;Men;;;;Fashion;;2017;S,RDSTSHRT00021819,M,RDSTSHRT00021820,L,RDSTSHRT00021821,XL,RDSTSHRT00021822;1999.00;;;;;;;rd-men-naug;zerotype;;Spring;rd-men-naug;No
1865573;Motogpshirt7B-Cast Iron-1865573;SHIRT-07;Draft;Shirts;Roadster;Adults-Men;Men;;;;Fashion;;2017;S,RDSTSHRT00021815,M,RDSTSHRT00021816,L,RDSTSHRT00021817,XL,RDSTSHRT00021818;1899.00;;;;;;;rd-men-naug;zerotype;;Spring;rd-men-naug;No
1865572;Motogpshirt7A-Jet Black-1865572;SHIRT-07;Draft;Shirts;Roadster;Adults-Men;Men;;;;Fashion;;2017;S,RDSTSHRT00021811,M,RDSTSHRT00021812,L,RDSTSHRT00021813,XL,RDSTSHRT00021814;1899.00;;;;;;;rd-men-naug;zerotype;;Spring;rd-men-naug;No
1865557;Motogpshirt5D-Camo Algae Green-1865557;SHIRT-05;Draft;Shirts;Roadster;Adults-Men;Men;;;;Fashion;;2017;S,RDSTSHRT00021755,M,RDSTSHRT00021756,L,RDSTSHRT00021757,XL,RDSTSHRT00021758;1999.00;;;;;;;rd-men-naug;zerotype;;Spring;rd-men-naug;No
1865556;Motogpshirt5C-White Water-1865556;SHIRT-05;Draft;Shirts;Roadster;Adults-Men;Men;;;;Fashion;;2017;S,RDSTSHRT00021751,M,RDSTSHRT00021752,L,RDSTSHRT00021753,XL,RDSTSHRT00021754;1999.00;;;;;;;rd-men-naug;zerotype;;Spring;rd-men-naug;No
1865555;Motogpshirt5B-Sand Sink-1865555;SHIRT-05;Draft;Shirts;Roadster;Adults-Men;Men;;;;Fashion;;2017;S,RDSTSHRT00021747,M,RDSTSHRT00021748,L,RDSTSHRT00021749,XL,RDSTSHRT00021750;1999.00;;;;;;;rd-men-naug;zerotype;;Spring;rd-men-naug;No
1865554;Motogpshirt5A-Asphalt-1865554;SHIRT-05;Draft;Shirts;Roadster;Adults-Men;Men;;;;Fashion;;2017;S,RDSTSHRT00021743,M,RDSTSHRT00021744,L,RDSTSHRT00021745,XL,RDSTSHRT00021746;1999.00;;;;;;;rd-men-naug;zerotype;;Spring;rd-men-naug;No
1861174;MH-MJ-330-Indigo-1861174;Indigo Denim Jeans;Draft;Jeans;Mast & Harbour;Adults-Men;Men;;;;Fashion;;2017;28,MTHBJENS00005004,30,MTHBJENS00005005,32,MTHBJENS00005006,34,MTHBJENS00005007,36,MTHBJENS00005008;2199.00;;;;;;;;zerotype;;Spring;;No
1861157;MH-MJ-313-Indigo-1861157;Indigo Denim Jeans;Draft;Jeans;Mast & Harbour;Adults-Men;Men;;;;Fashion;;2017;28,MTHBJENS00004919,30,MTHBJENS00004920,32,MTHBJENS00004921,34,MTHBJENS00004922,36,MTHBJENS00004923;2499.00;;;;;;;;zerotype;;Spring;;No
1861154;MH-MJ-310-Indigo-1861154;Indigo Denim Jeans;Draft;Jeans;Mast & Harbour;Adults-Men;Men;;;;Fashion;;2017;28,MTHBJENS00004904,30,MTHBJENS00004905,32,MTHBJENS00004906,34,MTHBJENS00004907,36,MTHBJENS00004908;2199.00;;;;;;;;zerotype;;Spring;;No
1861152;MH-MJ-308-Indigo-1861152;Indigo Denim Jeans;Draft;Jeans;Mast & Harbour;Adults-Men;Men;;;;Fashion;;2017;28,MTHBJENS00004894,30,MTHBJENS00004895,32,MTHBJENS00004896,34,MTHBJENS00004897,36,MTHBJENS00004898;2199.00;;;;;;;;zerotype;;Spring;;No
1861147;MH-MJ-303-Indigo-1861147;Indigo Denim Jeans;Draft;Jeans;Mast & Harbour;Adults-Men;Men;;;;Fashion;;2017;28,MTHBJENS00004869,30,MTHBJENS00004870,32,MTHBJENS00004871,34,MTHBJENS00004872,36,MTHBJENS00004873;2999.00;;;;;;;;zerotype;;Spring;;No
1861135;MH-MJ-291-Indigo-1861135;Indigo Denim Jeans;Draft;Jeans;Mast & Harbour;Adults-Men;Men;;;;Fashion;;2017;28,MTHBJENS00004809,30,MTHBJENS00004810,32,MTHBJENS00004811,34,MTHBJENS00004812,36,MTHBJENS00004813;2199.00;;;;;;;;zerotype;;Spring;;No
1858214;DB-YK-73C-bottle green/grey-1858214;Sweaters;Draft;Sweaters;DressBerry;Adults-Women;Women;;;;Fashion;;2017;S,DSBYSWTR00001936,M,DSBYSWTR00001937,L,DSBYSWTR00001938,XL,DSBYSWTR00001939;1499.00;;;;;;;;zerotype;;Fall;;No
1858213;DB-YK-73B-Navy/Natural White-1858213;Sweaters;Draft;Sweaters;DressBerry;Adults-Women;Women;;;;Fashion;;2017;S,DSBYSWTR00001932,M,DSBYSWTR00001933,L,DSBYSWTR00001934,XL,DSBYSWTR00001935;1499.00;;;;;;;;zerotype;;Fall;;No
1858212;DB-YK-73A-Light grey/Black-1858212;Sweaters;Draft;Sweaters;DressBerry;Adults-Women;Women;;;;Fashion;;2017;S,DSBYSWTR00001928,M,DSBYSWTR00001929,L,DSBYSWTR00001930,XL,DSBYSWTR00001931;1499.00;;;;;;;;zerotype;;Fall;;No
1858189;DB-YK-43A-DENIM BLUE-1858189;Sweaters;Draft;Sweaters;DressBerry;Adults-Women;Women;;;;Fashion;;2017;S,DSBYSWTR00001836,M,DSBYSWTR00001837,L,DSBYSWTR00001838,XL,DSBYSWTR00001839;1999.00;;;;;;;;zerotype;;Fall;;No
1858186;DB-YK-41C-wine/lt. grey/black-1858186;Sweaters;Draft;Sweaters;DressBerry;Adults-Women;Women;;;;Fashion;;2017;S,DSBYSWTR00001824,M,DSBYSWTR00001825,L,DSBYSWTR00001826,XL,DSBYSWTR00001827;1599.00;;;;;;;;zerotype;;Fall;;No
1858185;DB-YK-41B-LT GREY/MUSTRED/NAVY-1858185;Sweaters;Draft;Sweaters;DressBerry;Adults-Women;Women;;;;Fashion;;2017;S,DSBYSWTR00001820,M,DSBYSWTR00001821,L,DSBYSWTR00001822,XL,DSBYSWTR00001823;1599.00;;;;;;;;zerotype;;Fall;;No
1858184;DB-YK-41A-LT GREY/WHITE/BLACK-1858184;Sweaters;Draft;Sweaters;DressBerry;Adults-Women;Women;;;;Fashion;;2017;S,DSBYSWTR00001816,M,DSBYSWTR00001817,L,DSBYSWTR00001818,XL,DSBYSWTR00001819;1599.00;;;;;;;;zerotype;;Fall;;No
1858158;DB-YK-68B-BOTTLE GREEN-1858158;Sweaters;Draft;Sweaters;DressBerry;Adults-Women;Women;;;;Fashion;;2017;S,DSBYSWTR00001748,M,DSBYSWTR00001749,L,DSBYSWTR00001750,XL,DSBYSWTR00001751;1599.00;;;;;;;;zerotype;;Fall;;No
1858156;DB-YK-68A-LIGHTEST GREY-1858156;Sweaters;Draft;Sweaters;DressBerry;Adults-Women;Women;;;;Fashion;;2017;S,DSBYSWTR00001744,M,DSBYSWTR00001745,L,DSBYSWTR00001746,XL,DSBYSWTR00001747;1599.00;;;;;;;;zerotype;;Fall;;No
1858132;1339610A-denim blue-1858132;Sweaters;Draft;Sweaters;DressBerry;Adults-Women;Women;;;;Fashion;;2017;S,DSBYSWTR00001680,M,DSBYSWTR00001681,L,DSBYSWTR00001682,XL,DSBYSWTR00001683;1599.00;;;;;;;;zerotype;;Fall;;No
1858131;1339609B-peach-1858131;Sweaters;Draft;Sweaters;DressBerry;Adults-Women;Women;;;;Fashion;;2017;S,DSBYSWTR00001675,M,DSBYSWTR00001676,L,DSBYSWTR00001677,XL,DSBYSWTR00001679;1599.00;;;;;;;;zerotype;;Fall;;No
1858130;1339608A-OFF WHITE-1858130;Sweaters;Draft;Sweaters;DressBerry;Adults-Women;Women;;;;Fashion;;2017;S,DSBYSWTR00001671,M,DSBYSWTR00001672,L,DSBYSWTR00001673,XL,DSBYSWTR00001674;1599.00;;;;;;;;zerotype;;Fall;;No
1853942;AAYAW17SWT028B-Light Grey-1853942;Tops;Draft;Tops;all about you;Adults-Women;Women;;;;Fashion;;2017;S,AATUTOPS00002974,M,AATUTOPS00002975,L,AATUTOPS00002976,XL,AATUTOPS00002977;1899.00;;;;;;;aay-topsjan3,aay-ww2017,aay-newstyles;zerotype;;Spring;sis;No
1853941;AAYAW17SWT028A-French Pink-1853941;Tops;Draft;Tops;all about you;Adults-Women;Women;;;;Fashion;;2017;S,AATUTOPS00002970,M,AATUTOPS00002971,L,AATUTOPS00002972,XL,AATUTOPS00002973;1899.00;;;;;;;aay-topsjan3,aay-ww2017,aay-newstyles;zerotype;;Spring;sis;No
1853502;AAYAW17SKT001B-OLIVE-1853502;Skirts;Draft;Skirts;all about you;Adults-Women;Women;;;;Fashion;;2017;28,AATUSKRT00000364,30,AATUSKRT00000365,32,AATUSKRT00000366,34,AATUSKRT00000367;1699.00;;;;;;;aay-ww2017;zerotype;;Fall;removed nonethnic;No
1853501;AAYAW17SKT001A-NAVY-1853501;Skirts;Draft;Skirts;all about you;Adults-Women;Women;;;;Fashion;;2017;28,AATUSKRT00000360,30,AATUSKRT00000361,32,AATUSKRT00000362,34,AATUSKRT00000363;1699.00;;;;;;;aay-ww2017;zerotype;;Fall;removed nonethnic;No
1827453;REX-02-STEEL GREY-1827453;Mens Graphic T-Shirt;Draft;Tshirts;Roadster;Adults-Men;Men;;;;Fashion;;2017;S,RDSTTSHT00031520,M,RDSTTSHT00031521,L,RDSTTSHT00031522,XL,RDSTTSHT00031523;599.00;;;;;;;rd-men-naug;zerotype;;Spring;rd-men-naug;No
1827407;MCKEE-01-WHITE-1827407;Mens Graphic T-Shirt;Draft;Tshirts;Roadster;Adults-Men;Men;;;;Fashion;;2017;S,RDSTTSHT00031376,M,RDSTTSHT00031377,L,RDSTTSHT00031378,XL,RDSTTSHT00031379;499.00;;;;;;;rd-men-naug;zerotype;;Spring;rd-men-naug;No
1814741;117DBWAOP028010A-GEOMETRICAL PRINT POTTERS CLAY/MARZIPAN-1814741;DRAWSTRING TUNIC DRESS;Draft;Dresses;DressBerry;Adults-Women;Women;;;;Fashion;;2017;XS,DSBYDRSS00007295,S,DSBYDRSS00007296,M,DSBYDRSS00007297,L,DSBYDRSS00007298,XL,DSBYDRSS00007299;1699.00;;;;;;;;zerotype;;Spring;;No
1814736;117DBWAOP028003B-CREAM/BLACK GEOMETRICAL PRINT-1814736;DRESS WITH LACE AT YOKE;Draft;Dresses;DressBerry;Adults-Women;Women;;;;Fashion;;2017;XS,DSBYDRSS00007270,S,DSBYDRSS00007271,M,DSBYDRSS00007272,L,DSBYDRSS00007273,XL,DSBYDRSS00007274;1599.00;;;;;;;;zerotype;;Spring;;No
1814735;117DBWAOP028003A-OFF WHITE/BLUE GEOMETRICAL PRINT-1814735;DRESS WITH LACE AT YOKE;Draft;Dresses;DressBerry;Adults-Women;Women;;;;Fashion;;2017;XS,DSBYDRSS00007265,S,DSBYDRSS00007266,M,DSBYDRSS00007267,L,DSBYDRSS00007268,XL,DSBYDRSS00007269;1599.00;;;;;;;;zerotype;;Spring;;No
1811844;MNHSWRTWM-004E-MUSTARD-1811844;FRONT CARDIGAN WITH BUTTON;Draft;Sweaters;Mast & Harbour;Adults-Women;Women;;;;Fashion;;2017;S,MTHBSWTR00002195,M,MTHBSWTR00002196,L,MTHBSWTR00002197,XL,MTHBSWTR00002198;999.00;;;;;;;;zerotype;;Spring;;No
1811843;MNHSWRTWM-004D-PINK-1811843;FRONT CARDIGAN WITH BUTTON;Draft;Sweaters;Mast & Harbour;Adults-Women;Women;;;;Fashion;;2017;S,MTHBSWTR00002191,M,MTHBSWTR00002192,L,MTHBSWTR00002193,XL,MTHBSWTR00002194;999.00;;;;;;;;zerotype;;Spring;;No
1811842;MNHSWRTWM-004C-WINE-1811842;FRONT CARDIGAN WITH BUTTON;Draft;Sweaters;Mast & Harbour;Adults-Women;Women;;;;Fashion;;2017;S,MTHBSWTR00002187,M,MTHBSWTR00002188,L,MTHBSWTR00002189,XL,MTHBSWTR00002190;999.00;;;;;;;;zerotype;;Spring;;No
1811841;MNHSWRTWM-004B-RUST-1811841;FRONT CARDIGAN WITH BUTTON;Draft;Sweaters;Mast & Harbour;Adults-Women;Women;;;;Fashion;;2017;S,MTHBSWTR00002183,M,MTHBSWTR00002184,L,MTHBSWTR00002185,XL,MTHBSWTR00002186;999.00;;;;;;;;zerotype;;Spring;;No
1811840;MNHSWRTWM-004A-NAVY-1811840;FRONT CARDIGAN WITH BUTTON;Draft;Sweaters;Mast & Harbour;Adults-Women;Women;;;;Fashion;;2017;S,MTHBSWTR00002179,M,MTHBSWTR00002180,L,MTHBSWTR00002181,XL,MTHBSWTR00002182;999.00;;;;;;;;zerotype;;Spring;;No
1811839;MNHSWRTWM-001E-LT.GREY MELANGE-1811839;V-NECK;Draft;Sweaters;Mast & Harbour;Adults-Women;Women;;;;Fashion;;2017;S,MTHBSWTR00002175,M,MTHBSWTR00002176,L,MTHBSWTR00002177,XL,MTHBSWTR00002178;899.00;;;;;;;;zerotype;;Fall;Planner request;No
1811838;MNHSWRTWM-001D-WINE-1811838;V-NECK;Draft;Sweaters;Mast & Harbour;Adults-Women;Women;;;;Fashion;;2017;S,MTHBSWTR00002171,M,MTHBSWTR00002172,L,MTHBSWTR00002173,XL,MTHBSWTR00002174;899.00;;;;;;;;zerotype;;Fall;Planner request;No
1811837;MNHSWRTWM-001C-MUSTARD-1811837;V-NECK;Draft;Sweaters;Mast & Harbour;Adults-Women;Women;;;;Fashion;;2017;S,MTHBSWTR00002167,M,MTHBSWTR00002168,L,MTHBSWTR00002169,XL,MTHBSWTR00002170;899.00;;;;;;;;zerotype;;Fall;Planner request;No
1811836;MNHSWRTWM-001B-STONE MEL-1811836;V-NECK;Draft;Sweaters;Mast & Harbour;Adults-Women;Women;;;;Fashion;;2017;S,MTHBSWTR00002163,M,MTHBSWTR00002164,L,MTHBSWTR00002165,XL,MTHBSWTR00002166;899.00;;;;;;;;zerotype;;Fall;Planner request;No
1811835;MNHSWRTWM-001A-NAVY-1811835;V-NECK;Draft;Sweaters;Mast & Harbour;Adults-Women;Women;;;;Fashion;;2017;S,MTHBSWTR00002159,M,MTHBSWTR00002160,L,MTHBSWTR00002161,XL,MTHBSWTR00002162;899.00;;;;;;;;zerotype;;Fall;Planner request;No
1811834;MNHKSWT-013C-STONE MEL/BROWN MEL-1811834;SLEEVE LESS;Draft;Sweaters;Mast & Harbour;Adults-Men;Men;;;;Fashion;;2017;S,MTHBSWTR00002155,M,MTHBSWTR00002156,L,MTHBSWTR00002157,XL,MTHBSWTR00002158;899.00;;;;;;;;zerotype;;Spring;;No
1811833;MNHKSWT-013B-MAROON/NAVY-1811833;SLEEVE LESS;Draft;Sweaters;Mast & Harbour;Adults-Men;Men;;;;Fashion;;2017;S,MTHBSWTR00002151,M,MTHBSWTR00002152,L,MTHBSWTR00002153,XL,MTHBSWTR00002154;899.00;;;;;;;;zerotype;;Spring;;No
1811832;MNHKSWT-013A-NAVY/RED-1811832;SLEEVE LESS;Draft;Sweaters;Mast & Harbour;Adults-Men;Men;;;;Fashion;;2017;S,MTHBSWTR00002147,M,MTHBSWTR00002148,L,MTHBSWTR00002149,XL,MTHBSWTR00002150;899.00;;;;;;;;zerotype;;Spring;;No
1811831;MNH_SWTRM-07C-MUSTARD/NAVY/LT.GREY-1811831;V-NECK BORDER TIPPING;Draft;Sweaters;Mast & Harbour;Adults-Men;Men;;;;Fashion;;2017;S,MTHBSWTR00002143,M,MTHBSWTR00002144,L,MTHBSWTR00002145,XL,MTHBSWTR00002146;999.00;;;;;;;;zerotype;;Fall;Planner request;No
1811830;MNH_SWTRM-07B-DK.DENIM/LT.DENIM/DK.DENIM-1811830;V-NECK BORDER TIPPING;Draft;Sweaters;Mast & Harbour;Adults-Men;Men;;;;Fashion;;2017;S,MTHBSWTR00002139,M,MTHBSWTR00002140,L,MTHBSWTR00002141,XL,MTHBSWTR00002142;999.00;;;;;;;;zerotype;;Spring;;No
1811829;MNH_SWTRM-07A-NAVY/MAROON/OFF HWITE-1811829;V-NECK BORDER TIPPING;Draft;Sweaters;Mast & Harbour;Adults-Men;Men;;;;Fashion;;2017;S,MTHBSWTR00002135,M,MTHBSWTR00002136,L,MTHBSWTR00002137,XL,MTHBSWTR00002138;999.00;;;;;;;;zerotype;;Spring;;No
1811828;MNHKMSWT-012C-BURNT ORANGE/ANTHRA MEL-1811828;ROUND NECK WITH ELBOW PATCH;Draft;Sweaters;Mast & Harbour;Adults-Men;Men;;;;Fashion;;2017;S,MTHBSWTR00002131,M,MTHBSWTR00002132,L,MTHBSWTR00002133,XL,MTHBSWTR00002134;1299.00;;;;;;;;zerotype;;Spring;;No
1811827;MNHKMSWT-012B-LT.GREY/NAVY-1811827;ROUND NECK WITH ELBOW PATCH;Draft;Sweaters;Mast & Harbour;Adults-Men;Men;;;;Fashion;;2017;S,MTHBSWTR00002127,M,MTHBSWTR00002128,L,MTHBSWTR00002129,XL,MTHBSWTR00002130;1299.00;;;;;;;;zerotype;;Spring;;No
1811826;MNHKMSWT-012A-NAVY/MUSTARD-1811826;ROUND NECK WITH ELBOW PATCH;Draft;Sweaters;Mast & Harbour;Adults-Men;Men;;;;Fashion;;2017;S,MTHBSWTR00002123,M,MTHBSWTR00002124,L,MTHBSWTR00002125,XL,MTHBSWTR00002126;1299.00;;;;;;;;zerotype;;Spring;;No
1811825;MNHKMSWTM-011F-TEAL MELANGE/GREY MEL-1811825;FULL SLEEVE V  NECK SWEATER;Draft;Sweaters;Mast & Harbour;Adults-Men;Men;;;;Fashion;;2017;S,MTHBSWTR00002119,M,MTHBSWTR00002120,L,MTHBSWTR00002121,XL,MTHBSWTR00002122;999.00;;;;;;;;zerotype;;Fall;Planner request;No
1811824;MNHKMSWTM-011E-BURNT ORANGE/NAVY-1811824;FULL SLEEVE V  NECK SWEATER;Draft;Sweaters;Mast & Harbour;Adults-Men;Men;;;;Fashion;;2017;S,MTHBSWTR00002115,M,MTHBSWTR00002116,L,MTHBSWTR00002117,XL,MTHBSWTR00002118;999.00;;;;;;;;zerotype;;Fall;Planner request;No
1811823;MNHKMSWTM-011D-BLACK/GREY MELANGE-1811823;FULL SLEEVE V  NECK SWEATER;Draft;Sweaters;Mast & Harbour;Adults-Men;Men;;;;Fashion;;2017;S,MTHBSWTR00002111,M,MTHBSWTR00002112,L,MTHBSWTR00002113,XL,MTHBSWTR00002114;999.00;;;;;;;;zerotype;;Spring;;No
1811822;MNHKMSWTM-011C-GREY MELANGE /RED-1811822;FULL SLEEVE V  NECK SWEATER;Draft;Sweaters;Mast & Harbour;Adults-Men;Men;;;;Fashion;;2017;S,MTHBSWTR00002107,M,MTHBSWTR00002108,L,MTHBSWTR00002109,XL,MTHBSWTR00002110;999.00;;;;;;;;zerotype;;Fall;Planner request;No
1811821;MNHKMSWTM-011B-BROWN MELANGE/RED-1811821;FULL SLEEVE V  NECK SWEATER;Draft;Sweaters;Mast & Harbour;Adults-Men;Men;;;;Fashion;;2017;S,MTHBSWTR00002103,M,MTHBSWTR00002104,L,MTHBSWTR00002105,XL,MTHBSWTR00002106;999.00;;;;;;;;zerotype;;Fall;Planner request;No
1811820;MNHKMSWTM-011A-NAVY/RED-1811820;FULL SLEEVE V  NECK SWEATER;Draft;Sweaters;Mast & Harbour;Adults-Men;Men;;;;Fashion;;2017;S,MTHBSWTR00002099,M,MTHBSWTR00002100,L,MTHBSWTR00002101,XL,MTHBSWTR00002102;999.00;;;;;;;;zerotype;;Spring;;No
1804147;117DBWSLD025100B-DARK WASH-1804147;Dresses;Draft;Dresses;DressBerry;Adults-Women;Women;;;;Fashion;;2017;XS,DSBYDRSS00007160,S,DSBYDRSS00007161,M,DSBYDRSS00007162,L,DSBYDRSS00007163,XL,DSBYDRSS00007164;1699.00;;;;;;;DB-Augnewarrival;zerotype;;Spring;new;No
1804146;117DBWSLD025100A-LIGHT WASH-1804146;Dresses;Draft;Dresses;DressBerry;Adults-Women;Women;;;;Fashion;;2017;XS,DSBYDRSS00007155,S,DSBYDRSS00007156,M,DSBYDRSS00007157,L,DSBYDRSS00007158,XL,DSBYDRSS00007159;1699.00;;;;;;;DB-Augnewarrival;zerotype;;Spring;new;No
1790315;APR-DENIM-04N-BLUE DENIM WASH 4-1790315;MATTHEW HW DENIM;BIS + Content Complete;Shirts;Roadster;Adults-Men;Men;Blue;;;Fashion;Casual;2017;S,RDSTSHRT00020376,M,RDSTSHRT00020377,L,RDSTSHRT00020378,XL,RDSTSHRT00020379;1699.00;Blue faded casual shirt, has a spread collar, button placket, 2 pockets, long sleeves, curved hem;Add this well-designed shirt from Roadster to your wardrobe and stay warm all year long.  Happy hour just got a whole lot stylish when you put this blue piece with some chukka boots and leather bracelet.;Cotton <br> Machine-wash;Regular Fit<br> The model (height 6') is wearing a size M;;Roadster Men Blue Regular Fit Faded Casual Shirt;Roadster,rd-men-naug;zerotype;;Spring;rd-men-naug;No
1783915;216MGPKSLD010058-04-TEAL-1783915;Moto GP Mens Graphic T-Shirt;Draft;Tshirts;Roadster;Adults-Men;Men;;;;Fashion;;2017;S,RDSTTSHT00029674,M,RDSTTSHT00029675,L,RDSTTSHT00029676,XL,RDSTTSHT00029677;899.00;;;;;;;rd-men-naug;zerotype;;Spring;rd-men-naug;No
1774299;YMS600-BLACK-1774299;YMS600;Draft;Shirts;YWC;Adults-Men;Men;;;;Fashion;;2017;S,YWCCSHRT00000106,L,YWCCSHRT00000107,XL,YWCCSHRT00000108,XXL,YWCCSHRT00000109,M,YWCCSHRT00000110;2299.00;<p>Cotton</p>;;;;;;;zerotype;;Summer;;No
1774292;YMS299-BLUE-1774292;YMS299;Draft;Shirts;YWC;Adults-Men;Men;;;;Fashion;;2017;S,YWCCSHRT00000071,L,YWCCSHRT00000072,XL,YWCCSHRT00000073,XXL,YWCCSHRT00000074,M,YWCCSHRT00000075;2299.00;<p>Cotton</p>;;;;;;;zerotype;;Summer;;No
1774258;YMT405-BROWN-1774258;YMT405;Draft;Tshirts;YWC;Adults-Men;Men;;;;Fashion;;2017;S,YWCCTSHT00001120,L,YWCCTSHT00001121,XL,YWCCTSHT00001122,XXL,YWCCTSHT00001123,M,YWCCTSHT00001124;1299.00;<p>Cotton</p>;;;;;;;zerotype;;Summer;;No
1774257;YMT405-BLUE-1774257;YMT405;Draft;Tshirts;YWC;Adults-Men;Men;;;;Fashion;;2017;S,YWCCTSHT00001115,L,YWCCTSHT00001116,XL,YWCCTSHT00001117,XXL,YWCCTSHT00001118,M,YWCCTSHT00001119;1299.00;<p>Cotton</p>;;;;;;;zerotype;;Summer;;No
1744921;MNH-WJ-217-Black-1744921;Black Denim;Draft;Jeans;Mast & Harbour;Adults-Women;Women;;;;Fashion;;2017;26,MTHBJENS00004295,28,MTHBJENS00004296,30,MTHBJENS00004297,32,MTHBJENS00004298,34,MTHBJENS00004299,36,MTHBJENS00004300;1899.00;;;;;;;;zerotype;;Spring;;No
1744717;MDKU0297C-Phantom-1744717;Kurtas;Draft;Kurtas;all about you;Adults-Women;Women;;;;Fashion;;2017;S,AATUKRTA00001192,M,AATUKRTA00001193,L,AATUKRTA00001194,XL,AATUKRTA00001195;1999.00;;;;;;;aay-ss179mar,aay-kurtas21sep,aay-ethnic2017,aay-newstyles,aay-kurtas-sis;zerotype;;Fall;planner request;No
1744716;MDKU0297B-Coral-1744716;Kurtas;Draft;Kurtas;all about you;Adults-Women;Women;;;;Fashion;;2017;S,AATUKRTA00001188,M,AATUKRTA00001189,L,AATUKRTA00001190,XL,AATUKRTA00001191;1999.00;;;;;;;aay-ss179mar,aay-kurtas21sep,aay-ethnic2017,aay-newstyles,aay-kurtas-sis;zerotype;;Fall;planner request;No
1734500;HVMSS7PO008-BLUE-1734500;Mens Cut & SewPolo;Draft;Tshirts;Harvard;Adults-Men;Men;;;;Fashion;;2017;S,HRVDTSHT00002484,M,HRVDTSHT00002485,L,HRVDTSHT00002486,XL,HRVDTSHT00002487;999.00;;;;;;;;zerotype;;Fall;Planner request;No
1716259;RD-MJ-1436-Black-1716259;DENIM JEANS;Draft;Jeans;Roadster;Adults-Men;Men;;;;Fashion;;2017;28,RDSTJENS00013356,30,RDSTJENS00013357,32,RDSTJENS00013358,34,RDSTJENS00013359,36,RDSTJENS00013360;2299.00;;;;;;;rd-men-naug;zerotype;;Spring;rd-men-naug;No
1582558;RD-MJ-R117-M.INDIGO-1582558;DENIM JEANS;Draft;Trousers;Roadster;Adults-Men;Men;;;;Fashion;;2016;28,RDSTTRSR00005596,30,RDSTTRSR00005597,32,RDSTTRSR00005598,34,RDSTTRSR00005599,36,RDSTTRSR00005600;2199.00;;;;;;;rd-men-naug;zerotype;;Fall;rd-men-naug;No
1582554;RD-MJ-R113-D.INDIGO-1582554;DENIM JEANS;Draft;Trousers;Roadster;Adults-Men;Men;;;;Fashion;;2016;28,RDSTTRSR00005576,30,RDSTTRSR00005577,32,RDSTTRSR00005578,34,RDSTTRSR00005579,36,RDSTTRSR00005580;2199.00;;;;;;;rd-men-naug;zerotype;;Fall;rd-men-naug;No
1582553;RD-MJ-R112-M.INDIGO-1582553;DENIM JEANS;Draft;Trousers;Roadster;Adults-Men;Men;;;;Fashion;;2016;28,RDSTTRSR00005571,30,RDSTTRSR00005572,32,RDSTTRSR00005573,34,RDSTTRSR00005574,36,RDSTTRSR00005575;2299.00;;;;;;;rd-men-naug;zerotype;;Fall;rd-men-naug;No
1582551;RD-MJ-R110-M.INDIGO-1582551;DENIM JEANS;Draft;Trousers;Roadster;Adults-Men;Men;;;;Fashion;;2016;28,RDSTTRSR00005561,30,RDSTTRSR00005562,32,RDSTTRSR00005563,34,RDSTTRSR00005564,36,RDSTTRSR00005565;2299.00;;;;;;;rd-men-naug;zerotype;;Fall;rd-men-naug;No
1375189;HD6128(KB580)A-BLACK-1375189;Sweatshirts;BIS + Content Complete;Sweatshirts;Roadster;Adults-Men;Men;Black;;;Fashion;Casual;2016;S,RDSTSWSH00003966,M,RDSTSWSH00003967,L,RDSTSWSH00003968,XL,RDSTSWSH00003969;2799.00;Black solid sweatshirt, has a hood, long sleeves, straight hem;You'll love the cosiness and design of this super-trendy zip-up from Roadster.  When you're meeting your friends for a quick coffee, layer this black piece over a printed tee.;Polyester <br> Machine-wash;The model (height 6') is wearing a size M;;Roadster Men Black Solid Hooded Sweatshirt;Roadster,dutyfree-august17;zerotype;;Fall;dutyfree-august17;No
