Style ID;Vendor Article Number;Vendor Article Name;Active Status;Article type;Brand;Age Group;Gender;Base Colour;Colour1;Colour2;Fashion Type;Usage;Year;Size - SKU code pair;MRP;Style Description;Style Note;Materials and Care Description;Size and Fit Description;Size Chart Path;Product Display Name;Tags;Product Type;Classification Brand;Season;Comments;Upload Images
1826835;12661-Blue-1826835;Hubberholme Stretchable Jeans;Draft;Jeans;Hubberholme;Adults-Women;Women;;;;Fashion;;2017;26,HBHMJENS00000926,28,HBHMJENS00000927,30,HBHMJENS00000928,32,HBHMJENS00000929,34,HBHMJENS00000930,36,HBHMJENS00000931;1499.00;;;;;;;;zerotype;;Summer;;No
1826834;12660-Blue-1826834;Hubberholme Stretchable Jeans;Draft;Jeans;Hubberholme;Adults-Women;Women;;;;Fashion;;2017;26,HBHMJENS00000920,28,HBHMJENS00000921,30,HBHMJENS00000922,32,HBHMJENS00000923,34,HBHMJENS00000924,36,HBHMJENS00000925;1499.00;;;;;;;;zerotype;;Summer;;No
1826833;12659-Blue-1826833;Hubberholme Stretchable Jeans;Draft;Jeans;Hubberholme;Adults-Women;Women;;;;Fashion;;2017;26,HBHMJENS00000914,28,HBHMJENS00000915,30,HBHMJENS00000916,32,HBHMJENS00000917,34,HBHMJENS00000918,36,HBHMJENS00000919;1499.00;;;;;;;;zerotype;;Summer;;No
1826832;12658-Blue-1826832;Hubberholme Stretchable Jeans;Draft;Jeans;Hubberholme;Adults-Women;Women;;;;Fashion;;2017;26,HBHMJENS00000908,28,HBHMJENS00000909,30,HBHMJENS00000910,32,HBHMJENS00000911,34,HBHMJENS00000912,36,HBHMJENS00000913;1499.00;;;;;;;;zerotype;;Summer;;No
1826831;12657-Blue-1826831;Hubberholme Stretchable Jeans;Draft;Jeans;Hubberholme;Adults-Women;Women;;;;Fashion;;2017;26,HBHMJENS00000902,28,HBHMJENS00000903,30,HBHMJENS00000904,32,HBHMJENS00000905,34,HBHMJENS00000906,36,HBHMJENS00000907;1499.00;;;;;;;;zerotype;;Summer;;No
1826830;12656-Blue-1826830;Hubberholme Stretchable Jeans;Draft;Jeans;Hubberholme;Adults-Women;Women;;;;Fashion;;2017;26,HBHMJENS00000896,28,HBHMJENS00000897,30,HBHMJENS00000898,32,HBHMJENS00000899,34,HBHMJENS00000900,36,HBHMJENS00000901;1499.00;;;;;;;;zerotype;;Summer;;No
1826829;12655-Blue-1826829;Hubberholme Stretchable Jeans;Draft;Jeans;Hubberholme;Adults-Women;Women;;;;Fashion;;2017;26,HBHMJENS00000890,28,HBHMJENS00000891,30,HBHMJENS00000892,32,HBHMJENS00000893,34,HBHMJENS00000894,36,HBHMJENS00000895;1499.00;;;;;;;;zerotype;;Summer;;No
1826828;12654-Blue-1826828;Hubberholme Stretchable Jeans;Draft;Jeans;Hubberholme;Adults-Women;Women;;;;Fashion;;2017;26,HBHMJENS00000884,28,HBHMJENS00000885,30,HBHMJENS00000886,32,HBHMJENS00000887,34,HBHMJENS00000888,36,HBHMJENS00000889;1499.00;;;;;;;;zerotype;;Summer;;No
1826827;12653-Blue-1826827;Hubberholme Stretchable Jeans;Draft;Jeans;Hubberholme;Adults-Women;Women;;;;Fashion;;2017;26,HBHMJENS00000878,28,HBHMJENS00000879,30,HBHMJENS00000880,32,HBHMJENS00000881,34,HBHMJENS00000882,36,HBHMJENS00000883;1499.00;;;;;;;;zerotype;;Summer;;No
1826826;12652-White-1826826;Hubberholme Stretchable Jeans;Draft;Jeans;Hubberholme;Adults-Women;Women;;;;Fashion;;2017;26,HBHMJENS00000872,28,HBHMJENS00000873,30,HBHMJENS00000874,32,HBHMJENS00000875,34,HBHMJENS00000876,36,HBHMJENS00000877;1499.00;;;;;;;;zerotype;;Summer;;No
1826825;11232-Charcoal-1826825;Hubberholme Dress;Draft;Dresses;Hubberholme;Adults-Women;Women;;;;Fashion;;2017;S,HBHMDRSS00000125,M,HBHMDRSS00000126,L,HBHMDRSS00000127,XL,HBHMDRSS00000128;1299.00;;;;;;;;zerotype;;Summer;;No
1826824;11231-Charcoal-1826824;Hubberholme Dress;Draft;Dresses;Hubberholme;Adults-Women;Women;;;;Fashion;;2017;S,HBHMDRSS00000121,M,HBHMDRSS00000122,L,HBHMDRSS00000123,XL,HBHMDRSS00000124;1299.00;;;;;;;;zerotype;;Summer;;No
1826823;11230-Charcoal-1826823;Hubberholme Dress;Draft;Dresses;Hubberholme;Adults-Women;Women;;;;Fashion;;2017;S,HBHMDRSS00000117,M,HBHMDRSS00000118,L,HBHMDRSS00000119,XL,HBHMDRSS00000120;1299.00;;;;;;;;zerotype;;Summer;;No
1826822;11229-Charcoal-1826822;Hubberholme Dress;Draft;Dresses;Hubberholme;Adults-Women;Women;;;;Fashion;;2017;S,HBHMDRSS00000113,M,HBHMDRSS00000114,L,HBHMDRSS00000115,XL,HBHMDRSS00000116;1299.00;;;;;;;;zerotype;;Summer;;No
1826821;11228-Black-1826821;Hubberholme Dress;Draft;Dresses;Hubberholme;Adults-Women;Women;;;;Fashion;;2017;S,HBHMDRSS00000109,M,HBHMDRSS00000110,L,HBHMDRSS00000111,XL,HBHMDRSS00000112;1299.00;;;;;;;;zerotype;;Summer;;No
1826820;11227-Black-1826820;Hubberholme Dress;Draft;Dresses;Hubberholme;Adults-Women;Women;;;;Fashion;;2017;S,HBHMDRSS00000105,M,HBHMDRSS00000106,L,HBHMDRSS00000107,XL,HBHMDRSS00000108;1299.00;;;;;;;;zerotype;;Summer;;No
1826817;11226-Black-1826817;Hubberholme Dress;Draft;Dresses;Hubberholme;Adults-Women;Women;;;;Fashion;;2017;S,HBHMDRSS00000101,M,HBHMDRSS00000102,L,HBHMDRSS00000103,XL,HBHMDRSS00000104;1299.00;;;;;;;;zerotype;;Summer;;No
1826815;11225-Black-1826815;Hubberholme Dress;Draft;Dresses;Hubberholme;Adults-Women;Women;;;;Fashion;;2017;S,HBHMDRSS00000097,M,HBHMDRSS00000098,L,HBHMDRSS00000099,XL,HBHMDRSS00000100;1299.00;;;;;;;;zerotype;;Summer;;No
1826812;11224-Navy Blue-1826812;Hubberholme Dress;Draft;Dresses;Hubberholme;Adults-Women;Women;;;;Fashion;;2017;S,HBHMDRSS00000093,M,HBHMDRSS00000094,L,HBHMDRSS00000095,XL,HBHMDRSS00000096;1299.00;;;;;;;;zerotype;;Summer;;No
1826810;11223-Navy Blue-1826810;Hubberholme Dress;Draft;Dresses;Hubberholme;Adults-Women;Women;;;;Fashion;;2017;S,HBHMDRSS00000089,M,HBHMDRSS00000090,L,HBHMDRSS00000091,XL,HBHMDRSS00000092;1299.00;;;;;;;;zerotype;;Summer;;No
1826807;11222-Navy Blue-1826807;Hubberholme Dress;Draft;Dresses;Hubberholme;Adults-Women;Women;;;;Fashion;;2017;S,HBHMDRSS00000085,M,HBHMDRSS00000086,L,HBHMDRSS00000087,XL,HBHMDRSS00000088;1299.00;;;;;;;;zerotype;;Summer;;No
1826805;11221-Navy Blue-1826805;Hubberholme Dress;Draft;Dresses;Hubberholme;Adults-Women;Women;;;;Fashion;;2017;S,HBHMDRSS00000081,M,HBHMDRSS00000082,L,HBHMDRSS00000083,XL,HBHMDRSS00000084;1299.00;;;;;;;;zerotype;;Summer;;No
1805417;6998-Charcoal-1805417;Hubberholme Slim Fit Applique Trackpants;Draft;Track Pants;Hubberholme;Adults-Men;Men;;;;Core;;2017;30,HBHMTRPT00000715,32,HBHMTRPT00000716,34,HBHMTRPT00000717,36,HBHMTRPT00000718,38,HBHMTRPT00000719,40,HBHMTRPT00000720,42,HBHMTRPT00000721;999.00;;;;;;;;zerotype;;Summer;;No
1805416;6997-Charcoal-1805416;Hubberholme Slim Fit Applique Trackpants;Draft;Track Pants;Hubberholme;Adults-Men;Men;;;;Core;;2017;30,HBHMTRPT00000708,32,HBHMTRPT00000709,34,HBHMTRPT00000710,36,HBHMTRPT00000711,38,HBHMTRPT00000712,40,HBHMTRPT00000713,42,HBHMTRPT00000714;999.00;;;;;;;;zerotype;;Summer;;No
1805415;6996-Charcoal-1805415;Hubberholme Slim Fit Applique Trackpants;Draft;Track Pants;Hubberholme;Adults-Men;Men;;;;Core;;2017;30,HBHMTRPT00000701,32,HBHMTRPT00000702,34,HBHMTRPT00000703,36,HBHMTRPT00000704,38,HBHMTRPT00000705,40,HBHMTRPT00000706,42,HBHMTRPT00000707;999.00;;;;;;;;zerotype;;Summer;;No
1805414;6995-Charcoal-1805414;Hubberholme Slim Fit Applique Trackpants;Draft;Track Pants;Hubberholme;Adults-Men;Men;;;;Core;;2017;30,HBHMTRPT00000694,32,HBHMTRPT00000695,34,HBHMTRPT00000696,36,HBHMTRPT00000697,38,HBHMTRPT00000698,40,HBHMTRPT00000699,42,HBHMTRPT00000700;999.00;;;;;;;;zerotype;;Summer;;No
1805413;6994-Grey-1805413;Hubberholme Slim Fit Applique Trackpants;Draft;Track Pants;Hubberholme;Adults-Men;Men;;;;Core;;2017;30,HBHMTRPT00000687,32,HBHMTRPT00000688,34,HBHMTRPT00000689,36,HBHMTRPT00000690,38,HBHMTRPT00000691,40,HBHMTRPT00000692,42,HBHMTRPT00000693;999.00;;;;;;;;zerotype;;Summer;;No
1805412;6993-Grey-1805412;Hubberholme Slim Fit Applique Trackpants;Draft;Track Pants;Hubberholme;Adults-Men;Men;;;;Core;;2017;30,HBHMTRPT00000680,32,HBHMTRPT00000681,34,HBHMTRPT00000682,36,HBHMTRPT00000683,38,HBHMTRPT00000684,40,HBHMTRPT00000685,42,HBHMTRPT00000686;999.00;;;;;;;;zerotype;;Summer;;No
1805411;6992-Grey-1805411;Hubberholme Slim Fit Applique Trackpants;Draft;Track Pants;Hubberholme;Adults-Men;Men;;;;Core;;2017;30,HBHMTRPT00000673,32,HBHMTRPT00000674,34,HBHMTRPT00000675,36,HBHMTRPT00000676,38,HBHMTRPT00000677,40,HBHMTRPT00000678,42,HBHMTRPT00000679;999.00;;;;;;;;zerotype;;Summer;;No
1805410;6991-Grey-1805410;Hubberholme Slim Fit Applique Trackpants;Draft;Track Pants;Hubberholme;Adults-Men;Men;;;;Core;;2017;30,HBHMTRPT00000666,32,HBHMTRPT00000667,34,HBHMTRPT00000668,36,HBHMTRPT00000669,38,HBHMTRPT00000670,40,HBHMTRPT00000671,42,HBHMTRPT00000672;999.00;;;;;;;;zerotype;;Summer;;No
1805409;6990-Navy-1805409;Hubberholme Slim Fit Applique Trackpants;Draft;Track Pants;Hubberholme;Adults-Men;Men;;;;Core;;2017;30,HBHMTRPT00000659,32,HBHMTRPT00000660,34,HBHMTRPT00000661,36,HBHMTRPT00000662,38,HBHMTRPT00000663,40,HBHMTRPT00000664,42,HBHMTRPT00000665;999.00;;;;;;;;zerotype;;Summer;;No
1805408;6989-Navy-1805408;Hubberholme Slim Fit Applique Trackpants;Draft;Track Pants;Hubberholme;Adults-Men;Men;;;;Core;;2017;30,HBHMTRPT00000652,32,HBHMTRPT00000653,34,HBHMTRPT00000654,36,HBHMTRPT00000655,38,HBHMTRPT00000656,40,HBHMTRPT00000657,42,HBHMTRPT00000658;999.00;;;;;;;;zerotype;;Summer;;No
1805407;6988-Navy-1805407;Hubberholme Slim Fit Applique Trackpants;Draft;Track Pants;Hubberholme;Adults-Men;Men;;;;Core;;2017;30,HBHMTRPT00000645,32,HBHMTRPT00000646,34,HBHMTRPT00000647,36,HBHMTRPT00000648,38,HBHMTRPT00000649,40,HBHMTRPT00000650,42,HBHMTRPT00000651;999.00;;;;;;;;zerotype;;Summer;;No
1805406;6987-Navy-1805406;Hubberholme Slim Fit Applique Trackpants;Draft;Track Pants;Hubberholme;Adults-Men;Men;;;;Core;;2017;30,HBHMTRPT00000638,32,HBHMTRPT00000639,34,HBHMTRPT00000640,36,HBHMTRPT00000641,38,HBHMTRPT00000642,40,HBHMTRPT00000643,42,HBHMTRPT00000644;999.00;;;;;;;;zerotype;;Summer;;No
1805405;6986-Black-1805405;Hubberholme Slim Fit Applique Trackpants;Draft;Track Pants;Hubberholme;Adults-Men;Men;;;;Core;;2017;30,HBHMTRPT00000631,32,HBHMTRPT00000632,34,HBHMTRPT00000633,36,HBHMTRPT00000634,38,HBHMTRPT00000635,40,HBHMTRPT00000636,42,HBHMTRPT00000637;999.00;;;;;;;;zerotype;;Summer;;No
1805404;6985-Black-1805404;Hubberholme Slim Fit Applique Trackpants;Draft;Track Pants;Hubberholme;Adults-Men;Men;;;;Core;;2017;30,HBHMTRPT00000624,32,HBHMTRPT00000625,34,HBHMTRPT00000626,36,HBHMTRPT00000627,38,HBHMTRPT00000628,40,HBHMTRPT00000629,42,HBHMTRPT00000630;999.00;;;;;;;;zerotype;;Summer;;No
1805403;6984-Black-1805403;Hubberholme Slim Fit Applique Trackpants;Draft;Track Pants;Hubberholme;Adults-Men;Men;;;;Core;;2017;30,HBHMTRPT00000617,32,HBHMTRPT00000618,34,HBHMTRPT00000619,36,HBHMTRPT00000620,38,HBHMTRPT00000621,40,HBHMTRPT00000622,42,HBHMTRPT00000623;999.00;;;;;;;;zerotype;;Summer;;No
1805402;6983-Black-1805402;Hubberholme Slim Fit Applique Trackpants;Draft;Track Pants;Hubberholme;Adults-Men;Men;;;;Core;;2017;30,HBHMTRPT00000610,32,HBHMTRPT00000611,34,HBHMTRPT00000612,36,HBHMTRPT00000613,38,HBHMTRPT00000614,40,HBHMTRPT00000615,42,HBHMTRPT00000616;999.00;;;;;;;;zerotype;;Summer;;No
1805401;8211-Brown-1805401;Hubberholme Detachable Trouser;Draft;Trousers;Hubberholme;Adults-Men;Men;;;;Fashion;;2017;30,HBHMTRSR00001924,32,HBHMTRSR00001925,34,HBHMTRSR00001926,36,HBHMTRSR00001927,38,HBHMTRSR00001928,40,HBHMTRSR00001929,42,HBHMTRSR00001930;1499.00;;;;;;;;zerotype;;Summer;;No
1805400;8011-Brown-1805400;Hubberholme Cargo Trousers;Draft;Trousers;Hubberholme;Adults-Men;Men;;;;Fashion;;2017;30,HBHMTRSR00001917,32,HBHMTRSR00001918,34,HBHMTRSR00001919,36,HBHMTRSR00001920,38,HBHMTRSR00001921,40,HBHMTRSR00001922,42,HBHMTRSR00001923;1499.00;;;;;;;;zerotype;;Summer;;No
1805399;8210-Navy Blue-1805399;Hubberholme Detachable Trouser;Draft;Trousers;Hubberholme;Adults-Men;Men;;;;Fashion;;2017;30,HBHMTRSR00001910,32,HBHMTRSR00001911,34,HBHMTRSR00001912,36,HBHMTRSR00001913,38,HBHMTRSR00001914,40,HBHMTRSR00001915,42,HBHMTRSR00001916;1499.00;;;;;;;;zerotype;;Summer;;No
1805398;8209-Black-1805398;Hubberholme Detachable Trouser;Draft;Trousers;Hubberholme;Adults-Men;Men;;;;Fashion;;2017;30,HBHMTRSR00001903,32,HBHMTRSR00001904,34,HBHMTRSR00001905,36,HBHMTRSR00001906,38,HBHMTRSR00001907,40,HBHMTRSR00001908,42,HBHMTRSR00001909;1499.00;;;;;;;;zerotype;;Summer;;No
1805397;8208-Light Grey-1805397;Hubberholme Detachable Trouser;Draft;Trousers;Hubberholme;Adults-Men;Men;;;;Fashion;;2017;30,HBHMTRSR00001896,32,HBHMTRSR00001897,34,HBHMTRSR00001898,36,HBHMTRSR00001899,38,HBHMTRSR00001900,40,HBHMTRSR00001901,42,HBHMTRSR00001902;1499.00;;;;;;;;zerotype;;Summer;;No
1805396;8207-Grey-1805396;Hubberholme Detachable Trouser;Draft;Trousers;Hubberholme;Adults-Men;Men;;;;Fashion;;2017;30,HBHMTRSR00001889,32,HBHMTRSR00001890,34,HBHMTRSR00001891,36,HBHMTRSR00001892,38,HBHMTRSR00001893,40,HBHMTRSR00001894,42,HBHMTRSR00001895;1499.00;;;;;;;;zerotype;;Summer;;No
1805394;8204-Green-1805394;Hubberholme Detachable Trouser;Draft;Trousers;Hubberholme;Adults-Men;Men;;;;Fashion;;2017;30,HBHMTRSR00001875,32,HBHMTRSR00001876,34,HBHMTRSR00001877,36,HBHMTRSR00001878,38,HBHMTRSR00001879,40,HBHMTRSR00001880,42,HBHMTRSR00001881;1499.00;;;;;;;;zerotype;;Summer;;No
1805393;8202-Khaki-1805393;Hubberholme Detachable Trouser;Draft;Trousers;Hubberholme;Adults-Men;Men;;;;Fashion;;2017;30,HBHMTRSR00001868,32,HBHMTRSR00001869,34,HBHMTRSR00001870,36,HBHMTRSR00001871,38,HBHMTRSR00001872,40,HBHMTRSR00001873,42,HBHMTRSR00001874;1499.00;;;;;;;;zerotype;;Summer;;No
1805392;8201-Beige-1805392;Hubberholme Detachable Trouser;Draft;Trousers;Hubberholme;Adults-Men;Men;;;;Fashion;;2017;30,HBHMTRSR00001861,32,HBHMTRSR00001862,34,HBHMTRSR00001863,36,HBHMTRSR00001864,38,HBHMTRSR00001865,40,HBHMTRSR00001866,42,HBHMTRSR00001867;1499.00;;;;;;;;zerotype;;Summer;;No
1805391;8010-Navy Blue-1805391;Hubberholme Cargo Trousers;Draft;Trousers;Hubberholme;Adults-Men;Men;;;;Fashion;;2017;30,HBHMTRSR00001854,32,HBHMTRSR00001855,34,HBHMTRSR00001856,36,HBHMTRSR00001857,38,HBHMTRSR00001858,40,HBHMTRSR00001859,42,HBHMTRSR00001860;1499.00;;;;;;;;zerotype;;Summer;;No
1805390;8009-Black-1805390;Hubberholme Cargo Trousers;Draft;Trousers;Hubberholme;Adults-Men;Men;;;;Fashion;;2017;30,HBHMTRSR00001847,32,HBHMTRSR00001848,34,HBHMTRSR00001849,36,HBHMTRSR00001850,38,HBHMTRSR00001851,40,HBHMTRSR00001852,42,HBHMTRSR00001853;1499.00;;;;;;;;zerotype;;Summer;;No
1805389;8008-Light Grey-1805389;Hubberholme Cargo Trousers;Draft;Trousers;Hubberholme;Adults-Men;Men;;;;Fashion;;2017;30,HBHMTRSR00001840,32,HBHMTRSR00001841,34,HBHMTRSR00001842,36,HBHMTRSR00001843,38,HBHMTRSR00001844,40,HBHMTRSR00001845,42,HBHMTRSR00001846;1499.00;;;;;;;;zerotype;;Summer;;No
1805388;8007-Grey-1805388;Hubberholme Cargo Trousers;Draft;Trousers;Hubberholme;Adults-Men;Men;;;;Fashion;;2017;30,HBHMTRSR00001833,32,HBHMTRSR00001834,34,HBHMTRSR00001835,36,HBHMTRSR00001836,38,HBHMTRSR00001837,40,HBHMTRSR00001838,42,HBHMTRSR00001839;1499.00;;;;;;;;zerotype;;Summer;;No
1805386;8004-Green-1805386;Hubberholme Cargo Trousers;Draft;Trousers;Hubberholme;Adults-Men;Men;;;;Fashion;;2017;30,HBHMTRSR00001819,32,HBHMTRSR00001820,34,HBHMTRSR00001821,36,HBHMTRSR00001822,38,HBHMTRSR00001823,40,HBHMTRSR00001824,42,HBHMTRSR00001825;1499.00;;;;;;;;zerotype;;Summer;;No
1805385;8002-Khaki-1805385;Hubberholme Cargo Trousers;Draft;Trousers;Hubberholme;Adults-Men;Men;;;;Fashion;;2017;30,HBHMTRSR00001812,32,HBHMTRSR00001813,34,HBHMTRSR00001814,36,HBHMTRSR00001815,38,HBHMTRSR00001816,40,HBHMTRSR00001817,42,HBHMTRSR00001818;1499.00;;;;;;;;zerotype;;Summer;;No
1805384;8001-Beige-1805384;Hubberholme Cargo Trousers;Draft;Trousers;Hubberholme;Adults-Men;Men;;;;Fashion;;2017;30,HBHMTRSR00001805,32,HBHMTRSR00001806,34,HBHMTRSR00001807,36,HBHMTRSR00001808,38,HBHMTRSR00001809,40,HBHMTRSR00001810,42,HBHMTRSR00001811;1499.00;;;;;;;;zerotype;;Summer;;No
1805383;8511-Brown-1805383;Hubberholme Cargo Shorts;Draft;Shorts;Hubberholme;Adults-Men;Men;;;;Fashion;;2017;30,HBHMSHOR00000445,32,HBHMSHOR00000446,34,HBHMSHOR00000447,36,HBHMSHOR00000448,38,HBHMSHOR00000449,40,HBHMSHOR00000450,42,HBHMSHOR00000451;1299.00;;;;;;;;zerotype;;Summer;;No
1805382;8411-Brown-1805382;Hubberholme Street Easy Shorts;Draft;Shorts;Hubberholme;Adults-Men;Men;;;;Fashion;;2017;30,HBHMSHOR00000438,32,HBHMSHOR00000439,34,HBHMSHOR00000440,36,HBHMSHOR00000441,38,HBHMSHOR00000442,40,HBHMSHOR00000443,42,HBHMSHOR00000444;1299.00;;;;;;;;zerotype;;Summer;;No
1805381;8311-Brown-1805381;Hubberholme Shorts;Draft;Shorts;Hubberholme;Adults-Men;Men;;;;Fashion;;2017;30,HBHMSHOR00000431,32,HBHMSHOR00000432,34,HBHMSHOR00000433,36,HBHMSHOR00000434,38,HBHMSHOR00000435,40,HBHMSHOR00000436,42,HBHMSHOR00000437;1299.00;;;;;;;;zerotype;;Summer;;No
1805380;8510-Navy Blue-1805380;Hubberholme Cargo Shorts;Draft;Shorts;Hubberholme;Adults-Men;Men;;;;Fashion;;2017;30,HBHMSHOR00000424,32,HBHMSHOR00000425,34,HBHMSHOR00000426,36,HBHMSHOR00000427,38,HBHMSHOR00000428,40,HBHMSHOR00000429,42,HBHMSHOR00000430;1299.00;;;;;;;;zerotype;;Summer;;No
1805379;8509-Black-1805379;Hubberholme Cargo Shorts;Draft;Shorts;Hubberholme;Adults-Men;Men;;;;Fashion;;2017;30,HBHMSHOR00000417,32,HBHMSHOR00000418,34,HBHMSHOR00000419,36,HBHMSHOR00000420,38,HBHMSHOR00000421,40,HBHMSHOR00000422,42,HBHMSHOR00000423;1299.00;;;;;;;;zerotype;;Summer;;No
1805378;8508-Light Grey-1805378;Hubberholme Cargo Shorts;Draft;Shorts;Hubberholme;Adults-Men;Men;;;;Fashion;;2017;30,HBHMSHOR00000410,32,HBHMSHOR00000411,34,HBHMSHOR00000412,36,HBHMSHOR00000413,38,HBHMSHOR00000414,40,HBHMSHOR00000415,42,HBHMSHOR00000416;1299.00;;;;;;;;zerotype;;Summer;;No
1805377;8507-Grey-1805377;Hubberholme Cargo Shorts;Draft;Shorts;Hubberholme;Adults-Men;Men;;;;Fashion;;2017;30,HBHMSHOR00000403,32,HBHMSHOR00000404,34,HBHMSHOR00000405,36,HBHMSHOR00000406,38,HBHMSHOR00000407,40,HBHMSHOR00000408,42,HBHMSHOR00000409;1299.00;;;;;;;;zerotype;;Summer;;No
1805375;8504-Green-1805375;Hubberholme Cargo Shorts;Draft;Shorts;Hubberholme;Adults-Men;Men;;;;Fashion;;2017;30,HBHMSHOR00000389,32,HBHMSHOR00000390,34,HBHMSHOR00000391,36,HBHMSHOR00000392,38,HBHMSHOR00000393,40,HBHMSHOR00000394,42,HBHMSHOR00000395;1299.00;;;;;;;;zerotype;;Summer;;No
1805374;8502-Khaki-1805374;Hubberholme Cargo Shorts;Draft;Shorts;Hubberholme;Adults-Men;Men;;;;Fashion;;2017;30,HBHMSHOR00000382,32,HBHMSHOR00000383,34,HBHMSHOR00000384,36,HBHMSHOR00000385,38,HBHMSHOR00000386,40,HBHMSHOR00000387,42,HBHMSHOR00000388;1299.00;;;;;;;;zerotype;;Summer;;No
1805373;8501-Beige-1805373;Hubberholme Cargo Shorts;Draft;Shorts;Hubberholme;Adults-Men;Men;;;;Fashion;;2017;30,HBHMSHOR00000375,32,HBHMSHOR00000376,34,HBHMSHOR00000377,36,HBHMSHOR00000378,38,HBHMSHOR00000379,40,HBHMSHOR00000380,42,HBHMSHOR00000381;1299.00;;;;;;;;zerotype;;Summer;;No
1805372;8410-Navy Blue-1805372;Hubberholme Street Easy Shorts;Draft;Shorts;Hubberholme;Adults-Men;Men;;;;Fashion;;2017;30,HBHMSHOR00000368,32,HBHMSHOR00000369,34,HBHMSHOR00000370,36,HBHMSHOR00000371,38,HBHMSHOR00000372,40,HBHMSHOR00000373,42,HBHMSHOR00000374;1299.00;;;;;;;;zerotype;;Summer;;No
1805371;8409-Black-1805371;Hubberholme Street Easy Shorts;Draft;Shorts;Hubberholme;Adults-Men;Men;;;;Fashion;;2017;30,HBHMSHOR00000361,32,HBHMSHOR00000362,34,HBHMSHOR00000363,36,HBHMSHOR00000364,38,HBHMSHOR00000365,40,HBHMSHOR00000366,42,HBHMSHOR00000367;1299.00;;;;;;;;zerotype;;Summer;;No
1805370;8408-Light Grey-1805370;Hubberholme Street Easy Shorts;Draft;Shorts;Hubberholme;Adults-Men;Men;;;;Fashion;;2017;30,HBHMSHOR00000354,32,HBHMSHOR00000355,34,HBHMSHOR00000356,36,HBHMSHOR00000357,38,HBHMSHOR00000358,40,HBHMSHOR00000359,42,HBHMSHOR00000360;1299.00;;;;;;;;zerotype;;Summer;;No
1805369;8407-Grey-1805369;Hubberholme Street Easy Shorts;Draft;Shorts;Hubberholme;Adults-Men;Men;;;;Fashion;;2017;30,HBHMSHOR00000347,32,HBHMSHOR00000348,34,HBHMSHOR00000349,36,HBHMSHOR00000350,38,HBHMSHOR00000351,40,HBHMSHOR00000352,42,HBHMSHOR00000353;1299.00;;;;;;;;zerotype;;Summer;;No
1805367;8404-Green-1805367;Hubberholme Street Easy Shorts;Draft;Shorts;Hubberholme;Adults-Men;Men;;;;Fashion;;2017;30,HBHMSHOR00000333,32,HBHMSHOR00000334,34,HBHMSHOR00000335,36,HBHMSHOR00000336,38,HBHMSHOR00000337,40,HBHMSHOR00000338,42,HBHMSHOR00000339;1299.00;;;;;;;;zerotype;;Summer;;No
1805366;8402-Khaki-1805366;Hubberholme Street Easy Shorts;Draft;Shorts;Hubberholme;Adults-Men;Men;;;;Fashion;;2017;30,HBHMSHOR00000326,32,HBHMSHOR00000327,34,HBHMSHOR00000328,36,HBHMSHOR00000329,38,HBHMSHOR00000330,40,HBHMSHOR00000331,42,HBHMSHOR00000332;1299.00;;;;;;;;zerotype;;Summer;;No
1805365;8401-Beige-1805365;Hubberholme Street Easy Shorts;Draft;Shorts;Hubberholme;Adults-Men;Men;;;;Fashion;;2017;30,HBHMSHOR00000319,32,HBHMSHOR00000320,34,HBHMSHOR00000321,36,HBHMSHOR00000322,38,HBHMSHOR00000323,40,HBHMSHOR00000324,42,HBHMSHOR00000325;1299.00;;;;;;;;zerotype;;Summer;;No
1805364;8310-Navy Blue-1805364;Hubberholme Shorts;Draft;Shorts;Hubberholme;Adults-Men;Men;;;;Fashion;;2017;30,HBHMSHOR00000312,32,HBHMSHOR00000313,34,HBHMSHOR00000314,36,HBHMSHOR00000315,38,HBHMSHOR00000316,40,HBHMSHOR00000317,42,HBHMSHOR00000318;1299.00;;;;;;;;zerotype;;Summer;;No
1805363;8309-Black-1805363;Hubberholme Shorts;Draft;Shorts;Hubberholme;Adults-Men;Men;;;;Fashion;;2017;30,HBHMSHOR00000305,32,HBHMSHOR00000306,34,HBHMSHOR00000307,36,HBHMSHOR00000308,38,HBHMSHOR00000309,40,HBHMSHOR00000310,42,HBHMSHOR00000311;1299.00;;;;;;;;zerotype;;Summer;;No
1805362;8308-Light Grey-1805362;Hubberholme Shorts;Draft;Shorts;Hubberholme;Adults-Men;Men;;;;Fashion;;2017;30,HBHMSHOR00000298,32,HBHMSHOR00000299,34,HBHMSHOR00000300,36,HBHMSHOR00000301,38,HBHMSHOR00000302,40,HBHMSHOR00000303,42,HBHMSHOR00000304;1299.00;;;;;;;;zerotype;;Summer;;No
1805361;8307-Grey-1805361;Hubberholme Shorts;Draft;Shorts;Hubberholme;Adults-Men;Men;;;;Fashion;;2017;30,HBHMSHOR00000291,32,HBHMSHOR00000292,34,HBHMSHOR00000293,36,HBHMSHOR00000294,38,HBHMSHOR00000295,40,HBHMSHOR00000296,42,HBHMSHOR00000297;1299.00;;;;;;;;zerotype;;Summer;;No
1805359;8304-Green-1805359;Hubberholme Shorts;Draft;Shorts;Hubberholme;Adults-Men;Men;;;;Fashion;;2017;30,HBHMSHOR00000277,32,HBHMSHOR00000278,34,HBHMSHOR00000279,36,HBHMSHOR00000280,38,HBHMSHOR00000281,40,HBHMSHOR00000282,42,HBHMSHOR00000283;1299.00;;;;;;;;zerotype;;Summer;;No
1805358;8302-Khaki-1805358;Hubberholme Shorts;Draft;Shorts;Hubberholme;Adults-Men;Men;;;;Fashion;;2017;30,HBHMSHOR00000270,32,HBHMSHOR00000271,34,HBHMSHOR00000272,36,HBHMSHOR00000273,38,HBHMSHOR00000274,40,HBHMSHOR00000275,42,HBHMSHOR00000276;1299.00;;;;;;;;zerotype;;Summer;;No
1805357;8301-Beige-1805357;Hubberholme Shorts;Draft;Shorts;Hubberholme;Adults-Men;Men;;;;Fashion;;2017;30,HBHMSHOR00000263,32,HBHMSHOR00000264,34,HBHMSHOR00000265,36,HBHMSHOR00000266,38,HBHMSHOR00000267,40,HBHMSHOR00000268,42,HBHMSHOR00000269;1299.00;;;;;;;;zerotype;;Summer;;No
