Style ID;Vendor Article Number;Vendor Article Name;Active Status;Article type;Brand;Age Group;Gender;Base Colour;Colour1;Colour2;Fashion Type;Usage;Year;Size - SKU code pair;MRP;Style Description;Style Note;Materials and Care Description;Size and Fit Description;Size Chart Path;Product Display Name;Tags;Product Type;Classification Brand;Season;Comments;Upload Images
2508619;NIW17-192P-Navy-2508619;Printed romper__Summer Onset;Draft;Jumpsuit;Nauti Nati;Kids-Girls;Girls;Navy Blue;;;Fashion;;2018;6-12M,NTNTJMST00000278,12-18M,NTNTJMST00000279,18-24M,NTNTJMST00000280,2-3Y,NTNTJMST00000281;899.00;;;<p>100% Cotton</p>;;;;;zerotype;;Summer;;No
2508618;NIW17-354P-Black-Ecru-2508618;Printed Jumpsuit;Draft;Jumpsuit;Nauti Nati;Kids-Girls;Girls;Black;;;Fashion;;2018;4Y,NTNTJMST00000273,5Y,NTNTJMST00000274,6Y,NTNTJMST00000275,7Y,NTNTJMST00000276,8Y,NTNTJMST00000277;1199.00;;;<p>100%Polyester</p>;;;;;zerotype;;Summer;;No
2508617;NIW17-408P-MultiColor-2508617;Girls Dress;Draft;Dresses;Nauti Nati;Kids-Girls;Girls;Multi;;;Fashion;;2018;6-12M,NTNTDRSS00005655,12-18M,NTNTDRSS00005656,18-24M,NTNTDRSS00005657,2-3Y,NTNTDRSS00005658;1349.00;;;<p>100% Cotton</p>;;;;;zerotype;;Summer;;No
2508616;NIW17-014N-NAVY-2508616;Girls Dress;Draft;Dresses;Nauti Nati;Kids-Girls;Girls;Navy Blue;;;Fashion;;2018;4Y,NTNTDRSS00005650,5Y,NTNTDRSS00005651,6Y,NTNTDRSS00005652,7Y,NTNTDRSS00005653,8Y,NTNTDRSS00005654;1349.00;;;<p>100% Cotton</p>;;;;;zerotype;;Summer;;No
2508615;NIW17-113P-Blue-Purple-2508615;GirlsDress;Draft;Dresses;Nauti Nati;Kids-Girls;Girls;Blue;;;Fashion;;2018;4Y,NTNTDRSS00005645,5Y,NTNTDRSS00005646,6Y,NTNTDRSS00005647,7Y,NTNTDRSS00005648,8Y,NTNTDRSS00005649;1699.00;;;<p>100% Polyester</p>;;;;;zerotype;;Summer;;No
2508614;NIW17-687P-NAVY-2508614;GirlsDress;Draft;Dresses;Nauti Nati;Kids-Girls;Girls;Navy Blue;;;Fashion;;2018;4Y,NTNTDRSS00005640,5Y,NTNTDRSS00005641,6Y,NTNTDRSS00005642,7Y,NTNTDRSS00005643,8Y,NTNTDRSS00005644;1699.00;;;<p>100% Cotton</p>;;;;;zerotype;;Summer;;No
2508613;NIW17-182P-LIGHT-PEACH-2508613;GirlsDress;Draft;Dresses;Nauti Nati;Kids-Girls;Girls;Peach;;;Fashion;;2018;6-12M,NTNTDRSS00005636,12-18M,NTNTDRSS00005637,18-24M,NTNTDRSS00005638,2-3Y,NTNTDRSS00005639;999.00;;;<p>100% Polyester</p>;;;;;zerotype;;Summer;;No
2508612;NIW17-052P-PINK-2508612;GirlsDress;Draft;Dresses;Nauti Nati;Kids-Girls;Girls;Pink;;;Fashion;;2018;6-12M,NTNTDRSS00005632,12-18M,NTNTDRSS00005633,18-24M,NTNTDRSS00005634,2-3Y,NTNTDRSS00005635;1149.00;;;<p>100% Cotton</p>;;;;;zerotype;;Summer;;No
2508611;NIW17-021P-FUSCHIA-2508611;GirlsDress;Draft;Dresses;Nauti Nati;Kids-Girls;Girls;Fuchsia;;;Fashion;;2018;4Y,NTNTDRSS00005627,5Y,NTNTDRSS00005628,6Y,NTNTDRSS00005629,7Y,NTNTDRSS00005630,8Y,NTNTDRSS00005631;1049.00;;;<p>100% Polyester</p>;;;;;zerotype;;Summer;;No
2508610;NIW17-235P-OFFWHITE-BLUE-2508610;GirlsDress;Draft;Dresses;Nauti Nati;Kids-Girls;Girls;Off White;;;Fashion;;2018;4Y,NTNTDRSS00005622,5Y,NTNTDRSS00005623,6Y,NTNTDRSS00005624,7Y,NTNTDRSS00005625,8Y,NTNTDRSS00005626;1349.00;;;<p>100% Polyester</p>;;;;;zerotype;;Summer;;No
2508609;NIW17-084P-CORAL-2508609;GirlsDress;Draft;Dresses;Nauti Nati;Kids-Girls;Girls;Coral;;;Fashion;;2018;6-12M,NTNTDRSS00005618,12-18M,NTNTDRSS00005619,18-24M,NTNTDRSS00005620,2-3Y,NTNTDRSS00005621;1049.00;;;<p>100% Cotton</p>;;;;;zerotype;;Summer;;No
2508608;NIW17-087P-PINK-2508608;GirlsDress;Draft;Dresses;Nauti Nati;Kids-Girls;Girls;Pink;;;Fashion;;2018;6-12M,NTNTDRSS00005614,12-18M,NTNTDRSS00005615,18-24M,NTNTDRSS00005616,2-3Y,NTNTDRSS00005617;1049.00;;;<p>100% Cotton</p>;;;;;zerotype;;Summer;;No
2508607;NIW17-780P-MultiColor-2508607;GirlsDress;Draft;Dresses;Nauti Nati;Kids-Girls;Girls;Multi;;;Fashion;;2018;4Y,NTNTDRSS00005609,5Y,NTNTDRSS00005610,6Y,NTNTDRSS00005611,7Y,NTNTDRSS00005612,8Y,NTNTDRSS00005613;1199.00;;;<p>100% Cotton</p>;;;;;zerotype;;Summer;;No
2508606;NIW17-037P-Offwhite-pink-2508606;GirlsDress;Draft;Dresses;Nauti Nati;Kids-Girls;Girls;Off White;;;Fashion;;2018;6-12M,NTNTDRSS00005605,12-18M,NTNTDRSS00005606,18-24M,NTNTDRSS00005607,2-3Y,NTNTDRSS00005608;1549.00;;;<p>100% Cotton</p>;;;;;zerotype;;Summer;;No
2508605;NIW17-408-MultiColor-2508605;GirlsDress;Draft;Dresses;Nauti Nati;Kids-Girls;Girls;Multi;;;Fashion;;2018;6-12M,NTNTDRSS00005601,12-18M,NTNTDRSS00005602,18-24M,NTNTDRSS00005603,2-3Y,NTNTDRSS00005604;1349.00;;;<p>100% Cotton</p>;;;;;zerotype;;Summer;;No
2508604;NIW17-071B-OFFWHITE-BLUE-2508604;GirlsDress;Draft;Dresses;Nauti Nati;Kids-Girls;Girls;Off White;;;Fashion;;2018;6-12M,NTNTDRSS00005597,12-18M,NTNTDRSS00005598,18-24M,NTNTDRSS00005599,2-3Y,NTNTDRSS00005600;1199.00;;;<p>100% Cotton</p>;;;;;zerotype;;Summer;;No
2508603;NIW17-037B-OFFWHITE-BLUE-2508603;GirlsDress;Draft;Dresses;Nauti Nati;Kids-Girls;Girls;Off White;;;Fashion;;2018;6-12M,NTNTDRSS00005593,12-18M,NTNTDRSS00005594,18-24M,NTNTDRSS00005595,2-3Y,NTNTDRSS00005596;1549.00;;;<p>100% Cotton</p>;;;;;zerotype;;Summer;;No
2508602;NIW17-132P-MultiColor-2508602;Printed Chiffon Dress__Summer Onset;Draft;Dresses;Nauti Nati;Kids-Girls;Girls;Multi;;;Fashion;;2018;4Y,NTNTDRSS00005588,5Y,NTNTDRSS00005589,6Y,NTNTDRSS00005590,7Y,NTNTDRSS00005591,8Y,NTNTDRSS00005592;1099.00;;;<p>100% Polyester</p>;;;;;zerotype;;Summer;;No
2508601;NIW17-044P-Navy-Green-2508601;Girls Dress;Draft;Dresses;Nauti Nati;Kids-Girls;Girls;Navy Blue;;;Fashion;;2018;4Y,NTNTDRSS00005583,5Y,NTNTDRSS00005584,6Y,NTNTDRSS00005585,7Y,NTNTDRSS00005586,8Y,NTNTDRSS00005587;1349.00;;;<p>100% Cotton</p>;;;;;zerotype;;Summer;;No
2508600;NIW17-309P-Light-Pink-2508600;Girls  Dress;Draft;Dresses;Nauti Nati;Kids-Girls;Girls;Pink;;;Fashion;;2018;4Y,NTNTDRSS00005578,5Y,NTNTDRSS00005579,6Y,NTNTDRSS00005580,7Y,NTNTDRSS00005581,8Y,NTNTDRSS00005582;1199.00;;;<p>100% Polyester</p>;;;;;zerotype;;Summer;;No
