Style ID;Vendor Article Number;Vendor Article Name;Active Status;Article type;Brand;Age Group;Gender;Base Colour;Colour1;Colour2;Fashion Type;Usage;Year;Size - SKU code pair;MRP;Style Description;Style Note;Materials and Care Description;Size and Fit Description;Size Chart Path;Product Display Name;Tags;Product Type;Classification Brand;Season;Comments;Upload Images
1966782;rbrf_507-Beige Maroon-1966782;rbrf_507;Draft;Dress Material;OOMPH;Adults-Women;Women;;;;Core;;2017;Onesize,OOPHDRMT00000023;3000.00;;;;;;;;zerotype;;Fall;;No
1966781;rbrf_215-Brown Green-1966781;rbrf_215;Draft;Dress Material;OOMPH;Adults-Women;Women;;;;Core;;2017;Onesize,OOPHDRMT00000022;2670.00;;;;;;;;zerotype;;Fall;;No
1966780;rbrf_213-Green Red-1966780;rbrf_213;Draft;Dress Material;OOMPH;Adults-Women;Women;;;;Core;;2017;Onesize,OOPHDRMT00000021;2670.00;;;;;;;;zerotype;;Fall;;No
1966779;rbrf_211-Orange Pink-1966779;rbrf_211;Draft;Dress Material;OOMPH;Adults-Women;Women;;;;Core;;2017;Onesize,OOPHDRMT00000020;2670.00;;;;;;;;zerotype;;Fall;;No
1966778;rbrf_210-Grey Pink-1966778;rbrf_210;Draft;Dress Material;OOMPH;Adults-Women;Women;;;;Core;;2017;Onesize,OOPHDRMT00000019;2670.00;;;;;;;;zerotype;;Fall;;No
1966777;rbrf_209-Pink Navy Blue-1966777;rbrf_209;Draft;Dress Material;OOMPH;Adults-Women;Women;;;;Core;;2017;Onesize,OOPHDRMT00000018;2670.00;;;;;;;;zerotype;;Fall;;No
1966776;rbrf_208-Pink Red-1966776;rbrf_208;Draft;Dress Material;OOMPH;Adults-Women;Women;;;;Core;;2017;Onesize,OOPHDRMT00000017;2670.00;;;;;;;;zerotype;;Fall;;No
1966775;rbrf_207-Navy Blue Red-1966775;rbrf_207;Draft;Dress Material;OOMPH;Adults-Women;Women;;;;Core;;2017;Onesize,OOPHDRMT00000016;2670.00;;;;;;;;zerotype;;Fall;;No
1966773;rbrf_204-Blue Red-1966773;rbrf_204;Draft;Dress Material;OOMPH;Adults-Women;Women;;;;Core;;2017;Onesize,OOPHDRMT00000015;2670.00;;;;;;;;zerotype;;Fall;;No
1966772;rbrf_203-Green Khaki-1966772;rbrf_203;Draft;Dress Material;OOMPH;Adults-Women;Women;;;;Core;;2017;Onesize,OOPHDRMT00000014;2670.00;;;;;;;;zerotype;;Fall;;No
1966771;rbrf_202-Blue Red-1966771;rbrf_202;Draft;Dress Material;OOMPH;Adults-Women;Women;;;;Core;;2017;Onesize,OOPHDRMT00000013;2670.00;;;;;;;;zerotype;;Fall;;No
1966770;rbrf_201-Orange Burgundy-1966770;rbrf_201;Draft;Dress Material;OOMPH;Adults-Women;Women;;;;Core;;2017;Onesize,OOPHDRMT00000012;2670.00;;;;;;;;zerotype;;Fall;;No
1966769;rbrf_114-Pink-1966769;rbrf_114;Draft;Dress Material;OOMPH;Adults-Women;Women;;;;Core;;2017;Onesize,OOPHDRMT00000011;3000.00;;;;;;;;zerotype;;Fall;;No
1966768;rbrf_102-Grey Navy Blue-1966768;rbrf_102;Draft;Dress Material;OOMPH;Adults-Women;Women;;;;Core;;2017;Onesize,OOPHDRMT00000010;3000.00;;;;;;;;zerotype;;Fall;;No
1966767;rbgg_sun005-Orange Grey-1966767;rbgg_sun005;Draft;Dress Material;OOMPH;Adults-Women;Women;;;;Core;;2017;Onesize,OOPHDRMT00000009;3000.00;;;;;;;;zerotype;;Fall;;No
1966766;rbgg_imag007-Blue Beige-1966766;rbgg_imag007;Draft;Dress Material;OOMPH;Adults-Women;Women;;;;Core;;2017;Onesize,OOPHDRMT00000008;3000.00;;;;;;;;zerotype;;Fall;;No
1966765;rbgg_dev006-Grey Pink-1966765;rbgg_dev006;Draft;Dress Material;OOMPH;Adults-Women;Women;;;;Core;;2017;Onesize,OOPHDRMT00000007;4340.00;;;;;;;;zerotype;;Fall;;No
1966764;rbgg_dev005-Navy Blue Pink-1966764;rbgg_dev005;Draft;Dress Material;OOMPH;Adults-Women;Women;;;;Core;;2017;Onesize,OOPHDRMT00000006;4340.00;;;;;;;;zerotype;;Fall;;No
1966763;rbgg_dev004-Red Beige-1966763;rbgg_dev004;Draft;Dress Material;OOMPH;Adults-Women;Women;;;;Core;;2017;Onesize,OOPHDRMT00000005;4340.00;;;;;;;;zerotype;;Fall;;No
1966762;rbgg_dev003-Yellow Green-1966762;rbgg_dev003;Draft;Dress Material;OOMPH;Adults-Women;Women;;;;Core;;2017;Onesize,OOPHDRMT00000004;4340.00;;;;;;;;zerotype;;Fall;;No
1966761;rbgg_choc006-Red Grey-1966761;rbgg_choc006;Draft;Dress Material;OOMPH;Adults-Women;Women;;;;Core;;2017;Onesize,OOPHDRMT00000003;3000.00;;;;;;;;zerotype;;Fall;;No
1966760;rbgg_choc002-Red Maroon-1966760;rbgg_choc002;Draft;Dress Material;OOMPH;Adults-Women;Women;;;;Core;;2017;Onesize,OOPHDRMT00000002;3000.00;;;;;;;;zerotype;;Fall;;No
1966758;rbad_agni005-Pink Beige-1966758;rbad_agni005;Draft;Dress Material;OOMPH;Adults-Women;Women;;;;Core;;2017;Onesize,OOPHDRMT00000001;2340.00;;;;;;;;zerotype;;Fall;;No
1966757;rbvd_vc008_brown-Burgundy Beige-1966757;rbvd_vc008_brown;Draft;Sarees;OOMPH;Adults-Women;Women;;;;Core;;2017;Onesize,OOPHSARS00000192;2340.00;;;;;;;;zerotype;;Fall;;No
1966756;rbvd_vc008_blue-Navy Blue Beige-1966756;rbvd_vc008_blue;Draft;Sarees;OOMPH;Adults-Women;Women;;;;Core;;2017;Onesize,OOPHSARS00000191;2340.00;;;;;;;;zerotype;;Fall;;No
1966755;rbvd_vc007_red-Red Navy Blue-1966755;rbvd_vc007_red;Draft;Sarees;OOMPH;Adults-Women;Women;;;;Core;;2017;Onesize,OOPHSARS00000190;2340.00;;;;;;;;zerotype;;Fall;;No
1966754;rbvd_vc007_brown-Coffee Brown Red-1966754;rbvd_vc007_brown;Draft;Sarees;OOMPH;Adults-Women;Women;;;;Core;;2017;Onesize,OOPHSARS00000189;2340.00;;;;;;;;zerotype;;Fall;;No
1966753;rbvd_vc006-Orange Red-1966753;rbvd_vc006;Draft;Sarees;OOMPH;Adults-Women;Women;;;;Core;;2017;Onesize,OOPHSARS00000188;2340.00;;;;;;;;zerotype;;Fall;;No
1966752;rbvd_vc005_yellow-Burgundy Yellow-1966752;rbvd_vc005_yellow;Draft;Sarees;OOMPH;Adults-Women;Women;;;;Core;;2017;Onesize,OOPHSARS00000187;2340.00;;;;;;;;zerotype;;Fall;;No
1966751;rbvd_vc005_blue-Navy Blue Red-1966751;rbvd_vc005_blue;Draft;Sarees;OOMPH;Adults-Women;Women;;;;Core;;2017;Onesize,OOPHSARS00000186;2340.00;;;;;;;;zerotype;;Fall;;No
1966750;rbvd_stunner011_ppl-Burgundy Beige-1966750;rbvd_stunner011_ppl;Draft;Sarees;OOMPH;Adults-Women;Women;;;;Core;;2017;Onesize,OOPHSARS00000185;2340.00;;;;;;;;zerotype;;Fall;;No
1966749;rbvd_stunner011_blue-Navy Blue Beige-1966749;rbvd_stunner011_blue;Draft;Sarees;OOMPH;Adults-Women;Women;;;;Core;;2017;Onesize,OOPHSARS00000184;2340.00;;;;;;;;zerotype;;Fall;;No
1966748;rbvd_stunner009_red-Coffee Brown Red-1966748;rbvd_stunner009_red;Draft;Sarees;OOMPH;Adults-Women;Women;;;;Core;;2017;Onesize,OOPHSARS00000183;2340.00;;;;;;;;zerotype;;Fall;;No
1966746;rbvd_stunner009_org-Burgundy Orange-1966746;rbvd_stunner009_org;Draft;Sarees;OOMPH;Adults-Women;Women;;;;Core;;2017;Onesize,OOPHSARS00000182;2340.00;;;;;;;;zerotype;;Fall;;No
1966745;rblf_anr3576_red-Red-1966745;rblf_anr3576_red;Draft;Sarees;OOMPH;Adults-Women;Women;;;;Core;;2017;Onesize,OOPHSARS00000181;3340.00;;;;;;;;zerotype;;Fall;;No
1966744;rblf_anr3575_ppl-Off white Purple-1966744;rblf_anr3575_ppl;Draft;Sarees;OOMPH;Adults-Women;Women;;;;Core;;2017;Onesize,OOPHSARS00000180;3340.00;;;;;;;;zerotype;;Fall;;No
1966743;rblf_anr3575_green-Off white Navy Blue-1966743;rblf_anr3575_green;Draft;Sarees;OOMPH;Adults-Women;Women;;;;Core;;2017;Onesize,OOPHSARS00000179;3340.00;;;;;;;;zerotype;;Fall;;No
1966742;rblf_anr3572_yellow-Yellow Black-1966742;rblf_anr3572_yellow;Draft;Sarees;OOMPH;Adults-Women;Women;;;;Core;;2017;Onesize,OOPHSARS00000178;3340.00;;;;;;;;zerotype;;Fall;;No
1966741;rblf_anr3572_red-Red Black-1966741;rblf_anr3572_red;Draft;Sarees;OOMPH;Adults-Women;Women;;;;Core;;2017;Onesize,OOPHSARS00000177;3340.00;;;;;;;;zerotype;;Fall;;No
1966740;rblf_anr3571_red-Red Navy Blue-1966740;rblf_anr3571_red;Draft;Sarees;OOMPH;Adults-Women;Women;;;;Core;;2017;Onesize,OOPHSARS00000176;3340.00;;;;;;;;zerotype;;Fall;;No
1966739;rblf_anr3571_green-Green Navy Blue-1966739;rblf_anr3571_green;Draft;Sarees;OOMPH;Adults-Women;Women;;;;Core;;2017;Onesize,OOPHSARS00000175;3340.00;;;;;;;;zerotype;;Fall;;No
1966738;rbks_koyal_015-Multi-1966738;rbks_koyal_015;Draft;Sarees;OOMPH;Adults-Women;Women;;;;Core;;2017;Onesize,OOPHSARS00000174;1670.00;;;;;;;;zerotype;;Fall;;No
1966737;rbks_koyal_012-Multi-1966737;rbks_koyal_012;Draft;Sarees;OOMPH;Adults-Women;Women;;;;Core;;2017;Onesize,OOPHSARS00000173;1670.00;;;;;;;;zerotype;;Fall;;No
1966736;rbks_koyal_010-white Green-1966736;rbks_koyal_010;Draft;Sarees;OOMPH;Adults-Women;Women;;;;Core;;2017;Onesize,OOPHSARS00000172;1670.00;;;;;;;;zerotype;;Fall;;No
1966735;rbks_koyal_009-Multi-1966735;rbks_koyal_009;Draft;Sarees;OOMPH;Adults-Women;Women;;;;Core;;2017;Onesize,OOPHSARS00000171;1670.00;;;;;;;;zerotype;;Fall;;No
1966734;rbks_koyal_008-Yellow Green-1966734;rbks_koyal_008;Draft;Sarees;OOMPH;Adults-Women;Women;;;;Core;;2017;Onesize,OOPHSARS00000170;1670.00;;;;;;;;zerotype;;Fall;;No
1966733;rbks_koyal_006-Blue Beige-1966733;rbks_koyal_006;Draft;Sarees;OOMPH;Adults-Women;Women;;;;Core;;2017;Onesize,OOPHSARS00000169;1670.00;;;;;;;;zerotype;;Fall;;No
1966731;rbks_koyal_003-Black Off white-1966731;rbks_koyal_003;Draft;Sarees;OOMPH;Adults-Women;Women;;;;Core;;2017;Onesize,OOPHSARS00000168;1670.00;;;;;;;;zerotype;;Fall;;No
1966730;rbks_koyal_002-Pink White-1966730;rbks_koyal_002;Draft;Sarees;OOMPH;Adults-Women;Women;;;;Core;;2017;Onesize,OOPHSARS00000167;1670.00;;;;;;;;zerotype;;Fall;;No
1966729;rbks_koyal_001-white Black-1966729;rbks_koyal_001;Draft;Sarees;OOMPH;Adults-Women;Women;;;;Core;;2017;Onesize,OOPHSARS00000166;1670.00;;;;;;;;zerotype;;Fall;;No
1966728;rbks_festival_034-Multi-1966728;rbks_festival_034;Draft;Sarees;OOMPH;Adults-Women;Women;;;;Core;;2017;Onesize,OOPHSARS00000165;1670.00;;;;;;;;zerotype;;Fall;;No
1966727;rbks_festival_029-Multi-1966727;rbks_festival_029;Draft;Sarees;OOMPH;Adults-Women;Women;;;;Core;;2017;Onesize,OOPHSARS00000164;1670.00;;;;;;;;zerotype;;Fall;;No
1966726;rbks_festival_024-Multi-1966726;rbks_festival_024;Draft;Sarees;OOMPH;Adults-Women;Women;;;;Core;;2017;Onesize,OOPHSARS00000163;1670.00;;;;;;;;zerotype;;Fall;;No
1966725;rbks_80680white_pink-Off white Orange-1966725;rbks_80680white_pink;Draft;Sarees;OOMPH;Adults-Women;Women;;;;Core;;2017;Onesize,OOPHSARS00000162;3340.00;;;;;;;;zerotype;;Fall;;No
1966724;rbks_festival_022-Off white Navy Blue-1966724;rbks_festival_022;Draft;Sarees;OOMPH;Adults-Women;Women;;;;Core;;2017;Onesize,OOPHSARS00000161;1670.00;;;;;;;;zerotype;;Fall;;No
1966723;rbks_festival_019-Pink Green-1966723;rbks_festival_019;Draft;Sarees;OOMPH;Adults-Women;Women;;;;Core;;2017;Onesize,OOPHSARS00000160;1670.00;;;;;;;;zerotype;;Fall;;No
1966722;rbks_festival_018-Brown Beige-1966722;rbks_festival_018;Draft;Sarees;OOMPH;Adults-Women;Women;;;;Core;;2017;Onesize,OOPHSARS00000159;1670.00;;;;;;;;zerotype;;Fall;;No
1966721;rbks_festival_016-black Pink-1966721;rbks_festival_016;Draft;Sarees;OOMPH;Adults-Women;Women;;;;Core;;2017;Onesize,OOPHSARS00000158;1670.00;;;;;;;;zerotype;;Fall;;No
1966720;rbks_festival_014-Off white Black-1966720;rbks_festival_014;Draft;Sarees;OOMPH;Adults-Women;Women;;;;Core;;2017;Onesize,OOPHSARS00000157;1670.00;;;;;;;;zerotype;;Fall;;No
1966719;rbks_festival_013-Multi-1966719;rbks_festival_013;Draft;Sarees;OOMPH;Adults-Women;Women;;;;Core;;2017;Onesize,OOPHSARS00000156;1670.00;;;;;;;;zerotype;;Fall;;No
1966717;rbks_festival_011-Multi-1966717;rbks_festival_011;Draft;Sarees;OOMPH;Adults-Women;Women;;;;Core;;2017;Onesize,OOPHSARS00000155;1670.00;;;;;;;;zerotype;;Fall;;No
1966716;rbks_festival_010-Multi-1966716;rbks_festival_010;Draft;Sarees;OOMPH;Adults-Women;Women;;;;Core;;2017;Onesize,OOPHSARS00000154;1670.00;;;;;;;;zerotype;;Fall;;No
1966715;rbks_festival_009-Multi-1966715;rbks_festival_009;Draft;Sarees;OOMPH;Adults-Women;Women;;;;Core;;2017;Onesize,OOPHSARS00000153;1670.00;;;;;;;;zerotype;;Fall;;No
1966714;rbks_festival_008-Black Off white-1966714;rbks_festival_008;Draft;Sarees;OOMPH;Adults-Women;Women;;;;Core;;2017;Onesize,OOPHSARS00000152;1670.00;;;;;;;;zerotype;;Fall;;No
1966713;rbks_festival_005-Multi-1966713;rbks_festival_005;Draft;Sarees;OOMPH;Adults-Women;Women;;;;Core;;2017;Onesize,OOPHSARS00000151;1670.00;;;;;;;;zerotype;;Fall;;No
1966712;rbks_festival_004-Multi-1966712;rbks_festival_004;Draft;Sarees;OOMPH;Adults-Women;Women;;;;Core;;2017;Onesize,OOPHSARS00000150;1670.00;;;;;;;;zerotype;;Fall;;No
1966711;rbdp_archana-Orange-1966711;rbdp_archana;Draft;Sarees;OOMPH;Adults-Women;Women;;;;Core;;2017;Onesize,OOPHSARS00000149;4340.00;;;;;;;;zerotype;;Fall;;No
1966710;rbar_gajna2481-Green-1966710;rbar_gajna2481;Draft;Sarees;OOMPH;Adults-Women;Women;;;;Core;;2017;Onesize,OOPHSARS00000148;3340.00;;;;;;;;zerotype;;Fall;;No
1966709;rbar_gajna2478-Orange-1966709;rbar_gajna2478;Draft;Sarees;OOMPH;Adults-Women;Women;;;;Core;;2017;Onesize,OOPHSARS00000147;2660.00;;;;;;;;zerotype;;Fall;;No
1966708;rbar_gajna2475-Navy Blue-1966708;rbar_gajna2475;Draft;Sarees;OOMPH;Adults-Women;Women;;;;Core;;2017;Onesize,OOPHSARS00000146;2660.00;;;;;;;;zerotype;;Fall;;No
1966707;rbar_gajna2474-Yellow-1966707;rbar_gajna2474;Draft;Sarees;OOMPH;Adults-Women;Women;;;;Core;;2017;Onesize,OOPHSARS00000145;2660.00;;;;;;;;zerotype;;Fall;;No
1966706;rbar_2663-Yellow-1966706;rbar_2663;Draft;Sarees;OOMPH;Adults-Women;Women;;;;Core;;2017;Onesize,OOPHSARS00000144;3330.00;;;;;;;;zerotype;;Fall;;No
1966705;rbar_2662-Red-1966705;rbar_2662;Draft;Sarees;OOMPH;Adults-Women;Women;;;;Core;;2017;Onesize,OOPHSARS00000143;3330.00;;;;;;;;zerotype;;Fall;;No
1966704;rbar_2660-Beige-1966704;rbar_2660;Draft;Sarees;OOMPH;Adults-Women;Women;;;;Core;;2017;Onesize,OOPHSARS00000142;3330.00;;;;;;;;zerotype;;Fall;;No
1966702;rbar_2659-Navy Blue-1966702;rbar_2659;Draft;Sarees;OOMPH;Adults-Women;Women;;;;Core;;2017;Onesize,OOPHSARS00000141;3330.00;;;;;;;;zerotype;;Fall;;No
1966701;rbar_2658-Brown-1966701;rbar_2658;Draft;Sarees;OOMPH;Adults-Women;Women;;;;Core;;2017;Onesize,OOPHSARS00000140;3330.00;;;;;;;;zerotype;;Fall;;No
1966700;rbar_2655-Green-1966700;rbar_2655;Draft;Sarees;OOMPH;Adults-Women;Women;;;;Core;;2017;Onesize,OOPHSARS00000139;3330.00;;;;;;;;zerotype;;Fall;;No
1966699;rbaf_vaishali2449b-Green Navy Blue-1966699;rbaf_vaishali2449b;Draft;Sarees;OOMPH;Adults-Women;Women;;;;Core;;2017;Onesize,OOPHSARS00000138;3340.00;;;;;;;;zerotype;;Fall;;No
1966698;rbaf_sarika2457b-Brown-1966698;rbaf_sarika2457b;Draft;Sarees;OOMPH;Adults-Women;Women;;;;Core;;2017;Onesize,OOPHSARS00000137;3340.00;;;;;;;;zerotype;;Fall;;No
1966697;rbaf_saanvi2454a-Multi-1966697;rbaf_saanvi2454a;Draft;Sarees;OOMPH;Adults-Women;Women;;;;Core;;2017;Onesize,OOPHSARS00000136;3340.00;;;;;;;;zerotype;;Fall;;No
1966696;rbaf_khushi2462a-Red Brown-1966696;rbaf_khushi2462a;Draft;Sarees;OOMPH;Adults-Women;Women;;;;Core;;2017;Onesize,OOPHSARS00000135;3340.00;;;;;;;;zerotype;;Fall;;No
1966695;rbaf_khushi2455b-Beige Red-1966695;rbaf_khushi2455b;Draft;Sarees;OOMPH;Adults-Women;Women;;;;Core;;2017;Onesize,OOPHSARS00000134;3340.00;;;;;;;;zerotype;;Fall;;No
1966694;rbaf_brasso_2452-Off white Blue-1966694;rbaf_brasso_2452;Draft;Sarees;OOMPH;Adults-Women;Women;;;;Core;;2017;Onesize,OOPHSARS00000133;3340.00;;;;;;;;zerotype;;Fall;;No
1966693;rbaf_6123-Red-1966693;rbaf_6123;Draft;Sarees;OOMPH;Adults-Women;Women;;;;Core;;2017;Onesize,OOPHSARS00000132;3330.00;;;;;;;;zerotype;;Fall;;No
1966692;rbaf_6051-Brown-1966692;rbaf_6051;Draft;Sarees;OOMPH;Adults-Women;Women;;;;Core;;2017;Onesize,OOPHSARS00000131;3330.00;;;;;;;;zerotype;;Fall;;No
1966691;rbaf_6049-Navy Blue-1966691;rbaf_6049;Draft;Sarees;OOMPH;Adults-Women;Women;;;;Core;;2017;Onesize,OOPHSARS00000130;3330.00;;;;;;;;zerotype;;Fall;;No
1966690;rbaf_6046-Turquoise Blue-1966690;rbaf_6046;Draft;Sarees;OOMPH;Adults-Women;Women;;;;Core;;2017;Onesize,OOPHSARS00000129;3330.00;;;;;;;;zerotype;;Fall;;No
1966689;rbaf_6040-Green-1966689;rbaf_6040;Draft;Sarees;OOMPH;Adults-Women;Women;;;;Core;;2017;Onesize,OOPHSARS00000128;3330.00;;;;;;;;zerotype;;Fall;;No
1966687;rbaf_2445-Off white Coffee Brown-1966687;rbaf_2445;Draft;Sarees;OOMPH;Adults-Women;Women;;;;Core;;2017;Onesize,OOPHSARS00000127;3330.00;;;;;;;;zerotype;;Fall;;No
1966686;rbaf_2443-Multi-1966686;rbaf_2443;Draft;Sarees;OOMPH;Adults-Women;Women;;;;Core;;2017;Onesize,OOPHSARS00000126;3330.00;;;;;;;;zerotype;;Fall;;No
1966685;rbaf_2442-Coffee Brown Yellow-1966685;rbaf_2442;Draft;Sarees;OOMPH;Adults-Women;Women;;;;Core;;2017;Onesize,OOPHSARS00000125;3330.00;;;;;;;;zerotype;;Fall;;No
1966684;rbaf_2436-Multi-1966684;rbaf_2436;Draft;Sarees;OOMPH;Adults-Women;Women;;;;Core;;2017;Onesize,OOPHSARS00000124;3330.00;;;;;;;;zerotype;;Fall;;No
1966683;rbaf_2435-Multi-1966683;rbaf_2435;Draft;Sarees;OOMPH;Adults-Women;Women;;;;Core;;2017;Onesize,OOPHSARS00000123;3330.00;;;;;;;;zerotype;;Fall;;No
1966682;rbaf_2433-Peach Red-1966682;rbaf_2433;Draft;Sarees;OOMPH;Adults-Women;Women;;;;Core;;2017;Onesize,OOPHSARS00000122;3330.00;;;;;;;;zerotype;;Fall;;No
1966681;rbaf_1335-Green-1966681;rbaf_1335;Draft;Sarees;OOMPH;Adults-Women;Women;;;;Core;;2017;Onesize,OOPHSARS00000121;2670.00;;;;;;;;zerotype;;Fall;;No
1966680;rbaf_1329-Green-1966680;rbaf_1329;Draft;Sarees;OOMPH;Adults-Women;Women;;;;Core;;2017;Onesize,OOPHSARS00000120;2670.00;;;;;;;;zerotype;;Fall;;No
1966679;rbaf_1286-Pink-1966679;rbaf_1286;Draft;Sarees;OOMPH;Adults-Women;Women;;;;Core;;2017;Onesize,OOPHSARS00000119;4000.00;;;;;;;;zerotype;;Fall;;No
1966678;rbaf_1284-Blue-1966678;rbaf_1284;Draft;Sarees;OOMPH;Adults-Women;Women;;;;Core;;2017;Onesize,OOPHSARS00000118;4000.00;;;;;;;;zerotype;;Fall;;No
1966677;rbaf_1281-Red-1966677;rbaf_1281;Draft;Sarees;OOMPH;Adults-Women;Women;;;;Core;;2017;Onesize,OOPHSARS00000117;4000.00;;;;;;;;zerotype;;Fall;;No
1966676;rbaf_1278-Orange-1966676;rbaf_1278;Draft;Sarees;OOMPH;Adults-Women;Women;;;;Core;;2017;Onesize,OOPHSARS00000116;3330.00;;;;;;;;zerotype;;Fall;;No
1966675;rbaf_1276-Green-1966675;rbaf_1276;Draft;Sarees;OOMPH;Adults-Women;Women;;;;Core;;2017;Onesize,OOPHSARS00000115;4000.00;;;;;;;;zerotype;;Fall;;No
1966674;rbaf_1271-Purple-1966674;rbaf_1271;Draft;Sarees;OOMPH;Adults-Women;Women;;;;Core;;2017;Onesize,OOPHSARS00000114;4000.00;;;;;;;;zerotype;;Fall;;No
1966673;rbaf_1195-Red Black-1966673;rbaf_1195;Draft;Sarees;OOMPH;Adults-Women;Women;;;;Core;;2017;Onesize,OOPHSARS00000113;4000.00;;;;;;;;zerotype;;Fall;;No
1966672;rbaf_1159-Multi-1966672;rbaf_1159;Draft;Sarees;OOMPH;Adults-Women;Women;;;;Core;;2017;Onesize,OOPHSARS00000112;4000.00;;;;;;;;zerotype;;Fall;;No
1966670;rbaf_1014a-Multi-1966670;rbaf_1014a;Draft;Sarees;OOMPH;Adults-Women;Women;;;;Core;;2017;Onesize,OOPHSARS00000111;3330.00;;;;;;;;zerotype;;Fall;;No
1966669;rbac_paneribhagalpuri_red-Red Gold-1966669;rbac_paneribhagalpuri_red;Draft;Sarees;OOMPH;Adults-Women;Women;;;;Core;;2017;Onesize,OOPHSARS00000110;3330.00;;;;;;;;zerotype;;Fall;;No
1966668;rbac_deepti_red-Red-1966668;rbac_deepti_red;Draft;Sarees;OOMPH;Adults-Women;Women;;;;Core;;2017;Onesize,OOPHSARS00000109;4330.00;;;;;;;;zerotype;;Fall;;No
1966667;liril_nr101p-Pink Blue-1966667;liril_nr101p;Draft;Sarees;OOMPH;Adults-Women;Women;;;;Core;;2017;Onesize,OOPHSARS00000108;3330.00;;;;;;;;zerotype;;Fall;;No
1966666;anjani_jackpot1147-Green-1966666;anjani_jackpot1147;Draft;Sarees;OOMPH;Adults-Women;Women;;;;Core;;2017;Onesize,OOPHSARS00000107;3330.00;;;;;;;;zerotype;;Fall;;No
1966665;anjani_jackpot1143-Brown-1966665;anjani_jackpot1143;Draft;Sarees;OOMPH;Adults-Women;Women;;;;Core;;2017;Onesize,OOPHSARS00000106;3330.00;;;;;;;;zerotype;;Fall;;No
1966664;anjani_jackpot1139-Orange Brown-1966664;anjani_jackpot1139;Draft;Sarees;OOMPH;Adults-Women;Women;;;;Core;;2017;Onesize,OOPHSARS00000105;3330.00;;;;;;;;zerotype;;Fall;;No
1966663;anjani_6012-Green-1966663;anjani_6012;Draft;Sarees;OOMPH;Adults-Women;Women;;;;Core;;2017;Onesize,OOPHSARS00000104;3330.00;;;;;;;;zerotype;;Fall;;No
1966662;anjani_6003-Brown-1966662;anjani_6003;Draft;Sarees;OOMPH;Adults-Women;Women;;;;Core;;2017;Onesize,OOPHSARS00000103;3330.00;;;;;;;;zerotype;;Fall;;No
1966661;anjani_6002-Blue-1966661;anjani_6002;Draft;Sarees;OOMPH;Adults-Women;Women;;;;Core;;2017;Onesize,OOPHSARS00000102;3330.00;;;;;;;;zerotype;;Fall;;No
1966660;anjani_6001-Green-1966660;anjani_6001;Draft;Sarees;OOMPH;Adults-Women;Women;;;;Core;;2017;Onesize,OOPHSARS00000101;3330.00;;;;;;;;zerotype;;Fall;;No
