Style ID;Vendor Article Number;Vendor Article Name;Active Status;Article type;Brand;Age Group;Gender;Base Colour;Colour1;Colour2;Fashion Type;Usage;Year;Size - SKU code pair;MRP;Style Description;Style Note;Materials and Care Description;Size and Fit Description;Size Chart Path;Product Display Name;Tags;Product Type;Classification Brand;Season;Comments;Upload Images
1996375;SKD-46008-AW/792-01-Blue-1996375;SKD-46008-AW/792-01;Draft;Kurta Sets;Rain & Rainbow;Adults-Women;Women;Blue;;;Fashion;Casual;2017;S,RNBWKASS00000161,M,RNBWKASS00000162,L,RNBWKASS00000163,XL,RNBWKASS00000164,XXL,RNBWKASS00000165;4895.00;;;;;;;;zerotype;;Winter;;No
1996374;SKD-50005\SS-692-15-White-1996374;SKD-50005\SS-692-15;Draft;Kurta Sets;Rain & Rainbow;Adults-Women;Women;White;;;Fashion;Casual;2017;S,RNBWKASS00000156,M,RNBWKASS00000157,L,RNBWKASS00000158,XL,RNBWKASS00000159,XXL,RNBWKASS00000160;5199.00;;;;;;;;zerotype;;Winter;;No
1996373;3695-AW/P-797-12-Pink-1996373;3695-AW/P-797-12;Draft;Dresses;Rain & Rainbow;Adults-Women;Women;Pink;;;Fashion;;2017;S,RNBWDRSS00000484,M,RNBWDRSS00000485,L,RNBWDRSS00000486,XL,RNBWDRSS00000487,XXL,RNBWDRSS00000488;1499.00;;;;;;;;zerotype;;Winter;;No
1996372;3695-AW/P-797-31-Cream-1996372;3695-AW/P-797-31;Draft;Dresses;Rain & Rainbow;Adults-Women;Women;Cream;;;Fashion;;2017;S,RNBWDRSS00000479,M,RNBWDRSS00000480,L,RNBWDRSS00000481,XL,RNBWDRSS00000482,XXL,RNBWDRSS00000483;1499.00;;;;;;;;zerotype;;Winter;;No
1996371;50002-AW/P-788-28-Red-1996371;50002-AW/P-788-28;Draft;Dresses;Rain & Rainbow;Adults-Women;Women;Red;;;Fashion;;2017;S,RNBWDRSS00000474,M,RNBWDRSS00000475,L,RNBWDRSS00000476,XL,RNBWDRSS00000477,XXL,RNBWDRSS00000478;1995.00;;;;;;;;zerotype;;Winter;;No
1996370;50002-AW/P-788-01-Blue-1996370;50002-AW/P-788-01;Draft;Dresses;Rain & Rainbow;Adults-Women;Women;Blue;;;Fashion;;2017;S,RNBWDRSS00000469,M,RNBWDRSS00000470,L,RNBWDRSS00000471,XL,RNBWDRSS00000472,XXL,RNBWDRSS00000473;1995.00;;;;;;;;zerotype;;Winter;;No
1996369;485-AW/796-28-Red-1996369;485-AW/796-28;Draft;Dresses;Rain & Rainbow;Adults-Women;Women;Red;;;Fashion;;2017;S,RNBWDRSS00000465,M,RNBWDRSS00000466,L,RNBWDRSS00000467,XL,RNBWDRSS00000468;1995.00;;;;;;;;zerotype;;Winter;;No
1996368;485-AW/796-10-Navy Blue-1996368;485-AW/796-10;Draft;Dresses;Rain & Rainbow;Adults-Women;Women;Navy Blue;;;Fashion;;2017;S,RNBWDRSS00000461,M,RNBWDRSS00000462,L,RNBWDRSS00000463,XL,RNBWDRSS00000464;1995.00;;;;;;;;zerotype;;Winter;;No
1996367;SK-702-26-Brown-1996367;SK-702-26;Draft;Skirts;Rain & Rainbow;Adults-Women;Women;Brown;;;Fashion;Ethnic;2017;S,RNBWSKRT00000057,M,RNBWSKRT00000058,L,RNBWSKRT00000059,XL,RNBWSKRT00000060,XXL,RNBWSKRT00000061;1099.00;;;;;;;;zerotype;;Winter;;No
1996366;SK-701-19-Pink-1996366;SK-701-19;Draft;Skirts;Rain & Rainbow;Adults-Women;Women;Pink;;;Fashion;Ethnic;2017;S,RNBWSKRT00000052,M,RNBWSKRT00000053,L,RNBWSKRT00000054,XL,RNBWSKRT00000055,XXL,RNBWSKRT00000056;1499.00;;;;;;;;zerotype;;Winter;;No
1996365;SK-700-04-Green-1996365;SK-700-04;Draft;Skirts;Rain & Rainbow;Adults-Women;Women;Green;;;Fashion;Ethnic;2017;S,RNBWSKRT00000047,M,RNBWSKRT00000048,L,RNBWSKRT00000049,XL,RNBWSKRT00000050,XXL,RNBWSKRT00000051;1499.00;;;;;;;;zerotype;;Winter;;No
1996364;SK-703-01-Blue-1996364;SK-703-01;Draft;Skirts;Rain & Rainbow;Adults-Women;Women;Blue;;;Fashion;Ethnic;2017;S,RNBWSKRT00000042,M,RNBWSKRT00000043,L,RNBWSKRT00000044,XL,RNBWSKRT00000045,XXL,RNBWSKRT00000046;1899.00;;;;;;;;zerotype;;Winter;;No
1996363;2720-AW/P-788-28-Red-1996363;2720-AW/P-788-28;Draft;Shirts;Rain & Rainbow;Adults-Women;Women;Red;;;Fashion;Ethnic;2017;S,RNBWSHRT00000121,M,RNBWSHRT00000122,L,RNBWSHRT00000123,XL,RNBWSHRT00000124,XXL,RNBWSHRT00000125;995.00;;;;;;;;zerotype;;Winter;;No
1996362;2720-AW/P-788-01-Blue-1996362;2720-AW/P-788-01;Draft;Shirts;Rain & Rainbow;Adults-Women;Women;Blue;;;Fashion;Ethnic;2017;S,RNBWSHRT00000116,M,RNBWSHRT00000117,L,RNBWSHRT00000118,XL,RNBWSHRT00000119,XXL,RNBWSHRT00000120;995.00;;;;;;;;zerotype;;Winter;;No
1996361;5501-31-Cream-1996361;5501-31;Draft;Kurtas;Rain & Rainbow;Adults-Women;Women;Cream;;;Fashion;Ethnic;2017;S,RNBWKRTA00004983,M,RNBWKRTA00004984,L,RNBWKRTA00004985,XL,RNBWKRTA00004986,XXL,RNBWKRTA00004987;3799.00;;;;;;;;zerotype;;Winter;;No
1996360;5501-28-Red-1996360;5501-28;Draft;Kurtas;Rain & Rainbow;Adults-Women;Women;Red;;;Fashion;Ethnic;2017;S,RNBWKRTA00004978,M,RNBWKRTA00004979,L,RNBWKRTA00004980,XL,RNBWKRTA00004981,XXL,RNBWKRTA00004982;3799.00;;;;;;;;zerotype;;Winter;;No
1996359;4900-35-Peach-1996359;4900-35;Draft;Kurtas;Rain & Rainbow;Adults-Women;Women;Peach;;;Fashion;Ethnic;2017;S,RNBWKRTA00004973,M,RNBWKRTA00004974,L,RNBWKRTA00004975,XL,RNBWKRTA00004976,XXL,RNBWKRTA00004977;2199.00;;;;;;;;zerotype;;Winter;;No
1996358;4900-14-Yellow-1996358;4900-14;Draft;Kurtas;Rain & Rainbow;Adults-Women;Women;Yellow;;;Fashion;Ethnic;2017;S,RNBWKRTA00004968,M,RNBWKRTA00004969,L,RNBWKRTA00004970,XL,RNBWKRTA00004971,XXL,RNBWKRTA00004972;2199.00;;;;;;;;zerotype;;Winter;;No
1996357;4900-04-Green-1996357;4900-04;Draft;Kurtas;Rain & Rainbow;Adults-Women;Women;Green;;;Fashion;Ethnic;2017;S,RNBWKRTA00004963,M,RNBWKRTA00004964,L,RNBWKRTA00004965,XL,RNBWKRTA00004966,XXL,RNBWKRTA00004967;2199.00;;;;;;;;zerotype;;Winter;;No
1996356;4715-07-Teal-1996356;4715-07;Draft;Kurtas;Rain & Rainbow;Adults-Women;Women;Teal;;;Fashion;Ethnic;2017;S,RNBWKRTA00004958,M,RNBWKRTA00004959,L,RNBWKRTA00004960,XL,RNBWKRTA00004961,XXL,RNBWKRTA00004962;1195.00;;;;;;;;zerotype;;Winter;;No
1996355;4715-03-Black-1996355;4715-03;Draft;Kurtas;Rain & Rainbow;Adults-Women;Women;Black;;;Fashion;Ethnic;2017;S,RNBWKRTA00004953,M,RNBWKRTA00004954,L,RNBWKRTA00004955,XL,RNBWKRTA00004956,XXL,RNBWKRTA00004957;1195.00;;;;;;;;zerotype;;Winter;;No
1996354;4553-15-White-1996354;4553-15;Draft;Kurtas;Rain & Rainbow;Adults-Women;Women;White;;;Fashion;Ethnic;2017;S,RNBWKRTA00004948,M,RNBWKRTA00004949,L,RNBWKRTA00004950,XL,RNBWKRTA00004951,XXL,RNBWKRTA00004952;1795.00;;;;;;;;zerotype;;Winter;;No
1996353;4553-14-Yellow-1996353;4553-14;Draft;Kurtas;Rain & Rainbow;Adults-Women;Women;Yellow;;;Fashion;Ethnic;2017;S,RNBWKRTA00004943,M,RNBWKRTA00004944,L,RNBWKRTA00004945,XL,RNBWKRTA00004946,XXL,RNBWKRTA00004947;1795.00;;;;;;;;zerotype;;Winter;;No
1996352;453-14-Yellow-1996352;453-14;Draft;Kurtas;Rain & Rainbow;Adults-Women;Women;Yellow;;;Fashion;Ethnic;2017;S,RNBWKRTA00004938,M,RNBWKRTA00004939,L,RNBWKRTA00004940,XL,RNBWKRTA00004941,XXL,RNBWKRTA00004942;1795.00;;;;;;;;zerotype;;Winter;;No
1996351;453-03-Black-1996351;453-03;Draft;Kurtas;Rain & Rainbow;Adults-Women;Women;Black;;;Fashion;Ethnic;2017;S,RNBWKRTA00004933,M,RNBWKRTA00004934,L,RNBWKRTA00004935,XL,RNBWKRTA00004936,XXL,RNBWKRTA00004937;1795.00;;;;;;;;zerotype;;Winter;;No
1996350;5701-2-31-Cream-1996350;5701-2-31;Draft;Kurtas;Rain & Rainbow;Adults-Women;Women;Cream;;;Fashion;Ethnic;2017;S,RNBWKRTA00004928,M,RNBWKRTA00004929,L,RNBWKRTA00004930,XL,RNBWKRTA00004931,XXL,RNBWKRTA00004932;3995.00;;;;;;;;zerotype;;Winter;;No
1996349;5701-2-01-Blue-1996349;5701-2-01;Draft;Kurtas;Rain & Rainbow;Adults-Women;Women;Blue;;;Fashion;Ethnic;2017;S,RNBWKRTA00004923,M,RNBWKRTA00004924,L,RNBWKRTA00004925,XL,RNBWKRTA00004926,XXL,RNBWKRTA00004927;3995.00;;;;;;;;zerotype;;Winter;;No
1996348;4652-AW/768-26-Brown-1996348;4652-AW/768-26;Draft;Kurtas;Rain & Rainbow;Adults-Women;Women;Brown;;;Fashion;Ethnic;2017;S,RNBWKRTA00004918,M,RNBWKRTA00004919,L,RNBWKRTA00004920,XL,RNBWKRTA00004921,XXL,RNBWKRTA00004922;2245.00;;;;;;;;zerotype;;Winter;;No
1996347;4652-AW/768-07-Teal-1996347;4652-AW/768-07;Draft;Kurtas;Rain & Rainbow;Adults-Women;Women;Teal;;;Fashion;Ethnic;2017;S,RNBWKRTA00004913,M,RNBWKRTA00004914,L,RNBWKRTA00004915,XL,RNBWKRTA00004916,XXL,RNBWKRTA00004917;2245.00;;;;;;;;zerotype;;Winter;;No
1996346;4650-AW/795-26-Brown-1996346;4650-AW/795-26;Draft;Kurtas;Rain & Rainbow;Adults-Women;Women;Brown;;;Fashion;Ethnic;2017;S,RNBWKRTA00004908,M,RNBWKRTA00004909,L,RNBWKRTA00004910,XL,RNBWKRTA00004911,XXL,RNBWKRTA00004912;1695.00;;;;;;;;zerotype;;Winter;;No
1996345;4650-AW/795-04-Green-1996345;4650-AW/795-04;Draft;Kurtas;Rain & Rainbow;Adults-Women;Women;Green;;;Fashion;Ethnic;2017;S,RNBWKRTA00004903,M,RNBWKRTA00004904,L,RNBWKRTA00004905,XL,RNBWKRTA00004906,XXL,RNBWKRTA00004907;1695.00;;;;;;;;zerotype;;Winter;;No
1996344;447\SS-P\684-01 11-Blue-1996344;447\SS-P\684-01 11;Draft;Kurtas;Rain & Rainbow;Adults-Women;Women;Blue;;;Fashion;Ethnic;2017;S,RNBWKRTA00004898,M,RNBWKRTA00004899,L,RNBWKRTA00004900,XL,RNBWKRTA00004901,XXL,RNBWKRTA00004902;1295.00;;;;;;;;zerotype;;Winter;;No
1870742;P-500\SS-P\662-26-BROWN-1870742;P-500\SS-P\662-26;Draft;Palazzos;Rain & Rainbow;Adults-Women;Women;;;;Fashion;;2017;S,RNBWPLZS00000011,M,RNBWPLZS00000012,L,RNBWPLZS00000013,XL,RNBWPLZS00000014,2XL,RNBWPLZS00000015;1975.00;;;;;;;;zerotype;;Spring;;No
1870741;P-500\SS-P\662-03-BLACK-1870741;P-500\SS-P\662-03;Draft;Palazzos;Rain & Rainbow;Adults-Women;Women;;;;Fashion;;2017;S,RNBWPLZS00000006,M,RNBWPLZS00000007,L,RNBWPLZS00000008,XL,RNBWPLZS00000009,2XL,RNBWPLZS00000010;1975.00;;;;;;;;zerotype;;Spring;;No
1757343;4201-SS/700-06-CORAL-1757343;4201-SS/700-06;Draft;Kurtas;Rain & Rainbow;Adults-Women;Women;;;;Fashion;Ethnic;2017;S,RNBWKRTA00004723,M,RNBWKRTA00004724,L,RNBWKRTA00004725,XL,RNBWKRTA00004726,2XL,RNBWKRTA00004727;2195.00;;;;;;;;zerotype;;Summer;;No
