Style ID;Vendor Article Number;Vendor Article Name;Active Status;Article type;Brand;Age Group;Gender;Base Colour;Colour1;Colour2;Fashion Type;Usage;Year;Size - SKU code pair;MRP;Style Description;Style Note;Materials and Care Description;Size and Fit Description;Size Chart Path;Product Display Name;Tags;Product Type;Classification Brand;Season;Comments;Upload Images
2010310;T-0015398-RED-XXL-Red-2010310;Rene Red Sinker Printed Top;Draft;Tops;RENE;Adults-Women;Women;Red;;;Fashion;Casual;2017;3XL,REENTOPS00000050,L,REENTOPS00000051,M,REENTOPS00000052,S,REENTOPS00000053,XL,REENTOPS00000054,XXL,REENTOPS00000055;750.00;;;;;;;;zerotype;;Fall;;No
2010309;T-0015398-N.BLU-XXL-Blue-2010309;Rene Blue Sinker Printed Top;Draft;Tops;RENE;Adults-Women;Women;Blue;;;Fashion;Casual;2017;3XL,REENTOPS00000044,L,REENTOPS00000045,M,REENTOPS00000046,S,REENTOPS00000047,XL,REENTOPS00000048,XXL,REENTOPS00000049;750.00;;;;;;;;zerotype;;Fall;;No
2010307;T-0015396-XXL-Yellow-2010307;Rene Yellow Lycra Top;Draft;Tops;RENE;Adults-Women;Women;Yellow;;;Fashion;Casual;2017;3XL,REENTOPS00000038,L,REENTOPS00000039,M,REENTOPS00000040,S,REENTOPS00000041,XL,REENTOPS00000042,XXL,REENTOPS00000043;695.00;;;;;;;;zerotype;;Fall;;No
2010306;T-0015390-MILLANGE-XXL-Grey-2010306;Rene Grey Sinker Solid Top;Draft;Tops;RENE;Adults-Women;Women;Grey;;;Fashion;Casual;2017;3XL,REENTOPS00000032,L,REENTOPS00000033,M,REENTOPS00000034,S,REENTOPS00000035,XL,REENTOPS00000036,XXL,REENTOPS00000037;495.00;;;;;;;;zerotype;;Fall;;No
2010305;T-0015352-PEACH-XXL-Pink-2010305;Rene Peach Sinker Dress;Draft;Tops;RENE;Adults-Women;Women;Pink;;;Fashion;Casual;2017;3XL,REENTOPS00000026,L,REENTOPS00000027,M,REENTOPS00000028,S,REENTOPS00000029,XL,REENTOPS00000030,XXL,REENTOPS00000031;1295.00;;;;;;;;zerotype;;Fall;;No
2010304;O-00717307-XXL-Blue-2010304;Rene Blue South Cotton Top;Draft;Tops;RENE;Adults-Women;Women;Blue;;;Fashion;Casual;2017;3XL,REENTOPS00000019,4XL,REENTOPS00000020,L,REENTOPS00000021,M,REENTOPS00000022,S,REENTOPS00000023,XL,REENTOPS00000024,XXL,REENTOPS00000025;995.00;;;;;;;;zerotype;;Fall;;No
2010303;O-0015395-XXL-Blue-2010303;Rene Sinker Printed Top;Draft;Tops;RENE;Adults-Women;Women;Blue;;;Fashion;Casual;2017;L,REENTOPS00000014,M,REENTOPS00000015,S,REENTOPS00000016,XL,REENTOPS00000017,XXL,REENTOPS00000018;1175.00;;;;;;;;zerotype;;Fall;;No
