Style ID;Vendor Article Number;Vendor Article Name;Active Status;Article type;Brand;Age Group;Gender;Base Colour;Colour1;Colour2;Fashion Type;Usage;Year;Size - SKU code pair;MRP;Style Description;Style Note;Materials and Care Description;Size and Fit Description;Size Chart Path;Product Display Name;Tags;Product Type;Classification Brand;Season;Comments;Upload Images
2265864;EA2958-Maroon-2265864;Maroon Embelished Gown;Draft;Dresses;Eavan;Adults-Women;Women;Maroon;;;Fashion;Party;2017;S,EVANDRSS00004102,XS,EVANDRSS00004103,XL,EVANDRSS00004104,L,EVANDRSS00004105,M,EVANDRSS00004106;4199.00;;;<p>Nylon , Dry Clean Ony</p>;;;na;;zerotype;;Winter;;No
2265863;EA2956-White-2265863;White Embroidered Gown;Draft;Dresses;Eavan;Adults-Women;Women;White;;;Fashion;Party;2017;M,EVANDRSS00004097,S,EVANDRSS00004098,XS,EVANDRSS00004099,XL,EVANDRSS00004100,L,EVANDRSS00004101;3999.00;;;<p>Nylon , Dry Clean Ony</p>;;;na;;zerotype;;Winter;;No
2265862;EA2955-Pink-2265862;Pink Lace Gown;Draft;Dresses;Eavan;Adults-Women;Women;Pink;;;Fashion;Party;2017;S,EVANDRSS00004092,XS,EVANDRSS00004093,XL,EVANDRSS00004094,L,EVANDRSS00004095,M,EVANDRSS00004096;3999.00;;;<p>Nylon , Dry Clean Ony</p>;;;na;;zerotype;;Winter;;No
2265861;EA2954-Peach-2265861;Peach Off Shoulder Gown;Draft;Dresses;Eavan;Adults-Women;Women;Peach;;;Fashion;Party;2017;XS,EVANDRSS00004087,XL,EVANDRSS00004088,L,EVANDRSS00004089,M,EVANDRSS00004090,S,EVANDRSS00004091;2499.00;;;<p>Blended , Dry Clean Ony</p>;;;na;;zerotype;;Winter;;No
2265860;EA2953-Red-2265860;Red Off Shoulder Gown;Draft;Dresses;Eavan;Adults-Women;Women;Red;;;Fashion;Casual;2017;S,EVANDRSS00004082,XS,EVANDRSS00004083,XL,EVANDRSS00004084,L,EVANDRSS00004085,M,EVANDRSS00004086;2499.00;;;<p>Blended , Dry Clean Ony</p>;;;na;;zerotype;;Winter;;No
2265859;EA2952-White-2265859;White Lace Gown;Draft;Dresses;Eavan;Adults-Women;Women;White;;;Fashion;Party;2017;L,EVANDRSS00004077,XS,EVANDRSS00004078,M,EVANDRSS00004079,XL,EVANDRSS00004080,S,EVANDRSS00004081;3499.00;;;<p>Nylon , Dry Clean Ony</p>;;;na;;zerotype;;Winter;;No
2265858;EA2951-Navy Blue-2265858;Navy Blue Lace Gown;Draft;Dresses;Eavan;Adults-Women;Women;Navy Blue;;;Fashion;Party;2017;XL,EVANDRSS00004072,L,EVANDRSS00004073,M,EVANDRSS00004074,S,EVANDRSS00004075,XS,EVANDRSS00004076;3799.00;;;<p>Nylon , Dry Clean Ony</p>;;;na;;zerotype;;Winter;;No
2265857;EA2950-Red Black-2265857;Red & Black Maxi Dress;Draft;Dresses;Eavan;Adults-Women;Women;Red;Black;;Fashion;Casual;2017;S,EVANDRSS00004067,XL,EVANDRSS00004068,XS,EVANDRSS00004069,L,EVANDRSS00004070,M,EVANDRSS00004071;1799.00;;;<p>Polyester , Dry Clean Ony</p>;;;na;;zerotype;;Winter;;No
2265856;EA2949-Black-2265856;Black Printed Maxi Dress;Draft;Dresses;Eavan;Adults-Women;Women;Black;;;Fashion;Casual;2017;XL,EVANDRSS00004062,L,EVANDRSS00004063,M,EVANDRSS00004064,S,EVANDRSS00004065,XS,EVANDRSS00004066;1899.00;;;<p>Polyester , Dry Clean Ony</p>;;;na;;zerotype;;Winter;;No
2265855;EA2948-Maroon-2265855;Maroon Maxi Dress;Draft;Dresses;Eavan;Adults-Women;Women;Maroon;;;Fashion;Casual;2017;XL,EVANDRSS00004057,L,EVANDRSS00004058,M,EVANDRSS00004059,S,EVANDRSS00004060,XS,EVANDRSS00004061;2399.00;;;<p>Polyester , Dry Clean Ony</p>;;;na;;zerotype;;Winter;;No
2265854;EA2947-Beige-2265854;Beige Printed Maxi Dress;Draft;Dresses;Eavan;Adults-Women;Women;Beige;;;Fashion;Casual;2017;XL,EVANDRSS00004052,L,EVANDRSS00004053,M,EVANDRSS00004054,S,EVANDRSS00004055,XS,EVANDRSS00004056;1499.00;;;<p>Polyester , Dry Clean Ony</p>;;;na;;zerotype;;Winter;;No
2265853;EA2945-Black-2265853;Black & Beige Maxi Dress;Draft;Dresses;Eavan;Adults-Women;Women;Black;;;Fashion;Casual;2017;XL,EVANDRSS00004047,L,EVANDRSS00004048,M,EVANDRSS00004049,S,EVANDRSS00004050,XS,EVANDRSS00004051;2699.00;;;<p>Blended , Dry Clean Ony</p>;;;na;;zerotype;;Winter;;No
2265852;EA2944-Teal-2265852;Teal Maxi Dress;Draft;Dresses;Eavan;Adults-Women;Women;Teal;;;Fashion;Party;2017;XL,EVANDRSS00004042,L,EVANDRSS00004043,M,EVANDRSS00004044,S,EVANDRSS00004045,XS,EVANDRSS00004046;2199.00;;;<p>Blended , Dry Clean Ony</p>;;;na;;zerotype;;Winter;;No
2265851;EA2943-Off White-2265851;Off White Cold Shoulder Dress;Draft;Dresses;Eavan;Adults-Women;Women;Off White;;;Fashion;Casual;2017;XL,EVANDRSS00004037,L,EVANDRSS00004038,M,EVANDRSS00004039,S,EVANDRSS00004040,XS,EVANDRSS00004041;1799.00;;;<p>Polyester , Dry Clean Ony</p>;;;na;;zerotype;;Winter;;No
2265850;EA2942-White-2265850;White Cold Shoulder Maxi Dress;Draft;Dresses;Eavan;Adults-Women;Women;White;;;Fashion;Casual;2017;XL,EVANDRSS00004032,L,EVANDRSS00004033,M,EVANDRSS00004034,S,EVANDRSS00004035,XS,EVANDRSS00004036;1899.00;;;<p>Polyester , Dry Clean Ony</p>;;;na;;zerotype;;Winter;;No
2265849;EA2941-Rust-2265849;Rust Lace Maxi Dress;Draft;Dresses;Eavan;Adults-Women;Women;Rust;;;Fashion;Casual;2017;XL,EVANDRSS00004027,L,EVANDRSS00004028,M,EVANDRSS00004029,S,EVANDRSS00004030,XS,EVANDRSS00004031;2299.00;;;<p>Polyester , Dry Clean Ony</p>;;;na;;zerotype;;Winter;;No
2265848;EA2939-Teal-2265848;Teal Lace Maxi Dress;Draft;Dresses;Eavan;Adults-Women;Women;Teal;;;Fashion;Casual;2017;XL,EVANDRSS00004022,L,EVANDRSS00004023,M,EVANDRSS00004024,S,EVANDRSS00004025,XS,EVANDRSS00004026;2699.00;;;<p>Nylon , Dry Clean Ony</p>;;;na;;zerotype;;Winter;;No
2265847;EA2938-Off White-2265847;Off White Maxi Dress;Draft;Dresses;Eavan;Adults-Women;Women;Off White;;;Fashion;Casual;2017;XL,EVANDRSS00004017,L,EVANDRSS00004018,M,EVANDRSS00004019,S,EVANDRSS00004020,XS,EVANDRSS00004021;1699.00;;;<p>Polyester , Dry Clean Ony</p>;;;na;;zerotype;;Winter;;No
2265846;EA2937-Navy Blue-2265846;Navy Blue Bardot Maxi Dress;Draft;Dresses;Eavan;Adults-Women;Women;Navy Blue;;;Fashion;Casual;2017;XL,EVANDRSS00004012,L,EVANDRSS00004013,M,EVANDRSS00004014,S,EVANDRSS00004015,XS,EVANDRSS00004016;1899.00;;;<p>Polyester , Dry Clean Ony</p>;;;na;;zerotype;;Winter;;No
2265845;EA2933-Blue-2265845;Blue Off Shoulder Maxi Dress;Draft;Dresses;Eavan;Adults-Women;Women;Blue;;;Fashion;Casual;2017;XL,EVANDRSS00004007,L,EVANDRSS00004008,M,EVANDRSS00004009,S,EVANDRSS00004010,XS,EVANDRSS00004011;1999.00;;;<p>Polyester , Dry Clean Ony</p>;;;na;;zerotype;;Winter;;No
2265844;EA2932-Black Magenta-2265844;Black & Pink Printed Maxi Dress;Draft;Dresses;Eavan;Adults-Women;Women;Black;Magenta;;Fashion;Casual;2017;XL,EVANDRSS00004002,L,EVANDRSS00004003,M,EVANDRSS00004004,S,EVANDRSS00004005,XS,EVANDRSS00004006;1399.00;;;<p>Nylon , Dry Clean Ony</p>;;;na;;zerotype;;Winter;;No
2265843;EA2931-Black-2265843;Black Lace Maxi Dress;Draft;Dresses;Eavan;Adults-Women;Women;Black;;;Fashion;Casual;2017;XL,EVANDRSS00003997,L,EVANDRSS00003998,M,EVANDRSS00003999,S,EVANDRSS00004000,XS,EVANDRSS00004001;2099.00;;;<p>Nylon , Dry Clean Ony</p>;;;na;;zerotype;;Winter;;No
2265842;EA2930-Lavender-2265842;Lilac Lace Maxi Dress;Draft;Dresses;Eavan;Adults-Women;Women;Lavender;;;Fashion;Casual;2017;XL,EVANDRSS00003992,L,EVANDRSS00003993,M,EVANDRSS00003994,S,EVANDRSS00003995,XS,EVANDRSS00003996;2299.00;;;<p>Polyester , Dry Clean Ony</p>;;;na;;zerotype;;Winter;;No
2265841;EA2928-Black-2265841;Blace Lace High-Low Dress;Draft;Dresses;Eavan;Adults-Women;Women;Black;;;Fashion;Casual;2017;XL,EVANDRSS00003987,L,EVANDRSS00003988,M,EVANDRSS00003989,S,EVANDRSS00003990,XS,EVANDRSS00003991;1999.00;;;<p>Polyester , Dry Clean Ony</p>;;;na;;zerotype;;Winter;;No
2265840;EA2927-Mustard-2265840;Mustard High-Low Dress;Draft;Dresses;Eavan;Adults-Women;Women;Mustard;;;Fashion;Casual;2017;XL,EVANDRSS00003982,L,EVANDRSS00003983,M,EVANDRSS00003984,S,EVANDRSS00003985,XS,EVANDRSS00003986;2399.00;;;<p>Polyester , Dry Clean Ony</p>;;;na;;zerotype;;Winter;;No
2265839;EA2925-Red White-2265839;Red & White Dress;Draft;Dresses;Eavan;Adults-Women;Women;Red;White;;Fashion;Casual;2017;XL,EVANDRSS00003977,L,EVANDRSS00003978,M,EVANDRSS00003979,S,EVANDRSS00003980,XS,EVANDRSS00003981;1999.00;;;<p>Nylon , Dry Clean Ony</p>;;;na;;zerotype;;Winter;;No
2265838;EA2923-Red Black-2265838;Red & Black Sheath Dress;Draft;Dresses;Eavan;Adults-Women;Women;Red;Black;;Fashion;Casual;2017;XL,EVANDRSS00003972,XS,EVANDRSS00003973,L,EVANDRSS00003974,M,EVANDRSS00003975,S,EVANDRSS00003976;1599.00;;;<p>Blended , Dry Clean Ony</p>;;;na;;zerotype;;Winter;;No
2265837;EA2922-White Black-2265837;Black & White Sheath Dress;Draft;Dresses;Eavan;Adults-Women;Women;White;Black;;Fashion;Casual;2017;XS,EVANDRSS00003967,S,EVANDRSS00003968,M,EVANDRSS00003969,L,EVANDRSS00003970,XL,EVANDRSS00003971;1599.00;;;<p>Blended , Dry Clean Ony</p>;;;na;;zerotype;;Winter;;No
2265836;EA2921-Black Red-2265836;Black & Red Skater Dress;Draft;Dresses;Eavan;Adults-Women;Women;Black;Red;;Fashion;Casual;2017;M,EVANDRSS00003962,S,EVANDRSS00003963,XS,EVANDRSS00003964,XL,EVANDRSS00003965,L,EVANDRSS00003966;1999.00;;;<p>Polyester , Dry Clean Ony</p>;;;na;;zerotype;;Winter;;No
2265835;EA2920-Black-2265835;Black Printed Bardot Dress;Draft;Dresses;Eavan;Adults-Women;Women;Black;;;Fashion;Casual;2017;XL,EVANDRSS00003957,L,EVANDRSS00003958,M,EVANDRSS00003959,XS,EVANDRSS00003960,S,EVANDRSS00003961;1899.00;;;<p>Blended , Dry Clean Ony</p>;;;na;;zerotype;;Winter;;No
2265834;EA2919-Pink-2265834;Pink High-Low Dress;Draft;Dresses;Eavan;Adults-Women;Women;Pink;;;Fashion;Casual;2017;XL,EVANDRSS00003952,L,EVANDRSS00003953,M,EVANDRSS00003954,S,EVANDRSS00003955,XS,EVANDRSS00003956;1399.00;;;<p>Blended , Dry Clean Ony</p>;;;na;;zerotype;;Winter;;No
2265833;EA2918-Green-2265833;Emerald Green Bardot Dress;Draft;Dresses;Eavan;Adults-Women;Women;Green;;;Fashion;Casual;2017;S,EVANDRSS00003947,XS,EVANDRSS00003948,XL,EVANDRSS00003949,L,EVANDRSS00003950,M,EVANDRSS00003951;1899.00;;;<p>Synthetic , Dry Clean Ony</p>;;;na;;zerotype;;Winter;;No
2265832;EA2917-Mustard-2265832;Mustard Sheath Dress;Draft;Dresses;Eavan;Adults-Women;Women;Mustard;;;Fashion;Casual;2017;XS,EVANDRSS00003942,XL,EVANDRSS00003943,L,EVANDRSS00003944,M,EVANDRSS00003945,S,EVANDRSS00003946;1699.00;;;<p>Synthetic , Dry Clean Ony</p>;;;ns;;zerotype;;Winter;;No
2265831;EA2916-Red-2265831;Red Shift Dress;Draft;Dresses;Eavan;Adults-Women;Women;Red;;;Fashion;Casual;2017;M,EVANDRSS00003937,S,EVANDRSS00003938,XS,EVANDRSS00003939,XL,EVANDRSS00003940,L,EVANDRSS00003941;1399.00;;;<p>Synthetic , Dry Clean Ony</p>;;;na;;zerotype;;Winter;;No
2265830;EA2915-Off White Black-2265830;Off White & Black Skater Dress;Draft;Dresses;Eavan;Adults-Women;Women;Off White;Black;;Fashion;Casual;2017;S,EVANDRSS00003932,XS,EVANDRSS00003933,XL,EVANDRSS00003934,L,EVANDRSS00003935,M,EVANDRSS00003936;1999.00;;;<p>Nylon , Dry Clean Ony</p>;;;na;;zerotype;;Winter;;No
2265829;EA2914-Black-2265829;Black Printed A-Line Dress;Draft;Dresses;Eavan;Adults-Women;Women;Black;;;Fashion;Casual;2017;XS,EVANDRSS00003927,L,EVANDRSS00003928,M,EVANDRSS00003929,S,EVANDRSS00003930,XL,EVANDRSS00003931;1699.00;;;<p>Polyester , Dry Clean Ony</p>;;;na;;zerotype;;Winter;;No
2265828;EA2910-Maroon-2265828;Maroon Bodycon Dress;Draft;Dresses;Eavan;Adults-Women;Women;Maroon;;;Fashion;;2017;XL,EVANDRSS00003922,L,EVANDRSS00003923,M,EVANDRSS00003924,S,EVANDRSS00003925,XS,EVANDRSS00003926;1599.00;;;<p>Synthetic , Dry Clean Ony</p>;;;na;;zerotype;;Winter;;No
2265827;EA2909-Turquoise Blue-2265827;Turquoise  Bodycon Dress;Draft;Dresses;Eavan;Adults-Women;Women;Turquoise Blue;;;Fashion;Casual;2017;XL,EVANDRSS00003917,L,EVANDRSS00003918,M,EVANDRSS00003919,S,EVANDRSS00003920,XS,EVANDRSS00003921;1699.00;;;<p>Synthetic , Dry Clean Ony</p>;;;na;;zerotype;;Winter;;No
2265826;EA2908-Coral-2265826;Coral Sheath Dress;Draft;Dresses;Eavan;Adults-Women;Women;Coral;;;Fashion;Casual;2017;XL,EVANDRSS00003912,L,EVANDRSS00003913,M,EVANDRSS00003914,S,EVANDRSS00003915,XS,EVANDRSS00003916;1699.00;;;<p>Synthetic , Dry Clean Ony</p>;;;na;;zerotype;;Winter;;No
2265825;EA2907-Green-2265825;Green Sheath Dress;Draft;Dresses;Eavan;Adults-Women;Women;Green;;;Fashion;Casual;2017;XL,EVANDRSS00003907,L,EVANDRSS00003908,M,EVANDRSS00003909,S,EVANDRSS00003910,XS,EVANDRSS00003911;1999.00;;;<p>Blended , Dry Clean Ony</p>;;;na;;zerotype;;Winter;;No
2265824;EA2906-Black-2265824;Black Sheath Dress;Draft;Dresses;Eavan;Adults-Women;Women;Black;;;Fashion;Casual;2017;XL,EVANDRSS00003902,L,EVANDRSS00003903,M,EVANDRSS00003904,S,EVANDRSS00003905,XS,EVANDRSS00003906;1699.00;;;<p>Synthetic , Dry Clean Ony</p>;;;na;;zerotype;;Winter;;No
2265823;EA2905-Navy Blue-2265823;Navy Blue Sheath Dress;Draft;Dresses;Eavan;Adults-Women;Women;Navy Blue;;;Fashion;Casual;2017;XL,EVANDRSS00003897,L,EVANDRSS00003898,M,EVANDRSS00003899,S,EVANDRSS00003900,XS,EVANDRSS00003901;1499.00;;;<p>Synthetic , Dry Clean Ony</p>;;;na;;zerotype;;Winter;;No
2265822;EA2904-Black White-2265822;Black & White Skater Dress;Draft;Dresses;Eavan;Adults-Women;Women;Black;White;;Fashion;Casual;2017;XL,EVANDRSS00003892,L,EVANDRSS00003893,M,EVANDRSS00003894,S,EVANDRSS00003895,XS,EVANDRSS00003896;1499.00;;;<p>Polyester , Dry Clean Ony</p>;;;na;;zerotype;;Winter;;No
2265821;EA2902-Red-2265821;Red Bardot Skater Dress;Draft;Dresses;Eavan;Adults-Women;Women;Red;;;Fashion;Casual;2017;XL,EVANDRSS00003887,L,EVANDRSS00003888,M,EVANDRSS00003889,S,EVANDRSS00003890,XS,EVANDRSS00003891;1499.00;;;<p>Blended , Dry Clean Ony</p>;;;na;;zerotype;;Winter;;No
2265819;EA2901-Black-2265819;Black Lace Sheath Dress;Draft;Dresses;Eavan;Adults-Women;Women;Black;;;Fashion;Casual;2017;XL,EVANDRSS00003882,L,EVANDRSS00003883,M,EVANDRSS00003884,S,EVANDRSS00003885,XS,EVANDRSS00003886;1799.00;;;<p>Nylon , Dry Clean Ony</p>;;;na;;zerotype;;Winter;;No
2265816;EA2960-Black White-2265816;Black & White Jumpsuit;Draft;Jumpsuit;Eavan;Adults-Women;Women;Black;White;;Fashion;Casual;2017;XL,EVANJMST00000421,L,EVANJMST00000422,M,EVANJMST00000423,S,EVANJMST00000424,XS,EVANJMST00000425;2399.00;;;<p>Polyester, Dry clean dry</p>;;;na;;zerotype;;Winter;;No
2265814;EA2959-Black-2265814;Blace Lace Jumpsuit;Draft;Jumpsuit;Eavan;Adults-Women;Women;Black;;;Fashion;Casual;2017;XL,EVANJMST00000416,L,EVANJMST00000417,M,EVANJMST00000418,S,EVANJMST00000419,XS,EVANJMST00000420;1899.00;;;<p>Polyester, Dry clean dry</p>;;;na;;zerotype;;Winter;;No
2265812;EA2971-Teal-2265812;Teal Peplum Top;Draft;Tops;Eavan;Adults-Women;Women;Teal;;;Fashion;Casual;2017;XL,EVANTOPS00001483,L,EVANTOPS00001484,M,EVANTOPS00001485,S,EVANTOPS00001486,XS,EVANTOPS00001487;999.00;;;<p>Polyester , dry clean only</p>;;;na;;zerotype;;Winter;;No
2265810;EA2970-Rust-2265810;Rust One Shoulder Top;Draft;Tops;Eavan;Adults-Women;Women;Rust;;;Fashion;Casual;2017;XL,EVANTOPS00001478,L,EVANTOPS00001479,M,EVANTOPS00001480,S,EVANTOPS00001481,XS,EVANTOPS00001482;999.00;;;<p>Polyester , dry clean only</p>;;;na;;zerotype;;Winter;;No
2265808;EA2968-White-2265808;White Bardot Neck;Draft;Tops;Eavan;Adults-Women;Women;White;;;Fashion;Casual;2017;XL,EVANTOPS00001473,L,EVANTOPS00001474,M,EVANTOPS00001475,S,EVANTOPS00001476,XS,EVANTOPS00001477;799.00;;;<p>Polyester , dry clean only</p>;;;na;;zerotype;;Winter;;No
2265806;EA2966-Burgundy-2265806;Burgundy Printed Top;Draft;Tops;Eavan;Adults-Women;Women;Burgundy;;;Fashion;Casual;2017;XL,EVANTOPS00001468,XS,EVANTOPS00001469,L,EVANTOPS00001470,M,EVANTOPS00001471,S,EVANTOPS00001472;599.00;;;<p>Polyester , dry clean only</p>;;;na;;zerotype;;Winter;;No
2265804;EA2964-Black-2265804;Black Lace Peplum Top;Draft;Tops;Eavan;Adults-Women;Women;Black;;;Fashion;Casual;2017;XL,EVANTOPS00001463,L,EVANTOPS00001464,M,EVANTOPS00001465,S,EVANTOPS00001466,XS,EVANTOPS00001467;1399.00;;;<p>Polyester , dry clean only</p>;;;na;;zerotype;;Winter;;No
2265802;EA2962-Brown-2265802;Brown Lace Top;Draft;Tops;Eavan;Adults-Women;Women;Brown;;;Fashion;Casual;2017;XL,EVANTOPS00001458,L,EVANTOPS00001459,M,EVANTOPS00001460,S,EVANTOPS00001461,XS,EVANTOPS00001462;1399.00;;;<p>Nylon , dry clean only</p>;;;na;;zerotype;;Winter;;No
2265799;EA2961-Burgundy-2265799;Burgundy Lace Top;Draft;Tops;Eavan;Adults-Women;Women;Burgundy;;;Fashion;Casual;2017;L,EVANTOPS00001453,M,EVANTOPS00001454,S,EVANTOPS00001455,XS,EVANTOPS00001456,XL,EVANTOPS00001457;999.00;;;<p>Cotton Blend , dry clean only</p>;;;na;;zerotype;;Winter;;No
