Style ID;Vendor Article Number;Vendor Article Name;Active Status;Article type;Brand;Age Group;Gender;Base Colour;Colour1;Colour2;Fashion Type;Usage;Year;Size - SKU code pair;MRP;Style Description;Style Note;Materials and Care Description;Size and Fit Description;Size Chart Path;Product Display Name;Tags;Product Type;Classification Brand;Season;Comments;Upload Images
2472245;23083041-69-2472245;TROUSERS FLAT;On Hold - Sample;Trousers;MANGO;Adults-Women;Women;;;;Fashion;;2018;34,MNGOTRSR00002169,36,MNGOTRSR00002170,38,MNGOTRSR00002171,40,MNGOTRSR00002172,42,MNGOTRSR00002173;2990.00;;;<p>COMPOSITION...:57%COTTON,40%POLYESTER,3%ELASTANE POCKETS LINING:80%POLYESTER,20%COTTON</p>;;;;;zerotype;;Spring;Broken size;No
2472244;23053613-14-2472244;TROUSERS NEWBASIC;On Hold - Sample;Trousers;MANGO;Adults-Women;Women;NA;;;Fashion;;2018;40,MNGOTRSR00002168,34,MNGOTRSR00002322,36,MNGOTRSR00002323,38,MNGOTRSR00002324,42,MNGOTRSR00002325;2490.00;;;<p>COMPOSITION...:65%COTTON,31%POLYESTER,4%ELASTANE LINING........:80%POLYESTER,20%COTTON</p>;;;;;zerotype;;Spring;Broken size;No
2472242;23050516-7-2472242;TROUSERS AVANTI2;On Hold - Sample;Trousers;MANGO;Adults-Women;Women;;;;Fashion;;2018;34,MNGOTRSR00002163,36,MNGOTRSR00002164,38,MNGOTRSR00002165,40,MNGOTRSR00002166,42,MNGOTRSR00002167;2490.00;;;<p>COMPOSITION...:52%COTTON,45%POLYESTER,3%ELASTANE POCKETS LINING:100%POLYESTER</p>;;;;;zerotype;;Spring;Broken size;No
2472239;23033597-99-2472239;TROUSERS FLUIDO;On Hold - Sample;Trousers;MANGO;Adults-Women;Women;;;;Fashion;;2018;20/S,MNGOTRSR00002159,21/M,MNGOTRSR00002160,19/XS,MNGOTRSR00002161,22/L,MNGOTRSR00002162;1990.00;;;<p>COMPOSITION...:100%VISCOSE</p>;;;;;zerotype;;Spring;Broken size;No
2472238;23033597-56-2472238;TROUSERS FLUIDO;On Hold - Sample;Trousers;MANGO;Adults-Women;Women;;;;Fashion;;2018;19/XS,MNGOTRSR00002155,20/S,MNGOTRSR00002156,21/M,MNGOTRSR00002157,22/L,MNGOTRSR00002158;1990.00;;;<p>COMPOSITION...:100%VISCOSE</p>;;;;;zerotype;;Spring;Broken size;No
2472230;21030718-43-2472230;TROUSERS BURBUJA;On Hold - Sample;Trousers;MANGO;Adults-Women;Women;;;;Fashion;;2018;34,MNGOTRSR00002142,36,MNGOTRSR00002143,38,MNGOTRSR00002144,40,MNGOTRSR00002145;4490.00;;;<p>COMPOSITION...:99%COTTON,1%ELASTANE BELT..........:99%COTTON,1%ELASTANE BELT INTERIOR.:100%POLYESTER POCKETS LINING:100%COTTON</p>;;;;;zerotype;;Spring;Broken size;No
2472219;23080612-99-2472219;BLOUSE CATI;On Hold - Sample;Tops;MANGO;Adults-Women;Women;;;;Fashion;;2018;19/XS,MNGOTOPS00005197,20/S,MNGOTOPS00005198,21/M,MNGOTOPS00005199,22/L,MNGOTOPS00005200,23/XL,MNGOTOPS00005201;2490.00;;;<p>COMPOSITION...:97%POLYESTER,3%ELASTANE</p>;;;;;zerotype;;Spring;Broken size;No
2472217;23070597-81-2472217;KAFTAN WOODY-A;On Hold - Sample;Tops;MANGO;Adults-Women;Women;;;;Fashion;;2018;99,MNGOTOPS00005192;2990.00;;;<p>COMPOSITION...:96%POLYESTER,4%ELASTANE</p>;;;;;zerotype;;Spring;Broken size;No
2472216;23070597-75-2472216;KAFTAN WOODY-A;On Hold - Sample;Tops;MANGO;Adults-Women;Women;;;;Fashion;;2018;99,MNGOTOPS00005191;2990.00;;;<p>COMPOSITION...:96%POLYESTER,4%ELASTANE</p>;;;;;zerotype;;Spring;Broken size;No
2472203;21093044-99-2472203;BLOUSE TOPO;On Hold - Sample;Tops;MANGO;Adults-Women;Women;;;;Fashion;;2018;19/XS,MNGOTOPS00005153,20/S,MNGOTOPS00005154,21/M,MNGOTOPS00005155,22/L,MNGOTOPS00005156;3490.00;;;<p>COMPOSITION...:100%POLYESTER PIPING........:100%POLYESTER</p>;;;;;zerotype;;Spring;Broken size;No
2472201;21090561-75-2472201;BLOUSE JILITO;On Hold - Sample;Tops;MANGO;Adults-Women;Women;;;;Fashion;;2018;19/XS,MNGOTOPS00005149,20/S,MNGOTOPS00005150,21/M,MNGOTOPS00005151,22/L,MNGOTOPS00005152;3490.00;;;<p>COMPOSITION...:100%COTTON</p>;;;;;zerotype;;Spring;Broken size;No
2472198;21030839-43-2472198;BLOUSE STRIPES2;On Hold - Sample;Tops;MANGO;Adults-Women;Women;;;;Fashion;;2018;19/XS,MNGOTOPS00005140,20/S,MNGOTOPS00005141,21/M,MNGOTOPS00005142,22/L,MNGOTOPS00005143;4490.00;;;<p>COMPOSITION...:100%VISCOSE</p>;;;;;zerotype;;Spring;Broken size;No
2472192;24060473-92-2472192;T-SHIRT CRISR-H;On Hold - Sample;Tshirts;MANGO;Adults-Women;Women;;;;Fashion;;2018;20/S,MNGOTSHT00007034;1290.00;;;<p>COMPOSITION...:70%POLYESTER,30%VISCOSE</p>;;;;;zerotype;;Spring;Broken size;No
2472189;24020417-99-2472189;T-SHIRT MANGOLOG;On Hold - Sample;Tshirts;MANGO;Adults-Women;Women;;;;Fashion;;2018;22/L,MNGOTSHT00007032;690.00;;;<p>COMPOSITION...:100%COTTON</p>;;;;;zerotype;;Spring;Broken size;No
2472186;23903043-56-2472186;T-SHIRT CHALA;On Hold - Sample;Tshirts;MANGO;Adults-Women;Women;;;;Fashion;;2018;21/M,MNGOTSHT00007031;690.00;;;<p>COMPOSITION...:100%COTTON</p>;;;;;zerotype;;Spring;Broken size;No
2472183;23090524-99-2472183;T-SHIRT BRIXTON;On Hold - Sample;Tshirts;MANGO MAN;Adults-Men;Men;;;;Fashion;;2018;20/S,MGVNTSHT00000434,21/M,MGVNTSHT00000435,22/L,MGVNTSHT00000436,23/XL,MGVNTSHT00000437,24/XXL,MGVNTSHT00000438;1990.00;;;<p>COMPOSITION...:50%POLYESTER,50%COTTON</p>;;;;;zerotype;;Spring;Broken size;No
2472175;23080604-99-2472175;T-SHIRT COHEN;On Hold - Sample;Tshirts;MANGO;Adults-Women;Women;NA;;;Fashion;;2018;21/M,MNGOTSHT00007029,22/L,MNGOTSHT00007030,20/S,MNGOTSHT00007305;1990.00;;;<p>COMPOSITION...:100%COTTON TRIMMING......:100%GLASS EMBROIDERY....:100%POLYESTER</p>;;;;;zerotype;;Spring;Broken size;No
2472170;23070309-52-2472170;T-SHIRT CHERLO2;On Hold - Sample;Tshirts;MANGO MAN;Adults-Men;Men;;;;Fashion;;2018;20/S,MGVNTSHT00000409,21/M,MGVNTSHT00000410,22/L,MGVNTSHT00000411,23/XL,MGVNTSHT00000412,24/XXL,MGVNTSHT00000413;990.00;;;<p>COMPOSITION...:100%COTTON</p>;;;;;zerotype;;Spring;Broken size;No
2472165;23053614-1-2472165;T-SHIRT CONANE2;On Hold - Sample;Tshirts;MANGO MAN;Adults-Men;Men;;;;Fashion;;2018;21/M,MGVNTSHT00000399,22/L,MGVNTSHT00000400,23/XL,MGVNTSHT00000401,24/XXL,MGVNTSHT00000402,20/S,MGVNTSHT00000403;1290.00;;;<p>COMPOSITION...:100%COTTON</p>;;;;;zerotype;;Spring;Broken size;No
2472159;23043631-56-2472159;T-SHIRT CONANF2;On Hold - Sample;Tshirts;MANGO MAN;Adults-Men;Men;;;;Fashion;;2018;20/S,MGVNTSHT00000389,21/M,MGVNTSHT00000390,22/L,MGVNTSHT00000391,23/XL,MGVNTSHT00000392,24/XXL,MGVNTSHT00000393;1290.00;;;<p>COMPOSITION...:100%COTTON</p>;;;;;zerotype;;Spring;Broken size;No
2472157;23040591-99-2472157;T-SHIRT CHALOVER;On Hold - Sample;Tshirts;MANGO;Adults-Women;Women;;;;Fashion;;2018;19/XS,MNGOTSHT00007024,20/S,MNGOTSHT00007025,21/M,MNGOTSHT00007026,22/L,MNGOTSHT00007027,23/XL,MNGOTSHT00007028;690.00;;;<p>COMPOSITION...:100%COTTON</p>;;;;;zerotype;;Spring;Broken size;No
2472154;23040591-76-2472154;T-SHIRT CHALOVER;On Hold - Sample;Tshirts;MANGO;Adults-Women;Women;;;;Fashion;;2018;19/XS,MNGOTSHT00007019,20/S,MNGOTSHT00007020,21/M,MNGOTSHT00007021,23/XL,MNGOTSHT00007022,22/L,MNGOTSHT00007023;690.00;;;<p>COMPOSITION...:100%COTTON</p>;;;;;zerotype;;Spring;Broken size;No
2472152;23040591-52-2472152;T-SHIRT CHALOVER;On Hold - Sample;Tshirts;MANGO;Adults-Women;Women;;;;Fashion;;2018;19/XS,MNGOTSHT00007014,20/S,MNGOTSHT00007015,21/M,MNGOTSHT00007016,22/L,MNGOTSHT00007017,23/XL,MNGOTSHT00007018;690.00;;;<p>COMPOSITION...:100%COTTON</p>;;;;;zerotype;;Spring;Broken size;No
2472150;23040591-15-2472150;T-SHIRT CHALOVER;On Hold - Sample;Tshirts;MANGO;Adults-Women;Women;;;;Fashion;;2018;19/XS,MNGOTSHT00007009,20/S,MNGOTSHT00007010,21/M,MNGOTSHT00007011,22/L,MNGOTSHT00007012,23/XL,MNGOTSHT00007013;690.00;;;<p>COMPOSITION...:100%COTTON</p>;;;;;zerotype;;Spring;Broken size;No
2472147;23040591-1-2472147;T-SHIRT CHALOVER;On Hold - Sample;Tshirts;MANGO;Adults-Women;Women;;;;Fashion;;2018;19/XS,MNGOTSHT00007004,20/S,MNGOTSHT00007005,21/M,MNGOTSHT00007006,22/L,MNGOTSHT00007007,23/XL,MNGOTSHT00007008;690.00;;;<p>COMPOSITION...:100%COTTON</p>;;;;;zerotype;;Spring;Broken size;No
2472144;23030375-76-2472144;T-SHIRT LOGOPOK2-H;On Hold - Sample;Tshirts;MANGO MAN;Adults-Men;Men;;;;Fashion;;2018;19/XS,MGVNTSHT00000381,21/M,MGVNTSHT00000382,22/L,MGVNTSHT00000383;1790.00;;;<p>COMPOSITION...:100%COTTON</p>;;;;;zerotype;;Spring;Broken size;No
2472140;23030375-52-2472140;T-SHIRT LOGOPOK2-H;On Hold - Sample;Tshirts;MANGO MAN;Adults-Men;Men;;;;Fashion;;2018;19/XS,MGVNTSHT00000373,20/S,MGVNTSHT00000374,21/M,MGVNTSHT00000375,22/L,MGVNTSHT00000376,23/XL,MGVNTSHT00000377;1790.00;;;<p>COMPOSITION...:100%COTTON</p>;;;;;zerotype;;Spring;Broken size;No
2472139;23030375-1-2472139;T-SHIRT LOGOPOK2-H;On Hold - Sample;Tshirts;MANGO MAN;Adults-Men;Men;;;;Fashion;;2018;21/M,MGVNTSHT00000371,22/L,MGVNTSHT00000372;1790.00;;;<p>COMPOSITION...:100%COTTON</p>;;;;;zerotype;;Spring;Broken size;No
2472137;23030316-66-2472137;T-SHIRT GARETH2;On Hold - Sample;Tshirts;MANGO MAN;Adults-Men;Men;;;;Fashion;;2018;20/S,MGVNTSHT00000367,21/M,MGVNTSHT00000368,22/L,MGVNTSHT00000369,23/XL,MGVNTSHT00000370;1790.00;;;<p>COMPOSITION...:100%COTTON</p>;;;;;zerotype;;Spring;Broken size;No
2472132;23030314-1-2472132;T-SHIRT CHELSEA2;On Hold - Sample;Tshirts;MANGO MAN;Adults-Men;Men;;;;Fashion;;2018;20/S,MGVNTSHT00000357,21/M,MGVNTSHT00000358,22/L,MGVNTSHT00000359,23/XL,MGVNTSHT00000360,24/XXL,MGVNTSHT00000361;990.00;;;<p>COMPOSITION...:100%COTTON</p>;;;;;zerotype;;Spring;Broken size;No
2472128;23020553-99-2472128;T-SHIRT MELVIN;On Hold - Sample;Tshirts;MANGO MAN;Adults-Men;Men;;;;Fashion;;2018;20/S,MGVNTSHT00000352,21/M,MGVNTSHT00000353,22/L,MGVNTSHT00000354,23/XL,MGVNTSHT00000355,24/XXL,MGVNTSHT00000356;1990.00;;;<p>COMPOSITION...:100%COTTON</p>;;;;;zerotype;;Spring;Broken size;No
2472121;23020417-1-2472121;T-SHIRT MANGOLOG;On Hold - Sample;Tshirts;MANGO;Adults-Women;Women;;;;Fashion;;2018;19/XS,MNGOTSHT00006992,20/S,MNGOTSHT00006993,21/M,MNGOTSHT00006994,22/L,MNGOTSHT00006995,23/XL,MNGOTSHT00006996;690.00;;;<p>COMPOSITION...:100%COTTON</p>;;;;;zerotype;;Spring;Broken size;No
2472118;23020379-85-2472118;T-SHIRT LOGOHE2-H;On Hold - Sample;Tshirts;MANGO MAN;Adults-Men;Men;;;;Fashion;;2018;22/L,MGVNTSHT00000347,23/XL,MGVNTSHT00000348,19/XS,MGVNTSHT00000349,20/S,MGVNTSHT00000350,21/M,MGVNTSHT00000351;1390.00;;;<p>COMPOSITION...:100%COTTON</p>;;;;;zerotype;;Spring;Broken size;No
2472115;23020379-50-2472115;T-SHIRT LOGOHE2-H;On Hold - Sample;Tshirts;MANGO MAN;Adults-Men;Men;;;;Fashion;;2018;19/XS,MGVNTSHT00000342,20/S,MGVNTSHT00000343,21/M,MGVNTSHT00000344,22/L,MGVNTSHT00000345,23/XL,MGVNTSHT00000346;1390.00;;;<p>COMPOSITION...:100%COTTON</p>;;;;;zerotype;;Spring;Broken size;No
2472113;23020379-1-2472113;T-SHIRT LOGOHE2-H;On Hold - Sample;Tshirts;MANGO MAN;Adults-Men;Men;;;;Fashion;;2018;19/XS,MGVNTSHT00000338,20/S,MGVNTSHT00000339,21/M,MGVNTSHT00000340,22/L,MGVNTSHT00000341;1390.00;;;<p>COMPOSITION...:100%COTTON</p>;;;;;zerotype;;Spring;Broken size;No
2472106;23010953-99-2472106;T-SHIRT BOLI;On Hold - Sample;Tshirts;MANGO;Adults-Women;Women;;;;Fashion;;2018;20/S,MNGOTSHT00006978,21/M,MNGOTSHT00006979,22/L,MNGOTSHT00006980;1990.00;;;<p>COMPOSITION...:50%COTTON,50%MODAL</p>;;;;;zerotype;;Spring;Broken size;No
2472105;23010761-1-2472105;T-SHIRT ANSWER;On Hold - Sample;Tshirts;MANGO;Adults-Women;Women;;;;Fashion;;2018;20/S,MNGOTSHT00006975,21/M,MNGOTSHT00006976,22/L,MNGOTSHT00006977;990.00;;;<p>COMPOSITION...:100%COTTON</p>;;;;;zerotype;;Spring;Broken size;No
2472104;23010325-92-2472104;T-SHIRT HUGO;On Hold - Sample;Tshirts;MANGO MAN;Adults-Men;Men;;;;Fashion;;2018;22/L,MGVNTSHT00000329,24/XXL,MGVNTSHT00000330,20/S,MGVNTSHT00000331,21/M,MGVNTSHT00000332;2190.00;;;<p>COMPOSITION...:80%COTTON,20%POLYESTER</p>;;;;;zerotype;;Spring;Broken size;No
2472103;23010325-52-2472103;T-SHIRT HUGO;On Hold - Sample;Tshirts;MANGO MAN;Adults-Men;Men;;;;Fashion;;2018;20/S,MGVNTSHT00000324,21/M,MGVNTSHT00000325,22/L,MGVNTSHT00000326,23/XL,MGVNTSHT00000327,24/XXL,MGVNTSHT00000328;2190.00;;;<p>COMPOSITION...:80%COTTON,20%POLYESTER</p>;;;;;zerotype;;Spring;Broken size;No
2472100;23010322-56-2472100;T-SHIRT RICHAR2;On Hold - Sample;Tshirts;MANGO MAN;Adults-Men;Men;;;;Fashion;;2018;20/S,MGVNTSHT00000316,21/M,MGVNTSHT00000317,22/L,MGVNTSHT00000318,23/XL,MGVNTSHT00000319;2190.00;;;<p>COMPOSITION...:80%POLYESTER,20%COTTON</p>;;;;;zerotype;;Spring;Broken size;No
2472097;23010322-5-2472097;T-SHIRT RICHAR2;On Hold - Sample;Tshirts;MANGO MAN;Adults-Men;Men;;;;Fashion;;2018;20/S,MGVNTSHT00000307,21/M,MGVNTSHT00000308,22/L,MGVNTSHT00000309,23/XL,MGVNTSHT00000310,24/XXL,MGVNTSHT00000311;2190.00;;;<p>COMPOSITION...:80%POLYESTER,20%COTTON</p>;;;;;zerotype;;Spring;Broken size;No
2472093;23003043-99-2472093;T-SHIRT CHALA;On Hold - Sample;Tshirts;MANGO;Adults-Women;Women;;;;Fashion;;2018;19/XS,MNGOTSHT00006970,20/S,MNGOTSHT00006971,21/M,MNGOTSHT00006972,22/L,MNGOTSHT00006973,23/XL,MNGOTSHT00006974;690.00;;;<p>COMPOSITION...:100%ORGANIC COTTON</p>;;;;;zerotype;;Spring;Broken size;No
2472092;23003043-56-2472092;T-SHIRT CHALA;On Hold - Sample;Tshirts;MANGO;Adults-Women;Women;;;;Fashion;;2018;19/XS,MNGOTSHT00006967,22/L,MNGOTSHT00006968,23/XL,MNGOTSHT00006969;690.00;;;<p>COMPOSITION...:100%ORGANIC COTTON</p>;;;;;zerotype;;Spring;Broken size;No
2472091;23003043-2-2472091;T-SHIRT CHALA;On Hold - Sample;Tshirts;MANGO;Adults-Women;Women;;;;Fashion;;2018;19/XS,MNGOTSHT00006964,20/S,MNGOTSHT00006965,21/M,MNGOTSHT00006966;690.00;;;<p>COMPOSITION...:100%ORGANIC COTTON</p>;;;;;zerotype;;Spring;Broken size;No
2472089;23003043-1-2472089;T-SHIRT CHALA;On Hold - Sample;Tshirts;MANGO;Adults-Women;Women;;;;Fashion;;2018;23/XL,MNGOTSHT00006959,19/XS,MNGOTSHT00006960,20/S,MNGOTSHT00006961,21/M,MNGOTSHT00006962,22/L,MNGOTSHT00006963;690.00;;;<p>COMPOSITION...:100%ORGANIC COTTON</p>;;;;;zerotype;;Spring;Broken size;No
2472080;23000657-99-2472080;T-SHIRT ILUSTRA;On Hold - Sample;Tshirts;MANGO;Adults-Women;Women;NA;;;Core;;2018;20/S,MNGOTSHT00006946,21/M,MNGOTSHT00006947,22/L,MNGOTSHT00006948,19/XS,MNGOTSHT00006949,23/XL,MNGOTSHT00007187;690.00;;;<p>COMPOSITION...:100%COTTON</p>;;;;;zerotype;;Spring;Broken size;No
2472078;23000657-85-2472078;T-SHIRT ILUSTRA;On Hold - Sample;Tshirts;MANGO;Adults-Women;Women;NA;;;Core;;2018;22/L,MNGOTSHT00006944,23/XL,MNGOTSHT00006945,21/M,MNGOTSHT00007184,19/XS,MNGOTSHT00007185,20/S,MNGOTSHT00007186;690.00;;;<p>COMPOSITION...:100%COTTON</p>;;;;;zerotype;;Spring;Broken size;No
2472073;23000657-2-2472073;T-SHIRT ILUSTRA;On Hold - Sample;Tshirts;MANGO;Adults-Women;Women;NA;;;Core;;2018;20/S,MNGOTSHT00006937,21/M,MNGOTSHT00006938,22/L,MNGOTSHT00006939,23/XL,MNGOTSHT00006940,19/XS,MNGOTSHT00007181;690.00;;;<p>COMPOSITION...:100%COTTON</p>;;;;;zerotype;;Spring;Broken size;No
2472070;23000324-1-2472070;T-SHIRT EDUARDO;On Hold - Sample;Tshirts;MANGO MAN;Adults-Men;Men;;;;Fashion;;2018;20/S,MGVNTSHT00000302,21/M,MGVNTSHT00000303,22/L,MGVNTSHT00000304,23/XL,MGVNTSHT00000305,24/XXL,MGVNTSHT00000306;1990.00;;;<p>COMPOSITION...:100%COTTON</p>;;;;;zerotype;;Spring;Broken size;No
2472068;23000323-92-2472068;T-SHIRT BAY;On Hold - Sample;Tshirts;MANGO MAN;Adults-Men;Men;;;;Fashion;;2018;20/S,MGVNTSHT00000298,21/M,MGVNTSHT00000299,22/L,MGVNTSHT00000300,23/XL,MGVNTSHT00000301;1990.00;;;<p>COMPOSITION...:100%COTTON</p>;;;;;zerotype;;Spring;Broken size;No
2472062;21020646-70-2472062;T-SHIRT CHEMBI;On Hold - Sample;Tshirts;MANGO;Adults-Women;Women;;;;Fashion;;2018;20/S,MNGOTSHT00006929,21/M,MNGOTSHT00006930,22/L,MNGOTSHT00006931,23/XL,MNGOTSHT00006932;1990.00;;;<p>COMPOSITION...:100%POLYESTER APPLIQUE......:100%POLYESTER BACKOFTHEGARME:100%VISCOSE</p>;;;;;zerotype;;Spring;Broken size;No
2472060;21020646-35-2472060;T-SHIRT CHEMBI;On Hold - Sample;Tshirts;MANGO;Adults-Women;Women;;;;Fashion;;2018;19/XS,MNGOTSHT00006924,20/S,MNGOTSHT00006925,21/M,MNGOTSHT00006926,22/L,MNGOTSHT00006927,23/XL,MNGOTSHT00006928;1990.00;;;<p>COMPOSITION...:100%POLYESTER APPLIQUE......:100%POLYESTER BACKOFTHEGARME:100%VISCOSE</p>;;;;;zerotype;;Spring;Broken size;No
2472053;24990557-69-2472053;SHIRT SWEDEDOT;On Hold - Sample;Shirts;MANGO;Adults-Women;Women;;;;Fashion;;2018;23/XL,MNGOSHRT00002186;2290.00;;;<p>COMPOSITION...:100%VISCOSE</p>;;;;;zerotype;;Spring;Broken size;No
2472052;24050376-20-2472052;POLO SHIRT REPORT2-H;On Hold - Sample;Shirts;MANGO MAN;Adults-Men;Men;;;;Fashion;;2018;20/S,MGVNSHRT00000670;2490.00;;;<p>COMPOSITION...:100%COTTON</p>;;;;;zerotype;;Spring;Broken size;No
2472048;23990374-14-2472048;SHIRT MAO;On Hold - Sample;Shirts;MANGO;Adults-Women;Women;;;;Fashion;;2018;19/XS,MNGOSHRT00002182,20/S,MNGOSHRT00002183,21/M,MNGOSHRT00002184,22/L,MNGOSHRT00002185;1990.00;;;<p>COMPOSITION...:100%VISCOSE</p>;;;;;zerotype;;Spring;Broken size;No
2472042;23090374-2-2472042;SHIRT MAO;On Hold - Sample;Shirts;MANGO;Adults-Women;Women;;;;Fashion;;2018;19/XS,MNGOSHRT00002178,20/S,MNGOSHRT00002179,21/M,MNGOSHRT00002180,22/L,MNGOSHRT00002181;1990.00;;;<p>COMPOSITION...:100%VISCOSE</p>;;;;;zerotype;;Spring;Broken size;No
2472041;23083600-70-2472041;SHIRT SISTER;On Hold - Sample;Shirts;MANGO;Adults-Women;Women;;;;Fashion;;2018;19/XS,MNGOSHRT00002174,20/S,MNGOSHRT00002175,21/M,MNGOSHRT00002176,22/L,MNGOSHRT00002177;2990.00;;;<p>COMPOSITION...:100%COTTON</p>;;;;;zerotype;;Spring;Broken size;No
2472038;23073601-2-2472038;SHIRT COMMON;On Hold - Sample;Shirts;MANGO;Adults-Women;Women;;;;Fashion;;2018;19/XS,MNGOSHRT00002170,20/S,MNGOSHRT00002171,21/M,MNGOSHRT00002172,22/L,MNGOSHRT00002173;2490.00;;;<p>COMPOSITION...:100%COTTON</p>;;;;;zerotype;;Spring;Broken size;No
2472035;23063612-52-2472035;SHIRT SCHOOL;On Hold - Sample;Shirts;MANGO;Adults-Women;Women;;;;Fashion;;2018;20/S,MNGOSHRT00002166,21/M,MNGOSHRT00002167,22/L,MNGOSHRT00002168,19/XS,MNGOSHRT00002169;2490.00;;;<p>COMPOSITION...:100%COTTON</p>;;;;;zerotype;;Spring;Broken size;No
2472033;23053647-56-2472033;SHIRT BRAVA-H;On Hold - Sample;Shirts;MANGO;Adults-Women;Women;;;;Fashion;;2018;19/XS,MNGOSHRT00002162,20/S,MNGOSHRT00002163,21/M,MNGOSHRT00002164,22/L,MNGOSHRT00002165;3490.00;;;<p>COMPOSITION...:100%COTTON</p>;;;;;zerotype;;Spring;Broken size;No
2472029;23050376-70-2472029;POLO SHIRT REPORT2-H;On Hold - Sample;Shirts;MANGO MAN;Adults-Men;Men;;;;Fashion;;2018;19/XS,MGVNSHRT00000655,20/S,MGVNSHRT00000656,21/M,MGVNSHRT00000657,22/L,MGVNSHRT00000658,23/XL,MGVNSHRT00000659;2490.00;;;<p>COMPOSITION...:100%COTTON</p>;;;;;zerotype;;Spring;Broken size;No
2472026;23043652-56-2472026;SHIRT HARVARD;On Hold - Sample;Shirts;MANGO MAN;Adults-Men;Men;;;;Fashion;;2018;20/S,MGVNSHRT00000652,21/M,MGVNSHRT00000653,22/L,MGVNSHRT00000654;4490.00;;;<p>COMPOSITION...:100%COTTON</p>;;;;;zerotype;;Spring;Broken size;No
2472009;23010576-TO-2472009;SHIRT MATEO;On Hold - Sample;Shirts;MANGO MAN;Adults-Men;Men;;;;Fashion;;2018;23/XL,MGVNSHRT00000622,24/XXL,MGVNSHRT00000623,21/M,MGVNSHRT00000624,19/XS,MGVNSHRT00000625,20/S,MGVNSHRT00000626,22/L,MGVNSHRT00000627;4490.00;;;<p>COMPOSITION...:100%COTTON</p>;;;;;zerotype;;Spring;Broken size;No
2472006;23010395-7-2472006;SHIRT BETA;On Hold - Sample;Shirts;MANGO MAN;Adults-Men;Men;;;;Fashion;;2018;19/XS,MGVNSHRT00000607,20/S,MGVNSHRT00000608,21/M,MGVNSHRT00000609,22/L,MGVNSHRT00000610,23/XL,MGVNSHRT00000611,24/XXL,MGVNSHRT00000612;3490.00;;;<p>COMPOSITION...:100%COTTON</p>;;;;;zerotype;;Spring;Broken size;No
2472001;24090442-56-2472001;DRESS COFI2-N;On Hold - Sample;Dresses;MANGO;Adults-Women;Women;;;;Fashion;;2018;20/S,MNGODRSS00004993,21/M,MNGODRSS00004994,22/L,MNGODRSS00004995,23/XL,MNGODRSS00004996;3490.00;;;<p>COMPOSITION...:54%COTTON,43%POLYAMIDE,3%ELASTANE BELT..........:54%COTTON,43%POLYAMIDE,3%ELASTANE</p>;;;;;zerotype;;Spring;Broken size;No
2471999;24070583-99-2471999;DRESS VERA;On Hold - Sample;Dresses;MANGO;Adults-Women;Women;;;;Fashion;;2018;19/XS,MNGODRSS00004991,21/M,MNGODRSS00004992;1790.00;;;<p>COMPOSITION...:95%POLYESTER,5%ELASTANE</p>;;;;;zerotype;;Spring;Broken size;No
2471994;23073647-2-2471994;DRESS BOR-H;On Hold - Sample;Dresses;MANGO;Adults-Women;Women;;;;Fashion;;2018;19/XS,MNGODRSS00004974,20/S,MNGODRSS00004975,21/M,MNGODRSS00004976,22/L,MNGODRSS00004977;2990.00;;;<p>COMPOSITION...:60%COTTON,40%POLYESTER</p>;;;;;zerotype;;Spring;Broken size;No
2471985;21083042-52-2471985;DRESS NEWMIX;On Hold - Sample;Dresses;MANGO;Adults-Women;Women;;;;Fashion;;2018;20/S,MNGODRSS00004936,21/M,MNGODRSS00004937,22/L,MNGODRSS00004938;3490.00;;;<p>COMPOSITION...:96%POLYESTER,4%ELASTANE LINING........:100%POLYESTER</p>;;;;;zerotype;;Spring;Broken size;No
2471980;21023048-5-2471980;DRESS GALES;On Hold - Sample;Dresses;MANGO;Adults-Women;Women;;;;Fashion;;2018;21/M,MNGODRSS00004916,20/S,MNGODRSS00004917,22/L,MNGODRSS00004918;3590.00;;;<p>COMPOSITION...:80%POLYESTER,16%COTTON,4%ELASTANE PIPING........:100%POLYESTER</p>;;;;;zerotype;;Spring;Broken size;No
2471471;24033013-TN-2471471;JEANS TRUMPET2;On Hold - Sample;Jeans;MANGO;Adults-Women;Women;;;;Fashion;;2018;44,MNGOJENS00003440;3490.00;;;<p>COMPOSITION...:98%COTTON,2%ELASTANE</p>;;;;;zerotype;;Spring;Broken size;No
2471466;24000376-TG-2471466;JEANS JANE2;On Hold - Sample;Jeans;MANGO;Adults-Women;Women;;;;Fashion;;2018;40,MNGOJENS00003432;1790.00;;;<p>COMPOSITION...:67%COTTON,28%POLYESTER,3%VISCOSE,2%ELASTANE</p>;;;;;zerotype;;Spring;Broken size;No
2471465;24000374-TN-2471465;JEANS CHUCK2;On Hold - Sample;Jeans;MANGO MAN;Adults-Men;Men;;;;Fashion;;2018;36,MGVNJENS00000232;2390.00;;;<p>COMPOSITION...:99%COTTON,1%ELASTANE</p>;;;;;zerotype;;Spring;Broken size;No
2471464;24000370-TG-2471464;JEANS DYLAN2;On Hold - Sample;Jeans;MANGO MAN;Adults-Men;Men;;;;Fashion;;2018;36,MGVNJENS00000231;3990.00;;;<p>COMPOSITION...:98%COTTON,2%ELASTANE</p>;;;;;zerotype;;Spring;Broken size;No
2471421;21050861-1-2471421;JEANS ELEKTRA2;On Hold - Sample;Jeans;MANGO;Adults-Women;Women;;;;Fashion;;2018;38,MNGOJENS00003379,40,MNGOJENS00003380,42,MNGOJENS00003381,44,MNGOJENS00003382;3990.00;;;<p>COMPOSITION...:98%COTTON,2%ELASTANE</p>;;;;;zerotype;;Spring;Broken size;No
2471419;23040464-74-2471419;SCARF FUN;On Hold - Sample;Scarves;MANGO;Adults-Women;Women;;;;Fashion;;2018;99,MNGOSCRF00000055;1990.00;;;<p>COMPOSITION...:62%ACRYLIC,25%POLYESTER,13%VISCOSE</p>;;;;;zerotype;;Spring;Broken size;No
2471417;23035008-16-2471417;FOULARD FLEUR;On Hold - Sample;Scarves;MANGO;Adults-Women;Women;;;;Fashion;;2018;99,MNGOSCRF00000053;1990.00;;;<p>COMPOSITION...:100%COTTON</p>;;;;;zerotype;;Spring;Broken size;No
2449939;LP-336018-FUSHIA PINK-2449939;TRACKPANT;On Hold - Sample;Track Pants;Sweet Dreams;Adults-Women;Women;Pink;;;Core;Casual;2018;M,STDMTRPT00000346,L,STDMTRPT00000347,XL,STDMTRPT00000348;1199.00;;;<p>COTTON SPANDEX 95-5</p>;;;;;zerotype;;Summer;Broken size;No
2449081;710613950025-WHITE-2449081;4SSULLIVAN-5-POCKET-DENIM-STRETCH DENIM;On Hold - Sample;Jeans;Polo Ralph Lauren;Adults-Men;Men;NA;;;Fashion;;2018;28/34,PORLJENS00000059,29/34,PORLJENS00000060,32/34,PORLJENS00000061,34/34,PORLJENS00000062,36/34,PORLJENS00000063;8290.00;;;<p>98% COTTON  2% ELASTANE</p>;;;;luxury-flash-sale;zerotype;;Spring;Flash Sale;No
2449038;710671501024-PINK-2449038;SSCNPKTCMSM1-SHORT SLEEVE-T-SHIRT-30/1'S JERSEY;On Hold - Sample;Tshirts;Polo Ralph Lauren;Adults-Men;Men;NA;;;Fashion;;2018;L,PORLTSHT00000896,M,PORLTSHT00000897,S,PORLTSHT00000898,XL,PORLTSHT00000899,XXL,PORLTSHT00000900;2990.00;;;<p>100% COTTON</p>;;;;luxury-flash-sale;zerotype;;Spring;Flash Sale;No
2449022;710670136031-LT BLUE-2449022;SSKCCMSLM1-SHORT SLEEVE-KNIT-WEATHERED MESH;On Hold - Sample;Tshirts;Polo Ralph Lauren;Adults-Men;Men;NA;;;Fashion;;2018;L,PORLTSHT00000816,M,PORLTSHT00000817,S,PORLTSHT00000818,XL,PORLTSHT00000819,XXL,PORLTSHT00000820;6290.00;;;<p>100% COTTON</p>;;;;luxury-flash-sale;zerotype;;Spring;Flash Sale;No
2407082;23000637-99-2407082;T-SHIRT MANGOLIP-H;On Hold - Sample;Tshirts;MANGO;Adults-Women;Women;;;;Fashion;;2018;19/XS,MNGOTSHT00006893,20/S,MNGOTSHT00006894,21/M,MNGOTSHT00006895,22/L,MNGOTSHT00006896,23/XL,MNGOTSHT00006897;690.00;;;<p>Cotton</p>;;;;international-brands-ss-18;zerotype;;Spring;Broken size;No
2407081;23000638-21-2407081;T-SHIRT MANGOTUC-H;On Hold - Sample;Tshirts;MANGO;Adults-Women;Women;;;;Fashion;;2018;19/XS,MNGOTSHT00006888,20/S,MNGOTSHT00006889,21/M,MNGOTSHT00006890,22/L,MNGOTSHT00006891,23/XL,MNGOTSHT00006892;690.00;;;<p>Cotton</p>;;;;international-brands-ss-18;zerotype;;Spring;Broken size;No
2407080;23000883-85-2407080;T-SHIRT BICHI;On Hold - Sample;Tshirts;MANGO;Adults-Women;Women;;;;Fashion;;2018;20/S,MNGOTSHT00006885,21/M,MNGOTSHT00006886,22/L,MNGOTSHT00006887;1790.00;;;<p>Cotton</p>;;;;international-brands-ss-18;zerotype;;Spring;Broken size;No
2407079;23030635-70-2407079;T-SHIRT MANGOTRI-H;On Hold - Sample;Tshirts;MANGO;Adults-Women;Women;;;;Fashion;;2018;19/XS,MNGOTSHT00006882,22/L,MNGOTSHT00006883,23/XL,MNGOTSHT00006884,20/S,MNGOTSHT00007002,21/M,MNGOTSHT00007003;690.00;;;<p>COMPOSITION...:100%COTTON</p>;;;;international-brands-ss-18;zerotype;;Spring;Broken size;No
2407078;23083031-56-2407078;T-SHIRT MANGOLOG-H;On Hold - Sample;Tshirts;MANGO;Adults-Women;Women;;;;Fashion;;2018;19/XS,MNGOTSHT00006877,20/S,MNGOTSHT00006878,21/M,MNGOTSHT00006879,22/L,MNGOTSHT00006880,23/XL,MNGOTSHT00006881;690.00;;;<p>Cotton</p>;;;;international-brands-ss-18;zerotype;;Spring;Broken size;No
2407077;23083031-70-2407077;T-SHIRT MANGOLOG-H;On Hold - Sample;Tshirts;MANGO;Adults-Women;Women;;;;Fashion;;2018;19/XS,MNGOTSHT00006872,20/S,MNGOTSHT00006873,21/M,MNGOTSHT00006874,22/L,MNGOTSHT00006875,23/XL,MNGOTSHT00006876;690.00;;;<p>Cotton</p>;;;;international-brands-ss-18;zerotype;;Spring;Broken size;No
2407076;21070619-2-2407076;DRESS VERA;On Hold - Sample;Dresses;MANGO;Adults-Women;Women;;;;Fashion;;2018;19/XS,MNGODRSS00004911,20/S,MNGODRSS00004912,21/M,MNGODRSS00004913,22/L,MNGODRSS00004914,23/XL,MNGODRSS00004915;1790.00;;;<p>Polyester</p>;;;;international-brands-ss-18;zerotype;;Spring;Broken size;No
2407074;21070619-76-2407074;DRESS VERA;On Hold - Sample;Dresses;MANGO;Adults-Women;Women;;;;Fashion;;2018;19/XS,MNGODRSS00004904,20/S,MNGODRSS00004905,22/L,MNGODRSS00004906,23/XL,MNGODRSS00004907;1790.00;;;<p>Polyester</p>;;;;international-brands-ss-18;zerotype;;Spring;Broken size;No
2407072;23040654-70-2407072;DRESS LAMA-H;On Hold - Sample;Dresses;MANGO;Adults-Women;Women;;;;Fashion;;2018;19/XS,MNGODRSS00004896,20/S,MNGODRSS00004897,21/M,MNGODRSS00004898,22/L,MNGODRSS00004899;2490.00;;;<p>Polyester</p>;;;;international-brands-ss-18;zerotype;;Spring;Broken size;No
2407065;23053612-99-2407065;TROUSERS TEN;On Hold - Sample;Trousers;MANGO;Adults-Women;Women;;;;Fashion;;2018;19/XS,MNGOTRSR00002134,20/S,MNGOTRSR00002135,21/M,MNGOTRSR00002136,22/L,MNGOTRSR00002137;3490.00;;;<p>Polyester</p>;;;;international-brands-ss-18;zerotype;;Spring;Broken size;No
2407054;24070829-TN-2407054;JEANS PATY8;On Hold - Sample;Jeans;MANGO;Adults-Women;Women;NA;;;Core;;2018;38,MNGOJENS00003356,34,MNGOJENS00003441,40,MNGOJENS00003606;1990.00;;;<p>COMPOSITION...:69%COTTON,28%POLYESTER,3%ELASTANE</p>;;;;;zerotype;;Spring;Broken size;No
2393783;24020437-56-2393783;T-SHIRT BASICA-N;On Hold - Sample;Tshirts;MANGO;Adults-Women;Women;;;;Fashion;;2018;21/M,MNGOTSHT00006869,22/L,MNGOTSHT00006870;990.00;;;<p>Cotton</p>;;;;international-brands-ss-18;zerotype;;Spring;Broken size;No
2393751;23010867-99-2393751;T-SHIRT PHOTO;On Hold - Sample;Tshirts;MANGO;Adults-Women;Women;;;;Fashion;;2018;20/S,MNGOTSHT00006744,21/M,MNGOTSHT00006745,22/L,MNGOTSHT00006746;1290.00;;;<p>Cotton</p>;;;;international-brands-ss-18;zerotype;;Spring;Broken size;No
2393750;23010867-52-2393750;T-SHIRT PHOTO;On Hold - Sample;Tshirts;MANGO;Adults-Women;Women;;;;Fashion;;2018;20/S,MNGOTSHT00006741,21/M,MNGOTSHT00006742,22/L,MNGOTSHT00006743;1290.00;;;<p>Cotton</p>;;;;international-brands-ss-18;zerotype;;Spring;Broken size;No
2393749;23010811-1-2393749;T-SHIRT ALLDERY;On Hold - Sample;Tshirts;MANGO;Adults-Women;Women;;;;Fashion;;2018;20/S,MNGOTSHT00006738,21/M,MNGOTSHT00006739,22/L,MNGOTSHT00006740;1790.00;;;<p>Cotton</p>;;;;international-brands-ss-18;zerotype;;Spring;Broken size;No
2393744;23003658-1-2393744;T-SHIRT LAZY;On Hold - Sample;Tshirts;MANGO;Adults-Women;Women;;;;Fashion;;2018;20/S,MNGOTSHT00006723,21/M,MNGOTSHT00006724,22/L,MNGOTSHT00006725;1290.00;;;<p>Cotton</p>;;;;international-brands-ss-18;zerotype;;Spring;Broken size;No
2393741;23001061-99-2393741;T-SHIRT LETTERS;On Hold - Sample;Tshirts;MANGO;Adults-Women;Women;;;;Fashion;;2018;20/S,MNGOTSHT00006712,21/M,MNGOTSHT00006713,22/L,MNGOTSHT00006714;1290.00;;;<p>Cotton</p>;;;;international-brands-ss-18;zerotype;;Spring;Broken size;No
2393738;23000922-1-2393738;T-SHIRT LETTERS;On Hold - Sample;Tshirts;MANGO;Adults-Women;Women;;;;Fashion;;2018;20/S,MNGOTSHT00006703,21/M,MNGOTSHT00006704,22/L,MNGOTSHT00006705;1290.00;;;<p>Cotton</p>;;;;international-brands-ss-18;zerotype;;Spring;Broken size;No
2393737;23000921-88-2393737;T-SHIRT ASIAN;On Hold - Sample;Tshirts;MANGO;Adults-Women;Women;;;;Fashion;;2018;20/S,MNGOTSHT00006700,21/M,MNGOTSHT00006701,22/L,MNGOTSHT00006702;1790.00;;;<p>Cotton</p>;;;;international-brands-ss-18;zerotype;;Spring;Broken size;No
2393736;23000921-40-2393736;T-SHIRT ASIAN;On Hold - Sample;Tshirts;MANGO;Adults-Women;Women;;;;Fashion;;2018;20/S,MNGOTSHT00006697,21/M,MNGOTSHT00006698,22/L,MNGOTSHT00006699;1790.00;;;<p>Cotton</p>;;;;international-brands-ss-18;zerotype;;Spring;Broken size;No
2393732;23000812-1-2393732;T-SHIRT CHAINS;On Hold - Sample;Tshirts;MANGO;Adults-Women;Women;;;;Fashion;;2018;20/S,MNGOTSHT00006685,21/M,MNGOTSHT00006686,22/L,MNGOTSHT00006687;1790.00;;;<p>Cotton</p>;;;;international-brands-ss-18;zerotype;;Spring;Broken size;No
2393674;24030444-56-2393674;DRESS VELDAPP-N;On Hold - Sample;Dresses;MANGO;Adults-Women;Women;;;;Fashion;;2018;21/M,MNGODRSS00004842,22/L,MNGODRSS00004843,23/XL,MNGODRSS00004844;1790.00;;;<p>Polyester</p>;;;;international-brands-ss-18;zerotype;;Spring;Tag;No
2393665;23080572-99-2393665;DRESS CODI;On Hold - Sample;Dresses;MANGO;Adults-Women;Women;;;;Fashion;;2018;19/XS,MNGODRSS00004814,20/S,MNGODRSS00004815,21/M,MNGODRSS00004816,22/L,MNGODRSS00004817;4490.00;;;<p>Viscose rayon</p>;;;;international-brands-ss-18;zerotype;;Spring;Broken size;No
2393656;23070711-31-2393656;DRESS WEDDING;On Hold - Sample;Dresses;MANGO;Adults-Women;Women;;;;Fashion;;2018;20/S,MNGODRSS00004779,21/M,MNGODRSS00004780,22/L,MNGODRSS00004781;2990.00;;;<p>Polyester</p>;;;;international-brands-ss-18;zerotype;;Spring;Broken size;No
2393650;23060828-43-2393650;DRESS MIA;On Hold - Sample;Dresses;MANGO;Adults-Women;Women;;;;Fashion;;2018;20/S,MNGODRSS00004756,21/M,MNGODRSS00004757;4490.00;;;<p>Viscose rayon</p>;;;;international-brands-ss-18;zerotype;;Spring;Broken size;No
2393648;23060758-99-2393648;DRESS PATI;On Hold - Sample;Dresses;MANGO;Adults-Women;Women;;;;Fashion;;2018;19/XS,MNGODRSS00004749,20/S,MNGODRSS00004750,21/M,MNGODRSS00004751,22/L,MNGODRSS00004752;4490.00;;;<p>Polyester</p>;;;;international-brands-ss-18;zerotype;;Spring;Broken size;No
2393643;23050609-99-2393643;DRESS CORSA;On Hold - Sample;Dresses;MANGO;Adults-Women;Women;;;;Fashion;;2018;19/XS,MNGODRSS00004730,20/S,MNGODRSS00004731,21/M,MNGODRSS00004732,22/L,MNGODRSS00004733;4490.00;;;<p>Polyester</p>;;;;international-brands-ss-18;zerotype;;Spring;Broken size;No
2393634;23030572-99-2393634;DRESS MIRROR;On Hold - Sample;Dresses;MANGO;Adults-Women;Women;;;;Fashion;;2018;20/S,MNGODRSS00004695,21/M,MNGODRSS00004696,22/L,MNGODRSS00004697;5490.00;;;<p>Polyester</p>;;;;international-brands-ss-18;zerotype;;Spring;Broken size;No
2393628;23010846-99-2393628;DRESS GRANY;On Hold - Sample;Dresses;MANGO;Adults-Women;Women;;;;Fashion;;2018;19/XS,MNGODRSS00004670,20/S,MNGODRSS00004671,21/M,MNGODRSS00004672,22/L,MNGODRSS00004673;4490.00;;;<p>Cotton</p>;;;;international-brands-ss-18;zerotype;;Spring;Broken size;No
2393621;21090750-2-2393621;DRESS DOTA;On Hold - Sample;Dresses;MANGO;Adults-Women;Women;;;;Fashion;;2018;19/XS,MNGODRSS00004643,20/S,MNGODRSS00004644,21/M,MNGODRSS00004645,22/L,MNGODRSS00004646;5490.00;;;<p>Viscose rayon</p>;;;;international-brands-ss-18;zerotype;;Spring;Broken size;No
2393620;21080880-43-2393620;DRESS FLORETA;On Hold - Sample;Dresses;MANGO;Adults-Women;Women;;;;Fashion;;2018;19/XS,MNGODRSS00004638,20/S,MNGODRSS00004639,21/M,MNGODRSS00004640,22/L,MNGODRSS00004641,23/XL,MNGODRSS00004642;4490.00;;;<p>Polyester</p>;;;;international-brands-ss-18;zerotype;;Spring;Broken size;No
2393614;21060861-95-2393614;DRESS MERYRIB;On Hold - Sample;Dresses;MANGO;Adults-Women;Women;;;;Fashion;;2018;19/XS,MNGODRSS00004618,21/M,MNGODRSS00004619,20/S,MNGODRSS00004935;2490.00;;;<p>COMPOSITION...:74%POLYESTER,24%VISCOSE,2%ELASTANE</p>;;;;international-brands-ss-18;zerotype;;Spring;Broken size;No
2393613;21060861-85-2393613;DRESS MERYRIB;On Hold - Sample;Dresses;MANGO;Adults-Women;Women;;;;Fashion;;2018;22/L,MNGODRSS00004617;2490.00;;;<p>Polyester</p>;;;;;zerotype;;Spring;Broken size;No
2393612;21060839-99-2393612;DRESS DOTIE;On Hold - Sample;Dresses;MANGO;Adults-Women;Women;;;;Fashion;;2018;19/XS,MNGODRSS00004613,20/S,MNGODRSS00004614,21/M,MNGODRSS00004615,22/L,MNGODRSS00004616;2990.00;;;<p>Viscose rayon</p>;;;;international-brands-ss-18;zerotype;;Spring;Broken size;No
2393611;21053045-99-2393611;DRESS TOPO;On Hold - Sample;Dresses;MANGO;Adults-Women;Women;;;;Fashion;;2018;19/XS,MNGODRSS00004608,20/S,MNGODRSS00004609,21/M,MNGODRSS00004610,22/L,MNGODRSS00004611,23/XL,MNGODRSS00004612;4490.00;;;<p>Polyester</p>;;;;international-brands-ss-18;zerotype;;Spring;Broken size;No
2393599;21030565-99-2393599;DRESS MICHI;On Hold - Sample;Dresses;MANGO;Adults-Women;Women;;;;Fashion;;2018;19/XS,MNGODRSS00004559,20/S,MNGODRSS00004560,21/M,MNGODRSS00004561,22/L,MNGODRSS00004562,23/XL,MNGODRSS00004563;4490.00;;;<p>Polyester</p>;;;;international-brands-ss-18;zerotype;;Spring;Broken size;No
2393597;21010617-99-2393597;DRESS MARINE;On Hold - Sample;Dresses;MANGO;Adults-Women;Women;;;;Fashion;;2018;19/XS,MNGODRSS00004550,20/S,MNGODRSS00004551,21/M,MNGODRSS00004552,22/L,MNGODRSS00004553;5490.00;;;<p>Polyester</p>;;;;international-brands-ss-18;zerotype;;Spring;Broken size;No
2393394;23070526-70-2393394;ONE-PIECE SUIT CHERRY-H;On Hold - Sample;Jumpsuit;MANGO;Adults-Women;Women;;;;Fashion;;2018;19/XS,MNGOJMST00000406,20/S,MNGOJMST00000407,21/M,MNGOJMST00000408,22/L,MNGOJMST00000409;4490.00;;;<p>Polyester</p>;;;;international-brands-ss-18;zerotype;;Spring;Broken size;No
2393392;21070612-99-2393392;ONE-PIECE SUIT MARINE;On Hold - Sample;Jumpsuit;MANGO;Adults-Women;Women;;;;Fashion;;2018;19/XS,MNGOJMST00000398,20/S,MNGOJMST00000399,21/M,MNGOJMST00000400,22/L,MNGOJMST00000401;5490.00;;;<p>Polyester</p>;;;;international-brands-ss-18;zerotype;;Spring;Broken size;No
2393360;23090332-56-2393360;TROUSERS LALI-H;On Hold - Sample;Trousers;MANGO;Adults-Women;Women;;;;Fashion;;2018;19/XS,MNGOTRSR00002099,20/S,MNGOTRSR00002100,21/M,MNGOTRSR00002101,22/L,MNGOTRSR00002102;3990.00;;;<p>Cotton</p>;;;;international-brands-ss-18;zerotype;;Spring;Broken size;No
2393354;23050516-99-2393354;TROUSERS AVANTI2;On Hold - Sample;Trousers;MANGO;Adults-Women;Women;;;;Fashion;;2018;34,MNGOTRSR00002074,36,MNGOTRSR00002075,38,MNGOTRSR00002076,40,MNGOTRSR00002077,42,MNGOTRSR00002078;2490.00;;;<p>Cotton</p>;;;;international-brands-ss-18;zerotype;;Spring;Broken size;No
2393353;23050516-69-2393353;TROUSERS AVANTI2;On Hold - Sample;Trousers;MANGO;Adults-Women;Women;;;;Fashion;;2018;34,MNGOTRSR00002069,36,MNGOTRSR00002070,38,MNGOTRSR00002071,40,MNGOTRSR00002072,42,MNGOTRSR00002073;2490.00;;;<p>Cotton</p>;;;;international-brands-ss-18;zerotype;;Spring;Broken size;No
2393352;23040515-99-2393352;TROUSERS ALANO2;On Hold - Sample;Trousers;MANGO;Adults-Women;Women;;;;Fashion;;2018;34,MNGOTRSR00002063,36,MNGOTRSR00002064,38,MNGOTRSR00002065,40,MNGOTRSR00002066,42,MNGOTRSR00002067,44,MNGOTRSR00002068;3490.00;;;<p>Cotton</p>;;;;international-brands-ss-18;zerotype;;Spring;Broken size;No
2393349;23040515-69-2393349;TROUSERS ALANO2;On Hold - Sample;Trousers;MANGO;Adults-Women;Women;;;;Fashion;;2018;34,MNGOTRSR00002045,36,MNGOTRSR00002046,38,MNGOTRSR00002047,40,MNGOTRSR00002048,42,MNGOTRSR00002049,44,MNGOTRSR00002050;3490.00;;;<p>Cotton</p>;;;;international-brands-ss-18;zerotype;;Spring;Broken size;No
2393341;23020390-99-2393341;TROUSERS NINA-H;On Hold - Sample;Trousers;MANGO;Adults-Women;Women;;;;Fashion;;2018;34,MNGOTRSR00002013,36,MNGOTRSR00002014,38,MNGOTRSR00002015,40,MNGOTRSR00002016;2490.00;;;<p>Cotton</p>;;;;international-brands-ss-18;zerotype;;Spring;Broken size;No
2393339;23020390-56-2393339;TROUSERS NINA-H;On Hold - Sample;Trousers;MANGO;Adults-Women;Women;;;;Fashion;;2018;34,MNGOTRSR00002005,36,MNGOTRSR00002006,38,MNGOTRSR00002007,40,MNGOTRSR00002008;2490.00;;;<p>Cotton</p>;;;;international-brands-ss-18;zerotype;;Spring;Broken size;No
2393294;21080600-99-2393294;TROUSERS DAVID2;On Hold - Sample;Trousers;MANGO;Adults-Women;Women;;;;Fashion;;2018;34,MNGOTRSR00001989,36,MNGOTRSR00001990,38,MNGOTRSR00001991,40,MNGOTRSR00001992,42,MNGOTRSR00001993,44,MNGOTRSR00001994;2990.00;;;<p>Cotton</p>;;;;international-brands-ss-18;zerotype;;Spring;Broken size;No
2393292;21060631-70-2393292;TROUSERS LITIO;On Hold - Sample;Trousers;MANGO;Adults-Women;Women;;;;Fashion;;2018;34,MNGOTRSR00001978,36,MNGOTRSR00001979,38,MNGOTRSR00001980,40,MNGOTRSR00001981,42,MNGOTRSR00001982;4490.00;;;<p>Cotton</p>;;;;international-brands-ss-18;zerotype;;Spring;Broken size;No
2393287;21030524-69-2393287;TROUSERS BOREAL2;On Hold - Sample;Trousers;MANGO;Adults-Women;Women;;;;Fashion;;2018;34,MNGOTRSR00001951,36,MNGOTRSR00001952,38,MNGOTRSR00001953,40,MNGOTRSR00001954,42,MNGOTRSR00001955,44,MNGOTRSR00001956;2990.00;;;<p>Polyester</p>;;;;international-brands-ss-18;zerotype;;Spring;Broken size;No
2393259;23060571-1-2393259;BLOUSE MONI;On Hold - Sample;Tops;MANGO;Adults-Women;Women;;;;Fashion;;2018;19/XS,MNGOTOPS00005054,20/S,MNGOTOPS00005055,21/M,MNGOTOPS00005056,22/L,MNGOTOPS00005057;3490.00;;;<p>Cotton</p>;;;;international-brands-ss-18;zerotype;;Spring;Broken size;No
2393254;23050646-99-2393254;BLOUSE HELEN;On Hold - Sample;Tops;MANGO;Adults-Women;Women;;;;Fashion;;2018;19/XS,MNGOTOPS00005034,20/S,MNGOTOPS00005035,21/M,MNGOTOPS00005036,22/L,MNGOTOPS00005037,23/XL,MNGOTOPS00005177;890.00;;;<p>COMPOSITION...:95%COTTON,5%ELASTANE</p>;;;;international-brands-ss-18;zerotype;;Spring;Broken size;No
2393249;23040828-43-2393249;BLOUSE MIA;On Hold - Sample;Tops;MANGO;Adults-Women;Women;;;;Fashion;;2018;20/S,MNGOTOPS00005015,21/M,MNGOTOPS00005016,22/L,MNGOTOPS00005017;3490.00;;;<p>Viscose rayon</p>;;;;international-brands-ss-18;zerotype;;Spring;Broken size;No
2393248;23040468-99-2393248;BLOUSE FELIA;On Hold - Sample;Tops;MANGO;Adults-Women;Women;;;;Fashion;;2018;19/XS,MNGOTOPS00005010,20/S,MNGOTOPS00005011,21/M,MNGOTOPS00005012,22/L,MNGOTOPS00005013,23/XL,MNGOTOPS00005014;3490.00;;;<p>Polyester</p>;;;;international-brands-ss-18;zerotype;;Spring;Broken size;No
2393246;23030647-91-2393246;BLOUSE HELEN;On Hold - Sample;Tops;MANGO;Adults-Women;Women;;;;Fashion;;2018;19/XS,MNGOTOPS00005001,20/S,MNGOTOPS00005002,21/M,MNGOTOPS00005003,22/L,MNGOTOPS00005004,23/XL,MNGOTOPS00005005;890.00;;;<p>Cotton</p>;;;;international-brands-ss-18;zerotype;;Spring;Broken size;No
2393242;23020576-2-2393242;BLOUSE SWAN;On Hold - Sample;Tops;MANGO;Adults-Women;Women;;;;Fashion;;2018;19/XS,MNGOTOPS00004985,20/S,MNGOTOPS00004986,21/M,MNGOTOPS00004987,22/L,MNGOTOPS00004988;3490.00;;;<p>Viscose rayon</p>;;;;international-brands-ss-18;zerotype;;Spring;Broken size;No
2393240;23010575-70-2393240;BLOUSE NATALIE;On Hold - Sample;Tops;MANGO;Adults-Women;Women;;;;Fashion;;2018;20/S,MNGOTOPS00004978,21/M,MNGOTOPS00004979,22/L,MNGOTOPS00004980;3490.00;;;<p>Viscose rayon</p>;;;;international-brands-ss-18;zerotype;;Spring;Broken size;No
2393237;23010573-99-2393237;BLOUSE BRANDI;On Hold - Sample;Tops;MANGO;Adults-Women;Women;;;;Fashion;;2018;19/XS,MNGOTOPS00004964,20/S,MNGOTOPS00004965,21/M,MNGOTOPS00004966,22/L,MNGOTOPS00004967,23/XL,MNGOTOPS00004968;4490.00;;;<p>Viscose rayon</p>;;;;international-brands-ss-18;zerotype;;Spring;Broken size;No
2393236;21090676-20-2393236;BLOUSE MINNIE;On Hold - Sample;Tops;MANGO;Adults-Women;Women;;;;Fashion;;2018;19/XS,MNGOTOPS00004960,20/S,MNGOTOPS00004961,21/M,MNGOTOPS00004962,22/L,MNGOTOPS00004963;3490.00;;;<p>Polyester</p>;;;;international-brands-ss-18;zerotype;;Spring;Broken size;No
2393230;21040659-2-2393230;BLOUSE SABELA;On Hold - Sample;Tops;MANGO;Adults-Women;Women;;;;Fashion;;2018;19/XS,MNGOTOPS00004936,20/S,MNGOTOPS00004937,21/M,MNGOTOPS00004938,22/L,MNGOTOPS00004939;4490.00;;;<p>Viscose rayon</p>;;;;international-brands-ss-18;zerotype;;Spring;Broken size;No
2393228;21000619-85-2393228;BLOUSE SANDY;On Hold - Sample;Tops;MANGO;Adults-Women;Women;;;;Fashion;;2018;19/XS,MNGOTOPS00004928,20/S,MNGOTOPS00004929,21/M,MNGOTOPS00004930,22/L,MNGOTOPS00004931;4490.00;;;<p>Viscose rayon</p>;;;;international-brands-ss-18;zerotype;;Spring;Broken size;No
2393180;21050597-99-2393180;BLAZER PEPITA;On Hold - Sample;Blazers;MANGO;Adults-Women;Women;;;;Fashion;;2018;19/XS,MNGOBLZR00000214,20/S,MNGOBLZR00000215,21/M,MNGOBLZR00000216,22/L,MNGOBLZR00000217,23/XL,MNGOBLZR00000218;6990.00;;;<p>Polyester</p>;;;;international-brands-ss-18;zerotype;;Summer;Broken size;No
2393178;23090548-76-2393178;NECK SCARF FRESIA;On Hold - Sample;Scarves;MANGO;Adults-Women;Women;;;;Fashion;;2018;99,MNGOSCRF00000052;990.00;;;<p>Polyester</p>;;;;international-brands-ss-18;zerotype;;Spring;Broken size;No
2393173;23053021-51-2393173;FOULARD NOLINA;On Hold - Sample;Scarves;MANGO;Adults-Women;Women;;;;Fashion;;2018;99,MNGOSCRF00000047;1490.00;;;<p>Polyester</p>;;;;international-brands-ss-18;zerotype;;Spring;Broken size;No
2393172;23040671-OR-2393172;DIADEM MCH ZINNIA;On Hold - Sample;Scarves;MANGO;Adults-Women;Women;;;;Fashion;;2018;99,MNGOSCRF00000046;1490.00;;;<p>Polyester</p>;;;;international-brands-ss-18;zerotype;;Spring;Broken size;No
2393171;23040464-52-2393171;SCARF FUN;On Hold - Sample;Scarves;MANGO;Adults-Women;Women;;;;Fashion;;2018;99,MNGOSCRF00000045;1990.00;;;<p>Acrylic</p>;;;;international-brands-ss-18;zerotype;;Spring;Broken size;No
2393087;23040535-70-2393087;SKIRT CITY;On Hold - Sample;Skirts;MANGO;Adults-Women;Women;;;;Fashion;;2018;20/S,MNGOSKRT00000791,21/M,MNGOSKRT00000792,22/L,MNGOSKRT00000793;3490.00;;;<p>Polyester</p>;;;;international-brands-ss-18;zerotype;;Spring;Broken size;No
2393083;21070620-99-2393083;SKIRT SUSHI;On Hold - Sample;Skirts;MANGO;Adults-Women;Women;;;;Fashion;;2018;36,MNGOSKRT00000784,38,MNGOSKRT00000785,40,MNGOSKRT00000786,42,MNGOSKRT00000787;4490.00;;;<p>Cotton</p>;;;;international-brands-ss-18;zerotype;;Spring;Broken size;No
2392758;24070437-2-2392758;OVERSHIRT STRECHI-N;On Hold - Sample;Shirts;MANGO;Adults-Women;Women;;;;Fashion;;2018;19/XS,MNGOSHRT00002121,20/S,MNGOSHRT00002122,21/M,MNGOSHRT00002123,22/L,MNGOSHRT00002124,23/XL,MNGOSHRT00002125;2290.00;;;<p>Cotton</p>;;;;international-brands-ss-18;zerotype;;Spring;Broken size;No
2392753;23080460-52-2392753;SHIRT OXFORD;On Hold - Sample;Shirts;MANGO;Adults-Women;Women;;;;Fashion;;2018;19/XS,MNGOSHRT00002099,20/S,MNGOSHRT00002100,21/M,MNGOSHRT00002101,22/L,MNGOSHRT00002102;2290.00;;;<p>Cotton</p>;;;;international-brands-ss-18;zerotype;;Spring;Broken size;No
2392736;23020389-99-2392736;SHIRT RETRO2;On Hold - Sample;Shirts;MANGO;Adults-Women;Women;;;;Fashion;;2018;19/XS,MNGOSHRT00002034,20/S,MNGOSHRT00002035,21/M,MNGOSHRT00002036,22/L,MNGOSHRT00002037;2490.00;;;<p>Viscose rayon</p>;;;;international-brands-ss-18;zerotype;;Spring;Broken size;No
2392735;23020389-70-2392735;SHIRT RETRO2;On Hold - Sample;Shirts;MANGO;Adults-Women;Women;;;;Fashion;;2018;19/XS,MNGOSHRT00002030,20/S,MNGOSHRT00002031,21/M,MNGOSHRT00002032,22/L,MNGOSHRT00002033;2490.00;;;<p>Viscose rayon</p>;;;;international-brands-ss-18;zerotype;;Spring;Broken size;No
2392728;23010400-51-2392728;SHIRT VOYAGE-H;On Hold - Sample;Shirts;MANGO;Adults-Women;Women;;;;Fashion;;2018;19/XS,MNGOSHRT00002000,20/S,MNGOSHRT00002001,21/M,MNGOSHRT00002002,22/L,MNGOSHRT00002003;3490.00;;;<p>Cotton</p>;;;;international-brands-ss-18;zerotype;;Spring;Broken size;No
2392724;21090803-12-2392724;SHIRT JAIPUR;On Hold - Sample;Shirts;MANGO;Adults-Women;Women;;;;Fashion;;2018;19/XS,MNGOSHRT00001983,20/S,MNGOSHRT00001984,21/M,MNGOSHRT00001985,22/L,MNGOSHRT00001986;3490.00;;;<p>Cotton</p>;;;;international-brands-ss-18;zerotype;;Spring;Broken size;No
2392723;21090557-50-2392723;SHIRT SWEDENRA;On Hold - Sample;Shirts;MANGO;Adults-Women;Women;;;;Fashion;;2018;19/XS,MNGOSHRT00001978,20/S,MNGOSHRT00001979,21/M,MNGOSHRT00001980,22/L,MNGOSHRT00001981,23/XL,MNGOSHRT00001982;2290.00;;;<p>Viscose rayon</p>;;;;international-brands-ss-18;zerotype;;Spring;Broken size;No
2392719;21070542-50-2392719;SHIRT LUISA;On Hold - Sample;Shirts;MANGO;Adults-Women;Women;;;;Fashion;;2018;19/XS,MNGOSHRT00001958,20/S,MNGOSHRT00001959,21/M,MNGOSHRT00001960,22/L,MNGOSHRT00001961,23/XL,MNGOSHRT00001962;2290.00;;;<p>Cotton</p>;;;;international-brands-ss-18;zerotype;;Spring;Broken size;No
2392718;21070542-1-2392718;SHIRT LUISA;On Hold - Sample;Shirts;MANGO;Adults-Women;Women;;;;Fashion;;2018;19/XS,MNGOSHRT00001953,20/S,MNGOSHRT00001954,21/M,MNGOSHRT00001955,22/L,MNGOSHRT00001956,23/XL,MNGOSHRT00001957;2290.00;;;<p>Cotton</p>;;;;international-brands-ss-18;zerotype;;Spring;Broken size;No
2392717;21040614-70-2392717;SHIRT ALONSA;On Hold - Sample;Shirts;MANGO;Adults-Women;Women;;;;Fashion;;2018;19/XS,MNGOSHRT00001949,20/S,MNGOSHRT00001950,21/M,MNGOSHRT00001951,22/L,MNGOSHRT00001952;4490.00;;;<p>Lyocell</p>;;;;international-brands-ss-18;zerotype;;Spring;Broken size;No
2392716;21030543-20-2392716;SHIRT MONA;On Hold - Sample;Shirts;MANGO;Adults-Women;Women;;;;Fashion;;2018;19/XS,MNGOSHRT00001944,20/S,MNGOSHRT00001945,21/M,MNGOSHRT00001946,22/L,MNGOSHRT00001947,23/XL,MNGOSHRT00001948;2290.00;;;<p>Cotton</p>;;;;international-brands-ss-18;zerotype;;Spring;Broken size;No
2392715;21030543-1-2392715;SHIRT MONA;On Hold - Sample;Shirts;MANGO;Adults-Women;Women;;;;Fashion;;2018;19/XS,MNGOSHRT00001939,20/S,MNGOSHRT00001940,21/M,MNGOSHRT00001941,22/L,MNGOSHRT00001942,23/XL,MNGOSHRT00001943;2290.00;;;<p>Cotton</p>;;;;international-brands-ss-18;zerotype;;Spring;Broken size;No
2392712;21030365-99-2392712;SHIRT BASIC;On Hold - Sample;Shirts;MANGO;Adults-Women;Women;;;;Fashion;;2018;19/XS,MNGOSHRT00001924,20/S,MNGOSHRT00001925,21/M,MNGOSHRT00001926,22/L,MNGOSHRT00001927,23/XL,MNGOSHRT00001928;2290.00;;;<p>Polyester</p>;;;;international-brands-ss-18;zerotype;;Spring;Broken size;No
2392709;21010837-43-2392709;SHIRT JAIPUR2;On Hold - Sample;Shirts;MANGO;Adults-Women;Women;;;;Fashion;;2018;19/XS,MNGOSHRT00001910,20/S,MNGOSHRT00001911,21/M,MNGOSHRT00001912,22/L,MNGOSHRT00001913;3490.00;;;<p>Viscose rayon</p>;;;;international-brands-ss-18;zerotype;;Spring;Broken size;No
2391616;23090611-50-2391616;SHIRT BANGA;On Hold - Sample;Shirts;MANGO MAN;Adults-Men;Men;;;;Fashion;;2018;20/S,MGVNSHRT00000592,21/M,MGVNSHRT00000593,22/L,MGVNSHRT00000594,23/XL,MGVNSHRT00000595,19/XS,MGVNSHRT00000665,24/XXL,MGVNSHRT00000666;4490.00;;;<p>COMPOSITION...:100%COTTON</p>;;;;international-brands-ss-18,ss-18-menswear-tshirts,ss-18-menswear-shirts;zerotype;;Spring;Broken size;No
2391615;23090606-TO-2391615;SHIRT MARTINA;On Hold - Sample;Shirts;MANGO MAN;Adults-Men;Men;;;;Fashion;;2018;21/M,MGVNSHRT00000589,22/L,MGVNSHRT00000590,23/XL,MGVNSHRT00000591,24/XXL,MGVNSHRT00000662,20/S,MGVNSHRT00000663,19/XS,MGVNSHRT00000664;4490.00;;;<p>COMPOSITION...:100%COTTON</p>;;;;international-brands-ss-18,ss-18-menswear-tshirts,ss-18-menswear-shirts;zerotype;;Spring;Broken size;No
2391612;23070550-TO-2391612;SHIRT DAVID2;On Hold - Sample;Shirts;MANGO MAN;Adults-Men;Men;;;;Fashion;;2018;20/S,MGVNSHRT00000579,21/M,MGVNSHRT00000580,22/L,MGVNSHRT00000581,23/XL,MGVNSHRT00000582,24/XXL,MGVNSHRT00000583,19/XS,MGVNSHRT00000660;3490.00;;;<p>COMPOSITION...:100%COTTON</p>;;;;ss18-collection-menswear,international-brands-ss-18,ss-18-menswear-tshirts,ss-18-menswear-shirts;zerotype;;Spring;Broken size;No
2391609;23060396-96-2391609;SHIRT BASICA;On Hold - Sample;Shirts;MANGO MAN;Adults-Men;Men;;;;Fashion;;2018;20/S,MGVNSHRT00000569,21/M,MGVNSHRT00000570,22/L,MGVNSHRT00000571,23/XL,MGVNSHRT00000572;4490.00;;;<p>Cotton</p>;;;;international-brands-ss-18,ss-18-menswear-tshirts,ss-18-menswear-shirts;zerotype;;Spring;Broken size;No
2391608;23043028-56-2391608;SHIRT PLAY2;On Hold - Sample;Shirts;MANGO MAN;Adults-Men;Men;;;;Fashion;;2018;20/S,MGVNSHRT00000564,21/M,MGVNSHRT00000565,22/L,MGVNSHRT00000566,23/XL,MGVNSHRT00000567,24/XXL,MGVNSHRT00000568,19/XS,MGVNSHRT00000651;3490.00;;;<p>COMPOSITION...:95%COTTON,5%ELASTANE</p>;;;;ss18-collection-menswear,international-brands-ss-18,ss-18-menswear-tshirts,ss-18-menswear-shirts;zerotype;;Spring;Broken size;No
2391606;23043028-1-2391606;SHIRT PLAY2;On Hold - Sample;Shirts;MANGO MAN;Adults-Men;Men;;;;Fashion;;2018;19/XS,MGVNSHRT00000558,20/S,MGVNSHRT00000559,21/M,MGVNSHRT00000560,22/L,MGVNSHRT00000561,23/XL,MGVNSHRT00000562,24/XXL,MGVNSHRT00000563;3490.00;;;<p>Cotton</p>;;;;ss18-collection-menswear,international-brands-ss-18,ss-18-menswear-tshirts,ss-18-menswear-shirts;zerotype;;Spring;Broken size;No
2391605;23040534-78-2391605;SHIRT BORDEAU;On Hold - Sample;Shirts;MANGO MAN;Adults-Men;Men;;;;Fashion;;2018;20/S,MGVNSHRT00000554,21/M,MGVNSHRT00000555,22/L,MGVNSHRT00000556,23/XL,MGVNSHRT00000557,19/XS,MGVNSHRT00000650;4490.00;;;<p>COMPOSITION...:100%COTTON</p>;;;;ss18-collection-menswear,international-brands-ss-18,ss-18-menswear-tshirts,ss-18-menswear-shirts;zerotype;;Spring;Broken size;No
2391603;23040534-52-2391603;SHIRT BORDEAU;On Hold - Sample;Shirts;MANGO MAN;Adults-Men;Men;;;;Fashion;;2018;20/S,MGVNSHRT00000550,21/M,MGVNSHRT00000551,22/L,MGVNSHRT00000552,23/XL,MGVNSHRT00000553,19/XS,MGVNSHRT00000649;4490.00;;;<p>COMPOSITION...:100%COTTON</p>;;;;ss18-collection-menswear,international-brands-ss-18,ss-18-menswear-tshirts,ss-18-menswear-shirts;zerotype;;Spring;Broken size;No
2391602;23040490-50-2391602;SHIRT ABIE;On Hold - Sample;Shirts;MANGO MAN;Adults-Men;Men;;;;Fashion;;2018;19/XS,MGVNSHRT00000546,20/S,MGVNSHRT00000547,21/M,MGVNSHRT00000548,22/L,MGVNSHRT00000549,23/XL,MGVNSHRT00000647,24/XXL,MGVNSHRT00000648;3490.00;;;<p>COMPOSITION...:100%COTTON</p>;;;;ss18-collection-menswear,international-brands-ss-18,ss-18-menswear-tshirts,ss-18-menswear-shirts;zerotype;;Spring;Broken size;No
2391601;23040489-92-2391601;SHIRT ANETO;On Hold - Sample;Shirts;MANGO MAN;Adults-Men;Men;;;;Fashion;;2018;20/S,MGVNSHRT00000542,21/M,MGVNSHRT00000543,22/L,MGVNSHRT00000544,23/XL,MGVNSHRT00000545;4490.00;;;<p>Cotton</p>;;;;international-brands-ss-18,ss-18-menswear-tshirts,ss-18-menswear-shirts;zerotype;;Spring;Broken size;No
2391599;23040372-2-2391599;SHIRT ADELINE;On Hold - Sample;Shirts;MANGO MAN;Adults-Men;Men;;;;Fashion;;2018;21/M,MGVNSHRT00000538,22/L,MGVNSHRT00000539,23/XL,MGVNSHRT00000540,24/XXL,MGVNSHRT00000541,20/S,MGVNSHRT00000646;3490.00;;;<p>COMPOSITION...:100%COTTON</p>;;;;international-brands-ss-18,ss-18-menswear-tshirts,ss-18-menswear-shirts;zerotype;;Spring;Broken size;No
2391598;23030393-TO-2391598;SHIRT BRADB;On Hold - Sample;Shirts;MANGO MAN;Adults-Men;Men;;;;Fashion;;2018;20/S,MGVNSHRT00000535,21/M,MGVNSHRT00000536,22/L,MGVNSHRT00000537,19/XS,MGVNSHRT00000643,23/XL,MGVNSHRT00000644,24/XXL,MGVNSHRT00000645;3490.00;;;<p>COMPOSITION...:100%COTTON</p>;;;;ss18-collection-menswear,international-brands-ss-18,ss-18-menswear-tshirts,ss-18-menswear-shirts;zerotype;;Spring;Broken size;No
2391597;23020563-50-2391597;SHIRT STAR;On Hold - Sample;Shirts;MANGO MAN;Adults-Men;Men;;;;Fashion;;2018;20/S,MGVNSHRT00000531,21/M,MGVNSHRT00000532,22/L,MGVNSHRT00000533,23/XL,MGVNSHRT00000534,24/XXL,MGVNSHRT00000637,19/XS,MGVNSHRT00000638;3490.00;;;<p>COMPOSITION...:100%COTTON</p>;;;;ss18-collection-menswear,international-brands-ss-18,ss-18-menswear-tshirts,ss-18-menswear-shirts;zerotype;;Spring;Broken size;No
2391595;23020562-56-2391595;SHIRT OSMAR;On Hold - Sample;Shirts;MANGO MAN;Adults-Men;Men;;;;Fashion;;2018;20/S,MGVNSHRT00000527,21/M,MGVNSHRT00000528,22/L,MGVNSHRT00000529,23/XL,MGVNSHRT00000530,19/XS,MGVNSHRT00000635,24/XXL,MGVNSHRT00000636;3490.00;;;<p>COMPOSITION...:100%COTTON</p>;;;;ss18-collection-menswear,international-brands-ss-18,ss-18-menswear-tshirts,ss-18-menswear-shirts;zerotype;;Spring;Broken size;No
2391594;23020560-1-2391594;SHIRT NAVARRO2;On Hold - Sample;Shirts;MANGO MAN;Adults-Men;Men;;;;Fashion;;2018;19/XS,MGVNSHRT00000522,20/S,MGVNSHRT00000523,21/M,MGVNSHRT00000524,22/L,MGVNSHRT00000525,23/XL,MGVNSHRT00000526,24/XXL,MGVNSHRT00000634;3490.00;;;<p>COMPOSITION...:100%COTTON</p>;;;;international-brands-ss-18,ss-18-menswear-tshirts,ss-18-menswear-shirts;zerotype;;Spring;Broken size;No
2391593;23020555-50-2391593;SHIRT ADELE;On Hold - Sample;Shirts;MANGO MAN;Adults-Men;Men;;;;Fashion;;2018;20/S,MGVNSHRT00000518,21/M,MGVNSHRT00000519,22/L,MGVNSHRT00000520,23/XL,MGVNSHRT00000521,19/XS,MGVNSHRT00000632,24/XXL,MGVNSHRT00000633;3490.00;;;<p>COMPOSITION...:100%COTTON</p>;;;;ss18-collection-menswear,international-brands-ss-18,ss-18-menswear-tshirts,ss-18-menswear-shirts;zerotype;;Spring;Broken size;No
2391590;23020376-1-2391590;SHIRT WOODYA;On Hold - Sample;Shirts;MANGO MAN;Adults-Men;Men;;;;Fashion;;2018;20/S,MGVNSHRT00000510,21/M,MGVNSHRT00000511,22/L,MGVNSHRT00000512,23/XL,MGVNSHRT00000513;4490.00;;;<p>Cotton</p>;;;;international-brands-ss-18,ss-18-menswear-tshirts,ss-18-menswear-shirts;zerotype;;Spring;Broken size;No
2391589;23020374-56-2391589;SHIRT KODAK2;On Hold - Sample;Shirts;MANGO MAN;Adults-Men;Men;;;;Fashion;;2018;20/S,MGVNSHRT00000505,21/M,MGVNSHRT00000506,22/L,MGVNSHRT00000507,23/XL,MGVNSHRT00000508,24/XXL,MGVNSHRT00000509,19/XS,MGVNSHRT00000629;3490.00;;;<p>COMPOSITION...:100%COTTON</p>;;;;ss18-collection-menswear,international-brands-ss-18,ss-18-menswear-tshirts,ss-18-menswear-shirts;zerotype;;Spring;Broken size;No
2391587;23020374-16-2391587;SHIRT KODAK2;On Hold - Sample;Shirts;MANGO MAN;Adults-Men;Men;;;;Fashion;;2018;20/S,MGVNSHRT00000500,21/M,MGVNSHRT00000501,22/L,MGVNSHRT00000502,23/XL,MGVNSHRT00000503,24/XXL,MGVNSHRT00000504,19/XS,MGVNSHRT00000628;3490.00;;;<p>COMPOSITION...:100%COTTON</p>;;;;ss18-collection-menswear,international-brands-ss-18,ss-18-menswear-tshirts,ss-18-menswear-shirts;zerotype;;Spring;Broken size;No
2391586;23010645-99-2391586;SHIRT SERB;On Hold - Sample;Shirts;MANGO MAN;Adults-Men;Men;;;;Fashion;;2018;20/S,MGVNSHRT00000496,21/M,MGVNSHRT00000497,22/L,MGVNSHRT00000498,23/XL,MGVNSHRT00000499;5490.00;;;<p>Cotton</p>;;;;ss18-collection-menswear,international-brands-ss-18,ss-18-menswear-tshirts,ss-18-menswear-shirts;zerotype;;Spring;Broken size;No
2391584;23010566-52-2391584;SHIRT DOTTY2;On Hold - Sample;Shirts;MANGO MAN;Adults-Men;Men;;;;Fashion;;2018;20/S,MGVNSHRT00000492,21/M,MGVNSHRT00000493,22/L,MGVNSHRT00000494,23/XL,MGVNSHRT00000495,24/XXL,MGVNSHRT00000620,19/XS,MGVNSHRT00000621;3490.00;;;<p>COMPOSITION...:100%COTTON</p>;;;;ss18-collection-menswear,international-brands-ss-18,ss-18-menswear-tshirts,ss-18-menswear-shirts;zerotype;;Spring;Broken size;No
2391583;23010564-56-2391583;SHIRT MOSAICO;On Hold - Sample;Shirts;MANGO MAN;Adults-Men;Men;;;;Fashion;;2018;19/XS,MGVNSHRT00000488,20/S,MGVNSHRT00000489,21/M,MGVNSHRT00000490,22/L,MGVNSHRT00000491,23/XL,MGVNSHRT00000618,24/XXL,MGVNSHRT00000619;3490.00;;;<p>COMPOSITION...:100%COTTON</p>;;;;ss18-collection-menswear,international-brands-ss-18,ss-18-menswear-tshirts,ss-18-menswear-shirts;zerotype;;Spring;Broken size;No
2391582;23010559-56-2391582;SHIRT MARO;On Hold - Sample;Shirts;MANGO MAN;Adults-Men;Men;;;;Fashion;;2018;19/XS,MGVNSHRT00000483,20/S,MGVNSHRT00000484,21/M,MGVNSHRT00000485,22/L,MGVNSHRT00000486,23/XL,MGVNSHRT00000487,24/XXL,MGVNSHRT00000617;3490.00;;;<p>COMPOSITION...:100%COTTON</p>;;;;ss18-collection-menswear,international-brands-ss-18,ss-18-menswear-tshirts,ss-18-menswear-shirts;zerotype;;Spring;Broken size;No
2391580;23010557-68-2391580;SHIRT AMUR;On Hold - Sample;Shirts;MANGO MAN;Adults-Men;Men;;;;Fashion;;2018;19/XS,MGVNSHRT00000477,20/S,MGVNSHRT00000478,21/M,MGVNSHRT00000479,22/L,MGVNSHRT00000480,23/XL,MGVNSHRT00000481,24/XXL,MGVNSHRT00000482;3490.00;;;<p>Cotton</p>;;;;ss18-collection-menswear,international-brands-ss-18,ss-18-menswear-tshirts,ss-18-menswear-shirts;zerotype;;Spring;Broken size;No
2391579;23010536-56-2391579;SHIRT EMOTION;On Hold - Sample;Shirts;MANGO MAN;Adults-Men;Men;;;;Fashion;;2018;20/S,MGVNSHRT00000473,21/M,MGVNSHRT00000474,22/L,MGVNSHRT00000475,23/XL,MGVNSHRT00000476,19/XS,MGVNSHRT00000616;4490.00;;;<p>COMPOSITION...:97%COTTON,3%ELASTANE</p>;;;;ss18-collection-menswear,international-brands-ss-18,ss-18-menswear-tshirts,ss-18-menswear-shirts;zerotype;;Spring;Broken size;No
2391577;23010536-1-2391577;SHIRT EMOTION;On Hold - Sample;Shirts;MANGO MAN;Adults-Men;Men;;;;Fashion;;2018;20/S,MGVNSHRT00000471,21/M,MGVNSHRT00000472,22/L,MGVNSHRT00000613,23/XL,MGVNSHRT00000614,19/XS,MGVNSHRT00000615;4490.00;;;<p>COMPOSITION...:97%COTTON,3%ELASTANE</p>;;;;ss18-collection-menswear,international-brands-ss-18,ss-18-menswear-tshirts,ss-18-menswear-shirts;zerotype;;Spring;Broken size;No
2391576;23010384-1-2391576;SHIRT STUDA;On Hold - Sample;Shirts;MANGO MAN;Adults-Men;Men;;;;Fashion;;2018;19/XS,MGVNSHRT00000466,20/S,MGVNSHRT00000467,21/M,MGVNSHRT00000468,22/L,MGVNSHRT00000469,23/XL,MGVNSHRT00000470,24/XXL,MGVNSHRT00000606;3490.00;;;<p>COMPOSITION...:100%COTTON</p>;;;;international-brands-ss-18,ss-18-menswear-tshirts,ss-18-menswear-shirts;zerotype;;Spring;Broken size;No
2391570;23000336-50-2391570;SHIRT ZACARIES;On Hold - Sample;Shirts;MANGO MAN;Adults-Men;Men;;;;Fashion;;2018;20/S,MGVNSHRT00000447,21/M,MGVNSHRT00000448,22/L,MGVNSHRT00000449,23/XL,MGVNSHRT00000450,24/XXL,MGVNSHRT00000603,19/XS,MGVNSHRT00000604;4490.00;;;<p>COMPOSITION...:100%COTTON</p>;;;;international-brands-ss-18,ss-18-menswear-tshirts,ss-18-menswear-shirts;zerotype;;Spring;Broken size;No
2391568;23000330-99-2391568;SHIRT EMERITOL;On Hold - Sample;Shirts;MANGO MAN;Adults-Men;Men;;;;Fashion;;2018;20/S,MGVNSHRT00000439,21/M,MGVNSHRT00000440,22/L,MGVNSHRT00000441,23/XL,MGVNSHRT00000442,24/XXL,MGVNSHRT00000443,19/XS,MGVNSHRT00000600;4490.00;;;<p>COMPOSITION...:97%COTTON,3%ELASTANE</p>;;;;international-brands-ss-18,ss-18-menswear-tshirts,ss-18-menswear-shirts;zerotype;;Spring;Broken size;No
2391567;23000330-1-2391567;SHIRT EMERITOL;On Hold - Sample;Shirts;MANGO MAN;Adults-Men;Men;;;;Fashion;;2018;20/S,MGVNSHRT00000435,21/M,MGVNSHRT00000436,22/L,MGVNSHRT00000437,23/XL,MGVNSHRT00000438,19/XS,MGVNSHRT00000599;4490.00;;;<p>COMPOSITION...:97%COTTON,3%ELASTANE</p>;;;;ss18-collection-menswear,international-brands-ss-18,ss-18-menswear-tshirts,ss-18-menswear-shirts;zerotype;;Spring;Broken size;No
2391565;23000329-85-2391565;SHIRT ZENON;On Hold - Sample;Shirts;MANGO MAN;Adults-Men;Men;;;;Fashion;;2018;20/S,MGVNSHRT00000431,21/M,MGVNSHRT00000432,22/L,MGVNSHRT00000433,23/XL,MGVNSHRT00000434,19/XS,MGVNSHRT00000598;4490.00;;;<p>COMPOSITION...:100%COTTON</p>;;;;ss18-collection-menswear,international-brands-ss-18,ss-18-menswear-tshirts,ss-18-menswear-shirts;zerotype;;Spring;Broken size;No
2379910;1858677007-Dress Blues-2379910;onsSTAN SS FITTED POLO, Dress Blues, XXL;QC Reject;Tshirts;ONLY & SONS;Adults-Men;Men;Blue;;;Fashion;Casual;2017;L,OYSSTSHT00000671,XS,OYSSTSHT00000672,S,OYSSTSHT00000673,M,OYSSTSHT00000674,XL,OYSSTSHT00000675,XXL,OYSSTSHT00000676;1499.00;Blue solid T-shirt, has a polo collar, short sleeves;Designed by the team at ONLY & SONS, you're definitely in for a style treat with this cotton T-shirt.  This blue piece can be teamed with cuffed chinos and canvas shoes when you're meeting the guys for drinks.;Cotton<br> Machine-wash;The model (height 6') is wearing a size M;;ONLY & SONS Men Blue Solid Polo Collar T-shirt;ONLY & SONS;zerotype;;Winter;wrong image;No
2307474;1956971005-Dark Grey Melange-2307474;VMNATASCHA BLOCK, Dark Grey Melange, XL;QC Reject;Sweaters;Vero Moda;Adults-Women;Women;Grey;Peach;;Fashion;Casual;2017;XS,VEMOSWTR00001507,S,VEMOSWTR00001508,M,VEMOSWTR00001509,L,VEMOSWTR00001510,XL,VEMOSWTR00001511;3699.00;Grey and peach-coloured colourblocked pullover, has a round neck, long sleeves, ribbed hem;You'll love the softness and durability of this classically designed Vero Moda sweater.  When you're meeting the girls for cocktails, style this grey piece with trim denims and caged heels.;Acrylic<br> Machine-wash;The model (height 5'8") is wearing a size S;;Vero Moda Women Grey & Peach-Coloured Colourblocked Pullover;Vero Moda,bestseller-jan30;zerotype;;Winter;coupon-offer-dec2017, Product mismatch;No
2307467;1956946005-Navy Blazer-2307467;VMBELVEDERE GLORY 2/4 H, Navy Blazer, XL;QC Reject;Sweaters;Vero Moda;Adults-Women;Women;Navy Blue;;;Fashion;Casual;2017;M,VEMOSWTR00001497,XS,VEMOSWTR00001498,S,VEMOSWTR00001499,L,VEMOSWTR00001500,XL,VEMOSWTR00001501;2899.00;Navy blue solid pullover, has a round neck, long sleeves, straight hem;You'll love the softness and durability of this classically designed Vero Moda sweater.  You can match this navy blue piece with slick black jeans and leather boots for a must-have weekend ensemble.;80% viscose, 20% nylon<br />Machine-wash;The model (height 5'8") is wearing a size S;;Vero Moda Women Navy Blue Solid Pullover;Vero Moda,welcome-to-myntra-oct17,scantastic-jan12,express-delivery-jan18,coupon-offer-rtf18,bestseller-jan30;zerotype;;Winter;coupon-offer-dec2017, product mismatch;No
2169376;1966562006-Eggnog-2169376;VM FOLK  03 S/S TOP IN, Eggnog, S;QC Reject;Tops;Vero Moda;Adults-Women;Women;Beige;;;Fashion;Casual;2017;XS,VEMOTOPS00014228,XXL,VEMOTOPS00014229,M,VEMOTOPS00014230,L,VEMOTOPS00014231,XL,VEMOTOPS00014232,S,VEMOTOPS00014233;2499.00;Beige solid woven regular top, has a round neck, short sleeves, button closure closure;Keep it simple any day of the year with this in-style shirt from Vero Moda.  This beige top is a great option for warmer days and pairs well with dark jeans and a light jacket when shopping with friends or hanging out with family.;Polyester <br> Machine-wash;The model (height 5'8") is wearing a size S;;Vero Moda Women Beige Solid Top;Vero Moda,bestseller-jan30;zerotype;;Fall;image mismatch;No
2160020;1966585006-Black-2160020;VMTINO B2 S/L VOL TOP IN, Black, S;QC Reject;Tops;Vero Moda;Adults-Women;Women;Black;;;Fashion;Casual;2017;XS,VEMOTOPS00014137,XXL,VEMOTOPS00014138,M,VEMOTOPS00014139,L,VEMOTOPS00014140,XL,VEMOTOPS00014141,S,VEMOTOPS00014142;999.00;Black printed woven shirt style top, has a mandarin collar, sleeveless, button closure closure;With this trendy top from Vero Moda, you'll get the comfort and style that you deserve.  This black piece is perfect for a nice evening out with friends when paired with slim trousers and a light jacket.;Viscose Rayon <br> Machine-wash;Regular Fit<br> The model (height 5'8") is wearing a size S;;Vero Moda Women Black Printed Shirt Style Top;Vero Moda,best-msd,bs-nov-40,bestb1g1,bs-flat-40,bestseller-jan30;zerotype;;Fall;image mismatch;No
2072502;8605-Grey-2072502;Marks & Spencer Women Grey Trousers;On Hold - Sample;Trousers;Marks & Spencer;Adults-Women;Women;;;;Fashion;;2018;UK10,MKSPTRSR00002509,UK12,MKSPTRSR00002510,UK14,MKSPTRSR00002511,UK16,MKSPTRSR00002512;1999.00;;;<p>74.0% Cotton , 23.0% Polyester , 3.0% Elastane</p>;;;;ndd17-blr,international-brands-ss-18,marks-spencer-new-season;zerotype;;Spring;NA;No
2063865;1962119004-Bright White-2063865;onlLIVA S/S TOP BOX JR, Bright White, XS;QC Reject;Tshirts;ONLY;Adults-Women;Women;White;Beige;;Fashion;Casual;2017;L,ONLYTSHT00008302,M,ONLYTSHT00008303,S,ONLYTSHT00008304,XL,ONLYTSHT00008305,XS,ONLYTSHT00008306;1699.00;White and beige striped T-shirt, has a round neck, short sleeves;Maximize your comfort and style with this top-of-the-line tee made by ONLY.  Style this white piece with tonal shorts and chic sandals when you're going on a picnic date.;95% cotton, 5% elastane<br />Machine-wash;The model (height 5'8") is wearing a size S;;ONLY Women White Striped Round Neck T-shirt;ONLY,only-disha-patani-aw17,bs-flat-40,bestseller-jan30;zerotype;;Fall;image mismatch;No
