Style ID;Vendor Article Number;Vendor Article Name;Active Status;Article type;Brand;Age Group;Gender;Base Colour;Colour1;Colour2;Fashion Type;Usage;Year;Size - SKU code pair;MRP;Style Description;Style Note;Materials and Care Description;Size and Fit Description;Size Chart Path;Product Display Name;Tags;Product Type;Classification Brand;Season;Comments;Upload Images
2173062;2581704531-Cognac-2173062;Raimondo Plain Lace up;Draft;Formal Shoes;Bugatti;Adults-Men;Men;Brown;;;Fashion;;2017;UK6,BGTIFOSH00000077,UK7,BGTIFOSH00000078,UK8,BGTIFOSH00000079,UK9,BGTIFOSH00000080,UK10,BGTIFOSH00000081,UK11,BGTIFOSH00000082;7499.00;;;<p>Leather</p>;;;;;zerotype;;Winter;;No
2173061;2581704405-Black / Cognac-2173061;Raimondo Lace up;Draft;Formal Shoes;Bugatti;Adults-Men;Men;Black;;;Fashion;;2017;UK6,BGTIFOSH00000071,UK7,BGTIFOSH00000072,UK8,BGTIFOSH00000073,UK9,BGTIFOSH00000074,UK10,BGTIFOSH00000075,UK11,BGTIFOSH00000076;7499.00;;;<p>Leather</p>;;;;;zerotype;;Winter;;No
2173060;2581703731-Cognac-2173060;Lazzaro Lace up;Draft;Formal Shoes;Bugatti;Adults-Men;Men;Brown;;;Fashion;;2017;UK6,BGTIFOSH00000065,UK7,BGTIFOSH00000066,UK8,BGTIFOSH00000067,UK9,BGTIFOSH00000068,UK10,BGTIFOSH00000069,UK11,BGTIFOSH00000070;6999.00;;;<p>Leather</p>;;;;;zerotype;;Winter;;No
2173059;2581702278-Dark Blue-2173059;Rossano Lace up;Draft;Formal Shoes;Bugatti;Adults-Men;Men;Blue;;;Fashion;;2017;UK6,BGTIFOSH00000059,UK7,BGTIFOSH00000060,UK8,BGTIFOSH00000061,UK9,BGTIFOSH00000062,UK10,BGTIFOSH00000063,UK11,BGTIFOSH00000064;5999.00;;;<p>Leather</p>;;;;;zerotype;;Winter;;No
2173058;2581702131-Cognac-2173058;Rossano Textured Lace Up;Draft;Formal Shoes;Bugatti;Adults-Men;Men;Brown;;;Fashion;;2017;UK6,BGTIFOSH00000053,UK7,BGTIFOSH00000054,UK8,BGTIFOSH00000055,UK9,BGTIFOSH00000056,UK10,BGTIFOSH00000057,UK11,BGTIFOSH00000058;5999.00;;;<p>Leather</p>;;;;;zerotype;;Winter;;No
2173057;2581702031-Cognac-2173057;Rossano Plain Lace up;Draft;Formal Shoes;Bugatti;Adults-Men;Men;Brown;;;Fashion;;2017;UK6,BGTIFOSH00000047,UK7,BGTIFOSH00000048,UK8,BGTIFOSH00000049,UK9,BGTIFOSH00000050,UK10,BGTIFOSH00000051,UK11,BGTIFOSH00000052;5999.00;;;<p>Leather</p>;;;;;zerotype;;Winter;;No
2173054;2581701751-Bordo-2173054;Mattia  Textured Lace up;Draft;Formal Shoes;Bugatti;Adults-Men;Men;Burgundy;;;Fashion;;2017;UK6,BGTIFOSH00000029,UK7,BGTIFOSH00000030,UK8,BGTIFOSH00000031,UK9,BGTIFOSH00000032,UK10,BGTIFOSH00000033,UK11,BGTIFOSH00000034;5999.00;;;<p>Leather</p>;;;;;zerotype;;Winter;;No
2173052;2581700931-Cognac-2173052;Mattia Plain Lace up;Draft;Formal Shoes;Bugatti;Adults-Men;Men;Brown;;;Fashion;;2017;UK6,BGTIFOSH00000017,UK7,BGTIFOSH00000018,UK8,BGTIFOSH00000019,UK9,BGTIFOSH00000020,UK10,BGTIFOSH00000021,UK11,BGTIFOSH00000022;5499.00;;;<p>Leather</p>;;;;;zerotype;;Winter;;No
2173051;2581700231-Cognac-2173051;Mattia Moc Toe Slip On;Draft;Formal Shoes;Bugatti;Adults-Men;Men;Brown;;;Fashion;;2017;UK6,BGTIFOSH00000011,UK7,BGTIFOSH00000012,UK8,BGTIFOSH00000013,UK9,BGTIFOSH00000014,UK10,BGTIFOSH00000015,UK11,BGTIFOSH00000016;4999.00;;;<p>Leather</p>;;;;;zerotype;;Winter;;No
2173048;2581705829-Brown-2173048;Roma Casual Slipper;Draft;Sandals;Bugatti;Adults-Men;Men;Brown;;;Fashion;;2017;UK6,BGTISNDL00000058,UK7,BGTISNDL00000059,UK8,BGTISNDL00000060,UK9,BGTISNDL00000061,UK10,BGTISNDL00000062,UK11,BGTISNDL00000063;3999.00;;;<p>Leather</p>;;;;;zerotype;;Winter;;No
2173047;2581705705-Black-2173047;Roma Casual Slipper;Draft;Sandals;Bugatti;Adults-Men;Men;Black;;;Fashion;;2017;UK6,BGTISNDL00000052,UK7,BGTISNDL00000053,UK8,BGTISNDL00000054,UK9,BGTISNDL00000055,UK10,BGTISNDL00000056,UK11,BGTISNDL00000057;3999.00;;;<p>Leather</p>;;;;;zerotype;;Winter;;No
2173046;2581705629-Brown-2173046;Murano Cross strap Slipper;Draft;Sandals;Bugatti;Adults-Men;Men;Brown;;;Fashion;;2017;UK6,BGTISNDL00000046,UK7,BGTISNDL00000047,UK8,BGTISNDL00000048,UK9,BGTISNDL00000049,UK10,BGTISNDL00000050,UK11,BGTISNDL00000051;3999.00;;;<p>Leather</p>;;;;;zerotype;;Winter;;No
2173045;2581705533-Jeans-2173045;Murano Cross strap Slipper;Draft;Sandals;Bugatti;Adults-Men;Men;Blue;;;Fashion;;2017;UK6,BGTISNDL00000040,UK7,BGTISNDL00000041,UK8,BGTISNDL00000042,UK9,BGTISNDL00000043,UK10,BGTISNDL00000044,UK11,BGTISNDL00000045;3999.00;;;<p>Leather</p>;;;;;zerotype;;Winter;;No
2173044;2581705433-Jeans-2173044;Tirreno Casual Slipper;Draft;Sandals;Bugatti;Adults-Men;Men;Blue;;;Fashion;;2017;UK6,BGTISNDL00000034,UK7,BGTISNDL00000035,UK8,BGTISNDL00000036,UK9,BGTISNDL00000037,UK10,BGTISNDL00000038,UK11,BGTISNDL00000039;2999.00;;;<p>Non-Leather</p>;;;;;zerotype;;Winter;;No
2173041;2581705131-Cognac-2173041;Fidji Casual Slipper;Draft;Sandals;Bugatti;Adults-Men;Men;Brown;;;Fashion;;2017;UK6,BGTISNDL00000022,UK7,BGTISNDL00000023,UK8,BGTISNDL00000024,UK9,BGTISNDL00000025,UK10,BGTISNDL00000026,UK11,BGTISNDL00000027;2999.00;;;<p>Non-Leather</p>;;;;;zerotype;;Winter;;No
2173040;2581705005-Black-2173040;Fidji Casual Slipper;Draft;Sandals;Bugatti;Adults-Men;Men;Black;;;Fashion;;2017;UK6,BGTISNDL00000016,UK7,BGTISNDL00000017,UK8,BGTISNDL00000018,UK9,BGTISNDL00000019,UK10,BGTISNDL00000020,UK11,BGTISNDL00000021;2999.00;;;<p>Non-Leather</p>;;;;;zerotype;;Winter;;No
2173039;2581602831-Cognac-2173039;Mallorca Open Slipper Suede;Draft;Sandals;Bugatti;Adults-Men;Men;Brown;;;Fashion;;2017;UK8,BGTISNDL00000012,UK9,BGTISNDL00000013,UK10,BGTISNDL00000014,UK11,BGTISNDL00000015;3499.00;;;<p>Non-Leather</p>;;;;;zerotype;;Winter;;No
2173038;2581602789-Blue-2173038;Mallorca Open Slipper;Draft;Sandals;Bugatti;Adults-Men;Men;Blue;;;Fashion;;2017;UK6,BGTISNDL00000006,UK7,BGTISNDL00000007,UK8,BGTISNDL00000008,UK9,BGTISNDL00000009,UK10,BGTISNDL00000010,UK11,BGTISNDL00000011;3499.00;;;<p>Non-Leather</p>;;;;;zerotype;;Winter;;No
2173035;2581708531-Cognac-2173035;England Slip On;Draft;Casual Shoes;Bugatti;Adults-Men;Men;Brown;;;Fashion;;2017;UK6,BGTICASH00000217,UK7,BGTICASH00000218,UK8,BGTICASH00000219,UK9,BGTICASH00000220,UK10,BGTICASH00000221,UK11,BGTICASH00000222;5999.00;;;<p>Leather</p>;;;;;zerotype;;Winter;;No
2173034;2581708479-Dark Blue-2173034;England Slip On;Draft;Casual Shoes;Bugatti;Adults-Men;Men;Blue;;;Fashion;;2017;UK6,BGTICASH00000211,UK7,BGTICASH00000212,UK8,BGTICASH00000213,UK9,BGTICASH00000214,UK10,BGTICASH00000215,UK11,BGTICASH00000216;5999.00;;;<p>Leather</p>;;;;;zerotype;;Winter;;No
2173033;2581708331-Cognac-2173033;Cherokee Slip On III;Draft;Casual Shoes;Bugatti;Adults-Men;Men;Brown;;;Fashion;;2017;UK6,BGTICASH00000205,UK7,BGTICASH00000206,UK8,BGTICASH00000207,UK9,BGTICASH00000208,UK10,BGTICASH00000209,UK11,BGTICASH00000210;5999.00;;;<p>Leather</p>;;;;;zerotype;;Winter;;No
2173031;2581708107-Grey / D Blue-2173031;Cherokee Slip On II;Draft;Casual Shoes;Bugatti;Adults-Men;Men;Grey;;;Fashion;;2017;UK6,BGTICASH00000193,UK7,BGTICASH00000194,UK8,BGTICASH00000195,UK9,BGTICASH00000196,UK10,BGTICASH00000197,UK11,BGTICASH00000198;5999.00;;;<p>Leather</p>;;;;;zerotype;;Winter;;No
2173030;2581707607-Grey-2173030;Lake Casual Sneaker;Draft;Casual Shoes;Bugatti;Adults-Men;Men;Grey;;;Fashion;;2017;UK6,BGTICASH00000187,UK7,BGTICASH00000188,UK8,BGTICASH00000189,UK9,BGTICASH00000190,UK10,BGTICASH00000191,UK11,BGTICASH00000192;5499.00;;;<p>Leather</p>;;;;;zerotype;;Winter;;No
2173029;2581707501-White-2173029;Lake Casual Sneaker;Draft;Casual Shoes;Bugatti;Adults-Men;Men;White;;;Fashion;;2017;UK6,BGTICASH00000181,UK7,BGTICASH00000182,UK8,BGTICASH00000183,UK9,BGTICASH00000184,UK10,BGTICASH00000185,UK11,BGTICASH00000186;5499.00;;;<p>Leather</p>;;;;;zerotype;;Winter;;No
2173028;2581707489-Blue-2173028;Cosmo Casual Lace up;Draft;Casual Shoes;Bugatti;Adults-Men;Men;Blue;;;Fashion;;2017;UK6,BGTICASH00000175,UK7,BGTICASH00000176,UK8,BGTICASH00000177,UK9,BGTICASH00000178,UK10,BGTICASH00000179,UK11,BGTICASH00000180;5499.00;;;<p>Non-Leather</p>;;;;;zerotype;;Winter;;No
2173025;2581707178-Dark Blue-2173025;Cherokee Slip On I;Draft;Casual Shoes;Bugatti;Adults-Men;Men;Blue;;;Fashion;;2017;UK6,BGTICASH00000157,UK7,BGTICASH00000158,UK8,BGTICASH00000159,UK9,BGTICASH00000160,UK10,BGTICASH00000161,UK11,BGTICASH00000162;5499.00;;;<p>Leather</p>;;;;;zerotype;;Winter;;No
2173024;2581707033-Jeans-2173024;Alfa Lace up;Draft;Casual Shoes;Bugatti;Adults-Men;Men;Blue;;;Fashion;;2017;UK6,BGTICASH00000151,UK7,BGTICASH00000152,UK8,BGTICASH00000153,UK9,BGTICASH00000154,UK10,BGTICASH00000155,UK11,BGTICASH00000156;5499.00;;;<p>Leather</p>;;;;;zerotype;;Winter;;No
2173023;2581706805-Black-2173023;River Casual Sneaker;Draft;Casual Shoes;Bugatti;Adults-Men;Men;Black;;;Fashion;;2017;UK6,BGTICASH00000145,UK7,BGTICASH00000146,UK8,BGTICASH00000147,UK9,BGTICASH00000148,UK10,BGTICASH00000149,UK11,BGTICASH00000150;4999.00;;;<p>Non-Leather</p>;;;;;zerotype;;Winter;;No
2173022;2581706778-Dkl. Blau / Cognac-2173022;River Mesh Casual Sneaker;Draft;Casual Shoes;Bugatti;Adults-Men;Men;Blue;;;Fashion;;2017;UK6,BGTICASH00000139,UK7,BGTICASH00000140,UK8,BGTICASH00000141,UK9,BGTICASH00000142,UK10,BGTICASH00000143,UK11,BGTICASH00000144;4999.00;;;<p>Non-Leather</p>;;;;;zerotype;;Winter;;No
2173021;2581706607-Grey-2173021;River Textured Casual Sneaker;Draft;Casual Shoes;Bugatti;Adults-Men;Men;Grey;;;Fashion;;2017;UK6,BGTICASH00000133,UK7,BGTICASH00000134,UK8,BGTICASH00000135,UK9,BGTICASH00000136,UK10,BGTICASH00000137,UK11,BGTICASH00000138;4999.00;;;<p>Non-Leather</p>;;;;;zerotype;;Winter;;No
2173020;2581706578-Dark Blue-2173020;Pacific Casual Lace up;Draft;Casual Shoes;Bugatti;Adults-Men;Men;Blue;;;Fashion;;2017;UK6,BGTICASH00000127,UK7,BGTICASH00000128,UK8,BGTICASH00000129,UK9,BGTICASH00000130,UK10,BGTICASH00000131,UK11,BGTICASH00000132;4999.00;;;<p>Non-Leather</p>;;;;;zerotype;;Winter;;No
2173019;2581706443-Red-2173019;Pacific Casual Lace up;Draft;Casual Shoes;Bugatti;Adults-Men;Men;Red;;;Fashion;;2017;UK6,BGTICASH00000121,UK7,BGTICASH00000122,UK8,BGTICASH00000123,UK9,BGTICASH00000124,UK10,BGTICASH00000125,UK11,BGTICASH00000126;4999.00;;;<p>Non-Leather</p>;;;;;zerotype;;Winter;;No
2173018;2581706379-Navy-2173018;Alfa Canvas Lace up II;Draft;Casual Shoes;Bugatti;Adults-Men;Men;Blue;;;Fashion;;2017;UK6,BGTICASH00000115,UK7,BGTICASH00000116,UK8,BGTICASH00000117,UK9,BGTICASH00000118,UK10,BGTICASH00000119,UK11,BGTICASH00000120;4499.00;;;<p>Non-Leather</p>;;;;;zerotype;;Winter;;No
2173017;2581706276-Lt Blue-2173017;Alfa Canvas Lace up II;Draft;Casual Shoes;Bugatti;Adults-Men;Men;Blue;;;Fashion;;2017;UK6,BGTICASH00000109,UK7,BGTICASH00000110,UK8,BGTICASH00000111,UK9,BGTICASH00000112,UK10,BGTICASH00000113,UK11,BGTICASH00000114;4499.00;;;<p>Non-Leather</p>;;;;;zerotype;;Winter;;No
2173016;2581706101-White-2173016;Alfa Canvas Lace up II;Draft;Casual Shoes;Bugatti;Adults-Men;Men;White;;;Fashion;;2017;UK6,BGTICASH00000103,UK7,BGTICASH00000104,UK8,BGTICASH00000105,UK9,BGTICASH00000106,UK10,BGTICASH00000107,UK11,BGTICASH00000108;4499.00;;;<p>Non-Leather</p>;;;;;zerotype;;Winter;;No
2173015;2581704348-Orange-2173015;Renzo Lace up;Draft;Casual Shoes;Bugatti;Adults-Men;Men;Orange;;;Fashion;;2017;UK6,BGTICASH00000097,UK7,BGTICASH00000098,UK8,BGTICASH00000099,UK9,BGTICASH00000100,UK10,BGTICASH00000101,UK11,BGTICASH00000102;7499.00;;;<p>Leather</p>;;;;;zerotype;;Winter;;No
2173014;2581703631-Cognac-2173014;Hettore Casual Sneaker;Draft;Casual Shoes;Bugatti;Adults-Men;Men;Brown;;;Fashion;;2017;UK6,BGTICASH00000091,UK7,BGTICASH00000092,UK8,BGTICASH00000093,UK9,BGTICASH00000094,UK10,BGTICASH00000095,UK11,BGTICASH00000096;6999.00;;;<p>Leather</p>;;;;;zerotype;;Winter;;No
2173013;2581703505-Black-2173013;Hettore Casual Sneaker;Draft;Casual Shoes;Bugatti;Adults-Men;Men;Black;;;Fashion;;2017;UK6,BGTICASH00000085,UK7,BGTICASH00000086,UK8,BGTICASH00000087,UK9,BGTICASH00000088,UK10,BGTICASH00000089,UK11,BGTICASH00000090;6999.00;;;<p>Leather</p>;;;;;zerotype;;Winter;;No
2173012;2581703178-Cognac / Dark Blue-2173012;Ermano Casual Sneaker;Draft;Casual Shoes;Bugatti;Adults-Men;Men;Brown;;;Fashion;;2017;UK6,BGTICASH00000079,UK7,BGTICASH00000080,UK8,BGTICASH00000081,UK9,BGTICASH00000082,UK10,BGTICASH00000083,UK11,BGTICASH00000084;6999.00;;;<p>Leather</p>;;;;;zerotype;;Winter;;No
2173011;2581703089-Light Blue-2173011;Bertoldo Lace up;Draft;Casual Shoes;Bugatti;Adults-Men;Men;Blue;;;Fashion;;2017;UK6,BGTICASH00000073,UK7,BGTICASH00000074,UK8,BGTICASH00000075,UK9,BGTICASH00000076,UK10,BGTICASH00000077,UK11,BGTICASH00000078;6999.00;;;<p>Leather</p>;;;;;zerotype;;Winter;;No
2173010;2581702531-Cognac-2173010;Fortuna Lace up;Draft;Casual Shoes;Bugatti;Adults-Men;Men;Brown;;;Fashion;;2017;UK6,BGTICASH00000067,UK7,BGTICASH00000068,UK8,BGTICASH00000069,UK9,BGTICASH00000070,UK10,BGTICASH00000071,UK11,BGTICASH00000072;6499.00;;;<p>Leather</p>;;;;;zerotype;;Winter;;No
2173009;2581702478-Dark Blue-2173009;Adamo Lace up;Draft;Casual Shoes;Bugatti;Adults-Men;Men;Blue;;;Fashion;;2017;UK6,BGTICASH00000061,UK7,BGTICASH00000062,UK8,BGTICASH00000063,UK9,BGTICASH00000064,UK10,BGTICASH00000065,UK11,BGTICASH00000066;6499.00;;;<p>Leather</p>;;;;;zerotype;;Winter;;No
2173008;2581702329-Brown-2173008;Adamo Lace up;Draft;Casual Shoes;Bugatti;Adults-Men;Men;Brown;;;Fashion;;2017;UK6,BGTICASH00000055,UK7,BGTICASH00000056,UK8,BGTICASH00000057,UK9,BGTICASH00000058,UK10,BGTICASH00000059,UK11,BGTICASH00000060;6499.00;;;<p>Leather</p>;;;;;zerotype;;Winter;;No
2173007;2581701423-Dark Brown-2173007;Martin Driver Shoes;Draft;Casual Shoes;Bugatti;Adults-Men;Men;Brown;;;Fashion;;2017;UK6,BGTICASH00000049,UK7,BGTICASH00000050,UK8,BGTICASH00000051,UK9,BGTICASH00000052,UK10,BGTICASH00000053,UK11,BGTICASH00000054;5999.00;;;<p>Leather</p>;;;;;zerotype;;Winter;;No
2173006;2581701305-Black-2173006;Gaspare-L Lace up;Draft;Casual Shoes;Bugatti;Adults-Men;Men;Black;;;Fashion;;2017;UK6,BGTICASH00000043,UK7,BGTICASH00000044,UK8,BGTICASH00000045,UK9,BGTICASH00000046,UK10,BGTICASH00000047,UK11,BGTICASH00000048;5999.00;;;<p>Leather</p>;;;;;zerotype;;Winter;;No
2173005;2581701231-Cognac-2173005;Fedele Lace up;Draft;Casual Shoes;Bugatti;Adults-Men;Men;Brown;;;Fashion;;2017;UK6,BGTICASH00000037,UK7,BGTICASH00000038,UK8,BGTICASH00000039,UK9,BGTICASH00000040,UK10,BGTICASH00000041,UK11,BGTICASH00000042;5999.00;;;<p>Leather</p>;;;;;zerotype;;Winter;;No
2173003;2581700702-Light Grey / Cognac-2173003;Fortuna Canvas Lace up;Draft;Casual Shoes;Bugatti;Adults-Men;Men;Grey;;;Fashion;;2017;UK6,BGTICASH00000025,UK7,BGTICASH00000026,UK8,BGTICASH00000027,UK9,BGTICASH00000028,UK10,BGTICASH00000029,UK11,BGTICASH00000030;5499.00;;;<p>Non-Leather</p>;;;;;zerotype;;Winter;;No
2173002;2581700678-Dark Blue-2173002;Fedele Casual Lace up;Draft;Casual Shoes;Bugatti;Adults-Men;Men;Blue;;;Fashion;;2017;UK6,BGTICASH00000019,UK7,BGTICASH00000020,UK8,BGTICASH00000021,UK9,BGTICASH00000022,UK10,BGTICASH00000023,UK11,BGTICASH00000024;5499.00;;;<p>Leather</p>;;;;;zerotype;;Winter;;No
2173001;2581700543-Red-2173001;Fedele Casual Lace up;Draft;Casual Shoes;Bugatti;Adults-Men;Men;Red;;;Fashion;;2017;UK6,BGTICASH00000013,UK7,BGTICASH00000014,UK8,BGTICASH00000015,UK9,BGTICASH00000016,UK10,BGTICASH00000017,UK11,BGTICASH00000018;5499.00;;;<p>Leather</p>;;;;;zerotype;;Winter;;No
2173000;2581700478-Dark Blue-2173000;Bianco Lace up;Draft;Casual Shoes;Bugatti;Adults-Men;Men;Blue;;;Fashion;;2017;UK6,BGTICASH00000007,UK7,BGTICASH00000008,UK8,BGTICASH00000009,UK9,BGTICASH00000010,UK10,BGTICASH00000011,UK11,BGTICASH00000012;5499.00;;;<p>Leather</p>;;;;;zerotype;;Winter;;No
2142110;AW16A52PLZJKSC2_CREAM_34-CREAM-2142110;AW16A52PLZJKSC2;Draft;Trousers;AND;Adults-Women;Women;;;;Fashion;;2017;26,ANDTRSR00000998,28,ANDTRSR00000999,30,ANDTRSR00001000,32,ANDTRSR00001001,34,ANDTRSR00001002;2499.00;;;<p>70% Polyester, 28% Cotton, 02% Spandex</p>;;;;;zerotype;;Spring;;No
2129529;MRDAI-02-036-NAVY-2129529;CREW NECK S SLV;Draft;Tshirts;Moda Rapido;Adults-Men;Men;;;;Fashion;;2017;S,MAROTSHT00006020,M,MAROTSHT00006021,L,MAROTSHT00006022,XL,MAROTSHT00006023;449.00;;;<p>100% Cotton</p>;;;;;zerotype;;Fall;;No
2127784;CMAW17TDHI428-YELLOW-2127784;Kurtas;Draft;Trousers;Colour Me by Melange;Adults-Women;Women;NA;Beige;Beige;Fashion;Casual;2017;S,CMBMKRTA00000085,M,CMBMKRTA00000086,L,CMBMKRTA00000087,XL,CMBMKRTA00000088,XXL,CMBMKRTA00000089;999.00;;;<p>Viscose Rayon</p>;;;NA;ndd17-blr;zerotype;;Fall;ndd17-blr;No
2126988;grace top-mint green-2126988;Womens Frill Top;Active;Tops;Mast & Harbour;Adults-Women;Women;Green;;;Fashion;Casual;2017;XS,MTHBTOPS00004594,S,MTHBTOPS00004595,M,MTHBTOPS00004596,L,MTHBTOPS00004597,XL,MTHBTOPS00004598;899.00;Green solid woven shirt style top, has a mandarin collar, short sleeves, button closure;When the temperatures heat up, opt for this breathable and comfortable top by Mast & Harbour.  This green top is a great option for warmer days and pairs well with dark jeans and a light jacket when shopping with friends or hanging out with family.;100% polyester<br />Machine-wash;Regular Fit<br> The model (height 5'8") is wearing a size S;;Mast & Harbour Women Green Solid Shirt Style Top;Mast & Harbour,ndd17-ggn,coupon-offer-diwali17;zerotype;;Fall;tag;No
2122205;S81421-FTWWHT/FTWWHT/FTWWHT-2122205;ZX FLUX J;Draft;Casual Shoes;Adidas Originals;Kids-Unisex;Unisex;;;;Fashion;;2017;UK1,ADORCASH00005016,UK3,ADORCASH00005017,UK11K,ADORCASH00005018,UK13K,ADORCASH00005019,UK12K,ADORCASH00005020,UK2,ADORCASH00005021;5999.00;;;<p>To clean just wipe off dirt with a wet cloth. Don't use detergents or solvents. Do not machine wash.</p>;;;;FW17-SPORTS-NEW,fw-17-sports-new,sportsallstyles-2017;zerotype;;Fall;fw-17-sports-new;No
2111359;233XLTTNI-Blue-2111359;SKAGEN Watches;Draft;Watches;SKAGEN;Adults-Men;Men;;;;Fashion;;2017;Onesize,SKGNWTCH00000979;8995.00;;;;;;;;zerotype;;Winter;;No
2111186;SKW6400I-BLACK-2111186;SKAGEN Watches;Draft;Watches;SKAGEN;Adults-Men;Men;;;;Fashion;;2017;Onesize,SKGNWTCH00000978;14495.00;;;;<p>Case Size : 40MM</p>;;;;zerotype;;Winter;;No
2111185;SKW6396I-GRAY-2111185;SKAGEN Watches;Draft;Watches;SKAGEN;Adults-Men;Men;;;;Fashion;;2017;Onesize,SKGNWTCH00000977;12995.00;;;;<p>Case Size : 40MM</p>;;;;zerotype;;Winter;;No
2111184;SKW6395I-BLUE-2111184;SKAGEN Watches;Draft;Watches;SKAGEN;Adults-Men;Men;;;;Fashion;;2017;Onesize,SKGNWTCH00000976;12995.00;;;;<p>Case Size : 40MM</p>;;;;zerotype;;Winter;;No
2111183;SKW6389I-BLUE-2111183;SKAGEN Watches;Draft;Watches;SKAGEN;Adults-Men;Men;;;;Fashion;;2017;Onesize,SKGNWTCH00000975;11995.00;;;;<p>Case Size : 40MM</p>;;;;zerotype;;Winter;;No
2111179;SKW2652I-WHITE-2111179;SKAGEN Watches;Draft;Watches;SKAGEN;Adults-Men;Men;;;;Fashion;;2017;Onesize,SKGNWTCH00000971;9495.00;;;;<p>Case Size : 28MM</p>;;;;zerotype;;Winter;;No
2111178;SKW2651I-GRAY-2111178;SKAGEN Watches;Draft;Watches;SKAGEN;Adults-Men;Men;;;;Fashion;;2017;Onesize,SKGNWTCH00000970;10995.00;;;;<p>Case Size : 28MM</p>;;;;zerotype;;Winter;;No
2111177;SKW2650I-WHITE-2111177;SKAGEN Watches;Draft;Watches;SKAGEN;Adults-Men;Men;;;;Fashion;;2017;Onesize,SKGNWTCH00000969;10995.00;;;;<p>Case Size : 30MM</p>;;;;zerotype;;Winter;;No
2111176;SKW2649I-NUDE-2111176;SKAGEN Watches;Draft;Watches;SKAGEN;Adults-Men;Men;;;;Fashion;;2017;Onesize,SKGNWTCH00000968;9495.00;;;;<p>Case Size : 30MM</p>;;;;zerotype;;Winter;;No
2111175;SKW2642I-WHITE-2111175;SKAGEN Watches;Draft;Watches;SKAGEN;Adults-Men;Men;;;;Fashion;;2017;Onesize,SKGNWTCH00000967;10995.00;;;;<p>Case Size : 26MM</p>;;;;zerotype;;Winter;;No
2111174;SKW2641I-WHITE-2111174;SKAGEN Watches;Draft;Watches;SKAGEN;Adults-Men;Men;;;;Fashion;;2017;Onesize,SKGNWTCH00000966;10995.00;;;;<p>Case Size : 26MM</p>;;;;zerotype;;Winter;;No
2110029;AE5924058-MUTED EBONY-2110029;AERO GIRLS FASHION BARE;BIS + Content Complete;Tops;Aeropostale;Adults-Women;Women;Charcoal;;;Fashion;Casual;2017;L,ARPETOPS00000248,M,ARPETOPS00000249,S,ARPETOPS00000250,XL,ARPETOPS00000251;2299.00;Charcoal solid knitted regular top, has a round neck, short sleeves, button closure closure;You'll love the comfort and breathability of this Aeropostale shirt.  This charcoal top is a great option for warmer days and pairs well with dark jeans and a light jacket when shopping with friends or hanging out with family.;Viscose Rayon <br> Machine-wash;The model (height 5'8") is wearing a size S;;Aeropostale Women Charcoal Solid Top;Aerpostale;zerotype;;Fall;Reinwarded for catalog 12 Oct;No
2075784;773602454839-773602454839-2075784;MAXINE EYESX8 HGHLTR-ROC;Draft;Eyeshadow;M.A.C;Adults-Women;Women;;;;Core;;2017;8gm,MAACEYSD00000117;4200.00;;;;;;;;zerotype;;Fall;;No
2075782;773602437153-773602437153-2075782;ROLLERWHEEL LIQUID LI-RO 1ML/.03FLOZ;Draft;Eyeliner;M.A.C;Adults-Women;Women;;;;Core;;2017;1ml,MAACEYLN00000027;2090.00;;;;;;;;zerotype;;Fall;;No
2075781;773602437146-773602437146-2075781;ROLLERWHEEL LIQUID LI-ON 1ML/.03FLOZ;Draft;Eyeliner;M.A.C;Adults-Women;Women;;;;Core;;2017;1ml,MAACEYLN00000026;2090.00;;;;;;;;zerotype;;Fall;;No
2075779;773602405695-773602405695-2075779;BOLD & BAD LASH (FN);Draft;Mascara;M.A.C;Adults-Women;Women;;;;Core;;2017;8gm,MAACMSCR00000032;2190.00;;;;;;;;zerotype;;Fall;;No
2075778;773602478262-773602478262-2075778;PIGMENT-ROSE GOLD 4.5GM/.15OZ;Draft;Lipstick;M.A.C;Adults-Women;Women;;;;Core;;2017;4.5gm,MAACLPST00000412;2200.00;;;;;;;;zerotype;;Fall;;No
2075777;773602478224-773602478224-2075777;PIGMENT-COPPER 4.5GM/.15OZ;Draft;Lipstick;M.A.C;Adults-Women;Women;;;;Core;;2017;4.5gm,MAACLPST00000411;2200.00;;;;;;;;zerotype;;Fall;;No
2075776;773602478187-773602478187-2075776;PIGMENT-SILVER 4.5GM/.15OZ;Draft;Lipstick;M.A.C;Adults-Women;Women;;;;Core;;2017;4.5gm,MAACLPST00000410;2200.00;;;;;;;;zerotype;;Fall;;No
2075775;773602478088-773602478088-2075775;PIGMENT-PURE GOLD 4.5GM/.15OZ;Draft;Lipstick;M.A.C;Adults-Women;Women;;;;Core;;2017;4.5gm,MAACLPST00000409;2200.00;;;;;;;;zerotype;;Fall;;No
2075772;773602471553-773602471553-2075772;METALLIC LIPSTICK-CORAL 3GM/.1OZ;Draft;Lipstick;M.A.C;Adults-Women;Women;;;;Core;;2017;3gm,MAACLPST00000406;1650.00;;;;;;;;zerotype;;Fall;;No
2075769;773602471522-773602471522-2075769;METALLIC LIPSTICK-LOVE'S 3GM/.1OZ;Draft;Lipstick;M.A.C;Adults-Women;Women;;;;Core;;2017;3gm,MAACLPST00000403;1650.00;;;;;;;;zerotype;;Fall;;No
2075768;773602471515-773602471515-2075768;METALLIC LIPSTICK-METALW 3GM/.1OZ;Draft;Lipstick;M.A.C;Adults-Women;Women;;;;Core;;2017;3gm,MAACLPST00000402;1650.00;;;;;;;;zerotype;;Fall;;No
2075767;773602471508-773602471508-2075767;METALLIC LIPSTICK-ANYTHI 3GM/.1OZ;Draft;Lipstick;M.A.C;Adults-Women;Women;;;;Core;;2017;3gm,MAACLPST00000401;1650.00;;;;;;;;zerotype;;Fall;;No
2075766;773602471485-773602471485-2075766;METALLIC LIPSTICK-DISOBE 3GM/.1OZ;Draft;Lipstick;M.A.C;Adults-Women;Women;;;;Core;;2017;3gm,MAACLPST00000400;1650.00;;;;;;;;zerotype;;Fall;;No
2075765;773602471478-773602471478-2075765;METALLIC LIPSTICK-PEARLY 3GM/.1OZ;Draft;Lipstick;M.A.C;Adults-Women;Women;;;;Core;;2017;3gm,MAACLPST00000399;1650.00;;;;;;;;zerotype;;Fall;;No
2075764;773602471461-773602471461-2075764;METALLIC LIPSTICK-JUPITE 3GM/.1OZ;Draft;Lipstick;M.A.C;Adults-Women;Women;;;;Core;;2017;3gm,MAACLPST00000398;1650.00;;;;;;;;zerotype;;Fall;;No
2075763;773602471447-773602471447-2075763;METALLIC LIPSTICK-IN LUS 3GM/.1OZ;Draft;Lipstick;M.A.C;Adults-Women;Women;;;;Core;;2017;3gm,MAACLPST00000397;1650.00;;;;;;;;zerotype;;Fall;;No
2075762;773602471430-773602471430-2075762;METALLIC LIPSTICK-SILVER 3GM/.1OZ;Draft;Lipstick;M.A.C;Adults-Women;Women;;;;Core;;2017;3gm,MAACLPST00000396;1650.00;;;;;;;;zerotype;;Fall;;No
2075761;773602471423-773602471423-2075761;METALLIC LIPSTICK-COLD F 3GM/.1OZ;Draft;Lipstick;M.A.C;Adults-Women;Women;;;;Core;;2017;3gm,MAACLPST00000395;1650.00;;;;;;;;zerotype;;Fall;;No
2075760;773602471393-773602471393-2075760;METALLIC LIPSTICK-PALE R 3GM/.1OZ;Draft;Lipstick;M.A.C;Adults-Women;Women;;;;Core;;2017;3gm,MAACLPST00000394;1650.00;;;;;;;;zerotype;;Fall;;No
2075759;773602471386-773602471386-2075759;METALLIC LIPSTICK-HADES 3GM/.1OZ;Draft;Lipstick;M.A.C;Adults-Women;Women;;;;Core;;2017;3gm,MAACLPST00000393;1650.00;;;;;;;;zerotype;;Fall;;No
2075758;773602471379-773602471379-2075758;METALLIC LIPSTICK-FOILED 3GM/.1OZ;Draft;Lipstick;M.A.C;Adults-Women;Women;;;;Core;;2017;3gm,MAACLPST00000392;1650.00;;;;;;;;zerotype;;Fall;;No
2075757;773602471362-773602471362-2075757;METALLIC LIPSTICK-ROYAL 3GM/.1OZ;Draft;Lipstick;M.A.C;Adults-Women;Women;;;;Core;;2017;3gm,MAACLPST00000391;1650.00;;;;;;;;zerotype;;Fall;;No
2074817;AW17JAASH421B-BLACK-2074817;SETS;Draft;Kurta Sets;IMARA;Adults-Women;Women;;;;Fashion;;2017;L,IMRAKASS00000943,M,IMRAKASS00000944,S,IMRAKASS00000945,XL,IMRAKASS00000946,XS,IMRAKASS00000947;2599.00;;;;;;;ndd17-mum,IMARA-FW17-LAUNCH;zerotype;;Fall;SHANKAR;No
2065955;773602235452-773602235452-2065955;Matchmaster SPF 15 Foundation;Draft;Foundation and Primer;M.A.C;Adults-Women;Women;;;;Core;;2017;35.00 ml,MAACFDPR00000148;3600.00;;;;;;;;zerotype;;Fall;;No
2065954;773602235445-773602235445-2065954;Matchmaster SPF 15 Foundation;Draft;Foundation and Primer;M.A.C;Adults-Women;Women;;;;Core;;2017;35.00 ml,MAACFDPR00000147;3600.00;;;;;;;;zerotype;;Fall;;No
2065933;773602345830-773602345830-2065933;Prep + Prime Fix+;Draft;Foundation and Primer;M.A.C;Adults-Women;Women;;;;Core;;2017;100ml,MAACFDPR00000126;1800.00;;;;;;;;zerotype;;Fall;;No
2065931;773602326853-773602326853-2065931;Prep + Prime Natural Radiance;Draft;Foundation and Primer;M.A.C;Adults-Women;Women;;;;Core;;2017;50ml,MAACFDPR00000124;3200.00;;;;;;;;zerotype;;Fall;;No
2065926;773602264285-773602264285-2065926;Mineralize Moisture SPF 15 Foundation;Draft;Foundation and Primer;M.A.C;Adults-Women;Women;;;;Core;;2017;30ml,MAACFDPR00000119;3600.00;;;;;;;;zerotype;;Fall;;No
2065899;773602042951-773602042951-2065899;Studio Fix Powder Plus Foundation;Draft;Foundation and Primer;M.A.C;Adults-Women;Women;;;;Core;;2017;15gm,MAACFDPR00000093;2700.00;;;;;;;;zerotype;;Fall;;No
2065898;773602042678-773602042678-2065898;Studio Fix Powder Plus Foundation;Draft;Foundation and Primer;M.A.C;Adults-Women;Women;;;;Core;;2017;15gm,MAACFDPR00000092;2700.00;;;;;;;;zerotype;;Fall;;No
2065895;773602010646-773602010646-2065895;Studio Fix Powder Plus Foundation;Draft;Foundation and Primer;M.A.C;Adults-Women;Women;;;;Core;;2017;15gm,MAACFDPR00000089;2700.00;;;;;;;;zerotype;;Fall;;No
2065891;773602010486-773602010486-2065891;Studio Fix Powder Plus Foundation;Draft;Foundation and Primer;M.A.C;Adults-Women;Women;;;;Core;;2017;15gm,MAACFDPR00000085;2700.00;;;;;;;;zerotype;;Fall;;No
2065885;773602232796-773602232796-2065885;DEMI-WIPES - SIZED TO GO;Draft;Makeup Remover;M.A.C;Adults-Women;Women;;;;Core;;2017;30/pack,MAACMKRM00000012;1090.00;;;;;;;;zerotype;;Fall;;No
2065881;773602102747-773602102747-2065881;Wipes  -makeup remover;Draft;Makeup Remover;M.A.C;Adults-Women;Women;;;;Core;;2017;Onesize,MAACMKRM00000008;1850.00;;;;;;;;zerotype;;Fall;;No
2065854;773602043804-773602043804-2065854;Eye Shadow  Humid;Draft;Eyeshadow;M.A.C;Adults-Women;Women;;;;Core;;2017;1.50G,MAACEYSD00000098;1500.00;;;;;;;;zerotype;;Fall;;No
2065851;773602001521-773602001521-2065851;Eye Shadow  Nylon;Draft;Eyeshadow;M.A.C;Adults-Women;Women;;;;Core;;2017;1.50 g,MAACEYSD00000095;1500.00;;;;;;;;zerotype;;Fall;;No
2065837;773602306206-773602306206-2065837;Pro Longwear Paint Pot;Draft;Eyeshadow;M.A.C;Adults-Women;Women;;;;Core;;2017;5.00G,MAACEYSD00000081;2200.00;;;;;;;;zerotype;;Fall;;No
2065824;773602001217-773602001217-2065824;Eye Shadow  Espresso;Draft;Eyeshadow;M.A.C;Adults-Women;Women;;;;Core;;2017;1.50G,MAACEYSD00000068;1500.00;;;;;;;;zerotype;;Fall;;No
2065820;773602232840-773602232840-2065820;STROBE CREAM - SIZED TO GO;Draft;Body Lotion;M.A.C;Adults-Women;Women;;;;Core;;2017;Onesize,MAACBYLN00000004;1090.00;;;;;;;;zerotype;;Fall;;No
2065811;773602283583-773602283583-2065811;In Extreme Dimension 3D Black Lash;Draft;Mascara;M.A.C;Adults-Women;Women;;;;Core;;2017;13gm,MAACMSCR00000024;2200.00;;;;;;;;zerotype;;Fall;;No
2065809;773602266586-773602266586-2065809;False Lashes Waterproof;Draft;Mascara;M.A.C;Adults-Women;Women;;;;Core;;2017;8gm,MAACMSCR00000022;2200.00;;;;;;;;zerotype;;Fall;;No
2065806;773602251001-773602251001-2065806;False Lashes Extreme Black;Draft;Mascara;M.A.C;Adults-Women;Women;;;;Core;;2017;8gm,MAACMSCR00000020;2200.00;;;;;;;;zerotype;;Fall;;No
2065791;773602375783-773602375783-2065791;Liquidlast Liner;Draft;Eyeliner;M.A.C;Adults-Women;Women;;;;Core;;2017;2.50 ml,MAACEYLN00000013;2100.00;;;;;;;;zerotype;;Fall;;No
2065764;773602426652-773602426652-2065764;LIPSTICK  BREATHING FIRE;Draft;Lipstick;M.A.C;Adults-Women;Women;;;;Core;;2017;30gm,MAACLPST00000368;1650.00;;;;;;;;zerotype;;Fall;;No
2065755;773602388042-773602388042-2065755;TROPIC TONIC   LIPSTICK;Draft;Lipstick;M.A.C;Adults-Women;Women;;;;Core;;2017;30gm,MAACLPST00000359;1650.00;;;;;;;;zerotype;;Fall;;No
2065741;773602403769-773602403769-2065741;Liptensity Lipstick;Draft;Lipstick;M.A.C;Adults-Women;Women;;;;Core;;2017;3.60 g,MAACLPST00000345;2050.00;;;;;;;;zerotype;;Fall;;No
2065713;773602376094-773602376094-2065713;Retro Matte Liquid Lipcolour;Draft;Lipstick;M.A.C;Adults-Women;Women;;;;Core;;2017;5.00 ml,MAACLPST00000317;2050.00;;;;;;;;zerotype;;Fall;;No
2065701;773602174041-773602174041-2065701;Lipstick  Lickable;Draft;Lipstick;M.A.C;Adults-Women;Women;;;;Core;;2017;3.00G,MAACLPST00000307;1650.00;;;;;;;;zerotype;;Fall;;No
2065584;773602337156-773602337156-2065584;Mineralize Skinfinish Natural;Draft;Compact;M.A.C;Adults-Women;Women;;;;Core;;2017;10.00 g,MAACCMPT00000070;2850.00;;;;;;;;zerotype;;Fall;;No
2065573;773602338719-773602338719-2065573;Mineralize Skinfinish Natural;Draft;Compact;M.A.C;Adults-Women;Women;;;;Core;;2017;10.00G,MAACCMPT00000059;2850.00;;;;;;;;zerotype;;Fall;;No
2065568;773602337071-773602337071-2065568;Mineralize Skinfinish Natural;Draft;Compact;M.A.C;Adults-Women;Women;;;;Core;;2017;10.00G,MAACCMPT00000054;2850.00;;;;;;;;zerotype;;Fall;;No
2065540;773602396207-773602396207-2065540;TENDERTALK LIP BALM;Draft;Lip Care;M.A.C;Adults-Women;Women;;;;Core;;2017;onesize,MAACLPCE00000011;1550.00;;;;;;;;zerotype;;Fall;;No
2065529;773602112456-773602112456-2065529;Technakohl Liner;Draft;Kajal and Eye Pencil;M.A.C;Adults-Women;Women;;;;Core;;2017;0.35 g,MAACKEPL00000069;1300.00;;;;;;;;zerotype;;Fall;;No
2065528;773602112432-773602112432-2065528;Technakohl Liner;Draft;Kajal and Eye Pencil;M.A.C;Adults-Women;Women;;;;Core;;2017;0.35 g,MAACKEPL00000068;1300.00;;;;;;;;zerotype;;Fall;;No
2065508;773602183449-773602183449-2065508;Kohl Power Eye Pencil;Draft;Kajal and Eye Pencil;M.A.C;Adults-Women;Women;;;;Core;;2017;1.50G,MAACKEPL00000049;1550.00;;;;;;;;zerotype;;Fall;;No
2065507;773602112401-773602112401-2065507;Technakohl Liner;Draft;Kajal and Eye Pencil;M.A.C;Adults-Women;Women;;;;Core;;2017;0.35 g,MAACKEPL00000048;1300.00;;;;;;;;zerotype;;Fall;;No
2065497;773602044450-773602044450-2065497;Powder Blush;Draft;Highlighter and Blush;M.A.C;Adults-Women;Women;;;;Core;;2017;6gm,MAACHRBH00000063;2150.00;;;;;;;;zerotype;;Fall;;No
2065467;773602387069-773602387069-2065467;Powder Blush  Pink Swoon;Draft;Highlighter and Blush;M.A.C;Adults-Women;Women;;;;Core;;2017;6gm,MAACHRBH00000036;2150.00;;;;;;;;zerotype;;Fall;;No
2065450;773602279272-773602279272-2065450;Fluidline Brow Gelcreme;Draft;Eyebrow Enhancer;M.A.C;Adults-Women;Women;;;;Core;;2017;3gm,MAACEBER00000029;1550.00;;;;;;;;zerotype;;Fall;;No
2065409;773602002177-773602002177-2065409;STONE  LIP PENCIL;Draft;Lip Liner;M.A.C;Adults-Women;Women;;;;Core;;2017;1.45gm,MAACLPLN00000072;1600.00;;;;;;;;zerotype;;Fall;;No
2065403;773602430055-773602430055-2065403;Lip Pencil  Magenta;Draft;Lip Liner;M.A.C;Adults-Women;Women;;;;Core;;2017;1.45 g,MAACLPLN00000067;1600.00;;;;;;;;zerotype;;Fall;;No
2065368;773602311569-773602311569-2065368;Prep + Prime BB Beauty Balm SPF 35;Draft;BB and CC Cream;M.A.C;Adults-Women;Women;;;;Core;;2017;40.00 ml,MAACBCCM00000012;2550.00;;;;;;;;zerotype;;Fall;;No
2065352;773602044573-773602044573-2065352;Studio Finish SPF 35 Concealer;Draft;Concealer;M.A.C;Adults-Women;Women;;;;Core;;2017;7gm,MAACCNLR00000067;2050.00;;;;;;;;zerotype;;Fall;;No
2065334;773602207152-773602207152-2065334;Pro Longwear Concealer;Draft;Concealer;M.A.C;Adults-Women;Women;;;;Core;;2017;9.00ML,MAACCNLR00000050;2300.00;;;;;;;;zerotype;;Fall;;No
2065315;773602245505-773602245505-2065315;211 Pointed Liner Brush;Draft;Makeup Brushes;M.A.C;Adults-Women;Women;;;;Core;;2017;Onesize,MAACMPBS00000054;1950.00;;;;;;;;zerotype;;Fall;;No
2060301;51600506-Love Potion-Dark purple cat-2060301;PWRSHAPE Forever Pad - Logo;Draft;Bra;Puma;Adults-Women;Women;Pink;;;Fashion;;2017;S/AB,PUMABRAA00000460,M/AB,PUMABRAA00000462,L/AB,PUMABRAA00000464,XL/AB,PUMABRAA00000466,XL/CD,PUMABRAA00000574;2499.00;;;;;;;all-sports-styles-2017,fw-17-sports-new,puma-aw17-season-launch,FW17-SPORTS-NEW;zerotype;;Fall;bbd17-extra20;No
2060297;51600501-Puma Black-PUMA-2060297;PWRSHAPE Forever Pad - Logo;Draft;Bra;Puma;Adults-Women;Women;Black;;;Fashion;;2017;S/AB,PUMABRAA00000445,M/AB,PUMABRAA00000447,L/AB,PUMABRAA00000449,XL/AB,PUMABRAA00000451;2499.00;;;;;;;all-sports-styles-2017,fw-17-sports-new,puma-aw17-season-launch,FW17-SPORTS-NEW,ndd17-blr;zerotype;;Fall;ndd17-blr;No
2051661;MCSW0123-COBALT-2051661;LADIES WESTERN WEAR  SWEATER;Draft;Sweaters;Ms.Taken;Adults-Women;Women;;;;Fashion;;2017;S,MTENSWTR00000125,M,MTENSWTR00000126,L,MTENSWTR00000127,XL,MTENSWTR00000128;1399.00;;;;;;;;zerotype;;Fall;;No
2051660;MCSW0405-PLUM-2051660;LADIES WESTERN WEAR  SWEATER;Draft;Sweaters;Ms.Taken;Adults-Women;Women;;;;Fashion;;2017;S,MTENSWTR00000121,M,MTENSWTR00000122,L,MTENSWTR00000123,XL,MTENSWTR00000124;2099.00;;;;;;;;zerotype;;Fall;;No
2044377;MPO64-240-PL-Maroon Melange-2044377;Men's Sport Shorts-Maroon Melange;Draft;Lounge Shorts;Hanes;Adults-Men;Men;Maroon;;;Core;Casual;2017;S,HANELNSH00000176,M,HANELNSH00000177,L,HANELNSH00000178;669.00;Maroon mid-rise knitted lounge shorts, has two pockets, an elasticated waistband with a drawstring fastening;Give your wardrobe a fashionable edge with these lounge shorts from Hanes. The soft fabric and the perfect fit keeps you comfortable all day long. Team them with a stylish tee and a pair of flip-flops for a laid-back look.;100% cotton<br />Machine-wash;The model (height 6') is wearing a size M;;Hanes Men Maroon Lounge Shorts MPO64-240-PL;Hanes;zerotype;;Fall;No comment entered;No
2044375;MPO64-195-PL-Navy-2044375;Men's Sport Shorts-Navy;Draft;Lounge Shorts;Hanes;Adults-Men;Men;Navy Blue;;;Core;Casual;2017;S,HANELNSH00000172,M,HANELNSH00000173,L,HANELNSH00000174;669.00;Navy blue mid-rise knitted lounge shorts, has two pockets, an elasticated waistband with a drawstring fastening;Give your wardrobe a fashionable edge with these lounge shorts from Hanes. The soft fabric and the perfect fit keeps you comfortable all day long. Team them with a stylish tee and a pair of flip-flops for a laid-back look.;100% cotton<br />Machine-wash;The model (height 6') is wearing a size M;;Hanes Men Navy Lounge Shorts MPO64-195-PL;Hanes;zerotype;;Fall;No comment entered;No
2044360;MPO63-031-PL-Oxford Grey Melange-2044360;Men's Fashion Sport  Shorts -Oxford Grey;Draft;Lounge Shorts;Hanes;Adults-Men;Men;Grey;;;Core;Casual;2017;S,HANELNSH00000148,M,HANELNSH00000149,L,HANELNSH00000150;629.00;Grey mid-rise knitted lounge shorts, has two pockets, an elasticated waistband with a drawstring fastening;Give your wardrobe a fashionable edge with these lounge shorts from Hanes. The soft fabric and the perfect fit keeps you comfortable all day long. Team them with a stylish tee and a pair of flip-flops for a laid-back look.;100% cotton<br />Machine-wash;The model (height 6') is wearing a size M;;Hanes Men Grey Lounge Shorts MPO63-031-PL;Hanes;zerotype;;Fall;No comment entered;No
2044356;MPO62-240-PL-Maroon Melange-2044356;Men's Sport Shorts -Maroon Melange;Draft;Lounge Shorts;Hanes;Adults-Men;Men;Maroon;;;Core;Casual;2017;S,HANELNSH00000139,M,HANELNSH00000140,L,HANELNSH00000141;499.00;Maroon mid-rise knitted lounge shorts, has two pockets, an elasticated waistband with a drawstring fastening;Give your wardrobe a fashionable edge with these lounge shorts from Hanes. The soft fabric and the perfect fit keeps you comfortable all day long. Team them with a stylish tee and a pair of flip-flops for a laid-back look.;100% cotton<br />Machine-wash;The model (height 6') is wearing a size M;;Hanes Men Maroon Lounge Shorts MPO62-240-PL;Hanes;zerotype;;Fall;No comment entered;No
2044340;R008-615-PL-Assorted-2044340;40's poplin-BOXER WOVEN-ASSORTED;Draft;Boxers;Hanes;Adults-Men;Men;Grey Melange;;;Core;Casual;2017;L,HANEBOXR00000060,M,HANEBOXR00000061,S,HANEBOXR00000062;529.00;A pair of lounge shorts in assorted colour - the final product delivered might vary in colour and prints from the display here, has an elasticated waistband, three pockets;Give your wardrobe a fashionable edge with these lounge shorts from Hanes. The soft fabric and the perfect fit keeps you comfortable all day long. Team them with a stylish tee and a pair of flip-flops for a laid-back look.;100% cotton<br />Machine-wash;<br />The model (height 6') is wearing a size M;;Hanes Men Lounge Shorts R008-615-PL;Hanes;zerotype;;Fall;No comment entered;No
2044326;F664-717-PL-Ice Blue-2044326;PC S/J PLATED WITH QUICK DRY FINISH-T-SH;Draft;Lounge Tshirts;Hanes;Adults-Men;Men;Blue;;;Core;Casual;2017;S,HANELUNT00000036,M,HANELUNT00000037,L,HANELUNT00000038;599.00;Fabric- 75% Cotton and 25% polyester, Modern fit with square raglan styling, Reflective sport print for enhanced look;Feel comfortable while relaxing at home in this lounge T-shirt. Team it up with a pair of lounge shorts and flip-flops to complete the look.;75% cotton, 25% polyester<br />Machine-wash;The model (height 6') is wearing a size M;;Hanes Blue Solid Lounge T-shirt F664-125-PL;Hanes;zerotype;;Fall;No comment entered;No
2044322;F664-125-PL-Red-2044322;PC S/J PLATED WITH QUICK DRY FINISH-T-SH;Draft;Lounge Tshirts;Hanes;Adults-Men;Men;Red;;;Core;Casual;2017;S,HANELUNT00000026,M,HANELUNT00000027,L,HANELUNT00000028;599.00;Red solid lounge T-shirt, has a round neck, short sleeves;Feel comfortable while relaxing at home in this lounge T-shirt. Team it up with a pair of lounge shorts and flip-flops to complete the look.;100% cotton<br />Machine-wash;The model (height 6') is wearing a size M;;Hanes Red Solid Lounge T-shirt F664-125-PL;Hanes,bbd17-coupon-offer,menscasualfest-oct,ftod-sep30;zerotype;;Fall;No comment entered;No
2039152;ALTF317J005574-khaki-2039152;Trousers;Draft;Trousers;Solly Jeans Co.;Adults-Men;Men;Khaki;;;Fashion;;2017;30,SYJSTRSR00000156,32,SYJSTRSR00000157,34,SYJSTRSR00000158,36,SYJSTRSR00000159,38,SYJSTRSR00000160,40,SYJSTRSR00000161;1699.00;;;<p>Wash with mild detergent. Do not bleach. Dry in shade</p>;;;;mitm-formal-sep,mitm-college-sep;zerotype;;Summer;mitm-college-sep;No
2031355;117YKKSLD80051-NEW-NAVY-2031355;F/SLEEVE TEE;Draft;Tshirts;YK Disney;Kids-Girls;Girls;;;;Fashion;;2017;2-3Y,YKDNTSHT00001241,3-4Y,YKDNTSHT00001242,4-5Y,YKDNTSHT00001243,5-6Y,YKDNTSHT00001244,6-7Y,YKDNTSHT00001245;799.00;;;;;;;;zerotype;;Fall;;No
2029003;8901030648502-8901030648502-2029003;Peach MilkMoisturizer SPF24PA SunscreenLotion;Draft;Face Moisturisers;Lakme;Adults-Women;Women;;;;Core;;2017;120 ml,LAKMFMNC00000008;240.00;;;;;;;;zerotype;;Fall;;No
2023908;SKW2619I-ROSE GOLD-2023908;SKAGEN Watches;Draft;Watches;SKAGEN;Adults-Women;Women;;;;Fashion;;2017;Onesize,SKGNWTCH00000960;11995.00;;;;;;;;zerotype;;Winter;;No
2018317;AW17ROYKD105A-BLACK-2018317;AW17ROYKD105A;Draft;Kurta Sets;IMARA;Adults-Women;Women;;;;Fashion;;2017;S,IMRAKASS00000618,M,IMRAKASS00000619,L,IMRAKASS00000620,XL,IMRAKASS00000621,XXL,IMRAKASS00000622;4499.00;;;;;;;IMARA-AW17-18AUG,IMARA-FW17-LAUNCH;zerotype;;Fall;SHANKAR;No
2013539;LR-GUNNILA - B-Salute-2013539;Womens T-Shirt;Active;Tshirts;Mast & Harbour;Adults-Women;Women;Navy Blue;;;Fashion;Casual;2017;XS,MTHBTSHT00009911,S,MTHBTSHT00009912,M,MTHBTSHT00009913,L,MTHBTSHT00009914,XL,MTHBTSHT00009915;599.00;Navy blue solid T-shirt, has a round neck, short sleeves;Liven up your warm-weather wardrobe with this high-fashion tee designed by Mast & Harbour.  You can team this navy blue piece with trim denims and sneakers when you have some errands to run.;100% cotton<br />Machine-wash;The model (height 5'8") is wearing a size S;;Mast & Harbour Women Navy Blue Solid Round Neck T-shirt;Mast & Harbour,ndd17-ggn,coupon-offer-diwali17;zerotype;;Fall;tag;No
2013263;LRKC517R02845-Brown-2013263;LRKC517R02845;Draft;Tshirts;Louis Philippe Jeans;Adults-Men;Men;Brown;;;Fashion;;2017;S,LPJSTSHT00001362,M,LPJSTSHT00001363,L,LPJSTSHT00001364,XL,LPJSTSHT00001365,XXL,LPJSTSHT00001366;999.00;;;<p>Gentle Wash</p>;;;;LP-AW17;zerotype;;Fall;LP-AW17;No
2009557;217YKKSLD89477-BLACK-2009557;H/SLEEVE TOP;Draft;Tops;YK;Kids-Girls;Girls;;;;Fashion;;2017;2-3Y,YKYKTOPS00000343,3-4Y,YKYKTOPS00000344,4-5Y,YKYKTOPS00000345,5-6Y,YKYKTOPS00000346,6-7Y,YKYKTOPS00000347;699.00;;;;;;;;zerotype;;Fall;;No
2004639;217YKKSLD99546-WHITE MELANGE & BLACK-2004639;H/SLEEVE T-SHIRT;Draft;Tshirts;YK;Kids-Girls;Girls;;;;Fashion;;2017;7-8Y,YKYKTSHT00005411,8-9Y,YKYKTSHT00005412,10-11Y,YKYKTSHT00005413,11-12Y,YKYKTSHT00005414,13-14Y,YKYKTSHT00005415;1299.00;;;;;;;;zerotype;;Fall;;No
2002938;217YKKSLD59405-GREY MELANGE  & NAVY-2002938;H/SLEEVE TEE & SHORTS;Draft;Clothing Set;YK;Kids-Boys;Boys;;;;Fashion;;2017;2-3Y,YKYKCLST00000205,3-4Y,YKYKCLST00000206,4-5Y,YKYKCLST00000207,5-6Y,YKYKCLST00000208,6-7Y,YKYKCLST00000209;1099.00;;;;;;;;zerotype;;Fall;;No
2001654;217YKKSLD59471-BLACK & GREY-2001654;F/SLEEVE TEE & JOGGERS;Draft;Clothing Set;YK;Kids-Boys;Boys;;;;Fashion;;2017;2-3Y,YKYKCLST00000190,3-4Y,YKYKCLST00000191,4-5Y,YKYKCLST00000192,5-6Y,YKYKCLST00000193,6-7Y,YKYKCLST00000194;1399.00;;;;;;;;zerotype;;Fall;;No
2000549;HRX-AW17-MK-1223 B-MOROCCAN BLUE-2000549;MENS H/SLEEVE TEE;Draft;Tshirts;HRX by Hrithik Roshan;Adults-Men;Men;;;;Fashion;;2017;S,HBHRTSHT00010019,M,HBHRTSHT00010020,L,HBHRTSHT00010021,XL,HBHRTSHT00010022,XXL,HBHRTSHT00010023;699.00;;;;;;;;zerotype;;Fall;;No
2000544;HRX-AW17-MK-1221 A-MOROCCAN BLUE-2000544;MENS H/SLEEVE TEE;Draft;Tshirts;HRX by Hrithik Roshan;Adults-Men;Men;;;;Fashion;;2017;S,HBHRTSHT00009994,M,HBHRTSHT00009995,L,HBHRTSHT00009996,XL,HBHRTSHT00009997,XXL,HBHRTSHT00009998;699.00;;;;;;;;zerotype;;Fall;;No
2000543;HRX-AW17-MK-1220 C-DEEP MINT-2000543;MENS H/SLEEVE TEE;Draft;Tshirts;HRX by Hrithik Roshan;Adults-Men;Men;;;;Fashion;;2017;S,HBHRTSHT00009989,M,HBHRTSHT00009990,L,HBHRTSHT00009991,XL,HBHRTSHT00009992,XXL,HBHRTSHT00009993;699.00;;;;;;;;zerotype;;Fall;;No
2000536;HRX-AW17-MK-1218 A-NIMBUS CLOUD-2000536;MENS H/SLEEVE TEE;Draft;Tshirts;HRX by Hrithik Roshan;Adults-Men;Men;;;;Fashion;;2017;S,HBHRTSHT00009954,M,HBHRTSHT00009955,L,HBHRTSHT00009956,XL,HBHRTSHT00009957,XXL,HBHRTSHT00009958;699.00;;;;;;;;zerotype;;Fall;;No
2000526;HRX-AW17-MK-2441 B-MIDNIGHT NAVY-2000526;MENS H/SLEEVE TEE;Draft;Tshirts;HRX by Hrithik Roshan;Adults-Men;Men;;;;Fashion;;2017;S,HBHRTSHT00009904,M,HBHRTSHT00009905,L,HBHRTSHT00009906,XL,HBHRTSHT00009907,XXL,HBHRTSHT00009908;699.00;;;;;;;;zerotype;;Fall;;No
2000512;HRX-AW17-MK-2430 A-ANTHRA MELANGE-2000512;MENS H/SLEEVE TEE;Draft;Tshirts;HRX by Hrithik Roshan;Adults-Men;Men;;;;Fashion;;2017;S,HBHRTSHT00009834,M,HBHRTSHT00009835,L,HBHRTSHT00009836,XL,HBHRTSHT00009837,XXL,HBHRTSHT00009838;699.00;;;;;;;;zerotype;;Fall;;No
2000511;HRX-AW17-MK-2429 B-JET BLACK-2000511;MENS F/SLEEVE TEE;Draft;Tshirts;HRX by Hrithik Roshan;Adults-Men;Men;;;;Fashion;;2017;S,HBHRTSHT00009829,M,HBHRTSHT00009830,L,HBHRTSHT00009831,XL,HBHRTSHT00009832,XXL,HBHRTSHT00009833;899.00;;;;;;;;zerotype;;Fall;;No
1993512;RANG-ER-0171517-Silver/Red-1993512;Earring;Draft;Earrings;Anouk;Adults-Women;Women;;;;Fashion;;2017;Onesize,ANUKEARR00001828;799.00;;;;;;;anouk-aw17-semifestive,Coupon-offer-aug19;zerotype;;Fall;add;No
1953871;217YKKSLD69510-GREY-1953871;F/SLV SWEATSHIRT;Draft;Sweatshirts;YK;Kids-Boys;Boys;;;;Fashion;;2017;7-8Y,YKYKSWSH00000316,8-9Y,YKYKSWSH00000317,10-11Y,YKYKSWSH00000318,11-12Y,YKYKSWSH00000319,13-14Y,YKYKSWSH00000320;1499.00;;;;;;;;zerotype;;Fall;;No
1953862;217YKKSLD59513-GREY-1953862;F/SLV SWEATSHIRT;Draft;Sweatshirts;YK;Kids-Boys;Boys;;;;Fashion;;2017;2-3Y,YKYKSWSH00000271,3-4Y,YKYKSWSH00000272,4-5Y,YKYKSWSH00000273,5-6Y,YKYKSWSH00000274,6-7Y,YKYKSWSH00000275;1199.00;;;;;;;;zerotype;;Fall;;No
1945398;EHSH0465-LIGHT BLUE-1945398;Solid-FS-LIGHT BLUE;Draft;Shirts;Ed Hardy;Adults-Men;Men;;;;Fashion;;2016;S,EDHRSHRT00001316,M,EDHRSHRT00001317,L,EDHRSHRT00001318,XL,EDHRSHRT00001319;2399.00;;;<p>100% Cotton</p>;;;;;zerotype;;Summer;;No
1931569;HRX-AW17-MK-9396A-LEGION BLUE-1931569;MENS H/SLEEVE TEE;Draft;Tshirts;HRX by Hrithik Roshan;Adults-Men;Men;;;;Fashion;;2017;S,HBHRTSHT00009134,M,HBHRTSHT00009135,L,HBHRTSHT00009136,XL,HBHRTSHT00009137,XXL,HBHRTSHT00009138;799.00;;;;;;;;zerotype;;Fall;;No
1931534;HRX-AW17-MK-9380B-JET BLACK-1931534;MENS H/SLEEVE TEE;Draft;Tshirts;HRX by Hrithik Roshan;Adults-Men;Men;;;;Fashion;;2017;S,HBHRTSHT00008959,M,HBHRTSHT00008960,L,HBHRTSHT00008961,XL,HBHRTSHT00008962,XXL,HBHRTSHT00008963;799.00;;;;;;;;zerotype;;Fall;;No
1931533;HRX-AW17-MK-9380A-BRILLIANT WHITE-1931533;MENS H/SLEEVE TEE;Draft;Tshirts;HRX by Hrithik Roshan;Adults-Men;Men;;;;Fashion;;2017;S,HBHRTSHT00008954,M,HBHRTSHT00008955,L,HBHRTSHT00008956,XL,HBHRTSHT00008957,XXL,HBHRTSHT00008958;799.00;;;;;;;;zerotype;;Fall;;No
1859239;MNH-1345970-C-Aqua/Teal/Red-1859239;womens weatshirt;BIS + Content Complete;Sweatshirts;Mast & Harbour;Adults-Women;Women;Blue;Rust;;;Casual;;L,MTHBSWSH00002508,M,MTHBSWSH00002509,S,MTHBSWSH00002510,XL,MTHBSWSH00002511;1299.00;Blue and rust colourblocked sweatshirt, has a hood, 2 pockets, long sleeves, zip closure, straight hem;Effortless style comes easy in this in-season Mast & Harbour sweatshirt.  When you're going for a stroll around the park, style this blue piece with a comfy tee, distressed denims, and sneakers.;Cotton <br> Machine-wash;The model (height 5'8") is wearing a size S;;Mast & Harbour Women Blue & Rust Colourblocked Hooded Sweatshirt;Mast & Harbour,ndd17-ggn;zerotype;;;ndd17-ggn;No
1859194;AW17MNHMANSWEAT011A-Blue-1859194;Mens sweatshirt;BIS + Content Complete;Sweatshirts;Mast & Harbour;Adults-Men;Men;Blue;;;;Casual;;L,MTHBSWSH00002328,M,MTHBSWSH00002329,S,MTHBSWSH00002330,XL,MTHBSWSH00002331;1699.00;Blue solid sweatshirt, has a hood, short sleeves, straight hem;Maintain a laid-back look any time of the year with this top-of-the-line Mast & Harbour zip-up.  Team this blue piece with a basic T-shirt and slim jeans when you're going out for coffee with your friends.;Cotton <br> Machine-wash;The model (height 6') is wearing a size M;;Mast & Harbour Men Blue Solid Hooded Sweatshirt;Mast & Harbour,ndd17-ggn;zerotype;;;ndd17-ggn;No
1858806;1216B-BABY PINK-1858806;FULL SLEEVE JACKET;Active;Jackets;DressBerry;Adults-Women;Women;Pink;;;Fashion;Casual;2017;XS,DSBYJCKT00000670,S,DSBYJCKT00000671,M,DSBYJCKT00000672,L,DSBYJCKT00000673,XL,DSBYJCKT00000674;4799.00;Pink solid biker jacket, has a mandarin collar, 2 pockets, zip closure, long sleeves, straight hem, polyester lining;This fashionable DressBerry pink jacket will help you declare your style this season.  This piece can be layered over your favourite dress when you're going on a first date.;PU<br />Hand-wash;The model (height 5'8") is wearing a size S;;DressBerry Women Pink Solid Biker Jacket;DressBerry,coupon-offer-diwali17;zerotype;;Fall;tag;No
1858805;1216A-NAVY-1858805;FULL SLEEVE JACKET;Active;Jackets;DressBerry;Adults-Women;Women;Navy Blue;;;Fashion;Casual;2017;XS,DSBYJCKT00000665,S,DSBYJCKT00000666,M,DSBYJCKT00000667,L,DSBYJCKT00000668,XL,DSBYJCKT00000669;4799.00;Navy blue solid biker jacket, has a mandarin collar, 2 pockets, zip closure, long sleeves, straight hem, polyester lining;Stay cosy and warm with this trendsetting DressBerry navy blue jacket.  Team this piece with trim denims and a casual tee when you're meeting the girls for coffee.;Polyester <br> Hand-wash;The model (height 5'8") is wearing a size S;;DressBerry Women Navy Blue Solid Biker Jacket;DressBerry,coupon-offer-diwali17;zerotype;;Fall;tag;No
1856092;MNHMANAW17 SWTR081B-Brick Red-1856092;MENS SWEATER;Draft;Sweaters;Mast & Harbour;Adults-Men;Men;;;;Fashion;;2017;S,MTHBSWTR00002539,M,MTHBSWTR00002540,L,MTHBSWTR00002541,XL,MTHBSWTR00002542;1999.00;;;;;;;;zerotype;;Winter;;No
1856089;MNHMANAW17 SWTR080C-Navy-1856089;MENS SWEATER;Draft;Sweaters;Mast & Harbour;Adults-Men;Men;;;;Fashion;;2017;S,MTHBSWTR00002531,M,MTHBSWTR00002532,L,MTHBSWTR00002533,XL,MTHBSWTR00002534;2199.00;;;;;;;;zerotype;;Winter;;No
1856086;MNHMANAW17 SWTR080A-Pink Dust-1856086;MENS SWEATER;Draft;Sweaters;Mast & Harbour;Adults-Men;Men;;;;Fashion;;2017;S,MTHBSWTR00002523,M,MTHBSWTR00002524,L,MTHBSWTR00002525,XL,MTHBSWTR00002526;2199.00;;;;;;;;zerotype;;Winter;;No
1855788;MNH-351339-A-Pink/Coral-1855788;WOMENS SWEATER;Draft;Sweaters;Mast & Harbour;Adults-Women;Women;;;;Fashion;;2017;S,MTHBSWTR00002483,M,MTHBSWTR00002484,L,MTHBSWTR00002485,XL,MTHBSWTR00002486;1499.00;;;;;;;;zerotype;;Winter;;No
1855787;MNH-351339-B-Cloud Dance /
Blue Bell / 
Red Bud-1855787;WOMENS SWEATER;Draft;Sweaters;Mast & Harbour;Adults-Women;Women;;;;Fashion;;2017;S,MTHBSWTR00002479,M,MTHBSWTR00002480,L,MTHBSWTR00002481,XL,MTHBSWTR00002482;1499.00;;;;;;;;zerotype;;Winter;;No
1855782;MNH-WW149-01-MARRON-1855782;WOMENS SWEATER;Draft;Sweaters;Mast & Harbour;Adults-Women;Women;;;;Fashion;;2017;S,MTHBSWTR00002459,M,MTHBSWTR00002460,L,MTHBSWTR00002461,XL,MTHBSWTR00002462;1699.00;;;;;;;;zerotype;;Winter;;No
1855781;MNH-WW149-02-Blue-1855781;WOMENS SWEATER;Draft;Sweaters;Mast & Harbour;Adults-Women;Women;;;;Fashion;;2017;S,MTHBSWTR00002455,M,MTHBSWTR00002456,L,MTHBSWTR00002457,XL,MTHBSWTR00002458;1699.00;;;;;;;;zerotype;;Winter;;No
1855776;MNH-WSW-709-0A-BLACK-1855776;WOMENS SWEATER;Draft;Sweaters;Mast & Harbour;Adults-Women;Women;;;;Fashion;;2017;S,MTHBSWTR00002435,M,MTHBSWTR00002436,L,MTHBSWTR00002437,XL,MTHBSWTR00002438;1699.00;;;;;;;;zerotype;;Winter;;No
1855775;MNH-WSW-709-0B-GREY-1855775;WOMENS SWEATER;Draft;Sweaters;Mast & Harbour;Adults-Women;Women;;;;Fashion;;2017;S,MTHBSWTR00002431,M,MTHBSWTR00002432,L,MTHBSWTR00002433,XL,MTHBSWTR00002434;1699.00;;;;;;;;zerotype;;Winter;;No
1855770;MNH-R41-OO3-Off White-1855770;WOMENS SWEATER;Draft;Sweaters;Mast & Harbour;Adults-Women;Women;;;;Fashion;;2017;S,MTHBSWTR00002411,M,MTHBSWTR00002412,L,MTHBSWTR00002413,XL,MTHBSWTR00002414;1699.00;;;;;;;;zerotype;;Winter;;No
1855769;MNH-R41-OO1A-Blue-1855769;WOMENS SWEATER;Draft;Sweaters;Mast & Harbour;Adults-Women;Women;;;;Fashion;;2017;S,MTHBSWTR00002407,M,MTHBSWTR00002408,L,MTHBSWTR00002409,XL,MTHBSWTR00002410;1699.00;;;;;;;;zerotype;;Winter;;No
1855752;MNH-1346134-B-Navy/Mustard-1855752;MENS SWEATER;BIS + Content Complete;Sweaters;Mast & Harbour;Adults-Men;Men;Navy Blue;Mustard;;Fashion;Casual;2017;S,MTHBSWTR00002339,M,MTHBSWTR00002340,L,MTHBSWTR00002341,XL,MTHBSWTR00002342;1299.00;Navy Blue and mustard colourblocked pullover, has a round neck, long sleeves, ribbed hem;Take advantage of the style opportunities with a fabulously versatile sweater from Mast & Harbour.  Match this navy blue piece with slim jeans and boat shoes when you're going shopping with your friends.;Cotton <br> Machine-wash;The model (height 6') is wearing a size M;;Mast & Harbour Men Navy Blue & Mustard Colourblocked Pullover;Mast & Harbour;zerotype;;Winter;;No
1855751;MNH-1346133-A-Navy/Red-1855751;MENS SWEATER;BIS + Content Complete;Sweaters;Mast & Harbour;Adults-Men;Men;Red;Navy Blue;;Fashion;Casual;2017;S,MTHBSWTR00002335,M,MTHBSWTR00002336,L,MTHBSWTR00002337,XL,MTHBSWTR00002338;1299.00;Red and navy blue colourblocked pullover, has a round neck, long sleeves, ribbed hem;Upgrade your wardrobe with this one-of-a-kind Mast & Harbour sweater.  You can style this red piece with dark wash jeans and Chelsea boots for your next low-key work event.;Cotton <br> Machine-wash;The model (height 6') is wearing a size M;;Mast & Harbour Men Red & Navy Blue Colourblocked Pullover;Mast & Harbour;zerotype;;Winter;;No
1855749;MNHMANAW17 SWTR086A-Navy/Pink-1855749;MENS SWEATER;BIS + Content Complete;Sweaters;Mast & Harbour;Adults-Men;Men;Navy Blue;Pink;;Fashion;Casual;2017;S,MTHBSWTR00002327,M,MTHBSWTR00002328,L,MTHBSWTR00002329,XL,MTHBSWTR00002330;1499.00;<a href='/navy-blue?src=pd' class='seolink'>Navy Blue</a> and <a href='/pink?src=pd' class='seolink'>pink</a> striped pullover, has a round neck, long sleeves, ribbed hem;Upgrade your wardrobe with this one-of-a-kind Mast & Harbour sweater.  Match this navy blue piece with slim jeans and boat shoes when you're going shopping with your friends.;Acrylic <br> Machine-wash;The model (height 6') is wearing a size M;;Mast & Harbour Men Navy Blue & Pink Striped Pullover;Mast & Harbour;zerotype;;Winter;;No
1855743;MNHMANAW17 SWTR074A-White-1855743;MENS SWEATER;BIS + Content Complete;Sweaters;Mast & Harbour;Adults-Men;Men;White;;;Fashion;Casual;2017;S,MTHBSWTR00002303,M,MTHBSWTR00002304,L,MTHBSWTR00002305,XL,MTHBSWTR00002306;1899.00;White striped pullover, has a round neck, long sleeves, ribbed hem;Maximize your style game by going with a sweater that can be paired with any number of offerings from your wardrobe.  This white piece can be worn with slick black jeans and leather boots when you're going to a comedy show.;Acrylic <br> Machine-wash;The model (height 6') is wearing a size M;;Mast & Harbour Men White Striped Pullover;Mast & Harbour;zerotype;;Winter;;No
1855742;MNHMANAW17 SWTR070B-CHARCOAL-1855742;MENS SWEATER;Draft;Sweaters;Mast & Harbour;Adults-Men;Men;;;;Fashion;;2017;S,MTHBSWTR00002299,M,MTHBSWTR00002300,L,MTHBSWTR00002301,XL,MTHBSWTR00002302;1499.00;;;;;;;;zerotype;;Winter;;No
1855740;MNHMANAW17 SWTR066B-NAVY-1855740;MENS SWEATER;Draft;Sweaters;Mast & Harbour;Adults-Men;Men;;;;Fashion;;2017;S,MTHBSWTR00002291,M,MTHBSWTR00002292,L,MTHBSWTR00002293,XL,MTHBSWTR00002294;1699.00;;;;;;;;zerotype;;Winter;;No
1855731;MNHMANAW17 SWTR30C-Indigo-1855731;MENS SWEATER;Draft;Sweaters;Mast & Harbour;Adults-Men;Men;;;;Fashion;;2017;S,MTHBSWTR00002255,M,MTHBSWTR00002256,L,MTHBSWTR00002257,XL,MTHBSWTR00002258;1699.00;;;;;;;;zerotype;;Winter;;No
1855729;MNHMANAW17 SWTR30A-coral-1855729;MENS SWEATER;Draft;Sweaters;Mast & Harbour;Adults-Men;Men;;;;Fashion;;2017;S,MTHBSWTR00002247,M,MTHBSWTR00002248,L,MTHBSWTR00002249,XL,MTHBSWTR00002250;1699.00;;;;;;;;zerotype;;Winter;;No
1846887;CONCEPT-22 - 01-Wax Polish-1846887;Moto GP Graphic T-Shirt;Draft;Tshirts;Roadster;Adults-Men;Men;;;;Fashion;;2017;S,RDSTTSHT00032533,M,RDSTTSHT00032534,L,RDSTTSHT00032535,XL,RDSTTSHT00032536;899.00;;;;;;;ndd17-mum;zerotype;;Spring;ndd17-mum;No
1826107;INVAW17J007B-Navy-1826107;Invictus Navy Jackets;Draft;Jackets;INVICTUS;Adults-Men;Men;;;;;;2017;M,TILCJCKT00000318,L,TILCJCKT00000319,XL,TILCJCKT00000320,XXL,TILCJCKT00000321;2499.00;;;;;;;invictus-Sports,invictus-Casual,men-sports-wear,Invictus-Sport,invictus-sport,Invictus-Sport-Shirts,09092017-sport,invictus-sports,mens-sports,inv-sport-11092017,Coupon-offer-aug19,inv-14102017-Trousers,Invictus-AW17-Sport,Inv-Age-060;zerotype;;Fall;add;No
1630879;MFB-PN-WTH-5071-3-BROWN-1630879;ROADSTER WATCH;Draft;Watches;Roadster;Adults-Men;Men;;;;Fashion;;2017;One size,RDSTWTCH00000156;3299.00;;;;;;;ndd17-blr;zerotype;;Fall;ndd17-blr;No
1624293;00394018104-Red-1624293;EXPANDABLE SUITCASE COVER L XL;Draft;Travel Accessory;DELSEY;Adults-Unisex;Unisex;Red;;;Fashion;;2016;Onesize,DLSYTRAC00000082;3000.00;;;<p>POLYESTER</p>;<p>0x65x82</p>;;;ftod-bbd17,bbd17-new-season,ndd17-blr;zerotype;;Fall;ndd17-blr;No
1624292;00394018102-Blue-1624292;EXPANDABLE SUITCASE COVER L XL;Draft;Travel Accessory;DELSEY;Adults-Unisex;Unisex;Blue;;;Fashion;;2016;Onesize,DLSYTRAC00000081;3000.00;;;<p>POLYESTER</p>;<p>0x65x82</p>;;;ftod-bbd17,bbd17-new-season,ndd17-blr;zerotype;;Fall;ndd17-blr;No
1493365;1630NP03_BBD-Black-1493365;Titan new Watches;Draft;Watches;Titan;Adults-Men;Men;;;;Fashion;;2016;Onesize,TITNWTCH00002724;14995.00;;;;;;;ndd17-blr;zerotype;;Fall;ndd17-blr;No
1100445;2415-Black-1100445;Strapless Bra;BIS + Content Complete;Bra;Affinitas Intimates;Adults-Women;Women;Black;;;Core;Casual;2015;32B,ASISBRAA00000177,32C,ASISBRAA00000178,32D,ASISBRAA00000179,32DD,ASISBRAA00000180,34B,ASISBRAA00000181,34C,ASISBRAA00000182,34D,ASISBRAA00000183,34DD,ASISBRAA00000184,36B,ASISBRAA00000185,36C,ASISBRAA00000186,36D,ASISBRAA00000187,36DD,ASISBRAA00000188,38B,ASISBRAA00000189,38C,ASISBRAA00000190,38D,ASISBRAA00000191,38DD,ASISBRAA00000192;1650.00;Black solid half-coverage push-up bra<br />Lightly padded and underwired seamless cups<br />Regular straps and back closure<br />Back style: Regular<br />Feature: All Day Comfort;Providing support and comfort all day long, this piece will be a smart addition to your wardrobe.;84% nylon, 16% elastane<br />Hand-wash;;;Affinitas Intimates Women Black Push-Up Balconette Bra 2415;Affinitas Intimates,just-gone-on-discount,newlaunchlingerie,internationallingerie,new-styles-on-discount-26jan,new-styles-on-discount-26jan,turnuptheheat,first-login-offer,extra28-offer,first-time-on-discount-8may,extra30-26may,convertible-bra,rs-500-off-26june,extra30-3jul,extra40-3jul,min40-extra40-4jul,500rs-5julextra-35-6july,extra-35-6july,rs-500-off-10jul,flat40-extra40-14jul,extra-40-1st500,buy2-extra50-15jul,extra50-1st500-16july,rs-500-off-17july,flat40-extra40-20jul,last-deal-ln,rs-500-off-03aug,rs-1000-off-03aug,extra-50-3aug,buy2-at-50-4aug,500-rs-off-10aug,extra35-12aug,Buy3extra50-15aug,buy3at50-15aug,rs500-off-17aug,extra50-18aug,extra35-18aug,buy140250-19aug,flat40extra30-19aug,extra50-21aug,inb-august,rs-500-24aug,extra35-24aug,fk-lenovo-offer,fk-tv-offer,welcome-to-myn-log-off,flat40-26aug,extra30-30aug,extra500-20aug,dotd-list,extra40-1sep,buy1at40buy2at50-sep,off-1000-500-8sep,buy2-50-10sep,extra40-12sep,extra40-13sep,500-13sep,buy2-50-14sep,extra40-15sep,extra35-16sep,extra50-18sep,extra40-19sep,buy50-20sep,extra35-21sep,bbd-pre-sale-lingerie-2016,flat30-extra40-24september,buyoneat40-buytwoat50-25sep,extra50-first1500-25september,flat30-extra40-26september,flat30-extra30-29september,extra40-12oct,provision-20oct,buy2-50-26oct,myntra-sepcial-offer-2016,welcome-to-myntra-sept,new-customer-Offer,ola-offer-nov16,15Perc-Off-FW-Nov16,20Perc-Off-FW-Nov16,500-Off-FW-Nov-16,1000-Off-FW-Nov-16,welcome-to-mmt,lfb1500g20,ndd17-blr;Bra;Affinitas Intimates;Winter;ndd17-blr;No
1100443;2411-Black-1100443;T-Shirt Bra;BIS + Content Complete;Bra;Affinitas Intimates;Adults-Women;Women;Black;;;Core;Casual;2015;32B,ASISBRAA00000145,32C,ASISBRAA00000146,32D,ASISBRAA00000147,32DD,ASISBRAA00000148,34B,ASISBRAA00000149,34C,ASISBRAA00000150,34D,ASISBRAA00000151,34DD,ASISBRAA00000152,36B,ASISBRAA00000153,36C,ASISBRAA00000154,36D,ASISBRAA00000155,36DD,ASISBRAA00000156,38B,ASISBRAA00000157,38C,ASISBRAA00000158,38D,ASISBRAA00000159,38DD,ASISBRAA00000160;1550.00;Black solid medium-coverage T-shirt bra<br />Lightly padded and underwired seamless cups<br />Regular straps and back closure<br />Back style: Regular<br />Feature: All Day Comfort;Providing support and comfort all day long, this piece will be a smart addition to your wardrobe.;84% nylon, 16% elastane<br />Hand-wash;;;Affinitas Intimates Black T-shirt Bra 2411;Affinitas Intimates,just-gone-on-discount,newlaunchlingerie,internationallingerie,new-styles-on-discount-26jan,new-styles-on-discount-26jan,turnuptheheat,first-login-offer,extra28-offer,first-time-on-discount-8may,extra30-26may,rs-500-off-26june,extra30-3jul,extra40-3jul,min40-extra40-4jul,500rs-5julextra-35-6july,extra-35-6july,rs-500-off-10jul,flat40-extra40-14jul,extra-40-1st500,buy2-extra50-15jul,extra50-1st500-16july,rs500-off-17july,flat40-extra40-20jul,1000-off-26jul,last-deal-ln,rs-500-off-03aug,rs-1000-off-03aug,extra-50-3aug,buy2-at-50-4aug,500-rs-off-10aug,extra35-12aug,Buy3extra50-15aug,buy3at50-15aug,rs500-off-17aug,extra50-18aug,extra35-18aug,buy140250-19aug,flat40extra30-19aug,extra50-21aug,inb-august,rs-500-24aug,extra35-24aug,fk-lenovo-offer,fk-tv-offer,welcome-to-myn-log-off,flat40-26aug,extra30-30aug,extra500-20aug,extra40-1sep,buy1at40buy2at50-sep,off-1000-500-8sep,buy2-50-10sep,extra40-12sep,extra40-13sep,500-13sep,buy2-50-14sep,extra40-15sep,extra35-16sep,extra50-18sep,extra40-19sep,buy50-20sep,extra35-21sep,bbd-pre-sale-lingerie-2016,flat30-extra40-24september,buyoneat40-buytwoat50-25sep,extra50-first1500-25september,flat30-extra40-26september,flat30-extra30-29september,extra40-12oct,provision-20oct,buy2-50-26oct,myntra-sepcial-offer-2016,welcome-to-myntra-sept,new-customer-Offer,ola-offer-nov16,15Perc-Off-FW-Nov16,20Perc-Off-FW-Nov16,500-Off-FW-Nov-16,1000-Off-FW-Nov-16,welcome-to-mmt,MFH-intimate-statementpieces,happyhours-dec23,happy-hour-december,hottest-sellers-500-women,happyhour-rs-off,A-Listers-Lingerie,AW16EORS-Womens-Alisters,alisters-eors-4jan,provisioning-jan17,first-1000-extra30-jan17,flat40-extra40-jan17,extra-40-jan,buy2-50-jan,stylesforflat30-extra40-jan,rd-flat40-extra40,buy1-50-buy2-60-jan,extra30-020217,b1-at-40-50,lfb1500g20,HH12JAN17,welcome-to-myntra-feb,welcome-to-myntra-feb-new,vday-coupon-offer,buy1at40-buy2at50-10feb-2017,bday-offer,flat40-extra-30-feb20,upto40-extra20-feb-20,bday-happy-hour,wishlisters-wish10,superhour-feb26,coupon-offer-monday,b250-awesome50,welcome-to-march,extra-30-lucky30,buy2-50-5march,extra30-mar8,wday-best25,holi-offer-sale,holi-basket-mar,holi-top-women,b2-extra50-mar12,holi-super,b2-extra50-mar14,flat45-mar15,flash-sale-launch,happy-hour-mar19,march25-sun,spring15-mar20,styles-mar17,welcome-to-myntra-mar17,super-hour-mar17,bnb-styles-mar17,mid-day-rush,most-wishlisted-mar17,extra50-flash50,rush-hour-extra20-mar28,mar29-super-hour,mar-29-extra25,extra50-apr1,hh-0104,extra30-apr04,b2-50-extra50,bfg-event-apr,BFG-Insidestory-SexyBras,bfg-apr10,extra30-bfg-10apr,apr12-super-hour,ftod-bb-apr20,gold22-bb,best25-apr25,apr15-hh,super-hour-ccmay,bestsellers-may6,flash-sale-may6,flat50-extra20-may9,b3-60-may9,super-hour-may9,ndd-bangalore,big10-extra40,welcome-to-myntra-may-big,big10-super-hour25,big10-mse-all,big10-extra20,best-seller-1905,may21-hh,price-surge-may25,may27-price-surge,hh-jun2,myntra-store-02,jun07-extra50,jun08-wonder-hour,extra25-jun15,ftod-eorsj17-30,wonder-hour-jun25,welcome-to-myntra-july,duty-offer-new,signup-july-2017,bb-flash-50,bss-uber-offer,welcome-to-myntra-august17,ndd17-blr;Bra;Affinitas Intimates;Winter;ndd17-blr;No
652452;8035-0110-ASSTD-Mid Blue-652452;Poco Brief;Draft;Briefs;Jockey;Adults-Men;Men;;;;Core;;2016;S,JOCKBREF00002580,M,JOCKBREF00002581,L,JOCKBREF00002582,XL,JOCKBREF00002583;119.00;;;;;;Jockey MODERN CLASSIC  8035;;zerotype;;Summer;Season chnages;No
