Style ID;Vendor Article Number;Vendor Article Name;Active Status;Article type;Brand;Age Group;Gender;Base Colour;Colour1;Colour2;Fashion Type;Usage;Year;Size - SKU code pair;MRP;Style Description;Style Note;Materials and Care Description;Size and Fit Description;Size Chart Path;Product Display Name;Tags;Product Type;Classification Brand;Season;Comments;Upload Images
2100464;GR5312-NAVY-Navy Blue-2100464;GR5312NAVY;Draft;Dresses;Harpa;Adults-Women;Women;Navy Blue;;;Fashion;Casual;2017;S,HRPADRSS00004191,M,HRPADRSS00004192,L,HRPADRSS00004193,XL,HRPADRSS00004194;1599.00;;;<p>100% Polyester. Hand Wash in Cold Water. Dry in Shade for Lasting Color.</p>;;;;;zerotype;;Winter;;No
2100457;GR5312-CREAM-Cream-2100457;GR5312CREAM;Draft;Dresses;Harpa;Adults-Women;Women;Cream;;;Fashion;Casual;2017;S,HRPADRSS00004187,M,HRPADRSS00004188,L,HRPADRSS00004189,XL,HRPADRSS00004190;1599.00;;;<p>100% Polyester. Hand Wash in Cold Water. Dry in Shade for Lasting Color.</p>;;;;;zerotype;;Winter;;No
2100449;GR5307-NAVY-Navy Blue-2100449;GR5307NAVY;Draft;Dresses;Harpa;Adults-Women;Women;Navy Blue;;;Fashion;Casual;2017;S,HRPADRSS00004183,M,HRPADRSS00004184,L,HRPADRSS00004185,XL,HRPADRSS00004186;1999.00;;;<p>100% Polyester. Hand Wash in Cold Water. Dry in Shade for Lasting Color.</p>;;;;;zerotype;;Winter;;No
2100441;GR5307-CORAL-Coral-2100441;GR5307CORAL;Draft;Dresses;Harpa;Adults-Women;Women;Coral;;;Fashion;Casual;2017;S,HRPADRSS00004179,M,HRPADRSS00004180,L,HRPADRSS00004181,XL,HRPADRSS00004182;1999.00;;;<p>100% Polyester. Hand Wash in Cold Water. Dry in Shade for Lasting Color.</p>;;;;;zerotype;;Winter;;No
2100435;GR5289-NAVY-Navy Blue-2100435;GR5289NAVY;Draft;Dresses;Harpa;Adults-Women;Women;Navy Blue;;;Fashion;Casual;2017;S,HRPADRSS00004175,M,HRPADRSS00004176,L,HRPADRSS00004177,XL,HRPADRSS00004178;1699.00;;;<p>100% Rayon. Hand Wash in Cold Water. Dry in Shade for Lasting Color.</p>;;;;;zerotype;;Winter;;No
2100428;GR5276A-GREY-Grey-2100428;GR5276AGREY;Draft;Dresses;Harpa;Adults-Women;Women;Grey;;;Fashion;Casual;2017;S,HRPADRSS00004171,M,HRPADRSS00004172,L,HRPADRSS00004173,XL,HRPADRSS00004174;1499.00;;;<p>100% Polyester. Hand Wash in Cold Water. Dry in Shade for Lasting Color.</p>;;;;;zerotype;;Winter;;No
2100423;GR5276A-BLACK-Black-2100423;GR5276ABLACK;Draft;Dresses;Harpa;Adults-Women;Women;Black;;;Fashion;Casual;2017;S,HRPADRSS00004167,M,HRPADRSS00004168,L,HRPADRSS00004169,XL,HRPADRSS00004170;1499.00;;;<p>100% Polyester. Hand Wash in Cold Water. Dry in Shade for Lasting Color.</p>;;;;;zerotype;;Winter;;No
2100417;GR5280-NAVY-Navy Blue-2100417;GR5280NAVY;Draft;Dresses;Harpa;Adults-Women;Women;Navy Blue;;;Fashion;Casual;2017;S,HRPADRSS00004163,M,HRPADRSS00004164,L,HRPADRSS00004165,XL,HRPADRSS00004166;2099.00;;;<p>95% Polyester 5% Elastane. Hand Wash in Cold Water. Dry in Shade for Lasting Color.</p>;;;;;zerotype;;Winter;;No
2100411;GR5280-BLACK-Black-2100411;GR5280BLACK;Draft;Dresses;Harpa;Adults-Women;Women;Black;;;Fashion;Casual;2017;S,HRPADRSS00004159,M,HRPADRSS00004160,L,HRPADRSS00004161,XL,HRPADRSS00004162;2099.00;;;<p>95% Polyester 5% Elastane. Hand Wash in Cold Water. Dry in Shade for Lasting Color.</p>;;;;;zerotype;;Winter;;No
2100406;GR5264-BLACK-Black-2100406;GR5264BLACK;Draft;Dresses;Harpa;Adults-Women;Women;Black;;;Fashion;Casual;2017;S,HRPADRSS00004155,M,HRPADRSS00004156,L,HRPADRSS00004157,XL,HRPADRSS00004158;1999.00;;;<p>100% Polyester. hand Wash in cold Water. Dry in shade for Lasting Color.</p>;;;;;zerotype;;Winter;;No
2100402;GR5248-RED-Red-2100402;GR5248RED;Draft;Dresses;Harpa;Adults-Women;Women;Red;;;Fashion;Casual;2017;S,HRPADRSS00004151,M,HRPADRSS00004152,L,HRPADRSS00004153,XL,HRPADRSS00004154;2299.00;;;<p>100% Rayon. hand Wash in cold Water. Dry in shade for Lasting Color.</p>;;;;;zerotype;;Winter;;No
2100398;GR5248-GREEN-Green-2100398;GR5248GREEN;Draft;Dresses;Harpa;Adults-Women;Women;Green;;;Fashion;Casual;2017;S,HRPADRSS00004147,M,HRPADRSS00004148,L,HRPADRSS00004149,XL,HRPADRSS00004150;2299.00;;;<p>100% Rayon. hand Wash in cold Water. Dry in shade for Lasting Color.</p>;;;;;zerotype;;Winter;;No
2100392;GR5248-BLUE-Blue-2100392;GR5248BLUE;Draft;Dresses;Harpa;Adults-Women;Women;Blue;;;Fashion;Casual;2017;S,HRPADRSS00004143,M,HRPADRSS00004144,L,HRPADRSS00004145,XL,HRPADRSS00004146;2299.00;;;<p>100% Rayon. hand Wash in cold Water. Dry in shade for Lasting Color.</p>;;;;;zerotype;;Winter;;No
2100389;GR3943-NAVY-Navy Blue-2100389;GR3943NAVY;Draft;Dresses;Harpa;Adults-Women;Women;Navy Blue;;;Fashion;Casual;2017;S,HRPADRSS00004139,M,HRPADRSS00004140,L,HRPADRSS00004141,XL,HRPADRSS00004142;1899.00;;;<p>100% Polyester. hand Wash in cold Water. Dry in shade for Lasting Color.</p>;;;;;zerotype;;Winter;;No
2100384;GR3943-GREEN-Green-2100384;GR3943GREEN;Draft;Dresses;Harpa;Adults-Women;Women;Green;;;Fashion;Casual;2017;S,HRPADRSS00004135,M,HRPADRSS00004136,L,HRPADRSS00004137,XL,HRPADRSS00004138;1899.00;;;<p>100% Polyester. hand Wash in cold Water. Dry in shade for Lasting Color.</p>;;;;;zerotype;;Winter;;No
