Style ID;Vendor Article Number;Vendor Article Name;Active Status;Article type;Brand;Age Group;Gender;Base Colour;Colour1;Colour2;Fashion Type;Usage;Year;Size - SKU code pair;MRP;Style Description;Style Note;Materials and Care Description;Size and Fit Description;Size Chart Path;Product Display Name;Tags;Product Type;Classification Brand;Season;Comments;Upload Images
1953547;MTSHS2195-BLUE-8XL-Blue-1953547;plusS Men's Tshirts;Draft;Tshirts;plusS;Adults-Men;Men;Blue;;;Fashion;Casual;2017;XL,PLUSTSHT00004107,XXL,PLUSTSHT00004108,3XL,PLUSTSHT00004109,4XL,PLUSTSHT00004110,5XL,PLUSTSHT00004111,6XL,PLUSTSHT00004112,7XL,PLUSTSHT00004113,8XL,PLUSTSHT00004114;999.00;<p>Men's T-Shirt Full SLV</p>;;<p>100% Cotton</p>;<p>Model height is 5.11 inch / chest is 48 \ Shoulder 20 \ Waist 42 and wearing size xl</p>;;Men's T-Shirt;;zerotype;;Summer;;No
1953543;MTSHS2194-BLUE-8XL-Blue-1953543;plusS Men's Tshirts;Draft;Tshirts;plusS;Adults-Men;Men;Blue;;;Fashion;Casual;2017;XL,PLUSTSHT00004099,XXL,PLUSTSHT00004100,3XL,PLUSTSHT00004101,4XL,PLUSTSHT00004102,5XL,PLUSTSHT00004103,6XL,PLUSTSHT00004104,7XL,PLUSTSHT00004105,8XL,PLUSTSHT00004106;999.00;<p>Men's T-Shirt Full SLV</p>;;<p>100% Cotton</p>;<p>Model height is 5.11 inch / chest is 48 \ Shoulder 20 \ Waist 42 and wearing size xl</p>;;Men's T-Shirt;;zerotype;;Summer;;No
1953540;MTSHS2151-NAVY-8XL-Navy Blue-1953540;plusS Men's Tshirts;Draft;Tshirts;plusS;Adults-Men;Men;Navy Blue;;;Fashion;Casual;2017;XL,PLUSTSHT00004091,XXL,PLUSTSHT00004092,3XL,PLUSTSHT00004093,4XL,PLUSTSHT00004094,5XL,PLUSTSHT00004095,6XL,PLUSTSHT00004096,7XL,PLUSTSHT00004097,8XL,PLUSTSHT00004098;999.00;<p>Men's T-Shirt Full SLV</p>;;<p>100% Cotton</p>;<p>Model height is 5.11 inch / chest is 48 \ Shoulder 20 \ Waist 42 and wearing size xl</p>;;Men's T-Shirt;;zerotype;;Summer;;No
1953537;MTSHS2152-NAVY-8XL-Navy Blue-1953537;plusS Men's Tshirts;Draft;Tshirts;plusS;Adults-Men;Men;Navy Blue;;;Fashion;Casual;2017;XL,PLUSTSHT00004083,XXL,PLUSTSHT00004084,3XL,PLUSTSHT00004085,4XL,PLUSTSHT00004086,5XL,PLUSTSHT00004087,6XL,PLUSTSHT00004088,7XL,PLUSTSHT00004089,8XL,PLUSTSHT00004090;999.00;<p>Men's T-Shirt Full SLV</p>;;<p>100% Cotton</p>;<p>Model height is 5.11 inch / chest is 48 \ Shoulder 20 \ Waist 42 and wearing size xl</p>;;Men's T-Shirt;;zerotype;;Summer;;No
1953533;MTSHS2265-BEIGE-8XL-Beige-1953533;plusS Men's Tshirts;Draft;Tshirts;plusS;Adults-Men;Men;Beige;;;Fashion;Casual;2017;XL,PLUSTSHT00004075,XXL,PLUSTSHT00004076,3XL,PLUSTSHT00004077,4XL,PLUSTSHT00004078,5XL,PLUSTSHT00004079,6XL,PLUSTSHT00004080,7XL,PLUSTSHT00004081,8XL,PLUSTSHT00004082;1490.00;<p>Men's T-Shirt Full SLV</p>;;<p>100% Cotton</p>;<p>Model height is 5.11 inch / chest is 48 \ Shoulder 20 \ Waist 42 and wearing size xl</p>;;Men's T-Shirt;;zerotype;;Summer;;No
1953529;MTSHS2209-WHITEBLACK-8XL-White-1953529;plusS Men's Tshirts;Draft;Tshirts;plusS;Adults-Men;Men;White;;;Fashion;Casual;2017;XL,PLUSTSHT00004067,XXL,PLUSTSHT00004068,3XL,PLUSTSHT00004069,4XL,PLUSTSHT00004070,5XL,PLUSTSHT00004071,6XL,PLUSTSHT00004072,7XL,PLUSTSHT00004073,8XL,PLUSTSHT00004074;2890.00;<p>Men's T-Shirt Full SLV</p>;;<p>100% Cotton</p>;<p>Model height is 5.11 inch / chest is 48 \ Shoulder 20 \ Waist 42 and wearing size xl</p>;;Men's T-Shirt;;zerotype;;Summer;;No
1953517;MTSHS2209-BROWNSTP-8XL-Brown-1953517;plusS Men's Tshirts;Draft;Tshirts;plusS;Adults-Men;Men;Brown;;;Fashion;Casual;2017;XL,PLUSTSHT00004059,XXL,PLUSTSHT00004060,3XL,PLUSTSHT00004061,4XL,PLUSTSHT00004062,5XL,PLUSTSHT00004063,6XL,PLUSTSHT00004064,7XL,PLUSTSHT00004065,8XL,PLUSTSHT00004066;2890.00;<p>Men's T-Shirt Full SLV</p>;;<p>100% Cotton</p>;<p>Model height is 5.11 inch / chest is 48 \ Shoulder 20 \ Waist 42 and wearing size xl</p>;;Men's T-Shirt;;zerotype;;Summer;;No
1953482;MTSHS2209-BROWN MEL.-8XL-Brown-1953482;plusS Men's Tshirts;Draft;Tshirts;plusS;Adults-Men;Men;Brown;;;Fashion;Casual;2017;XL,PLUSTSHT00004051,XXL,PLUSTSHT00004052,3XL,PLUSTSHT00004053,4XL,PLUSTSHT00004054,5XL,PLUSTSHT00004055,6XL,PLUSTSHT00004056,7XL,PLUSTSHT00004057,8XL,PLUSTSHT00004058;2890.00;<p>Men's T-Shirt Full SLV</p>;;<p>100% Cotton</p>;<p>Model height is 5.11 inch / chest is 48 \ Shoulder 20 \ Waist 42 and wearing size xl</p>;;Men's T-Shirt;;zerotype;;Summer;;No
1953450;MTSHS2209-DK.NAVY-8XL-Navy Blue-1953450;plusS Men's Tshirts;Draft;Tshirts;plusS;Adults-Men;Men;Navy Blue;;;Fashion;Casual;2017;XL,PLUSTSHT00004043,XXL,PLUSTSHT00004044,3XL,PLUSTSHT00004045,4XL,PLUSTSHT00004046,5XL,PLUSTSHT00004047,6XL,PLUSTSHT00004048,7XL,PLUSTSHT00004049,8XL,PLUSTSHT00004050;2890.00;<p>Men's T-Shirt Full SLV</p>;;<p>100% Cotton</p>;<p>Model height is 5.11 inch / chest is 48 \ Shoulder 20 \ Waist 42 and wearing size xl</p>;;Men's T-Shirt;;zerotype;;Summer;;No
1953447;MTSHS2091-GREYBLACK-8XL-Grey-1953447;plusS Men's Tshirts;Draft;Tshirts;plusS;Adults-Men;Men;Grey;;;Fashion;Casual;2017;XL,PLUSTSHT00004035,XXL,PLUSTSHT00004036,3XL,PLUSTSHT00004037,4XL,PLUSTSHT00004038,5XL,PLUSTSHT00004039,6XL,PLUSTSHT00004040,7XL,PLUSTSHT00004041,8XL,PLUSTSHT00004042;2490.00;<p>Men's T-Shirt Full SLV</p>;;<p>100% Cotton</p>;<p>Model height is 5.11 inch / chest is 48 \ Shoulder 20 \ Waist 42 and wearing size xl</p>;;Men's T-Shirt;;zerotype;;Summer;;No
1953440;MTSHS2091-SKYBLUESTP-8XL-Blue-1953440;plusS Men's Tshirts;Draft;Tshirts;plusS;Adults-Men;Men;Blue;;;Fashion;Casual;2017;XL,PLUSTSHT00004027,XXL,PLUSTSHT00004028,3XL,PLUSTSHT00004029,4XL,PLUSTSHT00004030,5XL,PLUSTSHT00004031,6XL,PLUSTSHT00004032,7XL,PLUSTSHT00004033,8XL,PLUSTSHT00004034;2490.00;<p>Men's T-Shirt Full SLV</p>;;<p>100% Cotton</p>;<p>Model height is 5.11 inch / chest is 48 \ Shoulder 20 \ Waist 42 and wearing size xl</p>;;Men's T-Shirt;;zerotype;;Summer;;No
1953435;MTSHS2091-BROWNECRU-8XL-Brown-1953435;plusS Men's Tshirts;Draft;Tshirts;plusS;Adults-Men;Men;Brown;;;Fashion;Casual;2017;XL,PLUSTSHT00004019,XXL,PLUSTSHT00004020,3XL,PLUSTSHT00004021,4XL,PLUSTSHT00004022,5XL,PLUSTSHT00004023,6XL,PLUSTSHT00004024,7XL,PLUSTSHT00004025,8XL,PLUSTSHT00004026;2490.00;<p>Men's T-Shirt Full SLV</p>;;<p>100% Cotton</p>;<p>Model height is 5.11 inch / chest is 48 \ Shoulder 20 \ Waist 42 and wearing size xl</p>;;Men's T-Shirt;;zerotype;;Summer;;No
1953432;MTSHS2091-NAVYMEL.STP-8XL-Blue-1953432;plusS Men's Tshirts;Draft;Tshirts;plusS;Adults-Men;Men;Blue;;;Fashion;Casual;2017;XL,PLUSTSHT00004011,XXL,PLUSTSHT00004012,3XL,PLUSTSHT00004013,4XL,PLUSTSHT00004014,5XL,PLUSTSHT00004015,6XL,PLUSTSHT00004016,7XL,PLUSTSHT00004017,8XL,PLUSTSHT00004018;2490.00;<p>Men's T-Shirt Full SLV</p>;;<p>100% Cotton</p>;<p>Model height is 5.11 inch / chest is 48 \ Shoulder 20 \ Waist 42 and wearing size xl</p>;;Men's T-Shirt;;zerotype;;Summer;;No
1953429;MTSHS2091-GREY-8XL-Grey-1953429;plusS Men's Tshirts;Draft;Tshirts;plusS;Adults-Men;Men;Grey;;;Fashion;Casual;2017;XL,PLUSTSHT00004003,XXL,PLUSTSHT00004004,3XL,PLUSTSHT00004005,4XL,PLUSTSHT00004006,5XL,PLUSTSHT00004007,6XL,PLUSTSHT00004008,7XL,PLUSTSHT00004009,8XL,PLUSTSHT00004010;2490.00;<p>Men's T-Shirt Full SLV</p>;;<p>100% Cotton</p>;<p>Model height is 5.11 inch / chest is 48 \ Shoulder 20 \ Waist 42 and wearing size xl</p>;;Men's T-Shirt;;zerotype;;Summer;;No
1953420;MTSHS2091-REDBLACK-8XL-Red-1953420;plusS Men's Tshirts;Draft;Tshirts;plusS;Adults-Men;Men;Red;;;Fashion;Casual;2017;XL,PLUSTSHT00003995,XXL,PLUSTSHT00003996,3XL,PLUSTSHT00003997,4XL,PLUSTSHT00003998,5XL,PLUSTSHT00003999,6XL,PLUSTSHT00004000,7XL,PLUSTSHT00004001,8XL,PLUSTSHT00004002;2490.00;<p>Men's T-Shirt Full SLV</p>;;<p>100% Cotton</p>;<p>Model height is 5.11 inch / chest is 48 \ Shoulder 20 \ Waist 42 and wearing size xl</p>;;Men's T-Shirt;;zerotype;;Summer;;No
1953414;MTSHS2091-RUST-8XL-Rust-1953414;plusS Men's Tshirts;Draft;Tshirts;plusS;Adults-Men;Men;Rust;;;Fashion;Casual;2017;XL,PLUSTSHT00003987,XXL,PLUSTSHT00003988,3XL,PLUSTSHT00003989,4XL,PLUSTSHT00003990,5XL,PLUSTSHT00003991,6XL,PLUSTSHT00003992,7XL,PLUSTSHT00003993,8XL,PLUSTSHT00003994;2490.00;<p>Men's T-Shirt Full SLV</p>;;<p>100% Cotton</p>;<p>Model height is 5.11 inch / chest is 48 \ Shoulder 20 \ Waist 42 and wearing size xl</p>;;Men's T-Shirt;;zerotype;;Summer;;No
1953411;MTSHS2091-BLUEDOT-8XL-Blue-1953411;plusS Men's Tshirts;Draft;Tshirts;plusS;Adults-Men;Men;Blue;;;Fashion;Casual;2017;XL,PLUSTSHT00003979,XXL,PLUSTSHT00003980,3XL,PLUSTSHT00003981,4XL,PLUSTSHT00003982,5XL,PLUSTSHT00003983,6XL,PLUSTSHT00003984,7XL,PLUSTSHT00003985,8XL,PLUSTSHT00003986;2490.00;<p>Men's T-Shirt Full SLV</p>;;<p>100% Cotton</p>;<p>Model height is 5.11 inch / chest is 48 \ Shoulder 20 \ Waist 42 and wearing size xl</p>;;Men's T-Shirt;;zerotype;;Summer;;No
1953409;MTSHS2091-SKYBLUEMEL-8XL-Blue-1953409;plusS Men's Tshirts;Draft;Tshirts;plusS;Adults-Men;Men;Blue;;;Fashion;Casual;2017;XL,PLUSTSHT00003971,XXL,PLUSTSHT00003972,3XL,PLUSTSHT00003973,4XL,PLUSTSHT00003974,5XL,PLUSTSHT00003975,6XL,PLUSTSHT00003976,7XL,PLUSTSHT00003977,8XL,PLUSTSHT00003978;2490.00;<p>Men's T-Shirt Full SLV</p>;;<p>100% Cotton</p>;<p>Model height is 5.11 inch / chest is 48 \ Shoulder 20 \ Waist 42 and wearing size xl</p>;;Men's T-Shirt;;zerotype;;Summer;;No
1953401;MTSHS2091-BLUE-8XL-Blue-1953401;plusS Men's Tshirts;Draft;Tshirts;plusS;Adults-Men;Men;Blue;;;Fashion;Casual;2017;XL,PLUSTSHT00003963,XXL,PLUSTSHT00003964,3XL,PLUSTSHT00003965,4XL,PLUSTSHT00003966,5XL,PLUSTSHT00003967,6XL,PLUSTSHT00003968,7XL,PLUSTSHT00003969,8XL,PLUSTSHT00003970;2490.00;<p>Men's T-Shirt Full SLV</p>;;<p>100% Cotton</p>;<p>Model height is 5.11 inch / chest is 48 \ Shoulder 20 \ Waist 42 and wearing size xl</p>;;Men's T-Shirt;;zerotype;;Summer;;No
