Style ID;Vendor Article Number;Vendor Article Name;Active Status;Article type;Brand;Age Group;Gender;Base Colour;Colour1;Colour2;Fashion Type;Usage;Year;Size - SKU code pair;MRP;Style Description;Style Note;Materials and Care Description;Size and Fit Description;Size Chart Path;Product Display Name;Tags;Product Type;Classification Brand;Season;Comments;Upload Images
2032365;GM6059C.09SBK-Grey-2032365;GM6059C.09SBK;Draft;Sunglasses;GIO COLLECTION;Adults-Unisex;Unisex;;;;Fashion;;2017;55,GOCNSGLS00000213;3490.00;;;;;http://assets.myntassets.com/assets/images/sizechart/2016/4/25/11461584543399-Sunglasses_and_frames_size_chart.jpg;;;zerotype;;Fall;;No
2032364;GM6059C.03BK-Grey-2032364;GM6059C.03BK;Draft;Sunglasses;GIO COLLECTION;Adults-Unisex;Unisex;;;;Fashion;;2017;55,GOCNSGLS00000212;3490.00;;;;;http://assets.myntassets.com/assets/images/sizechart/2016/4/25/11461584543399-Sunglasses_and_frames_size_chart.jpg;;;zerotype;;Fall;;No
2032337;GM6050C.09LTGD-Grey-2032337;GM6050C.09LTGD;Draft;Sunglasses;GIO COLLECTION;Adults-Unisex;Unisex;;;;Fashion;;2017;58,GOCNSGLS00000185;3790.00;;;;;http://assets.myntassets.com/assets/images/sizechart/2016/4/25/11461584543399-Sunglasses_and_frames_size_chart.jpg;;;zerotype;;Fall;;No
2032336;GM6050C.03GUN-Grey-2032336;GM6050C.03GUN;Draft;Sunglasses;GIO COLLECTION;Adults-Unisex;Unisex;;;;Fashion;;2017;58,GOCNSGLS00000184;3790.00;;;;;http://assets.myntassets.com/assets/images/sizechart/2016/4/25/11461584543399-Sunglasses_and_frames_size_chart.jpg;;;zerotype;;Fall;;No
2032335;GM6050C.02LTBR-Brown-2032335;GM6050C.02LTBR;Draft;Sunglasses;GIO COLLECTION;Adults-Unisex;Unisex;;;;Fashion;;2017;58,GOCNSGLS00000183;3790.00;;;;;http://assets.myntassets.com/assets/images/sizechart/2016/4/25/11461584543399-Sunglasses_and_frames_size_chart.jpg;;;zerotype;;Fall;;No
2032331;GM6048C.10LTGD-Brown-2032331;GM6048C.10LTGD;Draft;Sunglasses;GIO COLLECTION;Adults-Unisex;Unisex;;;;Fashion;;2017;58,GOCNSGLS00000179;3990.00;;;;;http://assets.myntassets.com/assets/images/sizechart/2016/4/25/11461584543399-Sunglasses_and_frames_size_chart.jpg;;;zerotype;;Fall;;No
2032330;GM6048C.09LTGD-Grey-2032330;GM6048C.09LTGD;Draft;Sunglasses;GIO COLLECTION;Adults-Unisex;Unisex;;;;Fashion;;2017;58,GOCNSGLS00000178;3990.00;;;;;http://assets.myntassets.com/assets/images/sizechart/2016/4/25/11461584543399-Sunglasses_and_frames_size_chart.jpg;;;zerotype;;Fall;;No
2032329;GM6048C.06RSGD-Pink-2032329;GM6048C.06RSGD;Draft;Sunglasses;GIO COLLECTION;Adults-Unisex;Unisex;;;;Fashion;;2017;58,GOCNSGLS00000177;3990.00;;;;;http://assets.myntassets.com/assets/images/sizechart/2016/4/25/11461584543399-Sunglasses_and_frames_size_chart.jpg;;;zerotype;;Fall;;No
2032328;GM6045C.10MBR-Brown-2032328;GM6045C.10MBR;Draft;Sunglasses;GIO COLLECTION;Adults-Unisex;Unisex;;;;Fashion;;2017;58,GOCNSGLS00000176;2690.00;;;;;http://assets.myntassets.com/assets/images/sizechart/2016/4/25/11461584543399-Sunglasses_and_frames_size_chart.jpg;;;zerotype;;Fall;;No
2032327;GM6045C.09MBK-Grey-2032327;GM6045C.09MBK;Draft;Sunglasses;GIO COLLECTION;Adults-Unisex;Unisex;;;;Fashion;;2017;58,GOCNSGLS00000175;2690.00;;;;;http://assets.myntassets.com/assets/images/sizechart/2016/4/25/11461584543399-Sunglasses_and_frames_size_chart.jpg;;;zerotype;;Fall;;No
2032326;GM6045C.01MBK-Grey-2032326;GM6045C.01MBK;Draft;Sunglasses;GIO COLLECTION;Adults-Unisex;Unisex;;;;Fashion;;2017;58,GOCNSGLS00000174;2690.00;;;;;http://assets.myntassets.com/assets/images/sizechart/2016/4/25/11461584543399-Sunglasses_and_frames_size_chart.jpg;;;zerotype;;Fall;;No
2032325;GM6043C.02BRW-Brown-2032325;GM6043C.02BRW;Draft;Sunglasses;GIO COLLECTION;Adults-Unisex;Unisex;;;;Fashion;;2017;58,GOCNSGLS00000173;3190.00;;;;;http://assets.myntassets.com/assets/images/sizechart/2016/4/25/11461584543399-Sunglasses_and_frames_size_chart.jpg;;;zerotype;;Fall;;No
2032324;GM6043C.01BK-GREY-2032324;GM6043C.01BK;Draft;Sunglasses;GIO COLLECTION;Adults-Unisex;Unisex;;;;Fashion;;2017;58,GOCNSGLS00000172;3190.00;;;;;http://assets.myntassets.com/assets/images/sizechart/2016/4/25/11461584543399-Sunglasses_and_frames_size_chart.jpg;;;zerotype;;Fall;;No
2032323;GM6042C.10MBK-Grey-2032323;GM6042C.10MBK;Draft;Sunglasses;GIO COLLECTION;Adults-Unisex;Unisex;;;;Fashion;;2017;58,GOCNSGLS00000171;2690.00;;;;;http://assets.myntassets.com/assets/images/sizechart/2016/4/25/11461584543399-Sunglasses_and_frames_size_chart.jpg;;;zerotype;;Fall;;No
2032322;GM6042C.09MBR-Brown-2032322;GM6042C.09MBR;Draft;Sunglasses;GIO COLLECTION;Adults-Unisex;Unisex;;;;Fashion;;2017;58,GOCNSGLS00000170;2690.00;;;;;http://assets.myntassets.com/assets/images/sizechart/2016/4/25/11461584543399-Sunglasses_and_frames_size_chart.jpg;;;zerotype;;Fall;;No
2032321;GM6042C.01MBK-Grey-2032321;GM6042C.01MBK;Draft;Sunglasses;GIO COLLECTION;Adults-Unisex;Unisex;;;;Fashion;;2017;58,GOCNSGLS00000169;2690.00;;;;;http://assets.myntassets.com/assets/images/sizechart/2016/4/25/11461584543399-Sunglasses_and_frames_size_chart.jpg;;;zerotype;;Fall;;No
2032320;GM6041C.04MBK-Grey-2032320;GM6041C.04MBK;Draft;Sunglasses;GIO COLLECTION;Adults-Unisex;Unisex;;;;Fashion;;2017;53,GOCNSGLS00000168;3290.00;;;;;http://assets.myntassets.com/assets/images/sizechart/2016/4/25/11461584543399-Sunglasses_and_frames_size_chart.jpg;;;zerotype;;Fall;;No
2032278;GL5014C.09LGD-Grey-2032278;GL5014C.09LGD;Draft;Sunglasses;GIO COLLECTION;Adults-Unisex;Unisex;;;;Fashion;;2017;55,GOCNSGLS00000152;3190.00;;;;;http://assets.myntassets.com/assets/images/sizechart/2016/4/25/11461584543399-Sunglasses_and_frames_size_chart.jpg;;;zerotype;;Fall;;No
2032277;GL5014C.06RGD-Pink-2032277;GL5014C.06RGD;Draft;Sunglasses;GIO COLLECTION;Adults-Unisex;Unisex;;;;Fashion;;2017;55,GOCNSGLS00000151;3190.00;;;;;http://assets.myntassets.com/assets/images/sizechart/2016/4/25/11461584543399-Sunglasses_and_frames_size_chart.jpg;;;zerotype;;Fall;;No
2032273;GL5012C.10LGD-Brown-2032273;GL5012C.10LGD;Draft;Sunglasses;GIO COLLECTION;Adults-Unisex;Unisex;;;;Fashion;;2017;55,GOCNSGLS00000147;2690.00;;;;;http://assets.myntassets.com/assets/images/sizechart/2016/4/25/11461584543399-Sunglasses_and_frames_size_chart.jpg;;;zerotype;;Fall;;No
2032272;GL5012C.09RGD-Grey-2032272;GL5012C.09RGD;Draft;Sunglasses;GIO COLLECTION;Adults-Unisex;Unisex;;;;Fashion;;2017;55,GOCNSGLS00000146;2690.00;;;;;http://assets.myntassets.com/assets/images/sizechart/2016/4/25/11461584543399-Sunglasses_and_frames_size_chart.jpg;;;zerotype;;Fall;;No
2032271;GL5012C.06RGD-Pink-2032271;GL5012C.06RGD;Draft;Sunglasses;GIO COLLECTION;Adults-Unisex;Unisex;;;;Fashion;;2017;55,GOCNSGLS00000145;2690.00;;;;;http://assets.myntassets.com/assets/images/sizechart/2016/4/25/11461584543399-Sunglasses_and_frames_size_chart.jpg;;;zerotype;;Fall;;No
2032264;GL5009C.05RGD-Green-2032264;GL5009C.05RGD;Draft;Sunglasses;GIO COLLECTION;Adults-Unisex;Unisex;;;;Fashion;;2017;56,GOCNSGLS00000138;3190.00;;;;;http://assets.myntassets.com/assets/images/sizechart/2016/4/25/11461584543399-Sunglasses_and_frames_size_chart.jpg;;;zerotype;;Fall;;No
2032263;GL5009C.04BLUe-Grey-2032263;GL5009C.04BLUe;Draft;Sunglasses;GIO COLLECTION;Adults-Unisex;Unisex;;;;Fashion;;2017;56,GOCNSGLS00000137;3190.00;;;;;http://assets.myntassets.com/assets/images/sizechart/2016/4/25/11461584543399-Sunglasses_and_frames_size_chart.jpg;;;zerotype;;Fall;;No
2032201;DZ 1007 C3 WAYFERERS GREY/GREEN-Green-2032201;DZ 1007 C3 WAYFERERS GREY/GREEN;Draft;Sunglasses;GIO COLLECTION;Adults-Men;Men;;;;Fashion;;2017;50,GOCNSGLS00000102;3295.00;;;;;http://assets.myntassets.com/assets/images/sizechart/2016/4/25/11461584543399-Sunglasses_and_frames_size_chart.jpg;;;zerotype;;Fall;;No
2032184;BJ 3105 Cat 03 Oversized Pink/Mirror-Mirrored-2032184;BJ 3105 Cat 03 Oversized Pink/Mirror;Draft;Sunglasses;GIO COLLECTION;Adults-Men;Men;;;;Fashion;;2017;52,GOCNSGLS00000097;2995.00;;;;;http://assets.myntassets.com/assets/images/sizechart/2016/4/25/11461584543399-Sunglasses_and_frames_size_chart.jpg;;;zerotype;;Fall;;No
2032183;BJ 3105 Cat 03 Oversized Havana/Mirror-Mirrored-2032183;BJ 3105 Cat 03 Oversized Havana/Mirror;Draft;Sunglasses;GIO COLLECTION;Adults-Men;Men;;;;Fashion;;2017;52,GOCNSGLS00000096;2995.00;;;;;http://assets.myntassets.com/assets/images/sizechart/2016/4/25/11461584543399-Sunglasses_and_frames_size_chart.jpg;;;zerotype;;Fall;;No
2032181;BJ 3105 Cat 03 Oversized Blue/Mirror-Mirrored-2032181;BJ 3105 Cat 03 Oversized Blue/Mirror;Draft;Sunglasses;GIO COLLECTION;Adults-Men;Men;;;;Fashion;;2017;52,GOCNSGLS00000094;2995.00;;;;;http://assets.myntassets.com/assets/images/sizechart/2016/4/25/11461584543399-Sunglasses_and_frames_size_chart.jpg;;;zerotype;;Fall;;No
2032172;BH 2179 Cat 04 Sport Havana/Mirror-Mirrored-2032172;BH 2179 Cat 04 Sport Havana/Mirror;Draft;Sunglasses;GIO COLLECTION;Adults-Unisex;Unisex;;;;Fashion;;2017;58,GOCNSGLS00000085;3295.00;;;;;http://assets.myntassets.com/assets/images/sizechart/2016/4/25/11461584543399-Sunglasses_and_frames_size_chart.jpg;;;zerotype;;Fall;;No
2032171;BH 2178 C2 Blue/Blue-blue-2032171;BH 2178 C2 Blue/Blue;Draft;Sunglasses;GIO COLLECTION;Adults-Men;Men;;;;Fashion;;2017;58,GOCNSGLS00000084;3295.00;;;;;http://assets.myntassets.com/assets/images/sizechart/2016/4/25/11461584543399-Sunglasses_and_frames_size_chart.jpg;;;zerotype;;Fall;;No
