Style ID;Vendor Article Number;Vendor Article Name;Active Status;Article type;Brand;Age Group;Gender;Base Colour;Colour1;Colour2;Fashion Type;Usage;Year;Size - SKU code pair;MRP;Style Description;Style Note;Materials and Care Description;Size and Fit Description;Size Chart Path;Product Display Name;Tags;Product Type;Classification Brand;Season;Comments;Upload Images
2267425;WLT_310-Brown-2267425;WLT_310;Draft;Wallets;Teakwood Leathers;Adults-Men;Men;Brown;;;Fashion;Casual;2017;ONESIZE,TWLTWLLT00000391;1999.00;;;<p>wipe with dry cloth</p>;<p>H-3.5" L-4.5" W- 0.6"</p>;;NA;;zerotype;;Winter;;No
2267424;WLT_309-Brown-2267424;WLT_309;Draft;Wallets;Teakwood Leathers;Adults-Men;Men;Brown;;;Fashion;Casual;2017;ONESIZE,TWLTWLLT00000390;1999.00;;;<p>wipe with dry cloth</p>;<p>H-3.5" L-4.5" W- 0.6"</p>;;NA;;zerotype;;Winter;;No
2267423;WLT_308-Tan-2267423;WLT_308;Draft;Wallets;Teakwood Leathers;Adults-Men;Men;Tan;;;Fashion;Casual;2017;ONESIZE,TWLTWLLT00000389;1999.00;;;<p>wipe with dry cloth</p>;<p>H-3.5" L-4.5" W- 0.6"</p>;;NA;;zerotype;;Winter;;No
2267422;WLT_307-Tan-2267422;WLT_307;Draft;Wallets;Teakwood Leathers;Adults-Men;Men;Tan;;;Fashion;Casual;2017;ONESIZE,TWLTWLLT00000388;1999.00;;;<p>wipe with dry cloth</p>;<p>H-3.5" L-4.5" W- 0.6"</p>;;NA;;zerotype;;Winter;;No
2267421;WLT_306-Black-2267421;WLT_306;Draft;Wallets;Teakwood Leathers;Adults-Men;Men;Black;;;Fashion;Casual;2017;ONESIZE,TWLTWLLT00000387;1999.00;;;<p>wipe with dry cloth</p>;<p>H-3.2" L-4" W-0.6"</p>;;NA;;zerotype;;Winter;;No
2267420;WLT_305-Black-2267420;WLT_305;Draft;Wallets;Teakwood Leathers;Adults-Men;Men;Black;;;Fashion;Casual;2017;ONESIZE,TWLTWLLT00000386;1999.00;;;<p>wipe with dry cloth</p>;<p>H-3.5" L-4.5" W- 0.6"</p>;;NA;;zerotype;;Winter;;No
2267419;WLT_303-Tan-2267419;WLT_303;Draft;Wallets;Teakwood Leathers;Adults-Men;Men;Tan;;;Fashion;Casual;2017;ONESIZE,TWLTWLLT00000385;1999.00;;;<p>wipe with dry cloth</p>;<p>H-3.5" L-4.5" W- 0.6"</p>;;NA;;zerotype;;Winter;;No
2267418;WLT_302-Tan-2267418;WLT_302;Draft;Wallets;Teakwood Leathers;Adults-Men;Men;Tan;;;Fashion;Casual;2017;ONESIZE,TWLTWLLT00000384;1999.00;;;<p>wipe with dry cloth</p>;<p>H-3.2" L-4" W-0.6"</p>;;NA;;zerotype;;Winter;;No
2267416;WLT_299-Brown-2267416;WLT_299;Draft;Wallets;Teakwood Leathers;Adults-Men;Men;Brown;;;Fashion;Casual;2017;ONESIZE,TWLTWLLT00000383;1999.00;;;<p>wipe with dry cloth</p>;<p>H-3.5" L-4.5" W- 0.6"</p>;;NA;;zerotype;;Winter;;No
