Style ID;Vendor Article Number;Vendor Article Name;Active Status;Article type;Brand;Age Group;Gender;Base Colour;Colour1;Colour2;Fashion Type;Usage;Year;Size - SKU code pair;MRP;Style Description;Style Note;Materials and Care Description;Size and Fit Description;Size Chart Path;Product Display Name;Tags;Product Type;Classification Brand;Season;Comments;Upload Images
4377208;VDDN517D05395-Blue-4377208;Jeans;Draft;Jeans;V Dot;Adults-Men;Men;Blue;;;Fashion;;2017;44,VDOTJENS00002344;3249.00;;;<p>99% Cotton and 1% Spandex</p>;;;na;;zerotype;;Winter;;No
4377205;VDDN517D008141-Black-4377205;Jeans;Draft;Jeans;V Dot;Adults-Men;Men;Black;;;Fashion;;2017;32,VDOTJENS00002338,34,VDOTJENS00002339,36,VDOTJENS00002340,38,VDOTJENS00002341,28,VDOTJENS00002342,30,VDOTJENS00002343;2299.00;;;<p>98% Cotton and 2% Elastane</p>;;;na;;zerotype;;Winter;;No
4377202;VDDN517D008093-Blue-4377202;Jeans;Draft;Jeans;V Dot;Adults-Men;Men;Blue;;;Fashion;;2017;32,VDOTJENS00002332,34,VDOTJENS00002333,36,VDOTJENS00002334,38,VDOTJENS00002335,28,VDOTJENS00002336,30,VDOTJENS00002337;2799.00;;;<p>98% Cotton and 2% Elastane</p>;;;na;;zerotype;;Winter;;No
4377199;VDDN517D05395-Blue-4377199;Jeans;Draft;Jeans;V Dot;Adults-Men;Men;Blue;;;Fashion;;2017;36,VDOTJENS00002326,30,VDOTJENS00002327,28,VDOTJENS00002328,34,VDOTJENS00002329,32,VDOTJENS00002330,38,VDOTJENS00002331;3149.00;;;<p>99% Cotton and 1% Spandex</p>;;;na;;zerotype;;Winter;;No
4377197;VDDN517D008093-Blue-4377197;Jeans;Draft;Jeans;V Dot;Adults-Men;Men;Blue;;;Fashion;;2017;40,VDOTJENS00002325;2849.00;;;<p>98% Cotton and 2% Elastane</p>;;;na;;zerotype;;Winter;;No
4377196;VDDN517D008141-Black-4377196;Jeans;Draft;Jeans;V Dot;Adults-Men;Men;Black;;;Fashion;;2017;40,VDOTJENS00002324;2349.00;;;<p>98% Cotton and 2% Elastane</p>;;;na;;zerotype;;Winter;;No
4377193;VDDN517D05395-Blue-4377193;Jeans;Draft;Jeans;V Dot;Adults-Men;Men;Blue;;;Fashion;;2017;42,VDOTJENS00002322,40,VDOTJENS00002323;3199.00;;;<p>99% Cotton and 1% Spandex</p>;;;na;;zerotype;;Winter;;No
4377191;VDST517D00594-Blue-4377191;Sweatshirts;Draft;Sweatshirts;V Dot;Adults-Men;Men;Blue;;;Fashion;;2017;M,VDOTSWSH00000047,L,VDOTSWSH00000048,XXL,VDOTSWSH00000049,XL,VDOTSWSH00000050,3XL,VDOTSWSH00000051,S,VDOTSWSH00000052;2949.00;;;<p>100% Cotton</p>;;;na;;zerotype;;Winter;;No
4377188;VDKC318E000242-Blue-4377188;Tshirts;Draft;Tshirts;V Dot;Adults-Men;Men;Blue;;;Fashion;;2018;M,VDOTTSHT00002182,L,VDOTTSHT00002183,XXL,VDOTTSHT00002184,XL,VDOTTSHT00002185,3XL,VDOTTSHT00002186,S,VDOTTSHT00002187;899.00;;;<p>100% Cotton</p>;;;na;;zerotype;;Spring;;No
4377185;VDKC318E000241-Navy Blue-4377185;Tshirts;Draft;Tshirts;V Dot;Adults-Men;Men;Navy Blue;;;Fashion;;2018;3XL,VDOTTSHT00002176,XL,VDOTTSHT00002177,XXL,VDOTTSHT00002178,L,VDOTTSHT00002179,S,VDOTTSHT00002180,M,VDOTTSHT00002181;999.00;;;<p>100% Cotton</p>;;;na;;zerotype;;Spring;;No
4377184;VDKC318D000243-Beige-4377184;Tshirts;Draft;Tshirts;V Dot;Adults-Men;Men;Beige;;;Fashion;;2018;M,VDOTTSHT00002170,S,VDOTTSHT00002171,L,VDOTTSHT00002172,XXL,VDOTTSHT00002173,XL,VDOTTSHT00002174,3XL,VDOTTSHT00002175;899.00;;;<p>100% Cotton</p>;;;na;;zerotype;;Spring;;No
4377183;VDSF517D008275-Blue-4377183;Shirts;Draft;Shirts;V Dot;Adults-Men;Men;Blue;;;Fashion;;2017;44,VDOTSHRT00007156,46,VDOTSHRT00007157;1899.00;;;<p>100% Cotton</p>;;;na;;zerotype;;Winter;;No
4377182;VDSF517D008275-Blue-4377182;Shirts;Draft;Shirts;V Dot;Adults-Men;Men;Blue;;;Fashion;;2017;38,VDOTSHRT00007152,40,VDOTSHRT00007153,42,VDOTSHRT00007154,39,VDOTSHRT00007155;1799.00;;;<p>100% Cotton</p>;;;na;;zerotype;;Winter;;No
2443931;VDKC318E000215-grey-2443931;T Shirt;Draft;Tshirts;V Dot;Adults-Men;Men;;;;Fashion;;2018;M,VDOTTSHT00001280,XXL,VDOTTSHT00001281,L,VDOTTSHT00001282,XL,VDOTTSHT00001283,S,VDOTTSHT00001284;999.00;;;<p>50%Cotton50%Viscose</p>;;;;SS18-MC-ALL,MCW-SS18-ALL,mcw-ss18-all;zerotype;;Summer;mcw-ss18-all;No
2155424;VDSF517D04793-White With Red-2155424;VDSF517D04793;Active;Shirts;V Dot;Adults-Men;Men;White;;;Fashion;Casual;2017;42.0,VDOTSHRT00004077,40.0,VDOTSHRT00004078,39.0,VDOTSHRT00004079,46.0,VDOTSHRT00004080,44.0,VDOTSHRT00004081;1499.00;White printed <a href='/casual?src=pd' class='seolink'>casual</a> shirt, has a <a href='/spread?src=pd' class='seolink'>spread</a> collar, button placket, long sleeves, curved hem;Expand your collection of casual staples with this hip shirt from V Dot.  The next time you head to a basketball or baseball game, all you need to do is put this white piece with a lightweight bomber jacket and dark denim to root for your home team.;Cotton <br> Machine-wash;Slim fit<br> The model (height 6') is wearing a size M;;V Dot Men White Slim Fit Printed Casual Shirt;V Dot,ndd17-mum,menscasualfest-nov,express-delivery-17,try-and-buy-17,mantastic-nov-aw17,bfg17-non-disc,mantastic-styles-dec2,mantastic-styles-dec5,groovy-gang-dec,welcome-to-myntra-oct17,party-store-2017-men-printed-shirts,mantastic-styles-dec9,mmb-formalshirts,workwear-styles,men-eors17-formal-party-edit-557600,mensworkwear-eors,eorsdec17-ftod,ltod-bbs,mitm-jan-18,corporate-jetsetter,express-delivery-jan18,menscasualfest-feb,founding18-ltod;zerotype;;Winter;founding18-ltod;No
2155314;VDKC517D00327-Medium Orange With Brown-2155314;VDKC517D00327;Active;Tshirts;V Dot;Adults-Men;Men;Rust;;;Fashion;Casual;2016;XL,VDOTTSHT00001204,L,VDOTTSHT00001205,M,VDOTTSHT00001206,S,VDOTTSHT00001207,XXL,VDOTTSHT00001208;899.00;<a href='/rust?src=pd' class='seolink'>Rust</a> <a href='/orange?src=pd' class='seolink'>orange</a> printed T-shirt, has a round neck, <a href='/short?src=pd' class='seolink'>short</a> sleeves;Make a name for yourself this season with this cool T-shirt from V Dot.  When you're going for a stroll in the park, put this rust piece with a pair of chinos and sneakers to feel both comfortable and stylish outside.;100% cotton<br />Machine-wash;Slim Fit<br />The model (height 6') is wearing a size M;;V Dot Men Rust Orange Printed Slim Fit T-shirt;V Dot, ndd17-mum,express-delivery-17,try-and-buy-17,workwear-styles,express-delivery-jan18;zerotype;;Winter;express-delivery-jan18;No
2155313;VDKC517D00325-White With Green-2155313;VDKC517D00325;Active;Tshirts;V Dot;Adults-Men;Men;White;;;Fashion;Casual;2016;XL,VDOTTSHT00001199,L,VDOTTSHT00001200,M,VDOTTSHT00001201,S,VDOTTSHT00001202,XXL,VDOTTSHT00001203;999.00;White printed T-shirt, has a round neck, short sleeves;Elevate the look of your wardrobe with a few more basic tees like this high-end cotton one from V Dot.  Whether you're running errands or meeting friends for coffee, sport this white number with slim black jeans or cutoff shorts for a relaxed style.;100% cotton<br />Machine-wash;The model (height 6') is wearing a size M;;V Dot Men White Printed Round Neck T-shirt;V Dot,ndd17-mum,menscasualfest-nov,express-delivery-17,try-and-buy-17,bfg17-non-disc,groovy-gang-dec,mmb-tshirts,workwear-styles,mitm-jan-18,corporate-jetsetter,express-delivery-jan18,menscasualfest-feb;zerotype;;Winter;menscasualfest-feb;No
2072586;VDKC517D00326-White-2072586;Tshirts;Active;Tshirts;V Dot;Adults-Men;Men;Off White;Blue;;Fashion;Casual;2017;L,VDOTTSHT00001024,XXL,VDOTTSHT00001025,M,VDOTTSHT00001026,S,VDOTTSHT00001027,XL,VDOTTSHT00001028;1299.00;Off-White and <a href='/blue?src=pd' class='seolink'>blue</a> printed T-shirt, has a round neck, <a href='/short?src=pd' class='seolink'>short</a> sleeves;You'll love the softness and durability of this high-fashion V Dot tee.  You'll feel entirely at ease in this off-white piece on top of a relaxed-fit chino and slip-on tennis shoe when you're going out shopping or catching a movie.;Cotton <br /> Machine-wash;The model (height 6') is wearing a size M;;V Dot Men Off-White & Blue Printed Round Neck T-shirt;V Dot,formalwear-min30sale,menscasualfest-oct,ftod-sep30,mitm-formals-oct,menscasualfest-nov,express-delivery-17,try-and-buy-17,mantastic-nov-aw17,bfg17-non-disc,welcome-to-myntra-oct17,mmb-tshirts,workwear-styles,eorsdec17-ftod,ltod-bbs,mitm-jan-18,corporate-jetsetter,express-delivery-jan18,menscasualfest-feb;zerotype;;Fall;Devashish Req_8th march;No
