Style ID;Vendor Article Number;Vendor Article Name;Active Status;Article type;Brand;Age Group;Gender;Base Colour;Colour1;Colour2;Fashion Type;Usage;Year;Size - SKU code pair;MRP;Style Description;Style Note;Materials and Care Description;Size and Fit Description;Size Chart Path;Product Display Name;Tags;Product Type;Classification Brand;Season;Comments;Upload Images
2200144;8546063-Black-2200144;SPINOZA;Draft;Formal Shoes;Hush Puppies;Adults-Men;Men;Black;;;Fashion;;2017;UK6,HUPUFOSH00001366,UK7,HUPUFOSH00001367,UK8,HUPUFOSH00001368,UK9,HUPUFOSH00001369,UK10,HUPUFOSH00001370,UK11,HUPUFOSH00001371;4999.00;;;;;;;;zerotype;;Winter;;No
2186220;P42FS0699413894-Multi-2186220;Flats;Draft;Flats;People;Adults-Women;Women;Multi;;;Fashion;;2017;UK3,PEPLFlats00000727,UK4,PEPLFlats00000728,UK5,PEPLFlats00000729,UK6,PEPLFlats00000730,UK7,PEPLFlats00000731;699.00;;;<p>PU</p>;;;;;zerotype;;Winter;;No
2186218;P42FS0699413892-Multi-2186218;Flats;Draft;Flats;People;Adults-Women;Women;Multi;;;Fashion;;2017;UK3,PEPLFlats00000717,UK4,PEPLFlats00000718,UK5,PEPLFlats00000719,UK6,PEPLFlats00000720,UK7,PEPLFlats00000721;699.00;;;<p>PU</p>;;;;;zerotype;;Winter;;No
2186216;P42FS0699413890-Blue-2186216;Flats;Draft;Flats;People;Adults-Women;Women;Blue;;;Fashion;;2017;UK3,PEPLFlats00000707,UK4,PEPLFlats00000708,UK5,PEPLFlats00000709,UK6,PEPLFlats00000710,UK7,PEPLFlats00000711;699.00;;;<p>PU</p>;;;;;zerotype;;Winter;;No
2186211;P42FS0599413895-Silver-2186211;Flats;Draft;Flats;People;Adults-Women;Women;Silver;;;Fashion;;2017;UK3,PEPLFlats00000682,UK4,PEPLFlats00000683,UK5,PEPLFlats00000684,UK6,PEPLFlats00000685,UK7,PEPLFlats00000686;599.00;;;<p>PU</p>;;;;;zerotype;;Winter;;No
2186210;P42FS0599413878-Gold-2186210;Flats;Draft;Flats;People;Adults-Women;Women;Gold;;;Fashion;;2017;UK3,PEPLFlats00000677,UK4,PEPLFlats00000678,UK5,PEPLFlats00000679,UK6,PEPLFlats00000680,UK7,PEPLFlats00000681;599.00;;;<p>PU</p>;;;;;zerotype;;Winter;;No
2181137;5021469013771-Multi-2181137;Little Lion Shortie Tee - 2 Pack;Draft;Clothing Set;mothercare;Kids-Boys;Boys;;;;Fashion;;2017;NEWBORN,MTCRCLST00001463,0-3 M,MTCRCLST00001464,3-6 M,MTCRCLST00001465;2499.00;;;<p>Warm regular machine wash, do not bleach, can be tumble dried, iron on medium heat and do not dry clean</p>;<p>Set of 2 Tshirts and 2 Shorts</p>;;;;zerotype;;Summer;;No
2181117;5021469015508-Blue-2181117;Boys    Clothing set;Draft;Clothing Set;mothercare;Kids-Boys;Boys;NA;Grey;;Fashion;;2017;NEWBORN,MTCRCLST00001414,0-3 M,MTCRCLST00001415,3-6 M,MTCRCLST00001416,6-9 M,MTCRCLST00001417,9-12 M,MTCRCLST00001418;1299.00;;;<p>Warm regular machine wash, do not bleach, can be tumble dried, iron on medium heat and do not dry clean</p>;<p>Set of a Tee with Pyjama</p>;;;;zerotype;;Summer;;No
2169105;1000720277007-MSTONE-2169105;LCBB-4171-FEST4-FL-SL, 13-14, M STONE;Draft;Jeans;Lee Cooper;Kids-Boys;Boys;NA;;;Fashion;;2017;9-10Y,LEECJENS00003066,11-12Y,LEECJENS00003067,13-14Y,LEECJENS00003068;1699.00;;;<p>Machine Wash Cold, Wash Dark Colors Separately,Do Not Bleach, Tumble Dry Low, Do Not Dry In Direct Sunlight, Flat Dry,Do not wring reshape, Warm Iron(Do Not Iron On Decoration)</p>;;;;;zerotype;;Spring;;No
2163146;8903016732533-ROYAL NAVY-2163146;PP-FEDERAL:NYAI13G;Draft;Trousers;Blackberrys;Adults-Men;Men;;;;Fashion;;2016;30,BKBRTRSR00007596,32,BKBRTRSR00007597,34,BKBRTRSR00007598,36,BKBRTRSR00007599,38,BKBRTRSR00007600,40,BKBRTRSR00007601;2195.00;<p>100%Cotton</p>;;<p>Regular Wash</p>;;;;;zerotype;;Winter;;No
2163080;8907196534703-WHITE-2163080;BP-0-CP-DOFD24:WHEN01P;Draft;Shirts;Blackberrys;Adults-Men;Men;;;;Fashion;;2016;38,BKBRSHRT00007559,39,BKBRSHRT00007560,40,BKBRSHRT00007561,42,BKBRSHRT00007562,44,BKBRSHRT00007563;2395.00;;;<p>machine wash cold. Do not tumble dry</p>;;;;;zerotype;;Winter;;No
2163079;8907196466189-RADIANT PURP-2163079;BP-0-SP-DOFC90:PUEN11Q;Draft;Shirts;Blackberrys;Adults-Men;Men;;;;Fashion;;2016;39,BKBRSHRT00007555,40,BKBRSHRT00007556,42,BKBRSHRT00007557,44,BKBRSHRT00007558;2395.00;;;<p>machine wash cold. Do not tumble dry</p>;;;;;zerotype;;Winter;;No
2163048;8907196530262-CADET BLUE-2163048;BP-0-SP-DOFC07:CBEN06Q;Draft;Shirts;Blackberrys;Adults-Men;Men;;;;Fashion;;2016;39,BKBRSHRT00007446,40,BKBRSHRT00007447,42,BKBRSHRT00007448,44,BKBRSHRT00007449;2595.00;;;<p>machine wash cold. Do not tumble dry</p>;;;;;zerotype;;Winter;;No
2163047;8907196519892-SULPHUR YELL-2163047;BP-0-SP-CHFD13:SYDN14Q;Draft;Shirts;Blackberrys;Adults-Men;Men;;;;Fashion;;2016;39,BKBRSHRT00007442,40,BKBRSHRT00007443,42,BKBRSHRT00007444,44,BKBRSHRT00007445;1895.00;;;<p>machine wash cold. Do not tumble dry</p>;;;;;zerotype;;Winter;;No
2158711;LW_VS_PETALS01-ORANGE-2158711;slim fit kaftan;QC Reject;Nightdress;The Kaftan Company;Adults-Women;Women;Off White;Orange;;Fashion;Casual;2017;XL,TKCYNIDR00000479,S,TKCYNIDR00000480,M,TKCYNIDR00000481,L,TKCYNIDR00000482;2199.00;Off-white and orange woven printed kaftan maxi nightdress, has a round neck, short kaftan sleeves;This nightdress is a perfect addition to your closet. Wear it with a pair flip-flops for a relaxed day at home.;100% viscose<br />Hand-wash;The model (height 5'8'') is wearing a size S;;The Kaftan Company Off-White & Orange Printed Kaftan Nightdress LW_VS_PETALS01;The Kaftan Company;zerotype;;Fall;;No
2155324;VSKC517S00116-Light Green With Green-2155324;VSKC517S00116;QC Reject;Tshirts;Van Heusen Sport;Adults-Men;Men;Green;;;Fashion;Casual;2016;XL,VHSPTSHT00001011,L,VHSPTSHT00001012,M,VHSPTSHT00001013,S,VHSPTSHT00001014,XXL,VHSPTSHT00001015;1249.00;<a href='/green?src=pd' class='seolink'>Green</a> printed T-shirt, has a round neck, <a href='/short?src=pd' class='seolink'>short</a> sleeves;Stand out this season when you go with the sleek style of a Van Heusen Sport T-shirt.  This green item can be teamed with fitted jeans for a clean look or lounge shorts for casual weekend wear.;Polyester and cotton <br> Machine-wash;The model (height 6') is wearing a size M;;Van Heusen Sport Men Green Printed Round Neck T-shirt;Van Heusen Sport;zerotype;;Winter;U card reject;No
2154692;ARGT0102B-Charcoal-2154692;TR AR C FF SMT AFX CHRCL STR BOSTON;Draft;Trousers;Arrow;Adults-Men;Men;;;;Fashion;;2017;30,ARRWTRSR00002353,32,ARRWTRSR00002354,34,ARRWTRSR00002355,36,ARRWTRSR00002356,38,ARRWTRSR00002357,40,ARRWTRSR00002358,42,ARRWTRSR00002359;2299.00;;;<p>POLYSTER VISCOSE</p>;;;;;zerotype;;Spring;;No
2154562;2170764055FS-1-44-Cream-2154562;MEN'S SHIRT-SFORMAL-F/S;Active;Shirts;Monte Carlo;Adults-Men;Men;Off White;;;Fashion;Smart Casual;2017;38.0,MTCLSHRT00000853,40.0,MTCLSHRT00000854,42.0,MTCLSHRT00000855,44.0,MTCLSHRT00000856;1890.00;Off-white <a href='/solid?src=pd' class='seolink'>solid</a> smart <a href='/casual?src=pd' class='seolink'>casual</a> shirt with a tinge of <a href='/pink?src=pd' class='seolink'>pink</a>, has a <a href='/spread?src=pd' class='seolink'>spread</a> collar, button placket, 1 pocket, long sleeves, curved hem;The cotton shirt from Monte Carlo has comfy fabric to keep you toasty.  The off-white shirt can be matched with distressed denims and a fun pair of canvas shoes for your next dinner date.;Cotton<br> Machine-wash;Tailored Fit<br />The model (height 6') is wearing a size 40;;Monte Carlo Men Off-White Tailored Fit Solid Smart Casual Shirt;Monte Carlo,MATT050;zerotype;;Winter;;No
2150142;ALSF317J01986-Blue-2150142;shirts;QC Reject;Shirts;Solly Jeans Co.;Adults-Men;Men;Blue;;;Fashion;Casual;2017;48.0,SYJSSHRT00000821;2049.00;Blue solid casual shirt, has a spread collar, button placket, 1 pocket, long sleeves, curved hem;Add this well-designed shirt from Solly Jeans Co. to your wardrobe and stay warm all year long.  Next time you're going out for drinks with the guys, just put this blue piece with a lightweight jacket and chukka boots.;Cotton<br> Machine-wash;Slim fit<br> The model (height 6') is wearing a size M;;Solly Jeans Co. Men Blue Slim Fit Solid Casual Shirt;Solly Jeans Co., ndd17-mum;zerotype;;Spring;ndd17-mum;No
2144973;ETF41700114-MediumkhakiSolid-2144973;ETF41700114;QC Reject;Trousers;Peter England Casuals;Adults-Men;Men;Khaki;;;Fashion;Casual;2017;28.0,PEDCTRSR00000493,34.0,PEDCTRSR00000494,30.0,PEDCTRSR00000495,36.0,PEDCTRSR00000496,32.0,PEDCTRSR00000497;1899.00;<a href='/khaki?src=pd' class='seolink'>Khaki</a> self-design mid-rise <a href='/chinos?src=pd' class='seolink'>chinos</a>, has a button closure closure, <a href='/4?src=pd' class='seolink'>4</a> pockets;A versatile addition like these chinos from Peter England Casuals are perfect to transform your wardrobe.  This khaki pair can be matched with an in-style shirt and a lightweight jacket for a night out on the town.;Cotton and elastane <br> Machine-wash;Slim fit<br> The model (height 6') is wearing a size 32;;Peter England Casuals Men Khaki Slim Fit Self Design Chinos;Peter England Casuals;zerotype;;Spring;U card reject;No
2124160;ETAW17WTR710A-GREY MILANGE-2124160;pinafore dress;QC Reject;Dresses;ether;Adults-Women;Women;Grey;;;Fashion;Casual;2017;S,ETHRDRSS00000659,M,ETHRDRSS00000660,L,ETHRDRSS00000661,XL,ETHRDRSS00000662;999.00;Grey solid knitted A-line dress, has a round neck, sleeveless, , , straight hem;With this ether dress, you can pull off that runway look you've been wanting to try.  When you're going to an art gallery opening or the theater, wear this solid grey piece with platform heels and a trendy clutch.;Cotton <br> Machine-wash;Regular Fit<br> The model (height 5'8") is wearing a size S;;ether Women Grey Solid A-Line Dress;ether,New-Arrivals-13102017,ndd17-ggn;zerotype;;Fall;ndd17-ggn;No
2117594;P10101091091213-Blue-2117594;People Blue T Shirt;QC Reject;Tshirts;People;Adults-Men;Men;;;;Fashion;;2017;S,PEPLTSHT00008639,M,PEPLTSHT00008640,XL,PEPLTSHT00008641,XXL,PEPLTSHT00008642;499.00;;;<p>100% Cotton</p>;;;;;zerotype;;Spring;Sample Called;No
2115237;AAYEOUDKA5222B-19-2514/15-2706-2115237;Kurtas;Draft;Kurtas;all about you;Adults-Women;Women;;;;Fashion;;2017;S,AATUKRTA00002385,M,AATUKRTA00002386,L,AATUKRTA00002387,XL,AATUKRTA00002388,XXL,AATUKRTA00002389;2299.00;;;;;;;;zerotype;;Fall;;No
2115235;AAYEOUDKA5222A-19-4007/14-1314-2115235;Kurtas;Draft;Kurtas;all about you;Adults-Women;Women;;;;Fashion;;2017;S,AATUKRTA00002380,M,AATUKRTA00002381,L,AATUKRTA00002382,XL,AATUKRTA00002383,XXL,AATUKRTA00002384;2299.00;;;;;;;;zerotype;;Fall;;No
2115029;MAAYEEAKU0397BAW17 AAY-EA-204 C-1-2115029;Kurta Sets;QC Reject;Kurtas;all about you;Adults-Women;Women;Cream;;;Fashion;Ethnic;2017;S,AATUKASS00000334,M,AATUKASS00000335,L,AATUKASS00000336,XL,AATUKASS00000337,XXL,AATUKASS00000338;2799.00;Cream-Coloured printed A-line kurta, has a round neck, three-quarter sleeves, straight hem, front slit;This fashion-forward kurta from all about you will take your personal style to new heights.  For your next dinner party or family gathering, this cream-coloured piece pairs well with dark leggings and chic flats.;Polyester and cotton <br> Machine-wash;The model (height 5'8") is wearing a size S;;all about you from Deepika Padukone Women Cream-Coloured Printed A-Line Kurta;all about you from Deepika Padukone;zerotype;;Fall;Incorrect image;No
2113187;8903496089219-Tan-2113187;TH/JACME23S/TAN;Draft;Belts;Tommy Hilfiger;Adults-Men;Men;Tan;;;Fashion;;2017;S,TOMHBELT00001320;2699.00;<p>Non Reversible</p>;<p>JACMEL</p>;<p>wipe with a clean dry cloth</p>;;;Tommy Hilfiger Small Tan Belts;;zerotype;;Winter;;No
2107406;LPAB515018-Silver / Steel-2107406;LPAB515018;QC Reject;Cufflinks;Louis Philippe;Adults-Men;Men;Silver;Navy Blue;;Fashion;Smart Casual;2017;ONESIZE,LSPLCFLK00000062;1899.00;A pair of silver-toned and navy blue rectangular cufflinks, has stone-studded detail<br />Secured with a toggle clasp<br />Comes in a signature Louis Philippe case;A stylish addition for those who look suave, this pair of cufflinks is the perfect pick. Team it up with a pinstriped shirt, dark trousers and a waistcoat for a classy yet fresh dimension to your look.;Metal and stones<br />Wipe with a clean cotton swab when needed;;;Louis Philippe Silver-Toned & Navy Cufflinks;Louis Philippe;zerotype;;Fall;studio reject;No
2104435;EKP51707915-Brown-2104435;EKP51707915;QC Reject;Tshirts;Peter England Casuals;Adults-Men;Men;Brown;;;Fashion;;2017;S,PEDCTSHT00001387,XXL,PEDCTSHT00001388,L,PEDCTSHT00001389,XL,PEDCTSHT00001390,M,PEDCTSHT00001391;999.00;;;<p>50%Cotton50%Polyester</p>;;;;;zerotype;;Fall;No comment entered;No
2104390;EKC51707926-Red-2104390;EKC51707926;QC Reject;Tshirts;Peter England Casuals;Adults-Men;Men;Red;;;Fashion;;2017;XL,PEDCTSHT00001307,XXL,PEDCTSHT00001308,L,PEDCTSHT00001309,M,PEDCTSHT00001310,S,PEDCTSHT00001311;1399.00;;;<p>100%Cotton</p>;;;;;zerotype;;Fall;No comment entered;No
2092880;RN31693234-Blue-2092880;RN31693234;Draft;Ties;Peter England;Adults-Men;Men;Blue;;;Fashion;;2017;Onesize,PTENTIES00000708;799.00;;;<p>Dry clean only</p>;<p>147*6.5</p>;;;;zerotype;;Winter;;No
2092877;RN31693175-Navy-2092877;RN31693175;Draft;Ties;Peter England;Adults-Men;Men;Navy Blue;;;Fashion;;2017;Onesize,PTENTIES00000705;599.00;;;<p>Dry clean only</p>;<p>147*6.5</p>;;;;zerotype;;Winter;;No
2092865;RN2359-Black-2092865;RN2359;Draft;Ties;Peter England;Adults-Men;Men;Black;;;Fashion;;2017;Onesize,PTENTIES00000693;599.00;;;<p>Dry clean only</p>;<p>147*6.5</p>;;;;zerotype;;Winter;;No
2092859;RN2316-Sea green-2092859;RN2316;Draft;Ties;Peter England;Adults-Men;Men;Green;;;Fashion;;2017;Onesize,PTENTIES00000687;499.00;;;<p>Dry clean only</p>;<p>147*6.5</p>;;;;zerotype;;Winter;;No
2092857;RN2307-YELLOW-2092857;RN2307;Draft;Ties;Peter England;Adults-Men;Men;Yellow;;;Fashion;;2017;Onesize,PTENTIES00000685;599.00;;;<p>Dry clean only</p>;<p>147*6.5</p>;;;;zerotype;;Winter;;No
2092785;RN0879-LIGHTBLUE-2092785;RN0879;Draft;Ties;Peter England;Adults-Men;Men;Blue;;;Fashion;;2017;Onesize,PTENTIES00000614;399.00;;;<p>Dry clean only</p>;<p>147*6.5</p>;;;;zerotype;;Winter;;No
2084553;N079-CAMEOROSE-2084553;Enamor N079 Babydoll;QC Reject;Baby Dolls;Enamor;Adults-Women;Women;Beige;;;Fashion;Casual;2016;L,ENAMBBDL00000008,M,ENAMBBDL00000009,S,ENAMBBDL00000010;1699.00;Beige nightdress, elasticated shoulder straps, has a sweetheart neck, slightly padded cups, slightly flared below the chest with a slit at centre front and tie-up detail on the front with a hook-and-bar closure<br />Please note that this nightdress will not come with a pair of briefs;Be stylish and comfortable in this nightdress from Enamor. The soft fabric and cuts ensure a snug fit which is sure to hit the right note with your lifestyle needs.;82% nylon, 18% elastane<br />Hand wash;The model height (5'8") is wearing a size S;;Enamor Beige Babydoll Nightdress N079;Enamor,ndd17-blr;zerotype;;Winter;ndd17-blr;No
2083570;BQ7060-BLACK-2083570;ZNE HEAT HOODY;QC Reject;Sweatshirts;Adidas;Adults-Men;Men;Black;;;Fashion;Sports;2017;2XL,ADDSSWSH00001978,XL,ADDSSWSH00001979,L,ADDSSWSH00001980,M,ADDSSWSH00001981,S,ADDSSWSH00001982;9999.00;<a href='/black?src=pd' class='seolink'>Black</a> <a href='/solid?src=pd' class='seolink'>solid</a> sweatshirt, has an attached hood, 2 pockets, long sleeves with thumbholes, zip closure, straight hem<br />Warranty: <a href='/3?src=pd' class='seolink'>3</a> months from the date of purchase against manufacturing defects;Stay stylish and cosy with this top-notch sweatshirt from Adidas. When you're meeting your friends for a quick coffee, layer this black piece over a printed tee.;97% polyester, 3% elastane<br />Machine-wash;The model (height 6') is wearing a size M;;Adidas Men Black ZNE Heat Solid Hooded Sweatshirt;Adidas,FW17-SPORTS-NEW,fw-17-sports-new;zerotype;;Fall;No comment entered;No
2079074;ATTS2404-Dk. Brown-2079074;TRAS FFF SLM DBR REGU PRI S17ASSPTR002C3;QC Reject;Trousers;Arrow Sport;Adults-Men;Men;Brown;;;Fashion;Casual;2016;30,ARSPTRSR00002664,32,ARSPTRSR00002665,34,ARSPTRSR00002666,36,ARSPTRSR00002667,38,ARSPTRSR00002668,40,ARSPTRSR00002669;2099.00;Brown self-design mid-rise regular trousers, has a zip closure, 5 pockets;Upgrade your overall style with these dapper trousers designed by Arrow Sport.  You can style this brown pair with a dapper shirt and your favourite easy loafers for your next work conference.;Cotton <br /> Machine-wash;Slim fit<br /> The model (height 6') is wearing a size 32;;Arrow Sport Men Brown Slim Fit Self Design Regular Trousers;Arrow Sport;zerotype;;Fall;Size issue;No
2079060;ATSS2446-Beige-2079060;TRAS FFF CRY BGE AUFL SOL A16ASSPTR018A2;QC Reject;Trousers;Arrow Sport;Adults-Men;Men;Beige;;;Fashion;Casual;2016;30,ARSPTRSR00002621,32,ARSPTRSR00002622,34,ARSPTRSR00002623,36,ARSPTRSR00002624,38,ARSPTRSR00002625,40,ARSPTRSR00002626;2699.00;Beige solid mid-rise chinos, has a button closure closure, 5 pockets;Amp up your style with a high-fashion pair of chino trousers from Arrow Sport.  When you have to give a presentation at work, wear this beige pair with a formal tee, a casual blazer, and Oxfords.;Cotton <br /> Machine-wash;Regular Fit<br /> The model (height 6') is wearing a size 32;;Arrow Sport Men Beige Regular Fit Solid Chinos;Arrow Sport;zerotype;;Fall;U card reject;No
2079059;ATSS2431-Navy-2079059;TRAS FFF CRY NVY REGU SOL A16ASSPTR012N1;QC Reject;Trousers;Arrow Sport;Adults-Men;Men;Navy Blue;;;Fashion;Casual;2016;30,ARSPTRSR00002615,32,ARSPTRSR00002616,34,ARSPTRSR00002617,36,ARSPTRSR00002618,38,ARSPTRSR00002619,40,ARSPTRSR00002620;2499.00;Navy Blue solid mid-rise chinos, has a button closure closure, 5 pockets;Liven up your wardrobe with these super trendy chino trousers from Arrow Sport.  This navy blue pair can be matched with an in-style shirt and a lightweight jacket for a night out on the town.;Cotton and elastane <br /> Machine-wash;Chrysler Regular Fit <br /> The model (height 6') is wearing a size 32;;Arrow Sport Men Navy Blue Chrysler Regular Fit Solid Chinos;Arrow Sport;zerotype;;Fall;Size issue;No
2079058;ATSS2422-Khaki-2079058;TRAS FFF CRY KKI REGU STR A16ASSPTR008K3;QC Reject;Trousers;Arrow Sport;Adults-Men;Men;Olive;;;Fashion;Casual;2016;30,ARSPTRSR00002609,32,ARSPTRSR00002610,34,ARSPTRSR00002611,36,ARSPTRSR00002612,38,ARSPTRSR00002613,40,ARSPTRSR00002614;2699.00;Olive Green self-design mid-rise regular trousers, has a button closure closure, 5 pockets;Amp up your style game with these classic Arrow Sport trousers.  This olive pair blends well with a button-up and sports jacket whether you're heading to work or a nice family function.;Cotton and elastane <br /> Machine-wash;Chrysler Regular Fit <br /> The model (height 6') is wearing a size 32;;Arrow Sport Men Olive Green Chrysler Regular Fit Self Design Regular Trousers;Arrow Sport;zerotype;;Fall;Size issue;No
2073246;hrx-aw17-mk-2459-B-NAVY BLAZER-2073246;MENS  TRACKPANT;Draft;Track Pants;HRX by Hrithik Roshan;Adults-Men;Men;;;;Fashion;;2017;28,HBHRTRPT00003588,30,HBHRTRPT00003589,32,HBHRTRPT00003590,34,HBHRTRPT00003591,36,HBHRTRPT00003592;1499.00;;;;;;;;zerotype;;Fall;;No
2067066;50009239497008-BLUE-2067066;PJNML-M-OS85481-15A1, 48, BLUE;QC Reject;Shirts;John Miller;Adults-Men;Men;Blue;;;Fashion;Formal;2017;48,JHMISHRT00101598;949.00;Blue solid formal shirt, has a spread collar, button placket, 1 pocket, short sleeves, curved hem;Add this modish John Miller shirt to your formal staples and keep it classy all year long.  When you need to dress up for a family function or party, pair this blue piece with a sports jacket and fitted trousers.;Polycotton <br /> Machine-wash;Tailored Fit<br /> The model (height 6') is wearing a size M;;John Miller Men Blue Tailored Fit Solid Formal Shirt;John Miller;zerotype;;Fall;;No
2067064;50009239474008-PINK-2067064;PJNML-M-OS85452-15A1, 48, PINK;QC Reject;Shirts;John Miller;Adults-Men;Men;Pink;;;Fashion;Formal;2017;48,JHMISHRT00101593;999.00;Pink solid formal shirt, has a spread collar, button placket, 1 pocket, long sleeves, curved hem;Formalise your wardrobe with this cool shirt from John Miller.  You can wear this pink piece with trim denims and easy loafers when you're going to a nice restaurant.;Polycotton <br /> Machine-wash;Tailored Fit<br /> The model (height 6') is wearing a size M;;John Miller Men Pink Tailored Fit Solid Formal Shirt;John Miller;zerotype;;Fall;;No
2067061;50009239472008-BLUE-2067061;PJNML-M-OS85432-15A1, 48, BLUE;QC Reject;Shirts;John Miller;Adults-Men;Men;Blue;;;Fashion;Formal;2017;48,JHMISHRT00101585;999.00;Blue solid formal shirt, has a spread collar, button placket, 1 pocket, long sleeves, curved hem;Add class to your year-round style with this formal shirt from John Miller.  When you have a formal event to attend, match this blue piece with cuffed chinos and your favourite pair of Derby shoes.;Polycotton <br /> Machine-wash;Tailored Fit<br /> The model (height 6') is wearing a size M;;John Miller Men Blue Tailored Fit Solid Formal Shirt;John Miller,ndd17-blr;zerotype;;Fall;ndd17-blr;No
2067059;50009239470008-BEIGE-2067059;PJNML-M-OS85412-15A1, 48, BEIGE;QC Reject;Shirts;John Miller;Adults-Men;Men;Beige;;;Fashion;Formal;2017;48,JHMISHRT00101581;999.00;Beige solid formal shirt, has a cutaway collar, button placket, 1 pocket, long sleeves, curved hem;Add this trendy shirt from John Miller to your formal staples.  This beige piece can be teamed with dark wash jeans and a fashionable blazer for your next work meeting.;Polycotton <br /> Machine-wash;Tailored Fit<br /> The model (height 6') is wearing a size M;;John Miller Men Beige Tailored Fit Solid Formal Shirt;John Miller;zerotype;;Fall;;No
2067049;50009239465008-BLUE-2067049;PJNML-M-OS85362-15A1, 48, BLUE;QC Reject;Shirts;John Miller;Adults-Men;Men;Blue;;;Fashion;Formal;2017;48,JHMISHRT00101560;999.00;Blue solid formal shirt, has a spread collar, button placket, 1 pocket, long sleeves, curved hem;Sharpen up your style with this in-style shirt by John Miller.  When you're attending a family outing, pair this blue piece with slim jeans and easy loafers.;Polycotton <br /> Machine-wash;Tailored Fit<br /> The model (height 6') is wearing a size M;;John Miller Men Blue Tailored Fit Solid Formal Shirt;John Miller;zerotype;;Fall;;No
2064350;GOLCONDA12969-RED-2064350;GOLCONDA12969;QC Reject;Kurtas;Biba;Adults-Women;Women;Red;;;Fashion;Ethnic;2017;32,BIBAKRTA00011575,34,BIBAKRTA00011576,36,BIBAKRTA00011577,38,BIBAKRTA00011578,42,BIBAKRTA00011579;1999.00;Red printed straight kurta, has a round neck, three-quarter sleeves, straight hem, side slits;This stunning kurta from Biba will help you maintain an elegant look all year long.  Look chic for the day with this red kurta and leggings.;Polyester <br /> Dry-clean;The model (height 5'8") is wearing a size S;;Biba Women Red Printed Straight Kurta;biba-fw17-new,Biba;zerotype;;Fall;OHS to QCR;No
2063492;8903965358594-Navy-2063492;Handbags;Draft;Handbags;Addons;Adults-Women;Women;;;;Fashion;;2017;Onesize,ADONHDBG00000732;3299.00;;;;;;;ndd17-mum;zerotype;;Fall;ndd17-mum;No
2060703;85087130-Dark Grey Heather-2060703;ESS Polo W;QC Reject;Tshirts;Puma;Adults-Women;Women;Grey;;;Fashion;Sports;2017;S,PUMATSHT00124673,M,PUMATSHT00124674,L,PUMATSHT00124675,XL,PUMATSHT00124676;1299.00;Grey solid T-shirt, has a polo collar, short sleeves;Show off your casual side with this comfortable and chic Puma tee.  When you're having the ladies over for drinks and appetizers, style this grey piece with your favourite pair of dark wash jeans.;97% cotton, 3% elastane <br /> Machine-wash;The model (height 5'8") is wearing a size S;;Puma Women Grey ESS Polo W Solid Polo Collar T-shirt;Puma,ftod-bbd17,fw-17-sports-new;zerotype;;Fall;coh-exp-aug;No
2056769;DAMT-134-Grey-2056769;Men Non Denim Bottom;Active;Trousers;HERE&NOW;Adults-Men;Men;Beige;;;Fashion;Casual;2017;28,HENWTRSR00000571,30,HENWTRSR00000572,32,HENWTRSR00000573,34,HENWTRSR00000574,36,HENWTRSR00000575,38,HENWTRSR00000576;1999.00;Beige solid mid-rise chinos, has a button closure, 4 pockets;You'll kick your style up a few levels when you find these fashion-forward chino trousers from HERE&NOW.  Team this beige pair with a dapper shirt and leather boots when you're going to dinner with your friends.;Cotton <br> Machine-wash;Slim fit<br> The model (height 6') is wearing a size 32;;HERE&NOW Men Beige Slim Fit Solid Chinos;HERE&NOW;zerotype;;Fall;No comment entered;No
2056768;DAMT-133-Grey-2056768;Men Non Denim Bottom;Active;Trousers;HERE&NOW;Adults-Men;Men;Beige;;;Fashion;Casual;2017;28,HENWTRSR00000565,30,HENWTRSR00000566,32,HENWTRSR00000567,34,HENWTRSR00000568,36,HENWTRSR00000569,38,HENWTRSR00000570;1999.00;Beige solid mid-rise chinos, has a button closure, 4 pockets;Rock a whole new look this season with these chino trousers from HERE&NOW.  This beige pair can be worn with a trendy shirt and easy loafers when you're going to a museum.;Cotton <br> Machine-wash;Slim fit<br> The model (height 6') is wearing a size 32;;HERE&NOW Men Beige Slim Fit Solid Chinos;HERE&NOW;zerotype;;Fall;No comment entered;No
2056763;DAMT-128-Grey-2056763;Men Non Denim Bottom;Active;Trousers;HERE&NOW;Adults-Men;Men;Green;;;Fashion;Casual;2017;28,HENWTRSR00000535,30,HENWTRSR00000536,32,HENWTRSR00000537,34,HENWTRSR00000538,36,HENWTRSR00000539,38,HENWTRSR00000540;1999.00;Green solid mid-rise chinos, has a button closure, 4 pockets;Get the style and comfort you deserve with these highly rated HERE&NOW chino trousers.  This green pair can be worn with canvas shoes and a fitted tee for your next date night.;Cotton <br> Machine-wash;Slim fit<br> The model (height 6') is wearing a size 32;;HERE&NOW Men Green Slim Fit Solid Chinos;HERE&NOW;zerotype;;Fall;No comment entered;No
2056275;MFJ-504-A-97-INDIGO-XL-97-INDIGO-2056275;MFJ-504-A-97-INDIGO-XL;QC Reject;Jackets;Mufti;Adults-Men;Men;Blue;;;Fashion;Casual;2015;M,MUFTJCKT00000300,L,MUFTJCKT00000301,XL,MUFTJCKT00000302;3399.00;Blue solid denim jacket, has a stand collar, 2 pockets, zip closure, long sleeves, straight hem, cotton lining;Show off your handsome side with this trendy blue jacket.  This Mufti jacket can be styled with your favourite shirt and a pair of slim jeans for a casual date night.;Cotton <br /> Machine-wash;The model (height 6') is wearing a size M;;Mufti Men Blue Solid Denim Jacket;Mufti;zerotype;;Winter;;No
2056256;MFT-16404-A-05-NAVY-40-05-NAVY-2056256;MFT-16404-A-05-NAVY-40;QC Reject;Trousers;Mufti;Adults-Men;Men;Navy Blue;Beige;Beige;Fashion;Casual;2015;28,MUFTTRSR00000614,30,MUFTTRSR00000615,32,MUFTTRSR00000616,34,MUFTTRSR00000617,36,MUFTTRSR00000618,38,MUFTTRSR00000619,40,MUFTTRSR00000620;2599.00;Navy Blue and beige solid high-rise chinos, has a zip closure, no pocket pockets;These chinos from Mufti display a classic look and are exactly what your wardrobe upgrade needs.  When you're going to dinner and a movie with your significant other, team this navy blue pair with easy loafers and your favourite tee.;Cotton and viscose rayon <br> Machine-wash;Smart Slim Fit <br> The model (height 6') is wearing a size 32;;Mufti Men Navy Blue & Beige Smart Slim Fit Solid Chinos;;zerotype;;Winter;Size issue;No
2034994;27581235-Brown-2034994;TOMAR-N-13;QC Reject;Jackets;Theme;Adults-Men;Men;Brown;;;Fashion;Smart Casual;2016;38,THMEBLZR00000215,40,THMEBLZR00000216,42,THMEBLZR00000217;5495.00;<a href='/brown?src=pd' class='seolink'>Brown</a> <a href='/solid?src=pd' class='seolink'>solid</a> tailored jacket, has a mandarin collar, <a href='/3?src=pd' class='seolink'>3</a> pockets, button closure closure, sleeveless, straight hem, unlined lining;Opt for a brand new brown jacket and make all the heads turn.  Pair this Theme jacket with a cool T-shirt and trim denims when you're going out for drinks with the boys.;Linen <br /> Dry-clean;The model (height 6') is wearing a size M;;Theme Men Brown Solid Reversible Tailored Jacket;Theme,ndd17-blr;zerotype;;Spring;ndd17-blr;No
2034993;25039731-Navy-2034993;TOMAR-N-13;QC Reject;Jackets;Theme;Adults-Men;Men;Navy Blue;;;Fashion;Smart Casual;2016;38,THMEBLZR00000212,40,THMEBLZR00000213,42,THMEBLZR00000214;4995.00;<a href='/navy-blue?src=pd' class='seolink'>Navy Blue</a> <a href='/solid?src=pd' class='seolink'>solid</a> tailored jacket, has a mandarin collar, <a href='/3?src=pd' class='seolink'>3</a> pockets, button closure closure, sleeveless, straight hem, unlined lining;With this navy blue jacket, you'll take your personal style up a few notches.  Pair this Theme jacket with a cool T-shirt and trim denims when you're going out for drinks with the boys.;Linen <br /> Dry-clean;The model (height 6') is wearing a size M;;Theme Men Navy Blue Solid Reversible Tailored Jacket;Theme,ndd17-blr;zerotype;;Spring;ndd17-blr;No
2032047;KARL7-PETROL BLUE-2032047;KARL;QC Reject;Shirts;Roadster;Adults-Men;Men;Blue;;;Fashion;Casual;2017;S,RDSTSHRT00022579,M,RDSTSHRT00022580,L,RDSTSHRT00022581,XL,RDSTSHRT00022582;1899.00;<a href='/blue?src=pd' class='seolink'>Blue</a> <a href='/solid?src=pd' class='seolink'>solid</a> <a href='/casual?src=pd' class='seolink'>casual</a> shirt, has a mandarin collar, zip, 2 pockets, long sleeves, curved hem;Keep warm on the coldest of days with this top-of-the-line shirt by Roadster.  You'll love putting this blue piece on with some trainers and chinos for the perfect outdoor activity with your friends.;100% cotton<br />Machine-wash;Regular Fit<br />The model (height 6') is wearing a size 40;;RDSTR Men Blue Regular Fit Solid Casual Shirt;Roadster;zerotype;;Fall;;No
2032043;KARL3-BEIGE-2032043;KARL;QC Reject;Shirts;Roadster;Adults-Men;Men;Beige;;;Fashion;Casual;2017;S,RDSTSHRT00022563,M,RDSTSHRT00022564,L,RDSTSHRT00022565,XL,RDSTSHRT00022566;1899.00;<a href='/beige?src=pd' class='seolink'>Beige</a> <a href='/solid?src=pd' class='seolink'>solid</a> <a href='/casual?src=pd' class='seolink'>casual</a> shirt, has a mandarin collar, button placket, 2 pockets, long sleeves, curved hem;Expand your collection of casual staples with this cool shirt from Roadster.  A pair of sneakers and slim denim are the perfect additions to this beige piece when you're going outside for a day in the park.;100% cotton<br />Machine-wash;Regular Fit<br />The model (height 6') is wearing a size 40;;RDSTR Men Beige Regular Fit Solid Casual Shirt;Roadster;zerotype;;Fall;;No
2032041;KARL1-MILITARY OLIVE-2032041;KARL;QC Reject;Shirts;Roadster;Adults-Men;Men;Olive;;;Fashion;Casual;2017;S,RDSTSHRT00022555,M,RDSTSHRT00022556,L,RDSTSHRT00022557,XL,RDSTSHRT00022558;1899.00;<a href='/olive-green?src=pd' class='seolink'>Olive green</a> <a href='/solid?src=pd' class='seolink'>solid</a> <a href='/casual?src=pd' class='seolink'>casual</a> shirt, collarless, zip, 2 pockets, long sleeves, curved hem;Keep warm on the coldest of days with this top-of-the-line shirt by Roadster.  The next time you head to a basketball or baseball game, all you need to do is put this olive piece with a lightweight bomber jacket and dark denim to root for your home team.;100% cotton<br />Machine-wash;Regular Fit<br />The model (height 6') is wearing a size 40;;RDSTR Men Olive Green Regular Fit Solid Casual Shirt;Roadster;zerotype;;Fall;;No
2031970;RD2512-MID GREY/NAVY-2031970;RD2512 MID GREY/NAVY;Draft;Casual Shoes;Roadster;Adults-Men;Men;;;;Fashion;;2017;UK 6,RDSTCASH00020089,UK 7,RDSTCASH00020090,UK 8,RDSTCASH00020091,UK 9,RDSTCASH00020092,UK 10,RDSTCASH00020093,UK 11,RDSTCASH00020094;2099.00;;;;;;;;zerotype;;Fall;;No
2031965;RD2509-BEIGE-2031965;RD2509 BEIGE;Draft;Casual Shoes;Roadster;Adults-Men;Men;;;;Fashion;;2017;UK 6,RDSTCASH00020059,UK 7,RDSTCASH00020060,UK 8,RDSTCASH00020061,UK 9,RDSTCASH00020062,UK 10,RDSTCASH00020063,UK 11,RDSTCASH00020064;1899.00;;;;;;;;zerotype;;Fall;;No
2031958;RD2301-DK GREY-2031958;RD2301 DK GREY;Draft;Casual Shoes;Roadster;Adults-Men;Men;;;;Fashion;;2017;UK 6,RDSTCASH00020017,UK 7,RDSTCASH00020018,UK 8,RDSTCASH00020019,UK 9,RDSTCASH00020020,UK 10,RDSTCASH00020021,UK 11,RDSTCASH00020022;1999.00;;;;;;;;zerotype;;Fall;;No
2026726;BT-KRUGER:BREI18D-CHOCLATE BRO-2026726;KHKRUERBREI18BTD;QC Reject;Trousers;Blackberrys;Adults-Men;Men;Brown;;;Fashion;Casual;2017;38,BKBRTRSR00006934,36,BKBRTRSR00006935,40,BKBRTRSR00006936,34,BKBRTRSR00006937,30,BKBRTRSR00006938,32,BKBRTRSR00006939;2195.00;Brown solid low-rise regular trousers, has a button closure closure, 4 pockets;Formalize your wardrobe with a fashionable pair of trousers by Blackberrys.  This brown pair looks exceptional at the office or out to dinner when teamed with Oxfords and a crisp white collared shirt.;Cotton <br /> Machine-wash;Sharp Regular Fit <br /> The model (height 6') is wearing a size 32;;Blackberrys Men Brown Sharp Regular Fit Solid Regular Trousers;Blackberrys,formal-aug-mb;zerotype;;Winter;OHS to QCR;No
2026722;BT-GATSON:NYRI19D-MIDNIGHT NAV-2026722;KHGATONNYRI19BTD;QC Reject;Trousers;Blackberrys;Adults-Men;Men;Navy Blue;;;Fashion;Casual;2017;42,BKBRTRSR00006923,38,BKBRTRSR00006924,36,BKBRTRSR00006925,40,BKBRTRSR00006926,34,BKBRTRSR00006927,30,BKBRTRSR00006928,32,BKBRTRSR00006929;2595.00;Navy Blue solid low-rise regular trousers, has a button closure closure, 4 pockets;Update your formal wardrobe with this top-of-the-line trousers from Blackberrys.  Team this navy blue pair with a formal shirt and head out on a dinner date.;Cotton <br> Machine-wash;Sharp Regular Fit <br> The model (height 6') is wearing a size 32;;Blackberrys Men Navy Blue Sharp Regular Fit Solid Regular Trousers;Blackberrys,formal-aug-mb;zerotype;;Winter;OHS to QCR;No
2019673;MUSIC - 04-BLACK-2019673;MENS H/SLEEVE TEE;Draft;Tshirts;Roadster;Adults-Men;Men;;;;Fashion;;2017;S,RDSTTSHT00038486,M,RDSTTSHT00038487,L,RDSTTSHT00038488,XL,RDSTTSHT00038489;699.00;;;;;;;;zerotype;;Fall;;No
2018393;AW17EKAJKT713B-BLACK-2018393;TOP;QC Reject;Jackets;IMARA;Adults-Women;Women;Black;;;Fashion;Ethnic;2017;XS,IMRAJCKT00000121,S,IMRAJCKT00000122,M,IMRAJCKT00000123,L,IMRAJCKT00000124,XL,IMRAJCKT00000125;1799.00;<a href='/black?src=pd' class='seolink'>Black</a> self design bolero jacket, has a collarless, none pockets, no closure closure, long sleeves, curved hem, unlined lining;This fashionable IMARA black jacket will help you declare your style this season.  This piece can be layered over your favourite dress when you're going on a first date.;Polyester <br> Machine-wash;The model (height 5'8") is wearing a size S;;IMARA Women Black Self Design Bolero Jacket;IMARA by Shraddha Kapoor;zerotype;;Fall;No comment entered;No
1997396;4-CAPTAINS-CLASSIC RED/ANTHRA MEL/BLACK-1997396;Mens YD Striper HS Polo;Draft;Tshirts;Roadster;Adults-Men;Men;;;;Fashion;;2017;S,RDSTTSHT00037622,M,RDSTTSHT00037623,L,RDSTTSHT00037624,XL,RDSTTSHT00037625;899.00;;;;;;;;zerotype;;Fall;;No
1997368;1-CASABLANCANS-NAVY/CLASSIC RED/ANTHRA MEL-1997368;Mens YD Striper HS Polo;Draft;Tshirts;Roadster;Adults-Men;Men;;;;Fashion;;2017;S,RDSTTSHT00037509,M,RDSTTSHT00037510,L,RDSTTSHT00037511,XL,RDSTTSHT00037512;899.00;;;;;;;;zerotype;;Fall;;No
1984676;SS17MT162C-OLIVE-1984676;FULL SLEEVE SLUB TEE;QC Reject;Tshirts;ether;Adults-Women;Women;Olive;;;Fashion;Casual;2017;S,ETHRTSHT00003936,M,ETHRTSHT00003937,L,ETHRTSHT00003938,XL,ETHRTSHT00003939;899.00;Olive green solid T-shirt, has a Henley neck, long sleeves;This breathable tee from ether is a must-have item for any fashionista.  When you're having the ladies over for drinks and appetizers, style this olive green piece with your favourite pair of dark wash jeans.;Cotton <br />Machine-wash;The model (height 5'8") is wearing a size S;;ether Women Olive Green Solid Henley Neck T-shirt;ether,Coupon-offer-aug19,buy3-sept13,Autumn-Hotpicks;zerotype;;Spring;Autumn Hotpicks;No
1953204;REP915-A-Grey-1953204;Sweatshirts;Draft;Sweatshirts;DressBerry;Adults-Women;Women;;;;Fashion;;2017;S,DSBYSWSH00000610,M,DSBYSWSH00000611,L,DSBYSWSH00000612,XL,DSBYSWSH00000613;1299.00;;;;;;;;zerotype;;Fall;;No
1953203;REP917-B-Navy-1953203;Sweatshirts;Draft;Sweatshirts;DressBerry;Adults-Women;Women;;;;Fashion;;2017;S,DSBYSWSH00000606,M,DSBYSWSH00000607,L,DSBYSWSH00000608,XL,DSBYSWSH00000609;1299.00;;;;;;;;zerotype;;Fall;;No
1858154;DB-YK-67B-CHARCOAL-1858154;Sweaters;Draft;Sweaters;DressBerry;Adults-Women;Women;;;;Fashion;;2017;S,DSBYSWTR00001740,M,DSBYSWTR00001741,L,DSBYSWTR00001742,XL,DSBYSWTR00001743;1899.00;;;;;;;;zerotype;;Fall;;No
1858152;DB-YK-67A-MUSTARD-1858152;Sweaters;Draft;Sweaters;DressBerry;Adults-Women;Women;;;;Fashion;;2017;S,DSBYSWTR00001736,M,DSBYSWTR00001737,L,DSBYSWTR00001738,XL,DSBYSWTR00001739;1899.00;;;;;;;;zerotype;;Fall;;No
1858125;1339599A-mustard/navy-1858125;Sweaters;Draft;Sweaters;DressBerry;Adults-Women;Women;;;;Fashion;;2017;S,DSBYSWTR00001651,M,DSBYSWTR00001652,L,DSBYSWTR00001653,XL,DSBYSWTR00001654;1599.00;;;;;;;;zerotype;;Fall;;No
1856109;MNHMANAW17 SWTR082B-Black-1856109;MENS Blazer;Draft;Blazers;Mast & Harbour;Adults-Men;Men;;;;Fashion;;2017;S,MTHBBLZR00000601,M,MTHBBLZR00000602,L,MTHBBLZR00000603,XL,MTHBBLZR00000604;2999.00;;;;;;;sbow2017;zerotype;;Winter;sbow2017;No
1856108;MNHMANAW17 SWTR082A-Charcoal mel-1856108;MENS Blazer;Draft;Blazers;Mast & Harbour;Adults-Men;Men;;;;Fashion;;2017;S,MTHBBLZR00000597,M,MTHBBLZR00000598,L,MTHBBLZR00000599,XL,MTHBBLZR00000600;2999.00;;;;;;;sbow2017;zerotype;;Winter;sbow2017;No
1856104;MNH-WCB-B-PURPLE/ORANGE-1856104;WOMENS DRESSES;Draft;Dresses;Mast & Harbour;Adults-Women;Women;;;;Fashion;;2017;S,MTHBDRSS00003135,M,MTHBDRSS00003136,L,MTHBDRSS00003137,XL,MTHBDRSS00003138;1899.00;;;;;;;;zerotype;;Winter;;No
1856102;MNH-WCB-A-BROWN/ORANGE-1856102;WOMENS DRESSES;Draft;Dresses;Mast & Harbour;Adults-Women;Women;;;;Fashion;;2017;S,MTHBDRSS00003131,M,MTHBDRSS00003132,L,MTHBDRSS00003133,XL,MTHBDRSS00003134;1899.00;;;;;;;;zerotype;;Winter;;No
1856101;MNH-WW-OSK-A-Black/Grey-1856101;WOMENS SWEATER;Draft;Sweaters;Mast & Harbour;Adults-Women;Women;;;;Fashion;;2017;S,MTHBSWTR00002559,M,MTHBSWTR00002560,L,MTHBSWTR00002561,XL,MTHBSWTR00002562;2199.00;;;;;;;;zerotype;;Winter;;No
1856091;MNHMANAW17 SWTR081A-Blue mel-1856091;MENS SWEATER;Draft;Sweaters;Mast & Harbour;Adults-Men;Men;;;;Fashion;;2017;S,MTHBSWTR00002535,M,MTHBSWTR00002536,L,MTHBSWTR00002537,XL,MTHBSWTR00002538;1999.00;;;;;;;;zerotype;;Winter;;No
1856087;MNHMANAW17 SWTR080B-Grey Mel-1856087;MENS SWEATER;Draft;Sweaters;Mast & Harbour;Adults-Men;Men;;;;Fashion;;2017;S,MTHBSWTR00002527,M,MTHBSWTR00002528,L,MTHBSWTR00002529,XL,MTHBSWTR00002530;2199.00;;;;;;;;zerotype;;Winter;;No
1856084;MNHMANAW17 SWTR075C-Purple Mel-1856084;MENS SWEATER;Draft;Sweaters;Mast & Harbour;Adults-Men;Men;;;;Fashion;;2017;S,MTHBSWTR00002519,M,MTHBSWTR00002520,L,MTHBSWTR00002521,XL,MTHBSWTR00002522;1999.00;;;;;;;;zerotype;;Winter;;No
1856082;MNHMANAW17 SWTR075B-Brick Mel-1856082;MENS SWEATER;Draft;Sweaters;Mast & Harbour;Adults-Men;Men;;;;Fashion;;2017;S,MTHBSWTR00002515,M,MTHBSWTR00002516,L,MTHBSWTR00002517,XL,MTHBSWTR00002518;1999.00;;;;;;;;zerotype;;Winter;;No
1856080;MNHMANAW17 SWTR075A-mid blue-1856080;MENS SWEATER;Draft;Sweaters;Mast & Harbour;Adults-Men;Men;;;;Fashion;;2017;S,MTHBSWTR00002511,M,MTHBSWTR00002512,L,MTHBSWTR00002513,XL,MTHBSWTR00002514;1999.00;;;;;;;;zerotype;;Winter;;No
1855789;MNH-853670-A-Off white/Navy/Red-1855789;WOMENS SWEATER;Draft;Sweaters;Mast & Harbour;Adults-Women;Women;;;;Fashion;;2017;S,MTHBSWTR00002487,M,MTHBSWTR00002488,L,MTHBSWTR00002489,XL,MTHBSWTR00002490;1299.00;;;;;;;;zerotype;;Winter;;No
1855786;MNH-351339-C-Navy / Mustard-1855786;WOMENS SWEATER;Draft;Sweaters;Mast & Harbour;Adults-Women;Women;;;;Fashion;;2017;S,MTHBSWTR00002475,M,MTHBSWTR00002476,L,MTHBSWTR00002477,XL,MTHBSWTR00002478;1499.00;;;;;;;;zerotype;;Winter;;No
1855780;MNH-WW-OW-01-Black-1855780;WOMENS SWEATER;Draft;Sweaters;Mast & Harbour;Adults-Women;Women;;;;Fashion;;2017;S,MTHBSWTR00002451,M,MTHBSWTR00002452,L,MTHBSWTR00002453,XL,MTHBSWTR00002454;1499.00;;;;;;;;zerotype;;Winter;;No
1855779;MNH-WW-OW-02-Orange-1855779;WOMENS SWEATER;Draft;Sweaters;Mast & Harbour;Adults-Women;Women;;;;Fashion;;2017;S,MTHBSWTR00002447,M,MTHBSWTR00002448,L,MTHBSWTR00002449,XL,MTHBSWTR00002450;1499.00;;;;;;;;zerotype;;Winter;;No
1855741;MNHMANAW17 SWTR070A-NAVY-1855741;MENS SWEATER;Draft;Sweaters;Mast & Harbour;Adults-Men;Men;;;;Fashion;;2017;S,MTHBSWTR00002295,M,MTHBSWTR00002296,L,MTHBSWTR00002297,XL,MTHBSWTR00002298;1499.00;;;;;;;;zerotype;;Winter;;No
1855739;MNHMANAW17 SWTR066A-WHITE-1855739;MENS SWEATER;Draft;Sweaters;Mast & Harbour;Adults-Men;Men;;;;Fashion;;2017;S,MTHBSWTR00002287,M,MTHBSWTR00002288,L,MTHBSWTR00002289,XL,MTHBSWTR00002290;1699.00;;;;;;;;zerotype;;Winter;;No
1855735;MNHMANAW17 SWTR009B-SKY-1855735;MENS SWEATER;Draft;Sweaters;Mast & Harbour;Adults-Men;Men;;;;Fashion;;2017;S,MTHBSWTR00002271,M,MTHBSWTR00002272,L,MTHBSWTR00002273,XL,MTHBSWTR00002274;1999.00;;;;;;;;zerotype;;Winter;;No
1855734;MNHMANAW17 SWTR009A-Indigo-1855734;MENS SWEATER;Draft;Sweaters;Mast & Harbour;Adults-Men;Men;;;;Fashion;;2017;S,MTHBSWTR00002267,M,MTHBSWTR00002268,L,MTHBSWTR00002269,XL,MTHBSWTR00002270;1999.00;;;;;;;;zerotype;;Winter;;No
1855726;MNHMANAW17 SWTR17-C-Sky-1855726;MENS SWEATER;Draft;Sweaters;Mast & Harbour;Adults-Men;Men;;;;Fashion;;2017;S,MTHBSWTR00002235,M,MTHBSWTR00002236,L,MTHBSWTR00002237,XL,MTHBSWTR00002238;2199.00;;;;;;;;zerotype;;Winter;;No
1855724;MNHMANAW17 SWTR032-A-Sky-1855724;MENS SWEATER;Draft;Sweaters;Mast & Harbour;Adults-Men;Men;;;;Fashion;;2017;S,MTHBSWTR00002227,M,MTHBSWTR00002228,L,MTHBSWTR00002229,XL,MTHBSWTR00002230;1999.00;;;;;;;;zerotype;;Winter;;No
1855723;MNHMANAW17 SWTR031-A-Indigo-1855723;MENS SWEATER;Draft;Sweaters;Mast & Harbour;Adults-Men;Men;;;;Fashion;;2017;S,MTHBSWTR00002223,M,MTHBSWTR00002224,L,MTHBSWTR00002225,XL,MTHBSWTR00002226;1999.00;;;;;;;;zerotype;;Winter;;No
1855722;MNHMANAW17 SWTR031-C-Black-1855722;MENS SWEATER;Draft;Sweaters;Mast & Harbour;Adults-Men;Men;;;;Fashion;;2017;S,MTHBSWTR00002219,M,MTHBSWTR00002220,L,MTHBSWTR00002221,XL,MTHBSWTR00002222;1699.00;;;;;;;;zerotype;;Winter;;No
1855721;MNHMANAW17 SWTR031-B-Coral-1855721;MENS SWEATER;Draft;Sweaters;Mast & Harbour;Adults-Men;Men;;;;Fashion;;2017;S,MTHBSWTR00002215,M,MTHBSWTR00002216,L,MTHBSWTR00002217,XL,MTHBSWTR00002218;1699.00;;;;;;;;zerotype;;Winter;;No
1849220;SPENCER-02-INDIGO GRINDAL-1849220;V NECK BRAND CARRIER GRAPHIC;Draft;Tshirts;Roadster;Adults-Men;Men;;;;Fashion;;2017;S,RDSTTSHT00033673,M,RDSTTSHT00033674,L,RDSTTSHT00033675,XL,RDSTTSHT00033676;799.00;;;;;;;;zerotype;;Fall;Planner requested;No
1847596;SABOTEUR-02-PETROLBLUE MEL-1847596;TEXTURED HOODIE LONGLINE TEE;QC Reject;Tshirts;Roadster;Adults-Men;Men;Blue;;;Fashion;Casual;2017;S,RDSTTSHT00032561,M,RDSTTSHT00032562,L,RDSTTSHT00032563,XL,RDSTTSHT00032564;699.00;<a href='/blue?src=pd' class='seolink'>Blue</a> <a href='/solid?src=pd' class='seolink'>solid</a>  T-shirt, has a hood, long sleeves;Sport this trendsetting Roadster tee when you're ready to take your style to the next level.  Wear this blue piece many ways, with dark wash jeans, cuffed chinos and more.;Cotton <br> Machine-wash;The model (height 6') is wearing a size M;;Roadster Men Blue Solid Hood T-shirt;Roadster,ndd17-ggn;zerotype;;Fall;Planner requested;No
1824335;SAHARA-03-Navy-1824335;Mens Textured T-Shirt;QC Reject;Tshirts;Roadster;Adults-Men;Men;Navy Blue;;;Fashion;Casual;2017;S,RDSTTSHT00030179,M,RDSTTSHT00030180,L,RDSTTSHT00030181,XL,RDSTTSHT00030182;699.00;Navy Blue solid  T-shirt, has a round neck, short sleeves;You'll love the softness and durability of this high-fashion Roadster tee.  This navy blue piece can be styled with dark denims and canvas shoes when you're going out to eat with your friends.;Cotton <br> Machine-wash;The model (height 6') is wearing a size M;;Roadster Men Navy Blue Solid Round Neck T-shirt;Roadster,ndd17-ggn;zerotype;;Fall;Planner requested;No
1824333;SAHARA-01-Lt Grey Melange-1824333;Mens Textured T-Shirt;QC Reject;Tshirts;Roadster;Adults-Men;Men;Grey Melange;;;Fashion;Casual;2017;S,RDSTTSHT00030171,M,RDSTTSHT00030172,L,RDSTTSHT00030173,XL,RDSTTSHT00030174;699.00;Grey Melange solid  T-shirt, has a round neck, short sleeves;Stand out this season when you go with the sleek style of a Roadster T-shirt.  A fashionable weekend outfit starts with this grey melange top matched with chinos and your favourite pair of sunglasses to cast an effortlessly cool image.;Cotton <br> Machine-wash;The model (height 6') is wearing a size M;;Roadster Men Grey Melange Solid Round Neck T-shirt;Roadster,ndd17-ggn;zerotype;;Fall;Planner requested;No
1790306;APR-DENIM-05M-BLACK DENIM WASH 5-1790306;HARRIS HW DENIM;Draft;Shirts;Roadster;Adults-Men;Men;;;;Fashion;;2017;S,RDSTSHRT00020360,M,RDSTSHRT00020361,L,RDSTSHRT00020362,XL,RDSTSHRT00020363;1599.00;;;;;;;;zerotype;;Fall;Planner requested;No
1421043;844803-001-BLACK/METALLIC SILVER-BLACK-1421043;ZOOM TRAIN INCREDIBLY FAST;QC Reject;Sports Shoes;Nike;Adults-Men;Men;Black;;;Fashion;Sports;2016;US7,NIKESPSH00118158,US8,NIKESPSH00118159,US9,NIKESPSH00118160,US10,NIKESPSH00118161,US11,NIKESPSH00118162,US12,NIKESPSH00118163,US13,NIKESPSH00118164,US6,NIKESPSH00118206,US8.5,NIKESPSH00118354,US9.5,NIKESPSH00118355,US10.5,NIKESPSH00118356,US11.5,NIKESPSH00118357;7995.00;A pair of black training&nbsp <a target="" rel="">shoes</a> with central lace-ups<br>Mesh and synthetic leather textured upper<br>Cushioned footbed<br>A thick midsole,&nbsp has NikeZoom technology for superior support during movement<br>Textured outsole with patterned grooves,&nbsp has NikeZoom technology for superior support during movement<br>Warranty: 6 months against manufacturing defects (not valid on products with more than 20% discount)<br>;Nike presents its new range of active footwear for all your fitness requirements. Pick this pair of training shoes and team it with a tee and shorts when heading to the gym.<br>;Mesh and synthetic<br>Wipe with a clean, dry cloth when needed<br>;;;Nike Men Black Zoom Training Shoes;ylesforextra5-jan17,budget-deal,vday-coupon-offer,vday-nsp,welcome-to-myntra-feb-new,b2-35-b3-40-crazy40-feb19,coupon-crush-6,coupon-crush-8,coupon-crush-9,coupon-crush-10,ltod-feb24,wishlisters-wish10-feb25,first1000-lastday300,welcome-to-march,superhour-feb26,balloon-blast-500,happy-hour-mar19,welcome-to-march-new,welcome-to-mar17-new,rs300-off-mar17,mar29-super-hour,welcome-to-myntra-april,extra30-apr04,tbfg-fitfabulous-sports,tbfg-sportsfanatic,tbfg-sports-fitfabulous-brands-nike,tbfg-sportsfashion-athleisurelyyours-viewall,tbfg-sports-fitfabulous-day3-dancingaerobicsshoes,tbfg-sports-fitfabulous-day2-trainingshoes,SportsAllStyles-2017,buy50-extra50-may03,flash-sale-may6,apr15-hh,sportsallstyles-2017,welcome-to-myntra-may-big,price-surge-may25,may27-price-surge,hh-jun2,offer999-jun4,CASUAL-JUNE-17,eors-sports-min2000off,eors-rtf-allstyles,ftod-eorsj17-30,wonder-hour-jun25,eors-half-price-store,bb-flash-50,uber-offer-aug-rtf,all-sports-styles-2017,min-offer-on-sportswear,welcome-to-myntra-sep2017,aw17-new-season,sep-sports-fest-min-2000,welcome-to-mynt-v2sep2017,outdoorfest17,outdoor-17,bbd17-coupon-offer,coh-exp-aug,min2k-sports,2koff-sports-ftw,mitm-mainbanner-oct;zerotype;;Winter;sportsallstyles-2017;No
1154224;WLWCDRS160029-JET BLACK-1154224;MILA DRESS;QC Reject;Dresses;Wills Lifestyle;Adults-Women;Women;Black;;;Fashion;Casual;2016;L,WILIDRSS00000462,M,WILIDRSS00000463,S,WILIDRSS00000477;2799.00;Black printed woven sheath dress, has a round neck, sleeveless, concealed zip closure,, straight hem;Look and feel your absolute best in this elegant Wills Lifestyle dress.  Spruce up this printed black piece for work by layering it with a light sweater and some ballerinas.;Polyester <br> Machine-wash;Fitted<br> The model (height 5'8") is wearing a size S;;Wills Lifestyle Women Black Printed Sheath Dress;Wills Lifestyle,ss16launch-women-allnewdresses;zerotype;;Spring;u-card;No
