Style ID;Vendor Article Number;Vendor Article Name;Active Status;Article type;Brand;Age Group;Gender;Base Colour;Colour1;Colour2;Fashion Type;Usage;Year;Size - SKU code pair;MRP;Style Description;Style Note;Materials and Care Description;Size and Fit Description;Size Chart Path;Product Display Name;Tags;Product Type;Classification Brand;Season;Comments;Upload Images
2078106;86926-BROWN-2078106;86926 BROWN;Draft;Formal Shoes;Alberto Torresi;Adults-Men;Men;;;;Core;;2017;EURO40,ALTRFOSH00001287,EURO41,ALTRFOSH00001288,EURO42,ALTRFOSH00001289,EURO43,ALTRFOSH00001290,EURO44,ALTRFOSH00001291;2795.00;;;<p>Leather</p>;;;;;zerotype;;Winter;;No
2078105;86926-BLACK-2078105;86926 BLACK;Draft;Formal Shoes;Alberto Torresi;Adults-Men;Men;;;;Core;;2017;EURO40,ALTRFOSH00001282,EURO41,ALTRFOSH00001283,EURO42,ALTRFOSH00001284,EURO43,ALTRFOSH00001285,EURO44,ALTRFOSH00001286;2795.00;;;<p>Leather</p>;;;;;zerotype;;Winter;;No
2078104;86923-TAN-2078104;86923 TAN;Draft;Formal Shoes;Alberto Torresi;Adults-Men;Men;;;;Core;;2017;EURO40,ALTRFOSH00001277,EURO41,ALTRFOSH00001278,EURO42,ALTRFOSH00001279,EURO43,ALTRFOSH00001280,EURO44,ALTRFOSH00001281;2795.00;;;<p>Leather</p>;;;;;zerotype;;Winter;;No
2078103;86923-BLACK-2078103;86923 BLACK;Draft;Formal Shoes;Alberto Torresi;Adults-Men;Men;;;;Core;;2017;EURO40,ALTRFOSH00001272,EURO41,ALTRFOSH00001273,EURO42,ALTRFOSH00001274,EURO43,ALTRFOSH00001275,EURO44,ALTRFOSH00001276;2795.00;;;<p>Leather</p>;;;;;zerotype;;Winter;;No
2078102;86877-TAN-2078102;86877 TAN;Draft;Formal Shoes;Alberto Torresi;Adults-Men;Men;;;;Core;;2017;EURO40,ALTRFOSH00001267,EURO41,ALTRFOSH00001268,EURO42,ALTRFOSH00001269,EURO43,ALTRFOSH00001270,EURO44,ALTRFOSH00001271;2795.00;;;<p>Leather</p>;;;;;zerotype;;Winter;;No
2078101;86877-BLACK-2078101;86877 BLACK;Draft;Formal Shoes;Alberto Torresi;Adults-Men;Men;;;;Core;;2017;EURO40,ALTRFOSH00001262,EURO41,ALTRFOSH00001263,EURO42,ALTRFOSH00001264,EURO43,ALTRFOSH00001265,EURO44,ALTRFOSH00001266;2795.00;;;<p>Leather</p>;;;;;zerotype;;Winter;;No
2078100;86818-BROWN-2078100;86818 BROWN;Draft;Formal Shoes;Alberto Torresi;Adults-Men;Men;;;;Core;;2017;EURO40,ALTRFOSH00001257,EURO41,ALTRFOSH00001258,EURO42,ALTRFOSH00001259,EURO43,ALTRFOSH00001260,EURO44,ALTRFOSH00001261;2995.00;;;<p>Leather</p>;;;;;zerotype;;Winter;;No
2078097;54382-BROWN-2078097;54382 BROWN;Draft;Formal Shoes;Alberto Torresi;Adults-Men;Men;;;;Core;;2017;EURO40,ALTRFOSH00001242,EURO41,ALTRFOSH00001243,EURO42,ALTRFOSH00001244,EURO43,ALTRFOSH00001245,EURO44,ALTRFOSH00001246;2595.00;;;<p>Leather</p>;;;;;zerotype;;Winter;;No
2078096;51536-BROWN-2078096;51536 BROWN;Draft;Formal Shoes;Alberto Torresi;Adults-Men;Men;;;;Core;;2017;EURO40,ALTRFOSH00001237,EURO41,ALTRFOSH00001238,EURO42,ALTRFOSH00001239,EURO43,ALTRFOSH00001240,EURO44,ALTRFOSH00001241;2595.00;;;<p>Leather</p>;;;;;zerotype;;Winter;;No
2078095;51536-BLACK-2078095;51536 BLACK;Draft;Formal Shoes;Alberto Torresi;Adults-Men;Men;;;;Core;;2017;EURO40,ALTRFOSH00001232,EURO41,ALTRFOSH00001233,EURO42,ALTRFOSH00001234,EURO43,ALTRFOSH00001235,EURO44,ALTRFOSH00001236;2595.00;;;<p>Leather</p>;;;;;zerotype;;Winter;;No
2075678;DAMS-153A-Grey-2075678;Men Non Denim Shorts;Draft;Shorts;Moda Rapido;Adults-Men;Men;;;;Fashion;;2017;28,MAROSHOR00000926,30,MAROSHOR00000927,32,MAROSHOR00000928,34,MAROSHOR00000929,36,MAROSHOR00000930,38,MAROSHOR00000931;1399.00;;;<p>100% COTTON</p>;;;;;zerotype;;Fall;;No
2066986;110031294005-Black-2066986;110031294Black;Draft;Kurtas;RANGMANCH BY PANTALOONS;Adults-Women;Women;;;;Fashion;;2017;XS,RNMHKRTA00008985,S,RNMHKRTA00008986,M,RNMHKRTA00008987,L,RNMHKRTA00008988,XL,RNMHKRTA00008989;999.00;;;<p>Cotton</p>;;;;;zerotype;;Winter;;No
2066971;110030785006-Magenta-2066971;110030785Magenta;Draft;Kurtas;RANGMANCH BY PANTALOONS;Adults-Women;Women;;;;Fashion;;2017;XS,RNMHKRTA00008912,S,RNMHKRTA00008913,M,RNMHKRTA00008914,L,RNMHKRTA00008915,XL,RNMHKRTA00008916,XXL,RNMHKRTA00008917;999.00;;;<p>Rayon</p>;;;;;zerotype;;Winter;;No
2066969;110030783005-Blue-2066969;110030783Blue;Draft;Kurtas;RANGMANCH BY PANTALOONS;Adults-Women;Women;;;;Fashion;;2017;XS,RNMHKRTA00008902,S,RNMHKRTA00008903,M,RNMHKRTA00008904,L,RNMHKRTA00008905,XL,RNMHKRTA00008906;1199.00;;;<p>Rayon</p>;;;;;zerotype;;Winter;;No
2066966;110030780005-Off White-2066966;110030780Off White;Draft;Kurtas;RANGMANCH BY PANTALOONS;Adults-Women;Women;;;;Fashion;;2017;XS,RNMHKRTA00008887,S,RNMHKRTA00008888,M,RNMHKRTA00008889,L,RNMHKRTA00008890,XL,RNMHKRTA00008891;999.00;;;<p>Crepe</p>;;;;;zerotype;;Winter;;No
2066964;110030778006-Yellow-2066964;110030778Yellow;Draft;Kurtas;RANGMANCH BY PANTALOONS;Adults-Women;Women;;;;Fashion;;2017;XS,RNMHKRTA00008875,S,RNMHKRTA00008876,M,RNMHKRTA00008877,L,RNMHKRTA00008878,XL,RNMHKRTA00008879,XXL,RNMHKRTA00008880;999.00;;;<p>Crepe</p>;;;;;zerotype;;Winter;;No
2066963;110030777006-Yellow-2066963;110030777Yellow;Draft;Kurtas;RANGMANCH BY PANTALOONS;Adults-Women;Women;;;;Fashion;;2017;XS,RNMHKRTA00008869,S,RNMHKRTA00008870,M,RNMHKRTA00008871,L,RNMHKRTA00008872,XL,RNMHKRTA00008873,XXL,RNMHKRTA00008874;899.00;;;<p>Crepe</p>;;;;;zerotype;;Winter;;No
2066961;110030775006-Black-2066961;110030775Black;Draft;Kurtas;RANGMANCH BY PANTALOONS;Adults-Women;Women;;;;Fashion;;2017;XS,RNMHKRTA00008857,S,RNMHKRTA00008858,M,RNMHKRTA00008859,L,RNMHKRTA00008860,XL,RNMHKRTA00008861,XXL,RNMHKRTA00008862;1199.00;;;<p>Rayon</p>;;;;;zerotype;;Winter;;No
2066766;110031484006-Indigo-2066766;110031484Indigo;Draft;Palazzos;RANGMANCH BY PANTALOONS;Adults-Women;Women;;;;Fashion;;2017;M,RNMHPLZS00000105,XL,RNMHPLZS00000106;1199.00;;;<p>Rayon</p>;;;;;zerotype;;Winter;;No
2066765;110031484004-Black-2066765;110031484Black;Draft;Palazzos;RANGMANCH BY PANTALOONS;Adults-Women;Women;;;;Fashion;;2017;M,RNMHPLZS00000103,XL,RNMHPLZS00000104;999.00;;;<p>Rayon</p>;;;;;zerotype;;Winter;;No
2066762;110031482004-Navy-2066762;110031482Navy;Draft;Palazzos;RANGMANCH BY PANTALOONS;Adults-Women;Women;;;;Fashion;;2017;M,RNMHPLZS00000097,XL,RNMHPLZS00000098;1199.00;;;<p>Rayon</p>;;;;;zerotype;;Winter;;No
2066761;110031482002-Orange-2066761;110031482Orange;Draft;Palazzos;RANGMANCH BY PANTALOONS;Adults-Women;Women;;;;Fashion;;2017;M,RNMHPLZS00000095,XL,RNMHPLZS00000096;1199.00;;;<p>Rayon</p>;;;;;zerotype;;Winter;;No
2061566;MJ-10947A-WHITE-2061566;MJ-10947A WHITE;Inactive - PMM - Catalog;Casual Shoes;WROGN;Adults-Men;Men;White;;;;Casual;2017;EURO40,WRGNCASH00001255,EURO41,WRGNCASH00001256,EURO42,WRGNCASH00001257,EURO43,WRGNCASH00001258,EURO44,WRGNCASH00001259,EURO45,WRGNCASH00001260;3299.00;A pair of round-toe white sneakers, has regular styling, lace-up detail<br />Synthetic upper<br />Cushioned footbed<br />Textured and patterned outsole<br />Warranty: 3 months from the date of purchase against manufacturing defects;Trendy casual shoes from WROGN will give your style a whole new look.  These white shoes can be teamed with slim jeans and a trendy button-down shirt when you're meeting the guys for dinner and drinks.;Synthetic <br /> Wipe with a clean, dry cloth to remove dust;;;WROGN Men White Sneakers;WROGN,dutyfree-sept17,wrogn-new-arrivals;zerotype;;Fall;add;No
2061499;WSD189-Blue-2061499;WSD189 Blue;Draft;Casual Shoes;WROGN;Adults-Men;Men;;;;;;2017;Euro 40,WRGNCASH00001099,Euro 41,WRGNCASH00001100,Euro 42,WRGNCASH00001101,Euro 43,WRGNCASH00001102,Euro 44,WRGNCASH00001103,Euro 45,WRGNCASH00001104;3099.00;;;;;;;;zerotype;;Fall;Planner request;No
2061496;WSD184-Blue-2061496;WSD184 Blue;Draft;Casual Shoes;WROGN;Adults-Men;Men;;;;;;2017;Euro 40,WRGNCASH00001093,Euro 41,WRGNCASH00001094,Euro 42,WRGNCASH00001095,Euro 43,WRGNCASH00001096,Euro 44,WRGNCASH00001097,Euro 45,WRGNCASH00001098;3299.00;;;;;;;;zerotype;;Fall;Planner request;No
2061491;WSD 109 W-Navy-2061491;WSD 109 W Navy;Draft;Casual Shoes;WROGN;Adults-Men;Men;;;;;;2017;Euro 40,WRGNCASH00001081,Euro 41,WRGNCASH00001082,Euro 42,WRGNCASH00001083,Euro 43,WRGNCASH00001084,Euro 44,WRGNCASH00001085,Euro 45,WRGNCASH00001086;3499.00;;;;;;;;zerotype;;Fall;Planner request;No
2060504;8903439465858-RED-2060504;DREW W1 (RFID)-ROMA MELBOURNE RANCH-BLUE RED;Draft;Handbags;Hidesign;Adults-Women;Women;;;;Fashion;;2017;Onesize,HDNGHDBG00001131;2195.00;;;;;;;;zerotype;;Fall;;No
2059410;HNSHS-83-White/Blue-2059410;Men Checks Shirts;BIS + Content Complete;Shirts;HERE&NOW;Adults-Men;Men;White;Blue;;Fashion;Casual;2017;S,HENWSHRT00001145,M,HENWSHRT00001146,L,HENWSHRT00001147,XL,HENWSHRT00001148,XXL,HENWSHRT00001149;1499.00;White and blue checked casual shirt, has a spread collar, button placket, 1 pocket, long sleeves, curved hem;This checked shirt from HERE&NOW will make you look your casual best.  You'll love putting this white piece on with some trainers and chinos for the perfect outdoor activity with your friends.;Cotton <br> Machine-wash;Regular Fit<br> The model (height 6') is wearing a size M;;HERE&NOW Men White & Blue Regular Fit Checked Casual Shirt;HERE&NOW;zerotype;;Fall;;No
2057173;MN-39057697001-DARKS-MULTI-2057173;Wallets;Draft;Wallets;Accessorize;Adults-Women;Women;;;;Fashion;;2017;Onesize,ACZEWLLT00000453;1545.00;;;;;;;;zerotype;;Fall;;No
2052537;LYST516S18214-Blue-2052537;LYST516S18214;Draft;Sweatshirts;Louis Philippe Sport;Adults-Men;Men;Blue;;;Fashion;;2016;L,LSPSSWSH00000065,XL,LSPSSWSH00000066,XXL,LSPSSWSH00000067,M,LSPSSWSH00000068;2499.00;;;<p>Dry Clean Wash</p>;;;;;zerotype;;Winter;;No
2052530;LYST516S03653-Red-2052530;LYST516S03653;Draft;Sweatshirts;Louis Philippe Sport;Adults-Men;Men;Red;;;Fashion;;2016;S,LSPSSWSH00000045,L,LSPSSWSH00000046,XL,LSPSSWSH00000047,XXL,LSPSSWSH00000048,M,LSPSSWSH00000049;2499.00;;;<p>Dry Clean Wash</p>;;;;;zerotype;;Winter;;No
2052503;LYSW516S18205-Grey-2052503;LYSW516S18205;Draft;Sweaters;Louis Philippe Sport;Adults-Men;Men;Grey;;;Fashion;;2016;M,LSPSSWTR00000235,XL,LSPSSWTR00000236,XXL,LSPSSWTR00000237,S,LSPSSWTR00000238,L,LSPSSWTR00000239;2799.00;;;<p>Dry Clean Wash</p>;;;;;zerotype;;Winter;;No
2052492;LYSW516S05521-Grey-2052492;LYSW516S05521;Draft;Sweaters;Louis Philippe Sport;Adults-Men;Men;Grey;;;Fashion;;2016;L,LSPSSWTR00000194,XL,LSPSSWTR00000195,XXL,LSPSSWTR00000196,M,LSPSSWTR00000197,S,LSPSSWTR00000198;2999.00;;;<p>Dry Clean Wash</p>;;;;;zerotype;;Winter;;No
2044928;450097312006-GRY/SIL-2044928;GRID COHESION 10;QC Reject;Sports Shoes;saucony;Adults-Men;Men;;;;Fashion;;2017;US7,SCNYSPSH00000199,US8,SCNYSPSH00000200,US9,SCNYSPSH00000201,US10,SCNYSPSH00000202,US11,SCNYSPSH00000203,US12,SCNYSPSH00000204;5499.00;;;<p>Soaking in water May damage to Product ,for cleaning , just wipe dirt off with moist cloth, do not wash your Shoe In washing machine</p>;;;;all-sports-styles-2017,SPORTSGAME15,extra20-sports,sports-shoes-special-discount-bsf,fw-17-sports-new,welcome-to-myntra-sep2017;zerotype;;Fall;welcome-to-myntra-sep2017;No
2043510;8907349051712-Indigo-2043510;ZCMWJNF017003;Draft;Jeans;John Players;Adults-Men;Men;;;;Fashion;;2016;32,JOPLJENS00006210,36,JOPLJENS00006211,38,JOPLJENS00006212;1799.00;;;<p>Cotton</p>;;;;;zerotype;;Winter;;No
2040413;17A8SAND3020I-901-2040413;LEATHER SANDAL WITH VELCRO STRAP;Draft;Sandals;United Colors of Benetton;Adults-Men;Men;;;;Fashion;Casual;2017;EURO40,UCFBSNDL00000550,EURO41,UCFBSNDL00000551,EURO42,UCFBSNDL00000552,EURO43,UCFBSNDL00000553,EURO44,UCFBSNDL00000554,EURO45,UCFBSNDL00000555;2999.00;;;;;;;ucbftwaw17gnd,ucb-aw17-all;zerotype;;Winter;ADD;No
2040409;17A8SAND3005I-902-2040409;MULTI STRAP LEATHER SANDAL;Draft;Sandals;United Colors of Benetton;Adults-Men;Men;;;;Fashion;Casual;2017;EURO40,UCFBSNDL00000532,EURO41,UCFBSNDL00000533,EURO42,UCFBSNDL00000534,EURO43,UCFBSNDL00000535,EURO44,UCFBSNDL00000536,EURO45,UCFBSNDL00000537;2999.00;;;;;;;ucbftwaw17gnd,ucb-aw17-all;zerotype;;Winter;ADD;No
2040408;17A8SAND3005I-901-2040408;MULTI STRAP LEATHER SANDAL;Draft;Sandals;United Colors of Benetton;Adults-Men;Men;;;;Fashion;Casual;2017;EURO40,UCFBSNDL00000526,EURO41,UCFBSNDL00000527,EURO42,UCFBSNDL00000528,EURO43,UCFBSNDL00000529,EURO44,UCFBSNDL00000530,EURO45,UCFBSNDL00000531;2999.00;;;;;;;ucbftwaw17gnd,ucb-aw17-all;zerotype;;Winter;ADD;No
2040321;17A8SNEA4003I-902-2040321;PU SNEAKER WITH BLIND EYELET;Draft;Casual Shoes;United Colors of Benetton;Adults-Men;Men;;;;Fashion;Casual;2017;EURO40,UCFBCASH00104977,EURO41,UCFBCASH00104978,EURO42,UCFBCASH00104979,EURO43,UCFBCASH00104980,EURO44,UCFBCASH00104981,EURO45,UCFBCASH00104982;3499.00;;;;;;;ucbftwaw17gnd,ucb-aw17-all;zerotype;;Winter;ADD;No
2040320;17A8SNEA4003I-901-2040320;PU SNEAKER WITH BLIND EYELET;Draft;Casual Shoes;United Colors of Benetton;Adults-Men;Men;;;;Fashion;Casual;2017;EURO40,UCFBCASH00104971,EURO41,UCFBCASH00104972,EURO42,UCFBCASH00104973,EURO43,UCFBCASH00104974,EURO44,UCFBCASH00104975,EURO45,UCFBCASH00104976;3499.00;;;;;;;ucbftwaw17gnd,ucb-aw17-all;zerotype;;Winter;ADD;No
2040280;17A8BOOT3113I-902-2040280;LEATHER CHELSEA BOOT;Draft;Casual Shoes;United Colors of Benetton;Adults-Men;Men;;;;Fashion;Casual;2017;EURO40,UCFBCASH00104768,EURO41,UCFBCASH00104769,EURO42,UCFBCASH00104770,EURO43,UCFBCASH00104771,EURO44,UCFBCASH00104772,EURO45,UCFBCASH00104773;5499.00;;;;;;;ucbftwaw17gnd,ucb-aw17-all;zerotype;;Winter;ADD;No
2040142;HRX-DMJ-18-Indigo-2040142;Men Denim Bottom;Draft;Jeans;HRX by Hrithik Roshan;Adults-Men;Men;;;;Fashion;;2017;28,HBHRJENS00002580,30,HBHRJENS00002581,32,HBHRJENS00002582,34,HBHRJENS00002583,36,HBHRJENS00002584,38,HBHRJENS00002585;2499.00;;;<p>75%Cotton+23%Polyester+2%Elastane</p>;;;;;zerotype;;Fall;;No
2040139;HRX-DMJ-15-Indigo-2040139;Men Denim Bottom;Draft;Jeans;HRX by Hrithik Roshan;Adults-Men;Men;;;;Fashion;;2017;28,HBHRJENS00002562,30,HBHRJENS00002563,32,HBHRJENS00002564,34,HBHRJENS00002565,36,HBHRJENS00002566,38,HBHRJENS00002567;2499.00;;;<p>75%Cotton+23%Polyester+2%Elastane</p>;;;;;zerotype;;Fall;;No
2038067;FRL-sep-56-Black/Navy-2038067;FS-VETTEL CHECK SHIRTS;Draft;Shirts;Roadster;Adults-Men;Men;;;;Fashion;;2017;S,RDSTSHRT00023063,M,RDSTSHRT00023064,L,RDSTSHRT00023065,XL,RDSTSHRT00023066;1299.00;;;;;;;;zerotype;;Fall;;No
2038065;FRL-sep-36-Black/Navy-2038065;FS-VETTEL CHECK SHIRTS;Draft;Shirts;Roadster;Adults-Men;Men;;;;Fashion;;2017;S,RDSTSHRT00023055,M,RDSTSHRT00023056,L,RDSTSHRT00023057,XL,RDSTSHRT00023058;1299.00;;;;;;;;zerotype;;Fall;;No
2038063;FRL-AUG-59-Navy/maroon-2038063;FS-VETTEL CHECK SHIRTS;Draft;Shirts;Roadster;Adults-Men;Men;;;;Fashion;;2017;S,RDSTSHRT00023047,M,RDSTSHRT00023048,L,RDSTSHRT00023049,XL,RDSTSHRT00023050;1299.00;;;;;;;;zerotype;;Fall;;No
2038056;FRL-AUG-35-Navy/Maroon-2038056;FS-VETTEL CHECK SHIRTS;Draft;Shirts;Roadster;Adults-Men;Men;;;;Fashion;;2017;S,RDSTSHRT00023019,M,RDSTSHRT00023020,L,RDSTSHRT00023021,XL,RDSTSHRT00023022;1299.00;;;;;;;;zerotype;;Fall;;No
2038054;FRL-AUG-34-Lt green/Navy-2038054;FS-VETTEL CHECK SHIRTS;Draft;Shirts;Roadster;Adults-Men;Men;;;;Fashion;;2017;S,RDSTSHRT00023015,M,RDSTSHRT00023016,L,RDSTSHRT00023017,XL,RDSTSHRT00023018;1299.00;;;;;;;;zerotype;;Fall;;No
2038046;FRL-AUG-60-Navy/Green-2038046;FS-VETTEL CHECK SHIRTS;Draft;Shirts;Roadster;Adults-Men;Men;;;;Fashion;;2017;S,RDSTSHRT00022983,M,RDSTSHRT00022984,L,RDSTSHRT00022985,XL,RDSTSHRT00022986;1299.00;;;;;;;;zerotype;;Fall;;No
2038045;FRL-AUG-58-Navy/Lt grey-2038045;FS-VETTEL CHECK SHIRTS;Draft;Shirts;Roadster;Adults-Men;Men;;;;Fashion;;2017;S,RDSTSHRT00022979,M,RDSTSHRT00022980,L,RDSTSHRT00022981,XL,RDSTSHRT00022982;1399.00;;;;;;;;zerotype;;Fall;;No
2038044;FRL-AUG-43-Black/grey-2038044;FS-VETTEL CHECK SHIRTS;Draft;Shirts;Roadster;Adults-Men;Men;;;;Fashion;;2017;S,RDSTSHRT00022975,M,RDSTSHRT00022976,L,RDSTSHRT00022977,XL,RDSTSHRT00022978;1299.00;;;;;;;;zerotype;;Fall;;No
2038043;FRL-AUG-14-Black/grey-2038043;FS-VETTEL CHECK SHIRTS;Draft;Shirts;Roadster;Adults-Men;Men;;;;Fashion;;2017;S,RDSTSHRT00022971,M,RDSTSHRT00022972,L,RDSTSHRT00022973,XL,RDSTSHRT00022974;1299.00;;;;;;;;zerotype;;Fall;;No
2038035;FRL-SEP-03-Black/green-2038035;FS-VETTEL CHECK SHIRTS;Draft;Shirts;Roadster;Adults-Men;Men;;;;Fashion;;2017;S,RDSTSHRT00022939,M,RDSTSHRT00022940,L,RDSTSHRT00022941,XL,RDSTSHRT00022942;1299.00;;;;;;;;zerotype;;Fall;;No
2038034;FRL-SEP-02-Black/White-2038034;FS-VETTEL CHECK SHIRTS;Draft;Shirts;Roadster;Adults-Men;Men;;;;Fashion;;2017;S,RDSTSHRT00022935,M,RDSTSHRT00022936,L,RDSTSHRT00022937,XL,RDSTSHRT00022938;1199.00;;;;;;;;zerotype;;Fall;;No
2038033;FRL-SEP-34-Black/DK Grey-2038033;FS-VETTEL CHECK SHIRTS;Draft;Shirts;Roadster;Adults-Men;Men;;;;Fashion;;2017;S,RDSTSHRT00022931,M,RDSTSHRT00022932,L,RDSTSHRT00022933,XL,RDSTSHRT00022934;1299.00;;;;;;;;zerotype;;Fall;;No
2038032;FRL-AUG-27-Black/Grey-2038032;FS-VETTEL CHECK SHIRTS;Draft;Shirts;Roadster;Adults-Men;Men;;;;Fashion;;2017;S,RDSTSHRT00022927,M,RDSTSHRT00022928,L,RDSTSHRT00022929,XL,RDSTSHRT00022930;1199.00;;;;;;;;zerotype;;Fall;;No
2031921;INV-AW17S013A;Invictus Slim Fit Sport Shirts;Tech Reject;Shirts;INVICTUS;Adults-Men;Men;White;;;Fashion;Formal;2017;38,TILCSHRT00005771,39,TILCSHRT00005772,40,TILCSHRT00005773,42,TILCSHRT00005774,44,TILCSHRT00005775;1599.00;Cut & Sew Slim Fit <a href='/formal?src=pd' class='seolink'>Formal</a> Shirt;;100% Cotton;;;;invictus-Sports,invictus-Casual,men-sports-wear,Invictus-Sport,invictus-sport,Invictus-Sport-Shirts,sports-shirts,09092017-sport,invictus-sports,mens-sports,inv-sport-11092017;zerotype;;Winter;add;No
2031567;PSF31701571-WhiteWithRed-2031567;PSF31701571;QC Reject;Shirts;Peter England;Adults-Men;Men;White;;;Fashion;;2016;40,PTENSHRT00022377,42,PTENSHRT00022378,39,PTENSHRT00022379,44,PTENSHRT00022380,46,PTENSHRT00022381;899.00;;;<p>55%Polyester45%Cotton</p>;;;;;zerotype;;Spring;On Hold Request;No
2026217;CONCEPT 4B-SAND SINK-2026217;MENS MOTO GP CHINO;On Hold - Other;Trousers;Roadster;Adults-Men;Men;;;;Fashion;;2017;28,RDSTTRSR00006439,30,RDSTTRSR00006440,32,RDSTTRSR00006441,34,RDSTTRSR00006442,36,RDSTTRSR00006443;2199.00;;;;;;;rd-free-lander-men,rd-menbd-bottoms;zerotype;;Fall;rd-menbd-bottoms;No
2026208;CONCEPT 2B-SAND SINK-2026208;MENS MOTO GP CHINO;Active;Trousers;Roadster;Adults-Men;Men;Khaki;;;Fashion;Casual;2017;28,RDSTTRSR00006399,30,RDSTTRSR00006400,32,RDSTTRSR00006401,34,RDSTTRSR00006402,36,RDSTTRSR00006403;2099.00;Khaki solid mid-rise trousers, has a button closure closure, 4 pockets;These trendy chino trousers from Roadster will help you elevate your everyday style.  You can style this khaki pair with a Polo T-shirt and easy loafers when you're going to lunch with your friends.;Cotton <br />Machine-wash;Slim fit<br />The model (height 6') is wearing a size 32;;Roadster Men Khaki Slim Fit Solid Trousers;Roadster;zerotype;;Fall;No comment entered;No
2026203;CONCEPT 1B-SAND SINK-2026203;MENS MOTO GP CHINO;Active;Trousers;Roadster;Adults-Men;Men;Khaki;;;Fashion;Casual;2017;28,RDSTTRSR00006379,30,RDSTTRSR00006380,32,RDSTTRSR00006381,34,RDSTTRSR00006382,36,RDSTTRSR00006383;1999.00;Khaki solid mid-rise trousers, has a button closure closure, 6 pockets;Opt for these fashion-forward chino trousers from Roadster when you need a style upgrade.  Style this khaki pair with a handsome T-shirt and dockers when you're going out on the town with your friends.;Cotton <br />Machine-wash;Slim fit<br />The model (height 6') is wearing a size 32;;Roadster Men Khaki Slim Fit Solid Trousers;Roadster;zerotype;;Fall;No comment entered;No
2021792;ETAW17MS010B-White/Navy-2021792;COLOUR BLOCK SHIRT;Draft;Shirts;ether;Adults-Men;Men;;;;Fashion;;2017;S,ETHRSHRT00001849,M,ETHRSHRT00001850,L,ETHRSHRT00001851,XL,ETHRSHRT00001852;1599.00;;;;;;;;zerotype;;Fall;;No
2021791;ETAW17MS010A-Lt. blue/Dk. Blue-2021791;COLOUR BLOCK SHIRT;Draft;Shirts;ether;Adults-Men;Men;;;;Fashion;;2017;S,ETHRSHRT00001845,M,ETHRSHRT00001846,L,ETHRSHRT00001847,XL,ETHRSHRT00001848;1599.00;;;;;;;;zerotype;;Fall;;No
2020123;S7725-Char-2020123;Sports Track;Inactive - PMM - Catalog;Shorts;Chromozome;Adults-Men;Men;Black;;;Core;Casual;2017;S,CHROTRPT00000271,M,CHROTRPT00000272,L,CHROTRPT00000273,XL,CHROTRPT00000274;899.00;Black solid mid-rise regular shorts, has 2 pockets, a slip-on closure;When you need to upgrade your summer wardrobe, opt for these casual black solid shorts.  Match this black pair with a handsome shirt and easy loafers for your next date night.;Cotton <br /> Machine-wash;Regular Fit <br /> The model (height 6') is wearing a size 32;;Chromozome Men Black Solid Regular Shorts;Chromozome;zerotype;;Fall;Image Mismatch;No
2009012;MNH MAN SS17 SHIRT 004-L2-Blue White-2009012;Single Pocket YD Shirt;PreActive;Shirts;Mast & Harbour;Adults-Men;Men;Blue;White;;Fashion;Casual;2017;S,MTHBTSHT00009779,M,MTHBTSHT00009780,L,MTHBTSHT00009783,XL,MTHBTSHT00009785;1899.00;Blue and white checked casual shirt, has a spread collar, button placket, 1 pocket, long sleeves, curved hem;This shirt from Mast & Harbour will give you the perfect amount of comfort and durability.  You'll love putting this blue piece on with some trainers and chinos for the perfect outdoor activity with your friends.;Cotton <br /> Machine-wash;Regular Fit<br /> The model (height 6') is wearing a size 40;;Mast & Harbour Men Blue & White Regular Fit Checked Casual Shirt;Mast & Harbour;zerotype;;Fall;Article type change  :- Tshirts to shirts in Dexter;No
2009010;MNH MAN SS17 SHIRT 004-K2-Red White-2009010;Single Pocket YD Shirt;PreActive;Shirts;Mast & Harbour;Adults-Men;Men;Red;White;;Fashion;Casual;2017;S,MTHBTSHT00009770,M,MTHBTSHT00009772,L,MTHBTSHT00009774,XL,MTHBTSHT00009776;1899.00;Red and white checked casual shirt, has a spread collar, button placket, 1 pocket, long sleeves, curved hem;Spruce up your look with this handsome shirt from Mast & Harbour.  This red piece is the perfect fall shirt when you put it with a pair of jeans and a lightweight jacket to enjoy the crisper weather.;Cotton <br /> Machine-wash;Regular Fit<br /> The model (height 6') is wearing a size 40;;Mast & Harbour Men Red & White Regular Fit Checked Casual Shirt;Mast & Harbour;zerotype;;Fall;Article type change  :- Tshirts to shirts in Dexter;No
2009004;MNH MAN SS17 SHIRT 004-H2-Blue Checks-2009004;Single Pocket YD Shirt;Inactive - PMM - Catalog;Shirts;Mast & Harbour;Adults-Men;Men;;;;Fashion;;2017;S,MTHBTSHT00009746,M,MTHBTSHT00009748,L,MTHBTSHT00009749,XL,MTHBTSHT00009752;1999.00;;;;;;;;zerotype;;Fall;Article type change  :- Tshirts to shirts in Dexter;No
2006898;17A4RC1E9771I-901-2006898;Slim fit ankle length with logo at back;QC Reject;Jeans;United Colors of Benetton;Adults-Women;Women;Blue;;;Fashion;Casual;2017;24,UCFBJENS00001842,26,UCFBJENS00001843,28,UCFBJENS00001844,30,UCFBJENS00001845,32,UCFBJENS00001846,34,UCFBJENS00001847;2499.00;Blue medium wash 5-pocket mid-rise jeans, clean look with light fade, has a button and zip closure, waistband with belt loops;You'll really like how comfortable these high-end United Colors of Benetton slim jeans are.  Team them with a top or tee and a blazer for a sophisticated yet casual work ensemble.;Cotton, polyester and elastane <br /> Machine-wash;Slim fit<br />  Stretchable<br /> The model (height 5'8") is wearing a size 28;;United Colors of Benetton Women Blue Slim Fit Mid-Rise Clean Look Stretchable Jeans;United Colors of Benetton,ucb-aw17-all;zerotype;;Fall;u-card;No
2006897;17A4JC5E9799I-901-2006897;Ankle length boyfrined fit;QC Reject;Jeans;United Colors of Benetton;Adults-Women;Women;Blue;;;Fashion;Casual;2017;24,UCFBJENS00001836,26,UCFBJENS00001837,28,UCFBJENS00001838,30,UCFBJENS00001839,32,UCFBJENS00001840,34,UCFBJENS00001841;3299.00;Blue light wash 5-pocket mid-rise jeans, mildly distressed with heavy fade, has a button and zip closure, waistband with belt loops;The latest United Colors of Benetton boyfriend jeans are both timeless and breathable.  When you have dinner plans with your folks, wear them with patent pumps and a chic sweater.;Cotton <br /> Machine-wash;Boyfriend Fit <br /> The model (height 5'8") is wearing a size 28;;United Colors of Benetton Women Blue Boyfriend Fit Mid-Rise Mildly Distressed Jeans;United Colors of Benetton, ucb-aw17-all;zerotype;;Fall;u-card;No
2006895;17A4CR1E9791I-901-2006895;Jogger;QC Reject;Jeans;United Colors of Benetton;Adults-Women;Women;Navy Blue;;;Fashion;Casual;2017;24,UCFBJENS00001824,26,UCFBJENS00001825,28,UCFBJENS00001826,30,UCFBJENS00001827,32,UCFBJENS00001828,34,UCFBJENS00001829;2999.00;Navy Blue dark wash 5-pocket mid-rise jeans, clean look with no fade, has a button and zip closure, waistband with belt loops;Look and feel your absolute best in these stunning jeans from United Colors of Benetton.  These can be styled with a laid-back tee and canvas shoes when you are out grabbing coffee with your friends.;Cotton, polyester and elastane <br /> Machine-wash;Regular Fit<br />  Stretchable<br /> The model (height 5'8") is wearing a size 28;;United Colors of Benetton Women Navy Blue Regular Fit Mid-Rise Clean Look Stretchable Jeans;United Colors of Benetton,ucb-aw17-all;zerotype;;Fall;u-card;No
2001731;K217WTS1110014A-Black-2001731;Women's Tee;Inactive - PMM - Catalog;Tshirts;Kook N Keech;Adults-Women;Women;Black;White;;Fashion;Casual;2017;XS,KNKHTSHT00008203,S,KNKHTSHT00008204,M,KNKHTSHT00008205,L,KNKHTSHT00008206,XL,KNKHTSHT00008207;799.00;Black and white printed T-shirt, has a round neck, short sleeves;A classic black tee is a staple for any closet, you'll love this one from Kook N Keech. This black piece can be teamed with cutoff denim shorts for a lazy weekend look or layered under a fitted jacket for a night out with friends.;100% cotton <br /> Machine-wash;The model (height 5'8") is wearing a size S;;Kook N Keech Women Black Printed Round Neck T-shirt;Kook N Keech,Coupon-offer-aug19,aw17-new-season,coupon-offer-aug19,coh-exp-aug,welcome-to-mynt-v2sep2017,welcome-to-myntra-sep2017,dutyfree-sept17,Powerpuff-Girls,Powerpuff-Girls-by-Kook-N-Keech,PPG,powerpuff;zerotype;;Fall;add;No
1997490;RAMBLER-03-slate-1997490;Mens CPD Washed LS T-Shirt;Draft;Tshirts;Roadster;Adults-Men;Men;;;;Fashion;;2017;S,RDSTTSHT00037998,M,RDSTTSHT00037999,L,RDSTTSHT00038000,XL,RDSTTSHT00038001;699.00;;;;;;;;zerotype;;Fall;;No
1997171;NICK-03C-Midnight-1997171;Mens Graphic T-Shirt;Draft;Tshirts;Roadster;Adults-Men;Men;;;;Fashion;;2017;S,RDSTTSHT00036721,M,RDSTTSHT00036722,L,RDSTTSHT00036723,XL,RDSTTSHT00036724;599.00;;;;;;;;zerotype;;Fall;;No
1995132;MN-38983641001-NAVY-1995132;Shoulder bag;Inactive - PMM - Catalog;Handbags;Accessorize;Adults-Women;Women;Grey;;;Fashion;Casual;2017;ONESIZE,ACZEHDBG00000894;4345.00;Grey solid shoulder bag, has a zip closure<br />1 main compartment, 1 external and 1 inner pocket<br />Tablet sleeve: No<br />One Handle with a detachable sling strap<br />Warranty: No Warranty;Stylish and durable, this handbag from Accessorize is a must-have wardrobe accessory. This grey bag can be teamed with dark denims, a cute T-shirt, and ballerinas for a fabulous weekend ensemble.;Synthetic<br />Wipe with a clean, dry cloth to remove dust;Height: 30 cm<br />Width: 36 cm<br />Depth: 15 cm;;Accessorize Grey Solid Sling Bag;Accessorize,welcome-to-myntra-aug-v2,welcome-to-myntra-sep2017,accessories-aw17,aw17-new-season,ladiesnight-handbags-fw17,coh-exp-aug,welcome-to-mynt-v2sep2017;zerotype;;Fall;Image mismatch;No
1994224;UBN51402N-Silver-1994224;N-16-18"CHANNEL BGUET PDT(RH);Draft;Necklace and Chains;GUESS;Adults-Women;Women;Silver;;;Fashion;;2017;Onesize,GUESNECK00000012;3699.00;;;<p>Do not expose to soaps, detergents, perfumes or any other chemicals. Do not soak in water, Wipe gently with a damp cloth</p>;<p>34 cms drop</p>;;;;zerotype;;Fall;;No
1989145;HRXSS - JTMJ - 05-Indigo-1989145;HRX;Inactive - PMM - Catalog;Jeans;HRX by Hrithik Roshan;Adults-Men;Men;Blue;;;Fashion;Casual;2017;28,HBHRJENS00002257,30,HBHRJENS00002258,32,HBHRJENS00002259,34,HBHRJENS00002260,36,HBHRJENS00002261;2299.00;Blue light wash 5-pocket mid-rise jeans, clean look with light fade, has a button and zip closure, waistband with belt loops;These skinny-fit jeans by HRX by Hrithik Roshan make a great addition to any personal wardrobe.  Dress them up with a blazer and some leather boots for your next business-casual work meeting.;96% cotton, 6% polyester, 2% elastane <br />Machine-wash;Skinny Fit<br />The model (height 6') is wearing a size 32;;HRX by Hrithik Roshan Men Blue Skinny Fit Mid-Rise Clean Look Jeans;HRX by Hrithik Roshan,dutyfree-sept17;zerotype;;Spring;Image mismatch;No
1986998;HNMSS-08-Black-1986998;Mens Solid Shirts;BIS + Content Complete;Shirts;HERE&NOW;Adults-Men;Men;Black;;;Fashion;Casual;2017;S,HENWSHRT00000531,M,HENWSHRT00000532,L,HENWSHRT00000533,XL,HENWSHRT00000534,XXL,HENWSHRT00000535;1499.00;;;100% Cotton;;;;HERE&NOW;zerotype;;Fall;;No
1986997;HNMSS-07-Navy-1986997;Mens Solid Shirts;BIS + Content Complete;Shirts;HERE&NOW;Adults-Men;Men;Navy Blue;;;Fashion;Casual;2017;S,HENWSHRT00000526,M,HENWSHRT00000527,L,HENWSHRT00000528,XL,HENWSHRT00000529,XXL,HENWSHRT00000530;1499.00;Navy Blue solid casual shirt, has a spread collar, button placket, 1 pocket, long sleeves, curved hem;This solid shirt from HERE&NOW will make you look your casual best.  When you need a laid-back weekend ensemble, rock this navy blue piece with trim denims and sneakers.;Cotton <br> Machine-wash;Regular Fit<br> The model (height 6') is wearing a size M;;HERE&NOW Men Navy Blue Regular Fit Solid Casual Shirt;HERE&NOW;zerotype;;Fall;;No
1951763;INVAW17T004A-Olive-1951763;INVICTUS Men Olive Slim fit Trousers;Active;Trousers;INVICTUS;Adults-Men;Men;Olive;;;Fashion;Casual;2017;30,TILCTRSR00001705,32,TILCTRSR00001706,34,TILCTRSR00001707,36,TILCTRSR00001708;2199.00;<a href='/olive-green?src=pd' class='seolink'>Olive green</a> patterned mid-rise <a href='/regular-trousers?src=pd' class='seolink'>regular trousers</a>, has a button closure, 4 pockets;Keep your style looking on point with a pair of INVICTUS trousers.  Wear this olive pair with an in-season shirt and dockers for your next semi-formal date night.;Shell: 95% polyester and 5% elastane<br />Lining: 100% polyester <br /> Machine-wash;Slim fit<br /> The model (height 6') is wearing a size 32;;INVICTUS Men Olive Green Slim Fit Patterned Regular Trousers;MAXI0481,INVICTUS,Invictus-Import-trousers,inv-trousers-23082017-newaw17,inv-Trousers-23082017,inv-Trousers-24082017,Coupon-offer-aug19,welcome-to-myntra-aug17-new,new-arrivals-Formal-23082017,buy2-1999-23aug,welcome-to-myntra-aug-v2,groovy-aug-mb,Inv-new-26082017,ftod-sw,extra20-sports,INV-02092017-Trousers,takeextra20-offer,extra20-aug31,welcome-to-myntra-sep2017,coh-exp-aug,invictus-Sports,invictus-Casual,men-sports-wear,aw17-new-season,coupon-offer-aug19,mens-casual-fest-aw17styles,welcome-to-mynt-v2sep2017,dutyfree-sept17,invictus-sport,Invictus-Sport-Shirts,09092017-sport,invictus-sports,mens-sports,inv-sport-11092017,extra50-sep11;zerotype;;Fall;add mfb;No
1951758;INVAW17T002B-Green-1951758;INVICTUS Men Green Slim fit Trousers;Active;Trousers;INVICTUS;Adults-Men;Men;Green;;;Fashion;Casual;2017;30,TILCTRSR00001685,32,TILCTRSR00001686,34,TILCTRSR00001687,36,TILCTRSR00001688;2199.00;<a href='/green?src=pd' class='seolink'>Green</a> self-design mid-rise <a href='/joggers?src=pd' class='seolink'>joggers</a>, has a slip-on closure, <a href='/4?src=pd' class='seolink'>4</a> pockets;Get the comfort and style you deserve with these fashion-forward trousers from INVICTUS.  Team this green pair with an in-season shirt and your favourite pair of Oxfords for a trendy work ensemble.;65% polyester, 35% rayon <br /> Machine-wash;Slim fit<br /> The model (height 6') is wearing a size 32;;INVICTUS Men Green Slim Fit Self Design Joggers;INVICTUS,MAXI0481,inv-Trousers-23082017,inv-Trousers-24082017,Coupon-offer-aug19,welcome-to-myntra-aug17-new,new-arrivals-Formal-23082017,buy2-1999-23aug,welcome-to-myntra-aug-v2,inv-trousers-23082017-newaw17,groovy-aug-mb,Inv-new-26082017,ftod-sw,extra20-sports,INV-02092017-Trousers,takeextra20-offer,extra20-aug31,welcome-to-myntra-sep2017,coh-exp-aug,flash-sale-sept02,invictus-Sports,invictus-Casual,men-sports-wear,coupon-offer-aug19,mens-casual-fest-aw17styles,welcome-to-mynt-v2sep2017,dutyfree-sept17,invictus-sport,09082017-Look3,09082017-Look5,Invictus-Sport-Shirts,09092017-sport,invictus-sports,mens-sports,inv-sport-11092017;zerotype;;Fall;add mfb;No
1914978;BSW2282-Black-1914978;Banarasi Silk Works Partywear;QC Reject;Sarees;BANARASI SILK WORKS;Adults-Women;Women;;;;Fashion;;2017;Onesize,BSWKSARS00000082;5999.00;;;<p>Normal Wash</p>;;;;;zerotype;;Summer;On Hold Request;No
1865569;Motogpshirt6H-Dk Khaki-1865569;SHIRT-06;QC Reject;Shirts;Roadster;Adults-Men;Men;Khaki;;;Fashion;Casual;2017;S,RDSTSHRT00021799,M,RDSTSHRT00021800,L,RDSTSHRT00021801,XL,RDSTSHRT00021802;2599.00;Khaki solid casual shirt, has a spread collar, button placket, 2 pockets, long sleeves, curved hem;This shirt from Roadster will give you the perfect amount of comfort and durability.  A night at the movies is perfectly well-styled by putting this khaki piece with some slim trousers and a fun overshirt.;Cotton <br /> Machine-wash;Slim fit<br /> The model (height 6') is wearing a size M;;Roadster Men Khaki Slim Fit Solid Casual Shirt;Roadster;zerotype;;Fall;u card;No
1865567;Motogpshirt6F-Cast Iron-1865567;SHIRT-06;QC Reject;Shirts;Roadster;Adults-Men;Men;Grey;;;Fashion;Casual;2017;S,RDSTSHRT00021791,M,RDSTSHRT00021792,L,RDSTSHRT00021793,XL,RDSTSHRT00021794;2599.00;Grey solid casual shirt, has a spread collar, button placket, 2 pockets, long sleeves, curved hem;Keep warm on the coldest of days with this top-of-the-line shirt by Roadster.  This grey piece can be worn with dark wash jeans and Chelsea boots when you're going to an after-work happy hour.;Cotton <br /> Machine-wash;Slim fit<br /> The model (height 6') is wearing a size M;;Roadster Men Grey Slim Fit Solid Casual Shirt;Roadster;zerotype;;Fall;U card;No
1865557;Motogpshirt5D-Camo Algae Green-1865557;SHIRT-05;QC Reject;Shirts;Roadster;Adults-Men;Men;Green;;;Fashion;Casual;2017;S,RDSTSHRT00021755,M,RDSTSHRT00021756,L,RDSTSHRT00021757,XL,RDSTSHRT00021758;1999.00;Green printed casual shirt, has a spread collar, button placket, 2 pockets, long sleeves, curved hem;Cozy up with this in-style Roadster shirt this season.  When you're going out shopping, this green piece is ready to up the style game of some darker denim and a cardigan.;Cotton <br /> Machine-wash;Slim fit<br /> The model (height 6') is wearing a size M;;Roadster Men Green Slim Fit Printed Casual Shirt;Roadster,rd-men-naug,rd-al-24,rd-am-24,rd-as-24,rd-se-24,rd-freelander-men,rd-freelander-menshirts,rd-men-fullcollection,rd-freelander-menlook3,rd-accessories,freelander1,rd-free-lander-full,roadster-freelandermen,rd-menfw17-sep2,rd-menb-sep5,rd-mwfree-sep6,rd-branday-sep8,rd-free-lander-men,rd-menwww17-sep,rd-mfreecoll-sep,rd-menbd-shirts,rd-free-lander-fullcoll;zerotype;;Fall;U Card;No
1858813;INV-SS17T47-Olive-1858813;Invictus Olive Formal Trousers;BIS + Content Complete;Trousers;INVICTUS;Adults-Men;Men;Olive;;;Fashion;Casual;2017;30,TILCTRSR00001621,32,TILCTRSR00001622,34,TILCTRSR00001623,36,TILCTRSR00001624;2099.00;Olive Green solid mid-rise chinos, has a button closure closure, 5 pockets;This pair of INVICTUS chino trousers will be a wardrobe favourite.  When you're attending a networking event, rock this olive pair with a high-fashion tee, a sleek tie, and easy loafers.;Cotton and elastane <br> Machine-wash;Slim fit<br> The model (height 6') is wearing a size 32;;INVICTUS Men Olive Green Slim Fit Solid Chinos;INVICTUS,inv-trousers-23082017-newaw17,invictus-Sports,invictus-Casual,men-sports-wear,Invictus-Sport,invictus-sport,Invictus-Sport-Shirts,09092017-sport,invictus-sports,mens-sports,inv-sport-11092017;zerotype;;Fall;add;No
1853498;MNHNEWFAB1-BROWN-1853498;MNHNEWFAB1  BROWN;Active;Flip Flops;Mast & Harbour;Adults-Men;Men;Brown;;;Fashion;Casual;2017;UK6,MTHBFLFP00000151,UK7,MTHBFLFP00000152,UK8,MTHBFLFP00000153,UK9,MTHBFLFP00000154,UK10,MTHBFLFP00000155,UK11,MTHBFLFP00000156;399.00;A pair of <a href='/brown?src=pd' class='seolink'>brown</a>, white and red flip-flops<br /><a href='/synthetic?src=pd' class='seolink'>Synthetic</a> upper, has a thong-style strap<br />Cushioned colourblocked footbed<br />Textured rubber outsole with patterned grooves<br />Warranty: 3 months against manufacturing defects only<br />Broken straps are not covered under warranty;This pair of flip flops from Mast & Harbour will allow you to walk comfortably without compromising on style. Team it with a pair of shorts and a graphic printed tee for a casual look.;Synthetic<br />Wipe with a soft cloth to remove dust<br />Don't scrub the product while cleaning;;;Mast & Harbour Men Brown & White Colourblocked Flip-Flops;Mast & Harbour,dutyfree-sept17,Coupon-offer-aug19;zerotype;;Fall;add mfb;No
1849541;TEMPO-002-ANTHRA MEL/LT GREY MEL-1849541;Mens YD Striper Polo;Draft;Tshirts;Roadster;Adults-Men;Men;;;;Fashion;;2017;S,RDSTTSHT00033901,M,RDSTTSHT00033902,L,RDSTTSHT00033903,XL,RDSTTSHT00033904;999.00;;;;;;;;zerotype;;Spring;;No
1849540;TEMPO-001-CLASSIC RED-1849540;Mens YD Striper Polo;Draft;Tshirts;Roadster;Adults-Men;Men;;;;Fashion;;2017;S,RDSTTSHT00033897,M,RDSTTSHT00033898,L,RDSTTSHT00033899,XL,RDSTTSHT00033900;999.00;;;;;;;;zerotype;;Spring;;No
1849534;BALICKI-003-ANTHRA MEL/LT GREY MEL-1849534;Mens YD Striper Polo;Draft;Tshirts;Roadster;Adults-Men;Men;;;;Fashion;;2017;S,RDSTTSHT00033873,M,RDSTTSHT00033874,L,RDSTTSHT00033875,XL,RDSTTSHT00033876;899.00;;;;;;;;zerotype;;Spring;;No
1826119;INVAW17J013B-Teel Red-1826119;Invictus Teel Red Jackets;Active;Jackets;INVICTUS;Adults-Men;Men;Grey Melange;;;;Casual;2017;XXL,TILCJCKT00000366,XL,TILCJCKT00000367,L,TILCJCKT00000368,M,TILCJCKT00000369;4499.00;<a href='/grey?src=pd' class='seolink'>Grey</a> melange <a href='/solid?src=pd' class='seolink'>solid</a> tailored jacket, has a mock collar, 2 pockets, zip closure, long sleeves, straight hem, <a href='/polyester?src=pd' class='seolink'>polyester</a> lining;This handsome jacket in grey melange will be the talk of the town.  This jacket from INVICTUS can be worn with distressed denims and a modern tee for a laid-back brunch outfit.;Polyester <br />Hand-wash;The model (height 6') is wearing a size M;;INVICTUS Men Grey Melange Solid Tailored Jacket;INVICTUS,invictus-sport,Invictus-Sport-Shirts,09092017-sport,invictus-sports,mens-sports,inv-sport-11092017;zerotype;;Fall;add;No
1821540;F2TS0052-Blue-1821540;F2TS0052;Inactive - PMM - Catalog;Tshirts;Flying Machine;Adults-Men;Men;Blue;;;Fashion;Casual;2017;L,FLYMTSHT00006255,M,FLYMTSHT00006256,S,FLYMTSHT00006257,XL,FLYMTSHT00006258,XXL,FLYMTSHT00006259;999.00;Blue printed waist length T-shirt, has a round neck, short sleeves;This top-notch T-shirt from Flying Machine will have you looking fresh all year long. Whether you're running errands or meeting friends for coffee, sport this blue number with slim black jeans or cutoff shorts for a relaxed style.;100% cotton <br />Machine-wash;The model (height 6') is wearing a size M;;Flying Machine Men Blue Printed Round Neck T-shirt;ALEK0465 Flying Machine,fm-ss17-all,apr12-super-hour,new-season-styles-apr13,fm-2000,fm-cuban-diaries,mantastic-campus,fm-denim-diaries,brand-out-loud-tshirts,apr15-hh,new-season30-ccmay,super-hour-ccmay,men-offer-may05,price-surge,super-hour-may9,big10-super-hour25,big10-ftod,may21-hh,look1-mitm-casual,mitm17,ftod-2705,mantastic-backtocampus17,hh-jun2,jun08-wonder-hour,jnj-levis-ftod,min30-jun12,tops-tees-june17,eorsjun17-uber-offer,min50eorsjune17,must-havetees-eoss,wonder-hour-jun25,duty-offer-new,bss-uber-offer,mitm-collegejuly,mitm-july,welcome-to-myntra-august17,extra500-jul24,blast-0ffer,buy3-2499-3107,uber-offer-aug,bestsellers-mcf-2238,mcf-aug-2238,casualfest-june17,extra50-aug03,welcome-to-myntra-aug17-new,rakhi-deals,rakhi-tshirts-1199,dutyfree-august17,mantastic-styles-august,uber-offer-aug-rtf,freedom-fest-rtf,uber-offer-16aug,welcome-to-myntra-aug-v2,deal-aug-tshirts-1199,coupon-offer-aug19,mitm-college-aug,coupon-offer-23aug,coh-exp-aug,extra20-sports,sw-men-tshirts,aug31-tshirts,welcome-to-myntra-sep2017,welcome-to-mynt-v2sep2017,dutyfree-sept17,mitm-college-sep;zerotype;;Summer;Image mismatch;No
1801010;898464-001-BLACK/WOLF GREY-WHITE-1801010;NIKE RUNALLDAY;Inactive - PMM - Catalog;Sports Shoes;Nike;Adults-Men;Men;Beige;Beige;Black;Fashion;Casual;2017;US7,NIKESPSH00120906,US8,NIKESPSH00120907,US9,NIKESPSH00120908,US10,NIKESPSH00120909,US11,NIKESPSH00120910,US12,NIKESPSH00120911;4795.00;;;Fabric and Textile;;;Na;sportsallstyles-2017,eors-half-price-store,eors-sports-min2000off,all-sports-styles-2017;zerotype;;Summer;Re-call the sample For re-shoot;No
1784730;LRSF317R02861-Light blue With White-1784730;Shirt;Active;Shirts;Louis Philippe Jeans;Adults-Men;Men;Grey;Navy Blue;;Fashion;Casual;2017;42,LPJSSHRT00001229,39,LPJSSHRT00001230,40,LPJSSHRT00001231;2499.00;<a href='/grey?src=pd' class='seolink'>Grey</a> and <a href='/navy-blue?src=pd' class='seolink'>navy blue</a> self-design <a href='/casual?src=pd' class='seolink'>casual</a> shirt, has a <a href='/spread?src=pd' class='seolink'>spread</a> collar, full button placket, long sleeves, curved hem;Expand your collection of casual staples with this hip shirt from Louis Philippe Jeans.  When you're hanging out with friends, you'll win the style game by putting this grey piece with a cardigan and sneakers.;100% cotton <br />Machine-wash;Tailored fit <br>The model (height 6') is wearing a size 42;;Louis Philippe Jeans Men Grey Tailored Fit Self-design Casual Shirt;LAZA0322,Louis Philippe Jeans,LPSS17,LP-SS17,racer,bfg-bollywood-seventies-men-520441,apr12-super-hour,new-season-styles-apr13,gold22-bb,b3-20-power20,newseason20-bb,big10-ftod,big10-mse-all,big10-350off,big10-super-hour25,lpjeans,tops-tees-june17,Rider,Rider-Collection-LP,Rider-Collection-Louis-Philippe,ridr-coll-lp,mcf-aug-2238,casualfest-june17,formals-2238,mitm-formals-aug,Mitm-college-aug,mitm-formal-sep;zerotype;;Summer;mitm-formal-sep;No
1766406;LC8004-A-NAVY-1766406;LC8004-A TAN;QC Reject;Formal Shoes;INVICTUS;Adults-Men;Men;;;;Fashion;;2017;UK 6,TILCFOSH00001688,UK 7,TILCFOSH00001689,UK 8,TILCFOSH00001690,UK 9,TILCFOSH00001691,UK 10,TILCFOSH00001692,UK 11,TILCFOSH00001693;2799.00;;;;;;;;zerotype;;Fall;On Hold Request;No
1766400;LC8001-A-NAVY-1766400;LC8001-A BLACK;QC Reject;Formal Shoes;INVICTUS;Adults-Men;Men;;;;Fashion;;2017;UK 6,TILCFOSH00001652,UK 7,TILCFOSH00001653,UK 8,TILCFOSH00001654,UK 9,TILCFOSH00001655,UK 10,TILCFOSH00001656,UK 11,TILCFOSH00001657;2499.00;;;;;;;;zerotype;;Fall;On Hold Request;No
1755997;777029-415-SPORT ROYAL/GYM RED/UNIVERSITY GOLD-1755997;FCB YTH SS HM STADIUM JSY;QC Reject;Tshirts;Nike;Adults-Men;Men;Blue;Maroon;;Fashion;Sports;2017;S,NIKETSHT00113247,M,NIKETSHT00113248,L,NIKETSHT00113249,XL,NIKETSHT00113250;3995.00;Blue and maroon printed  T-shirt, has a V-neck, short sleeves;Pull over this snug tee to keep your style looking fresh.  A fashionable weekend outfit starts with this blue top matched with chinos and your favourite pair of sunglasses to cast an effortlessly cool image.;Polyester <br /> Machine-wash;The model (height 6') is wearing a size M;;Nike Men Blue Printed V-Neck T-shirt;Nike,nikess17,nikenewss17,tbfg-fitfabulous-sports,tbfg-sportsfanatic,tbfg-sports-fitfabulous-day1-topwear,tbfg-sports-fitfabulous-brands-nike,tbfg-sportsfashion-athleisurelyyours-viewall,tbfg-sportsfashion-athleisurelyyours-tshirts,tbfg-sports-fitfabulous-day2-apparel,tbfg-sports-fitfabulous-day3-topwear,sportsallstyles-2017,all-sports-styles-2017,min-offer-on-sportswear,bsf-first-time-on-discount;zerotype;;Spring;bsf-first-time-on-discount;No
1703927;NF00CLJ3LGD-FUSEBOX GRY/MOON MIST GRY-1703927;LITUS 22-RC;Inactive - PMM - Catalog;Backpacks;The North Face;Adults-Unisex;Unisex;;;;Fashion;;2016;XL,TNFEBAPK00000083;11799.00;<p><a href='/pu?src=pd' class='seolink'>PU</a></p>;;;;;;tbfg-fitfabulous-sports,tbfg-sportsfanatic,tbfg-sportsfashion-athleisurelyyours-viewall,ndd-bangalore,myntra-store-02,sportsallstyles-2017,eors-backpacks-dufflebags,eors-sports-min2000off,eors-all-sports-accessories,outdoor-sports-25july,min-offer-on-sportswear;zerotype;;Winter;Re-call the sample For re-shoot;No
1703926;NF00CLJ3LGD-FUSEBOX GRY/MOON MIST GRY-1703926;LITUS 22-RC;Inactive - PMM - Catalog;Backpacks;The North Face;Adults-Unisex;Unisex;;;;Fashion;;2016;30,TNFEBAPK00000081,32,TNFEBAPK00000082;11799.00;<p><a href='/pu?src=pd' class='seolink'>PU</a></p>;;;;;;tbfg-fitfabulous-sports,tbfg-sportsfanatic,tbfg-sportsfashion-athleisurelyyours-viewall,ndd-bangalore,myntra-store-02,sportsallstyles-2017,eors-backpacks-dufflebags,eors-sports-min2000off,eors-all-sports-accessories,outdoor-sports-25july,min-offer-on-sportswear;zerotype;;Winter;Re-call the sample For re-shoot;No
1703898;NF0A2T64LFF-DEEPGARNETRED/HIGHRISKRED-1703898;W ULTRA GTX SURROUND MID;Inactive - PMM - Catalog;Sports Shoes;The North Face;Adults-Women;Women;;;;Fashion;;2016;US5.5,TNFESPSH00000569,US6.5,TNFESPSH00000570,US7.5,TNFESPSH00000571,US8.5,TNFESPSH00000572;18599.00;<p>Mesh</p>;;;;;;next-day-delivery-bng,sportsallstyles-2017,eors-sports-min2000off,outdoor-sports-25july,min-offer-on-sportswear;zerotype;;Winter;Re-call the sample For re-shoot;No
1703897;NF0A2T63NNA-TNF BLACK/POINCIANA ORNGE-1703897;M ULTRA GTX SURND MD;Inactive - PMM - Catalog;Sports Shoes;The North Face;Adults-Men;Men;;;;Fashion;;2016;US7,TNFESPSH00000563,US8,TNFESPSH00000564,US9,TNFESPSH00000565,US10,TNFESPSH00000566,US11,TNFESPSH00000567,US12,TNFESPSH00000568;19899.00;<p>Mesh</p>;;;;;;next-day-delivery-bng,sportsallstyles-2017,eors-sports-min2000off,outdoor-sports-25july,min-offer-on-sportswear;zerotype;;Winter;Re-call the sample For re-shoot;No
1703896;NF0A2T61M6S-URBAN NAVY/TNF WHITE-1703896;M ULTRA MT WINTER;Inactive - PMM - Catalog;Sports Shoes;The North Face;Adults-Men;Men;;;;Fashion;;2016;US7,TNFESPSH00000558,US8,TNFESPSH00000559,US9,TNFESPSH00000560,US10,TNFESPSH00000561,US11,TNFESPSH00000562;14299.00;<p>Mesh</p>;;;;;;next-day-delivery-bng,sportsallstyles-2017,eors-sports-min2000off,outdoor-sports-25july,min-offer-on-sportswear;zerotype;;Winter;Re-call the sample For re-shoot;No
1703894;NF0A2T5CKZ2-TNF BLACK/ZINC GREY-1703894;M NUPTSE BOOTIE IV;Inactive - PMM - Catalog;Sports Shoes;The North Face;Adults-Men;Men;;;;Fashion;;2016;US7,TNFESPSH00000548,US8,TNFESPSH00000549,US9,TNFESPSH00000550,US10,TNFESPSH00000551,US11,TNFESPSH00000552;12099.00;<p>Mesh</p>;;;;;;next-day-delivery-bng,sportsallstyles-2017,eors-sports-min2000off,outdoor-sports-25july,min-offer-on-sportswear;zerotype;;Winter;Re-call the sample For re-shoot;No
1703891;NF0A2T5ANNM-WEIMARANERBRN/BOMBAYORNGE-1703891;M THERMOBALL VERSA;Inactive - PMM - Catalog;Sports Shoes;The North Face;Adults-Men;Men;;;;Fashion;;2016;US7,TNFESPSH00000533,US8,TNFESPSH00000534,US9,TNFESPSH00000535,US10,TNFESPSH00000536,US11,TNFESPSH00000537;14199.00;<p><a href='/leather?src=pd' class='seolink'>Leather</a></p>;;;;;;next-day-delivery-bng,sportsallstyles-2017,eors-sports-min2000off,outdoor-sports-25july,min-offer-on-sportswear;zerotype;;Winter;Re-call the sample For re-shoot;No
1703890;NF0A2T5AJQ2-DARK SHADOW GREY/TNF RED-1703890;M THERMOBALL VERSA;Inactive - PMM - Catalog;Sports Shoes;The North Face;Adults-Men;Men;;;;Fashion;;2016;US7,TNFESPSH00000528,US8,TNFESPSH00000529,US9,TNFESPSH00000530,US10,TNFESPSH00000531,US11,TNFESPSH00000532;14199.00;<p><a href='/leather?src=pd' class='seolink'>Leather</a></p>;;;;;;next-day-delivery-bng,tbfg-fitfabulous-sports,tbfg-sportsfanatic,tbfg-sportsfashion-athleisurelyyours-viewall,ndd-bangalore,myntra-store-02,sportsallstyles-2017,eors-sports-min2000off,outdoor-sports-25july,min-offer-on-sportswear;zerotype;;Winter;Re-call the sample For re-shoot;No
1703889;NF0A2T53NMP-TERRARIUMGRN/CITRINEYELLW-1703889;M VERBERA WINTER CHUKKA;Inactive - PMM - Catalog;Sports Shoes;The North Face;Adults-Men;Men;;;;Fashion;;2016;US7,TNFESPSH00000523,US8,TNFESPSH00000524,US9,TNFESPSH00000525,US10,TNFESPSH00000526,US11,TNFESPSH00000527;14399.00;<p><a href='/leather?src=pd' class='seolink'>Leather</a></p>;;;;;;next-day-delivery-bng,sportsallstyles-2017,eors-sports-min2000off,outdoor-sports-25july,min-offer-on-sportswear;zerotype;;Winter;Re-call the sample For re-shoot;No
1703888;NF0A2T53JZ1-SHROOM BROWN/BOMBAY ORANG-1703888;M VERBERA WINTER CHUKKA;Inactive - PMM - Catalog;Sports Shoes;The North Face;Adults-Men;Men;;;;Fashion;;2016;US7,TNFESPSH00000518,US8,TNFESPSH00000519,US9,TNFESPSH00000520,US10,TNFESPSH00000521,US11,TNFESPSH00000522;14399.00;<p><a href='/leather?src=pd' class='seolink'>Leather</a></p>;;;;;;next-day-delivery-bng,tbfg-fitfabulous-sports,tbfg-sportsfanatic,tbfg-sportsfashion-athleisurelyyours-viewall,sportsallstyles-2017,eors-sports-min2000off,outdoor-sports-25july,min-offer-on-sportswear;zerotype;;Winter;Re-call the sample For re-shoot;No
1703887;NF0A2T41KW6-TNF BLACK/METALLIC SILVER-1703887;M LITEWAVE EXPLORE MID GTX;Inactive - PMM - Catalog;Sports Shoes;The North Face;Adults-Men;Men;;;;Fashion;;2016;US7,TNFESPSH00000513,US8,TNFESPSH00000514,US9,TNFESPSH00000515,US10,TNFESPSH00000516,US11,TNFESPSH00000517;12499.00;<p>Mesh</p>;;;;;;next-day-delivery-bng,sportsallstyles-2017,eors-sports-min2000off,outdoor-sports-25july,min-offer-on-sportswear;zerotype;;Winter;Re-call the sample For re-shoot;No
1703886;NF00CXZ9NGD-CLIMBING IVY GRN/LIME GRN-1703886;M ULTRA HIKE II GTX;Inactive - PMM - Catalog;Sports Shoes;The North Face;Adults-Men;Men;;;;Fashion;;2016;US7,TNFESPSH00000508,US8,TNFESPSH00000509,US9,TNFESPSH00000510,US10,TNFESPSH00000511,US11,TNFESPSH00000512;16099.00;<p><a href='/leather?src=pd' class='seolink'>Leather</a></p>;;;;;;next-day-delivery-bng,sportsallstyles-2017,eors-sports-min2000off,outdoor-sports-25july,min-offer-on-sportswear;zerotype;;Winter;Re-call the sample For re-shoot;No
1703883;NF00CQ24ZU5-TNF BLACK/DARK SHADOW GR-1703883;M STORM WINTER WP;Inactive - PMM - Catalog;Sports Shoes;The North Face;Adults-Men;Men;;;;Fashion;;2016;US7,TNFESPSH00000494,US8,TNFESPSH00000495,US9,TNFESPSH00000496,US10,TNFESPSH00000497,US11,TNFESPSH00000498;12899.00;<p><a href='/leather?src=pd' class='seolink'>Leather</a></p>;;;;;;next-day-delivery-bng,tbfg-fitfabulous-sports,tbfg-sportsfanatic,tbfg-sportsfashion-athleisurelyyours-viewall,sportsallstyles-2017,eors-sports-min2000off,outdoor-sports-25july,min-offer-on-sportswear;zerotype;;Winter;Re-call the sample For re-shoot;No
1703882;NF00CQ24T9M-DEMITASSEBRWN/GANACHEBRWN-1703882;M STORM WINTER WP;Inactive - PMM - Catalog;Sports Shoes;The North Face;Adults-Men;Men;;;;Fashion;;2016;US7,TNFESPSH00000489,US8,TNFESPSH00000490,US9,TNFESPSH00000491,US10,TNFESPSH00000492,US11,TNFESPSH00000493;12899.00;<p><a href='/leather?src=pd' class='seolink'>Leather</a></p>;;;;;;next-day-delivery-bng,tbfg-fitfabulous-sports,tbfg-sportsfanatic,tbfg-sportsfashion-athleisurelyyours-viewall,sportsallstyles-2017,eors-sports-min2000off,outdoor-sports-25july,min-offer-on-sportswear;zerotype;;Winter;Re-call the sample For re-shoot;No
1703881;NF00CM64T9M-DEMITASSEBRWN/GANACHEBRWN-1703881;W STORM WINTER WP;Inactive - PMM - Catalog;Sports Shoes;The North Face;Adults-Women;Women;;;;Fashion;;2016;US5.5,TNFESPSH00000485,US6.5,TNFESPSH00000486,US7.5,TNFESPSH00000487,US8.5,TNFESPSH00000488;12499.00;<p><a href='/leather?src=pd' class='seolink'>Leather</a></p>;;;;;;next-day-delivery-bng,tbfg-fitfabulous-sports,tbfg-sportsfanatic,tbfg-sportsfashion-athleisurelyyours-viewall,ndd-bangalore,myntra-store-02,sportsallstyles-2017,eors-sports-min2000off,outdoor-sports-25july,min-offer-on-sportswear;zerotype;;Winter;Re-call the sample For re-shoot;No
1703880;NF00CLW4NNN-WEIMARANERBRN/DPGARNETRED-1703880;W STORM EVO MID GTX;Inactive - PMM - Catalog;Sports Shoes;The North Face;Adults-Women;Women;;;;Fashion;;2016;US5.5,TNFESPSH00000481,US6.5,TNFESPSH00000482,US7.5,TNFESPSH00000483,US8.5,TNFESPSH00000484;12699.00;<p><a href='/leather?src=pd' class='seolink'>Leather</a></p>;;;;;;next-day-delivery-bng,sportsallstyles-2017,eors-sports-min2000off,outdoor-sports-25july,min-offer-on-sportswear;zerotype;;Winter;Re-call the sample For re-shoot;No
1703879;NF00CLW4BCG-TNF BLACK/RASPBERRY ROSE-1703879;W STORM EVO MID GTX;Inactive - PMM - Catalog;Sports Shoes;The North Face;Adults-Women;Women;;;;Fashion;;2016;US5.5,TNFESPSH00000477,US6.5,TNFESPSH00000478,US7.5,TNFESPSH00000479,US8.5,TNFESPSH00000480;12699.00;<p><a href='/leather?src=pd' class='seolink'>Leather</a></p>;;;;;;next-day-delivery-bng,sportsallstyles-2017,eors-sports-min2000off,outdoor-sports-25july,min-offer-on-sportswear;zerotype;;Winter;Re-call the sample For re-shoot;No
1703878;NF00CLW3MUG-ROSIN GREEN/LIME GREEN-1703878;ROSIN GREEN/LIME GREEN;Inactive - PMM - Catalog;Sports Shoes;The North Face;Adults-Men;Men;;;;Fashion;;2016;US7,TNFESPSH00000472,US8,TNFESPSH00000473,US9,TNFESPSH00000474,US10,TNFESPSH00000475,US11,TNFESPSH00000476,US12,TNFESPSH00000710;13299.00;<p><a href='/leather?src=pd' class='seolink'>Leather</a></p>;;;;;;next-day-delivery-bng,tbfg-fitfabulous-sports,tbfg-sportsfanatic,tbfg-sportsfashion-athleisurelyyours-viewall,sportsallstyles-2017,eors-sports-min2000off,outdoor-sports-25july,min-offer-on-sportswear;zerotype;;Winter;Re-call the sample For re-shoot;No
1703877;NF00CLW2NNK-URBAN NAVY/BRONZE MIST-1703877;M STORM EVO MID GTX;Inactive - PMM - Catalog;Sports Shoes;The North Face;Adults-Men;Men;;;;Fashion;;2016;US7,TNFESPSH00000467,US8,TNFESPSH00000468,US9,TNFESPSH00000469,US10,TNFESPSH00000470,US11,TNFESPSH00000471;14199.00;<p><a href='/leather?src=pd' class='seolink'>Leather</a></p>;;;;;;next-day-delivery-bng,sportsallstyles-2017,eors-sports-min2000off,outdoor-sports-25july,min-offer-on-sportswear;zerotype;;Winter;Re-call the sample For re-shoot;No
1703876;NF00CLW2MUH-WEIMARANER BRN/BLUE ASTER-1703876;M STORM EVO MID GTX;Inactive - PMM - Catalog;Sports Shoes;The North Face;Adults-Men;Men;;;;Fashion;;2016;US7,TNFESPSH00000462,US8,TNFESPSH00000463,US9,TNFESPSH00000464,US10,TNFESPSH00000465,US11,TNFESPSH00000466;14199.00;<p><a href='/leather?src=pd' class='seolink'>Leather</a></p>;;;;;;next-day-delivery-bng,sportsallstyles-2017,eors-sports-min2000off,outdoor-sports-25july,min-offer-on-sportswear;zerotype;;Winter;Re-call the sample For re-shoot;No
1703875;NF00CKJ6NKM-PHANTOMGRYHTRPRNT/RUDYRED-1703875;M THERMOBALL TRACTION MULE II;Inactive - PMM - Catalog;Sports Shoes;The North Face;Adults-Men;Men;;;;Fashion;;2016;US7,TNFESPSH00000458,US8,TNFESPSH00000459,US9,TNFESPSH00000460,US10,TNFESPSH00000461;4499.00;<p>Mesh</p>;;;;;;next-day-delivery-bng,sportsallstyles-2017,eors-sports-min2000off,outdoor-sports-25july,min-offer-on-sportswear;zerotype;;Winter;Re-call the sample For re-shoot;No
1703874;NF00CJ8XNLE-SEDONASAGEGRY/CALYPSCORAL-1703874;W LITEWAVE EXPLORE GTX;Inactive - PMM - Catalog;Sports Shoes;The North Face;Adults-Women;Women;;;;Fashion;;2016;US5.5,TNFESPSH00000454,US6.5,TNFESPSH00000455,US7.5,TNFESPSH00000456,US8.5,TNFESPSH00000457;10899.00;<p>Mesh</p>;;;;;;next-day-delivery-bng,sportsallstyles-2017,eors-sports-min2000off,outdoor-sports-25july,min-offer-on-sportswear;zerotype;;Winter;Re-call the sample For re-shoot;No
1703873;NF00CJ8XLFF-DEEPGARNETRED/HIGHRISKRED-1703873;W LITEWAVE EXPLORE GTX;Inactive - PMM - Catalog;Sports Shoes;The North Face;Adults-Women;Women;;;;Fashion;;2016;US5.5,TNFESPSH00000450,US6.5,TNFESPSH00000451,US7.5,TNFESPSH00000452,US8.5,TNFESPSH00000453;10899.00;<p>Mesh</p>;;;;;;next-day-delivery-bng,sportsallstyles-2017,eors-sports-min2000off,outdoor-sports-25july,min-offer-on-sportswear;zerotype;;Winter;Re-call the sample For re-shoot;No
1703872;NF00CJ8WNKJ-PHANTMGRYHTRPRINT/BLUASTR-1703872;M LITEWAVE EXPLORE GTX;Inactive - PMM - Catalog;Sports Shoes;The North Face;Adults-Men;Men;;;;Fashion;;2016;US7,TNFESPSH00000445,US8,TNFESPSH00000446,US9,TNFESPSH00000447,US10,TNFESPSH00000448,US11,TNFESPSH00000449;11799.00;<p>Mesh</p>;;;;;;next-day-delivery-bng,sportsallstyles-2017,eors-sports-min2000off,outdoor-sports-25july,min-offer-on-sportswear;zerotype;;Winter;Re-call the sample For re-shoot;No
1703871;NF00CJ8WNJC-DUCK GREEN/LIME GREEN-1703871;M LITEWAVE EXPLORE GTX;Inactive - PMM - Catalog;Sports Shoes;The North Face;Adults-Men;Men;;;;Fashion;;2016;US7,TNFESPSH00000440,US8,TNFESPSH00000441,US9,TNFESPSH00000442,US10,TNFESPSH00000443,US11,TNFESPSH00000444;11799.00;<p>Mesh</p>;;;;;;next-day-delivery-bng,sportsallstyles-2017,eors-sports-min2000off,outdoor-sports-25july,min-offer-on-sportswear;zerotype;;Winter;Re-call the sample For re-shoot;No
1703870;NF00CJ8WGSR-PHANTOM GREY/POMPEIAN RED-1703870;M LITEWAVE EXPLORE GTX;Inactive - PMM - Catalog;Sports Shoes;The North Face;Adults-Men;Men;;;;Fashion;;2016;US7,TNFESPSH00000435,US8,TNFESPSH00000436,US9,TNFESPSH00000437,US10,TNFESPSH00000438,US11,TNFESPSH00000439;11799.00;<p>Mesh</p>;;;;;;next-day-delivery-bng,sportsallstyles-2017,eors-sports-min2000off,outdoor-sports-25july,min-offer-on-sportswear;zerotype;;Winter;Re-call the sample For re-shoot;No
1703869;NF00CDL8NKR-PHANTOM GREY/LIME GREEN-1703869;M ULTRA FASTPACK II MID GTX;Inactive - PMM - Catalog;Sports Shoes;The North Face;Adults-Men;Men;;;;Fashion;;2016;US7,TNFESPSH00000430,US8,TNFESPSH00000431,US9,TNFESPSH00000432,US10,TNFESPSH00000433,US11,TNFESPSH00000434;15499.00;<p>Mesh</p>;;;;;;next-day-delivery-bng,sportsallstyles-2017,eors-sports-min2000off,outdoor-sports-25july,min-offer-on-sportswear;zerotype;;Winter;Re-call the sample For re-shoot;No
1703868;NF00CDG4KZ2-TNF BLACK/ZINC GREY-1703868;M HEDGEHOG HIKE WINTER WP;Inactive - PMM - Catalog;Sports Shoes;The North Face;Adults-Men;Men;;;;Fashion;;2016;US7,TNFESPSH00000425,US8,TNFESPSH00000426,US9,TNFESPSH00000427,US10,TNFESPSH00000428,US11,TNFESPSH00000429;15599.00;<p><a href='/leather?src=pd' class='seolink'>Leather</a></p>;;;;;;next-day-delivery-bng,sportsallstyles-2017,eors-sports-min2000off,outdoor-sports-25july,min-offer-on-sportswear;zerotype;;Winter;Re-call the sample For re-shoot;No
1703867;NF00CCG9LLG-TNF BLACK/SUBTLE GREEN-1703867;W ULTRA FASTPACK II GTX;Inactive - PMM - Catalog;Sports Shoes;The North Face;Adults-Women;Women;;;;Fashion;;2016;US5.5,TNFESPSH00000421,US6.5,TNFESPSH00000422,US7.5,TNFESPSH00000423,US8.5,TNFESPSH00000424;13299.00;<p>Mesh</p>;;;;;;next-day-delivery-bng,sportsallstyles-2017,eors-sports-min2000off,outdoor-sports-25july,min-offer-on-sportswear;zerotype;;Winter;Re-call the sample For re-shoot;No
1703866;NF00CCG9JAF-BIKING RED/MELON RED-1703866;W ULTRA FASTPACK II GTX;Inactive - PMM - Catalog;Sports Shoes;The North Face;Adults-Women;Women;;;;Fashion;;2016;US5.5,TNFESPSH00000417,US6.5,TNFESPSH00000418,US7.5,TNFESPSH00000419,US8.5,TNFESPSH00000420;13299.00;<p>Mesh</p>;;;;;;next-day-delivery-bng,sportsallstyles-2017,eors-sports-min2000off,outdoor-sports-25july,min-offer-on-sportswear;zerotype;;Winter;Re-call the sample For re-shoot;No
1703865;NF00CCE2ZU5-TNF BLACK/DARK SHADOW GR-1703865;M ULTRA FASTPACK II GTX;Inactive - PMM - Catalog;Sports Shoes;The North Face;Adults-Men;Men;;;;Fashion;;2016;US7,TNFESPSH00000411,US8,TNFESPSH00000412,US9,TNFESPSH00000413,US10,TNFESPSH00000414,US11,TNFESPSH00000415,US12,TNFESPSH00000416;14199.00;<p>Mesh</p>;;;;;;next-day-delivery-bng,sportsallstyles-2017,eors-sports-min2000off,outdoor-sports-25july,min-offer-on-sportswear;zerotype;;Winter;Re-call the sample For re-shoot;No
1703863;NF00CCE2NJC-DUCK GREEN/LIME GREEN-1703863;M ULTRA FASTPACK II GTX;Inactive - PMM - Catalog;Sports Shoes;The North Face;Adults-Men;Men;;;;Fashion;;2016;US7,TNFESPSH00000405,US8,TNFESPSH00000406,US9,TNFESPSH00000407,US10,TNFESPSH00000408,US11,TNFESPSH00000409,US12,TNFESPSH00000410;14199.00;<p>Mesh</p>;;;;;;next-day-delivery-bng,sportsallstyles-2017,eors-sports-min2000off,outdoor-sports-25july,min-offer-on-sportswear;zerotype;;Winter;Re-call the sample For re-shoot;No
1703860;NF00CCE2JBM-SHADY BLUE/BLUE ASTER-1703860;M ULTRA FASTPACK II GTX;Inactive - PMM - Catalog;Sports Shoes;The North Face;Adults-Men;Men;;;;Fashion;;2016;US7,TNFESPSH00000399,US8,TNFESPSH00000400,US9,TNFESPSH00000401,US10,TNFESPSH00000402,US11,TNFESPSH00000403,US12,TNFESPSH00000404;14199.00;<p>Mesh</p>;;;;;;next-day-delivery-bng,sportsallstyles-2017,eors-sports-min2000off,outdoor-sports-25july,min-offer-on-sportswear;zerotype;;Winter;Re-call the sample For re-shoot;No
1703155;MJ-10296A-BLACK-1703155;MJ-10296A BLACK;QC Reject;Casual Shoes;Roadster;Adults-Men;Men;;;;Fashion;;2017;UK 6,RDSTCASH00018052,UK 7,RDSTCASH00018053,UK 8,RDSTCASH00018054,UK 9,RDSTCASH00018055,UK 10,RDSTCASH00018056,UK 11,RDSTCASH00018057;2399.00;;;;;;;;zerotype;;Fall;On Hold Request;No
1626623;EC599-Blue-1626623;Roberto Cavalli Sunglasses;QC Reject;Sunglasses;Roberto Cavalli;Adults-Women;Women;;;;Fashion;;2016;60,ROCLSGLS00000234;24900.00;;;;;http://assets.myntassets.com/assets/images/sizechart/2016/4/25/11461584543399-Sunglasses_and_frames_size_chart.jpg;;Min-2000ff,eyewear-min-2000Off,acc1sttimedisc-eors17,v-day-deals-11feb;zerotype;;Winter;On Hold Request;No
1626602;EC574-Brown-1626602;Roberto Cavalli Sunglasses;QC Reject;Sunglasses;Roberto Cavalli;Adults-Women;Women;;;;Fashion;;2016;61,ROCLSGLS00000213;22900.00;;;;;http://assets.myntassets.com/assets/images/sizechart/2016/4/25/11461584543399-Sunglasses_and_frames_size_chart.jpg;;Min-2000ff,eyewear-min-2000Off,acc1sttimedisc-eors17,v-day-deals-11feb;zerotype;;Winter;On Hold Request;No
1604420;CE-C3469-Black-1604420;CE-C3469 Black;QC Reject;Casual Shoes;Roadster;Adults-Men;Men;;;;Fashion;;2017;Euro 40,RDSTCASH00017415,Euro 41,RDSTCASH00017416,Euro 42,RDSTCASH00017417,Euro 43,RDSTCASH00017418,Euro 44,RDSTCASH00017419,Euro 45,RDSTCASH00017420;2699.00;;;;;;;rd-free-lander-men;zerotype;;Fall;On Hold Request;No
1478554;887865104339;GERTIEE;QC Reject;Heels;Steve Madden;Adults-Women;Women;;;;Core;;2016;UK5.5,STMDHeels00001318,UK6,STMDHeels00001319,UK7,STMDHeels00001320,UK8,STMDHeels00001321,UK9,STMDHeels00001322;4999.00;;;;;;;;zerotype;;Fall;On Hold Request;No
1472591;8715301-Pink-1472591;FOOTIN;BIS + Content Complete;Flip Flops;Footin;Adults-Men;Men;Pink;;;Fashion;Casual;2016;UK7,FOTNFLFP00000018,UK8,FOTNFLFP00000019,UK9,FOTNFLFP00000020,UK10,FOTNFLFP00000021;699.00;A pair of pink flip-flops<br />PU upper<br />Cushioned footbed<br />Textured outsole<br />Note: Broken straps are not covered under warranty;Footin brings you this amazing pair of flip-flops with a perfect combination of style and comfort. Be it a relaxing evening walk in the park or a chilled out stroll on the beach, they will surely complement your casual style quotient.;PU<br />Wipe with a clean, dry cloth when needed;;;Footin Men Pink Flip-Flops;Footin,undefined,extra10-25oct,15Perc-Off-FW-Nov16,20Perc-Off-FW-Nov16,500-Off-FW-Nov-16,newarrvlmens,mcfeorsjan17,foryou20,foryou15,flash-sale-launch,super-hour-mar17,mid-day-rush,most-wishlisted-mar17,min60offonftw,aw17-new-season,welcome-to-mynt-v2sep2017,welcome-to-myntra-sep2017;zerotype;;Fall;Content Not Available;No
1460325;MOTOGP-MJ-013-Black-1460325;Denim-Pant;Inactive - PMM - Catalog;Jeans;Roadster;Adults-Men;Men;Black;;;Fashion;Casual;2017;28,RDSTJENS00010964,30,RDSTJENS00010965,32,RDSTJENS00010966,34,RDSTJENS00010967,36,RDSTJENS00010968;3499.00;A pair of black 6-pocket mid-rise   Jeans, lightly washed and distressed, whiskers and chevrons, has a zip fly with button closure, a waistband with belt loops;Look cool by wearing this pair of trendy jeans from Roadster. Team it with a casual shirt and loafers for a laid-back look.;88% cotton, 9% polyamide, 3% elastane<br /> Stretchable <br />  Machine-wash cold;Slim fit <br />The model (height 6') is wearing a size 32;;RDSTR Black MotoGP Washed Slim Fit Stretchable Jeans;-extra1000,gold22-bb,power500-bb,b3-20-power20,newseason20-bb,flat50-extra15-bb,flash-sale-bb21,best25-apr25,flat-60-mds,Flat-60-mds,roadster-hp-apr-men,men-offer-may05,bestsellers-may6,welcome-to-myntra-may,price-surge,rs300off-ccmay,flash-sale-may6,extra500-may6,apr15-hh,extra30-may9,flat50-extra20-may9,big10-mse-roadster,big10-mse-all,big10-350off,big10-super-hour25,best-seller-1905,roadster-bp-main,roadster-bp-it,roadster-bp-jeans,roadster-bp-jeans-destruction,roadster-bp-jeans-washed,roadster-bp-international,flat50-crush15-may25,extra500-may26,extra15-may27,big10-price-surge,mantastic-uber-link17,mantastic-inmyjeans17,mantasticmay17,extra500-may29,payday500-jun1,rd-men-jwas-0206,casualfest-june17,gratification-jun2,hh-jun2,offer999-jun4,musthave-menscasual,coupon-crush-jun6,rd-men-jeans-look,june-crush06,jun08-wonder-hour,offer-11jun,min30-jun12,casual-june-17,mumbai-duty-free,mumbai-airport-duty,eors-wishlist15,eors-wishlist17,denim-eors-june17,wishlist-eors,eorsjun17-uber-offer,wonder-hour-jun25,ftod-bbsjul17,bb-flash-50,rd-ss-old,bss-uber-offer,extra500-jul24,rd-m-extra20,welcome-to-myntra-august17,rd-hpaug-50,rd-hpaug-denimnshoes,mcf-aug-2238,uber-offer-aug,rd-m1999-aug,dutyfree-august17,extra30-aug09,uber-offer-new-aug,extra500-16aug,uber-offer-16aug,coupon-offer-aug19,buy2-1999-23aug,coh-exp-aug,welcome-to-myntra-aug-v2,rd-al-24,rd-am-24,rd-as-24,rd-jl-24,rd-jw-24,rd-se-24,rd-men-fullcollection,rd-accessories,extra20-aug31,welcome-to-myntra-sep2017,aw17-say-yes-high-tops,welcome-to-mynt-v2sep2017,rd-menbd-bottoms;zerotype;;Spring;Image Mismatch;No
1438586;889487138075;BTRENDZ;QC Reject;Backpacks;Steve Madden;Adults-Women;Women;;;;Fashion;;2016;Onesize,STMDBAPK00000030;4999.00;;;;;;;;zerotype;;Winter;On Hold Request;No
1438585;889487137344;MGVARSTY;QC Reject;Backpacks;Steve Madden;Adults-Women;Women;;;;Fashion;;2016;Onesize,STMDBAPK00000029;4999.00;;;;;;;;zerotype;;Winter;On Hold Request;No
1438583;889487137450;MGLEIGH;QC Reject;Handbags;Steve Madden;Adults-Women;Women;;;;Fashion;;2016;Onesize,STMDHDBG00000391;5499.00;;;;;;;;zerotype;;Winter;On Hold Request;No
1438581;889487132417;MGGOLDYY;QC Reject;Handbags;Steve Madden;Adults-Women;Women;;;;Fashion;;2016;Onesize,STMDHDBG00000389;4499.00;;;;;;;;zerotype;;Winter;On Hold Request;No
1438580;889487132424;MGGOLDYY;QC Reject;Handbags;Steve Madden;Adults-Women;Women;;;;Fashion;;2016;Onesize,STMDHDBG00000388;4499.00;;;;;;;;zerotype;;Winter;On Hold Request;No
1438579;889487138938;MGTULIP;QC Reject;Handbags;Steve Madden;Adults-Women;Women;;;;Fashion;;2016;Onesize,STMDHDBG00000387;5999.00;;;;;;;;zerotype;;Winter;On Hold Request;No
1438578;889487139003;MGTULIP;QC Reject;Handbags;Steve Madden;Adults-Women;Women;;;;Fashion;;2016;Onesize,STMDHDBG00000386;5999.00;;;;;;;;zerotype;;Winter;On Hold Request;No
1438577;889487132455;MGSUMMER;QC Reject;Handbags;Steve Madden;Adults-Women;Women;;;;Fashion;;2016;Onesize,STMDHDBG00000385;3999.00;;;;;;;;zerotype;;Winter;On Hold Request;No
1438575;889487140740;BSPRINKL;QC Reject;Handbags;Steve Madden;Adults-Women;Women;;;;Fashion;;2016;Onesize,STMDHDBG00000383;4999.00;;;;;;;;zerotype;;Winter;On Hold Request;No
1438574;889487140825;BPATCHIE;QC Reject;Handbags;Steve Madden;Adults-Women;Women;;;;Fashion;;2016;Onesize,STMDHDBG00000382;5999.00;;;;;;;;zerotype;;Winter;On Hold Request;No
1438573;889487140832;BPATCHIE;QC Reject;Handbags;Steve Madden;Adults-Women;Women;;;;Fashion;;2016;Onesize,STMDHDBG00000381;5999.00;;;;;;;;zerotype;;Winter;On Hold Request;No
1438572;889487140986;BRAVVEN;QC Reject;Handbags;Steve Madden;Adults-Women;Women;;;;Fashion;;2016;Onesize,STMDHDBG00000380;7499.00;;;;;;;;zerotype;;Winter;On Hold Request;No
1438571;889487140948;BRAELYN;QC Reject;Handbags;Steve Madden;Adults-Women;Women;;;;Fashion;;2016;Onesize,STMDHDBG00000379;7999.00;;;;;;;;zerotype;;Winter;On Hold Request;No
1438569;889487141433;BHARPERR;QC Reject;Handbags;Steve Madden;Adults-Women;Women;;;;Fashion;;2016;Onesize,STMDHDBG00000377;7499.00;;;;;;;womenhandbags-newstyles;zerotype;;Winter;On Hold Request;No
1438568;889487141426;BHARPERR;QC Reject;Handbags;Steve Madden;Adults-Women;Women;;;;Fashion;;2016;Onesize,STMDHDBG00000376;7499.00;;;;;;;;zerotype;;Winter;On Hold Request;No
1438565;889487141082;BDEBRA;QC Reject;Handbags;Steve Madden;Adults-Women;Women;;;;Fashion;;2016;Onesize,STMDHDBG00000373;7999.00;;;;;;;;zerotype;;Winter;On Hold Request;No
1438564;889487141112;BDALLAS;QC Reject;Handbags;Steve Madden;Adults-Women;Women;;;;Fashion;;2016;Onesize,STMDHDBG00000372;8999.00;;;;;;;;zerotype;;Winter;On Hold Request;No
1438563;889487141334;BCELIAA;QC Reject;Handbags;Steve Madden;Adults-Women;Women;;;;Fashion;;2016;Onesize,STMDHDBG00000371;7499.00;;;;;;;;zerotype;;Winter;On Hold Request;No
1438562;889487141327;BCELIAA;QC Reject;Handbags;Steve Madden;Adults-Women;Women;;;;Fashion;;2016;Onesize,STMDHDBG00000370;7499.00;;;;;;;;zerotype;;Winter;On Hold Request;No
1438561;889487141228;BANABELE;QC Reject;Handbags;Steve Madden;Adults-Women;Women;;;;Fashion;;2016;Onesize,STMDHDBG00000369;7499.00;;;;;;;;zerotype;;Winter;On Hold Request;No
1438560;889487141211;BANABELE;QC Reject;Handbags;Steve Madden;Adults-Women;Women;;;;Fashion;;2016;Onesize,STMDHDBG00000368;7499.00;;;;;;;;zerotype;;Winter;On Hold Request;No
1431971;715924887674;PRINESS;QC Reject;Heels;Steve Madden;Adults-Women;Women;;;;Fashion;;2016;US5.5,STMDHeels00001302,US6,STMDHeels00001303,US7,STMDHeels00001304,US8,STMDHeels00001305,US9,STMDHeels00001306;10999.00;<p>Leather</p>;;;;;;;zerotype;;Winter;On Hold Request;No
1376080;2571610519-TAN-1376080;JOHNSTON & MURPHYFormal Shoes;Inactive - PMM - Catalog;Formal Shoes;JOHNSTON & MURPHY;Adults-Men;Men;Brown;;;Fashion;Casual;2016;US8,JNMYFOSH00000372,US9.5,JNMYFOSH00000373,US10.5,JNMYFOSH00000374,US11.5,JNMYFOSH00000375,US8.5,JNMYFOSH00000376,US9,JNMYFOSH00000377,US10,JNMYFOSH00000378,US11,JNMYFOSH00000379,US12,JNMYFOSH00000380,US13,JNMYFOSH00000381;10899.00;A pair of brown Derbys, has central lace-ups<br />Leather upper<br />Cushioned footbed<br />Textured outsole with a stacked heel;With a classic design, this pair of classy Derbys will surely give you a sophisticated look. Team it with a linen shirt and slim fit trousers to turn heads when you step out.;Sheepskin leatherUse a branded leather conditioner to clean the product<br />Avoid washing;;;JOHNSTON & MURPHY Men Brown Leather Derby Shoes;JOHNSTON & MURPHY,myntra-sepcial-offer-2016,welcome-to-myntra-sept,wedding-groom-bachelor-party-clubnight,ola-offer-nov16,fashion-weekender-dress-shoes,extra-500-off-dec6,wedding-all,happy-hour-december,happyhour-rs-off,welcome-to-eors,flat50-eors-men,eors-coupon-4jan,welcome-to-mynt-jan,welcome-to-myntra-jan,welcome-to-myntra-jan-new,foryou20,welcome-to-myntra-new-jan,foryou15,HH20JAN17,stylesforextra5-jan17,extra-30-jan30,myntra-wishlisters-jan,extra15-wishlisters-2017,welcome-to-myntra-feb,welcome-to-myntra-feb-new,vday-nsp,wishlisters-wish10-feb25,first1000-lastday300,mitm-sharp-formal-all,welcome-to-march,balloon-blast-500,superhour-feb26,holi-super,super-hour-mar17,happy-hour-mar,happy-hour-mar19,mar29-super-hour,welcome-to-myntra-april,extra50-apr1,hh-0104,bfg-wanderlust-men-luxuryessentials,bfg-apr10,extra30-bfg-10apr,apr12-super-hour,ftod-bb-apr20,gold22-bb,best25-apr25,coupon-crush05,myntra-rupay,coupon-crush08,coupon-crush11,rs300off-ccmay,super-hour-ccmay,men-offer-may05,welcome-to-myntra-may,price-surge,flash-sale-may6,apr15-hh,extra400-may9,super-hour-may9,high-street-brands,coupon-offer-may,rs300off-1105,big10-flash30,big10-lucky10,welcome-to-myntra-may-big,big10-super-hour25,big10-mse-all,best-seller-1905,may21-hh,big10-price-surge,big10-gratification,extra500-may29,payday500-jun1,gratification-jun2,ftod-eorsj17-40,extra500-jul24,min500-jul29,uber-offer-aug,welcome-to-myntra-aug17-new,dutyfree-august17,extra30-aug09,price-leakage-test,uber-offer-new-aug,uber-offer-aug-rtf,extra500-16aug,uber-offer-16aug,welcome-to-myntra-aug-v2,coupon-offer-aug19,coh-exp-aug,extra20-sports,welcome-to-myntra-sep2017,welcome-to-mynt-v2sep2017,dutyfree-sept17;zerotype;;Summer;Image Mismatch;No
1367189;18701102-NAVY/CORAL-1367189;Forever21NAVY/CORALSwimsuit;QC Reject;Curtains and Sheers;FOREVER 21;Adults-Women;Women;Beige;Beige;Beige;Fashion;Casual;2016;XXL,FRTOSWMW00000354,XXXL,FRTOSWMW00000355,XXXXL,FRTOSWMW00000356,XXXXXL,FRTOSWMW00000357;1449.00;Contents:100% RAYON, Lining:, Other:100% POLYESTER;;;;;na;ndd-gurgaon,ladies-night-coupon1,ladies-night-coupon2,myntra-store-01,high-street-brands;zerotype;;Summer;On Hold Request;No
1342152;889487112617;BDAPHNY;QC Reject;Wallets;Steve Madden;Adults-Women;Women;Silver;;;Fashion;;2016;Onesize,STMDWLLT00000003;3499.00;;;;;;;;zerotype;;Summer;On Hold Request;No
1342151;889487112600;BDAPHNY;QC Reject;Wallets;Steve Madden;Adults-Women;Women;Metallic;;;Fashion;;2016;Onesize,STMDWLLT00000002;3499.00;;;;;;;;zerotype;;Summer;On Hold Request;No
1342147;889487113454;BVIVIAN;QC Reject;Handbags;Steve Madden;Adults-Women;Women;Black;;;Fashion;;2016;Onesize,STMDHDBG00000363;6999.00;;;<p>PU</p>;;;;;zerotype;;Summer;On Hold Request;No
1342146;889487112594;BDANELLA;QC Reject;Handbags;Steve Madden;Adults-Women;Women;Silver;;;Fashion;;2016;Onesize,STMDHDBG00000362;5999.00;;;<p>PU</p>;;;;;zerotype;;Summer;On Hold Request;No
1342144;889487113744;BSUITED;QC Reject;Handbags;Steve Madden;Adults-Women;Women;Blue;;;Fashion;;2016;Onesize,STMDHDBG00000360;6999.00;;;<p>PU</p>;;;;;zerotype;;Summer;On Hold Request;No
1338905;5054265291531-IGP-1338905;CALI LACE VEST;QC Reject;Tops;Superdry;Adults-Women;Women;;;;Fashion;;2016;L,SPDYTOPS00000397,M,SPDYTOPS00000398,S,SPDYTOPS00000399,XL,SPDYTOPS00000400,XS,SPDYTOPS00000401;2490.00;<p>Cotton</p>;;;;;;ndd-bangalore,myntra-store-02;zerotype;;Spring;On Hold Request;No
1338892;5054265361692-53S-1338892;CAPTAIN COACH JACKET;QC Reject;Tops;Superdry;Adults-Women;Women;;;;Fashion;;2016;L,SPDYTOPS00000347,M,SPDYTOPS00000348,S,SPDYTOPS00000349,XS,SPDYTOPS00000350;9990.00;<p>Nylon</p>;;;;;;tat-styles-31aug,ndd-bangalore,myntra-store-02;zerotype;;Spring;On Hold Request;No
1338888;5054265361159-VAX-1338888;SUPERDRY GYM TECH PANELLED ZIPHOOD;QC Reject;Tops;Superdry;Adults-Women;Women;;;;Fashion;;2016;L,SPDYTOPS00000335,M,SPDYTOPS00000336,S,SPDYTOPS00000337,XS,SPDYTOPS00000338;8990.00;<p>Blended</p>;;;;;;ndd-bangalore,myntra-store-02;zerotype;;Spring;On Hold Request;No
1268014;JWFPT4031A242OL-1A2-1268014;JP- SOLID PV TROUSERS;Inactive - PMM - Catalog;Trousers;John Players;Adults-Men;Men;Charcoal;;;Fashion;Formal;2016;28,JOPLTRSR00004620,30,JOPLTRSR00004621,32,JOPLTRSR00004622,34,JOPLTRSR00004623,36,JOPLTRSR00004624,38,JOPLTRSR00004625,40,JOPLTRSR00004699,42,JOPLTRSR00006285;1299.00;A pair of charcoal grey mid-rise formal trousers in a patterned weave, has four pockets, a zip fly with a button and hook-and-bar closures, and a waistband with belt loops<br />Our stylist has paired these trousers with a belt<br />This pair of trousers does not come with a belt;This pair of trousers from John Players is a perfect pick for your <br />office wear collection. Team it up with a formal shirt and leather shoes<br /> for a dapper look.;Polyester and viscose blend<br />Machine-wash cold;Skinny fit, mid-rise<br />The model (height 5'9" and waist 31") is wearing a size 32;;John Players Charcoal Grey Skinny Formal Trousers;John Players,JOAS0121,best-seller-at-50,rs-500-off-22may,500rs-1jun,wedding-guest-him-category-trousers-all,ola-offer-nov16,buyoneat50-buytwoat60-27nov,extra20-flash20-dec2,party-men-club-tailored-trousers,wedding-all,part-store-men-view-all,stylesforextra5-jan17,HH12JAN17,vday-coupon-offer,holi-basket-mar,holi2017-mar11,superhour-feb26,hh-0104,coupon-crush-bb,flat40-extra30-bb,min30-extra1000,gold22-bb,power500-bb,b3-20-power20,flat50-extra15-bb,flash-sale-bb21,mse-all,ndd-gurgaon,myntra-icici-offer,big10-extra40,welcome-to-myntra-may-big,flash-sale-may17,big10-super-hour25,may21-hh,flat50-crush15-may25,mantastic-uber-link17,mantasticmay17,casualfest-june17,hh-jun2,jp-formalwear-trouser,musthave-menscasual,casual-june-17,eors17-rsoff-coupon,wishlist-eors,signup-july-2017,welcome-to-myntra-august17,welcome-to-myntra-sep2017;zerotype;;Winter;Image Mismatch;No
1222730;889487067641;BELEVATEBLACK SAFFIANOUNI;QC Reject;Handbags;Steve Madden;Adults-Women;Women;;;;Fashion;;2016;Onesize,STMDHDBG00000342;7499.00;;;;;;;appsale-top-brands-women-handbags;zerotype;;Spring;On Hold Request;No
1222729;889487106296;LBLEXISTRIPE FLORALUNI;QC Reject;Handbags;Steve Madden;Adults-Women;Women;;;;Fashion;;2016;Onesize,STMDHDBG00000341;5499.00;;;;;;;appsale-top-brands-women-handbags;zerotype;;Spring;On Hold Request;No
1222728;889487106333;LBJUNEDENIMUNI;QC Reject;Handbags;Steve Madden;Adults-Women;Women;;;;Fashion;;2016;Onesize,STMDHDBG00000340;5499.00;;;;;;;appsale-top-brands-women-handbags;zerotype;;Spring;On Hold Request;No
1222727;889487106340;LBJUNEBLK/WHTUNI;QC Reject;Handbags;Steve Madden;Adults-Women;Women;;;;Fashion;;2016;Onesize,STMDHDBG00000339;5499.00;;;;;;;appsale-top-brands-women-handbags;zerotype;;Spring;On Hold Request;No
1222726;889487106302;LBDEENADENIMUNI;QC Reject;Handbags;Steve Madden;Adults-Women;Women;;;;Fashion;;2016;Onesize,STMDHDBG00000338;3499.00;;;;;;;appsale-top-brands-women-handbags;zerotype;;Spring;On Hold Request;No
1222724;889487112563;BDANIKAPEWTER MULTIUNI;QC Reject;Handbags;Steve Madden;Adults-Women;Women;;;;Fashion;;2016;Onesize,STMDHDBG00000336;6999.00;;;;;;;appsale-top-brands-women-handbags;zerotype;;Spring;On Hold Request;No
1222719;889487116691;MGBELLAMSILVERUNI;QC Reject;Handbags;Steve Madden;Adults-Women;Women;;;;Fashion;;2016;Onesize,STMDHDBG00000331;4499.00;;;;;;;appsale-top-brands-women-handbags;zerotype;;Spring;On Hold Request;No
1222718;889487116639;MGBELLAMBLACKUNI;QC Reject;Handbags;Steve Madden;Adults-Women;Women;;;;Fashion;;2016;Onesize,STMDHDBG00000330;4499.00;;;;;;;appsale-top-brands-women-handbags;zerotype;;Spring;On Hold Request;No
1222717;889487113362;BTAMIKOBLACKUNI;QC Reject;Handbags;Steve Madden;Adults-Women;Women;;;;Fashion;;2016;Onesize,STMDHDBG00000329;5999.00;;;;;;;appsale-top-brands-women-handbags;zerotype;;Spring;On Hold Request;No
1222716;889487113348;BTALULLABLACKUNI;QC Reject;Handbags;Steve Madden;Adults-Women;Women;;;;Fashion;;2016;Onesize,STMDHDBG00000328;7499.00;;;;;;;appsale-top-brands-women-handbags;zerotype;;Spring;On Hold Request;No
1222715;889487113317;BSALMATURQUOISEUNI;QC Reject;Handbags;Steve Madden;Adults-Women;Women;;;;Fashion;;2016;Onesize,STMDHDBG00000327;6999.00;;;;;;;appsale-top-brands-women-handbags;zerotype;;Spring;On Hold Request;No
1222714;889487113294;BSACHITURQUOISEUNI;QC Reject;Handbags;Steve Madden;Adults-Women;Women;;;;Fashion;;2016;Onesize,STMDHDBG00000326;6499.00;;;;;;;appsale-top-brands-women-handbags;zerotype;;Spring;On Hold Request;No
1222713;889487113249;BRAVVENMAGENTAUNI;QC Reject;Handbags;Steve Madden;Adults-Women;Women;;;;Fashion;;2016;Onesize,STMDHDBG00000325;7499.00;;;;;;;appsale-top-brands-women-handbags;zerotype;;Spring;On Hold Request;No
1222712;889487113225;BRAVVENBLACKUNI;QC Reject;Handbags;Steve Madden;Adults-Women;Women;;;;Fashion;;2016;Onesize,STMDHDBG00000324;7499.00;;;;;;;appsale-top-brands-women-handbags;zerotype;;Spring;On Hold Request;No
1222711;889487113188;BRAELYNBLACKUNI;QC Reject;Handbags;Steve Madden;Adults-Women;Women;;;;Fashion;;2016;Onesize,STMDHDBG00000323;7999.00;;;;;;;appsale-top-brands-women-handbags;zerotype;;Spring;On Hold Request;No
1222710;889487113072;BNANCYYGREYUNI;QC Reject;Handbags;Steve Madden;Adults-Women;Women;;;;Fashion;;2016;Onesize,STMDHDBG00000322;6999.00;;;;;;;appsale-top-brands-women-handbags;zerotype;;Spring;On Hold Request;No
1222709;889487113034;BNADINEBLACKUNI;QC Reject;Handbags;Steve Madden;Adults-Women;Women;;;;Fashion;;2016;Onesize,STMDHDBG00000321;6999.00;;;;;;;appsale-top-brands-women-handbags;zerotype;;Spring;On Hold Request;No
1222708;889487113058;BNADINEPINKUNI;QC Reject;Handbags;Steve Madden;Adults-Women;Women;;;;Fashion;;2016;Onesize,STMDHDBG00000320;6999.00;;;;;;;appsale-top-brands-women-handbags;zerotype;;Spring;On Hold Request;No
1222707;889487108443;BLEAHBLACKUNI;QC Reject;Handbags;Steve Madden;Adults-Women;Women;;;;Fashion;;2016;Onesize,STMDHDBG00000319;7499.00;;;;;;;appsale-top-brands-women-handbags;zerotype;;Spring;On Hold Request;No
1222706;889487112532;BLAURELBLACKUNI;QC Reject;Handbags;Steve Madden;Adults-Women;Women;;;;Fashion;;2016;Onesize,STMDHDBG00000318;6999.00;;;;;;;appsale-top-brands-women-handbags;zerotype;;Spring;On Hold Request;No
1222704;889487105589;BHARLEYYBLACKUNI;QC Reject;Handbags;Steve Madden;Adults-Women;Women;;;;Fashion;;2016;Onesize,STMDHDBG00000316;7499.00;;;;;;;appsale-top-brands-women-handbags;zerotype;;Spring;On Hold Request;No
1222702;889487105565;BHANNAHBLACKUNI;QC Reject;Handbags;Steve Madden;Adults-Women;Women;;;;Fashion;;2016;Onesize,STMDHDBG00000314;6999.00;;;;;;;appsale-top-brands-women-handbags;zerotype;;Spring;On Hold Request;No
1222701;889487112679;BELECTRASILVERUNI;QC Reject;Handbags;Steve Madden;Adults-Women;Women;;;;Fashion;;2016;Onesize,STMDHDBG00000313;6499.00;;;;;;;appsale-top-brands-women-handbags;zerotype;;Spring;On Hold Request;No
1222699;889487113515;BDOKOTAPLATINUMUNI;QC Reject;Handbags;Steve Madden;Adults-Women;Women;;;;Fashion;;2016;Onesize,STMDHDBG00000311;6999.00;;;;;;;appsale-top-brands-women-handbags;zerotype;;Spring;On Hold Request;No
1222698;889487113522;BDOKOTABLACKUNI;QC Reject;Handbags;Steve Madden;Adults-Women;Women;;;;Fashion;;2016;Onesize,STMDHDBG00000310;6999.00;;;;;;;appsale-top-brands-women-handbags;zerotype;;Spring;On Hold Request;No
1222697;889487113492;BDEBRAYELLOWUNI;QC Reject;Handbags;Steve Madden;Adults-Women;Women;;;;Fashion;;2016;Onesize,STMDHDBG00000309;6999.00;;;;;;;appsale-top-brands-women-handbags;zerotype;;Spring;On Hold Request;No
1222696;889487113461;BDEBRAPLATINUMUNI;QC Reject;Handbags;Steve Madden;Adults-Women;Women;;;;Fashion;;2016;Onesize,STMDHDBG00000308;6999.00;;;;;;;appsale-top-brands-women-handbags;zerotype;;Spring;On Hold Request;No
1222695;889487112624;BDARABLACK MULTIUNI;QC Reject;Handbags;Steve Madden;Adults-Women;Women;;;;Fashion;;2016;Onesize,STMDHDBG00000307;6999.00;;;;;;;appsale-top-brands-women-handbags;zerotype;;Spring;On Hold Request;No
413559;8903493014160-MULTI-413559;SATI 03-CROSSBODY-MULTI;Inactive - PMM - Catalog;Handbags;Holii;Adults-Women;Women;Multi;;;Fashion;Casual;2015;Onesize,HOLIHDBG00101;3295.00;Multicoloured sling bag with stitched, floral patterned details and overlays, a flap across the mouth, secured with a lock-and-key, branding on the front<br />One long, detachable sling strap<br />One main compartment with a zip separator sleeve, a zip pocket and a slip pocket<br />An external slip pocket on the front<br />A slip pocket on the back<br />Warranty: 1 year from the date of purchase against manufacturing defects;Inspired by our rich Indian heritage, Holii's new collection celebrates the freshness of modern life. Team this sling bag with a matching pair of sandals for a stylish look.;Leather<br />Wipe with a clean, dry cloth when needed;Height: 16 cm<br />Width: 27.5 cm<br />Depth: 4.5 cm;;Holii Multicoloured Leather Sling Bag;Holii,,,HHSEP24,HH15dec2014,respectlist-women,,SALESOPS20,'',HH28APRIL2015,apprwtmay27,catpush,style-never-before,,,,new-arrival-offer,appsale-top-brands-women-handbags,leatherfesthandbag,leatherfest70off,eoss-best-collection-2,500-rs-off-10aug,onam16-women-handbags,first-time-on-discount-bbd,first-time-on-discount-10oct,myntra-open-coupon-offer,extra20-flash20-dec2,flash20-dec7,400off-15dec-16,eors-women-accs,foryou20,foryou15,HH20JAN17,stylesforextra5-jan17,lasttime-discount-rd,budget-deal,cohort-customers,HH07FEB17,HH12JAN17,v-day-styles,vacation-store-women-romantic-bags,vday-coupon-offer,next-day-delivery-bng,vday-nsp,welcome-to-myntra-feb-new,bday-happy-hour,coupon-crush-8,coupon-crush-9,weekend-coupon-offer,superhour-feb26,wishlisters-wish10,first1000-lastday300,coupon-offer-monday,welcome-to-march,holi-basket-mar,balloon-blast-13,balloon-blast-18,balloon-blast-500,coupon-15-mar14,happy-hour-mar19,cc-articles-2803,extra1000-mar28,welcome-to-march-new,welcome-to-mar17-new,rs300-off-mar17,mar29-super-hour,welcome-to-myntra-april,hh-0104,chill-summer-apr,bfg-extra10,rs300off-ccmay,top500-handbags-eors17,women-offer-may05,price-surge,welcome-to-myntra-may,extra400-may9,super-hour-may9,rs300off-1105,ndd-bangalore,big10-lucky10,big10-lucky20,big10-price-surge,big10-rs501off,myntra-icici-offer,welcome-to-myntra-may-big,big10-350off,big10-super-hour25,may21-hh,big10-gratification,ladies-night-coupon1,ladies-night-coupon2,crush350-may25,price-surge-may25,extra500-may29,payday500-jun1,gratification-jun2,hh-jun2,offer999-jun4,welcome-to-myntra-june17,myntra-store-02,coupon-crush-jun6,jun08-wonder-hour,jun8-offer999,offer-11jun,mumbai-duty-free,mumbai-airport-duty,eorsjun17-uber-offer,wishlist-eors,wonder-hour-jun25,uber-offer-new-aug,welcome-to-mynt-v2sep2017,welcome-to-myntra-sep2017;Handbags;Holii;Summer;Image Mismatch;No
