Style ID;Vendor Article Number;Vendor Article Name;Active Status;Article type;Brand;Age Group;Gender;Base Colour;Colour1;Colour2;Fashion Type;Usage;Year;Size - SKU code pair;MRP;Style Description;Style Note;Materials and Care Description;Size and Fit Description;Size Chart Path;Product Display Name;Tags;Product Type;Classification Brand;Season;Comments;Upload Images
1851965;F-1476-Blue-11-Blue-1851965;F-1476-Blue-11;Draft;Formal Shoes;Bruno Manetti;Adults-Men;Men;;;;Core;;2017;UK6,BNMTFOSH00001129,UK7,BNMTFOSH00001130,UK8,BNMTFOSH00001131,UK9,BNMTFOSH00001132,UK10,BNMTFOSH00001133,UK11,BNMTFOSH00001134;3499.00;;;;;;;;zerotype;;Summer;;No
1851964;F-1475-Teak-11-Tan-1851964;F-1475-Teak-11;Draft;Formal Shoes;Bruno Manetti;Adults-Men;Men;;;;Core;;2017;UK6,BNMTFOSH00001123,UK7,BNMTFOSH00001124,UK8,BNMTFOSH00001125,UK9,BNMTFOSH00001126,UK10,BNMTFOSH00001127,UK11,BNMTFOSH00001128;3799.00;;;;;;;;zerotype;;Summer;;No
1851963;F-1475-Blue-11-Blue-1851963;F-1475-Blue-11;Draft;Formal Shoes;Bruno Manetti;Adults-Men;Men;;;;Core;;2017;UK6,BNMTFOSH00001117,UK7,BNMTFOSH00001118,UK8,BNMTFOSH00001119,UK9,BNMTFOSH00001120,UK10,BNMTFOSH00001121,UK11,BNMTFOSH00001122;3799.00;;;;;;;;zerotype;;Summer;;No
1851962;9950-Blue-11-Blue-1851962;9950-Blue-11;Draft;Formal Shoes;Bruno Manetti;Adults-Men;Men;;;;Core;;2017;UK6,BNMTFOSH00001111,UK7,BNMTFOSH00001112,UK8,BNMTFOSH00001113,UK9,BNMTFOSH00001114,UK10,BNMTFOSH00001115,UK11,BNMTFOSH00001116;3499.00;;;;;;;;zerotype;;Summer;;No
1851961;9921-Tan-11-Tan-1851961;9921-Tan-11;Draft;Formal Shoes;Bruno Manetti;Adults-Men;Men;;;;Core;;2017;UK6,BNMTFOSH00001105,UK7,BNMTFOSH00001106,UK8,BNMTFOSH00001107,UK9,BNMTFOSH00001108,UK10,BNMTFOSH00001109,UK11,BNMTFOSH00001110;3799.00;;;;;;;;zerotype;;Summer;;No
1851960;4003-Brown-11-Brown-1851960;4003-Brown-11;Draft;Formal Shoes;Bruno Manetti;Adults-Men;Men;;;;Core;;2017;UK6,BNMTFOSH00001099,UK7,BNMTFOSH00001100,UK8,BNMTFOSH00001101,UK9,BNMTFOSH00001102,UK10,BNMTFOSH00001103,UK11,BNMTFOSH00001104;3499.00;;;;;;;;zerotype;;Summer;;No
1851959;4003-Black-11-Black-1851959;4003-Black-11;Draft;Formal Shoes;Bruno Manetti;Adults-Men;Men;;;;Core;;2017;UK6,BNMTFOSH00001093,UK7,BNMTFOSH00001094,UK8,BNMTFOSH00001095,UK9,BNMTFOSH00001096,UK10,BNMTFOSH00001097,UK11,BNMTFOSH00001098;3499.00;;;;;;;;zerotype;;Summer;;No
1851958;3482-Tan-11-Tan-1851958;3482-Tan-11;Draft;Formal Shoes;Bruno Manetti;Adults-Men;Men;;;;Core;;2017;UK6,BNMTFOSH00001087,UK7,BNMTFOSH00001088,UK8,BNMTFOSH00001089,UK9,BNMTFOSH00001090,UK10,BNMTFOSH00001091,UK11,BNMTFOSH00001092;3499.00;;;;;;;;zerotype;;Summer;;No
1851957;802-Tan-11-Tan-1851957;802-Tan-11;Draft;Formal Shoes;Bruno Manetti;Adults-Men;Men;;;;Core;;2017;UK6,BNMTFOSH00001081,UK7,BNMTFOSH00001082,UK8,BNMTFOSH00001083,UK9,BNMTFOSH00001084,UK10,BNMTFOSH00001085,UK11,BNMTFOSH00001086;3799.00;;;;;;;;zerotype;;Summer;;No
1851956;416-Brown-11-Brown-1851956;416-Brown-11;Draft;Formal Shoes;Bruno Manetti;Adults-Men;Men;;;;Core;;2017;UK6,BNMTFOSH00001075,UK7,BNMTFOSH00001076,UK8,BNMTFOSH00001077,UK9,BNMTFOSH00001078,UK10,BNMTFOSH00001079,UK11,BNMTFOSH00001080;3799.00;;;;;;;;zerotype;;Summer;;No
1851955;0136-Brown-11-Brown-1851955;0136-Brown-11;Draft;Formal Shoes;Bruno Manetti;Adults-Men;Men;;;;Core;;2017;UK6,BNMTFOSH00001069,UK7,BNMTFOSH00001070,UK8,BNMTFOSH00001071,UK9,BNMTFOSH00001072,UK10,BNMTFOSH00001073,UK11,BNMTFOSH00001074;3799.00;;;;;;;;zerotype;;Summer;;No
1851954;1256-Tan-11-Tan-1851954;1256-Tan-11;Draft;Casual Shoes;Bruno Manetti;Adults-Men;Men;;;;Core;;2017;UK6,BNMTCASH00004402,UK7,BNMTCASH00004403,UK8,BNMTCASH00004404,UK9,BNMTCASH00004405,UK10,BNMTCASH00004406,UK11,BNMTCASH00004407;3999.00;;;;;;;;zerotype;;Summer;;No
1851953;1256-Brown-11-Brown-1851953;1256-Brown-11;Draft;Casual Shoes;Bruno Manetti;Adults-Men;Men;;;;Core;;2017;UK6,BNMTCASH00004396,UK7,BNMTCASH00004397,UK8,BNMTCASH00004398,UK9,BNMTCASH00004399,UK10,BNMTCASH00004400,UK11,BNMTCASH00004401;3999.00;;;;;;;;zerotype;;Summer;;No
1851952;S-228-Black-11-Black-1851952;S-228-Black-11;Draft;Casual Shoes;Bruno Manetti;Adults-Men;Men;;;;Core;;2017;UK6,BNMTCASH00004390,UK7,BNMTCASH00004391,UK8,BNMTCASH00004392,UK9,BNMTCASH00004393,UK10,BNMTCASH00004394,UK11,BNMTCASH00004395;3499.00;;;;;;;;zerotype;;Summer;;No
1851951;F-4012-Tan-11-Tan-1851951;F-4012-Tan-11;Draft;Casual Shoes;Bruno Manetti;Adults-Men;Men;;;;Core;;2017;UK6,BNMTCASH00004384,UK7,BNMTCASH00004385,UK8,BNMTCASH00004386,UK9,BNMTCASH00004387,UK10,BNMTCASH00004388,UK11,BNMTCASH00004389;3999.00;;;;;;;;zerotype;;Summer;;No
1851950;F-4012-Black-11-Black-1851950;F-4012-Black-11;Draft;Casual Shoes;Bruno Manetti;Adults-Men;Men;;;;Core;;2017;UK6,BNMTCASH00004378,UK7,BNMTCASH00004379,UK8,BNMTCASH00004380,UK9,BNMTCASH00004381,UK10,BNMTCASH00004382,UK11,BNMTCASH00004383;3999.00;;;;;;;;zerotype;;Summer;;No
1851949;AT-019-Brown-11-Brown-1851949;AT-019-Brown-11;Draft;Casual Shoes;Bruno Manetti;Adults-Men;Men;;;;Core;;2017;UK6,BNMTCASH00004372,UK7,BNMTCASH00004373,UK8,BNMTCASH00004374,UK9,BNMTCASH00004375,UK10,BNMTCASH00004376,UK11,BNMTCASH00004377;5999.00;;;;;;;;zerotype;;Summer;;No
1851948;401-Black-11-Black-1851948;401-Black-11;Draft;Casual Shoes;Bruno Manetti;Adults-Men;Men;;;;Core;;2017;UK6,BNMTCASH00004366,UK7,BNMTCASH00004367,UK8,BNMTCASH00004368,UK9,BNMTCASH00004369,UK10,BNMTCASH00004370,UK11,BNMTCASH00004371;2999.00;;;;;;;;zerotype;;Summer;;No
1851947;396-Brown-11-Brown-1851947;396-Brown-11;Draft;Casual Shoes;Bruno Manetti;Adults-Men;Men;;;;Core;;2017;UK6,BNMTCASH00004360,UK7,BNMTCASH00004361,UK8,BNMTCASH00004362,UK9,BNMTCASH00004363,UK10,BNMTCASH00004364,UK11,BNMTCASH00004365;2999.00;;;;;;;;zerotype;;Summer;;No
1851946;F-2091-Brown-9-Brown-1851946;F-2091-Brown-9;Draft;Sandals;Bruno Manetti;Adults-Men;Men;;;;Core;;2017;UK10,BNMTSNDL00000372,UK11,BNMTSNDL00000373,UK6,BNMTSNDL00000374,UK7,BNMTSNDL00000375,UK8,BNMTSNDL00000376,UK9,BNMTSNDL00000377;2499.00;;;;;;;;zerotype;;Summer;;No
1851945;911-Tan-9-Tan-1851945;911-Tan-9;Draft;Sandals;Bruno Manetti;Adults-Men;Men;;;;Core;;2017;UK10,BNMTSNDL00000366,UK11,BNMTSNDL00000367,UK6,BNMTSNDL00000368,UK7,BNMTSNDL00000369,UK8,BNMTSNDL00000370,UK9,BNMTSNDL00000371;2799.00;;;;;;;;zerotype;;Summer;;No
