Style ID;Vendor Article Number;Vendor Article Name;Active Status;Article type;Brand;Age Group;Gender;Base Colour;Colour1;Colour2;Fashion Type;Usage;Year;Size - SKU code pair;MRP;Style Description;Style Note;Materials and Care Description;Size and Fit Description;Size Chart Path;Product Display Name;Tags;Product Type;Classification Brand;Season;Comments;Upload Images
2025015;RTS10602-Brown-2025015;RTS10602-BROWN;Draft;Formal Shoes;Red Tape;Adults-Men;Men;Brown;Brown;;Fashion;Formal;2017;6,RDTPFOSH00102584,7,RDTPFOSH00102585,8,RDTPFOSH00102586,9,RDTPFOSH00102587,10,RDTPFOSH00102588,11,RDTPFOSH00102589;3295.00;;;;;;;;zerotype;;Summer;;No
2024983;RTS10083-Burgundy-2024983;RTS10083-BURGUNDY;Draft;Casual Shoes;Red Tape;Adults-Men;Men;Burgundy;Burgundy;;Fashion;Casual;2017;6,RDTPCASH00103713,7,RDTPCASH00103714,8,RDTPCASH00103715,9,RDTPCASH00103716,10,RDTPCASH00103717,11,RDTPCASH00103718;3595.00;;;;;;;;zerotype;;Summer;;No
1855558;RTR1781-Black-1855558;RTR1781-Black;Draft;Formal Shoes;Red Tape;Adults-Men;Men;;;;Fashion;;2017;UK6,RDTPFOSH00102422,UK7,RDTPFOSH00102423,UK8,RDTPFOSH00102424,UK9,RDTPFOSH00102425,UK10,RDTPFOSH00102426,UK11,RDTPFOSH00102427;3995.00;;;;;;;;zerotype;;Summer;;No
1855551;RTR1542-Brown-1855551;RTR1542-Brown;Draft;Formal Shoes;Red Tape;Adults-Men;Men;;;;Fashion;;2017;UK7,RDTPFOSH00102386,UK8,RDTPFOSH00102387,UK9,RDTPFOSH00102388;3995.00;;;;;;;;zerotype;;Summer;;No
1855548;RTR1473-Tan-1855548;RTR1473-Tan;Draft;Formal Shoes;Red Tape;Adults-Men;Men;;;;Fashion;;2017;UK7,RDTPFOSH00102377,UK8,RDTPFOSH00102378,UK9,RDTPFOSH00102379;3995.00;;;;;;;;zerotype;;Summer;;No
1855529;RTR1513-Tan-1855529;RTR1513-Tan;Draft;Casual Shoes;Red Tape;Adults-Men;Men;;;;Fashion;;2017;UK7,RDTPCASH00103361,UK8,RDTPCASH00103362,UK9,RDTPCASH00103363;3995.00;;;;;;;;zerotype;;Summer;;No
1855526;RTR1488-Brown-1855526;RTR1488-Brown;Draft;Casual Shoes;Red Tape;Adults-Men;Men;;;;Fashion;;2017;UK7,RDTPCASH00103352,UK8,RDTPCASH00103353,UK9,RDTPCASH00103354;3995.00;;;;;;;;zerotype;;Summer;;No
1855525;RTR1421-Black-1855525;RTR1421-Black;Draft;Casual Shoes;Red Tape;Adults-Men;Men;;;;Fashion;;2017;UK7,RDTPCASH00103349,UK8,RDTPCASH00103350,UK9,RDTPCASH00103351;3995.00;;;;;;;;zerotype;;Summer;;No
1855524;RTR1408-Brown-1855524;RTR1408-Brown;Draft;Casual Shoes;Red Tape;Adults-Men;Men;;;;Fashion;;2017;UK7,RDTPCASH00103346,UK8,RDTPCASH00103347,UK9,RDTPCASH00103348;3995.00;;;;;;;;zerotype;;Summer;;No
1640790;RTR1042-Brown-1640790;RTR1042-Brown;Draft;Formal Shoes;Red Tape;Adults-Men;Men;;;;Core;;2016;UK6,RDTPFOSH00101898,UK7,RDTPFOSH00101899,UK8,RDTPFOSH00101900,UK9,RDTPFOSH00101901,UK10,RDTPFOSH00101902,UK11,RDTPFOSH00101903;3495.00;;;;;;;;zerotype;;Summer;;No
1507144;RTS9647-11-Brown-1507144;RTS9647-Brown;Draft;Casual Shoes;Red Tape;Adults-Men;Men;Brown;;;Core;Casual;2016;UK6,RDTPCASH00102417,UK7,RDTPCASH00102418,UK8,RDTPCASH00102419,UK9,RDTPCASH00102420,UK10,RDTPCASH00102421,UK11,RDTPCASH00102422;3295.00;;;;;;;;zerotype;;Summer;;No
1157831;RTR0638-TAUPE-1157831;RTR0638 -TAUPE;Draft;Casual Shoes;Red Tape;Adults-Men;Men;;;;Fashion;;2016;UK6,RDTPCASH00102001,UK7,RDTPCASH00102002,UK8,RDTPCASH00102003,UK9,RDTPCASH00102004,UK10,RDTPCASH00102005,UK11,RDTPCASH00102006;3295.00;<p>Leather</p>;;;;;;;zerotype;;Summer;;No
