Style ID;Vendor Article Number;Vendor Article Name;Active Status;Article type;Brand;Age Group;Gender;Base Colour;Colour1;Colour2;Fashion Type;Usage;Year;Size - SKU code pair;MRP;Style Description;Style Note;Materials and Care Description;Size and Fit Description;Size Chart Path;Product Display Name;Tags;Product Type;Classification Brand;Season;Comments;Upload Images
2234012;ETF51706767-Tan-2234012;Trousers;Draft;Trousers;Peter England Casuals;Adults-Men;Men;Tan;;;Fashion;Smart Casual;2017;44,PEDCTRSR00000757,42,PEDCTRSR00000758,40,PEDCTRSR00000759,38,PEDCTRSR00000760,36,PEDCTRSR00000761,34,PEDCTRSR00000762,32,PEDCTRSR00000763,30,PEDCTRSR00000764;1999.00;;;<p>100% Cotton</p>;;;na;;zerotype;;Winter;;No
2234011;ETF51703822-Beige-2234011;Trousers;Draft;Trousers;Peter England Casuals;Adults-Men;Men;Beige;;;Fashion;Smart Casual;2017;30,PEDCTRSR00000748,34,PEDCTRSR00000749,32,PEDCTRSR00000750,36,PEDCTRSR00000751,28,PEDCTRSR00000752,44,PEDCTRSR00000753,42,PEDCTRSR00000754,40,PEDCTRSR00000755,38,PEDCTRSR00000756;1799.00;;;<p>Cotton Spandex Blend</p>;;;na;;zerotype;;Winter;;No
2234010;ETF51700028-Brown-2234010;Trousers;Draft;Trousers;Peter England Casuals;Adults-Men;Men;Brown;;;Fashion;Smart Casual;2017;38,PEDCTRSR00000739,40,PEDCTRSR00000740,30,PEDCTRSR00000741,42,PEDCTRSR00000742,44,PEDCTRSR00000743,28,PEDCTRSR00000744,32,PEDCTRSR00000745,34,PEDCTRSR00000746,36,PEDCTRSR00000747;1499.00;;;<p>100% Cotton</p>;;;na;;zerotype;;Winter;;No
2234008;ESH51702383-Red-2234008;Shirts;Draft;Shirts;Peter England Casuals;Adults-Men;Men;Red;Blue;;Fashion;Casual;2017;39,PEDCSHRT00002376,36,PEDCSHRT00002377,46,PEDCSHRT00002378,44,PEDCSHRT00002379,42,PEDCSHRT00002380,40,PEDCSHRT00002381,38,PEDCSHRT00002382;1299.00;;;<p>100% Cotton</p>;;;na;;zerotype;;Winter;;No
2234007;ESF51701099-Blue-2234007;Shirts;Draft;Shirts;Peter England Casuals;Adults-Men;Men;Blue;;;Fashion;Formal;2017;38,PEDCSHRT00002369,39,PEDCSHRT00002370,36,PEDCSHRT00002371,46,PEDCSHRT00002372,44,PEDCSHRT00002373,42,PEDCSHRT00002374,40,PEDCSHRT00002375;1799.00;;;<p>100% Cotton</p>;;;na;;zerotype;;Winter;;No
2234006;ESF51702548-White-2234006;Shirts;Draft;Shirts;Peter England Casuals;Adults-Men;Men;White;;;Fashion;Formal;2017;36,PEDCSHRT00002362,46,PEDCSHRT00002363,44,PEDCSHRT00002364,42,PEDCSHRT00002365,39,PEDCSHRT00002366,40,PEDCSHRT00002367,38,PEDCSHRT00002368;1499.00;;;<p>100% Cotton</p>;;;na;;zerotype;;Winter;;No
2234005;ESF51703993-Off White-2234005;Shirts;Draft;Shirts;Peter England Casuals;Adults-Men;Men;Off White;;;Fashion;Smart Casual;2017;46,PEDCSHRT00002355,44,PEDCSHRT00002356,42,PEDCSHRT00002357,40,PEDCSHRT00002358,38,PEDCSHRT00002359,39,PEDCSHRT00002360,36,PEDCSHRT00002361;1899.00;;;<p>100% Cotton</p>;;;na;;zerotype;;Winter;;No
2234004;ESF51700954-Pink-2234004;Shirts;Draft;Shirts;Peter England Casuals;Adults-Men;Men;Pink;;;Fashion;Formal;2017;39,PEDCSHRT00002348,36,PEDCSHRT00002349,46,PEDCSHRT00002350,40,PEDCSHRT00002351,44,PEDCSHRT00002352,42,PEDCSHRT00002353,38,PEDCSHRT00002354;1499.00;;;<p>100% Cotton</p>;;;na;;zerotype;;Winter;;No
2234003;EDN51709530-Blue-2234003;Jeans;Draft;Jeans;Peter England Casuals;Adults-Men;Men;Blue;;;Fashion;Casual;2017;32,PEDCJENS00000802,38,PEDCJENS00000803,30,PEDCJENS00000804,28,PEDCJENS00000805,44,PEDCJENS00000806,42,PEDCJENS00000807,40,PEDCJENS00000808,36,PEDCJENS00000809,34,PEDCJENS00000810;1999.00;;;<p>98% Cotton and 2% Lycra</p>;;;na;;zerotype;;Winter;;No
2234001;EDN51709402-Blue-2234001;Jeans;Draft;Jeans;Peter England Casuals;Adults-Men;Men;Blue;;;Fashion;Casual;2017;36,PEDCJENS00000793,34,PEDCJENS00000794,32,PEDCJENS00000795,30,PEDCJENS00000796,28,PEDCJENS00000797,44,PEDCJENS00000798,42,PEDCJENS00000799,40,PEDCJENS00000800,38,PEDCJENS00000801;2199.00;;;<p>98% Cotton and 2% Lycra</p>;;;na;;zerotype;;Winter;;No
2234000;EDN51709404-Blue-2234000;Jeans;Draft;Jeans;Peter England Casuals;Adults-Men;Men;Blue;;;Fashion;Casual;2017;36,PEDCJENS00000784,34,PEDCJENS00000785,32,PEDCJENS00000786,38,PEDCJENS00000787,30,PEDCJENS00000788,40,PEDCJENS00000789,42,PEDCJENS00000790,28,PEDCJENS00000791,44,PEDCJENS00000792;2199.00;;;<p>98% Cotton and 2% Lycra</p>;;;na;;zerotype;;Winter;;No
2233999;EDN51709403-Blue-2233999;Jeans;Draft;Jeans;Peter England Casuals;Adults-Men;Men;Blue;;;Fashion;Casual;2017;36,PEDCJENS00000775,32,PEDCJENS00000776,28,PEDCJENS00000777,42,PEDCJENS00000778,40,PEDCJENS00000779,38,PEDCJENS00000780,34,PEDCJENS00000781,30,PEDCJENS00000782,44,PEDCJENS00000783;2199.00;;;<p>98% Cotton and 2% Lycra</p>;;;na;;zerotype;;Winter;;No
2233998;EDN51709540-Blue-2233998;Jeans;Draft;Jeans;Peter England Casuals;Adults-Men;Men;Blue;;;Fashion;Casual;2017;36,PEDCJENS00000766,44,PEDCJENS00000767,42,PEDCJENS00000768,40,PEDCJENS00000769,38,PEDCJENS00000770,34,PEDCJENS00000771,32,PEDCJENS00000772,30,PEDCJENS00000773,28,PEDCJENS00000774;2199.00;;;<p>98% Cotton and 2% Lycra</p>;;;na;;zerotype;;Winter;;No
2233997;EDN51709420-Blue-2233997;Jeans;Draft;Jeans;Peter England Casuals;Adults-Men;Men;Blue;;;Fashion;Casual;2017;44,PEDCJENS00000757,42,PEDCJENS00000758,40,PEDCJENS00000759,38,PEDCJENS00000760,36,PEDCJENS00000761,34,PEDCJENS00000762,32,PEDCJENS00000763,30,PEDCJENS00000764,28,PEDCJENS00000765;2299.00;;;<p>98% Cotton and 2% Lycra</p>;;;na;;zerotype;;Winter;;No
2233996;ESW51708043-Navy Blue-2233996;Sweaters;Draft;Sweaters;Peter England Casuals;Adults-Men;Men;Navy Blue;Red;;Fashion;Casual;2017;L,PEDCSWTR00000481,M,PEDCSWTR00000482,XL,PEDCSWTR00000483,S,PEDCSWTR00000484,XXXL,PEDCSWTR00000485,XXL,PEDCSWTR00000486;2399.00;;;<p>100% Cotton</p>;;;na;;zerotype;;Winter;;No
2233611;PRMA5509-Multi-2233611;Mega Blocks Thomas Racin Railway Wagon, Multi Color;Draft;Construction Toys;Mattel;Kids-Unisex;Unisex;Multi;;;Core;NA;2017;Onesize,MTTLCNTY00000006;1999.00;<p>Chug along, tug along, or race away with this speedy 2-in-1 wagon and racing set! Take railway racing action anywhere you go! Made just for little hands, this classic pull wagon transforms into a speedy surprise when you build a race-ready ramp for Thomas! Build the raceway arch, adding the checkered flag on top. Next, get set to ride the fast track when you connect the ramp to the wagon handle and sit Thomas at the starting line. Then lift the handle and send Thomas zooming through the arch to the finish line. Use the blocks to build directly onto the wagon, or put them away inside the wagon for easy cleanup! Ideal for ages 1 to 5 2-in-1 preschool wagon transforms into railway race track Easy-to-build raceway arch with racing flags Buildable Thomas with special racing decoration</p>;<p>na</p>;;;;Mega Thomas Racin Railway Wagon, Multi Color;;zerotype;;Fall;;No
2233610;PRMA5508-Multi-2233610;Mega Blocks  Thomas Sodor Adventures, Multi Color;Draft;Construction Toys;Mattel;Kids-Unisex;Unisex;Multi;;;Core;NA;2017;Onesize,MTTLCNTY00000005;1499.00;<p>It's a journey around the Island of Sodor with everyone's favorite blue engine! All aboard! Now even the littlest Thomas fans can visit the Island of Sodor's most famous sights when they use the big blocks to bring iconic locations from the world of Thomas & Friends to life! Build Thomas, then chuff out from Maron Station and head to Knapford before stopping in for repairs at the Sodor Steamworks! Made just for little hands, this big set of 70 building blocks lets you build and rebuild different ways for a new story every time. When your busy day of sightseeing is over, cleanup is easy with the handy storage bag! Ideal for ages 1 to 5 70-piece playset for building locations from the Island of Sodor Includes easy-to-build Maron Station, Knapford Station, and Sodor Steamworks Buildable Thomas</p>;<p>na</p>;;;;Mega Thomas Sodor Adventures, Multi Color;;zerotype;;Fall;;No
2233609;PRMA5506-Multi-2233609;Mega Blocks Abc Learning Train, Multi Color;Draft;Construction Toys;Mattel;Kids-Unisex;Unisex;Multi;;;Core;NA;2017;Onesize,MTTLCNTY00000004;1599.00;<p>All aboard for alphabet adventures! Your little one will be on the fast track to learning their ABCs with a friendly, buildable train featuring building blocks decorated with the letters A through Z! Connect the three rolling wheelbases together to make your train, then stack the letter blocks on top to build the alphabet or even make whole words, learning your letters as you chug along. Or use the blocks and special shapes to build a station as the next stop on your alphabet adventure! Ideal for ages 1 to 5  Easy-to-build train for learning the alphabet 20-piece playset includes building blocks and special shapes Blocks feature all the letters A through Z</p>;<p>na</p>;;;;Mega Blocks Abc Learning Train, Multi Color;;zerotype;;Fall;;No
2233608;PRMA5467-Multi-2233608;Mega Blocks Despicable Name Plate Builder, Multi Color;Draft;Construction Toys;Mattel;Kids-Unisex;Unisex;Multi;;;Core;NA;2017;Onesize,MTTLCNTY00000003;1299.00;<p>Display your Minions pride with this buildable, mischievous nameplate! Put a mischievous spin on your name! You can build any name or word up to eight letters long with this customizable set to create a Minion-approved nameplate. Put it in your room, at your desk, or anywhere else you want to prove your loyalty to Gru! Combine multiple nameplates and build even bigger words! Ideal for ages 6 and upBuildable nameplate with Despicable Me-themed colors and accessoriesBuild up to eight letters long to spell out your nameOne buildable Stuart Minion figure with interchangeable parts, including overalls, goggles, arms and feet</p>;<p>na</p>;;;;Mega Despicable Name Plate Builder, Multi Color;;zerotype;;Fall;;No
2233607;PRMA5461-Multi-2233607;Mega  Blocks Build N Go Table, Multi Color;Draft;Construction Toys;Mattel;Kids-Unisex;Unisex;Multi;;;Core;NA;2017;Onesize,MTTLCNTY00000002;3999.00;<p>Its a big day at the jobsite when your little one gets to work with the Build n Go Table by Mega Bloks! A world of building adventures comes to life when you use this portable, folding playset to build a busy construction site, attaching the buildable tracks to send your Block Buddy zooming along in his friendly car! Stack directly onto the table to make towers, archways, a spinning crane, or anything else you dream up, exploring your imagination as you go! When the day is done, open up the tables top to store the blocks inside and fold up the legs to take playtime with you anywhere you go! Ideal for ages 1 to 5 Portable construction-themed table playset with interior storage, fold-up legs, and handle 70-piece set includes blocks, special parts, buildable tracks and spinning crane, and a sticker sheet for added detail Comes with one Construction Worker Block Buddy and one vehicle</p>;<p>na</p>;;;;Mega Build N Go Table, Multi Color;;zerotype;;Fall;;No
2233606;PRMA5430-Multi-2233606;Mega Blocks First Builder  Block Scooping Wagon;Draft;Construction Toys;Mattel;Kids-Unisex;Unisex;Multi;;;Core;NA;2017;Onesize,MTTLCNTY00000001;1499.00;<p>Classic wagon play meets construction fun  all with a block-picking surprise! Roll out with playtime's latest creative development! Combining classic wagon play, construction, and a block-scooping surprise, your little one can push this colorful wagon forward on big sturdy wheels to pick up the included building blocks, then watch them spin inside the clear compartment! Or, pull it along using the easy-to-grip folding handle. Dump the blocks out and use them to build anything you imagine. You can even build right onto the handle! With so many ways to play, your little one will love rolling and building with this block-picker wagon! Ideal for ages 1 to 5Colorful pull wagon picks up blocks when you push itIncludes 20 building blocks in classic colorsBlocks spin inside clear compartment</p>;<p>na</p>;;;;Mega Builders Block Scooping Wagon, Multi Color;;zerotype;;Fall;;No
2145039;ESF51702322-MediumBrownWithWhite-2145039;ESF51702322;On Hold - Sample;Shirts;Peter England Casuals;Adults-Men;Men;;;;Fashion;;2017;38,PEDCSHRT00001648,40,PEDCSHRT00001649,42,PEDCSHRT00001650,39,PEDCSHRT00001651,44,PEDCSHRT00001652;1499.00;;;<p>100%Cotton</p>;;;;;zerotype;;Fall;Broken Size;No
2144996;ETF51706772-LightkhakiSolid-2144996;ETF51706772;Active;Trousers;Peter England Casuals;Adults-Men;Men;Khaki;;;Fashion;Casual;2017;28.0,PEDCTRSR00000561,30.0,PEDCTRSR00000562,32.0,PEDCTRSR00000563,34.0,PEDCTRSR00000564,36.0,PEDCTRSR00000565,40.0,PEDCTRSR00000566;1699.00;<a href='/khaki?src=pd' class='seolink'>Khaki</a> self-design mid-rise <a href='/regular-trousers?src=pd' class='seolink'>regular trousers</a>, has a button closure, 4 pockets;These classic trousers from Peter England Casuals will take your style to a whole new level.  Team this khaki pair with an in-season shirt and your favourite pair of Oxfords for a trendy work ensemble.;Cotton and elastane blend <br />Machine-wash;Super Slim Fit <br> The model (height 6') is wearing a size 32;;Peter England Casuals Men Khaki Super Slim Fit Self-Design Trousers;Peter England Casuals,menscasualfest-nov,menscasualfestoct2,express-delivery-17,try-and-buy-17;zerotype;;Fall;try-and-buy-17;No
2144497;EDN51709395-MediumblueWithblue-2144497;EDN51709395;Active;Jeans;Peter England Casuals;Adults-Men;Men;Blue;;;Fashion;Casual;2017;32.0,PEDCJENS00000618,28.0,PEDCJENS00000619,36.0,PEDCJENS00000620,40.0,PEDCJENS00000621,30.0,PEDCJENS00000622,34.0,PEDCJENS00000623;1999.00;Blue medium wash 5-pocket mid-rise jeans, clean look with light fade, has a button and zip closure, waistband with belt loops;These comfy and trendy Peter England Casuals slim jeans are suitable for year-round wear.  Style yours with sneakers and a light jacket when you need a casual outfit to run errands in.;98% cotton and 2% elastane<br />Machine-wash;Slim fit<br>  Stretchable<br> The model (height 6') is wearing a size 32;;Peter England Casuals Men Blue Slim Fit Mid-Rise Stretchable Jeans;Peter England Casuals,menscasualfest-nov,menscasualfestoct2,express-delivery-17,try-and-buy-17;zerotype;;Fall;try-and-buy-17;No
2144468;EDN51709165-MediumblueWithblue-2144468;EDN51709165;Active;Jeans;Peter England Casuals;Adults-Men;Men;Blue;;;Fashion;Casual;2017;34.0,PEDCJENS00000471,40.0,PEDCJENS00000472,32.0,PEDCJENS00000473,30.0,PEDCJENS00000474,36.0,PEDCJENS00000475,28.0,PEDCJENS00000476;2199.00;Blue medium wash 5-pocket mid-rise jeans, clean look with light fade, has a button and zip closure, waistband with belt loops;Maintain a handsome appearance all year long with these stellar Peter England Casuals slim jeans.  Dress yours up with a pair of easy loafers and a high-quality shirt when you have a work event.;98% cotton and 2% elastane<br />Machine-wash;Slim fit<br>  Stretchable<br> The model (height 6') is wearing a size 32;;Peter England Casuals Men Blue Slim Fit Mid-Rise Clean Look Stretchable Jeans;Peter England Casuals,express-delivery-17,try-and-buy-17;zerotype;;Fall;try-and-buy-17;No
2104357;ETF51703950-Khaki-2104357;ETF51703950;Active;Trousers;Peter England Casuals;Adults-Men;Men;Olive;;;Fashion;Casual;2017;38.0,PEDCTRSR00000466,32.0,PEDCTRSR00000467,30.0,PEDCTRSR00000468,36.0,PEDCTRSR00000469,34.0,PEDCTRSR00000470;1799.00;<a href='/olive?src=pd' class='seolink'>Olive</a> <a href='/brown?src=pd' class='seolink'>brown</a> <a href='/solid?src=pd' class='seolink'>solid</a> mid-rise <a href='/chinos?src=pd' class='seolink'>chinos</a>, has a button closure, <a href='/4?src=pd' class='seolink'>4</a> pockets;Elevate your wardrobe game with these top-of-the-line chino trousers made by Peter England Casuals.  This brown pair can be matched with a button-down shirt, a casual blazer, and dockers when you have an important work meeting.;Cotton <br> Machine-wash;Super Slim Fit <br> The model (height 6') is wearing a size 32;;Peter England Casuals Men Olive Brown Super Slim Fit Solid Chinos;Peter England Casuals,mitm-casuals-oct,mitm-mainbanner-oct,mitm-streetstyles-oct,menscasualfest-nov,menscasualfestoct2,express-delivery-17,try-and-buy-17;zerotype;;Fall;try-and-buy-17;No
1991743;ETF51700031-LightkhakiSolid-1991743;ETF51700031;Active;Trousers;Peter England Casuals;Adults-Men;Men;Khaki;;;Fashion;Casual;2017;92,PEDCTRSR00000323,82,PEDCTRSR00000324,76,PEDCTRSR00000325,86,PEDCTRSR00000326,96,PEDCTRSR00000327,72,PEDCTRSR00000449;1299.00;<a href='/khaki?src=pd' class='seolink'>Khaki</a> <a href='/solid?src=pd' class='seolink'>solid</a> mid-rise <a href='/chinos?src=pd' class='seolink'>chinos</a>, has a button closure, <a href='/4?src=pd' class='seolink'>4</a> pockets;Opt for these fashion-forward chino trousers from Peter England Casuals when you need a style upgrade. This khaki pair can be perfectly matched with a chunky knit sweater and penny loafers for a brisk day outside with friends.;<p>100%Cotton</p>;Super slim fit <br /> The model (height 6') is wearing a size 32;;Peter England Casuals Men Khaki Super Slim Fit Solid Chinos;Peter England Casuals,casualfest-june17,PE-AW17,PE-AW-17,new-arrivals-formal-23082017,Mitm-aw-aug,Mitm-college-aug,welcome-to-myntra-sep2017,aw17-formal-men,aw17-new-season,mens-casual-fest-aw17styles,mitm-new-season,menscasualfest-oct,ftod-sep30,mitm-casuals-oct,mitm-mainbanner-oct,mitm-streetstyles-oct,menscasualfest-nov,menscasualfestoct2,express-delivery-17,try-and-buy-17;zerotype;;Fall;try-and-buy-17;No
