Style ID;Vendor Article Number;Vendor Article Name;Active Status;Article type;Brand;Age Group;Gender;Base Colour;Colour1;Colour2;Fashion Type;Usage;Year;Size - SKU code pair;MRP;Style Description;Style Note;Materials and Care Description;Size and Fit Description;Size Chart Path;Product Display Name;Tags;Product Type;Classification Brand;Season;Comments;Upload Images
1839754;USTR6530-NAVY-1839754;TROUSER NAVY;Draft;Trousers;U.S. Polo Assn.;Adults-Men;Men;;;;Fashion;;2017;28,USPOTRSR00001679,30,USPOTRSR00001680,32,USPOTRSR00001681,34,USPOTRSR00001682,36,USPOTRSR00001683,38,USPOTRSR00001684,40,USPOTRSR00001685;2299.00;;;<p>100% COTTON</p>;;;;;zerotype;;Summer;;No
1839753;USSTD0105-BLACK-1839753;COMFORT SLIM DARKWASHDDENIM BLACK;Draft;Shorts;U.S. Polo Assn.;Adults-Men;Men;;;;Fashion;;2017;30,USPOSHOR00000705,32,USPOSHOR00000706,34,USPOSHOR00000707,36,USPOSHOR00000708,38,USPOSHOR00000709;2399.00;;;<p>100% Cotton</p>;<p>COMFORT FIT</p>;;;;zerotype;;Summer;;No
1839752;USSTD0103-bluE-1839752;COMFORT SLIM DARKWASHDDENIM BLUE;Draft;Shorts;U.S. Polo Assn.;Adults-Men;Men;;;;Fashion;;2017;30,USPOSHOR00000700,32,USPOSHOR00000701,34,USPOSHOR00000702,36,USPOSHOR00000703,38,USPOSHOR00000704;2399.00;;;<p>100% Cotton</p>;<p>COMFORT FIT</p>;;;;zerotype;;Summer;;No
1839751;USSTD0102-bluE-1839751;COMFORT SLIM DARKWASHDDENIM BLUE;Draft;Shorts;U.S. Polo Assn.;Adults-Men;Men;;;;Fashion;;2017;30,USPOSHOR00000695,32,USPOSHOR00000696,34,USPOSHOR00000697,36,USPOSHOR00000698,38,USPOSHOR00000699;2199.00;;;<p>100% Cotton</p>;<p>COMFORT FIT</p>;;;;zerotype;;Summer;;No
1839750;USSTD0101-Blue-1839750;COMFORT SLIM DARK WASH DENIM;Draft;Shorts;U.S. Polo Assn.;Adults-Men;Men;;;;Fashion;;2017;30,USPOSHOR00000690,32,USPOSHOR00000691,34,USPOSHOR00000692,36,USPOSHOR00000693,38,USPOSHOR00000694;2199.00;;;<p>100% Cotton</p>;<p>COMFORT FIT</p>;;;;zerotype;;Summer;;No
1839749;USST6213-BEIGE-1839749;SHORTS BEIGE;Draft;Shorts;U.S. Polo Assn.;Adults-Men;Men;;;;Fashion;;2017;28,USPOSHOR00000684,30,USPOSHOR00000685,32,USPOSHOR00000686,34,USPOSHOR00000687,36,USPOSHOR00000688,38,USPOSHOR00000689;2699.00;;;<p>60% LINEN 40% COTTON</p>;<p>Regular Fit</p>;;;;zerotype;;Summer;;No
1839748;USST6200-WHITE-1839748;SHORTS WHITE;Draft;Shorts;U.S. Polo Assn.;Adults-Men;Men;;;;Fashion;;2017;28,USPOSHOR00000677,30,USPOSHOR00000678,32,USPOSHOR00000679,34,USPOSHOR00000680,36,USPOSHOR00000681,38,USPOSHOR00000682,40,USPOSHOR00000683;1999.00;;;<p>100% COTTON</p>;<p>Regular Fit</p>;;;;zerotype;;Summer;;No
1839747;USJN1063-Black-1839747;REGALLO-SKINNY RINSEWASHDDENIM BLACK;Draft;Jeans;U.S. Polo Assn.;Adults-Men;Men;;;;Fashion;;2017;28,USPOJENS00001978,30,USPOJENS00001979,32,USPOJENS00001980,34,USPOJENS00001981,36,USPOJENS00001982,38,USPOJENS00001983,40,USPOJENS00001984;3399.00;;;<p>Cotton Lycra</p>;;;;;zerotype;;Summer;;No
1839746;USTS5460-NAVY-1839746;TSHIRT NAVY;Draft;Tshirts;U.S. Polo Assn.;Adults-Men;Men;;;;Fashion;;2017;3XL,USPOTSHT00005725,L,USPOTSHT00005726,M,USPOTSHT00005727,S,USPOTSHT00005728,XL,USPOTSHT00005729,XXL,USPOTSHT00005730;1899.00;;;<p>100% COTTON</p>;;;;;zerotype;;Summer;;No
1839745;USTS5431-NAVY-1839745;TSHIRT NAVY;Draft;Tshirts;U.S. Polo Assn.;Adults-Men;Men;;;;Fashion;;2017;L,USPOTSHT00005720,M,USPOTSHT00005721,S,USPOTSHT00005722,XL,USPOTSHT00005723,XXL,USPOTSHT00005724;1199.00;;;<p>100% COTTON</p>;;;;;zerotype;;Summer;;No
1839744;USTS5414-bluE-1839744;TSHIRT USPA BLUE MELANGE;Draft;Tshirts;U.S. Polo Assn.;Adults-Men;Men;;;;Fashion;;2017;L,USPOTSHT00005715,M,USPOTSHT00005716,S,USPOTSHT00005717,XL,USPOTSHT00005718,XXL,USPOTSHT00005719;1999.00;;;<p>97% COTTON 3% ELASTAN</p>;;;;;zerotype;;Summer;;No
1839743;USTS5413-bluE-1839743;TSHIRT COOL BLUE MELANGE;Draft;Tshirts;U.S. Polo Assn.;Adults-Men;Men;;;;Fashion;;2017;3XL,USPOTSHT00005711,L,USPOTSHT00005712,M,USPOTSHT00005713,XL,USPOTSHT00005714;1999.00;;;<p>97% COTTON 3% ELASTAN</p>;;;;;zerotype;;Summer;;No
1839742;USTS5411-rose-1839742;TSHIRT CRYSTAL ROSE MELANGE;Draft;Tshirts;U.S. Polo Assn.;Adults-Men;Men;;;;Fashion;;2017;L,USPOTSHT00005706,M,USPOTSHT00005707,S,USPOTSHT00005708,XL,USPOTSHT00005709,XXL,USPOTSHT00005710;1999.00;;;<p>97% COTTON 3% ELASTAN</p>;;;;;zerotype;;Summer;;No
1839741;USTS5381-OLIVE-1839741;TSHIRT DARK OLIVE MELANGE;Draft;Tshirts;U.S. Polo Assn.;Adults-Men;Men;;;;Fashion;;2017;3XL,USPOTSHT00005700,L,USPOTSHT00005701,M,USPOTSHT00005702,S,USPOTSHT00005703,XL,USPOTSHT00005704,XXL,USPOTSHT00005705;2199.00;;;<p>80%COTTON 20% LINEN</p>;;;;;zerotype;;Summer;;No
1839740;USTS5368-RED-1839740;TSHIRT TRUE RED;Draft;Tshirts;U.S. Polo Assn.;Adults-Men;Men;;;;Fashion;;2017;3XL,USPOTSHT00005694,L,USPOTSHT00005695,M,USPOTSHT00005696,S,USPOTSHT00005697,XL,USPOTSHT00005698,XXL,USPOTSHT00005699;1999.00;;;<p>100% Cotton</p>;;;;;zerotype;;Summer;;No
1839739;USTS5348-WHITE-1839739;TSHIRT WHITE;Draft;Tshirts;U.S. Polo Assn.;Adults-Men;Men;;;;Fashion;;2017;3XL,USPOTSHT00005688,L,USPOTSHT00005689,M,USPOTSHT00005690,S,USPOTSHT00005691,XL,USPOTSHT00005692,XXL,USPOTSHT00005693;2099.00;;;<p>100% Cotton</p>;;;;;zerotype;;Summer;;No
1839738;USSHC0058-BLACK-1839738;BLACK MENS SHIRT;Draft;Shirts;U.S. Polo Assn.;Adults-Men;Men;;;;Core;;2017;3XL,USPOSHRT00006853,L,USPOSHRT00006854,M,USPOSHRT00006855,S,USPOSHRT00006856,XL,USPOSHRT00006857,XXL,USPOSHRT00006858;3199.00;;;<p>100% Linen</p>;;;;;zerotype;;Summer;;No
1839737;USSHC0057-NAVY-1839737;NAVY MENS SHIRT;Draft;Shirts;U.S. Polo Assn.;Adults-Men;Men;;;;Core;;2017;3XL,USPOSHRT00006847,L,USPOSHRT00006848,M,USPOSHRT00006849,S,USPOSHRT00006850,XL,USPOSHRT00006851,XXL,USPOSHRT00006852;3199.00;;;<p>100% Linen</p>;;;;;zerotype;;Summer;;No
1839736;USSHC0055-NAVY-1839736;NAVY MENS SHIRT;Draft;Shirts;U.S. Polo Assn.;Adults-Men;Men;;;;Core;;2017;3XL,USPOSHRT00006842,L,USPOSHRT00006843,M,USPOSHRT00006844,XL,USPOSHRT00006845,XXL,USPOSHRT00006846;2499.00;;;<p>Linen-Cotton</p>;;;;;zerotype;;Summer;;No
1839735;USSHC0054-BLACK-1839735;BLACK MENS SHIRT;Draft;Shirts;U.S. Polo Assn.;Adults-Men;Men;;;;Core;;2017;3XL,USPOSHRT00006836,L,USPOSHRT00006837,M,USPOSHRT00006838,S,USPOSHRT00006839,XL,USPOSHRT00006840,XXL,USPOSHRT00006841;2499.00;;;<p>Linen-Cotton</p>;;;;;zerotype;;Summer;;No
1839734;USSHC0053-WHITE-1839734;WHITE MENS SHIRT;Draft;Shirts;U.S. Polo Assn.;Adults-Men;Men;;;;Core;;2017;3XL,USPOSHRT00006830,L,USPOSHRT00006831,M,USPOSHRT00006832,S,USPOSHRT00006833,XL,USPOSHRT00006834,XXL,USPOSHRT00006835;2499.00;;;<p>Linen-Cotton</p>;;;;;zerotype;;Summer;;No
1839733;USSH5280-IVORY-1839733;IVORY MENS SHIRT;Draft;Shirts;U.S. Polo Assn.;Adults-Men;Men;;;;Fashion;;2017;3XL,USPOSHRT00006824,L,USPOSHRT00006825,M,USPOSHRT00006826,S,USPOSHRT00006827,XL,USPOSHRT00006828,XXL,USPOSHRT00006829;1999.00;;;<p>100% Cotton</p>;;;;;zerotype;;Summer;;No
1839732;USSH5257-IVORY-1839732;IVORY MENS SHIRT;Draft;Shirts;U.S. Polo Assn.;Adults-Men;Men;;;;Fashion;;2017;3XL,USPOSHRT00006818,L,USPOSHRT00006819,M,USPOSHRT00006820,S,USPOSHRT00006821,XL,USPOSHRT00006822,XXL,USPOSHRT00006823;2399.00;;;<p>65%Linen35%cotton</p>;;;;;zerotype;;Summer;;No
1839731;USSH5242-BLUE-1839731;BLUE MENS SHIRT;Draft;Shirts;U.S. Polo Assn.;Adults-Men;Men;;;;Fashion;;2017;3XL,USPOSHRT00006812,L,USPOSHRT00006813,M,USPOSHRT00006814,S,USPOSHRT00006815,XL,USPOSHRT00006816,XXL,USPOSHRT00006817;2199.00;;;<p>100% Cotton</p>;;;;;zerotype;;Summer;;No
1839730;USSH5116H-BLUE-1839730;BLUE MENS SHIRT;Draft;Shirts;U.S. Polo Assn.;Adults-Men;Men;;;;Fashion;;2017;L,USPOSHRT00006807,M,USPOSHRT00006808,S,USPOSHRT00006809,XL,USPOSHRT00006810,XXL,USPOSHRT00006811;2299.00;;;<p>100% Cotton</p>;;;;;zerotype;;Summer;;No
1839729;USSH5115H-GREEN-1839729;GREEN MENS SHIRT;Draft;Shirts;U.S. Polo Assn.;Adults-Men;Men;;;;Fashion;;2017;L,USPOSHRT00006802,M,USPOSHRT00006803,S,USPOSHRT00006804,XL,USPOSHRT00006805,XXL,USPOSHRT00006806;2299.00;;;<p>100% Cotton</p>;;;;;zerotype;;Summer;;No
1839728;USSH5070H-BLUE-1839728;BLUE MENS SHIRT;Draft;Shirts;U.S. Polo Assn.;Adults-Men;Men;;;;Fashion;;2017;L,USPOSHRT00006797,M,USPOSHRT00006798,S,USPOSHRT00006799,XL,USPOSHRT00006800,XXL,USPOSHRT00006801;2499.00;;;<p>65%Linen35%Cotton</p>;;;;;zerotype;;Summer;;No
1839727;USSH5070-BLUE-1839727;BLUE MENS SHIRT;Draft;Shirts;U.S. Polo Assn.;Adults-Men;Men;;;;Fashion;;2017;L,USPOSHRT00006793,M,USPOSHRT00006794,S,USPOSHRT00006795,XL,USPOSHRT00006796;2499.00;;;<p>65%Linen35%Cotton</p>;;;;;zerotype;;Summer;;No
1832549;EPA-BOFL-6-Off White-1832549;STRAIGHT PANTS;Draft;Trousers;Mother Earth;Adults-Women;Women;;;;Fashion;;2017;L,MOTHTRSR00000033,M,MOTHTRSR00000034,XL,MOTHTRSR00000035,S,MOTHTRSR00000036;1299.00;<p>Cotton</p>;;<p>HAND WASH,SEPARATELY IN COLD,WATER,USE MILD DETERGENT,CERTAIN FABRICS,WILL SHRINK,COLOURED FABRICS,MAY BLEED,DRY IN SHADE,DO NOT SOAK,REVERSE IRON ON PRINT IF NEEDED</p>;;;;;zerotype;;Spring;;No
1832548;EWT-BOSL-8-Off White-1832548;SLEEVELESS TASSELED TOP;Draft;Tops;Mother Earth;Adults-Women;Women;;;;Fashion;;2017;XL,MOTHTOPS00000273,XXL,MOTHTOPS00000274,L,MOTHTOPS00000275,M,MOTHTOPS00000276,XS,MOTHTOPS00000277,S,MOTHTOPS00000278;899.00;<p>Pure Cotton</p>;;<p>HAND WASH,SEPARATELY IN COLD,WATER,USE MILD DETERGENT,CERTAIN FABRICS,WILL SHRINK,COLOURED FABRICS,MAY BLEED,DRY IN SHADE,DO NOT SOAK,REVERSE IRON ON PRINT IF NEEDED</p>;;;;;zerotype;;Spring;;No
1832546;ESK-BOFL-5-Off White-1832546;WRAP AROUND SKIRT;Draft;Skirts;Mother Earth;Adults-Women;Women;;;;Fashion;;2017;XL,MOTHSKRT00000057,L,MOTHSKRT00000058,M,MOTHSKRT00000059,S,MOTHSKRT00000060;999.00;<p>Cotton</p>;;<p>HAND WASH,SEPARATELY IN COLD,WATER,USE MILD DETERGENT,CERTAIN FABRICS,WILL SHRINK,COLOURED FABRICS,MAY BLEED,DRY IN SHADE,DO NOT SOAK,REVERSE IRON ON PRINT IF NEEDED</p>;;;;;zerotype;;Spring;;No
1824600;ACJN504-38-Dark Blue-1824600;American Crew Men's Dark Blue Slim Fit Jeans;Draft;Jeans;American Crew;Adults-Men;Men;;;;Fashion;;2017;30,ANCWJENS00000481,32,ANCWJENS00000482,34,ANCWJENS00000483,36,ANCWJENS00000484,38,ANCWJENS00000485;2999.00;<p>Cotton</p>;;;;;;;zerotype;;Spring;;No
1824596;ACJN503-38-Light Blue-1824596;American Crew Men's Light Blue Slim Fit Jean;Draft;Jeans;American Crew;Adults-Men;Men;;;;Fashion;;2017;30,ANCWJENS00000476,32,ANCWJENS00000477,34,ANCWJENS00000478,36,ANCWJENS00000479,38,ANCWJENS00000480;2999.00;<p>Cotton</p>;;;;;;;zerotype;;Spring;;No
1824591;ACJN502-40-Dark Blue-1824591;American Crew Men's Dark Blue Straight Fit J;Draft;Jeans;American Crew;Adults-Men;Men;;;;Fashion;;2017;30,ANCWJENS00000470,32,ANCWJENS00000471,34,ANCWJENS00000472,36,ANCWJENS00000473,38,ANCWJENS00000474,40,ANCWJENS00000475;2499.00;<p>Cotton</p>;;;;;;;zerotype;;Spring;;No
1824588;ACJN501-40-Light Blue-1824588;American Crew Men's Light Blue Straight Fit;Draft;Jeans;American Crew;Adults-Men;Men;;;;Fashion;;2017;30,ANCWJENS00000464,32,ANCWJENS00000465,34,ANCWJENS00000466,36,ANCWJENS00000467,38,ANCWJENS00000468,40,ANCWJENS00000469;2499.00;<p>Cotton</p>;;;;;;;zerotype;;Spring;;No
1824584;ACVT01-XXL-Multi-1824584;American Crew Men's Sports Vest;Draft;Tshirts;American Crew;Adults-Men;Men;;;;Fashion;;2017;L,ANCWTSHT00002647,M,ANCWTSHT00002648,XL,ANCWTSHT00002649,XXL,ANCWTSHT00002650;999.00;<p>Cotton</p>;;;;;;;zerotype;;Spring;;No
1824583;AC1318-M-Brick Red & Brown Melange-1824583;American Crew Men's Stripes Tshirt;Draft;Tshirts;American Crew;Adults-Men;Men;;;;Fashion;;2017;L,ANCWTSHT00002645,M,ANCWTSHT00002646;1199.00;<p>Cotton</p>;;;;;;;zerotype;;Spring;;No
1824581;AC1304-M-Brick Red & Blue-1824581;American Crew Men's Stripes Sports Vest;Draft;Tshirts;American Crew;Adults-Men;Men;;;;Fashion;;2017;L,ANCWTSHT00002643,M,ANCWTSHT00002644;1199.00;<p>Cotton</p>;;;;;;;zerotype;;Spring;;No
1824579;AC1184-XXL-Blue Melange-1824579;American Crew Men's V Neck Stripes Tshirt;Draft;Tshirts;American Crew;Adults-Men;Men;;;;Fashion;;2017;L,ANCWTSHT00002639,M,ANCWTSHT00002640,XL,ANCWTSHT00002641,XXL,ANCWTSHT00002642;1199.00;<p>Cotton</p>;;;;;;;zerotype;;Spring;;No
1824576;AC1183-XXL-Brown Melange-1824576;American Crew Men's Round Neck Stripes Tshirt;Draft;Tshirts;American Crew;Adults-Men;Men;;;;Fashion;;2017;L,ANCWTSHT00002635,M,ANCWTSHT00002636,XL,ANCWTSHT00002637,XXL,ANCWTSHT00002638;1199.00;<p>Cotton</p>;;;;;;;zerotype;;Spring;;No
1822881;SS17AB201JSRY_NAVY_8-NAVY-1822881;SS17AB201JSRY;Draft;Jumpsuit;AND;Adults-Women;Women;;;;Fashion;;2017;10,ANDJMST00000150,12,ANDJMST00000151,14,ANDJMST00000152,16,ANDJMST00000153,8,ANDJMST00000154;1899.00;<p>Viscose</p>;;;;;;;zerotype;;Spring;;No
1822880;SS17AB136SKCV_WHITE_34-WHITE-1822880;SS17AB136SKCV;Draft;Skirts;AND;Adults-Women;Women;;;;Fashion;;2017;26,ANDSKRT00000451,28,ANDSKRT00000452,30,ANDSKRT00000453,32,ANDSKRT00000454,34,ANDSKRT00000455;2999.00;<p>Viscose</p>;;;;;;;zerotype;;Spring;;No
1822879;SS17AY011TP20_PRINT_8-PRINT-1822879;SS17AY011TP20;Draft;Tops;AND;Adults-Women;Women;;;;Fashion;;2017;10,ANDTOPS00006742,12,ANDTOPS00006743,14,ANDTOPS00006744,16,ANDTOPS00006745,8,ANDTOPS00006746;1499.00;<p>Polyester</p>;;;;;;;zerotype;;Spring;;No
1822878;SS17AS043TPG_FLESH_8-FLESH-1822878;SS17AS043TPG;Draft;Tops;AND;Adults-Women;Women;;;;Fashion;;2017;10,ANDTOPS00006736,12,ANDTOPS00006737,14,ANDTOPS00006738,16,ANDTOPS00006739,18,ANDTOPS00006740,8,ANDTOPS00006741;1999.00;<p>Polyester</p>;;;;;;;zerotype;;Spring;;No
1822877;SS17AB163TRF_NATURAL_8-NATURAL-1822877;SS17AB163TRF;Draft;Tops;AND;Adults-Women;Women;;;;Fashion;;2017;10,ANDTOPS00006730,12,ANDTOPS00006731,14,ANDTOPS00006732,16,ANDTOPS00006733,18,ANDTOPS00006734,8,ANDTOPS00006735;1699.00;<p>Viscose</p>;;;;;;;zerotype;;Spring;;No
1822876;SS17AB161TP95_PRINT_8-PRINT-1822876;SS17AB161TP95;Draft;Tops;AND;Adults-Women;Women;;;;Fashion;;2017;10,ANDTOPS00006724,12,ANDTOPS00006725,14,ANDTOPS00006726,16,ANDTOPS00006727,18,ANDTOPS00006728,8,ANDTOPS00006729;1799.00;<p>Viscose</p>;;;;;;;zerotype;;Spring;;No
1822875;SS17AB159TYD21_STRIPE_8-STRIPE-1822875;SS17AB159TYD21;Draft;Tops;AND;Adults-Women;Women;;;;Fashion;;2017;10,ANDTOPS00006719,12,ANDTOPS00006720,14,ANDTOPS00006721,16,ANDTOPS00006722,8,ANDTOPS00006723;1299.00;<p>Cotton</p>;;;;;;;zerotype;;Spring;;No
1822874;SS17AB135TYD1_STRIPE_8-STRIPE-1822874;SS17AB135TYD1;Draft;Tops;AND;Adults-Women;Women;;;;Fashion;;2017;10,ANDTOPS00006713,12,ANDTOPS00006714,14,ANDTOPS00006715,16,ANDTOPS00006716,18,ANDTOPS00006717,8,ANDTOPS00006718;1499.00;<p>Cotton</p>;;;;;;;zerotype;;Spring;;No
1822873;SS17AB130TP27_PRINT_8-PRINT-1822873;SS17AB130TP27;Draft;Tops;AND;Adults-Women;Women;;;;Fashion;;2017;10,ANDTOPS00006707,12,ANDTOPS00006708,14,ANDTOPS00006709,16,ANDTOPS00006710,18,ANDTOPS00006711,8,ANDTOPS00006712;1599.00;<p>Viscose</p>;;;;;;;zerotype;;Spring;;No
1822872;SS17AB119TTR_BLUE_8-BLUE-1822872;SS17AB119TTR;Draft;Tops;AND;Adults-Women;Women;;;;Fashion;;2017;10,ANDTOPS00006701,12,ANDTOPS00006702,14,ANDTOPS00006703,16,ANDTOPS00006704,18,ANDTOPS00006705,8,ANDTOPS00006706;1299.00;<p>Polyester</p>;;;;;;;zerotype;;Spring;;No
1822871;SS17AB078TYD21_STRIPE_8-STRIPE-1822871;SS17AB078TYD21;Draft;Tops;AND;Adults-Women;Women;;;;Fashion;;2017;10,ANDTOPS00006696,12,ANDTOPS00006697,14,ANDTOPS00006698,16,ANDTOPS00006699,8,ANDTOPS00006700;1799.00;<p>Cotton</p>;;;;;;;zerotype;;Spring;;No
1822870;SS17AB036TYD7_STRIPE_8-STRIPE-1822870;SS17AB036TYD7;Draft;Tops;AND;Adults-Women;Women;;;;Fashion;;2017;10,ANDTOPS00006691,12,ANDTOPS00006692,14,ANDTOPS00006693,16,ANDTOPS00006694,8,ANDTOPS00006695;1699.00;<p>Cotton</p>;;;;;;;zerotype;;Spring;;No
1822869;SS17AB003TCV_LIME_8-LIME-1822869;SS17AB003TCV;Draft;Tops;AND;Adults-Women;Women;;;;Fashion;;2017;10,ANDTOPS00006685,12,ANDTOPS00006686,14,ANDTOPS00006687,16,ANDTOPS00006688,18,ANDTOPS00006689,8,ANDTOPS00006690;1899.00;<p>Viscose</p>;;;;;;;zerotype;;Spring;;No
1822868;SS17AB002TCV_WHITE_8-WHITE-1822868;SS17AB002TCV;Draft;Tops;AND;Adults-Women;Women;;;;Fashion;;2017;10,ANDTOPS00006679,12,ANDTOPS00006680,14,ANDTOPS00006681,16,ANDTOPS00006682,18,ANDTOPS00006683,8,ANDTOPS00006684;2499.00;<p>Viscose</p>;;;;;;;zerotype;;Spring;;No
1822867;SS17AB002TCV_LIME_8-LIME-1822867;SS17AB002TCV;Draft;Tops;AND;Adults-Women;Women;;;;Fashion;;2017;10,ANDTOPS00006673,12,ANDTOPS00006674,14,ANDTOPS00006675,16,ANDTOPS00006676,18,ANDTOPS00006677,8,ANDTOPS00006678;2499.00;<p>Viscose</p>;;;;;;;zerotype;;Spring;;No
1822866;SS17AA065ATTR_WHITE_8-WHITE-1822866;SS17AA065ATTR;Draft;Tops;AND;Adults-Women;Women;;;;Fashion;;2017;10,ANDTOPS00006667,12,ANDTOPS00006668,14,ANDTOPS00006669,16,ANDTOPS00006670,18,ANDTOPS00006671,8,ANDTOPS00006672;1499.00;<p>Polyester</p>;;;;;;;zerotype;;Spring;;No
1822865;SS17AA015TTR_PINK_8-PINK-1822865;SS17AA015TTR;Draft;Tops;AND;Adults-Women;Women;;;;Fashion;;2017;10,ANDTOPS00006661,12,ANDTOPS00006662,14,ANDTOPS00006663,16,ANDTOPS00006664,18,ANDTOPS00006665,8,ANDTOPS00006666;1899.00;<p>Polyester</p>;;;;;;;zerotype;;Spring;;No
1822864;COR176KT53VL_PINK_8-PINK-1822864;COR176KT53VL;Draft;Tops;AND;Adults-Women;Women;;;;Fashion;;2017;10,ANDTOPS00006655,12,ANDTOPS00006656,14,ANDTOPS00006657,16,ANDTOPS00006658,18,ANDTOPS00006659,8,ANDTOPS00006660;599.00;<p>Viscose</p>;;;;;;;zerotype;;Spring;;No
1822863;COR176KT53VL_NAVY_8-NAVY-1822863;COR176KT53VL;Draft;Tops;AND;Adults-Women;Women;;;;Fashion;;2017;10,ANDTOPS00006649,12,ANDTOPS00006650,14,ANDTOPS00006651,16,ANDTOPS00006652,18,ANDTOPS00006653,8,ANDTOPS00006654;599.00;<p>Viscose</p>;;;;;;;zerotype;;Spring;;No
1822862;COR176KT53VL_GREY_8-GREY-1822862;COR176KT53VL;Draft;Tops;AND;Adults-Women;Women;;;;Fashion;;2017;10,ANDTOPS00006643,12,ANDTOPS00006644,14,ANDTOPS00006645,16,ANDTOPS00006646,18,ANDTOPS00006647,8,ANDTOPS00006648;599.00;<p>Viscose</p>;;;;;;;zerotype;;Spring;;No
1822861;COR176KT53VL_EMERALD_8-EMERALD-1822861;COR176KT53VL;Draft;Tops;AND;Adults-Women;Women;;;;Fashion;;2017;10,ANDTOPS00006637,12,ANDTOPS00006638,14,ANDTOPS00006639,16,ANDTOPS00006640,18,ANDTOPS00006641,8,ANDTOPS00006642;599.00;<p>Viscose</p>;;;;;;;zerotype;;Spring;;No
1822860;COAR76KTRIB_WHITE_8-WHITE-1822860;COAR76KTRIB;Draft;Tops;AND;Adults-Women;Women;;;;Fashion;;2017;10,ANDTOPS00006631,12,ANDTOPS00006632,14,ANDTOPS00006633,16,ANDTOPS00006634,18,ANDTOPS00006635,8,ANDTOPS00006636;799.00;<p>Cotton</p>;;;;;;;zerotype;;Spring;;No
1822859;COAR76KTRIB_BLACK_18-BLACK-1822859;COAR76KTRIB;Draft;Tops;AND;Adults-Women;Women;;;;Fashion;;2017;10,ANDTOPS00006626,12,ANDTOPS00006627,14,ANDTOPS00006628,16,ANDTOPS00006629,18,ANDTOPS00006630;799.00;<p>Cotton</p>;;;;;;;zerotype;;Spring;;No
1822858;SS17AB196PLZWP_BLACK_36-BLACK-1822858;SS17AB196PLZWP;Draft;Trousers;AND;Adults-Women;Women;;;;Fashion;;2017;26,ANDTRSR00000884,28,ANDTRSR00000885,30,ANDTRSR00000886,32,ANDTRSR00000887,34,ANDTRSR00000888,36,ANDTRSR00000889;1899.00;<p>Polyester</p>;;;;;;;zerotype;;Spring;;No
1822857;COASUPERSTRETCH_CAMEL_36-CAMEL-1822857;COASUPERSTRETCH;Draft;Trousers;AND;Adults-Women;Women;;;;Fashion;;2017;26,ANDTRSR00000878,28,ANDTRSR00000879,30,ANDTRSR00000880,32,ANDTRSR00000881,34,ANDTRSR00000882,36,ANDTRSR00000883;1999.00;<p>Cotton</p>;;;;;;;zerotype;;Spring;;No
1822856;SS17AS006DRRF_NATURAL_8-NATURAL-1822856;SS17AS006DRRF;Draft;Dresses;AND;Adults-Women;Women;;;;Fashion;;2017;10,ANDDRSS00004747,12,ANDDRSS00004748,14,ANDDRSS00004749,16,ANDDRSS00004750,8,ANDDRSS00004751;1999.00;<p>Viscose</p>;;;;;;;zerotype;;Spring;;No
1822855;SS17AR016DRDNM_DENIM_8-DENIM-1822855;SS17AR016DRDNM;Draft;Dresses;AND;Adults-Women;Women;;;;Fashion;;2017;10,ANDDRSS00004741,12,ANDDRSS00004742,14,ANDDRSS00004743,16,ANDDRSS00004744,18,ANDDRSS00004745,8,ANDDRSS00004746;2399.00;<p>Cotton</p>;;;;;;;zerotype;;Spring;;No
1822854;SS17AB186MXPG_FUSCHIA_8-FUSCHIA-1822854;SS17AB186MXPG;Draft;Dresses;AND;Adults-Women;Women;;;;Fashion;;2017;10,ANDDRSS00004736,12,ANDDRSS00004737,14,ANDDRSS00004738,16,ANDDRSS00004739,8,ANDDRSS00004740;3999.00;<p>Polyester</p>;;;;;;;zerotype;;Spring;;No
1822853;SS17AB141DRYD9_STRIPE_8-STRIPE-1822853;SS17AB141DRYD9;Draft;Dresses;AND;Adults-Women;Women;;;;Fashion;;2017;10,ANDDRSS00004730,12,ANDDRSS00004731,14,ANDDRSS00004732,16,ANDDRSS00004733,18,ANDDRSS00004734,8,ANDDRSS00004735;2799.00;<p>Cotton</p>;;;;;;;zerotype;;Spring;;No
1822852;SS17AB097DRP8_PRNT_8-PRNT-1822852;SS17AB097DRP8;Draft;Dresses;AND;Adults-Women;Women;;;;Fashion;;2017;10,ANDDRSS00004724,12,ANDDRSS00004725,14,ANDDRSS00004726,16,ANDDRSS00004727,18,ANDDRSS00004728,8,ANDDRSS00004729;2999.00;<p>Polyester</p>;;;;;;;zerotype;;Spring;;No
1822850;SS17AB074DRP23_PRNT_8-PRNT-1822850;SS17AB074DRP23;Draft;Dresses;AND;Adults-Women;Women;;;;Fashion;;2017;10,ANDDRSS00004719,12,ANDDRSS00004720,14,ANDDRSS00004721,16,ANDDRSS00004722,8,ANDDRSS00004723;2499.00;<p>Polyester</p>;;;;;;;zerotype;;Spring;;No
1822849;SS17AB008DRCV_WHITE_8-WHITE-1822849;SS17AB008DRCV;Draft;Dresses;AND;Adults-Women;Women;;;;Fashion;;2017;10,ANDDRSS00004714,12,ANDDRSS00004715,14,ANDDRSS00004716,16,ANDDRSS00004717,8,ANDDRSS00004718;2999.00;<p>Viscose</p>;;;;;;;zerotype;;Spring;;No
1822847;SS17AA055DRRY_CORAL_8-CORAL-1822847;SS17AA055DRRY;Draft;Dresses;AND;Adults-Women;Women;;;;Fashion;;2017;10,ANDDRSS00004709,12,ANDDRSS00004710,14,ANDDRSS00004711,16,ANDDRSS00004712,8,ANDDRSS00004713;2499.00;<p>Rayon</p>;;;;;;;zerotype;;Spring;;No
1822844;SS17AA055DRRY_BLACK_8-BLACK-1822844;SS17AA055DRRY;Draft;Dresses;AND;Adults-Women;Women;;;;Fashion;;2017;10,ANDDRSS00004704,12,ANDDRSS00004705,14,ANDDRSS00004706,16,ANDDRSS00004707,8,ANDDRSS00004708;2499.00;<p>Rayon</p>;;;;;;;zerotype;;Spring;;No
1822842;SS17AB158TURY_PINK_8-PINK-1822842;SS17AB158TURY;Draft;Tunics;AND;Adults-Women;Women;;;;Fashion;;2017;10,ANDTNIC00001829,12,ANDTNIC00001830,14,ANDTNIC00001831,16,ANDTNIC00001832,8,ANDTNIC00001833;1899.00;<p>Viscose</p>;;;;;;;zerotype;;Spring;;No
1822840;SS17AB117TUMO_TOMATO_18-TOMATO-1822840;SS17AB117TUMO;Draft;Tunics;AND;Adults-Women;Women;;;;Fashion;;2017;10,ANDTNIC00001824,12,ANDTNIC00001825,14,ANDTNIC00001826,16,ANDTNIC00001827,18,ANDTNIC00001828;1699.00;<p>Modal</p>;;;;;;;zerotype;;Spring;;No
1822837;SS17AB082TUYD14_STRIPE_8-STRIPE-1822837;SS17AB082TUYD14;Draft;Tunics;AND;Adults-Women;Women;;;;Fashion;;2017;10,ANDTNIC00001818,12,ANDTNIC00001819,14,ANDTNIC00001820,16,ANDTNIC00001821,18,ANDTNIC00001822,8,ANDTNIC00001823;1999.00;<p>Cotton</p>;;;;;;;zerotype;;Spring;;No
1822835;SS17AB065TUPG_FLESH_8-FLESH-1822835;SS17AB065TUPG;Draft;Tunics;AND;Adults-Women;Women;;;;Fashion;;2017;10,ANDTNIC00001813,12,ANDTNIC00001814,14,ANDTNIC00001815,16,ANDTNIC00001816,8,ANDTNIC00001817;2999.00;<p>Polyester</p>;;;;;;;zerotype;;Spring;;No
1822832;SS17AB059TUP83_PRINT_8-PRINT-1822832;SS17AB059TUP83;Draft;Tunics;AND;Adults-Women;Women;;;;Fashion;;2017;10,ANDTNIC00001807,12,ANDTNIC00001808,14,ANDTNIC00001809,16,ANDTNIC00001810,18,ANDTNIC00001811,8,ANDTNIC00001812;1999.00;<p>Viscose</p>;;;;;;;zerotype;;Spring;;No
1822829;SS17AB038TUP70_PRINT_8-PRINT-1822829;SS17AB038TUP70;Draft;Tunics;AND;Adults-Women;Women;;;;Fashion;;2017;10,ANDTNIC00001801,12,ANDTNIC00001802,14,ANDTNIC00001803,16,ANDTNIC00001804,18,ANDTNIC00001805,8,ANDTNIC00001806;2599.00;<p>Cotton</p>;;;;;;;zerotype;;Spring;;No
1812193;S52W151368-SKY BLUE-1812193;S52WBC1429SKY BLUE38;Draft;Shorts;Sports52 wear;Adults-Men;Men;;;;Core;;2017;30,SP52SHOR00003304,32,SP52SHOR00003305,34,SP52SHOR00003306,36,SP52SHOR00003307,38,SP52SHOR00003308;1995.00;<p>Cotton</p>;;;;;;;zerotype;;Summer;;No
1812192;S52W151363-CREAM-1812192;S52WBC1429CREAM38;Draft;Shorts;Sports52 wear;Adults-Men;Men;;;;Core;;2017;30,SP52SHOR00003299,32,SP52SHOR00003300,34,SP52SHOR00003301,36,SP52SHOR00003302,38,SP52SHOR00003303;1995.00;<p>Cotton</p>;;;;;;;zerotype;;Summer;;No
1812191;S52W151358-BEIGE-1812191;S52WBC1429BEIGE38;Draft;Shorts;Sports52 wear;Adults-Men;Men;;;;Core;;2017;30,SP52SHOR00003294,32,SP52SHOR00003295,34,SP52SHOR00003296,36,SP52SHOR00003297,38,SP52SHOR00003298;1995.00;<p>Cotton</p>;;;;;;;zerotype;;Summer;;No
1812190;S52W151353-WHITE-1812190;S52WBC1429WHITE38;Draft;Shorts;Sports52 wear;Adults-Men;Men;;;;Core;;2017;30,SP52SHOR00003289,32,SP52SHOR00003290,34,SP52SHOR00003291,36,SP52SHOR00003292,38,SP52SHOR00003293;1995.00;<p>Cotton</p>;;;;;;;zerotype;;Summer;;No
1812189;S52W151328-BEIGE-1812189;S52WBC1428BEIGE38;Draft;Shorts;Sports52 wear;Adults-Men;Men;;;;Core;;2017;30,SP52SHOR00003284,32,SP52SHOR00003285,34,SP52SHOR00003286,36,SP52SHOR00003287,38,SP52SHOR00003288;1995.00;<p>Cotton</p>;;;;;;;zerotype;;Summer;;No
1812188;S52W151323-BROWN-1812188;S52WBC1428BROWN38;Draft;Shorts;Sports52 wear;Adults-Men;Men;;;;Core;;2017;30,SP52SHOR00003279,32,SP52SHOR00003280,34,SP52SHOR00003281,36,SP52SHOR00003282,38,SP52SHOR00003283;1995.00;<p>Cotton</p>;;;;;;;zerotype;;Summer;;No
1812187;S52W151318-CREAM-1812187;S52WBC1428CREAM38;Draft;Shorts;Sports52 wear;Adults-Men;Men;;;;Core;;2017;30,SP52SHOR00003274,32,SP52SHOR00003275,34,SP52SHOR00003276,36,SP52SHOR00003277,38,SP52SHOR00003278;1995.00;<p>Cotton</p>;;;;;;;zerotype;;Summer;;No
1812186;S52W151313-SKY BLUE-1812186;S52WBC1428SKY BLUE38;Draft;Shorts;Sports52 wear;Adults-Men;Men;;;;Core;;2017;30,SP52SHOR00003269,32,SP52SHOR00003270,34,SP52SHOR00003271,36,SP52SHOR00003272,38,SP52SHOR00003273;1995.00;<p>Cotton</p>;;;;;;;zerotype;;Summer;;No
1812185;S52W151288-KHAKHI-1812185;S52WBC1427KHAKHI38;Draft;Shorts;Sports52 wear;Adults-Men;Men;;;;Core;;2017;30,SP52SHOR00003264,32,SP52SHOR00003265,34,SP52SHOR00003266,36,SP52SHOR00003267,38,SP52SHOR00003268;1995.00;<p>Cotton</p>;;;;;;;zerotype;;Summer;;No
1812184;S52W151283-BEIGE-1812184;S52WBC1427BEIGE38;Draft;Shorts;Sports52 wear;Adults-Men;Men;;;;Core;;2017;30,SP52SHOR00003259,32,SP52SHOR00003260,34,SP52SHOR00003261,36,SP52SHOR00003262,38,SP52SHOR00003263;1995.00;<p>Cotton</p>;;;;;;;zerotype;;Summer;;No
1812183;S52W151278-BROWN-1812183;S52WBC1427BROWN38;Draft;Shorts;Sports52 wear;Adults-Men;Men;;;;Core;;2017;30,SP52SHOR00003254,32,SP52SHOR00003255,34,SP52SHOR00003256,36,SP52SHOR00003257,38,SP52SHOR00003258;1995.00;<p>Cotton</p>;;;;;;;zerotype;;Summer;;No
1812182;S52W151273-GREEN-1812182;S52WBC1427GREEN38;Draft;Shorts;Sports52 wear;Adults-Men;Men;;;;Core;;2017;30,SP52SHOR00003249,32,SP52SHOR00003250,34,SP52SHOR00003251,36,SP52SHOR00003252,38,SP52SHOR00003253;1995.00;<p>Cotton</p>;;;;;;;zerotype;;Summer;;No
1812181;S52W151248-KHAKHI-1812181;S52WBC1426KHAKHI38;Draft;Shorts;Sports52 wear;Adults-Men;Men;;;;Core;;2017;30,SP52SHOR00003244,32,SP52SHOR00003245,34,SP52SHOR00003246,36,SP52SHOR00003247,38,SP52SHOR00003248;1995.00;<p>Cotton</p>;;;;;;;zerotype;;Summer;;No
1812180;S52W151243-BEIGE-1812180;S52WBC1426BEIGE38;Draft;Shorts;Sports52 wear;Adults-Men;Men;;;;Core;;2017;30,SP52SHOR00003239,32,SP52SHOR00003240,34,SP52SHOR00003241,36,SP52SHOR00003242,38,SP52SHOR00003243;1995.00;<p>Cotton</p>;;;;;;;zerotype;;Summer;;No
1812179;S52W151238-BROWN-1812179;S52WBC1426BROWN38;Draft;Shorts;Sports52 wear;Adults-Men;Men;;;;Core;;2017;30,SP52SHOR00003234,32,SP52SHOR00003235,34,SP52SHOR00003236,36,SP52SHOR00003237,38,SP52SHOR00003238;1995.00;<p>Cotton</p>;;;;;;;zerotype;;Summer;;No
1812178;S52W151233-GREEN-1812178;S52WBC1426GREEN38;Draft;Shorts;Sports52 wear;Adults-Men;Men;;;;Core;;2017;30,SP52SHOR00003229,32,SP52SHOR00003230,34,SP52SHOR00003231,36,SP52SHOR00003232,38,SP52SHOR00003233;1995.00;<p>Cotton</p>;;;;;;;zerotype;;Summer;;No
1812166;S52W147072-BLK.RED.-1812166;S52WDY5208BLK.RED.XXL;Draft;Shorts;Sports52 wear;Adults-Men;Men;;;;Core;;2017;M,SP52SHOR00003181,L,SP52SHOR00003182,XL,SP52SHOR00003183,XXL,SP52SHOR00003184;895.00;<p>Polyester</p>;;;;;;;zerotype;;Summer;;No
1812161;S52W146188-NAVY.RED.-1812161;S52WDY5206.NAVY.RED.XXL;Draft;Shorts;Sports52 wear;Adults-Men;Men;;;;Core;;2017;M,SP52SHOR00003161,L,SP52SHOR00003162,XL,SP52SHOR00003163,XXL,SP52SHOR00003164;895.00;<p>Polyester</p>;;;;;;;zerotype;;Summer;;No
1812159;S52W146180-BLK.GRY.-1812159;S52WDY5206.BLK.GRY.XXL;Draft;Shorts;Sports52 wear;Adults-Men;Men;;;;Core;;2017;M,SP52SHOR00003153,L,SP52SHOR00003154,XL,SP52SHOR00003155,XXL,SP52SHOR00003156;895.00;<p>Polyester</p>;;;;;;;zerotype;;Summer;;No
1812158;S52W146176-BLK.BLU.-1812158;S52WDY5206.BLK.BLU.XXL;Draft;Shorts;Sports52 wear;Adults-Men;Men;;;;Core;;2017;M,SP52SHOR00003149,L,SP52SHOR00003150,XL,SP52SHOR00003151,XXL,SP52SHOR00003152;895.00;<p>Polyester</p>;;;;;;;zerotype;;Summer;;No
1812157;S52W146172-NAVY.BLU.-1812157;S52WDY5205.NAVY.BLU.XXL;Draft;Shorts;Sports52 wear;Adults-Men;Men;;;;Core;;2017;M,SP52SHOR00003145,L,SP52SHOR00003146,XL,SP52SHOR00003147,XXL,SP52SHOR00003148;895.00;<p>Polyester</p>;;;;;;;zerotype;;Summer;;No
1812154;S52W146160-BLK.YELL.-1812154;S52WDY5205.BLK.YELL.XXL;Draft;Shorts;Sports52 wear;Adults-Men;Men;;;;Core;;2017;M,SP52SHOR00003133,L,SP52SHOR00003134,XL,SP52SHOR00003135,XXL,SP52SHOR00003136;895.00;<p>Polyester</p>;;;;;;;zerotype;;Summer;;No
1812142;S52W151512-RED-1812142;S52WWWTS64REDXXL;BIS + Content Complete;Tshirts;Sports52 wear;Adults-Men;Men;Red;;;Core;Sports;2017;M,SP52TSHT00000744,L,SP52TSHT00000745,XL,SP52TSHT00000746,XXL,SP52TSHT00000747;1295.00;Blended;Soft, well-structured, and durable, you'll definitely love being the proud owner of this Sports52 wear T-shirt.  This red item can be teamed with fitted jeans for a clean look or lounge shorts for casual weekend wear.;Cotton <br> Machine-wash;The model (height 6' and shoulders 18") is wearing a size M;;Sports52 wear Men Red Striped Polo Collar T-Shirt;Sports52 wear;zerotype;;Summer;;No
1812141;S52W151508-ORANGE-1812141;S52WWWTS64ORANGEXXL;BIS + Content Complete;Tshirts;Sports52 wear;Adults-Men;Men;Orange;;;Core;Casual;2017;M,SP52TSHT00000740,L,SP52TSHT00000741,XL,SP52TSHT00000742,XXL,SP52TSHT00000743;1295.00;Blended;Liven up your collection of T-shirts with this high-end tee from Sports52 wear.  This orange piece is incredibly versatile and can be matched with dark or light denim for an evening out with the guys.;Cotton <br> Machine-wash;The model (height 6' and shoulders 18") is wearing a size M;;Sports52 wear Men Orange Striped Polo Collar T-Shirt;Sports52 wear;zerotype;;Summer;;No
1812140;S52W151504-NAVY/PINK-1812140;S52WWWTS64NAVY/PINKXXL;BIS + Content Complete;Tshirts;Sports52 wear;Adults-Men;Men;Navy Blue;Pink;;Core;Casual;2017;M,SP52TSHT00000736,L,SP52TSHT00000737,XL,SP52TSHT00000738,XXL,SP52TSHT00000739;1295.00;Blended;Liven up your collection of T-shirts with this high-end tee from Sports52 wear.  When you're going for a stroll in the park, put this navy blue piece with a pair of chinos and sneakers to feel both comfortable and stylish outside.;Cotton <br> Machine-wash;The model (height 6' and shoulders 18") is wearing a size M;;Sports52 wear Men Navy Blue Striped Polo Collar T-Shirt;Sports52 wear;zerotype;;Summer;;No
1812139;S52W151500-NAVY 2-1812139;S52WWWTS64NAVY 2XXL;BIS + Content Complete;Tshirts;Sports52 wear;Adults-Men;Men;Navy Blue;;;Core;Casual;2017;M,SP52TSHT00000732,L,SP52TSHT00000733,XL,SP52TSHT00000734,XXL,SP52TSHT00000735;1295.00;Blended;Slip into this snug T-shirt from Sports52 wear and look your very best.  You'll feel entirely at ease in this navy blue piece on top of a relaxed-fit chino and slip-on tennis shoe when you're going out shopping or catching a movie.;Cotton <br> Machine-wash;The model (height 6' and shoulders 18") is wearing a size M;;Sports52 wear Men Navy Blue Striped Polo Collar T-Shirt;Sports52 wear;zerotype;;Summer;;No
1812138;S52W151496-NAVY 1-1812138;S52WWWTS64NAVY 1XXL;BIS + Content Complete;Tshirts;Sports52 wear;Adults-Men;Men;Navy Blue;White;;Core;Casual;2017;M,SP52TSHT00000728,L,SP52TSHT00000729,XL,SP52TSHT00000730,XXL,SP52TSHT00000731;1295.00;Blended;When you're in need of some new tees, opt for this in-style T-shirt made by Sports52 wear.  When you're attending a concert, rock this navy blue piece with dark denims, leather boots, and a classic leather jacket.;Cotton <br> Machine-wash;The model (height 6' and shoulders 18") is wearing a size M;;Sports52 wear Men Navy Blue Striped Polo Collar T-Shirt;Sports52 wear;zerotype;;Summer;;No
1812137;S52W151492-L.MELANGE-1812137;S52WWWTS64L.MELANGEXXL;BIS + Content Complete;Tshirts;Sports52 wear;Adults-Men;Men;Grey Melange;White;;Core;Casual;2017;M,SP52TSHT00000724,L,SP52TSHT00000725,XL,SP52TSHT00000726,XXL,SP52TSHT00000727;1295.00;Blended;Made of cotton, you'll love the high-quality fit and feel of this Sports52 wear tee.  This grey melange shirt is the perfect note to strike with a pair of skinny jeans when you're looking for a simple night out at the bars.;Cotton <br> Machine-wash;The model (height 6' and shoulders 18") is wearing a size M;;Sports52 wear Men Grey Melange Striped Polo Collar T-Shirt;Sports52 wear;zerotype;;Summer;;No
1812135;S52W151484-GREEN-1812135;S52WWWTS64GREENXXL;Draft;Tshirts;Sports52 wear;Adults-Men;Men;;;;Core;;2017;M,SP52TSHT00000716,L,SP52TSHT00000717,XL,SP52TSHT00000718,XXL,SP52TSHT00000719;1295.00;<p>Blended</p>;;;;;;;zerotype;;Summer;;No
1812134;S52W151480-BLACK-1812134;S52WWWTS64BLACKXXL;Draft;Tshirts;Sports52 wear;Adults-Men;Men;;;;Core;;2017;M,SP52TSHT00000712,L,SP52TSHT00000713,XL,SP52TSHT00000714,XXL,SP52TSHT00000715;1295.00;<p>Blended</p>;;;;;;;zerotype;;Summer;;No
1812133;S52W151476-YELLOW-1812133;S52WWWTS63YELLOWXXL;Draft;Tshirts;Sports52 wear;Adults-Men;Men;;;;Core;;2017;M,SP52TSHT00000708,L,SP52TSHT00000709,XL,SP52TSHT00000710,XXL,SP52TSHT00000711;1295.00;<p>Blended</p>;;;;;;;zerotype;;Summer;;No
1812132;S52W151472-WHITE-1812132;S52WWWTS63WHITEXXL;Draft;Tshirts;Sports52 wear;Adults-Men;Men;;;;Core;;2017;M,SP52TSHT00000704,L,SP52TSHT00000705,XL,SP52TSHT00000706,XXL,SP52TSHT00000707;1295.00;<p>Blended</p>;;;;;;;zerotype;;Summer;;No
1812131;S52W151468-SKY BLUE-1812131;S52WWWTS63SKY BLUEXXL;BIS + Content Complete;Tshirts;Sports52 wear;Adults-Men;Men;Blue;;;Core;Casual;2017;M,SP52TSHT00000700,L,SP52TSHT00000701,XL,SP52TSHT00000702,XXL,SP52TSHT00000703;1295.00;Blended;Designed by the team at Sports52 wear, you're definitely in for a style treat with this cotton T-shirt.  When you're attending an after-work happy hour, wear this blue piece with chinos and easy loafers.;Cotton <br> Machine-wash;The model (height 6' and shoulders 18") is wearing a size M;;Sports52 wear Men Blue Striped Polo Collar T-Shirt;Sports52 wear;zerotype;;Summer;;No
1812130;S52W151464-ROYAL BLUE-1812130;S52WWWTS63ROYAL BLUEXXL;Draft;Tshirts;Sports52 wear;Adults-Men;Men;;;;Core;;2017;M,SP52TSHT00000696,L,SP52TSHT00000697,XL,SP52TSHT00000698,XXL,SP52TSHT00000699;1295.00;<p>Blended</p>;;;;;;;zerotype;;Summer;;No
1812129;S52W151460-RED-1812129;S52WWWTS63RED XXL;Draft;Tshirts;Sports52 wear;Adults-Men;Men;;;;Core;;2017;M,SP52TSHT00000692,L,SP52TSHT00000693,XL,SP52TSHT00000694,XXL,SP52TSHT00000695;1295.00;<p>Blended</p>;;;;;;;zerotype;;Summer;;No
1812128;S52W151456-ORANGE-1812128;S52WWWTS63ORANGEXXL;BIS + Content Complete;Tshirts;Sports52 wear;Adults-Men;Men;Navy Blue;Brown;;Core;Sports;2017;M,SP52TSHT00000688,L,SP52TSHT00000689,XL,SP52TSHT00000690,XXL,SP52TSHT00000691;1295.00;Blended;Stand out this season when you go with the sleek style of a Sports52 wear T-shirt.  This navy blue piece can be teamed with cuffed chinos and canvas shoes when you're meeting the guys for drinks.;Cotton <br> Machine-wash;The model (height 6' and shoulders 18") is wearing a size M;;Sports52 wear Men Navy Blue Striped Polo Collar T-Shirt;Sports52 wear;zerotype;;Summer;;No
1812127;S52W151452-MUSTARD-1812127;S52WWWTS63MUSTARDXXL;BIS + Content Complete;Tshirts;Sports52 wear;Adults-Men;Men;Mustard;Navy Blue;;Core;Casual;2017;M,SP52TSHT00000684,L,SP52TSHT00000685,XL,SP52TSHT00000686,XXL,SP52TSHT00000687;1295.00;Blended;;;;;;Sports52 wear;zerotype;;Summer;;No
1812126;S52W151448-MAROON-1812126;S52WWWTS63MAROONXXL;Draft;Tshirts;Sports52 wear;Adults-Men;Men;;;;Core;;2017;M,SP52TSHT00000680,L,SP52TSHT00000681,XL,SP52TSHT00000682,XXL,SP52TSHT00000683;1295.00;<p>Blended</p>;;;;;;;zerotype;;Summer;;No
1812125;S52W151444-L.MELANGE-1812125;S52WWWTS63L.MELANGEXXL;BIS + Content Complete;Tshirts;Sports52 wear;Adults-Men;Men;Navy Blue;Grey;;Core;Casual;2017;M,SP52TSHT00000676,L,SP52TSHT00000677,XL,SP52TSHT00000678,XXL,SP52TSHT00000679;1295.00;Blended;Slip into this snug T-shirt from Sports52 wear and look your very best.  This navy blue piece is incredibly versatile and can be matched with dark or light denim for an evening out with the guys.;Cotton <br> Machine-wash;The model (height 6' and shoulders 18") is wearing a size M;;Sports52 wear Men Navy Blue Striped Polo Collar T-Shirt;Sports52 wear;zerotype;;Summer;;No
1812124;S52W151440-GREEN-1812124;S52WWWTS63GREENXXL;BIS + Content Complete;Tshirts;Sports52 wear;Adults-Men;Men;Green;Off White;;Core;Sports;2017;M,SP52TSHT00000672,L,SP52TSHT00000673,XL,SP52TSHT00000674,XXL,SP52TSHT00000675;1295.00;Blended;Upgrade your style when you take a page out of Sports52 wear's book with this tee.  This green shirt is the perfect note to strike with a pair of skinny jeans when you're looking for a simple night out at the bars.;Cotton <br> Machine-wash;The model (height 6' and shoulders 18") is wearing a size M;;Sports52 wear Men Green Striped Polo Collar T-Shirt;Sports52 wear;zerotype;;Summer;;No
1812123;S52W151436-D.MELANGE-1812123;S52WWWTS63D.MELANGEXXL;Draft;Tshirts;Sports52 wear;Adults-Men;Men;Navy Blue;Pink;;Core;Casual;2017;M,SP52TSHT00000668,L,SP52TSHT00000669,XL,SP52TSHT00000670,XXL,SP52TSHT00000671;1295.00;Blended;Liven up your collection of T-shirts with this high-end tee from Sports52 wear.  When you're going for a stroll in the park, put this navy blue piece with a pair of chinos and sneakers to feel both comfortable and stylish outside.;Cotton  Machine-wash;The model (height 6' and shoulders 18") is wearing a size M;;Sports52 wear Men Navy Blue Striped Polo Collar T-Shirt;Sports52 wear;zerotype;;Summer;;No
1812122;S52W151432-AIRFORCE-1812122;S52WWWTS63AIRFORCEXXL;BIS + Content Complete;Tshirts;Sports52 wear;Adults-Men;Men;Navy Blue;;;Core;Casual;2017;M,SP52TSHT00000664,L,SP52TSHT00000665,XL,SP52TSHT00000666,XXL,SP52TSHT00000667;1295.00;Blended;The feel of this Sports52 wear tee is absolutely amazing thanks to the designer's use of cotton.  This navy blue piece is incredibly versatile and can be matched with dark or light denim for an evening out with the guys.;Cotton <br> Machine-wash;The model (height 6' and shoulders 18") is wearing a size M;;Sports52 wear Men Navy Blue Striped Polo Collar T-Shirt;Sports52 wear;zerotype;;Summer;;No
1812121;S52W151220-NAVY-1812121;S52WSKTKST005 NAVYXXL;Draft;Tracksuits;Sports52 wear;Adults-Men;Men;;;;Core;;2017;M,SP52TRST00000229,L,SP52TRST00000230,XL,SP52TRST00000231,XXL,SP52TRST00000232;2495.00;<p>Blended</p>;;;;;;;zerotype;;Summer;;No
1812120;S52W151216-BLACK-1812120;S52WSKTKST005 BLACKXXL;Draft;Tracksuits;Sports52 wear;Adults-Men;Men;;;;Core;;2017;M,SP52TRST00000225,L,SP52TRST00000226,XL,SP52TRST00000227,XXL,SP52TRST00000228;2495.00;<p>Blended</p>;;;;;;;zerotype;;Summer;;No
1812034;S52W150968-NAVY/L.MEL-1812034;S52WSKTP017NAVY/L.MELXXL;Draft;Track Pants;Sports52 wear;Adults-Men;Men;;;;Core;;2017;M,SP52TRPT00002170,L,SP52TRPT00002171,XL,SP52TRPT00002172,XXL,SP52TRPT00002173;1595.00;<p>Blended</p>;;;;;;;zerotype;;Summer;;No
1812032;S52W150964-L.MEL/BLACK-1812032;S52WSKTP017L.MEL/BLACKXXL;Draft;Track Pants;Sports52 wear;Adults-Men;Men;;;;Core;;2017;M,SP52TRPT00002166,L,SP52TRPT00002167,XL,SP52TRPT00002168,XXL,SP52TRPT00002169;1595.00;<p>Blended</p>;;;;;;;zerotype;;Summer;;No
1812030;S52W150960-BLACK/WHT-1812030;S52WSKTP016BLACK/WHTXXL;Draft;Track Pants;Sports52 wear;Adults-Men;Men;;;;Core;;2017;M,SP52TRPT00002162,L,SP52TRPT00002163,XL,SP52TRPT00002164,XXL,SP52TRPT00002165;1595.00;<p>Blended</p>;;;;;;;zerotype;;Summer;;No
1812029;S52W150956-D.MEL/L.MEL-1812029;S52WSKTP016D.MEL/L.MELXXL;Draft;Track Pants;Sports52 wear;Adults-Men;Men;;;;Core;;2017;M,SP52TRPT00002158,L,SP52TRPT00002159,XL,SP52TRPT00002160,XXL,SP52TRPT00002161;1595.00;<p>Blended</p>;;;;;;;zerotype;;Summer;;No
1812027;S52W150952-NAVY/WHT-1812027;S52WSKTP016NAVY/WHTXXL;Draft;Track Pants;Sports52 wear;Adults-Men;Men;;;;Core;;2017;M,SP52TRPT00002154,L,SP52TRPT00002155,XL,SP52TRPT00002156,XXL,SP52TRPT00002157;1595.00;<p>Blended</p>;;;;;;;zerotype;;Summer;;No
1812026;S52W150948-NAVY/CREAM-1812026;S52WSKTP015NAVY/CREAMXXL;Draft;Track Pants;Sports52 wear;Adults-Men;Men;;;;Core;;2017;M,SP52TRPT00002150,L,SP52TRPT00002151,XL,SP52TRPT00002152,XXL,SP52TRPT00002153;1595.00;<p>Blended</p>;;;;;;;zerotype;;Summer;;No
1812022;S52W150940-D.MEL/CREAM-1812022;S52WSKTP015D.MEL/CREAMXXL;Draft;Track Pants;Sports52 wear;Adults-Men;Men;;;;Core;;2017;M,SP52TRPT00002142,L,SP52TRPT00002143,XL,SP52TRPT00002144,XXL,SP52TRPT00002145;1595.00;<p>Blended</p>;;;;;;;zerotype;;Summer;;No
1812021;S52W150936-NAVY/WHT-1812021;S52WSKTP014NAVY/WHTXXL;Draft;Track Pants;Sports52 wear;Adults-Men;Men;;;;Core;;2017;M,SP52TRPT00002138,L,SP52TRPT00002139,XL,SP52TRPT00002140,XXL,SP52TRPT00002141;1595.00;<p>Blended</p>;;;;;;;zerotype;;Summer;;No
1812019;S52W150932-L.MEL/WHT-1812019;S52WSKTP014L.MEL/WHTXXL;Draft;Track Pants;Sports52 wear;Adults-Men;Men;;;;Core;;2017;M,SP52TRPT00002134,L,SP52TRPT00002135,XL,SP52TRPT00002136,XXL,SP52TRPT00002137;1595.00;<p>Blended</p>;;;;;;;zerotype;;Summer;;No
1812017;S52W150928-D.MEL/WHT-1812017;S52WSKTP014D.MEL/WHTXXL;Draft;Track Pants;Sports52 wear;Adults-Men;Men;;;;Core;;2017;M,SP52TRPT00002130,L,SP52TRPT00002131,XL,SP52TRPT00002132,XXL,SP52TRPT00002133;1595.00;<p>Blended</p>;;;;;;;zerotype;;Summer;;No
1812016;S52W150364-NAVY-1812016;S52WSKTP020NAVYXXL;Draft;Track Pants;Sports52 wear;Adults-Men;Men;;;;Core;;2017;M,SP52TRPT00002126,L,SP52TRPT00002127,XL,SP52TRPT00002128,XXL,SP52TRPT00002129;1595.00;<p>Blended</p>;;;;;;;zerotype;;Summer;;No
1812014;S52W150360-D.MEL-1812014;S52WSKTP020D.MELXXL;Draft;Track Pants;Sports52 wear;Adults-Men;Men;;;;Core;;2017;M,SP52TRPT00002122,L,SP52TRPT00002123,XL,SP52TRPT00002124,XXL,SP52TRPT00002125;1595.00;<p>Blended</p>;;;;;;;zerotype;;Summer;;No
1812013;S52W150356-L.MEL-1812013;S52WSKTP020L.MELXXL;Draft;Track Pants;Sports52 wear;Adults-Men;Men;;;;Core;;2017;M,SP52TRPT00002118,L,SP52TRPT00002119,XL,SP52TRPT00002120,XXL,SP52TRPT00002121;1595.00;<p>Blended</p>;;;;;;;zerotype;;Summer;;No
1812011;S52W150352-BLACK-1812011;S52WSKTP020BLACKXXL;Draft;Track Pants;Sports52 wear;Adults-Men;Men;;;;Core;;2017;M,SP52TRPT00002114,L,SP52TRPT00002115,XL,SP52TRPT00002116,XXL,SP52TRPT00002117;1595.00;<p>Blended</p>;;;;;;;zerotype;;Summer;;No
1812000;S52W148260-NAVY-1812000;S52WSKTP011NAVYXXL;Draft;Track Pants;Sports52 wear;Adults-Men;Men;;;;Core;;2017;M,SP52TRPT00002094,L,SP52TRPT00002095,XL,SP52TRPT00002096,XXL,SP52TRPT00002097;1595.00;<p>Blended</p>;;;;;;;zerotype;;Summer;;No
1811999;S52W148256-D.MEL-1811999;S52WSKTP011D.MELXXL;BIS + Content Complete;Track Pants;Sports52 wear;Adults-Men;Men;Charcoal;;;Core;Casual;2017;M,SP52TRPT00002090,L,SP52TRPT00002091,XL,SP52TRPT00002092,XXL,SP52TRPT00002093;1595.00;Charcoal grey mid-rise track pants, has an elasticated waistband with a drawstring fastening, two pockets, elasticated hems;Ease into the weekend in this pair of track pants and revel in its comfort and cut. Wear yours with a boxy tee and leather sneakers for a cool street look.;Cotton blend<br />Dry-clean;The model (height 6') is wearing a size L;;Sports52 wear Charcoal Grey Track Pants;Sports52 wear;zerotype;;Summer;;No
1811998;S52W148252-L.MEL-1811998;S52WSKTP011L.MELXXL;Draft;Track Pants;Sports52 wear;Adults-Men;Men;;;;Core;;2017;M,SP52TRPT00002086,L,SP52TRPT00002087,XL,SP52TRPT00002088,XXL,SP52TRPT00002089;1595.00;<p>Blended</p>;;;;;;;zerotype;;Summer;;No
1811997;S52W148248-BLACK-1811997;S52WSKTP011BLACKXXL;Draft;Track Pants;Sports52 wear;Adults-Men;Men;;;;Core;;2017;M,SP52TRPT00002082,L,SP52TRPT00002083,XL,SP52TRPT00002084,XXL,SP52TRPT00002085;1595.00;<p>Blended</p>;;;;;;;zerotype;;Summer;;No
1811953;S52W146727-NAVY.BLUE-1811953;S52WMTRK0006NAVY.BLUEXXL;Draft;Track Pants;Sports52 wear;Adults-Men;Men;;;;Core;;2017;M,SP52TRPT00001906,L,SP52TRPT00001907,XL,SP52TRPT00001908,XXL,SP52TRPT00001909;1595.00;<p>Blended</p>;;;;;;;zerotype;;Summer;;No
1811951;S52W146719-BLK.GREY-1811951;S52WMTRK0006BLK.GREYXXL;Draft;Track Pants;Sports52 wear;Adults-Men;Men;;;;Core;;2017;M,SP52TRPT00001898,L,SP52TRPT00001899,XL,SP52TRPT00001900,XXL,SP52TRPT00001901;1595.00;<p>Blended</p>;;;;;;;zerotype;;Summer;;No
1811949;S52W146711-NAVY.GREEN-1811949;S52WMTRK0005NAVY.GREENXXL;Draft;Track Pants;Sports52 wear;Adults-Men;Men;;;;Core;;2017;M,SP52TRPT00001890,L,SP52TRPT00001891,XL,SP52TRPT00001892,XXL,SP52TRPT00001893;1595.00;<p>Blended</p>;;;;;;;zerotype;;Summer;;No
1811937;S52W150788-OLIVE GREEN-1811937;S52WHC090JBKOLIVE GREEN42;BIS + Content Complete;Trousers;Sports52 wear;Adults-Men;Men;Olive;;;Core;Casual;2017;30,SP52TRSR00001913,32,SP52TRSR00001914,34,SP52TRSR00001915,36,SP52TRSR00001916,38,SP52TRSR00001917,40,SP52TRSR00001918,42,SP52TRSR00001919;2595.00;Olive solid casual mid-rise cargo, has a button closure;Maintain a handsome style with these classically designed trousers made by Sports52 wear.  Wear this olive pair with an in-season shirt and dockers for your next semi-formal date night.;Cotton <br> Machine-wash;Regular Fit <br> The model (height 6' and waist 32") is wearing a size 32;;Sports52 wear Men Olive Solid Regular Fit Cargo;Sports52 wear;zerotype;;Summer;;No
1811936;S52W150781-NAVY BLUE-1811936;S52WHC090JBKNAVY BLUE42;BIS + Content Complete;Trousers;Sports52 wear;Adults-Men;Men;Navy Blue;;;Core;Casual;2017;30,SP52TRSR00001906,32,SP52TRSR00001907,34,SP52TRSR00001908,36,SP52TRSR00001909,38,SP52TRSR00001910,40,SP52TRSR00001911,42,SP52TRSR00001912;2595.00;Navy Blue solid casual low-rise cargo, has a button closure;Complete your wardrobe with a pair of fashionable Sports52 wear trousers.  Team this navy blue pair with one of your collared shirts and easy loafer when you're going to dinner with your family.;Cotton <br> Hand-wash;Regular Fit <br> The model (height 6' and waist 32") is wearing a size 32;;Sports52 wear Men Navy Blue Solid Regular Fit Cargo;Sports52 wear;zerotype;;Summer;;No
1811935;S52W150774-GREY-1811935;S52WHC090JBKGREY42;BIS + Content Complete;Trousers;Sports52 wear;Adults-Men;Men;Charcoal;;;Core;Casual;2017;30,SP52TRSR00001899,32,SP52TRSR00001900,34,SP52TRSR00001901,36,SP52TRSR00001902,38,SP52TRSR00001903,40,SP52TRSR00001904,42,SP52TRSR00001905;2595.00;Charcoal solid casual mid-rise cargo, has a button closure;Complete your wardrobe with a pair of fashionable Sports52 wear trousers.  When you need a stylish look for your next date, team this charcoal pair with easy loafers and your favourite shirt.;Cotton <br> Machine-wash;Regular Fit <br> The model (height 6' and waist 32") is wearing a size 32;;Sports52 wear Men Charcoal Solid Regular Fit Cargo;Sports52 wear;zerotype;;Summer;;No
1811934;S52W150767-DARK KHAKI-1811934;S52WHC090JBKDARK KHAKI42;BIS + Content Complete;Trousers;Sports52 wear;Adults-Men;Men;Khaki;;;Core;Casual;2017;30,SP52TRSR00001892,32,SP52TRSR00001893,34,SP52TRSR00001894,36,SP52TRSR00001895,38,SP52TRSR00001896,40,SP52TRSR00001897,42,SP52TRSR00001898;2595.00;Khaki solid casual low-rise cargo, has a button closure;Switch up your style and try out a pair of top-notch Sports52 wear trousers.  Style this khaki pair with a formal shirt and a fashionable tie when you're attending an engagement party.;Cotton <br> Hand-wash;Regular Fit <br> The model (height 6' and waist 32") is wearing a size 32;;Sports52 wear Men Khaki Solid Regular Fit Cargo;Sports52 wear;zerotype;;Summer;;No
1811933;S52W150760-CAMEL-1811933;S52WHC090JBKCAMEL42;Draft;Trousers;Sports52 wear;Adults-Men;Men;;;;Core;;2017;30,SP52TRSR00001885,32,SP52TRSR00001886,34,SP52TRSR00001887,36,SP52TRSR00001888,38,SP52TRSR00001889,40,SP52TRSR00001890,42,SP52TRSR00001891;2595.00;<p>Cotton</p>;;;;;;;zerotype;;Summer;;No
1811932;S52W150753-BROWN-1811932;S52WHC090JBKBROWN42;Draft;Trousers;Sports52 wear;Adults-Men;Men;;;;Core;;2017;30,SP52TRSR00001878,32,SP52TRSR00001879,34,SP52TRSR00001880,36,SP52TRSR00001881,38,SP52TRSR00001882,40,SP52TRSR00001883,42,SP52TRSR00001884;2595.00;<p>Cotton</p>;;;;;;;zerotype;;Summer;;No
1811931;S52W150746-BLACK-1811931;S52WHC090JBKBLACK42;BIS + Content Complete;Trousers;Sports52 wear;Adults-Men;Men;Black;;;Core;Casual;2017;30,SP52TRSR00001871,32,SP52TRSR00001872,34,SP52TRSR00001873,36,SP52TRSR00001874,38,SP52TRSR00001875,40,SP52TRSR00001876,42,SP52TRSR00001877;2595.00;Black solid casual mid-rise cargo, has a button closure;Get the comfort and style you deserve with these fashion-forward trousers from Sports52 wear.  Wear this black pair with a Polo T-shirt and easy loafers when you're taking your date out to a nice restaurant.;Cotton <br> Machine-wash;Regular Fit <br> The model (height 6' and waist 32") is wearing a size 32;;Sports52 wear Men Black Solid Regular Fit Cargo;Sports52 wear;zerotype;;Summer;;No
1811929;S52W150692-OLIVE GREEN-1811929;S52WHC089JBKOLIVE GREEN38;BIS + Content Complete;Trousers;Sports52 wear;Adults-Men;Men;Olive;;;Core;Casual;2017;30,SP52TRSR00001859,32,SP52TRSR00001860,34,SP52TRSR00001861,36,SP52TRSR00001862,38,SP52TRSR00001863;2595.00;Olive solid casual mid-rise cargo, has a button closure;Keep your style looking on point with a pair of Sports52 wear trousers.  For a dressier date-night look, try matching this olive pair with leather shoes and a formal shirt.;Cotton <br> Machine-wash;Regular Fit <br> The model (height 6' and waist 32") is wearing a size 32;;Sports52 wear Men Olive Solid Regular Fit Cargo;Sports52 wear;zerotype;;Summer;;No
1811928;S52W150687-NAVY BLUE-1811928;S52WHC089JBKNAVY BLUE38;Draft;Trousers;Sports52 wear;Adults-Men;Men;;;;Core;;2017;30,SP52TRSR00001854,32,SP52TRSR00001855,34,SP52TRSR00001856,36,SP52TRSR00001857,38,SP52TRSR00001858;2595.00;<p>Cotton</p>;;;;;;;zerotype;;Summer;;No
1811927;S52W150682-GREY-1811927;S52WHC089JBKGREY38;BIS + Content Complete;Trousers;Sports52 wear;Adults-Men;Men;Grey;;;Core;Casual;2017;30,SP52TRSR00001849,32,SP52TRSR00001850,34,SP52TRSR00001851,36,SP52TRSR00001852,38,SP52TRSR00001853;2595.00;Grey solid casual low-rise cargo, has a button closure;Amp up your style game with these classic Sports52 wear trousers.  You can match this grey pair with a lightweight sweater and leather boots when you're going to a work luncheon.;Cotton <br> Hand-wash;Regular Fit <br> The model (height 6' and waist 32") is wearing a size 32;;Sports52 wear Men Grey Solid Regular Fit Cargo;Sports52 wear;zerotype;;Summer;;No
1811926;S52W150677-DARK KHAKI-1811926;S52WHC089JBKDARK KHAKI38;BIS + Content Complete;Trousers;Sports52 wear;Adults-Men;Men;Khaki;;;Core;Casual;2017;30,SP52TRSR00001844,32,SP52TRSR00001845,34,SP52TRSR00001846,36,SP52TRSR00001847,38,SP52TRSR00001848;2595.00;Khaki solid casual mid-rise cargo, has a button closure;Switch up your style and try out a pair of top-notch Sports52 wear trousers.  When you're going to a formal party, wear this khaki pair with a high-fashion shirt and your favourite pair of dockers.;Cotton <br> Machine-wash;Regular Fit <br> The model (height 6' and waist 32") is wearing a size 32;;Sports52 wear Men Khaki Solid Regular Fit Cargo;Sports52 wear;zerotype;;Summer;;No
1811925;S52W150672-CAMEL-1811925;S52WHC089JBKCAMEL38;BIS + Content Complete;Trousers;Sports52 wear;Adults-Men;Men;Khaki;;;Core;Casual;2017;30,SP52TRSR00001839,32,SP52TRSR00001840,34,SP52TRSR00001841,36,SP52TRSR00001842,38,SP52TRSR00001843;2595.00;Khaki solid casual mid-rise cargo, has a button closure;Treat yourself to a handsome pair of Sports52 wear trousers and reap its many style benefits.  Team this khaki pair with one of your collared shirts and easy loafer when you're going to dinner with your family.;Cotton <br> Machine-wash;Regular Fit <br> The model (height 6' and waist 32") is wearing a size 32;;Sports52 wear Men Khaki Solid Regular Fit Cargo;Sports52 wear;zerotype;;Summer;;No
1811924;S52W150667-BROWN-1811924;S52WHC089JBKBROWN38;BIS + Content Complete;Trousers;Sports52 wear;Adults-Men;Men;Khaki;;;Core;Casual;2017;30,SP52TRSR00001834,32,SP52TRSR00001835,34,SP52TRSR00001836,36,SP52TRSR00001837,38,SP52TRSR00001838;2595.00;Khaki solid casual mid-rise cargo, has a button closure;Formalize your wardrobe with a fashionable pair of trousers by Sports52 wear.  You can match this khaki pair with a lightweight sweater and leather boots when you're going to a work luncheon.;Cotton <br> Machine-wash;Regular Fit <br> The model (height 6' and waist 32") is wearing a size 32;;Sports52 wear Men Khaki Solid Regular Fit Cargo;Sports52 wear;zerotype;;Summer;;No
1811922;S52W150657-BEIGE-1811922;S52WHC089JBKBEIGE38;BIS + Content Complete;Trousers;Sports52 wear;Adults-Men;Men;Beige;;;Core;Casual;2017;30,SP52TRSR00001824,32,SP52TRSR00001825,34,SP52TRSR00001826,36,SP52TRSR00001827,38,SP52TRSR00001828;2595.00;Beige solid casual low-rise cargo, has a button closure;You'll love the comfort and style of these Sports52 wear trousers.  Wear this beige pair with a Polo T-shirt and easy loafers when you're taking your date out to a nice restaurant.;Cotton <br> Hand-wash;Regular Fit <br> The model (height 6' and waist 32") is wearing a size 32;;Sports52 wear Men Beige Solid Regular Fit Cargo;Sports52 wear;zerotype;;Summer;;No
1811913;S52W150516-OLIVE GREEN-1811913;S52WHC090BKOLIVE GREEN42;Draft;Trousers;Sports52 wear;Adults-Men;Men;;;;Core;;2017;30,SP52TRSR00001777,32,SP52TRSR00001778,34,SP52TRSR00001779,36,SP52TRSR00001780,38,SP52TRSR00001781,40,SP52TRSR00001782,42,SP52TRSR00001783;2495.00;<p>Cotton</p>;;;;;;;zerotype;;Summer;;No
1811912;S52W150509-NAVY BLUE-1811912;S52WHC090BKNAVY BLUE42;Draft;Trousers;Sports52 wear;Adults-Men;Men;;;;Core;;2017;30,SP52TRSR00001770,32,SP52TRSR00001771,34,SP52TRSR00001772,36,SP52TRSR00001773,38,SP52TRSR00001774,40,SP52TRSR00001775,42,SP52TRSR00001776;2495.00;<p>Cotton</p>;;;;;;;zerotype;;Summer;;No
1811911;S52W150502-GREY-1811911;S52WHC090BKGREY42;BIS + Content Complete;Trousers;Sports52 wear;Adults-Men;Men;Charcoal;;;Core;Casual;2017;30,SP52TRSR00001763,32,SP52TRSR00001764,34,SP52TRSR00001765,36,SP52TRSR00001766,38,SP52TRSR00001767,40,SP52TRSR00001768,42,SP52TRSR00001769;2495.00;Charcoal solid casual mid-rise cargo, has a button closure;Treat yourself to a handsome pair of Sports52 wear trousers and reap its many style benefits.  When you need a stylish look for your next date, team this charcoal pair with easy loafers and your favourite shirt.;Cotton <br> Machine-wash;Regular Fit <br> The model (height 6' and waist 32") is wearing a size 32;;Sports52 wear Men Charcoal Solid Regular Fit Cargo;Sports52 wear;zerotype;;Summer;;No
1811909;S52W150488-CAMEL-1811909;S52WHC090BKCAMEL42;Draft;Trousers;Sports52 wear;Adults-Men;Men;;;;Core;;2017;30,SP52TRSR00001749,32,SP52TRSR00001750,34,SP52TRSR00001751,36,SP52TRSR00001752,38,SP52TRSR00001753,40,SP52TRSR00001754,42,SP52TRSR00001755;2495.00;<p>Cotton</p>;;;;;;;zerotype;;Summer;;No
1811908;S52W150481-BROWN-1811908;S52WHC090BKBROWN42;Draft;Trousers;Sports52 wear;Adults-Men;Men;;;;Core;;2017;30,SP52TRSR00001742,32,SP52TRSR00001743,34,SP52TRSR00001744,36,SP52TRSR00001745,38,SP52TRSR00001746,40,SP52TRSR00001747,42,SP52TRSR00001748;2495.00;<p>Cotton</p>;;;;;;;zerotype;;Summer;;No
1811907;S52W150474-BLACK-1811907;S52WHC090BKBLACK42;BIS + Content Complete;Trousers;Sports52 wear;Adults-Men;Men;Black;;;Core;Casual;2017;30,SP52TRSR00001735,32,SP52TRSR00001736,34,SP52TRSR00001737,36,SP52TRSR00001738,38,SP52TRSR00001739,40,SP52TRSR00001740,42,SP52TRSR00001741;2495.00;Black solid casual low-rise cargo, has a button closure;Formalize your wardrobe with a fashionable pair of trousers by Sports52 wear.  When you're celebrating your anniversary, match this black pair with your favourite shirt and a trendy tie.;Cotton <br> Hand-wash;Regular Fit <br> The model (height 6' and waist 32") is wearing a size 32;;Sports52 wear Men Black Solid Regular Fit Cargo;Sports52 wear;zerotype;;Summer;;No
1811906;S52W150467-BEIGE-1811906;S52WHC090BKBEIGE42;BIS + Content Complete;Trousers;Sports52 wear;Adults-Men;Men;Khaki;;;Core;Casual;2017;30,SP52TRSR00001728,32,SP52TRSR00001729,34,SP52TRSR00001730,36,SP52TRSR00001731,38,SP52TRSR00001732,40,SP52TRSR00001733,42,SP52TRSR00001734;2495.00;Khaki solid casual mid-rise cargo, has a button closure;Update your formal wardrobe with this top-of-the-line trousers from Sports52 wear.  This khaki pair looks exceptional at the office or out to dinner when teamed with Oxfords and a crisp white collared shirt.;Cotton <br> Machine-wash;Regular Fit <br> The model (height 6' and waist 32") is wearing a size 32;;Sports52 wear Men Khaki Solid Regular Fit Cargo;Sports52 wear;zerotype;;Summer;;No
1811905;S52W150420-OLIVE GREEN-1811905;S52WHC089BKOLIVE GREEN38;BIS + Content Complete;Trousers;Sports52 wear;Adults-Men;Men;Olive;;;Core;Casual;2017;30,SP52TRSR00001723,32,SP52TRSR00001724,34,SP52TRSR00001725,36,SP52TRSR00001726,38,SP52TRSR00001727;2495.00;Olive solid casual mid-rise cargo, has a button closure;Opt for these on-trend Sports52 wear trousers and embrace your new look.  You can style this olive pair with a dapper shirt and your favourite easy loafers for your next work conference.;Cotton <br> Machine-wash;Regular Fit <br> The model (height 6' and waist 32") is wearing a size 32;;Sports52 wear Men Olive Solid Regular Fit Cargo;Sports52 wear;zerotype;;Summer;;No
1811904;S52W150415-NAVY BLUE-1811904;S52WHC089BKNAVY BLUE38;Draft;Trousers;Sports52 wear;Adults-Men;Men;;;;Core;;2017;30,SP52TRSR00001718,32,SP52TRSR00001719,34,SP52TRSR00001720,36,SP52TRSR00001721,38,SP52TRSR00001722;2495.00;<p>Cotton</p>;;;;;;;zerotype;;Summer;;No
1811903;S52W150410-GREY-1811903;S52WHC089BKGREY38;BIS + Content Complete;Trousers;Sports52 wear;Adults-Men;Men;Grey Melange;;;Core;Casual;2017;30,SP52TRSR00001713,32,SP52TRSR00001714,34,SP52TRSR00001715,36,SP52TRSR00001716,38,SP52TRSR00001717;2495.00;Grey Melange solid casual low-rise cargo, has a button closure;Keep your style looking on point with a pair of Sports52 wear trousers.  When you're celebrating your anniversary, match this grey melange pair with your favourite shirt and a trendy tie.;Cotton <br> Hand-wash;Regular Fit <br> The model (height 6' and waist 32") is wearing a size 32;;Sports52 wear Men Grey Melange Solid Regular Fit Cargo;Sports52 wear;zerotype;;Summer;;No
1811902;S52W150405-DARK KHAKI-1811902;S52WHC089BKDARK KHAKI38;Draft;Trousers;Sports52 wear;Adults-Men;Men;;;;Core;;2017;30,SP52TRSR00001708,32,SP52TRSR00001709,34,SP52TRSR00001710,36,SP52TRSR00001711,38,SP52TRSR00001712;2495.00;<p>Cotton</p>;;;;;;;zerotype;;Summer;;No
1811901;S52W150400-CAMEL-1811901;S52WHC089BKCAMEL38;BIS + Content Complete;Trousers;Sports52 wear;Adults-Men;Men;Khaki;;;Core;Casual;2017;30,SP52TRSR00001703,32,SP52TRSR00001704,34,SP52TRSR00001705,36,SP52TRSR00001706,38,SP52TRSR00001707;2495.00;Khaki solid casual mid-rise cargo, has a button closure;Upgrade your overall style with these dapper trousers designed by Sports52 wear.  This khaki pair looks exceptional at the office or out to dinner when teamed with Oxfords and a crisp white collared shirt.;Cotton <br> Machine-wash;Regular Fit <br> The model (height 6' and waist 32") is wearing a size 32;;Sports52 wear Men Khaki Solid Regular Fit Cargo;Sports52 wear;zerotype;;Summer;;No
1811900;S52W150395-BROWN-1811900;S52WHC089BKBROWN38;BIS + Content Complete;Trousers;Sports52 wear;Adults-Men;Men;Khaki;;;Core;Casual;2017;30,SP52TRSR00001698,32,SP52TRSR00001699,34,SP52TRSR00001700,36,SP52TRSR00001701,38,SP52TRSR00001702;2495.00;Khaki solid casual mid-rise cargo, has a button closure;These classic trousers from Sports52 wear will take your style to a whole new level.  You can match this khaki pair with a lightweight sweater and leather boots when you're going to a work luncheon.;Cotton <br> Machine-wash;Regular Fit <br> The model (height 6' and waist 32") is wearing a size 32;;Sports52 wear Men Khaki Solid Regular Fit Cargo;Sports52 wear;zerotype;;Summer;;No
1811899;S52W150390-BLACK-1811899;S52WHC089BKBLACK38;BIS + Content Complete;Trousers;Sports52 wear;Adults-Men;Men;Black;;;Core;Casual;2017;30,SP52TRSR00001693,32,SP52TRSR00001694,34,SP52TRSR00001695,36,SP52TRSR00001696,38,SP52TRSR00001697;2495.00;Black solid casual mid-rise cargo, has a button closure;Step up your formal style game with these top-notch Sports52 wear trousers.  Team this black pair with one of your collared shirts and easy loafer when you're going to dinner with your family.;Cotton <br> Machine-wash;Regular Fit <br> The model (height 6' and waist 32") is wearing a size 32;;Sports52 wear Men Black Solid Regular Fit Cargo;Sports52 wear;zerotype;;Summer;;No
1811898;S52W150385-BEIGE-1811898;S52WHC089BKBEIGE38;Draft;Trousers;Sports52 wear;Adults-Men;Men;;;;Core;;2017;30,SP52TRSR00001688,32,SP52TRSR00001689,34,SP52TRSR00001690,36,SP52TRSR00001691,38,SP52TRSR00001692;2495.00;<p>Cotton</p>;;;;;;;zerotype;;Summer;;No
1726350;S52W150194-BLACK-1726350;S52WJOG007BLACK38;BIS + Content Complete;Trousers;Sports52 wear;Adults-Men;Men;Navy Blue;;;Fashion;Casual;2017;30,SP52TRSR00001683,32,SP52TRSR00001684,34,SP52TRSR00001685,36,SP52TRSR00001686,38,SP52TRSR00001687;1995.00;Navy Blue solid casual mid-rise joggers, has a drawstring closure;Look your best with this pair of trousers from Sports52 wear.  Team this navy blue pair with a formal shirt and head out on a dinner date.;Cotton <br> Machine-wash;Regular Fit <br> The model (height 6' and waist 32") is wearing a size 32;;Sports52 wear Men Navy Blue Solid Regular Fit Joggers;Sports52 wear;zerotype;;Summer;;No
1726349;S52W150189-BLUE-1726349;S52WJOG007BLUE38;Draft;Trousers;Sports52 wear;Adults-Men;Men;;;;Fashion;;2017;30,SP52TRSR00001678,32,SP52TRSR00001679,34,SP52TRSR00001680,36,SP52TRSR00001681,38,SP52TRSR00001682;1995.00;<p>Denim</p>;;;;;;;zerotype;;Summer;;No
1726309;S52W149567-BLACKRED/NAVYYELLOW-1726309;S52WMNS0506BLACKRED/NAVYYELLOW38;Draft;Shorts;Sports52 wear;Adults-Men;Men;;;;Core;;2017;30,SP52SHOR00003030,32,SP52SHOR00003031,34,SP52SHOR00003032,36,SP52SHOR00003033,38,SP52SHOR00003034;1095.00;<p>Polyester</p>;;;;;;;zerotype;;Summer;;No
1726307;S52W149557-BLACKYELLOW/NAVYRED-1726307;S52WMNS0406BLACKYELLOW/NAVYRED38;Draft;Shorts;Sports52 wear;Adults-Men;Men;;;;Core;;2017;30,SP52SHOR00003020,32,SP52SHOR00003021,34,SP52SHOR00003022,36,SP52SHOR00003023,38,SP52SHOR00003024;1095.00;<p>Polyester</p>;;;;;;;zerotype;;Summer;;No
1726306;S52W149552-BLACKBLUE/NAVYWHITE-1726306;S52WMNS0405BLACKBLUE/NAVYWHITE38;Draft;Shorts;Sports52 wear;Adults-Men;Men;;;;Core;;2017;30,SP52SHOR00003015,32,SP52SHOR00003016,34,SP52SHOR00003017,36,SP52SHOR00003018,38,SP52SHOR00003019;1095.00;<p>Polyester</p>;;;;;;;zerotype;;Summer;;No
1726304;S52W149542-NAVYRED/BLACKGREY-1726304;S52WMNS0306NAVYRED/BLACKGREY38;Draft;Shorts;Sports52 wear;Adults-Men;Men;;;;Core;;2017;30,SP52SHOR00003005,32,SP52SHOR00003006,34,SP52SHOR00003007,36,SP52SHOR00003008,38,SP52SHOR00003009;1095.00;<p>Polyester</p>;;;;;;;zerotype;;Summer;;No
1726303;S52W149537-BLACKSKY/NAVYBLUE-1726303;S52WMNS0305BLACKSKY/NAVYBLUE38;Draft;Shorts;Sports52 wear;Adults-Men;Men;;;;Core;;2017;30,SP52SHOR00003000,32,SP52SHOR00003001,34,SP52SHOR00003002,36,SP52SHOR00003003,38,SP52SHOR00003004;1095.00;<p>Polyester</p>;;;;;;;zerotype;;Summer;;No
1726297;S52W149507-NAVYRED-1726297;S52WMNS006NAVYRED38;Draft;Shorts;Sports52 wear;Adults-Men;Men;;;;Core;;2017;30,SP52SHOR00002970,32,SP52SHOR00002971,34,SP52SHOR00002972,36,SP52SHOR00002973,38,SP52SHOR00002974;895.00;<p>Polyester</p>;;;;;;;zerotype;;Summer;;No
1726296;S52W149502-NAVYYELLOW-1726296;S52WMNS006NAVYYELLOW38;Draft;Shorts;Sports52 wear;Adults-Men;Men;;;;Core;;2017;30,SP52SHOR00002965,32,SP52SHOR00002966,34,SP52SHOR00002967,36,SP52SHOR00002968,38,SP52SHOR00002969;895.00;<p>Polyester</p>;;;;;;;zerotype;;Summer;;No
1726295;S52W149497-BLACKBLUE-1726295;S52WMNS006BLACKBLUE38;Draft;Shorts;Sports52 wear;Adults-Men;Men;;;;Core;;2017;30,SP52SHOR00002960,32,SP52SHOR00002961,34,SP52SHOR00002962,36,SP52SHOR00002963,38,SP52SHOR00002964;895.00;<p>Polyester</p>;;;;;;;zerotype;;Summer;;No
1726294;S52W149492-BLACKGREY-1726294;S52WMNS006BLACKGREY38;Draft;Shorts;Sports52 wear;Adults-Men;Men;;;;Core;;2017;30,SP52SHOR00002955,32,SP52SHOR00002956,34,SP52SHOR00002957,36,SP52SHOR00002958,38,SP52SHOR00002959;895.00;<p>Polyester</p>;;;;;;;zerotype;;Summer;;No
1726293;S52W149487-GREYBLACK-1726293;S52WMNS005GREYBLACK38;Draft;Shorts;Sports52 wear;Adults-Men;Men;;;;Core;;2017;30,SP52SHOR00002950,32,SP52SHOR00002951,34,SP52SHOR00002952,36,SP52SHOR00002953,38,SP52SHOR00002954;895.00;<p>Polyester</p>;;;;;;;zerotype;;Summer;;No
1726292;S52W149482-NAVYWHITE-1726292;S52WMNS005NAVYWHITE38;Draft;Shorts;Sports52 wear;Adults-Men;Men;;;;Core;;2017;30,SP52SHOR00002945,32,SP52SHOR00002946,34,SP52SHOR00002947,36,SP52SHOR00002948,38,SP52SHOR00002949;895.00;<p>Polyester</p>;;;;;;;zerotype;;Summer;;No
1726291;S52W149477-NAVYBLUE-1726291;S52WMNS005NAVYBLUE38;Draft;Shorts;Sports52 wear;Adults-Men;Men;;;;Core;;2017;30,SP52SHOR00002940,32,SP52SHOR00002941,34,SP52SHOR00002942,36,SP52SHOR00002943,38,SP52SHOR00002944;895.00;<p>Polyester</p>;;;;;;;zerotype;;Summer;;No
1726290;S52W149472-BLACKGREEN-1726290;S52WMNS005BLACKGREEN38;Draft;Shorts;Sports52 wear;Adults-Men;Men;;;;Core;;2017;30,SP52SHOR00002935,32,SP52SHOR00002936,34,SP52SHOR00002937,36,SP52SHOR00002938,38,SP52SHOR00002939;895.00;<p>Polyester</p>;;;;;;;zerotype;;Summer;;No
1726289;S52W149467-BLACKRED-1726289;S52WMNS005BLACKRED38;Draft;Shorts;Sports52 wear;Adults-Men;Men;;;;Core;;2017;30,SP52SHOR00002930,32,SP52SHOR00002931,34,SP52SHOR00002932,36,SP52SHOR00002933,38,SP52SHOR00002934;895.00;<p>Polyester</p>;;;;;;;zerotype;;Summer;;No
1726288;S52W149462-NAVYSKY-1726288;S52WMNS004NAVYSKY38;Draft;Shorts;Sports52 wear;Adults-Men;Men;;;;Core;;2017;30,SP52SHOR00002925,32,SP52SHOR00002926,34,SP52SHOR00002927,36,SP52SHOR00002928,38,SP52SHOR00002929;895.00;<p>Polyester</p>;;;;;;;zerotype;;Summer;;No
1726280;S52W149457-NAVYGREY-1726280;S52WMNS004NAVYGREY38;Draft;Shorts;Sports52 wear;Adults-Men;Men;;;;Core;;2017;30,SP52SHOR00002920,32,SP52SHOR00002921,34,SP52SHOR00002922,36,SP52SHOR00002923,38,SP52SHOR00002924;895.00;<p>Polyester</p>;;;;;;;zerotype;;Summer;;No
1726273;S52W149452-BLACKYELLOW-1726273;S52WMNS004BLACKYELLOW38;Draft;Shorts;Sports52 wear;Adults-Men;Men;;;;Core;;2017;30,SP52SHOR00002915,32,SP52SHOR00002916,34,SP52SHOR00002917,36,SP52SHOR00002918,38,SP52SHOR00002919;895.00;<p>Polyester</p>;;;;;;;zerotype;;Summer;;No
1726264;S52W149447-BLACKBLUE-1726264;S52WMNS004BLACKBLUE38;Draft;Shorts;Sports52 wear;Adults-Men;Men;;;;Core;;2017;30,SP52SHOR00002910,32,SP52SHOR00002911,34,SP52SHOR00002912,36,SP52SHOR00002913,38,SP52SHOR00002914;895.00;<p>Polyester</p>;;;;;;;zerotype;;Summer;;No
1726253;S52W149442-NAVYGREEN-1726253;S52WMNS003NAVYGREEN38;Draft;Shorts;Sports52 wear;Adults-Men;Men;;;;Core;;2017;30,SP52SHOR00002905,32,SP52SHOR00002906,34,SP52SHOR00002907,36,SP52SHOR00002908,38,SP52SHOR00002909;895.00;<p>Polyester</p>;;;;;;;zerotype;;Summer;;No
1726244;S52W149437-NAVYRED-1726244;S52WMNS003NAVYRED38;Draft;Shorts;Sports52 wear;Adults-Men;Men;;;;Core;;2017;30,SP52SHOR00002900,32,SP52SHOR00002901,34,SP52SHOR00002902,36,SP52SHOR00002903,38,SP52SHOR00002904;895.00;<p>Polyester</p>;;;;;;;zerotype;;Summer;;No
1726238;S52W149432-BLACKSKY-1726238;S52WMNS003BLACKSKY38;Draft;Shorts;Sports52 wear;Adults-Men;Men;;;;Core;;2017;30,SP52SHOR00002895,32,SP52SHOR00002896,34,SP52SHOR00002897,36,SP52SHOR00002898,38,SP52SHOR00002899;895.00;<p>Polyester</p>;;;;;;;zerotype;;Summer;;No
