Style ID;Vendor Article Number;Vendor Article Name;Active Status;Article type;Brand;Age Group;Gender;Base Colour;Colour1;Colour2;Fashion Type;Usage;Year;Size - SKU code pair;MRP;Style Description;Style Note;Materials and Care Description;Size and Fit Description;Size Chart Path;Product Display Name;Tags;Product Type;Classification Brand;Season;Comments;Upload Images
2461120;WTS185_Black_L-Black-2461120;WTS185_Black;Draft;Tshirts;WITH;Adults-Men;Men;Black;;;Fashion;Casual;2018;M,WITHTSHT00000225,XXL,WITHTSHT00000226,XL,WITHTSHT00000227,L,WITHTSHT00000228;1500.00;;;<p>Dry Clean Only</p>;;;na;;zerotype;;Summer;;No
2461119;WTS200_White_M-White-2461119;WTS200_White;Draft;Tshirts;WITH;Adults-Men;Men;White;;;Fashion;Casual;2018;XXL,WITHTSHT00000221,XL,WITHTSHT00000222,L,WITHTSHT00000223,M,WITHTSHT00000224;1300.00;;;<p>Dry Clean Only</p>;;;na;;zerotype;;Summer;;No
2461117;WTS196_Maroon_M-Maroon-2461117;WTS196_Maroon;Draft;Tshirts;WITH;Adults-Men;Men;Maroon;;;Fashion;Casual;2018;XXL,WITHTSHT00000217,XL,WITHTSHT00000218,L,WITHTSHT00000219,M,WITHTSHT00000220;1300.00;;;<p>Dry Clean Only</p>;;;na;;zerotype;;Summer;;No
2461115;WTS188_Black_M-Black-2461115;WTS188_Black;Draft;Tshirts;WITH;Adults-Men;Men;Black;;;Fashion;Casual;2018;XXL,WITHTSHT00000213,XL,WITHTSHT00000214,L,WITHTSHT00000215,M,WITHTSHT00000216;1500.00;;;<p>Dry Clean Only</p>;;;na;;zerotype;;Summer;;No
2461113;WTS180_Grey_XL-Grey-2461113;WTS180_Grey;Draft;Tshirts;WITH;Adults-Men;Men;Grey;;;Fashion;Casual;2018;L,WITHTSHT00000209,M,WITHTSHT00000210,XXL,WITHTSHT00000211,XL,WITHTSHT00000212;1500.00;;;<p>Dry Clean Only</p>;;;na;;zerotype;;Summer;;No
2461111;WTS199_Black_XXL-Black-2461111;WTS199_Black;Draft;Tshirts;WITH;Adults-Men;Men;Black;;;Fashion;Casual;2018;L,WITHTSHT00000205,M,WITHTSHT00000206,XL,WITHTSHT00000207,XXL,WITHTSHT00000208;1300.00;;;<p>Dry Clean Only</p>;;;na;;zerotype;;Summer;;No
2461109;WTS177_Grey_M-Grey-2461109;WTS177_Grey;Draft;Tshirts;WITH;Adults-Men;Men;Grey;;;Fashion;Casual;2018;XL,WITHTSHT00000201,L,WITHTSHT00000202,XXL,WITHTSHT00000203,M,WITHTSHT00000204;1500.00;;;<p>Dry Clean Only</p>;;;na;;zerotype;;Summer;;No
2461107;WTS192_ChocoBrown_M-Brown-2461107;WTS192_ChocoBrown;Draft;Tshirts;WITH;Adults-Men;Men;Brown;;;Fashion;Casual;2018;XL,WITHTSHT00000197,XXL,WITHTSHT00000198,L,WITHTSHT00000199,M,WITHTSHT00000200;1350.00;;;<p>Dry Clean Only</p>;;;na;;zerotype;;Summer;;No
2461106;WTS178_NavyBlue_M-Navy Blue-2461106;WTS178_NavyBlue;Draft;Tshirts;WITH;Adults-Men;Men;Navy Blue;;;Fashion;Casual;2018;XXL,WITHTSHT00000193,XL,WITHTSHT00000194,L,WITHTSHT00000195,M,WITHTSHT00000196;1500.00;;;<p>Dry Clean Only</p>;;;na;;zerotype;;Summer;;No
2461105;WTS197_Red_M-Red-2461105;WTS197_Red;Draft;Tshirts;WITH;Adults-Men;Men;Red;;;Fashion;Casual;2018;XXL,WITHTSHT00000189,XL,WITHTSHT00000190,L,WITHTSHT00000191,M,WITHTSHT00000192;1300.00;;;<p>Dry Clean Only</p>;;;na;;zerotype;;Summer;;No
2461101;WTS183_Grey_M-Grey-2461101;WTS183_Grey;Draft;Tshirts;WITH;Adults-Men;Men;Grey;;;Fashion;Casual;2018;XXL,WITHTSHT00000185,XL,WITHTSHT00000186,L,WITHTSHT00000187,M,WITHTSHT00000188;1500.00;;;<p>Dry Clean Only</p>;;;na;;zerotype;;Summer;;No
2461100;WTS198_NavyBlue_M-Navy Blue-2461100;WTS198_NavyBlue;Draft;Tshirts;WITH;Adults-Men;Men;Navy Blue;;;Fashion;Casual;2018;XXL,WITHTSHT00000181,XL,WITHTSHT00000182,L,WITHTSHT00000183,M,WITHTSHT00000184;1300.00;;;<p>Dry Clean Only</p>;;;na;;zerotype;;Summer;;No
2461099;WTS182_Black_M-Black-2461099;WTS182_Black;Draft;Tshirts;WITH;Adults-Men;Men;Black;;;Fashion;Casual;2018;XXL,WITHTSHT00000177,XL,WITHTSHT00000178,L,WITHTSHT00000179,M,WITHTSHT00000180;1500.00;;;<p>Dry Clean Only</p>;;;na;;zerotype;;Summer;;No
2461097;WTS202_Blue_M-Blue-2461097;WTS202_Blue;Draft;Tshirts;WITH;Adults-Men;Men;Blue;;;Fashion;Casual;2018;XXL,WITHTSHT00000173,XL,WITHTSHT00000174,L,WITHTSHT00000175,M,WITHTSHT00000176;1300.00;;;<p>Dry Clean Only</p>;;;na;;zerotype;;Summer;;No
2461096;WTS187_NavyBlue_XXL-Navy Blue-2461096;WTS187_NavyBlue;Draft;Tshirts;WITH;Adults-Men;Men;Navy Blue;;;Fashion;Casual;2018;XL,WITHTSHT00000169,L,WITHTSHT00000170,M,WITHTSHT00000171,XXL,WITHTSHT00000172;1500.00;;;<p>Dry Clean Only</p>;;;na;;zerotype;;Summer;;No
2461095;WTS186_Blue_XL-Black-2461095;WTS186_Blue;Draft;Tshirts;WITH;Adults-Men;Men;Black;;;Fashion;Casual;2018;L,WITHTSHT00000165,M,WITHTSHT00000166,XXL,WITHTSHT00000167,XL,WITHTSHT00000168;1500.00;;;<p>Dry Clean Only</p>;;;na;;zerotype;;Summer;;No
2461093;WTS179_Black_L-Black-2461093;WTS179_Black;Draft;Tshirts;WITH;Adults-Men;Men;Black;;;Fashion;Casual;2018;XXL,WITHTSHT00000161,XL,WITHTSHT00000162,M,WITHTSHT00000163,L,WITHTSHT00000164;1500.00;;;<p>Dry Clean Only</p>;;;na;;zerotype;;Summer;;No
2461092;WTS181_NavyBlue_XXL-Navy Blue-2461092;WTS181_NavyBlue;Draft;Tshirts;WITH;Adults-Men;Men;Navy Blue;;;Fashion;Casual;2018;XL,WITHTSHT00000157,L,WITHTSHT00000158,M,WITHTSHT00000159,XXL,WITHTSHT00000160;1500.00;;;<p>Dry Clean Only</p>;;;na;;zerotype;;Summer;;No
2461091;WTS175_NavyBlue_XL-Navy Blue-2461091;WTS175_NavyBlue;Draft;Tshirts;WITH;Adults-Men;Men;Navy Blue;;;Fashion;Casual;2018;XXL,WITHTSHT00000153,M,WITHTSHT00000154,L,WITHTSHT00000155,XL,WITHTSHT00000156;1500.00;;;<p>Dry Clean Only</p>;;;na;;zerotype;;Summer;;No
2461090;WTS190_NavyBlue_L-Navy Blue-2461090;WTS190_NavyBlue;Draft;Tshirts;WITH;Adults-Men;Men;Navy Blue;Grey;;Fashion;Casual;2018;M,WITHTSHT00000149,XXL,WITHTSHT00000150,XL,WITHTSHT00000151,L,WITHTSHT00000152;1500.00;;;<p>Dry Clean Only</p>;;;na;;zerotype;;Summer;;No
2461088;WTS174_Black_XL-Black-2461088;WTS174_Black;Draft;Tshirts;WITH;Adults-Men;Men;Black;;;Fashion;Casual;2018;L,WITHTSHT00000145,M,WITHTSHT00000146,XXL,WITHTSHT00000147,XL,WITHTSHT00000148;1500.00;;;<p>Dry Clean Only</p>;;;na;;zerotype;;Summer;;No
2461087;WTS193_NavyBlue_M-Navy Blue-2461087;WTS193_NavyBlue;Draft;Tshirts;WITH;Adults-Men;Men;Navy Blue;;;Fashion;Casual;2018;XXL,WITHTSHT00000141,XL,WITHTSHT00000142,L,WITHTSHT00000143,M,WITHTSHT00000144;1350.00;;;<p>Dry Clean Only</p>;;;na;;zerotype;;Summer;;No
2461086;WTS173_White_L-White-2461086;WTS173_White;Draft;Tshirts;WITH;Adults-Men;Men;White;;;Fashion;Casual;2018;M,WITHTSHT00000137,XXL,WITHTSHT00000138,XL,WITHTSHT00000139,L,WITHTSHT00000140;1500.00;;;<p>Dry Clean Only</p>;;;na;;zerotype;;Summer;;No
2461085;WTS191_White_XL-White-2461085;WTS191_White;Draft;Tshirts;WITH;Adults-Men;Men;White;;;Fashion;Casual;2018;L,WITHTSHT00000133,M,WITHTSHT00000134,XXL,WITHTSHT00000135,XL,WITHTSHT00000136;1350.00;;;<p>Dry Clean Only</p>;;;na;;zerotype;;Summer;;No
2461083;WTS201_RoyalBlue_XL-Blue-2461083;WTS201_RoyalBlue;Draft;Tshirts;WITH;Adults-Men;Men;Blue;;;Fashion;Casual;2018;L,WITHTSHT00000129,M,WITHTSHT00000130,XXL,WITHTSHT00000131,XL,WITHTSHT00000132;1300.00;;;<p>Dry Clean Only</p>;;;na;;zerotype;;Summer;;No
2461081;WTS176_Black_XL-Black-2461081;WTS176_Black;Draft;Tshirts;WITH;Adults-Men;Men;Black;;;Fashion;Casual;2018;L,WITHTSHT00000125,M,WITHTSHT00000126,XXL,WITHTSHT00000127,XL,WITHTSHT00000128;1500.00;;;<p>Dry Clean Only</p>;;;na;;zerotype;;Summer;;No
2461080;WTS204_RoyalBlue_M-Blue-2461080;WTS204_RoyalBlue;Draft;Tshirts;WITH;Adults-Men;Men;Blue;;;Fashion;Casual;2018;XXL,WITHTSHT00000121,XL,WITHTSHT00000122,L,WITHTSHT00000123,M,WITHTSHT00000124;1350.00;;;<p>Dry Clean Only</p>;;;na;;zerotype;;Summer;;No
2461079;WTS184_NavyBlue_XL-Navy Blue-2461079;WTS184_NavyBlue;Draft;Tshirts;WITH;Adults-Men;Men;Navy Blue;;;Fashion;Casual;2018;L,WITHTSHT00000117,M,WITHTSHT00000118,XXL,WITHTSHT00000119,XL,WITHTSHT00000120;1500.00;;;<p>Dry Clean Only</p>;;;na;;zerotype;;Summer;;No
2461078;WTS203_ChocoBrown_XXL-Brown-2461078;WTS203_ChocoBrown;Draft;Tshirts;WITH;Adults-Men;Men;Brown;;;Fashion;Casual;2018;XL,WITHTSHT00000113,L,WITHTSHT00000114,M,WITHTSHT00000115,XXL,WITHTSHT00000116;1300.00;;;<p>Dry Clean Only</p>;;;na;;zerotype;;Summer;;No
2461077;WTS195_Black_M-Black-2461077;WTS195_Black;Draft;Tshirts;WITH;Adults-Men;Men;Black;;;Fashion;Casual;2018;XXL,WITHTSHT00000109,XL,WITHTSHT00000110,L,WITHTSHT00000111,M,WITHTSHT00000112;1350.00;;;<p>Dry Clean Only</p>;;;na;;zerotype;;Summer;;No
