Style ID;Vendor Article Number;Vendor Article Name;Active Status;Article type;Brand;Age Group;Gender;Base Colour;Colour1;Colour2;Fashion Type;Usage;Year;Size - SKU code pair;MRP;Style Description;Style Note;Materials and Care Description;Size and Fit Description;Size Chart Path;Product Display Name;Tags;Product Type;Classification Brand;Season;Comments;Upload Images
4444114;LF-F-3184-BEIGE-Beige-4444114;LF-F-3184-BEIGE;Draft;Heels;SHUZ TOUCH;Adults-Women;Women;Beige;;;Fashion;Casual;2018;35,SZTCHeels00011518,36,SZTCHeels00011519,37,SZTCHeels00011520,38,SZTCHeels00011521,39,SZTCHeels00011522,40,SZTCHeels00011523,41,SZTCHeels00011524,34,SZTCHeels00011525,33,SZTCHeels00011526;2795.00;;;<p>GENTALY RUB WITH A CLOTH</p>;;;ma;;zerotype;;Summer;;No
4444113;LF-F-3230-BLACK-Black-4444113;LF-F-3230-BLACK;Draft;Heels;SHUZ TOUCH;Adults-Women;Women;Black;;;Fashion;Casual;2018;36,SZTCHeels00011509,37,SZTCHeels00011510,38,SZTCHeels00011511,39,SZTCHeels00011512,40,SZTCHeels00011513,33,SZTCHeels00011514,41,SZTCHeels00011515,35,SZTCHeels00011516,34,SZTCHeels00011517;2795.00;;;<p>GENTALY RUB WITH A CLOTH</p>;;;na;;zerotype;;Summer;;No
4444112;LF-F-3184-RED-Red-4444112;LF-F-3184-RED;Draft;Heels;SHUZ TOUCH;Adults-Women;Women;Red;;;Fashion;Casual;2018;36,SZTCHeels00011500,37,SZTCHeels00011501,38,SZTCHeels00011502,41,SZTCHeels00011503,39,SZTCHeels00011504,40,SZTCHeels00011505,33,SZTCHeels00011506,35,SZTCHeels00011507,34,SZTCHeels00011508;2795.00;;;<p>GENTALY RUB WITH A CLOTH</p>;;;na;;zerotype;;Summer;;No
4444111;LF-F-3230-BLUE-Blue-4444111;LF-F-3230-BLUE;Draft;Heels;SHUZ TOUCH;Adults-Women;Women;Blue;;;Fashion;Casual;2018;41,SZTCHeels00011491,33,SZTCHeels00011492,40,SZTCHeels00011493,39,SZTCHeels00011494,38,SZTCHeels00011495,37,SZTCHeels00011496,36,SZTCHeels00011497,35,SZTCHeels00011498,34,SZTCHeels00011499;2795.00;;;<p>GENTALY RUB WITH A CLOTH</p>;;;na;;zerotype;;Summer;;No
4444110;LF-F-3131-BLACK-Black-4444110;LF-F-3131-BLACK;Draft;Heels;SHUZ TOUCH;Adults-Women;Women;Black;;;Fashion;Casual;2018;36,SZTCHeels00011484,35,SZTCHeels00011485,41,SZTCHeels00011486,40,SZTCHeels00011487,39,SZTCHeels00011488,38,SZTCHeels00011489,37,SZTCHeels00011490;2795.00;;;<p>GENTALY RUB WITH A CLOTH</p>;;;na;;zerotype;;Summer;;No
4444109;LF-F-2895-TAN-Tan-4444109;LF-F-2895-TAN;Draft;Heels;SHUZ TOUCH;Adults-Women;Women;Tan;;;Fashion;Casual;2018;33,SZTCHeels00011475,34,SZTCHeels00011476,35,SZTCHeels00011477,36,SZTCHeels00011478,37,SZTCHeels00011479,38,SZTCHeels00011480,39,SZTCHeels00011481,40,SZTCHeels00011482,41,SZTCHeels00011483;2595.00;;;<p>GENTALY RUB WITH A CLOTH</p>;;;ma;;zerotype;;Summer;;No
4444108;LF-F-3230-TAN-Tan-4444108;LF-F-3230-TAN;Draft;Heels;SHUZ TOUCH;Adults-Women;Women;Tan;;;Fashion;Casual;2018;34,SZTCHeels00011466,33,SZTCHeels00011467,41,SZTCHeels00011468,40,SZTCHeels00011469,39,SZTCHeels00011470,38,SZTCHeels00011471,37,SZTCHeels00011472,36,SZTCHeels00011473,35,SZTCHeels00011474;2795.00;;;<p>GENTALY RUB WITH A CLOTH</p>;;;na;;zerotype;;Summer;;No
4444107;LF-F-3131-RED-Red-4444107;LF-F-3131-RED;Draft;Heels;SHUZ TOUCH;Adults-Women;Women;Red;;;Fashion;Casual;2018;38,SZTCHeels00011459,37,SZTCHeels00011460,36,SZTCHeels00011461,35,SZTCHeels00011462,41,SZTCHeels00011463,40,SZTCHeels00011464,39,SZTCHeels00011465;2795.00;;;<p>GENTALY RUB WITH A CLOTH</p>;;;na;;zerotype;;Summer;;No
4444106;LF-F-3184-BLACK-Black-4444106;LF-F-3184-BLACK;Draft;Heels;SHUZ TOUCH;Adults-Women;Women;Black;;;Fashion;Casual;2018;38,SZTCHeels00011450,39,SZTCHeels00011451,40,SZTCHeels00011452,41,SZTCHeels00011453,35,SZTCHeels00011454,36,SZTCHeels00011455,37,SZTCHeels00011456,34,SZTCHeels00011457,33,SZTCHeels00011458;2795.00;;;<p>GENTALY RUB WITH A CLOTH</p>;;;na;;zerotype;;Summer;;No
4444105;LF-F-3131-TAN-Tan-4444105;LF-F-3131-TAN;Draft;Heels;SHUZ TOUCH;Adults-Women;Women;Tan;;;Fashion;Casual;2018;41,SZTCHeels00011443,40,SZTCHeels00011444,39,SZTCHeels00011445,38,SZTCHeels00011446,37,SZTCHeels00011447,36,SZTCHeels00011448,35,SZTCHeels00011449;2795.00;;;<p>GENTALY RUB WITH A CLOTH</p>;;;na;;zerotype;;Summer;;No
4444104;LF-F-2895-BEIGE-Beige-4444104;LF-F-2895-BEIGE;Draft;Heels;SHUZ TOUCH;Adults-Women;Women;Beige;;;Fashion;Casual;2018;35,SZTCHeels00011434,36,SZTCHeels00011435,38,SZTCHeels00011436,37,SZTCHeels00011437,39,SZTCHeels00011438,40,SZTCHeels00011439,41,SZTCHeels00011440,34,SZTCHeels00011441,33,SZTCHeels00011442;2595.00;;;<p>GENTALY RUB WITH A CLOTH</p>;;;na;;zerotype;;Summer;;No
