Style ID;Vendor Article Number;Vendor Article Name;Active Status;Article type;Brand;Age Group;Gender;Base Colour;Colour1;Colour2;Fashion Type;Usage;Year;Size - SKU code pair;MRP;Style Description;Style Note;Materials and Care Description;Size and Fit Description;Size Chart Path;Product Display Name;Tags;Product Type;Classification Brand;Season;Comments;Upload Images
2109922;26064-21983-Purple-2109922;IPANEMA MAIS TIRAS PRINT FEM;Draft;Flip Flops;iPanema;Adults-Women;Women;Purple;;;Core;;2017;US5,IPNMFLFP00004065,US6,IPNMFLFP00004066,US7,IPNMFLFP00004067,US8,IPNMFLFP00004068,US9,IPNMFLFP00004069,US10,IPNMFLFP00004070;1099.00;;;<p>The shoes should be wiped crefylly with a damp cloth to remove any dust and dirt.</p>;;;;;zerotype;;Winter;;No
2109921;26064-21721-Pink-2109921;IPANEMA MAIS TIRAS PRINT FEM;Draft;Flip Flops;iPanema;Adults-Women;Women;Pink;;;Core;;2017;US5,IPNMFLFP00004059,US6,IPNMFLFP00004060,US7,IPNMFLFP00004061,US8,IPNMFLFP00004062,US9,IPNMFLFP00004063,US10,IPNMFLFP00004064;1099.00;;;<p>The shoes should be wiped crefylly with a damp cloth to remove any dust and dirt.</p>;;;;;zerotype;;Winter;;No
2109920;26064-20843-Green-2109920;IPANEMA MAIS TIRAS PRINT FEM;Draft;Flip Flops;iPanema;Adults-Women;Women;Green;;;Core;;2017;US5,IPNMFLFP00004053,US6,IPNMFLFP00004054,US7,IPNMFLFP00004055,US8,IPNMFLFP00004056,US9,IPNMFLFP00004057,US10,IPNMFLFP00004058;1099.00;;;<p>The shoes should be wiped crefylly with a damp cloth to remove any dust and dirt.</p>;;;;;zerotype;;Winter;;No
2109919;26060-24220-Pink-2109919;IPANEMA MAIS TIRAS FEM;Draft;Flip Flops;iPanema;Adults-Women;Women;Pink;;;Core;;2017;US5,IPNMFLFP00004047,US6,IPNMFLFP00004048,US7,IPNMFLFP00004049,US8,IPNMFLFP00004050,US9,IPNMFLFP00004051,US10,IPNMFLFP00004052;1099.00;;;<p>The shoes should be wiped crefylly with a damp cloth to remove any dust and dirt.</p>;;;;;zerotype;;Winter;;No
2109918;26060-22309-Orange-2109918;IPANEMA MAIS TIRAS FEM;Draft;Flip Flops;iPanema;Adults-Women;Women;Orange;;;Core;;2017;US5,IPNMFLFP00004041,US6,IPNMFLFP00004042,US7,IPNMFLFP00004043,US8,IPNMFLFP00004044,US9,IPNMFLFP00004045,US10,IPNMFLFP00004046;1099.00;;;<p>The shoes should be wiped crefylly with a damp cloth to remove any dust and dirt.</p>;;;;;zerotype;;Winter;;No
2109917;26060-22021-Green-2109917;IPANEMA MAIS TIRAS FEM;Draft;Flip Flops;iPanema;Adults-Women;Women;Green;;;Core;;2017;US5,IPNMFLFP00004035,US6,IPNMFLFP00004036,US7,IPNMFLFP00004037,US8,IPNMFLFP00004038,US9,IPNMFLFP00004039,US10,IPNMFLFP00004040;1099.00;;;<p>The shoes should be wiped crefylly with a damp cloth to remove any dust and dirt.</p>;;;;;zerotype;;Winter;;No
2109916;26055-23564-Pink-2109916;IPANEMA EVERYDAY FEM;Draft;Flip Flops;iPanema;Adults-Women;Women;Pink;;;Core;;2017;US5,IPNMFLFP00004029,US6,IPNMFLFP00004030,US7,IPNMFLFP00004031,US8,IPNMFLFP00004032,US9,IPNMFLFP00004033,US10,IPNMFLFP00004034;1099.00;;;<p>The shoes should be wiped crefylly with a damp cloth to remove any dust and dirt.</p>;;;;;zerotype;;Winter;;No
2109915;26055-20770-Green-2109915;IPANEMA EVERYDAY FEM;Draft;Flip Flops;iPanema;Adults-Women;Women;Green;;;Core;;2017;US5,IPNMFLFP00004023,US6,IPNMFLFP00004024,US7,IPNMFLFP00004025,US8,IPNMFLFP00004026,US9,IPNMFLFP00004027,US10,IPNMFLFP00004028;1099.00;;;<p>The shoes should be wiped crefylly with a damp cloth to remove any dust and dirt.</p>;;;;;zerotype;;Winter;;No
2109914;26042-21721-Pink-2109914;IPANEMA WAVE LITORAL;Draft;Flip Flops;iPanema;Adults-Women;Women;Pink;;;Core;;2017;US5,IPNMFLFP00004017,US6,IPNMFLFP00004018,US7,IPNMFLFP00004019,US8,IPNMFLFP00004020,US9,IPNMFLFP00004021,US10,IPNMFLFP00004022;1199.00;;;<p>The shoes should be wiped crefylly with a damp cloth to remove any dust and dirt.</p>;;;;;zerotype;;Winter;;No
2109913;26042-20770-Green-2109913;IPANEMA WAVE LITORAL;Draft;Flip Flops;iPanema;Adults-Women;Women;Green;;;Core;;2017;US5,IPNMFLFP00004011,US6,IPNMFLFP00004012,US7,IPNMFLFP00004013,US8,IPNMFLFP00004014,US9,IPNMFLFP00004015,US10,IPNMFLFP00004016;1199.00;;;<p>The shoes should be wiped crefylly with a damp cloth to remove any dust and dirt.</p>;;;;;zerotype;;Winter;;No
2109912;26011-21277-Blue-2109912;IPANEMA GLOSSY FEM;Draft;Flip Flops;iPanema;Adults-Women;Women;Blue;;;Core;;2017;US5,IPNMFLFP00004005,US6,IPNMFLFP00004006,US7,IPNMFLFP00004007,US8,IPNMFLFP00004008,US9,IPNMFLFP00004009,US10,IPNMFLFP00004010;1099.00;;;<p>The shoes should be wiped crefylly with a damp cloth to remove any dust and dirt.</p>;;;;;zerotype;;Winter;;No
2109911;25972-22059-Purple-2109911;IPANEMA ELEGANCE;Draft;Flip Flops;iPanema;Adults-Women;Women;Purple;;;Core;;2017;US5,IPNMFLFP00003999,US6,IPNMFLFP00004000,US7,IPNMFLFP00004001,US8,IPNMFLFP00004002,US9,IPNMFLFP00004003,US10,IPNMFLFP00004004;1199.00;;;<p>The shoes should be wiped crefylly with a damp cloth to remove any dust and dirt.</p>;;;;;zerotype;;Winter;;No
2109910;25971-21138-Black-2109910;IPANEMA WAVE;Draft;Flip Flops;iPanema;Adults-Women;Women;Black;;;Core;;2017;US5,IPNMFLFP00003993,US6,IPNMFLFP00003994,US7,IPNMFLFP00003995,US8,IPNMFLFP00003996,US9,IPNMFLFP00003997,US10,IPNMFLFP00003998;899.00;;;<p>The shoes should be wiped crefylly with a damp cloth to remove any dust and dirt.</p>;;;;;zerotype;;Winter;;No
2109909;25971-21119-Blue-2109909;IPANEMA WAVE;Draft;Flip Flops;iPanema;Adults-Women;Women;Blue;;;Core;;2017;US5,IPNMFLFP00003987,US6,IPNMFLFP00003988,US7,IPNMFLFP00003989,US8,IPNMFLFP00003990,US9,IPNMFLFP00003991,US10,IPNMFLFP00003992;899.00;;;<p>The shoes should be wiped crefylly with a damp cloth to remove any dust and dirt.</p>;;;;;zerotype;;Winter;;No
2109908;25899-21844-Pink-2109908;IPANEMA BOSSA PRINT;Draft;Flip Flops;iPanema;Adults-Women;Women;Pink;;;Core;;2017;US5,IPNMFLFP00003981,US6,IPNMFLFP00003982,US7,IPNMFLFP00003983,US8,IPNMFLFP00003984,US9,IPNMFLFP00003985,US10,IPNMFLFP00003986;1099.00;;;<p>The shoes should be wiped crefylly with a damp cloth to remove any dust and dirt.</p>;;;;;zerotype;;Winter;;No
2109907;25899-20791-Pink-2109907;IPANEMA BOSSA PRINT;Draft;Flip Flops;iPanema;Adults-Women;Women;Pink;;;Core;;2017;US5,IPNMFLFP00003975,US6,IPNMFLFP00003976,US7,IPNMFLFP00003977,US8,IPNMFLFP00003978,US9,IPNMFLFP00003979,US10,IPNMFLFP00003980;1099.00;;;<p>The shoes should be wiped crefylly with a damp cloth to remove any dust and dirt.</p>;;;;;zerotype;;Winter;;No
2109906;25877-24069-Blue-2109906;IPANEMA LOVELY II;Draft;Flip Flops;iPanema;Adults-Women;Women;Blue;;;Core;;2017;US5,IPNMFLFP00003969,US6,IPNMFLFP00003970,US7,IPNMFLFP00003971,US8,IPNMFLFP00003972,US9,IPNMFLFP00003973,US10,IPNMFLFP00003974;949.00;;;<p>The shoes should be wiped crefylly with a damp cloth to remove any dust and dirt.</p>;;;;;zerotype;;Winter;;No
2109905;25866-22021-Green-2109905;IPANEMA RESORT;Draft;Flip Flops;iPanema;Adults-Women;Women;Green;;;Core;;2017;US5,IPNMFLFP00003963,US6,IPNMFLFP00003964,US7,IPNMFLFP00003965,US8,IPNMFLFP00003966,US9,IPNMFLFP00003967,US10,IPNMFLFP00003968;999.00;;;<p>The shoes should be wiped crefylly with a damp cloth to remove any dust and dirt.</p>;;;;;zerotype;;Winter;;No
2109904;25840-20795-Pink-2109904;IPANEMA FLIP PRINT;Draft;Flip Flops;iPanema;Adults-Women;Women;Pink;;;Core;;2017;US5,IPNMFLFP00003957,US6,IPNMFLFP00003958,US7,IPNMFLFP00003959,US8,IPNMFLFP00003960,US9,IPNMFLFP00003961,US10,IPNMFLFP00003962;899.00;;;<p>The shoes should be wiped crefylly with a damp cloth to remove any dust and dirt.</p>;;;;;zerotype;;Winter;;No
2109903;25720-23909-Black-2109903;IPANEMA FASHION FEM;Draft;Flip Flops;iPanema;Adults-Women;Women;Black;;;Core;;2017;US5,IPNMFLFP00003951,US6,IPNMFLFP00003952,US7,IPNMFLFP00003953,US8,IPNMFLFP00003954,US9,IPNMFLFP00003955,US10,IPNMFLFP00003956;1199.00;;;<p>The shoes should be wiped crefylly with a damp cloth to remove any dust and dirt.</p>;;;;;zerotype;;Winter;;No
2109902;25720-23861-Purple-2109902;IPANEMA FASHION FEM;Draft;Flip Flops;iPanema;Adults-Women;Women;Purple;;;Core;;2017;US5,IPNMFLFP00003945,US6,IPNMFLFP00003946,US7,IPNMFLFP00003947,US8,IPNMFLFP00003948,US9,IPNMFLFP00003949,US10,IPNMFLFP00003950;1199.00;;;<p>The shoes should be wiped crefylly with a damp cloth to remove any dust and dirt.</p>;;;;;zerotype;;Winter;;No
2109901;25226-21744-Pink-2109901;IPANEMA CLASSICA TAN FEM;Draft;Flip Flops;iPanema;Adults-Women;Women;Pink;;;Core;;2017;US5,IPNMFLFP00003939,US6,IPNMFLFP00003940,US7,IPNMFLFP00003941,US8,IPNMFLFP00003942,US9,IPNMFLFP00003943,US10,IPNMFLFP00003944;899.00;;;<p>The shoes should be wiped crefylly with a damp cloth to remove any dust and dirt.</p>;;;;;zerotype;;Winter;;No
