Style ID;Vendor Article Number;Vendor Article Name;Active Status;Article type;Brand;Age Group;Gender;Base Colour;Colour1;Colour2;Fashion Type;Usage;Year;Size - SKU code pair;MRP;Style Description;Style Note;Materials and Care Description;Size and Fit Description;Size Chart Path;Product Display Name;Tags;Product Type;Classification Brand;Season;Comments;Upload Images
2152454;1967684006-Princess Blue-2152454;JJOR PERK TEE SS CREW;Draft;Tshirts;Jack & Jones;Adults-Men;Men;Blue;;;Fashion;;2017;L,JAJOTSHT00017752,M,JAJOTSHT00017753,S,JAJOTSHT00017754,XL,JAJOTSHT00017755,XXL,JAJOTSHT00017756;1299.00;;;<p>Hand Wash</p>;;;;;zerotype;;Winter;;No
2152453;1967676006-White-2152453;JJCOVIETNAM POLO SS IN;Draft;Tshirts;Jack & Jones;Adults-Men;Men;White;;;Fashion;;2017;L,JAJOTSHT00017747,M,JAJOTSHT00017748,S,JAJOTSHT00017749,XL,JAJOTSHT00017750,XXL,JAJOTSHT00017751;1699.00;;;<p>Hand Wash</p>;;;;;zerotype;;Winter;;No
2152452;1967676001-Black-2152452;JJCOVIETNAM POLO SS IN;Draft;Tshirts;Jack & Jones;Adults-Men;Men;Black;;;Fashion;;2017;L,JAJOTSHT00017742,M,JAJOTSHT00017743,S,JAJOTSHT00017744,XL,JAJOTSHT00017745,XXL,JAJOTSHT00017746;1699.00;;;<p>Hand Wash</p>;;;;;zerotype;;Winter;;No
2152450;1966414010-White-2152450;JJCOSTAIRS TEE SS CREW NECK IN;Draft;Tshirts;Jack & Jones;Adults-Men;Men;White;;;Fashion;;2017;XXL,JAJOTSHT00017733,XL,JAJOTSHT00017735,L,JAJOTSHT00017739,M,JAJOTSHT00017740,S,JAJOTSHT00017741;1699.00;;;<p>Hand Wash</p>;;;;;zerotype;;Winter;;No
2152449;1966414005-Black-2152449;JJCOSTAIRS TEE SS CREW NECK IN;Draft;Tshirts;Jack & Jones;Adults-Men;Men;Black;;;Fashion;;2017;XXL,JAJOTSHT00017732,XL,JAJOTSHT00017734,L,JAJOTSHT00017736,M,JAJOTSHT00017737,S,JAJOTSHT00017738;1699.00;;;<p>Hand Wash</p>;;;;;zerotype;;Winter;;No
2152447;1967647001-White-2152447;JJCO ASTRONOMY POLO IN;Draft;Tshirts;Jack & Jones;Adults-Men;Men;White;;;Fashion;;2017;L,JAJOTSHT00017722,M,JAJOTSHT00017723,S,JAJOTSHT00017724,XL,JAJOTSHT00017725,XXL,JAJOTSHT00017726;1699.00;;;<p>Hand Wash</p>;;;;;zerotype;;Winter;;No
2152446;1959044004-White-2152446;JCO ROBERT TEE SS CREW NECK;Draft;Tshirts;Jack & Jones;Adults-Men;Men;White;;;Fashion;;2017;L,JAJOTSHT00017717,M,JAJOTSHT00017718,S,JAJOTSHT00017719,XL,JAJOTSHT00017720,XXL,JAJOTSHT00017721;1699.00;;;<p>Hand Wash</p>;;;;;zerotype;;Winter;;No
2152445;1959044012-Capulet Olive-2152445;JCO ROBERT TEE SS CREW NECK;Draft;Tshirts;Jack & Jones;Adults-Men;Men;Green;;;Fashion;;2017;L,JAJOTSHT00017712,M,JAJOTSHT00017713,S,JAJOTSHT00017714,XL,JAJOTSHT00017715,XXL,JAJOTSHT00017716;1699.00;;;<p>Hand Wash</p>;;;;;zerotype;;Winter;;No
2152444;1959044008-Black-2152444;JCO ROBERT TEE SS CREW NECK;Draft;Tshirts;Jack & Jones;Adults-Men;Men;Black;;;Fashion;;2017;L,JAJOTSHT00017707,M,JAJOTSHT00017708,S,JAJOTSHT00017709,XL,JAJOTSHT00017710,XXL,JAJOTSHT00017711;1699.00;;;<p>Hand Wash</p>;;;;;zerotype;;Winter;;No
2152443;1968559001-Ombre Blue-2152443;JJVC CALVIN GARAGE JACK;Draft;Jackets;Jack & Jones;Adults-Men;Men;Blue;;;Fashion;;2017;L,JAJOJCKT00001720,M,JAJOJCKT00001721,S,JAJOJCKT00001722,XL,JAJOJCKT00001723,XXL,JAJOJCKT00001724;4999.00;;;<p>Dry Clean</p>;;;;;zerotype;;Winter;;No
2152442;1968564001-Teal Blue-2152442;JJCO FONT PU JACKET IN;Draft;Jackets;Jack & Jones;Adults-Men;Men;Blue;;;Fashion;;2017;L,JAJOJCKT00001715,M,JAJOJCKT00001716,S,JAJOJCKT00001717,XL,JAJOJCKT00001718,XXL,JAJOJCKT00001719;6499.00;;;<p>Dry Clean</p>;;;;;zerotype;;Winter;;No
2152441;1970465010-Black-2152441;JJCO ASTRONOMY SWEAT IN;Draft;Sweatshirts;Jack & Jones;Adults-Men;Men;Black;;;Fashion;;2017;XXL,JAJOSWSH00000723,M,JAJOSWSH00000724,L,JAJOSWSH00000725,XL,JAJOSWSH00000726,S,JAJOSWSH00000727;2499.00;;;<p>Machine Wash</p>;;;;;zerotype;;Winter;;No
2152440;1970465005-White-2152440;JJCO ASTRONOMY SWEAT IN;Draft;Sweatshirts;Jack & Jones;Adults-Men;Men;White;;;Fashion;;2017;XXL,JAJOSWSH00000718,M,JAJOSWSH00000719,L,JAJOSWSH00000720,XL,JAJOSWSH00000721,S,JAJOSWSH00000722;2499.00;;;<p>Machine Wash</p>;;;;;zerotype;;Winter;;No
2152439;1960295005-Black-2152439;JCO PLASTIC SWEAT F/S IN;Draft;Sweatshirts;Jack & Jones;Adults-Men;Men;Black;;;Fashion;;2017;XXL,JAJOSWSH00000713,M,JAJOSWSH00000714,L,JAJOSWSH00000715,XL,JAJOSWSH00000716,S,JAJOSWSH00000717;2999.00;;;<p>Machine Wash</p>;;;;;zerotype;;Winter;;No
2152438;1968354009-Blue denim-2152438;JJ GLENN FF 8605073 IN;Draft;Jeans;Jack & Jones;Adults-Men;Men;Blue;;;Fashion;;2017;32/34,JAJOJENS00007409,34/34,JAJOJENS00007410,36/34,JAJOJENS00007411,38/34,JAJOJENS00007412,30/32,JAJOJENS00007413,28/32,JAJOJENS00007414;4999.00;;;<p>Machine Wash</p>;;;;;zerotype;;Winter;;No
2152437;1968368008-Blue denim-2152437;JI TIM FF 8605241 IN;Draft;Jeans;Jack & Jones;Adults-Men;Men;Blue;;;Fashion;;2017;32/34,JAJOJENS00007403,34/34,JAJOJENS00007404,36/34,JAJOJENS00007405,38/34,JAJOJENS00007406,30/32,JAJOJENS00007407,28/32,JAJOJENS00007408;6999.00;;;<p>Machine Wash</p>;;;;;zerotype;;Winter;;No
2152436;1968370008-Blue denim-2152436;JI TIM FF 8604444 IN;Draft;Jeans;Jack & Jones;Adults-Men;Men;Blue;;;Fashion;;2017;32/34,JAJOJENS00007397,34/34,JAJOJENS00007398,36/34,JAJOJENS00007399,38/34,JAJOJENS00007400,30/32,JAJOJENS00007401,28/32,JAJOJENS00007402;6999.00;;;<p>Machine Wash</p>;;;;;zerotype;;Winter;;No
2152435;1968553007-Blue denim-2152435;JI TIM FF 281 IN;Draft;Jeans;Jack & Jones;Adults-Men;Men;Blue;;;Fashion;;2017;32/34,JAJOJENS00007392,34/34,JAJOJENS00007393,36/34,JAJOJENS00007394,30/32,JAJOJENS00007395,28/32,JAJOJENS00007396;4499.00;;;<p>Machine Wash</p>;;;;;zerotype;;Winter;;No
2152434;1973002008-Charcoal Gray-2152434;JI LIAM FF 685 IN;Draft;Jeans;Jack & Jones;Adults-Men;Men;Grey;;;Fashion;;2017;32/34,JAJOJENS00007386,34/34,JAJOJENS00007387,36/34,JAJOJENS00007388,38/34,JAJOJENS00007389,30/32,JAJOJENS00007390,28/32,JAJOJENS00007391;3999.00;;;<p>Machine Wash</p>;;;;;zerotype;;Winter;;No
2152433;1968112009-Dark Blue Denim-2152433;JI GLENN RY 909 IN;Draft;Jeans;Jack & Jones;Adults-Men;Men;Blue;;;Fashion;;2017;32/34,JAJOJENS00007380,34/34,JAJOJENS00007381,36/34,JAJOJENS00007382,38/34,JAJOJENS00007383,30/32,JAJOJENS00007384,28/32,JAJOJENS00007385;2499.00;;;<p>Machine Wash</p>;;;;;zerotype;;Winter;;No
2152432;1968365009-Blue denim-2152432;JI GLENN FF 8605056 IN;Draft;Jeans;Jack & Jones;Adults-Men;Men;Blue;;;Fashion;;2017;32/34,JAJOJENS00007374,34/34,JAJOJENS00007375,36/34,JAJOJENS00007376,38/34,JAJOJENS00007377,30/32,JAJOJENS00007378,28/32,JAJOJENS00007379;4499.00;;;<p>Machine Wash</p>;;;;;zerotype;;Winter;;No
2152430;1964057007-Dark Blue Denim-2152430;JI BEN RY 118 IN;Draft;Jeans;Jack & Jones;Adults-Men;Men;Blue;;;Fashion;;2017;32/34,JAJOJENS00007369,34/34,JAJOJENS00007370,36/34,JAJOJENS00007371,30/32,JAJOJENS00007372,28/32,JAJOJENS00007373;4499.00;;;<p>Machine Wash</p>;;;;;zerotype;;Winter;;No
2152429;1968367008-grey denim-2152429;JI BEN FF 8605016 IN;Draft;Jeans;Jack & Jones;Adults-Men;Men;Grey;;;Fashion;;2017;32/34,JAJOJENS00007363,34/34,JAJOJENS00007364,36/34,JAJOJENS00007365,38/34,JAJOJENS00007366,30/32,JAJOJENS00007367,28/32,JAJOJENS00007368;5499.00;;;<p>Machine Wash</p>;;;;;zerotype;;Winter;;No
2152428;1968364007-Blue denim-2152428;JI BEN FF 8605013 IN;Draft;Jeans;Jack & Jones;Adults-Men;Men;Blue;;;Fashion;;2017;32/34,JAJOJENS00007358,34/34,JAJOJENS00007359,36/34,JAJOJENS00007360,30/32,JAJOJENS00007361,28/32,JAJOJENS00007362;5499.00;;;<p>Machine Wash</p>;;;;;zerotype;;Winter;;No
2152427;1968103010-Black-2152427;JCO MAGNIFY SS SHIRT IN;Draft;Shirts;Jack & Jones;Adults-Men;Men;Black;;;Fashion;;2017;XXL,JAJOSHRT00008555,M,JAJOSHRT00008556,L,JAJOSHRT00008557,XL,JAJOSHRT00008558,S,JAJOSHRT00008559;1999.00;;;<p>Machine Wash</p>;;;;;zerotype;;Winter;;No
2152426;1968103005-White-2152426;JCO MAGNIFY SS SHIRT IN;Draft;Shirts;Jack & Jones;Adults-Men;Men;White;;;Fashion;;2017;XXL,JAJOSHRT00008550,M,JAJOSHRT00008551,L,JAJOSHRT00008552,XL,JAJOSHRT00008553,S,JAJOSHRT00008554;1999.00;;;<p>Machine Wash</p>;;;;;zerotype;;Winter;;No
2152425;1968101005-Black-2152425;JJPR CANNON SHIRT;Draft;Shirts;Jack & Jones;Adults-Men;Men;Black;;;Fashion;;2017;XXL,JAJOSHRT00008545,M,JAJOSHRT00008546,L,JAJOSHRT00008547,XL,JAJOSHRT00008548,S,JAJOSHRT00008549;2499.00;;;<p>Machine Wash</p>;;;;;zerotype;;Winter;;No
2152424;1968097005-White-2152424;JJPR RIVERS LS SHIRT IN;Draft;Shirts;Jack & Jones;Adults-Men;Men;White;;;Fashion;;2017;XXL,JAJOSHRT00008540,M,JAJOSHRT00008541,L,JAJOSHRT00008542,XL,JAJOSHRT00008543,S,JAJOSHRT00008544;2999.00;;;<p>Machine Wash</p>;;;;;zerotype;;Winter;;No
2152423;1968094005-Dark Grey Melange-2152423;JCO PERU LS SHIRT;Draft;Shirts;Jack & Jones;Adults-Men;Men;Grey;;;Fashion;;2017;XXL,JAJOSHRT00008535,M,JAJOSHRT00008536,L,JAJOSHRT00008537,XL,JAJOSHRT00008538,S,JAJOSHRT00008539;2999.00;;;<p>Machine Wash</p>;;;;;zerotype;;Winter;;No
2152422;1968087005-Gull Gray-2152422;JOR CLARIN LS SHIRT IN;Draft;Shirts;Jack & Jones;Adults-Men;Men;Grey;;;Fashion;;2017;XXL,JAJOSHRT00008530,M,JAJOSHRT00008531,L,JAJOSHRT00008532,XL,JAJOSHRT00008533,S,JAJOSHRT00008534;3499.00;;;<p>Machine Wash</p>;;;;;zerotype;;Winter;;No
2152421;1968085005-Black-2152421;JCO SPRIT LS SHIRT IN;Draft;Shirts;Jack & Jones;Adults-Men;Men;Black;;;Fashion;;2017;XXL,JAJOSHRT00008525,M,JAJOSHRT00008526,L,JAJOSHRT00008527,XL,JAJOSHRT00008528,S,JAJOSHRT00008529;2499.00;;;<p>Machine Wash</p>;;;;;zerotype;;Winter;;No
2152420;1968078005-Princess Blue-2152420;JOR DAY LS SHIRT IN;Draft;Shirts;Jack & Jones;Adults-Men;Men;Blue;;;Fashion;;2017;XXL,JAJOSHRT00008520,M,JAJOSHRT00008521,L,JAJOSHRT00008522,XL,JAJOSHRT00008523,S,JAJOSHRT00008524;2499.00;;;<p>Machine Wash</p>;;;;;zerotype;;Winter;;No
2152419;1968075005-Navy Blazer-2152419;JCO RUSLIP LS SHIRT IN;Draft;Shirts;Jack & Jones;Adults-Men;Men;Blue;;;Fashion;;2017;XXL,JAJOSHRT00008515,M,JAJOSHRT00008516,L,JAJOSHRT00008517,XL,JAJOSHRT00008518,S,JAJOSHRT00008519;2199.00;;;<p>Machine Wash</p>;;;;;zerotype;;Winter;;No
2152418;1968001005-Charcoal Gray-2152418;JJPR EVE SHIRT IN;Draft;Shirts;Jack & Jones;Adults-Men;Men;Grey;;;Fashion;;2017;XXL,JAJOSHRT00008510,M,JAJOSHRT00008511,L,JAJOSHRT00008512,XL,JAJOSHRT00008513,S,JAJOSHRT00008514;2999.00;;;<p>Machine Wash</p>;;;;;zerotype;;Winter;;No
2152416;1967982005-Black-2152416;JPR BRICK FIELD LS SHIRT IN;Draft;Shirts;Jack & Jones;Adults-Men;Men;Black;;;Fashion;;2017;XXL,JAJOSHRT00008500,M,JAJOSHRT00008501,L,JAJOSHRT00008502,XL,JAJOSHRT00008503,S,JAJOSHRT00008504;2999.00;;;<p>Machine Wash</p>;;;;;zerotype;;Winter;;No
2152415;1967981010-Sky Captain-2152415;JCO PROSPECT LS SHIRT IN;Draft;Shirts;Jack & Jones;Adults-Men;Men;Blue;;;Fashion;;2017;XXL,JAJOSHRT00008495,M,JAJOSHRT00008496,L,JAJOSHRT00008497,XL,JAJOSHRT00008498,S,JAJOSHRT00008499;3499.00;;;<p>Machine Wash</p>;;;;;zerotype;;Winter;;No
2152414;1967981005-Black-2152414;JCO PROSPECT LS SHIRT IN;Draft;Shirts;Jack & Jones;Adults-Men;Men;Black;;;Fashion;;2017;XXL,JAJOSHRT00008490,M,JAJOSHRT00008491,L,JAJOSHRT00008492,XL,JAJOSHRT00008493,S,JAJOSHRT00008494;3499.00;;;<p>Machine Wash</p>;;;;;zerotype;;Winter;;No
2152413;1967099015-Orchid Ice-2152413;JJPR PETER LS SHIRT IN;Draft;Shirts;Jack & Jones;Adults-Men;Men;Purple;;;Fashion;;2017;XXL,JAJOSHRT00008485,M,JAJOSHRT00008486,L,JAJOSHRT00008487,XL,JAJOSHRT00008488,S,JAJOSHRT00008489;2499.00;;;<p>Machine Wash</p>;;;;;zerotype;;Winter;;No
2152410;1967099010-Port Royale-2152410;JJPR PETER LS SHIRT IN;Draft;Shirts;Jack & Jones;Adults-Men;Men;Red;;;Fashion;;2017;XXL,JAJOSHRT00008480,M,JAJOSHRT00008481,L,JAJOSHRT00008482,XL,JAJOSHRT00008483,S,JAJOSHRT00008484;2499.00;;;<p>Machine Wash</p>;;;;;zerotype;;Winter;;No
2152409;1967099005-White-2152409;JJPR PETER LS SHIRT IN;Draft;Shirts;Jack & Jones;Adults-Men;Men;White;;;Fashion;;2017;XXL,JAJOSHRT00008475,M,JAJOSHRT00008476,L,JAJOSHRT00008477,XL,JAJOSHRT00008478,S,JAJOSHRT00008479;2499.00;;;<p>Machine Wash</p>;;;;;zerotype;;Winter;;No
2152408;1966438010-White-2152408;JJVC FAR LS SHIRT IN;Draft;Shirts;Jack & Jones;Adults-Men;Men;White;;;Fashion;;2017;L,JAJOSHRT00008470,M,JAJOSHRT00008471,S,JAJOSHRT00008472,XXL,JAJOSHRT00008473,XL,JAJOSHRT00008474;1999.00;;;<p>Machine Wash</p>;;;;;zerotype;;Winter;;No
2152407;1966428005-Mood Indigo-2152407;JJVC OXFORD SHIRT LS IN;Draft;Shirts;Jack & Jones;Adults-Men;Men;Blue;;;Fashion;;2017;XXL,JAJOSHRT00008465,M,JAJOSHRT00008466,L,JAJOSHRT00008467,XL,JAJOSHRT00008468,S,JAJOSHRT00008469;2499.00;;;<p>Machine Wash</p>;;;;;zerotype;;Winter;;No
2152406;1966423010-Kentucky Blue-2152406;JJOR LEO SHIRT LS IN;Draft;Shirts;Jack & Jones;Adults-Men;Men;Blue;;;Fashion;;2017;XXL,JAJOSHRT00008460,M,JAJOSHRT00008461,L,JAJOSHRT00008462,XL,JAJOSHRT00008463,S,JAJOSHRT00008464;2499.00;;;<p>Machine Wash</p>;;;;;zerotype;;Winter;;No
2152405;1966423005-Incense-2152405;JJOR LEO SHIRT LS IN;Draft;Shirts;Jack & Jones;Adults-Men;Men;Beige;;;Fashion;;2017;XXL,JAJOSHRT00008455,M,JAJOSHRT00008456,L,JAJOSHRT00008457,XL,JAJOSHRT00008458,S,JAJOSHRT00008459;2499.00;;;<p>Machine Wash</p>;;;;;zerotype;;Winter;;No
2152404;1966400010-Black-2152404;JJOR NICK LS SHIRT IN;Draft;Shirts;Jack & Jones;Adults-Men;Men;Black;;;Fashion;;2017;XL,JAJOSHRT00008450,M,JAJOSHRT00008451,XXL,JAJOSHRT00008452,S,JAJOSHRT00008453,L,JAJOSHRT00008454;3499.00;;;<p>Machine Wash</p>;;;;;zerotype;;Winter;;No
2152403;1966400005-Port Royale-2152403;JJOR NICK LS SHIRT IN;Draft;Shirts;Jack & Jones;Adults-Men;Men;Red;;;Fashion;;2017;XXL,JAJOSHRT00008445,M,JAJOSHRT00008446,L,JAJOSHRT00008447,XL,JAJOSHRT00008448,S,JAJOSHRT00008449;3499.00;;;<p>Machine Wash</p>;;;;;zerotype;;Winter;;No
2152402;1966399005-Brilliant Blue-2152402;JJPR BRAN LS SHIRT IN;Draft;Shirts;Jack & Jones;Adults-Men;Men;Blue;;;Fashion;;2017;XXL,JAJOSHRT00008440,M,JAJOSHRT00008441,L,JAJOSHRT00008442,XL,JAJOSHRT00008443,S,JAJOSHRT00008444;2499.00;;;<p>Machine Wash</p>;;;;;zerotype;;Winter;;No
2152401;1966386005-Port Royale-2152401;JJOR ARSENAL LS SHIRT IN;Draft;Shirts;Jack & Jones;Adults-Men;Men;Red;;;Fashion;;2017;XXL,JAJOSHRT00008435,M,JAJOSHRT00008436,L,JAJOSHRT00008437,XL,JAJOSHRT00008438,S,JAJOSHRT00008439;2999.00;;;<p>Machine Wash</p>;;;;;zerotype;;Winter;;No
2152400;1964101005-Amber Gold-2152400;JJV CAMPO SHIRT L/S IN;Draft;Shirts;Jack & Jones;Adults-Men;Men;Yellow;;;Fashion;;2017;XXL,JAJOSHRT00008430,M,JAJOSHRT00008431,L,JAJOSHRT00008432,XL,JAJOSHRT00008433,S,JAJOSHRT00008434;2499.00;;;<p>Machine Wash</p>;;;;;zerotype;;Winter;;No
2152399;1962896010-True Navy-2152399;JJPR CLASSIC SHIRT L/S IN;Draft;Shirts;Jack & Jones;Adults-Men;Men;Blue;;;Fashion;;2017;XXL,JAJOSHRT00008425,M,JAJOSHRT00008426,L,JAJOSHRT00008427,XL,JAJOSHRT00008428,S,JAJOSHRT00008429;2499.00;;;<p>Machine Wash</p>;;;;;zerotype;;Winter;;No
2152398;1962896005-Deep Depths-2152398;JJPR CLASSIC SHIRT L/S I;Draft;Shirts;Jack & Jones;Adults-Men;Men;Blue;;;Fashion;;2017;XXL,JAJOSHRT00008420,M,JAJOSHRT00008421,L,JAJOSHRT00008422,XL,JAJOSHRT00008423,S,JAJOSHRT00008424;2499.00;;;<p>Machine Wash</p>;;;;;zerotype;;Winter;;No
2152396;1962895010-Black-2152396;JJPR OPULENT SHIRT L/S IN;Draft;Shirts;Jack & Jones;Adults-Men;Men;Black;;;Fashion;;2017;XXL,JAJOSHRT00008415,M,JAJOSHRT00008416,L,JAJOSHRT00008417,XL,JAJOSHRT00008418,S,JAJOSHRT00008419;2999.00;;;<p>Machine Wash</p>;;;;;zerotype;;Winter;;No
2152395;1962895005-White-2152395;JJPR OPULENT SHIRT L/S IN;Draft;Shirts;Jack & Jones;Adults-Men;Men;White;;;Fashion;;2017;XXL,JAJOSHRT00008410,M,JAJOSHRT00008411,L,JAJOSHRT00008412,XL,JAJOSHRT00008413,S,JAJOSHRT00008414;2999.00;;;<p>Machine Wash</p>;;;;;zerotype;;Winter;;No
2152393;1962890010-Black-2152393;JJOR RADICAL SHIRT L/S IN;Draft;Shirts;Jack & Jones;Adults-Men;Men;Black;;;Fashion;;2017;XXL,JAJOSHRT00008405,M,JAJOSHRT00008406,L,JAJOSHRT00008407,XL,JAJOSHRT00008408,S,JAJOSHRT00008409;2999.00;;;<p>Machine Wash</p>;;;;;zerotype;;Winter;;No
2152392;1962890005-White-2152392;JJOR RADICAL SHIRT L/S IN;Draft;Shirts;Jack & Jones;Adults-Men;Men;White;;;Fashion;;2017;XXL,JAJOSHRT00008400,M,JAJOSHRT00008401,L,JAJOSHRT00008402,XL,JAJOSHRT00008403,S,JAJOSHRT00008404;2999.00;;;<p>Machine Wash</p>;;;;;zerotype;;Winter;;No
2152391;1969733010-Oatmeal-2152391;JJVC FU NAVY CREW NECK KNIT;Draft;Sweaters;Jack & Jones;Adults-Men;Men;Grey;;;Fashion;;2017;XXL,JAJOSWTR00000779,M,JAJOSWTR00000780,L,JAJOSWTR00000781,XL,JAJOSWTR00000782,S,JAJOSWTR00000783;2499.00;;;<p>Machine Wash</p>;;;;;zerotype;;Winter;;No
2152390;1969733005-Asphalt-2152390;JJVC FU NAVY CREW NECK KNIT;Draft;Sweaters;Jack & Jones;Adults-Men;Men;Grey;;;Fashion;;2017;XXL,JAJOSWTR00000774,M,JAJOSWTR00000775,L,JAJOSWTR00000776,XL,JAJOSWTR00000777,S,JAJOSWTR00000778;2499.00;;;<p>Machine Wash</p>;;;;;zerotype;;Winter;;No
2149918;097EE1D009-E400-2149918;ESPRITNAVYSkirts;Draft;Skirts;ESPRIT;Adults-Women;Women;NA;;;Fashion;;2017;32,ESPRSKRT00000259,34,ESPRSKRT00000260,36,ESPRSKRT00000261,38,ESPRSKRT00000262;2999.00;;;<p>66% PES,30% CV,4% EL, classic twill</p>;;;;;zerotype;;Fall;;No
2149915;087EO1D007-E110-2149915;ESPRITOFF WHITSkirts;Draft;Skirts;ESPRIT;Adults-Women;Women;NA;;;Fashion;;2017;32,ESPRSKRT00000249,34,ESPRSKRT00000250,36,ESPRSKRT00000251,38,ESPRSKRT00000252,40,ESPRSKRT00000253;2999.00;;;<p>70% PAN,30% PES, black/white optic boucl</p>;;;;;zerotype;;Fall;;No
2149909;087CC1D014-C110-2149909;ESPRITOFF WHITSkirts;Draft;Skirts;ESPRIT;Adults-Women;Women;NA;;;Fashion;;2017;32,ESPRSKRT00000229,34,ESPRSKRT00000230,36,ESPRSKRT00000231,38,ESPRSKRT00000232,40,ESPRSKRT00000233;2999.00;;;<p>70% PES,30% CO,</p>;;;;;zerotype;;Fall;;No
2149907;087CC1D009-C902-2149907;ESPRITBLUE MEDSkirts;Draft;Skirts;ESPRIT;Adults-Women;Women;NA;;;Fashion;;2017;32,ESPRSKRT00000224,34,ESPRSKRT00000225,36,ESPRSKRT00000226,38,ESPRSKRT00000227,40,ESPRSKRT00000228;2999.00;;;<p>100% CO,</p>;;;;;zerotype;;Fall;;No
2149896;097EE1B043-E040-2149896;ESPRITLIGHT GRTrousers;Draft;Trousers;ESPRIT;Adults-Women;Women;NA;;;Fashion;;2017;30/30,ESPRTRSR00000843,32/30,ESPRTRSR00000844,34/30,ESPRTRSR00000845;2999.00;;;<p>61% PES,37% CV,2% EL, melange stripe kni</p>;;;;;zerotype;;Fall;;No
2149888;097EE1B027-E001-2149888;ESPRITBLACKTrousers;Draft;Trousers;ESPRIT;Adults-Women;Women;NA;;;Fashion;;2017;30/28,ESPRTRSR00000828,32/28,ESPRTRSR00000829,34/28,ESPRTRSR00000830;3499.00;;;<p>100% PES, pisa fluent crepe</p>;;;;;zerotype;;Fall;;No
2149885;097CC1B019-C024-2149885;ESPRITDARK GRETrousers;Draft;Trousers;ESPRIT;Adults-Women;Women;NA;;;Fashion;;2017;30/SH,ESPRTRSR00000820,32/SH,ESPRTRSR00000821,34/SH,ESPRTRSR00000822,36/SH,ESPRTRSR00000823,38/SH,ESPRTRSR00000824;2999.00;;;<p>88% CO,10% PES,2% EL,</p>;;;;;zerotype;;Fall;;No
2149852;087CC1B019-C400-2149852;ESPRITNAVYTrousers;Draft;Trousers;ESPRIT;Adults-Women;Women;NA;;;Fashion;;2017;30/SH,ESPRTRSR00000743,32/SH,ESPRTRSR00000744,34/SH,ESPRTRSR00000745,36/SH,ESPRTRSR00000746,38/SH,ESPRTRSR00000747;1999.00;;;<p>59% CO,27% CMD,11% EME,3% EL,</p>;;;;;zerotype;;Fall;;No
2149851;087CC1B019-C001-2149851;ESPRITBLACKTrousers;Draft;Trousers;ESPRIT;Adults-Women;Women;NA;;;Fashion;;2017;30/SH,ESPRTRSR00000738,32/SH,ESPRTRSR00000739,34/SH,ESPRTRSR00000740,36/SH,ESPRTRSR00000741,38/SH,ESPRTRSR00000742;1999.00;;;<p>59% CO,27% CMD,11% EME,3% EL,</p>;;;;;zerotype;;Fall;;No
2148711;997EE2I802-E001-2148711;ESPRITBLACKSweaters;Draft;Sweaters;ESPRIT;Adults-Women;Men;NA;;;Fashion;;2017;L,ESPRSWTR00001510,M,ESPRSWTR00001511,S,ESPRSWTR00001512,XL,ESPRSWTR00001513,XXL,ESPRSWTR00001514;2999.00;;;<p>100% CO,</p>;;;;;zerotype;;Fall;;No
2148709;997EE2I801-E400-2148709;ESPRITNAVYSweaters;Draft;Sweaters;ESPRIT;Adults-Women;Men;NA;;;Fashion;;2017;L,ESPRSWTR00001505,M,ESPRSWTR00001506,S,ESPRSWTR00001507,XL,ESPRSWTR00001508,XXL,ESPRSWTR00001509;1999.00;;;<p>100% CO,</p>;;;;;zerotype;;Fall;;No
2148704;997CC2I809-C400-2148704;ESPRITNAVYSweaters;Draft;Sweaters;ESPRIT;Adults-Women;Men;NA;;;Fashion;;2017;L,ESPRSWTR00001490,M,ESPRSWTR00001491,S,ESPRSWTR00001492,XL,ESPRSWTR00001493,XXL,ESPRSWTR00001494;2999.00;;;<p>blockstripe cnk</p>;;;;;zerotype;;Fall;;No
2148703;997CC2I808-C600-2148703;ESPRITBORDEAUXSweaters;Draft;Sweaters;ESPRIT;Adults-Women;Men;NA;;;Fashion;;2017;L,ESPRSWTR00001485,M,ESPRSWTR00001486,S,ESPRSWTR00001487,XL,ESPRSWTR00001488,XXL,ESPRSWTR00001489;2999.00;;;<p>striped cnk</p>;;;;;zerotype;;Fall;;No
2148696;107EO2I006-E620-2148696;ESPRITGARNET RSweaters;Draft;Sweaters;ESPRIT;Adults-Women;Men;NA;;;Fashion;;2017;L,ESPRSWTR00001465,M,ESPRSWTR00001466,S,ESPRSWTR00001467,XL,ESPRSWTR00001468,XXL,ESPRSWTR00001469;3999.00;;;<p>100% CO, bt cotton melange</p>;;;;;zerotype;;Fall;;No
2148694;107EO2I005-E620-2148694;ESPRITGARNET RSweaters;Draft;Sweaters;ESPRIT;Adults-Women;Men;NA;;;Fashion;;2017;L,ESPRSWTR00001460,M,ESPRSWTR00001461,S,ESPRSWTR00001462,XL,ESPRSWTR00001463,XXL,ESPRSWTR00001464;3999.00;;;<p>100% WO, hb wool stripe</p>;;;;;zerotype;;Fall;;No
2148693;107EO2I005-E020-2148693;ESPRITDARK GRESweaters;Draft;Sweaters;ESPRIT;Adults-Women;Men;NA;;;Fashion;;2017;L,ESPRSWTR00001455,M,ESPRSWTR00001456,S,ESPRSWTR00001457,XL,ESPRSWTR00001458,XXL,ESPRSWTR00001459;3999.00;;;<p>100% WO, hb wool stripe</p>;;;;;zerotype;;Fall;;No
2148690;107EO2I002-E620-2148690;ESPRITGARNET RSweaters;Draft;Sweaters;ESPRIT;Adults-Women;Men;NA;;;Fashion;;2017;L,ESPRSWTR00001445,M,ESPRSWTR00001446,S,ESPRSWTR00001447,XL,ESPRSWTR00001448,XXL,ESPRSWTR00001449;3499.00;;;<p>95% CO,5% WS,</p>;;;;;zerotype;;Fall;;No
2148689;107EO2I002-E300-2148689;ESPRITDARK GRESweaters;Draft;Sweaters;ESPRIT;Adults-Women;Men;NA;;;Fashion;;2017;L,ESPRSWTR00001440,M,ESPRSWTR00001441,S,ESPRSWTR00001442,XL,ESPRSWTR00001443,XXL,ESPRSWTR00001444;3499.00;;;<p>95% CO,5% WS,</p>;;;;;zerotype;;Fall;;No
2148688;107EO2I002-E011-2148688;ESPRITANTHRACISweaters;Draft;Sweaters;ESPRIT;Adults-Women;Men;NA;;;Fashion;;2017;L,ESPRSWTR00001435,M,ESPRSWTR00001436,S,ESPRSWTR00001437,XL,ESPRSWTR00001438,XXL,ESPRSWTR00001439;3499.00;;;<p>95% CO,5% WS,</p>;;;;;zerotype;;Fall;;No
2148670;107EE2I008-E400-2148670;ESPRITNAVYSweaters;Draft;Sweaters;ESPRIT;Adults-Women;Men;NA;;;Fashion;;2017;L,ESPRSWTR00001385,M,ESPRSWTR00001386,S,ESPRSWTR00001387,XL,ESPRSWTR00001388,XXL,ESPRSWTR00001389;3999.00;;;<p>100% CO, B denim cotton</p>;;;;;zerotype;;Fall;;No
2148668;107EE2I003-E400-2148668;ESPRITNAVYSweaters;Draft;Sweaters;ESPRIT;Adults-Women;Men;NA;;;Fashion;;2017;L,ESPRSWTR00001380,M,ESPRSWTR00001381,S,ESPRSWTR00001382,XL,ESPRSWTR00001383,XXL,ESPRSWTR00001384;3999.00;;;<p>100% CO, B twisted cotton</p>;;;;;zerotype;;Fall;;No
2148666;107EE2I003-E310-2148666;ESPRITGREENSweaters;Draft;Sweaters;ESPRIT;Adults-Women;Men;NA;;;Fashion;;2017;L,ESPRSWTR00001375,M,ESPRSWTR00001376,S,ESPRSWTR00001377,XL,ESPRSWTR00001378,XXL,ESPRSWTR00001379;3999.00;;;<p>100% CO, B twisted cotton</p>;;;;;zerotype;;Fall;;No
2148662;107EE2I002-E405-2148662;ESPRITDARK BLUSweaters;Draft;Sweaters;ESPRIT;Adults-Women;Men;NA;;;Fashion;;2017;L,ESPRSWTR00001365,M,ESPRSWTR00001366,S,ESPRSWTR00001367,XL,ESPRSWTR00001368,XXL,ESPRSWTR00001369;3999.00;;;<p>100% CO, cotton BD</p>;;;;;zerotype;;Fall;;No
2148658;107CC2I011-C350-2148658;ESPRITKHAKI GRSweaters;Draft;Sweaters;ESPRIT;Adults-Women;Men;NA;;;Fashion;;2017;L,ESPRSWTR00001355,M,ESPRSWTR00001356,S,ESPRSWTR00001357,XL,ESPRSWTR00001358,XXL,ESPRSWTR00001359;2999.00;;;<p>100% CO, cotton BD</p>;;;;;zerotype;;Fall;;No
2148656;107CC2I008-C400-2148656;ESPRITNAVYSweaters;Draft;Sweaters;ESPRIT;Adults-Women;Men;NA;;;Fashion;;2017;L,ESPRSWTR00001350,M,ESPRSWTR00001351,S,ESPRSWTR00001352,XL,ESPRSWTR00001353,XXL,ESPRSWTR00001354;3999.00;;;<p>70% PAN,30% WO, Acrylic wool mix</p>;;;;;zerotype;;Fall;;No
2148653;107CC2I005-C400-2148653;ESPRITNAVYSweaters;Draft;Sweaters;ESPRIT;Adults-Women;Men;NA;;;Fashion;;2017;L,ESPRSWTR00001345,M,ESPRSWTR00001346,S,ESPRSWTR00001347,XL,ESPRSWTR00001348,XXL,ESPRSWTR00001349;3999.00;;;<p>100% CO, cotton BD</p>;;;;;zerotype;;Fall;;No
2148651;107CC2I005-C040-2148651;ESPRITLIGHT GRSweaters;Draft;Sweaters;ESPRIT;Adults-Women;Men;NA;;;Fashion;;2017;L,ESPRSWTR00001340,M,ESPRSWTR00001341,S,ESPRSWTR00001342,XL,ESPRSWTR00001343,XXL,ESPRSWTR00001344;3999.00;;;<p>100% CO, cotton BD</p>;;;;;zerotype;;Fall;;No
2148649;107CC2I001-C470-2148649;ESPRITTURQUOISSweaters;Draft;Sweaters;ESPRIT;Adults-Women;Men;NA;;;Fashion;;2017;L,ESPRSWTR00001335,M,ESPRSWTR00001336,S,ESPRSWTR00001337,XL,ESPRSWTR00001338,XXL,ESPRSWTR00001339;2999.00;;;<p>100% CO, cotton BD</p>;;;;;zerotype;;Fall;;No
2148647;107CC2I001-C020-2148647;ESPRITDARK GRESweaters;Draft;Sweaters;ESPRIT;Adults-Women;Men;NA;;;Fashion;;2017;L,ESPRSWTR00001330,M,ESPRSWTR00001331,S,ESPRSWTR00001332,XL,ESPRSWTR00001333,XXL,ESPRSWTR00001334;2999.00;;;<p>100% CO, cotton BD</p>;;;;;zerotype;;Fall;;No
2148627;097EO2I016-E030-2148627;ESPRITGREYSweaters;Draft;Sweaters;ESPRIT;Adults-Women;Men;NA;;;Fashion;;2017;L,ESPRSWTR00001280,M,ESPRSWTR00001281,S,ESPRSWTR00001282,XL,ESPRSWTR00001283,XXL,ESPRSWTR00001284;2999.00;;;<p>100% CO, Bros mel cotton</p>;;;;;zerotype;;Fall;;No
2148626;097EO2I015-E015-2148626;ESPRITGUNMETALSweaters;Draft;Sweaters;ESPRIT;Adults-Women;Men;NA;;;Fashion;;2017;L,ESPRSWTR00001275,M,ESPRSWTR00001276,S,ESPRSWTR00001277,XL,ESPRSWTR00001278,XXL,ESPRSWTR00001279;2999.00;;;<p>50% CV,30% PES,20% PA, col effect tech y</p>;;;;;zerotype;;Fall;;No
2148622;097EO2I012-E420-2148622;ESPRITGREY BLUSweaters;Draft;Sweaters;ESPRIT;Adults-Women;Men;NA;;;Fashion;;2017;L,ESPRSWTR00001265,M,ESPRSWTR00001266,S,ESPRSWTR00001267,XL,ESPRSWTR00001268,XXL,ESPRSWTR00001269;3999.00;;;<p>100% CO, Basic Combed Cotton</p>;;;;;zerotype;;Fall;;No
2148621;097EO2I012-E015-2148621;ESPRITGUNMETALSweaters;Draft;Sweaters;ESPRIT;Adults-Women;Men;NA;;;Fashion;;2017;L,ESPRSWTR00001260,M,ESPRSWTR00001261,S,ESPRSWTR00001262,XL,ESPRSWTR00001263,XXL,ESPRSWTR00001264;3999.00;;;<p>100% CO, Basic Combed Cotton</p>;;;;;zerotype;;Fall;;No
2148608;097EE2I028-E040-2148608;ESPRITLIGHT GRSweaters;Draft;Sweaters;ESPRIT;Adults-Women;Men;NA;;;Fashion;;2017;S,ESPRSWTR00001225,M,ESPRSWTR00001226,L,ESPRSWTR00001227,XL,ESPRSWTR00001228,XXL,ESPRSWTR00001229;3999.00;;;<p>100% WO, Merino Wool</p>;;;;;zerotype;;Fall;;No
2148607;097EE2I028-E001-2148607;ESPRITBLACKSweaters;Draft;Sweaters;ESPRIT;Adults-Women;Men;NA;;;Fashion;;2017;S,ESPRSWTR00001220,M,ESPRSWTR00001221,L,ESPRSWTR00001222,XL,ESPRSWTR00001223,XXL,ESPRSWTR00001224;3999.00;;;<p>100% WO, Merino Wool</p>;;;;;zerotype;;Fall;;No
2148605;097EE2I028-E610-2148605;ESPRITDARK REDSweaters;Draft;Sweaters;ESPRIT;Adults-Women;Men;NA;;;Fashion;;2017;L,ESPRSWTR00001215,M,ESPRSWTR00001216,S,ESPRSWTR00001217,XL,ESPRSWTR00001218,XXL,ESPRSWTR00001219;3999.00;;;<p>100% WO, Merino Wool</p>;;;;;zerotype;;Fall;;No
2148604;097EE2I028-E440-2148604;ESPRITLIGHT BLSweaters;Draft;Sweaters;ESPRIT;Adults-Women;Men;NA;;;Fashion;;2017;L,ESPRSWTR00001210,M,ESPRSWTR00001211,S,ESPRSWTR00001212,XL,ESPRSWTR00001213,XXL,ESPRSWTR00001214;3999.00;;;<p>100% WO, Merino Wool</p>;;;;;zerotype;;Fall;;No
2148602;097EE2I027-E400-2148602;ESPRITNAVYSweaters;Draft;Sweaters;ESPRIT;Adults-Women;Men;NA;;;Fashion;;2017;S,ESPRSWTR00001205,M,ESPRSWTR00001206,L,ESPRSWTR00001207,XL,ESPRSWTR00001208,XXL,ESPRSWTR00001209;3999.00;;;<p>100% WO, Merino Wool</p>;;;;;zerotype;;Fall;;No
2148601;097EE2I027-E420-2148601;ESPRITGREY BLUSweaters;Draft;Sweaters;ESPRIT;Adults-Women;Men;NA;;;Fashion;;2017;L,ESPRSWTR00001200,M,ESPRSWTR00001201,S,ESPRSWTR00001202,XL,ESPRSWTR00001203,XXL,ESPRSWTR00001204;3999.00;;;<p>100% WO, Merino Wool</p>;;;;;zerotype;;Fall;;No
2148599;097EE2I012-E015-2148599;ESPRITGUNMETALSweaters;Draft;Sweaters;ESPRIT;Adults-Women;Men;NA;;;Fashion;;2017;L,ESPRSWTR00001195,M,ESPRSWTR00001196,S,ESPRSWTR00001197,XL,ESPRSWTR00001198,XXL,ESPRSWTR00001199;4999.00;;;<p>60% CO,40% PES, BW Huafu creek heather c</p>;;;;;zerotype;;Fall;;No
2148598;097EE2I004-E405-2148598;ESPRITDARK BLUSweaters;Draft;Sweaters;ESPRIT;Adults-Women;Men;NA;;;Fashion;;2017;L,ESPRSWTR00001190,M,ESPRSWTR00001191,S,ESPRSWTR00001192,XL,ESPRSWTR00001193,XXL,ESPRSWTR00001194;2499.00;;;<p>100% CO, IND Huafu Slub Cotton mel</p>;;;;;zerotype;;Fall;;No
2148595;097EE1I044-E640-2148595;ESPRITCORAL RESweaters;Draft;Sweaters;ESPRIT;Adults-Women;Women;NA;;;Fashion;;2017;XS,ESPRSWTR00001180,S,ESPRSWTR00001181,M,ESPRSWTR00001182,L,ESPRSWTR00001183,XL,ESPRSWTR00001184;3499.00;;;<p>49% PES,25% PA,20% PAN,5% WO,1% EL,</p>;;;;;zerotype;;Fall;;No
2148593;097EE1I044-E044-2148593;ESPRITLIGHT GRSweaters;Draft;Sweaters;ESPRIT;Adults-Women;Women;NA;;;Fashion;;2017;XS,ESPRSWTR00001175,S,ESPRSWTR00001176,M,ESPRSWTR00001177,L,ESPRSWTR00001178,XL,ESPRSWTR00001179;3499.00;;;<p>49% PES,25% PA,20% PAN,5% WO,1% EL,</p>;;;;;zerotype;;Fall;;No
2148591;097EE1I038-E401-2148591;ESPRITNAVY 2Sweaters;Draft;Sweaters;ESPRIT;Adults-Women;Women;NA;;;Fashion;;2017;XS,ESPRSWTR00001170,S,ESPRSWTR00001171,M,ESPRSWTR00001172,L,ESPRSWTR00001173,XL,ESPRSWTR00001174;4299.00;;;<p>55% PES,20% PAN,20% PA,5% WO,</p>;;;;;zerotype;;Fall;;No
2148589;097EE1I023-E110-2148589;ESPRITOFF WHITSweaters;Draft;Sweaters;ESPRIT;Adults-Women;Women;NA;;;Fashion;;2017;L,ESPRSWTR00001165,M,ESPRSWTR00001166,S,ESPRSWTR00001167,XL,ESPRSWTR00001168,XS,ESPRSWTR00001169;3499.00;;;<p>100% CO, cotton combed 2/40, HKG</p>;;;;;zerotype;;Fall;;No
2148588;097EE1I022-E631-2148588;ESPRITRED 2Sweaters;Draft;Sweaters;ESPRIT;Adults-Women;Women;NA;;;Fashion;;2017;XS,ESPRSWTR00001160,S,ESPRSWTR00001161,M,ESPRSWTR00001162,L,ESPRSWTR00001163,XL,ESPRSWTR00001164;3499.00;;;<p>100% CO, cotton rayon plated, HKG</p>;;;;;zerotype;;Fall;;No
2148580;097EE1I015-E042-2148580;ESPRITLIGHT GRSweaters;Draft;Sweaters;ESPRIT;Adults-Women;Women;NA;;;Fashion;;2017;XS,ESPRSWTR00001135,S,ESPRSWTR00001136,M,ESPRSWTR00001137,L,ESPRSWTR00001138,XL,ESPRSWTR00001139;2499.00;;;<p>63% PES,34% CV,3% WO, PES Viscose Wool,</p>;;;;;zerotype;;Fall;;No
2148572;097EE1I004-E684-2148572;ESPRITOLD PINKSweaters;Draft;Sweaters;ESPRIT;Adults-Women;Women;NA;;;Fashion;;2017;XS,ESPRSWTR00001115,S,ESPRSWTR00001116,M,ESPRSWTR00001117,L,ESPRSWTR00001118,XL,ESPRSWTR00001119;2999.00;;;<p>41% PAN,34% PES,20% WO,5% WM, mohair ble</p>;;;;;zerotype;;Fall;;No
2148570;097EE1I004-E679-2148570;ESPRITDARK OLDSweaters;Draft;Sweaters;ESPRIT;Adults-Women;Women;NA;;;Fashion;;2017;XS,ESPRSWTR00001110,S,ESPRSWTR00001111,M,ESPRSWTR00001112,L,ESPRSWTR00001113,XL,ESPRSWTR00001114;2999.00;;;<p>41% PAN,34% PES,20% WO,5% WM, mohair ble</p>;;;;;zerotype;;Fall;;No
2148566;097EE1I002-E620-2148566;ESPRITGARNET RSweaters;Draft;Sweaters;ESPRIT;Adults-Women;Women;NA;;;Fashion;;2017;XS,ESPRSWTR00001100,S,ESPRSWTR00001101,M,ESPRSWTR00001102,L,ESPRSWTR00001103,XL,ESPRSWTR00001104;2499.00;;;<p>50% CO,50% PAN, cotton acrylic</p>;;;;;zerotype;;Fall;;No
2148562;097CC2I017-C001-2148562;ESPRITBLACKSweaters;Draft;Sweaters;ESPRIT;Adults-Women;Men;NA;;;Fashion;;2017;L,ESPRSWTR00001090,M,ESPRSWTR00001091,S,ESPRSWTR00001092,XL,ESPRSWTR00001093,XXL,ESPRSWTR00001094;2499.00;;;<p>100% CO, cotton</p>;;;;;zerotype;;Fall;;No
2148561;097CC2I006-C400-2148561;ESPRITNAVYSweaters;Draft;Sweaters;ESPRIT;Adults-Women;Men;NA;;;Fashion;;2017;L,ESPRSWTR00001085,M,ESPRSWTR00001086,S,ESPRSWTR00001087,XL,ESPRSWTR00001088,XXL,ESPRSWTR00001089;2999.00;;;<p>55% PAN,45% CO, Acrylic Cotton Mix</p>;;;;;zerotype;;Fall;;No
2148555;097CC1I066-C520-2148555;ESPRITBERRY PUSweaters;Draft;Sweaters;ESPRIT;Adults-Women;Women;NA;;;Fashion;;2017;L,ESPRSWTR00001055,M,ESPRSWTR00001056,S,ESPRSWTR00001057,XL,ESPRSWTR00001058,XS,ESPRSWTR00001059;3499.00;;;<p>41% PES,30% PAN,24% CO,5% WO,</p>;;;;;zerotype;;Fall;;No
2148554;097CC1I066-C001-2148554;ESPRITBLACKSweaters;Draft;Sweaters;ESPRIT;Adults-Women;Women;NA;;;Fashion;;2017;L,ESPRSWTR00001050,M,ESPRSWTR00001051,S,ESPRSWTR00001052,XL,ESPRSWTR00001053,XS,ESPRSWTR00001054;3499.00;;;<p>41% PES,30% PAN,24% CO,5% WO,</p>;;;;;zerotype;;Fall;;No
2148549;097CC1I016-C400-2148549;ESPRITNAVYSweaters;Draft;Sweaters;ESPRIT;Adults-Women;Women;NA;;;Fashion;;2017;L,ESPRSWTR00001025,M,ESPRSWTR00001026,S,ESPRSWTR00001027,XL,ESPRSWTR00001028,XS,ESPRSWTR00001029;3499.00;;;<p>55% PA,40% PAN,5% WO,</p>;;;;;zerotype;;Fall;;No
2148548;097CC1I016-C040-2148548;ESPRITLIGHT GRSweaters;Draft;Sweaters;ESPRIT;Adults-Women;Women;NA;;;Fashion;;2017;L,ESPRSWTR00001020,M,ESPRSWTR00001021,S,ESPRSWTR00001022,XL,ESPRSWTR00001023,XS,ESPRSWTR00001024;3499.00;;;<p>55% PA,40% PAN,5% WO,</p>;;;;;zerotype;;Fall;;No
2148535;087EO2I007-E030-2148535;ESPRITGREYSweaters;Draft;Sweaters;ESPRIT;Adults-Women;Men;NA;;;Fashion;;2017;L,ESPRSWTR00000960,M,ESPRSWTR00000961,S,ESPRSWTR00000962,XL,ESPRSWTR00000963,XXL,ESPRSWTR00000964;2999.00;;;<p>100% CO, Fine Cotton BD</p>;;;;;zerotype;;Fall;;No
2148534;087EE2I015-E440-2148534;ESPRITLIGHT BLSweaters;Draft;Sweaters;ESPRIT;Adults-Women;Men;NA;;;Fashion;;2017;L,ESPRSWTR00000955,M,ESPRSWTR00000956,S,ESPRSWTR00000957,XL,ESPRSWTR00000958,XXL,ESPRSWTR00000959;2999.00;;;<p>100% CO, spacedye cotton</p>;;;;;zerotype;;Fall;;No
2148533;087EE2I015-E010-2148533;ESPRITANTHRACISweaters;Draft;Sweaters;ESPRIT;Adults-Women;Men;NA;;;Fashion;;2017;L,ESPRSWTR00000950,M,ESPRSWTR00000951,S,ESPRSWTR00000952,XL,ESPRSWTR00000953,XXL,ESPRSWTR00000954;2999.00;;;<p>100% CO, spacedye cotton</p>;;;;;zerotype;;Fall;;No
2148484;087EE2F023-E901-2148484;ESPRITBLUE DARShirts;Draft;Shirts;ESPRIT;Adults-Men;Men;NA;;;Fashion;;2017;L,ESPRSHRT00001267,M,ESPRSHRT00001268,S,ESPRSHRT00001269,XL,ESPRSHRT00001270,XXL,ESPRSHRT00001271;2499.00;;;<p>100% CO, indigo denim SSL</p>;;;;;zerotype;;Fall;;No
2148483;087EE2F022-E110-2148483;ESPRITOFF WHITShirts;Draft;Shirts;ESPRIT;Adults-Men;Men;NA;;;Fashion;;2017;L,ESPRSHRT00001262,M,ESPRSHRT00001263,S,ESPRSHRT00001264,XL,ESPRSHRT00001265,XXL,ESPRSHRT00001266;2499.00;;;<p>100% CO, yd oxford check</p>;;;;;zerotype;;Fall;;No
2148482;087EE2F021-E400-2148482;ESPRITNAVYShirts;Draft;Shirts;ESPRIT;Adults-Men;Men;NA;;;Fashion;;2017;S,ESPRSHRT00001257,M,ESPRSHRT00001258,L,ESPRSHRT00001259,XL,ESPRSHRT00001260,XXL,ESPRSHRT00001261;2499.00;;;<p>100% CO, yd slub check</p>;;;;;zerotype;;Fall;;No
2148480;087EE2F016-E440-2148480;ESPRITLIGHT BLShirts;Draft;Shirts;ESPRIT;Adults-Men;Men;NA;;;Fashion;;2017;L,ESPRSHRT00001247,M,ESPRSHRT00001248,S,ESPRSHRT00001249,XL,ESPRSHRT00001250,XXL,ESPRSHRT00001251;2499.00;;;<p>100% CO, grindle yd stripe</p>;;;;;zerotype;;Fall;;No
2148479;087EE2F016-E040-2148479;ESPRITLIGHT GRShirts;Draft;Shirts;ESPRIT;Adults-Men;Men;NA;;;Fashion;;2017;L,ESPRSHRT00001242,M,ESPRSHRT00001243,S,ESPRSHRT00001244,XL,ESPRSHRT00001245,XXL,ESPRSHRT00001246;2499.00;;;<p>100% CO, grindle yd stripe</p>;;;;;zerotype;;Fall;;No
2148476;087EE2F011-E635-2148476;ESPRITORANGE RShirts;Draft;Shirts;ESPRIT;Adults-Men;Men;NA;;;Fashion;;2017;L,ESPRSHRT00001227,M,ESPRSHRT00001228,S,ESPRSHRT00001229,XL,ESPRSHRT00001230,XXL,ESPRSHRT00001231;3499.00;;;<p>100% CO, yd melange horizontal stripe</p>;;;;;zerotype;;Fall;;No
2148475;087EE2F010-E110-2148475;ESPRITOFF WHITShirts;Draft;Shirts;ESPRIT;Adults-Men;Men;NA;;;Fashion;;2017;L,ESPRSHRT00001222,M,ESPRSHRT00001223,S,ESPRSHRT00001224,XL,ESPRSHRT00001225,XXL,ESPRSHRT00001226;2499.00;;;<p>100% CO, yd oxford check</p>;;;;;zerotype;;Fall;;No
2148471;087EE2F005-E415-2148471;ESPRITINKShirts;Draft;Shirts;ESPRIT;Adults-Men;Men;NA;;;Fashion;;2017;L,ESPRSHRT00001202,M,ESPRSHRT00001203,S,ESPRSHRT00001204,XL,ESPRSHRT00001205,XXL,ESPRSHRT00001206;3499.00;;;<p>100% CO, yd indigo check</p>;;;;;zerotype;;Fall;;No
2148460;087CC2F007-C400-2148460;ESPRITNAVYShirts;Draft;Shirts;ESPRIT;Adults-Men;Men;NA;;;Fashion;;2017;L,ESPRSHRT00001152,M,ESPRSHRT00001153,S,ESPRSHRT00001154,XL,ESPRSHRT00001155,XXL,ESPRSHRT00001156;2499.00;;;<p>100% CO,</p>;;;;;zerotype;;Fall;;No
2148457;087CC2F005-C600-2148457;ESPRITBORDEAUXShirts;Draft;Shirts;ESPRIT;Adults-Men;Men;NA;;;Fashion;;2017;L,ESPRSHRT00001137,M,ESPRSHRT00001138,S,ESPRSHRT00001139,XL,ESPRSHRT00001140,XXL,ESPRSHRT00001141;3999.00;;;<p>100% CO,</p>;;;;;zerotype;;Fall;;No
2142237;AW16V5186JEGDNM_INK BLUE_36-INK BLUE-2142237;AW16V5186JEGDNM;Draft;Jeggings;AND;Adults-Women;Women;;;;Fashion;;2017;24,ANDJGNG00000051,26,ANDJGNG00000052,28,ANDJGNG00000053,30,ANDJGNG00000054,32,ANDJGNG00000055,34,ANDJGNG00000056,36,ANDJGNG00000057;1799.00;;;<p>78% Cotton, 19% Polyester, 3% Spandex</p>;;;;;zerotype;;Spring;;No
2142137;SS16N4147SH53VL_BLACK_XXL-BLACK-2142137;SS16N4147SH53VL;Draft;Shrug;AND;Adults-Women;Women;;;;Fashion;;2017;S,ANDSHRG00000436,M,ANDSHRG00000437,L,ANDSHRG00000438,XL,ANDSHRG00000439,XXL,ANDSHRG00000440;999.00;;;<p>95% viscose 5% spandex</p>;;;;;zerotype;;Spring;;No
2142125;X6SSN3045PLZ180_BLACK_36-BLACK-2142125;X6SSN3045PLZ180;Draft;Trousers;AND;Adults-Women;Women;;;;Fashion;;2017;26,ANDTRSR00001061,28,ANDTRSR00001062,30,ANDTRSR00001063,32,ANDTRSR00001064,34,ANDTRSR00001065,36,ANDTRSR00001066;1999.00;;;<p>100% Polyester</p>;;;;;zerotype;;Spring;;No
2142124;X6SSN3045PLZ180_NAVY_36-NAVY-2142124;X6SSN3045PLZ180;Draft;Trousers;AND;Adults-Women;Women;;;;Fashion;;2017;26,ANDTRSR00001056,28,ANDTRSR00001057,32,ANDTRSR00001058,34,ANDTRSR00001059,36,ANDTRSR00001060;1999.00;;;<p>100% Polyester</p>;;;;;zerotype;;Spring;;No
2142123;X6SSN3045PLZ180_CORAL_36-CORAL-2142123;X6SSN3045PLZ180;Draft;Trousers;AND;Adults-Women;Women;;;;Fashion;;2017;26,ANDTRSR00001050,28,ANDTRSR00001051,30,ANDTRSR00001052,32,ANDTRSR00001053,34,ANDTRSR00001054,36,ANDTRSR00001055;1999.00;;;<p>100% Polyester</p>;;;;;zerotype;;Spring;;No
2123713;BA-BF6161-White-2123713;BA-BF6161;Draft;Flats;Ginger by Lifestyle;Adults-Women;Women;;;;Fashion;;2017;EURO36,GNGRFlats00002606,EURO37,GNGRFlats00002607,EURO38,GNGRFlats00002608,EURO39,GNGRFlats00002609,EURO40,GNGRFlats00002610,EURO41,GNGRFlats00002611;1299.00;;;<p>Clean with Dry Cloth</p>;;;;ndd17-mum;zerotype;;Fall;ndd17-mum;No
2122605;VALLEDORIA32-Pinky Nude Patent w/lt gold hw-2122605;VALLEDORIA;Draft;Clutches;ALDO;Adults-Women;Women;;;;Fashion;;2017;Onesize,ALDOCLTH00000010;4990.00;;;;;;;ndd17-ggn;zerotype;;Fall;ndd17-ggn;No
2119663;108738-PINK/GREEN-2119663;FOREVER 21PINK/GREENTops;On Hold - Sample;Tops;FOREVER 21;Adults-Women;Women;Pink;;;Fashion;Casual;2017;2/S,FRTOTOPS00032260,3/M,FRTOTOPS00032261,4/L,FRTOTOPS00032262;1549.00;<a href='/pink?src=pd' class='seolink'>Pink</a> floral print semi-sheer woven maxi top, has a plunging V-neck, <a href='/short?src=pd' class='seolink'>short</a> sleeves, button closures, high-low hem;Make a fashion statement with help from this stunning FOREVER 21 shirt. This pink piece will maximize your casually cool work ensemble when you pair it with a slim blazer and darker slim jeans.;Polyester <br> Dry-clean;Regular fit<br />The model (height 5'8") is wearing a size S;;FOREVER 21 Women Pink Floral Print High-Low Maxi Top;FOREVER 21;zerotype;;Fall;Styling issue (bra visible);No
2091041;ADJS300078-DRT-DESERT-2091041;TRASE TX J SHOE;Draft;Casual Shoes;DC;Adults-Women;Women;Brown;;;Fashion;;2017;US7,DCDCCASH00003837,US8,DCDCCASH00003838;3995.00;;;<p>Wash by hand, do not bleach, do not iron, do not dry clean and do not tumble dry</p>;;;;ndd17-mum;zerotype;;Fall;ndd17-mum;No
2085762;CD2341-WHITE/BLACK-2085762;M FRN TT 1.0;Draft;Jackets;Adidas NEO;Adults-Men;Men;;;;Fashion;;2017;M,ADNOJCKT00000711,2XL,ADNOJCKT00000712,L,ADNOJCKT00000713,XL,ADNOJCKT00000714,S,ADNOJCKT00000715;5999.00;;;<p>Use only mild detergent. Wash dark colors separately. Iron on reverse. Wash with like colors only. Do not Iron print</p>;;;;FW17-SPORTS-NEW,fw-17-sports-new,tn-men-sporty-jackets-542036,coupon-offer-diwali17,new-season-diwali17;zerotype;;Fall;new-season-diwali17;No
2084405;F035-BOSSA NOVA-2084405;Enamor F035 Non Padded Wired Bra;On Hold - Sample;Bra;Enamor;Adults-Women;Women;Beige;Beige;Beige;Fashion;Formal;2017;40B,ENAMBRAA00004819,40C,ENAMBRAA00004820,40D,ENAMBRAA00004821,42B,ENAMBRAA00004822,42C,ENAMBRAA00004823,42D,ENAMBRAA00004824;1399.00;<a href='/beige?src=pd' class='seolink'>Beige</a> printed full-coverage Push-Up <a href='/bra?src=pd' class='seolink'>bra</a><br>Non Padded and Underwired seamless cups<br><a href='/regular?src=pd' class='seolink'>Regular</a> straps and front closure<br>Back style: Regular<br>Feature: Side Shaper;You're sure to love the comfortable fit of this stylish bra by Enamor.  Its versatile and seamless design makes it a perfect match for your trendy dresses and form-fitting T-shirts.;Nylon, cotton and elastane <br> Hand-wash;;;Enamor Beige & Beige Printed Underwired Non Padded Push-Up Bra;Bra,ndd17-ggn;zerotype;;Fall;ndd17-ggn;No
2084398;A042-PALESKIN-2084398;Enamor A042 Non Padded Wirefree Bra;On Hold - Sample;Bra;Enamor;Adults-Women;Women;Beige;;;Core;Casual;2017;40B,ENAMBRAA00004749,40C,ENAMBRAA00004750,40D,ENAMBRAA00004751,42B,ENAMBRAA00004752,42C,ENAMBRAA00004753;659.00;Beige solid full-coverage Everyday bra<br>Non Padded and Non-Wired cut and sew cups<br>Regular straps and back closure<br>Back style: Regular<br>Feature: All Day Comfort;You'll want to always wear this flattering and comfortable bra by Enamor.  This chic piece is easy to layer, making it a must-have for any fashionista.;Cotton and elastane <br> Hand-wash;;;Enamor Beige Solid Non-Wired Non Padded Everyday Bra;Enamor;zerotype;;Fall;Broken size;No
2084340;CW5420-MYSRUB-2084340;SN SS TEE W;Active;Tshirts;Adidas;Adults-Women;Women;Burgundy;;;Fashion;Sports;2017;XS,ADDSTSHT00118225,M,ADDSTSHT00118226,XL,ADDSTSHT00118227,L,ADDSTSHT00118228,S,ADDSTSHT00118229;2799.00;<a href='/burgundy?src=pd' class='seolink'>Burgundy</a> self-design T-shirt, has a round neck, <a href='/short?src=pd' class='seolink'>short</a> sleeves;Have this Adidas tee on hand whenever you're looking for classic comfort in a pinch.  Pair this burgundy piece with slim jeans and canvas shoes when you're going out for ice cream with your friends.;Polyester <br> Machine-wash;The model (height 5'8") is wearing a size S;;Adidas Women Burgundy Self-Design Round Neck T-shirt;Adidas;zerotype;;Fall;bbd17-extra20;No
2083753;CD7001-SCARLE-2083753;ROSE SHORT;On Hold - Sample;Shorts;Adidas;Adults-Men;Men;;;;Fashion;;2017;L,ADDSSHOR00101974,M,ADDSSHOR00101975,2XL,ADDSSHOR00101976,XL,ADDSSHOR00101977,S,ADDSSHOR00101978;3499.00;;;<p>Use only mild detergent. Wash dark colors separately. Iron on reverse. Wash with like colors only. Do not Iron print</p>;;;;FW17-SPORTS-NEW,fw-17-sports-new;zerotype;;Fall;D to OHS;No
2083147;BR2222-CBROWN-2083147;TRACK PANTS;On Hold - Sample;Track Pants;Adidas Originals;Adults-Women;Women;;;;Fashion;;2017;42,ADORTRPT00001230,38,ADORTRPT00001231,40,ADORTRPT00001232,36,ADORTRPT00001233,34,ADORTRPT00001234;6999.00;;;<p>Use only mild detergent. Wash dark colors separately. Iron on reverse. Wash with like colors only. Do not Iron print</p>;;;;FW17-SPORTS-NEW,fw-17-sports-new;zerotype;;Fall;Broken Size;No
2079169;AKTJ3727-Dk. Blue-2079169;TS REG HEN PRI HS S17AJAJTS026B3;Active;Tshirts;Arrow Blue Jean Co.;Adults-Men;Men;Blue;;;Fashion;Casual;2016;L,AWJSTSHT00000322,M,AWJSTSHT00000323,S,AWJSTSHT00000324,XL,AWJSTSHT00000325,XXL,AWJSTSHT00000326;1399.00;<a href='/blue?src=pd' class='seolink'>Blue</a> dyed T-shirt, has a Henley neck, <a href='/short?src=pd' class='seolink'>short</a> sleeves;Keep it hip and casual this season with this high-quality Arrow Blue Jean Co. tee.  When you're attending an after-work happy hour, wear this blue piece with chinos and easy loafers.;Cotton <br> Machine-wash;The model (height 6') is wearing a size M;;Arrow Blue Jean Co. Men Blue Dyed Henley Neck T-shirt;Arrow Blue Jean Co.;zerotype;;Fall;;No
2078909;ARES0894-Me. Blue-2078909;SH FS REG SEM STR S16ARPRSH066B2;Active;Shirts;Arrow;Adults-Men;Men;Blue;White;;Fashion;Formal;2017;38.0,ARRWSHRT00006633,39.0,ARRWSHRT00006634,40.0,ARRWSHRT00006635,42.0,ARRWSHRT00006636,44.0,ARRWSHRT00006637,46.0,ARRWSHRT00006638;2299.00;Blue and white checked formal shirt, has a spread collar, button placket, 1 pocket, long sleeves, curved hem;Formalise your wardrobe with this cool shirt from Arrow.  Make it to your next business meeting or formal event wearing this blue shirt with slim trousers and brogues.;Cotton <br> Machine-wash;Regular Fit<br> The model (height 6') is wearing a size M;;Arrow Men Blue & White Checked Formal Shirt;Arrow,arrow-aw17-all;zerotype;;Fall;arrow-aw17-all;No
2078050;AKSY4111-Black-2078050;SW STR VNE REG FS A16ANNYSW012;BIS + Content Complete;Sweaters;Arrow New York;Adults-Men;Men;Black;;;Fashion;Casual;2016;3XL,ARNYSWTR00000676,L,ARNYSWTR00000677,M,ARNYSWTR00000678,S,ARNYSWTR00000679,XL,ARNYSWTR00000680,XXL,ARNYSWTR00000681;2799.00;Black self-design pullover, has a V-neck, long sleeves, ribbed hem;Elevate your wintery style when you take advantage of this amazing Arrow New York sweater.  When you're checking out an art gallery opening, pair this black piece with classic trousers and Oxfords.;Acrylic <br> Dry-clean;The model (height 6') is wearing a size M;;Arrow New York Men Black Self Design Pullover;Arrow New York;zerotype;;Fall;ndd17-mum;No
2078046;AKSY4105-Black-2078046;SW STR VNE REG FS A16ANNYSW006;BIS + Content Complete;Sweaters;Arrow New York;Adults-Men;Men;Black;Blue;;Fashion;Casual;2016;3XL,ARNYSWTR00000652,L,ARNYSWTR00000653,M,ARNYSWTR00000654,S,ARNYSWTR00000655,XL,ARNYSWTR00000656,XXL,ARNYSWTR00000657;2799.00;Black and blue self-design pullover, has a V-neck, long sleeves, ribbed hem;Wear this Arrow New York sweater to feel and look your best.  For a sharp work ensemble, pair this black piece with sleek trousers and Oxfords.;Acrylic <br> Dry-clean;The model (height 6') is wearing a size M;;Arrow New York Men Black & Blue Self Design Pullover;Arrow New York;zerotype;;Fall;ndd17-mum;No
2077705;A16-NEVILLE-Khaki-2077705;Men's Trouser;On Hold - Sample;Trousers;Indian Terrain;Adults-Men;Men;Olive;;;Fashion;Casual;2016;30,INTRTRSR00107001,32,INTRTRSR00107002,34,INTRTRSR00107003,36,INTRTRSR00107004,38,INTRTRSR00107005;2399.00;Olive Green printed low-rise regular trousers, has a button closure closure, 5 pockets;Upgrade your overall style with these dapper trousers designed by Indian Terrain.  When you need a stylish look for your next date, team this olive pair with easy loafers and your favourite shirt.;Cotton and elastane <br> Machine-wash;Brooklyn Slim Fit <br> The model (height 6') is wearing a size 32;;Indian Terrain Men Olive Green Brooklyn Slim Fit Printed Regular Trousers;Indian Terrain;zerotype;;Fall;Broken Size;No
2074442;2521705343-Red-2074442;Harvey;Draft;Casual Shoes;Arrow;Adults-Men;Men;Red;;;Fashion;;2017;UK10,ARRWCASH00000993,UK11,ARRWCASH00000994,UK6,ARRWCASH00000995,UK7,ARRWCASH00000996,UK8,ARRWCASH00000997,UK9,ARRWCASH00000998;3199.00;;;<p>LEATHER</p>;;;;menscasualfest-oct,mens-casual-fest-aw17styles,mcf-aw2017,mitm-mainbanner-oct;zerotype;;Fall;mitm-mainbanner-oct;No
2071077;8044172-EXPRESSO-2071077;DORRINGTON I4I;Draft;Casual Shoes;CAT;Adults-Men;Men;;;;Fashion;;2017;UK11,CATTCASH00002303,UK7,CATTCASH00002304,UK8,CATTCASH00002305,UK9,CATTCASH00002306;6999.00;;;<p>Use Cleaner and conditioner recommended for specific leather</p>;;;;;zerotype;;Winter;;No
2061396;19053-4126-DEEP SEA CORAL-2061396;Cassidy;On Hold - Sample;Bra;hummel;Adults-Women;Women;;;;Fashion;;2017;XS,HMMLBRAA00000001,M,HMMLBRAA00000002,XL,HMMLBRAA00000003,S,HMMLBRAA00000010;1999.00;;;<p>90%POLYESTER 10%SPANDEX(STRETCHABLE)</p>;;;;all-sports-styles-2017,hummel-launch-styles,fw-17-sports-new,ftod-bbd17,bbd17-coupon-offer,new-season-diwali17,ndd17-ggn;zerotype;;Fall;ndd17-ggn;No
2049185;C16-231WBPNT/BLACK-BLACK-2049185;Trousers;On Hold - Sample;Trousers;Chemistry;Adults-Women;Women;;;;Fashion;;2017;32,CMSTTRSR00000375,30,CMSTTRSR00000376,28,CMSTTRSR00000377,26,CMSTTRSR00000378;2749.00;;;;;;;;zerotype;;Fall;Broken size;No
2045836;CARRERA 116/S 1O9 51Z0-Blue-2045836;CARRERA 116/S 1O9 51Z0;Draft;Sunglasses;Carrera;Adults-Women;Women;;;;Fashion;;2017;51,CARRSGLS00000187;7200.00;;;;;http://assets.myntassets.com/assets/images/sizechart/2016/4/25/11461584543399-Sunglasses_and_frames_size_chart.jpg;;ndd17-ggn;zerotype;;Fall;ndd17-ggn;No
2009127;1938215005-Sequoia-2009127;JIRICK DASH INDIGO  SHORTS IN;Draft;Shorts;Jack & Jones;Adults-Men;Men;Brown;;;Fashion;;2017;XXL,JAJOSHOR00000900,M,JAJOSHOR00000901,L,JAJOSHOR00000902,XL,JAJOSHOR00000903,S,JAJOSHOR00000904;2499.00;;;<p>Machine wash,Wash dark colours seperately</p>;;;;jj-aw-17,Mitm-aw-aug,mitm-new-season;zerotype;;Winter;mitm-new-season;No
2008752;1864904005-Caviar-2008752;JJVC OVER TEE SS CREW NECK IN;Draft;Tshirts;Jack & Jones;Adults-Men;Men;Black;;;Fashion;;2017;XXL,JAJOTSHT00017034,M,JAJOTSHT00017035,L,JAJOTSHT00017036,XL,JAJOTSHT00017037,S,JAJOTSHT00017038;1099.00;;;<p>Hand Wash</p>;;;;jj-aw-17,Mitm-aw-aug,mitm-new-season;zerotype;;Winter;mitm-new-season;No
2005958;MC16-343-AC-Grey Melange-2005958;Shrug;Draft;Shrug;Chemistry;Adults-Women;Women;;;;Fashion;;2017;S,CMSTSHRG00000035,M,CMSTSHRG00000036,L,CMSTSHRG00000037,XL,CMSTSHRG00000038;899.00;;;;;;;;zerotype;;Fall;;No
2005950;CA17-118KMOSRG-Black-2005950;Shrug;Draft;Shrug;Chemistry;Adults-Women;Women;;;;Fashion;;2017;S,CMSTSHRG00000005,M,CMSTSHRG00000006,L,CMSTSHRG00000007,XL,CMSTSHRG00000008;1299.00;;;;;;;;zerotype;;Fall;;No
1996539;ASUGP-6440-Gold Plated Necklace-1996539;Gold Plated Crystal Alloy Necklace;Draft;Necklace and Chains;Golden Peacock;Adults-Women;Women;Gold;Black;;Fashion;Party;2017;Onesize,GDPKNECK00000268;1599.00;;;<p>Avoid contact with chemicals such as perfumes and deodorant sprays. Store your jewelry in individual zip plastic pouches to avoid tarnishing, scratching and breakage. Wipe with a clean cotton swab when needed</p>;<p>50 cm</p>;;;;zerotype;;Spring;Reinwarded for catalog;No
1990907;5795PINK-Pink-1990907;5795PINK;Draft;Heels;Inc 5;Adults-Women;Women;;;;Fashion;;2017;EURO35,INC5Heels00008616,EURO36,INC5Heels00008617,EURO37,INC5Heels00008618,EURO38,INC5Heels00008619,EURO39,INC5Heels00008620,EURO40,INC5Heels00008621,EURO41,INC5Heels00008622,EURO42,INC5Heels00008623;1890.00;;;;;;;;zerotype;;Winter;;No
1946332;140999-BLACK-1946332;Forever 21 BLACKBra;On Hold - Sample;Bra;FOREVER 21;Adults-Women;Women;Black;;;Fashion;Casual;2017;1/32A,FRTOBRAA00002825,2/32B,FRTOBRAA00002826,3/32C,FRTOBRAA00002827,4/34A,FRTOBRAA00002828,5/34B,FRTOBRAA00002829,6/34C,FRTOBRAA00002830,7/34D,FRTOBRAA00002831,8/36B,FRTOBRAA00002832,9/36C,FRTOBRAA00002833;859.00;Black lace full-coverage Push-Up bra<br />Lightly Padded and Underwired cut and sew cups<br />Regular straps and front closure<br />Back style: Styled Back<br />Feature: Side Bone;Embrace the comfort and style of this modern bra by FOREVER 21.  It can be worn underneath any of your wardrobe staple items.;Nylon and elastane <br /> Hand-wash;;;FOREVER 21 Black Lace Underwired Lightly Padded Push-Up Bra;FOREVER 21,high-street-brands,ndd17-ggn;zerotype;;Spring;ndd17-ggn;No
1788412;69157-4210201167082-1788412;9 9299s Wet&Dry Electric Shaver+chrgngStand;Draft;Trimmer;Braun;Adults-Men;Men;;;;Core;;2017;Onesize,BRUNTRMR00000012;27995.00;;;;;;;;zerotype;;Spring;;No
1575264;22007402-IVORY-1575264;Forever21IVORYJumpsuit;On Hold - Sample;Bodysuit;FOREVER 21;Adults-Women;Women;Off White;;;Fashion;Casual;2016;XL,FRTOJMST00001987,XXL,FRTOJMST00001988,XXXL,FRTOJMST00001989,XXXXL,FRTOJMST00001990;1259.00;Off-white knitted self-striped bodysuit, has a V-neck with tie-up detail, short sleeves, and double press-button closures on the crotch;Look absolutely gorgeous with this bodysuit from FOREVER 21. Team it up with a pair of jeans or a skirt and heels for a classy look.;93% rayon, 7% elastane<br />Machine-wash cold;The model (height 5'8") is wearing a size S;;FOREVER 21 Off-White Self-Striped Bodysuit;FOREVER 21,ladies-night-coupon1,ladies-night-coupon2,high-street-brands;zerotype;;Fall;add tag;No
