Style ID;Vendor Article Number;Vendor Article Name;Active Status;Article type;Brand;Age Group;Gender;Base Colour;Colour1;Colour2;Fashion Type;Usage;Year;Size - SKU code pair;MRP;Style Description;Style Note;Materials and Care Description;Size and Fit Description;Size Chart Path;Product Display Name;Tags;Product Type;Classification Brand;Season;Comments;Upload Images
2228022;41-3251-18-41-Red-2228022;41-3251;Draft;Flats;Mochi;Adults-Women;Women;Red;;;Fashion;;2017;36,MCHIFlats00008718,37,MCHIFlats00008719,38,MCHIFlats00008720,39,MCHIFlats00008721,40,MCHIFlats00008722,41,MCHIFlats00008723;1290.00;;;<p>Rotate Your Pair Of Shoes Once Every Other Day, Allowing Them To De-Odorize And Retain Their Shapes</p>;;;;;zerotype;;Summer;;No
2228021;33-9979-11-41-Black-2228021;33-9979;Draft;Flats;Mochi;Adults-Women;Women;Black;;;Fashion;;2017;37,MCHIFlats00008713,38,MCHIFlats00008714,39,MCHIFlats00008715,40,MCHIFlats00008716,41,MCHIFlats00008717;1690.00;;;<p>Rotate Your Pair Of Shoes Once Every Other Day, Allowing Them To De-Odorize And Retain Their Shapes</p>;;;;;zerotype;;Summer;;No
2228020;33-8765-28-41-Gold-2228020;33-8765;Draft;Flats;Mochi;Adults-Women;Women;Gold;;;Fashion;;2017;36,MCHIFlats00008707,37,MCHIFlats00008708,38,MCHIFlats00008709,39,MCHIFlats00008710,40,MCHIFlats00008711,41,MCHIFlats00008712;1490.00;;;<p>Rotate Your Pair Of Shoes Once Every Other Day, Allowing Them To De-Odorize And Retain Their Shapes</p>;;;;;zerotype;;Summer;;No
2228018;32-9579-20-41-Beige-2228018;32-9579;Draft;Flats;Mochi;Adults-Women;Women;Beige;;;Fashion;;2017;36,MCHIFlats00008701,37,MCHIFlats00008702,38,MCHIFlats00008703,39,MCHIFlats00008704,40,MCHIFlats00008705,41,MCHIFlats00008706;990.00;;;<p>Rotate Your Pair Of Shoes Once Every Other Day, Allowing Them To De-Odorize And Retain Their Shapes</p>;;;;;zerotype;;Summer;;No
2228016;32-9241-33-41-Yellow-2228016;32-9241;Draft;Flats;Mochi;Adults-Women;Women;Yellow;;;Fashion;;2017;36,MCHIFlats00008695,37,MCHIFlats00008696,38,MCHIFlats00008697,39,MCHIFlats00008698,40,MCHIFlats00008699,41,MCHIFlats00008700;1290.00;;;<p>Rotate Your Pair Of Shoes Once Every Other Day, Allowing Them To De-Odorize And Retain Their Shapes</p>;;;;;zerotype;;Summer;;No
2228015;32-9241-25-41-Orange-2228015;32-9241;Draft;Flats;Mochi;Adults-Women;Women;Orange;;;Fashion;;2017;36,MCHIFlats00008689,37,MCHIFlats00008690,38,MCHIFlats00008691,39,MCHIFlats00008692,40,MCHIFlats00008693,41,MCHIFlats00008694;1290.00;;;<p>Rotate Your Pair Of Shoes Once Every Other Day, Allowing Them To De-Odorize And Retain Their Shapes</p>;;;;;zerotype;;Summer;;No
2228013;32-9241-21-40-Green-2228013;32-9241;Draft;Flats;Mochi;Adults-Women;Women;Green;;;Fashion;;2017;36,MCHIFlats00008684,37,MCHIFlats00008685,38,MCHIFlats00008686,39,MCHIFlats00008687,40,MCHIFlats00008688;1290.00;;;<p>Rotate Your Pair Of Shoes Once Every Other Day, Allowing Them To De-Odorize And Retain Their Shapes</p>;;;;;zerotype;;Summer;;No
2228012;32-9225-22-41-Beige-2228012;32-9225;Draft;Flats;Mochi;Adults-Women;Women;Beige;;;Fashion;;2017;36,MCHIFlats00008678,37,MCHIFlats00008679,38,MCHIFlats00008680,39,MCHIFlats00008681,40,MCHIFlats00008682,41,MCHIFlats00008683;990.00;;;<p>Rotate Your Pair Of Shoes Once Every Other Day, Allowing Them To De-Odorize And Retain Their Shapes</p>;;;;;zerotype;;Summer;;No
2228010;32-9225-11-41-Black-2228010;32-9225;Draft;Flats;Mochi;Adults-Women;Women;Black;;;Fashion;;2017;36,MCHIFlats00008672,37,MCHIFlats00008673,38,MCHIFlats00008674,39,MCHIFlats00008675,40,MCHIFlats00008676,41,MCHIFlats00008677;990.00;;;<p>Rotate Your Pair Of Shoes Once Every Other Day, Allowing Them To De-Odorize And Retain Their Shapes</p>;;;;;zerotype;;Summer;;No
2228009;32-9037-33-40-Yellow-2228009;32-9037;Draft;Flats;Mochi;Adults-Women;Women;Yellow;;;Fashion;;2017;37,MCHIFlats00008668,38,MCHIFlats00008669,39,MCHIFlats00008670,40,MCHIFlats00008671;990.00;;;<p>Rotate Your Pair Of Shoes Once Every Other Day, Allowing Them To De-Odorize And Retain Their Shapes</p>;;;;;zerotype;;Summer;;No
2228008;32-9037-17-40-Blue-2228008;32-9037;Draft;Flats;Mochi;Adults-Women;Women;Blue;;;Fashion;;2017;37,MCHIFlats00008664,38,MCHIFlats00008665,39,MCHIFlats00008666,40,MCHIFlats00008667;990.00;;;<p>Rotate Your Pair Of Shoes Once Every Other Day, Allowing Them To De-Odorize And Retain Their Shapes</p>;;;;;zerotype;;Summer;;No
2228007;31-7644-12-41-Brown-2228007;31-7644;Draft;Flats;Mochi;Adults-Women;Women;Brown;;;Fashion;;2017;36,MCHIFlats00008658,37,MCHIFlats00008659,38,MCHIFlats00008660,39,MCHIFlats00008661,40,MCHIFlats00008662,41,MCHIFlats00008663;1490.00;;;<p>Rotate Your Pair Of Shoes Once Every Other Day, Allowing Them To De-Odorize And Retain Their Shapes</p>;;;;;zerotype;;Summer;;No
2228006;36-7892-16-41-White-2228006;36-7892;Draft;Casual Shoes;Mochi;Adults-Women;Women;White;;;Fashion;;2017;36,MCHICASH00001098,37,MCHICASH00001099,38,MCHICASH00001100,39,MCHICASH00001101,40,MCHICASH00001102,41,MCHICASH00001103;1990.00;;;<p>Rotate Your Pair Of Shoes Once Every Other Day, Allowing Them To De-Odorize And Retain Their Shapes</p>;;;;;zerotype;;Summer;;No
2228005;36-7892-11-41-Black-2228005;36-7892;Draft;Casual Shoes;Mochi;Adults-Women;Women;Black;;;Fashion;;2017;36,MCHICASH00001092,37,MCHICASH00001093,38,MCHICASH00001094,39,MCHICASH00001095,40,MCHICASH00001096,41,MCHICASH00001097;1990.00;;;<p>Rotate Your Pair Of Shoes Once Every Other Day, Allowing Them To De-Odorize And Retain Their Shapes</p>;;;;;zerotype;;Summer;;No
2228004;36-7256-11-41-Black-2228004;36-7256;Draft;Casual Shoes;Mochi;Adults-Women;Women;Black;;;Fashion;;2017;36,MCHICASH00001086,37,MCHICASH00001087,38,MCHICASH00001088,39,MCHICASH00001089,40,MCHICASH00001090,41,MCHICASH00001091;1690.00;;;<p>Rotate Your Pair Of Shoes Once Every Other Day, Allowing Them To De-Odorize And Retain Their Shapes</p>;;;;;zerotype;;Summer;;No
2228001;31-7035-17-41-Blue-2228001;31-7035;Draft;Casual Shoes;Mochi;Adults-Women;Women;Blue;;;Fashion;;2017;36,MCHICASH00001080,37,MCHICASH00001081,38,MCHICASH00001082,39,MCHICASH00001083,40,MCHICASH00001084,41,MCHICASH00001085;1490.00;;;<p>Rotate Your Pair Of Shoes Once Every Other Day, Allowing Them To De-Odorize And Retain Their Shapes</p>;;;;;zerotype;;Summer;;No
2228000;31-7035-16-41-White-2228000;31-7035;Draft;Casual Shoes;Mochi;Adults-Women;Women;White;;;Fashion;;2017;36,MCHICASH00001074,37,MCHICASH00001075,38,MCHICASH00001076,39,MCHICASH00001077,40,MCHICASH00001078,41,MCHICASH00001079;1490.00;;;<p>Rotate Your Pair Of Shoes Once Every Other Day, Allowing Them To De-Odorize And Retain Their Shapes</p>;;;;;zerotype;;Summer;;No
2227999;31-7035-11-41-Black-2227999;31-7035;Draft;Casual Shoes;Mochi;Adults-Women;Women;Black;;;Fashion;;2017;36,MCHICASH00001068,37,MCHICASH00001069,38,MCHICASH00001070,39,MCHICASH00001071,40,MCHICASH00001072,41,MCHICASH00001073;1490.00;;;<p>Rotate Your Pair Of Shoes Once Every Other Day, Allowing Them To De-Odorize And Retain Their Shapes</p>;;;;;zerotype;;Summer;;No
2227998;54-2639-15-40-Gold-2227998;54-2639;Draft;Heels;Mochi;Adults-Women;Women;Gold;;;Fashion;;2017;36,MCHIHeels00011650,37,MCHIHeels00011651,38,MCHIHeels00011652,39,MCHIHeels00011653,40,MCHIHeels00011654;2690.00;;;<p>Rotate Your Pair Of Shoes Once Every Other Day, Allowing Them To De-Odorize And Retain Their Shapes</p>;;;;;zerotype;;Summer;;No
2227997;41-3252-25-41-Orange-2227997;41-3252;Draft;Heels;Mochi;Adults-Women;Women;Orange;;;Fashion;;2017;36,MCHIHeels00011644,37,MCHIHeels00011645,38,MCHIHeels00011646,39,MCHIHeels00011647,40,MCHIHeels00011648,41,MCHIHeels00011649;1690.00;;;<p>Rotate Your Pair Of Shoes Once Every Other Day, Allowing Them To De-Odorize And Retain Their Shapes</p>;;;;;zerotype;;Summer;;No
2227996;41-3252-11-41-Black-2227996;41-3252;Draft;Heels;Mochi;Adults-Women;Women;Black;;;Fashion;;2017;36,MCHIHeels00011638,37,MCHIHeels00011639,38,MCHIHeels00011640,39,MCHIHeels00011641,40,MCHIHeels00011642,41,MCHIHeels00011643;1690.00;;;<p>Rotate Your Pair Of Shoes Once Every Other Day, Allowing Them To De-Odorize And Retain Their Shapes</p>;;;;;zerotype;;Summer;;No
2227994;40-1821-15-41-Gold-2227994;40-1821;Draft;Heels;Mochi;Adults-Women;Women;Gold;;;Fashion;;2017;36,MCHIHeels00011632,37,MCHIHeels00011633,38,MCHIHeels00011634,39,MCHIHeels00011635,40,MCHIHeels00011636,41,MCHIHeels00011637;1690.00;;;<p>Rotate Your Pair Of Shoes Once Every Other Day, Allowing Them To De-Odorize And Retain Their Shapes</p>;;;;;zerotype;;Summer;;No
2227992;40-1821-14-41-Grey-2227992;40-1821;Draft;Heels;Mochi;Adults-Women;Women;Grey;;;Fashion;;2017;36,MCHIHeels00011626,37,MCHIHeels00011627,38,MCHIHeels00011628,39,MCHIHeels00011629,40,MCHIHeels00011630,41,MCHIHeels00011631;1690.00;;;<p>Rotate Your Pair Of Shoes Once Every Other Day, Allowing Them To De-Odorize And Retain Their Shapes</p>;;;;;zerotype;;Summer;;No
2227991;40-1796-11-41-Black-2227991;40-1796;Draft;Heels;Mochi;Adults-Women;Women;Black;;;Fashion;;2017;36,MCHIHeels00011620,37,MCHIHeels00011621,38,MCHIHeels00011622,39,MCHIHeels00011623,40,MCHIHeels00011624,41,MCHIHeels00011625;1690.00;;;<p>Rotate Your Pair Of Shoes Once Every Other Day, Allowing Them To De-Odorize And Retain Their Shapes</p>;;;;;zerotype;;Summer;;No
2227990;40-1764-80-41-Pink-2227990;40-1764;Draft;Heels;Mochi;Adults-Women;Women;Pink;;;Fashion;;2017;36,MCHIHeels00011614,37,MCHIHeels00011615,38,MCHIHeels00011616,39,MCHIHeels00011617,40,MCHIHeels00011618,41,MCHIHeels00011619;1490.00;;;<p>Rotate Your Pair Of Shoes Once Every Other Day, Allowing Them To De-Odorize And Retain Their Shapes</p>;;;;;zerotype;;Summer;;No
2227988;40-1764-11-41-Black-2227988;40-1764;Draft;Heels;Mochi;Adults-Women;Women;Black;;;Fashion;;2017;36,MCHIHeels00011608,37,MCHIHeels00011609,38,MCHIHeels00011610,39,MCHIHeels00011611,40,MCHIHeels00011612,41,MCHIHeels00011613;1490.00;;;<p>Rotate Your Pair Of Shoes Once Every Other Day, Allowing Them To De-Odorize And Retain Their Shapes</p>;;;;;zerotype;;Summer;;No
2227986;40-1761-11-41-Black-2227986;40-1761;Draft;Heels;Mochi;Adults-Women;Women;Black;;;Fashion;;2017;36,MCHIHeels00011602,37,MCHIHeels00011603,38,MCHIHeels00011604,39,MCHIHeels00011605,40,MCHIHeels00011606,41,MCHIHeels00011607;1690.00;;;<p>Rotate Your Pair Of Shoes Once Every Other Day, Allowing Them To De-Odorize And Retain Their Shapes</p>;;;;;zerotype;;Summer;;No
2227985;40-1759-29-41-Grey-2227985;40-1759;Draft;Heels;Mochi;Adults-Women;Women;Grey;;;Fashion;;2017;36,MCHIHeels00011596,37,MCHIHeels00011597,38,MCHIHeels00011598,39,MCHIHeels00011599,40,MCHIHeels00011600,41,MCHIHeels00011601;1490.00;;;<p>Rotate Your Pair Of Shoes Once Every Other Day, Allowing Them To De-Odorize And Retain Their Shapes</p>;;;;;zerotype;;Summer;;No
2227984;35-2835-11-41-Black-2227984;35-2835;Draft;Heels;Mochi;Adults-Women;Women;Black;;;Fashion;;2017;36,MCHIHeels00011590,37,MCHIHeels00011591,38,MCHIHeels00011592,39,MCHIHeels00011593,40,MCHIHeels00011594,41,MCHIHeels00011595;1890.00;;;<p>Rotate Your Pair Of Shoes Once Every Other Day, Allowing Them To De-Odorize And Retain Their Shapes</p>;;;;;zerotype;;Summer;;No
2227980;35-2780-28-41-Gold-2227980;35-2780;Draft;Heels;Mochi;Adults-Women;Women;Gold;;;Fashion;;2017;36,MCHIHeels00011584,37,MCHIHeels00011585,38,MCHIHeels00011586,39,MCHIHeels00011587,40,MCHIHeels00011588,41,MCHIHeels00011589;1690.00;;;<p>Rotate Your Pair Of Shoes Once Every Other Day, Allowing Them To De-Odorize And Retain Their Shapes</p>;;;;;zerotype;;Summer;;No
2227977;35-2729-28-41-Gold-2227977;35-2729;Draft;Heels;Mochi;Adults-Women;Women;Gold;;;Fashion;;2017;36,MCHIHeels00011578,37,MCHIHeels00011579,38,MCHIHeels00011580,39,MCHIHeels00011581,40,MCHIHeels00011582,41,MCHIHeels00011583;1990.00;;;<p>Rotate Your Pair Of Shoes Once Every Other Day, Allowing Them To De-Odorize And Retain Their Shapes</p>;;;;;zerotype;;Summer;;No
2227973;35-2729-11-41-Black-2227973;35-2729;Draft;Heels;Mochi;Adults-Women;Women;Black;;;Fashion;;2017;36,MCHIHeels00011572,37,MCHIHeels00011573,38,MCHIHeels00011574,39,MCHIHeels00011575,40,MCHIHeels00011576,41,MCHIHeels00011577;1990.00;;;<p>Rotate Your Pair Of Shoes Once Every Other Day, Allowing Them To De-Odorize And Retain Their Shapes</p>;;;;;zerotype;;Summer;;No
2227971;35-2690-15-41-Gold-2227971;35-2690;Draft;Heels;Mochi;Adults-Women;Women;Gold;;;Fashion;;2017;36,MCHIHeels00011566,37,MCHIHeels00011567,38,MCHIHeels00011568,39,MCHIHeels00011569,40,MCHIHeels00011570,41,MCHIHeels00011571;2690.00;;;<p>Rotate Your Pair Of Shoes Once Every Other Day, Allowing Them To De-Odorize And Retain Their Shapes</p>;;;;;zerotype;;Summer;;No
2227969;35-2216-24-41-Pink-2227969;35-2216;Draft;Heels;Mochi;Adults-Women;Women;Pink;;;Fashion;;2017;36,MCHIHeels00011560,37,MCHIHeels00011561,38,MCHIHeels00011562,39,MCHIHeels00011563,40,MCHIHeels00011564,41,MCHIHeels00011565;1690.00;;;<p>Rotate Your Pair Of Shoes Once Every Other Day, Allowing Them To De-Odorize And Retain Their Shapes</p>;;;;;zerotype;;Summer;;No
2227967;35-2216-16-40-White-2227967;35-2216;Draft;Heels;Mochi;Adults-Women;Women;White;;;Fashion;;2017;36,MCHIHeels00011555,37,MCHIHeels00011556,38,MCHIHeels00011557,39,MCHIHeels00011558,40,MCHIHeels00011559;1690.00;;;<p>Rotate Your Pair Of Shoes Once Every Other Day, Allowing Them To De-Odorize And Retain Their Shapes</p>;;;;;zerotype;;Summer;;No
2227965;35-2187-15-41-Gold-2227965;35-2187;Draft;Heels;Mochi;Adults-Women;Women;Gold;;;Fashion;;2017;36,MCHIHeels00011549,37,MCHIHeels00011550,38,MCHIHeels00011551,39,MCHIHeels00011552,40,MCHIHeels00011553,41,MCHIHeels00011554;1990.00;;;<p>Rotate Your Pair Of Shoes Once Every Other Day, Allowing Them To De-Odorize And Retain Their Shapes</p>;;;;;zerotype;;Summer;;No
2227963;34-9394-45-41-Blue-2227963;34-9394;Draft;Heels;Mochi;Adults-Women;Women;Blue;;;Fashion;;2017;36,MCHIHeels00011543,37,MCHIHeels00011544,38,MCHIHeels00011545,39,MCHIHeels00011546,40,MCHIHeels00011547,41,MCHIHeels00011548;1890.00;;;<p>Rotate Your Pair Of Shoes Once Every Other Day, Allowing Them To De-Odorize And Retain Their Shapes</p>;;;;;zerotype;;Summer;;No
2227960;34-9394-24-41-Pink-2227960;34-9394;Draft;Heels;Mochi;Adults-Women;Women;Pink;;;Fashion;;2017;36,MCHIHeels00011537,37,MCHIHeels00011538,38,MCHIHeels00011539,39,MCHIHeels00011540,40,MCHIHeels00011541,41,MCHIHeels00011542;1890.00;;;<p>Rotate Your Pair Of Shoes Once Every Other Day, Allowing Them To De-Odorize And Retain Their Shapes</p>;;;;;zerotype;;Summer;;No
2227958;34-9394-11-41-Black-2227958;34-9394;Draft;Heels;Mochi;Adults-Women;Women;Black;;;Fashion;;2017;36,MCHIHeels00011531,37,MCHIHeels00011532,38,MCHIHeels00011533,39,MCHIHeels00011534,40,MCHIHeels00011535,41,MCHIHeels00011536;1890.00;;;<p>Rotate Your Pair Of Shoes Once Every Other Day, Allowing Them To De-Odorize And Retain Their Shapes</p>;;;;;zerotype;;Summer;;No
2227955;34-9348-11-41-Black-2227955;34-9348;Draft;Heels;Mochi;Adults-Women;Women;Black;;;Fashion;;2017;36,MCHIHeels00011525,37,MCHIHeels00011526,38,MCHIHeels00011527,39,MCHIHeels00011528,40,MCHIHeels00011529,41,MCHIHeels00011530;1690.00;;;<p>Rotate Your Pair Of Shoes Once Every Other Day, Allowing Them To De-Odorize And Retain Their Shapes</p>;;;;;zerotype;;Summer;;No
2227952;34-9334-15-41-Gold-2227952;34-9334;Draft;Heels;Mochi;Adults-Women;Women;Gold;;;Fashion;;2017;36,MCHIHeels00011519,37,MCHIHeels00011520,38,MCHIHeels00011521,39,MCHIHeels00011522,40,MCHIHeels00011523,41,MCHIHeels00011524;1690.00;;;<p>Rotate Your Pair Of Shoes Once Every Other Day, Allowing Them To De-Odorize And Retain Their Shapes</p>;;;;;zerotype;;Summer;;No
2227951;34-9334-11-41-Black-2227951;34-9334;Draft;Heels;Mochi;Adults-Women;Women;Black;;;Fashion;;2017;36,MCHIHeels00011513,37,MCHIHeels00011514,38,MCHIHeels00011515,39,MCHIHeels00011516,40,MCHIHeels00011517,41,MCHIHeels00011518;1690.00;;;<p>Rotate Your Pair Of Shoes Once Every Other Day, Allowing Them To De-Odorize And Retain Their Shapes</p>;;;;;zerotype;;Summer;;No
2227947;34-9327-11-40-Black-2227947;34-9327;Draft;Heels;Mochi;Adults-Women;Women;Black;;;Fashion;;2017;36,MCHIHeels00011508,37,MCHIHeels00011509,38,MCHIHeels00011510,39,MCHIHeels00011511,40,MCHIHeels00011512;1890.00;;;<p>Rotate Your Pair Of Shoes Once Every Other Day, Allowing Them To De-Odorize And Retain Their Shapes</p>;;;;;zerotype;;Summer;;No
2227944;34-9300-28-41-Gold-2227944;34-9300;Draft;Heels;Mochi;Adults-Women;Women;Gold;;;Fashion;;2017;36,MCHIHeels00011502,37,MCHIHeels00011503,38,MCHIHeels00011504,39,MCHIHeels00011505,40,MCHIHeels00011506,41,MCHIHeels00011507;1490.00;;;<p>Rotate Your Pair Of Shoes Once Every Other Day, Allowing Them To De-Odorize And Retain Their Shapes</p>;;;;;zerotype;;Summer;;No
2227939;34-9107-45-41-Blue-2227939;34-9107;Draft;Heels;Mochi;Adults-Women;Women;Blue;;;Fashion;;2017;36,MCHIHeels00011496,37,MCHIHeels00011497,38,MCHIHeels00011498,39,MCHIHeels00011499,40,MCHIHeels00011500,41,MCHIHeels00011501;2490.00;;;<p>Rotate Your Pair Of Shoes Once Every Other Day, Allowing Them To De-Odorize And Retain Their Shapes</p>;;;;;zerotype;;Summer;;No
2227937;33-9976-24-41-Pink-2227937;33-9976;Draft;Heels;Mochi;Adults-Women;Women;Pink;;;Fashion;;2017;36,MCHIHeels00011490,37,MCHIHeels00011491,38,MCHIHeels00011492,39,MCHIHeels00011493,40,MCHIHeels00011494,41,MCHIHeels00011495;1690.00;;;<p>Rotate Your Pair Of Shoes Once Every Other Day, Allowing Them To De-Odorize And Retain Their Shapes</p>;;;;;zerotype;;Summer;;No
2227934;33-9976-11-41-Black-2227934;33-9976;Draft;Heels;Mochi;Adults-Women;Women;Black;;;Fashion;;2017;36,MCHIHeels00011484,37,MCHIHeels00011485,38,MCHIHeels00011486,39,MCHIHeels00011487,40,MCHIHeels00011488,41,MCHIHeels00011489;1690.00;;;<p>Rotate Your Pair Of Shoes Once Every Other Day, Allowing Them To De-Odorize And Retain Their Shapes</p>;;;;;zerotype;;Summer;;No
2227932;32-9451-33-41-Yellow-2227932;32-9451;Draft;Heels;Mochi;Adults-Women;Women;Yellow;;;Fashion;;2017;36,MCHIHeels00011478,37,MCHIHeels00011479,38,MCHIHeels00011480,39,MCHIHeels00011481,40,MCHIHeels00011482,41,MCHIHeels00011483;1490.00;;;<p>Rotate Your Pair Of Shoes Once Every Other Day, Allowing Them To De-Odorize And Retain Their Shapes</p>;;;;;zerotype;;Summer;;No
2227930;32-9451-11-41-Black-2227930;32-9451;Draft;Heels;Mochi;Adults-Women;Women;Black;;;Fashion;;2017;36,MCHIHeels00011472,37,MCHIHeels00011473,38,MCHIHeels00011474,39,MCHIHeels00011475,40,MCHIHeels00011476,41,MCHIHeels00011477;1490.00;;;<p>Rotate Your Pair Of Shoes Once Every Other Day, Allowing Them To De-Odorize And Retain Their Shapes</p>;;;;;zerotype;;Summer;;No
2227929;32-9432-29-41-Grey-2227929;32-9432;Draft;Heels;Mochi;Adults-Women;Women;Grey;;;Fashion;;2017;36,MCHIHeels00011466,37,MCHIHeels00011467,38,MCHIHeels00011468,39,MCHIHeels00011469,40,MCHIHeels00011470,41,MCHIHeels00011471;1490.00;;;<p>Rotate Your Pair Of Shoes Once Every Other Day, Allowing Them To De-Odorize And Retain Their Shapes</p>;;;;;zerotype;;Summer;;No
2227927;32-8345-16-41-White-2227927;32-8345;Draft;Heels;Mochi;Adults-Women;Women;White;;;Fashion;;2017;36,MCHIHeels00011460,37,MCHIHeels00011461,38,MCHIHeels00011462,39,MCHIHeels00011463,40,MCHIHeels00011464,41,MCHIHeels00011465;1490.00;;;<p>Rotate Your Pair Of Shoes Once Every Other Day, Allowing Them To De-Odorize And Retain Their Shapes</p>;;;;;zerotype;;Summer;;No
2227926;44-9910-11-41-Black-2227926;44-9910;Draft;Heels;Mochi;Adults-Women;Women;Black;;;Fashion;;2017;36,MCHIHeels00011454,37,MCHIHeels00011455,38,MCHIHeels00011456,39,MCHIHeels00011457,40,MCHIHeels00011458,41,MCHIHeels00011459;1890.00;;;<p>Rotate Your Pair Of Shoes Once Every Other Day, Allowing Them To De-Odorize And Retain Their Shapes</p>;;;;;zerotype;;Summer;;No
2227923;35-2983-28-41-Gold-2227923;35-2983;Draft;Heels;Mochi;Adults-Women;Women;Gold;;;Fashion;;2017;36,MCHIHeels00011448,37,MCHIHeels00011449,38,MCHIHeels00011450,39,MCHIHeels00011451,40,MCHIHeels00011452,41,MCHIHeels00011453;1890.00;;;<p>Rotate Your Pair Of Shoes Once Every Other Day, Allowing Them To De-Odorize And Retain Their Shapes</p>;;;;;zerotype;;Summer;;No
2227921;35-2979-22-41-Beige-2227921;35-2979;Draft;Heels;Mochi;Adults-Women;Women;Beige;;;Fashion;;2017;36,MCHIHeels00011442,37,MCHIHeels00011443,38,MCHIHeels00011444,39,MCHIHeels00011445,40,MCHIHeels00011446,41,MCHIHeels00011447;1990.00;;;<p>Rotate Your Pair Of Shoes Once Every Other Day, Allowing Them To De-Odorize And Retain Their Shapes</p>;;;;;zerotype;;Summer;;No
2227918;35-2934-44-41-Maroon-2227918;35-2934;Draft;Heels;Mochi;Adults-Women;Women;Maroon;;;Fashion;;2017;36,MCHIHeels00011436,37,MCHIHeels00011437,38,MCHIHeels00011438,39,MCHIHeels00011439,40,MCHIHeels00011440,41,MCHIHeels00011441;1890.00;;;<p>Rotate Your Pair Of Shoes Once Every Other Day, Allowing Them To De-Odorize And Retain Their Shapes</p>;;;;;zerotype;;Summer;;No
2227916;35-2934-28-41-Gold-2227916;35-2934;Draft;Heels;Mochi;Adults-Women;Women;Gold;;;Fashion;;2017;36,MCHIHeels00011430,37,MCHIHeels00011431,38,MCHIHeels00011432,39,MCHIHeels00011433,40,MCHIHeels00011434,41,MCHIHeels00011435;1890.00;;;<p>Rotate Your Pair Of Shoes Once Every Other Day, Allowing Them To De-Odorize And Retain Their Shapes</p>;;;;;zerotype;;Summer;;No
2227915;35-2833-45-41-Blue-2227915;35-2833;Draft;Heels;Mochi;Adults-Women;Women;Blue;;;Fashion;;2017;36,MCHIHeels00011424,37,MCHIHeels00011425,38,MCHIHeels00011426,39,MCHIHeels00011427,40,MCHIHeels00011428,41,MCHIHeels00011429;1990.00;;;<p>Rotate Your Pair Of Shoes Once Every Other Day, Allowing Them To De-Odorize And Retain Their Shapes</p>;;;;;zerotype;;Summer;;No
2227914;35-2751-15-41-Gold-2227914;35-2751;Draft;Heels;Mochi;Adults-Women;Women;Gold;;;Fashion;;2017;36,MCHIHeels00011418,37,MCHIHeels00011419,38,MCHIHeels00011420,39,MCHIHeels00011421,40,MCHIHeels00011422,41,MCHIHeels00011423;1690.00;;;<p>Rotate Your Pair Of Shoes Once Every Other Day, Allowing Them To De-Odorize And Retain Their Shapes</p>;;;;;zerotype;;Summer;;No
2227913;35-2731-28-41-Gold-2227913;35-2731;Draft;Heels;Mochi;Adults-Women;Women;Gold;;;Fashion;;2017;36,MCHIHeels00011412,37,MCHIHeels00011413,38,MCHIHeels00011414,39,MCHIHeels00011415,40,MCHIHeels00011416,41,MCHIHeels00011417;1690.00;;;<p>Rotate Your Pair Of Shoes Once Every Other Day, Allowing Them To De-Odorize And Retain Their Shapes</p>;;;;;zerotype;;Summer;;No
2227911;35-2324-28-41-Gold-2227911;35-2324;Draft;Heels;Mochi;Adults-Women;Women;Gold;;;Fashion;;2017;36,MCHIHeels00011406,37,MCHIHeels00011407,38,MCHIHeels00011408,39,MCHIHeels00011409,40,MCHIHeels00011410,41,MCHIHeels00011411;1890.00;;;<p>Rotate Your Pair Of Shoes Once Every Other Day, Allowing Them To De-Odorize And Retain Their Shapes</p>;;;;;zerotype;;Summer;;No
2227910;33-41-45-41-Blue-2227910;33-41;Draft;Heels;Mochi;Adults-Women;Women;Blue;;;Fashion;;2017;36,MCHIHeels00011400,37,MCHIHeels00011401,38,MCHIHeels00011402,39,MCHIHeels00011403,40,MCHIHeels00011404,41,MCHIHeels00011405;1490.00;;;<p>Rotate Your Pair Of Shoes Once Every Other Day, Allowing Them To De-Odorize And Retain Their Shapes</p>;;;;;zerotype;;Summer;;No
2227908;33-41-11-41-Black-2227908;33-41;Draft;Heels;Mochi;Adults-Women;Women;Black;;;Fashion;;2017;36,MCHIHeels00011394,37,MCHIHeels00011395,38,MCHIHeels00011396,39,MCHIHeels00011397,40,MCHIHeels00011398,41,MCHIHeels00011399;1490.00;;;<p>Rotate Your Pair Of Shoes Once Every Other Day, Allowing Them To De-Odorize And Retain Their Shapes</p>;;;;;zerotype;;Summer;;No
2227907;32-9592-45-41-Blue-2227907;32-9592;Draft;Heels;Mochi;Adults-Women;Women;Blue;;;Fashion;;2017;36,MCHIHeels00011388,37,MCHIHeels00011389,38,MCHIHeels00011390,39,MCHIHeels00011391,40,MCHIHeels00011392,41,MCHIHeels00011393;1690.00;;;<p>Rotate Your Pair Of Shoes Once Every Other Day, Allowing Them To De-Odorize And Retain Their Shapes</p>;;;;;zerotype;;Summer;;No
2227906;32-9592-24-41-Pink-2227906;32-9592;Draft;Heels;Mochi;Adults-Women;Women;Pink;;;Fashion;;2017;36,MCHIHeels00011382,37,MCHIHeels00011383,38,MCHIHeels00011384,39,MCHIHeels00011385,40,MCHIHeels00011386,41,MCHIHeels00011387;1690.00;;;<p>Rotate Your Pair Of Shoes Once Every Other Day, Allowing Them To De-Odorize And Retain Their Shapes</p>;;;;;zerotype;;Summer;;No
2227903;32-9589-80-41-Pink-2227903;32-9589;Draft;Heels;Mochi;Adults-Women;Women;Pink;;;Fashion;;2017;36,MCHIHeels00011376,37,MCHIHeels00011377,38,MCHIHeels00011378,39,MCHIHeels00011379,40,MCHIHeels00011380,41,MCHIHeels00011381;1690.00;;;<p>Rotate Your Pair Of Shoes Once Every Other Day, Allowing Them To De-Odorize And Retain Their Shapes</p>;;;;;zerotype;;Summer;;No
2227902;32-9589-11-41-Black-2227902;32-9589;Draft;Heels;Mochi;Adults-Women;Women;Black;;;Fashion;;2017;36,MCHIHeels00011370,37,MCHIHeels00011371,38,MCHIHeels00011372,39,MCHIHeels00011373,40,MCHIHeels00011374,41,MCHIHeels00011375;1690.00;;;<p>Rotate Your Pair Of Shoes Once Every Other Day, Allowing Them To De-Odorize And Retain Their Shapes</p>;;;;;zerotype;;Summer;;No
2227901;32-9537-21-41-Green-2227901;32-9537;Draft;Heels;Mochi;Adults-Women;Women;Green;;;Fashion;;2017;36,MCHIHeels00011364,37,MCHIHeels00011365,38,MCHIHeels00011366,39,MCHIHeels00011367,40,MCHIHeels00011368,41,MCHIHeels00011369;1490.00;;;<p>Rotate Your Pair Of Shoes Once Every Other Day, Allowing Them To De-Odorize And Retain Their Shapes</p>;;;;;zerotype;;Summer;;No
2227898;32-9537-11-41-Black-2227898;32-9537;Draft;Heels;Mochi;Adults-Women;Women;Black;;;Fashion;;2017;36,MCHIHeels00011358,37,MCHIHeels00011359,38,MCHIHeels00011360,39,MCHIHeels00011361,40,MCHIHeels00011362,41,MCHIHeels00011363;1490.00;;;<p>Rotate Your Pair Of Shoes Once Every Other Day, Allowing Them To De-Odorize And Retain Their Shapes</p>;;;;;zerotype;;Summer;;No
2227897;32-9486-20-41-Beige-2227897;32-9486;Draft;Heels;Mochi;Adults-Women;Women;Beige;;;Fashion;;2017;36,MCHIHeels00011352,37,MCHIHeels00011353,38,MCHIHeels00011354,39,MCHIHeels00011355,40,MCHIHeels00011356,41,MCHIHeels00011357;1990.00;;;<p>Rotate Your Pair Of Shoes Once Every Other Day, Allowing Them To De-Odorize And Retain Their Shapes</p>;;;;;zerotype;;Summer;;No
2227896;32-9450-12-41-Brown-2227896;32-9450;Draft;Heels;Mochi;Adults-Women;Women;Brown;;;Fashion;;2017;36,MCHIHeels00011346,37,MCHIHeels00011347,38,MCHIHeels00011348,39,MCHIHeels00011349,40,MCHIHeels00011350,41,MCHIHeels00011351;1990.00;;;<p>Rotate Your Pair Of Shoes Once Every Other Day, Allowing Them To De-Odorize And Retain Their Shapes</p>;;;;;zerotype;;Summer;;No
2227893;32-9430-44-41-Maroon-2227893;32-9430;Draft;Heels;Mochi;Adults-Women;Women;Maroon;;;Fashion;;2017;36,MCHIHeels00011340,37,MCHIHeels00011341,38,MCHIHeels00011342,39,MCHIHeels00011343,40,MCHIHeels00011344,41,MCHIHeels00011345;1290.00;;;<p>Rotate Your Pair Of Shoes Once Every Other Day, Allowing Them To De-Odorize And Retain Their Shapes</p>;;;;;zerotype;;Summer;;No
2227892;32-9430-20-41-Beige-2227892;32-9430;Draft;Heels;Mochi;Adults-Women;Women;Beige;;;Fashion;;2017;36,MCHIHeels00011334,37,MCHIHeels00011335,38,MCHIHeels00011336,39,MCHIHeels00011337,40,MCHIHeels00011338,41,MCHIHeels00011339;1290.00;;;<p>Rotate Your Pair Of Shoes Once Every Other Day, Allowing Them To De-Odorize And Retain Their Shapes</p>;;;;;zerotype;;Summer;;No
2227891;32-9430-16-41-White-2227891;32-9430;Draft;Heels;Mochi;Adults-Women;Women;White;;;Fashion;;2017;36,MCHIHeels00011328,37,MCHIHeels00011329,38,MCHIHeels00011330,39,MCHIHeels00011331,40,MCHIHeels00011332,41,MCHIHeels00011333;1290.00;;;<p>Rotate Your Pair Of Shoes Once Every Other Day, Allowing Them To De-Odorize And Retain Their Shapes</p>;;;;;zerotype;;Summer;;No
2227890;32-9430-11-41-Black-2227890;32-9430;Draft;Heels;Mochi;Adults-Women;Women;Black;;;Fashion;;2017;36,MCHIHeels00011322,37,MCHIHeels00011323,38,MCHIHeels00011324,39,MCHIHeels00011325,40,MCHIHeels00011326,41,MCHIHeels00011327;1290.00;;;<p>Rotate Your Pair Of Shoes Once Every Other Day, Allowing Them To De-Odorize And Retain Their Shapes</p>;;;;;zerotype;;Summer;;No
