Style ID;Vendor Article Number;Vendor Article Name;Active Status;Article type;Brand;Age Group;Gender;Base Colour;Colour1;Colour2;Fashion Type;Usage;Year;Size - SKU code pair;MRP;Style Description;Style Note;Materials and Care Description;Size and Fit Description;Size Chart Path;Product Display Name;Tags;Product Type;Classification Brand;Season;Comments;Upload Images
2065090;P10101101124319-RED-2065090;People Red T Shirt;Draft;Tshirts;People;Adults-Men;Men;Red;;;Fashion;;2017;S,PEPLTSHT00008061,M,PEPLTSHT00008062,L,PEPLTSHT00008063,XL,PEPLTSHT00008064;399.00;;;<p>100% Cotton</p>;;;;;zerotype;;Spring;;No
2065089;P10101101123513-OCHRE-2065089;People Cream T Shirt;Draft;Tshirts;People;Adults-Men;Men;Cream;;;Fashion;;2017;S,PEPLTSHT00008056,M,PEPLTSHT00008057,L,PEPLTSHT00008058,XL,PEPLTSHT00008059,XXL,PEPLTSHT00008060;499.00;;;<p>100% Cotton</p>;;;;;zerotype;;Spring;;No
2065088;P10101101122013-ECRU-2065088;People White T Shirt;Draft;Tshirts;People;Adults-Men;Men;White;;;Fashion;;2017;S,PEPLTSHT00008051,M,PEPLTSHT00008052,L,PEPLTSHT00008053,XL,PEPLTSHT00008054,XXL,PEPLTSHT00008055;399.00;;;<p>100% Cotton</p>;;;;;zerotype;;Spring;;No
2065085;P10101101120513-OCHRE-2065085;People Yellow T Shirt;Draft;Tshirts;People;Adults-Men;Men;Yellow;;;Fashion;;2017;S,PEPLTSHT00008042,M,PEPLTSHT00008043,L,PEPLTSHT00008044,XL,PEPLTSHT00008045;499.00;;;<p>100% Cotton</p>;;;;;zerotype;;Spring;;No
2065084;P10101101119231-SKY-2065084;People Blue T Shirt;Draft;Tshirts;People;Adults-Men;Men;Blue;;;Fashion;;2017;S,PEPLTSHT00008037,M,PEPLTSHT00008038,L,PEPLTSHT00008039,XL,PEPLTSHT00008040,XXL,PEPLTSHT00008041;399.00;;;<p>100% Cotton</p>;;;;;zerotype;;Spring;;No
2065083;P10101101118219-NAVY-2065083;People Blue T Shirt;Draft;Tshirts;People;Adults-Men;Men;Blue;;;Fashion;;2017;S,PEPLTSHT00008032,M,PEPLTSHT00008033,L,PEPLTSHT00008034,XL,PEPLTSHT00008035,XXL,PEPLTSHT00008036;399.00;;;<p>100% Cotton</p>;;;;;zerotype;;Spring;;No
2065082;P10101101116013-ECRU-2065082;People Cream T Shirt;Draft;Tshirts;People;Adults-Men;Men;Cream;;;Fashion;;2017;S,PEPLTSHT00008027,M,PEPLTSHT00008028,L,PEPLTSHT00008029,XL,PEPLTSHT00008030,XXL,PEPLTSHT00008031;399.00;;;<p>100% Cotton</p>;;;;;zerotype;;Spring;;No
2065079;P10101101109319-RED-2065079;People Red T Shirt;Draft;Tshirts;People;Adults-Men;Men;Red;;;Fashion;;2017;S,PEPLTSHT00008012,M,PEPLTSHT00008013,L,PEPLTSHT00008014,XL,PEPLTSHT00008015,XXL,PEPLTSHT00008016;399.00;;;<p>100% Cotton</p>;;;;;zerotype;;Spring;;No
2065078;P10101101108819-MACHINE RED-2065078;People Maroon T Shirt;Draft;Tshirts;People;Adults-Men;Men;Maroon;;;Fashion;;2017;S,PEPLTSHT00008007,M,PEPLTSHT00008008,L,PEPLTSHT00008009,XL,PEPLTSHT00008010,XXL,PEPLTSHT00008011;499.00;;;<p>50% Cotton and 50% Viscose</p>;;;;;zerotype;;Spring;;No
2065077;P10101101107100-Black-2065077;People Black T Shirt;Draft;Tshirts;People;Adults-Men;Men;Black;;;Fashion;;2017;S,PEPLTSHT00008003,M,PEPLTSHT00008004,L,PEPLTSHT00008005,XL,PEPLTSHT00008006;499.00;;;<p>100% Viscose</p>;;;;;zerotype;;Spring;;No
2065076;P10101101106819-DARK MACHINE RED-2065076;People Maroon T Shirt;Draft;Tshirts;People;Adults-Men;Men;Maroon;;;Fashion;;2017;S,PEPLTSHT00007998,M,PEPLTSHT00007999,L,PEPLTSHT00008000,XL,PEPLTSHT00008001,XXL,PEPLTSHT00008002;499.00;;;<p>50% Cotton and 50% Viscose</p>;;;;;zerotype;;Spring;;No
2065075;P10101101106100-Black-2065075;People Black T Shirt;Draft;Tshirts;People;Adults-Men;Men;Black;;;Fashion;;2017;S,PEPLTSHT00007993,M,PEPLTSHT00007994,L,PEPLTSHT00007995,XL,PEPLTSHT00007996,XXL,PEPLTSHT00007997;499.00;;;<p>50% Cotton and 50% Viscose</p>;;;;;zerotype;;Spring;;No
2065074;P10101101105621-VINTAGE KHAKI-2065074;People Khaki T Shirt;Draft;Tshirts;People;Adults-Men;Men;Khaki;;;Fashion;;2017;S,PEPLTSHT00007988,M,PEPLTSHT00007989,L,PEPLTSHT00007990,XL,PEPLTSHT00007991,XXL,PEPLTSHT00007992;499.00;;;<p>100% Viscose</p>;;;;;zerotype;;Spring;;No
2065072;P10101101103819-BURGANDY-2065072;People Maroon T Shirt;Draft;Tshirts;People;Adults-Men;Men;Maroon;;;Fashion;;2017;S,PEPLTSHT00007979,M,PEPLTSHT00007980,L,PEPLTSHT00007981,XL,PEPLTSHT00007982;499.00;;;<p>100% Cotton</p>;;;;;zerotype;;Spring;;No
2065070;P10101101101514-GOLD-2065070;People Yellow T Shirt;Draft;Tshirts;People;Adults-Men;Men;Yellow;;;Fashion;;2017;S,PEPLTSHT00007969,M,PEPLTSHT00007970,L,PEPLTSHT00007971,XL,PEPLTSHT00007972,XXL,PEPLTSHT00007973;499.00;;;<p>100% Cotton</p>;;;;;zerotype;;Spring;;No
2065057;P10101091048219-NAVY-2065057;People Blue T Shirt;Draft;Tshirts;People;Adults-Men;Men;Blue;;;Fashion;;2017;S,PEPLTSHT00007909,M,PEPLTSHT00007910,L,PEPLTSHT00007911,XL,PEPLTSHT00007912,XXL,PEPLTSHT00007913;599.00;;;<p>100% Cotton</p>;;;;;zerotype;;Spring;;No
2065056;P10101091047013-ECRU-2065056;People White T Shirt;Draft;Tshirts;People;Adults-Men;Men;White;;;Fashion;;2017;S,PEPLTSHT00007904,M,PEPLTSHT00007905,L,PEPLTSHT00007906,XL,PEPLTSHT00007907,XXL,PEPLTSHT00007908;599.00;;;<p>90% Cotton and 10% Polyester</p>;;;;;zerotype;;Spring;;No
2065055;P10101091045819-MAROON-2065055;People Maroon T Shirt;Draft;Tshirts;People;Adults-Men;Men;Maroon;;;Fashion;;2017;XS,PEPLTSHT00007898,S,PEPLTSHT00007899,M,PEPLTSHT00007900,L,PEPLTSHT00007901,XL,PEPLTSHT00007902,XXL,PEPLTSHT00007903;399.00;;;<p>100% Cotton</p>;;;;;zerotype;;Spring;;No
2065053;P10101091044424-Green-2065053;People Olive T Shirt;Draft;Tshirts;People;Adults-Men;Men;Olive;;;Fashion;;2017;S,PEPLTSHT00007888,M,PEPLTSHT00007889,L,PEPLTSHT00007890,XL,PEPLTSHT00007891,XXL,PEPLTSHT00007892;499.00;;;<p>100% Cotton</p>;;;;;zerotype;;Spring;;No
2065052;P10101091044001-WHITE-2065052;People White T Shirt;Draft;Tshirts;People;Adults-Men;Men;White;;;Fashion;;2017;S,PEPLTSHT00007883,M,PEPLTSHT00007884,L,PEPLTSHT00007885,XL,PEPLTSHT00007886,XXL,PEPLTSHT00007887;499.00;;;<p>100% Cotton</p>;;;;;zerotype;;Spring;;No
2065045;P10101091037219-NAVY-2065045;People Navy T Shirt;Draft;Tshirts;People;Adults-Men;Men;Navy Blue;;;Fashion;;2017;S,PEPLTSHT00007854,M,PEPLTSHT00007855,L,PEPLTSHT00007856,XL,PEPLTSHT00007857,XXL,PEPLTSHT00007858;599.00;;;<p>50% Cotton and 50% Polyester</p>;;;;;zerotype;;Spring;;No
2065038;P10101091034219-NAVY MELANGE-2065038;People Blue T Shirt;Draft;Tshirts;People;Adults-Men;Men;Blue;;;Fashion;;2017;S,PEPLTSHT00007839,M,PEPLTSHT00007840,L,PEPLTSHT00007841,XL,PEPLTSHT00007842,XXL,PEPLTSHT00007843;599.00;;;<p>60% Cotton and 40% Polyester</p>;;;;;zerotype;;Spring;;No
2065034;P10101091031100-WHITE/ORANGE-2065034;People White T Shirt;Draft;Tshirts;People;Adults-Men;Men;White;;;Fashion;;2017;S,PEPLTSHT00007829,M,PEPLTSHT00007830,L,PEPLTSHT00007831,XL,PEPLTSHT00007832,XXL,PEPLTSHT00007833;399.00;;;<p>100% Cotton</p>;;;;;zerotype;;Spring;;No
2065028;P10101091027819-MACHINE RED-2065028;People Maroon T Shirt;Draft;Tshirts;People;Adults-Men;Men;Maroon;;;Fashion;;2017;S,PEPLTSHT00007815,M,PEPLTSHT00007816,L,PEPLTSHT00007817,XL,PEPLTSHT00007818;399.00;;;<p>100% Polyester</p>;;;;;zerotype;;Spring;;No
2065026;P10101091025013-IVORY-2065026;People Cream T Shirt;Draft;Tshirts;People;Adults-Men;Men;Cream;;;Fashion;;2017;S,PEPLTSHT00007811,M,PEPLTSHT00007812,L,PEPLTSHT00007813,XL,PEPLTSHT00007814;599.00;;;<p>100% Cotton</p>;;;;;zerotype;;Spring;;No
2065024;P10101091023621-VINTAGE KHAKI-2065024;People Brown T Shirt;Draft;Tshirts;People;Adults-Men;Men;Brown;;;Fashion;;2017;S,PEPLTSHT00007806,M,PEPLTSHT00007807,L,PEPLTSHT00007808,XL,PEPLTSHT00007809,XXL,PEPLTSHT00007810;399.00;;;<p>100% Polyester</p>;;;;;zerotype;;Spring;;No
2065022;P10101091022819-MACHINE RED-2065022;People Maroon T Shirt;Draft;Tshirts;People;Adults-Men;Men;Maroon;;;Fashion;;2017;S,PEPLTSHT00007801,M,PEPLTSHT00007802,L,PEPLTSHT00007803,XL,PEPLTSHT00007804,XXL,PEPLTSHT00007805;599.00;;;<p>100% Viscose</p>;;;;;zerotype;;Spring;;No
2065019;P10101091021922-DARK PLUM-2065019;People Grey T Shirt;Draft;Tshirts;People;Adults-Men;Men;Grey;;;Fashion;;2017;S,PEPLTSHT00007796,M,PEPLTSHT00007797,L,PEPLTSHT00007798,XL,PEPLTSHT00007799,XXL,PEPLTSHT00007800;599.00;;;<p>60% Cotton and 40% Polyester</p>;;;;;zerotype;;Spring;;No
2065017;P10101091019013-IVORY/NAVY-2065017;People Cream T Shirt;Draft;Tshirts;People;Adults-Men;Men;Cream;;;Fashion;;2017;S,PEPLTSHT00007791,M,PEPLTSHT00007792,L,PEPLTSHT00007793,XL,PEPLTSHT00007794,XXL,PEPLTSHT00007795;599.00;;;<p>100% Cotton</p>;;;;;zerotype;;Spring;;No
2065013;P10101091015013-IVORY-2065013;People Beige T Shirt;Draft;Tshirts;People;Adults-Men;Men;Beige;;;Fashion;;2017;S,PEPLTSHT00007782,M,PEPLTSHT00007783,L,PEPLTSHT00007784,XL,PEPLTSHT00007785;599.00;;;<p>100% Cotton</p>;;;;;zerotype;;Spring;;No
2065009;P10101091013013-IVORY/BURGANDY-2065009;People Cream T Shirt;Draft;Tshirts;People;Adults-Men;Men;Cream;;;Fashion;;2017;S,PEPLTSHT00007772,M,PEPLTSHT00007773,L,PEPLTSHT00007774,XL,PEPLTSHT00007775,XXL,PEPLTSHT00007776;599.00;;;<p>100% Cotton</p>;;;;;zerotype;;Spring;;No
2065007;P10101091012621-KHAKI-2065007;People Khaki T Shirt;Draft;Tshirts;People;Adults-Men;Men;Khaki;;;Fashion;;2017;S,PEPLTSHT00007768,M,PEPLTSHT00007769,L,PEPLTSHT00007770,XL,PEPLTSHT00007771;399.00;;;<p>100% Polyester</p>;;;;;zerotype;;Spring;;No
2065005;P10101091010383-CHARCOAL MEL-2065005;People Grey T Shirt;Draft;Tshirts;People;Adults-Men;Men;Grey;;;Fashion;;2017;S,PEPLTSHT00007763,M,PEPLTSHT00007764,L,PEPLTSHT00007765,XL,PEPLTSHT00007766,XXL,PEPLTSHT00007767;499.00;;;<p>100% Cotton</p>;;;;;zerotype;;Spring;;No
2065004;P10101091008383-CHARCOAL MEL-2065004;People Grey T Shirt;Draft;Tshirts;People;Adults-Men;Men;Grey;;;Fashion;;2017;S,PEPLTSHT00007758,M,PEPLTSHT00007759,L,PEPLTSHT00007760,XL,PEPLTSHT00007761,XXL,PEPLTSHT00007762;499.00;;;<p>50% Cotton and 50% Polyester</p>;;;;;zerotype;;Spring;;No
2065003;P10101091005001-WHITE-2065003;People White T Shirt;Draft;Tshirts;People;Adults-Men;Men;White;;;Fashion;;2017;XS,PEPLTSHT00007751,XXS,PEPLTSHT00007752,S,PEPLTSHT00007753,M,PEPLTSHT00007754,L,PEPLTSHT00007755,XL,PEPLTSHT00007756,XXL,PEPLTSHT00007757;599.00;;;<p>95% Cotton and 5% Lycra</p>;;;;;zerotype;;Spring;;No
2065002;P10101091004100-Black-2065002;People Black T Shirt;Draft;Tshirts;People;Adults-Men;Men;Black;;;Fashion;;2017;S,PEPLTSHT00007747,M,PEPLTSHT00007748,L,PEPLTSHT00007749,XL,PEPLTSHT00007750;599.00;;;<p>95% Cotton and 5% Lycra</p>;;;;;zerotype;;Spring;;No
2065000;P10101091000100-Black-2065000;People Black T Shirt;Draft;Tshirts;People;Adults-Men;Men;Black;;;Fashion;;2017;S,PEPLTSHT00007742,M,PEPLTSHT00007743,L,PEPLTSHT00007744,XL,PEPLTSHT00007745,XXL,PEPLTSHT00007746;499.00;;;<p>95% Cotton and 5% Lycra</p>;;;;;zerotype;;Spring;;No
2031115;P10101091044383-Grey-2031115;People Grey T Shirt;Active;Tshirts;People;Adults-Men;Men;Grey;;;Core;Casual;2017;S,PEPLTSHT00007649,M,PEPLTSHT00007650,L,PEPLTSHT00007651,XL,PEPLTSHT00007652,XXL,PEPLTSHT00007653;499.00;Grey solid T-shirt, has a Henley neck, short sleeves;Slip into this snug T-shirt from People and look your very best.  When you're attending an after-work happy hour, wear this grey piece with chinos and easy loafers.;Cotton <br /> Machine-wash;The model (height 6') is wearing a size M;;People Men Grey Solid Henley Neck T-shirt;People,PPMP;zerotype;;Fall;;No
2031114;PMKPO01CR317219-Navy Blue-2031114;People Navy T Shirt;Active;Tshirts;People;Adults-Men;Men;Navy Blue;;;Core;Casual;2017;S,PEPLTSHT00007644,M,PEPLTSHT00007645,L,PEPLTSHT00007646,XL,PEPLTSHT00007647,XXL,PEPLTSHT00007648;599.00;Navy blue solid  T-shirt, has a polo collar, short sleeves, a short button placket;Sometimes dressing up can be a bit much for the occasion. That's why you should consider one of these amazing T-shirts from People.  This navy blue item can be teamed with fitted jeans for a clean look or lounge shorts for casual weekend wear.;Cotton <br /> Machine-wash;The model (height 6') is wearing a size M;;People Men Navy Blue Solid Polo Collar T-shirt;People,PPMP;zerotype;;Fall;;No
2031112;P10101091045001-White-2031112;People White T Shirt;Active;Tshirts;People;Adults-Men;Men;White;;;Core;Casual;2017;XS,PEPLTSHT00007638,S,PEPLTSHT00007639,M,PEPLTSHT00007640,L,PEPLTSHT00007641,XL,PEPLTSHT00007642,XXL,PEPLTSHT00007643;399.00;White solid T-shirt, has a round neck, short sleeves, 1 pocket;Liven up your collection of T-shirts with this high-end tee from People.  Whether you're running errands or meeting friends for coffee, sport this white number with slim black jeans or cutoff shorts for a relaxed style.;Cotton <br /> Machine-wash;The model (height 6') is wearing a size M;;People Men White Solid Round Neck T-shirt;People,PPMP;zerotype;;Fall;;No
2031111;P10101091045100-Black-2031111;People Black T Shirt;Active;Tshirts;People;Adults-Men;Men;Black;;;Core;Casual;2017;XS,PEPLTSHT00007632,S,PEPLTSHT00007633,M,PEPLTSHT00007634,L,PEPLTSHT00007635,XL,PEPLTSHT00007636,XXL,PEPLTSHT00007637;399.00;Black solid  T-shirt, has a round neck, short sleeves, 1 pocket;Upgrade your style when you take a page out of People's book with this tee.  This black piece can be styled with dark denims and canvas shoes when you're going out to eat with your friends.;Cotton <br /> Machine-wash;The model (height 6') is wearing a size M;;People Men Black Solid Round Neck T-shirt;People,PPMP;zerotype;;Fall;;No
