Style ID;Vendor Article Number;Vendor Article Name;Active Status;Article type;Brand;Age Group;Gender;Base Colour;Colour1;Colour2;Fashion Type;Usage;Year;Size - SKU code pair;MRP;Style Description;Style Note;Materials and Care Description;Size and Fit Description;Size Chart Path;Product Display Name;Tags;Product Type;Classification Brand;Season;Comments;Upload Images
2234487;AW17AY117DRMK6_GOLD_16-GOLD-2234487;AW17AY117DRMK6;Inactive - PMM - Category;Dresses;AND;Adults-Women;Women;;;;Fashion;;2017;8,ANDDRSS00005512,10,ANDDRSS00005513,12,ANDDRSS00005514,14,ANDDRSS00005515,16,ANDDRSS00005516;2499.00;;;<p>75% Polyester, 25% Matelic</p>;;;;;zerotype;;Fall;BV not available;No
2234485;AW17AY089DRFK_BURGUNDY_18-BURGUNDY-2234485;AW17AY089DRFK;Inactive - PMM - Category;Dresses;AND;Adults-Women;Women;;;;Fashion;;2017;10,ANDDRSS00005507,12,ANDDRSS00005508,14,ANDDRSS00005509,16,ANDDRSS00005510,18,ANDDRSS00005511;2499.00;;;<p>100% Acrylic</p>;;;;;zerotype;;Fall;BV not available;No
2234483;AW17AY088DRFK_CORAL_18-CORAL-2234483;AW17AY088DRFK;Inactive - PMM - Category;Dresses;AND;Adults-Women;Women;;;;Fashion;;2017;8,ANDDRSS00005501,10,ANDDRSS00005502,12,ANDDRSS00005503,14,ANDDRSS00005504,16,ANDDRSS00005505,18,ANDDRSS00005506;1999.00;;;<p>100% ACRYLIC</p>;;;;;zerotype;;Fall;BV not available;No
2234481;AW17AY071DRFK_WINE_18-WINE-2234481;AW17AY071DRFK;Inactive - PMM - Category;Dresses;AND;Adults-Women;Women;;;;Fashion;;2017;8,ANDDRSS00005495,10,ANDDRSS00005496,12,ANDDRSS00005497,14,ANDDRSS00005498,16,ANDDRSS00005499,18,ANDDRSS00005500;2499.00;;;<p>100% Acrylic</p>;;;;;zerotype;;Fall;BV not available;No
2234480;AW17AY071DRFK_TEAL_18-TEAL-2234480;AW17AY071DRFK;Inactive - PMM - Category;Dresses;AND;Adults-Women;Women;;;;Fashion;;2017;8,ANDDRSS00005489,10,ANDDRSS00005490,12,ANDDRSS00005491,14,ANDDRSS00005492,16,ANDDRSS00005493,18,ANDDRSS00005494;2499.00;;;<p>100% Acrylic</p>;;;;;zerotype;;Fall;BV not available;No
2234477;AW17AY006DRJ4_BLK/GRY_14-BLK/GRY-2234477;AW17AY006DRJ4;Inactive - PMM - Category;Dresses;AND;Adults-Women;Women;;;;Fashion;;2017;10,ANDDRSS00005480,12,ANDDRSS00005481,14,ANDDRSS00005482;2499.00;;;<p>90% Cotton / 5% Polyester / 5% Spandex</p>;;;;;zerotype;;Fall;BV not available;No
2234475;AW17AS107DRMK7_GOLD_18-GOLD-2234475;AW17AS107DRMK7;Inactive - PMM - Category;Dresses;AND;Adults-Women;Women;;;;Fashion;;2017;8,ANDDRSS00005474,10,ANDDRSS00005475,12,ANDDRSS00005476,14,ANDDRSS00005477,16,ANDDRSS00005478,18,ANDDRSS00005479;2799.00;;;<p>100% Polyester</p>;;;;;zerotype;;Fall;BV not available;No
2234474;AW17AS090MXSC1_WINE_18-WINE-2234474;AW17AS090MXSC1;Inactive - PMM - Category;Dresses;AND;Adults-Women;Women;;;;Fashion;;2017;8,ANDDRSS00005468,10,ANDDRSS00005469,12,ANDDRSS00005470,14,ANDDRSS00005471,16,ANDDRSS00005472,18,ANDDRSS00005473;2599.00;;;;;;;;zerotype;;Fall;BV not available;No
2234472;AW17AS026DRYD10_BLK/CRM_18-BLK/CRM-2234472;AW17AS026DRYD10;Inactive - PMM - Category;Dresses;AND;Adults-Women;Women;;;;Fashion;;2017;8,ANDDRSS00005462,10,ANDDRSS00005463,12,ANDDRSS00005464,14,ANDDRSS00005465,16,ANDDRSS00005466,18,ANDDRSS00005467;2599.00;;;<p>100% Viscose</p>;;;;;zerotype;;Fall;BV not available;No
2234470;AW17AS026DRP29_BLK/WHT_18-BLK/WHT-2234470;AW17AS026DRP29;Inactive - PMM - Category;Dresses;AND;Adults-Women;Women;;;;Fashion;;2017;8,ANDDRSS00005456,10,ANDDRSS00005457,12,ANDDRSS00005458,14,ANDDRSS00005459,16,ANDDRSS00005460,18,ANDDRSS00005461;2699.00;;;<p>95% Polyester 5% Spandex</p>;;;;;zerotype;;Fall;BV not available;No
2234467;AW17AP057DRYD17_BLU/WHT_18-BLU/WHT-2234467;AW17AP057DRYD17;Inactive - PMM - Category;Dresses;AND;Adults-Women;Women;;;;Fashion;;2017;8,ANDDRSS00005445,10,ANDDRSS00005446,12,ANDDRSS00005447,14,ANDDRSS00005448,16,ANDDRSS00005449,18,ANDDRSS00005450;2499.00;;;<p>100%VISCOSE</p>;;;;;zerotype;;Fall;BV not available;No
2234465;AW17AP027DRYD7_BLU/BLK_18-BLU/BLK-2234465;AW17AP027DRYD7;Inactive - PMM - Category;Dresses;AND;Adults-Women;Women;;;;Fashion;;2017;8,ANDDRSS00005439,10,ANDDRSS00005440,12,ANDDRSS00005441,14,ANDDRSS00005442,16,ANDDRSS00005443,18,ANDDRSS00005444;2199.00;;;<p>100% Cotton</p>;;;;;zerotype;;Fall;BV not available;No
2234464;AW17AP007DRP49_BLU/PRT_14-BLU/PRT-2234464;AW17AP007DRP49;Inactive - PMM - Category;Dresses;AND;Adults-Women;Women;;;;Fashion;;2017;10,ANDDRSS00005436,12,ANDDRSS00005437,14,ANDDRSS00005438;2699.00;;;<p>95% Rayon, 5% Spandex</p>;;;;;zerotype;;Fall;BV not available;No
2234462;AW17AB231MXMK10_BLK/SIL_18-BLK/SIL-2234462;AW17AB231MXMK10;Inactive - PMM - Category;Dresses;AND;Adults-Women;Women;;;;Fashion;;2017;8,ANDDRSS00005430,10,ANDDRSS00005431,12,ANDDRSS00005432,14,ANDDRSS00005433,16,ANDDRSS00005434,18,ANDDRSS00005435;4999.00;;;<p>95% Polyester, 5% Spandex</p>;;;;;zerotype;;Fall;BV not available;No
2234460;AW17AB122MXMK1_GLD/CRM_18-GLD/CRM-2234460;AW17AB122MXMK1;Inactive - PMM - Category;Dresses;AND;Adults-Women;Women;;;;Fashion;;2017;8,ANDDRSS00005424,10,ANDDRSS00005425,12,ANDDRSS00005426,14,ANDDRSS00005427,16,ANDDRSS00005428,18,ANDDRSS00005429;4999.00;;;;;;;;zerotype;;Fall;BV not available;No
2234458;AW17AB058DRJ26_GRY/WHT_14-GRY/WHT-2234458;AW17AB058DRJ26;Inactive - PMM - Category;Dresses;AND;Adults-Women;Women;;;;Fashion;;2017;10,ANDDRSS00005417,12,ANDDRSS00005418,14,ANDDRSS00005419;2999.00;;;<p>65%R,30%P,5%SP</p>;;;;;zerotype;;Fall;BV not available;No
2234457;AW17AB047ADRP10_BLK/PRT_16-BLK/PRT-2234457;AW17AB047ADRP10;Inactive - PMM - Category;Dresses;AND;Adults-Women;Women;;;;Fashion;;2017;8,ANDDRSS00005412,10,ANDDRSS00005413,12,ANDDRSS00005414,14,ANDDRSS00005415,16,ANDDRSS00005416;2799.00;;;<p>100% Polyester</p>;;;;;zerotype;;Fall;BV not available;No
2234455;AW17AB032DRP19_BLK/PRT_14-BLK/PRT-2234455;AW17AB032DRP19;Inactive - PMM - Category;Dresses;AND;Adults-Women;Women;;;;Fashion;;2017;10,ANDDRSS00005409,12,ANDDRSS00005410,14,ANDDRSS00005411;2999.00;;;<p>95% Rayon, 5% Spandex</p>;;;;;zerotype;;Fall;BV not available;No
2234454;AW17AA033DRYD7_STRIPE_18-STRIPE-2234454;AW17AA033DRYD7;Inactive - PMM - Category;Dresses;AND;Adults-Women;Women;;;;Fashion;;2017;8,ANDDRSS00005403,10,ANDDRSS00005404,12,ANDDRSS00005405,14,ANDDRSS00005406,16,ANDDRSS00005407,18,ANDDRSS00005408;1999.00;;;<p>100%cotton</p>;;;;;zerotype;;Fall;BV not available;No
2234450;AW17AY082SHFK_MUSTARD_18-MUSTARD-2234450;AW17AY082SHFK;Inactive - PMM - Category;Shrug;AND;Adults-Women;Women;;;;Fashion;;2017;8,ANDSHRG00000506,10,ANDSHRG00000507,12,ANDSHRG00000508,14,ANDSHRG00000509,16,ANDSHRG00000510,18,ANDSHRG00000511;2199.00;;;<p>100% Acrylic</p>;;;;;zerotype;;Fall;BV not available;No
2234449;AW17AY081SHFK_MUSTARD_16-MUSTARD-2234449;AW17AY081SHFK;Inactive - PMM - Category;Shrug;AND;Adults-Women;Women;;;;Fashion;;2017;8,ANDSHRG00000501,10,ANDSHRG00000502,12,ANDSHRG00000503,14,ANDSHRG00000504,16,ANDSHRG00000505;2299.00;;;<p>100% COTTON</p>;;;;;zerotype;;Fall;BV not available;No
2234448;AW17AY080SHFK_BLACK_16-BLACK-2234448;AW17AY080SHFK;Inactive - PMM - Category;Shrug;AND;Adults-Women;Women;;;;Fashion;;2017;8,ANDSHRG00000496,10,ANDSHRG00000497,12,ANDSHRG00000498,14,ANDSHRG00000499,16,ANDSHRG00000500;2599.00;;;<p>100% ACRYLIC</p>;;;;;zerotype;;Fall;BV not available;No
2234446;AW17AY078SHFK_BLACK_14-BLACK-2234446;AW17AY078SHFK;Inactive - PMM - Category;Shrug;AND;Adults-Women;Women;;;;Fashion;;2017;10,ANDSHRG00000493,12,ANDSHRG00000494,14,ANDSHRG00000495;2599.00;;;<p>100% Acrylic</p>;;;;;zerotype;;Fall;BV not available;No
2234445;AW17AY078ASHFK_WHITE_14-WHITE-2234445;AW17AY078ASHFK;Inactive - PMM - Category;Shrug;AND;Adults-Women;Women;;;;Fashion;;2017;10,ANDSHRG00000490,12,ANDSHRG00000491,14,ANDSHRG00000492;2599.00;;;<p>100% ACRYLIC</p>;;;;;zerotype;;Fall;BV not available;No
2234444;AW17AH08SHFK_RED_14-RED-2234444;AW17AH08SHFK;Inactive - PMM - Category;Shrug;AND;Adults-Women;Women;;;;Fashion;;2017;8,ANDSHRG00000486,10,ANDSHRG00000487,12,ANDSHRG00000488,14,ANDSHRG00000489;2999.00;;;<p>70% POLYESTER 30% POLYAMIDE</p>;;;;;zerotype;;Fall;BV not available;No
2234442;AW17AF03SHK_BLACK_18-BLACK-2234442;AW17AF03SHK;Inactive - PMM - Category;Shrug;AND;Adults-Women;Women;;;;Fashion;;2017;8,ANDSHRG00000480,10,ANDSHRG00000481,12,ANDSHRG00000482,14,ANDSHRG00000483,16,ANDSHRG00000484,18,ANDSHRG00000485;1699.00;;;<p>55% Polyester, 45% Rayon</p>;;;;;zerotype;;Fall;BV not available;No
2234438;EAW17AY119TYD8_BLU/WHT_16-BLU/WHT-2234438;EAW17AY119TYD8;Inactive - PMM - Category;Tops;AND;Adults-Women;Women;;;;Fashion;;2017;8,ANDTOPS00007947,10,ANDTOPS00007948,12,ANDTOPS00007949,14,ANDTOPS00007950,16,ANDTOPS00007951;1499.00;;;<p>100% Cotton</p>;;;;;zerotype;;Fall;BV not available;No
2234435;EAW17AY119TYD21_BLU/WHT_16-BLU/WHT-2234435;EAW17AY119TYD21;Inactive - PMM - Category;Tops;AND;Adults-Women;Women;;;;Fashion;;2017;8,ANDTOPS00007937,10,ANDTOPS00007938,12,ANDTOPS00007939,14,ANDTOPS00007940,16,ANDTOPS00007941;1499.00;;;<p>100% Cotton</p>;;;;;zerotype;;Fall;BV not available;No
2234433;EAW17AS066TPTK_GREY_16-GREY-2234433;EAW17AS066TPTK;Inactive - PMM - Category;Tops;AND;Adults-Women;Women;;;;Fashion;;2017;8,ANDTOPS00007932,10,ANDTOPS00007933,12,ANDTOPS00007934,14,ANDTOPS00007935,16,ANDTOPS00007936;1999.00;;;;;;;;zerotype;;Fall;BV not available;No
2234432;EAW17AB69TMEL_GREY_16-GREY-2234432;EAW17AB69TMEL;Inactive - PMM - Category;Tops;AND;Adults-Women;Women;;;;Fashion;;2017;8,ANDTOPS00007927,10,ANDTOPS00007928,12,ANDTOPS00007929,14,ANDTOPS00007930,16,ANDTOPS00007931;999.00;;;<p>97% Polyester/3% Spandex</p>;;;;;zerotype;;Fall;BV not available;No
2234427;EAW17AB207TP102_BLU/PRT_16-BLU/PRT-2234427;EAW17AB207TP102;Inactive - PMM - Category;Tops;AND;Adults-Women;Women;;;;Fashion;;2017;8,ANDTOPS00007907,10,ANDTOPS00007908,12,ANDTOPS00007909,14,ANDTOPS00007910,16,ANDTOPS00007911;1699.00;;;<p>98% Polyester / 2% Spandex</p>;;;;;zerotype;;Fall;BV not available;No
2234425;EAW17AB024TP7_WHT/RED_16-WHT/RED-2234425;EAW17AB024TP7;Inactive - PMM - Category;Tops;AND;Adults-Women;Women;;;;Fashion;;2017;8,ANDTOPS00007897,10,ANDTOPS00007898,12,ANDTOPS00007899,14,ANDTOPS00007900,16,ANDTOPS00007901;1699.00;;;<p>100% VISCOSE</p>;;;;;zerotype;;Fall;BV not available;No
2234424;EAW17AB024TP65_STRIPE_16-STRIPE-2234424;EAW17AB024TP65;Inactive - PMM - Category;Tops;AND;Adults-Women;Women;;;;Fashion;;2017;8,ANDTOPS00007892,10,ANDTOPS00007893,12,ANDTOPS00007894,14,ANDTOPS00007895,16,ANDTOPS00007896;1699.00;;;<p>100% VISCOSE</p>;;;;;zerotype;;Fall;BV not available;No
2234423;EAW17AB024TP2_CRM/BLU_16-CRM/BLU-2234423;EAW17AB024TP2;Inactive - PMM - Category;Tops;AND;Adults-Women;Women;;;;Fashion;;2017;8,ANDTOPS00007887,10,ANDTOPS00007888,12,ANDTOPS00007889,14,ANDTOPS00007890,16,ANDTOPS00007891;1699.00;;;<p>100% VISCOSE</p>;;;;;zerotype;;Fall;BV not available;No
2234422;EAW17AB006TP45_BLU/PRT_16-BLU/PRT-2234422;EAW17AB006TP45;Inactive - PMM - Category;Tops;AND;Adults-Women;Women;;;;Fashion;;2017;8,ANDTOPS00007882,10,ANDTOPS00007883,12,ANDTOPS00007884,14,ANDTOPS00007885,16,ANDTOPS00007886;1699.00;;;<p>100% POLYESTER</p>;;;;;zerotype;;Fall;BV not available;No
2234421;EAW17AB006TP23_BLU/PRT_16-BLU/PRT-2234421;EAW17AB006TP23;Inactive - PMM - Category;Tops;AND;Adults-Women;Women;;;;Fashion;;2017;8,ANDTOPS00007877,10,ANDTOPS00007878,12,ANDTOPS00007879,14,ANDTOPS00007880,16,ANDTOPS00007881;1699.00;;;<p>100 % POLYSTER</p>;;;;;zerotype;;Fall;BV not available;No
2234420;EAW17AA016TVJ13_YEL/WHT_16-YEL/WHT-2234420;EAW17AA016TVJ13;Inactive - PMM - Category;Tops;AND;Adults-Women;Women;;;;Fashion;;2017;8,ANDTOPS00007872,10,ANDTOPS00007873,12,ANDTOPS00007874,14,ANDTOPS00007875,16,ANDTOPS00007876;2299.00;;;<p>100%POLYSTER</p>;;;;;zerotype;;Fall;BV not available;No
2234419;EAW17AA016TP20_BGE/RED_16-BGE/RED-2234419;EAW17AA016TP20;Inactive - PMM - Category;Tops;AND;Adults-Women;Women;;;;Fashion;;2017;8,ANDTOPS00007867,10,ANDTOPS00007868,12,ANDTOPS00007869,14,ANDTOPS00007870,16,ANDTOPS00007871;2299.00;;;<p>95% Polyester / 5% Spandex</p>;;;;;zerotype;;Fall;BV not available;No
2234418;AW17R48TP46_WNE/BLK_18-WNE/BLK-2234418;AW17R48TP46;Inactive - PMM - Category;Tops;AND;Adults-Women;Women;;;;Fashion;;2017;10,ANDTOPS00007862,12,ANDTOPS00007863,14,ANDTOPS00007864,16,ANDTOPS00007865,18,ANDTOPS00007866;1899.00;;;<p>55% POLY, 45% RAYON</p>;;;;;zerotype;;Fall;BV not available;No
2234416;AW17AY100ATPG_PEACH_18-PEACH-2234416;AW17AY100ATPG;Inactive - PMM - Category;Tops;AND;Adults-Women;Women;;;;Fashion;;2017;8,ANDTOPS00007851,10,ANDTOPS00007852,12,ANDTOPS00007853,14,ANDTOPS00007854,16,ANDTOPS00007855,18,ANDTOPS00007856;2499.00;;;<p>100% Polyester</p>;;;;;zerotype;;Fall;BV not available;No
2234415;AW17AY090TFK_BLACK_16-BLACK-2234415;AW17AY090TFK;Inactive - PMM - Category;Tops;AND;Adults-Women;Women;;;;Fashion;;2017;10,ANDTOPS00007847,12,ANDTOPS00007848,14,ANDTOPS00007849,16,ANDTOPS00007850;2199.00;;;<p>VISCOSE / NYLON</p>;;;;;zerotype;;Fall;BV not available;No
2234414;AW17AY068TFK_RED_16-RED-2234414;AW17AY068TFK;Inactive - PMM - Category;Tops;AND;Adults-Women;Women;;;;Fashion;;2017;10,ANDTOPS00007843,12,ANDTOPS00007844,14,ANDTOPS00007845,16,ANDTOPS00007846;2599.00;;;<p>100% VISCOSE</p>;;;;;zerotype;;Fall;BV not available;No
2234413;AW17AY053TJ32_BLK/WHT_18-BLK/WHT-2234413;AW17AY053TJ32;Inactive - PMM - Category;Tops;AND;Adults-Women;Women;;;;Fashion;;2017;8,ANDTOPS00007837,10,ANDTOPS00007838,12,ANDTOPS00007839,14,ANDTOPS00007840,16,ANDTOPS00007841,18,ANDTOPS00007842;2499.00;;;<p>60% Cotton, 40% Tencil</p>;;;;;zerotype;;Fall;BV not available;No
2234412;AW17AY050TYD12_BLU/WHT_16-BLU/WHT-2234412;AW17AY050TYD12;Inactive - PMM - Category;Tops;AND;Adults-Women;Women;;;;Fashion;;2017;8,ANDTOPS00007832,10,ANDTOPS00007833,12,ANDTOPS00007834,14,ANDTOPS00007835,16,ANDTOPS00007836;1299.00;;;<p>100% Cotton</p>;;;;;zerotype;;Fall;BV not available;No
2234411;AW17AY032TKR9_BLACK_14-BLACK-2234411;AW17AY032TKR9;Inactive - PMM - Category;Tops;AND;Adults-Women;Women;;;;Fashion;;2017;8,ANDTOPS00007828,10,ANDTOPS00007829,12,ANDTOPS00007830,14,ANDTOPS00007831;1999.00;;;<p>95% Cotton, 5% Spandex</p>;;;;;zerotype;;Fall;BV not available;No
2234410;AW17AP119TPL_GREY_12-GREY-2234410;AW17AP119TPL;Inactive - PMM - Category;Tops;AND;Adults-Women;Women;;;;Fashion;;2017;8,ANDTOPS00007825,10,ANDTOPS00007826,12,ANDTOPS00007827;2499.00;;;<p>100% Polyester</p>;;;;;zerotype;;Fall;BV not available;No
2234409;AW17AP093TVL_BLK/WHT_18-BLK/WHT-2234409;AW17AP093TVL;Inactive - PMM - Category;Tops;AND;Adults-Women;Women;;;;Fashion;;2017;8,ANDTOPS00007819,10,ANDTOPS00007820,12,ANDTOPS00007821,14,ANDTOPS00007822,16,ANDTOPS00007823,18,ANDTOPS00007824;1499.00;;;<p>95 % Viscose / 5 % Spandex</p>;;;;;zerotype;;Fall;BV not available;No
2234408;AW17AP086TWP_BURGUNDY_18-BURGUNDY-2234408;AW17AP086TWP;Inactive - PMM - Category;Tops;AND;Adults-Women;Women;;;;Fashion;;2017;8,ANDTOPS00007813,10,ANDTOPS00007814,12,ANDTOPS00007815,14,ANDTOPS00007816,16,ANDTOPS00007817,18,ANDTOPS00007818;1999.00;;;<p>100% Polyester</p>;;;;;zerotype;;Fall;BV not available;No
2234406;AW17AH11TFK_PINK_16-PINK-2234406;AW17AH11TFK;Inactive - PMM - Category;Tops;AND;Adults-Women;Women;;;;Fashion;;2017;8,ANDTOPS00007803,10,ANDTOPS00007804,12,ANDTOPS00007805,14,ANDTOPS00007806,16,ANDTOPS00007807;2999.00;;;<p>85% ACRYLIC 15% POLYESTER</p>;;;;;zerotype;;Fall;BV not available;No
2234405;AW17AH06TFK_ORANGE_16-ORANGE-2234405;AW17AH06TFK;Inactive - PMM - Category;Tops;AND;Adults-Women;Women;;;;Fashion;;2017;8,ANDTOPS00007798,10,ANDTOPS00007799,12,ANDTOPS00007800,14,ANDTOPS00007801,16,ANDTOPS00007802;2399.00;;;<p>50% VISCOSE 50% NYLON</p>;;;;;zerotype;;Fall;BV not available;No
2234404;AW17AH06TFK_INK BLUE_16-INK BLUE-2234404;AW17AH06TFK;Inactive - PMM - Category;Tops;AND;Adults-Women;Women;;;;Fashion;;2017;8,ANDTOPS00007793,10,ANDTOPS00007794,12,ANDTOPS00007795,14,ANDTOPS00007796,16,ANDTOPS00007797;2399.00;;;<p>50% VISCOSE 50% NYLON</p>;;;;;zerotype;;Fall;BV not available;No
2234403;AW17AF02TK_NAVY_16-NAVY-2234403;AW17AF02TK;Inactive - PMM - Category;Tops;AND;Adults-Women;Women;;;;Fashion;;2017;8,ANDTOPS00007788,10,ANDTOPS00007789,12,ANDTOPS00007790,14,ANDTOPS00007791,16,ANDTOPS00007792;1999.00;;;<p>55% Polyester, 45% Rayon</p>;;;;;zerotype;;Fall;BV not available;No
2221734;141340-BROWN/CREAM-2221734;FOREVER 21BROWN/CREAMSweaters;On Hold - Sample;Sweaters;FOREVER 21;Adults-Women;Women;NA;;;Fashion;;2017;1/S/M,FRTOSWTR00006769,2/M/L,FRTOSWTR00006770;2609.00;;;<p>Contents:100% ACRYLIC, Lining:100% COTTON, Other:</p>;;;;international-brands-new;zerotype;;Winter;Broken size;No
2202941;11023747-1-2202941;CAMISETA SWEET;QC Reject;Tops;MANGO;Adults-Women;Women;White;;;Fashion;Casual;2017;19/XS,MNGOTSHT00006403,20/S,MNGOTSHT00006404,21/M,MNGOTSHT00006405,22/L,MNGOTSHT00006406;1990.00;White <a href='/solid?src=pd' class='seolink'>solid</a> knitted <a href='/regular?src=pd' class='seolink'>regular</a> <a href='/top?src=pd' class='seolink'>top</a>, has a round neck, <a href='/short?src=pd' class='seolink'>short</a> sleeves,;Finish off your wardrobe with this high-end shirt from MANGO.  Run errands or walk the dog in this white top comfortably teamed with black leggings or slim jeans.;Polyester <br> Hand-wash;The model (height 5'8") is wearing a size S;;MANGO Women White Solid Top;MANGO;zerotype;;Fall;Sample called - No image;No
2194993;BED FORD-GREEN-2194993;Kids BoysJackets;Active;Jackets;Bossini;Kids-Boys;Boys;Green;;;Fashion;Casual;2017;10,BILEJCKT00000088,12,BILEJCKT00000089,14,BILEJCKT00000090,4,BILEJCKT00000091,6,BILEJCKT00000092,8,BILEJCKT00000093;1999.00;Green solid bomber, has a stand collar, 2 pockets, zip closure, long sleeves, straight hem, polyester lining;When cooler temps come your way, there's nothing your little explorer will like more than the contemporary feel of this Bossini jacket.  He can wear this green jacket over a trendy tee and trousers for game night with friends.;Polyester<br> Machine-wash;;;Bossini Boys Green Solid Bomber;Bossini;zerotype;;Winter;Image Mismatch;No
2188682;AW17AB037DRP45_ORN/BLU_16-ORN/BLU-2188682;AW17AB037DRP45;Inactive - PMM - Category;Dresses;AND;Adults-Women;Women;Orange;Orange;Orange;Fashion;;2017;10,ANDDRSS00005360,12,ANDDRSS00005361,14,ANDDRSS00005362,16,ANDDRSS00005363;1999.00;;;<p>wash like colours separately wash inside out, Do not iron on print/ Emellishment, hand wash at 30c, Do not bleach, Line dry/ Hang to dry, Medium iron no dry clean</p>;;;;;zerotype;;Fall;BV not available;No
2188665;AW17AS048TPL_CORAL_16-CORAL-2188665;AW17AS048TPL;Inactive - PMM - Category;Tops;AND;Adults-Women;Women;Coral;Coral;Coral;Fashion;;2017;10,ANDTOPS00007680,12,ANDTOPS00007681,14,ANDTOPS00007682,16,ANDTOPS00007683;1999.00;;;<p>WASH DARK COLOURS SEPERATELYWASH/DRY INSIDE OUTDO NOT IRON DIRECTLY ON DECORATIONMACHINE WASH COLD/GENTLE CYCLE DO NOT BLEACH TUMBLE DRY LOWLOW IRON/NO DRY CLEAN</p>;;;;;zerotype;;Fall;BV not available;No
2169426;1826705012-Eggnog-2169426;VMSHARIN SHORT PU JACKET DNM, Eggnog, XS;Active;Jackets;Vero Moda;Adults-Women;Women;Cream;;;Fashion;Casual;2017;S,VEMOJCKT00001941,L,VEMOJCKT00001942,M,VEMOJCKT00001943,XL,VEMOJCKT00001944,XS,VEMOJCKT00001945;4999.00;Cream-Coloured solid quilted jacket, has a mandarin collar, 2 pockets, zip closure, long sleeves, straight hem, cotton lining;Layer on a chic cream-coloured jacket from Vero Moda.  This piece can be layered over your favourite dress when you're going on a first date.;PU<br> Dry-clean;The model (height 5'8") is wearing a size S;;Vero Moda Women Cream-Coloured Solid Quilted Jacket;Vero Moda;zerotype;;Fall;;No
2169425;1955921018-Eggnog-2169425;VMSOFFY SHORT PU JACKET NOOS, Eggnog, L;Inactive - PMM - Category;Jackets;Vero Moda;Adults-Women;Women;Cream;;;Fashion;;2017;XS,VEMOJCKT00001936,XL,VEMOJCKT00001937,M,VEMOJCKT00001938,S,VEMOJCKT00001939,L,VEMOJCKT00001940;3499.00;;;<p>Wash dark colour seperately</p>;;;;;zerotype;;Fall;BV not available;No
2169395;1956942009-Light Blue Denim-2169395;VMASHLEY NW CIG, Light Blue Denim, 31/32;Inactive - PMM - Category;Jeans;Vero Moda;Adults-Women;Women;Blue;;;Fashion;;2017;26/32,VEMOJENS00004795,30/32,VEMOJENS00004796,29/32,VEMOJENS00004797,27/32,VEMOJENS00004798,28/32,VEMOJENS00004799,32/32,VEMOJENS00004800,34/32,VEMOJENS00004801,33/32,VEMOJENS00004802,31/32,VEMOJENS00004803;3999.00;;;<p>Wash dark colour seperately</p>;;;;;zerotype;;Fall;BV not available;No
2169394;1956927009-Light Blue Denim-2169394;VMSEVEN NW SUPE, Light Blue Denim, 34/32;Inactive - PMM - Category;Jeans;Vero Moda;Adults-Women;Women;Blue;;;Fashion;;2017;28/32,VEMOJENS00004786,26/32,VEMOJENS00004787,27/32,VEMOJENS00004788,29/32,VEMOJENS00004789,30/32,VEMOJENS00004790,31/32,VEMOJENS00004791,32/32,VEMOJENS00004792,33/32,VEMOJENS00004793,34/32,VEMOJENS00004794;3499.00;;;<p>Wash dark colour seperately</p>;;;;;zerotype;;Fall;BV not available;No
2166227;2372rx-Gold-2166227;2372rx;Inactive - PMM - Catalog;Flats;Catwalk;Adults-Women;Women;Beige;Beige;Beige;Fashion;Casual;2017;UK4,CTWKFlats00003578,UK5,CTWKFlats00003579,UK6,CTWKFlats00003580,UK7,CTWKFlats00003581,UK8,CTWKFlats00003582,UK9,CTWKFlats00003583;1895.00;;;<p>non washable</p>;;;na;;zerotype;;Winter;Re-call the sample;No
2159602;110-Grey-2159602;110;Inactive - PMM - Catalog;Jackets;Foreign Culture;Adults-Men;Men;Grey;;;Fashion;Casual;2017;M,FNCRJCKT00000121,L,FNCRJCKT00000122,XL,FNCRJCKT00000123,XXL,FNCRJCKT00000124;1999.00;<a href='/grey?src=pd' class='seolink'>Grey</a> <a href='/solid?src=pd' class='seolink'>solid</a> <a href='/bomber-jacket?src=pd' class='seolink'>bomber jacket</a>, has an attached hood, <a href='/4?src=pd' class='seolink'>4</a> pockets, zip closure, long sleeves, straight hem, <a href='/polyester?src=pd' class='seolink'>polyester</a> lining;Make a name for yourself this season when you rock this handsome grey jacket.  This jacket from Foreign Culture is perfect with trousers and loafers for a day out around town.;Shell: Nylon<br />Lining: polyester<br />Hand-wash;The model (height 6') is wearing a size M;;Foreign Culture Men Grey Solid Bomber Jacket with Detachable Hood;Foreign Culture,MARC037,ndd17-ggn,express-delivery-17,try-and-buy-17;zerotype;;Winter;try-and-buy-17;No
2149726;INV-AW17T115-Grey-2149726;Invictus Slim Fit TR Trousers;BIS + Content Complete;Trousers;INVICTUS;Adults-Men;Men;Grey;Brown;;Fashion;Formal;2017;30,TILCTRSR00001953,32,TILCTRSR00001954,34,TILCTRSR00001955,36,TILCTRSR00001956;2599.00;Grey and brown checked mid-rise formal trousers, has a hook and bar closure, 4 pockets;Formalize your wardrobe with a fashionable pair of trousers by INVICTUS.  This grey pair can be teamed with a fitted shirt and Oxfords when you're going to a networking event.;Polyester and viscose rayon <br> Machine-wash;Slim fit<br> The model (height 6') is wearing a size 32;;INVICTUS Men Grey & Brown Slim Fit Checked Formal Trousers;INVICTUS;zerotype;;Fall;;No
2149724;INV-AW17T114-Blue-2149724;Invictus Slim Fit TR Trousers;BIS + Content Complete;Trousers;INVICTUS;Adults-Men;Men;Blue;;;Fashion;Formal;2017;30,TILCTRSR00001949,32,TILCTRSR00001950,34,TILCTRSR00001951,36,TILCTRSR00001952;2599.00;Blue checked mid-rise formal trousers, has a hook and bar closure, 4 pockets;Boost your style with a brand new pair of INVICTUS trousers.  This blue pair blends well with a button-up and sports jacket whether you're heading to work or a nice family function.;Other and viscose rayon <br> Machine-wash;Slim fit<br> The model (height 6') is wearing a size 32;;INVICTUS Men Blue Slim Fit Checked Formal Trousers;INVICTUS;zerotype;;Fall;;No
2149723;INV-AW17T113-Dark Grey-2149723;Invictus Slim Fit TR Trousers;BIS + Content Complete;Trousers;INVICTUS;Adults-Men;Men;Charcoal;Blue;;Fashion;Formal;2017;30,TILCTRSR00001945,32,TILCTRSR00001946,34,TILCTRSR00001947,36,TILCTRSR00001948;2499.00;Charcoal and blue checked mid-rise formal trousers, has a hook and bar closure, 4 pockets;Switch up your style and try out a pair of top-notch INVICTUS trousers.  You can match this charcoal pair with a lightweight sweater and leather boots when you're going to a work luncheon.;Other and viscose rayon <br> Machine-wash;Slim fit<br> The model (height 6') is wearing a size 32;;INVICTUS Men Charcoal & Blue Slim Fit Checked Formal Trousers;INVICTUS;zerotype;;Fall;;No
2142927;13023640-49-2142927;SWEATER TOUPA;Active;Sweaters;MANGO;Adults-Women;Women;Green;White;;Fashion;Casual;2017;20/S,MNGOSWTR00001946,21/M,MNGOSWTR00001947,22/L,MNGOSWTR00001948;2590.00;Green and white self-design sweater with shimmer detail, has a round neck, long sleeves, ribbed hem;You'll love the softness and durability of this classically designed MANGO sweater.  Style this green piece with slim jeans, patent pumps, and a chic handbag when you're going to dinner with the girls.;56% viscose, 20% acrylic, 16% polyester and 8% metallic fibres<br />Hand-wash;The model (height 5'8") is wearing a size S;;MANGO Women Green & White Self-Design Sweater;MANGO,coupon-offer-diwali17,new-season-diwali17,international-styles-new,bfg17-non-disc;zerotype;;Fall;bfg17-non-disc;No
2142241;AW16SUPERTRETCH_WHITE_38-WHITE-2142241;AW16SUPERTRETCH;Inactive - PMM - Category;Jeggings;AND;Adults-Women;Women;;;;Fashion;;2017;26,ANDJGNG00000066,28,ANDJGNG00000067,30,ANDJGNG00000068,32,ANDJGNG00000069,34,ANDJGNG00000070,36,ANDJGNG00000071,38,ANDJGNG00000072;1999.00;;;<p>78% Cotton, 19% Polyester, 3% Elastane</p>;;;;;zerotype;;Spring;BV not available;No
2142239;AW16SUPERTRETCH_CAMEL_36-CAMEL-2142239;AW16SUPERTRETCH;Inactive - PMM - Category;Jeggings;AND;Adults-Women;Women;;;;Fashion;;2017;28,ANDJGNG00000061,30,ANDJGNG00000062,32,ANDJGNG00000063,34,ANDJGNG00000064,36,ANDJGNG00000065;1999.00;;;<p>78% Cotton, 19% Polyester, 3% Elastane</p>;;;;;zerotype;;Spring;BV not available;No
2142229;AW16AB47TUTG1_TANGERINE_20-TANGERINE-2142229;AW16AB47TUTG1;Inactive - PMM - Category;Tunics;AND;Adults-Women;Women;;;;Fashion;;2017;8,ANDTNIC00001958,10,ANDTNIC00001959,12,ANDTNIC00001960,14,ANDTNIC00001961,16,ANDTNIC00001962,18,ANDTNIC00001963,20,ANDTNIC00001964;1899.00;;;<p>100% POLYESTER</p>;;;;;zerotype;;Spring;BV not available;No
2142228;AW16AB47TUTG1_INK BLUE_16-INK BLUE-2142228;AW16AB47TUTG1;Inactive - PMM - Category;Tunics;AND;Adults-Women;Women;;;;Fashion;;2017;10,ANDTNIC00001954,12,ANDTNIC00001955,14,ANDTNIC00001956,16,ANDTNIC00001957;1899.00;;;<p>100% POLYESTER</p>;;;;;zerotype;;Spring;BV not available;No
2142225;AWAY45TUPRT23A_PRINT_XXL-PRINT-2142225;AWAY45TUPRT23A;Inactive - PMM - Category;Tunics;AND;Adults-Women;Women;;;;Fashion;;2017;S,ANDTNIC00001945,M,ANDTNIC00001946,L,ANDTNIC00001947,XL,ANDTNIC00001948,XXL,ANDTNIC00001949;1999.00;;;<p>100% Polyester</p>;;;;;zerotype;;Spring;BV not available;No
2142224;AW16NA21TUTG1_NAVY_8-NAVY-2142224;AW16NA21TUTG1;Inactive - PMM - Category;Tunics;AND;Adults-Women;Women;;;;Fashion;;2017;10,ANDTNIC00001939,12,ANDTNIC00001940,14,ANDTNIC00001941,16,ANDTNIC00001942,18,ANDTNIC00001943,8,ANDTNIC00001944;1899.00;;;<p>100% Polyester</p>;;;;;zerotype;;Spring;BV not available;No
2142222;AW16AB101TU180_GREY_18-GREY-2142222;AW16AB101TU180;Inactive - PMM - Category;Tunics;AND;Adults-Women;Women;;;;Fashion;;2017;10,ANDTNIC00001934,12,ANDTNIC00001935,14,ANDTNIC00001936,16,ANDTNIC00001937,18,ANDTNIC00001938;2599.00;;;<p>100% Polyester</p>;;;;;zerotype;;Spring;BV not available;No
2142217;AW16NA35JKPLD_PRINT_16-PRINT-2142217;AW16NA35JKPLD;Inactive - PMM - Category;Jackets;AND;Adults-Women;Women;;;;Fashion;;2017;8,ANDJCKT00000795,10,ANDJCKT00000796,12,ANDJCKT00000797,14,ANDJCKT00000798,16,ANDJCKT00000799;3799.00;;;<p>67% Cotton, 28% Polyester, 5% Spandex</p>;;;;;zerotype;;Spring;BV not available;No
2142216;AW16R29JKLCK4_BLUE_18-BLUE-2142216;AW16R29JKLCK4;Inactive - PMM - Category;Jackets;AND;Adults-Women;Women;;;;Fashion;;2017;10,ANDJCKT00000790,12,ANDJCKT00000791,14,ANDJCKT00000792,16,ANDJCKT00000793,18,ANDJCKT00000794;2199.00;;;<p>95% Polyester, 5% Spandex</p>;;;;;zerotype;;Spring;BV not available;No
2142214;AW16JKKJW287_DENIM_8-DENIM-2142214;AW16JKKJW287;Inactive - PMM - Category;Jackets;AND;Adults-Women;Women;;;;Fashion;;2017;10,ANDJCKT00000779,12,ANDJCKT00000780,14,ANDJCKT00000781,16,ANDJCKT00000782,18,ANDJCKT00000783,8,ANDJCKT00000784;3499.00;;;<p>67% Cotton, 28% Polyester, 5% Spandex</p>;;;;;zerotype;;Spring;BV not available;No
2142212;AW16AY05JKLC10_BLACK_8-BLACK-2142212;AW16AY05JKLC10;Inactive - PMM - Category;Jackets;AND;Adults-Women;Women;;;;Fashion;;2017;10,ANDJCKT00000772,12,ANDJCKT00000773,14,ANDJCKT00000774,16,ANDJCKT00000775,18,ANDJCKT00000776,20,ANDJCKT00000777,8,ANDJCKT00000778;2299.00;;;<p>95% POLYESTER/ 05% SPANDEX</p>;;;;;zerotype;;Spring;BV not available;No
2142200;AW16A22DR180_BURGUNDY_18-BURGUNDY-2142200;AW16A22DR180;Inactive - PMM - Category;Dresses;AND;Adults-Women;Women;;;;Fashion;;2017;8,ANDDRSS00005324,10,ANDDRSS00005325,12,ANDDRSS00005326,16,ANDDRSS00005327,18,ANDDRSS00005328;2999.00;;;<p>100% Polyester</p>;;;;;zerotype;;Spring;BV not available;No
2142183;SS16AB7-DR-PNT5_PRNT_18-PRNT-2142183;SS16AB7-DR-PNT5;Inactive - PMM - Category;Dresses;AND;Adults-Women;Women;;;;Fashion;;2017;8,ANDDRSS00005267,10,ANDDRSS00005268,12,ANDDRSS00005269,14,ANDDRSS00005270,16,ANDDRSS00005271,18,ANDDRSS00005272;1999.00;;;<p>100% polyester</p>;;;;;zerotype;;Spring;BV not available;No
2142181;AW16AB110MX180_PNK/BLK_18-PNK/BLK-2142181;AW16AB110MX180;Inactive - PMM - Category;Dresses;AND;Adults-Women;Women;;;;Fashion;;2017;8,ANDDRSS00005257,10,ANDDRSS00005258,12,ANDDRSS00005259,14,ANDDRSS00005260,16,ANDDRSS00005261,18,ANDDRSS00005262;4499.00;;;<p>100% Polyester</p>;;;;;zerotype;;Spring;BV not available;No
2142169;AW16AY48MXLCK4_INK BLUE_18-INK BLUE-2142169;AW16AY48MXLCK4;Inactive - PMM - Category;Dresses;AND;Adults-Women;Women;;;;Fashion;;2017;8,ANDDRSS00005217,10,ANDDRSS00005218,12,ANDDRSS00005219,14,ANDDRSS00005220,16,ANDDRSS00005221,18,ANDDRSS00005222;3999.00;;;<p>95% Polyester, 5% Spandex</p>;;;;;zerotype;;Spring;BV not available;No
2142168;AW16AY37DRSC1_BURGUNDY_14-BURGUNDY-2142168;AW16AY37DRSC1;Inactive - PMM - Category;Dresses;AND;Adults-Women;Women;;;;Fashion;;2017;8,ANDDRSS00005213,10,ANDDRSS00005214,12,ANDDRSS00005215,14,ANDDRSS00005216;3499.00;;;<p>95% Polyester, 5% Spandex</p>;;;;;zerotype;;Spring;BV not available;No
2142167;AW16AY23MXKK_TANGERINE_16-TANGERINE-2142167;AW16AY23MXKK;Inactive - PMM - Category;Dresses;AND;Adults-Women;Women;;;;Fashion;;2017;8,ANDDRSS00005208,10,ANDDRSS00005209,12,ANDDRSS00005210,14,ANDDRSS00005211,16,ANDDRSS00005212;5999.00;;;<p>95% Polyester, 5% Spandex</p>;;;;;zerotype;;Spring;BV not available;No
2142165;AW16AB68MXSC1_BLACK_16-BLACK-2142165;AW16AB68MXSC1;Inactive - PMM - Category;Dresses;AND;Adults-Women;Women;;;;Fashion;;2017;8,ANDDRSS00005197,10,ANDDRSS00005198,12,ANDDRSS00005199,14,ANDDRSS00005200,16,ANDDRSS00005201;4499.00;;;<p>95% Polyester, 5% Spandex</p>;;;;;zerotype;;Spring;BV not available;No
2142160;AW16AB107MX180_BLACK_18-BLACK-2142160;AW16AB107MX180;Inactive - PMM - Category;Dresses;AND;Adults-Women;Women;;;;Fashion;;2017;8,ANDDRSS00005182,10,ANDDRSS00005183,12,ANDDRSS00005184,14,ANDDRSS00005185,16,ANDDRSS00005186,18,ANDDRSS00005187;3999.00;;;<p>100% Polyester</p>;;;;;zerotype;;Spring;BV not available;No
2142159;AW16AAY56DRPC3_PRNT_16-PRNT-2142159;AW16AAY56DRPC3;Inactive - PMM - Category;Dresses;AND;Adults-Women;Women;;;;Fashion;;2017;10,ANDDRSS00005178,12,ANDDRSS00005179,14,ANDDRSS00005180,16,ANDDRSS00005181;2199.00;;;<p>100% Polyester</p>;;;;;zerotype;;Spring;BV not available;No
2142157;AW16AB303DRVJ31_PRNT_16-PRNT-2142157;AW16AB303DRVJ31;Inactive - PMM - Category;Dresses;AND;Adults-Women;Women;;;;Fashion;;2017;10,ANDDRSS00005170,12,ANDDRSS00005171,16,ANDDRSS00005172;2299.00;;;<p>95% Polyester, 5% Spandex</p>;;;;;zerotype;;Spring;BV not available;No
2142156;AW16AB121DR807_BLACK_18-BLACK-2142156;AW16AB121DR807;Inactive - PMM - Category;Dresses;AND;Adults-Women;Women;;;;Fashion;;2017;10,ANDDRSS00005165,12,ANDDRSS00005166,14,ANDDRSS00005167,16,ANDDRSS00005168,18,ANDDRSS00005169;2799.00;;;<p>100% Rayon</p>;;;;;zerotype;;Spring;BV not available;No
2142148;AW16A44DRJQ5_PRNT_8-PRNT-2142148;AW16A44DRJQ5;Inactive - PMM - Category;Dresses;AND;Adults-Women;Women;;;;Fashion;;2017;10,ANDDRSS00005136,12,ANDDRSS00005137,14,ANDDRSS00005138,16,ANDDRSS00005139,18,ANDDRSS00005140,8,ANDDRSS00005141;3499.00;;;<p>95% Polyester, 5% Spandex</p>;;;;;zerotype;;Spring;BV not available;No
2142139;AW16A76JS53VL_NAVY_18-NAVY-2142139;AW16A76JS53VL;Inactive - PMM - Category;Jumpsuit;AND;Adults-Women;Women;;;;Fashion;;2017;8,ANDJMST00000171,10,ANDJMST00000172,12,ANDJMST00000173,14,ANDJMST00000174,16,ANDJMST00000175,18,ANDJMST00000176;3299.00;;;<p>95% Viscose, 5% Spandex</p>;;;;;zerotype;;Spring;BV not available;No
2142119;AW16A52PLZJKS5_BLUE_34-BLUE-2142119;AW16A52PLZJKS5;Inactive - PMM - Category;Trousers;AND;Adults-Women;Women;;;;Fashion;;2017;28,ANDTRSR00001030,30,ANDTRSR00001031,32,ANDTRSR00001032,34,ANDTRSR00001033;2499.00;;;<p>70% Polyester, 28% Cotton, 02% Spandex</p>;;;;;zerotype;;Spring;BV not available;No
2142106;AW16Y03TR53LR_BLACK_38-BLACK-2142106;AW16Y03TR53LR;Inactive - PMM - Category;Trousers;AND;Adults-Women;Women;;;;Fashion;;2017;28,ANDTRSR00000975,30,ANDTRSR00000976,32,ANDTRSR00000977,34,ANDTRSR00000978,36,ANDTRSR00000979,38,ANDTRSR00000980;1899.00;;;<p>60% Rayon, 35% Nylon, 5% Spandex</p>;;;;;zerotype;;Spring;BV not available;No
2142058;AW16NA94TTG1_TANGERINE_16-TANGERINE-2142058;AW16NA94TTG1;Inactive - PMM - Category;Tops;AND;Adults-Women;Women;;;;Fashion;;2017;10,ANDTOPS00007556,12,ANDTOPS00007557,14,ANDTOPS00007558,16,ANDTOPS00007559;1899.00;;;<p>100% Polyester</p>;;;;;zerotype;;Spring;BV not available;No
2142036;AW16AB68T180_RED_18-RED-2142036;AW16AB68T180;Inactive - PMM - Category;Tops;AND;Adults-Women;Women;;;;Fashion;;2017;10,ANDTOPS00007546,12,ANDTOPS00007547,14,ANDTOPS00007548,16,ANDTOPS00007549,18,ANDTOPS00007550;2499.00;;;<p>100% Polyester</p>;;;;;zerotype;;Spring;BV not available;No
2141997;AW16A12AKTPRT6_PRINT_8-PRINT-2141997;AW16A12AKTPRT6;Inactive - PMM - Category;Tops;AND;Adults-Women;Women;;;;Fashion;;2017;10,ANDTOPS00007529,12,ANDTOPS00007530,16,ANDTOPS00007531,8,ANDTOPS00007532;1999.00;;;<p>75% Rayon, 25% Polyester</p>;;;;;zerotype;;Spring;BV not available;No
2141953;AW16A13T807_TANGERINE_16-TANGERINE-2141953;AW16A13T807;Inactive - PMM - Category;Tops;AND;Adults-Women;Women;;;;Fashion;;2017;10,ANDTOPS00007509,12,ANDTOPS00007510,14,ANDTOPS00007511,16,ANDTOPS00007512;1699.00;;;<p>100% Rayon</p>;;;;;zerotype;;Spring;BV not available;No
2141823;14070499-44-2141823;DRESS MORNING;Active;Dresses;MANGO;Adults-Women;Women;Green;;;Fashion;Casual;2017;20/S,MNGODRSS00004151;3790.00;Green solid woven A-line dress with embellished detail, has a square neck, button closure, an attached lining, flounce hem;This dress from MANGO offerings will take your personal style to new heights.  Wear this solid green piece with a pair of heels or flats for a perfect lunch look.;Cotton<br> Machine-wash;Regular Fit<br> The model (height 5'8") is wearing a size S;;MANGO Women Green Embellished A-Line Dress;MANGO,coupon-offer-diwali17,new-season-diwali17,international-styles-new,bfg17-non-disc;zerotype;;Fall;bfg17-non-disc;No
2141802;13043726-99-2141802;DRESS CLOE;Active;Dresses;MANGO;Adults-Women;Women;Black;;;Fashion;Casual;2017;20/S,MNGODRSS00004091,21/M,MNGODRSS00004092,22/L,MNGODRSS00004093;4990.00;Black sequinned knitted tube sheath dress, has a concealed zip closure, an attached lining, straight hem;Stand out from the crowd with this beautiful and comfortable MANGO dress.  Wow your date by pairing this solid black piece with platform heels and a chic blazer.;Polyamide<br />Hand-wash;Regular Fit<br> The model (height 5'8") is wearing a size S;;MANGO Women Black Sequinned Tube Sheath Dress;MANGO,coupon-offer-diwali17,new-season-diwali17,international-styles-new;zerotype;;Fall;tag;No
2098995;64545-HEATHER GREY-2098995;FOREVER 21HEATHER GREYTrack Pants;Inactive - PMM - Catalog;Track Pants;FOREVER 21;Adults-Women;Women;NA;;;Fashion;Casual;2017;1/XS,FRTOTRPT00000680,2/S,FRTOTRPT00000681,3/M,FRTOTRPT00000682,4/L,FRTOTRPT00000683;1499.00;;;<p>Contents:69% COTTON, 20% POLYESTER, 11% RAYON, Lining:, Othe</p>;;;h;international-brands-new;zerotype;;Fall;Sample Call;No
2078872;ARES0311B-Lt. Yellow-2078872;SH FS REG SEM SOL ARES0311B;Inactive - PMM - Catalog;Shirts;Arrow;Adults-Men;Men;Blue;;;Fashion;Formal;2017;38,ARRWSHRT00006441,39,ARRWSHRT00006442,40,ARRWSHRT00006443,42,ARRWSHRT00006444,44,ARRWSHRT00006445,46,ARRWSHRT00006446;1399.00;<a href='/blue?src=pd' class='seolink'>Blue</a> <a href='/solid?src=pd' class='seolink'>solid</a> <a href='/formal?src=pd' class='seolink'>formal</a> shirt, has a cutaway collar, button placket, <a href='/1?src=pd' class='seolink'>1</a> pocket, long sleeves, curved hem;You'll look dapper in this formal shirt from Arrow.  If you're attending a work conference, match this blue piece with your favourite pair of trousers and a stellar blazer.;Cotton<br />Machine-wash cold;Regular Fit<br />The model (height 6') is wearing a size 40;;Arrow Men Blue Regular Fit Solid Formal Shirt;ColorPlus,mitm-new-season,new-arrivals-formal-23082017,ftod-bbd17,formalwear-min30sale,menscasualfest-oct,ftod-sep30,shubh-vivah-perfectionist-vibes,arrow-aw17-all;zerotype;;Fall;arrow-aw17-all,PMM;No
2073259;hrx-aw17-mk-2463-A-GREY MELANGE-2073259;MENS  SHORTS;BIS + Content Complete;Shorts;HRX by Hrithik Roshan;Adults-Men;Men;Grey Melange;;;Fashion;Sports;2017;28,HBHRSHOR00001211,30,HBHRSHOR00001212,32,HBHRSHOR00001213,34,HBHRSHOR00001214,36,HBHRSHOR00001215;1299.00;Grey Melange solid mid-rise sports shorts, has 4 pockets, a drawstring closure;These trendy grey melange solid shorts will help you set the tone for this season.  Keep hip this season with this pair of grey melange shorts and a white tee.;Cotton and polyester <br> Machine-wash;Regular Fit <br> The model (height 6') is wearing a size 32;;HRX by Hrithik Roshan Men Grey Melange Solid Regular Fit Sports Shorts;HRX by Hrithik Roshan;zerotype;;Fall;;No
2042588;JNS-HRX-217-M-11250-Indigo-2042588;Indigo Denim JEANS;QC Reject;Jeans;HRX by Hrithik Roshan;Adults-Men;Men;Blue;;;Fashion;Casual;2017;28,HBHRJENS00002936,30,HBHRJENS00002937,32,HBHRJENS00002938,34,HBHRJENS00002939,36,HBHRJENS00002940;2499.00;Blue dark wash 5-pocket mid-rise jeans, clean look with no fade, has a button and zip closure, waistband with belt loops;With these HRX by Hrithik Roshan skinny-fit jeans, you can maintain an on-trend style all season long.  Pair them with trainers and your favourite jersey and head out to watch the game with your pals.;Cotton, polyester and elastane <br> Machine-wash;Skinny Fit<br>  Stretchable<br> The model (height 6') is wearing a size 32;;HRX by Hrithik Roshan Men Blue Skinny Fit Mid-Rise Clean Look Stretchable Jeans;HRX by Hrithik Roshan;zerotype;;Fall;u card;No
2005410;EAW17AB022DRP6_PRINT_16-PRINT-2005410;EAW17AB022DRP6;On Hold - Sample;Dresses;AND;Adults-Women;Women;Multi;;;Fashion;Casual;2017;16,ANDDRSS00004968;2499.00;Multicoloured printed knitted A-line dress, has a round neck, sleeveless, an attached lining, straight hem;Maintain a trendy style all year long with this stunning dress from AND.  Create an absolute style high by going with this printed multi-coloured piece in combination with a killer shoe and trendy bangles for a perfect brunch look.;Polyester <br /> Machine-wash;Regular Fit<br /> The model (height 5'8") is wearing a size S;;AND Women Multicoloured Printed A-Line Dress;AND;zerotype;;Fall;Broken size;No
2005391;SS17AA074TTR_YELLOW_18-YELLOW-2005391;SS17AA074TTR;On Hold - Sample;Tops;AND;Adults-Women;Women;Yellow;;;Fashion;Casual;2017;18,ANDTOPS00007220;1999.00;<a href='/yellow?src=pd' class='seolink'>Yellow</a> <a href='/solid?src=pd' class='seolink'>solid</a> woven A-line top, has a <a href='/boat?src=pd' class='seolink'>boat</a> neck, button closure closure;Make a personal style statement with this one-of-a-kind AND top.  This yellow piece can be styled with tonal shorts and chic sandals when you're going to the beach with your friends and family.;Polyester <br /> Machine-wash;Regular Fit<br /> The model (height 5'8") is wearing a size S;;AND Women Yellow Solid A-Line Top;AND;zerotype;;Fall;Broken size;No
2005383;EAW17AS043TPG_CORAL_18-CORAL-2005383;EAW17AS043TPG;On Hold - Sample;Tops;AND;Adults-Women;Women;Coral;;;Fashion;Casual;2017;18,ANDTOPS00007184;1499.00;<a href='/coral?src=pd' class='seolink'>Coral</a> <a href='/solid?src=pd' class='seolink'>solid</a> woven <a href='/regular?src=pd' class='seolink'>regular</a> top, has a keyhole neck, button closure closure;You'll own any room with this trendy top from AND.  Slip on a pair of ballerina flats and pick up your favourite tote for a breezy outfit for when you're on the go.;Polyester <br /> Machine-wash;The model (height 5'8") is wearing a size S;;AND Women Coral Solid Top;AND;zerotype;;Fall;Broken size;No
2005375;EAW17AB067TTG1_INK BLUE_18-INK BLUE-2005375;EAW17AB067TTG1;On Hold - Sample;Tops;AND;Adults-Women;Women;Navy Blue;;;Fashion;Casual;2017;18,ANDTOPS00007155;1499.00;<a href='/navy-blue?src=pd' class='seolink'>Navy blue</a> <a href='/solid?src=pd' class='seolink'>solid</a> woven <a href='/regular?src=pd' class='seolink'>regular</a> top, has a V-neck, three-quarter sleeves;Improve your personal style with a brand new three-quarter sleeve top designed by AND.  For your next movie date or casual night out, wear this navy blue piece with sleek black jeans and trendy jewellery.;Polyester <br /> Machine-wash;The model (height 5'8") is wearing a size S;;AND Women Navy Blue Solid Top;AND;zerotype;;Fall;Broken size;No
2005351;EAW17AA015TRY_PINK_16-PINK-2005351;EAW17AA015TRY;On Hold - Sample;Tops;AND;Adults-Women;Women;Pink;;;Fashion;Casual;2017;16,ANDTOPS00007066;1699.00;<a href='/pink?src=pd' class='seolink'>Pink</a> <a href='/solid?src=pd' class='seolink'>solid</a> woven <a href='/regular?src=pd' class='seolink'>regular</a> top, has a keyhole neck, three-quarter sleeves;This top-of-the-line three-quarter sleeve top by AND will take your style to a whole new level.  When you want to have the perfect outfit for a fun lunch with the girls, you'll want to put this pink piece with an ankle boot and tapered-leg pants.;Viscose Rayon <br /> Machine-wash;The model (height 5'8") is wearing a size S;;AND Women Pink Solid Top;AND;zerotype;;Fall;Broken size;No
2005348;AW17AB102TLCE_NAVY_16-NAVY-2005348;AW17AB102TLCE;On Hold - Sample;Tops;AND;Adults-Women;Women;Navy Blue;;;Fashion;Casual;2017;16,ANDTOPS00007057;1999.00;<a href='/navy-blue?src=pd' class='seolink'>Navy blue</a> <a href='/solid?src=pd' class='seolink'>solid</a> woven bardot top, has an off-<a href='/shoulder?src=pd' class='seolink'>shoulder</a> neck, <a href='/short?src=pd' class='seolink'>short</a> sleeves;This smart shirt from AND is never boring.  This navy blue piece can be worn with dark denims and leather boots when you're going out to a weeknight happy hour.;Pure Cotton <br /> Machine-wash;The model (height 5'8") is wearing a size S;;AND Women Navy Blue Solid Bardot Top;AND;zerotype;;Fall;Broken size;No
1976319;ANSMF-43A-L.GM/FUSCHIA/ BLACK-1976319;OPEN COAT STYLE;BIS + Content Complete;Sweaters;Anouk;Adults-Women;Women;Grey Melange;;;Fashion;Casual;2017;S,ANUKTNIC00000861,M,ANUKTNIC00000862,L,ANUKTNIC00000863,XL,ANUKTNIC00000864;1699.00;Grey Melange self-design front-open, has a shawl collar, long sleeves, curved hem;Add this warm and comfy Anouk sweater to your cold-weather wardrobe.  You can team this grey melange piece with a khaki field jacket and slim jeans when you're going to the movies with your friends.;Acrylic <br> Machine-wash;The model (height 5'8") is wearing a size S;;Anouk Women Grey Melange Self Design Front-Open;Anouk,anouk-winter-aw17,anouk-sis-winterwear;zerotype;;Fall;anouk-sis-winterwear;No
1976282;ANS098-NAVY/OFF WHITE-1976282;FRONT OPEN CARDIGAN;BIS + Content Complete;Sweaters;Anouk;Adults-Women;Women;Navy Blue;Off White;;Fashion;Casual;2017;S,ANUKSWTR00000477,M,ANUKSWTR00000478,L,ANUKSWTR00000479,XL,ANUKSWTR00000480;1499.00;Navy Blue and off-white striped cardigan, has a round neck, long sleeves, ribbed hem;Kick your style up a notch with this in-season sweater made by Anouk.  Whether you're heading to dinner or the movies, this navy blue piece works well with dark jeans, slim trousers and more.;Acrylic <br> Machine-wash;The model (height 5'8") is wearing a size S;;Anouk Women Navy Blue & Off-White Striped Cardigan;Anouk,anouk-winter-aw17;zerotype;;Fall;anouk-winter-aw17;No
1959435;COCKTEAU/B-CHARCOAL/BLACK-1959435;Round Neck Acid washed Sweatshirt;Draft;Sweatshirts;Roadster;Adults-Men;Men;;;;Fashion;;2017;S,RDSTSWSH00007805,M,RDSTSWSH00007806,L,RDSTSWSH00007807,XL,RDSTSWSH00007808;1499.00;;;;;;;;zerotype;;Fall;;No
1959270;COLONY/B-INDIGO-1959270;Sweatshirt With raw edge and Cut&Sew;Draft;Sweatshirts;Roadster;Adults-Men;Men;;;;Fashion;;2017;S,RDSTSWSH00007145,M,RDSTSWSH00007146,L,RDSTSWSH00007147,XL,RDSTSWSH00007148;1299.00;;;;;;;;zerotype;;Fall;;No
1959269;COLONY/A-BLACK-1959269;Sweatshirt With raw edge and Cut&Sew;Draft;Sweatshirts;Roadster;Adults-Men;Men;;;;Fashion;;2017;S,RDSTSWSH00007141,M,RDSTSWSH00007142,L,RDSTSWSH00007143,XL,RDSTSWSH00007144;1299.00;;;;;;;;zerotype;;Fall;;No
1953867;217YKKSLD69506-BLACK-1953867;F/SLV SWEATSHIRT;Draft;Sweatshirts;YK;Kids-Boys;Boys;;;;Fashion;;2017;7-8Y,YKYKSWSH00000296,8-9Y,YKYKSWSH00000297,10-11Y,YKYKSWSH00000298,11-12Y,YKYKSWSH00000299,13-14Y,YKYKSWSH00000300;1299.00;;;;;;;;zerotype;;Fall;;No
1937039;MINAJ-1-BLUSH-1937039;Women Sweatshirt;Draft;Sweatshirts;Roadster;Adults-Women;Women;;;;Fashion;;2017;S,RDSTSWSH00006529,M,RDSTSWSH00006530,L,RDSTSWSH00006531,XL,RDSTSWSH00006532;999.00;;;;;;;;zerotype;;Fall;;No
1937021;DERULO-10-TAVERTINE-1937021;Women Sweatshirt;Draft;Sweatshirts;Roadster;Adults-Women;Women;;;;Fashion;;2017;S,RDSTSWSH00006457,M,RDSTSWSH00006458,L,RDSTSWSH00006459,XL,RDSTSWSH00006460;1499.00;;;;;;;;zerotype;;Fall;;No
1937018;DERULO-7-HARBOR BLUE-1937018;Women Sweatshirt;Draft;Sweatshirts;Roadster;Adults-Women;Women;;;;Fashion;;2017;S,RDSTSWSH00006445,M,RDSTSWSH00006446,L,RDSTSWSH00006447,XL,RDSTSWSH00006448;1499.00;;;;;;;;zerotype;;Fall;;No
1931558;HRX-AW17-MK-9391C-LEGION BLUE-1931558;MENS H/SLEEVE TEE;Draft;Tshirts;HRX by Hrithik Roshan;Adults-Men;Men;;;;Fashion;;2017;S,HBHRTSHT00009079,M,HBHRTSHT00009080,L,HBHRTSHT00009081,XL,HBHRTSHT00009082,XXL,HBHRTSHT00009083;899.00;;;;;;;;zerotype;;Fall;;No
1915241;AAY1703A-BROWN-1915241;LADIE'S FELT COAT;On Hold - Sample;Jackets;all about you;Adults-Women;Women;;;;Fashion;;2017;S,AATUJCKT00000363,M,AATUJCKT00000364,L,AATUJCKT00000365,XL,AATUJCKT00000366;4799.00;;;;;;;aay-aw17-bd,Coupon-offer-aug19,ndd17-ggn;zerotype;;Fall;ndd17-ggn;No
1889894;ROADFW17FF-02-Navy Blue-1889894;ROADFW17FF-02 Navy Blue;Draft;Flip Flops;Roadster;Adults-Men;Men;;;;Fashion;;2017;UK 6,RDSTFLFP00000481,UK 7,RDSTFLFP00000482,UK 8,RDSTFLFP00000483,UK 9,RDSTFLFP00000484,UK 10,RDSTFLFP00000485,UK 11,RDSTFLFP00000486;499.00;;;;;;;mcfallstyles;zerotype;;Fall;Planner request;No
1889880;KNKFW17FF-011-Red/Black-1889880;KNKFW17FF-011 Red/Black;Draft;Flip Flops;Kook N Keech;Adults-Men;Men;;;;Fashion;;2017;UK 6,KNKHFLFP00002228,UK 7,KNKHFLFP00002229,UK 8,KNKHFLFP00002230,UK 9,KNKHFLFP00002231,UK 10,KNKHFLFP00002232,UK 11,KNKHFLFP00002233;449.00;;;;;;;mcfallstyles;zerotype;;Fall;Planner request;No
1889877;KNKFW17FF-008-Red/Black-1889877;KNKFW17FF-008 Red/Black;Draft;Flip Flops;Kook N Keech;Adults-Men;Men;;;;Fashion;;2017;UK 6,KNKHFLFP00002210,UK 7,KNKHFLFP00002211,UK 8,KNKHFLFP00002212,UK 9,KNKHFLFP00002213,UK 10,KNKHFLFP00002214,UK 11,KNKHFLFP00002215;449.00;;;;;;;mcfallstyles;zerotype;;Fall;Planner request;No
1866654;HRX ACT EASY 10 -E1-NAVY-1866654;Men's track pant;Draft;Track Pants;HRX by Hrithik Roshan;Adults-Men;Men;;;;Fashion;;2017;28,HBHRTRPT00003081,30,HBHRTRPT00003082,32,HBHRTRPT00003083,34,HBHRTRPT00003084,36,HBHRTRPT00003085;1099.00;;;;;;;;zerotype;;Fall;;No
1866652;116HAKTP0108881-light blue/black-1866652;Men's track pant;Draft;Track Pants;HRX by Hrithik Roshan;Adults-Men;Men;;;;Fashion;;2017;28,HBHRTRPT00003071,30,HBHRTRPT00003072,32,HBHRTRPT00003073,34,HBHRTRPT00003074,36,HBHRTRPT00003075;1199.00;;;;;;;;zerotype;;Fall;;No
1866649;116HAKTP010022A1-NAVY/OFF WHT-1866649;Men's track pant;Draft;Track Pants;HRX by Hrithik Roshan;Adults-Men;Men;;;;Fashion;;2017;28,HBHRTRPT00003056,30,HBHRTRPT00003057,32,HBHRTRPT00003058,34,HBHRTRPT00003059,36,HBHRTRPT00003060;1099.00;;;;;;;;zerotype;;Fall;;No
1866648;116HAKTP010001B1-navy/blue-1866648;Men's track pant;Draft;Track Pants;HRX by Hrithik Roshan;Adults-Men;Men;;;;Fashion;;2017;28,HBHRTRPT00003051,30,HBHRTRPT00003052,32,HBHRTRPT00003053,34,HBHRTRPT00003054,36,HBHRTRPT00003055;1199.00;;;;;;;;zerotype;;Fall;;No
1845153;ADIDAS NEOD-VINTAGE BLUE-1845153;Men Jacket;Active;Jackets;Roadster;Adults-Men;Men;Navy Blue;;;Fashion;Casual;2017;L,RDSTJCKT00003850,M,RDSTJCKT00003851,XL,RDSTJCKT00003852,XXL,RDSTJCKT00003853;4599.00;Navy blue solid padded jacket, has a hooded, 4 pockets, zip closure, long sleeves, straight hem, attached lining with two welt pockets;Make your wardrobe more trendy with this handsome navy blue jacket.  This jacket from Roadster is perfect with trousers and loafers for a day out around town.;Shell: 100% cotton<br />Lining: 100% polyester<br />Machine-wash;The model (height 6') is wearing a size M;;Roadster Men Navy Solid Padded Hooded Jacket;Roadster,bfg17-coupon-offer,mfb-CleranceSale,FreshStylesAdded,ybjacket10;zerotype;;Fall;ybjacket10;No
1754291;216YKKSLD50152-A-Navy-1754291;Tshirts;Draft;Tshirts;YK Disney;Kids-Boys;Boys;;;;Fashion;;2017;2-3Y,YKYKTSHT00003734,3-4Y,YKYKTSHT00003735,4-5Y,YKYKTSHT00003736,5-6Y,YKYKTSHT00003737,6-7Y,YKYKTSHT00003738;549.00;;;;;;;;zerotype;;Fall;Planner request;No
1623397;USSS0555-CERISE MELANGE-1623397;SWEATSHIRTS CERISE MEL;Inactive - PMM - Catalog;Jackets;U.S. Polo Assn.;Adults-Men;Men;Navy Blue;Red;;Fashion;Casual;2016;L,USPOSWSH00000602,M,USPOSWSH00000603,XL,USPOSWSH00000604,XXL,USPOSWSH00000605,S,USPOSWSH00000711;3299.00;<a href='/navy-blue?src=pd' class='seolink'>Navy blue</a> and <a href='/red?src=pd' class='seolink'>red</a> <a href='/solid?src=pd' class='seolink'>solid</a> reversible <a href='/bomber-jacket?src=pd' class='seolink'>bomber jacket</a>, has a stand collar, 4 pockets, snap-button placket, long sleeves, straight hem, unlined lining;Opt for a brand new navy blue jacket and make all the heads turn.  This jacket from U.S. Polo Assn. can be worn with distressed denims and a modern tee for a laid-back brunch outfit.;Shell 1: 100% polyester<br />Shell 2: 100% cotton<br />Machine-wash;The model (height 6') is wearing a size M;;U.S. Polo Assn. Men Navy Blue & Red Solid Reversible Bomber Jacket;U.S. Polo Assn.,MATT045,mens-sum-fest-b1g1,coh-exp-aug;zerotype;;Winter;image mismatch;No
1502728;12004320-BLK-1502728;LIMA;Inactive - PMM - Catalog;Sweatshirts;FILA;Adults-Men;Men;Black;;;Fashion;Sports;2016;S,FILASWSH00001534,L,FILASWSH00001535,XL,FILASWSH00001536,XXL,FILASWSH00001537,M,FILASWSH00001538;2199.00;Black sweatshirt, has a mock collar, long sleeves, a full zip closure, two zip pockets, and fleece lining;Look cool and stay comfortable in this trendy sweatshirt from FILA. Team it up with a pair of track pants and sports shoes for a complete ensemble.;60% cotton, 40% polyester<br>Machine-wash cold;The model (height 6') is wearing a size M;;FILA Black LIMA Sweatshirt;tsfanatic,bfg-event-apr,bfg-extra10,bfg-extra20,bfg-extra30,tbfg-sports-fitfabulous-brands-fila,tbfg-sportsfashion-athleisurelyyours-viewall,tbfg-sportsfashion-athleisurelyyours-sweatshirts,tbfg-sports-fitfabulous-day3-topwear,bfg-wanderlust-men-destinationall,ftod-bb-apr20,SportsAllStyles-2017,sportsathleisure,coupon-crush04,coupon-crush05,coupon-crush08,coupon-crush11,mse-fila,price-surge,flash-sale-apr29,crush24-ccmay,super-hour-ccmay,men-offer-may05,bestsellers-may6,flash-sale-may6,extra400-may9,super-hour-may9,big10-lucky10,big10-rs501off,big10-super-hour25,sportsallstyles-2017,myntra-icici-offer,welcome-to-myntra-may-big,big10-mse-all,big10-350off,flash-sale-may17,best-seller-1905,may21-hh,big10-price-surge,big10-gratification,crush350-may25,price-surge-may25,may27-price-surge,extra500-may29,hh-jun2,CASUAL-JUNE-17,eors-half-price-store,eors-rtf-allstyles,eors-rtf-top-wear,eors-sports-under999,ola-offer-jul17,wonder-hour-jun25,welcome-to-myntra-july,duty-offer-new,signup-july-2017,duty-offer-august,welcome-to-myntra-august17,extra500-jul24,uber-offer-aug-rtf,all-sports-styles-2017,buy2-1999-23aug,welcome-to-myntra-aug-v2,extra20-aug31,welcome-to-myntra-sep2017,aw17-new-season,welcome-to-mynt-v2sep2017,dutyfree-sept17,vacation-store-men-light-winterwear,bbd17-coupon-offer,coh-exp-aug,welcome-to-myntra-oct17;zerotype;;Fall;Image Mismatch;No
637616;704987-8906027070779-637616;200ML DAILY USE BODY LOTION;Inactive - PMM - Catalog;Body Lotion;Kaya Skin Clinic;Adults-Unisex;Unisex;White;;;Core;Casual;2017;200ml,KASCBOCR00000001;325.00;<span>Kaya Skin Clinic Daily Use <a target="" rel="">body</a> lotion<br>Prevents moisture loss from the skin for 24 hours<br>Enriched with natural butters such as shea and mango that helps replenish vital oils and offer daily nourishment that your skin needs<br>Suitable for all skin types</span>;Get super-soft and luminous skin with this body lotion from Kaya Skin Clinic. Apply daily to experience renewed radiance.;NA;200 ml;;Kaya Skin Clinic Daily Use Body Lotion;Kaya Skin Clinic,,,HH24MARCH2015,godofgrooming,,HH28APRIL2015,summercare,mw0206,fw15,fw15,fw15,fw15,fw15-New-arrival,new-season-on-discount-18mar,first-login-offer,myntra-store-03,ftod-eorsjun17,ftod-eorsj17-20,coupon-offer-aug19,dutyfree-sept17,bnb,bodyandbath;Body Care;Kaya Skin Clinic;Spring;Image Mismatch;No
