Style ID;Vendor Article Number;Vendor Article Name;Active Status;Article type;Brand;Age Group;Gender;Base Colour;Colour1;Colour2;Fashion Type;Usage;Year;Size - SKU code pair;MRP;Style Description;Style Note;Materials and Care Description;Size and Fit Description;Size Chart Path;Product Display Name;Tags;Product Type;Classification Brand;Season;Comments;Upload Images
1957052;TRSR00000157-BLUE-1957052;LIGHT BLUE TROUSER;Draft;Trousers;CHIQUE;Adults-Women;Women;Blue;;;Fashion;;2017;28,CHQETRSR00000061,30,CHQETRSR00000062,32,CHQETRSR00000063,34,CHQETRSR00000064,36,CHQETRSR00000065;2000.00;;;<p>machine wash , cool iron</p>;;;;;zerotype;;Summer;;No
1957050;TRSR00000147-GREY-1957050;GREY FLORAL TROUSER;Draft;Trousers;CHIQUE;Adults-Women;Women;Grey;;;Fashion;;2017;28,CHQETRSR00000056,30,CHQETRSR00000057,32,CHQETRSR00000058,34,CHQETRSR00000059,36,CHQETRSR00000060;2000.00;;;<p>machine wash , cool iron</p>;;;;;zerotype;;Summer;;No
1957047;TRSR00000137-YELLOW-1957047;YELLOW BROWN FLORAL TROUSER;Draft;Trousers;CHIQUE;Adults-Women;Women;Yellow;;;Fashion;;2017;28,CHQETRSR00000051,30,CHQETRSR00000052,32,CHQETRSR00000053,34,CHQETRSR00000054,36,CHQETRSR00000055;2000.00;;;<p>machine wash , cool iron</p>;;;;;zerotype;;Summer;;No
1957043;TRSR00000132-PURPLE-1957043;PURPLE TROUSER;Draft;Trousers;CHIQUE;Adults-Women;Women;Purple;;;Fashion;;2017;28,CHQETRSR00000046,30,CHQETRSR00000047,32,CHQETRSR00000048,34,CHQETRSR00000049,36,CHQETRSR00000050;2000.00;;;<p>machine wash , cool iron</p>;;;;;zerotype;;Summer;;No
1957041;TRSR00000127-PALM-1957041;PALM SNAKE TROUSER;Draft;Trousers;CHIQUE;Adults-Women;Women;Orange;;;Fashion;;2017;28,CHQETRSR00000041,30,CHQETRSR00000042,32,CHQETRSR00000043,34,CHQETRSR00000044,36,CHQETRSR00000045;2000.00;;;<p>machine wash , cool iron</p>;;;;;zerotype;;Summer;;No
1957039;TRSR00000107-GREEN-1957039;GREEN PALM TROUSER;Draft;Trousers;CHIQUE;Adults-Women;Women;Green;;;Fashion;;2017;28,CHQETRSR00000036,30,CHQETRSR00000037,32,CHQETRSR00000038,34,CHQETRSR00000039,36,CHQETRSR00000040;2000.00;;;<p>machine wash , cool iron</p>;;;;;zerotype;;Summer;;No
1957035;TRSR00000097-BLUE-1957035;BLUE FLORAL TROUSER;Draft;Trousers;CHIQUE;Adults-Women;Women;Blue;;;Fashion;;2017;28,CHQETRSR00000031,30,CHQETRSR00000032,32,CHQETRSR00000033,34,CHQETRSR00000034,36,CHQETRSR00000035;2000.00;;;<p>machine wash , cool iron</p>;;;;;zerotype;;Summer;;No
1957032;TRSR00000087-BLACK-1957032;SOLID BLACK TROUSER;Draft;Trousers;CHIQUE;Adults-Women;Women;Black;;;Fashion;;2017;28,CHQETRSR00000026,30,CHQETRSR00000027,32,CHQETRSR00000028,34,CHQETRSR00000029,36,CHQETRSR00000030;2000.00;;;<p>machine wash , cool iron</p>;;;;;zerotype;;Summer;;No
1957028;TRSR00000082-BEIGE-1957028;BEIGE FLORAL TROUSER;Draft;Trousers;CHIQUE;Adults-Women;Women;Beige;;;Fashion;;2017;28,CHQETRSR00000021,30,CHQETRSR00000022,32,CHQETRSR00000023,34,CHQETRSR00000024,36,CHQETRSR00000025;2000.00;;;<p>machine wash , cool iron</p>;;;;;zerotype;;Summer;;No
