Style ID;Vendor Article Number;Vendor Article Name;Active Status;Article type;Brand;Age Group;Gender;Base Colour;Colour1;Colour2;Fashion Type;Usage;Year;Size - SKU code pair;MRP;Style Description;Style Note;Materials and Care Description;Size and Fit Description;Size Chart Path;Product Display Name;Tags;Product Type;Classification Brand;Season;Comments;Upload Images
4267735;D-PEACH LACE-8-Peach-4267735;D-PEACH LACE-1;Draft;Dresses;pspeaches;Kids-Girls;Girls;Peach;Peach;;Fashion;Casual;2018;1-2Y,PSPHDRSS00002410,2-3Y,PSPHDRSS00002411,3-4Y,PSPHDRSS00002412,4-5Y,PSPHDRSS00002413,5-6Y,PSPHDRSS00002414,6-7Y,PSPHDRSS00002415,7-8Y,PSPHDRSS00002416,8-9Y,PSPHDRSS00002417;1999.00;;;<p>Dryclean</p>;;;n;;zerotype;;Summer;;No
4267734;D-FUSCHIA LACE-8-Pink-4267734;D-FUSCHIA LACE-1;Draft;Dresses;pspeaches;Kids-Girls;Girls;Pink;;;Fashion;Party;2018;1-2Y,PSPHDRSS00002402,2-3Y,PSPHDRSS00002403,3-4Y,PSPHDRSS00002404,4-5Y,PSPHDRSS00002405,5-6Y,PSPHDRSS00002406,6-7Y,PSPHDRSS00002407,7-8Y,PSPHDRSS00002408,8-9Y,PSPHDRSS00002409;1999.00;;;<p>Dryclean</p>;;;n;;zerotype;;Summer;;No
4267733;D-GREY LACE-8-Grey-4267733;D-GREY LACE-1;Draft;Dresses;pspeaches;Kids-Girls;Girls;Grey;Grey;;Fashion;Party;2018;1-2Y,PSPHDRSS00002394,2-3Y,PSPHDRSS00002395,3-4Y,PSPHDRSS00002396,4-5Y,PSPHDRSS00002397,5-6Y,PSPHDRSS00002398,6-7Y,PSPHDRSS00002399,7-8Y,PSPHDRSS00002400,8-9Y,PSPHDRSS00002401;1999.00;;;<p>Dryclean</p>;;;n;;zerotype;;Summer;;No
4267732;D-NAVY LACE-8-Navy Blue-4267732;D-NAVY LACE-1;Draft;Dresses;pspeaches;Kids-Girls;Girls;Navy Blue;Navy Blue;;Fashion;Party;2018;1-2Y,PSPHDRSS00002386,2-3Y,PSPHDRSS00002387,3-4Y,PSPHDRSS00002388,4-5Y,PSPHDRSS00002389,5-6Y,PSPHDRSS00002390,6-7Y,PSPHDRSS00002391,7-8Y,PSPHDRSS00002392,8-9Y,PSPHDRSS00002393;1999.00;;;<p>Dryclean</p>;;;n;;zerotype;;Summer;;No
4267731;D-GREY PINK NET-8-Grey-4267731;D-GREY PINK NET-1;Draft;Dresses;pspeaches;Kids-Girls;Girls;Grey;Grey;;Fashion;Party;2018;1-2Y,PSPHDRSS00002378,2-3Y,PSPHDRSS00002379,3-4Y,PSPHDRSS00002380,4-5Y,PSPHDRSS00002381,5-6Y,PSPHDRSS00002382,6-7Y,PSPHDRSS00002383,7-8Y,PSPHDRSS00002384,8-9Y,PSPHDRSS00002385;1999.00;;;<p>Dryclean</p>;;;n;;zerotype;;Summer;;No
