Style ID;Vendor Article Number;Vendor Article Name;Active Status;Article type;Brand;Age Group;Gender;Base Colour;Colour1;Colour2;Fashion Type;Usage;Year;Size - SKU code pair;MRP;Style Description;Style Note;Materials and Care Description;Size and Fit Description;Size Chart Path;Product Display Name;Tags;Product Type;Classification Brand;Season;Comments;Upload Images
1901209;DF10031-80089-Grey-1901209;Perforated Slide;Draft;Flip Flops;Dearfoams;Adults-Men;Men;;;;Fashion;;2017;US7,DFMSFLFP00000464,US9,DFMSFLFP00000465,US11,DFMSFLFP00000466,US13,DFMSFLFP00000467;2290.00;;;;;;;;zerotype;;Spring;;No
1901208;DF00071-50458-Grey-1901208;Marled Cable Knit Closed Toe Scuff with;Draft;Flip Flops;Dearfoams;Adults-Women;Women;;;;Fashion;;2017;US5,DFMSFLFP00000460,US7,DFMSFLFP00000461,US9,DFMSFLFP00000462,US11,DFMSFLFP00000463;1890.00;;;;;;;;zerotype;;Spring;;No
1901207;DF10386-50455-Blue-1901207;Plush Velour Stretch Ballerina with Memo;Draft;Flats;Dearfoams;Adults-Women;Women;;;;Fashion;;2017;US5,DFMSFlats00000028,US7,DFMSFlats00000029,US9,DFMSFlats00000030,US11,DFMSFlats00000031;1630.00;;;;;;;;zerotype;;Spring;;No
1901206;DF00073-50485-Grey-1901206;Quilted Nylon Boot with Memory Foam;Draft;Casual Shoes;Dearfoams;Adults-Women;Women;;;;Fashion;;2017;US5,DFMSCASH00000342,US7,DFMSCASH00000343,US9,DFMSCASH00000344,US11,DFMSCASH00000345;2490.00;;;;;;;;zerotype;;Spring;;No
1901205;DF00583-50484-Purple-1901205;Quilted Nylon Duvet Boot with Memory Foa;Draft;Casual Shoes;Dearfoams;Adults-Women;Women;;;;Fashion;;2017;US5,DFMSCASH00000338,US7,DFMSCASH00000339,US9,DFMSCASH00000340,US11,DFMSCASH00000341;2490.00;;;;;;;;zerotype;;Spring;;No
1901204;DF00001-50474-Black-1901204;Microsuede Clog with Multi-Jacquard Tab;Draft;Casual Shoes;Dearfoams;Adults-Women;Women;;;;Fashion;;2017;US5,DFMSCASH00000334,US7,DFMSCASH00000335,US9,DFMSCASH00000336,US11,DFMSCASH00000337;2190.00;;;;;;;;zerotype;;Spring;;No
1901203;DF00205-50471-Brown-1901203;Microsuede Fringe Bootie with Memory Foa;Draft;Casual Shoes;Dearfoams;Adults-Women;Women;;;;Fashion;;2017;US5,DFMSCASH00000330,US7,DFMSCASH00000331,US9,DFMSCASH00000332,US11,DFMSCASH00000333;2790.00;;;;;;;;zerotype;;Spring;;No
1901202;DF00288-50470-Beige-1901202;Microsuede Bootie with Jacquard Tab & Me;Draft;Casual Shoes;Dearfoams;Adults-Women;Women;;;;Fashion;;2017;US5,DFMSCASH00000326,US7,DFMSCASH00000327,US9,DFMSCASH00000328,US11,DFMSCASH00000329;2490.00;;;;;;;;zerotype;;Spring;;No
1901201;DF00036-50463-Grey-1901201;Moccasin with Novelty Tab with Memory Fo;Draft;Casual Shoes;Dearfoams;Adults-Women;Women;;;;Fashion;;2017;US5,DFMSCASH00000322,US7,DFMSCASH00000323,US9,DFMSCASH00000324,US11,DFMSCASH00000325;2490.00;;;;;;;;zerotype;;Spring;;No
1901200;DF00036-50449-Grey-1901200;Microsuede Boot with Twill Trim and Memo;Draft;Casual Shoes;Dearfoams;Adults-Women;Women;;;;Fashion;;2017;US5,DFMSCASH00000318,US7,DFMSCASH00000319,US9,DFMSCASH00000320,US11,DFMSCASH00000321;2490.00;;;;;;;;zerotype;;Spring;;No
