Style ID;Vendor Article Number;Vendor Article Name;Active Status;Article type;Brand;Age Group;Gender;Base Colour;Colour1;Colour2;Fashion Type;Usage;Year;Size - SKU code pair;MRP;Style Description;Style Note;Materials and Care Description;Size and Fit Description;Size Chart Path;Product Display Name;Tags;Product Type;Classification Brand;Season;Comments;Upload Images
2588434;B1S18MAN0144-Olive-2588434;HARKNESS;Draft;Shorts;Blue Saint;Adults-Men;Men;Olive;;;Fashion;;2018;32,BESTSHOR00000475,36,BESTSHOR00000476,34,BESTSHOR00000477,30,BESTSHOR00000478,28,BESTSHOR00000479;1399.00;;;<p>Machine Wash</p>;;;s;;zerotype;;Spring;;No
2588431;B1S18MAN0203-Blue-2588431;FARKE;Draft;Shorts;Blue Saint;Adults-Men;Men;Blue;;;Fashion;;2018;36,BESTSHOR00000470,34,BESTSHOR00000471,30,BESTSHOR00000472,28,BESTSHOR00000473,32,BESTSHOR00000474;1299.00;;;<p>Machine Wash</p>;;;s;;zerotype;;Spring;;No
2588429;B1S18MAN0136-Khaki-2588429;HARKINS;Draft;Shorts;Blue Saint;Adults-Men;Men;Khaki;;;Fashion;;2018;34,BESTSHOR00000465,32,BESTSHOR00000466,30,BESTSHOR00000467,28,BESTSHOR00000468,36,BESTSHOR00000469;1199.00;;;<p>Machine Wash</p>;;;s;;zerotype;;Spring;;No
2588427;B1S18MFS0170-Olive-2588427;GWADAR;Draft;Shirts;Blue Saint;Adults-Men;Men;Olive;;;Fashion;;2018;XL,BESTSHRT00001582,L,BESTSHRT00001583,M,BESTSHRT00001584,S,BESTSHRT00001585,XXL,BESTSHRT00001586;1399.00;;;<p>Machine Wash</p>;;;s;;zerotype;;Spring;;No
2588426;B1S18MFS0085-Olive-2588426;HEAD HUNTER;Draft;Shirts;Blue Saint;Adults-Men;Men;Olive;;;Fashion;;2018;M,BESTSHRT00001578,XL,BESTSHRT00001579,L,BESTSHRT00001580,S,BESTSHRT00001581;1399.00;;;<p>Machine Wash</p>;;;s;;zerotype;;Spring;;No
2588425;B1S18MFS0047-Blue-2588425;HEATHTON;Draft;Shirts;Blue Saint;Adults-Men;Men;Blue;;;Fashion;;2018;M,BESTSHRT00001573,S,BESTSHRT00001574,XXL,BESTSHRT00001575,XL,BESTSHRT00001576,L,BESTSHRT00001577;1399.00;;;<p>Machine Wash</p>;;;s;;zerotype;;Spring;;No
2588424;B1S18MFS0175-Blue-2588424;GAUGU;Draft;Shirts;Blue Saint;Adults-Men;Men;Blue;;;Fashion;;2018;L,BESTSHRT00001568,M,BESTSHRT00001569,S,BESTSHRT00001570,XXL,BESTSHRT00001571,XL,BESTSHRT00001572;1399.00;;;<p>Machine Wash</p>;;;d;;zerotype;;Spring;;No
2588423;B1S18MHS0056-White-2588423;HASBROOK 2;Draft;Shirts;Blue Saint;Adults-Men;Men;White;;;Fashion;;2018;XL,BESTSHRT00001564,S,BESTSHRT00001565,L,BESTSHRT00001566,M,BESTSHRT00001567;1299.00;;;<p>Machine Wash</p>;;;s;;zerotype;;Spring;;No
2588422;B1S18MFS0150-Charcoal-2588422;FLAGLE;Draft;Shirts;Blue Saint;Adults-Men;Men;Charcoal;;;Fashion;;2018;L,BESTSHRT00001559,M,BESTSHRT00001560,XXL,BESTSHRT00001561,XL,BESTSHRT00001562,S,BESTSHRT00001563;1399.00;;;<p>Machine Wash</p>;;;s;;zerotype;;Spring;;No
2588421;B1S18MFS0166-Navy Blue-2588421;FERDI;Draft;Shirts;Blue Saint;Adults-Men;Men;Navy Blue;;;Fashion;;2018;L,BESTSHRT00001554,M,BESTSHRT00001555,S,BESTSHRT00001556,XXL,BESTSHRT00001557,XL,BESTSHRT00001558;1399.00;;;<p>Machine Wash</p>;;;s;;zerotype;;Spring;;No
2588420;B1S18MFS0168-Khaki-2588420;FOREGIN;Draft;Shirts;Blue Saint;Adults-Men;Men;Khaki;;;Fashion;;2018;XL,BESTSHRT00001549,XXL,BESTSHRT00001550,L,BESTSHRT00001551,M,BESTSHRT00001552,S,BESTSHRT00001553;1499.00;;;<p>Machine Wash</p>;;;s;;zerotype;;Spring;;No
2588419;B1S18MFS0178-Blue-2588419;FIRMATO;Draft;Shirts;Blue Saint;Adults-Men;Men;Blue;;;Fashion;;2018;S,BESTSHRT00001544,XXL,BESTSHRT00001545,XL,BESTSHRT00001546,L,BESTSHRT00001547,M,BESTSHRT00001548;1399.00;;;<p>Machine Wash</p>;;;s;;zerotype;;Spring;;No
2588418;B1S18MFS0030-Charcoal-2588418;HAVENSLOCK;Draft;Shirts;Blue Saint;Adults-Men;Men;Charcoal;;;Fashion;;2018;S,BESTSHRT00001540,XL,BESTSHRT00001541,L,BESTSHRT00001542,M,BESTSHRT00001543;1399.00;;;<p>Machine Wash</p>;;;s;;zerotype;;Spring;;No
2588417;B1W17MFS0017-Blue-2588417;FIFI;Draft;Shirts;Blue Saint;Adults-Men;Men;Blue;;;Fashion;;2018;M,BESTSHRT00001535,XXL,BESTSHRT00001536,XL,BESTSHRT00001537,S,BESTSHRT00001538,L,BESTSHRT00001539;1499.00;;;<p>Machine Wash</p>;;;s;;zerotype;;Spring;;No
2588415;B1W17MFS0046-Beige-2588415;FOULDEN;Draft;Shirts;Blue Saint;Adults-Men;Men;Beige;;;Fashion;;2018;XL,BESTSHRT00001530,L,BESTSHRT00001531,M,BESTSHRT00001532,XXL,BESTSHRT00001533,S,BESTSHRT00001534;1699.00;;;<p>Machine Wash</p>;;;s;;zerotype;;Spring;;No
2588413;B1S18MHS0055-Navy Blue-2588413;HASBROOK 1;Draft;Shirts;Blue Saint;Adults-Men;Men;Navy Blue;;;Fashion;;2018;XL,BESTSHRT00001526,L,BESTSHRT00001527,S,BESTSHRT00001528,M,BESTSHRT00001529;1299.00;;;<p>Machine Wash</p>;;;s;;zerotype;;Spring;;No
2588412;B1S18MHS0173-Lavender Blue-2588412;GAULT;Draft;Shirts;Blue Saint;Adults-Men;Men;Lavender;Blue;;Fashion;;2018;XXL,BESTSHRT00001521,S,BESTSHRT00001522,XL,BESTSHRT00001523,L,BESTSHRT00001524,M,BESTSHRT00001525;1499.00;;;<p>Machine Wash</p>;;;s;;zerotype;;Spring;;No
2588411;B1W17MFS0019-Blue-2588411;FILIPI;Draft;Shirts;Blue Saint;Adults-Men;Men;Blue;;;Fashion;;2018;XXL,BESTSHRT00001516,S,BESTSHRT00001517,XL,BESTSHRT00001518,L,BESTSHRT00001519,M,BESTSHRT00001520;1299.00;;;<p>Machine Wash</p>;;;s;;zerotype;;Spring;;No
2588410;B1S18MHS0172-Pink-2588410;GAVIOT;Draft;Shirts;Blue Saint;Adults-Men;Men;Pink;;;Fashion;;2018;XXL,BESTSHRT00001511,XL,BESTSHRT00001512,L,BESTSHRT00001513,M,BESTSHRT00001514,S,BESTSHRT00001515;1399.00;;;<p>Machine Wash</p>;;;s;;zerotype;;Spring;;No
2588409;B1S18MHS0003-Blue-2588409;HARZARD;Draft;Shirts;Blue Saint;Adults-Men;Men;Blue;;;Fashion;;2018;XL,BESTSHRT00001506,L,BESTSHRT00001507,M,BESTSHRT00001508,S,BESTSHRT00001509,XXL,BESTSHRT00001510;1799.00;;;<p>Machine Wash</p>;;;s;;zerotype;;Spring;;No
2588408;B1S18MHS0054-Brown-2588408;HASBROOK;Draft;Shirts;Blue Saint;Adults-Men;Men;Brown;;;Fashion;;2018;S,BESTSHRT00001502,XL,BESTSHRT00001503,L,BESTSHRT00001504,M,BESTSHRT00001505;1299.00;;;<p>Machine Wash</p>;;;s;;zerotype;;Spring;;No
2375362;B1W17MAN0182-Black-2375362;FARTEVEAT;Active;Shorts;Blue Saint;Adults-Men;Men;Black;;;Fashion;Casual;2017;36,BESTSHOR00000460,34,BESTSHOR00000461,32,BESTSHOR00000462,30,BESTSHOR00000463,28,BESTSHOR00000464;999.00;Black solid mid-rise regular shorts, has 4 pockets, a drawstring closure;Expand your summer and spring wardrobe collection with these super-modish black solid shorts.  This black pair can be teamed with a cool shirt and canvas shoes when you're grabbing drinks with your buddies.;Cotton <br> Machine-wash;Slim Fit <br> The model (height 6') is wearing a size 32;;Blue Saint Men Black Solid Slim Fit Regular Shorts;Blue Saint,JIT,men-justin-15jan;zerotype;;Winter;men-justin-15jan;No
2206531;B1W17MAN0001-Blue-2206531;B1W17MAN0001;Active;Shorts;Blue Saint;Adults-Men;Men;Blue;;;Fashion;Casual;2017;36,BESTSHOR00000415,34,BESTSHOR00000416,32,BESTSHOR00000417,30,BESTSHOR00000418,28,BESTSHOR00000419;1299.00;<a href='/blue?src=pd' class='seolink'>Blue</a> washed mid-rise <a href='/denim-shorts?src=pd' class='seolink'>denim shorts</a>, has 5 pockets, a zip closure;Get these blue washed shorts to impress everyone this season.  Keep cool this season with this pair of blue shorts and a white tee.;Cotton <br> Machine-wash;Slim Fit <br> The model (height 6') is wearing a size 32;;Blue Saint Men Blue Washed Slim Fit Denim Shorts;Blue Saint,JIT,eorsdec2017-emeocc,eorsdecemeocc-2017,welcome-to-myntra-oct17,uber-offer-feb18,extra300-dec28,founding18-ltod,bat2499-23feb,bat1999-23feb,buy3-feb28;zerotype;;Fall;buy3-feb28;No
