Style ID;Vendor Article Number;Vendor Article Name;Active Status;Article type;Brand;Age Group;Gender;Base Colour;Colour1;Colour2;Fashion Type;Usage;Year;Size - SKU code pair;MRP;Style Description;Style Note;Materials and Care Description;Size and Fit Description;Size Chart Path;Product Display Name;Tags;Product Type;Classification Brand;Season;Comments;Upload Images
1831331;90595F LT WASH-Blue-1831331;Trousers;Draft;Trousers;FS Mini Klub;Kids-Girls;Girls;Blue;;;Fashion;;2017;6-12M,FSMKTRSR00000311,12-18M,FSMKTRSR00000312,18-24M,FSMKTRSR00000313,2-3Y,FSMKTRSR00000314;999.00;;;;;;;;zerotype;;Summer;;No
1831330;90191F BEIGE-Beige-1831330;Trousers;Draft;Trousers;FS Mini Klub;Kids-Boys;Boys;Beige;;;Fashion;;2017;6-12M,FSMKTRSR00000307,12-18M,FSMKTRSR00000308,18-24M,FSMKTRSR00000309,2-3Y,FSMKTRSR00000310;799.00;;;;;;;;zerotype;;Summer;;No
1831329;90191F B-Black-1831329;Trousers;Draft;Trousers;FS Mini Klub;Kids-Boys;Boys;Black;;;Fashion;;2017;6-12M,FSMKTRSR00000303,12-18M,FSMKTRSR00000304,18-24M,FSMKTRSR00000305,2-3Y,FSMKTRSR00000306;799.00;;;;;;;;zerotype;;Summer;;No
1831328;90020F TURQ BLUE-Blue-1831328;Trousers;Draft;Trousers;FS Mini Klub;Kids-Girls;Girls;Blue;;;Fashion;;2017;6-12M,FSMKTRSR00000299,12-18M,FSMKTRSR00000300,18-24M,FSMKTRSR00000301,2-3Y,FSMKTRSR00000302;999.00;;;;;;;;zerotype;;Summer;;No
1831327;89881E G-Green-1831327;Cord Bottom;Draft;Trousers;FS Mini Klub;Kids-Girls;Girls;Green;;;Fashion;;2017;6-12M,FSMKTRSR00000295,2-3Y,FSMKTRSR00000296,12-18M,FSMKTRSR00000297,18-24M,FSMKTRSR00000298;1299.00;;;;;;;;zerotype;;Summer;;No
1831326;89414T RD-Red-1831326;Trousers;Draft;Trousers;FS Mini Klub;Kids-Girls;Girls;Red;;;Fashion;;2017;6-12M,FSMKTRSR00000291,12-18M,FSMKTRSR00000292,18-24M,FSMKTRSR00000293,2-3Y,FSMKTRSR00000294;899.00;;;;;;;;zerotype;;Summer;;No
1831325;892069E BL-Blue-1831325;Cord trouser;Draft;Trousers;FS Mini Klub;Kids-Boys;Boys;Blue;;;Fashion;;2017;0-3M,FSMKTRSR00000285,3-6M,FSMKTRSR00000286,6-9M,FSMKTRSR00000287,9-12M,FSMKTRSR00000288,12-18M,FSMKTRSR00000289,18-24M,FSMKTRSR00000290;899.00;;;;;;;;zerotype;;Summer;;No
1831324;89121T PI-Pink-1831324;Non denim pant;Draft;Trousers;FS Mini Klub;Kids-Girls;Girls;Pink;;;Fashion;;2017;12-18M,FSMKTRSR00000281,18-24M,FSMKTRSR00000282,2-3Y,FSMKTRSR00000283,6-12M,FSMKTRSR00000284;899.00;;;;;;;;zerotype;;Summer;;No
1831323;89016T BR-Brown-1831323;Non denim pant;Draft;Trousers;FS Mini Klub;Kids-Boys;Boys;Brown;;;Fashion;;2017;12-18M,FSMKTRSR00000277,18-24M,FSMKTRSR00000278,2-3Y,FSMKTRSR00000279,6-12M,FSMKTRSR00000280;899.00;;;;;;;;zerotype;;Summer;;No
1831322;89016T BL-Blue-1831322;Non denim pant;Draft;Trousers;FS Mini Klub;Kids-Boys;Boys;Blue;;;Fashion;;2017;12-18M,FSMKTRSR00000273,18-24M,FSMKTRSR00000274,2-3Y,FSMKTRSR00000275,6-12M,FSMKTRSR00000276;899.00;;;;;;;;zerotype;;Summer;;No
1831321;88TGBFB0388 PI-Pink-1831321;Woven tencel pant;Draft;Trousers;FS Mini Klub;Kids-Girls;Girls;Pink;;;Fashion;;2017;12-18M,FSMKTRSR00000269,18-24M,FSMKTRSR00000270,2-3Y,FSMKTRSR00000271,3-4Y,FSMKTRSR00000272;999.00;;;;;;;;zerotype;;Summer;;No
1831320;89782T PI-Pink-1831320;Track bottom;Draft;Track Pants;FS Mini Klub;Kids-Girls;Girls;Pink;;;Fashion;;2016;12-18M,FSMKTRPT00000359,18-24M,FSMKTRPT00000360,2-3Y,FSMKTRPT00000361,6-12M,FSMKTRPT00000362;799.00;;;;;;;;zerotype;;Winter;;No
1831319;90316E MULTI-Multi-1831319;Pack of 3 bodysuits;Draft;Bodysuit;FS Mini Klub;Kids-Girls;Girls;Multi;;;Core;;2017;Newborn,FSMKBYST00000521,6-9M,FSMKBYST00000522,0-3M,FSMKBYST00000523,3-6M,FSMKBYST00000524,9-12M,FSMKBYST00000525;749.00;;;;;;;;zerotype;;Summer;;No
1831318;89961E MULTI-Multi-1831318;Pack of 3 bodysuits;Draft;Bodysuit;FS Mini Klub;Kids-Girls;Girls;Multi;;;Core;;2017;0-3M,FSMKBYST00000516,3-6M,FSMKBYST00000517,6-9M,FSMKBYST00000518,9-12M,FSMKBYST00000519,Newborn,FSMKBYST00000520;899.00;;;;;;;;zerotype;;Summer;;No
1831317;892053E FG COM-Multi-1831317;Pack of 3 bodysuits;Draft;Bodysuit;FS Mini Klub;Kids-Boys;Boys;Multi;;;Core;;2017;Newborn,FSMKBYST00000511,0-3M,FSMKBYST00000512,3-6M,FSMKBYST00000513,6-9M,FSMKBYST00000514,9-12M,FSMKBYST00000515;799.00;;;;;;;;zerotype;;Summer;;No
1831316;90179F LT WASH-Blue-1831316;Jeans with light wash;Draft;Jeans;FS Mini Klub;Kids-Boys;Boys;Blue;;;Fashion;;2017;6-12M,FSMKJENS00000401,12-18M,FSMKJENS00000402,18-24M,FSMKJENS00000403,2-3Y,FSMKJENS00000404;899.00;;;;;;;;zerotype;;Summer;;No
1831315;90179F DK WASH-Blue-1831315;Jeans with dark wash;Draft;Jeans;FS Mini Klub;Kids-Boys;Boys;Blue;;;Fashion;;2017;6-12M,FSMKJENS00000397,12-18M,FSMKJENS00000398,18-24M,FSMKJENS00000399,2-3Y,FSMKJENS00000400;899.00;;;;;;;;zerotype;;Summer;;No
1831314;90179F B-Black-1831314;Jeans;Draft;Jeans;FS Mini Klub;Kids-Boys;Boys;Black;;;Fashion;;2017;6-12M,FSMKJENS00000393,12-18M,FSMKJENS00000394,18-24M,FSMKJENS00000395,2-3Y,FSMKJENS00000396;899.00;;;;;;;;zerotype;;Summer;;No
1831313;90139F DK WASH-Blue-1831313;Jeans with dark wash;Draft;Jeans;FS Mini Klub;Kids-Boys;Boys;Blue;;;Fashion;;2017;6-12M,FSMKJENS00000389,12-18M,FSMKJENS00000390,18-24M,FSMKJENS00000391,2-3Y,FSMKJENS00000392;1199.00;;;;;;;;zerotype;;Summer;;No
1831312;90106F DK WASH-Blue-1831312;Jeans with dark wash;Draft;Jeans;FS Mini Klub;Kids-Boys;Boys;Blue;;;Fashion;;2017;6-12M,FSMKJENS00000385,12-18M,FSMKJENS00000386,18-24M,FSMKJENS00000387,2-3Y,FSMKJENS00000388;1099.00;;;;;;;;zerotype;;Summer;;No
1831311;90048F LT WASH-Blue-1831311;Jeans with light wash;Draft;Jeans;FS Mini Klub;Kids-Girls;Girls;Blue;;;Fashion;;2017;6-12M,FSMKJENS00000381,12-18M,FSMKJENS00000382,18-24M,FSMKJENS00000383,2-3Y,FSMKJENS00000384;1099.00;;;;;;;;zerotype;;Summer;;No
1831310;89669T DK WASH-Blue-1831310;Denim pant;Draft;Jeans;FS Mini Klub;Kids-Girls;Girls;Blue;;;Fashion;;2017;12-18M,FSMKJENS00000377,18-24M,FSMKJENS00000378,2-3Y,FSMKJENS00000379,6-12M,FSMKJENS00000380;1399.00;;;;;;;;zerotype;;Summer;;No
1831309;89539T DK WASH-Blue-1831309;Denim pant;Draft;Jeans;FS Mini Klub;Kids-Boys;Boys;Blue;;;Fashion;;2017;12-18M,FSMKJENS00000373,18-24M,FSMKJENS00000374,2-3Y,FSMKJENS00000375,6-12M,FSMKJENS00000376;1399.00;;;;;;;;zerotype;;Summer;;No
1831308;88TGBFB0408 LT WASH-Blue-1831308;Denim pant;Draft;Jeans;FS Mini Klub;Kids-Girls;Girls;Blue;;;Fashion;;2017;12-18M,FSMKJENS00000369,18-24M,FSMKJENS00000370,2-3Y,FSMKJENS00000371,3-4Y,FSMKJENS00000372;1199.00;;;;;;;;zerotype;;Summer;;No
1831307;88TGBFB0408 GREY-Grey-1831307;Denim pant;Draft;Jeans;FS Mini Klub;Kids-Girls;Girls;Grey;;;Fashion;;2017;12-18M,FSMKJENS00000365,18-24M,FSMKJENS00000366,2-3Y,FSMKJENS00000367,3-4Y,FSMKJENS00000368;1199.00;;;;;;;;zerotype;;Summer;;No
1831306;88TBBFB0664 LT WASH-Blue-1831306;Denim pant;Draft;Jeans;FS Mini Klub;Kids-Boys;Boys;Blue;;;Fashion;;2017;12-18M,FSMKJENS00000361,18-24M,FSMKJENS00000362,2-3Y,FSMKJENS00000363,3-4Y,FSMKJENS00000364;999.00;;;;;;;;zerotype;;Summer;;No
1831305;892040E GY MEL COM-Multi-1831305;Co-ordinate set;Draft;Night suits;FS Mini Klub;Kids-Girls;Girls;Multi;;;Fashion;;2016;0-3M,FSMKNTST00000481,3-6M,FSMKNTST00000482,6-9M,FSMKNTST00000483,9-12M,FSMKNTST00000484,12-18M,FSMKNTST00000485,18-24M,FSMKNTST00000486;999.00;;;;;;;;zerotype;;Winter;;No
1831304;90194F Y-Yellow-1831304;Non denim capri;Draft;Capris;FS Mini Klub;Kids-Girls;Girls;Yellow;;;Fashion;;2017;6-12M,FSMKCPRI00000085,12-18M,FSMKCPRI00000086,18-24M,FSMKCPRI00000087,2-3Y,FSMKCPRI00000088;799.00;;;;;;;;zerotype;;Summer;;No
1831303;90194F CO-Pink-1831303;Non denim capri;Draft;Capris;FS Mini Klub;Kids-Girls;Girls;Pink;;;Fashion;;2017;6-12M,FSMKCPRI00000081,12-18M,FSMKCPRI00000082,18-24M,FSMKCPRI00000083,2-3Y,FSMKCPRI00000084;799.00;;;;;;;;zerotype;;Summer;;No
1831302;90035F DK WASH-Blue-1831302;Denim Capri;Draft;Capris;FS Mini Klub;Kids-Girls;Girls;Blue;;;Fashion;;2017;6-12M,FSMKCPRI00000077,12-18M,FSMKCPRI00000078,18-24M,FSMKCPRI00000079,2-3Y,FSMKCPRI00000080;1099.00;;;;;;;;zerotype;;Summer;;No
1831301;90206F GREY-Grey-1831301;Denim shorts;Draft;Shorts;FS Mini Klub;Kids-Boys;Boys;Grey;;;Fashion;;2017;6-12M,FSMKSHOR00000528,12-18M,FSMKSHOR00000529,18-24M,FSMKSHOR00000530,2-3Y,FSMKSHOR00000531;899.00;;;;;;;;zerotype;;Summer;;No
1831300;90148F Y-Yellow-1831300;Non denim shorts;Draft;Shorts;FS Mini Klub;Kids-Boys;Boys;Yellow;;;Fashion;;2017;6-12M,FSMKSHOR00000524,12-18M,FSMKSHOR00000525,18-24M,FSMKSHOR00000526,2-3Y,FSMKSHOR00000527;799.00;;;;;;;;zerotype;;Summer;;No
1831299;89924E N-Blue-1831299;Legging;Draft;Leggings;FS Mini Klub;Kids-Girls;Girls;Blue;;;Core;;2017;2-3Y,FSMKLEGG00000214,6-12M,FSMKLEGG00000215,12-18M,FSMKLEGG00000216,18-24M,FSMKLEGG00000217;799.00;;;;;;;;zerotype;;Summer;;No
1831298;89922E MULTI-Multi-1831298;Pack of 2 leggings;Draft;Leggings;FS Mini Klub;Kids-Girls;Girls;Multi;;;Core;;2017;0-3M,FSMKLEGG00000208,12-18M,FSMKLEGG00000209,3-6M,FSMKLEGG00000210,6-9M,FSMKLEGG00000211,9-12M,FSMKLEGG00000212,Newborn,FSMKLEGG00000213;799.00;;;;;;;;zerotype;;Summer;;No
1831297;892211E MULTI-Multi-1831297;Pack of 2 leggings;Draft;Leggings;FS Mini Klub;Kids-Girls;Girls;Multi;;;Core;;2017;0-3M,FSMKLEGG00000201,12-18M,FSMKLEGG00000202,18-24M,FSMKLEGG00000203,3-6M,FSMKLEGG00000204,6-9M,FSMKLEGG00000205,9-12M,FSMKLEGG00000206,Newborn,FSMKLEGG00000207;799.00;;;;;;;;zerotype;;Summer;;No
1831296;892196E MULTI-Multi-1831296;Pack of 2 leggings;Draft;Leggings;FS Mini Klub;Kids-Girls;Girls;Multi;;;Core;;2017;0-3M,FSMKLEGG00000194,12-18M,FSMKLEGG00000195,18-24M,FSMKLEGG00000196,3-6M,FSMKLEGG00000197,6-9M,FSMKLEGG00000198,9-12M,FSMKLEGG00000199,Newborn,FSMKLEGG00000200;799.00;;;;;;;;zerotype;;Summer;;No
1831295;892153E MULTI-Multi-1831295;Pack of 2 leggings;Draft;Leggings;FS Mini Klub;Kids-Boys;Boys;Multi;;;Core;;2017;0-3M,FSMKLEGG00000187,12-18M,FSMKLEGG00000188,18-24M,FSMKLEGG00000189,3-6M,FSMKLEGG00000190,6-9M,FSMKLEGG00000191,9-12M,FSMKLEGG00000192,Newborn,FSMKLEGG00000193;799.00;;;;;;;;zerotype;;Summer;;No
1831294;90656E STRIPER-Multi-1831294;Romper with applique;Draft;Rompers;FS Mini Klub;Kids-Boys;Boys;Multi;;;Fashion;;2017;0-3M,FSMKRMPR00000347,3-6M,FSMKRMPR00000348,6-9M,FSMKRMPR00000349,9-12M,FSMKRMPR00000350;799.00;;;;;;;;zerotype;;Summer;;No
1831293;90450E RD-Multi-1831293;Pack of 2 rompers;Draft;Rompers;FS Mini Klub;Kids-Girls;Girls;Multi;;;Fashion;;2017;3-6M,FSMKRMPR00000341,6-9M,FSMKRMPR00000343,9-12M,FSMKRMPR00000344,Newborn,FSMKRMPR00000345,0-3M,FSMKRMPR00000346;749.00;;;;;;;;zerotype;;Summer;;No
1831292;89LR25 BL-Blue-1831292;Quilted romper;Draft;Rompers;FS Mini Klub;Kids-Boys;Boys;Blue;;;Fashion;;2016;0-3M,FSMKRMPR00000337,3-6M,FSMKRMPR00000338,6-9M,FSMKRMPR00000339,9-12M,FSMKRMPR00000340;1499.00;;;;;;;;zerotype;;Winter;;No
1831291;89LR23 BL-Blue-1831291;Hooded romper;Draft;Rompers;FS Mini Klub;Kids-Boys;Boys;Blue;;;Fashion;;2016;0-3M,FSMKRMPR00000333,3-6M,FSMKRMPR00000334,6-9M,FSMKRMPR00000335,9-12M,FSMKRMPR00000336;1399.00;;;;;;;;zerotype;;Winter;;No
1831290;89LR10 PI-Pink-1831290;Hooded quilted romper;Draft;Rompers;FS Mini Klub;Kids-Girls;Girls;Pink;;;Fashion;;2016;0-3M,FSMKRMPR00000329,3-6M,FSMKRMPR00000330,6-9M,FSMKRMPR00000331,9-12M,FSMKRMPR00000332;1499.00;;;;;;;;zerotype;;Winter;;No
1831289;89994E BL-Blue-1831289;Romper with applique;Draft;Rompers;FS Mini Klub;Kids-Boys;Boys;Blue;;;Fashion;;2016;0-3M,FSMKRMPR00000325,3-6M,FSMKRMPR00000326,6-9M,FSMKRMPR00000327,9-12M,FSMKRMPR00000328;999.00;;;;;;;;zerotype;;Winter;;No
1831288;89979E MULTI-Multi-1831288;Pack of 2 rompers;Draft;Rompers;FS Mini Klub;Kids-Girls;Girls;Multi;;;Fashion;;2016;0-3M,FSMKRMPR00000320,3-6M,FSMKRMPR00000321,6-9M,FSMKRMPR00000322,9-12M,FSMKRMPR00000323,Newborn,FSMKRMPR00000324;999.00;;;;;;;;zerotype;;Winter;;No
1831287;89889E MULTI-Multi-1831287;Reversable romper;Draft;Rompers;FS Mini Klub;Kids-Girls;Girls;Multi;;;Fashion;;2016;0-3M,FSMKRMPR00000316,3-6M,FSMKRMPR00000317,6-9M,FSMKRMPR00000318,9-12M,FSMKRMPR00000319;1499.00;;;;;;;;zerotype;;Winter;;No
1831286;89884E G-Green-1831286;Romper with applique;Draft;Rompers;FS Mini Klub;Kids-Girls;Girls;Green;;;Fashion;;2016;0-3M,FSMKRMPR00000312,3-6M,FSMKRMPR00000313,6-9M,FSMKRMPR00000314,9-12M,FSMKRMPR00000315;999.00;;;;;;;;zerotype;;Winter;;No
1831285;89844E N-Blue-1831285;Romper with applique;Draft;Rompers;FS Mini Klub;Kids-Boys;Boys;Blue;;;Fashion;;2016;0-3M,FSMKRMPR00000308,3-6M,FSMKRMPR00000309,6-9M,FSMKRMPR00000310,9-12M,FSMKRMPR00000311;999.00;;;;;;;;zerotype;;Winter;;No
1831284;89840E MULTI-Multi-1831284;Romper with applique;Draft;Rompers;FS Mini Klub;Kids-Boys;Boys;Multi;;;Fashion;;2016;0-3M,FSMKRMPR00000304,3-6M,FSMKRMPR00000305,6-9M,FSMKRMPR00000306,9-12M,FSMKRMPR00000307;999.00;;;;;;;;zerotype;;Winter;;No
1831283;89830E BLU MARL-Blue-1831283;Romper with applique;Draft;Rompers;FS Mini Klub;Kids-Boys;Boys;Blue;;;Fashion;;2016;0-3M,FSMKRMPR00000300,3-6M,FSMKRMPR00000301,6-9M,FSMKRMPR00000302,9-12M,FSMKRMPR00000303;999.00;;;;;;;;zerotype;;Winter;;No
1831282;89827E MULTI-Multi-1831282;Pack of 2 rompers;Draft;Rompers;FS Mini Klub;Kids-Boys;Boys;Multi;;;Fashion;;2016;0-3M,FSMKRMPR00000295,3-6M,FSMKRMPR00000296,6-9M,FSMKRMPR00000297,9-12M,FSMKRMPR00000298,Newborn,FSMKRMPR00000299;999.00;;;;;;;;zerotype;;Winter;;No
1831281;892188E PINK MARL-Pink-1831281;Romper;Draft;Rompers;FS Mini Klub;Kids-Girls;Girls;Pink;;;Fashion;;2016;0-3M,FSMKRMPR00000290,3-6M,FSMKRMPR00000291,6-9M,FSMKRMPR00000292,9-12M,FSMKRMPR00000293,Newborn,FSMKRMPR00000294;899.00;;;;;;;;zerotype;;Winter;;No
1831280;892170E MULTI-Multi-1831280;Reversible wadded romper;Draft;Rompers;FS Mini Klub;Kids-Boys;Boys;Multi;;;Fashion;;2016;0-3M,FSMKRMPR00000286,3-6M,FSMKRMPR00000287,6-9M,FSMKRMPR00000288,9-12M,FSMKRMPR00000289;1499.00;;;;;;;;zerotype;;Winter;;No
1831279;892146E R-Red-1831279;Romper with look back;Draft;Rompers;FS Mini Klub;Kids-Boys;Boys;Red;;;Fashion;;2016;0-3M,FSMKRMPR00000282,3-6M,FSMKRMPR00000283,6-9M,FSMKRMPR00000284,9-12M,FSMKRMPR00000285;899.00;;;;;;;;zerotype;;Winter;;No
1831278;892068E GY MEL COM-Grey-1831278;Quilted romper;Draft;Rompers;FS Mini Klub;Kids-Boys;Boys;Grey;;;Fashion;;2016;0-3M,FSMKRMPR00000278,3-6M,FSMKRMPR00000279,6-9M,FSMKRMPR00000280,9-12M,FSMKRMPR00000281;1299.00;;;;;;;;zerotype;;Winter;;No
1831277;892068E FG COM-Green-1831277;Quilted romper;Draft;Rompers;FS Mini Klub;Kids-Boys;Boys;Green;;;Fashion;;2016;0-3M,FSMKRMPR00000274,3-6M,FSMKRMPR00000275,6-9M,FSMKRMPR00000276,9-12M,FSMKRMPR00000277;1299.00;;;;;;;;zerotype;;Winter;;No
1831276;88EGORO0198 PI-Pink-1831276;Woven romper;Draft;Rompers;FS Mini Klub;Kids-Girls;Girls;Pink;;;Fashion;;2017;0-3M,FSMKRMPR00000269,3-6M,FSMKRMPR00000270,6-9M,FSMKRMPR00000271,9-12M,FSMKRMPR00000272,Newborn,FSMKRMPR00000273;999.00;;;;;;;;zerotype;;Summer;;No
1831275;88EBORO0189 MULTI-Multi-1831275;Romper with applique;Draft;Rompers;FS Mini Klub;Kids-Boys;Boys;Multi;;;Fashion;;2017;0-3M,FSMKRMPR00000264,3-6M,FSMKRMPR00000265,6-9M,FSMKRMPR00000266,9-12M,FSMKRMPR00000267,Newborn,FSMKRMPR00000268;899.00;;;;;;;;zerotype;;Summer;;No
1831274;88TGBSK0602 PINK PRINT-Pink-1831274;Woven skirt;Draft;Skirts;FS Mini Klub;Kids-Girls;Girls;Pink;;;Fashion;;2017;12-18M,FSMKSKRT00000173,18-24M,FSMKSKRT00000174,2-3Y,FSMKSKRT00000175,3-4Y,FSMKSKRT00000176;799.00;;;;;;;;zerotype;;Summer;;No
1831273;88TGBSK0357 PI-Pink-1831273;Woven skirt;Draft;Skirts;FS Mini Klub;Kids-Girls;Girls;Pink;;;Fashion;;2017;12-18M,FSMKSKRT00000169,18-24M,FSMKSKRT00000170,2-3Y,FSMKSKRT00000171,3-4Y,FSMKSKRT00000172;899.00;;;;;;;;zerotype;;Summer;;No
1831272;88TGBSK0357 BL-Blue-1831272;Woven skirt;Draft;Skirts;FS Mini Klub;Kids-Girls;Girls;Blue;;;Fashion;;2017;12-18M,FSMKSKRT00000165,18-24M,FSMKSKRT00000166,2-3Y,FSMKSKRT00000167,3-4Y,FSMKSKRT00000168;899.00;;;;;;;;zerotype;;Summer;;No
1831271;89LR26 BL-Blue-1831271;Quilted jacket;Draft;Jackets;FS Mini Klub;Kids-Boys;Boys;Blue;;;Fashion;;2016;0-3M,FSMKJCKT00000467,3-6M,FSMKJCKT00000468,6-9M,FSMKJCKT00000469,9-12M,FSMKJCKT00000470;1799.00;;;;;;;;zerotype;;Winter;;No
1831270;89LR07 PI-Pink-1831270;Cape quilted jacket;Draft;Jackets;FS Mini Klub;Kids-Boys;Boys;Pink;;;Fashion;;2017;0-3M,FSMKJCKT00000463,3-6M,FSMKJCKT00000464,6-9M,FSMKJCKT00000465,9-12M,FSMKJCKT00000466;999.00;;;;;;;;zerotype;;Summer;;No
1831269;89948E BL-Blue-1831269;Quilted jacket;Draft;Jackets;FS Mini Klub;Kids-Boys;Boys;Blue;;;Fashion;;2016;12-18M,FSMKJCKT00000459,3-6M,FSMKJCKT00000460,6-9M,FSMKJCKT00000461,9-12M,FSMKJCKT00000462;1199.00;;;;;;;;zerotype;;Winter;;No
1831268;89932E PI-Pink-1831268;Full sleeve jacket;Draft;Jackets;FS Mini Klub;Kids-Girls;Girls;Pink;;;Fashion;;2016;12-18M,FSMKJCKT00000455,3-6M,FSMKJCKT00000456,6-9M,FSMKJCKT00000457,9-12M,FSMKJCKT00000458;1199.00;;;;;;;;zerotype;;Winter;;No
1831267;89906E PI-Pink-1831267;Full sleeve jacket;Draft;Jackets;FS Mini Klub;Kids-Girls;Girls;Pink;;;Fashion;;2016;12-18M,FSMKJCKT00000451,3-6M,FSMKJCKT00000452,6-9M,FSMKJCKT00000453,9-12M,FSMKJCKT00000454;999.00;;;;;;;;zerotype;;Winter;;No
1831266;89901E MULTI-Multi-1831266;Poly jacket;Draft;Jackets;FS Mini Klub;Kids-Girls;Girls;Multi;;;Fashion;;2016;12-18M,FSMKJCKT00000447,3-6M,FSMKJCKT00000448,6-9M,FSMKJCKT00000449,9-12M,FSMKJCKT00000450;1699.00;;;;;;;;zerotype;;Winter;;No
1831265;89883E PALE YELLOW-Yellow-1831265;Full sleeve jacket;Draft;Jackets;FS Mini Klub;Kids-Girls;Girls;Yellow;;;Fashion;;2016;12-18M,FSMKJCKT00000443,3-6M,FSMKJCKT00000444,6-9M,FSMKJCKT00000445,9-12M,FSMKJCKT00000446;999.00;;;;;;;;zerotype;;Winter;;No
1831264;89874E PALE YELLOW-Yellow-1831264;Full sleeve jacket;Draft;Jackets;FS Mini Klub;Kids-Girls;Girls;Yellow;;;Fashion;;2016;12-18M,FSMKJCKT00000439,3-6M,FSMKJCKT00000440,6-9M,FSMKJCKT00000441,9-12M,FSMKJCKT00000442;999.00;;;;;;;;zerotype;;Winter;;No
1831263;892222E LT PINK-Pink-1831263;Cord velour fur lined jacket;Draft;Jackets;FS Mini Klub;Kids-Girls;Girls;Pink;;;Fashion;;2016;0-3M,FSMKJCKT00000435,3-6M,FSMKJCKT00000436,6-9M,FSMKJCKT00000437,9-12M,FSMKJCKT00000438;1699.00;;;;;;;;zerotype;;Winter;;No
1831262;892214E AQUA-Green-1831262;Full sleeve jacket;Draft;Jackets;FS Mini Klub;Kids-Girls;Girls;Green;;;Fashion;;2016;0-3M,FSMKJCKT00000429,12-18M,FSMKJCKT00000430,18-24M,FSMKJCKT00000431,3-6M,FSMKJCKT00000432,6-9M,FSMKJCKT00000433,9-12M,FSMKJCKT00000434;899.00;;;;;;;;zerotype;;Winter;;No
1831261;892177E MULTI-Multi-1831261;Fleece jacket;Draft;Jackets;FS Mini Klub;Kids-Boys;Boys;Multi;;;Fashion;;2016;0-3M,FSMKJCKT00000423,12-18M,FSMKJCKT00000424,18-24M,FSMKJCKT00000425,3-6M,FSMKJCKT00000426,6-9M,FSMKJCKT00000427,9-12M,FSMKJCKT00000428;999.00;;;;;;;;zerotype;;Winter;;No
1831260;892176E N-Blue-1831260;Cod velour wadded jacket;Draft;Jackets;FS Mini Klub;Kids-Boys;Boys;Blue;;;Fashion;;2016;0-3M,FSMKJCKT00000419,3-6M,FSMKJCKT00000420,6-9M,FSMKJCKT00000421,9-12M,FSMKJCKT00000422;1299.00;;;;;;;;zerotype;;Winter;;No
1831259;892159E BLU-Blue-1831259;Wadded Jacket;Draft;Jackets;FS Mini Klub;Kids-Boys;Boys;Blue;;;Fashion;;2016;0-3M,FSMKJCKT00000415,3-6M,FSMKJCKT00000416,6-9M,FSMKJCKT00000417,9-12M,FSMKJCKT00000418;1199.00;;;;;;;;zerotype;;Winter;;No
1831258;892158E MULTI-Multi-1831258;Jacket with loop back;Draft;Jackets;FS Mini Klub;Kids-Boys;Boys;Multi;;;Fashion;;2016;0-3M,FSMKJCKT00000409,12-18M,FSMKJCKT00000410,18-24M,FSMKJCKT00000411,3-6M,FSMKJCKT00000412,6-9M,FSMKJCKT00000413,9-12M,FSMKJCKT00000414;799.00;;;;;;;;zerotype;;Winter;;No
1831257;892067E FG COM-Green-1831257;Quilted jacket;Draft;Jackets;FS Mini Klub;Kids-Boys;Boys;Green;;;Fashion;;2016;3-6M,FSMKJCKT00000405,6-9M,FSMKJCKT00000406,9-12M,FSMKJCKT00000407,12-18M,FSMKJCKT00000408;1099.00;;;;;;;;zerotype;;Winter;;No
1831256;892066E FG COM-Green-1831256;Poly jacket;Draft;Jackets;FS Mini Klub;Kids-Boys;Boys;Green;;;Fashion;;2016;3-6M,FSMKJCKT00000400,6-9M,FSMKJCKT00000401,9-12M,FSMKJCKT00000402,12-18M,FSMKJCKT00000403,18-24M,FSMKJCKT00000404;1499.00;;;;;;;;zerotype;;Winter;;No
1831255;892047E OW C-White-1831255;Quilted jacket;Draft;Jackets;FS Mini Klub;Kids-Girls;Girls;White;;;Fashion;;2016;6-9M,FSMKJCKT00000396,9-12M,FSMKJCKT00000397,12-18M,FSMKJCKT00000398,3-6M,FSMKJCKT00000399;1099.00;;;;;;;;zerotype;;Winter;;No
1831254;892047E LT PINK COMBO-Pink-1831254;Quilted jacket;Draft;Jackets;FS Mini Klub;Kids-Girls;Girls;Pink;;;Fashion;;2016;6-9M,FSMKJCKT00000392,9-12M,FSMKJCKT00000393,12-18M,FSMKJCKT00000394,3-6M,FSMKJCKT00000395;1099.00;;;;;;;;zerotype;;Winter;;No
1831253;90911F Y-Yellow-1831253;Woven top;Draft;Tops;FS Mini Klub;Kids-Girls;Girls;Yellow;;;Fashion;;2017;6-12M,FSMKTOPS00000476,12-18M,FSMKTOPS00000477,18-24M,FSMKTOPS00000478,2-3Y,FSMKTOPS00000479;899.00;;;;;;;;zerotype;;Summer;;No
1831252;90854E PI-Pink-1831252;Woven blouse;Draft;Tops;FS Mini Klub;Kids-Girls;Girls;Pink;;;Fashion;;2017;0-3M,FSMKTOPS00000471,3-6M,FSMKTOPS00000472,6-9M,FSMKTOPS00000473,9-12M,FSMKTOPS00000474,12-18M,FSMKTOPS00000475;899.00;;;;;;;;zerotype;;Summer;;No
1831251;90004F W-White-1831251;Woven top;Draft;Tops;FS Mini Klub;Kids-Girls;Girls;White;;;Fashion;;2017;6-12M,FSMKTOPS00000467,12-18M,FSMKTOPS00000468,18-24M,FSMKTOPS00000469,2-3Y,FSMKTOPS00000470;799.00;;;;;;;;zerotype;;Summer;;No
1831250;89432T CO-Pink-1831250;Woven top;Draft;Tops;FS Mini Klub;Kids-Girls;Girls;Pink;;;Fashion;;2016;12-18M,FSMKTOPS00000463,18-24M,FSMKTOPS00000464,2-3Y,FSMKTOPS00000465,6-12M,FSMKTOPS00000466;999.00;;;;;;;;zerotype;;Winter;;No
1831249;89116T PI-Pink-1831249;Woven top;Draft;Tops;FS Mini Klub;Kids-Girls;Girls;Pink;;;Fashion;;2016;12-18M,FSMKTOPS00000459,18-24M,FSMKTOPS00000460,2-3Y,FSMKTOPS00000461,6-12M,FSMKTOPS00000462;799.00;;;;;;;;zerotype;;Winter;;No
1831248;89116T BL-Blue-1831248;Woven top;Draft;Tops;FS Mini Klub;Kids-Girls;Girls;Blue;;;Fashion;;2016;12-18M,FSMKTOPS00000455,18-24M,FSMKTOPS00000456,2-3Y,FSMKTOPS00000457,6-12M,FSMKTOPS00000458;799.00;;;;;;;;zerotype;;Winter;;No
1831247;891026E W-White-1831247;Woven tunic top;Draft;Tops;FS Mini Klub;Kids-Girls;Girls;White;;;Fashion;;2016;6-12M,FSMKTOPS00000451,12-18M,FSMKTOPS00000452,18-24M,FSMKTOPS00000453,2-3Y,FSMKTOPS00000454;899.00;;;;;;;;zerotype;;Winter;;No
1831246;88TGTWT0607 Y-Yellow-1831246;Sleeveless top;Draft;Tops;FS Mini Klub;Kids-Girls;Girls;Yellow;;;Fashion;;2017;12-18M,FSMKTOPS00000447,18-24M,FSMKTOPS00000448,2-3Y,FSMKTOPS00000449,3-4Y,FSMKTOPS00000450;749.00;;;;;;;;zerotype;;Summer;;No
1831245;88TGTWT0607 DK PINK-Pink-1831245;Sleeveless top;Draft;Tops;FS Mini Klub;Kids-Girls;Girls;Pink;;;Fashion;;2017;12-18M,FSMKTOPS00000443,18-24M,FSMKTOPS00000444,2-3Y,FSMKTOPS00000445,3-4Y,FSMKTOPS00000446;749.00;;;;;;;;zerotype;;Summer;;No
1831244;88TGTWT0505 W-White-1831244;Woven top;Draft;Tops;FS Mini Klub;Kids-Girls;Girls;White;;;Fashion;;2017;12-18M,FSMKTOPS00000439,18-24M,FSMKTOPS00000440,2-3Y,FSMKTOPS00000441,3-4Y,FSMKTOPS00000442;999.00;;;;;;;;zerotype;;Summer;;No
1831243;90072F CO-Pink-1831243;Woven Dress;Draft;Dresses;FS Mini Klub;Kids-Girls;Girls;Pink;;;Fashion;;2017;6-12M,FSMKDRSS00000864,12-18M,FSMKDRSS00000865,18-24M,FSMKDRSS00000866,2-3Y,FSMKDRSS00000867;899.00;;;;;;;;zerotype;;Summer;;No
1831242;90054F W-White-1831242;Woven Dress;Draft;Dresses;FS Mini Klub;Kids-Girls;Girls;White;;;Fashion;;2017;6-12M,FSMKDRSS00000860,12-18M,FSMKDRSS00000861,18-24M,FSMKDRSS00000862,2-3Y,FSMKDRSS00000863;1299.00;;;;;;;;zerotype;;Summer;;No
1831241;90019F N-Blue-1831241;Woven Dress;Draft;Dresses;FS Mini Klub;Kids-Girls;Girls;Blue;;;Fashion;;2017;6-12M,FSMKDRSS00000856,12-18M,FSMKDRSS00000857,18-24M,FSMKDRSS00000858,2-3Y,FSMKDRSS00000859;1099.00;;;;;;;;zerotype;;Summer;;No
1831240;90009F W-White-1831240;Woven Dress;Draft;Dresses;FS Mini Klub;Kids-Girls;Girls;White;;;Fashion;;2017;6-12M,FSMKDRSS00000852,12-18M,FSMKDRSS00000853,18-24M,FSMKDRSS00000854,2-3Y,FSMKDRSS00000855;1299.00;;;;;;;;zerotype;;Summer;;No
1831239;90008F MID BLUE-Blue-1831239;Woven Dress;Draft;Dresses;FS Mini Klub;Kids-Girls;Girls;Blue;;;Fashion;;2017;6-12M,FSMKDRSS00000848,12-18M,FSMKDRSS00000849,18-24M,FSMKDRSS00000850,2-3Y,FSMKDRSS00000851;1399.00;;;;;;;;zerotype;;Summer;;No
1831238;90007F PI-Multi-1831238;Top and pinny set;Draft;Dresses;FS Mini Klub;Kids-Girls;Girls;Multi;;;Fashion;;2017;6-12M,FSMKDRSS00000844,12-18M,FSMKDRSS00000845,18-24M,FSMKDRSS00000846,2-3Y,FSMKDRSS00000847;1599.00;;;;;;;;zerotype;;Summer;;No
1831237;90006F W-White-1831237;Woven Dress;Draft;Dresses;FS Mini Klub;Kids-Girls;Girls;White;;;Fashion;;2017;6-12M,FSMKDRSS00000840,12-18M,FSMKDRSS00000841,18-24M,FSMKDRSS00000842,2-3Y,FSMKDRSS00000843;999.00;;;;;;;;zerotype;;Summer;;No
1831236;89LR12 W-Multi-1831236;Dress with bloomer;Draft;Dresses;FS Mini Klub;Kids-Girls;Girls;Multi;;;Fashion;;2016;0-3M,FSMKDRSS00000836,3-6M,FSMKDRSS00000837,6-9M,FSMKDRSS00000838,9-12M,FSMKDRSS00000839;799.00;;;;;;;;zerotype;;Winter;;No
1831235;89933E PI-Pink-1831235;Woven dress;Draft;Dresses;FS Mini Klub;Kids-Girls;Girls;Pink;;;Fashion;;2016;6-12M,FSMKDRSS00000832,2-3Y,FSMKDRSS00000833,12-18M,FSMKDRSS00000834,18-24M,FSMKDRSS00000835;1399.00;;;;;;;;zerotype;;Winter;;No
1831234;89132T DK WASH-Blue-1831234;Woven dress;Draft;Dresses;FS Mini Klub;Kids-Girls;Girls;Blue;;;Fashion;;2016;12-18M,FSMKDRSS00000828,18-24M,FSMKDRSS00000829,2-3Y,FSMKDRSS00000830,6-12M,FSMKDRSS00000831;899.00;;;;;;;;zerotype;;Winter;;No
1831233;89119T BL-Blue-1831233;Woven dress;Draft;Dresses;FS Mini Klub;Kids-Girls;Girls;Blue;;;Fashion;;2016;12-18M,FSMKDRSS00000824,18-24M,FSMKDRSS00000825,2-3Y,FSMKDRSS00000826,6-12M,FSMKDRSS00000827;1399.00;;;;;;;;zerotype;;Winter;;No
1831232;88TGODR0446 PINK STRIPER-Pink-1831232;Knit jumpsuit;Draft;Dresses;FS Mini Klub;Kids-Girls;Girls;Pink;;;Fashion;;2017;12-18M,FSMKDRSS00000820,18-24M,FSMKDRSS00000821,2-3Y,FSMKDRSS00000822,3-4Y,FSMKDRSS00000823;749.00;;;;;;;;zerotype;;Summer;;No
1831231;90816E BL-Blue-1831231;Sleepsuit with applique;Draft;Sleepsuit;FS Mini Klub;Kids-Boys;Boys;Blue;;;Fashion;;2017;0-3M,FSMKSPST00000566,3-6M,FSMKSPST00000567,6-9M,FSMKSPST00000568,9-12M,FSMKSPST00000569,Newborn,FSMKSPST00000570;899.00;;;;;;;;zerotype;;Summer;;No
1831230;90803E YELLOW COMBO-Multi-1831230;Pack of 2 sleepsuit;Draft;Sleepsuit;FS Mini Klub;Kids-Girls;Girls;Multi;;;Fashion;;2017;0-3M,FSMKSPST00000561,3-6M,FSMKSPST00000562,6-9M,FSMKSPST00000563,9-12M,FSMKSPST00000564,Newborn,FSMKSPST00000565;899.00;;;;;;;;zerotype;;Summer;;No
1831229;90630E GREYMARL-Grey-1831229;Sleepsuit with applique;Draft;Sleepsuit;FS Mini Klub;Kids-Boys;Boys;Grey;;;Fashion;;2017;0-3M,FSMKSPST00000556,3-6M,FSMKSPST00000557,6-9M,FSMKSPST00000558,9-12M,FSMKSPST00000559,Newborn,FSMKSPST00000560;899.00;;;;;;;;zerotype;;Summer;;No
1831228;90279E MULTI-Multi-1831228;Pack of 2 sleepsuits;Draft;Sleepsuit;FS Mini Klub;Kids-Boys;Boys;Multi;;;Fashion;;2017;0-3M,FSMKSPST00000551,3-6M,FSMKSPST00000552,6-9M,FSMKSPST00000553,9-12M,FSMKSPST00000554,Newborn,FSMKSPST00000555;1099.00;;;;;;;;zerotype;;Summer;;No
1831227;89LR22 LT BLU-Blue-1831227;Sleepsuit with applique;Draft;Sleepsuit;FS Mini Klub;Kids-Boys;Boys;Blue;;;Fashion;;2016;0-3M,FSMKSPST00000546,3-6M,FSMKSPST00000547,6-9M,FSMKSPST00000548,9-12M,FSMKSPST00000549,Newborn,FSMKSPST00000550;999.00;;;;;;;;zerotype;;Winter;;No
1831226;89963E RD-Red-1831226;Sleepsuit with applique;Draft;Sleepsuit;FS Mini Klub;Kids-Girls;Girls;Red;;;Fashion;;2016;0-3M,FSMKSPST00000541,3-6M,FSMKSPST00000542,6-9M,FSMKSPST00000543,9-12M,FSMKSPST00000544,Newborn,FSMKSPST00000545;999.00;;;;;;;;zerotype;;Winter;;No
1831225;89888E MULTI-Multi-1831225;Pack of 2 sleepsuits;Draft;Sleepsuit;FS Mini Klub;Kids-Girls;Girls;Multi;;;Fashion;;2016;0-3M,FSMKSPST00000536,3-6M,FSMKSPST00000537,6-9M,FSMKSPST00000538,9-12M,FSMKSPST00000539,Newborn,FSMKSPST00000540;1299.00;;;;;;;;zerotype;;Winter;;No
1831224;89826E MULTI-Multi-1831224;Pack of 2 sleepsuits;Draft;Sleepsuit;FS Mini Klub;Kids-Boys;Boys;Multi;;;Fashion;;2016;0-3M,FSMKSPST00000531,3-6M,FSMKSPST00000532,6-9M,FSMKSPST00000533,9-12M,FSMKSPST00000534,Newborn,FSMKSPST00000535;1299.00;;;;;;;;zerotype;;Winter;;No
1831223;892223E MULTI-Multi-1831223;Pack of 2 sleepsuits;Draft;Sleepsuit;FS Mini Klub;Kids-Girls;Girls;Multi;;;Fashion;;2016;0-3M,FSMKSPST00000526,3-6M,FSMKSPST00000527,6-9M,FSMKSPST00000528,9-12M,FSMKSPST00000529,Newborn,FSMKSPST00000530;1299.00;;;;;;;;zerotype;;Winter;;No
1831222;892203E MULTI-Multi-1831222;Sleepsuit with applique;Draft;Sleepsuit;FS Mini Klub;Kids-Girls;Girls;Multi;;;Fashion;;2016;0-3M,FSMKSPST00000521,3-6M,FSMKSPST00000522,6-9M,FSMKSPST00000523,9-12M,FSMKSPST00000524,Newborn,FSMKSPST00000525;999.00;;;;;;;;zerotype;;Winter;;No
1831221;892147E BLU-Blue-1831221;Sleepsuit with applique;Draft;Sleepsuit;FS Mini Klub;Kids-Boys;Boys;Blue;;;Fashion;;2016;0-3M,FSMKSPST00000516,3-6M,FSMKSPST00000517,6-9M,FSMKSPST00000518,9-12M,FSMKSPST00000519,Newborn,FSMKSPST00000520;999.00;;;;;;;;zerotype;;Winter;;No
1831220;892128E MULTI-Multi-1831220;Sleepsuit with applique;Draft;Sleepsuit;FS Mini Klub;Kids-Boys;Boys;Multi;;;Fashion;;2016;0-3M,FSMKSPST00000511,3-6M,FSMKSPST00000512,6-9M,FSMKSPST00000513,9-12M,FSMKSPST00000514,Newborn,FSMKSPST00000515;999.00;;;;;;;;zerotype;;Winter;;No
1831219;88EGOSL0309 MULTI-Multi-1831219;Pack of 2 sleepsuits;Draft;Sleepsuit;FS Mini Klub;Kids-Girls;Girls;Multi;;;Fashion;;2017;0-3M,FSMKSPST00000506,3-6M,FSMKSPST00000507,6-9M,FSMKSPST00000508,9-12M,FSMKSPST00000509,Newborn,FSMKSPST00000510;1099.00;;;;;;;;zerotype;;Summer;;No
1831218;88EGOSL0200 PI-Pink-1831218;Sleepsuit with applique;Draft;Sleepsuit;FS Mini Klub;Kids-Girls;Girls;Pink;;;Fashion;;2017;0-3M,FSMKSPST00000501,3-6M,FSMKSPST00000502,6-9M,FSMKSPST00000503,9-12M,FSMKSPST00000504,Newborn,FSMKSPST00000505;899.00;;;;;;;;zerotype;;Summer;;No
1831217;88EGOSL0080 RD-Multi-1831217;Pack of 2 sleepsuits;Draft;Sleepsuit;FS Mini Klub;Kids-Girls;Girls;Multi;;;Fashion;;2017;3-6M,FSMKSPST00000496,6-9M,FSMKSPST00000497,9-12M,FSMKSPST00000498,Newborn,FSMKSPST00000499,0-3M,FSMKSPST00000500;899.00;;;;;;;;zerotype;;Summer;;No
1831216;88EBOSL0207 MULTI-Multi-1831216;Pack of 2 sleepsuits;Draft;Sleepsuit;FS Mini Klub;Kids-Boys;Boys;Multi;;;Fashion;;2017;0-3M,FSMKSPST00000491,3-6M,FSMKSPST00000492,6-9M,FSMKSPST00000493,9-12M,FSMKSPST00000494,Newborn,FSMKSPST00000495;1099.00;;;;;;;;zerotype;;Summer;;No
1831215;88EBOSL0060 G-Multi-1831215;Pack of 2 sleepsuits;Draft;Sleepsuit;FS Mini Klub;Kids-Boys;Boys;Multi;;;Fashion;;2017;0-3M,FSMKSPST00000486,3-6M,FSMKSPST00000487,6-9M,FSMKSPST00000488,9-12M,FSMKSPST00000489,Newborn,FSMKSPST00000490;899.00;;;;;;;;zerotype;;Summer;;No
1831214;90157F BEIGE-Beige-1831214;Shirt with full sleeve;Draft;Shirts;FS Mini Klub;Kids-Boys;Boys;Beige;;;Fashion;;2017;6-12M,FSMKSHRT00000334,12-18M,FSMKSHRT00000335,18-24M,FSMKSHRT00000336,2-3Y,FSMKSHRT00000337;899.00;;;;;;;;zerotype;;Summer;;No
1831213;90152F W-White-1831213;Shirt with full sleeve;Draft;Shirts;FS Mini Klub;Kids-Boys;Boys;White;;;Fashion;;2017;6-12M,FSMKSHRT00000330,12-18M,FSMKSHRT00000331,18-24M,FSMKSHRT00000332,2-3Y,FSMKSHRT00000333;899.00;;;;;;;;zerotype;;Summer;;No
1831212;90142F MULTI-Multi-1831212;Shirt with full sleeve;Draft;Shirts;FS Mini Klub;Kids-Boys;Boys;Multi;;;Fashion;;2017;6-12M,FSMKSHRT00000326,12-18M,FSMKSHRT00000327,18-24M,FSMKSHRT00000328,2-3Y,FSMKSHRT00000329;899.00;;;;;;;;zerotype;;Summer;;No
1831211;89950E BL-Blue-1831211;Woven shirt;Draft;Shirts;FS Mini Klub;Kids-Boys;Boys;Blue;;;Fashion;;2016;2-3Y,FSMKSHRT00000322,6-12M,FSMKSHRT00000323,12-18M,FSMKSHRT00000324,18-24M,FSMKSHRT00000325;999.00;;;;;;;;zerotype;;Winter;;No
1831210;89861E BL-Blue-1831210;Woven shirt;Draft;Shirts;FS Mini Klub;Kids-Boys;Boys;Blue;;;Fashion;;2016;2-3Y,FSMKSHRT00000318,12-18M,FSMKSHRT00000319,18-24M,FSMKSHRT00000320,6-12M,FSMKSHRT00000321;999.00;;;;;;;;zerotype;;Winter;;No
1831209;89585T IND-Blue-1831209;Woven shirt;Draft;Shirts;FS Mini Klub;Kids-Boys;Boys;Blue;;;Fashion;;2016;6-12M,FSMKSHRT00000314,12-18M,FSMKSHRT00000315,18-24M,FSMKSHRT00000316,2-3Y,FSMKSHRT00000317;999.00;;;;;;;;zerotype;;Winter;;No
1831208;89521T OFF WHITE-White-1831208;Woven shirt;Draft;Shirts;FS Mini Klub;Kids-Boys;Boys;White;;;Fashion;;2016;12-18M,FSMKSHRT00000310,18-24M,FSMKSHRT00000311,2-3Y,FSMKSHRT00000312,6-12M,FSMKSHRT00000313;999.00;;;;;;;;zerotype;;Winter;;No
1831207;89510T BL-Blue-1831207;Woven shirt;Draft;Shirts;FS Mini Klub;Kids-Boys;Boys;Blue;;;Fashion;;2016;12-18M,FSMKSHRT00000306,18-24M,FSMKSHRT00000307,2-3Y,FSMKSHRT00000308,6-12M,FSMKSHRT00000309;999.00;;;;;;;;zerotype;;Winter;;No
1831206;89506T N-Blue-1831206;Woven shirt;Draft;Shirts;FS Mini Klub;Kids-Boys;Boys;Blue;;;Fashion;;2016;12-18M,FSMKSHRT00000302,18-24M,FSMKSHRT00000303,2-3Y,FSMKSHRT00000304,6-12M,FSMKSHRT00000305;999.00;;;;;;;;zerotype;;Winter;;No
1831205;89196T MULTI-Multi-1831205;Woven shirt;Draft;Shirts;FS Mini Klub;Kids-Boys;Boys;Multi;;;Fashion;;2016;12-18M,FSMKSHRT00000298,18-24M,FSMKSHRT00000299,2-3Y,FSMKSHRT00000300,6-12M,FSMKSHRT00000301;1299.00;;;;;;;;zerotype;;Winter;;No
1831204;89145T RD-Red-1831204;Woven shirt;Draft;Shirts;FS Mini Klub;Kids-Boys;Boys;Red;;;Fashion;;2016;12-18M,FSMKSHRT00000294,18-24M,FSMKSHRT00000295,2-3Y,FSMKSHRT00000296,6-12M,FSMKSHRT00000297;999.00;;;;;;;;zerotype;;Winter;;No
1831203;891030E MULTI-Multi-1831203;Woven shirt;Draft;Shirts;FS Mini Klub;Kids-Boys;Boys;Multi;;;Fashion;;2016;2-3Y,FSMKSHRT00000290,12-18M,FSMKSHRT00000291,18-24M,FSMKSHRT00000292,6-12M,FSMKSHRT00000293;999.00;;;;;;;;zerotype;;Winter;;No
1831202;891029E RD-Red-1831202;Woven shirt;Draft;Shirts;FS Mini Klub;Kids-Girls;Girls;Red;;;Fashion;;2016;2-3Y,FSMKSHRT00000286,12-18M,FSMKSHRT00000287,18-24M,FSMKSHRT00000288,6-12M,FSMKSHRT00000289;899.00;;;;;;;;zerotype;;Winter;;No
1831201;89038T LIGHTWASH-Blue-1831201;Denim shirt;Draft;Shirts;FS Mini Klub;Kids-Boys;Boys;Blue;;;Fashion;;2016;12-18M,FSMKSHRT00000282,18-24M,FSMKSHRT00000283,2-3Y,FSMKSHRT00000284,6-12M,FSMKSHRT00000285;999.00;;;;;;;;zerotype;;Winter;;No
1831200;89996E RD-Red-1831200;Sweater;Draft;Sweaters;FS Mini Klub;Kids-Boys;Boys;Red;;;Fashion;;2016;6-12M,FSMKSWTR00000343,12-18M,FSMKSWTR00000344,18-24M,FSMKSWTR00000345,2-3Y,FSMKSWTR00000346;899.00;;;;;;;;zerotype;;Winter;;No
1831199;89996E BL-Blue-1831199;Sweater;Draft;Sweaters;FS Mini Klub;Kids-Boys;Boys;Blue;;;Fashion;;2016;6-12M,FSMKSWTR00000339,2-3Y,FSMKSWTR00000340,12-18M,FSMKSWTR00000341,18-24M,FSMKSWTR00000342;899.00;;;;;;;;zerotype;;Winter;;No
1831198;89953E BL-Blue-1831198;Sweater;Draft;Sweaters;FS Mini Klub;Kids-Boys;Boys;Blue;;;Fashion;;2016;12-18M,FSMKSWTR00000335,18-24M,FSMKSWTR00000336,2-3Y,FSMKSWTR00000337,6-12M,FSMKSWTR00000338;899.00;;;;;;;;zerotype;;Winter;;No
1831197;89862E MULTI-Multi-1831197;Sweater;Draft;Sweaters;FS Mini Klub;Kids-Girls;Girls;Multi;;;Fashion;;2016;12-18M,FSMKSWTR00000331,18-24M,FSMKSWTR00000332,2-3Y,FSMKSWTR00000333,6-12M,FSMKSWTR00000334;899.00;;;;;;;;zerotype;;Winter;;No
1831196;89654T ROSE-Pink-1831196;Sweater;Draft;Sweaters;FS Mini Klub;Kids-Girls;Girls;Pink;;;Fashion;;2016;12-18M,FSMKSWTR00000327,18-24M,FSMKSWTR00000328,2-3Y,FSMKSWTR00000329,6-12M,FSMKSWTR00000330;999.00;;;;;;;;zerotype;;Winter;;No
1831195;89654T OFF WHITE-White-1831195;Sweater;Draft;Sweaters;FS Mini Klub;Kids-Girls;Girls;White;;;Fashion;;2016;12-18M,FSMKSWTR00000323,18-24M,FSMKSWTR00000324,2-3Y,FSMKSWTR00000325,6-12M,FSMKSWTR00000326;999.00;;;;;;;;zerotype;;Winter;;No
1831194;892268E OFF WHITE-White-1831194;Wrap sweater;Draft;Sweaters;FS Mini Klub;Kids-Boys;Unisex;White;;;Fashion;;2016;0-3M,FSMKSWTR00000320,3-6M,FSMKSWTR00000321,Newborn,FSMKSWTR00000322;799.00;;;;;;;;zerotype;;Winter;;No
1831193;892268E BLU-Blue-1831193;Wrap sweater;Draft;Sweaters;FS Mini Klub;Kids-Boys;Boys;Blue;;;Fashion;;2016;0-3M,FSMKSWTR00000317,3-6M,FSMKSWTR00000318,Newborn,FSMKSWTR00000319;799.00;;;;;;;;zerotype;;Winter;;No
1831192;892267E BLUE STRIPER-Blue-1831192;Sweater;Draft;Sweaters;FS Mini Klub;Kids-Boys;Boys;Blue;;;Fashion;;2016;0-3M,FSMKSWTR00000313,3-6M,FSMKSWTR00000314,6-9M,FSMKSWTR00000315,9-12M,FSMKSWTR00000316;799.00;;;;;;;;zerotype;;Winter;;No
1831191;892183E N-Blue-1831191;Sweater;Draft;Sweaters;FS Mini Klub;Kids-Boys;Boys;Blue;;;Fashion;;2016;0-3M,FSMKSWTR00000309,3-6M,FSMKSWTR00000310,6-9M,FSMKSWTR00000311,9-12M,FSMKSWTR00000312;899.00;;;;;;;;zerotype;;Winter;;No
1831190;892085T YELLOW & BLUE-Multi-1831190;Sweater;Draft;Sweaters;FS Mini Klub;Kids-Boys;Boys;Multi;;;Fashion;;2016;12-18M,FSMKSWTR00000305,18-24M,FSMKSWTR00000306,2-3Y,FSMKSWTR00000307,3-4Y,FSMKSWTR00000308;999.00;;;;;;;;zerotype;;Winter;;No
1831189;892085T NAVY & RED-Multi-1831189;Sweater;Draft;Sweaters;FS Mini Klub;Kids-Boys;Boys;Multi;;;Fashion;;2016;12-18M,FSMKSWTR00000301,18-24M,FSMKSWTR00000302,2-3Y,FSMKSWTR00000303,3-4Y,FSMKSWTR00000304;999.00;;;;;;;;zerotype;;Winter;;No
1831188;892019E GY MARL-Grey-1831188;Full sleeve sweater;Draft;Sweaters;FS Mini Klub;Kids-Boys;Boys;Grey;;;Fashion;;2016;Newborn,FSMKSWTR00000298,0-3M,FSMKSWTR00000299,3-6M,FSMKSWTR00000300;799.00;;;;;;;;zerotype;;Winter;;No
1831187;892017E LT PINK-Pink-1831187;Full sleeve sweater;Draft;Sweaters;FS Mini Klub;Kids-Girls;Girls;Pink;;;Fashion;;2016;Newborn,FSMKSWTR00000295,0-3M,FSMKSWTR00000296,3-6M,FSMKSWTR00000297;799.00;;;;;;;;zerotype;;Winter;;No
1831186;892016E AQUA-Green-1831186;Full sleeve sweater;Draft;Sweaters;FS Mini Klub;Kids-Boys;Boys;Green;;;Fashion;;2016;Newborn,FSMKSWTR00000292,0-3M,FSMKSWTR00000293,3-6M,FSMKSWTR00000294;799.00;;;;;;;;zerotype;;Winter;;No
1831185;90354E MULTI-Multi-1831185;Pack of 3 front open vests;Draft;Tshirts;FS Mini Klub;Kids-Boys;Boys;Multi;;;Fashion;;2017;0-3M,FSMKTSHT00002204,3-6M,FSMKTSHT00002205,6-9M,FSMKTSHT00002206,9-12M,FSMKTSHT00002207,Newborn,FSMKTSHT00002208;749.00;;;;;;;;zerotype;;Summer;;No
1831184;89982E MULTI-Multi-1831184;Pack of 3 front open vests;Draft;Tshirts;FS Mini Klub;Kids-Boys;Boys;Multi;;;Fashion;;2016;0-3M,FSMKTSHT00002199,3-6M,FSMKTSHT00002200,6-9M,FSMKTSHT00002201,9-12M,FSMKTSHT00002202,Newborn,FSMKTSHT00002203;899.00;;;;;;;;zerotype;;Winter;;No
1831183;89865E MULTI-Multi-1831183;Pack of 3 front open vests;Draft;Tshirts;FS Mini Klub;Kids-Girls;Girls;Multi;;;Fashion;;2016;0-3M,FSMKTSHT00002194,3-6M,FSMKTSHT00002195,6-9M,FSMKTSHT00002196,9-12M,FSMKTSHT00002197,Newborn,FSMKTSHT00002198;899.00;;;;;;;;zerotype;;Winter;;No
1831182;90846E PI-Multi-1831182;Top and dungaree set;Draft;Clothing Set;FS Mini Klub;Kids-Girls;Girls;Multi;;;Fashion;;2017;0-3M,FSMKCLST00000586,3-6M,FSMKCLST00000587,6-9M,FSMKCLST00000588,9-12M,FSMKCLST00000589,12-18M,FSMKCLST00000590;1299.00;;;;;;;;zerotype;;Summer;;No
1831181;90597F LT WASH-Multi-1831181;Top and dungaree set;Draft;Clothing Set;FS Mini Klub;Kids-Girls;Girls;Multi;;;Fashion;;2017;6-12M,FSMKCLST00000582,12-18M,FSMKCLST00000583,18-24M,FSMKCLST00000584,2-3Y,FSMKCLST00000585;1799.00;;;;;;;;zerotype;;Summer;;No
1831180;90347E FUSCHIA-Multi-1831180;Top and dungaree set;Draft;Clothing Set;FS Mini Klub;Kids-Girls;Girls;Multi;;;Fashion;;2017;0-3M,FSMKCLST00000577,3-6M,FSMKCLST00000578,6-9M,FSMKCLST00000579,9-12M,FSMKCLST00000580,NB,FSMKCLST00000581;949.00;;;;;;;;zerotype;;Summer;;No
1831179;90017F LIME GREEN-Multi-1831179;Top and dungaree set;Draft;Clothing Set;FS Mini Klub;Kids-Girls;Girls;Multi;;;Fashion;;2017;6-12M,FSMKCLST00000573,12-18M,FSMKCLST00000574,18-24M,FSMKCLST00000575,2-3Y,FSMKCLST00000576;1599.00;;;;;;;;zerotype;;Summer;;No
1831178;892205E MULTI-Multi-1831178;Quilted dungaree set;Draft;Clothing Set;FS Mini Klub;Kids-Girls;Girls;Multi;;;Fashion;;2016;0-3M,FSMKCLST00000569,3-6M,FSMKCLST00000570,6-9M,FSMKCLST00000571,9-12M,FSMKCLST00000572;1299.00;;;;;;;;zerotype;;Winter;;No
1831177;892156E MULTI-Multi-1831177;Top and dungaree set;Draft;Clothing Set;FS Mini Klub;Kids-Boys;Boys;Multi;;;Fashion;;2016;0-3M,FSMKCLST00000565,3-6M,FSMKCLST00000566,6-9M,FSMKCLST00000567,9-12M,FSMKCLST00000568;1299.00;;;;;;;;zerotype;;Winter;;No
1831176;88TGODU0628 DK WASH-Blue-1831176;Denim Dungaree set;Draft;Clothing Set;FS Mini Klub;Kids-Girls;Girls;Blue;;;Fashion;;2017;12-18M,FSMKCLST00000561,18-24M,FSMKCLST00000562,2-3Y,FSMKCLST00000563,3-4Y,FSMKCLST00000564;1299.00;;;;;;;;zerotype;;Summer;;No
1831175;90900F W-Multi-1831175;Woven top and legging set;Draft;Clothing Set;FS Mini Klub;Kids-Girls;Girls;Multi;;;Fashion;;2017;6-12M,FSMKCLST00000557,12-18M,FSMKCLST00000558,18-24M,FSMKCLST00000559,2-3Y,FSMKCLST00000560;1299.00;;;;;;;;zerotype;;Summer;;No
1831174;90581F W-Multi-1831174;Top and bottom set;Draft;Clothing Set;FS Mini Klub;Kids-Girls;Girls;Multi;;;Fashion;;2017;6-12M,FSMKCLST00000553,12-18M,FSMKCLST00000554,18-24M,FSMKCLST00000555,2-3Y,FSMKCLST00000556;1199.00;;;;;;;;zerotype;;Summer;;No
1831173;90562F OR-Multi-1831173;Top and bottom set;Draft;Clothing Set;FS Mini Klub;Kids-Girls;Girls;Multi;;;Fashion;;2017;6-12M,FSMKCLST00000549,12-18M,FSMKCLST00000550,18-24M,FSMKCLST00000551,2-3Y,FSMKCLST00000552;999.00;;;;;;;;zerotype;;Summer;;No
1831172;90153F W-Multi-1831172;Top and bottom set;Draft;Clothing Set;FS Mini Klub;Kids-Boys;Boys;Multi;;;Fashion;;2017;6-12M,FSMKCLST00000545,12-18M,FSMKCLST00000546,18-24M,FSMKCLST00000547,2-3Y,FSMKCLST00000548;1599.00;;;;;;;;zerotype;;Summer;;No
1831171;90147F Y-Multi-1831171;Top and bottom set;Draft;Clothing Set;FS Mini Klub;Kids-Boys;Boys;Multi;;;Fashion;;2017;6-12M,FSMKCLST00000541,12-18M,FSMKCLST00000542,18-24M,FSMKCLST00000543,2-3Y,FSMKCLST00000544;1599.00;;;;;;;;zerotype;;Summer;;No
1831170;90103F Y-Multi-1831170;Top and bottom set;Draft;Clothing Set;FS Mini Klub;Kids-Boys;Boys;Multi;;;Fashion;;2017;6-12M,FSMKCLST00000537,12-18M,FSMKCLST00000538,18-24M,FSMKCLST00000539,2-3Y,FSMKCLST00000540;1399.00;;;;;;;;zerotype;;Summer;;No
1831169;90005F MID BLUE-Multi-1831169;Top and bottom set;Draft;Clothing Set;FS Mini Klub;Kids-Girls;Girls;Multi;;;Fashion;;2017;6-12M,FSMKCLST00000533,12-18M,FSMKCLST00000534,18-24M,FSMKCLST00000535,2-3Y,FSMKCLST00000536;1499.00;;;;;;;;zerotype;;Summer;;No
1831168;90001F W-Multi-1831168;Top and bottom set;Draft;Clothing Set;FS Mini Klub;Kids-Girls;Girls;Multi;;;Fashion;;2017;6-12M,FSMKCLST00000529,12-18M,FSMKCLST00000530,18-24M,FSMKCLST00000531,2-3Y,FSMKCLST00000532;1599.00;;;;;;;;zerotype;;Summer;;No
1831167;89900E PI-Multi-1831167;Top and skirt set;Draft;Clothing Set;FS Mini Klub;Kids-Girls;Girls;Multi;;;Fashion;;2016;12-18M,FSMKCLST00000525,18-24M,FSMKCLST00000526,6-12M,FSMKCLST00000527,2-3Y,FSMKCLST00000528;1399.00;;;;;;;;zerotype;;Winter;;No
1831166;89879E MULTI-Multi-1831166;Top and bottom set;Draft;Clothing Set;FS Mini Klub;Kids-Girls;Girls;Multi;;;Fashion;;2016;0-3M,FSMKCLST00000519,12-18M,FSMKCLST00000520,18-24M,FSMKCLST00000521,3-6M,FSMKCLST00000522,6-9M,FSMKCLST00000523,9-12M,FSMKCLST00000524;999.00;;;;;;;;zerotype;;Winter;;No
1831165;892060E BLUE COMBO-Multi-1831165;Co-ordinate set;Draft;Clothing Set;FS Mini Klub;Kids-Boys;Boys;Multi;;;Fashion;;2016;0-3M,FSMKCLST00000513,3-6M,FSMKCLST00000514,6-9M,FSMKCLST00000515,9-12M,FSMKCLST00000516,12-18M,FSMKCLST00000517,18-24M,FSMKCLST00000518;999.00;;;;;;;;zerotype;;Winter;;No
