Style ID;Vendor Article Number;Vendor Article Name;Active Status;Article type;Brand;Age Group;Gender;Base Colour;Colour1;Colour2;Fashion Type;Usage;Year;Size - SKU code pair;MRP;Style Description;Style Note;Materials and Care Description;Size and Fit Description;Size Chart Path;Product Display Name;Tags;Product Type;Classification Brand;Season;Comments;Upload Images
1868375;ALCT764-Navy Blue Sea Green-1868375;Ties;Draft;Ties;Alvaro Castagnino;Adults-Men;Men;;;;Fashion;;2017;Onesize,ALVRTIES00000946;799.00;;;;;;;;zerotype;;Summer;;No
1868372;ALCT763-Navy Blue Grey-1868372;Ties;Draft;Ties;Alvaro Castagnino;Adults-Men;Men;;;;Fashion;;2017;Onesize,ALVRTIES00000945;799.00;;;;;;;;zerotype;;Summer;;No
1868371;ALCT762-Multi-1868371;Ties;Draft;Ties;Alvaro Castagnino;Adults-Men;Men;;;;Fashion;;2017;Onesize,ALVRTIES00000944;799.00;;;;;;;;zerotype;;Summer;;No
1868369;ALCT761-Blue Grey-1868369;Ties;Draft;Ties;Alvaro Castagnino;Adults-Men;Men;;;;Fashion;;2017;Onesize,ALVRTIES00000943;799.00;;;;;;;;zerotype;;Summer;;No
1868368;ALCT759-Multi-1868368;Ties;Draft;Ties;Alvaro Castagnino;Adults-Men;Men;;;;Fashion;;2017;Onesize,ALVRTIES00000942;799.00;;;;;;;;zerotype;;Summer;;No
1868365;ALCT758-Red Grey-1868365;Ties;Draft;Ties;Alvaro Castagnino;Adults-Men;Men;;;;Fashion;;2017;Onesize,ALVRTIES00000941;799.00;;;;;;;;zerotype;;Summer;;No
1868364;ALCT757-Maroon Blue-1868364;Ties;Draft;Ties;Alvaro Castagnino;Adults-Men;Men;;;;Fashion;;2017;Onesize,ALVRTIES00000940;799.00;;;;;;;;zerotype;;Summer;;No
1868362;ALCT756-Maroon Grey-1868362;Ties;Draft;Ties;Alvaro Castagnino;Adults-Men;Men;;;;Fashion;;2017;Onesize,ALVRTIES00000939;799.00;;;;;;;;zerotype;;Summer;;No
1868360;ALCT755-Grey Multi-1868360;Ties;Draft;Ties;Alvaro Castagnino;Adults-Men;Men;;;;Fashion;;2017;Onesize,ALVRTIES00000938;799.00;;;;;;;;zerotype;;Summer;;No
1868358;ALCT754-Multi-1868358;Ties;Draft;Ties;Alvaro Castagnino;Adults-Men;Men;;;;Fashion;;2017;Onesize,ALVRTIES00000937;799.00;;;;;;;;zerotype;;Summer;;No
1868357;ALCT753-Orange Black-1868357;Ties;Draft;Ties;Alvaro Castagnino;Adults-Men;Men;;;;Fashion;;2017;Onesize,ALVRTIES00000936;799.00;;;;;;;;zerotype;;Summer;;No
1868356;ALCT752-Multi-1868356;Ties;Draft;Ties;Alvaro Castagnino;Adults-Men;Men;;;;Fashion;;2017;Onesize,ALVRTIES00000935;799.00;;;;;;;;zerotype;;Summer;;No
1868355;ALCT751-Red Black-1868355;Ties;Draft;Ties;Alvaro Castagnino;Adults-Men;Men;;;;Fashion;;2017;Onesize,ALVRTIES00000934;799.00;;;;;;;;zerotype;;Summer;;No
1868354;ALCT750-Red White-1868354;Ties;Draft;Ties;Alvaro Castagnino;Adults-Men;Men;;;;Fashion;;2017;Onesize,ALVRTIES00000933;799.00;;;;;;;;zerotype;;Summer;;No
1868353;ALCT749-Brown Multi-1868353;Ties;Draft;Ties;Alvaro Castagnino;Adults-Men;Men;;;;Fashion;;2017;Onesize,ALVRTIES00000932;799.00;;;;;;;;zerotype;;Summer;;No
1868352;ALCT748-Purple-1868352;Ties;Draft;Ties;Alvaro Castagnino;Adults-Men;Men;;;;Fashion;;2017;Onesize,ALVRTIES00000931;799.00;;;;;;;;zerotype;;Summer;;No
1868351;ALCT747-Black Beige-1868351;Ties;Draft;Ties;Alvaro Castagnino;Adults-Men;Men;;;;Fashion;;2017;Onesize,ALVRTIES00000930;799.00;;;;;;;;zerotype;;Summer;;No
1868350;ALCT746-Grey-1868350;Ties;Draft;Ties;Alvaro Castagnino;Adults-Men;Men;;;;Fashion;;2017;Onesize,ALVRTIES00000929;799.00;;;;;;;;zerotype;;Summer;;No
1868349;ALCT745-Multi-1868349;Ties;Draft;Ties;Alvaro Castagnino;Adults-Men;Men;;;;Fashion;;2017;Onesize,ALVRTIES00000928;799.00;;;;;;;;zerotype;;Summer;;No
1868348;ALCT744-Grey Multi-1868348;Ties;Draft;Ties;Alvaro Castagnino;Adults-Men;Men;;;;Fashion;;2017;Onesize,ALVRTIES00000927;799.00;;;;;;;;zerotype;;Summer;;No
1868347;ALCT743-Maroon Multi-1868347;Ties;Draft;Ties;Alvaro Castagnino;Adults-Men;Men;;;;Fashion;;2017;Onesize,ALVRTIES00000926;799.00;;;;;;;;zerotype;;Summer;;No
1868346;ALCT742-Brown Grey-1868346;Ties;Draft;Ties;Alvaro Castagnino;Adults-Men;Men;;;;Fashion;;2017;Onesize,ALVRTIES00000925;799.00;;;;;;;;zerotype;;Summer;;No
1868345;ALCT741-Blue Multi-1868345;Ties;Draft;Ties;Alvaro Castagnino;Adults-Men;Men;;;;Fashion;;2017;Onesize,ALVRTIES00000924;799.00;;;;;;;;zerotype;;Summer;;No
1868344;ALCT740-Purple Black-1868344;Ties;Draft;Ties;Alvaro Castagnino;Adults-Men;Men;;;;Fashion;;2017;Onesize,ALVRTIES00000923;799.00;;;;;;;;zerotype;;Summer;;No
1868343;ALCT739-Beige Multi-1868343;Ties;Draft;Ties;Alvaro Castagnino;Adults-Men;Men;;;;Fashion;;2017;Onesize,ALVRTIES00000922;799.00;;;;;;;;zerotype;;Summer;;No
1868342;ALCT737-Grey Multi-1868342;Ties;Draft;Ties;Alvaro Castagnino;Adults-Men;Men;;;;Fashion;;2017;Onesize,ALVRTIES00000921;799.00;;;;;;;;zerotype;;Summer;;No
1868341;ALCT736-Blue Multi-1868341;Ties;Draft;Ties;Alvaro Castagnino;Adults-Men;Men;;;;Fashion;;2017;Onesize,ALVRTIES00000920;799.00;;;;;;;;zerotype;;Summer;;No
1868340;ALCT735-Black Multi-1868340;Ties;Draft;Ties;Alvaro Castagnino;Adults-Men;Men;;;;Fashion;;2017;Onesize,ALVRTIES00000919;799.00;;;;;;;;zerotype;;Summer;;No
1868339;ALCT734-Brown-1868339;Ties;Draft;Ties;Alvaro Castagnino;Adults-Men;Men;;;;Fashion;;2017;Onesize,ALVRTIES00000918;799.00;;;;;;;;zerotype;;Summer;;No
1868338;ALCT733-White Black-1868338;Ties;Draft;Ties;Alvaro Castagnino;Adults-Men;Men;;;;Fashion;;2017;Onesize,ALVRTIES00000917;799.00;;;;;;;;zerotype;;Summer;;No
1868337;ALCT732-Blue-1868337;Ties;Draft;Ties;Alvaro Castagnino;Adults-Men;Men;;;;Fashion;;2017;Onesize,ALVRTIES00000916;799.00;;;;;;;;zerotype;;Summer;;No
1868336;ALCT731-Black Orange-1868336;Ties;Draft;Ties;Alvaro Castagnino;Adults-Men;Men;;;;Fashion;;2017;Onesize,ALVRTIES00000915;799.00;;;;;;;;zerotype;;Summer;;No
1868335;ALCT730-Yellow-1868335;Ties;Draft;Ties;Alvaro Castagnino;Adults-Men;Men;;;;Fashion;;2017;Onesize,ALVRTIES00000914;799.00;;;;;;;;zerotype;;Summer;;No
1868334;ALCT729-Red-1868334;Ties;Draft;Ties;Alvaro Castagnino;Adults-Men;Men;;;;Fashion;;2017;Onesize,ALVRTIES00000913;799.00;;;;;;;;zerotype;;Summer;;No
1868333;ALCT727-Beige Multi-1868333;Ties;Draft;Ties;Alvaro Castagnino;Adults-Men;Men;;;;Fashion;;2017;Onesize,ALVRTIES00000912;799.00;;;;;;;;zerotype;;Summer;;No
1868332;ALCT726-Multi-1868332;Ties;Draft;Ties;Alvaro Castagnino;Adults-Men;Men;;;;Fashion;;2017;Onesize,ALVRTIES00000911;799.00;;;;;;;;zerotype;;Summer;;No
1868331;ALCT725-Blue Multi-1868331;Ties;Draft;Ties;Alvaro Castagnino;Adults-Men;Men;;;;Fashion;;2017;Onesize,ALVRTIES00000910;799.00;;;;;;;;zerotype;;Summer;;No
1868330;ALCT724-Purple-1868330;Ties;Draft;Ties;Alvaro Castagnino;Adults-Men;Men;;;;Fashion;;2017;Onesize,ALVRTIES00000909;799.00;;;;;;;;zerotype;;Summer;;No
1868329;ALCT723-Brown-1868329;Ties;Draft;Ties;Alvaro Castagnino;Adults-Men;Men;;;;Fashion;;2017;Onesize,ALVRTIES00000908;799.00;;;;;;;;zerotype;;Summer;;No
1868328;ALCT722-Yellow-1868328;Ties;Draft;Ties;Alvaro Castagnino;Adults-Men;Men;;;;Fashion;;2017;Onesize,ALVRTIES00000907;799.00;;;;;;;;zerotype;;Summer;;No
1868327;ALCT720-Navy Blue Multi-1868327;Ties;Draft;Ties;Alvaro Castagnino;Adults-Men;Men;;;;Fashion;;2017;Onesize,ALVRTIES00000906;799.00;;;;;;;;zerotype;;Summer;;No
1868326;ALCT719-Navy Blue Pink-1868326;Ties;Draft;Ties;Alvaro Castagnino;Adults-Men;Men;;;;Fashion;;2017;Onesize,ALVRTIES00000905;799.00;;;;;;;;zerotype;;Summer;;No
1868325;ALCT718-Navy Blue Sea Green-1868325;Ties;Draft;Ties;Alvaro Castagnino;Adults-Men;Men;;;;Fashion;;2017;Onesize,ALVRTIES00000904;799.00;;;;;;;;zerotype;;Summer;;No
1868324;ALCT717-Maroon Multi-1868324;Ties;Draft;Ties;Alvaro Castagnino;Adults-Men;Men;;;;Fashion;;2017;Onesize,ALVRTIES00000903;799.00;;;;;;;;zerotype;;Summer;;No
1868323;ALCT716-Black White-1868323;Ties;Draft;Ties;Alvaro Castagnino;Adults-Men;Men;;;;Fashion;;2017;Onesize,ALVRTIES00000902;799.00;;;;;;;;zerotype;;Summer;;No
1868322;ALCT715-Black Multi-1868322;Ties;Draft;Ties;Alvaro Castagnino;Adults-Men;Men;;;;Fashion;;2017;Onesize,ALVRTIES00000901;799.00;;;;;;;;zerotype;;Summer;;No
1868321;ALCT714-Red White-1868321;Ties;Draft;Ties;Alvaro Castagnino;Adults-Men;Men;;;;Fashion;;2017;Onesize,ALVRTIES00000900;799.00;;;;;;;;zerotype;;Summer;;No
1868320;ALCT713-Purple Multi-1868320;Ties;Draft;Ties;Alvaro Castagnino;Adults-Men;Men;;;;Fashion;;2017;Onesize,ALVRTIES00000899;799.00;;;;;;;;zerotype;;Summer;;No
1868319;ALCT712-Multi-1868319;Ties;Draft;Ties;Alvaro Castagnino;Adults-Men;Men;;;;Fashion;;2017;Onesize,ALVRTIES00000898;799.00;;;;;;;;zerotype;;Summer;;No
1868318;ALCT711-Blue Multi-1868318;Ties;Draft;Ties;Alvaro Castagnino;Adults-Men;Men;;;;Fashion;;2017;Onesize,ALVRTIES00000897;799.00;;;;;;;;zerotype;;Summer;;No
