Style ID;Vendor Article Number;Vendor Article Name;Active Status;Article type;Brand;Age Group;Gender;Base Colour;Colour1;Colour2;Fashion Type;Usage;Year;Size - SKU code pair;MRP;Style Description;Style Note;Materials and Care Description;Size and Fit Description;Size Chart Path;Product Display Name;Tags;Product Type;Classification Brand;Season;Comments;Upload Images
1875416;ZIZATP412AMMYLW-Mustard-1875416;ZIZATP412AMMYLW;Draft;Tops;Zivame;Adults-Women;Women;;;;Fashion;;2017;S,ZVMETOPS00000436,L,ZVMETOPS00000437,M,ZVMETOPS00000438;895.00;;;;;;;;zerotype;;Spring;;No
1875415;ZIZATP409AMMYLW-Yellow-1875415;ZIZATP409AMMYLW;Draft;Tops;Zivame;Adults-Women;Women;;;;Fashion;;2017;S,ZVMETOPS00000433,L,ZVMETOPS00000434,M,ZVMETOPS00000435;995.00;;;;;;;;zerotype;;Spring;;No
1875414;ZIZATP422CMMYLW-Yellow-1875414;ZIZATP422CMMYLW;Draft;Tops;Zivame;Adults-Women;Women;;;;Fashion;;2017;S,ZVMETOPS00000430,L,ZVMETOPS00000431,M,ZVMETOPS00000432;995.00;;;;;;;;zerotype;;Spring;;No
1875413;ZI0ZATP425PRUST-Rust-1875413;ZI0ZATP425PRUST;Draft;Tops;Zivame;Adults-Women;Women;;;;Fashion;;2017;S,ZVMETOPS00000426,L,ZVMETOPS00000427,M,ZVMETOPS00000428,XS,ZVMETOPS00000429;895.00;;;;;;;;zerotype;;Spring;;No
1875412;ZI0ZATP311RSPRT-Blue-1875412;ZI0ZATP311RSPRT;Draft;Tops;Zivame;Adults-Women;Women;;;;Fashion;;2017;S,ZVMETOPS00000422,L,ZVMETOPS00000423,M,ZVMETOPS00000424,XL,ZVMETOPS00000425;1395.00;;;;;;;;zerotype;;Spring;;No
1875411;ZI0ZATP312AGREN-Green-1875411;ZI0ZATP312AGREN;Draft;Tops;Zivame;Adults-Women;Women;;;;Fashion;;2017;L,ZVMETOPS00000418,M,ZVMETOPS00000419,2XL,ZVMETOPS00000420,XL,ZVMETOPS00000421;1395.00;;;;;;;;zerotype;;Spring;;No
1875410;ZIZSTP102ATNBNZ-Beige-1875410;ZIZSTP102ATNBNZ;Draft;Tops;Zivame;Adults-Women;Women;;;;Fashion;;2017;S,ZVMETOPS00000415,M,ZVMETOPS00000416,XS,ZVMETOPS00000417;1199.00;;;;;;;;zerotype;;Spring;;No
1875409;ZIZSTP102BENPIN-Coral-1875409;ZIZSTP102BENPIN;Draft;Tops;Zivame;Adults-Women;Women;;;;Fashion;;2017;S,ZVMETOPS00000412,M,ZVMETOPS00000413,XS,ZVMETOPS00000414;1199.00;;;;;;;;zerotype;;Spring;;No
1875408;ZIZSUTP45BIBLMA-Pink-1875408;ZIZSUTP45BIBLMA;Draft;Tops;Zivame;Adults-Women;Women;;;;Fashion;;2017;S,ZVMETOPS00000409,L,ZVMETOPS00000410,M,ZVMETOPS00000411;745.00;;;;;;;;zerotype;;Spring;;No
1875407;ZIZATP042BDGREY-Grey-1875407;ZIZATP042BDGREY;Draft;Tops;Zivame;Adults-Women;Women;;;;Fashion;;2017;S,ZVMETOPS00000405,L,ZVMETOPS00000406,M,ZVMETOPS00000407,XS,ZVMETOPS00000408;1295.00;;;;;;;;zerotype;;Spring;;No
1875406;ZIZATP041JFSLMN-Beige-1875406;ZIZATP041JFSLMN;Draft;Tops;Zivame;Adults-Women;Women;;;;Fashion;;2017;S,ZVMETOPS00000402,L,ZVMETOPS00000403,M,ZVMETOPS00000404;755.00;;;;;;;;zerotype;;Spring;;No
1875405;ZI00ZATP02OLBLU-Grey-1875405;ZI00ZATP02OLBLU;Draft;Tops;Zivame;Adults-Women;Women;;;;Fashion;;2017;S,ZVMETOPS00000399,L,ZVMETOPS00000400,M,ZVMETOPS00000401;1255.00;;;;;;;;zerotype;;Spring;;No
