Style ID;Vendor Article Number;Vendor Article Name;Active Status;Article type;Brand;Age Group;Gender;Base Colour;Colour1;Colour2;Fashion Type;Usage;Year;Size - SKU code pair;MRP;Style Description;Style Note;Materials and Care Description;Size and Fit Description;Size Chart Path;Product Display Name;Tags;Product Type;Classification Brand;Season;Comments;Upload Images
2409652;ATKC517S02409-Grey-2409652;Tshirts;Draft;Tshirts;Solly Sport;Adults-Men;Men;Grey;;;Fashion;Casual;2017;L,SLSPTSHT00001253,M,SLSPTSHT00001254,3XL,SLSPTSHT00001255,S,SLSPTSHT00001256,XXL,SLSPTSHT00001257,XL,SLSPTSHT00001258;999.00;;;<p>100% Cotton</p>;;;NA;;zerotype;;Winter;;No
2409650;ATKC517S02419-Brown-2409650;Tshirts;Draft;Tshirts;Solly Sport;Adults-Men;Men;Brown;;;Fashion;Casual;2017;L,SLSPTSHT00001247,M,SLSPTSHT00001248,S,SLSPTSHT00001249,3XL,SLSPTSHT00001250,XXL,SLSPTSHT00001251,XL,SLSPTSHT00001252;999.00;;;<p>100% Cotton</p>;;;NA;;zerotype;;Winter;;No
2409648;ATKP517S02346-Black-2409648;Tshirts;Draft;Tshirts;Solly Sport;Adults-Men;Men;Black;;;Fashion;Casual;2017;XXL,SLSPTSHT00001241,S,SLSPTSHT00001242,3XL,SLSPTSHT00001243,XL,SLSPTSHT00001244,L,SLSPTSHT00001245,M,SLSPTSHT00001246;1699.00;;;<p>100% Cotton</p>;;;NA;;zerotype;;Winter;;No
2409645;ATKC517S02415-White-2409645;Tshirts;Draft;Tshirts;Solly Sport;Adults-Men;Men;White;;;Fashion;Casual;2017;S,SLSPTSHT00001235,XXL,SLSPTSHT00001236,XL,SLSPTSHT00001237,L,SLSPTSHT00001238,M,SLSPTSHT00001239,3XL,SLSPTSHT00001240;999.00;;;<p>100% Cotton</p>;;;NA;;zerotype;;Winter;;No
2409643;ATKC517S02397-White-2409643;Tshirts;Draft;Tshirts;Solly Sport;Adults-Men;Men;White;;;Fashion;Casual;2017;S,SLSPTSHT00001229,XXL,SLSPTSHT00001230,XL,SLSPTSHT00001231,L,SLSPTSHT00001232,M,SLSPTSHT00001233,3XL,SLSPTSHT00001234;899.00;;;<p>100% Cotton</p>;;;NA;;zerotype;;Winter;;No
2409641;ATKP517S02339-Red-2409641;Tshirts;Draft;Tshirts;Solly Sport;Adults-Men;Men;Red;;;Fashion;Casual;2017;3XL,SLSPTSHT00001223,XXL,SLSPTSHT00001224,XL,SLSPTSHT00001225,L,SLSPTSHT00001226,M,SLSPTSHT00001227,S,SLSPTSHT00001228;1399.00;;;<p>100% Cotton</p>;;;NA;;zerotype;;Winter;;No
2409638;ATKP517S02284-Orange-2409638;Tshirts;Draft;Tshirts;Solly Sport;Adults-Men;Men;Orange;;;Fashion;Casual;2017;L,SLSPTSHT00001217,M,SLSPTSHT00001218,S,SLSPTSHT00001219,3XL,SLSPTSHT00001220,XXL,SLSPTSHT00001221,XL,SLSPTSHT00001222;1949.00;;;<p>100% Cotton</p>;;;NA;;zerotype;;Winter;;No
2409636;ATKP517S02290-Black-2409636;Tshirts;Draft;Tshirts;Solly Sport;Adults-Men;Men;Black;;;Fashion;Casual;2017;S,SLSPTSHT00001211,XXL,SLSPTSHT00001212,XL,SLSPTSHT00001213,L,SLSPTSHT00001214,M,SLSPTSHT00001215,3XL,SLSPTSHT00001216;1949.00;;;<p>100% Cotton</p>;;;NA;;zerotype;;Winter;;No
2409634;ATSF517S03178-Navy Blue-2409634;Shirts;Draft;Shirts;Solly Sport;Adults-Men;Men;Navy Blue;;;Fashion;Casual;2017;48,SLSPSHRT00000628,46,SLSPSHRT00000629,44,SLSPSHRT00000630,42,SLSPSHRT00000631,40,SLSPSHRT00000632,39,SLSPSHRT00000633,38,SLSPSHRT00000634;2049.00;;;<p>100% Cotton</p>;;;NA;;zerotype;;Winter;;No
