Style ID;Vendor Article Number;Vendor Article Name;Active Status;Article type;Brand;Age Group;Gender;Base Colour;Colour1;Colour2;Fashion Type;Usage;Year;Size - SKU code pair;MRP;Style Description;Style Note;Materials and Care Description;Size and Fit Description;Size Chart Path;Product Display Name;Tags;Product Type;Classification Brand;Season;Comments;Upload Images
2128828;8901030580048-8901030580048-2128828;Lakme Lip Love Lip Care, Tangerine, 3.8 g;Draft;Lip Care;Lakme;Adults-Women;Women;;;;Core;;2017;3.8gm,LAKMLPCE00000005;200.00;;;;;;;;zerotype;;Fall;;No
2128826;8901030661044-8901030661044-2128826;Dove Invigorating Ritual Body Lotion 250ml;Draft;Body Lotion;Dove;Adults-Women;Women;;;;Core;;2017;250ml,DOVEBYLN00000014;299.00;;;;;;;;zerotype;;Fall;;No
2128825;8901030661037-8901030661037-2128825;Dove Invigorating Ritual Body Lotion 400ml;Draft;Body Lotion;Dove;Adults-Women;Women;;;;Core;;2017;400ml,DOVEBYLN00000013;399.00;;;;;;;;zerotype;;Fall;;No
2128824;8901030661013-8901030661013-2128824;Dove Restoring Ritual Body Lotion 250ml;Draft;Body Lotion;Dove;Adults-Women;Women;;;;Core;;2017;250ml,DOVEBYLN00000012;299.00;;;;;;;;zerotype;;Fall;;No
2128823;8901030661006-8901030661006-2128823;Dove Restoring Ritual Body Lotion 400ml;Draft;Body Lotion;Dove;Adults-Women;Women;;;;Core;;2017;400ml,DOVEBYLN00000011;399.00;;;;;;;;zerotype;;Fall;;No
2128822;8901030660986-8901030660986-2128822;Dove Glowing Ritual Body Lotion 250ml;Draft;Body Lotion;Dove;Adults-Women;Women;;;;Core;;2017;250ml,DOVEBYLN00000010;299.00;;;;;;;;zerotype;;Fall;;No
2128821;8901030660979-8901030660979-2128821;Dove Glowing Ritual Body lotion 400ml;Draft;Body Lotion;Dove;Adults-Women;Women;;;;Core;;2017;400ml,DOVEBYLN00000009;399.00;;;;;;;;zerotype;;Fall;;No
2128819;8901030645617-8901030645617-2128819;Lakme Absolute Precision Eye Artist Eyebrow Pencil, Dark Brown, 0.35 g;Draft;Eyeliner;Lakme;Adults-Women;Women;;;;Core;;2017;0.35gm,LAKMEYLN00000066;600.00;;;;;;;;zerotype;;Fall;;No
2128818;8901030645600-8901030645600-2128818;Lakme Absolute Precision Eye Artist Eyebrow Pencil, Natural Black, 0.35 g;Draft;Eyeliner;Lakme;Adults-Women;Women;;;;Core;;2017;0.35gm,LAKMEYLN00000065;600.00;;;;;;;;zerotype;;Fall;;No
2128817;8901030644498-8901030644498-2128817;Lakme Absolute Forever Silk Lip Liner, Magenta, 0.35 g;Draft;Lip Liner;Lakme;Adults-Women;Women;;;;Core;;2017;0.35gm,LAKMLPLN00000023;500.00;;;;;;;;zerotype;;Fall;;No
2128816;8901030644467-8901030644467-2128816;Lakme Absolute Forever Silk Lip Liner, Vermilion, 0.35 g;Draft;Lip Liner;Lakme;Adults-Women;Women;;;;Core;;2017;0.35gm,LAKMLPLN00000022;500.00;;;;;;;;zerotype;;Fall;;No
2127546;PSW51601156-MediumgreyWithGreen-2127546;PSW51601156;Draft;Sweaters;Peter England Casuals;Adults-Men;Men;;;;Fashion;;2016;M,PEDCSWTR00000426,L,PEDCSWTR00000427,S,PEDCSWTR00000428,XXL,PEDCSWTR00000429,XL,PEDCSWTR00000430;1899.00;;;<p>100%Acrylic</p>;;;;;zerotype;;Winter;;No
2127531;PSW51601081-MediumYellowWithYellow-2127531;PSW51601081;Draft;Sweaters;Peter England Casuals;Adults-Men;Men;;;;Fashion;;2016;M,PEDCSWTR00000364,XL,PEDCSWTR00000365,S,PEDCSWTR00000366,L,PEDCSWTR00000367,XXL,PEDCSWTR00000368;1899.00;;;<p>100%Acrylic</p>;;;;;zerotype;;Winter;;No
2127522;ESW51604314-MediumgreyWithblue-2127522;ESW51604314;Draft;Sweaters;Peter England Casuals;Adults-Men;Men;;;;Fashion;;2016;M,PEDCSWTR00000325,L,PEDCSWTR00000326,XXL,PEDCSWTR00000327,XL,PEDCSWTR00000328,S,PEDCSWTR00000329;2199.00;;;<p>100%Acrylic</p>;;;;;zerotype;;Winter;;No
2127510;ESW51604248-LightgreyWithgrey-2127510;ESW51604248;Draft;Sweaters;Peter England Casuals;Adults-Men;Men;;;;Fashion;;2016;XL,PEDCSWTR00000275,XXL,PEDCSWTR00000276,M,PEDCSWTR00000277,L,PEDCSWTR00000278;2499.00;;;<p>100%Acrylic</p>;;;;;zerotype;;Winter;;No
2117633;P10101109162383-Grey-2117633;Tshirts;Draft;Tshirts;People;Adults-Men;Men;;;;Fashion;;2016;L,PEPLTSHT00008815,M,PEPLTSHT00008816,S,PEPLTSHT00008817,XL,PEPLTSHT00008818,XXL,PEPLTSHT00008819;399.00;;;<p>Machine Wash</p>;;;;;zerotype;;Spring;;No
2104155;PSF517011068-Grey-2104155;PSF517011068;Draft;Shirts;Peter England;Adults-Men;Men;Grey;;;Fashion;;2017;38,PTENSHRT00022550,39,PTENSHRT00022551,40,PTENSHRT00022552,42,PTENSHRT00022553,44,PTENSHRT00022554;999.00;;;<p>55%Polyester45%Cotton</p>;;;;;zerotype;;Fall;;No
2101543;S759BKWH-MULTICOLOURS-2101543;SANDA Watches;Draft;Watches;SANDA;Adults-Men;Men;;;;Fashion;;2017;Onesize,SNDAWTCH00000170;3199.00;;;;;;;;zerotype;;Winter;;No
2098858;2551612414-Beige-2098858;Steven;Draft;Flip Flops;Flying Machine;Adults-Men;Men;;;;Fashion;;2017;UK10,FLYMFLFP00000041,UK11,FLYMFLFP00000042,UK6,FLYMFLFP00000043,UK7,FLYMFLFP00000044,UK8,FLYMFLFP00000045,UK9,FLYMFLFP00000046;899.00;;;<p>NON LEATHER</p>;;;;;zerotype;;Winter;;No
2098857;2551612405-Black-2098857;Steven;Draft;Flip Flops;Flying Machine;Adults-Men;Men;;;;Fashion;;2017;UK10,FLYMFLFP00000035,UK11,FLYMFLFP00000036,UK6,FLYMFLFP00000037,UK7,FLYMFLFP00000038,UK8,FLYMFLFP00000039,UK9,FLYMFLFP00000040;899.00;;;<p>NON LEATHER</p>;;;;;zerotype;;Winter;;No
2098852;2551611874-Olive-2098852;Eric;Draft;Flip Flops;Flying Machine;Adults-Men;Men;;;;Fashion;;2017;UK10,FLYMFLFP00000007,UK11,FLYMFLFP00000008,UK6,FLYMFLFP00000009,UK7,FLYMFLFP00000010,UK8,FLYMFLFP00000011,UK9,FLYMFLFP00000012;799.00;;;<p>TEXTILE</p>;;;;;zerotype;;Winter;;No
2098851;2551611872-Green-2098851;Eric;Draft;Flip Flops;Flying Machine;Adults-Men;Men;;;;Fashion;;2017;UK10,FLYMFLFP00000001,UK11,FLYMFLFP00000002,UK6,FLYMFLFP00000003,UK7,FLYMFLFP00000004,UK8,FLYMFLFP00000005,UK9,FLYMFLFP00000006;799.00;;;<p>TEXTILE</p>;;;;;zerotype;;Winter;;No
2098837;2551610848-Orange-2098837;Matthew;Draft;Casual Shoes;Flying Machine;Adults-Men;Men;;;;Fashion;;2017;UK10,FLYMCASH00000295,UK11,FLYMCASH00000296,UK6,FLYMCASH00000297,UK7,FLYMCASH00000298,UK8,FLYMCASH00000299,UK9,FLYMCASH00000300;2199.00;;;<p>CANVAS</p>;;;;menscasualfest-oct,mens-casual-fest-aw17styles;zerotype;;Winter;mens-casual-fest-aw17styles;No
2098831;2551610643-Red-2098831;Anthony;Draft;Casual Shoes;Flying Machine;Adults-Men;Men;;;;Fashion;;2017;UK10,FLYMCASH00000265,UK11,FLYMCASH00000266,UK6,FLYMCASH00000267,UK7,FLYMCASH00000268,UK8,FLYMCASH00000269,UK9,FLYMCASH00000270;1999.00;;;<p>CANVAS</p>;;;;menscasualfest-oct,mens-casual-fest-aw17styles;zerotype;;Winter;mens-casual-fest-aw17styles;No
2092498;NEHRU03-15-42-Green-2092498;British Club Men's Nehru Jacket;Draft;Waistcoat;British Club;Adults-Men;Men;Green;;;Fashion;Formal;2017;36,BHCBWACO00000057,38,BHCBWACO00000058,40,BHCBWACO00000059,42,BHCBWACO00000060;3995.00;;;<p>Dry-clean</p>;;;;big10-ethnic-men;zerotype;;Winter;big10-ethnic-men;No
2092496;NEHRU01-15-42-Khaki-2092496;British Club Men's Nehru Jacket;Draft;Waistcoat;British Club;Adults-Men;Men;Khaki;;;Fashion;Formal;2017;36,BHCBWACO00000049,38,BHCBWACO00000050,40,BHCBWACO00000051,42,BHCBWACO00000052;3995.00;;;<p>Dry-clean</p>;;;;big10-ethnic-men;zerotype;;Winter;big10-ethnic-men;No
2092489;NEHRU01-14-42-Red-2092489;British Club Men's Nehru Jacket;Draft;Waistcoat;British Club;Adults-Men;Men;Red;;;Fashion;Formal;2017;36,BHCBWACO00000037,38,BHCBWACO00000038,40,BHCBWACO00000039,42,BHCBWACO00000040;3995.00;;;<p>Dry-clean</p>;;;;big10-ethnic-men;zerotype;;Winter;big10-ethnic-men;No
2092483;NEHRU03-12-42-Navy Blue-2092483;British Club Men's Nehru Jacket;Draft;Waistcoat;British Club;Adults-Men;Men;Navy Blue;;;Fashion;Formal;2017;36,BHCBWACO00000021,38,BHCBWACO00000022,40,BHCBWACO00000023,42,BHCBWACO00000024;3695.00;;;<p>Dry-clean</p>;;;;big10-ethnic-men;zerotype;;Winter;big10-ethnic-men;No
2092480;NEHRU01-12-42-Beige-2092480;British Club Men's Nehru Jacket;Draft;Waistcoat;British Club;Adults-Men;Men;Beige;;;Fashion;Formal;2017;36,BHCBWACO00000013,38,BHCBWACO00000014,40,BHCBWACO00000015,42,BHCBWACO00000016;3695.00;;;<p>Dry-clean</p>;;;;big10-ethnic-men;zerotype;;Winter;big10-ethnic-men;No
2082826;75149104-Puma Black-Dark Shadow-2082826;AFC Socks - Striped;Draft;Socks;Puma;Adults-Men;Men;Black;;;Fashion;;2017;3,PUMASCKS00095121,4,PUMASCKS00095122,5,PUMASCKS00095123;999.00;;;;;;;puma-aw17-season-launch,FW17-SPORTS-NEW,fw-17-sports-new,arsenal-oct17;zerotype;;Fall;arsenal-oct17;No
2082825;75149103-Limoges-BLUE DANUBE-2082825;AFC Socks - Striped;Draft;Socks;Puma;Adults-Men;Men;Blue;;;Fashion;;2017;3,PUMASCKS00095118,4,PUMASCKS00095119,5,PUMASCKS00095120;999.00;;;;;;;puma-aw17-season-launch,FW17-SPORTS-NEW,fw-17-sports-new,arsenal-oct17;zerotype;;Fall;arsenal-oct17;No
2082824;75149101-Chili Pepper-Puma White-2082824;AFC Socks - Striped;Draft;Socks;Puma;Adults-Men;Men;Red;;;Fashion;;2017;3,PUMASCKS00095115,4,PUMASCKS00095116,5,PUMASCKS00095117;999.00;;;;;;;puma-aw17-season-launch,FW17-SPORTS-NEW,fw-17-sports-new,arsenal-oct17;zerotype;;Fall;arsenal-oct17;No
2078909;ARES0894-Me. Blue-2078909;SH FS REG SEM STR S16ARPRSH066B2;Draft;Shirts;Arrow;Adults-Men;Men;;;;Fashion;;2017;38,ARRWSHRT00006633,39,ARRWSHRT00006634,40,ARRWSHRT00006635,42,ARRWSHRT00006636,44,ARRWSHRT00006637,46,ARRWSHRT00006638;2299.00;;;<p>Normal machine wash with cold water</p>;;;;mitm-new-season,new-arrivals-formal-23082017,ftod-bbd17;zerotype;;Fall;ftod-bbd17;No
2075787;773602454877-773602454877-2075787;MAXINE EYESX8 HGHLTR-POW;Draft;Eyeshadow;M.A.C;Adults-Women;Women;;;;Core;;2017;8gm,MAACEYSD00000120;4200.00;;;;;;;;zerotype;;Fall;;No
2074969;7135-Black-2074969;7135 Black;Draft;Flats;ether;Adults-Women;Women;;;;Fashion;;2017;Euro 36,ETHRFlats00000091,Euro 37,ETHRFlats00000092,Euro 38,ETHRFlats00000093,Euro 39,ETHRFlats00000094,Euro 40,ETHRFlats00000095,Euro 41,ETHRFlats00000096;1499.00;;;;;;;;zerotype;;Fall;;No
2074967;7135-Tan-2074967;7135 Tan;Draft;Flats;ether;Adults-Women;Women;;;;Fashion;;2017;Euro 36,ETHRFlats00000085,Euro 37,ETHRFlats00000086,Euro 38,ETHRFlats00000087,Euro 39,ETHRFlats00000088,Euro 40,ETHRFlats00000089,Euro 41,ETHRFlats00000090;1499.00;;;;;;;;zerotype;;Fall;;No
2074966;7134-Gold-2074966;7134 Gold;Draft;Flats;ether;Adults-Women;Women;;;;Fashion;;2017;Euro 36,ETHRFlats00000079,Euro 37,ETHRFlats00000080,Euro 38,ETHRFlats00000081,Euro 39,ETHRFlats00000082,Euro 40,ETHRFlats00000083,Euro 41,ETHRFlats00000084;1499.00;;;;;;;;zerotype;;Fall;;No
2074964;7134-Rose Gold-2074964;7134 Rose Gold;Draft;Flats;ether;Adults-Women;Women;;;;Fashion;;2017;Euro 36,ETHRFlats00000073,Euro 37,ETHRFlats00000074,Euro 38,ETHRFlats00000075,Euro 39,ETHRFlats00000076,Euro 40,ETHRFlats00000077,Euro 41,ETHRFlats00000078;1499.00;;;;;;;;zerotype;;Fall;;No
2074963;7133-Black-2074963;7133 Black;Draft;Flats;ether;Adults-Women;Women;;;;Fashion;;2017;Euro 36,ETHRFlats00000067,Euro 37,ETHRFlats00000068,Euro 38,ETHRFlats00000069,Euro 39,ETHRFlats00000070,Euro 40,ETHRFlats00000071,Euro 41,ETHRFlats00000072;1499.00;;;;;;;;zerotype;;Fall;;No
2074961;7133-Rose Gold-2074961;7133 Rose Gold;Draft;Flats;ether;Adults-Women;Women;;;;Fashion;;2017;Euro 36,ETHRFlats00000061,Euro 37,ETHRFlats00000062,Euro 38,ETHRFlats00000063,Euro 39,ETHRFlats00000064,Euro 40,ETHRFlats00000065,Euro 41,ETHRFlats00000066;1499.00;;;;;;;;zerotype;;Fall;;No
2074960;7132-Black-2074960;7132 Black;Draft;Flats;ether;Adults-Women;Women;;;;Fashion;;2017;Euro 36,ETHRFlats00000055,Euro 37,ETHRFlats00000056,Euro 38,ETHRFlats00000057,Euro 39,ETHRFlats00000058,Euro 40,ETHRFlats00000059,Euro 41,ETHRFlats00000060;1499.00;;;;;;;;zerotype;;Fall;;No
2074959;7132-Tan-2074959;7132 Tan;Draft;Flats;ether;Adults-Women;Women;;;;Fashion;;2017;Euro 36,ETHRFlats00000049,Euro 37,ETHRFlats00000050,Euro 38,ETHRFlats00000051,Euro 39,ETHRFlats00000052,Euro 40,ETHRFlats00000053,Euro 41,ETHRFlats00000054;1499.00;;;;;;;;zerotype;;Fall;;No
2074957;7131-Tan-2074957;7131 Tan;Draft;Flats;ether;Adults-Women;Women;;;;Fashion;;2017;Euro 36,ETHRFlats00000043,Euro 37,ETHRFlats00000044,Euro 38,ETHRFlats00000045,Euro 39,ETHRFlats00000046,Euro 40,ETHRFlats00000047,Euro 41,ETHRFlats00000048;1499.00;;;;;;;;zerotype;;Fall;;No
2074956;7131-White-2074956;7131 White;Draft;Flats;ether;Adults-Women;Women;;;;Fashion;;2017;Euro 36,ETHRFlats00000037,Euro 37,ETHRFlats00000038,Euro 38,ETHRFlats00000039,Euro 39,ETHRFlats00000040,Euro 40,ETHRFlats00000041,Euro 41,ETHRFlats00000042;1499.00;;;;;;;;zerotype;;Fall;;No
2074442;2521705343-Red-2074442;Harvey;Draft;Casual Shoes;Arrow;Adults-Men;Men;Red;;;Fashion;;2017;UK10,ARRWCASH00000993,UK11,ARRWCASH00000994,UK6,ARRWCASH00000995,UK7,ARRWCASH00000996,UK8,ARRWCASH00000997,UK9,ARRWCASH00000998;3199.00;;;<p>LEATHER</p>;;;;menscasualfest-oct,mens-casual-fest-aw17styles;zerotype;;Fall;mens-casual-fest-aw17styles;No
2074416;2531709405-Black-2074416;Trevor;Draft;Casual Shoes;U.S. Polo Assn.;Adults-Men;Men;Black;;;Fashion;;2017;UK10,USPOCASH00002405,UK11,USPOCASH00002406,UK6,USPOCASH00002407,UK7,USPOCASH00002408,UK8,USPOCASH00002409,UK9,USPOCASH00002410;3599.00;;;<p>Leather</p>;;;;uspa-aw17-all-styles,menscasualfest-oct;zerotype;;Fall;mens-casual-fest-aw17styles;No
2072559;VHSF517M06936-Blue-2072559;Shirts;BIS + Content Complete;Shirts;Van Heusen;Adults-Men;Men;Blue;;;Fashion;Formal;2017;42,VNHSSHRT00013794,40,VNHSSHRT00013795,39,VNHSSHRT00013796,44,VNHSSHRT00013797,46,VNHSSHRT00013798;2999.00;Blue solid formal shirt, has a spread collar, button placket, 1 pocket, long sleeves, straight hem;Formalise your wardrobe with this cool shirt from Van Heusen.  This blue piece can be matched with professional trousers and a sleek blazer when you're heading to work.;Linen <br> Machine-wash;Slim fit<br> The model (height 6') is wearing a size M;;Van Heusen Men Blue Slim Fit Solid Formal Shirt;Van Heusen;zerotype;;Fall;;No
2072531;VDSF517E03147-Black-2072531;Shirts;BIS + Content Complete;Shirts;V Dot;Adults-Men;Men;Maroon;;;Fashion;Formal;2017;39,VDOTSHRT00003791,40,VDOTSHRT00003792,38,VDOTSHRT00003793,42,VDOTSHRT00003794,46,VDOTSHRT00003795,44,VDOTSHRT00003796;1899.00;Maroon self-design formal shirt, has a spread collar, button placket, long sleeves, straight hem;Add class to your year-round style with this formal shirt from V Dot.  Wear this maroon shirt with a pair of tailored trousers and Derby shoes for the perfect work look.;Cotton <br> Machine-wash;Slim fit<br> The model (height 6') is wearing a size M;;V Dot Men Maroon Slim Fit Self Design Formal Shirt;V Dot;zerotype;;Fall;;No
2071043;8034117-Honey Reset-2071043;TRANSCEND;Draft;Casual Shoes;CAT;Adults-Men;Men;;;;Fashion;;2017;UK10,CATTCASH00002206,UK11,CATTCASH00002207,UK6,CATTCASH00002208,UK7,CATTCASH00002209,UK8,CATTCASH00002210,UK9,CATTCASH00002211;6999.00;;;<p>Use Cleaner and conditioner recommended for specific leather</p>;;;;;zerotype;;Winter;;No
2070181;OAW17ER35-Black-2070181;Club of Studs Earrings;Draft;Earrings;ToniQ;Adults-Women;Women;Black;;;Fashion;Casual;2017;Onesize,TONQEARR00001442;1099.00;;;<p>Metal Keep it clean.Wipe it with a cloth.</p>;<p>Length=6cm</p>;;;;zerotype;;Winter;;No
2065753;773602371556-773602371556-2065753;LIPSTICK  HIGHLIGHTS;Draft;Lipstick;M.A.C;Adults-Women;Women;;;;Core;;2017;30gm,MAACLPST00000357;1650.00;;;;;;;;zerotype;;Fall;;No
2065655;773602048304-773602048304-2065655;Lipstick  Captive;Draft;Lipstick;M.A.C;Adults-Women;Women;;;;Core;;2017;3.00 g,MAACLPST00000262;1650.00;;;;;;;;zerotype;;Fall;;No
2065551;773602237197-773602237197-2065551;CLEANSE OFF OIL - SIZED TO GO;Draft;Cleanser;M.A.C;Adults-Women;Women;;;;Core;;2017;Onesize,MAACCLNS00000004;1090.00;;;;;;;;zerotype;;Fall;;No
2065534;773602369768-773602369768-2065534;Modern Twist Kajal Liner;Draft;Kajal and Eye Pencil;M.A.C;Adults-Women;Women;;;;Core;;2017;0.28 g,MAACKEPL00000074;1090.00;;;;;;;;zerotype;;Fall;;No
2065510;773602369744-773602369744-2065510;Modern Twist Kajal Liner;Draft;Kajal and Eye Pencil;M.A.C;Adults-Women;Women;;;;Core;;2017;0.28G,MAACKEPL00000051;1090.00;;;;;;;;zerotype;;Fall;;No
2065489;773602422029-773602422029-2065489;Strobe Cream;Draft;Highlighter and Blush;M.A.C;Adults-Women;Women;;;;Core;;2017;50ml,MAACHRBH00000056;2950.00;;;;;;;;zerotype;;Fall;;No
2063968;90029KM02_BBD-White-2063968;Titan Watches;Draft;Watches;Titan;Adults-Men;Men;;;;Fashion;;2017;Onesize,TITNWTCH00003647;8495.00;;;;;;;;zerotype;;Winter;;No
2061567;MJ-10947B-BLACK-2061567;MJ-10947B BLACK;Draft;Casual Shoes;WROGN;Adults-Men;Men;;;;;;2017;Euro 40,WRGNCASH00001261,Euro 41,WRGNCASH00001262,Euro 42,WRGNCASH00001263,Euro 43,WRGNCASH00001264,Euro 44,WRGNCASH00001265,Euro 45,WRGNCASH00001266;3299.00;;;;;;;Coupon-offer-aug19,wrogn-new-arrivals;zerotype;;Fall;add;No
2055170;CCMYFS5448-Red-2055170;The Chennai Silks - Patola Embroidery Batch Work saree;Draft;Sarees;The Chennai Silks;Adults-Women;Women;Red;Orange;;Fashion;Ethnic;2017;Onesize,CHNSSARS00001030;6999.00;;;<p>Dry Clean</p>;;;;;zerotype;;Fall;;No
2054843;11004065-NVY/GRN-2054843;DRIFTER CROSS;Draft;Sandals;FILA;Adults-Men;Men;;;;Core;;2016;UK6,FILASNDL00100010,UK7,FILASNDL00100011,UK8,FILASNDL00100012,UK9,FILASNDL00100013,UK10,FILASNDL00100014,UK11,FILASNDL00100015;2199.00;;;<p>Wipe with a clean, dry cloth</p>;;;;all-sports-styles-2017,bsf-first-time-on-discount,ftod-bbd17,bbd17-coupon-offer;zerotype;;Winter;bbd17-extra20;No
2053046;CARRERA 69 AOZ 60Z9-Green-2053046;CARRERA 69 AOZ 60Z9;Draft;Sunglasses;Carrera;Adults-Unisex;Unisex;;;;Fashion;;2017;60,CARRSGLS00000408;7200.00;;;;;http://assets.myntassets.com/assets/images/sizechart/2016/4/25/11461584543399-Sunglasses_and_frames_size_chart.jpg;;;zerotype;;Fall;;No
2052991;CARRERA 5002/SP 267 55UW-Orange-2052991;CARRERA 5002/SP 267 55UW;Draft;Sunglasses;Carrera;Adults-Unisex;Unisex;;;;Fashion;;2017;55,CARRSGLS00000353;6700.00;;;;;http://assets.myntassets.com/assets/images/sizechart/2016/4/25/11461584543399-Sunglasses_and_frames_size_chart.jpg;;;zerotype;;Fall;;No
2051014;08040-616-M-RISK RED-2051014;LOCKER;Draft;Casual Shoes;Supra;Adults-Men;Men;;;;Fashion;;2017;US8,SPRACASH00005101,US9,SPRACASH00005102,US10,SPRACASH00005103,US11,SPRACASH00005104,US12,SPRACASH00005105;3199.00;;;<p>Wipe with a clean, dry cloth to remove dust</p>;;;;all-sports-styles-2017,fw-17-sports-new,ftod-bbd17,bbd17-coupon-offer,new-season-diwali17;zerotype;;Fall;new-season-diwali17;No
2051013;08040-353-M-ARMY-2051013;LOCKER;Draft;Casual Shoes;Supra;Adults-Men;Men;;;;Fashion;;2017;US8,SPRACASH00005096,US9,SPRACASH00005097,US10,SPRACASH00005098,US11,SPRACASH00005099,US12,SPRACASH00005100;3199.00;;;<p>Wipe with a clean, dry cloth to remove dust</p>;;;;all-sports-styles-2017,fw-17-sports-new,ftod-bbd17,bbd17-coupon-offer,new-season-diwali17;zerotype;;Fall;new-season-diwali17;No
2051012;08040-100-M-WHITE-2051012;LOCKER;Draft;Casual Shoes;Supra;Adults-Men;Men;;;;Fashion;;2017;US8,SPRACASH00005091,US9,SPRACASH00005092,US10,SPRACASH00005093,US11,SPRACASH00005094,US12,SPRACASH00005095;3199.00;;;<p>Wipe with a clean, dry cloth to remove dust</p>;;;;all-sports-styles-2017,fw-17-sports-new,ftod-bbd17,bbd17-coupon-offer,new-season-diwali17;zerotype;;Fall;new-season-diwali17;No
2051011;08040-008-M-BLACK-2051011;LOCKER;Draft;Casual Shoes;Supra;Adults-Men;Men;;;;Fashion;;2017;US8,SPRACASH00005086,US9,SPRACASH00005087,US10,SPRACASH00005088,US11,SPRACASH00005089,US12,SPRACASH00005090;3099.00;;;<p>Wipe with a clean, dry cloth to remove dust</p>;;;;all-sports-styles-2017,fw-17-sports-new,ftod-bbd17,bbd17-coupon-offer,new-season-diwali17;zerotype;;Fall;new-season-diwali17;No
2045580;OUTLIER/N A84 56X8-Green-2045580;OUTLIER/N A84 56X8;Draft;Sunglasses;SMITH;Adults-Unisex;Unisex;;;;Fashion;;2017;56,SMITSGLS00000050;5100.00;;;;;http://assets.myntassets.com/assets/images/sizechart/2016/4/25/11461584543399-Sunglasses_and_frames_size_chart.jpg;;;zerotype;;Fall;;No
2044377;MPO64-240-PL-Maroon Melange-2044377;Men's Sport Shorts-Maroon Melange;Draft;Lounge Shorts;Hanes;Adults-Men;Men;;;;Core;Casual;2017;S,HANELNSH00000176,M,HANELNSH00000177,L,HANELNSH00000178;669.00;<p>Fabric - 100% Combed Cotton Luxurious combed cotton fabric (except melange colour, which is cotton rich) for superior comfort Sporty design, Functional Peep Pocket with Zipper and a Trendy Graphic Styled to be used as casualwear and leisure-wear Collection - Hanes Premium, Style - Lounge Shorts, Style No - PO64 Care Instruction - Machine Wash Cold</p>;;<p>100% Combed Cotton, Machine Wash Cold</p>;;;;;zerotype;;Fall;;No
2044360;MPO63-031-PL-Oxford Grey Melange-2044360;Men's Fashion Sport  Shorts -Oxford Grey;Draft;Lounge Shorts;Hanes;Adults-Men;Men;;;;Core;Casual;2017;S,HANELNSH00000148,M,HANELNSH00000149,L,HANELNSH00000150;629.00;<p>Fabric - 100% Combed Cotton Luxurious combed cotton fabric (except melange colour, which is cotton rich) for superior comfort Sporty design, Functional Pocket with Zipper Styled to be used as casualwear and leisure-wear Collection - Hanes Premium, Style - Fashion Shorts, Style No - PO63 Care Instruction - Machine Wash Cold</p>;;<p>, Machine Wash Cold</p>;;;;;zerotype;;Fall;;No
2044356;MPO62-240-PL-Maroon Melange-2044356;Men's Sport Shorts -Maroon Melange;Draft;Lounge Shorts;Hanes;Adults-Men;Men;;;;Core;Casual;2017;S,HANELNSH00000139,M,HANELNSH00000140,L,HANELNSH00000141;499.00;<p>Fabric - 100% Combed Cotton Luxurious combed cotton fabric (except melange colour, which is cotton rich) for superior comfort Fabric-covered contrast inner waistband for a smart look Styled to be used as casualwear and leisure-wear Collection - Hanes Premium, Style - Sports Shorts, Style No - PO62 Care Instruction - Machine Wash Cold</p>;;<p>100% Combed Cotton, Machine Wash Cold</p>;;;;;zerotype;;Fall;;No
2042619;77127-4925-LIGHT GREY-2042619;HENRY DENIM;BIS + Content Complete;Casual Shoes;Levis;Adults-Men;Men;Grey;;;Fashion;Casual;2017;UK6,LEVICASH00001823,UK7,LEVICASH00001824,UK8,LEVICASH00001825,UK9,LEVICASH00001826,UK10,LEVICASH00001827,UK11,LEVICASH00001828;3499.00;A pair of round-toe <a href='/grey?src=pd' class='seolink'>grey</a> <a href='/sneakers?src=pd' class='seolink'>sneakers</a>, has <a href='/regular?src=pd' class='seolink'>regular</a> styling, lace-up detail<br><a href='/synthetic?src=pd' class='seolink'>Synthetic</a> upper<br>Cushioned footbed<br>Textured and patterned outsole;Trendy casual shoes from Levis will give your style a whole new look.  Great for a lunch date, team this grey pair with distressed jeans and a simple tee.;Synthetic <br> Wipe with a clean, dry cloth to remove dust;;;Levis Men Grey Sneakers;Levis,levis-aw17-all,menscasualfest-oct,mens-casual-fest-aw17styles;zerotype;;Winter;mens-casual-fest-aw17styles;No
2040108;K806L29-Navy1-2040108;K806L29;BIS + Content Complete;Kurtas;The Indian Garage Co;Adults-Men;Men;Navy Blue;White;;Fashion;Ethnic;2017;M/40,TIGCKRTA00003319,L/42,TIGCKRTA00003320,XL/44,TIGCKRTA00003321,XXL/46,TIGCKRTA00003322;1499.00;Navy Blue and white printed straight kurta, has a mandarin collar, long sleeves, curved hem, side slits;Flaunt your style with a kurta from The Indian Garage Co.  When you need a stylish ensemble for your next family function or party, sport this navy blue piece with a pair of fitted jeans.;Cotton <br> Machine-wash;The model (height 6') is wearing a size M;;The Indian Garage Co Men Navy Blue & White Printed Straight Kurta;The Indian Garage Co,ftod-bbd17,big10-ethnic-men;zerotype;;Fall;big10-ethnic-men;No
2040102;K805L29-Black3-2040102;K805L29;BIS + Content Complete;Kurtas;The Indian Garage Co;Adults-Men;Men;Black;;;Fashion;Ethnic;2017;M/40,TIGCKRTA00003295,L/42,TIGCKRTA00003296,XL/44,TIGCKRTA00003297,XXL/46,TIGCKRTA00003298;1399.00;Black printed straight kurta, has a mandarin collar, long sleeves, curved hem, side slits;From The Indian Garage Co, this kurta is a great way to show off your style.  You'll look dapper as ever in this black piece paired with slim jeans and sandals, ideal for any nice family gathering.;Cotton <br> Machine-wash;The model (height 6') is wearing a size M;;The Indian Garage Co Men Black Printed Straight Kurta;The Indian Garage Co,ftod-bbd17,big10-ethnic-men;zerotype;;Fall;big10-ethnic-men;No
2038528;7062-8009518285260-2038528;IL ROSSETTO LS - 816 ICONIC RED;BIS + Content Complete;Lipstick;Deborah;Adults-Women;Women;Red;;;Core;Casual;2017;4.3GM,DBRHLPST00000154;395.00;Deborah Milano IL Rossetto Iconic Red<br />A soft, creamy consistency that glides on instantly, leaving the most brilliant colour<br />Contains a multi-vitamin complex (vitamin A, E and C) for effective nourishment of the lips<br />Formula enriched with mosqueta rose oil, an active ingredient containing generous amounts of polyunsaturated fatty acids to regenerate and protect the delicate mucosal tissues, protecting the lips from premature ageing<br />For Best Results: <br />Apply the lipstick by starting from the centre of your upper lip<br />Work from the centre to the outer edges, and then follow the contours of your mouth<br />Glide the lipstick across the entire bottom lip;Experience a lipstick with a smooth satin feel and matte finish. The luxuriously nourishing formula helps keep lips feeling velvety soft and drenched in feather-proof colour.;;4.3 g;;Deborah Milano IL Rossetto Iconic Red 816;Deborah;zerotype;;Fall;;No
2035784;1241243270-TAN-2035784;IAGO-AW16-02 A;Draft;Casual Shoes;Ruosh;Adults-Men;Men;Tan;;;Core;Smart Casual;2016;EURO43,RUSHCASH00001925;3990.00;;;<p>Plain leather</p>;;;;Sneakers,menscasualfest-oct;zerotype;;Winter;menscasualfest-oct;No
2035771;1221451020-BROWN-2035771;MCO-152-01;Draft;Casual Shoes;Ruosh;Adults-Men;Men;Brown;;;Core;Smart Casual;2017;EURO41,RUSHCASH00001866,EURO42,RUSHCASH00001867,EURO43,RUSHCASH00001868,EURO44,RUSHCASH00001869,EURO45,RUSHCASH00001870;4990.00;;;<p>Natural Milled</p>;;;;Boot,menscasualfest-oct,mens-casual-fest-aw17styles;zerotype;;Winter;mens-casual-fest-aw17styles;No
2034477;MFB-PN-FG-82613-Pink-2034477;Ladies PU Sling bag;Draft;Handbags;DressBerry;Adults-Women;Women;;;;Fashion;;2017;Onesize,DSBYHDBG00001723;2499.00;;;;;;;;zerotype;;Fall;;No
2032456;MFB-PN-WYQ-HT1455-Grey-2032456;Ladies PU Clutch;Draft;Clutches;DressBerry;Adults-Women;Women;;;;Fashion;;2017;Onesize,DSBYCLTH00000159;1999.00;;;;;;;;zerotype;;Fall;;No
2020237;MYPIWRS1714-Olive / Black-2020237;Rdstr-wall-Leather;Draft;Wallets;Roadster;Adults-Men;Men;;;;Fashion;;2017;Onesize,RDSTWLLT00000022;1299.00;;;;;;;;zerotype;;Fall;;No
2020236;MYPIWRS1713-Brn / Tan-2020236;Rdstr-wall-Leather;Draft;Wallets;Roadster;Adults-Men;Men;;;;Fashion;;2017;Onesize,RDSTWLLT00000021;1299.00;;;;;;;;zerotype;;Fall;;No
2020235;MYPIWRS1712-Matt Tan-2020235;Rdstr-wall-Leather;Draft;Wallets;Roadster;Adults-Men;Men;;;;Fashion;;2017;Onesize,RDSTWLLT00000020;1299.00;;;;;;;;zerotype;;Fall;;No
2020234;MYPIWRS1711-Matt Black-2020234;Rdstr-wall-Leather;Draft;Wallets;Roadster;Adults-Men;Men;;;;Fashion;;2017;Onesize,RDSTWLLT00000019;1299.00;;;;;;;;zerotype;;Fall;;No
2020233;MYPIWMH1726-Tan-2020233;MH-wall-Leather;Draft;Wallets;Mast & Harbour;Adults-Men;Men;;;;Fashion;;2017;Onesize,MTHBWLLT00000230;1199.00;;;;;;;;zerotype;;Fall;;No
2020232;MYPIWMH1725-Black-2020232;MH-wall-Leather;Draft;Wallets;Mast & Harbour;Adults-Men;Men;;;;Fashion;;2017;Onesize,MTHBWLLT00000229;1199.00;;;;;;;;zerotype;;Fall;;No
2020231;MYPIWMH1724-Black-2020231;MH-wall-Leather;Draft;Wallets;Mast & Harbour;Adults-Men;Men;;;;Fashion;;2017;Onesize,MTHBWLLT00000228;1199.00;;;;;;;;zerotype;;Fall;;No
2020230;MYPIWMH1723-Tan-2020230;MH-wall-Leather;Draft;Wallets;Mast & Harbour;Adults-Men;Men;;;;Fashion;;2017;Onesize,MTHBWLLT00000227;1199.00;;;;;;;;zerotype;;Fall;;No
2020229;MYPIWMH1722-Blue-2020229;MH-wall-Leather;Draft;Wallets;Mast & Harbour;Adults-Men;Men;;;;Fashion;;2017;Onesize,MTHBWLLT00000226;1199.00;;;;;;;;zerotype;;Fall;;No
2020228;MYPIWMH1721-Black-2020228;MH-wall-Leather;Draft;Wallets;Mast & Harbour;Adults-Men;Men;;;;Fashion;;2017;Onesize,MTHBWLLT00000225;1199.00;;;;;;;;zerotype;;Fall;;No
2020227;MYPIWINV1709-Black-2020227;Inv-wall-Leather;Draft;Wallets;INVICTUS;Adults-Men;Men;;;;Fashion;;2017;Onesize,TILCWLLT00000047;1299.00;;;;;;;;zerotype;;Fall;;No
2020226;MYPIWINV1708-Black-2020226;Inv-wall-Leather;Draft;Wallets;INVICTUS;Adults-Men;Men;;;;Fashion;;2017;Onesize,TILCWLLT00000046;1299.00;;;;;;;;zerotype;;Fall;;No
2020225;MYPIWINV1707-Coffee Brown-2020225;Inv-wall-Leather;Draft;Wallets;INVICTUS;Adults-Men;Men;;;;Fashion;;2017;Onesize,TILCWLLT00000045;1299.00;;;;;;;;zerotype;;Fall;;No
2020224;MYPIWINV1706-Black-2020224;Inv-wall-Leather;Draft;Wallets;INVICTUS;Adults-Men;Men;;;;Fashion;;2017;Onesize,TILCWLLT00000044;1299.00;;;;;;;;zerotype;;Fall;;No
2020223;MYPIWINV1705-Tan /Navy-2020223;Inv-wall-Leather;Draft;Wallets;INVICTUS;Adults-Men;Men;;;;Fashion;;2017;Onesize,TILCWLLT00000043;1299.00;;;;;;;;zerotype;;Fall;;No
2020222;MYPIWINV1704-Olive Green / Tan-2020222;Inv-wall-Leather;Draft;Wallets;INVICTUS;Adults-Men;Men;;;;Fashion;;2017;Onesize,TILCWLLT00000042;1299.00;;;;;;;;zerotype;;Fall;;No
2020221;MYPIWINV1703-Tan-2020221;Inv-wall-Leather;Draft;Wallets;INVICTUS;Adults-Men;Men;;;;Fashion;;2017;Onesize,TILCWLLT00000041;1199.00;;;;;;;;zerotype;;Fall;;No
2020220;MYPIWINV1702-Navy Blue-2020220;Inv-wall-Leather;Draft;Wallets;INVICTUS;Adults-Men;Men;;;;Fashion;;2017;Onesize,TILCWLLT00000040;1199.00;;;;;;;;zerotype;;Fall;;No
2020219;MYPIWINV1701-Black-2020219;Inv-wall-Leather;Draft;Wallets;INVICTUS;Adults-Men;Men;;;;Fashion;;2017;Onesize,TILCWLLT00000039;1199.00;;;;;;;;zerotype;;Fall;;No
2018493;SMW055Q-WT-White-2018493;Steve Madden Watches;Draft;Watches;Steve Madden;Adults-Women;Women;;;;Fashion;;2017;Onesize,STMDWTCH00000028;5990.00;<p>Steven Madden, Ltd., also known as Steve Madden, is a publicly traded footwear company based in Long Island City, New York. Founded by the eponymous designer and businessman, the company designs and markets shoes and fashion accessories for women, men and children.</p>;;;;;;;zerotype;;Winter;;No
2014240;TH 2603 Nav/Hav C3 60 S-Blue-2014240;Tommy Hilfiger Sunglasses;Draft;Sunglasses;Tommy Hilfiger;Adults-Men;Men;;;;Fashion;;2017;60,TOMHSGLS00000644;5750.00;;;;;http://assets.myntassets.com/assets/images/sizechart/2016/4/25/11461584543399-Sunglasses_and_frames_size_chart.jpg;;;zerotype;;Fall;;No
2014205;TH 7836 C4 60 S-Silver-2014205;Tommy Hilfiger Sunglasses;Draft;Sunglasses;Tommy Hilfiger;Adults-Men;Men;;;;Fashion;;2017;60,TOMHSGLS00000609;7360.00;;;;;http://assets.myntassets.com/assets/images/sizechart/2016/4/25/11461584543399-Sunglasses_and_frames_size_chart.jpg;;;zerotype;;Fall;;No
2014120;CPAW-17-05-Brown-2014120;CPAW-17-05 Brown;Draft;Formal Shoes;INVICTUS;Adults-Men;Men;;;;Fashion;;2017;Euro 40,TILCFOSH00001740,Euro 41,TILCFOSH00001741,Euro 42,TILCFOSH00001742,Euro 43,TILCFOSH00001743,Euro 44,TILCFOSH00001744;2999.00;;;;;;;Coupon-offer-aug19;zerotype;;Fall;add;No
2000950;US20-0105-ECBLK-Black-2000950;BOXER BRIEF;Draft;Briefs;Jockey;Adults-Men;Men;;;;Core;;2017;S,JOCKBREF00003839,M,JOCKBREF00003840,L,JOCKBREF00003841;1195.00;;<p>Super Combed Cotton elastane stretch fabric.Low rise with square cut styling.Stylish side seam designs.Double layered contoured front pouch.Ribbed elastane leg treatment to prevent riding up.Ultra soft cantered waistband provides super soft,smooth and comfortable grip.Label free for all day comfort.</p>;<p>95% cotton , 5% spandex</p>;;;;;zerotype;;Summer;;No
2000929;US07-0105-ECNVY-Navy Blue-2000929;BIKINI BRIEF;Draft;Briefs;Jockey;Adults-Men;Men;;;;Core;;2017;S,JOCKBREF00003799,M,JOCKBREF00003800,L,JOCKBREF00003801;1045.00;;<p>Super Combed Cotton elastane stretch fabric.Low rise fit.Double layered contoured pouch.Styled comfort seams.Ultra soft waistband provides super soft, smoothand comfortable grip.Label free for all day comfort.</p>;<p>95% cotton,5% spandex</p>;;;;;zerotype;;Summer;;No
2000862;2007-0105-CHAML-Charcoal Melange-2000862;Y- FRONT CLASSIC BRIEF;Draft;Briefs;Jockey;Adults-Men;Men;;;;Core;;2017;90,JOCKBREF00003668,95,JOCKBREF00003669,100,JOCKBREF00003670;1095.00;;<p>100% Super Combed Cotton rib fabricClassic fitJockey Y-front pouch opening                                                        Durable & soft high tech waistband</p>;<p>100% Super Combed Cotton</p>;;;;;zerotype;;Summer;;No
1999374;SP55-0103-TNAVY-TRUE NAVY-1999374;BRIEF;Draft;Briefs;Jockey;Adults-Men;Men;;;;Core;;2017;S,JOCKBREF00003596,M,JOCKBREF00003597,L,JOCKBREF00003598;399.00;;<p>Made from soft and comfortable Micro touch Nylon fabric Streamlined styles promote a full range of motionMesh panels for added breathability and contouring Moisture wicking fabric helps to keep you dry</p>;<p>92% polyamide & 8% elastane</p>;;;;;zerotype;;Summer;;No
1999359;IC29-0105-ODE07-Ocean Depth AOP-1999359;BRIEF;Draft;Briefs;Jockey;Adults-Men;Men;;;;Core;;2017;XL,JOCKBREF00003571;504.00;;<p>Tactel Nylon Elastane fabric with luxurious look and smooth handfeelUltra soft and metallic-look waistbandAll over abstract print for a trend-on lookSoft seams and label free for all day comfort</p>;<p>92% Tactal Nylon , 8% Spandex</p>;;;;;zerotype;;Summer;;No
1999357;IC29-0105-JBE04-String Base AOP-1999357;BRIEF;Draft;Briefs;Jockey;Adults-Men;Men;;;;Core;;2017;XL,JOCKBREF00003567;504.00;;<p>Tactel Nylon Elastane fabric with luxurious look and smooth handfeelUltra soft and metallic-look waistbandAll over abstract print for a trend-on lookSoft seams and label free for all day comfort</p>;<p>92% Tactal Nylon , 8% Spandex</p>;;;;;zerotype;;Summer;;No
1999137;SP56-0103-WHITE-White-1999137;TRUNK;Draft;Trunk;Jockey;Adults-Men;Men;;;;Core;;2017;XL,JOCKTRNK00000771;454.00;;<p>Made from soft and comfortable Micro touch Nylon fabric Streamlined styles promote a full range of motionMesh panels for added breathability and contouring Moisture wicking fabric helps to keep you dry</p>;<p>92% polyamide & 8% elastane</p>;;;;;zerotype;;Summer;;No
1999118;IC30-0105-JBE04-String Base AOP-1999118;TRUNK;Draft;Trunk;Jockey;Adults-Men;Men;;;;Core;;2017;S,JOCKTRNK00000732,M,JOCKTRNK00000733,L,JOCKTRNK00000734;549.00;;<p>Tactel Nylon Elastane fabric with luxurious look and smooth handfeelUltra soft and metallic-look waistbandAll over abstract print for a trend-on lookSoft seams and label free for all day comfort</p>;<p>92% Tactal Nylon , 8% Spandex</p>;;;;;zerotype;;Summer;;No
1993516;RANG-ER-0171522-SilverOxidized/Red-1993516;Earring;Draft;Earrings;Anouk;Adults-Women;Women;;;;Fashion;;2017;Onesize,ANUKEARR00001832;699.00;;;;;;;anouk-aw17-semifestive,Coupon-offer-aug19;zerotype;;Fall;add;No
1993512;RANG-ER-0171517-Silver/Red-1993512;Earring;Draft;Earrings;Anouk;Adults-Women;Women;;;;Fashion;;2017;Onesize,ANUKEARR00001828;799.00;;;;;;;anouk-aw17-semifestive,Coupon-offer-aug19;zerotype;;Fall;add;No
1993501;RANG-ER-0171504-SilverOxidized-1993501;Earring;Draft;Earrings;Anouk;Adults-Women;Women;;;;Fashion;;2017;Onesize,ANUKEARR00001817;999.00;;;;;;;anouk-aw17-semifestive,Coupon-offer-aug19;zerotype;;Fall;add;No
1973366;CS-8-Back-Tan-1973366;CS-8 Black-Tan;Draft;Casual Shoes;Roadster;Adults-Men;Men;;;;Fashion;;2017;Euro 40,RDSTCASH00019566,Euro 41,RDSTCASH00019567,Euro 42,RDSTCASH00019568,Euro 43,RDSTCASH00019569,Euro 44,RDSTCASH00019570;2299.00;;;;;;;rd-free-lander-men,Coupon-offer-aug19;zerotype;;Fall;add;No
1973363;CS-7-White-Brown-1973363;CS-7 White-Brown;Draft;Casual Shoes;Roadster;Adults-Men;Men;;;;Fashion;;2017;Euro 40,RDSTCASH00019556,Euro 41,RDSTCASH00019557,Euro 42,RDSTCASH00019558,Euro 43,RDSTCASH00019559,Euro 44,RDSTCASH00019560;2299.00;;;;;;;rd-free-lander-men,Coupon-offer-aug19;zerotype;;Fall;add;No
1963162;AA4079-400-MIDNIGHT NAVY/WHITE-OBSIDIAN-1963162;NIKE LUNARSOLO;Draft;Sports Shoes;Nike;Adults-Men;Men;;;;Fashion;;2017;US7,NIKESPSH00122031,US8,NIKESPSH00122032,US9,NIKESPSH00122033,US10,NIKESPSH00122034,US11,NIKESPSH00122035,US12,NIKESPSH00122036;8795.00;;;<p>Wipe with a clean, dry cloth to remove dust</p>;;;;all-sports-styles-2017,FW17-SPORTS-NEW,fw-17-sports-new,min2k-sports,2koff-sports-ftw;zerotype;;Summer;2koff-sports-ftw;No
1962923;863775-404-GYM BLUE/BLUE FURY-BINARY BLUE-1962923;NIKE FREE RN DISTANCE 2;Draft;Sports Shoes;Nike;Adults-Men;Men;;;;Fashion;;2017;US7,NIKESPSH00121387,US8,NIKESPSH00121388,US9,NIKESPSH00121389,US10,NIKESPSH00121390,US11,NIKESPSH00121391,US12,NIKESPSH00121392;10495.00;;;<p>Wipe with a clean, dry cloth to remove dust</p>;;;;all-sports-styles-2017,ftod-bbd17,bbd17-coupon-offer;zerotype;;Summer;bbd17-extra20;No
1962871;844674-008-WOLF GREY/BLACK-NIGHT PURPLE-1962871;WMNS NIKE DUAL FUSION TR HIT;Draft;Sports Shoes;Nike;Adults-Women;Women;;;;Fashion;;2017;US6.5,NIKESPSH00121176,US7.5,NIKESPSH00121177,US8.5,NIKESPSH00121178,US9.5,NIKESPSH00121179;6495.00;;;<p>Wipe with a clean, dry cloth to remove dust</p>;;;;all-sports-styles-2017,nikefootwearall,nikewomenall,FW17-SPORTS-NEW,fw-17-sports-new,min2k-sports,2koff-sports-ftw;zerotype;;Summer;2koff-sports-ftw;No
1953954;MJ-11486B-NAVY-1953954;MJ-11486B NAVY;Draft;Casual Shoes;ether;Adults-Men;Men;;;;Fashion;;2017;UK 6,ETHRCASH00000043,UK 7,ETHRCASH00000044,UK 8,ETHRCASH00000045,UK 9,ETHRCASH00000046,UK 10,ETHRCASH00000047,UK 11,ETHRCASH00000048;2999.00;;;;;;;;zerotype;;Winter;;No
1953953;MJ-11486A-BLACK-1953953;MJ-11486A BLACK;Draft;Casual Shoes;ether;Adults-Men;Men;;;;Fashion;;2017;UK 6,ETHRCASH00000037,UK 7,ETHRCASH00000038,UK 8,ETHRCASH00000039,UK 9,ETHRCASH00000040,UK 10,ETHRCASH00000041,UK 11,ETHRCASH00000042;2999.00;;;;;;;;zerotype;;Winter;;No
1953952;MJ-11484B-D.NAVY-1953952;MJ-11484B D.NAVY;Draft;Casual Shoes;ether;Adults-Men;Men;;;;Fashion;;2017;UK 6,ETHRCASH00000031,UK 7,ETHRCASH00000032,UK 8,ETHRCASH00000033,UK 9,ETHRCASH00000034,UK 10,ETHRCASH00000035,UK 11,ETHRCASH00000036;3199.00;;;;;;;;zerotype;;Winter;;No
1953951;MJ-11484A-BLACK-1953951;MJ-11484A BLACK;Draft;Casual Shoes;ether;Adults-Men;Men;;;;Fashion;;2017;UK 6,ETHRCASH00000025,UK 7,ETHRCASH00000026,UK 8,ETHRCASH00000027,UK 9,ETHRCASH00000028,UK 10,ETHRCASH00000029,UK 11,ETHRCASH00000030;3199.00;;;;;;;;zerotype;;Winter;;No
1953950;MJ-11483B-BLACK-1953950;MJ-11483B BLACK;Draft;Casual Shoes;ether;Adults-Men;Men;;;;Fashion;;2017;UK 6,ETHRCASH00000019,UK 7,ETHRCASH00000020,UK 8,ETHRCASH00000021,UK 9,ETHRCASH00000022,UK 10,ETHRCASH00000023,UK 11,ETHRCASH00000024;2799.00;;;;;;;;zerotype;;Winter;;No
1953947;MJ-11483A-DK.GREY-1953947;MJ-11483A DK.GREY;Draft;Casual Shoes;ether;Adults-Men;Men;;;;Fashion;;2017;UK 6,ETHRCASH00000013,UK 7,ETHRCASH00000014,UK 8,ETHRCASH00000015,UK 9,ETHRCASH00000016,UK 10,ETHRCASH00000017,UK 11,ETHRCASH00000018;2799.00;;;;;;;;zerotype;;Winter;;No
1953946;MJ-11481B-NAVY-1953946;MJ-11481B NAVY;Draft;Casual Shoes;ether;Adults-Men;Men;;;;Fashion;;2017;UK 6,ETHRCASH00000007,UK 7,ETHRCASH00000008,UK 8,ETHRCASH00000009,UK 9,ETHRCASH00000010,UK 10,ETHRCASH00000011,UK 11,ETHRCASH00000012;2799.00;;;;;;;;zerotype;;Winter;;No
1953945;MJ-11481A-BLACK-1953945;MJ-11481A BLACK;Draft;Casual Shoes;ether;Adults-Men;Men;;;;Fashion;;2017;UK 6,ETHRCASH00000001,UK 7,ETHRCASH00000002,UK 8,ETHRCASH00000003,UK 9,ETHRCASH00000004,UK 10,ETHRCASH00000005,UK 11,ETHRCASH00000006;2799.00;;;;;;;;zerotype;;Winter;;No
1949086;FETSCH2-Navy-1949086;FETSCH;Draft;Casual Shoes;ALDO;Adults-Men;Men;Navy Blue;;;Fashion;;2017;EURO39,ALDOCASH00001917,EURO40,ALDOCASH00001918,EURO41,ALDOCASH00001919,EURO42,ALDOCASH00001920,EURO43,ALDOCASH00001921,EURO44,ALDOCASH00001922,EURO42.5,ALDOCASH00002017,EURO43.5,ALDOCASH00002018,EURO45,ALDOCASH00002019,EURO46,ALDOCASH00002020;10999.00;;;<p>Clean with branded polish only</p>;;;;;zerotype;;Winter;;No
1948001;DB 968-PINK-1948001;DB 968 PINK;Draft;Casual Shoes;DressBerry;Adults-Women;Women;;;;Fashion;;2017;Euro 36,DSBYCASH00003025,Euro 37,DSBYCASH00003026,Euro 38,DSBYCASH00003027,Euro 39,DSBYCASH00003028,Euro 40,DSBYCASH00003029;2499.00;;;;;;;dd-rain-boots,db-rain-boots,fw17-casualshoes-newarrival,db-rain-fw,Coupon-offer-aug19;zerotype;;Fall;add;No
1945981;JIMMY3-1-ANTHRA-1945981;Women's Sweatshit;BIS + Content Complete;Sweatshirts;Roadster;Adults-Women;Women;Grey Melange;Burgundy;;Fashion;Casual;2017;S,RDSTSWSH00006913,M,RDSTSWSH00006914,L,RDSTSWSH00006915,XL,RDSTSWSH00006916;1699.00;<a href='/grey?src=pd' class='seolink'>Grey</a> Melange and <a href='/burgundy?src=pd' class='seolink'>burgundy</a> colourblocked sweatshirt, has a hood, 2 pockets, long sleeves, zip closure, straight hem;Warm up in this high-quality Roadster sweatshirt this season.  When you're going for a stroll around the park, style this grey melange piece with a comfy tee, distressed denims, and sneakers.;Cotton <br> Machine-wash;The model (height 5'8") is wearing a size S;;Roadster Women Grey Melange & Burgundy Colourblocked Hooded Sweatshirt;Roadster;zerotype;;Fall;;No
1943893;RANG-ER-0171268-Teal-1943893;Earring;Draft;Earrings;Anouk;Adults-Women;Women;;;;Fashion;;2017;Onesize,ANUKEARR00001777;799.00;;;;;;;anouk-aw17-semifestive,Coupon-offer-aug19;zerotype;;Fall;add;No
1943886;RANG-ER-0171261-Silver/Gold-1943886;Earring;Draft;Earrings;Anouk;Adults-Women;Women;;;;Fashion;;2017;Onesize,ANUKEARR00001770;899.00;;;;;;;anouk-aw17-semifestive,Coupon-offer-aug19;zerotype;;Fall;add;No
1943868;RANG-ER-0171148-Silver/Oxidized-1943868;Earring;Draft;Earrings;Anouk;Adults-Women;Women;;;;Fashion;;2017;Onesize,ANUKEARR00001753;899.00;;;;;;;anouk-aw17-semifestive,Coupon-offer-aug19;zerotype;;Fall;add;No
1924421;203404-504-W9-Purple-1924421;Crocs Lina Flat W;Draft;Flats;Crocs;Adults-Women;Women;;;;Fashion;;2017;W10,CROCFlats00003616,W11,CROCFlats00003617,W4,CROCFlats00003618,W5,CROCFlats00003619,W6,CROCFlats00003620,W7,CROCFlats00003621,W8,CROCFlats00003622,W9,CROCFlats00003623;1995.00;;;<p>Croslite</p>;;;;;zerotype;;Summer;;No
1918652;LJ-14304B-WHITE-1918652;LJ-14304B WHITE;Draft;Flats;Mast & Harbour;Adults-Women;Women;;;;Fashion;;2017;UK 3,MTHBFlats00000975,UK 4,MTHBFlats00000976,UK 5,MTHBFlats00000977,UK 6,MTHBFlats00000978,UK 7,MTHBFlats00000979,UK 8,MTHBFlats00000980;1899.00;;;;;;;;zerotype;;Winter;;No
1902003;Tommy Hilfiger 7884 Gungn-19 C1 60 S-Gun Metal-1902003;Tommy Hilfiger Sunglasses;Draft;Sunglasses;Tommy Hilfiger;Adults-Men;Men;;;;Fashion;;2017;60,TOMHSGLS00000553;8280.00;;;;;http://assets.myntassets.com/assets/images/sizechart/2016/4/25/11461584543399-Sunglasses_and_frames_size_chart.jpg;;wishlist-eors26;zerotype;;Summer;Tag;No
1870118;KNKSS-QTMJ-248-INDIGO-1870118;MEN'S Denim-Pant;Draft;Jeans;Kook N Keech;Adults-Men;Men;;;;Fashion;;2017;28,KNKHJENS00001600,30,KNKHJENS00001601,32,KNKHJENS00001602,34,KNKHJENS00001603,36,KNKHJENS00001604,38,KNKHJENS00001605;1999.00;;;;;;;;zerotype;;Spring;;No
1870046;DB17-21B-Steel/Rose-1870046;DressBerry Watches;Draft;Watches;DressBerry;Adults-Women;Women;;;;Fashion;;2017;Onesize,DSBYWTCH00000330;3299.00;;;;;;;;zerotype;;Fall;Planner request;No
1831584;MFB-PN-SS-209-SM-M.Brown-1831584;Mast&Harbour Sunglass;Draft;Sunglasses;Mast & Harbour;Adults-Women;Women;;;;Fashion;;2017;Onesize,MTHBSGLS00000453;1499.00;;;;;http://assets.myntassets.com/assets/images/sizechart/2016/4/25/11461584543399-Sunglasses_and_frames_size_chart.jpg;;;zerotype;;Summer;;No
1831570;MFB-PN-SS-S16910SF-Blue/Gold-1831570;Dressberry Sunglass;Draft;Sunglasses;DressBerry;Adults-Women;Women;;;;Fashion;;2017;Onesize,DSBYSGLS00000709;1999.00;;;;;http://assets.myntassets.com/assets/images/sizechart/2016/4/25/11461584543399-Sunglasses_and_frames_size_chart.jpg;;;zerotype;;Fall;Planner request;No
1831550;MFB-PN-SS-24629RNJ-Tortoise-1831550;Dressberry Sunglass;Draft;Sunglasses;DressBerry;Adults-Women;Women;;;;Fashion;;2017;Onesize,DSBYSGLS00000689;1699.00;;;;;http://assets.myntassets.com/assets/images/sizechart/2016/4/25/11461584543399-Sunglasses_and_frames_size_chart.jpg;;;zerotype;;Fall;Planner request;No
1831545;MFB-PN-SS-C550-0313-Black-1831545;Dressberry Sunglass;Draft;Sunglasses;DressBerry;Adults-Women;Women;;;;Fashion;;2017;Onesize,DSBYSGLS00000684;1499.00;;;;;;;;zerotype;;Fall;Planner request;No
1831503;MFB-PN-SS-30631LSM-Brown-1831503;Roadster Sunglass;Draft;Sunglasses;Roadster;Adults-Men;Men;;;;Fashion;;2017;Onesize,RDSTSGLS00000757;1799.00;;;;;http://assets.myntassets.com/assets/images/sizechart/2016/4/25/11461584543399-Sunglasses_and_frames_size_chart.jpg;;;zerotype;;Summer;;No
1831497;MFB-PN-SS-TB120-Silver-1831497;Roadster Sunglass;Draft;Sunglasses;Roadster;Adults-Men;Men;;;;Fashion;;2017;Onesize,RDSTSGLS00000751;1799.00;;;;;http://assets.myntassets.com/assets/images/sizechart/2016/4/25/11461584543399-Sunglasses_and_frames_size_chart.jpg;;;zerotype;;Summer;;No
1831463;MFB-PN-SS-S16796SF-M.Brown-1831463;Roadster Sunglass;Draft;Sunglasses;Roadster;Adults-Men;Men;;;;Fashion;;2017;Onesize,RDSTSGLS00000717;1799.00;;;;;http://assets.myntassets.com/assets/images/sizechart/2016/4/25/11461584543399-Sunglasses_and_frames_size_chart.jpg;;;zerotype;;Fall;Planner request;No
1749316;BRILANIEL2-Navy-1749316;BRILANIEL2;Draft;Formal Shoes;ALDO;Adults-Men;Men;;;;Fashion;;2017;EURO39,ALDOFOSH00000603,EURO40,ALDOFOSH00000604,EURO43,ALDOFOSH00000605,EURO44,ALDOFOSH00000606,EURO41,ALDOFOSH00000607,EURO42,ALDOFOSH00000608;10990.00;<p>Leather</p>;;;;;;;zerotype;;Spring;;No
1681537;1828658006-Brown Stone-1681537;JJ BOSTON SHOES IN;Draft;Casual Shoes;Jack & Jones;Adults-Men;Men;;;;Fashion;;2016;EURO41,JAJOCASH00001160,EURO44,JAJOCASH00001161,EURO40,JAJOCASH00001162,EURO42,JAJOCASH00001163,EURO45,JAJOCASH00001164,EURO43,JAJOCASH00001165;4999.00;<p><a href='/leather?src=pd' class='seolink'>leather</a></p>;;;;;;jj-flat-60,menscasualfest-oct,2kftw-off;zerotype;;Fall;2kftw-off;No
1124820;1108100102-BROWN-1124820;MCB-110-02 C;BIS + Content Complete;Casual Shoes;Ruosh;Adults-Men;Men;Brown;;;Core;Casual;2017;EURO40,RUSHCASH00001070,EURO41,RUSHCASH00001071,EURO42,RUSHCASH00001072,EURO43,RUSHCASH00001073,EURO44,RUSHCASH00001074,EURO45,RUSHCASH00001075;3990.00;A pair of round-toe brown boat shoes, has regular styling, lace-up detail<br>Leather upper<br>Cushioned footbed<br>Textured and patterned outsole;Trendy casual shoes from Ruosh will give your style a whole new look.  These brown shoes can be teamed with slim jeans and a trendy button-down shirt when you're meeting the guys for dinner and drinks.;Leather <br> Wipe with a clean, dry cloth to remove dust;NA;;Ruosh Men Brown Boat Shoes;Ruosh,just-gone-on-discount,hh08jan16,HH18JAN15,new-styles-on-discount-26jan,new-styles-on-discount-26jan,min1000off-26jan,,handcrafted-shoes,textureleather-date-specialoccasion,ss16launch-men-smartworkwear,HH10FEB16,casual-wear,comfortshoes-holiday-dailywear,ss16lifestylefootwear,comfortshoes-holiday-dailywear,new-season-on-discount-18mar,dailyopenoffer10,dailyopenoffer20,ss16vacationstore-citymen-oxfordsandderbys,comfortshoes-holiday-dailywear,min-rs-500-off-13apr,extra28-offer,new-styles-offer-28apr,top-men-brands-upto-60,lifestyle-footwear-fest,casualshoestore-derbyshoes,afterhoursformalfestjune,businesswearformalfestjune,men-lifestyleshoes-EORS-80,home-lifestyleshoes-eors-80,min60-meneors-uk10,eors-16-lowsize,first-time-on-discount-eors,eors-16-highsize,lifestylefootwear-upto80,1000-all-3jul,500rs-5jul,rs-1000-off-10jul,rs1000-off-14july,rs-1500-off-14jul16,,top-picks-boat-shoes,rs1000-off-17july,leatherfestruosh,leatherfest70off,upto-10koff-22jul,eoss-best-collection-2,1000-off-26jul,rs-2000-off-31jul,rs-1000-off-31jul,rs-500-off-03aug,rs-1000-off-03aug,1000rs-off-7aug,rs-1000-off-08aug,1000-rs-off-10aug,1000-off-14aug,1000-14aug,aug-14-deal-1000,min1947-15aug,rs1000-off-17aug,rs1000-off-20aug,ndd-deal,rs-500-24aug,rs-1000-24aug,rs1000-aug27,1000rs-off-31aug,tat-styles-31aug,off-1000-4sept,min-3000-off-4sep-2016,off-1000-500-8sep,off-1000-500-8sep2016,lifestylefootwearsep09,rs-1000-off-10sep,bestoflastseason,men-work-casual-shoes-belts-brown,men-work-casual-shoes-after-hours,men-work-casual-lookbook-wednesday,men-work-casual-all,contrastsoles,rs-1000-off-18sep,bbd-pre-sale-2016,bbd-pre-sale-categories-2016,lifestyleftw-bbd,lifestylefootwear-bbd,mensfootoff70,mensfoot60off,mensftwflat50off,newarrivalftw-BBD,Ruoshbrandday-casual,Ruoshbrandday-Tanandbrowns-casuals,Ruoshbrandday-5bestoffers,ruoshbrandday-all,diwali-mensfootwear,Leatherfest70offftw,myntra-open-coupon-offer,mensfootwearfesr9nov,menscasualftw-all,brand-rush-dec,newarrvlmens,mcfeorsjan17,shoes-belts-men,stylesforextra5-jan17,budget-deal,cohort-customers,Extra-302728,HH12JAN17,lovecall,cupidgift,wishlisters-wish10,wishlisters-wish10-feb25,super-hour-mar17,happy-hour-mar,happy-hour-mar19,mar29-super-hour,hh-0104,apr12-super-hour,indus-apr13,bnb-styles-apr,summer-style-apr,after-match-apr,take20-apr17,coupon-crush-bb,flat40-extra30-bb,min30-extra1000,gold22-bb,power500-bb,b3-20-power20,flash-sale-bb21,coupon-crush02,mse-all,apr15-hh,extra500-ccmay,rs300off-ccmay,extra15-ccmay,super-hour-ccmay,men-offer-may05,welcome-to-myntra-may,extra500-may6,flat50-extra20-may9,b3-60-may9,extra400-may9,rs300off-1105,big10-flash50,big10-lucky10,big10-rs501off,big10-super-hour25,myntra-icici-offer,big10-extra40,welcome-to-myntra-may-big,big10-gratification,flat1500under,price-surge-may25,mantastic-theintern17,gratification-jun2,hh-jun2,welcome-to-myntra-june17,coupon-crush-jun6,june-crush06,jun8-offer999,offer-11jun,min30-jun12,eors-dontlookelsewhere-shoes-men-529198,JIT,mumbai-duty-free,mumbai-airport-duty,eors-wishlist11,eors17-perc-coupon,wishlist-eors,welcome-to-myntra-july,duty-offer-new,min60offonftw,signup-july-2017,wonder-hour-jun25,mitm-vacayjuly,mitm-july,uber-offer-jul31,uber-offer-new-aug,uber-offer-aug-rtf,ruoshflashoffer,menscasualfest-oct;Casual Shoes;Ruosh;Summer;menscasualfest-oct;No
516629;SP02-0105-PN-PG-Performance Navy And Performance Green-516629;Sport Brief;BIS + Content Complete;Briefs;Jockey;Adults-Men;Men;Navy Blue;Green;;Core;Casual;2016;L,JOCKBREF00002134,M,JOCKBREF00002135,S,JOCKBREF00002136,XL,JOCKBREF00002137;1195.00;Pack of five navy and green colourblocked briefs<br />Each has an elasticated waistband and a double-layered contoured pouch;Revel in the comfort of soft fabric with these briefs from Jockey. The fit ensures a relaxed air all day long while the cut offers easy leg movement.;Cotton and elastane blend<br />Machine-wash cold;;;Jockey Men Pack of 5 Navy Colourblocked Briefs SP02-0105-PN-PG;Jockey,wishlist2211,just-gone-on-discount,new-styles-on-discount-7apr,new-styles-offer-28apr,college-store-innerwear-men,college-store-view-all;Briefs;Jockey;Summer;;No
239521;8895BR-BROWN-239521;8895BR;BIS + Content Complete;Flats;Catwalk;Adults-Women;Women;Brown;;;Fashion;Casual;2016;UK4,CTWKFlats00616,UK5,CTWKFlats00617,UK6,CTWKFlats00618,UK7,CTWKFlats00619,UK8,CTWKFlats00620,UK9,CTWKFlats00621;1695.00;A pair of brown open-toed flats, has mid-top styling, slip-on detail<br>Synthetic upper<br>Cushioned footbed<br>Textured and patterned outsole<br>Warranty: No Warranty;With these comfortable and trendy flats from Catwalk, you will look and feel beautiful.  These brown flats can be styled with slim jeans and a beautiful top for a casual brunch outfit.;Synthetic <br> Wipe with a clean, dry cloth to remove dust;Catwalk runs a size smaller. Pick one size bigger for a more comfortable fit.;;Catwalk Women Brown Colourblocked Synthetic Open Toe Flats;Catwalk,HHAUG13,Catwalk,webengfirstlog,allexceptglobal,offer1020,brandrush,premium-non-discount,,HH-19aug,,afterhour26dec,SALESOPS20,'',,dailyopenoffer30,HH20AUG2915,international-way,HH21OCT2015,madabtshoes-franticflats-ballerinas,madabtshoes-franticflats-slipons,JIT,madabtshoes-shopbysize-37,madabtshoes-shopbysize-38,madabtshoes-shopbysize-39,madabtshoes-shopbysize-40,madabtshoes-shopbysize-41,madabtshoes-shopbysize-42,eors-16-highsize,diwali-womenfootwear-oct,wedding-bride-honeymoon-flats,welcome-to-myntra-sept,wedding-bride-honeymoon-pack-list-all,happyhour-rs-off,welcome-to-eors,eors-coupon-4jan,HH20JAN17,stylesforextra5-jan17,lasttime-discount-rd,myntra-wishlisters-jan,extra15-wishlisters-2017,budget-deal,cohort-customers,HH07FEB17,HH12JAN17,v-day-styles,welcome-to-myntra-feb,welcome-to-myntra-feb-new,bday-offer,bday-happy-hour,last-time-on-discount-feb,superhour-feb26,wishlisters-wish10,wishlisters-wish10-feb25,first1000-lastday300,coupon-offer-monday,coupon-15-mar14,happy-hour-mar19,super-hour-mar17,rs500off-crush500,crush20-mar28,cc-articles-2803,welcome-to-march-new,catwalk-ss17-footwear-mbs,welcome-to-mar17-new,rs300-off-mar17,mar29-super-hour,welcome-to-myntra-april,hh-0104,chill-summer-apr,bfg-mini-gig-headsoverheels-couponcodes,bfg-event-apr,bfg-extra10,bfg-extra20,bfg-extra30,ftod-bfg,upto40-extra20-bb,gold22-bb,b3-20-power20,apr15-hh,coupon-crush05,mse-all,price-surge,pp-extra25-off,crush24-ccmay,super-hour-ccmay,women-offer-may05,rs300off-ccmay,extra400-may9,super-hour-may9,rs300off-1105,big10-lucky10,big10-price-surge,big10-super-hour25,welcome-to-myntra-may-big,flash-sale-may17,may21-hh,big10-gratification,ladies-night-coupon1,ladies-night-coupon2,crush350-may25,price-surge-may25,extra500-may29,gratification-jun2,hh-jun2,coupon-crush-jun6,jun08-wonder-hour,jun8-offer999,offer-11jun,min30-jun12,mumbai-duty-free,mumbai-airport-duty,eors-wishlist04,top-seller-jun-eors,wonder-hour-jun25,ola-offer-jul17,welcome-to-myntra-july,duty-offer-new,signup-july-2017,bss-uber-offer,duty-offer-august,welcome-to-myntra-august17,uber-offer-jul31,buy2-1999-3107,uber-offer-new-aug,uber-offer-aug-rtf,buy3-rs2499-rtf,uber-offer-16aug;Flats;Catwalk;Winter;Image Mismatch;No
