Style ID;Vendor Article Number;Vendor Article Name;Active Status;Article type;Brand;Age Group;Gender;Base Colour;Colour1;Colour2;Fashion Type;Usage;Year;Size - SKU code pair;MRP;Style Description;Style Note;Materials and Care Description;Size and Fit Description;Size Chart Path;Product Display Name;Tags;Product Type;Classification Brand;Season;Comments;Upload Images
3084559;R8821116008-Black-3084559;Maserati R8821116008 Men's Watch;Draft;Watches;Maserati;Adults-Men;Men;Black;;;Fashion;Formal;2017;Onesize,MSTIWTCH00000065;30500.00;;;;<p>Case Size :46mm, Strap size :22 mm</p>;;na;;zerotype;;Winter;;No
3084558;R8871630002-Black Blue-3084558;Maserati R8871630002 Men's Watch;Draft;Watches;Maserati;Adults-Men;Men;Black;Blue;;Fashion;Formal;2017;Onesize,MSTIWTCH00000064;14500.00;;;;<p>Case Size: 42 mm, Strap Size : 20 mm</p>;;na;;zerotype;;Winter;;No
3084557;R8871624002-Black-3084557;Maserati R8871624002 Men's Watch;Draft;Watches;Maserati;Adults-Men;Men;Black;;;Fashion;Formal;2017;Onesize,MSTIWTCH00000063;21600.00;;;;<p>Case Size: 46 mm  Strap Size:21 mm</p>;;na;;zerotype;;Winter;;No
3084556;R8873627003-Black-3084556;Maserati R8873627003 Men's Watch;Draft;Watches;Maserati;Adults-Men;Men;Black;;;Fashion;Formal;2017;Onesize,MSTIWTCH00000062;30750.00;;;;<p>Case Size: 46 mm  Strap Size:22 mm</p>;;na;;zerotype;;Winter;;No
3084555;R8823125001-White-3084555;Maserati R8823125001 Men's Watch;Draft;Watches;Maserati;Adults-Men;Men;White;;;Fashion;Formal;2017;Onesize,MSTIWTCH00000061;20750.00;;;;<p>Case Size: 40 mm, Strap Size : 21 mm</p>;;na;;zerotype;;Winter;;No
3084554;R8851108026-Brown-3084554;Maserati R8851108026 Men's Watch;Draft;Watches;Maserati;Adults-Men;Men;Brown;;;Fashion;Formal;2017;Onesize,MSTIWTCH00000060;24000.00;;;;<p>Case Size: 42mm, Strap Size: 21 mm</p>;;na;;zerotype;;Winter;;No
3084553;R8851101008-Brown Navy Blue-3084553;Maserati R8851101008 Men's Watch;Draft;Watches;Maserati;Adults-Men;Men;Brown;Navy Blue;;Fashion;Formal;2017;Onesize,MSTIWTCH00000059;20700.00;;;;<p>Case Size: 46 mm  Strap Size:21 mm</p>;;na;;zerotype;;Winter;;No
3084551;R8851101002-Blue-3084551;Maserati R8851101002 Men's Watch;Draft;Watches;Maserati;Adults-Men;Men;Blue;;;Fashion;Formal;2017;Onesize,MSTIWTCH00000058;16600.00;;;;<p>Case Size: 46 mm  Strap Size:21 mm</p>;;na;;zerotype;;Winter;;No
3084550;R8853112505-Blue-3084550;Maserati R8853112505 Men's Watch;Draft;Watches;Maserati;Adults-Men;Men;Blue;;;Fashion;Formal;2017;Onesize,MSTIWTCH00000057;20700.00;;;;<p>Case Size: 45 mm  Strap Size:22 mm</p>;;na;;zerotype;;Winter;;No
3084549;R8853118001-Silver-3084549;Maserati R8853118001 Men's Watch;Draft;Watches;Maserati;Adults-Men;Men;Silver;;;Fashion;Formal;2017;Onesize,MSTIWTCH00000056;19000.00;;;;<p>Case Size: 42 mm  Strap Size:18 mm</p>;;na;;zerotype;;Winter;;No
3084548;R8851108002-Black-3084548;Maserati R8851108002 Men's Watch;Draft;Watches;Maserati;Adults-Men;Men;Black;;;Fashion;Formal;2017;Onesize,MSTIWTCH00000055;18250.00;;;;<p>Case Size: 42 mm  Strap Size:23 mm</p>;;na;;zerotype;;Winter;;No
3084547;R8851108017-Cream-3084547;Maserati R8851108017 Men's Watch;Draft;Watches;Maserati;Adults-Men;Men;Cream;;;Fashion;Formal;2017;Onesize,MSTIWTCH00000054;20400.00;;;;<p>Case Size: 42 mm, Strap Size: 21mm</p>;;na;;zerotype;;Winter;;No
3084546;R8853118003-Gold-3084546;Maserati R8853118003 Men's Watch;Draft;Watches;Maserati;Adults-Men;Men;Gold;;;Fashion;Formal;2017;Onesize,MSTIWTCH00000053;20700.00;;;;<p>Case Size: 43 mm  Strap Size:21 mm</p>;;na;;zerotype;;Winter;;No
3084545;R8851121003-Blue Navy Blue-3084545;Maserati R8851121003 Men's Watch;Draft;Watches;Maserati;Adults-Men;Men;Blue;Navy Blue;;Fashion;Formal;2017;Onesize,MSTIWTCH00000052;11600.00;;;;<p>Case Size: 45 mm  Strap Size:21 mm</p>;;na;;zerotype;;Winter;;No
3084544;R8853130001-Silver-3084544;Maserati R8853130001 Men's Watch;Draft;Watches;Maserati;Adults-Men;Men;Silver;;;Fashion;Formal;2017;Onesize,MSTIWTCH00000051;11400.00;;;;<p>Case Size :43mm, Strap size :22 mm</p>;;na;;zerotype;;Winter;;No
3084543;R8823124001-Silver-3084543;Maserati R8823124001 Men's Watch;Draft;Watches;Maserati;Adults-Men;Men;Silver;;;Fashion;Formal;2017;Onesize,MSTIWTCH00000050;24950.00;;;;<p>Case Size: 46 mm  Strap Size:22 mm</p>;;na;;zerotype;;Winter;;No
3084542;R8851108016-Black-3084542;Maserati R8851108016 Men's Watch;Draft;Watches;Maserati;Adults-Men;Men;Black;;;Fashion;Formal;2017;Onesize,MSTIWTCH00000049;20750.00;;;;<p>Case Size: 42 mm, Strap Size : 22 mm</p>;;na;;zerotype;;Winter;;No
3084541;R8871624001-Black-3084541;Maserati R8871624001 Men's Watch;Draft;Watches;Maserati;Adults-Men;Men;Black;;;Fashion;Formal;2017;Onesize,MSTIWTCH00000048;21600.00;;;;<p>Case Size: 45 mm  Strap Size:21 mm</p>;;na;;zerotype;;Winter;;No
3084540;R8873621002-Blue-3084540;Maserati R8873621002 Men's Watch;Draft;Watches;Maserati;Adults-Men;Men;Blue;;;Fashion;Formal;2017;Onesize,MSTIWTCH00000047;14100.00;;;;<p>Case Size: 44 mm  Strap Size:22 mm</p>;;na;;zerotype;;Winter;;No
3084539;R8853108001-Black-3084539;Maserati R8853108001 Men's Watch;Draft;Watches;Maserati;Adults-Men;Men;Black;;;Fashion;Formal;2017;Onesize,MSTIWTCH00000046;21600.00;;;;<p>Case Size: 43 mm  Strap Size:23 mm</p>;;na;;zerotype;;Winter;;No
3084538;R8873618005-Black Gold-3084538;Maserati R8873618005 Men's Watch;Draft;Watches;Maserati;Adults-Men;Men;Black;Gold;;Fashion;Formal;2017;Onesize,MSTIWTCH00000045;25700.00;;;;<p>Case Size: 42 mm, Strap Size : 22 mm</p>;;NA;;zerotype;;Winter;;No
2267592;R8851118001-BLUE-2267592;Maserati R8851118001 Men's Watch;Draft;Watches;Maserati;Adults-Men;Men;Blue;;;Fashion;;2017;Onesize,MSTIWTCH00000010;16600.00;;;;<p>Case Size: 42 mm</p>;;;;zerotype;;Winter;;No
2267591;R8873612003-BLACK-2267591;Maserati R8873612003 Men's Watch;Draft;Watches;Maserati;Adults-Men;Men;Black;;;Fashion;;2017;Onesize,MSTIWTCH00000009;24900.00;;;;<p>Case Size: 45 mm</p>;;;;zerotype;;Winter;;No
2267590;R8873618003-BLACK-2267590;Maserati R8873618003 Men's Watch;Draft;Watches;Maserati;Adults-Men;Men;Black;;;Fashion;;2017;Onesize,MSTIWTCH00000008;23250.00;;;;<p>Case Size: 43 mm</p>;;;;zerotype;;Winter;;No
2267583;R8851108015-BLUE-2267583;Maserati R8851108015 Men's Watch;Active;Watches;Maserati;Adults-Men;Men;Blue;;;Fashion;Casual;2017;ONESIZE,MSTIWTCH00000004;18300.00;Display: Analogue<br />Movement: Mechanical<br />Power source: Battery<br />Dial style: <a href=/solid?src=pd class=seolink>Solid</a> round stainless <a href=/steel?src=pd class=seolink>steel</a> dial<br />Features: Reset Time<br />Strap style: <a href=/blue?src=pd class=seolink>Blue</a> <a href=/regular?src=pd class=seolink>regular</a>, <a href=/leather?src=pd class=seolink>leather</a> strap with a tang closure<br />Water resistance: 100 m<br />Warranty: 1 year<br>Warranty provided by Brand Owner / Manufacturer;This impressive, trendy watch from Maserati is sure to draw attention when you tell the time.  Team this blue watch with trim denims and a nice T-shirt when you're meeting your pals for dinner and drinks.;;Dial: 42 mm diameter<br />Strap Width: 25 mm;;Maserati Men Blue Analogue Watch;Maserati,JIT,watches-aw17;zerotype;;Winter;watches-aw17;No
2267582;R8851101001-BLACK-2267582;Maserati R8851101001 Men's Watch;Draft;Watches;Maserati;Adults-Men;Men;Black;;;Fashion;;2017;Onesize,MSTIWTCH00000003;18300.00;;;;<p>Case Size: 46 mm</p>;;;;zerotype;;Winter;;No
