Style ID;Vendor Article Number;Vendor Article Name;Active Status;Article type;Brand;Age Group;Gender;Base Colour;Colour1;Colour2;Fashion Type;Usage;Year;Size - SKU code pair;MRP;Style Description;Style Note;Materials and Care Description;Size and Fit Description;Size Chart Path;Product Display Name;Tags;Product Type;Classification Brand;Season;Comments;Upload Images
2085469;6623 OL-Khaki-2085469;6623 OL;On Hold - Sample;Jackets;Fort Collins;Adults-Women;Women;Khaki;;;Fashion;;2017;M,FRCLJCKT00020389,L,FRCLJCKT00020390,XL,FRCLJCKT00020391,XXL,FRCLJCKT00020392;2599.00;;;<p>Easy Hand Wash</p>;;;;;zerotype;;Winter;Broken size;No
2085467;6626 OL-Fawn-2085467;6626 OL;On Hold - Sample;Jackets;Fort Collins;Adults-Women;Women;Beige;;;Fashion;;2017;M,FRCLJCKT00020381,L,FRCLJCKT00020382,XL,FRCLJCKT00020383,XXL,FRCLJCKT00020384;2560.00;;;<p>Easy Hand Wash</p>;;;;;zerotype;;Winter;Broken size;No
2085466;6626 OL-Navy-2085466;6626 OL;On Hold - Sample;Jackets;Fort Collins;Adults-Women;Women;Blue;;;Fashion;;2017;M,FRCLJCKT00020377,L,FRCLJCKT00020378,XL,FRCLJCKT00020379,XXL,FRCLJCKT00020380;2560.00;;;<p>Easy Hand Wash</p>;;;;;zerotype;;Winter;Broken size;No
2085465;Cs164 OL-Khaki-2085465;Cs164 OL;On Hold - Sample;Jackets;Fort Collins;Adults-Women;Women;Khaki;;;Fashion;;2017;M,FRCLJCKT00020373,L,FRCLJCKT00020374,XL,FRCLJCKT00020375,XXL,FRCLJCKT00020376;2750.00;;;<p>Easy Hand Wash</p>;;;;;zerotype;;Winter;Broken size;No
2085464;Cs164 OL-Yellow-2085464;Cs164 OL;On Hold - Sample;Jackets;Fort Collins;Adults-Women;Women;Yellow;;;Fashion;;2017;M,FRCLJCKT00020369,L,FRCLJCKT00020370,XL,FRCLJCKT00020371,XXL,FRCLJCKT00020372;2750.00;;;<p>Easy Hand Wash</p>;;;;;zerotype;;Winter;Broken size;No
2085459;91197 OL-Maroon-2085459;91197 OL;On Hold - Sample;Jackets;Fort Collins;Adults-Women;Women;Maroon;;;Fashion;;2017;M,FRCLJCKT00020349,L,FRCLJCKT00020350,XL,FRCLJCKT00020351,XXL,FRCLJCKT00020352;2210.00;;;<p>Easy Hand Wash</p>;;;;;zerotype;;Winter;Broken size;No
2085458;89267 OL-Black-2085458;89267 OL;On Hold - Sample;Jackets;Fort Collins;Adults-Women;Women;Black;;;Fashion;;2017;M,FRCLJCKT00020345,L,FRCLJCKT00020346,XL,FRCLJCKT00020347,XXL,FRCLJCKT00020348;2030.00;;;<p>Easy Hand Wash</p>;;;;;zerotype;;Winter;Broken size;No
2085457;89267 OL-Coffee-2085457;89267 OL;On Hold - Sample;Jackets;Fort Collins;Adults-Women;Women;Brown;;;Fashion;;2017;M,FRCLJCKT00020341,L,FRCLJCKT00020342,XL,FRCLJCKT00020343,XXL,FRCLJCKT00020344;2030.00;;;<p>Easy Hand Wash</p>;;;;;zerotype;;Winter;Broken size;No
2085456;89236 OL-Green-2085456;89236 OL;On Hold - Sample;Jackets;Fort Collins;Adults-Women;Women;Green;;;Fashion;;2017;M,FRCLJCKT00020337,L,FRCLJCKT00020338,XL,FRCLJCKT00020339,XXL,FRCLJCKT00020340;2475.00;;;<p>Easy Hand Wash</p>;;;;;zerotype;;Winter;Broken size;No
2085455;89236 OL-Orange-2085455;89236 OL;On Hold - Sample;Jackets;Fort Collins;Adults-Women;Women;Orange;;;Fashion;;2017;M,FRCLJCKT00020333,L,FRCLJCKT00020334,XL,FRCLJCKT00020335,XXL,FRCLJCKT00020336;2475.00;;;<p>Easy Hand Wash</p>;;;;;zerotype;;Winter;Broken size;No
2085454;89236 OL-Black-2085454;89236 OL;On Hold - Sample;Jackets;Fort Collins;Adults-Women;Women;Black;;;Fashion;;2017;M,FRCLJCKT00020329,L,FRCLJCKT00020330,XL,FRCLJCKT00020331,XXL,FRCLJCKT00020332;2475.00;;;<p>Easy Hand Wash</p>;;;;;zerotype;;Winter;Broken size;No
2085453;6637 OL-Black-2085453;6637 OL;On Hold - Sample;Jackets;Fort Collins;Adults-Women;Women;Black;;;Fashion;;2017;M,FRCLJCKT00020325,L,FRCLJCKT00020326,XL,FRCLJCKT00020327,XXL,FRCLJCKT00020328;2190.00;;;<p>Easy Hand Wash</p>;;;;;zerotype;;Winter;Broken size;No
2085452;6637 OL-Mustard-2085452;6637 OL;On Hold - Sample;Jackets;Fort Collins;Adults-Women;Women;Yellow;;;Fashion;;2017;M,FRCLJCKT00020321,L,FRCLJCKT00020322,XL,FRCLJCKT00020323,XXL,FRCLJCKT00020324;2190.00;;;<p>Easy Hand Wash</p>;;;;;zerotype;;Winter;Broken size;No
2085451;590025 OL-Khaki-2085451;590025 OL;On Hold - Sample;Jackets;Fort Collins;Adults-Women;Women;Khaki;;;Fashion;;2017;M,FRCLJCKT00020317,L,FRCLJCKT00020318,XL,FRCLJCKT00020319,XXL,FRCLJCKT00020320;2075.00;;;<p>Easy Hand Wash</p>;;;;;zerotype;;Winter;Broken size;No
2085450;590025 OL-Tan-2085450;590025 OL;On Hold - Sample;Jackets;Fort Collins;Adults-Women;Women;Blue;;;Fashion;;2017;M,FRCLJCKT00020313,L,FRCLJCKT00020314,XL,FRCLJCKT00020315,XXL,FRCLJCKT00020316;2075.00;;;<p>Easy Hand Wash</p>;;;;;zerotype;;Winter;Broken size;No
2085449;57551 OL-Navy-2085449;57551 OL;On Hold - Sample;Jackets;Fort Collins;Adults-Women;Women;Blue;;;Fashion;;2017;M,FRCLJCKT00020309,L,FRCLJCKT00020310,XL,FRCLJCKT00020311,XXL,FRCLJCKT00020312;1645.00;;;<p>Easy Hand Wash</p>;;;;;zerotype;;Winter;Broken size;No
2085447;51405 OL-Blue-2085447;51405 OL;On Hold - Sample;Jackets;Fort Collins;Adults-Women;Women;Blue;;;Fashion;;2017;M,FRCLJCKT00020301,L,FRCLJCKT00020302,XL,FRCLJCKT00020303,XXL,FRCLJCKT00020304;2450.00;;;<p>Easy Hand Wash</p>;;;;;zerotype;;Winter;Broken size;No
2085446;51405 OL-Camel-2085446;51405 OL;On Hold - Sample;Jackets;Fort Collins;Adults-Women;Women;Beige;;;Fashion;;2017;M,FRCLJCKT00020297,L,FRCLJCKT00020298,XL,FRCLJCKT00020299,XXL,FRCLJCKT00020300;2450.00;;;<p>Easy Hand Wash</p>;;;;;zerotype;;Winter;Broken size;No
2085443;17931 OL-Black-2085443;17931 OL;On Hold - Sample;Jackets;Fort Collins;Adults-Women;Women;Black;;;Fashion;;2017;M,FRCLJCKT00020285,L,FRCLJCKT00020286,XL,FRCLJCKT00020287,XXL,FRCLJCKT00020288;2265.00;;;<p>Easy Hand Wash</p>;;;;;zerotype;;Winter;Broken size;No
2085442;10609 OL-Mustard-2085442;10609 OL;On Hold - Sample;Jackets;Fort Collins;Adults-Women;Women;Yellow;;;Fashion;;2017;M,FRCLJCKT00020281,L,FRCLJCKT00020282,XL,FRCLJCKT00020283,XXL,FRCLJCKT00020284;2275.00;;;<p>Easy Hand Wash</p>;;;;;zerotype;;Winter;Broken size;No
2085440;10609 OL-Navy-2085440;10609 OL;On Hold - Sample;Jackets;Fort Collins;Adults-Women;Women;Blue;;;Fashion;;2017;M,FRCLJCKT00020273,L,FRCLJCKT00020274,XL,FRCLJCKT00020275,XXL,FRCLJCKT00020276;2275.00;;;<p>Easy Hand Wash</p>;;;;;zerotype;;Winter;Broken size;No
2085439;653 OL-Denim-2085439;653 OL;On Hold - Sample;Sweaters;Fort Collins;Adults-Women;Women;Blue;;;Fashion;;2017;M,FRCLSWTR00001720,L,FRCLSWTR00001721,XL,FRCLSWTR00001722,XXL,FRCLSWTR00001723;1199.00;;;<p>Easy Hand Wash</p>;;;;;zerotype;;Winter;Broken size;No
2085438;653 OL-Black-2085438;653 OL;On Hold - Sample;Sweaters;Fort Collins;Adults-Women;Women;Black;;;Fashion;;2017;M,FRCLSWTR00001716,L,FRCLSWTR00001717,XL,FRCLSWTR00001718,XXL,FRCLSWTR00001719;1199.00;;;<p>Easy Hand Wash</p>;;;;;zerotype;;Winter;Broken size;No
2085437;653 OL-Orange-2085437;653 OL;On Hold - Sample;Sweaters;Fort Collins;Adults-Women;Women;Orange;;;Fashion;;2017;M,FRCLSWTR00001712,L,FRCLSWTR00001713,XL,FRCLSWTR00001714,XXL,FRCLSWTR00001715;1199.00;;;<p>Easy Hand Wash</p>;;;;;zerotype;;Winter;Broken size;No
2085436;653 OL-Pink-2085436;653 OL;On Hold - Sample;Sweaters;Fort Collins;Adults-Women;Women;Pink;;;Fashion;;2017;M,FRCLSWTR00001708,L,FRCLSWTR00001709,XL,FRCLSWTR00001710,XXL,FRCLSWTR00001711;1199.00;;;<p>Easy Hand Wash</p>;;;;;zerotype;;Winter;Broken size;No
2085435;653 OL-Navy-2085435;653 OL;On Hold - Sample;Sweaters;Fort Collins;Adults-Women;Women;Navy Blue;;;Fashion;;2017;M,FRCLSWTR00001704,L,FRCLSWTR00001705,XL,FRCLSWTR00001706,XXL,FRCLSWTR00001707;1199.00;;;<p>Easy Hand Wash</p>;;;;;zerotype;;Winter;Broken size;No
2085434;652 OL-Off White-2085434;652 OL;On Hold - Sample;Sweaters;Fort Collins;Adults-Women;Women;Off White;;;Fashion;;2017;M,FRCLSWTR00001700,L,FRCLSWTR00001701,XL,FRCLSWTR00001702,XXL,FRCLSWTR00001703;899.00;;;<p>Easy Hand Wash</p>;;;;;zerotype;;Winter;Broken size;No
2085432;652 OL-Orange-2085432;652 OL;On Hold - Sample;Sweaters;Fort Collins;Adults-Women;Women;Orange;;;Fashion;;2017;M,FRCLSWTR00001692,L,FRCLSWTR00001693,XL,FRCLSWTR00001694,XXL,FRCLSWTR00001695;899.00;;;<p>Easy Hand Wash</p>;;;;;zerotype;;Winter;Broken size;No
2085431;652 OL-Grey-2085431;652 OL;On Hold - Sample;Sweaters;Fort Collins;Adults-Women;Women;Grey;;;Fashion;;2017;M,FRCLSWTR00001688,L,FRCLSWTR00001689,XL,FRCLSWTR00001690,XXL,FRCLSWTR00001691;899.00;;;<p>Easy Hand Wash</p>;;;;;zerotype;;Winter;Broken size;No
2085430;652 OL-Pink-2085430;652 OL;On Hold - Sample;Sweaters;Fort Collins;Adults-Women;Women;Pink;;;Fashion;;2017;M,FRCLSWTR00001684,L,FRCLSWTR00001685,XL,FRCLSWTR00001686,XXL,FRCLSWTR00001687;899.00;;;<p>Easy Hand Wash</p>;;;;;zerotype;;Winter;Broken size;No
2085429;652 OL-Black-2085429;652 OL;On Hold - Sample;Sweaters;Fort Collins;Adults-Women;Women;Black;;;Fashion;;2017;M,FRCLSWTR00001680,L,FRCLSWTR00001681,XL,FRCLSWTR00001682,XXL,FRCLSWTR00001683;899.00;;;<p>Easy Hand Wash</p>;;;;;zerotype;;Winter;Broken size;No
2085428;652 OL-Maroon-2085428;652 OL;On Hold - Sample;Sweaters;Fort Collins;Adults-Women;Women;Maroon;;;Fashion;;2017;M,FRCLSWTR00001676,L,FRCLSWTR00001677,XL,FRCLSWTR00001678,XXL,FRCLSWTR00001679;899.00;;;<p>Easy Hand Wash</p>;;;;;zerotype;;Winter;Broken size;No
2085427;652 OL-Navy-2085427;652 OL;On Hold - Sample;Sweaters;Fort Collins;Adults-Women;Women;Navy Blue;;;Fashion;;2017;M,FRCLSWTR00001672,L,FRCLSWTR00001673,XL,FRCLSWTR00001674,XXL,FRCLSWTR00001675;899.00;;;<p>Easy Hand Wash</p>;;;;;zerotype;;Winter;Broken size;No
2085426;652 OL-Mustard-2085426;652 OL;On Hold - Sample;Sweaters;Fort Collins;Adults-Women;Women;Mustard;;;Fashion;;2017;M,FRCLSWTR00001668,L,FRCLSWTR00001669,XL,FRCLSWTR00001670,XXL,FRCLSWTR00001671;899.00;;;<p>Easy Hand Wash</p>;;;;;zerotype;;Winter;Broken size;No
2085425;652 OL-Mouse-2085425;652 OL;On Hold - Sample;Sweaters;Fort Collins;Adults-Women;Women;Brown;;;Fashion;;2017;M,FRCLSWTR00001664,L,FRCLSWTR00001665,XL,FRCLSWTR00001666,XXL,FRCLSWTR00001667;899.00;;;<p>Easy Hand Wash</p>;;;;;zerotype;;Winter;Broken size;No
2085423;651 OL-Carrot-2085423;651 OL;On Hold - Sample;Sweaters;Fort Collins;Adults-Women;Women;Orange;;;Fashion;;2017;M,FRCLSWTR00001656,L,FRCLSWTR00001657,XL,FRCLSWTR00001658,XXL,FRCLSWTR00001659;899.00;;;<p>Easy Hand Wash</p>;;;;;zerotype;;Winter;Broken size;No
2085422;651 OL-Red-2085422;651 OL;On Hold - Sample;Sweaters;Fort Collins;Adults-Women;Women;Red;;;Fashion;;2017;M,FRCLSWTR00001652,L,FRCLSWTR00001653,XL,FRCLSWTR00001654,XXL,FRCLSWTR00001655;899.00;;;<p>Easy Hand Wash</p>;;;;;zerotype;;Winter;Broken size;No
2085421;651 OL-Mouse-2085421;651 OL;On Hold - Sample;Sweaters;Fort Collins;Adults-Women;Women;Brown;;;Fashion;;2017;M,FRCLSWTR00001648,L,FRCLSWTR00001649,XL,FRCLSWTR00001650,XXL,FRCLSWTR00001651;899.00;;;<p>Easy Hand Wash</p>;;;;;zerotype;;Winter;Broken size;No
2085420;651 OL-Beige-2085420;651 OL;On Hold - Sample;Sweaters;Fort Collins;Adults-Women;Women;Beige;;;Fashion;;2017;M,FRCLSWTR00001644,L,FRCLSWTR00001645,XL,FRCLSWTR00001646,XXL,FRCLSWTR00001647;899.00;;;<p>Easy Hand Wash</p>;;;;;zerotype;;Winter;Broken size;No
2075699;6339N-Blue-2075699;Marks & Spencer Women Blue Jeans;Active;Jeans;Marks & Spencer;Adults-Women;Women;Blue;;;Fashion;Casual;2017;UK10,MKSPJENS00000805,UK12,MKSPJENS00000806,UK14,MKSPJENS00000807,UK16,MKSPJENS00000808,UK18,MKSPJENS00000809,UK6,MKSPJENS00000810,UK8,MKSPJENS00000811;1999.00;<a href='/blue?src=pd' class='seolink'>Blue</a> <a href='/medium?src=pd' class='seolink'>medium</a> wash 5-pocket mid-rise <a href='/jeans?src=pd' class='seolink'>jeans</a>, clean look with light fade, has a button and zip closure, waistband with belt loops;This pair of Marks & Spencer jeans will give your personal style the ultimate upgrade.  Rock them with a khaki field jacket and some canvas shoes when you need a laid-back brunch ensemble.;99% cotton and 1% elastane <br /> Machine-wash warm;Straight fit, mid-rise<br />  Stretchable<br /> The model (height 5'8") is wearing a size 28;;Marks & Spencer Women Blue Straight Fit Mid-Rise Clean Look Stretchable Jeans;Marks & Spencer;zerotype;;Winter;Broken size;No
2072802;5895-Multi-2072802;Marks & Spencer Women MULTI Tops;On Hold - Sample;Tops;Marks & Spencer;Adults-Women;Women;;;;Fashion;;2017;UK10,MKSPTOPS00004155,UK12,MKSPTOPS00004156,UK14,MKSPTOPS00004157,UK16,MKSPTOPS00004158,UK18,MKSPTOPS00004159,UK6,MKSPTOPS00004160;2299.00;;;<p>100% polyester</p>;;;;;zerotype;;Winter;Broken size;No
2072774;0672K-Yellow-2072774;Marks & Spencer Women Yellow Tshirts;Active;Tshirts;Marks & Spencer;Adults-Women;Women;Mustard;;;Fashion;Casual;2017;UK10,MKSPTSHT00002374,UK12,MKSPTSHT00002375,UK14,MKSPTSHT00002376,UK16,MKSPTSHT00002377,UK18,MKSPTSHT00002378,UK6,MKSPTSHT00002379,UK8,MKSPTSHT00002380;799.00;Mustard <a href='/yellow?src=pd' class='seolink'>yellow</a> <a href='/solid?src=pd' class='seolink'>solid</a> polo T-shirt, has a polo collar with a <a href='/short?src=pd' class='seolink'>short</a> button placket, short sleeves;Showcase your casual side with this comfortable and chic Marks & Spencer tee. Transform this casual piece into an appropriate evening attire when you pair it with slim jeans and your favourite pumps.;Cotton <br />Machine-wash;The model (height 5'8") is wearing a size S;;Marks & Spencer Women Mustard Yellow Solid Polo Collar T-shirt;Marks & Spencer,CAIT068;zerotype;;Winter;Broken size;No
2072513;5227T-Black-2072513;Marks & Spencer Women Black Trousers;On Hold - Sample;Trousers;Marks & Spencer;Adults-Women;Women;;;;Core;;2017;UK10,MKSPTRSR00002572,UK12,MKSPTRSR00002573,UK14,MKSPTRSR00002574,UK16,MKSPTRSR00002575,UK18,MKSPTRSR00002576,UK6,MKSPTRSR00002577;1999.00;;;<p>63% polyester, 33% viscose and 4% elastane</p>;;;;;zerotype;;Winter;Broken size;No
2064619;SKD5242-Purple-2064619;SKD5242;Active;Kurta Sets;Biba;Adults-Women;Women;Magenta;;;Fashion;Ethnic;2017;34,BIBAKASS00002417,36,BIBAKASS00002418,38,BIBAKASS00002419;2499.00;<a href='/magenta?src=pd' class='seolink'>Magenta</a> printed <a href='/kurta?src=pd' class='seolink'>kurta</a> with <a href='/churidar-and-dupatta?src=pd' class='seolink'>churidar and dupatta</a><br /> Magenta and beige printed straight calf length kurta, has a V-neck, long sleeves, side slits<br />Magenta printed <a href='/churidar?src=pd' class='seolink'>churidar</a>, has an elasticated waistband, drawstring closure<br />Beige <a href='/printed-dupatta?src=pd' class='seolink'>printed dupatta</a>, has printed border;Look elegant and stylish at your next big event in this magenta kurta set from Biba.  Add a touch of definition to this kurta set with a belt for a modern update.;Kurta fabric: polyester<br />Bottom fabric: polyester<br />Dupatta fabric: polyester georgette<br />Machine-wash;The model (height 5'8") is wearing a size M;;Biba Women Magenta Printed Kurta with Churidar & Dupatta;Biba,biba-fw17-new;zerotype;;Fall;biba-fw17-new;No
2061672;3707K-Navy Blue-2061672;Marks & Spencer Women Navy Blue Tops;Active;Tops;Marks & Spencer;Adults-Women;Women;Navy Blue;;;Fashion;Casual;2017;6,MKSPTOPS00003984,8,MKSPTOPS00003985,10,MKSPTOPS00003986,12,MKSPTOPS00003987,14,MKSPTOPS00003988,16,MKSPTOPS00003989,18,MKSPTOPS00003990;2299.00;Navy self-design woven A-line top, has a stylised round neck, three-quarter sleeves with <a href='/tie?src=pd' class='seolink'>tie</a>-up detailing, button closure;Increase your style quotient with this top-notch three-quarter sleeve top by Marks & Spencer. Dress up this navy piece with chic slim trousers and a blazer for a professional look.;Polyester <br />Machine-wash;Regular fit<br /> The model (height 5'8") is wearing a size S;;Marks & Spencer Women Navy Self-Design A-Line Top;Marks & Spencer,CAIT068;zerotype;;Winter;Broken size;No
2057739;8907482071233-Golden Haze-2057739;JCMWTRA170024;On Hold - Sample;Trousers;John Players;Adults-Men;Men;Beige;;;Fashion;Casual;2017;30,JOPLTRSR00007904,32,JOPLTRSR00007905,34,JOPLTRSR00007906,36,JOPLTRSR00007907,38,JOPLTRSR00008133;1599.00;Beige solid low-rise chinos, has a button closure closure, 5 pockets;Give your wardrobe a boost with a brand new pair of John Players chino trousers.  For an off-the-clock ensemble, rock this beige pair with your favourite tee and easy loafers.;Cotton <br> Machine-wash;Slim fit<br> The model (height 6') is wearing a size 32;;John Players Men Beige Slim Fit Solid Chinos;John Players,mitm-new-season,jp-aw17-all;zerotype;;Winter;jp-aw17-all;No
2054006;AMJK516S08652-Green-2054006;Jackets;On Hold - Sample;Jackets;Allen Solly;Adults-Men;Men;Green;;;Fashion;Casual;2016;3XL,ALSLJCKT00000976,L,ALSLJCKT00000977,S,ALSLJCKT00000978,XL,ALSLJCKT00000979,XS,ALSLJCKT00000980,XXL,ALSLJCKT00000981;4799.00;;;<p>Professional dry clean only</p>;;;;;zerotype;;Winter;Broken size;No
2040933;1000666837006-CORAL-2040933;aLL Mens Knits;On Hold - Sample;Tshirts;aLL;Adults-Men;Men;;;;Fashion;;2017;1,ALLATSHT00000128,2,ALLATSHT00000129,3,ALLATSHT00000130,4,ALLATSHT00000131,5,ALLATSHT00000132,6,ALLATSHT00000133;999.00;;;<p>machine wash at 40 degree, wash similar colours together, warm iron, do not bleach, tumble dry low, do not iron on prints</p>;;;;;zerotype;;Summer;Broken size;No
2029927;057EE2K008-E400-2029927;Polo shirts short sleeve;On Hold - Sample;Shirts;ESPRIT;Adults-Men;Men;NA;;;Fashion;;2017;L,ESPRSHRT00001083,M,ESPRSHRT00001084,S,ESPRSHRT00001085,XL,ESPRSHRT00001086,XXL,ESPRSHRT00001087;2499.00;;;<p>100% CO, striped jaquard jersey</p>;;;;international-brands-new;zerotype;;Fall;Tag;No
2028758;193-track-Indigo+Grey-2028758;193-track;On Hold - Sample;Track Pants;Fort Collins;Adults-Men;Men;NA;;;Core;;2017;L,FRCLTRPT00001352,XL,FRCLTRPT00001353,XXL,FRCLTRPT00001354,M,FRCLTRPT00001595;699.00;;;<p>Easy Hand Wash</p>;;;;;zerotype;;Winter;Broken size;No
2024360;1021-Multi-2024360;1021 Ditsy Emb Shirt A4;On Hold - Sample;Shirts;Marks & Spencer;Adults-Women;Women;Multi;;;Fashion;;2017;UK6,MKSPSHRT00002318,UK8,MKSPSHRT00002319,UK10,MKSPSHRT00002320,UK12,MKSPSHRT00002321,UK14,MKSPSHRT00002322,UK16,MKSPSHRT00002323;2499.00;;;<p>100% C4-COTTON</p>;;;;;zerotype;;Fall;Broken size;No
2021260;ATTF2073-Navy-2021260;TRAR FFF TPD NVY REG STR S17ARWLTR031N1;Active;Trousers;Arrow;Adults-Men;Men;Navy Blue;;;Fashion;Formal;2017;30,ARRWTRSR00002051,32,ARRWTRSR00002052,34,ARRWTRSR00002053,36,ARRWTRSR00002054,38,ARRWTRSR00002055,40,ARRWTRSR00002056;2099.00;<a href='/navy-blue?src=pd' class='seolink'>Navy blue</a> self-design mid-rise <a href='/formal-trousers?src=pd' class='seolink'>formal trousers</a>, has a hook and bar closure, 4 pockets;Keep your style looking on point with a pair of Arrow trousers.  Team this black pair with an in-season shirt and your favourite pair of Oxfords for a trendy work ensemble.;65% polyester, 35% viscose<br />Machine-wash;Tapered Fit<br />The model (height 6') is wearing a size 32;;Arrow Men Navy Tapered Fit Self Design Formal Trousers;Arrow;zerotype;;Summer;Broken size;No
2021258;ATTF2066-Khaki-2021258;TRAR FFF TPD KKI AFX SOL S17ARWLTR027K1;On Hold - Sample;Trousers;Arrow;Adults-Men;Men;Beige;;;Fashion;Formal;2016;32,ARRWTRSR00002040,34,ARRWTRSR00002041,36,ARRWTRSR00002042,38,ARRWTRSR00002043,40,ARRWTRSR00002044,42,ARRWTRSR00002045,30,ARRWTRSR00002177;2499.00;Beige <a href='/solid?src=pd' class='seolink'>solid</a> mid-rise <a href='/formal-trousers?src=pd' class='seolink'>formal trousers</a>, has a button closure closure, 4 pockets;Switch up your style and try out a pair of top-notch Arrow trousers.  Wear this beige pair with a Polo T-shirt and easy loafers when you're taking your date out to a nice restaurant.;Polyester <br> Hand-wash;Tapered Fit<br> The model (height 6') is wearing a size 32;;Arrow Men Beige Tapered Fit Solid Formal Trousers;Arrow;zerotype;;Fall;Broken Size;No
2021253;ATTF2012-Olive-2021253;TRAR FFF TPD OLV REG STR S17ARWLTR001I1;On Hold - Sample;Trousers;Arrow;Adults-Men;Men;;;;Fashion;;2016;32,ARRWTRSR00002012,34,ARRWTRSR00002013,36,ARRWTRSR00002014,38,ARRWTRSR00002015,40,ARRWTRSR00002016,30,ARRWTRSR00002146;1899.00;;;<p>Normal machine wash with cold water</p>;;;;;zerotype;;Fall;Broken size;No
2016355;8907482070311-Frost Gray-2016355;JFMWTRA177002;On Hold - Sample;Trousers;John Players;Adults-Men;Men;Charcoal;;;Fashion;Formal;2017;42,JOPLTRSR00007748,38,JOPLTRSR00007749,36,JOPLTRSR00007750,34,JOPLTRSR00007751,32,JOPLTRSR00007752,30,JOPLTRSR00007753;1599.00;<a href='/charcoal?src=pd' class='seolink'>Charcoal</a> <a href='/solid?src=pd' class='seolink'>solid</a> mid-rise <a href='/formal-trousers?src=pd' class='seolink'>formal trousers</a>, has a button closure closure, 4 pockets;Complete your wardrobe with a pair of fashionable John Players trousers.  When you're going to a formal party, wear this charcoal pair with a high-fashion shirt and your favourite pair of dockers.;Polyester and viscose rayon <br /> Machine-wash;Slim fit<br /> The model (height 6') is wearing a size 32;;John Players Men Charcoal Slim Fit Solid Formal Trousers;John Players,mitm-new-season,jp-aw17-all;zerotype;;Winter;jp-aw17-all;No
2016353;8907482070236-True Navy-2016353;JFMWTRA177001;On Hold - Sample;Trousers;John Players;Adults-Men;Men;Charcoal;;;Fashion;Formal;2017;42,JOPLTRSR00007741,40,JOPLTRSR00007742,38,JOPLTRSR00007743,36,JOPLTRSR00007744,34,JOPLTRSR00007745,32,JOPLTRSR00007746,30,JOPLTRSR00007747;1599.00;Charcoal solid mid-rise formal trousers, has a button closure closure, 4 pockets;Switch up your style and try out a pair of top-notch John Players trousers.  This charcoal pair can be teamed with a fitted shirt and Oxfords when you're going to a networking event.;Polyester and viscose rayon <br /> Machine-wash;Regular Fit<br /> The model (height 6') is wearing a size 32;;John Players Men Charcoal Regular Fit Solid Formal Trousers;John Players,mitm-new-season,jp-aw17-all;zerotype;;Winter;jp-aw17-all;No
2016288;8907349082020-Indigo-2016288;ZCMWJNA177003;On Hold - Sample;Jeans;John Players;Adults-Men;Men;Blue;;;Fashion;Casual;2017;40,JOPLJENS00005958,38,JOPLJENS00005959,36,JOPLJENS00005960,34,JOPLJENS00005961,32,JOPLJENS00005962,30,JOPLJENS00005963;1799.00;Blue medium wash 5-pocket low-rise jeans, clean look with light fade, has a button and zip closure, waistband with belt loops;Upgrade your denims collection with these top-of-the-line slim jeans from John Players.  Style yours with sneakers and a light jacket when you need a casual outfit to run errands in.;Cotton <br /> Machine-wash;Slim fit<br /> The model (height 6') is wearing a size 32;;John Players Men Blue Slim Fit Low-Rise Clean Look Jeans;John Players,mitm-new-season,jp-aw17-all;zerotype;;Winter;jp-aw17-all;No
2008340;1953988005-Cloud Dancer-2008340;onlCAP LEO LS TOP-IN, Cloud Dancer, 42;On Hold - Sample;Tops;ONLY;Adults-Women;Women;Black;Off White;;Fashion;Casual;2017;34,ONLYTOPS00009795,36,ONLYTOPS00009796,38,ONLYTOPS00009797,40,ONLYTOPS00009798,42,ONLYTOPS00009799;1999.00;Black, brown and off-white printed woven animal print top, has a round neck, three-quarter sleeves, button closure on the shoulder, flared panel along hem;For year-round comfort and style, go with this three-quarter sleeve top from ONLY.  Match this black piece with a pair of slim jeans and easy loafers for a fashionable date outfit.;Polyester <br />Machine-wash;The model (height 5'8") is wearing a size S;;ONLY Women Black Animal Print Flared Hem Top;ONLY;zerotype;;Fall;Broken size;No
2007913;SKD5162-BLACK-2007913;SKD5162;On Hold - Sample;Kurta Sets;Biba;Adults-Women;Women;;;;Fashion;;2017;42,BIBAKASS00002194,40,BIBAKASS00002261;4399.00;;;<p>DRY CLEAN ONLY,COOL IRON ON REVERSE OF GARMENT.,MADE IN INDIA</p>;;;;biba-fw17-new;zerotype;;Fall;biba-fw17-new;No
2007886;SKD5082-PINK-2007886;SKD5082;On Hold - Sample;Kurta Sets;Biba;Adults-Women;Women;;;;Fashion;;2017;34,BIBAKASS00002139,36,BIBAKASS00002140,38,BIBAKASS00002141,40,BIBAKASS00002142;2499.00;;;<p>WASH SEPARATELY IN COLD WATER, DO NOT BLEACH, DRY IN SHADE, MEDIUM TO HOT IRON.,MADE IN INDIA</p>;;;;biba-fw17-new;zerotype;;Fall;biba-fw17-new;No
2007871;SKD4970-BLUE-2007871;SKD4970;On Hold - Sample;Kurta Sets;Biba;Adults-Women;Women;;;;Fashion;;2017;34,BIBAKASS00002109,36,BIBAKASS00002110,38,BIBAKASS00002111;4500.00;;;<p>DRY CLEAN ONLY,COOL IRON ON REVERSE OF GARMENT.,MADE IN INDIA</p>;;;;biba-fw17-new;zerotype;;Fall;biba-fw17-new;No
2001559;13090609-70-2001559;DRESS BENILUN;On Hold - Sample;Dresses;MANGO;Adults-Women;Women;;;;Fashion;;2017;21,MNGODRSS00003925,22,MNGODRSS00003926,19,MNGODRSS00003927,20,MNGODRSS00003928;1790.00;;;;;;;mango-new,welcome-to-myntra-aug-v2,international-brands-new;zerotype;;Fall;Tag;No
2001556;13090379-2-2001556;DRESS BEST;Active;Dresses;MANGO;Adults-Women;Women;White;Red;;Fashion;Casual;2017;19/XS,MNGODRSS00003914,20/S,MNGODRSS00003915,21/M,MNGODRSS00003916,22/L,MNGODRSS00003917;2990.00;White and <a href='/red?src=pd' class='seolink'>red</a> floral print woven A-line dress with a <a href='/tie?src=pd' class='seolink'>tie</a>-up detail and ruffles, has a V-neck, <a href='/short?src=pd' class='seolink'>short</a> sleeves, flared hem;This dress from MANGO is a must-have for any fashionista's wardrobe. Pair this printed white piece with an incredible statement bag and heels for a fashion-forward look.;Viscose rayon <br />Machine-wash;Regular fit<br /> The model (height 5'8") is wearing a size S;;MANGO Women White & Red Floral Print A-Line Dress;international-brands-new,MANGO;zerotype;;Fall;Broken size;No
2001546;13070499-1-2001546;DRESS MORNING;On Hold - Sample;Dresses;MANGO;Adults-Women;Women;;;;Fashion;;2017;19,MNGODRSS00003877,20,MNGODRSS00003878,21,MNGODRSS00003879,22,MNGODRSS00003880;3590.00;;;;;;;welcome-to-myntra-aug-v2,international-brands-new;zerotype;;Fall;Tag;No
2001368;13070291-2-2001368;SHIRT PAULA;On Hold - Sample;Shirts;MANGO;Adults-Women;Women;;;;Fashion;;2017;19,MNGOSHRT00001703,20,MNGOSHRT00001704,21,MNGOSHRT00001705,22,MNGOSHRT00001706;1790.00;;;;;;;;zerotype;;Spring;Broken size;No
2001339;13090300-2-2001339;BLOUSON CINDY;On Hold - Sample;Tops;MANGO;Adults-Women;Women;;;;Fashion;;2017;19,MNGOTOPS00004211,20,MNGOTOPS00004212,23,MNGOTOPS00004213,22,MNGOTOPS00004214,21,MNGOTOPS00004215;1390.00;;;;;;;mango-new,welcome-to-myntra-aug-v2,international-brands-new;zerotype;;Fall;Tag;No
2001313;13070294-2-2001313;BLOUSON TYRION;On Hold - Sample;Tops;MANGO;Adults-Women;Women;;;;Fashion;;2017;20,MNGOTOPS00004118,21,MNGOTOPS00004119,22,MNGOTOPS00004120,23,MNGOTOPS00004121,19,MNGOTOPS00004122;1390.00;;;;;;;welcome-to-myntra-aug-v2,international-brands-new;zerotype;;Fall;Tag;No
2000692;ML-WK-SS-0402-039-aqua-2000692;a line aqua kurta;On Hold - Sample;Kurtas;HERE&NOW;Adults-Women;Women;;;;Fashion;;2017;S,HENWKRTA00000346,M,HENWKRTA00000347,L,HENWKRTA00000348,XL,HENWKRTA00000349;1499.00;;;<p>100% REYON</p>;;;;H-And-N-Collection,Coupon-offer-aug19;zerotype;;Fall;add;No
1976774;1620006264240130-Pale pink-1976774;Dresses;On Hold - Sample;Dresses;promod;Adults-Women;Women;;;;Fashion;;2017;8,PRMDDRSS00000168,10,PRMDDRSS00000169,12,PRMDDRSS00000170;3990.00;;;<p>Viscose</p>;;;;;zerotype;;Spring;Broken size;No
1976757;1726000312142110-Ecru stripes-1976757;Shirts;On Hold - Sample;Dresses;promod;Adults-Women;Women;;;;Fashion;;2017;12,PRMDDRSS00000108,14,PRMDDRSS00000109;2590.00;;;<p>Blended</p>;;;;;zerotype;;Spring;Broken size;No
1976745;1620003550142110-Black print-1976745;Dresses;On Hold - Sample;Dresses;promod;Adults-Women;Women;;;;Fashion;;2017;6,PRMDDRSS00000068,10,PRMDDRSS00000069,12,PRMDDRSS00000070,14,PRMDDRSS00000071;2990.00;;;<p>Viscose</p>;;;;;zerotype;;Spring;Broken size;No
1976737;1621005854242110-Pink print-1976737;Skirts;On Hold - Sample;Skirts;promod;Adults-Women;Women;;;;Fashion;;2017;6,PRMDSKRT00000047,8,PRMDSKRT00000048,10,PRMDSKRT00000049,12,PRMDSKRT00000050,14,PRMDSKRT00000051;2590.00;;;<p>Polyester</p>;;;;;zerotype;;Spring;Broken size;No
1976734;1721000250040180-Multicolour print-1976734;Skirts;On Hold - Sample;Skirts;promod;Adults-Women;Women;;;;Fashion;;2017;6,PRMDSKRT00000039,8,PRMDSKRT00000040,10,PRMDSKRT00000041,12,PRMDSKRT00000042;2590.00;;;<p>Blended</p>;;;;;zerotype;;Spring;Broken size;No
1976731;1726000312138110-Ecru stripes-1976731;Shirts;On Hold - Sample;Skirts;promod;Adults-Women;Women;;;;Fashion;;2017;6,PRMDSKRT00000031,8,PRMDSKRT00000032,10,PRMDSKRT00000033;2590.00;;;<p>Blended</p>;;;;;zerotype;;Spring;Broken size;No
1976728;1623008902042160-White-1976728;Shorts;On Hold - Sample;Shorts;promod;Adults-Women;Women;;;;Fashion;;2017;6,PRMDSHOR00000038,8,PRMDSHOR00000039,10,PRMDSHOR00000040,12,PRMDSHOR00000041,14,PRMDSHOR00000042;1690.00;;;<p>Blended</p>;;;;;zerotype;;Spring;Broken size;No
1976727;1623008906842140-Saffron-1976727;Shorts;On Hold - Sample;Shorts;promod;Adults-Women;Women;;;;Fashion;;2017;6,PRMDSHOR00000033,8,PRMDSHOR00000034,10,PRMDSHOR00000035,12,PRMDSHOR00000036,14,PRMDSHOR00000037;1690.00;;;<p>Blended</p>;;;;;zerotype;;Spring;Broken size;No
1976726;1623008990442130-Neon orange-1976726;Shorts;On Hold - Sample;Shorts;promod;Adults-Women;Women;;;;Fashion;;2017;6,PRMDSHOR00000028,8,PRMDSHOR00000029,10,PRMDSHOR00000030,12,PRMDSHOR00000031,14,PRMDSHOR00000032;1690.00;;;<p>cotton</p>;;;;;zerotype;;Spring;Broken size;No
1976725;1623008962942160-Light green-1976725;Shorts;On Hold - Sample;Shorts;promod;Adults-Women;Women;;;;Fashion;;2017;6,PRMDSHOR00000023,8,PRMDSHOR00000024,10,PRMDSHOR00000025,12,PRMDSHOR00000026,14,PRMDSHOR00000027;1690.00;;;<p>Polyester</p>;;;;;zerotype;;Spring;Broken size;No
1976722;1623008903642180-Green-1976722;Shorts;On Hold - Sample;Shorts;promod;Adults-Women;Women;;;;Fashion;;2017;6,PRMDSHOR00000015,8,PRMDSHOR00000016,10,PRMDSHOR00000017,12,PRMDSHOR00000018,14,PRMDSHOR00000019;1690.00;;;<p>Viscose</p>;;;;;zerotype;;Spring;Broken size;No
1976721;1623006498542150-Denim-1976721;Shorts;On Hold - Sample;Shorts;promod;Adults-Women;Women;;;;Fashion;;2017;6,PRMDSHOR00000010,8,PRMDSHOR00000011,10,PRMDSHOR00000012,12,PRMDSHOR00000013,14,PRMDSHOR00000014;1690.00;;;<p>blended</p>;;;;;zerotype;;Spring;Broken size;No
1976718;1623007587042170-Violet-1976718;Jumpsuits;On Hold - Sample;Jumpsuit;promod;Adults-Women;Women;;;;Fashion;;2017;8,PRMDJMST00000072,10,PRMDJMST00000073,12,PRMDJMST00000074,14,PRMDJMST00000075;1990.00;;;<p>Viscose</p>;;;;;zerotype;;Spring;Broken size;No
1976703;1623008587042160-Violet-1976703;Trousers;On Hold - Sample;Trousers;promod;Adults-Women;Women;;;;Fashion;;2017;6,PRMDTRSR00000142,8,PRMDTRSR00000143,10,PRMDTRSR00000144,12,PRMDTRSR00000145,14,PRMDTRSR00000146;2990.00;;;<p>Blended</p>;;;;;zerotype;;Spring;Broken size;No
1976702;1623008706842180-Saffron-1976702;Trousers;On Hold - Sample;Trousers;promod;Adults-Women;Women;;;;Fashion;;2017;6,PRMDTRSR00000137,8,PRMDTRSR00000138,10,PRMDTRSR00000139,12,PRMDTRSR00000140,14,PRMDTRSR00000141;2590.00;;;<p>Blended</p>;;;;;zerotype;;Spring;Broken size;No
1976696;1623012998342100-Light denim-1976696;Trousers;On Hold - Sample;Trousers;promod;Adults-Women;Women;;;;Fashion;;2017;8,PRMDTRSR00000121,10,PRMDTRSR00000122,12,PRMDTRSR00000123,14,PRMDTRSR00000124;3990.00;;;<p>modal</p>;;;;;zerotype;;Spring;Broken size;No
1976694;1623014203342150-Khaki-1976694;Trousers;On Hold - Sample;Trousers;promod;Adults-Women;Women;;;;Fashion;;2017;6,PRMDTRSR00000112,8,PRMDTRSR00000113,10,PRMDTRSR00000114,12,PRMDTRSR00000115,14,PRMDTRSR00000116;2590.00;;;<p>Blended</p>;;;;;zerotype;;Spring;Broken size;No
1976678;1623000302044130-White-1976678;Jeans;On Hold - Sample;Jeans;promod;Adults-Women;Women;White;;;Fashion;;2017;6,PRMDJENS00000059,8,PRMDJENS00000060,10,PRMDJENS00000061,12,PRMDJENS00000062,14,PRMDJENS00000063,16,PRMDJENS00000064;1990.00;;;<p>Cotton</p>;;;;;zerotype;;Spring;Broken size;No
1976676;1623009998342120-Light denim-1976676;Jeans;On Hold - Sample;Jeans;promod;Adults-Women;Women;Blue;;;Fashion;;2017;6,PRMDJENS00000050,8,PRMDJENS00000051,10,PRMDJENS00000052,12,PRMDJENS00000053,14,PRMDJENS00000054;4990.00;;;<p>Cotton</p>;;;;;zerotype;;Spring;Broken size;No
1976675;1623000380244140-Dark grey-1976675;Jeans;On Hold - Sample;Jeans;promod;Adults-Women;Women;Grey;;;Fashion;;2017;6,PRMDJENS00000044,8,PRMDJENS00000045,10,PRMDJENS00000046,12,PRMDJENS00000047,14,PRMDJENS00000048,16,PRMDJENS00000049;1990.00;;;<p>Cotton</p>;;;;;zerotype;;Spring;Broken size;No
1976589;1626005402842130-Green-1976589;Tops;On Hold - Sample;Tops;promod;Adults-Women;Women;;;;Fashion;;2017;6,PRMDTOPS00000388,10,PRMDTOPS00000389,12,PRMDTOPS00000390,14,PRMDTOPS00000391;1490.00;;;<p>Polyester</p>;;;;;zerotype;;Spring;Broken size;No
1964073;MBWT0201-GREEN-1964073;WOMENS WESTERN WEAR  WOVEN TOP;On Hold - Sample;Tops;Ms.Taken;Adults-Women;Women;;;;Fashion;;2017;L,MTENTOPS00001574,M,MTENTOPS00001575,S,MTENTOPS00001576,XL,MTENTOPS00001577,XS,MTENTOPS00001578;1299.00;;;;;;;Coupon-offer-aug19;zerotype;;Fall;add;No
1955801;8902986326414-1A6-1955801;JFMWTRCOR0294;On Hold - Sample;Trousers;John Players;Adults-Men;Men;Navy Blue;;;Fashion;Casual;2017;34,JOPLTRSR00007491,38,JOPLTRSR00007492,40,JOPLTRSR00007493;1299.00;<a href='/navy-blue?src=pd' class='seolink'>Navy Blue</a> solid mid-rise <a href='/regular-trousers?src=pd' class='seolink'>regular trousers</a>, has a button closure closure, 5 pockets;These classic trousers from John Players will take your style to a whole new level.  Style this navy blue pair with a formal shirt and a fashionable tie when you're attending an engagement party.;Cotton and polyester <br> Machine-wash;Regular Fit<br> The model (height 6') is wearing a size 32;;John Players Men Navy Blue Regular Fit Solid Regular Trousers;John Players,plus-size-styles;zerotype;;Summer;Broken Size;No
1955798;8902959980810-Black-1955798;JFMWTRCOR0291;On Hold - Sample;Trousers;John Players;Adults-Men;Men;Black;;;Fashion;Casual;2017;36,JOPLTRSR00007485,38,JOPLTRSR00007486,40,JOPLTRSR00007487;1099.00;<a href='/black?src=pd' class='seolink'>Black</a> solid mid-rise <a href='/regular-trousers?src=pd' class='seolink'>regular trousers</a>, has a button closure closure, 5 pockets;Elevate your year-round style with these must-have trousers from John Players.  Wear this black pair with an in-season shirt and dockers for your next semi-formal date night.;Polyester and cotton <br> Machine-wash;Regular Fit<br> The model (height 6') is wearing a size 32;;John Players Men Black Regular Fit Solid Regular Trousers;John Players,plus-size-styles;zerotype;;Summer;Broken Size;No
1946708;HRX-SS17-MK-1990 B-OUTER SPACE-1946708;CREW NECK L SLV W CHST PRINT;On Hold - Other;Sweatshirts;HRX by Hrithik Roshan;Adults-Men;Men;;;;Fashion;;2017;S,HBHRSWSH00001505,M,HBHRSWSH00001506,L,HBHRSWSH00001507,XL,HBHRSWSH00001508;1299.00;<p>CREW NECK L SLV W CHST PRINT</p>;;<p>85% COTTON 15% POLYESTER</p>;;;;Coupon-offer-aug19;zerotype;;Fall;Shoot can be planned post BBD as premium;No
1941218;SKD4769-BLACK-1941218;SKD4769;On Hold - Sample;Kurta Sets;Biba;Adults-Women;Women;NA;;;Fashion;;2017;32,BIBAKASS00002086,34,BIBAKASS00002087,36,BIBAKASS00002088,38,BIBAKASS00002089,42,BIBAKASS00002090;5995.00;;;<p>DRY CLEAN ONLY,COOL IRON ON REVERSE OF GARMENT.,MADE IN INDIA</p>;;;;;zerotype;;Summer;Broken Size;No
1938598;8902986783262-1A3-1938598;JWFFSM421A3;On Hold - Sample;Shirts;John Players;Adults-Men;Men;White;Maroon;Black;Fashion;Casual;2016;39,JOPLSHRT00016202,40,JOPLSHRT00016203,42,JOPLSHRT00016204,44,JOPLSHRT00016205;1599.00;White and maroon checked casual shirt, has a spread collar, button placket, 1 pocket, long sleeves, straight hem;You'll love the design of this high-fashion John Players shirt.  This white piece can be styled with dark denims, Chelsea boots, and a classic leather jacket for your next concert.;Cotton <br> Hand-wash;Slim fit<br> The model (height 6') is wearing a size M;;John Players Men White & Maroon Slim Fit Checked Casual Shirt;jp-workwear-shirt,jp-formal;zerotype;;Fall;Broken Size;No
1938409;8902986326865-1A6-1938409;JWNPT0321A6;On Hold - Sample;Trousers;John Players;Adults-Men;Men;Navy Blue;;;Fashion;Formal;2017;34,JOPLTRSR00007371,36,JOPLTRSR00007372,38,JOPLTRSR00007373,40,JOPLTRSR00007374,42,JOPLTRSR00007375;1299.00;<a href='/navy-blue?src=pd' class='seolink'>Navy Blue</a> solid mid-rise <a href='/formal-trousers?src=pd' class='seolink'>formal trousers</a>, has a hook and bar closure, 4 pockets;When you're ready for a new look, opt for these in-style trousers designed by John Players.  Match this navy blue pair with a lightweight sweater and leather boots for a trendy work outfit.;Polyester and viscose rayon <br /> Machine-wash;Regular Fit<br /> The model (height 6') is wearing a size 32;;John Players Men Navy Blue Regular Fit Solid Formal Trousers;John Players,jp-formalwear-trouser,plus-size-styles;zerotype;;Summer;Sample called;No
1935662;SKD4921-TURQ-1935662;SKD4921;On Hold - Sample;Kurta Sets;Biba;Adults-Women;Women;NA;;;Fashion;;2017;34,BIBAKASS00002062,36,BIBAKASS00002063,38,BIBAKASS00002064,40,BIBAKASS00002065;2799.00;;;<p>WASH SEPARATELY IN COLD WATER, DO NOT BLEACH, DRY IN SHADE, MEDIUM TO HOT IRON.,MADE IN INDIA</p>;;;;;zerotype;;Summer;Broken Size;No
1935658;SKD4902-YEL-1935658;SKD4902;On Hold - Sample;Kurta Sets;Biba;Adults-Women;Women;NA;;;Fashion;;2017;34,BIBAKASS00002052,36,BIBAKASS00002053,38,BIBAKASS00002054;5995.00;;;<p>DRY CLEAN ONLY,COOL IRON ON REVERSE OF GARMENT.,MADE IN INDIA</p>;;;;;zerotype;;Summer;Broken Size;No
1919052;PWTW00637-K8-Black-1919052;5 POCKET STYLE WID TWISTED INNER SEAM;On Hold - Sample;Trousers;Park Avenue Woman;Adults-Women;Women;Black;;;Fashion;;2017;66,PAWNTRSR00000064,71,PAWNTRSR00000065,76,PAWNTRSR00000066,81,PAWNTRSR00000067,86,PAWNTRSR00000068,91,PAWNTRSR00000069;1999.00;;;<p>M/C WASH GENTLE,3% Spandex/ 97% Cotton</p>;;;;;zerotype;;Summer;Broken size;No
1919044;PWTF00616-F2-Brown-1919044;T WID LOOP BTN AT BK PKT & FOLDUP HEM;On Hold - Sample;Trousers;Park Avenue Woman;Adults-Women;Women;Brown;;;Fashion;;2017;66,PAWNTRSR00000017,71,PAWNTRSR00000018,76,PAWNTRSR00000019,81,PAWNTRSR00000020,86,PAWNTRSR00000021,91,PAWNTRSR00000022;1899.00;;;<p>M/C WASH GENTLE,Cotton 97%/Lycra 03%</p>;;;;;zerotype;;Summer;Broken size;No
1918986;PWAL00883-F8-Brown-1918986;KIMONO SLEEVE BOXY  TOP;On Hold - Sample;Tops;Park Avenue Woman;Adults-Women;Women;Brown;;;Fashion;;2016;81,PAWNTOPS00000067,86,PAWNTOPS00000068,91,PAWNTOPS00000069,96,PAWNTOPS00000070,101,PAWNTOPS00000071,106,PAWNTOPS00000072;1999.00;;;<p>MACHINE WASH COLD,,POLYSTER 100%</p>;;;;;zerotype;;Winter;Broken size;No
1914801;XMTP02012-K8-Black-1914801;BASIC PLEATED FRONT TRSR IN REGULAR FIT;On Hold - Sample;Trousers;Parx;Adults-Men;Men;Navy Blue;;;Fashion;Casual;2015;34,PARXTRSR00001490,36,PARXTRSR00001491,38,PARXTRSR00001492,40,PARXTRSR00001493,42,PARXTRSR00001494,44,PARXTRSR00001495;1899.00;Navy Blue solid mid-rise regular trousers, has a button closure closure, 4 pockets;Formalize your wardrobe with a fashionable pair of trousers by Parx.  Style this navy blue pair with a formal shirt and a fashionable tie when you're attending an engagement party.;Cotton <br /> Machine-wash;Regular Fit<br /> The model (height 6') is wearing a size 32;;Parx Men Navy Blue Regular Fit Solid Regular Trousers;Parx,never-settle;zerotype;;Winter;Sample called;No
1910008;83023524-2-1910008;T-SHIRT TEXTA;On Hold - Sample;Tshirts;MANGO;Adults-Women;Women;;;;Fashion;;2017;L,MNGOTSHT00005937;690.00;<p>COMPOSITION...:50%<a href='/cotton?src=pd' class='seolink'>COTTON</a>,50%MODAL</p>;;;;;;myntra-store-01,high-street-brands,eors-wishlist02,eors-wishlist06,eors-wishlist08,welcome-to-myntra-aug-v2;zerotype;;Spring;welcome-to-myntra-aug-v2;No
1800040;SKD4995-Blue-1800040;SKD4995;On Hold - Sample;Kurta Sets;Biba;Adults-Women;Women;;;;Fashion;;2017;36,BIBAKASS00001383,38,BIBAKASS00001384,34,BIBAKASS00001385;3799.00;<p>Cotton Blend</p>;;;;;;bibaetns17,we-ss17-first-time,ss17-ethnickurta;zerotype;;Spring;ss17-ethnickurta;No
1800038;SKD4968-White-1800038;SKD4968;On Hold - Sample;Kurta Sets;Biba;Adults-Women;Women;;;;Fashion;;2017;36,BIBAKASS00001377,38,BIBAKASS00001378,40,BIBAKASS00001379,32,BIBAKASS00001380,34,BIBAKASS00001381;3799.00;<p>Viscose</p>;;;;;;bibaetns17,we-ss17-first-time,ss17-ethnickurta;zerotype;;Spring;ss17-ethnickurta;No
1800034;SKD4923-White-1800034;SKD4923;On Hold - Sample;Kurta Sets;Biba;Adults-Women;Women;;;;Fashion;;2017;36,BIBAKASS00001365,38,BIBAKASS00001366,32,BIBAKASS00001367,34,BIBAKASS00001368;3999.00;<p>Pure Cotton</p>;;;;;;we-ss17-first-time;zerotype;;Spring;Broken size;No
1774430;AW16GI039TUMO_INDIGO_XL-Blue-1774430;AW16GI039TUMO;On Hold - Sample;Tunics;Global Desi;Adults-Women;Women;Blue;Blue;Blue;Fashion;;2017;M,GBDTNIC00003390,L,GBDTNIC00003391,XL,GBDTNIC00003392;2099.00;;;<p>Hand wash separately with mild detergent in cold water.</p>;;;;;zerotype;;Summer;Broken Size;No
1774421;AW16GDS027TP500_INDIGO_XXL-Blue-1774421;AW16GDS027TP500;On Hold - Sample;Tops;Global Desi;Adults-Women;Women;Blue;Blue;Blue;Fashion;Casual;2017;XS,GBDTOPS00002773,L,GBDTOPS00002774,XL,GBDTOPS00002775,XXL,GBDTOPS00002776;1499.00;;;<p>Hand wash separately with mild detergent in cold water.</p>;;;;;zerotype;;Summer;Broken Size;No
1755679;SKD4964-Off White-1755679;SKD4964;On Hold - Sample;Kurta Sets;Biba;Adults-Women;Women;;;;Fashion;;2017;36,BIBAKASS00001169,38,BIBAKASS00001170,34,BIBAKASS00001171;6500.00;<p>Pure Cotton</p>;;;;;;we-ss17-first-time;zerotype;;Spring;Broken size;No
1754420;16149C-CREAM BLUE-1754420;Shree Women Cream Blue Viscose Printed Kurti;On Hold - Sample;Kurtis;Shree;Adults-Women;Women;NA;;;Fashion;;2017;2XL,ShriKRTI00011437,3XL,ShriKRTI00011438;999.00;;;<p>Hand Wash With Cold Water</p>;;;;ss17-ethnickurta;zerotype;;Spring;ss17-ethnickurta;No
1754419;16149B-CREAM BLACK-1754419;Shree Women Cream Black Viscose Printed Kurti;On Hold - Sample;Kurtis;Shree;Adults-Women;Women;NA;;;Fashion;;2017;2XL,ShriKRTI00011435,3XL,ShriKRTI00011436;999.00;;;<p>Hand Wash With Cold Water</p>;;;;ss17-ethnickurta;zerotype;;Spring;ss17-ethnickurta;No
1754418;16149A-CREAM RED-1754418;Shree Women Cream Red Viscose Printed Kurti;On Hold - Sample;Kurtis;Shree;Adults-Women;Women;NA;;;Fashion;;2017;2XL,ShriKRTI00011433,3XL,ShriKRTI00011434;999.00;;;<p>Hand Wash With Cold Water</p>;;;;ss17-ethnickurta;zerotype;;Spring;ss17-ethnickurta;No
1748068;SS17WD106A-GREY-1748068;Cut & Sew Shirt Dress;On Hold - Sample;Dresses;ether;Adults-Women;Women;;;;Fashion;;2017;S,ETHRDRSS00000245,M,ETHRDRSS00000246,L,ETHRDRSS00000247,XL,ETHRDRSS00000248;1499.00;;;;;;;Coupon-offer-aug19;zerotype;;Fall;add;No
1740527;86060086-70-1740527;MANGO Tshirts;On Hold - Sample;Tshirts;MANGO;Adults-Women;Women;;;;Fashion;;2017;L,MNGOTSHT00005621,XL,MNGOTSHT00005622;490.00;<p>100% <a href='/cotton?src=pd' class='seolink'>Cotton</a></p>;;;;;;vdaymango,season-best-price-02,season-best-price-mar17,ndd-gurgaon,big10-ftod,myntra-store-01,high-street-brands,eors-wishlist02,eors-wishlist06,eors-wishlist08,welcome-to-myntra-aug-v2;zerotype;;Spring;welcome-to-myntra-aug-v2;No
1740508;83070009-37-1740508;MANGO Tshirts;On Hold - Sample;Tshirts;MANGO;Adults-Women;Women;;;;Fashion;;2017;L,MNGOTSHT00005562;690.00;<p>100% <a href='/cotton?src=pd' class='seolink'>Cotton</a></p>;;;;;;vdaymango,next-day-delivery,ndd-gurgaon,big10-ftod,myntra-store-01,high-street-brands,eors-wishlist02,eors-wishlist06,eors-wishlist08,welcome-to-myntra-aug-v2;zerotype;;Summer;welcome-to-myntra-aug-v2;No
1733795;SKD5042-Pink-1733795;SKD5042;On Hold - Sample;Kurta Sets;Biba;Adults-Women;Women;;;;Fashion;;2017;32,BIBAKASS00001028,36,BIBAKASS00001029,38,BIBAKASS00001030,34,BIBAKASS00001031;3399.00;<p>Pure Cotton</p>;;;;;;bibass17fom;zerotype;;Summer;Broken Size;No
1733792;SKD4959-Pink-1733792;SKD4959;On Hold - Sample;Kurta Sets;Biba;Adults-Women;Women;;;;Fashion;;2017;36,BIBAKASS00001018,38,BIBAKASS00001019,40,BIBAKASS00001020,34,BIBAKASS00001021;2799.00;<p>Pure Cotton</p>;;;;;;bibass17fom;zerotype;;Summer;Broken Size;No
1733783;SKD4855-Red-1733783;SKD4855;On Hold - Sample;Kurta Sets;Biba;Adults-Women;Women;;;;Fashion;;2017;40,BIBAKASS00000993,36,BIBAKASS00000994,38,BIBAKASS00000995,34,BIBAKASS00000996;3999.00;<p>Pure Cotton</p>;;;;;;bibass17fom;zerotype;;Summer;Broken Size;No
1696577;SKD4732-NAVY BLUE-1696577;SKD4732;On Hold - Sample;Kurta Sets;Biba;Adults-Women;Women;;;;Fashion;;2016;34,BIBAKASS00000854,36,BIBAKASS00000855,38,BIBAKASS00000856;2999.00;<p>Viscose</p>;;;;;;;zerotype;;Winter;Broken Size;No
1696526;SOLID AS12119-RED-1696526;SOLID AS12119;On Hold - Sample;Kurtas;Biba;Adults-Women;Women;;;;Fashion;;2016;32,BIBAKRTA00010457,34,BIBAKRTA00010458,36,BIBAKRTA00010459,38,BIBAKRTA00010460,42,BIBAKRTA00010461;1399.00;<p>Cotton</p>;;;;;;;zerotype;;Winter;Broken size;No
1695818;ORIGINAL-10B-TWILINGHT BLUE MILANGE-1695818;KNK ORIGINAL;On Hold - Sample;Tshirts;Kook N Keech;Adults-Men;Men;;;;Fashion;;2017;S,KNKHTSHT00006332,M,KNKHTSHT00006333,L,KNKHTSHT00006334,XL,KNKHTSHT00006335,XXL,KNKHTSHT00006336;749.00;;;;;;;Coupon-offer-aug19;zerotype;;Fall;add;No
1588209;RD-WJ-728A-L INDIGO-1588209;Denim-Pant;On Hold - Sample;Jeans;Roadster;Adults-Women;Women;;;;Fashion;;2017;26,RDSTJENS00012050,28,RDSTJENS00012051,30,RDSTJENS00012052,32,RDSTJENS00012053,34,RDSTJENS00012054,36,RDSTJENS00012055;1499.00;;;;;;;ndd-mumbai,myntra-store-03,rd-am-24,rd-se-24,rd-women-fullcollection,rd-free-lander-women,Coupon-offer-aug19;zerotype;;Spring;add;No
1588207;RD-WJ-726A-D INDIGO-1588207;Denim-Pant;On Hold - Sample;Jeans;Roadster;Adults-Women;Women;;;;Fashion;;2016;26,RDSTJENS00012038,28,RDSTJENS00012039,30,RDSTJENS00012040,32,RDSTJENS00012041,34,RDSTJENS00012042,36,RDSTJENS00012043;1299.00;;;;;;;ndd-mumbai,myntra-store-03,rd-free-lander-women,Coupon-offer-aug19;zerotype;;Fall;add;No
1570410;KNK-MJ-125-D INDIGO-1570410;Indigo Dyed jeans;On Hold - Sample;Jeans;Kook N Keech;Adults-Men;Men;;;;Fashion;;2017;28,KNKHJENS00000974,30,KNKHJENS00000975,32,KNKHJENS00000976,34,KNKHJENS00000977,36,KNKHJENS00000978,38,KNKHJENS00000979;1899.00;;;;;;;ndd-mumbai,myntra-store-03,Coupon-offer-aug19;zerotype;;Spring;add;No
1549733;HD-7808-A-MULTI PINK-1549733;WOMEN`S TRACK PANTS;On Hold - Sample;Trousers;HRX by Hrithik Roshan;Adults-Women;Women;;;;Fashion;;2017;L,HBHRTRSR00000874,XL,HBHRTRSR00000875;1399.00;;;;;;;ndd-mumbai,myntra-store-03;zerotype;;Spring;myntra-store-03;No
1537343;16FES11048-57246-WHITE-1537343;KURTA;On Hold - Sample;Kurtas;W;Adults-Women;Women;NA;;;Fashion;;2015;UK14,WWWWKRTA00116778,UK16,WWWWKRTA00116779,UK6,WWWWKRTA00120158,UK8,WWWWKRTA00120159,UK10,WWWWKRTA00120160,UK12,WWWWKRTA00120161,UK18,WWWWKRTA00120162;3599.00;<p>Viscose</p>;;<p>Dry clean only</p>;;;;w-discount-new;zerotype;;Fall;w-discount-new;No
1510895;7832-IVORY MIX-1510895;7832 LS CL PLCKET BLSE Y8, 12;On Hold - Sample;Tops;Marks & Spencer;Adults-Women;Women;;;;Fashion;;2016;UK12,MKSPTOPS00001901,UK14,MKSPTOPS00001902,UK16,MKSPTOPS00001903,UK18,MKSPTOPS00001904,UK8,MKSPTOPS00001905;2999.00;<p>100.0% Polyester</p>;;;;;;dressestopsvalentines,next-day-delivery,ndd-gurgaon,myntra-store-01,high-street-brands,eors-wishlist06,eors-wishlist08;zerotype;;Fall;eors-wishlist08;No
1470724;110017572019-TEAL-1470724;Izabel London by Pantaloons Women's Striped S;On Hold - Sample;Sweaters;IZABEL LONDON by Pantaloons;Adults-Women;Women;;;;Fashion;;2016;2XL,IZLPSWTR00000070,L,IZLPSWTR00000071,M,IZLPSWTR00000072,XL,IZLPSWTR00000073;1299.00;<p>Polyester</p>;;;;;;ndd-mumbai,myntra-store-03;zerotype;;Fall;myntra-store-03;No
1470366;110017553004-BURGUNDY-1470366;Izabel London by Pantaloons Women's Geomatric;On Hold - Sample;Tops;IZABEL LONDON by Pantaloons;Adults-Women;Women;;;;Fashion;;2016;2XL,IZLPTOPS00000652,L,IZLPTOPS00000653,M,IZLPTOPS00000654,XL,IZLPTOPS00000655;999.00;<p>Rayon</p>;;;;;;ndd-mumbai,myntra-store-03;zerotype;;Fall;myntra-store-03;No
1421552;SW 9075-Pink-1421552;CHECKMATE P;On Hold - Sample;Swimwear;Heart 2 Heart;Adults-Women;Women;;;;Fashion;;2017;L,H2HPSWMW00000557,M,H2HPSWMW00000558,XL,H2HPSWMW00000559;2250.00;<p>Polyester</p>;;;;;;tat-styles-31aug,lfb1500g20;zerotype;;Summer;season_Update_25Apr;No
1404654;VSTF316S07042-Light grey Solid-1404654;Trouser;On Hold - Sample;Trousers;Van Heusen Sport;Adults-Men;Men;Black;;;Fashion;Casual;2016;72,VHSPTRSR00001007,76,VHSPTRSR00001008,82,VHSPTRSR00001009,86,VHSPTRSR00001010,92,VHSPTRSR00001011,96,VHSPTRSR00001012,102,VHSPTRSR00001013;2799.00;A pair of <a href='/black?src=pd' class='seolink'>black</a> mid-rise chino <a href='/trousers?src=pd' class='seolink'>trousers</a>, has five pockets, a zip fly with a button closure, and a waistband with belt loops;This pair of trousers is impeccably designed to ensure a clean and fuss-free fit. Team it up with a casual shirt and casual shoes for a smart appeal.;100% cotton<br>Machine-wash warm;Slim fit, mid-rise<br>The model (height 6' and waist 32") is wearing a size 32;;Van Heusen Sport Black Slim Chino Trousers;Van Heusen Sport,mens-sum-fest-bxgy,mitm-formal-sep,mitm-college-sep;zerotype;;Summer;Broken size;No
1369961;HC24646-TU-356_AQUA_XXL-AQUA-1369961;HC24646-TU-356;On Hold - Sample;Kurtas;Global Desi;Adults-Women;Women;Blue;;;Fashion;Ethnic;2016;XS,GBDTNIC00002706,S,GBDTNIC00002707,M,GBDTNIC00002708,L,GBDTNIC00002709,XL,GBDTNIC00002710,XXL,GBDTNIC00002711;1999.00;Blue A-line high-low kurta with printed detail, has a round neck, short button placket, short sleeves;Look stylish by wearing this kurta from Global Desi. Team it with a pair of leggings and flats for the perfect summer look.;Cotton<br />Hand-wash;The model (height 5'8'') is wearing a size XS;;Global Desi Blue A-Line High-Low Kurta;Global Desi,JIT,fusionwear-new2016,rtw-casualwear,500rs-5jul,off-1000-4sept,min-3000-off-4sep-2016,500-13sep,topwomenbrandsbbd,ethnicbestsellerbbd,diwali-women-ethnic-oct,fwbs-ew16,welcome-to-mmt,brand-rush-dec,MFH-millennial-fusionwear,happyhour-rs-off,topbrandseors2017,eors-coupon-4jan,HH12JAN17,HH07FEB17,v-day-styles,welcome-to-myntra-feb,welcome-to-myntra-feb-new,bday-offer,bday-happy-hour,coupon-crush-1,weekend-coupon-offer,wishlisters-wish10-feb25,coupon-offer-monday,payday-offer-0103,welcome-to-march,holi-basket-mar,balloon-blast,balloon-blast-500,holi-top-women,superhour-feb26,happy-hour-mar19,flash-sale-launch,spring15-mar20,extra30-mar21,styles-mar17,welcome-to-myntra-mar17,extra50-mar28,mar29-super-hour,31mar-extra15,hh-0104,chill-summer-apr,rtw-fusion-kurtas,rtw-fusion-range;zerotype;;Spring;rtw-fusion-range;No
1352578;HD-6014-D-ROYAL BLUE#69-1352578;MEN'S JACKET;On Hold - Sample;Jackets;HRX by Hrithik Roshan;Adults-Men;Men;;;;Fashion;;2016;S,HBHRJCKT00000534,M,HBHRJCKT00000535,L,HBHRJCKT00000536,XL,HBHRJCKT00000537,XXL,HBHRJCKT00000538;3999.00;;;;;;;tbfg-fitfabulous-sports,tbfg-sportsfanatic,tbfg-sportsfashion-athleisurelyyours-hrx,tbfg-sports-fitfabulous-brands-hrx,tbfg-sportsfashion-athleisurelyyours-viewall,tbfg-sportsfashion-athleisurelyyours-jackets,tbfg-sports-fitfabulous-day3-topwear,Coupon-offer-aug19;zerotype;;Fall;add;No
1202260;RDAW15VATO21 D-Black/Anthra milange -1202260;Roadster Black T-shirt;On Hold - Sample;Tshirts;Roadster;Adults-Women;Women;;;;Fashion;;2016;L,RDSTTSHT00017171;699.00;;;;;;;,ss16launch-women-allnewtopsandtees,roadster-womens-tees,roadster-women-new-arrivals,roadster-womens-brand,roadster-new-fw-16,Coupon-offer-aug19;zerotype;;Spring;add;No
1196952;3668616-Mid Blue-1196952;BUTTON THRU DENIM SKIRT;On Hold - Sample;Skirts;New Look;Adults-Men;Women;Beige;Beige;Beige;Fashion;Sports;2016;UK20,NWLKSKRT00000042,UK22,NWLKSKRT00000043,UK24,NWLKSKRT00000044,UK26,NWLKSKRT00000045;2699.00;Shell - COTTON (100.0%) ;;;;;;,ss16launch-women-allnewshortsandskirts,ss16launch-women-allnewbottoms,tat-styles-31aug,bottomwear-pre-bbd-sale,bbd-pre-sale-2016,next-day-delivery,ndd-gurgaon,myntra-store-01,high-street-brands;zerotype;;Summer;add tag;No
1196951;3668616-Black-1196951;BUTTON THRU DENIM SKIRT;On Hold - Sample;Skirts;New Look;Adults-Men;Women;Beige;Beige;Beige;Fashion;Sports;2016;UK20,NWLKSKRT00000038,UK22,NWLKSKRT00000039,UK24,NWLKSKRT00000040,UK26,NWLKSKRT00000041;2699.00;Shell - COTTON (100.0%) ;;;;;;,ss16launch-women-allnewshortsandskirts,ss16launch-women-allnewbottoms,bottomwear-pre-bbd-sale,bbd-pre-sale-2016,next-day-delivery,ndd-gurgaon,myntra-store-01,high-street-brands;zerotype;;Summer;add tag;No
1009052;2256K-MULTI-1009052;2256K 3pk Wh/blk/gy LS ZZ;On Hold - Sample;Shirts;Marks & Spencer;Adults-Men;Men;Black;White;Grey;Fashion;Formal;2015;15+,MKSPSHRT00000173,16,MKSPSHRT00000966,17,MKSPSHRT00000967,16+,MKSPSHRT00000968,17+,MKSPSHRT00000969;2999.00;Pack of three formal shirts in black, white and grey<br />Each has a spread collar with a full button placket, long sleeves, a patch pocket, and a curved hem;Add these trendy shirts from Marks & Spencer to your formal staples. For a truly professional look, impress your colleagues by pairing these with slim trousers and Oxfords.;100% cotton <br />Machine-wash cold;The model (height 6') is wearing a size 40;;Marks & Spencer Men Pack of 3 Solid Formal Shirts;Marks & Spencer,HH10FEB16,HH10FEB16,mens-casual-diwali-sales,vd-men-shirts,ndd-gurgaon,myntra-store-01,high-street-brands,marks-spencer-workwear,eors-wishlist15,eors-wishlist16,eors-wishlist17,MATT045;Shirts;Marks & Spencer;Fall;Broken size;No
894441;RD-WJ-233-D Indigo-894441;BLUE;On Hold - Sample;Jeans;Roadster;Adults-Women;Women;NA;;;Fashion;NA;2015;26,RDSTJENS00005681,28,RDSTJENS00005682,30,RDSTJENS00005683,32,RDSTJENS00005684,34,RDSTJENS00005685,36,RDSTJENS00005686;1299.00;<p>BLUE</p>;<p>NA</p>;<p>NA</p>;<p>NA</p>;;NA;,Roadster-SS16-Launch,ss16launch-women-allnewbottoms,Roadster-SS16-Launch,roadster-brand-campaign-unisex,,-jeans,roadster-jeans-upto50off,roadster-womens-jeans,roadster-women-new-arrivals,roadster-womens-brand,roadster-new-fw-16,rd-am-24,rd-women-fullcollection;Jeans;Roadster;Winter;rd-women-fullcollection;No
829704;1739005005-Cloud Dancer-829704;onlLINDA SL SHIRT-IN, Cloud Dancer, 42;On Hold - Sample;Shirts;ONLY;Adults-Women;Women;Off White;Blue;;Fashion;Casual;2015;34,ONLYSHRT00001784,36,ONLYSHRT00001785,38,ONLYSHRT00001786,40,ONLYSHRT00001787,42,ONLYSHRT00001788;1495.00;Off-white and blue floral printed shirt, has a spread collar, sleeveless, a full button placket, two patch pockets, a curved hemline;Versatile and stylish, this shirt from ONLY is an ideal option for a casual outing with friends. We suggest you to style it with a pair of trousers and ballerinas or flats to complete the look.;<span>70% cotton, 30% silk<br>Machine-wash cold</span>;The model (height 5'8'') is wearing a size S;;ONLY Off-White & Blue Printed Shirt;ONLY,ZORI0277,dailyopenoffer30,,only-osm,,HH19NOV2015,MINIHH23NOV,ios-promotion-25nov,only-chic-in-the-city,dailyopenoffer10,HH16DEC,hh08jan16,HH18JAN15,HH10FEB16,tapv230,dailyopenoffer10,dailyopenoffer20,first-login-offer,casual-wear-offer-10apr,rs-500-off-22may,women-western-rfm-2016,fff-casualwear,rs-500-off-28may,500rs-1jun,rs-500-off-5jun,rs-500-off-june,rs-500-off-june-pn,College-store-tops-women,rs-500-off-26june,college-store,buy5-extra50-5jul,500rs-5jul,b1gx-5jul,college-store-view-all,rs-500-off-10jul,rs500-off-17july,rs-500-off-03aug,500-rs-off-10aug,rs500-off-17aug,ndd-deal,inb-august,rs-500-24aug,off-1000-500-8sep,onam16-women-shirts,500-13sep,JIT,bbd-pre-register,topwomenbrandsbbd,welcome-to-myntra-sept,prepaid-purchase-extra30,new-customer-Offer,bankoffer-nov-10,ola-offer-nov16,brand-rush-dec,happyhours-dec23,happy-hour-december,happyhour-rs-off,shirtsblousesfirsttimeondiscounteors,shirtsblouson,topbrandseors2017,HH12JAN17,v-day-styles,welcome-to-march,superhour-feb26,extra30-mar10,holi-basket-mar,balloon-blast-13,holi-top-women,happy-hour-mar19,welcome-to-myntra-mar17,super-hour-mar17,rs500off-crush500,crush500-mar28,crush20-mar28,cc-articles-2803,extra1000-mar28,welcome-to-march-new,welcome-to-mar17-new,rs300-off-mar17,mar29-super-hour,welcome-to-myntra-april,hh-0104,apr12-super-hour,summer-style-apr,take20-apr17,mse-only,apr15-hh,super-hour-ccmay,super-hour-may9,big10-flash50,big10-lucky10,big10-super-hour25,big10-extra40,big10-mse-only,big10-extra20,ladies-night-coupon1,ladies-night-coupon2,hh-jun2,jun08-wonder-hour,offer-11jun,min30-jun12,ftod-eorsj17-40,welcome-to-myntra-july,signup-july-2017,ladies-night-jul18,bss-uber-offer,duty-offer-august,welcome-to-myntra-august17,extra20-jul31,uber-offer-jul31,buy3-2499-3107;Shirts;ONLY;Summer;Broken size;No
609361;USSW0373-ECRU MELANGE-609361;Sleeveless v neck sweater;On Hold - Sample;Sweaters;U.S. Polo Assn.;Adults-Men;Men;Beige;;;Fashion;Casual;2016;L,USPOSWTR00000353,M,USPOSWTR00000354,XL,USPOSWTR00000355,S,USPOSWTR00000413,XXL,USPOSWTR00000414;2499.00;<p>Beige knitted sweater, has a ribbed V-neck, sleeveless with ribbed armholes, contrast patterned knit on the front, a brand tag above the front ribbed hemline towards the left, solid back</p>;<p>U.S. Polo Assn.'s winter collection offers a touch of sophistication without compromising on comfort. We suggest you to team this sweater with a solid T-shirt, a pair of jeans and sneakers for a smart look.</p>;<p>80% lambswool, 20% nylon<br />Dry clean</p>;Regular fit <br>The model (height 6'2'') is wearing a size M;;U.S. Polo Assn. Men Beige Woollen Sweater;U.S. Polo Assn.,JANI0248,uspagfo,winterwear&boots13feb15,,,,,,,HH24MARCH2015,first-time-on-discount-bbd,first-time-on-discount-10oct,cohort-25thoctober,extra10-25oct,myntra-open-coupon-offer,myntra-sepcial-offer-2016,welcome-to-myntra-sept,new-customer-Offer,500-Off-FW-Nov-16,1000-Off-FW-Nov-16,buyoneat50-buytwoat60-27nov,extra-500-off-nov,welcome-to-mmt,extra-500-off-dec6,400off-15dec-16,happyhours-dec23,happy-hour-december,winter-essentials,winteressentialsmen,happyhour-rs-off,welcome-to-eors,eors-coupon-4jan,welcome-to-mynt-jan,welcome-to-myntra-jan,HH12JAN17,welcome-to-myntra-jan-new,first-1000-extra30-jan17,welcome-to-myntra-new-jan,HH20JAN17,stylesforextra5-jan17,flat40-extra40-jan17,budget-deal,cohort-customers,Extra-302728,HH07FEB17,v-day-styles,welcome-to-myntra-feb,welcome-to-myntra-feb-new,vday-coupon-offer,bday-offer,bday-happy-hour,coupon-crush-5,coupon-crush-8,coupon-crush-9,coupon-crush-10,coupon-crush-11,weekend-coupon-offer,wishlisters-wish10,wishlisters-wish10-feb25,superhour-feb26,first1000-lastday300,extra30-lastday30-feb26,coupon-offer-monday,welcome-to-march,wday-best25,holi-offer-sale,extra30-mar10,holi-basket-mar,balloon-blast-13,balloon-blast-18,balloon-blast-500,holi-super,coupon-15-mar14,flash-sale-launch,happy-hour-mar19,march25-sun,spring15-mar20,bnb-styles-mar17,mid-day-rush,most-wishlisted-mar17,extra50-flash50,rush-hour-extra20-mar28,mar29-super-hour,mar-29-extra25,flat40-mar30,b2-50-mar31,welcome-to-myntra-april,extra50-apr1,hh-0104,bfg-event-apr,bfg-extra20,bfg-extra30,bfg-extra10,bfg-apr10,extra30-bfg-10apr,apr12-super-hour,extra50-apr13,extra30-apr20,ftod-bb-apr20,gold22-bb,b3-50-rush50,apr15-hh,best25-apr25,buy-one-get-one,coupon-crush05,flash-sale-apr29,super-hour-ccmay,bestsellers-may6,flash-sale-may6,flat50-extra20-may9,b3-60-may9,super-hour-may9,welcome-to-myntra-may-big,big10-super-hour25,big10-mse-uspa,big10-mse-all,big10-extra20,big10-coupon-offer,best-seller-1905,may21-hh,mantastic-uber-link17,mantasticmay17,may27-price-surge,casualfest-june17,jun07-extra50,jun8-offer999,offer-11jun,casual-june-17,mumbai-duty-free,mumbai-airport-duty,wishlist-eors,ola-offer-jul17,wonder-hour-jun25,mitm-aw-aug;Sweaters;U.S. Polo Assn.;Winter;aw16 styles;No
600686;HD-20-Blue/Navy/White-600686;FS-Alonso Shirts;On Hold - Sample;Shirts;Roadster;Adults-Men;Men;NA;;;Fashion;NA;2015;S,RDSTSHRT00005926,M,RDSTSHRT00005927,L,RDSTSHRT00005928,XL,RDSTSHRT00005929;1099.00;<p>NA</p>;<p>NA</p>;<p>NA</p>;<p>NA</p>;;NA;,dailyopenoffer30,dailyopenoffer20,Roadster-Newarrival,Roadster-Men-Newarrival,Roadster-SS16-Launch,,Roadster-SS16-Launch,roadster-brand-campaign-unisex,Roadster-Topwear-Unisex,Roadster-Topwear-Men,,Roadster-Men-Shirts-Newarrival,shirt-story,ndd-mumbai,myntra-store-03,rd-al-24,rd-am-24,rd-as-24,rd-se-24,rd-men-fullcollection,rd-accessories,Coupon-offer-aug19;Shirts;Roadster;Winter;add;No
595243;MK-3-TURQGREEN-595243;PIN TUCK;On Hold - Sample;Tops;Roadster;Adults-Women;Women;Beige;;;Fashion;Casual;2015;S,RDSTTOPS00003052,M,RDSTTOPS00003053,L,RDSTTOPS00003054,XL,RDSTTOPS00003055;899.00;;;;;;;,dailyopenoffer30,dailyopenoffer20,Roadster-Newarrival,Roadster-Women-Newarrival,Roadster-SS16-Launch,Roadster-SS16-Launch,roadster-brand-campaign-unisex,Roadster-Topwear-Unisex,,-tops,roadster-womens-tees,roadster-women-new-arrivals,roadster-womens-brand,roadster-new-fw-16,next-day-delivery,ndd-gurgaon,myntra-store-01,rd-al-24,rd-am-24,rd-se-24,rd-women-fullcollection,Coupon-offer-aug19;Tops;Roadster;Winter;add;No
533722;MISKTSF4870-Blue/White-533722;Mirage Blue/White Printed with contrast hem;On Hold - Sample;Skirts;Mirage;Adults-Women;Women;Beige;Beige;Beige;Fashion;Casual;2015;L/XL,MRGESKRT00000049;1899.00;<p>Cotton</p>;;;;;;,dailyopenoffer30,dailyopenoffer20,next-day-delivery,ndd-gurgaon,myntra-store-01,Coupon-offer-aug19;Skirts;Mirage;Winter;add;No
