Style ID;Vendor Article Number;Vendor Article Name;Active Status;Article type;Brand;Age Group;Gender;Base Colour;Colour1;Colour2;Fashion Type;Usage;Year;Size - SKU code pair;MRP;Style Description;Style Note;Materials and Care Description;Size and Fit Description;Size Chart Path;Product Display Name;Tags;Product Type;Classification Brand;Season;Comments;Upload Images
2135733;3895672-BLACK-2135733;OVSBLACKJackets;Draft;Jackets;OVS;Adults-Men;Men;NA;;;Fashion;;2017;XL,OVSSJCKT00000037,M,OVSSJCKT00000038,L,OVSSJCKT00000039,S,OVSSJCKT00000040,XXL,OVSSJCKT00000041;3999.00;;;<p>MAIN FABRIC: 83% VISCOSE, 17% POLYESTER - COATING: 100% POLYURETHANE - LINING: 100% POLYESTER</p>;;;;;zerotype;;Fall;;No
2135732;3895657-GREY-2135732;OVSGREYJackets;Draft;Jackets;OVS;Adults-Men;Men;NA;;;Fashion;;2017;XL,OVSSJCKT00000032,M,OVSSJCKT00000033,S,OVSSJCKT00000034,XXL,OVSSJCKT00000035,L,OVSSJCKT00000036;2499.00;;;<p>MAIN FABRIC: 100% VISCOSE - COATING: 100% POLYURETHANE - HOOD: 66% COTTON, 31% POLYESTER, 3% VISCOSE - LINING: 100% POLYESTER</p>;;;;;zerotype;;Fall;;No
2135731;3895647-BLUE-2135731;OVSBLUEJackets;Draft;Jackets;OVS;Adults-Men;Men;NA;;;Fashion;;2017;L,OVSSJCKT00000028,XL,OVSSJCKT00000029,M,OVSSJCKT00000030,XXL,OVSSJCKT00000031;2999.00;;;<p>BODY: 100% POLYESTER - BODY LINING: 100% POLYESTER</p>;;;;;zerotype;;Fall;;No
2135694;2978324-CHINA-BLU-2135694;OVSCHINA-BLUSuits;Draft;Suits;OVS;Adults-Men;Men;NA;;;Fashion;;2017;48,OVSSSUIT00000004,46,OVSSSUIT00000005,44,OVSSSUIT00000006;9999.00;;;<p>OUTSIDE SHELL: 82% POLYESTER, 16% VISCOSE, 2% ELASTANE - LINING: 100% POLYESTER</p>;;;;;zerotype;;Fall;;No
2135693;2978317-BLACK-2135693;OVSBLACKSuits;Draft;Suits;OVS;Adults-Men;Men;NA;;;Fashion;;2017;48,OVSSSUIT00000001,44,OVSSSUIT00000002,46,OVSSSUIT00000003;9999.00;;;<p>OUTSIDE SHELL: 70% POLYESTER, 28% VISCOSE, 2% ELASTANE - LINING: 100% POLYESTER</p>;;;;;zerotype;;Fall;;No
2135652;6482784-BLUE-2135652;OVSBLUEShorts;Draft;Shorts;OVS;Adults-Men;Men;NA;;;Fashion;;2017;S,OVSSSHOR00000107,M,OVSSSHOR00000108,L,OVSSSHOR00000109,XXL,OVSSSHOR00000110,XL,OVSSSHOR00000111;999.00;;;<p>100% COTTON</p>;;;;;zerotype;;Fall;;No
2135650;6481614-NAVY BLUE-2135650;OVSNAVY BLUEShorts;Draft;Shorts;OVS;Adults-Men;Men;NA;;;Fashion;;2017;XXL,OVSSSHOR00000102,L,OVSSSHOR00000103,S,OVSSSHOR00000104,XL,OVSSSHOR00000105,M,OVSSSHOR00000106;999.00;;;<p>100% COTTON</p>;;;;;zerotype;;Fall;;No
2135643;6481114-MEDIUM GREY MELANGE-2135643;OVSMEDIUM GREY MELANGEShorts;Draft;Shorts;OVS;Adults-Men;Men;NA;;;Fashion;;2017;XXL,OVSSSHOR00000073,L,OVSSSHOR00000074,S,OVSSSHOR00000075,M,OVSSSHOR00000076,XL,OVSSSHOR00000077;699.00;;;<p>65% POLYESTER, 35% COTTON</p>;;;;;zerotype;;Fall;;No
2135642;6481109-MAROON-2135642;OVSMAROONShorts;Draft;Shorts;OVS;Adults-Men;Men;NA;;;Fashion;;2017;XXL,OVSSSHOR00000068,M,OVSSSHOR00000069,S,OVSSSHOR00000070,L,OVSSSHOR00000071,XL,OVSSSHOR00000072;699.00;;;<p>65% POLYESTER, 35% COTTON</p>;;;;;zerotype;;Fall;;No
2134950;3374963-GREY-STRIPED BLACK-2134950;OVSGREY-STRIPED BLACKShirts;Draft;Shirts;OVS;Adults-Men;Men;NA;;;Fashion;;2017;M,OVSSSHRT00000240,XXL,OVSSSHRT00000241,S,OVSSSHRT00000242,XL,OVSSSHRT00000243,L,OVSSSHRT00000244;1699.00;;;<p>100% COTTON</p>;;;;;zerotype;;Fall;;No
2134949;2097241-MEDIUM BLUE-2134949;OVSMEDIUM BLUEShirts;Draft;Shirts;OVS;Adults-Men;Men;NA;;;Fashion;;2017;M,OVSSSHRT00000236,S,OVSSSHRT00000237,L,OVSSSHRT00000238,XL,OVSSSHRT00000239;1999.00;;;<p>100% COTTON</p>;;;;;zerotype;;Fall;;No
2134947;2097191-MEDIUM BLUE-2134947;OVSMEDIUM BLUEShirts;Draft;Shirts;OVS;Adults-Men;Men;NA;;;Fashion;;2017;M,OVSSSHRT00000227,S,OVSSSHRT00000228,XL,OVSSSHRT00000229,XXL,OVSSSHRT00000230;1999.00;;;<p>100% COTTON</p>;;;;;zerotype;;Fall;;No
2134946;2097131-BLUE/RED CHECK-2134946;OVSBLUE/RED CHECKShirts;Draft;Shirts;OVS;Adults-Men;Men;NA;;;Fashion;;2017;XL,OVSSSHRT00000222,S,OVSSSHRT00000223,XXL,OVSSSHRT00000224,M,OVSSSHRT00000225,L,OVSSSHRT00000226;1699.00;;;<p>MAIN FABRIC: 100% COTTON - TRIMMING: 100% POLYESTER</p>;;;;;zerotype;;Fall;;No
2134932;2096891-BLUE-2134932;OVSBLUEShirts;Draft;Shirts;OVS;Adults-Men;Men;NA;;;Fashion;;2017;L,OVSSSHRT00000156,M,OVSSSHRT00000157,XL,OVSSSHRT00000158,XXL,OVSSSHRT00000159,S,OVSSSHRT00000160;2499.00;;;<p>100% FLAX</p>;;;;;zerotype;;Fall;;No
2134931;2096886-WHITE-2134931;OVSWHITEShirts;Draft;Shirts;OVS;Adults-Men;Men;NA;;;Fashion;;2017;L,OVSSSHRT00000151,XL,OVSSSHRT00000152,XXL,OVSSSHRT00000153,M,OVSSSHRT00000154,S,OVSSSHRT00000155;2499.00;;;<p>100% FLAX</p>;;;;;zerotype;;Fall;;No
2134930;2096826-BLUE-2134930;OVSBLUEShirts;Draft;Shirts;OVS;Adults-Men;Men;NA;;;Fashion;;2017;L,OVSSSHRT00000146,XL,OVSSSHRT00000147,XXL,OVSSSHRT00000148,S,OVSSSHRT00000149,M,OVSSSHRT00000150;1699.00;;;<p>100% COTTON</p>;;;;;zerotype;;Fall;;No
2134923;2096556-WHITE-2134923;OVSWHITEShirts;Draft;Shirts;OVS;Adults-Men;Men;NA;;;Fashion;;2017;M,OVSSSHRT00000116,XXL,OVSSSHRT00000117,XL,OVSSSHRT00000118,S,OVSSSHRT00000119,L,OVSSSHRT00000120;2999.00;;;<p>100% FLAX</p>;;;;;zerotype;;Fall;;No
2134920;2096506-BLUE-2134920;OVSBLUEShirts;Draft;Shirts;OVS;Adults-Men;Men;NA;;;Fashion;;2017;XXL,OVSSSHRT00000106,S,OVSSSHRT00000107,M,OVSSSHRT00000108,XL,OVSSSHRT00000109,L,OVSSSHRT00000110;1499.00;;;<p>100% COTTON</p>;;;;;zerotype;;Fall;;No
2134919;2096501-BLUE/RED CHECK-2134919;OVSBLUE/RED CHECKShirts;Draft;Shirts;OVS;Adults-Men;Men;NA;;;Fashion;;2017;XXL,OVSSSHRT00000101,S,OVSSSHRT00000102,M,OVSSSHRT00000103,L,OVSSSHRT00000104,XL,OVSSSHRT00000105;1699.00;;;<p>100% COTTON</p>;;;;;zerotype;;Fall;;No
2134918;2096496-BLUE/GREEN CHECK-2134918;OVSBLUE/GREEN CHECKShirts;Draft;Shirts;OVS;Adults-Men;Men;NA;;;Fashion;;2017;M,OVSSSHRT00000096,S,OVSSSHRT00000097,L,OVSSSHRT00000098,XL,OVSSSHRT00000099,XXL,OVSSSHRT00000100;1699.00;;;<p>100% COTTON</p>;;;;;zerotype;;Fall;;No
2134917;2096491-BLUE/GREY CHECK-2134917;OVSBLUE/GREY CHECKShirts;Draft;Shirts;OVS;Adults-Men;Men;NA;;;Fashion;;2017;XXL,OVSSSHRT00000091,S,OVSSSHRT00000092,L,OVSSSHRT00000093,XL,OVSSSHRT00000094,M,OVSSSHRT00000095;1699.00;;;<p>100% COTTON</p>;;;;;zerotype;;Fall;;No
2134916;2096471-BLUE-2134916;OVSBLUEShirts;Draft;Shirts;OVS;Adults-Men;Men;NA;;;Fashion;;2017;L,OVSSSHRT00000086,XXL,OVSSSHRT00000087,M,OVSSSHRT00000088,XL,OVSSSHRT00000089,S,OVSSSHRT00000090;2499.00;;;<p>100% COTTON</p>;;;;;zerotype;;Fall;;No
2134912;2096401-WHITE-2134912;OVSWHITEShirts;Draft;Shirts;OVS;Adults-Men;Men;NA;;;Fashion;;2017;M,OVSSSHRT00000066,XL,OVSSSHRT00000067,XXL,OVSSSHRT00000068,L,OVSSSHRT00000069,S,OVSSSHRT00000070;2499.00;;;<p>100% COTTON</p>;;;;;zerotype;;Fall;;No
2134911;2096301-BLUE/LT BLUE CHECK-2134911;OVSBLUE/LT BLUE CHECKShirts;Draft;Shirts;OVS;Adults-Men;Men;NA;;;Fashion;;2017;M,OVSSSHRT00000061,S,OVSSSHRT00000062,XXL,OVSSSHRT00000063,XL,OVSSSHRT00000064,L,OVSSSHRT00000065;999.00;;;<p>65% POLYESTER, 35% COTTON</p>;;;;;zerotype;;Fall;;No
2134910;2096286-PRINTED ON BLUE BGD-2134910;OVSPRINTED ON BLUE BGDShirts;Draft;Shirts;OVS;Adults-Men;Men;NA;;;Fashion;;2017;XXL,OVSSSHRT00000056,S,OVSSSHRT00000057,L,OVSSSHRT00000058,XL,OVSSSHRT00000059,M,OVSSSHRT00000060;1499.00;;;<p>65% POLYESTER, 35% COTTON</p>;;;;;zerotype;;Fall;;No
2132640;8723335-DENIM BLUE-2132640;OVSDENIM BLUEJeans;Draft;Jeans;OVS;Adults-Men;Men;NA;;;Fashion;;2017;44,OVSSJENS00000082,52,OVSSJENS00000083,48,OVSSJENS00000084,46,OVSSJENS00000085,50,OVSSJENS00000086;2499.00;;;<p>2083 ~ 98% COTTON 2% ELASTANE</p>;;;;;zerotype;;Fall;;No
2132598;2376514-MAROON-2132598;OVSMAROONJumpsuit;Draft;Jumpsuit;OVS;Adults-Men;Men;NA;;;Fashion;;2017;XXL,OVSSJMST00000029,M,OVSSJMST00000030,L,OVSSJMST00000031,S,OVSSJMST00000032,XL,OVSSJMST00000033;1499.00;;;<p>85% COTTON, 15% POLYESTER</p>;;;;;zerotype;;Fall;;No
2132597;2376509-BLACK-2132597;OVSBLACKJumpsuit;Draft;Jumpsuit;OVS;Adults-Men;Men;NA;;;Fashion;;2017;S,OVSSJMST00000024,M,OVSSJMST00000025,XXL,OVSSJMST00000026,XL,OVSSJMST00000027,L,OVSSJMST00000028;1499.00;;;<p>85% COTTON, 15% POLYESTER</p>;;;;;zerotype;;Fall;;No
2132595;2376489-BLUE-2132595;OVSBLUEJumpsuit;Draft;Jumpsuit;OVS;Adults-Men;Men;NA;;;Fashion;;2017;M,OVSSJMST00000016,XL,OVSSJMST00000017,L,OVSSJMST00000018,S,OVSSJMST00000019;1499.00;;;<p>100% ACRYLIC</p>;;;;;zerotype;;Fall;;No
2132594;2375854-BLUE-2132594;OVSBLUEJumpsuit;Draft;Jumpsuit;OVS;Adults-Men;Men;NA;;;Fashion;;2017;S,OVSSJMST00000011,XXL,OVSSJMST00000012,XL,OVSSJMST00000013,M,OVSSJMST00000014,L,OVSSJMST00000015;1699.00;;;<p>100% COTTON</p>;;;;;zerotype;;Fall;;No
2132569;6483803-BLUE-2132569;OVSBLUETrack Pants;Draft;Track Pants;OVS;Adults-Men;Men;NA;;;Fashion;;2017;S,OVSSTRPT00000001,XS,OVSSTRPT00000002,XXL,OVSSTRPT00000003,M,OVSSTRPT00000004,L,OVSSTRPT00000005,XL,OVSSTRPT00000006;1999.00;;;<p>100% COTTON</p>;;;;;zerotype;;Fall;;No
2131882;6484895-MEDIUM GREY MELANGE-2131882;OVSMEDIUM GREY MELANGETshirts;Draft;Tshirts;OVS;Adults-Men;Men;NA;;;Fashion;;2017;XL,OVSSTSHT00001328,S,OVSSTSHT00001329,L,OVSSTSHT00001330,M,OVSSTSHT00001331,XXL,OVSSTSHT00001332;499.00;;;<p>70% POLYESTER, 30% COTTON</p>;;;;;zerotype;;Fall;;No
2131881;6484890-NIGHT-BLUE-2131881;OVSNIGHT-BLUETshirts;Draft;Tshirts;OVS;Adults-Men;Men;NA;;;Fashion;;2017;S,OVSSTSHT00001323,XXL,OVSSTSHT00001324,XL,OVSSTSHT00001325,L,OVSSTSHT00001326,M,OVSSTSHT00001327;499.00;;;<p>100% COTTON</p>;;;;;zerotype;;Fall;;No
2131880;6484885-DARK AZURE-2131880;OVSDARK AZURETshirts;Draft;Tshirts;OVS;Adults-Men;Men;NA;;;Fashion;;2017;M,OVSSTSHT00001318,XXL,OVSSTSHT00001319,S,OVSSTSHT00001320,XL,OVSSTSHT00001321,L,OVSSTSHT00001322;499.00;;;<p>100% COTTON</p>;;;;;zerotype;;Fall;;No
2131878;6484880-OPTICAL WHITE-2131878;OVSOPTICAL WHITETshirts;Draft;Tshirts;OVS;Adults-Men;Men;NA;;;Fashion;;2017;M,OVSSTSHT00001313,S,OVSSTSHT00001314,XL,OVSSTSHT00001315,L,OVSSTSHT00001316,XXL,OVSSTSHT00001317;499.00;;;<p>100% COTTON</p>;;;;;zerotype;;Fall;;No
2131877;6484875-RASPBERRY-2131877;OVSRASPBERRYTshirts;Draft;Tshirts;OVS;Adults-Men;Men;NA;;;Fashion;;2017;XXL,OVSSTSHT00001308,XL,OVSSTSHT00001309,S,OVSSTSHT00001310,L,OVSSTSHT00001311,M,OVSSTSHT00001312;499.00;;;<p>100% COTTON</p>;;;;;zerotype;;Fall;;No
2131875;6484870-LINCOLN GREEN-2131875;OVSLINCOLN GREENTshirts;Draft;Tshirts;OVS;Adults-Men;Men;NA;;;Fashion;;2017;L,OVSSTSHT00001303,S,OVSSTSHT00001304,XXL,OVSSTSHT00001305,XL,OVSSTSHT00001306,M,OVSSTSHT00001307;499.00;;;<p>100% COTTON</p>;;;;;zerotype;;Fall;;No
2131874;6484847-OLD-ROSE-2131874;OVSOLD-ROSETshirts;Draft;Tshirts;OVS;Adults-Men;Men;NA;;;Fashion;;2017;XXL,OVSSTSHT00001298,L,OVSSTSHT00001299,M,OVSSTSHT00001300,S,OVSSTSHT00001301,XL,OVSSTSHT00001302;499.00;;;<p>100% COTTON</p>;;;;;zerotype;;Fall;;No
2131873;6484842-ACID YELLOW-2131873;OVSACID YELLOWTshirts;Draft;Tshirts;OVS;Adults-Men;Men;NA;;;Fashion;;2017;XL,OVSSTSHT00001293,M,OVSSTSHT00001294,L,OVSSTSHT00001295,XXL,OVSSTSHT00001296,S,OVSSTSHT00001297;499.00;;;<p>100% COTTON</p>;;;;;zerotype;;Fall;;No
2131871;6484837-TEAL GREEN-2131871;OVSTEAL GREENTshirts;Draft;Tshirts;OVS;Adults-Men;Men;NA;;;Fashion;;2017;L,OVSSTSHT00001288,S,OVSSTSHT00001289,XXL,OVSSTSHT00001290,M,OVSSTSHT00001291,XL,OVSSTSHT00001292;499.00;;;<p>100% COTTON</p>;;;;;zerotype;;Fall;;No
2131870;6484832-DARK BLUE-2131870;OVSDARK BLUETshirts;Draft;Tshirts;OVS;Adults-Men;Men;NA;;;Fashion;;2017;S,OVSSTSHT00001283,XXL,OVSSTSHT00001284,XL,OVSSTSHT00001285,L,OVSSTSHT00001286,M,OVSSTSHT00001287;499.00;;;<p>100% COTTON</p>;;;;;zerotype;;Fall;;No
2131868;6484827-OFF-WHITE-2131868;OVSOFF-WHITETshirts;Draft;Tshirts;OVS;Adults-Men;Men;NA;;;Fashion;;2017;L,OVSSTSHT00001278,S,OVSSTSHT00001279,XXL,OVSSTSHT00001280,XL,OVSSTSHT00001281,M,OVSSTSHT00001282;499.00;;;<p>100% COTTON</p>;;;;;zerotype;;Fall;;No
2131861;6483984-MAROON-2131861;OVSMAROONTshirts;Draft;Tshirts;OVS;Adults-Men;Men;NA;;;Fashion;;2017;M,OVSSTSHT00001253,L,OVSSTSHT00001254,XL,OVSSTSHT00001255,S,OVSSTSHT00001256,XXL,OVSSTSHT00001257;999.00;;;<p>100% COTTON</p>;;;;;zerotype;;Fall;;No
2131860;6483979-NAVY BLUE-2131860;OVSNAVY BLUETshirts;Draft;Tshirts;OVS;Adults-Men;Men;NA;;;Fashion;;2017;XXL,OVSSTSHT00001248,XL,OVSSTSHT00001249,M,OVSSTSHT00001250,S,OVSSTSHT00001251,L,OVSSTSHT00001252;999.00;;;<p>100% COTTON</p>;;;;;zerotype;;Fall;;No
2131855;6483944-WHITE-2131855;OVSWHITETshirts;Draft;Tshirts;OVS;Adults-Men;Men;NA;;;Fashion;;2017;XXL,OVSSTSHT00001228,M,OVSSTSHT00001229,L,OVSSTSHT00001230,S,OVSSTSHT00001231,XL,OVSSTSHT00001232;999.00;;;<p>100% COTTON</p>;;;;;zerotype;;Fall;;No
2131851;6483919-WHITE-2131851;OVSWHITETshirts;Draft;Tshirts;OVS;Adults-Men;Men;NA;;;Fashion;;2017;XL,OVSSTSHT00001208,XXL,OVSSTSHT00001209,M,OVSSTSHT00001210,L,OVSSTSHT00001211,S,OVSSTSHT00001212;999.00;;;<p>100% COTTON</p>;;;;;zerotype;;Fall;;No
2131844;6483479-NAVY BLUE-2131844;OVSNAVY BLUETshirts;Draft;Tshirts;OVS;Adults-Men;Men;NA;;;Fashion;;2017;L,OVSSTSHT00001171,XL,OVSSTSHT00001172,M,OVSSTSHT00001173,S,OVSSTSHT00001174,XXL,OVSSTSHT00001175;499.00;;;<p>100% COTTON</p>;;;;;zerotype;;Fall;;No
2131843;6483474-MILK-WHITE-2131843;OVSMILK-WHITETshirts;Draft;Tshirts;OVS;Adults-Men;Men;NA;;;Fashion;;2017;XL,OVSSTSHT00001166,S,OVSSTSHT00001167,XXL,OVSSTSHT00001168,L,OVSSTSHT00001169,M,OVSSTSHT00001170;499.00;;;<p>100% COTTON</p>;;;;;zerotype;;Fall;;No
2131842;6483469-LIGHT GREY MELANGE-2131842;OVSLIGHT GREY MELANGETshirts;Draft;Tshirts;OVS;Adults-Men;Men;NA;;;Fashion;;2017;M,OVSSTSHT00001161,L,OVSSTSHT00001162,XXL,OVSSTSHT00001163,XL,OVSSTSHT00001164,S,OVSSTSHT00001165;499.00;;;<p>100% COTTON</p>;;;;;zerotype;;Fall;;No
2131841;6483454-MINT-2131841;OVSMINTTshirts;Draft;Tshirts;OVS;Adults-Men;Men;NA;;;Fashion;;2017;S,OVSSTSHT00001156,L,OVSSTSHT00001157,XL,OVSSTSHT00001158,M,OVSSTSHT00001159,XXL,OVSSTSHT00001160;499.00;;;<p>100% COTTON</p>;;;;;zerotype;;Fall;;No
2131840;6483434-CERISE-2131840;OVSCERISETshirts;Draft;Tshirts;OVS;Adults-Men;Men;NA;;;Fashion;;2017;L,OVSSTSHT00001151,M,OVSSTSHT00001152,XXL,OVSSTSHT00001153,S,OVSSTSHT00001154,XL,OVSSTSHT00001155;499.00;;;<p>100% COTTON</p>;;;;;zerotype;;Fall;;No
2131839;6483424-WHITE-2131839;OVSWHITETshirts;Draft;Tshirts;OVS;Adults-Men;Men;NA;;;Fashion;;2017;XXL,OVSSTSHT00001146,L,OVSSTSHT00001147,M,OVSSTSHT00001148,S,OVSSTSHT00001149,XL,OVSSTSHT00001150;499.00;;;<p>100% COTTON</p>;;;;;zerotype;;Fall;;No
2131838;6483414-CHINA-BLU-2131838;OVSCHINA-BLUTshirts;Draft;Tshirts;OVS;Adults-Men;Men;NA;;;Fashion;;2017;L,OVSSTSHT00001141,XL,OVSSTSHT00001142,S,OVSSTSHT00001143,M,OVSSTSHT00001144,XXL,OVSSTSHT00001145;499.00;;;<p>100% COTTON</p>;;;;;zerotype;;Fall;;No
2131837;6483409-BLUE-2131837;OVSBLUETshirts;Draft;Tshirts;OVS;Adults-Men;Men;NA;;;Fashion;;2017;L,OVSSTSHT00001136,XL,OVSSTSHT00001137,S,OVSSTSHT00001138,M,OVSSTSHT00001139,XXL,OVSSTSHT00001140;499.00;;;<p>100% COTTON</p>;;;;;zerotype;;Fall;;No
2131835;6483267-MOSS GREEN-2131835;OVSMOSS GREENTshirts;Draft;Tshirts;OVS;Adults-Men;Men;NA;;;Fashion;;2017;XXL,OVSSTSHT00001124,XS,OVSSTSHT00001125,XL,OVSSTSHT00001126,M,OVSSTSHT00001127,L,OVSSTSHT00001128,S,OVSSTSHT00001129;799.00;;;<p>100% COTTON</p>;;;;;zerotype;;Fall;;No
2131834;6483261-LIGHT GREY MELANGE-2131834;OVSLIGHT GREY MELANGETshirts;Draft;Tshirts;OVS;Adults-Men;Men;NA;;;Fashion;;2017;L,OVSSTSHT00001118,XXL,OVSSTSHT00001119,XL,OVSSTSHT00001120,S,OVSSTSHT00001121,XS,OVSSTSHT00001122,M,OVSSTSHT00001123;799.00;;;<p>100% COTTON</p>;;;;;zerotype;;Fall;;No
2131829;6483229-NAVY BLUE-2131829;OVSNAVY BLUETshirts;Draft;Tshirts;OVS;Adults-Men;Men;NA;;;Fashion;;2017;S,OVSSTSHT00001092,XXL,OVSSTSHT00001093,L,OVSSTSHT00001094,M,OVSSTSHT00001095,XL,OVSSTSHT00001096;699.00;;;<p>100% COTTON</p>;;;;;zerotype;;Fall;;No
2131827;6483214-DENIM BLUE-2131827;OVSDENIM BLUETshirts;Draft;Tshirts;OVS;Adults-Men;Men;NA;;;Fashion;;2017;M,OVSSTSHT00001082,XXL,OVSSTSHT00001083,L,OVSSTSHT00001084,S,OVSSTSHT00001085,XL,OVSSTSHT00001086;699.00;;;<p>100% COTTON</p>;;;;;zerotype;;Fall;;No
2131815;6483014-FADED BLUE-2131815;OVSFADED BLUETshirts;Draft;Tshirts;OVS;Adults-Men;Men;NA;;;Fashion;;2017;XL,OVSSTSHT00001023,XXL,OVSSTSHT00001024,L,OVSSTSHT00001025,M,OVSSTSHT00001026,S,OVSSTSHT00001027;649.00;;;<p>100% COTTON</p>;;;;;zerotype;;Fall;;No
2131814;6483009-IRON-GREY-2131814;OVSIRON-GREYTshirts;Draft;Tshirts;OVS;Adults-Men;Men;NA;;;Fashion;;2017;L,OVSSTSHT00001018,S,OVSSTSHT00001019,M,OVSSTSHT00001020,XL,OVSSTSHT00001021,XXL,OVSSTSHT00001022;649.00;;;<p>100% COTTON</p>;;;;;zerotype;;Fall;;No
2131811;6482979-SEA GREEN-2131811;OVSSEA GREENTshirts;Draft;Tshirts;OVS;Adults-Men;Men;NA;;;Fashion;;2017;L,OVSSTSHT00001008,XXL,OVSSTSHT00001009,S,OVSSTSHT00001010,M,OVSSTSHT00001011,XL,OVSSTSHT00001012;499.00;;;<p>100% COTTON</p>;;;;;zerotype;;Fall;;No
2131784;6482264-WHITE-2131784;OVSWHITETshirts;Draft;Tshirts;OVS;Adults-Men;Men;NA;;;Fashion;;2017;S,OVSSTSHT00000906,XXL,OVSSTSHT00000907,M,OVSSTSHT00000908,L,OVSSTSHT00000909,XL,OVSSTSHT00000910;499.00;;;<p>100% COTTON</p>;;;;;zerotype;;Fall;;No
2131783;6482254-OFF-WHITE-2131783;OVSOFF-WHITETshirts;Draft;Tshirts;OVS;Adults-Men;Men;NA;;;Fashion;;2017;L,OVSSTSHT00000901,XXL,OVSSTSHT00000902,S,OVSSTSHT00000903,M,OVSSTSHT00000904,XL,OVSSTSHT00000905;499.00;;;<p>100% COTTON</p>;;;;;zerotype;;Fall;;No
2131774;6482029-OFF-WHITE-2131774;OVSOFF-WHITETshirts;Draft;Tshirts;OVS;Adults-Men;Men;NA;;;Fashion;;2017;M,OVSSTSHT00000866,L,OVSSTSHT00000867,XXL,OVSSTSHT00000868,XL,OVSSTSHT00000869,S,OVSSTSHT00000870;499.00;;;<p>100% COTTON</p>;;;;;zerotype;;Fall;;No
2131772;6482024-DEEP SKY BLUE-2131772;OVSDEEP SKY BLUETshirts;Draft;Tshirts;OVS;Adults-Men;Men;NA;;;Fashion;;2017;L,OVSSTSHT00000861,XL,OVSSTSHT00000862,XXL,OVSSTSHT00000863,M,OVSSTSHT00000864,S,OVSSTSHT00000865;499.00;;;<p>100% COTTON</p>;;;;;zerotype;;Fall;;No
2131771;6482019-LIGHT GREY MELANGE-2131771;OVSLIGHT GREY MELANGETshirts;Draft;Tshirts;OVS;Adults-Men;Men;NA;;;Fashion;;2017;XL,OVSSTSHT00000856,M,OVSSTSHT00000857,L,OVSSTSHT00000858,S,OVSSTSHT00000859,XXL,OVSSTSHT00000860;499.00;;;<p>100% COTTON</p>;;;;;zerotype;;Fall;;No
2131769;6481974-OFF-WHITE-2131769;OVSOFF-WHITETshirts;Draft;Tshirts;OVS;Adults-Men;Men;NA;;;Fashion;;2017;XXL,OVSSTSHT00000846,S,OVSSTSHT00000847,M,OVSSTSHT00000848,L,OVSSTSHT00000849,XL,OVSSTSHT00000850;499.00;;;<p>100% COTTON</p>;;;;;zerotype;;Fall;;No
2131766;6481944-SILVER-2131766;OVSSILVERTshirts;Draft;Tshirts;OVS;Adults-Men;Men;NA;;;Fashion;;2017;S,OVSSTSHT00000836,L,OVSSTSHT00000837,XXL,OVSSTSHT00000838,M,OVSSTSHT00000839,XL,OVSSTSHT00000840;499.00;;;<p>100% COTTON</p>;;;;;zerotype;;Fall;;No
2131765;6481939-RISE-WHITE-2131765;OVSRISE-WHITETshirts;Draft;Tshirts;OVS;Adults-Men;Men;NA;;;Fashion;;2017;XXL,OVSSTSHT00000831,L,OVSSTSHT00000832,S,OVSSTSHT00000833,M,OVSSTSHT00000834,XL,OVSSTSHT00000835;499.00;;;<p>100% COTTON</p>;;;;;zerotype;;Fall;;No
2131763;6481934-MEDIUM GREY MELANGE-2131763;OVSMEDIUM GREY MELANGETshirts;Draft;Tshirts;OVS;Adults-Men;Men;NA;;;Fashion;;2017;L,OVSSTSHT00000826,M,OVSSTSHT00000827,S,OVSSTSHT00000828,XL,OVSSTSHT00000829,XXL,OVSSTSHT00000830;499.00;;;<p>100% COTTON</p>;;;;;zerotype;;Fall;;No
2131762;6481799-GRASS-2131762;OVSGRASSTshirts;Draft;Tshirts;OVS;Adults-Men;Men;NA;;;Fashion;;2017;L,OVSSTSHT00000821,M,OVSSTSHT00000822,XL,OVSSTSHT00000823,XXL,OVSSTSHT00000824,S,OVSSTSHT00000825;349.00;;;<p>100% COTTON</p>;;;;;zerotype;;Fall;;No
2131759;6481784-CHINA-BLU-2131759;OVSCHINA-BLUTshirts;Draft;Tshirts;OVS;Adults-Men;Men;NA;;;Fashion;;2017;XL,OVSSTSHT00000811,XXL,OVSSTSHT00000812,L,OVSSTSHT00000813,M,OVSSTSHT00000814,S,OVSSTSHT00000815;349.00;;;<p>100% COTTON</p>;;;;;zerotype;;Fall;;No
2131753;6481274-DARK GREY-2131753;OVSDARK GREYTshirts;Draft;Tshirts;OVS;Adults-Men;Men;NA;;;Fashion;;2017;XL,OVSSTSHT00000791,M,OVSSTSHT00000792,L,OVSSTSHT00000793,XXL,OVSSTSHT00000794,S,OVSSTSHT00000795;499.00;;;<p>100% COTTON</p>;;;;;zerotype;;Fall;;No
2131750;6481079-FERN GREEN-2131750;OVSFERN GREENTshirts;Draft;Tshirts;OVS;Adults-Men;Men;NA;;;Fashion;;2017;XXL,OVSSTSHT00000781,S,OVSSTSHT00000782,L,OVSSTSHT00000783,XL,OVSSTSHT00000784,M,OVSSTSHT00000785;349.00;;;<p>100% COTTON</p>;;;;;zerotype;;Fall;;No
2131749;6481054-FOREST GREEN-2131749;OVSFOREST GREENTshirts;On Hold - Sample;Tshirts;OVS;Adults-Men;Men;NA;;;Fashion;;2017;M,OVSSTSHT00000776,XXL,OVSSTSHT00000777,L,OVSSTSHT00000778,XL,OVSSTSHT00000779,S,OVSSTSHT00000780;349.00;;;<p>100% COTTON</p>;;;;;zerotype;;Fall;Broken size;No
2131748;6481039-MEDIUM GREY-2131748;OVSMEDIUM GREYTshirts;Draft;Tshirts;OVS;Adults-Men;Men;NA;;;Fashion;;2017;XL,OVSSTSHT00000771,L,OVSSTSHT00000772,M,OVSSTSHT00000773,S,OVSSTSHT00000774,XXL,OVSSTSHT00000775;349.00;;;<p>100% COTTON</p>;;;;;zerotype;;Fall;;No
2131741;6480729-MEDIUM GREY-2131741;OVSMEDIUM GREYTshirts;Draft;Tshirts;OVS;Adults-Men;Men;NA;;;Fashion;;2017;M,OVSSTSHT00000746,S,OVSSTSHT00000747,L,OVSSTSHT00000748,XL,OVSSTSHT00000749,XXL,OVSSTSHT00000750;499.00;;;<p>100% COTTON</p>;;;;;zerotype;;Fall;;No
2131739;6480714-GENTIANA-BLUE-2131739;OVSGENTIANA-BLUETshirts;Draft;Tshirts;OVS;Adults-Men;Men;NA;;;Fashion;;2017;S,OVSSTSHT00000741,XL,OVSSTSHT00000742,L,OVSSTSHT00000743,M,OVSSTSHT00000744,XXL,OVSSTSHT00000745;499.00;;;<p>100% COTTON</p>;;;;;zerotype;;Fall;;No
2131727;6479593-LIGHT BLUE-2131727;OVSLIGHT BLUETshirts;Draft;Tshirts;OVS;Adults-Men;Men;NA;;;Fashion;;2017;L,OVSSTSHT00000698,S,OVSSTSHT00000699,XL,OVSSTSHT00000700,M,OVSSTSHT00000701,XXL,OVSSTSHT00000702;499.00;;;<p>100% COTTON</p>;;;;;zerotype;;Fall;;No
2131725;6479588-DK GREY MELANGE-2131725;OVSDK GREY MELANGETshirts;Draft;Tshirts;OVS;Adults-Men;Men;NA;;;Fashion;;2017;S,OVSSTSHT00000693,L,OVSSTSHT00000694,XXL,OVSSTSHT00000695,M,OVSSTSHT00000696,XL,OVSSTSHT00000697;499.00;;;<p>100% COTTON</p>;;;;;zerotype;;Fall;;No
2131724;6479583-NAVY BLUE-2131724;OVSNAVY BLUETshirts;Draft;Tshirts;OVS;Adults-Men;Men;NA;;;Fashion;;2017;L,OVSSTSHT00000688,XXL,OVSSTSHT00000689,M,OVSSTSHT00000690,S,OVSSTSHT00000691,XL,OVSSTSHT00000692;499.00;;;<p>100% COTTON</p>;;;;;zerotype;;Fall;;No
2131722;6479578-BLACK-2131722;OVSBLACKTshirts;Draft;Tshirts;OVS;Adults-Men;Men;NA;;;Fashion;;2017;XL,OVSSTSHT00000683,XXL,OVSSTSHT00000684,S,OVSSTSHT00000685,L,OVSSTSHT00000686,M,OVSSTSHT00000687;499.00;;;<p>100% COTTON</p>;;;;;zerotype;;Fall;;No
2131721;6479543-GREEN-2131721;OVSGREENTshirts;Draft;Tshirts;OVS;Adults-Men;Men;NA;;;Fashion;;2017;M,OVSSTSHT00000678,S,OVSSTSHT00000679,L,OVSSTSHT00000680,XL,OVSSTSHT00000681,XXL,OVSSTSHT00000682;499.00;;;<p>100% COTTON</p>;;;;;zerotype;;Fall;;No
2131719;6479398-LIGHT RED-2131719;OVSLIGHT REDTshirts;Draft;Tshirts;OVS;Adults-Men;Men;NA;;;Fashion;;2017;XXL,OVSSTSHT00000673,XL,OVSSTSHT00000674,M,OVSSTSHT00000675,S,OVSSTSHT00000676,L,OVSSTSHT00000677;499.00;;;<p>100% COTTON</p>;;;;;zerotype;;Fall;;No
2131718;6479393-GENTIANA-BLUE-2131718;OVSGENTIANA-BLUETshirts;Draft;Tshirts;OVS;Adults-Men;Men;NA;;;Fashion;;2017;XL,OVSSTSHT00000668,L,OVSSTSHT00000669,XXL,OVSSTSHT00000670,M,OVSSTSHT00000671,S,OVSSTSHT00000672;499.00;;;<p>100% COTTON</p>;;;;;zerotype;;Fall;;No
2131715;6477644-LIGHT GREEN-2131715;OVSLIGHT GREENTshirts;Draft;Tshirts;OVS;Adults-Men;Men;NA;;;Fashion;;2017;XXL,OVSSTSHT00000656,XL,OVSSTSHT00000657,S,OVSSTSHT00000658,M,OVSSTSHT00000659,L,OVSSTSHT00000660;499.00;;;<p>50% POLYESTER 50% COTTON</p>;;;;;zerotype;;Fall;;No
2131713;6477639-OFF-WHITE-2131713;OVSOFF-WHITETshirts;Draft;Tshirts;OVS;Adults-Men;Men;NA;;;Fashion;;2017;M,OVSSTSHT00000651,XXL,OVSSTSHT00000652,L,OVSSTSHT00000653,XL,OVSSTSHT00000654,S,OVSSTSHT00000655;499.00;;;<p>50% POLYESTER 50% COTTON</p>;;;;;zerotype;;Fall;;No
2131712;6477634-MELANGE GREY-2131712;OVSMELANGE GREYTshirts;Draft;Tshirts;OVS;Adults-Men;Men;NA;;;Fashion;;2017;XL,OVSSTSHT00000646,XXL,OVSSTSHT00000647,S,OVSSTSHT00000648,L,OVSSTSHT00000649,M,OVSSTSHT00000650;499.00;;;<p>50% POLYESTER 50% COTTON</p>;;;;;zerotype;;Fall;;No
2131604;2376854-WHITE-2131604;OVSWHITETshirts;Draft;Tshirts;OVS;Adults-Men;Men;NA;;;Fashion;;2017;XL,OVSSTSHT00000230,L,OVSSTSHT00000231,M,OVSSTSHT00000232,S,OVSSTSHT00000233,XXL,OVSSTSHT00000234;649.00;;;<p>100% COTTON</p>;;;;;zerotype;;Fall;;No
2131603;2376789-WHITE-2131603;OVSWHITETshirts;Draft;Tshirts;OVS;Adults-Men;Men;NA;;;Fashion;;2017;M,OVSSTSHT00000225,L,OVSSTSHT00000226,S,OVSSTSHT00000227,XXL,OVSSTSHT00000228,XL,OVSSTSHT00000229;499.00;;;<p>100% COTTON</p>;;;;;zerotype;;Fall;;No
2131598;2376519-MELANGE GREY-2131598;OVSMELANGE GREYTshirts;Draft;Tshirts;OVS;Adults-Men;Men;NA;;;Fashion;;2017;L,OVSSTSHT00000200,XXL,OVSSTSHT00000201,XL,OVSSTSHT00000202,M,OVSSTSHT00000203,S,OVSSTSHT00000204;499.00;;;<p>65% COTTON, 35% POLYESTER</p>;;;;;zerotype;;Fall;;No
2131587;2376390-NAVY BLUE-2131587;OVSNAVY BLUETshirts;Draft;Tshirts;OVS;Adults-Men;Men;NA;;;Fashion;;2017;S,OVSSTSHT00000150,XL,OVSSTSHT00000151,M,OVSSTSHT00000152,XXL,OVSSTSHT00000153,L,OVSSTSHT00000154;1299.00;;;<p>100% COTTON</p>;;;;;zerotype;;Fall;;No
2131586;2376384-SAGE GREEN-2131586;OVSSAGE GREENTshirts;Draft;Tshirts;OVS;Adults-Men;Men;NA;;;Fashion;;2017;M,OVSSTSHT00000145,XL,OVSSTSHT00000146,S,OVSSTSHT00000147,L,OVSSTSHT00000148,XXL,OVSSTSHT00000149;1299.00;;;<p>100% COTTON</p>;;;;;zerotype;;Fall;;No
2131579;2375959-WHITE-2131579;OVSWHITETshirts;Draft;Tshirts;OVS;Adults-Men;Men;NA;;;Fashion;;2017;M,OVSSTSHT00000116,XL,OVSSTSHT00000117,L,OVSSTSHT00000118,XXL,OVSSTSHT00000119,S,OVSSTSHT00000120;499.00;;;<p>100% COTTON</p>;;;;;zerotype;;Fall;;No
2131518;8437841-ANTHRACITE-GREY-2131518;OVSANTHRACITE-GREYTrousers;Draft;Trousers;OVS;Adults-Men;Men;NA;;;Fashion;;2017;58,OVSSTRSR00000492,48,OVSSTRSR00000493,54,OVSSTRSR00000494,52,OVSSTRSR00000495,46,OVSSTRSR00000496,56,OVSSTRSR00000497,50,OVSSTRSR00000498;1999.00;;;<p>100% COTTON</p>;;;;;zerotype;;Fall;;No
2131517;8437834-GREY-2131517;OVSGREYTrousers;Draft;Trousers;OVS;Adults-Men;Men;NA;;;Fashion;;2017;56,OVSSTRSR00000485,50,OVSSTRSR00000486,48,OVSSTRSR00000487,52,OVSSTRSR00000488,58,OVSSTRSR00000489,54,OVSSTRSR00000490,46,OVSSTRSR00000491;1999.00;;;<p>100% COTTON</p>;;;;;zerotype;;Fall;;No
2131516;8437827-NAVY BLUE-2131516;OVSNAVY BLUETrousers;Draft;Trousers;OVS;Adults-Men;Men;NA;;;Fashion;;2017;46,OVSSTRSR00000478,50,OVSSTRSR00000479,48,OVSSTRSR00000480,56,OVSSTRSR00000481,54,OVSSTRSR00000482,58,OVSSTRSR00000483,52,OVSSTRSR00000484;1999.00;;;<p>100% COTTON</p>;;;;;zerotype;;Fall;;No
2131515;8436801-ANTHRACITE-GREY-2131515;OVSANTHRACITE-GREYTrousers;Draft;Trousers;OVS;Adults-Men;Men;NA;;;Fashion;;2017;52,OVSSTRSR00000472,44,OVSSTRSR00000473,54,OVSSTRSR00000474,50,OVSSTRSR00000475,46,OVSSTRSR00000476,48,OVSSTRSR00000477;1999.00;;;<p>98% COTTON, 2% ELASTANE</p>;;;;;zerotype;;Fall;;No
2131514;8436794-BLUE-2131514;OVSBLUETrousers;Draft;Trousers;OVS;Adults-Men;Men;NA;;;Fashion;;2017;52,OVSSTRSR00000465,54,OVSSTRSR00000466,48,OVSSTRSR00000467,56,OVSSTRSR00000468,44,OVSSTRSR00000469,50,OVSSTRSR00000470,46,OVSSTRSR00000471;1999.00;;;<p>98% COTTON, 2% ELASTANE</p>;;;;;zerotype;;Fall;;No
2131502;4896826-MEDIUM BLUE-2131502;OVSMEDIUM BLUETrousers;Draft;Trousers;OVS;Adults-Men;Men;NA;;;Fashion;;2017;46,OVSSTRSR00000390,54,OVSSTRSR00000391,48,OVSSTRSR00000392,50,OVSSTRSR00000393,44,OVSSTRSR00000394,52,OVSSTRSR00000395;1699.00;;;<p>98% COTTON, 2% ELASTANE</p>;;;;;zerotype;;Fall;;No
2131501;4896820-GREY-2131501;OVSGREYTrousers;Draft;Trousers;OVS;Adults-Men;Men;NA;;;Fashion;;2017;54,OVSSTRSR00000384,52,OVSSTRSR00000385,50,OVSSTRSR00000386,48,OVSSTRSR00000387,46,OVSSTRSR00000388,44,OVSSTRSR00000389;1699.00;;;<p>98% COTTON, 2% ELASTANE</p>;;;;;zerotype;;Fall;;No
2131460;3896553-BLUE-2131460;OVSBLUETrousers;Draft;Trousers;OVS;Adults-Men;Men;NA;;;Fashion;;2017;50,OVSSTRSR00000158,44,OVSSTRSR00000159,48,OVSSTRSR00000160,46,OVSSTRSR00000161,54,OVSSTRSR00000162,52,OVSSTRSR00000163;2999.00;;;<p>100% COTTON</p>;;;;;zerotype;;Fall;;No
2131459;3896537-BLUE-2131459;OVSBLUETrousers;On Hold - Sample;Trousers;OVS;Adults-Men;Men;NA;;;Fashion;;2017;54,OVSSTRSR00000152,44,OVSSTRSR00000153,52,OVSSTRSR00000154,48,OVSSTRSR00000155,50,OVSSTRSR00000156,46,OVSSTRSR00000157;2499.00;;;<p>100% COTTON</p>;;;;;zerotype;;Fall;Broken Size;No
2131457;3896531-GREEN-2131457;OVSGREENTrousers;On Hold - Sample;Trousers;OVS;Adults-Men;Men;NA;;;Fashion;;2017;44,OVSSTRSR00000146,54,OVSSTRSR00000147,52,OVSSTRSR00000148,50,OVSSTRSR00000149,46,OVSSTRSR00000150,48,OVSSTRSR00000151;2499.00;;;<p>100% COTTON</p>;;;;;zerotype;;Fall;Broken Size;No
2131456;3896525-PINK-2131456;OVSPINKTrousers;Draft;Trousers;OVS;Adults-Men;Men;NA;;;Fashion;;2017;54,OVSSTRSR00000140,52,OVSSTRSR00000141,46,OVSSTRSR00000142,50,OVSSTRSR00000143,44,OVSSTRSR00000144,48,OVSSTRSR00000145;2499.00;;;<p>100% COTTON</p>;;;;;zerotype;;Fall;;No
2131455;3896519-BEIGE-2131455;OVSBEIGETrousers;Draft;Trousers;OVS;Adults-Men;Men;NA;;;Fashion;;2017;50,OVSSTRSR00000134,44,OVSSTRSR00000135,46,OVSSTRSR00000136,52,OVSSTRSR00000137,48,OVSSTRSR00000138,54,OVSSTRSR00000139;2499.00;;;<p>100% COTTON</p>;;;;;zerotype;;Fall;;No
2131454;3896507-DENIM BLUE-2131454;OVSDENIM BLUETrousers;Draft;Trousers;OVS;Adults-Men;Men;NA;;;Fashion;;2017;50,OVSSTRSR00000129,52,OVSSTRSR00000130,46,OVSSTRSR00000131,48,OVSSTRSR00000132,44,OVSSTRSR00000133;2499.00;;;<p>100% COTTON</p>;;;;;zerotype;;Fall;;No
2131453;3895711-GREY-2131453;OVSGREYTrousers;Draft;Trousers;OVS;Adults-Men;Men;NA;;;Fashion;;2017;50,OVSSTRSR00000123,52,OVSSTRSR00000124,54,OVSSTRSR00000125,44,OVSSTRSR00000126,48,OVSSTRSR00000127,46,OVSSTRSR00000128;1699.00;;;<p>BODY: 98% COTTON, 2% ELASTANE</p>;;;;;zerotype;;Fall;;No
2131452;3895687-BLUE-2131452;OVSBLUETrousers;Draft;Trousers;OVS;Adults-Men;Men;NA;;;Fashion;;2017;44,OVSSTRSR00000117,48,OVSSTRSR00000118,50,OVSSTRSR00000119,46,OVSSTRSR00000120,52,OVSSTRSR00000121,54,OVSSTRSR00000122;1499.00;;;<p>100% COTTON</p>;;;;;zerotype;;Fall;;No
2131450;3895609-BLACK-2131450;OVSBLACKTrousers;Draft;Trousers;OVS;Adults-Men;Men;NA;;;Fashion;;2017;44,OVSSTRSR00000105,46,OVSSTRSR00000106,48,OVSSTRSR00000107,54,OVSSTRSR00000108,52,OVSSTRSR00000109,50,OVSSTRSR00000110;1699.00;;;<p>98% COTTON, 2% ELASTANE</p>;;;;;zerotype;;Fall;;No
