Style ID;Vendor Article Number;Vendor Article Name;Active Status;Article type;Brand;Age Group;Gender;Base Colour;Colour1;Colour2;Fashion Type;Usage;Year;Size - SKU code pair;MRP;Style Description;Style Note;Materials and Care Description;Size and Fit Description;Size Chart Path;Product Display Name;Tags;Product Type;Classification Brand;Season;Comments;Upload Images
2458643;LYTGT047MOONDUST-Blue-2458643;MOONDUST Jeggings;Draft;Jeggings;Westwood;Adults-Women;Women;Blue;;;Fashion;Casual;2018;36,WSWDJGNG00004093,34,WSWDJGNG00004094,32,WSWDJGNG00004095,30,WSWDJGNG00004096,40,WSWDJGNG00004097,38,WSWDJGNG00004098,28,WSWDJGNG00004099,26,WSWDJGNG00004100;1646.00;<p>Denim Look Jeggings</p>;;<p>40% Cotton,60% Denim Lycra</p>;;;Westwood Denim Look Jeggings;;zerotype;;Winter;;No
2458641;DHYTGT018HARDROCK-Blue-2458641;HARDROCK Jeggings;Draft;Jeggings;Westwood;Adults-Women;Women;Blue;;;Fashion;Casual;2018;36,WSWDJGNG00004086,40,WSWDJGNG00004087,34,WSWDJGNG00004088,32,WSWDJGNG00004089,38,WSWDJGNG00004090,30,WSWDJGNG00004091,28,WSWDJGNG00004092;2089.00;<p>Pure Denim Look with Lycra</p>;;<p>40% Cotton,60% Denim Lycra</p>;;;Westwood Denim Look Jeggings;;zerotype;;Winter;;No
2458640;DHYNELLY002GREYBLACK-Grey-2458640;GREY Jeggings;Draft;Jeggings;Westwood;Adults-Women;Women;Grey;;;Fashion;Casual;2018;28,WSWDJGNG00004079,40,WSWDJGNG00004080,38,WSWDJGNG00004081,36,WSWDJGNG00004082,34,WSWDJGNG00004083,32,WSWDJGNG00004084,30,WSWDJGNG00004085;2089.00;<p>Poly Cotton Lycra</p>;;<p>80% Cotton,20% Lycra</p>;;;Westwood Cotton Jeggings;;zerotype;;Winter;;No
2458637;DHYTGT018HYDRA-Blue-2458637;HYDRA Jeggings;Draft;Jeggings;Westwood;Adults-Women;Women;Blue;;;Fashion;Casual;2018;32,WSWDJGNG00004072,30,WSWDJGNG00004073,38,WSWDJGNG00004074,36,WSWDJGNG00004075,28,WSWDJGNG00004076,34,WSWDJGNG00004077,40,WSWDJGNG00004078;2089.00;<p>Pure Denim Look with Lycra</p>;;<p>40% Cotton,60% Denim Lycra</p>;;;Westwood Denim Look Jeggings;;zerotype;;Winter;;No
2458636;LITJG043BLACK-Black-2458636;BLACK Jeggings;Draft;Jeggings;Westwood;Adults-Women;Women;Black;;;Fashion;Party;2018;40,WSWDJGNG00004065,30,WSWDJGNG00004066,36,WSWDJGNG00004067,28,WSWDJGNG00004068,34,WSWDJGNG00004069,38,WSWDJGNG00004070,32,WSWDJGNG00004071;1899.00;<p>Poly Cotton Lycra</p>;;<p>80% Cotton,20% Lycra</p>;;;Westwood Black Jeggings;;zerotype;;Winter;;No
2458635;HYW013BLACK-Black-2458635;BLACK Jeggings;Draft;Jeggings;Westwood;Adults-Women;Women;Black;;;Fashion;Casual;2018;36,WSWDJGNG00004060,34,WSWDJGNG00004061,32,WSWDJGNG00004062,30,WSWDJGNG00004063,28,WSWDJGNG00004064;2199.00;<p>Pure Leather Look  with Poly Lycra</p>;;<p>40% Cotton,30%Leather,30%Lycra</p>;;;Westwood Leather Look Jeggings;;zerotype;;Winter;;No
2458633;DHYTGT0333HYDRA-Blue-2458633;HYDRA Jeggings;Draft;Jeggings;Westwood;Adults-Women;Women;Blue;;;Fashion;Casual;2018;42,WSWDJGNG00004052,30,WSWDJGNG00004053,28,WSWDJGNG00004054,40,WSWDJGNG00004055,38,WSWDJGNG00004056,34,WSWDJGNG00004057,32,WSWDJGNG00004058,44,WSWDJGNG00004059;1749.00;<p>Kintted Denim Lycra</p>;;<p>40% Cotton,60% Denim Lycra</p>;;;Westwood Denim Look Jeggings;;zerotype;;Winter;;No
