Style ID;Vendor Article Number;Vendor Article Name;Active Status;Article type;Brand;Age Group;Gender;Base Colour;Colour1;Colour2;Fashion Type;Usage;Year;Size - SKU code pair;MRP;Style Description;Style Note;Materials and Care Description;Size and Fit Description;Size Chart Path;Product Display Name;Tags;Product Type;Classification Brand;Season;Comments;Upload Images
1886470;BSS17SBR07-C-Grey-1886470;Blush by PS' Front Open Padded Zip Thru;Draft;Bra;PrettySecrets;Adults-Women;Women;;;;Core;;2017;S,PTSTBRAA00004349,M,PTSTBRAA00004350,L,PTSTBRAA00004351,XL,PTSTBRAA00004352;849.00;;;;;;;;zerotype;;Spring;;No
1886469;BSS17SBR07-B-Orange-1886469;Blush by PS' Front Open Padded Zip Thru;Draft;Bra;PrettySecrets;Adults-Women;Women;;;;Core;;2017;S,PTSTBRAA00004345,M,PTSTBRAA00004346,L,PTSTBRAA00004347,XL,PTSTBRAA00004348;849.00;;;;;;;;zerotype;;Spring;;No
1886468;BSS17SBR07-A-Black-1886468;Blush by PS' Front Open Padded Zip Thru;Draft;Bra;PrettySecrets;Adults-Women;Women;;;;Core;;2017;S,PTSTBRAA00004341,M,PTSTBRAA00004342,L,PTSTBRAA00004343,XL,PTSTBRAA00004344;849.00;;;;;;;;zerotype;;Spring;;No
1886467;BSS17SBR04-D-Purple-1886467;Blush by PS' Racerback Sport Bra - XL;Draft;Bra;PrettySecrets;Adults-Women;Women;;;;Core;;2017;L,PTSTBRAA00004337,M,PTSTBRAA00004338,S,PTSTBRAA00004339,XL,PTSTBRAA00004340;649.00;;;;;;;;zerotype;;Spring;;No
1886466;BSS17SBR04-C-Pink-1886466;Blush by PS' Racerback Sport Bra - XL;Draft;Bra;PrettySecrets;Adults-Women;Women;;;;Core;;2017;L,PTSTBRAA00004333,M,PTSTBRAA00004334,S,PTSTBRAA00004335,XL,PTSTBRAA00004336;649.00;;;;;;;;zerotype;;Spring;;No
1886465;BSS17SBR04-B-Coral-1886465;Blush by PS' Racerback Sport Bra - XL;Draft;Bra;PrettySecrets;Adults-Women;Women;;;;Core;;2017;L,PTSTBRAA00004329,M,PTSTBRAA00004330,S,PTSTBRAA00004331,XL,PTSTBRAA00004332;649.00;;;;;;;;zerotype;;Spring;;No
1886464;BSS17SBR04-A-Lime Green-1886464;Blush by PS' Racerback Sport Bra - XL;Draft;Bra;PrettySecrets;Adults-Women;Women;;;;Core;;2017;L,PTSTBRAA00004325,M,PTSTBRAA00004326,S,PTSTBRAA00004327,XL,PTSTBRAA00004328;649.00;;;;;;;;zerotype;;Spring;;No
1886462;BSS17SBR03-D-Grey-1886462;Blush by PS' Cross Back Sport Bra - XL;Draft;Bra;PrettySecrets;Adults-Women;Women;;;;Core;;2017;L,PTSTBRAA00004321,M,PTSTBRAA00004322,S,PTSTBRAA00004323,XL,PTSTBRAA00004324;549.00;;;;;;;;zerotype;;Spring;;No
1886461;BSS17SBR03-C-Black-1886461;Blush by PS' Cross Back Sport Bra - XL;Draft;Bra;PrettySecrets;Adults-Women;Women;;;;Core;;2017;L,PTSTBRAA00004317,M,PTSTBRAA00004318,S,PTSTBRAA00004319,XL,PTSTBRAA00004320;549.00;;;;;;;;zerotype;;Spring;;No
1886460;BSS17SBR03-B-Green-1886460;Blush by PS' Cross Back Sport Bra - XL;Draft;Bra;PrettySecrets;Adults-Women;Women;;;;Core;;2017;L,PTSTBRAA00004313,M,PTSTBRAA00004314,S,PTSTBRAA00004315,XL,PTSTBRAA00004316;549.00;;;;;;;;zerotype;;Spring;;No
1886459;BSS17SBR03-A-Coral-1886459;Blush by PS' Cross Back Sport Bra - XL;Draft;Bra;PrettySecrets;Adults-Women;Women;;;;Core;;2017;L,PTSTBRAA00004309,M,PTSTBRAA00004310,S,PTSTBRAA00004311,XL,PTSTBRAA00004312;549.00;;;;;;;;zerotype;;Spring;;No
1886458;BSS17SBR01-D-Pink-1886458;Blush by PS' Melange Racerback Sport Bra;Draft;Bra;PrettySecrets;Adults-Women;Women;;;;Core;;2017;S,PTSTBRAA00004305,M,PTSTBRAA00004306,L,PTSTBRAA00004307,XL,PTSTBRAA00004308;549.00;;;;;;;;zerotype;;Spring;;No
1886457;BSS17SBR01-C-Coral-1886457;Blush by PS' Melange Racerback Sport Bra;Draft;Bra;PrettySecrets;Adults-Women;Women;;;;Core;;2017;S,PTSTBRAA00004301,M,PTSTBRAA00004302,L,PTSTBRAA00004303,XL,PTSTBRAA00004304;549.00;;;;;;;;zerotype;;Spring;;No
