Style ID;Vendor Article Number;Vendor Article Name;Active Status;Article type;Brand;Age Group;Gender;Base Colour;Colour1;Colour2;Fashion Type;Usage;Year;Size - SKU code pair;MRP;Style Description;Style Note;Materials and Care Description;Size and Fit Description;Size Chart Path;Product Display Name;Tags;Product Type;Classification Brand;Season;Comments;Upload Images
1865878;UGS-008-Black-39-40-Black-1865878;UGS-008-Black-39-40;Draft;Casual Shoes;Bruno Manetti;Adults-Women;Women;;;;Core;Casual;2017;EURO36,BNMTCASH00004482,EURO38,BNMTCASH00004483,EURO40,BNMTCASH00004484;2999.00;;;;;;;;zerotype;;Summer;;No
1865877;AVI-001-Red-41-Red-1865877;AVI-001-Red-41;Draft;Casual Shoes;Bruno Manetti;Adults-Women;Women;;;;Core;Casual;2017;EURO36,BNMTCASH00004476,EURO37,BNMTCASH00004477,EURO38,BNMTCASH00004478,EURO39,BNMTCASH00004479,EURO40,BNMTCASH00004480,EURO41,BNMTCASH00004481;2499.00;;;;;;;;zerotype;;Summer;;No
1865870;31-7686ME-Chiku-41-Beige-1865870;31-7686ME-Chiku-41;Draft;Casual Shoes;Bruno Manetti;Adults-Women;Women;;;;Core;Casual;2017;EURO36,BNMTCASH00004470,EURO37,BNMTCASH00004471,EURO38,BNMTCASH00004472,EURO39,BNMTCASH00004473,EURO40,BNMTCASH00004474,EURO41,BNMTCASH00004475;2999.00;;;;;;;;zerotype;;Summer;;No
1865858;3075-157-Black-41-Black-1865858;3075-157-Black-41;Draft;Casual Shoes;Bruno Manetti;Adults-Women;Women;;;;Core;Casual;2017;EURO35,BNMTCASH00004463,EURO36,BNMTCASH00004464,EURO37,BNMTCASH00004465,EURO38,BNMTCASH00004466,EURO39,BNMTCASH00004467,EURO40,BNMTCASH00004468,EURO41,BNMTCASH00004469;2799.00;;;;;;;;zerotype;;Summer;;No
1865848;2996-White-41-White-1865848;2996-White-41;Draft;Casual Shoes;Bruno Manetti;Adults-Women;Women;;;;Core;Casual;2017;EURO35,BNMTCASH00004456,EURO36,BNMTCASH00004457,EURO37,BNMTCASH00004458,EURO38,BNMTCASH00004459,EURO39,BNMTCASH00004460,EURO40,BNMTCASH00004461,EURO41,BNMTCASH00004462;2799.00;;;;;;;;zerotype;;Summer;;No
1865837;2981-Studd-Black-41-Black-1865837;2981-Studd-Black-41;Draft;Casual Shoes;Bruno Manetti;Adults-Women;Women;;;;Core;Casual;2017;EURO36,BNMTCASH00004450,EURO37,BNMTCASH00004451,EURO38,BNMTCASH00004452,EURO39,BNMTCASH00004453,EURO40,BNMTCASH00004454,EURO41,BNMTCASH00004455;2799.00;;;;;;;;zerotype;;Summer;;No
1865828;2981-Cobra-Grey-41-Grey-1865828;2981-Cobra-Gunmetal-41;Draft;Casual Shoes;Bruno Manetti;Adults-Women;Women;;;;Core;Casual;2017;EURO36,BNMTCASH00004444,EURO37,BNMTCASH00004445,EURO38,BNMTCASH00004446,EURO39,BNMTCASH00004447,EURO40,BNMTCASH00004448,EURO41,BNMTCASH00004449;2799.00;;;;;;;;zerotype;;Summer;;No
1865826;2981-Cobra-Silver-41-Silver-1865826;2981-Cobra-Silver-41;Draft;Casual Shoes;Bruno Manetti;Adults-Women;Women;;;;Core;Casual;2017;EURO36,BNMTCASH00004438,EURO37,BNMTCASH00004439,EURO38,BNMTCASH00004440,EURO39,BNMTCASH00004441,EURO40,BNMTCASH00004442,EURO41,BNMTCASH00004443;2799.00;;;;;;;;zerotype;;Summer;;No
1865824;2975-Silver-41-Silver-1865824;2975-Silver-41;Draft;Casual Shoes;Bruno Manetti;Adults-Women;Women;;;;Core;Casual;2017;EURO36,BNMTCASH00004432,EURO37,BNMTCASH00004433,EURO38,BNMTCASH00004434,EURO39,BNMTCASH00004435,EURO40,BNMTCASH00004436,EURO41,BNMTCASH00004437;2499.00;;;;;;;;zerotype;;Summer;;No
1865822;2975-Golden-41-Gold-1865822;2975-Golden-41;Draft;Casual Shoes;Bruno Manetti;Adults-Women;Women;;;;Core;Casual;2017;EURO36,BNMTCASH00004426,EURO37,BNMTCASH00004427,EURO38,BNMTCASH00004428,EURO39,BNMTCASH00004429,EURO40,BNMTCASH00004430,EURO41,BNMTCASH00004431;2499.00;;;;;;;;zerotype;;Summer;;No
1865821;2964-PF-Blue-41-Blue-1865821;2964-PF-Blue-41;Draft;Casual Shoes;Bruno Manetti;Adults-Women;Women;;;;Core;Casual;2017;EURO36,BNMTCASH00004420,EURO37,BNMTCASH00004421,EURO38,BNMTCASH00004422,EURO39,BNMTCASH00004423,EURO40,BNMTCASH00004424,EURO41,BNMTCASH00004425;2799.00;;;;;;;;zerotype;;Summer;;No
1865819;2964-PF-Black-41-Black-1865819;2964-PF-Black-41;Draft;Casual Shoes;Bruno Manetti;Adults-Women;Women;;;;Core;Casual;2017;EURO36,BNMTCASH00004414,EURO37,BNMTCASH00004415,EURO38,BNMTCASH00004416,EURO39,BNMTCASH00004417,EURO40,BNMTCASH00004418,EURO41,BNMTCASH00004419;2799.00;;;;;;;;zerotype;;Summer;;No
1865818;2964-PF-Tan-41-Tan-1865818;2964-PF-Tan-41;Draft;Casual Shoes;Bruno Manetti;Adults-Women;Women;;;;Core;Casual;2017;EURO36,BNMTCASH00004408,EURO37,BNMTCASH00004409,EURO38,BNMTCASH00004410,EURO39,BNMTCASH00004411,EURO40,BNMTCASH00004412,EURO41,BNMTCASH00004413;2799.00;;;;;;;;zerotype;;Summer;;No
1865816;BN-954-Copper-41-Copper-1865816;BN-954-Copper-41;Draft;Flats;Bruno Manetti;Adults-Women;Women;;;;Core;Casual;2017;EURO36,BNMTFlats00001372,EURO37,BNMTFlats00001373,EURO38,BNMTFlats00001374,EURO39,BNMTFlats00001375,EURO40,BNMTFlats00001376,EURO41,BNMTFlats00001377;1999.00;;;;;;;;zerotype;;Summer;;No
1865814;4523-Black-41-Black-1865814;4523-Black-41;Draft;Flats;Bruno Manetti;Adults-Women;Women;;;;Core;Casual;2017;EURO35,BNMTFlats00001365,EURO36,BNMTFlats00001366,EURO37,BNMTFlats00001367,EURO38,BNMTFlats00001368,EURO39,BNMTFlats00001369,EURO40,BNMTFlats00001370,EURO41,BNMTFlats00001371;2999.00;;;;;;;;zerotype;;Summer;;No
1865813;3301-JK-Black-41-Black-1865813;3301-JK-Black-41;Draft;Flats;Bruno Manetti;Adults-Women;Women;;;;Core;Casual;2017;EURO35,BNMTFlats00001358,EURO36,BNMTFlats00001359,EURO37,BNMTFlats00001360,EURO38,BNMTFlats00001361,EURO39,BNMTFlats00001362,EURO40,BNMTFlats00001363,EURO41,BNMTFlats00001364;2999.00;;;;;;;;zerotype;;Summer;;No
1865811;3319-Beige-41-Beige-1865811;3319-Beige-41;Draft;Heels;Bruno Manetti;Adults-Women;Women;;;;Core;Casual;2017;EURO35,BNMTHeels00002089,EURO36,BNMTHeels00002090,EURO37,BNMTHeels00002091,EURO38,BNMTHeels00002092,EURO39,BNMTHeels00002093,EURO40,BNMTHeels00002094,EURO41,BNMTHeels00002095;2999.00;;;;;;;;zerotype;;Summer;;No
1865809;SH4-Red-41-Red-1865809;SH4-Red-41;Draft;Heels;Bruno Manetti;Adults-Women;Women;;;;Core;Casual;2017;EURO35,BNMTHeels00002082,EURO36,BNMTHeels00002083,EURO37,BNMTHeels00002084,EURO38,BNMTHeels00002085,EURO39,BNMTHeels00002086,EURO40,BNMTHeels00002087,EURO41,BNMTHeels00002088;2999.00;;;;;;;;zerotype;;Summer;;No
1865807;SH4-Black-41-Black-1865807;SH4-Black-41;Draft;Heels;Bruno Manetti;Adults-Women;Women;;;;Core;Casual;2017;EURO35,BNMTHeels00002075,EURO36,BNMTHeels00002076,EURO37,BNMTHeels00002077,EURO38,BNMTHeels00002078,EURO39,BNMTHeels00002079,EURO40,BNMTHeels00002080,EURO41,BNMTHeels00002081;2999.00;;;;;;;;zerotype;;Summer;;No
1865805;SH3-Pink-41-Pink-1865805;SH3-Pink-41;Draft;Heels;Bruno Manetti;Adults-Women;Women;;;;Core;Casual;2017;EURO35,BNMTHeels00002068,EURO36,BNMTHeels00002069,EURO37,BNMTHeels00002070,EURO38,BNMTHeels00002071,EURO39,BNMTHeels00002072,EURO40,BNMTHeels00002073,EURO41,BNMTHeels00002074;2999.00;;;;;;;;zerotype;;Summer;;No
1865804;SH3-Navy-41-Navy Blue-1865804;SH3-Navy-41;Draft;Heels;Bruno Manetti;Adults-Women;Women;;;;Core;Casual;2017;EURO35,BNMTHeels00002061,EURO36,BNMTHeels00002062,EURO37,BNMTHeels00002063,EURO38,BNMTHeels00002064,EURO39,BNMTHeels00002065,EURO40,BNMTHeels00002066,EURO41,BNMTHeels00002067;2999.00;;;;;;;;zerotype;;Summer;;No
1865802;SH2-White-41-White-1865802;SH2-White-41;Draft;Heels;Bruno Manetti;Adults-Women;Women;;;;Core;Casual;2017;EURO35,BNMTHeels00002054,EURO36,BNMTHeels00002055,EURO37,BNMTHeels00002056,EURO38,BNMTHeels00002057,EURO39,BNMTHeels00002058,EURO40,BNMTHeels00002059,EURO41,BNMTHeels00002060;2999.00;;;;;;;;zerotype;;Summer;;No
1865801;SH1-Black-41-Black-1865801;SH1-Black-41;Draft;Heels;Bruno Manetti;Adults-Women;Women;;;;Core;Casual;2017;EURO35,BNMTHeels00002047,EURO36,BNMTHeels00002048,EURO37,BNMTHeels00002049,EURO38,BNMTHeels00002050,EURO39,BNMTHeels00002051,EURO40,BNMTHeels00002052,EURO41,BNMTHeels00002053;2999.00;;;;;;;;zerotype;;Summer;;No
1865799;SH1-Beige-41-Beige-1865799;SH1-Beige-41;Draft;Heels;Bruno Manetti;Adults-Women;Women;;;;Core;Casual;2017;EURO35,BNMTHeels00002040,EURO36,BNMTHeels00002041,EURO37,BNMTHeels00002042,EURO38,BNMTHeels00002043,EURO39,BNMTHeels00002044,EURO40,BNMTHeels00002045,EURO41,BNMTHeels00002046;2999.00;;;;;;;;zerotype;;Summer;;No
1865797;S-3074-Golden-41-Gold-1865797;S-3074-Golden-41;Draft;Heels;Bruno Manetti;Adults-Women;Women;;;;Core;Casual;2017;EURO35,BNMTHeels00002033,EURO36,BNMTHeels00002034,EURO37,BNMTHeels00002035,EURO38,BNMTHeels00002036,EURO39,BNMTHeels00002037,EURO40,BNMTHeels00002038,EURO41,BNMTHeels00002039;2999.00;;;;;;;;zerotype;;Summer;;No
1865795;S-3074-Black-41-Black-1865795;S-3074-Black-41;Draft;Heels;Bruno Manetti;Adults-Women;Women;;;;Core;Casual;2017;EURO35,BNMTHeels00002026,EURO36,BNMTHeels00002027,EURO37,BNMTHeels00002028,EURO38,BNMTHeels00002029,EURO39,BNMTHeels00002030,EURO40,BNMTHeels00002031,EURO41,BNMTHeels00002032;2999.00;;;;;;;;zerotype;;Summer;;No
1865793;P-7002-Green-41-Green-1865793;P-7002-Green-41;Draft;Heels;Bruno Manetti;Adults-Women;Women;;;;Core;Casual;2017;EURO35,BNMTHeels00002019,EURO36,BNMTHeels00002020,EURO37,BNMTHeels00002021,EURO38,BNMTHeels00002022,EURO39,BNMTHeels00002023,EURO40,BNMTHeels00002024,EURO41,BNMTHeels00002025;2799.00;;;;;;;;zerotype;;Summer;;No
1865792;P-7002-Black-41-Black-1865792;P-7002-Black-41;Draft;Heels;Bruno Manetti;Adults-Women;Women;;;;Core;Casual;2017;EURO35,BNMTHeels00002012,EURO36,BNMTHeels00002013,EURO37,BNMTHeels00002014,EURO38,BNMTHeels00002015,EURO39,BNMTHeels00002016,EURO40,BNMTHeels00002017,EURO41,BNMTHeels00002018;2799.00;;;;;;;;zerotype;;Summer;;No
1865790;G-51-Silver-41-Silver-1865790;G-51-Silver-41;Draft;Heels;Bruno Manetti;Adults-Women;Women;;;;Core;Casual;2017;EURO35,BNMTHeels00002005,EURO36,BNMTHeels00002006,EURO37,BNMTHeels00002007,EURO38,BNMTHeels00002008,EURO39,BNMTHeels00002009,EURO40,BNMTHeels00002010,EURO41,BNMTHeels00002011;2999.00;;;;;;;;zerotype;;Summer;;No
1865788;G-51-Golden-41-Gold-1865788;G-51-Golden-41;Draft;Heels;Bruno Manetti;Adults-Women;Women;;;;Core;Casual;2017;EURO35,BNMTHeels00001998,EURO36,BNMTHeels00001999,EURO37,BNMTHeels00002000,EURO38,BNMTHeels00002001,EURO39,BNMTHeels00002002,EURO40,BNMTHeels00002003,EURO41,BNMTHeels00002004;2999.00;;;;;;;;zerotype;;Summer;;No
1865786;G-40-Golden-41-Gold-1865786;G-40-Golden-41;Draft;Heels;Bruno Manetti;Adults-Women;Women;;;;Core;Casual;2017;EURO35,BNMTHeels00001991,EURO36,BNMTHeels00001992,EURO37,BNMTHeels00001993,EURO38,BNMTHeels00001994,EURO39,BNMTHeels00001995,EURO40,BNMTHeels00001996,EURO41,BNMTHeels00001997;2999.00;;;;;;;;zerotype;;Summer;;No
1865785;G-40-Black-41-Black-1865785;G-40-Black-41;Draft;Heels;Bruno Manetti;Adults-Women;Women;;;;Core;Casual;2017;EURO35,BNMTHeels00001984,EURO36,BNMTHeels00001985,EURO37,BNMTHeels00001986,EURO38,BNMTHeels00001987,EURO39,BNMTHeels00001988,EURO40,BNMTHeels00001989,EURO41,BNMTHeels00001990;2999.00;;;;;;;;zerotype;;Summer;;No
1865783;601-Pink-41-Pink-1865783;601-Pink-41;Draft;Heels;Bruno Manetti;Adults-Women;Women;;;;Core;Casual;2017;EURO35,BNMTHeels00001977,EURO36,BNMTHeels00001978,EURO37,BNMTHeels00001979,EURO38,BNMTHeels00001980,EURO39,BNMTHeels00001981,EURO40,BNMTHeels00001982,EURO41,BNMTHeels00001983;2999.00;;;;;;;;zerotype;;Summer;;No
1865781;502-Beige-41-Beige-1865781;502-Beige-41;Draft;Heels;Bruno Manetti;Adults-Women;Women;;;;Core;Casual;2017;EURO35,BNMTHeels00001970,EURO36,BNMTHeels00001971,EURO37,BNMTHeels00001972,EURO38,BNMTHeels00001973,EURO39,BNMTHeels00001974,EURO40,BNMTHeels00001975,EURO41,BNMTHeels00001976;2999.00;;;;;;;;zerotype;;Summer;;No
1865779;4556-White-41-White-1865779;4556-White-41;Draft;Heels;Bruno Manetti;Adults-Women;Women;;;;Core;Casual;2017;EURO35,BNMTHeels00001963,EURO36,BNMTHeels00001964,EURO37,BNMTHeels00001965,EURO38,BNMTHeels00001966,EURO39,BNMTHeels00001967,EURO40,BNMTHeels00001968,EURO41,BNMTHeels00001969;2999.00;;;;;;;;zerotype;;Summer;;No
1865777;4556-Black-41-Black-1865777;4556-Black-41;Draft;Heels;Bruno Manetti;Adults-Women;Women;;;;Core;Casual;2017;EURO35,BNMTHeels00001956,EURO36,BNMTHeels00001957,EURO37,BNMTHeels00001958,EURO38,BNMTHeels00001959,EURO39,BNMTHeels00001960,EURO40,BNMTHeels00001961,EURO41,BNMTHeels00001962;2999.00;;;;;;;;zerotype;;Summer;;No
1865775;4553-Black-41-Black-1865775;4553-Black-41;Draft;Heels;Bruno Manetti;Adults-Women;Women;;;;Core;Casual;2017;EURO35,BNMTHeels00001949,EURO36,BNMTHeels00001950,EURO37,BNMTHeels00001951,EURO38,BNMTHeels00001952,EURO39,BNMTHeels00001953,EURO40,BNMTHeels00001954,EURO41,BNMTHeels00001955;2999.00;;;;;;;;zerotype;;Summer;;No
1865774;3320-White-Grey-41-White-1865774;3320-White-Grey-41;Draft;Heels;Bruno Manetti;Adults-Women;Women;;;;Core;Casual;2017;EURO35,BNMTHeels00001942,EURO36,BNMTHeels00001943,EURO37,BNMTHeels00001944,EURO38,BNMTHeels00001945,EURO39,BNMTHeels00001946,EURO40,BNMTHeels00001947,EURO41,BNMTHeels00001948;2999.00;;;;;;;;zerotype;;Summer;;No
1865772;3317-White-Green-41-White-1865772;3317-White-Green-41;Draft;Heels;Bruno Manetti;Adults-Women;Women;;;;Core;Casual;2017;EURO35,BNMTHeels00001935,EURO36,BNMTHeels00001936,EURO37,BNMTHeels00001937,EURO38,BNMTHeels00001938,EURO39,BNMTHeels00001939,EURO40,BNMTHeels00001940,EURO41,BNMTHeels00001941;2999.00;;;;;;;;zerotype;;Summer;;No
1865770;3280-Cream-White-41-Cream-1865770;3280-Cream-White-41;Draft;Heels;Bruno Manetti;Adults-Women;Women;;;;Core;Casual;2017;EURO35,BNMTHeels00001928,EURO36,BNMTHeels00001929,EURO37,BNMTHeels00001930,EURO38,BNMTHeels00001931,EURO39,BNMTHeels00001932,EURO40,BNMTHeels00001933,EURO41,BNMTHeels00001934;2799.00;;;;;;;;zerotype;;Summer;;No
1865768;051-Black-41-Black-1865768;051-Black-41;Draft;Heels;Bruno Manetti;Adults-Women;Women;;;;Core;Casual;2017;EURO35,BNMTHeels00001921,EURO36,BNMTHeels00001922,EURO37,BNMTHeels00001923,EURO38,BNMTHeels00001924,EURO39,BNMTHeels00001925,EURO40,BNMTHeels00001926,EURO41,BNMTHeels00001927;2799.00;;;;;;;;zerotype;;Summer;;No
1850074;AVI-007-1-Black-41-Black-1850074;AVI-007-1-Black-41;Active;Casual Shoes;Bruno Manetti;Adults-Women;Women;Navy Blue;;;Core;Casual;2017;EURO35,BNMTCASH00004346,EURO36,BNMTCASH00004347,EURO37,BNMTCASH00004348,EURO38,BNMTCASH00004349,EURO39,BNMTCASH00004350,EURO40,BNMTCASH00004351,EURO41,BNMTCASH00004352;2499.00;A pair of navy espadrilles<br />Printed canvas upper <br />Cushioned footbed<br />Textured outsole;Expand your shoe collection with a brand new pair of espadrilles made by Bruno Manetti. This metallic pair can be styled with a casual T-shirt and some slim jeans for a cute date look.;Canvas<br />Wipe with a clean, dry cloth when needed<br />Avoid washing for better longevity of the colour;;;Bruno Manetti Women Navy Printed Espadrilles;Bruno Manetti,JIT,coupon-crush-bb,flat40-extra30-bb,min30-extra1000,gold22-bb,power500-bb,b3-20-power20,flat50-extra15-bb,flash-sale-bb21;zerotype;;Summer;flash-sale-bb21;No
1850070;31-7686ME-Metallic-41-Metallic-1850070;31-7686ME-Metallic-41;Active;Casual Shoes;Bruno Manetti;Adults-Women;Women;Taupe;;;Core;Casual;2017;EURO36,BNMTCASH00004334,EURO37,BNMTCASH00004335,EURO38,BNMTCASH00004336,EURO39,BNMTCASH00004337,EURO40,BNMTCASH00004338,EURO41,BNMTCASH00004339;2999.00;A pair of taupe pointy-toed slip-on <a href='/sneakers?src=pd' class='seolink'>sneakers</a><br />Glossy <a href='/synthetic?src=pd' class='seolink'>synthetic</a> <a href='/leather?src=pd' class='seolink'>leather</a> upper, an elasticated gusset on either side of the mouth <br />Cushioned footbed<br />Textured outsole with patterned grooves;Expand your shoe collection with a brand new pair of casual shoes made by Bruno Manetti. This metallic pair can be styled with a casual T-shirt and some slim jeans for a cute date look.;Synthetic leather<br />Wipe with a clean, dry cloth when needed;;;Bruno Manetti Women Taupe Glossy Slip-On Sneakers;Bruno Manetti,JIT,coupon-crush-bb,flat40-extra30-bb,min30-extra1000,gold22-bb,power500-bb,b3-20-power20,flat50-extra15-bb,flash-sale-bb21;zerotype;;Summer;flash-sale-bb21;No
1850066;2981-Studd-Metallic-41-Metallic-1850066;2981-Studd-Metallic-41;Active;Casual Shoes;Bruno Manetti;Adults-Women;Women;Metallic;;;Core;Casual;2017;EURO36,BNMTCASH00004323,EURO37,BNMTCASH00004324,EURO38,BNMTCASH00004325,EURO39,BNMTCASH00004326,EURO40,BNMTCASH00004327,EURO41,BNMTCASH00004328;2799.00;A pair of gunmetal-toned slip-on <a href='/sneakers?src=pd' class='seolink'>sneakers</a><br /><a href='/synthetic?src=pd' class='seolink'>Synthetic</a> <a href='/leather?src=pd' class='seolink'>leather</a> upper with textured detail, an elasticasted gusset on either side of the mouth<br />Cushioned footbed<br />Textured midsole with foxing on the forefoot and the backfoot<br />Textured outsole with patterned grooves;Expand your shoe collection with a brand new pair of casual shoes made by Bruno Manetti. This metallic pair can be styled with a casual T-shirt and some slim jeans for a cute date look.;Synthetic leather<br />Wipe with a clean, dry cloth when needed;;;Bruno Manetti Women Gunmetal-Toned Textured Slip-On Sneakers;Bruno Manetti,JIT,coupon-crush-bb,flat40-extra30-bb,min30-extra1000,gold22-bb,power500-bb,b3-20-power20,newseason20-bb,flat50-extra15-bb,flash-sale-bb21;zerotype;;Summer;flash-sale-bb21;No
1850061;2996-Peach-41-Peach-1850061;2996-Peach-41;Active;Casual Shoes;Bruno Manetti;Adults-Women;Women;Peach;;;Core;Casual;2017;EURO35,BNMTCASH00004309,EURO36,BNMTCASH00004310,EURO37,BNMTCASH00004311,EURO38,BNMTCASH00004312,EURO39,BNMTCASH00004313,EURO40,BNMTCASH00004314,EURO41,BNMTCASH00004315;2799.00;A pair of peach-coloured <a href='/boat-shoes?src=pd' class='seolink'>boat shoes</a>, has central lace-ups<br /><a href='/synthetic?src=pd' class='seolink'>Synthetic</a> leather upper, cut-out detail on the forefoot, lace inserts along both sides of the mouth <br />Cushioned footbed<br />Textured outsole with patterned grooves;Expand your shoe collection with a brand new pair of casual shoes made by Bruno Manetti. This metallic pair can be styled with a casual T-shirt and some slim jeans for a cute date look.;Synthetic leather<br />Wipe with a clean, dry cloth when needed;;;Bruno Manetti Women Peach-Coloured Cut-Out Boat Shoes;Bruno Manetti,JIT,coupon-crush-bb,flat40-extra30-bb,min30-extra1000,gold22-bb,power500-bb,b3-20-power20,flat50-extra15-bb,flash-sale-bb21;zerotype;;Summer;flash-sale-bb21;No
1805840;3293-Copper-41-Copper-1805840;3293-Copper-41;Inactive - Marketplace - Reject;Heels;Bruno Manetti;Adults-Women;Women;Copper;;;Core;Casual;2017;EURO 36,BNMTHeels00001332,EURO 37,BNMTHeels00001333,EURO 38,BNMTHeels00001334,EURO 39,BNMTHeels00001335,EURO 40,BNMTHeels00001336,EURO 41,BNMTHeels00001337;2999.00;A pair of copper-toned wedges<br />Synthetic patent upper with criss-cross straps<br />Cushioned footbed<br />Textured and patterned outsolee;These platform wedges from Bruno Manetti are both stylish and comfortable, making them a great fit for any wardrobe.  Wear this copper pair with slim jeans and a pretty top when you're going to an art exhibit with your friends.;Synthetic patent <br /> Wipe with a clean, dry cloth to remove dust;Heel height: 4";;Bruno Manetti Women Copper-Toned Solid Wedges;Bruno Manetti,JIT;zerotype;;Summer;Colour inconsistency due to reflection;No
1805839;3293-Golden-41-Golden-1805839;3293-Golden-41;Inactive - Marketplace - Reject;Heels;Bruno Manetti;Adults-Women;Women;Gold;;;Core;Casual;2017;EURO 36,BNMTHeels00001326,EURO 37,BNMTHeels00001327,EURO 38,BNMTHeels00001328,EURO 39,BNMTHeels00001329,EURO 40,BNMTHeels00001330,EURO 41,BNMTHeels00001331;2999.00;A pair of gold-toned wedges<br />Synthetic patent upper with criss-cross straps<br />Cushioned footbed<br />Textured and patterned outsole;Update your collection of shoes with these comfortable and stylish Bruno Manetti platform wedges.  This gold pair can be styled with a cute skirt and a classy top when you're going out to dinner with the girls.;Synthetic patent <br /> Wipe with a clean, dry cloth to remove dust;Heel height: 4";;Bruno Manetti Women Gold-Toned Solid Wedges;Bruno Manetti,JIT;zerotype;;Summer;Too much colour inconsistency due to reflection;No
