Style ID;Vendor Article Number;Vendor Article Name;Active Status;Article type;Brand;Age Group;Gender;Base Colour;Colour1;Colour2;Fashion Type;Usage;Year;Size - SKU code pair;MRP;Style Description;Style Note;Materials and Care Description;Size and Fit Description;Size Chart Path;Product Display Name;Tags;Product Type;Classification Brand;Season;Comments;Upload Images
2518376;LF-I-811-G4-BROWN-Brown-2518376;LF-I-811-G4-BROWN;Draft;Flats;SHUZ TOUCH;Adults-Women;Women;Brown;;;Fashion;Casual;2018;36,SZTCFlats00000811,41,SZTCFlats00000812,40,SZTCFlats00000813,39,SZTCFlats00000814,38,SZTCFlats00000815,37,SZTCFlats00000816;2695.00;;;<p>GENTALY RUB WITH A CLOTH</p>;;;NA;;zerotype;;Summer;;No
2518375;LF-I-628-383-BROWN-Brown-2518375;LF-I-628-383-BROWN;Draft;Flats;SHUZ TOUCH;Adults-Women;Women;Brown;;;Fashion;Casual;2018;41,SZTCFlats00000805,40,SZTCFlats00000806,38,SZTCFlats00000807,36,SZTCFlats00000808,39,SZTCFlats00000809,37,SZTCFlats00000810;1695.00;;;<p>GENTALY RUB WITH A CLOTH</p>;;;NA;;zerotype;;Summer;;No
2518374;LF-I-628-383-BLACK-Black-2518374;LF-I-628-383-BLACK;Draft;Flats;SHUZ TOUCH;Adults-Women;Women;Black;;;Fashion;Casual;2018;41,SZTCFlats00000799,40,SZTCFlats00000800,39,SZTCFlats00000801,38,SZTCFlats00000802,37,SZTCFlats00000803,36,SZTCFlats00000804;1695.00;;;<p>GENTALY RUB WITH A CLOTH</p>;;;NA;;zerotype;;Summer;;No
2518373;LF-I-628-384-OLIVE-Olive-2518373;LF-I-628-384-OLIVE;Draft;Flats;SHUZ TOUCH;Adults-Women;Women;Olive;;;Fashion;Casual;2018;39,SZTCFlats00000793,41,SZTCFlats00000794,40,SZTCFlats00000795,36,SZTCFlats00000796,38,SZTCFlats00000797,37,SZTCFlats00000798;1695.00;;;<p>GENTALY RUB WITH A CLOTH</p>;;;NA;;zerotype;;Summer;;No
