Style ID;Vendor Article Number;Vendor Article Name;Active Status;Article type;Brand;Age Group;Gender;Base Colour;Colour1;Colour2;Fashion Type;Usage;Year;Size - SKU code pair;MRP;Style Description;Style Note;Materials and Care Description;Size and Fit Description;Size Chart Path;Product Display Name;Tags;Product Type;Classification Brand;Season;Comments;Upload Images
1882356;4993848808209981327-BLUE-1882356;Blue Painted Jeans;Draft;Jeans;next;Adults-Men;Men;;;;Fashion;;2017;30R,NEXTJENS00001194,30S,NEXTJENS00001195,38S,NEXTJENS00001196,30L,NEXTJENS00001197,38L,NEXTJENS00001198,36R,NEXTJENS00001199,32R,NEXTJENS00001200,40R,NEXTJENS00001201,36L,NEXTJENS00001202,32S,NEXTJENS00001203,34R,NEXTJENS00001204,34S,NEXTJENS00001205,38R,NEXTJENS00001206,34XL,NEXTJENS00001207,32L,NEXTJENS00001208,42R,NEXTJENS00001209,40L,NEXTJENS00001210,36XL,NEXTJENS00001211,36S,NEXTJENS00001212,38XL,NEXTJENS00001213,34L,NEXTJENS00001214;5390.00;;;;;;;;zerotype;;Spring;;No
1882247;9220467483932033560-GREY-1882247;Pack Of 2 Smiley Regular Track Bottoms;Draft;Track Pants;next;Kids-Boys;Boys;;;;Fashion;;2017;3-4Y,NEXTTRPT00000880,1.5-2Y,NEXTTRPT00000881,4-5Y,NEXTTRPT00000882,2-3Y,NEXTTRPT00000883,5-6Y,NEXTTRPT00000884;2090.00;;;;;;;;zerotype;;Spring;;No
1882245;9220467483932033560-GREY-1882245;Pack Of 2 Smiley Regular Track Bottoms;Draft;Track Pants;next;Kids-Boys;Boys;;;;Fashion;;2017;9-12M,NEXTTRPT00000876,12-18M,NEXTTRPT00000877,6-9M,NEXTTRPT00000878,3-6M,NEXTTRPT00000879;1790.00;;;;;;;;zerotype;;Spring;;No
1882244;9011160339307730443-BLACK-1882244;Maternity Workwear Joggers;Draft;Track Pants;next;Adults-Women;Women;;;;Fashion;;2017;14L,NEXTTRPT00000869,16R,NEXTTRPT00000870,18L,NEXTTRPT00000871,20R,NEXTTRPT00000872,8L,NEXTTRPT00000873,10R,NEXTTRPT00000874,12L,NEXTTRPT00000875;3190.00;;;;;;;;zerotype;;Spring;;No
1882243;8527587908799296397-GREY-1882243;Rib Panel Track Bottom;Draft;Track Pants;next;Kids-Girls;Girls;;;;Fashion;;2017;13Y,NEXTTRPT00000865,15Y,NEXTTRPT00000866,16Y,NEXTTRPT00000867,14Y,NEXTTRPT00000868;1790.00;;;;;;;;zerotype;;Spring;;No
1882241;8527587908799296397-GREY-1882241;Rib Panel Track Bottom;Draft;Track Pants;next;Kids-Girls;Girls;;;;Fashion;;2017;11Y,NEXTTRPT00000863,12Y,NEXTTRPT00000864;1590.00;;;;;;;;zerotype;;Spring;;No
1882239;8527587908799296397-GREY-1882239;Rib Panel Track Bottom;Draft;Track Pants;next;Kids-Girls;Girls;;;;Fashion;;2017;8Y,NEXTTRPT00000859,7Y,NEXTTRPT00000860,10Y,NEXTTRPT00000861,9Y,NEXTTRPT00000862;1390.00;;;;;;;;zerotype;;Spring;;No
1882237;8527587908799296397-GREY-1882237;Rib Panel Track Bottom;Draft;Track Pants;next;Kids-Girls;Girls;;;;Fashion;;2017;3Y,NEXTTRPT00000855,4Y,NEXTTRPT00000856,5Y,NEXTTRPT00000857,6Y,NEXTTRPT00000858;1190.00;;;;;;;;zerotype;;Spring;;No
1882236;8368850396032583238-BLACK-1882236;Dark Grey Zip Jogger;Draft;Track Pants;next;Adults-Men;Men;;;;Fashion;;2017;L,NEXTTRPT00000850,XXL,NEXTTRPT00000851,S,NEXTTRPT00000852,M,NEXTTRPT00000853,XL,NEXTTRPT00000854;3590.00;;;;;;;;zerotype;;Spring;;No
1882235;8162795458859352718-ORANGE-1882235;Maroontrack Bottom (0Mths-2Yrs);Draft;Track Pants;next;Kids-Boys;Boys;;;;Fashion;;2017;1.5-2Y,NEXTTRPT00000849;1190.00;;;;;;;;zerotype;;Spring;;No
1882233;8162795458859352718-ORANGE-1882233;Maroontrack Bottom (0Mths-2Yrs);Draft;Track Pants;next;Kids-Boys;Boys;;;;Fashion;;2017;0-3M,NEXTTRPT00000842,6-9M,NEXTTRPT00000843,3-6M,NEXTTRPT00000844,0-1M,NEXTTRPT00000845,12-18M,NEXTTRPT00000846,Newborn,NEXTTRPT00000847,9-12M,NEXTTRPT00000848;1090.00;;;;;;;;zerotype;;Spring;;No
1882231;8086634244651337755-BLACK-1882231;Side Stripe Track Trouser;Draft;Track Pants;next;Adults-Women;Women;;;;Fashion;;2017;14P,NEXTTRPT00000835,6P,NEXTTRPT00000836,16P,NEXTTRPT00000837,18P,NEXTTRPT00000838,8P,NEXTTRPT00000839,10P,NEXTTRPT00000840,12P,NEXTTRPT00000841;5090.00;;;;;;;;zerotype;;Spring;;No
1882229;8068158246759993124-BLUE-1882229;Textured Joggers Three Pack;Draft;Track Pants;next;Kids-Boys;Boys;;;;Fashion;;2017;5-6Y,NEXTTRPT00000830,1.5-2Y,NEXTTRPT00000831,3-4Y,NEXTTRPT00000832,2-3Y,NEXTTRPT00000833,4-5Y,NEXTTRPT00000834;2390.00;;;;;;;;zerotype;;Spring;;No
1882227;8068158246759993124-BLUE-1882227;Textured Joggers Three Pack;Draft;Track Pants;next;Kids-Boys;Boys;;;;Fashion;;2017;3-6M,NEXTTRPT00000826,9-12M,NEXTTRPT00000827,6-9M,NEXTTRPT00000828,12-18M,NEXTTRPT00000829;2190.00;;;;;;;;zerotype;;Spring;;No
1882224;7886957871771508371-GREY-1882224;Grey Jersey Joggers (3Mths-6Yrs);Draft;Track Pants;next;Kids-Boys;Boys;;;;Fashion;;2017;5-6Y,NEXTTRPT00000821,3-4Y,NEXTTRPT00000822,2-3Y,NEXTTRPT00000823,1.5-2Y,NEXTTRPT00000824,4-5Y,NEXTTRPT00000825;2090.00;;;;;;;;zerotype;;Spring;;No
1882221;7886957871771508371-GREY-1882221;Grey Jersey Joggers (3Mths-6Yrs);Draft;Track Pants;next;Kids-Boys;Boys;;;;Fashion;;2017;3-6M,NEXTTRPT00000817,9-12M,NEXTTRPT00000818,6-9M,NEXTTRPT00000819,12-18M,NEXTTRPT00000820;1990.00;;;;;;;;zerotype;;Spring;;No
1882218;7514164135185600008-BLACK-1882218;Mesh Technical Jogger;Draft;Track Pants;next;Adults-Women;Women;;;;Fashion;;2017;10,NEXTTRPT00000808,8,NEXTTRPT00000809,16,NEXTTRPT00000810,22,NEXTTRPT00000811,6,NEXTTRPT00000812,20,NEXTTRPT00000813,14,NEXTTRPT00000814,18,NEXTTRPT00000815,12,NEXTTRPT00000816;4090.00;;;;;;;;zerotype;;Spring;;No
1882216;7426868601496956243-GREEN-1882216;Cuffed Jogger;Draft;Track Pants;next;Adults-Men;Men;;;;Fashion;;2017;S,NEXTTRPT00000803,XXL,NEXTTRPT00000804,M,NEXTTRPT00000805,L,NEXTTRPT00000806,XL,NEXTTRPT00000807;2590.00;;;;;;;;zerotype;;Spring;;No
1882213;7373465732323308662-BLUE-1882213;NEXT BLUE TRACKPANTS;Draft;Track Pants;next;Adults-Women;Women;;;;Fashion;;2017;S,NEXTTRPT00000798,XL,NEXTTRPT00000799,M,NEXTTRPT00000800,XS,NEXTTRPT00000801,L,NEXTTRPT00000802;2590.00;;;;;;;;zerotype;;Spring;;No
1882211;7221936545861119702-BLUE-1882211;Navy Blue Contrast Rib Jogger;Draft;Track Pants;next;Adults-Men;Men;;;;Fashion;;2017;S,NEXTTRPT00000792,XL,NEXTTRPT00000793,XXL,NEXTTRPT00000794,M,NEXTTRPT00000795,L,NEXTTRPT00000796,XS,NEXTTRPT00000797;3390.00;;;;;;;;zerotype;;Spring;;No
1882199;7122974380402740231-BLUE-1882199;Pack Of 2 Joggers;Draft;Track Pants;next;Kids-Boys;Boys;;;;Fashion;;2017;1.5-2Y,NEXTTRPT00000791;1390.00;;;;;;;;zerotype;;Spring;;No
1882198;7122974380402740231-BLUE-1882198;Pack Of 2 Joggers;Draft;Track Pants;next;Kids-Boys;Boys;;;;Fashion;;2017;6-9M,NEXTTRPT00000784,9-12M,NEXTTRPT00000785,12-18M,NEXTTRPT00000786,Newborn,NEXTTRPT00000787,0-1M,NEXTTRPT00000788,3-6M,NEXTTRPT00000789,0-3M,NEXTTRPT00000790;1290.00;;;;;;;;zerotype;;Spring;;No
1882197;7122871189946309082-BLUE-1882197;Wide Leg Track Pants;Draft;Track Pants;next;Adults-Women;Women;;;;Fashion;;2017;L,NEXTTRPT00000779,S,NEXTTRPT00000780,M,NEXTTRPT00000781,XS,NEXTTRPT00000782,XL,NEXTTRPT00000783;3390.00;;;;;;;;zerotype;;Spring;;No
1882196;6965210477836268982-GREY-1882196;Black Side Solid Trackpant;Draft;Track Pants;next;Adults-Women;Women;;;;Fashion;;2017;12,NEXTTRPT00000771,18,NEXTTRPT00000772,20,NEXTTRPT00000773,8,NEXTTRPT00000774,6,NEXTTRPT00000775,10,NEXTTRPT00000776,16,NEXTTRPT00000777,14,NEXTTRPT00000778;2290.00;;;;;;;;zerotype;;Spring;;No
1882195;6697850067670016228-PINK-1882195;Blush Panelled Joggers;Draft;Track Pants;next;Adults-Women;Women;;;;Fashion;;2017;8,NEXTTRPT00000764,14,NEXTTRPT00000765,12,NEXTTRPT00000766,16,NEXTTRPT00000767,6,NEXTTRPT00000768,10,NEXTTRPT00000769,18,NEXTTRPT00000770;5090.00;;;;;;;;zerotype;;Spring;;No
1882194;6520454278891897916-BLACK-1882194;Maternity Under The Bump Joggers;Draft;Track Pants;next;Adults-Women;Women;;;;Fashion;;2017;14L,NEXTTRPT00000757,16L,NEXTTRPT00000758,8L,NEXTTRPT00000759,20R,NEXTTRPT00000760,18R,NEXTTRPT00000761,10R,NEXTTRPT00000762,12R,NEXTTRPT00000763;3590.00;;;;;;;;zerotype;;Spring;;No
1882193;6126920132171046789-GREY-1882193;Grey Zip Jogger;Draft;Track Pants;next;Adults-Men;Men;;;;Fashion;;2017;M,NEXTTRPT00000752,XL,NEXTTRPT00000753,L,NEXTTRPT00000754,S,NEXTTRPT00000755,XXL,NEXTTRPT00000756;3590.00;;;;;;;;zerotype;;Spring;;No
1882192;5326315890097519354-GREEN-1882192;Open Hem Track Pant;Draft;Track Pants;next;Adults-Men;Men;;;;Fashion;;2017;XXL,NEXTTRPT00000747,XL,NEXTTRPT00000748,L,NEXTTRPT00000749,M,NEXTTRPT00000750,S,NEXTTRPT00000751;2590.00;;;;;;;;zerotype;;Spring;;No
1882191;5324238316838704113-BLACK-1882191;Technical Loose Fit Joggers;Draft;Track Pants;next;Adults-Women;Women;;;;Fashion;;2017;14,NEXTTRPT00000738,20,NEXTTRPT00000739,16,NEXTTRPT00000740,10,NEXTTRPT00000741,18,NEXTTRPT00000742,8,NEXTTRPT00000743,22,NEXTTRPT00000744,6,NEXTTRPT00000745,12,NEXTTRPT00000746;3190.00;;;;;;;;zerotype;;Spring;;No
1882190;5190329791602436837-GREEN-1882190;Olive Track Bottom;Draft;Track Pants;next;Kids-Girls;Girls;;;;Fashion;;2017;4-5Y,NEXTTRPT00000733,2-3Y,NEXTTRPT00000734,1.5-2Y,NEXTTRPT00000735,5-6Y,NEXTTRPT00000736,3-4Y,NEXTTRPT00000737;2090.00;;;;;;;;zerotype;;Spring;;No
1882189;5190329791602436837-GREEN-1882189;Olive Track Bottom;Draft;Track Pants;next;Kids-Girls;Girls;;;;Fashion;;2017;12-18M,NEXTTRPT00000729,6-9M,NEXTTRPT00000730,9-12M,NEXTTRPT00000731,3-6M,NEXTTRPT00000732;1990.00;;;;;;;;zerotype;;Spring;;No
1882188;5080352772888988929-BLACK-1882188;Technical Jogger;Draft;Track Pants;next;Adults-Women;Women;;;;Fashion;;2017;22,NEXTTRPT00000720,8,NEXTTRPT00000721,12,NEXTTRPT00000722,10,NEXTTRPT00000723,16,NEXTTRPT00000724,18,NEXTTRPT00000725,20,NEXTTRPT00000726,14,NEXTTRPT00000727,6,NEXTTRPT00000728;3190.00;;;;;;;;zerotype;;Spring;;No
1882187;4684326630274209386-GREY-1882187;Grey Joggers;Draft;Track Pants;next;Kids-Girls;Girls;;;;Fashion;;2017;16Y,NEXTTRPT00000716,14Y,NEXTTRPT00000717,13Y,NEXTTRPT00000718,15Y,NEXTTRPT00000719;1690.00;;;;;;;;zerotype;;Spring;;No
1882186;4684326630274209386-GREY-1882186;Grey Joggers;Draft;Track Pants;next;Kids-Girls;Girls;;;;Fashion;;2017;11Y,NEXTTRPT00000714,12Y,NEXTTRPT00000715;1390.00;;;;;;;;zerotype;;Spring;;No
1882185;4684326630274209386-GREY-1882185;Grey Joggers;Draft;Track Pants;next;Kids-Girls;Girls;;;;Fashion;;2017;7Y,NEXTTRPT00000710,8Y,NEXTTRPT00000711,10Y,NEXTTRPT00000712,9Y,NEXTTRPT00000713;1190.00;;;;;;;;zerotype;;Spring;;No
1882184;4684326630274209386-GREY-1882184;Grey Joggers;Draft;Track Pants;next;Kids-Girls;Girls;;;;Fashion;;2017;4Y,NEXTTRPT00000706,5Y,NEXTTRPT00000707,6Y,NEXTTRPT00000708,3Y,NEXTTRPT00000709;1090.00;;;;;;;;zerotype;;Spring;;No
1882183;8633247712827292294-BLACK-1882183;NEXT BLACK LOUNGEWEAR;Draft;Lounge Pants;next;Adults-Women;Women;;;;Fashion;;2017;XL,NEXTLNGP00000170,L,NEXTLNGP00000171,3XL,NEXTLNGP00000172,XXL,NEXTLNGP00000173,M,NEXTLNGP00000174,S,NEXTLNGP00000175,XS,NEXTLNGP00000176;3190.00;;;;;;;;zerotype;;Spring;;No
1882182;8479774737102764758-PINK-1882182;Stripe Wide Leg Pants;Draft;Lounge Pants;next;Adults-Women;Women;;;;Fashion;;2017;XS,NEXTLNGP00000165,M,NEXTLNGP00000166,XL,NEXTLNGP00000167,S,NEXTLNGP00000168,L,NEXTLNGP00000169;2090.00;;;;;;;;zerotype;;Spring;;No
1882181;8021974413997850762-BLACK-1882181;Jersey Tapered Trouser;Draft;Lounge Pants;next;Adults-Women;Women;;;;Fashion;;2017;XXL,NEXTLNGP00000158,S,NEXTLNGP00000159,XXS,NEXTLNGP00000160,XL,NEXTLNGP00000161,L,NEXTLNGP00000162,XS,NEXTLNGP00000163,M,NEXTLNGP00000164;2890.00;;;;;;;;zerotype;;Spring;;No
1882180;7952342181042721840-GREY-1882180;Beaded Joggers;Draft;Lounge Pants;next;Adults-Women;Women;;;;Fashion;;2017;4XL,NEXTLNGP00000149,M,NEXTLNGP00000150,XXS,NEXTLNGP00000151,3XL,NEXTLNGP00000152,XS,NEXTLNGP00000153,XL,NEXTLNGP00000154,XXL,NEXTLNGP00000155,L,NEXTLNGP00000156,S,NEXTLNGP00000157;5390.00;;;;;;;;zerotype;;Spring;;No
1882179;6584174645738352609-RED-1882179;Knit Look Jogger;Draft;Lounge Pants;next;Adults-Women;Women;;;;Fashion;;2017;M,NEXTLNGP00000140,XXL,NEXTLNGP00000141,4XL,NEXTLNGP00000142,XL,NEXTLNGP00000143,XS,NEXTLNGP00000144,XXS,NEXTLNGP00000145,S,NEXTLNGP00000146,L,NEXTLNGP00000147,3XL,NEXTLNGP00000148;2590.00;;;;;;;;zerotype;;Spring;;No
1882178;6031809959140680867-GREY-1882178;Grey Marl Nibbled Pants;Draft;Lounge Pants;next;Adults-Women;Women;;;;Fashion;;2017;S,NEXTLNGP00000131,L,NEXTLNGP00000132,XXL,NEXTLNGP00000133,XL,NEXTLNGP00000134,4XL,NEXTLNGP00000135,3XL,NEXTLNGP00000136,M,NEXTLNGP00000137,XS,NEXTLNGP00000138,XXS,NEXTLNGP00000139;3390.00;;;;;;;;zerotype;;Spring;;No
1882177;5683702355647360744-GREEN-1882177;Crop Pant;Draft;Lounge Pants;next;Adults-Women;Women;;;;Fashion;;2017;XXS,NEXTLNGP00000122,XL,NEXTLNGP00000123,3XL,NEXTLNGP00000124,XS,NEXTLNGP00000125,L,NEXTLNGP00000126,S,NEXTLNGP00000127,M,NEXTLNGP00000128,XXL,NEXTLNGP00000129,4XL,NEXTLNGP00000130;2390.00;;;;;;;;zerotype;;Spring;;No
1882176;5314540985152070750-GREY-1882176;Crop Pant;Draft;Lounge Pants;next;Adults-Women;Women;;;;Fashion;;2017;XXL,NEXTLNGP00000113,3XL,NEXTLNGP00000114,4XL,NEXTLNGP00000115,L,NEXTLNGP00000116,XXS,NEXTLNGP00000117,S,NEXTLNGP00000118,XS,NEXTLNGP00000119,M,NEXTLNGP00000120,XL,NEXTLNGP00000121;2390.00;;;;;;;;zerotype;;Spring;;No
1882175;4971706743961686121-BLACK-1882175;NEXT BLACK LOUNGEWEAR;Draft;Lounge Pants;next;Adults-Women;Women;;;;Fashion;;2017;M,NEXTLNGP00000104,XS,NEXTLNGP00000105,XL,NEXTLNGP00000106,XXL,NEXTLNGP00000107,XXS,NEXTLNGP00000108,3XL,NEXTLNGP00000109,S,NEXTLNGP00000110,L,NEXTLNGP00000111,4XL,NEXTLNGP00000112;5390.00;;;;;;;;zerotype;;Spring;;No
1882090;9062672395108374154-BLACK-1882090;Cropped Legging;Draft;Leggings;next;Adults-Women;Women;;;;Fashion;;2017;XXL,NEXTLEGG00000428,4XL,NEXTLEGG00000429,L,NEXTLEGG00000430,S,NEXTLEGG00000431,M,NEXTLEGG00000432,XXS,NEXTLEGG00000433,XS,NEXTLEGG00000434,XL,NEXTLEGG00000435,3XL,NEXTLEGG00000436;1090.00;;;;;;;;zerotype;;Spring;;No
1882089;8955135647195389421-PINK-1882089;Pack Of 2 Multicoloured Leggings (0Mths-2Yrs);Draft;Leggings;next;Kids-Girls;Girls;;;;Fashion;;2017;12-18M,NEXTLEGG00000422,1.5-2Y,NEXTLEGG00000423,Onesize,NEXTLEGG00000424,0-3M,NEXTLEGG00000425,6-12M,NEXTLEGG00000426,3-6M,NEXTLEGG00000427;1090.00;;;;;;;;zerotype;;Spring;;No
1882088;8739661162977277503-BLUE-1882088;Maternity Over The Bump Leggings;Draft;Leggings;next;Adults-Women;Women;;;;Fashion;;2017;XL,NEXTLEGG00000414,M,NEXTLEGG00000415,XS,NEXTLEGG00000416,XXL,NEXTLEGG00000417,3XL,NEXTLEGG00000418,S,NEXTLEGG00000419,L,NEXTLEGG00000420,4XL,NEXTLEGG00000421;1590.00;;;;;;;;zerotype;;Spring;;No
1882087;8661720040087088598-BLACK-1882087;High Waisted Sports Leggings;Draft;Leggings;next;Adults-Women;Women;;;;Fashion;;2017;XS,NEXTLEGG00000405,XL,NEXTLEGG00000406,M,NEXTLEGG00000407,3XL,NEXTLEGG00000408,XXS,NEXTLEGG00000409,XXL,NEXTLEGG00000410,4XL,NEXTLEGG00000411,S,NEXTLEGG00000412,L,NEXTLEGG00000413;3190.00;;;;;;;;zerotype;;Spring;;No
1882086;8545105779719613796-BLACK-1882086;Maternity Over The Bump Leggings;Draft;Leggings;next;Adults-Women;Women;;;;Fashion;;2017;L,NEXTLEGG00000397,3XL,NEXTLEGG00000398,M,NEXTLEGG00000399,4XL,NEXTLEGG00000400,XS,NEXTLEGG00000401,XXL,NEXTLEGG00000402,XL,NEXTLEGG00000403,S,NEXTLEGG00000404;1590.00;;;;;;;;zerotype;;Spring;;No
1882085;8530552811814919891-GREY-1882085;Camo Leggings;Draft;Leggings;next;Kids-Girls;Girls;;;;Fashion;;2017;15Y,NEXTLEGG00000393,14Y,NEXTLEGG00000394,13Y,NEXTLEGG00000395,16Y,NEXTLEGG00000396;1690.00;;;;;;;;zerotype;;Spring;;No
1882084;8530552811814919891-GREY-1882084;Camo Leggings;Draft;Leggings;next;Kids-Girls;Girls;;;;Fashion;;2017;11Y,NEXTLEGG00000391,12Y,NEXTLEGG00000392;1390.00;;;;;;;;zerotype;;Spring;;No
1882083;8530552811814919891-GREY-1882083;Camo Leggings;Draft;Leggings;next;Kids-Girls;Girls;;;;Fashion;;2017;8Y,NEXTLEGG00000387,7Y,NEXTLEGG00000388,10Y,NEXTLEGG00000389,9Y,NEXTLEGG00000390;1190.00;;;;;;;;zerotype;;Spring;;No
