Style ID;Vendor Article Number;Vendor Article Name;Active Status;Article type;Brand;Age Group;Gender;Base Colour;Colour1;Colour2;Fashion Type;Usage;Year;Size - SKU code pair;MRP;Style Description;Style Note;Materials and Care Description;Size and Fit Description;Size Chart Path;Product Display Name;Tags;Product Type;Classification Brand;Season;Comments;Upload Images
1923884;SS17-BLSSLD-176-FUSCHIA-1923884;Tops;Draft;Tops;Soul Fairy;Kids-Girls;Girls;;;;Fashion;;2017;3-4Y,SLRYTOPS00000362,5-6Y,SLRYTOPS00000363,7-8Y,SLRYTOPS00000364;699.00;;;;;;;;zerotype;;Summer;;No
1923883;SS17-BLSSLD-176-FUSCHIA-1923883;Tops;Draft;Tops;Soul Fairy;Kids-Girls;Girls;;;;Fashion;;2017;0-6M,SLRYTOPS00000357,6-12M,SLRYTOPS00000358,12-18M,SLRYTOPS00000359,18-24M,SLRYTOPS00000360,2-3Y,SLRYTOPS00000361;649.00;;;;;;;;zerotype;;Summer;;No
1923882;SS17-BLSSLD-160-Aqua-1923882;Tops;Draft;Tops;Soul Fairy;Kids-Girls;Girls;;;;Fashion;;2017;3-4Y,SLRYTOPS00000354,5-6Y,SLRYTOPS00000355,7-8Y,SLRYTOPS00000356;699.00;;;;;;;;zerotype;;Summer;;No
1923881;SS17-BLSSLD-160-Aqua-1923881;Tops;Draft;Tops;Soul Fairy;Kids-Girls;Girls;;;;Fashion;;2017;0-6M,SLRYTOPS00000349,6-12M,SLRYTOPS00000350,12-18M,SLRYTOPS00000351,18-24M,SLRYTOPS00000352,2-3Y,SLRYTOPS00000353;649.00;;;;;;;;zerotype;;Summer;;No
1923880;SS17-BLSSLD-157-Royal-1923880;Tops;Draft;Tops;Soul Fairy;Kids-Girls;Girls;;;;Fashion;;2017;2-3Y,SLRYTOPS00000345,3-4Y,SLRYTOPS00000346,5-6Y,SLRYTOPS00000347,7-8Y,SLRYTOPS00000348;699.00;;;;;;;;zerotype;;Summer;;No
1923879;SS17-BLSSLD-157-Royal-1923879;Tops;Draft;Tops;Soul Fairy;Kids-Girls;Girls;;;;Fashion;;2017;0-6M,SLRYTOPS00000341,6-12M,SLRYTOPS00000342,12-18M,SLRYTOPS00000343,18-24M,SLRYTOPS00000344;649.00;;;;;;;;zerotype;;Summer;;No
1923878;SS17-BLSSLD-155-Coral-1923878;Tops;Draft;Tops;Soul Fairy;Kids-Girls;Girls;;;;Fashion;;2017;2-3Y,SLRYTOPS00000337,3-4Y,SLRYTOPS00000338,5-6Y,SLRYTOPS00000339,7-8Y,SLRYTOPS00000340;699.00;;;;;;;;zerotype;;Summer;;No
1923877;SS17-BLSSLD-155-Coral-1923877;Tops;Draft;Tops;Soul Fairy;Kids-Girls;Girls;;;;Fashion;;2017;0-6M,SLRYTOPS00000333,6-12M,SLRYTOPS00000334,12-18M,SLRYTOPS00000335,18-24M,SLRYTOPS00000336;649.00;;;;;;;;zerotype;;Summer;;No
1923876;SS17-BLSPLK-142-Coral-1923876;Tops;Draft;Tops;Soul Fairy;Kids-Girls;Girls;;;;Fashion;;2017;2-3Y,SLRYTOPS00000330,3-4Y,SLRYTOPS00000331,5-6Y,SLRYTOPS00000332;749.00;;;;;;;;zerotype;;Summer;;No
1923875;SS17-BLSPLK-142-Coral-1923875;Tops;Draft;Tops;Soul Fairy;Kids-Girls;Girls;;;;Fashion;;2017;0-6M,SLRYTOPS00000326,6-12M,SLRYTOPS00000327,12-18M,SLRYTOPS00000328,18-24M,SLRYTOPS00000329;699.00;;;;;;;;zerotype;;Summer;;No
