Style ID;Vendor Article Number;Vendor Article Name;Active Status;Article type;Brand;Age Group;Gender;Base Colour;Colour1;Colour2;Fashion Type;Usage;Year;Size - SKU code pair;MRP;Style Description;Style Note;Materials and Care Description;Size and Fit Description;Size Chart Path;Product Display Name;Tags;Product Type;Classification Brand;Season;Comments;Upload Images
1892962;SU019G-RED-1892962;SU019G;Draft;Wallets;Alessia74;Adults-Women;Women;Red;;;Fashion;;2017;Onesize,AS74WLLT00000568;699.00;;;;;;;;zerotype;;Fall;;No
1892961;SU019F-BEIGE-1892961;SU019F;Draft;Wallets;Alessia74;Adults-Women;Women;Beige;;;Fashion;;2017;Onesize,AS74WLLT00000567;699.00;;;;;;;;zerotype;;Fall;;No
1892960;SU019E-BLUE-1892960;SU019E;Draft;Wallets;Alessia74;Adults-Women;Women;Blue;;;Fashion;;2017;Onesize,AS74WLLT00000566;699.00;;;;;;;;zerotype;;Fall;;No
1892959;SU019D-PINK-1892959;SU019D;Draft;Wallets;Alessia74;Adults-Women;Women;Pink;;;Fashion;;2017;Onesize,AS74WLLT00000565;699.00;;;;;;;;zerotype;;Fall;;No
1892958;SU019C-MAROON-1892958;SU019C;Draft;Wallets;Alessia74;Adults-Women;Women;Maroon;;;Fashion;;2017;Onesize,AS74WLLT00000564;699.00;;;;;;;;zerotype;;Fall;;No
1892957;SU019B-BROWN-1892957;SU019B;Draft;Wallets;Alessia74;Adults-Women;Women;Brown;;;Fashion;;2017;Onesize,AS74WLLT00000563;699.00;;;;;;;;zerotype;;Fall;;No
1892956;SU019A-BLACK-1892956;SU019A;Draft;Wallets;Alessia74;Adults-Women;Women;Black;;;Fashion;;2017;Onesize,AS74WLLT00000562;699.00;;;;;;;;zerotype;;Fall;;No
1892955;TY24K-Navy-1892955;TY24K;Draft;Handbags;Alessia74;Adults-Women;Women;Navy Blue;;;Fashion;;2017;Onesize,AS74HDBG00000773;1099.00;;;;;;;;zerotype;;Fall;;No
1892954;SU018F-Dk Brown-1892954;SU018F;Draft;Handbags;Alessia74;Adults-Women;Women;Coffee Brown;;;Fashion;;2017;Onesize,AS74HDBG00000772;1799.00;;;;;;;;zerotype;;Fall;;No
1892953;SU018E-TAN-1892953;SU018E;Draft;Handbags;Alessia74;Adults-Women;Women;Tan;;;Fashion;;2017;Onesize,AS74HDBG00000771;1799.00;;;;;;;;zerotype;;Fall;;No
1892952;SU018D-DK GREY-1892952;SU018D;Draft;Handbags;Alessia74;Adults-Women;Women;Grey;;;Fashion;;2017;Onesize,AS74HDBG00000770;1799.00;;;;;;;;zerotype;;Fall;;No
1892951;SU018C-BLUE-1892951;SU018C;Draft;Handbags;Alessia74;Adults-Women;Women;Blue;;;Fashion;;2017;Onesize,AS74HDBG00000769;1799.00;;;;;;;;zerotype;;Fall;;No
1892950;SU018B-PINK-1892950;SU018B;Draft;Handbags;Alessia74;Adults-Women;Women;Pink;;;Fashion;;2017;Onesize,AS74HDBG00000768;1799.00;;;;;;;;zerotype;;Fall;;No
1892949;SU018A-ORANGE-1892949;SU018A;Draft;Handbags;Alessia74;Adults-Women;Women;Orange;;;Fashion;;2017;Onesize,AS74HDBG00000767;1799.00;;;;;;;;zerotype;;Fall;;No
