Style ID;Vendor Article Number;Vendor Article Name;Active Status;Article type;Brand;Age Group;Gender;Base Colour;Colour1;Colour2;Fashion Type;Usage;Year;Size - SKU code pair;MRP;Style Description;Style Note;Materials and Care Description;Size and Fit Description;Size Chart Path;Product Display Name;Tags;Product Type;Classification Brand;Season;Comments;Upload Images
2250152;1602MPL23-Grey-2250152;T-shirts;Draft;Tshirts;Jn Joy;Adults-Men;Men;Grey;;;Fashion;;2017;XL,JNJYTSHT00001856,L,JNJYTSHT00001860,M,JNJYTSHT00001862,S,JNJYTSHT00001864;2499.00;;;<p>Normal Wash</p>;;;NA;;zerotype;;Winter;;No
2250149;1602MSMTEE01-Grey-2250149;T-shirts;Draft;Tshirts;Jn Joy;Adults-Men;Men;Grey;;;Fashion;;2017;XXL,JNJYTSHT00001845,XL,JNJYTSHT00001848,L,JNJYTSHT00001850,M,JNJYTSHT00001852,S,JNJYTSHT00001854;1699.00;;;<p>Normal Wash</p>;;;NA;;zerotype;;Winter;;No
2250147;1601MTEE06-Orange-2250147;T-shirts;Draft;Tshirts;Jn Joy;Adults-Men;Men;Orange;;;Fashion;;2017;XXL,JNJYTSHT00001833,XL,JNJYTSHT00001838,L,JNJYTSHT00001839,M,JNJYTSHT00001841,S,JNJYTSHT00001842;1499.00;;;<p>Normal Wash</p>;;;NA;;zerotype;;Winter;;No
2250144;1602MSMPL10-Grey-2250144;T-shirts;Draft;Tshirts;Jn Joy;Adults-Men;Men;Grey;;;Fashion;;2017;XL,JNJYTSHT00001822,L,JNJYTSHT00001826,M,JNJYTSHT00001828,S,JNJYTSHT00001829,XXL,JNJYTSHT00001831;2499.00;;;<p>Normal Wash</p>;;;NA;;zerotype;;Winter;;No
2250142;1602MTEE02-Blue-2250142;T-shirts;Draft;Tshirts;Jn Joy;Adults-Men;Men;Blue;;;Fashion;;2017;XXL,JNJYTSHT00001811,L,JNJYTSHT00001814,M,JNJYTSHT00001816,S,JNJYTSHT00001818,XL,JNJYTSHT00001820;1999.00;;;<p>Normal Wash</p>;;;NA;;zerotype;;Winter;;No
2250139;1602MSMTEE04-Red-2250139;T-shirts;Draft;Tshirts;Jn Joy;Adults-Men;Men;Red;;;Fashion;;2017;XXL,JNJYTSHT00001798,XL,JNJYTSHT00001803,L,JNJYTSHT00001804,S,JNJYTSHT00001806,M,JNJYTSHT00001809;1999.00;;;<p>Normal Wash</p>;;;NA;;zerotype;;Winter;;No
2250137;1602MTEE03-Grey-2250137;T-shirts;Draft;Tshirts;Jn Joy;Adults-Men;Men;Grey;;;Fashion;;2017;S,JNJYTSHT00001787,XXL,JNJYTSHT00001791,XL,JNJYTSHT00001792,L,JNJYTSHT00001794,M,JNJYTSHT00001797;1999.00;;;<p>Normal Wash</p>;;;NA;;zerotype;;Winter;;No
2250134;1602MPL13LS-Orange-2250134;T-shirts;Draft;Tshirts;Jn Joy;Adults-Men;Men;Orange;;;Fashion;;2017;M,JNJYTSHT00001778,S,JNJYTSHT00001779,XXL,JNJYTSHT00001780,XL,JNJYTSHT00001782,L,JNJYTSHT00001784;2799.00;;;<p>Normal Wash</p>;;;NA;;zerotype;;Winter;;No
2250131;1601MPL14-Blue-2250131;T-shirts;Draft;Tshirts;Jn Joy;Adults-Men;Men;Blue;;;Fashion;;2017;S,JNJYTSHT00001774,XL,JNJYTSHT00001775,L,JNJYTSHT00001776,M,JNJYTSHT00001777;2199.00;;;<p>Normal Wash</p>;;;NA;;zerotype;;Winter;;No
2250129;1601MPL04-Green-2250129;T-shirts;Draft;Tshirts;Jn Joy;Adults-Men;Men;Green;;;Fashion;;2017;L,JNJYTSHT00001770,M,JNJYTSHT00001771,XXL,JNJYTSHT00001772,S,JNJYTSHT00001773;2199.00;;;<p>Normal Wash</p>;;;NA;;zerotype;;Winter;;No
2250127;1601MPL08-Green-2250127;T-shirts;Draft;Tshirts;Jn Joy;Adults-Men;Men;Green;;;Fashion;;2017;L,JNJYTSHT00001765,M,JNJYTSHT00001766,XXL,JNJYTSHT00001767,XL,JNJYTSHT00001768,S,JNJYTSHT00001769;2199.00;;;<p>Normal Wash</p>;;;NA;;zerotype;;Winter;;No
2250125;1602MSMPL07-Black-2250125;T-shirts;Draft;Tshirts;Jn Joy;Adults-Men;Men;Black;;;Fashion;;2017;L,JNJYTSHT00001760,XXL,JNJYTSHT00001761,XL,JNJYTSHT00001762,M,JNJYTSHT00001763,S,JNJYTSHT00001764;2199.00;;;<p>Normal Wash</p>;;;NA;;zerotype;;Winter;;No
2250123;1602MSMTEE02-Grey-2250123;T-shirts;Draft;Tshirts;Jn Joy;Adults-Men;Men;Grey;;;Fashion;;2017;XXL,JNJYTSHT00001755,XL,JNJYTSHT00001756,L,JNJYTSHT00001757,M,JNJYTSHT00001758,S,JNJYTSHT00001759;1999.00;;;<p>Normal Wash</p>;;;NA;;zerotype;;Winter;;No
2250122;1602MPL27-Navy Blue-2250122;T-shirts;Draft;Tshirts;Jn Joy;Adults-Men;Men;Navy Blue;;;Fashion;;2017;XL,JNJYTSHT00001750,L,JNJYTSHT00001751,M,JNJYTSHT00001752,S,JNJYTSHT00001753,XXL,JNJYTSHT00001754;2499.00;;;<p>Normal Wash</p>;;;NA;;zerotype;;Winter;;No
2250121;1601MPL03-Blue-2250121;T-shirts;Draft;Tshirts;Jn Joy;Adults-Men;Men;Blue;;;Fashion;Casual;2017;XXL,JNJYTSHT00001746,L,JNJYTSHT00001747,M,JNJYTSHT00001748,S,JNJYTSHT00001749;2199.00;;;<p>Normal Wash</p>;;;NA;;zerotype;;Winter;;No
2250120;1601MNPL02-Grey-2250120;T-shirts;Draft;Tshirts;Jn Joy;Adults-Men;Men;Grey;;;Fashion;;2017;S,JNJYTSHT00001742,XL,JNJYTSHT00001743,L,JNJYTSHT00001744,M,JNJYTSHT00001745;2299.00;;;<p>Normal Wash</p>;;;NA;;zerotype;;Winter;;No
2250119;1601MPL26-White-2250119;T-shirts;Draft;Tshirts;Jn Joy;Adults-Men;Men;White;;;Fashion;;2017;M,JNJYTSHT00001738,XXL,JNJYTSHT00001739,XL,JNJYTSHT00001740,L,JNJYTSHT00001741;2199.00;;;<p>Normal Wash</p>;;;NA;;zerotype;;Winter;;No
2250118;1601MNPL06-Green-2250118;T-shirts;Draft;Tshirts;Jn Joy;Adults-Men;Men;Green;;;Fashion;;2017;XXL,JNJYTSHT00001733,XL,JNJYTSHT00001734,L,JNJYTSHT00001735,M,JNJYTSHT00001736,S,JNJYTSHT00001737;2299.00;;;<p>Normal Wash</p>;;;NA;;zerotype;;Winter;;No
2250117;1602MTEE06-Blue-2250117;T-shirts;Draft;Tshirts;Jn Joy;Adults-Men;Men;Blue;;;Fashion;;2017;XXL,JNJYTSHT00001728,XL,JNJYTSHT00001729,L,JNJYTSHT00001730,M,JNJYTSHT00001731,S,JNJYTSHT00001732;1699.00;;;<p>Normal Wash</p>;;;NA;;zerotype;;Winter;;No
2250116;1601MTEE05-Green-2250116;T-shirts;Draft;Tshirts;Jn Joy;Adults-Men;Men;Green;;;Fashion;;2017;XXL,JNJYTSHT00001724,XL,JNJYTSHT00001725,L,JNJYTSHT00001726,S,JNJYTSHT00001727;1499.00;;;<p>Normal Wash</p>;;;NA;;zerotype;;Winter;;No
2250115;1602MPL25-White-2250115;T-shirts;Draft;Tshirts;Jn Joy;Adults-Men;Men;White;;;Fashion;;2017;L,JNJYTSHT00001720,M,JNJYTSHT00001721,S,JNJYTSHT00001722,XXL,JNJYTSHT00001723;2499.00;;;<p>Normal Wash</p>;;;NA;;zerotype;;Winter;;No
2250114;1602MPL10LS-Blue-2250114;T-shirts;Draft;Tshirts;Jn Joy;Adults-Men;Men;Blue;;;Fashion;;2017;XXL,JNJYTSHT00001716,XL,JNJYTSHT00001717,L,JNJYTSHT00001718,M,JNJYTSHT00001719;2499.00;;;<p>Normal Wash</p>;;;NA;;zerotype;;Winter;;No
2250113;1601MPL13-Orange-2250113;T-shirts;Draft;Tshirts;Jn Joy;Adults-Men;Men;Orange;;;Fashion;Casual;2017;M,JNJYTSHT00001711,S,JNJYTSHT00001712,XXL,JNJYTSHT00001713,XL,JNJYTSHT00001714,L,JNJYTSHT00001715;2199.00;;;<p>Normal Wash</p>;;;NA;;zerotype;;Winter;;No
2250112;1601MPL27-Blue-2250112;T-shirts;Draft;Tshirts;Jn Joy;Adults-Men;Men;Blue;;;Fashion;Casual;2017;M,JNJYTSHT00001707,L,JNJYTSHT00001708,XXL,JNJYTSHT00001709,XL,JNJYTSHT00001710;2499.00;;;<p>Normal Wash</p>;;;NA;;zerotype;;Winter;;No
2250111;1602MTEE10-Blue-2250111;T-shirts;Draft;Tshirts;Jn Joy;Adults-Men;Men;Blue;;;Fashion;;2017;XL,JNJYTSHT00001702,L,JNJYTSHT00001703,M,JNJYTSHT00001704,S,JNJYTSHT00001705,XXL,JNJYTSHT00001706;1699.00;;;<p>Normal Wash</p>;;;NA;;zerotype;;Winter;;No
2250110;1602MPL12-Orange-2250110;T-shirts;Draft;Tshirts;Jn Joy;Adults-Men;Men;Orange;;;Fashion;;2017;S,JNJYTSHT00001697,XL,JNJYTSHT00001698,L,JNJYTSHT00001699,M,JNJYTSHT00001700,XXL,JNJYTSHT00001701;2499.00;;;<p>Normal Wash</p>;;;NA;;zerotype;;Winter;;No
2250109;1602MJP03-GreyBlue-2250109;Sweatshirt;Draft;Sweatshirts;Jn Joy;Adults-Men;Men;Grey;Blue;;Fashion;Casual;2017;XL,JNJYSWSH00000190,L,JNJYSWSH00000191,M,JNJYSWSH00000192,S,JNJYSWSH00000193,XXL,JNJYSWSH00000194;4999.00;;;<p>Normal Wash</p>;;;NA;;zerotype;;Winter;;No
2250108;1602MSMKNIT02-GreyNavy Blue-2250108;Sweatshirt;Draft;Sweatshirts;Jn Joy;Adults-Men;Men;Grey;Navy Blue;;Fashion;Casual;2017;M,JNJYSWSH00000186,S,JNJYSWSH00000187,XL,JNJYSWSH00000188,L,JNJYSWSH00000189;3999.00;;;<p>Normal Wash</p>;;;NA;;zerotype;;Winter;;No
2250107;1602MSMSWT03-BlueGrey-2250107;Sweatshirt;Draft;Sweatshirts;Jn Joy;Adults-Men;Men;Blue;Grey;;Fashion;Casual;2017;L,JNJYSWSH00000181,M,JNJYSWSH00000182,S,JNJYSWSH00000183,XXL,JNJYSWSH00000184,XL,JNJYSWSH00000185;3499.00;;;<p>Normal Wash</p>;;;NA;;zerotype;;Winter;;No
2250106;1602MSMKNIT08-GreyNavy Blue-2250106;Sweatshirt;Draft;Sweatshirts;Jn Joy;Adults-Men;Men;Grey;Navy Blue;;Fashion;Casual;2017;M,JNJYSWSH00000176,XXL,JNJYSWSH00000177,XL,JNJYSWSH00000178,S,JNJYSWSH00000179,L,JNJYSWSH00000180;4499.00;;;<p>Normal Wash</p>;;;NA;;zerotype;;Winter;;No
2250105;1602MSWT06-Blue-2250105;Sweatshirt;Draft;Sweatshirts;Jn Joy;Adults-Men;Men;Blue;;;Fashion;Casual;2017;XXL,JNJYSWSH00000171,XL,JNJYSWSH00000172,L,JNJYSWSH00000173,M,JNJYSWSH00000174,S,JNJYSWSH00000175;3499.00;;;<p>Normal Wash</p>;;;NA;;zerotype;;Winter;;No
2250104;1602MSWT05-Red-2250104;Sweatshirt;Draft;Sweatshirts;Jn Joy;Adults-Men;Men;Red;;;Fashion;Casual;2017;XXL,JNJYSWSH00000166,S,JNJYSWSH00000167,L,JNJYSWSH00000168,M,JNJYSWSH00000169,XL,JNJYSWSH00000170;3499.00;;;<p>Normal Wash</p>;;;NA;;zerotype;;Winter;;No
