Style ID;Vendor Article Number;Vendor Article Name;Active Status;Article type;Brand;Age Group;Gender;Base Colour;Colour1;Colour2;Fashion Type;Usage;Year;Size - SKU code pair;MRP;Style Description;Style Note;Materials and Care Description;Size and Fit Description;Size Chart Path;Product Display Name;Tags;Product Type;Classification Brand;Season;Comments;Upload Images
3888946;AKBBD5171255-Blue-3888946;Shorts;Draft;Shorts;Allen Solly Junior;Kids-Boys;Boys;Blue;;;Fashion;Casual;2017;15-16Y,ALSJSHOR00001111;1599.00;;;<p>76% Cotton, 22% Polyester and 2% Elastane</p>;;;na;;zerotype;;Winter;;No
3888945;AKBBD5171255-Blue-3888945;Shorts;Draft;Shorts;Allen Solly Junior;Kids-Boys;Boys;Blue;;;Fashion;Casual;2017;6-7Y,ALSJSHOR00001106,5-6Y,ALSJSHOR00001107,3-4Y,ALSJSHOR00001108,2-3Y,ALSJSHOR00001109,7-8Y,ALSJSHOR00001110;1399.00;;;<p>76% Cotton, 22% Polyester and 2% Elastane</p>;;;a;;zerotype;;Winter;;No
3888944;AKBBD5171255-Blue-3888944;Shorts;Draft;Shorts;Allen Solly Junior;Kids-Boys;Boys;Blue;;;Fashion;Casual;2017;13-14Y,ALSJSHOR00001103,11-12Y,ALSJSHOR00001104,9-10Y,ALSJSHOR00001105;1499.00;;;<p>76% Cotton, 22% Polyester and 2% Elastane</p>;;;na;;zerotype;;Winter;;No
3888943;AKBSH517610-Green-3888943;Shirts;Draft;Shirts;Allen Solly Junior;Kids-Boys;Boys;Green;;;Fashion;;2017;7-8Y,ALSJSHRT00001163,6-7Y,ALSJSHRT00001164,5-6Y,ALSJSHRT00001165,2-3Y,ALSJSHRT00001166,3-4Y,ALSJSHRT00001167;1199.00;;;<p>100% Cotton</p>;;;a;;zerotype;;Winter;;No
3888942;AKBSH517610-Green-3888942;Shirts;Draft;Shirts;Allen Solly Junior;Kids-Boys;Boys;Green;;;Fashion;;2017;15-16Y,ALSJSHRT00001162;1399.00;;;<p>100% Cotton</p>;;;a;;zerotype;;Winter;;No
3888941;AKBSH517610-Green-3888941;Shirts;Draft;Shirts;Allen Solly Junior;Kids-Boys;Boys;Green;;;Fashion;;2017;11-12Y,ALSJSHRT00001159,9-10Y,ALSJSHRT00001160,13-14Y,ALSJSHRT00001161;1299.00;;;<p>100% Cotton</p>;;;na;;zerotype;;Winter;;No
