Style ID;Vendor Article Number;Vendor Article Name;Active Status;Article type;Brand;Age Group;Gender;Base Colour;Colour1;Colour2;Fashion Type;Usage;Year;Size - SKU code pair;MRP;Style Description;Style Note;Materials and Care Description;Size and Fit Description;Size Chart Path;Product Display Name;Tags;Product Type;Classification Brand;Season;Comments;Upload Images
2132540;GT-GA-F5516-Blue-2132540;GT-GA-F5516-Blue;Draft;Sandals;Kielz;Adults-Men;Men;Blue;;;Fashion;Casual;2017;40,KELZSNDL00000196,41,KELZSNDL00000197,42,KELZSNDL00000198,43,KELZSNDL00000199,44,KELZSNDL00000200;2299.00;;;<p>Gently Rub With A Cloth</p>;;;;;zerotype;;Winter;;No
2132516;GT-GA-F5516-Black-2132516;GT-GA-F5516-Black;Draft;Sandals;Kielz;Adults-Men;Men;Black;;;Fashion;Casual;2017;40,KELZSNDL00000191,41,KELZSNDL00000192,42,KELZSNDL00000193,43,KELZSNDL00000194,44,KELZSNDL00000195;2299.00;;;<p>Gently Rub With A Cloth</p>;;;;;zerotype;;Winter;;No
2132483;GT-GA-F5513-Blue-2132483;GT-GA-F5513-Blue;Draft;Sandals;Kielz;Adults-Men;Men;Blue;;;Fashion;Casual;2017;40,KELZSNDL00000186,41,KELZSNDL00000187,42,KELZSNDL00000188,43,KELZSNDL00000189,44,KELZSNDL00000190;2299.00;;;<p>Gently Rub With A Cloth</p>;;;;;zerotype;;Winter;;No
2132472;GT-GA-F5513-Black-2132472;GT-GA-F5513-Black;Draft;Sandals;Kielz;Adults-Men;Men;Black;;;Fashion;Casual;2017;40,KELZSNDL00000181,41,KELZSNDL00000182,42,KELZSNDL00000183,43,KELZSNDL00000184,44,KELZSNDL00000185;2299.00;;;<p>Gently Rub With A Cloth</p>;;;;;zerotype;;Winter;;No
2132457;GT-GA-196L-White-2132457;GT-GA-196L-White;Draft;Sandals;Kielz;Adults-Men;Men;White;;;Fashion;Casual;2017;40,KELZSNDL00000176,41,KELZSNDL00000177,42,KELZSNDL00000178,43,KELZSNDL00000179,44,KELZSNDL00000180;2499.00;;;<p>Gently Rub With A Cloth</p>;;;;;zerotype;;Winter;;No
2132453;GT-GA-196L-Brown-2132453;GT-GA-196L-Brown;Draft;Sandals;Kielz;Adults-Men;Men;Brown;;;Fashion;Casual;2017;40,KELZSNDL00000171,41,KELZSNDL00000172,42,KELZSNDL00000173,43,KELZSNDL00000174,44,KELZSNDL00000175;2499.00;;;<p>Gently Rub With A Cloth</p>;;;;;zerotype;;Winter;;No
2132447;GT-GA-196L-Black-2132447;GT-GA-196L-Black;Draft;Sandals;Kielz;Adults-Men;Men;Black;;;Fashion;Casual;2017;40,KELZSNDL00000166,41,KELZSNDL00000167,42,KELZSNDL00000168,43,KELZSNDL00000169,44,KELZSNDL00000170;2499.00;;;<p>Gently Rub With A Cloth</p>;;;;;zerotype;;Winter;;No
2132428;GT-2901-Coffee Brown-2132428;GT-2901-Coffee Brown;Draft;Casual Shoes;Kielz;Adults-Men;Men;Coffee Brown;;;Fashion;Casual;2017;40,KELZCASH00002226,41,KELZCASH00002227,42,KELZCASH00002228,43,KELZCASH00002229,44,KELZCASH00002230;1899.00;;;<p>Gently Rub With A Cloth</p>;;;;;zerotype;;Winter;;No
2132387;GT-SK-T05-Brown-2132387;GT-SK-T05-Brown;Draft;Casual Shoes;Kielz;Adults-Men;Men;Brown;;;Fashion;Casual;2017;39,KELZCASH00002220,40,KELZCASH00002221,41,KELZCASH00002222,42,KELZCASH00002223,43,KELZCASH00002224,44,KELZCASH00002225;4999.00;;;<p>Gently Rub With A Cloth</p>;;;;;zerotype;;Winter;;No
2132347;GT-SK-T05-Black-2132347;GT-SK-T05-Black;Draft;Casual Shoes;Kielz;Adults-Men;Men;Black;;;Fashion;Casual;2017;39,KELZCASH00002214,40,KELZCASH00002215,41,KELZCASH00002216,42,KELZCASH00002217,43,KELZCASH00002218,44,KELZCASH00002219;4999.00;;;<p>Gently Rub With A Cloth</p>;;;;;zerotype;;Winter;;No
2132337;GT-GA-106-Red-2132337;GT-GA-106-Red;Draft;Casual Shoes;Kielz;Adults-Men;Men;Red;;;Fashion;Casual;2017;40,KELZCASH00002209,41,KELZCASH00002210,42,KELZCASH00002211,43,KELZCASH00002212,44,KELZCASH00002213;2199.00;;;<p>Gently Rub With A Cloth</p>;;;;;zerotype;;Winter;;No
2132331;GT-GA-106-Blue-2132331;GT-GA-106-Blue;Draft;Casual Shoes;Kielz;Adults-Men;Men;Blue;;;Fashion;Casual;2017;40,KELZCASH00002204,41,KELZCASH00002205,42,KELZCASH00002206,43,KELZCASH00002207,44,KELZCASH00002208;2199.00;;;<p>Gently Rub With A Cloth</p>;;;;;zerotype;;Winter;;No
2132326;GT-GA-106-Black-2132326;GT-GA-106-Black;Draft;Casual Shoes;Kielz;Adults-Men;Men;Black;;;Fashion;Casual;2017;40,KELZCASH00002199,41,KELZCASH00002200,42,KELZCASH00002201,43,KELZCASH00002202,44,KELZCASH00002203;2199.00;;;<p>Gently Rub With A Cloth</p>;;;;;zerotype;;Winter;;No
