Style ID;Vendor Article Number;Vendor Article Name;Active Status;Article type;Brand;Age Group;Gender;Base Colour;Colour1;Colour2;Fashion Type;Usage;Year;Size - SKU code pair;MRP;Style Description;Style Note;Materials and Care Description;Size and Fit Description;Size Chart Path;Product Display Name;Tags;Product Type;Classification Brand;Season;Comments;Upload Images
2148761;MMK0132-44-Yellow-2148761;Men's Kurta Set;Draft;Kurta Sets;Mayank Modi;Adults-Men;Men;Yellow;Yellow;;Core;Ethnic;2017;S,MKMDKASS00000069,M,MKMDKASS00000070,L,MKMDKASS00000071,XL,MKMDKASS00000072;12500.00;;;;;;;;zerotype;;Winter;;No
2148760;MMK0131-44-Purple-2148760;Men's Kurta Set;Draft;Kurta Sets;Mayank Modi;Adults-Men;Men;Purple;Purple;;Core;Ethnic;2017;S,MKMDKASS00000065,M,MKMDKASS00000066,L,MKMDKASS00000067,XL,MKMDKASS00000068;12500.00;;;;;;;;zerotype;;Winter;;No
2148758;MMK0130-44-Yellow-2148758;Men's Kurta Set;Draft;Kurta Sets;Mayank Modi;Adults-Men;Men;Yellow;Yellow;;Core;Ethnic;2017;S,MKMDKASS00000061,M,MKMDKASS00000062,L,MKMDKASS00000063,XL,MKMDKASS00000064;12500.00;;;;;;;;zerotype;;Winter;;No
2148757;MMK0129-44-Blue-2148757;Men's Kurta Set;Draft;Kurta Sets;Mayank Modi;Adults-Men;Men;Blue;Blue;;Core;Ethnic;2017;S,MKMDKASS00000057,M,MKMDKASS00000058,L,MKMDKASS00000059,XL,MKMDKASS00000060;10914.00;;;;;;;;zerotype;;Winter;;No
2148756;MMK0128-44-Green-2148756;Men's Kurta Set;Draft;Kurta Sets;Mayank Modi;Adults-Men;Men;Green;Green;;Core;Ethnic;2017;S,MKMDKASS00000053,M,MKMDKASS00000054,L,MKMDKASS00000055,XL,MKMDKASS00000056;10914.00;;;;;;;;zerotype;;Winter;;No
2148754;MMK0127-44-Beige-2148754;Men's Kurta Set;Draft;Kurta Sets;Mayank Modi;Adults-Men;Men;Beige;Beige;;Core;Ethnic;2017;S,MKMDKASS00000049,M,MKMDKASS00000050,L,MKMDKASS00000051,XL,MKMDKASS00000052;10914.00;;;;;;;;zerotype;;Winter;;No
2148753;MMK0126-44-Navy Blue-2148753;Men's Kurta Set;Draft;Kurta Sets;Mayank Modi;Adults-Men;Men;Navy Blue;Navy Blue;;Core;Ethnic;2017;S,MKMDKASS00000045,M,MKMDKASS00000046,L,MKMDKASS00000047,XL,MKMDKASS00000048;10914.00;;;;;;;;zerotype;;Winter;;No
2148752;MMK0125-44-Yellow-2148752;Men's Kurta Set;Draft;Kurta Sets;Mayank Modi;Adults-Men;Men;Yellow;Yellow;;Core;Ethnic;2017;S,MKMDKASS00000041,M,MKMDKASS00000042,L,MKMDKASS00000043,XL,MKMDKASS00000044;9408.00;;;;;;;;zerotype;;Winter;;No
2148751;MMK0124-44-Beige-2148751;Men's Kurta Set;Draft;Kurta Sets;Mayank Modi;Adults-Men;Men;Beige;Beige;;Core;Ethnic;2017;S,MKMDKASS00000037,M,MKMDKASS00000038,L,MKMDKASS00000039,XL,MKMDKASS00000040;9408.00;;;;;;;;zerotype;;Winter;;No
2148750;MMK0123-44-Beige Red-2148750;Men's Kurta Set;Draft;Kurta Sets;Mayank Modi;Adults-Men;Men;Beige;Beige;Red;Core;Ethnic;2017;S,MKMDKASS00000033,M,MKMDKASS00000034,L,MKMDKASS00000035,XL,MKMDKASS00000036;8400.00;;;;;;;;zerotype;;Winter;;No
2148749;MMWC078-44-Yellow-2148749;Nehru Jackets;Draft;Nehru Jackets;Mayank Modi;Adults-Men;Men;Yellow;Yellow;;Core;Ethnic;2017;S,MKMDNHJK00000017,M,MKMDNHJK00000018,L,MKMDNHJK00000019,XL,MKMDNHJK00000020;8995.00;;;;;;;;zerotype;;Winter;;No
2148748;MMWC076-44-Yellow-2148748;Nehru Jackets;Draft;Nehru Jackets;Mayank Modi;Adults-Men;Men;Yellow;Yellow;;Core;Ethnic;2017;S,MKMDNHJK00000013,M,MKMDNHJK00000014,L,MKMDNHJK00000015,XL,MKMDNHJK00000016;8995.00;;;;;;;;zerotype;;Winter;;No
2148747;MMWC072-44-Grey-2148747;Nehru Jackets;Draft;Nehru Jackets;Mayank Modi;Adults-Men;Men;Grey;Grey;;Core;Ethnic;2017;S,MKMDNHJK00000009,M,MKMDNHJK00000010,L,MKMDNHJK00000011,XL,MKMDNHJK00000012;9420.00;;;;;;;;zerotype;;Winter;;No
2148746;MMWC071-44-Green-2148746;Nehru Jackets;Draft;Nehru Jackets;Mayank Modi;Adults-Men;Men;Green;Green;;Core;Ethnic;2017;S,MKMDNHJK00000005,M,MKMDNHJK00000006,L,MKMDNHJK00000007,XL,MKMDNHJK00000008;9420.00;;;;;;;;zerotype;;Winter;;No
2148745;MMWC077-44-Purple-2148745;Nehru Jackets;Draft;Nehru Jackets;Mayank Modi;Adults-Men;Men;Purple;Purple;;Core;Ethnic;2017;S,MKMDNHJK00000001,M,MKMDNHJK00000002,L,MKMDNHJK00000003,XL,MKMDNHJK00000004;8995.00;;;;;;;;zerotype;;Winter;;No
