Style ID;Vendor Article Number;Vendor Article Name;Active Status;Article type;Brand;Age Group;Gender;Base Colour;Colour1;Colour2;Fashion Type;Usage;Year;Size - SKU code pair;MRP;Style Description;Style Note;Materials and Care Description;Size and Fit Description;Size Chart Path;Product Display Name;Tags;Product Type;Classification Brand;Season;Comments;Upload Images
1884303;36-5955-45-41-BLUE-1884303;36-5955;Draft;Casual Shoes;Mochi;Adults-Women;Women;;;;Fashion;;2017;EURO36,MCHICASH00000752,EURO37,MCHICASH00000753,EURO38,MCHICASH00000754,EURO39,MCHICASH00000755,EURO40,MCHICASH00000756,EURO41,MCHICASH00000757;1690.00;;;;;;;;zerotype;;Summer;;No
1884302;36-5955-12-41-BROWN-1884302;36-5955;Draft;Casual Shoes;Mochi;Adults-Women;Women;;;;Fashion;;2017;EURO36,MCHICASH00000746,EURO37,MCHICASH00000747,EURO38,MCHICASH00000748,EURO39,MCHICASH00000749,EURO40,MCHICASH00000750,EURO41,MCHICASH00000751;1690.00;;;;;;;;zerotype;;Summer;;No
1884301;31-7701-18-41-RED-1884301;31-7701;Draft;Casual Shoes;Mochi;Adults-Women;Women;;;;Fashion;;2017;EURO36,MCHICASH00000740,EURO37,MCHICASH00000741,EURO38,MCHICASH00000742,EURO39,MCHICASH00000743,EURO40,MCHICASH00000744,EURO41,MCHICASH00000745;2290.00;;;;;;;;zerotype;;Summer;;No
1884300;31-7659-45-41-BLUE-1884300;31-7659;Draft;Casual Shoes;Mochi;Adults-Women;Women;;;;Fashion;;2017;EURO36,MCHICASH00000734,EURO37,MCHICASH00000735,EURO38,MCHICASH00000736,EURO39,MCHICASH00000737,EURO40,MCHICASH00000738,EURO41,MCHICASH00000739;2290.00;;;;;;;;zerotype;;Summer;;No
1884299;31-7659-11-41-BLACK-1884299;31-7659;Draft;Casual Shoes;Mochi;Adults-Women;Women;;;;Fashion;;2017;EURO36,MCHICASH00000728,EURO37,MCHICASH00000729,EURO38,MCHICASH00000730,EURO39,MCHICASH00000731,EURO40,MCHICASH00000732,EURO41,MCHICASH00000733;2290.00;;;;;;;;zerotype;;Summer;;No
1884298;31-7488-45-41-BLUE-1884298;31-7488;Draft;Casual Shoes;Mochi;Adults-Women;Women;;;;Fashion;;2017;EURO36,MCHICASH00000722,EURO37,MCHICASH00000723,EURO38,MCHICASH00000724,EURO39,MCHICASH00000725,EURO40,MCHICASH00000726,EURO41,MCHICASH00000727;1890.00;;;;;;;;zerotype;;Summer;;No
1884297;31-7383-24-41-PINK-1884297;31-7383;Draft;Casual Shoes;Mochi;Adults-Women;Women;;;;Fashion;;2017;EURO36,MCHICASH00000716,EURO37,MCHICASH00000717,EURO38,MCHICASH00000718,EURO39,MCHICASH00000719,EURO40,MCHICASH00000720,EURO41,MCHICASH00000721;1990.00;;;;;;;;zerotype;;Summer;;No
1884296;31-7283-17-41-Beige-1884296;31-7283;Draft;Casual Shoes;Mochi;Adults-Women;Women;;;;Fashion;;2017;EURO36,MCHICASH00000710,EURO37,MCHICASH00000711,EURO38,MCHICASH00000712,EURO39,MCHICASH00000713,EURO40,MCHICASH00000714,EURO41,MCHICASH00000715;1990.00;;;;;;;;zerotype;;Summer;;No
1884295;31-7023-11-41-BLACK-1884295;31-7023;Draft;Casual Shoes;Mochi;Adults-Women;Women;;;;Fashion;;2017;EURO36,MCHICASH00000704,EURO37,MCHICASH00000705,EURO38,MCHICASH00000706,EURO39,MCHICASH00000707,EURO40,MCHICASH00000708,EURO41,MCHICASH00000709;1490.00;;;;;;;;zerotype;;Summer;;No
1884294;31-6611-20-41-BEIGE-1884294;31-6611;Draft;Casual Shoes;Mochi;Adults-Women;Women;;;;Fashion;;2017;EURO36,MCHICASH00000698,EURO37,MCHICASH00000699,EURO38,MCHICASH00000700,EURO39,MCHICASH00000701,EURO40,MCHICASH00000702,EURO41,MCHICASH00000703;1690.00;;;;;;;;zerotype;;Summer;;No
1884293;54-2590-15-40-GOLD-1884293;54-2590;Draft;Heels;Mochi;Adults-Women;Women;;;;Fashion;;2017;EURO36,MCHIHeels00009717,EURO37,MCHIHeels00009718,EURO38,MCHIHeels00009719,EURO39,MCHIHeels00009720,EURO40,MCHIHeels00009721;3490.00;;;;;;;;zerotype;;Summer;;No
1884292;41-3240-23-40-TAN-1884292;41-3240;Draft;Heels;Mochi;Adults-Women;Women;;;;Fashion;;2017;EURO36,MCHIHeels00009712,EURO37,MCHIHeels00009713,EURO38,MCHIHeels00009714,EURO39,MCHIHeels00009715,EURO40,MCHIHeels00009716;2290.00;;;;;;;;zerotype;;Summer;;No
1884291;41-3240-11-40-BLACK-1884291;41-3240;Draft;Heels;Mochi;Adults-Women;Women;;;;Fashion;;2017;EURO36,MCHIHeels00009707,EURO37,MCHIHeels00009708,EURO38,MCHIHeels00009709,EURO39,MCHIHeels00009710,EURO40,MCHIHeels00009711;2290.00;;;;;;;;zerotype;;Summer;;No
1884290;41-3127-20-41-BEIGE-1884290;41-3127;Draft;Heels;Mochi;Adults-Women;Women;;;;Fashion;;2017;EURO36,MCHIHeels00009701,EURO37,MCHIHeels00009702,EURO38,MCHIHeels00009703,EURO39,MCHIHeels00009704,EURO40,MCHIHeels00009705,EURO41,MCHIHeels00009706;1290.00;;;;;;;;zerotype;;Summer;;No
1884289;41-3127-11-41-BLACK-1884289;41-3127;Draft;Heels;Mochi;Adults-Women;Women;;;;Fashion;;2017;EURO36,MCHIHeels00009695,EURO37,MCHIHeels00009696,EURO38,MCHIHeels00009697,EURO39,MCHIHeels00009698,EURO40,MCHIHeels00009699,EURO41,MCHIHeels00009700;1290.00;;;;;;;;zerotype;;Summer;;No
1884288;40-1496-11-41-BLACK-1884288;40-1496;Draft;Heels;Mochi;Adults-Women;Women;;;;Fashion;;2017;EURO36,MCHIHeels00009689,EURO37,MCHIHeels00009690,EURO38,MCHIHeels00009691,EURO39,MCHIHeels00009692,EURO40,MCHIHeels00009693,EURO41,MCHIHeels00009694;1290.00;;;;;;;;zerotype;;Summer;;No
1884287;35-2834-27-40-SILVER-1884287;35-2834;Draft;Heels;Mochi;Adults-Women;Women;;;;Fashion;;2017;EURO36,MCHIHeels00009684,EURO37,MCHIHeels00009685,EURO38,MCHIHeels00009686,EURO39,MCHIHeels00009687,EURO40,MCHIHeels00009688;1990.00;;;;;;;;zerotype;;Summer;;No
1884286;35-2834-15-40-GOLD-1884286;35-2834;Draft;Heels;Mochi;Adults-Women;Women;;;;Fashion;;2017;EURO36,MCHIHeels00009679,EURO37,MCHIHeels00009680,EURO38,MCHIHeels00009681,EURO39,MCHIHeels00009682,EURO40,MCHIHeels00009683;1990.00;;;;;;;;zerotype;;Summer;;No
1884285;35-2776-24-41-PINK-1884285;35-2776;Draft;Heels;Mochi;Adults-Women;Women;;;;Fashion;;2017;EURO36,MCHIHeels00009673,EURO37,MCHIHeels00009674,EURO38,MCHIHeels00009675,EURO39,MCHIHeels00009676,EURO40,MCHIHeels00009677,EURO41,MCHIHeels00009678;1890.00;;;;;;;;zerotype;;Summer;;No
1884284;35-2776-21-41-GREEN-1884284;35-2776;Draft;Heels;Mochi;Adults-Women;Women;;;;Fashion;;2017;EURO36,MCHIHeels00009667,EURO37,MCHIHeels00009668,EURO38,MCHIHeels00009669,EURO39,MCHIHeels00009670,EURO40,MCHIHeels00009671,EURO41,MCHIHeels00009672;1890.00;;;;;;;;zerotype;;Summer;;No
1884283;35-2462-11-41-BLACK-1884283;35-2462;Draft;Heels;Mochi;Adults-Women;Women;;;;Fashion;;2017;EURO36,MCHIHeels00009661,EURO37,MCHIHeels00009662,EURO38,MCHIHeels00009663,EURO39,MCHIHeels00009664,EURO40,MCHIHeels00009665,EURO41,MCHIHeels00009666;1690.00;;;;;;;;zerotype;;Summer;;No
1884282;35-2217-16-40-WHITE-1884282;35-2217;Draft;Heels;Mochi;Adults-Women;Women;;;;Fashion;;2017;EURO36,MCHIHeels00009656,EURO37,MCHIHeels00009657,EURO38,MCHIHeels00009658,EURO39,MCHIHeels00009659,EURO40,MCHIHeels00009660;1490.00;;;;;;;;zerotype;;Summer;;No
1884281;35-2202-15-41-GOLD-1884281;35-2202;Draft;Heels;Mochi;Adults-Women;Women;;;;Fashion;;2017;EURO36,MCHIHeels00009650,EURO37,MCHIHeels00009651,EURO38,MCHIHeels00009652,EURO39,MCHIHeels00009653,EURO40,MCHIHeels00009654,EURO41,MCHIHeels00009655;2990.00;;;;;;;;zerotype;;Summer;;No
1884280;34-9332-45-41-BLUE-1884280;34-9332;Draft;Heels;Mochi;Adults-Women;Women;;;;Fashion;;2017;EURO36,MCHIHeels00009644,EURO37,MCHIHeels00009645,EURO38,MCHIHeels00009646,EURO39,MCHIHeels00009647,EURO40,MCHIHeels00009648,EURO41,MCHIHeels00009649;1690.00;;;;;;;;zerotype;;Summer;;No
1884279;34-9332-16-41-WHITE-1884279;34-9332;Draft;Heels;Mochi;Adults-Women;Women;;;;Fashion;;2017;EURO36,MCHIHeels00009638,EURO37,MCHIHeels00009639,EURO38,MCHIHeels00009640,EURO39,MCHIHeels00009641,EURO40,MCHIHeels00009642,EURO41,MCHIHeels00009643;1690.00;;;;;;;;zerotype;;Summer;;No
1884278;34-9332-11-41-BLACK-1884278;34-9332;Draft;Heels;Mochi;Adults-Women;Women;;;;Fashion;;2017;EURO36,MCHIHeels00009632,EURO37,MCHIHeels00009633,EURO38,MCHIHeels00009634,EURO39,MCHIHeels00009635,EURO40,MCHIHeels00009636,EURO41,MCHIHeels00009637;1690.00;;;;;;;;zerotype;;Summer;;No
1884277;34-9331-18-41-RED-1884277;34-9331;Draft;Heels;Mochi;Adults-Women;Women;;;;Fashion;;2017;EURO36,MCHIHeels00009626,EURO37,MCHIHeels00009627,EURO38,MCHIHeels00009628,EURO39,MCHIHeels00009629,EURO40,MCHIHeels00009630,EURO41,MCHIHeels00009631;1690.00;;;;;;;;zerotype;;Summer;;No
1884276;34-9331-16-41-WHITE-1884276;34-9331;Draft;Heels;Mochi;Adults-Women;Women;;;;Fashion;;2017;EURO36,MCHIHeels00009620,EURO37,MCHIHeels00009621,EURO38,MCHIHeels00009622,EURO39,MCHIHeels00009623,EURO40,MCHIHeels00009624,EURO41,MCHIHeels00009625;1690.00;;;;;;;;zerotype;;Summer;;No
1884275;34-9331-11-41-BLACK-1884275;34-9331;Draft;Heels;Mochi;Adults-Women;Women;;;;Fashion;;2017;EURO36,MCHIHeels00009614,EURO37,MCHIHeels00009615,EURO38,MCHIHeels00009616,EURO39,MCHIHeels00009617,EURO40,MCHIHeels00009618,EURO41,MCHIHeels00009619;1690.00;;;;;;;;zerotype;;Summer;;No
1884274;34-9196-11-41-BLACK-1884274;34-9196;Draft;Heels;Mochi;Adults-Women;Women;;;;Fashion;;2017;EURO36,MCHIHeels00009608,EURO37,MCHIHeels00009609,EURO38,MCHIHeels00009610,EURO39,MCHIHeels00009611,EURO40,MCHIHeels00009612,EURO41,MCHIHeels00009613;1490.00;;;;;;;;zerotype;;Summer;;No
1884273;33-9731-80-41-PEECH-1884273;33-9731;Draft;Heels;Mochi;Adults-Women;Women;;;;Fashion;;2017;EURO36,MCHIHeels00009602,EURO37,MCHIHeels00009603,EURO38,MCHIHeels00009604,EURO39,MCHIHeels00009605,EURO40,MCHIHeels00009606,EURO41,MCHIHeels00009607;1690.00;;;;;;;;zerotype;;Summer;;No
1884272;33-8970-45-41-BLUE-1884272;33-8970;Draft;Heels;Mochi;Adults-Women;Women;;;;Fashion;;2017;EURO36,MCHIHeels00009596,EURO37,MCHIHeels00009597,EURO38,MCHIHeels00009598,EURO39,MCHIHeels00009599,EURO40,MCHIHeels00009600,EURO41,MCHIHeels00009601;1690.00;;;;;;;;zerotype;;Summer;;No
1884271;33-8970-11-41-BLACK-1884271;33-8970;Draft;Heels;Mochi;Adults-Women;Women;;;;Fashion;;2017;EURO36,MCHIHeels00009590,EURO37,MCHIHeels00009591,EURO38,MCHIHeels00009592,EURO39,MCHIHeels00009593,EURO40,MCHIHeels00009594,EURO41,MCHIHeels00009595;1690.00;;;;;;;;zerotype;;Summer;;No
1884270;32-9098-24-41-PINK-1884270;32-9098;Draft;Heels;Mochi;Adults-Women;Women;;;;Fashion;;2017;EURO36,MCHIHeels00009584,EURO37,MCHIHeels00009585,EURO38,MCHIHeels00009586,EURO39,MCHIHeels00009587,EURO40,MCHIHeels00009588,EURO41,MCHIHeels00009589;1290.00;;;;;;;;zerotype;;Summer;;No
1884269;32-9098-20-41-BEIGE-1884269;32-9098;Draft;Heels;Mochi;Adults-Women;Women;;;;Fashion;;2017;EURO36,MCHIHeels00009578,EURO37,MCHIHeels00009579,EURO38,MCHIHeels00009580,EURO39,MCHIHeels00009581,EURO40,MCHIHeels00009582,EURO41,MCHIHeels00009583;1290.00;;;;;;;;zerotype;;Summer;;No
1884268;32-8243-20-41-BEIGE-1884268;32-8243;Draft;Heels;Mochi;Adults-Women;Women;;;;Fashion;;2017;EURO36,MCHIHeels00009572,EURO37,MCHIHeels00009573,EURO38,MCHIHeels00009574,EURO39,MCHIHeels00009575,EURO40,MCHIHeels00009576,EURO41,MCHIHeels00009577;1490.00;;;;;;;;zerotype;;Summer;;No
1884267;32-8243-11-41-BLACK-1884267;32-8243;Draft;Heels;Mochi;Adults-Women;Women;;;;Fashion;;2017;EURO36,MCHIHeels00009566,EURO37,MCHIHeels00009567,EURO38,MCHIHeels00009568,EURO39,MCHIHeels00009569,EURO40,MCHIHeels00009570,EURO41,MCHIHeels00009571;1490.00;;;;;;;;zerotype;;Summer;;No
1884266;31-7592-18-40-RED-1884266;31-7592;Draft;Heels;Mochi;Adults-Women;Women;;;;Fashion;;2017;EURO36,MCHIHeels00009561,EURO37,MCHIHeels00009562,EURO38,MCHIHeels00009563,EURO39,MCHIHeels00009564,EURO40,MCHIHeels00009565;1890.00;;;;;;;;zerotype;;Summer;;No
1884265;31-7572-21-41-GREEN-1884265;31-7572;Draft;Heels;Mochi;Adults-Women;Women;;;;Fashion;;2017;EURO36,MCHIHeels00009555,EURO37,MCHIHeels00009556,EURO38,MCHIHeels00009557,EURO39,MCHIHeels00009558,EURO40,MCHIHeels00009559,EURO41,MCHIHeels00009560;1890.00;;;;;;;;zerotype;;Summer;;No
1884264;31-7511-11-41-BLACK-1884264;31-7511;Draft;Heels;Mochi;Adults-Women;Women;;;;Fashion;;2017;EURO37,MCHIHeels00009550,EURO38,MCHIHeels00009551,EURO39,MCHIHeels00009552,EURO40,MCHIHeels00009553,EURO41,MCHIHeels00009554;1490.00;;;;;;;;zerotype;;Summer;;No
1884263;31-7463-44-41-MAROON-1884263;31-7463;Draft;Heels;Mochi;Adults-Women;Women;;;;Fashion;;2017;EURO36,MCHIHeels00009544,EURO37,MCHIHeels00009545,EURO38,MCHIHeels00009546,EURO39,MCHIHeels00009547,EURO40,MCHIHeels00009548,EURO41,MCHIHeels00009549;2290.00;;;;;;;;zerotype;;Summer;;No
1884262;31-7463-11-41-BLACK-1884262;31-7463;Draft;Heels;Mochi;Adults-Women;Women;;;;Fashion;;2017;EURO36,MCHIHeels00009538,EURO37,MCHIHeels00009539,EURO38,MCHIHeels00009540,EURO39,MCHIHeels00009541,EURO40,MCHIHeels00009542,EURO41,MCHIHeels00009543;2290.00;;;;;;;;zerotype;;Summer;;No
1884261;31-7450-11-41-BLACK-1884261;31-7450;Draft;Heels;Mochi;Adults-Women;Women;;;;Fashion;;2017;EURO36,MCHIHeels00009532,EURO37,MCHIHeels00009533,EURO38,MCHIHeels00009534,EURO39,MCHIHeels00009535,EURO40,MCHIHeels00009536,EURO41,MCHIHeels00009537;1990.00;;;;;;;;zerotype;;Summer;;No
1884260;44-9425-12-41-BROWN-1884260;44-9425;Draft;Flats;Mochi;Adults-Women;Women;;;;Fashion;;2017;EURO36,MCHIFlats00008025,EURO37,MCHIFlats00008026,EURO38,MCHIFlats00008027,EURO39,MCHIFlats00008028,EURO40,MCHIFlats00008029,EURO41,MCHIFlats00008030;2290.00;;;;;;;;zerotype;;Summer;;No
1884259;44-8864-20-41-BEIGE-1884259;44-8864;Draft;Flats;Mochi;Adults-Women;Women;;;;Fashion;;2017;EURO36,MCHIFlats00008019,EURO37,MCHIFlats00008020,EURO38,MCHIFlats00008021,EURO39,MCHIFlats00008022,EURO40,MCHIFlats00008023,EURO41,MCHIFlats00008024;1690.00;;;;;;;;zerotype;;Summer;;No
1884258;35-2560-11-41-BLACK-1884258;35-2560;Draft;Flats;Mochi;Adults-Women;Women;;;;Fashion;;2017;EURO36,MCHIFlats00008013,EURO37,MCHIFlats00008014,EURO38,MCHIFlats00008015,EURO39,MCHIFlats00008016,EURO40,MCHIFlats00008017,EURO41,MCHIFlats00008018;1890.00;;;;;;;;zerotype;;Summer;;No
1884257;33-9911-45-41-BLUE-1884257;33-9911;Draft;Flats;Mochi;Adults-Women;Women;;;;Fashion;;2017;EURO37,MCHIFlats00008008,EURO38,MCHIFlats00008009,EURO39,MCHIFlats00008010,EURO40,MCHIFlats00008011,EURO41,MCHIFlats00008012;1690.00;;;;;;;;zerotype;;Summer;;No
1884256;33-9911-33-41-YELLOW-1884256;33-9911;Draft;Flats;Mochi;Adults-Women;Women;;;;Fashion;;2017;EURO37,MCHIFlats00008003,EURO38,MCHIFlats00008004,EURO39,MCHIFlats00008005,EURO40,MCHIFlats00008006,EURO41,MCHIFlats00008007;1690.00;;;;;;;;zerotype;;Summer;;No
1884255;33-9911-11-41-BLACK-1884255;33-9911;Draft;Flats;Mochi;Adults-Women;Women;;;;Fashion;;2017;EURO37,MCHIFlats00007998,EURO38,MCHIFlats00007999,EURO39,MCHIFlats00008000,EURO40,MCHIFlats00008001,EURO41,MCHIFlats00008002;1690.00;;;;;;;;zerotype;;Summer;;No
1884254;33-9848-33-41-YELLOW-1884254;33-9848;Draft;Flats;Mochi;Adults-Women;Women;;;;Fashion;;2017;EURO36,MCHIFlats00007992,EURO37,MCHIFlats00007993,EURO38,MCHIFlats00007994,EURO39,MCHIFlats00007995,EURO40,MCHIFlats00007996,EURO41,MCHIFlats00007997;1290.00;;;;;;;;zerotype;;Summer;;No
1884253;33-9848-16-41-WHITE-1884253;33-9848;Draft;Flats;Mochi;Adults-Women;Women;;;;Fashion;;2017;EURO36,MCHIFlats00007986,EURO37,MCHIFlats00007987,EURO38,MCHIFlats00007988,EURO39,MCHIFlats00007989,EURO40,MCHIFlats00007990,EURO41,MCHIFlats00007991;1290.00;;;;;;;;zerotype;;Summer;;No
1884252;33-9848-11-41-BLACK-1884252;33-9848;Draft;Flats;Mochi;Adults-Women;Women;;;;Fashion;;2017;EURO36,MCHIFlats00007980,EURO37,MCHIFlats00007981,EURO38,MCHIFlats00007982,EURO39,MCHIFlats00007983,EURO40,MCHIFlats00007984,EURO41,MCHIFlats00007985;1290.00;;;;;;;;zerotype;;Summer;;No
1884251;33-9536-23-41-TAN-1884251;33-9536;Draft;Flats;Mochi;Adults-Women;Women;;;;Fashion;;2017;EURO36,MCHIFlats00007974,EURO37,MCHIFlats00007975,EURO38,MCHIFlats00007976,EURO39,MCHIFlats00007977,EURO40,MCHIFlats00007978,EURO41,MCHIFlats00007979;1490.00;;;;;;;;zerotype;;Summer;;No
1884250;33-9536-11-41-BLACK-1884250;33-9536;Draft;Flats;Mochi;Adults-Women;Women;;;;Fashion;;2017;EURO36,MCHIFlats00007968,EURO37,MCHIFlats00007969,EURO38,MCHIFlats00007970,EURO39,MCHIFlats00007971,EURO40,MCHIFlats00007972,EURO41,MCHIFlats00007973;1490.00;;;;;;;;zerotype;;Summer;;No
1884249;33-9406-18-41-RED-1884249;33-9406;Draft;Flats;Mochi;Adults-Women;Women;;;;Fashion;;2017;EURO36,MCHIFlats00007962,EURO37,MCHIFlats00007963,EURO38,MCHIFlats00007964,EURO39,MCHIFlats00007965,EURO40,MCHIFlats00007966,EURO41,MCHIFlats00007967;1290.00;;;;;;;;zerotype;;Summer;;No
1884248;33-9351-11-41-BLACK-1884248;33-9351;Draft;Flats;Mochi;Adults-Women;Women;;;;Fashion;;2017;EURO36,MCHIFlats00007956,EURO37,MCHIFlats00007957,EURO38,MCHIFlats00007958,EURO39,MCHIFlats00007959,EURO40,MCHIFlats00007960,EURO41,MCHIFlats00007961;1490.00;;;;;;;;zerotype;;Summer;;No
1884247;32-9245-20-41-BEIGE-1884247;32-9245;Draft;Flats;Mochi;Adults-Women;Women;;;;Fashion;;2017;EURO36,MCHIFlats00007950,EURO37,MCHIFlats00007951,EURO38,MCHIFlats00007952,EURO39,MCHIFlats00007953,EURO40,MCHIFlats00007954,EURO41,MCHIFlats00007955;1290.00;;;;;;;;zerotype;;Summer;;No
1884246;32-9245-11-41-BLACK-1884246;32-9245;Draft;Flats;Mochi;Adults-Women;Women;;;;Fashion;;2017;EURO36,MCHIFlats00007944,EURO37,MCHIFlats00007945,EURO38,MCHIFlats00007946,EURO39,MCHIFlats00007947,EURO40,MCHIFlats00007948,EURO41,MCHIFlats00007949;1290.00;;;;;;;;zerotype;;Summer;;No
1884245;32-9241-23-41-TAN-1884245;32-9241;Draft;Flats;Mochi;Adults-Women;Women;;;;Fashion;;2017;EURO36,MCHIFlats00007938,EURO37,MCHIFlats00007939,EURO38,MCHIFlats00007940,EURO39,MCHIFlats00007941,EURO40,MCHIFlats00007942,EURO41,MCHIFlats00007943;1290.00;;;;;;;;zerotype;;Summer;;No
1884244;32-8979-20-41-BEIGE-1884244;32-8979;Draft;Flats;Mochi;Adults-Women;Women;;;;Fashion;;2017;EURO36,MCHIFlats00007932,EURO37,MCHIFlats00007933,EURO38,MCHIFlats00007934,EURO39,MCHIFlats00007935,EURO40,MCHIFlats00007936,EURO41,MCHIFlats00007937;1290.00;;;;;;;;zerotype;;Summer;;No
1884243;32-8979-11-41-BLACK-1884243;32-8979;Draft;Flats;Mochi;Adults-Women;Women;;;;Fashion;;2017;EURO36,MCHIFlats00007926,EURO37,MCHIFlats00007927,EURO38,MCHIFlats00007928,EURO39,MCHIFlats00007929,EURO40,MCHIFlats00007930,EURO41,MCHIFlats00007931;1290.00;;;;;;;;zerotype;;Summer;;No
1884242;32-8821-24-41-PINK-1884242;32-8821;Draft;Flats;Mochi;Adults-Women;Women;;;;Fashion;;2017;EURO36,MCHIFlats00007920,EURO37,MCHIFlats00007921,EURO38,MCHIFlats00007922,EURO39,MCHIFlats00007923,EURO40,MCHIFlats00007924,EURO41,MCHIFlats00007925;990.00;;;;;;;;zerotype;;Summer;;No
1884241;32-8821-11-41-BLACK-1884241;32-8821;Draft;Flats;Mochi;Adults-Women;Women;;;;Fashion;;2017;EURO36,MCHIFlats00007914,EURO37,MCHIFlats00007915,EURO38,MCHIFlats00007916,EURO39,MCHIFlats00007917,EURO40,MCHIFlats00007918,EURO41,MCHIFlats00007919;990.00;;;;;;;;zerotype;;Summer;;No
1884240;32-8808-11-41-BLACK-1884240;32-8808;Draft;Flats;Mochi;Adults-Women;Women;;;;Fashion;;2017;EURO36,MCHIFlats00007908,EURO37,MCHIFlats00007909,EURO38,MCHIFlats00007910,EURO39,MCHIFlats00007911,EURO40,MCHIFlats00007912,EURO41,MCHIFlats00007913;990.00;;;;;;;;zerotype;;Summer;;No
1884239;31-7618-45-41-BLUE-1884239;31-7618;Draft;Flats;Mochi;Adults-Women;Women;;;;Fashion;;2017;EURO36,MCHIFlats00007902,EURO37,MCHIFlats00007903,EURO38,MCHIFlats00007904,EURO39,MCHIFlats00007905,EURO40,MCHIFlats00007906,EURO41,MCHIFlats00007907;1290.00;;;;;;;;zerotype;;Summer;;No
1884238;31-7618-20-41-BEIGE-1884238;31-7618;Draft;Flats;Mochi;Adults-Women;Women;;;;Fashion;;2017;EURO36,MCHIFlats00007896,EURO37,MCHIFlats00007897,EURO38,MCHIFlats00007898,EURO39,MCHIFlats00007899,EURO40,MCHIFlats00007900,EURO41,MCHIFlats00007901;1290.00;;;;;;;;zerotype;;Summer;;No
1884237;31-7618-18-41-RED-1884237;31-7618;Draft;Flats;Mochi;Adults-Women;Women;;;;Fashion;;2017;EURO36,MCHIFlats00007890,EURO37,MCHIFlats00007891,EURO38,MCHIFlats00007892,EURO39,MCHIFlats00007893,EURO40,MCHIFlats00007894,EURO41,MCHIFlats00007895;1290.00;;;;;;;;zerotype;;Summer;;No
1884236;31-7577-15-41-GOLD-1884236;31-7577;Draft;Flats;Mochi;Adults-Women;Women;;;;Fashion;;2017;EURO36,MCHIFlats00007884,EURO37,MCHIFlats00007885,EURO38,MCHIFlats00007886,EURO39,MCHIFlats00007887,EURO40,MCHIFlats00007888,EURO41,MCHIFlats00007889;1890.00;;;;;;;;zerotype;;Summer;;No
1884235;31-7489-20-41-BEIGE-1884235;31-7489;Draft;Flats;Mochi;Adults-Women;Women;;;;Fashion;;2017;EURO36,MCHIFlats00007878,EURO37,MCHIFlats00007879,EURO38,MCHIFlats00007880,EURO39,MCHIFlats00007881,EURO40,MCHIFlats00007882,EURO41,MCHIFlats00007883;1290.00;;;;;;;;zerotype;;Summer;;No
1884234;31-7489-18-41-RED-1884234;31-7489;Draft;Flats;Mochi;Adults-Women;Women;;;;Fashion;;2017;EURO36,MCHIFlats00007872,EURO37,MCHIFlats00007873,EURO38,MCHIFlats00007874,EURO39,MCHIFlats00007875,EURO40,MCHIFlats00007876,EURO41,MCHIFlats00007877;1290.00;;;;;;;;zerotype;;Summer;;No
1884233;31-7244-12-41-BROWN-1884233;31-7244;Draft;Flats;Mochi;Adults-Women;Women;;;;Fashion;;2017;EURO36,MCHIFlats00007866,EURO37,MCHIFlats00007867,EURO38,MCHIFlats00007868,EURO39,MCHIFlats00007869,EURO40,MCHIFlats00007870,EURO41,MCHIFlats00007871;1490.00;;;;;;;;zerotype;;Summer;;No
1884232;31-7243-45-41-BLUE-1884232;31-7243;Draft;Flats;Mochi;Adults-Women;Women;;;;Fashion;;2017;EURO36,MCHIFlats00007860,EURO37,MCHIFlats00007861,EURO38,MCHIFlats00007862,EURO39,MCHIFlats00007863,EURO40,MCHIFlats00007864,EURO41,MCHIFlats00007865;1290.00;;;;;;;;zerotype;;Summer;;No
1884231;31-7243-19-41-Brown-1884231;31-7243;Draft;Flats;Mochi;Adults-Women;Women;;;;Fashion;;2017;EURO36,MCHIFlats00007854,EURO37,MCHIFlats00007855,EURO38,MCHIFlats00007856,EURO39,MCHIFlats00007857,EURO40,MCHIFlats00007858,EURO41,MCHIFlats00007859;1290.00;;;;;;;;zerotype;;Summer;;No
1884230;31-7221-23-41-TAN-1884230;31-7221;Draft;Flats;Mochi;Adults-Women;Women;;;;Fashion;;2017;EURO36,MCHIFlats00007848,EURO37,MCHIFlats00007849,EURO38,MCHIFlats00007850,EURO39,MCHIFlats00007851,EURO40,MCHIFlats00007852,EURO41,MCHIFlats00007853;1690.00;;;;;;;;zerotype;;Summer;;No
1884229;31-6991-11-41-BLACK-1884229;31-6991;Draft;Flats;Mochi;Adults-Women;Women;;;;Fashion;;2017;EURO36,MCHIFlats00007842,EURO37,MCHIFlats00007843,EURO38,MCHIFlats00007844,EURO39,MCHIFlats00007845,EURO40,MCHIFlats00007846,EURO41,MCHIFlats00007847;1490.00;;;;;;;;zerotype;;Summer;;No
1884228;31-6614-44-41-MAROON-1884228;31-6614;Draft;Flats;Mochi;Adults-Women;Women;;;;Fashion;;2017;EURO36,MCHIFlats00007836,EURO37,MCHIFlats00007837,EURO38,MCHIFlats00007838,EURO39,MCHIFlats00007839,EURO40,MCHIFlats00007840,EURO41,MCHIFlats00007841;1690.00;;;;;;;;zerotype;;Summer;;No
1884227;31-6614-12-41-BROWN-1884227;31-6614;Draft;Flats;Mochi;Adults-Women;Women;;;;Fashion;;2017;EURO36,MCHIFlats00007830,EURO37,MCHIFlats00007831,EURO38,MCHIFlats00007832,EURO39,MCHIFlats00007833,EURO40,MCHIFlats00007834,EURO41,MCHIFlats00007835;1690.00;;;;;;;;zerotype;;Summer;;No
1792140;33-9801-18-41-RED-1792140;33-9801;Inactive - Marketplace - Reject;Flats;Mochi;Adults-Women;Women;Red;;;Fashion;Casual;2017;EURO36,MCHIFlats00006824,EURO37,MCHIFlats00006825,EURO38,MCHIFlats00006826,EURO39,MCHIFlats00006827,EURO40,MCHIFlats00006828,EURO41,MCHIFlats00006829;1290.00;A pair of <a href='/red?src=pd' class='seolink'>red</a> open-toed <a href='/flats?src=pd' class='seolink'>flats</a>, has <a href='/regular?src=pd' class='seolink'>regular</a> styling, slingback detail<br /><a href='/synthetic?src=pd' class='seolink'>Synthetic</a> upper<br />Cushioned footbed<br />Textured and patterned outsole;When you're in the market for new shoes, opt for these wonderful flats from Mochi.  These red flats can be styled with slim jeans and a beautiful top for a casual brunch outfit.;Synthetic <br /> Wipe with a clean, dry cloth to remove dust;;;Mochi Women Red Solid T-Strap;Mochi,JIT;zerotype;;Summer;Angle missing;No
