Style ID;Vendor Article Number;Vendor Article Name;Active Status;Article type;Brand;Age Group;Gender;Base Colour;Colour1;Colour2;Fashion Type;Usage;Year;Size - SKU code pair;MRP;Style Description;Style Note;Materials and Care Description;Size and Fit Description;Size Chart Path;Product Display Name;Tags;Product Type;Classification Brand;Season;Comments;Upload Images
2238189;PTF51708860-Charcoal-2238189;Trousers;Draft;Trousers;Peter England;Adults-Men;Men;Charcoal;;;Fashion;Formal;2017;34,PTENTRSR00008366,40,PTENTRSR00008367,38,PTENTRSR00008368,36,PTENTRSR00008369,32,PTENTRSR00008370,30,PTENTRSR00008371,28,PTENTRSR00008372,44,PTENTRSR00008373,42,PTENTRSR00008374;1199.00;;;<p>65% Polyester and 35% Viscose</p>;;;na;;zerotype;;Winter;;No
2238188;PSH51704550-Off White-2238188;Shirts;Draft;Shirts;Peter England;Adults-Men;Men;Off White;;;Fashion;Formal;2017;39,PTENSHRT00024457,36,PTENSHRT00024458,46,PTENSHRT00024459,44,PTENSHRT00024460,42,PTENSHRT00024461,40,PTENSHRT00024462,38,PTENSHRT00024463;1549.00;;;<p>95% Cotton and 5% Polyester</p>;;;na;;zerotype;;Winter;;No
2238187;PSF51706252-Lavender-2238187;Shirts;Draft;Shirts;Peter England;Adults-Men;Men;Lavender;;;Fashion;Formal;2017;44,PTENSHRT00024450,42,PTENSHRT00024451,40,PTENSHRT00024452,38,PTENSHRT00024453,39,PTENSHRT00024454,36,PTENSHRT00024455,46,PTENSHRT00024456;1299.00;;;<p>55% Polyester and 45% Cotton</p>;;;na;;zerotype;;Winter;;No
2238186;PSF51705689-Lavender-2238186;Shirts;Draft;Shirts;Peter England;Adults-Men;Men;Lavender;;;Fashion;Formal;2017;36,PTENSHRT00024443,46,PTENSHRT00024444,39,PTENSHRT00024445,44,PTENSHRT00024446,42,PTENSHRT00024447,38,PTENSHRT00024448,40,PTENSHRT00024449;899.00;;;<p>75% Cotton and 25% Polyester</p>;;;na;;zerotype;;Winter;;No
2238185;PSF51704713-Pink-2238185;Shirts;Draft;Shirts;Peter England;Adults-Men;Men;Pink;;;Fashion;Formal;2017;39,PTENSHRT00024436,36,PTENSHRT00024437,42,PTENSHRT00024438,46,PTENSHRT00024439,44,PTENSHRT00024440,40,PTENSHRT00024441,38,PTENSHRT00024442;999.00;;;<p>55% Polyester and 45% Cotton</p>;;;na;;zerotype;;Winter;;No
2238184;PSF51704628-Lavender-2238184;Shirts;Draft;Shirts;Peter England;Adults-Men;Men;Lavender;;;Fashion;Formal;2017;39,PTENSHRT00024429,36,PTENSHRT00024430,46,PTENSHRT00024431,44,PTENSHRT00024432,42,PTENSHRT00024433,40,PTENSHRT00024434,38,PTENSHRT00024435;1299.00;;;<p>55% Polyester and 45% Cotton</p>;;;na;;zerotype;;Winter;;No
2238183;PBZ51708710-Charcoal-2238183;Blazers;Draft;Blazers;Peter England;Adults-Men;Men;Charcoal;;;Fashion;Formal;2017;46,PTENBLZR00000779,44,PTENBLZR00000780,42,PTENBLZR00000781,40,PTENBLZR00000782,36,PTENBLZR00000783,48,PTENBLZR00000784,38,PTENBLZR00000785;4999.00;;;<p>65% Polyester and 35% Viscose</p>;;;na;;zerotype;;Winter;;No
2191785;PSF31701797-Purple-2191785;Shirts;Active;Shirts;Peter England;Adults-Men;Men;Purple;Pink;;Fashion;Formal;2017;44.0,PTENSHRT00023295,40.0,PTENSHRT00023296,42.0,PTENSHRT00023297,39,PTENSHRT00024425,36,PTENSHRT00024426,46,PTENSHRT00024427,38,PTENSHRT00024428;1199.00;<a href='/purple?src=pd' class='seolink'>Purple</a> and <a href='/pink?src=pd' class='seolink'>pink</a> two-toned self-design <a href='/formal?src=pd' class='seolink'>formal</a> shirt, has a <a href='/spread?src=pd' class='seolink'>spread</a> collar, button placket, <a href='/1?src=pd' class='seolink'>1</a> pocket, long sleeves, curved hem;Turn up your style with this dapper shirt by Peter England.  For a truly professional look, impress your colleagues by pairing this purple shirt with chinos and a tailored jacket.;55% cotton and 45% polyester<br />Machine-wash;Slim fit<br> The model (height 6') is wearing a size M;;Peter England Men Purple & Pink Two-Toned Slim Fit Self-Design Formal Shirt;Peter England;zerotype;;Spring;;No
