Style ID;Vendor Article Number;Vendor Article Name;Active Status;Article type;Brand;Age Group;Gender;Base Colour;Colour1;Colour2;Fashion Type;Usage;Year;Size - SKU code pair;MRP;Style Description;Style Note;Materials and Care Description;Size and Fit Description;Size Chart Path;Product Display Name;Tags;Product Type;Classification Brand;Season;Comments;Upload Images
2059033;131246517037 C212-Blue-2059033;CR HARLEY BRM C212;Draft;Shorts;Palm Tree;Kids-Boys;Boys;Blue;;;Fashion;Casual;2017;12M,PMTRSHOR00087862,18M,PMTRSHOR00087865,24M,PMTRSHOR00087866;799.00;<p>BERMUDA ELASTICATED</p>;;<p>Machine Wash</p>;;;;;zerotype;;Winter;;No
2059032;131246517037 C212-Blue-2059032;CR HARLEY BRM C212;Draft;Shorts;Palm Tree;Kids-Boys;Boys;Blue;;;Fashion;Casual;2017;10,PMTRSHOR00087860,12,PMTRSHOR00087861,14,PMTRSHOR00087863,16,PMTRSHOR00087864;999.00;<p>BERMUDA ELASTICATED</p>;;<p>Machine Wash</p>;;;;;zerotype;;Winter;;No
2059030;131246517037 C212-Blue-2059030;CR HARLEY BRM C212;Draft;Shorts;Palm Tree;Kids-Boys;Boys;Blue;;;Fashion;Casual;2017;02,PMTRSHOR00087856,04,PMTRSHOR00087857,06,PMTRSHOR00087858,08,PMTRSHOR00087859;899.00;<p>BERMUDA ELASTICATED</p>;;<p>Machine Wash</p>;;;;;zerotype;;Winter;;No
2059028;131246516492 C207-Black-2059028;WS MARTINA SHO C207;Draft;Shorts;Palm Tree;Kids-Girls;Girls;Black;;;Fashion;Casual;2017;12M,PMTRSHOR00087851,18M,PMTRSHOR00087854,24M,PMTRSHOR00087855;299.00;<p>SHORTS ELASTICATED</p>;;<p>Machine Wash</p>;;;;;zerotype;;Winter;;No
2059027;131246516492 C207-Black-2059027;WS MARTINA SHO C207;Draft;Shorts;Palm Tree;Kids-Girls;Girls;Black;;;Fashion;Casual;2017;10,PMTRSHOR00087849,12,PMTRSHOR00087850,14,PMTRSHOR00087852,16,PMTRSHOR00087853;399.00;<p>SHORTS ELASTICATED</p>;;<p>Machine Wash</p>;;;;;zerotype;;Winter;;No
2059026;131246516492 C207-Black-2059026;WS MARTINA SHO C207;Draft;Shorts;Palm Tree;Kids-Girls;Girls;Black;;;Fashion;Casual;2017;02,PMTRSHOR00087845,04,PMTRSHOR00087846,06,PMTRSHOR00087847,08,PMTRSHOR00087848;349.00;<p>SHORTS ELASTICATED</p>;;<p>Machine Wash</p>;;;;;zerotype;;Winter;;No
2059024;131246516448 7000-Blue-2059024;CR KATE SHO 7000;Draft;Shorts;Palm Tree;Kids-Girls;Girls;Blue;;;Fashion;Casual;2017;12M,PMTRSHOR00087840,18M,PMTRSHOR00087843,24M,PMTRSHOR00087844;799.00;<p>SHORTS FIXED WAIST</p>;;<p>Machine Wash</p>;;;;;zerotype;;Winter;;No
2059023;131246516448 7000-Blue-2059023;CR KATE SHO 7000;Draft;Shorts;Palm Tree;Kids-Girls;Girls;Blue;;;Fashion;Casual;2017;10,PMTRSHOR00087838,12,PMTRSHOR00087839,14,PMTRSHOR00087841,16,PMTRSHOR00087842;999.00;<p>SHORTS FIXED WAIST</p>;;<p>Machine Wash</p>;;;;;zerotype;;Winter;;No
2059021;131246516448 7000-Blue-2059021;CR KATE SHO 7000;Draft;Shorts;Palm Tree;Kids-Girls;Girls;Blue;;;Fashion;Casual;2017;02,PMTRSHOR00087834,04,PMTRSHOR00087835,06,PMTRSHOR00087836,08,PMTRSHOR00087837;899.00;<p>SHORTS FIXED WAIST</p>;;<p>Machine Wash</p>;;;;;zerotype;;Winter;;No
2059019;131246516448 5000-Blue-2059019;CR KATE SHO 5000;Draft;Shorts;Palm Tree;Kids-Girls;Girls;Blue;;;Fashion;Casual;2017;12M,PMTRSHOR00087829,18M,PMTRSHOR00087832,24M,PMTRSHOR00087833;799.00;<p>SHORTS FIXED WAIST</p>;;<p>Machine Wash</p>;;;;;zerotype;;Winter;;No
2059018;131246516448 5000-Blue-2059018;CR KATE SHO 5000;Draft;Shorts;Palm Tree;Kids-Girls;Girls;Blue;;;Fashion;Casual;2017;10,PMTRSHOR00087827,12,PMTRSHOR00087828,14,PMTRSHOR00087830,16,PMTRSHOR00087831;999.00;<p>SHORTS FIXED WAIST</p>;;<p>Machine Wash</p>;;;;;zerotype;;Winter;;No
2059016;131246516448 5000-Blue-2059016;CR KATE SHO 5000;Draft;Shorts;Palm Tree;Kids-Girls;Girls;Blue;;;Fashion;Casual;2017;02,PMTRSHOR00087823,04,PMTRSHOR00087824,06,PMTRSHOR00087825,08,PMTRSHOR00087826;899.00;<p>SHORTS FIXED WAIST</p>;;<p>Machine Wash</p>;;;;;zerotype;;Winter;;No
2059015;131246516440 C656-Blue-2059015;CR BOXY SHO C656;Draft;Shorts;Palm Tree;Kids-Boys;Boys;Blue;;;Fashion;Casual;2017;12M,PMTRSHOR00087818,18M,PMTRSHOR00087821,24M,PMTRSHOR00087822;349.00;<p>BOXER SHORTS ELASTICATED</p>;;<p>Machine Wash</p>;;;;;zerotype;;Winter;;No
2059013;131246516440 C656-Blue-2059013;CR BOXY SHO C656;Draft;Shorts;Palm Tree;Kids-Boys;Boys;Blue;;;Fashion;Casual;2017;10,PMTRSHOR00087816,12,PMTRSHOR00087817,14,PMTRSHOR00087819,16,PMTRSHOR00087820;449.00;<p>BOXER SHORTS ELASTICATED</p>;;<p>Machine Wash</p>;;;;;zerotype;;Winter;;No
2059012;131246516440 C656-Blue-2059012;CR BOXY SHO C656;Draft;Shorts;Palm Tree;Kids-Boys;Boys;Blue;;;Fashion;Casual;2017;02,PMTRSHOR00087812,04,PMTRSHOR00087813,06,PMTRSHOR00087814,08,PMTRSHOR00087815;399.00;<p>BOXER SHORTS ELASTICATED</p>;;<p>Machine Wash</p>;;;;;zerotype;;Winter;;No
2059010;131246516440 C457-Red-2059010;CR BOXY SHO C457;Draft;Shorts;Palm Tree;Kids-Boys;Boys;Red;;;Fashion;Casual;2017;12M,PMTRSHOR00087807,18M,PMTRSHOR00087810,24M,PMTRSHOR00087811;349.00;<p>BOXER SHORTS ELASTICATED</p>;;<p>Machine Wash</p>;;;;;zerotype;;Winter;;No
2059009;131246516440 C457-Red-2059009;CR BOXY SHO C457;Draft;Shorts;Palm Tree;Kids-Boys;Boys;Red;;;Fashion;Casual;2017;10,PMTRSHOR00087805,12,PMTRSHOR00087806,14,PMTRSHOR00087808,16,PMTRSHOR00087809;449.00;<p>BOXER SHORTS ELASTICATED</p>;;<p>Machine Wash</p>;;;;;zerotype;;Winter;;No
2059007;131246516440 C457-Red-2059007;CR BOXY SHO C457;Draft;Shorts;Palm Tree;Kids-Boys;Boys;Red;;;Fashion;Casual;2017;02,PMTRSHOR00087801,04,PMTRSHOR00087802,06,PMTRSHOR00087803,08,PMTRSHOR00087804;399.00;<p>BOXER SHORTS ELASTICATED</p>;;<p>Machine Wash</p>;;;;;zerotype;;Winter;;No
2059006;131246516440 C309-Yellow-2059006;CR BOXY SHO C309;Draft;Shorts;Palm Tree;Kids-Boys;Boys;Yellow;;;Fashion;Casual;2017;12M,PMTRSHOR00087796,18M,PMTRSHOR00087799,24M,PMTRSHOR00087800;349.00;<p>BOXER SHORTS ELASTICATED</p>;;<p>Machine Wash</p>;;;;;zerotype;;Winter;;No
2059004;131246516440 C309-Yellow-2059004;CR BOXY SHO C309;Draft;Shorts;Palm Tree;Kids-Boys;Boys;Yellow;;;Fashion;Casual;2017;10,PMTRSHOR00087794,12,PMTRSHOR00087795,14,PMTRSHOR00087797,16,PMTRSHOR00087798;449.00;<p>BOXER SHORTS ELASTICATED</p>;;<p>Machine Wash</p>;;;;;zerotype;;Winter;;No
2059002;131246516440 C309-Yellow-2059002;CR BOXY SHO C309;Draft;Shorts;Palm Tree;Kids-Boys;Boys;Yellow;;;Fashion;Casual;2017;02,PMTRSHOR00087790,04,PMTRSHOR00087791,06,PMTRSHOR00087792,08,PMTRSHOR00087793;399.00;<p>BOXER SHORTS ELASTICATED</p>;;<p>Machine Wash</p>;;;;;zerotype;;Winter;;No
2058991;131246516437 7000-Blue-2058991;CR SHINE SHO 7000;Draft;Shorts;Palm Tree;Kids-Boys;Boys;Blue;;;Fashion;Casual;2017;12M,PMTRSHOR00087785,18M,PMTRSHOR00087788,24M,PMTRSHOR00087789;599.00;<p>SHORTS ELASTICATED</p>;;<p>Machine Wash</p>;;;;;zerotype;;Winter;;No
2058984;131246516437 7000-Blue-2058984;CR SHINE SHO 7000;Draft;Shorts;Palm Tree;Kids-Boys;Boys;Blue;;;Fashion;Casual;2017;10,PMTRSHOR00087783,12,PMTRSHOR00087784,14,PMTRSHOR00087786,16,PMTRSHOR00087787;799.00;<p>SHORTS ELASTICATED</p>;;<p>Machine Wash</p>;;;;;zerotype;;Winter;;No
2058972;131246516437 7000-Blue-2058972;CR SHINE SHO 7000;Draft;Shorts;Palm Tree;Kids-Boys;Boys;Blue;;;Fashion;Casual;2017;02,PMTRSHOR00087779,04,PMTRSHOR00087780,06,PMTRSHOR00087781,08,PMTRSHOR00087782;699.00;<p>SHORTS ELASTICATED</p>;;<p>Machine Wash</p>;;;;;zerotype;;Winter;;No
2058958;131246516432 9207-Black-2058958;CR JONY BRM 9207;Draft;Shorts;Palm Tree;Kids-Boys;Boys;Black;;;Fashion;Casual;2017;12M,PMTRSHOR00087774,18M,PMTRSHOR00087777,24M,PMTRSHOR00087778;599.00;<p>BERMUDA ELASTICATED</p>;;<p>Machine Wash</p>;;;;;zerotype;;Winter;;No
2058952;131246516432 9207-Black-2058952;CR JONY BRM 9207;Draft;Shorts;Palm Tree;Kids-Boys;Boys;Black;;;Fashion;Casual;2017;10,PMTRSHOR00087772,12,PMTRSHOR00087773,14,PMTRSHOR00087775,16,PMTRSHOR00087776;799.00;<p>BERMUDA ELASTICATED</p>;;<p>Machine Wash</p>;;;;;zerotype;;Winter;;No
2058941;131246516432 9207-Black-2058941;CR JONY BRM 9207;Draft;Shorts;Palm Tree;Kids-Boys;Boys;Black;;;Fashion;Casual;2017;02,PMTRSHOR00087768,04,PMTRSHOR00087769,06,PMTRSHOR00087770,08,PMTRSHOR00087771;699.00;<p>BERMUDA ELASTICATED</p>;;<p>Machine Wash</p>;;;;;zerotype;;Winter;;No
2058928;131012528851 6000-Blue-2058928;CR ACRU BRM 6000;Draft;Shorts;Palm Tree;Kids-Boys;Boys;Blue;;;Fashion;Casual;2017;12M,PMTRSHOR00087763,18M,PMTRSHOR00087766,24M,PMTRSHOR00087767;699.00;<p>BERMUDA ELASTICATED</p>;;<p>Machine Wash</p>;;;;;zerotype;;Winter;;No
2058922;131012528851 6000-Blue-2058922;CR ACRU BRM 6000;Draft;Shorts;Palm Tree;Kids-Boys;Boys;Blue;;;Fashion;Casual;2017;10,PMTRSHOR00087761,12,PMTRSHOR00087762,14,PMTRSHOR00087764,16,PMTRSHOR00087765;899.00;<p>BERMUDA ELASTICATED</p>;;<p>Machine Wash</p>;;;;;zerotype;;Winter;;No
2058910;131012528851 6000-Blue-2058910;CR ACRU BRM 6000;Draft;Shorts;Palm Tree;Kids-Boys;Boys;Blue;;;Fashion;Casual;2017;02,PMTRSHOR00087757,04,PMTRSHOR00087758,06,PMTRSHOR00087759,08,PMTRSHOR00087760;799.00;<p>BERMUDA ELASTICATED</p>;;<p>Machine Wash</p>;;;;;zerotype;;Winter;;No
2058894;131012528851 5000-Blue-2058894;CR ACRU BRM 5000;Draft;Shorts;Palm Tree;Kids-Boys;Boys;Blue;;;Fashion;Casual;2017;12M,PMTRSHOR00087752,18M,PMTRSHOR00087755,24M,PMTRSHOR00087756;699.00;<p>BERMUDA ELASTICATED</p>;;<p>Machine Wash</p>;;;;;zerotype;;Winter;;No
2058885;131012528851 5000-Blue-2058885;CR ACRU BRM 5000;Draft;Shorts;Palm Tree;Kids-Boys;Boys;Blue;;;Fashion;Casual;2017;10,PMTRSHOR00087750,12,PMTRSHOR00087751,14,PMTRSHOR00087753,16,PMTRSHOR00087754;899.00;<p>BERMUDA ELASTICATED</p>;;<p>Machine Wash</p>;;;;;zerotype;;Winter;;No
2058854;131012528851 5000-Blue-2058854;CR ACRU BRM 5000;Draft;Shorts;Palm Tree;Kids-Boys;Boys;Blue;;;Fashion;Casual;2017;02,PMTRSHOR00087746,04,PMTRSHOR00087747,06,PMTRSHOR00087748,08,PMTRSHOR00087749;799.00;<p>BERMUDA ELASTICATED</p>;;<p>Machine Wash</p>;;;;;zerotype;;Winter;;No
