Style ID;Vendor Article Number;Vendor Article Name;Active Status;Article type;Brand;Age Group;Gender;Base Colour;Colour1;Colour2;Fashion Type;Usage;Year;Size - SKU code pair;MRP;Style Description;Style Note;Materials and Care Description;Size and Fit Description;Size Chart Path;Product Display Name;Tags;Product Type;Classification Brand;Season;Comments;Upload Images
1913925;BUBLT13059-Brown-1913925;BUCKLEUP MENS LEATHER BELT;Draft;Belts;BuckleUp;Adults-Men;Men;;;;Fashion;;2017;34,BKUPBELT00003270;999.00;;;;;;;;zerotype;;Spring;;No
1913924;BUBLT13056-Brown-1913924;BUCKLEUP MENS LEATHER BELT;Draft;Belts;BuckleUp;Adults-Men;Men;;;;Fashion;;2017;40,BKUPBELT00003269;1259.00;;;;;;;;zerotype;;Spring;;No
1913923;BUBLT13056-Brown-1913923;BUCKLEUP MENS LEATHER BELT;Draft;Belts;BuckleUp;Adults-Men;Men;;;;Fashion;;2017;38,BKUPBELT00003268;1259.00;;;;;;;;zerotype;;Spring;;No
1913922;BUBLT13056-Brown-1913922;BUCKLEUP MENS LEATHER BELT;Draft;Belts;BuckleUp;Adults-Men;Men;;;;Fashion;;2017;36,BKUPBELT00003267;1259.00;;;;;;;;zerotype;;Spring;;No
1913921;BUBLT13056-Brown-1913921;BUCKLEUP MENS LEATHER BELT;Draft;Belts;BuckleUp;Adults-Men;Men;;;;Fashion;;2017;34,BKUPBELT00003266;1259.00;;;;;;;;zerotype;;Spring;;No
1913920;BUBLT13044-Black-1913920;BUCKLEUP MENS LEATHER BELT;Draft;Belts;BuckleUp;Adults-Men;Men;;;;Fashion;;2017;34,BKUPBELT00003265;999.00;;;;;;;;zerotype;;Spring;;No
1913919;BUBLT13042-Black-1913919;BUCKLEUP MENS LEATHER BELT;Draft;Belts;BuckleUp;Adults-Men;Men;;;;Fashion;;2017;34,BKUPBELT00003264;999.00;;;;;;;;zerotype;;Spring;;No
1913918;BUBLT13041-Black-1913918;BUCKLEUP MENS LEATHER BELT;Draft;Belts;BuckleUp;Adults-Men;Men;;;;Fashion;;2017;34,BKUPBELT00003263;999.00;;;;;;;;zerotype;;Spring;;No
1913917;BUBLT13040-Tan-1913917;BUCKLEUP MENS LEATHER BELT;Draft;Belts;BuckleUp;Adults-Men;Men;;;;Fashion;;2017;34,BKUPBELT00003262;999.00;;;;;;;;zerotype;;Spring;;No
1913916;BUBLT13039-Tan-1913916;BUCKLEUP MENS LEATHER BELT;Draft;Belts;BuckleUp;Adults-Men;Men;;;;Fashion;;2017;34,BKUPBELT00003261;999.00;;;;;;;;zerotype;;Spring;;No
1913915;BUBLT13038-Black-1913915;BUCKLEUP MENS LEATHER BELT;Draft;Belts;BuckleUp;Adults-Men;Men;;;;Fashion;;2017;34,BKUPBELT00003260;999.00;;;;;;;;zerotype;;Spring;;No
1913914;BUBLT13026-Tan-1913914;BUCKLEUP MENS LEATHER BELT;Draft;Belts;BuckleUp;Adults-Men;Men;;;;Fashion;;2017;34,BKUPBELT00003259;999.00;;;;;;;;zerotype;;Spring;;No
1913913;BUBLT13025-Black-1913913;BUCKLEUP MENS LEATHER BELT;Draft;Belts;BuckleUp;Adults-Men;Men;;;;Fashion;;2017;34,BKUPBELT00003258;999.00;;;;;;;;zerotype;;Spring;;No
1913912;BUBLT13022-Tan-1913912;BUCKLEUP MENS LEATHER BELT;Draft;Belts;BuckleUp;Adults-Men;Men;;;;Fashion;;2017;34,BKUPBELT00003257;999.00;;;;;;;;zerotype;;Spring;;No
1913911;BUBLT13011-Black-1913911;BUCKLEUP MENS LEATHER BELT;Draft;Belts;BuckleUp;Adults-Men;Men;;;;Fashion;;2017;34,BKUPBELT00003256;999.00;;;;;;;;zerotype;;Spring;;No
1913910;BUBLT13008-Tan-1913910;BUCKLEUP MENS LEATHER BELT;Draft;Belts;BuckleUp;Adults-Men;Men;;;;Fashion;;2017;34,BKUPBELT00003255;999.00;;;;;;;;zerotype;;Spring;;No
1913909;BUBLT13006-Black-1913909;BUCKLEUP MENS LEATHER BELT;Draft;Belts;BuckleUp;Adults-Men;Men;;;;Fashion;;2017;34,BKUPBELT00003254;999.00;;;;;;;;zerotype;;Spring;;No
1913908;BUBLT12093-Brown-1913908;BUCKLEUP MENS LEATHER BELT;Draft;Belts;BuckleUp;Adults-Men;Men;;;;Fashion;;2017;34,BKUPBELT00003253;999.00;;;;;;;;zerotype;;Spring;;No
1913907;BUBLT12089-Tan-1913907;BUCKLEUP MENS LEATHER BELT;Draft;Belts;BuckleUp;Adults-Men;Men;;;;Fashion;;2017;34,BKUPBELT00003252;999.00;;;;;;;;zerotype;;Spring;;No
1913906;BUBLT12088-Black-1913906;BUCKLEUP MENS LEATHER BELT;Draft;Belts;BuckleUp;Adults-Men;Men;;;;Fashion;;2017;34,BKUPBELT00003251;999.00;;;;;;;;zerotype;;Spring;;No
1913905;BUBLT12086-Tan-1913905;BUCKLEUP MENS LEATHER BELT;Draft;Belts;BuckleUp;Adults-Men;Men;;;;Fashion;;2017;34,BKUPBELT00003250;999.00;;;;;;;;zerotype;;Spring;;No
1913904;BUBLT12085-Tan-1913904;BUCKLEUP MENS LEATHER BELT;Draft;Belts;BuckleUp;Adults-Men;Men;;;;Fashion;;2017;34,BKUPBELT00003249;999.00;;;;;;;;zerotype;;Spring;;No
