Style ID;Vendor Article Number;Vendor Article Name;Active Status;Article type;Brand;Age Group;Gender;Base Colour;Colour1;Colour2;Fashion Type;Usage;Year;Size - SKU code pair;MRP;Style Description;Style Note;Materials and Care Description;Size and Fit Description;Size Chart Path;Product Display Name;Tags;Product Type;Classification Brand;Season;Comments;Upload Images
2450198;FS9453-Pink-2450198;FS9453;Draft;Sarees;Colors;Adults-Women;Women;Pink;;;Fashion;Ethnic;2018;Onesize,CLORSARS00000301;3140.00;;;<p>Hand Wash</p>;<p>5.5 Mtr Sari ,width-1.1 mts & 0.8 Mtr Blouse</p>;;NA;;zerotype;;Summer;;No
2450197;FS9452-Coral-2450197;FS9452;Draft;Sarees;Colors;Adults-Women;Women;Coral;;;Fashion;Ethnic;2018;Onesize,CLORSARS00000300;3140.00;;;<p>Hand Wash</p>;<p>5.5 Mtr Sari ,width-1.1 mts & 0.8 Mtr Blouse</p>;;NA;;zerotype;;Summer;;No
2450196;FS9437-Pink Cream-2450196;FS9437;Draft;Sarees;Colors;Adults-Women;Women;Pink;Cream;;Fashion;Ethnic;2018;Onesize,CLORSARS00000299;1299.00;;;<p>Hand Wash</p>;<p>5.5 Mtr Sari ,width-1.1 mts & 0.8 Mtr Blouse</p>;;NA;;zerotype;;Summer;;No
2450195;FS9443-Beige Pink-2450195;FS9443;Draft;Sarees;Colors;Adults-Women;Women;Beige;Pink;;Fashion;Ethnic;2018;Onesize,CLORSARS00000298;3710.00;;;<p>Hand Wash</p>;<p>5.5 Mtr Sari ,width-1.1 mts & 0.8 Mtr Blouse</p>;;NA;;zerotype;;Summer;;No
2450194;FS9458-Navy Blue-2450194;FS9458;Draft;Sarees;Colors;Adults-Women;Women;Navy Blue;;;Fashion;Ethnic;2018;Onesize,CLORSARS00000297;4498.00;;;<p>Hand Wash</p>;<p>5.5 Mtr Sari ,width-1.1 mts & 0.8 Mtr Blouse</p>;;NA;;zerotype;;Summer;;No
2450193;FS9444-Coral-2450193;FS9444;Draft;Sarees;Colors;Adults-Women;Women;Coral;;;Fashion;Ethnic;2018;Onesize,CLORSARS00000296;3425.00;;;<p>Hand Wash</p>;<p>5.5 Mtr Sari ,width-1.1 mts & 0.8 Mtr Blouse</p>;;NA;;zerotype;;Summer;;No
2450192;FS9419-Orange Turquoise Blue-2450192;FS9419;Draft;Sarees;Colors;Adults-Women;Women;Orange;Turquoise Blue;;Fashion;Ethnic;2018;Onesize,CLORSARS00000295;3140.00;;;<p>Hand Wash</p>;<p>5.5 Mtr Sari ,width-1.1 mts & 0.8 Mtr Blouse</p>;;NA;;zerotype;;Summer;;No
2450191;FS9462-Teal-2450191;FS9462;Draft;Sarees;Colors;Adults-Women;Women;Teal;;;Fashion;Ethnic;2018;Onesize,CLORSARS00000294;5140.00;;;<p>Hand Wash</p>;<p>5.5 Mtr Sari ,width-1.1 mts & 0.8 Mtr Blouse</p>;;NA;;zerotype;;Summer;;No
2450190;FS9447-Grey-2450190;FS9447;Draft;Sarees;Colors;Adults-Women;Women;Grey;;;Fashion;Ethnic;2018;Onesize,CLORSARS00000293;2498.00;;;<p>Hand Wash</p>;<p>5.5 Mtr Sari ,width-1.1 mts & 0.8 Mtr Blouse</p>;;NA;;zerotype;;Summer;;No
2450189;FS9455-Blue Beige-2450189;FS9455;Draft;Sarees;Colors;Adults-Women;Women;Blue;Beige;;Fashion;Ethnic;2018;Onesize,CLORSARS00000292;3998.00;;;<p>Hand Wash</p>;<p>5.5 Mtr Sari ,width-1.1 mts & 0.8 Mtr Blouse</p>;;NA;;zerotype;;Summer;;No
2450188;FS9448-Green-2450188;FS9448;Draft;Sarees;Colors;Adults-Women;Women;Green;;;Fashion;Ethnic;2018;Onesize,CLORSARS00000291;2498.00;;;<p>Hand Wash</p>;<p>5.5 Mtr Sari ,width-1.1 mts & 0.8 Mtr Blouse</p>;;NA;;zerotype;;Summer;;No
2450187;FS9459-Yellow-2450187;FS9459;Draft;Sarees;Colors;Adults-Women;Women;Yellow;;;Fashion;Ethnic;2018;Onesize,CLORSARS00000290;3710.00;;;<p>Hand Wash</p>;<p>5.5 Mtr Sari ,width-1.1 mts & 0.8 Mtr Blouse</p>;;NA;;zerotype;;Summer;;No
2450186;FS9441-Turquoise Blue Grey-2450186;FS9441;Draft;Sarees;Colors;Adults-Women;Women;Turquoise Blue;Grey;;Fashion;Ethnic;2018;Onesize,CLORSARS00000289;3998.00;;;<p>Hand Wash</p>;<p>5.5 Mtr Sari ,width-1.1 mts & 0.8 Mtr Blouse</p>;;NA;;zerotype;;Summer;;No
2450185;FS9456-Pink Beige-2450185;FS9456;Draft;Sarees;Colors;Adults-Women;Women;Pink;Beige;;Fashion;Ethnic;2018;Onesize,CLORSARS00000288;3140.00;;;<p>Hand Wash</p>;<p>5.5 Mtr Sari ,width-1.1 mts & 0.8 Mtr Blouse</p>;;NA;;zerotype;;Summer;;No
2450184;FS9445-Brown-2450184;FS9445;Draft;Sarees;Colors;Adults-Women;Women;Brown;;;Fashion;Ethnic;2018;Onesize,CLORSARS00000287;4498.00;;;<p>Hand Wash</p>;<p>5.5 Mtr Sari ,width-1.1 mts & 0.8 Mtr Blouse</p>;;NA;;zerotype;;Summer;;No
2450183;FS9460-Black-2450183;FS9460;Draft;Sarees;Colors;Adults-Women;Women;Black;;;Fashion;Ethnic;2018;Onesize,CLORSARS00000286;4498.00;;;<p>Hand Wash</p>;<p>5.5 Mtr Sari ,width-1.1 mts & 0.8 Mtr Blouse</p>;;NA;;zerotype;;Summer;;No
2450182;FS9435-Orange-2450182;FS9435;Draft;Sarees;Colors;Adults-Women;Women;Orange;;;Fashion;Ethnic;2018;Onesize,CLORSARS00000285;4498.00;;;<p>Hand Wash</p>;<p>5.5 Mtr Sari ,width-1.1 mts & 0.8 Mtr Blouse</p>;;NA;;zerotype;;Summer;;No
2450181;FS9454-Grey Red-2450181;FS9454;Draft;Sarees;Colors;Adults-Women;Women;Grey;Red;;Fashion;Ethnic;2018;Onesize,CLORSARS00000284;3425.00;;;<p>Hand Wash</p>;<p>5.5 Mtr Sari ,width-1.1 mts & 0.8 Mtr Blouse</p>;;NA;;zerotype;;Summer;;No
2450180;FS9439-Red Cream-2450180;FS9439;Draft;Sarees;Colors;Adults-Women;Women;Red;Cream;;Fashion;Ethnic;2018;Onesize,CLORSARS00000283;1099.00;;;<p>Hand Wash</p>;<p>5.5 Mtr Sari ,width-1.1 mts & 0.8 Mtr Blouse</p>;;NA;;zerotype;;Summer;;No
2450179;FS9438-Peach Cream-2450179;FS9438;Draft;Sarees;Colors;Adults-Women;Women;Peach;Cream;;Fashion;Ethnic;2018;Onesize,CLORSARS00000282;1299.00;;;<p>Hand Wash</p>;<p>5.5 Mtr Sari ,width-1.1 mts & 0.8 Mtr Blouse</p>;;NA;;zerotype;;Summer;;No
2450178;FS9442-Red Beige-2450178;FS9442;Draft;Sarees;Colors;Adults-Women;Women;Red;Beige;;Fashion;Ethnic;2018;Onesize,CLORSARS00000281;3998.00;;;<p>Hand Wash</p>;<p>5.5 Mtr Sari ,width-1.1 mts & 0.8 Mtr Blouse</p>;;NA;;zerotype;;Summer;;No
2450177;FS9451-Navy Blue-2450177;FS9451;Draft;Sarees;Colors;Adults-Women;Women;Navy Blue;;;Fashion;Ethnic;2018;Onesize,CLORSARS00000280;3140.00;;;<p>Hand Wash</p>;<p>5.5 Mtr Sari ,width-1.1 mts & 0.8 Mtr Blouse</p>;;NA;;zerotype;;Summer;;No
2450176;FS9450-White-2450176;FS9450;Draft;Sarees;Colors;Adults-Women;Women;White;;;Fashion;Ethnic;2018;Onesize,CLORSARS00000279;3140.00;;;<p>Hand Wash</p>;<p>5.5 Mtr Sari ,width-1.1 mts & 0.8 Mtr Blouse</p>;;NA;;zerotype;;Summer;;No
2450175;FS9449-Turquoise Blue-2450175;FS9449;Draft;Sarees;Colors;Adults-Women;Women;Turquoise Blue;;;Fashion;Ethnic;2018;Onesize,CLORSARS00000278;3425.00;;;<p>Hand Wash</p>;<p>5.5 Mtr Sari ,width-1.1 mts & 0.8 Mtr Blouse</p>;;NA;;zerotype;;Summer;;No
