Style ID;Vendor Article Number;Vendor Article Name;Active Status;Article type;Brand;Age Group;Gender;Base Colour;Colour1;Colour2;Fashion Type;Usage;Year;Size - SKU code pair;MRP;Style Description;Style Note;Materials and Care Description;Size and Fit Description;Size Chart Path;Product Display Name;Tags;Product Type;Classification Brand;Season;Comments;Upload Images
1907833;S17CWB047-Black-Black-1907833;Pencil Knee Length Skirt;Draft;Skirts;Globus;Adults-Women;Women;;;;Fashion;;2017;26,GLBSSKRT00000407,28,GLBSSKRT00000408,30,GLBSSKRT00000409,32,GLBSSKRT00000410;1499.00;;;;;;;;zerotype;;Spring;;No
1907832;S17CWB005B-Olive-Olive-1907832;Drawstring Joggers;Draft;Trousers;Globus;Adults-Women;Women;;;;Fashion;;2017;26,GLBSTRSR00000970,28,GLBSTRSR00000971,30,GLBSTRSR00000972,32,GLBSTRSR00000973;1599.00;;;;;;;;zerotype;;Spring;;No
1907831;S17CWB005A-Navy-Navy Blue-1907831;Drawstring Joggers;Draft;Trousers;Globus;Adults-Women;Women;;;;Fashion;;2017;26,GLBSTRSR00000966,28,GLBSTRSR00000967,30,GLBSTRSR00000968,32,GLBSTRSR00000969;1599.00;;;;;;;;zerotype;;Spring;;No
1907830;S17CWB005-Black-Black-1907830;Drawstring Joggers;Draft;Trousers;Globus;Adults-Women;Women;;;;Fashion;;2017;26,GLBSTRSR00000962,28,GLBSTRSR00000963,30,GLBSTRSR00000964,32,GLBSTRSR00000965;1599.00;;;;;;;;zerotype;;Spring;;No
1907829;S17CWB007A-Black-Black-1907829;Drawstring Joggers;Draft;Trousers;Globus;Adults-Women;Women;;;;Fashion;;2017;26,GLBSTRSR00000958,28,GLBSTRSR00000959,30,GLBSTRSR00000960,32,GLBSTRSR00000961;1299.00;;;;;;;;zerotype;;Spring;;No
1907828;S17CWB059-Navy-Navy Blue-1907828;Capri Lt Culottes;Draft;Trousers;Globus;Adults-Women;Women;;;;Fashion;;2017;26,GLBSTRSR00000954,28,GLBSTRSR00000955,30,GLBSTRSR00000956,32,GLBSTRSR00000957;1199.00;;;;;;;;zerotype;;Spring;;No
1907827;W16CWB016A-Navy-Navy Blue-1907827;Wide Leg Culottes;Draft;Trousers;Globus;Adults-Women;Women;;;;Fashion;;2017;26,GLBSTRSR00000950,28,GLBSTRSR00000951,30,GLBSTRSR00000952,32,GLBSTRSR00000953;999.00;;;;;;;;zerotype;;Spring;;No
1907826;S17CWB012-SkyBlue-Blue-1907826;Culottes With Belt;Draft;Trousers;Globus;Adults-Women;Women;;;;Fashion;;2017;26,GLBSTRSR00000946,28,GLBSTRSR00000947,30,GLBSTRSR00000948,32,GLBSTRSR00000949;1399.00;;;;;;;;zerotype;;Spring;;No
1907825;S17CWT315-Black-Black-1907825;Bell Sleeve Classic Collar Blouse;Draft;Shirts;Globus;Adults-Women;Women;;;;Fashion;;2017;XS,GLBSSHRT00002715,S,GLBSSHRT00002716,M,GLBSSHRT00002717,L,GLBSSHRT00002718,XL,GLBSSHRT00002719;999.00;;;;;;;;zerotype;;Spring;;No
1907824;S17CWT025A-Pink-Pink-1907824;Full Lenght Slv Classic Collar Draped Shirt;Draft;Shirts;Globus;Adults-Women;Women;;;;Fashion;;2017;XS,GLBSSHRT00002710,S,GLBSSHRT00002711,M,GLBSSHRT00002712,L,GLBSSHRT00002713,XL,GLBSSHRT00002714;1499.00;;;;;;;;zerotype;;Spring;;No
1907823;S17XWT052-Ivory-Off White-1907823;Cropped Trappy Top;Draft;Tops;Globus;Adults-Women;Women;;;;Fashion;;2017;XS,GLBSTOPS00005659,S,GLBSTOPS00005660,M,GLBSTOPS00005661,L,GLBSTOPS00005662;999.00;;;;;;;;zerotype;;Spring;;No
1907822;S17CWT042-Ivory-Off White-1907822;Bandana Print Shirt;Draft;Tops;Globus;Adults-Women;Women;;;;Fashion;;2017;XS,GLBSTOPS00005654,S,GLBSTOPS00005655,M,GLBSTOPS00005656,L,GLBSTOPS00005657,XL,GLBSTOPS00005658;999.00;;;;;;;;zerotype;;Spring;;No
1907821;S17CWT054-Navy-Navy Blue-1907821;Bell Sleeve Top;Draft;Tops;Globus;Adults-Women;Women;;;;Fashion;;2017;XS,GLBSTOPS00005649,S,GLBSTOPS00005650,M,GLBSTOPS00005651,L,GLBSTOPS00005652,XL,GLBSTOPS00005653;1199.00;;;;;;;;zerotype;;Spring;;No
1907820;W16CWT088B-Blue-Blue-1907820;Kimono Top;Draft;Tops;Globus;Adults-Women;Women;;;;Fashion;;2017;XS,GLBSTOPS00005644,S,GLBSTOPS00005645,M,GLBSTOPS00005646,L,GLBSTOPS00005647,XL,GLBSTOPS00005648;699.00;;;;;;;;zerotype;;Spring;;No
1907819;W16ZCWT006-OffWhite-Off White-1907819;Spaghetti Scarf Print Top;Draft;Tops;Globus;Adults-Women;Women;;;;Fashion;;2017;XS,GLBSTOPS00005640,S,GLBSTOPS00005641,L,GLBSTOPS00005642,M,GLBSTOPS00005643;699.00;;;;;;;;zerotype;;Spring;;No
1907818;S17AXWD118-LightBlue-Blue-1907818;F21 Ladies Kick Flare Hi Waist Denim;Draft;Jeans;Globus;Adults-Women;Women;;;;Fashion;;2017;26,GLBSJENS00001424,28,GLBSJENS00001425,34,GLBSJENS00001426;1499.00;;;;;;;;zerotype;;Spring;;No
1907817;S17AXWD117-Indigo-Blue-1907817;F21 Ladies Kick Flare Hi Waist Denim;Draft;Jeans;Globus;Adults-Women;Women;;;;Fashion;;2017;26,GLBSJENS00001419,28,GLBSJENS00001420,30,GLBSJENS00001421,32,GLBSJENS00001422,34,GLBSJENS00001423;1499.00;;;;;;;;zerotype;;Spring;;No
1907816;W16AXWD163-LightBlue-Blue-1907816;F21 Ladies Super Skinny Ankle  Length Denim;Draft;Jeans;Globus;Adults-Women;Women;;;;Fashion;;2017;26,GLBSJENS00001416,30,GLBSJENS00001417,32,GLBSJENS00001418;1599.00;;;;;;;;zerotype;;Spring;;No
1907815;W16AXWD162-IceWash-Blue-1907815;F21 Ladies Super Skinny Full  Length Denim;Draft;Jeans;Globus;Adults-Women;Women;;;;Fashion;;2017;26,GLBSJENS00001412,28,GLBSJENS00001413,32,GLBSJENS00001414,34,GLBSJENS00001415;1599.00;;;;;;;;zerotype;;Spring;;No
1907814;W16AXWD159-Indigo-Blue-1907814;F21 Ladies Super Skinny Ankle  Length Denim;Draft;Jeans;Globus;Adults-Women;Women;;;;Fashion;;2017;26,GLBSJENS00001410,30,GLBSJENS00001411;1699.00;;;;;;;;zerotype;;Spring;;No
1907813;S17XWB010-IceBlue-Blue-1907813;Skinny Denim With Badges;Draft;Jeans;Globus;Adults-Women;Women;;;;Fashion;;2017;26,GLBSJENS00001405,28,GLBSJENS00001406,30,GLBSJENS00001407,32,GLBSJENS00001408,34,GLBSJENS00001409;1499.00;;;;;;;;zerotype;;Spring;;No
