Style ID;Vendor Article Number;Vendor Article Name;Active Status;Article type;Brand;Age Group;Gender;Base Colour;Colour1;Colour2;Fashion Type;Usage;Year;Size - SKU code pair;MRP;Style Description;Style Note;Materials and Care Description;Size and Fit Description;Size Chart Path;Product Display Name;Tags;Product Type;Classification Brand;Season;Comments;Upload Images
2326739;388-multi-2326739;0388 2pk Cott.Cuff FC D2, 36, C;Draft;Bra;Marks & Spencer;Adults-Women;Women;;;;Fashion;;2017;32B,MKSPBRAA00003783,34B,MKSPBRAA00003784,34C,MKSPBRAA00003785,36B,MKSPBRAA00003786,36C,MKSPBRAA00003787;1999.00;;;<p>75% cotton, 16% polyester, 5% elastane and 4% polyamide</p>;;;;;zerotype;;Winter;;No
2326734;387-multi-2326734;0387 2PKCottLaceTrimFC ZY, 38, B;Draft;Bra;Marks & Spencer;Adults-Women;Women;;;;Fashion;;2017;32B,MKSPBRAA00003772,32C,MKSPBRAA00003773,32D,MKSPBRAA00003774,32DD,MKSPBRAA00003775,34B,MKSPBRAA00003776,34C,MKSPBRAA00003777,34D,MKSPBRAA00003778,36B,MKSPBRAA00003779,36C,MKSPBRAA00003780,36DD,MKSPBRAA00003781,38B,MKSPBRAA00003782;1999.00;;;<p>75% cotton, 18% polyester, 5% elastane and 2% polyamide</p>;;;;;zerotype;;Winter;;No
2326667;2059-BLACK-2326667;2059 SmoothCurveFullC Y0, 32, D;Draft;Bra;Marks & Spencer;Adults-Women;Women;;;;Fashion;;2017;38C,MKSPBRAA00003512,38D,MKSPBRAA00003513,34C,MKSPBRAA00003514,34D,MKSPBRAA00003515,36B,MKSPBRAA00003516,36C,MKSPBRAA00003517,34B,MKSPBRAA00003518,36D,MKSPBRAA00003519,32C,MKSPBRAA00003520,38B,MKSPBRAA00003521,32B,MKSPBRAA00003522,32D,MKSPBRAA00003523;2299.00;;;<p>56% polyamide, 23% elastane and 21% polyester</p>;;;;;zerotype;;Winter;;No
2326658;0362A-multi-2326658;0362A 2pk Syn FF Plunge YL, 34, D;Draft;Bra;Marks & Spencer;Adults-Women;Women;;;;Fashion;;2017;34C,MKSPBRAA00003378,34B,MKSPBRAA00003379,32C,MKSPBRAA00003380,36D,MKSPBRAA00003381,32D,MKSPBRAA00003382,36B,MKSPBRAA00003383,36C,MKSPBRAA00003384,38B,MKSPBRAA00003385,32B,MKSPBRAA00003386,38D,MKSPBRAA00003387,34D,MKSPBRAA00003388;1799.00;;;<p>67% polyester, 28% polyamide and 5% elastane</p>;;;;;zerotype;;Winter;;No
2326653;6493J-Navy Blue-2326653;Textured Round Neck Flute Sleeve Top;Draft;Tops;Marks & Spencer;Adults-Women;Women;;;;Fashion;;2017;20,MKSPTOPS00005181;2499.00;;;<p>92% acrylic, 8% polyester</p>;;;;;zerotype;;Winter;;No
2326651;6473J-Pink-2326651;Floral Print Round Neck Long Sleeve Tunic;Draft;Tops;Marks & Spencer;Adults-Women;Women;;;;Fashion;;2017;6,MKSPTOPS00005175,12,MKSPTOPS00005176,16,MKSPTOPS00005177;2499.00;;;<p>97% polyester, 3% elastane</p>;;;;;zerotype;;Winter;;No
2326650;6452J-Blue-2326650;Floral Print Short Sleeve T-Shirt;Draft;Tops;Marks & Spencer;Adults-Women;Women;;;;Fashion;;2017;6,MKSPTOPS00005167,8,MKSPTOPS00005168,10,MKSPTOPS00005169,12,MKSPTOPS00005170,14,MKSPTOPS00005171,16,MKSPTOPS00005172,18,MKSPTOPS00005173,20,MKSPTOPS00005174;1999.00;;;<p>92% polyester, 8% elastane</p>;;;;;zerotype;;Winter;;No
2326648;4908U-Pink-2326648;Floral Print Short Sleeve T-Shirt;Draft;Tops;Marks & Spencer;Adults-Women;Women;;;;Fashion;;2017;12,MKSPTOPS00005159,14,MKSPTOPS00005160,16,MKSPTOPS00005161,20,MKSPTOPS00005162;2499.00;;;<p>100% Viscose</p>;;;;;zerotype;;Winter;;No
2326647;4741U-Navy Blue-2326647;Floral Print Satin Front T-Shirt;Draft;Tops;Marks & Spencer;Adults-Women;Women;;;;Fashion;;2017;10,MKSPTOPS00005153,12,MKSPTOPS00005154,14,MKSPTOPS00005155,16,MKSPTOPS00005156,18,MKSPTOPS00005157,20,MKSPTOPS00005158;2499.00;;;<p>100% Polyester</p>;;;;;zerotype;;Winter;;No
2326644;4143U-Navy Blue-2326644;Embroidered Round Neck Short Sleeve Tunic;Draft;Tops;Marks & Spencer;Adults-Women;Women;;;;Fashion;;2017;10,MKSPTOPS00005138,12,MKSPTOPS00005139,14,MKSPTOPS00005140,16,MKSPTOPS00005141,18,MKSPTOPS00005142,20,MKSPTOPS00005143;2999.00;;;<p>100% Polyester</p>;;;;;zerotype;;Winter;;No
2326643;4142U-Purple-2326643;Floral Print Chiffon Hem Half Sleeve T-Shirt;Draft;Tops;Marks & Spencer;Adults-Women;Women;;;;Fashion;;2017;6,MKSPTOPS00005130,8,MKSPTOPS00005131,10,MKSPTOPS00005132,12,MKSPTOPS00005133,14,MKSPTOPS00005134,16,MKSPTOPS00005135,18,MKSPTOPS00005136,20,MKSPTOPS00005137;2999.00;;;<p>100% Viscose</p>;;;;;zerotype;;Winter;;No
2326642;3431C-Pink-2326642;Lace Front Round Neck Half Sleeve T-Shirt;Draft;Tops;Marks & Spencer;Adults-Women;Women;;;;Fashion;;2017;8,MKSPTOPS00005123,10,MKSPTOPS00005124,12,MKSPTOPS00005125,14,MKSPTOPS00005126,16,MKSPTOPS00005127,18,MKSPTOPS00005128,20,MKSPTOPS00005129;2499.00;;;<p>59% polyamide, 36% polyester and 5% elastane</p>;;;;;zerotype;;Winter;;No
2326641;3130C-GREEN-2326641;Floral Print Round Neck Long Sleeve T-Shirt;Draft;Tops;Marks & Spencer;Adults-Women;Women;;;;Fashion;;2017;8,MKSPTOPS00005117,10,MKSPTOPS00005118,12,MKSPTOPS00005119,14,MKSPTOPS00005120,16,MKSPTOPS00005121,18,MKSPTOPS00005122;1699.00;;;<p>95% viscose, 5% elastane</p>;;;;;zerotype;;Winter;;No
2326640;3115C-White-2326640;Floral Jacquard Half Sleeve Shell Top;Draft;Tops;Marks & Spencer;Adults-Women;Women;;;;Fashion;;2017;8,MKSPTOPS00005113,10,MKSPTOPS00005114,12,MKSPTOPS00005115,18,MKSPTOPS00005116;2999.00;;;<p>93% polyester, 7% elastane</p>;;;;;zerotype;;Winter;;No
2326638;2494C-Grey-2326638;Printed Frill Round Neck Long Sleeve Blouse;Draft;Tops;Marks & Spencer;Adults-Women;Women;;;;Fashion;;2017;12,MKSPTOPS00005103,14,MKSPTOPS00005104,16,MKSPTOPS00005105,18,MKSPTOPS00005106,20,MKSPTOPS00005107;1999.00;;;<p>100% Polyester</p>;;;;;zerotype;;Winter;;No
2326636;2301C-Red-2326636;Frill Front Round Neck Blouse;Draft;Tops;Marks & Spencer;Adults-Women;Women;;;;Fashion;;2017;8,MKSPTOPS00005091,10,MKSPTOPS00005092,12,MKSPTOPS00005093,14,MKSPTOPS00005094,16,MKSPTOPS00005095,18,MKSPTOPS00005096,20,MKSPTOPS00005097;2799.00;;;<p>100% Viscose</p>;;;;;zerotype;;Winter;;No
2326635;2300C-White-2326635;Floral Print Frill Front Long Sleeve Blouse;Draft;Tops;Marks & Spencer;Adults-Women;Women;;;;Fashion;;2017;8,MKSPTOPS00005088,12,MKSPTOPS00005089,20,MKSPTOPS00005090;2799.00;;;<p>100% Viscose</p>;;;;;zerotype;;Winter;;No
2326634;2285C-Purple-2326634;Floral Print Slash Neck 3/4 Sleeve Blouse;Draft;Tops;Marks & Spencer;Adults-Women;Women;;;;Fashion;;2017;8,MKSPTOPS00005081,10,MKSPTOPS00005082,12,MKSPTOPS00005083,14,MKSPTOPS00005084,16,MKSPTOPS00005085,18,MKSPTOPS00005086,20,MKSPTOPS00005087;2799.00;;;<p>100% Polyester</p>;;;;;zerotype;;Winter;;No
2326630;1232U-White-2326630;Pure Cotton Printed Tie Cuff Shirt;Draft;Tops;Marks & Spencer;Adults-Women;Women;;;;Fashion;;2017;6,MKSPTOPS00005064,12,MKSPTOPS00005065,14,MKSPTOPS00005066,16,MKSPTOPS00005067,18,MKSPTOPS00005068,20,MKSPTOPS00005069;2999.00;;;<p>100% Cotton</p>;;;;;zerotype;;Winter;;No
2326628;1221U-CREAM-2326628;Printed Satin V-Neck Long Sleeve Blouse;Draft;Tops;Marks & Spencer;Adults-Women;Women;;;;Fashion;;2017;6,MKSPTOPS00005055,8,MKSPTOPS00005056,14,MKSPTOPS00005057,16,MKSPTOPS00005058,18,MKSPTOPS00005059,20,MKSPTOPS00005060;2999.00;;;<p>100% Polyester</p>;;;;;zerotype;;Winter;;No
2326627;1124U-SOFT WHITE-2326627;Pure Cotton Cutwork Bell Sleeve Blouse;Draft;Tops;Marks & Spencer;Adults-Women;Women;;;;Fashion;;2017;16,MKSPTOPS00005053,20,MKSPTOPS00005054;2999.00;;;<p>100% Cotton</p>;;;;;zerotype;;Winter;;No
2326625;1109U-Navy Blue-2326625;Floral Print Peplum Long Sleeve Shell Top;Draft;Tops;Marks & Spencer;Adults-Women;Women;;;;Fashion;;2017;12,MKSPTOPS00005043,14,MKSPTOPS00005044,16,MKSPTOPS00005045,18,MKSPTOPS00005046,20,MKSPTOPS00005047;2499.00;;;<p>100% Viscose</p>;;;;;zerotype;;Winter;;No
2326623;7569-Black-2326623;Pure Wool Drawstring Striped V-Neck Jumper;Draft;Tops;Marks & Spencer;Adults-Women;Women;;;;Fashion;;2017;6,MKSPTOPS00005029,8,MKSPTOPS00005030,10,MKSPTOPS00005031,12,MKSPTOPS00005032,14,MKSPTOPS00005033,18,MKSPTOPS00005034,20,MKSPTOPS00005035;2999.00;;;<p>100% wool</p>;;;;;zerotype;;Winter;;No
2326622;7466-Navy Blue-2326622;Cotton Rich Colour Block 3/4 Sleeve Jumper;Draft;Tops;Marks & Spencer;Adults-Women;Women;;;;Fashion;;2017;S,MKSPTOPS00005025,M,MKSPTOPS00005026,L,MKSPTOPS00005027,XL,MKSPTOPS00005028;2499.00;;;<p>80% cotton, 17% polyamide and 3% elastane</p>;;;;;zerotype;;Winter;;No
2326621;7466-CREAM-2326621;Cotton Rich Colour Block 3/4 Sleeve Jumper;Draft;Tops;Marks & Spencer;Adults-Women;Women;;;;Fashion;;2017;S,MKSPTOPS00005021,M,MKSPTOPS00005022,L,MKSPTOPS00005023,XL,MKSPTOPS00005024;2499.00;;;<p>80% cotton, 17% polyamide and 3% elastane</p>;;;;;zerotype;;Winter;;No
2326620;7367-Red-2326620;Pure Cotton Striped Long Sleeve Blouse;Draft;Tops;Marks & Spencer;Adults-Women;Women;;;;Fashion;;2017;20,MKSPTOPS00005018;2499.00;;;<p>100% Cotton</p>;;;;;zerotype;;Winter;;No
2326619;6811-Red-2326619;6811 Ls Ruffle Blouse OU, 20;Draft;Tops;Marks & Spencer;Adults-Women;Women;;;;Fashion;;2017;20,MKSPTOPS00005017;2799.00;;;<p>100% Viscose</p>;;;;;zerotype;;Winter;;No
2326618;6719-White-2326618;Floral Print Round Neck Long Sleeve Blouse;Draft;Tops;Marks & Spencer;Adults-Women;Women;;;;Fashion;;2017;6,MKSPTOPS00005008,8,MKSPTOPS00005009,10,MKSPTOPS00005010,12,MKSPTOPS00005011,14,MKSPTOPS00005012,16,MKSPTOPS00005013,18,MKSPTOPS00005014,20,MKSPTOPS00005015;2499.00;;;<p>100% Polyester</p>;;;;;zerotype;;Winter;;No
2326617;6438-Navy Blue-2326617;Printed Frill Shoulder Long Sleeve Shell Top;Draft;Tops;Marks & Spencer;Adults-Women;Women;;;;Fashion;;2017;6,MKSPTOPS00004998,8,MKSPTOPS00004999,10,MKSPTOPS00005000,12,MKSPTOPS00005001,14,MKSPTOPS00005002,16,MKSPTOPS00005003,18,MKSPTOPS00005004,20,MKSPTOPS00005005;2499.00;;;<p>100% Polyester</p>;;;;;zerotype;;Winter;;No
2326616;6434-Navy Blue-2326616;Tie Detail V-Neck Blouse;Draft;Tops;Marks & Spencer;Adults-Women;Women;;;;Fashion;;2017;6,MKSPTOPS00004990,10,MKSPTOPS00004991,12,MKSPTOPS00004992,14,MKSPTOPS00004993,16,MKSPTOPS00004994,18,MKSPTOPS00004995,20,MKSPTOPS00004996;2799.00;;;<p>100% Polyester</p>;;;;;zerotype;;Winter;;No
2326614;6422-Gold-2326614;Metallic Notch Neck Long Sleeve Blouse;Draft;Tops;Marks & Spencer;Adults-Women;Women;;;;Fashion;;2017;6,MKSPTOPS00004981,8,MKSPTOPS00004982,10,MKSPTOPS00004983,12,MKSPTOPS00004984,14,MKSPTOPS00004985,16,MKSPTOPS00004986,18,MKSPTOPS00004987,20,MKSPTOPS00004988;2499.00;;;<p>100% Polyester</p>;;;;;zerotype;;Winter;;No
2326613;6419-MAGENTA-2326613;Satin Popover Notch Neck Long Sleeve Blouse;Draft;Tops;Marks & Spencer;Adults-Women;Women;;;;Fashion;;2017;6,MKSPTOPS00004972,8,MKSPTOPS00004973,10,MKSPTOPS00004974,12,MKSPTOPS00004975,14,MKSPTOPS00004976,16,MKSPTOPS00004977,18,MKSPTOPS00004978,20,MKSPTOPS00004979;2499.00;;;<p>100% Polyester</p>;;;;;zerotype;;Winter;;No
2326612;5803-LIME-2326612;Pure Cotton Slash Neck Ruched Sleeve Blouse;Draft;Tops;Marks & Spencer;Adults-Women;Women;;;;Fashion;;2017;6,MKSPTOPS00004963,8,MKSPTOPS00004964,10,MKSPTOPS00004965,12,MKSPTOPS00004966,14,MKSPTOPS00004967,16,MKSPTOPS00004968,18,MKSPTOPS00004969,20,MKSPTOPS00004970;2799.00;;;<p>100% Cotton</p>;;;;;zerotype;;Winter;;No
2326611;5803-Blue-2326611;Pure Cotton Slash Neck Ruched Sleeve Blouse;Draft;Tops;Marks & Spencer;Adults-Women;Women;;;;Fashion;;2017;6,MKSPTOPS00004955,8,MKSPTOPS00004956,10,MKSPTOPS00004957,12,MKSPTOPS00004958,14,MKSPTOPS00004959,16,MKSPTOPS00004960,18,MKSPTOPS00004961,20,MKSPTOPS00004962;2799.00;;;<p>100% Cotton</p>;;;;;zerotype;;Winter;;No
2326608;3385-Blue-2326608;Striped Embroidered Tie Front Blouse;Draft;Tops;Marks & Spencer;Adults-Women;Women;;;;Fashion;;2017;6,MKSPTOPS00004937,8,MKSPTOPS00004938,12,MKSPTOPS00004939,14,MKSPTOPS00004940,16,MKSPTOPS00004941,18,MKSPTOPS00004942,20,MKSPTOPS00004943;2499.00;;;<p>100% Cotton</p>;;;;;zerotype;;Winter;;No
2326606;3216-Pink-2326606;Lace Pintuk Top;Draft;Tops;Marks & Spencer;Adults-Women;Women;;;;Fashion;;2017;6,MKSPTOPS00004927,8,MKSPTOPS00004928,10,MKSPTOPS00004929,12,MKSPTOPS00004930,14,MKSPTOPS00004931,16,MKSPTOPS00004932,18,MKSPTOPS00004933,20,MKSPTOPS00004934;2799.00;;;<p>100% Viscose</p>;;;;;zerotype;;Winter;;No
2322358;5119-blue-2322358;5119 New Packet Leggin F4, 20;Draft;Thermal Bottoms;Marks & Spencer;Adults-Women;Women;;;;Fashion;;2017;8,MKSPTMBT00000046,12,MKSPTMBT00000047,14,MKSPTMBT00000048,16,MKSPTMBT00000049,18,MKSPTMBT00000050,20,MKSPTMBT00000051;1499.00;;;<p>50% viscose, 50% polyester</p>;;;;;zerotype;;Winter;;No
2322354;2021-blue-2322354;2021 SB2 PLAIN JACKET XB, 44, MED;Draft;Jackets;Marks & Spencer;Adults-Men;Men;;;;Fashion;;2017;38,MKSPJCKT00000832,40,MKSPJCKT00000833,42,MKSPJCKT00000834,44,MKSPJCKT00000835;9999.00;;;<p>50% polyester, 50% wool</p>;;;;;zerotype;;Winter;;No
2322352;2126M-BLACK-2322352;2126M MSF Knit Mix GILT Y0, XL, STD;Draft;Jackets;Marks & Spencer;Adults-Men;Men;;;;Fashion;;2017;S,MKSPJCKT00000823,M,MKSPJCKT00000824,L,MKSPJCKT00000825,XL,MKSPJCKT00000826;3499.00;;;<p>100% polyester</p>;;;;;zerotype;;Winter;;No
2322339;7062C-Turquoise Blue-2322339;7062C Louisa GOL Midi VU, 18;Draft;Briefs;Marks & Spencer;Adults-Women;Women;;;;Fashion;;2017;8,MKSPBREF00002706,10,MKSPBREF00002707,12,MKSPBREF00002708,14,MKSPBREF00002709,16,MKSPBREF00002710,18,MKSPBREF00002711;599.00;;;<p>59% cotton, 17% polyamide, 12% elastane, 7% viscose and 5% polyester</p>;;;;;zerotype;;Winter;;No
2322310;4265-multi-2322310;4265 5PK MF Strata Mid Y4, 20;Draft;Briefs;Marks & Spencer;Adults-Women;Women;;;;Fashion;;2017;8,MKSPBREF00002526,10,MKSPBREF00002527,12,MKSPBREF00002528,14,MKSPBREF00002529,16,MKSPBREF00002530,18,MKSPBREF00002531,20,MKSPBREF00002532;1299.00;;;<p>85% polyester, 15% elastane</p>;;;;;zerotype;;Winter;;No
2322309;4209-multi-2322309;4209 5PK MF Strata HL Y4, 20;Draft;Briefs;Marks & Spencer;Adults-Women;Women;;;;Fashion;;2017;8,MKSPBREF00002519,10,MKSPBREF00002520,12,MKSPBREF00002521,14,MKSPBREF00002522,16,MKSPBREF00002523,18,MKSPBREF00002524,20,MKSPBREF00002525;1299.00;;;<p>85% polyester, 15% elastane</p>;;;;;zerotype;;Winter;;No
2322308;4208-multi-2322308;4208 5PK MF Strata Bik Y4, 18;Draft;Briefs;Marks & Spencer;Adults-Women;Women;;;;Fashion;;2017;6,MKSPBREF00002512,8,MKSPBREF00002513,10,MKSPBREF00002514,12,MKSPBREF00002515,14,MKSPBREF00002516,16,MKSPBREF00002517,18,MKSPBREF00002518;1299.00;;;<p>85% polyester, 15% elastane</p>;;;;;zerotype;;Winter;;No
2322304;261-multi-2322304;0261 5PK Star Midi YZ, 20;Draft;Briefs;Marks & Spencer;Adults-Women;Women;;;;Fashion;;2017;8,MKSPBREF00002485,10,MKSPBREF00002486,12,MKSPBREF00002487,14,MKSPBREF00002488,16,MKSPBREF00002489,18,MKSPBREF00002490,20,MKSPBREF00002491;1299.00;;;<p>95% cotton, 5% elastane</p>;;;;;zerotype;;Winter;;No
2322303;260-multi-2322303;0260 5PK Cott Prnt Mid X3, 20;Draft;Briefs;Marks & Spencer;Adults-Women;Women;;;;Fashion;;2017;8,MKSPBREF00002478,10,MKSPBREF00002479,12,MKSPBREF00002480,14,MKSPBREF00002481,16,MKSPBREF00002482,18,MKSPBREF00002483,20,MKSPBREF00002484;1299.00;;;<p>100% cotton</p>;;;;;zerotype;;Winter;;No
2322300;257-multi-2322300;0257 5PK Star LRS YZ, 18;Draft;Briefs;Marks & Spencer;Adults-Women;Women;;;;Fashion;;2017;6,MKSPBREF00002457,8,MKSPBREF00002458,10,MKSPBREF00002459,12,MKSPBREF00002460,14,MKSPBREF00002461,16,MKSPBREF00002462,18,MKSPBREF00002463;1299.00;;;<p>95% cotton, 5% elastane</p>;;;;;zerotype;;Winter;;No
2322296;251-multi-2322296;0251 5PK Cott Prnt Bik X3, 18;Draft;Briefs;Marks & Spencer;Adults-Women;Women;;;;Fashion;;2017;6,MKSPBREF00002430,8,MKSPBREF00002431,10,MKSPBREF00002432,12,MKSPBREF00002433,14,MKSPBREF00002434,16,MKSPBREF00002435,18,MKSPBREF00002436;1299.00;;;<p>100% cotton</p>;;;;;zerotype;;Winter;;No
2322294;249-multi-2322294;0249 5PK Peruvian Midi XU, 14;Draft;Briefs;Marks & Spencer;Adults-Women;Women;;;;Fashion;;2017;8,MKSPBREF00002419,10,MKSPBREF00002420,12,MKSPBREF00002421,14,MKSPBREF00002422;1299.00;;;<p>95% cotton, 5% elastane</p>;;;;;zerotype;;Winter;;No
2322288;173-grey-2322288;0173 Ornate lace HL UT, 20;Draft;Briefs;Marks & Spencer;Adults-Women;Women;;;;Fashion;;2017;8,MKSPBREF00002379,10,MKSPBREF00002380,12,MKSPBREF00002381,14,MKSPBREF00002382,16,MKSPBREF00002383,18,MKSPBREF00002384,20,MKSPBREF00002385;599.00;;;<p>62% polyamide, 27% polyester and 11% elastane</p>;;;;;zerotype;;Winter;;No
2322287;9048I-black-2322287;9048I TASSLE T Y4;Draft;Tshirts;Marks & Spencer;Adults-Women;Women;;;;Fashion;;2017;6,MKSPTSHT00002758,10,MKSPTSHT00002759,12,MKSPTSHT00002760,14,MKSPTSHT00002761,16,MKSPTSHT00002762;2299.00;;;<p>100% Cotton</p>;;;;;zerotype;;Winter;;No
2322273;2023-brown-2322273;2023 Pindot Jacket, 42, MED;Draft;Jackets;Marks & Spencer;Adults-Men;Men;;;;Fashion;;2017;42,MKSPJCKT00000813;9999.00;;;<p>100% Wool</p>;;;;;zerotype;;Winter;;No
2322231;1399M-blue-2322231;1399M Comfort Stretch J XB, 38, 31;Draft;Jeans;Marks & Spencer;Adults-Men;Men;;;;Fashion;;2017;38,MKSPJENS00000948;2999.00;;;<p>91% cotton, 6% polyester and 3% elastane</p>;;;;;zerotype;;Winter;;No
2322218;3683-MULTI-2322218;3683 Fruit Print ZZ;Draft;Boxers;Marks & Spencer;Adults-Men;Men;;;;Fashion;;2017;S,MKSPBOXR00000070,M,MKSPBOXR00000071,L,MKSPBOXR00000072,XXL,MKSPBOXR00000073;1799.00;;;<p>100% cotton</p>;;;;;zerotype;;Winter;;No
2322217;3677-multi-2322217;3677 Bright Micro Chk B4;Draft;Boxers;Marks & Spencer;Adults-Men;Men;;;;Fashion;;2017;S,MKSPBOXR00000066,M,MKSPBOXR00000067,L,MKSPBOXR00000068,XL,MKSPBOXR00000069;1799.00;;;<p>100% cotton</p>;;;;;zerotype;;Winter;;No
2319993;3234M-Coffee Brown-2319993;3234M FF CR SEMI PLAIN SH, 44, 33;Draft;Trousers;Marks & Spencer;Adults-Men;Men;;;;Fashion;;2017;34,MKSPTRSR00002900,36,MKSPTRSR00002901,38,MKSPTRSR00002902,40,MKSPTRSR00002903,42,MKSPTRSR00002904,44,MKSPTRSR00002905;1999.00;;;<p>100% Polyester</p>;;;;;zerotype;;Winter;;No
2319851;9122-blue-2319851;9122  HG Polo Neck Top PE, 18;Draft;Thermal Tops;Marks & Spencer;Adults-Women;Women;;;;Fashion;;2017;6,MKSPTMTP00000164,8,MKSPTMTP00000165,10,MKSPTMTP00000166,12,MKSPTMTP00000167,14,MKSPTMTP00000168,16,MKSPTMTP00000169,18,MKSPTMTP00000170;1699.00;;;<p>68% acrylic, 27% cotton and 5% elastane</p>;;;;;zerotype;;Winter;;No
2318479;1780-black-2318479;1780 NEW 2PP SHORT Y4, L;Draft;Shorts;Marks & Spencer;Adults-Men;Men;;;;Fashion;;2017;S,MKSPSHOR00000544,M,MKSPSHOR00000545,L,MKSPSHOR00000546;1499.00;;;<p>80% cotton, 20% polyester</p>;;;;;zerotype;;Winter;;No
2310989;1011A-Blue-2310989;High Waist Skinny Leg Jeans;Draft;Jeans;Marks & Spencer;Adults-Women;Women;;;;Fashion;;2017;8,MKSPJENS00000921,10,MKSPJENS00000922,12,MKSPJENS00000923,14,MKSPJENS00000924,16,MKSPJENS00000925,18,MKSPJENS00000926;3999.00;;;<p>44% cotton, 42% lyocell, 13% polyester and 1% elastane</p>;;;;;zerotype;;Winter;;No
2310988;1011A-BLACK-2310988;High Waist Skinny Leg Jeans;Draft;Jeans;Marks & Spencer;Adults-Women;Women;;;;Fashion;;2017;8,MKSPJENS00000915,10,MKSPJENS00000916,12,MKSPJENS00000917,14,MKSPJENS00000918,16,MKSPJENS00000919,18,MKSPJENS00000920;3999.00;;;<p>44% cotton, 42% lyocell, 13% polyester and 1% elastane</p>;;;;;zerotype;;Winter;;No
2310987;0529J-Navy Blue-2310987;Gold Button Double Breasted Jacket;Draft;Coats;Marks & Spencer;Adults-Women;Women;;;;Fashion;;2017;8,MKSPCOAT00000243,10,MKSPCOAT00000244,12,MKSPCOAT00000245,14,MKSPCOAT00000246,16,MKSPCOAT00000247;5999.00;;;<p>100% Polyester</p>;;;;;zerotype;;Winter;;No
2310752;9081D-Black-2310752;Checked Short Sleeve Shift Midi Dress;Draft;Dresses;Marks & Spencer;Adults-Women;Women;;;;Fashion;;2017;6,MKSPDRSS00001401,10,MKSPDRSS00001402,12,MKSPDRSS00001403,14,MKSPDRSS00001404;4499.00;;;<p>100% Polyester</p>;;;;;zerotype;;Winter;;No
2310750;4098C-Blue-2310750;Ruched Paisley Print Shift Midi Dress;Draft;Dresses;Marks & Spencer;Adults-Women;Women;;;;Fashion;;2017;8,MKSPDRSS00001388,10,MKSPDRSS00001389,12,MKSPDRSS00001390,14,MKSPDRSS00001391,16,MKSPDRSS00001392,18,MKSPDRSS00001393,20,MKSPDRSS00001394;3999.00;;;<p>95% viscose, 5% elastane</p>;;;;;zerotype;;Winter;;No
2310749;4091C-White-2310749;Printed Tie Waist Tunic Midi Dress;Draft;Dresses;Marks & Spencer;Adults-Women;Women;;;;Fashion;;2017;8,MKSPDRSS00001382,10,MKSPDRSS00001383,12,MKSPDRSS00001384,14,MKSPDRSS00001385,16,MKSPDRSS00001386,18,MKSPDRSS00001387;4499.00;;;<p>100% Polyester</p>;;;;;zerotype;;Winter;;No
2310748;4002C-BLACK-2310748;Printed Long Sleeve Bodycon Midi Dress;Draft;Dresses;Marks & Spencer;Adults-Women;Women;;;;Fashion;;2017;8,MKSPDRSS00001376,10,MKSPDRSS00001377,12,MKSPDRSS00001378,14,MKSPDRSS00001379,16,MKSPDRSS00001380,20,MKSPDRSS00001381;4499.00;;;<p>100% Polyester</p>;;;;;zerotype;;Winter;;No
2310746;2101M-BLACK-2310746;Pinafore Crepe Culotte V-Neck Jumpsuit;Draft;Dresses;Marks & Spencer;Adults-Women;Women;;;;Fashion;;2017;8,MKSPDRSS00001367,10,MKSPDRSS00001368,12,MKSPDRSS00001369,14,MKSPDRSS00001370,16,MKSPDRSS00001371;4999.00;;;<p>100% Polyester</p>;;;;;zerotype;;Winter;;No
2310744;1002D-Black-2310744;Textured Patch Pocket Tunic Dress;Draft;Dresses;Marks & Spencer;Adults-Women;Women;;;;Fashion;;2017;6,MKSPDRSS00001359,8,MKSPDRSS00001360,10,MKSPDRSS00001361,12,MKSPDRSS00001362,14,MKSPDRSS00001363,16,MKSPDRSS00001364;4999.00;;;<p>100% Polyester</p>;;;;;zerotype;;Winter;;No
2310743;8008-MAGENTA-2310743;Tie Waist Puff Sleeve Tunic Dress;Draft;Dresses;Marks & Spencer;Adults-Women;Women;;;;Fashion;;2017;6,MKSPDRSS00001353,8,MKSPDRSS00001354,10,MKSPDRSS00001355,12,MKSPDRSS00001356,14,MKSPDRSS00001357,16,MKSPDRSS00001358;2999.00;;;<p>100% Polyester</p>;;;;;zerotype;;Winter;;No
2310741;6578-Navy Blue-2310741;Striped Button Cuff Bodycon Midi Dress;Draft;Dresses;Marks & Spencer;Adults-Women;Women;;;;Fashion;;2017;6,MKSPDRSS00001340,8,MKSPDRSS00001341,10,MKSPDRSS00001342,12,MKSPDRSS00001343,14,MKSPDRSS00001344,16,MKSPDRSS00001345,18,MKSPDRSS00001346,20,MKSPDRSS00001347,22,MKSPDRSS00001348;2499.00;;;<p>72% polyester, 23% viscose and 5% elastane</p>;;;;;zerotype;;Winter;;No
2310739;6569-Green-2310739;Cotton Rich Jacquard Print Tunic Midi Dress;Draft;Dresses;Marks & Spencer;Adults-Women;Women;;;;Fashion;;2017;12,MKSPDRSS00001335,14,MKSPDRSS00001336,16,MKSPDRSS00001337;3499.00;;;<p>71% cotton, 27% polyester and 2% elastane</p>;;;;;zerotype;;Winter;;No
2310738;6566-Maroon-2310738;Printed Long Sleeve Swing Midi Dress;Draft;Dresses;Marks & Spencer;Adults-Women;Women;;;;Fashion;;2017;12,MKSPDRSS00001332,14,MKSPDRSS00001333,16,MKSPDRSS00001334;1999.00;;;<p>95% viscose, 5% elastane</p>;;;;;zerotype;;Winter;;No
2310736;6556-BLUE-2310736;Printed 3/4 Sleeve Skater Midi Dress;Draft;Dresses;Marks & Spencer;Adults-Women;Women;;;;Fashion;;2017;6,MKSPDRSS00001324,8,MKSPDRSS00001325,10,MKSPDRSS00001326,12,MKSPDRSS00001327,14,MKSPDRSS00001328,16,MKSPDRSS00001329,18,MKSPDRSS00001330,20,MKSPDRSS00001331;3499.00;;;<p>100% Viscose</p>;;;;;zerotype;;Winter;;No
2310733;6515-BLACK-2310733;Floral Print 3/4 Sleeve Swing Dress;Draft;Dresses;Marks & Spencer;Adults-Women;Women;;;;Fashion;;2017;8,MKSPDRSS00001318,10,MKSPDRSS00001319,12,MKSPDRSS00001320,14,MKSPDRSS00001321,16,MKSPDRSS00001322,20,MKSPDRSS00001323;1999.00;;;<p>95% viscose, 5% elastane</p>;;;;;zerotype;;Winter;;No
2310731;6403-BLACK-2310731;Double Layer Tie Back Shift Dress;Draft;Dresses;Marks & Spencer;Adults-Women;Women;;;;Fashion;;2017;8,MKSPDRSS00001314,10,MKSPDRSS00001315,12,MKSPDRSS00001316,14,MKSPDRSS00001317;2999.00;;;<p>100% Polyester</p>;;;;;zerotype;;Winter;;No
2310728;6399-Purple-2310728;Bodycon Midi Dress;Draft;Dresses;Marks & Spencer;Adults-Women;Women;;;;Fashion;;2017;6,MKSPDRSS00001307,8,MKSPDRSS00001308,10,MKSPDRSS00001309,12,MKSPDRSS00001310,14,MKSPDRSS00001311,16,MKSPDRSS00001312,18,MKSPDRSS00001313;4999.00;;;<p>100% Polyester</p>;;;;;zerotype;;Winter;;No
2310721;1284-BLACK-2310721;Woven Flared Sleeve Tunic;Draft;Dresses;Marks & Spencer;Adults-Women;Women;;;;Fashion;;2017;8,MKSPDRSS00001292,10,MKSPDRSS00001293,12,MKSPDRSS00001294,14,MKSPDRSS00001295,18,MKSPDRSS00001296;3499.00;;;<p>100% Polyester</p>;;;;;zerotype;;Winter;;No
2310632;5153T-Navy Blue-2310632;Striped Round Neck 3/4 Sleeve T-Shirt;Draft;Tshirts;Marks & Spencer;Adults-Women;Women;;;;Fashion;;2017;6,MKSPTSHT00002648,8,MKSPTSHT00002649,10,MKSPTSHT00002650,12,MKSPTSHT00002651,14,MKSPTSHT00002652,16,MKSPTSHT00002653,18,MKSPTSHT00002654;2799.00;;;<p>68% viscose, 29% polyester and 3% elastane</p>;;;;;zerotype;;Winter;;No
2310627;4916U-White-2310627;Floral Print V-Neck Sleeveless Tunic;Draft;Tunics;Marks & Spencer;Adults-Women;Women;;;;Fashion;;2017;14,MKSPTNIC00000133,16,MKSPTNIC00000134,20,MKSPTNIC00000135;3499.00;;;<p>100% Polyester</p>;;;;;zerotype;;Winter;;No
2310622;8013-Black-2310622;Printed Long Sleeve Tunic Dress;Draft;Tunics;Marks & Spencer;Adults-Women;Women;;;;Fashion;;2017;6,MKSPTNIC00000100,8,MKSPTNIC00000101,10,MKSPTNIC00000102,12,MKSPTNIC00000103,14,MKSPTNIC00000104,16,MKSPTNIC00000105,18,MKSPTNIC00000106;4499.00;;;<p>64% viscose, 36% polyamide</p>;;;;;zerotype;;Winter;;No
2310621;3708-Grren-2310621;Longline Tie Sleeve Shirt;Draft;Tunics;Marks & Spencer;Adults-Women;Women;;;;Fashion;;2017;8,MKSPTNIC00000092,10,MKSPTNIC00000093,12,MKSPTNIC00000094,14,MKSPTNIC00000095,16,MKSPTNIC00000096,18,MKSPTNIC00000097,20,MKSPTNIC00000098,6,MKSPTNIC00000099;2299.00;;;<p>100% Polyester</p>;;;;;zerotype;;Winter;;No
2310620;7513J-Red-2310620;Cotton Rich Tassel Aztec Print Jacket;Draft;Jackets;Marks & Spencer;Adults-Women;Women;;;;Fashion;;2017;6,MKSPJCKT00000804,8,MKSPJCKT00000805,12,MKSPJCKT00000806,14,MKSPJCKT00000807,16,MKSPJCKT00000808;5999.00;;;<p>80% cotton, 20% acrylic</p>;;;;;zerotype;;Winter;;No
2310619;1002J-Black-2310619;Textured Contrast Hem Tweed Jacket;Draft;Jackets;Marks & Spencer;Adults-Women;Women;;;;Fashion;;2017;10,MKSPJCKT00000800,12,MKSPJCKT00000801,14,MKSPJCKT00000802,16,MKSPJCKT00000803;5999.00;;;<p>100% Polyester</p>;;;;;zerotype;;Winter;;No
2310618;0510J-Blue-2310618;Cotton Rich Textured Wave Judo Jacket;Draft;Jackets;Marks & Spencer;Adults-Women;Women;;;;Fashion;;2017;8,MKSPJCKT00000795,10,MKSPJCKT00000796,12,MKSPJCKT00000797,14,MKSPJCKT00000798,16,MKSPJCKT00000799;4999.00;;;<p>67% cotton, 31% polyester and 2% polyamide</p>;;;;;zerotype;;Winter;;No
2310617;1515S-BLACK-2310617;Split Back Pencil Skirt;Draft;Skirts;Marks & Spencer;Adults-Women;Women;;;;Fashion;;2017;6,MKSPSKRT00000227,8,MKSPSKRT00000228,10,MKSPSKRT00000229,12,MKSPSKRT00000230,14,MKSPSKRT00000231,16,MKSPSKRT00000232;1999.00;;;<p>100% Polyester</p>;;;;;zerotype;;Winter;;No
2310616;8466-TEAL-2310616;Cord Leggings;Draft;Skirts;Marks & Spencer;Adults-Women;Women;;;;Fashion;;2017;6,MKSPSKRT00000219,8,MKSPSKRT00000220,10,MKSPSKRT00000221,12,MKSPSKRT00000222,14,MKSPSKRT00000223,16,MKSPSKRT00000224,18,MKSPSKRT00000225,20,MKSPSKRT00000226;1999.00;;;<p>95% polyester, 5% elastane</p>;;;;;zerotype;;Winter;;No
2310614;7518C-Khaki-2310614;Cotton Rich Straight Leg Corduroy Trousers;Draft;Trousers;Marks & Spencer;Adults-Women;Women;;;;Fashion;;2017;6,MKSPTRSR00002871,8,MKSPTRSR00002872,10,MKSPTRSR00002873,12,MKSPTRSR00002874,14,MKSPTRSR00002875,16,MKSPTRSR00002876,18,MKSPTRSR00002877;2499.00;;;<p>98% cotton, 2% elastane</p>;;;;;zerotype;;Winter;;No
2310611;7521-Beige-2310611;Cotton Rich Corduroy Slim Leg Trousers;Draft;Trousers;Marks & Spencer;Adults-Women;Women;;;;Fashion;;2017;10,MKSPTRSR00002852,12,MKSPTRSR00002853,14,MKSPTRSR00002854,16,MKSPTRSR00002855,18,MKSPTRSR00002856,20,MKSPTRSR00002857;2499.00;;;<p>98% cotton, 2% elastane</p>;;;;;zerotype;;Winter;;No
2310610;7520-Green-2310610;Cotton Rich Straight Leg Corduroy Trousers;Draft;Trousers;Marks & Spencer;Adults-Women;Women;;;;Fashion;;2017;10,MKSPTRSR00002847,12,MKSPTRSR00002848,14,MKSPTRSR00002849,16,MKSPTRSR00002850,18,MKSPTRSR00002851;1999.00;;;<p>98% cotton, 2% elastane</p>;;;;;zerotype;;Winter;;No
2310608;6066-Black-2310608;Checked Wide Leg Trousers;Draft;Trousers;Marks & Spencer;Adults-Women;Women;;;;Fashion;;2017;6,MKSPTRSR00002842,12,MKSPTRSR00002843,14,MKSPTRSR00002844,18,MKSPTRSR00002845;2499.00;;;<p>65% polyester, 32% viscose and 3% elastane</p>;;;;;zerotype;;Winter;;No
2310606;5057-Navy Blue-2310606;Slim Leg Trousers;Draft;Trousers;Marks & Spencer;Adults-Women;Women;;;;Fashion;;2017;6,MKSPTRSR00002831,8,MKSPTRSR00002832,10,MKSPTRSR00002833,12,MKSPTRSR00002834,14,MKSPTRSR00002835,16,MKSPTRSR00002836,18,MKSPTRSR00002837,20,MKSPTRSR00002838;2499.00;;;<p>68% viscose, 28% polyamide and 4% elastane</p>;;;;;zerotype;;Winter;;No
2310604;6579-Grey-2310604;Drawstring Textured Joggers;Draft;Track Pants;Marks & Spencer;Adults-Women;Women;;;;Fashion;;2017;18,MKSPTRPT00000346,20,MKSPTRPT00000347,22,MKSPTRPT00000348;2499.00;;;<p>81% viscose, 17% polyester and 2% elastane</p>;;;;;zerotype;;Winter;;No
2310601;2496C-Pink-2310601;Printed Long Sleeve Shirt;Draft;Shirts;Marks & Spencer;Adults-Women;Women;;;;Fashion;;2017;8,MKSPSHRT00003121,10,MKSPSHRT00003122,12,MKSPSHRT00003123,14,MKSPSHRT00003124,16,MKSPSHRT00003125,18,MKSPSHRT00003126,20,MKSPSHRT00003127;2499.00;;;<p>100% Polyester</p>;;;;;zerotype;;Winter;;No
2310600;2493C-White-2310600;Geometric Print Bow Long Sleeve Shirt;Draft;Shirts;Marks & Spencer;Adults-Women;Women;;;;Fashion;;2017;8,MKSPSHRT00003114,10,MKSPSHRT00003115,12,MKSPSHRT00003116,14,MKSPSHRT00003117,16,MKSPSHRT00003118,18,MKSPSHRT00003119,20,MKSPSHRT00003120;2499.00;;;<p>100% Polyester</p>;;;;;zerotype;;Winter;;No
2310599;2428C-BLUE-2310599;Satin Notch Neck Long Sleeve Shirt;Draft;Shirts;Marks & Spencer;Adults-Women;Women;;;;Fashion;;2017;8,MKSPSHRT00003107,10,MKSPSHRT00003108,12,MKSPSHRT00003109,14,MKSPSHRT00003110,16,MKSPSHRT00003111,18,MKSPSHRT00003112,20,MKSPSHRT00003113;2799.00;;;<p>100% Polyester</p>;;;;;zerotype;;Winter;;No
2310597;2424C-White-2310597;Floral Print Satin Long Sleeve Shirt;Draft;Shirts;Marks & Spencer;Adults-Women;Women;;;;Fashion;;2017;8,MKSPSHRT00003100,10,MKSPSHRT00003101,12,MKSPSHRT00003102,14,MKSPSHRT00003103,16,MKSPSHRT00003104,18,MKSPSHRT00003105,20,MKSPSHRT00003106;2799.00;;;<p>100% Polyester</p>;;;;;zerotype;;Winter;;No
2310596;2282C-Black-2310596;Satin Spot Print Long Sleeve Shirt;Draft;Shirts;Marks & Spencer;Adults-Women;Women;;;;Fashion;;2017;8,MKSPSHRT00003090,10,MKSPSHRT00003091,12,MKSPSHRT00003092,14,MKSPSHRT00003093,16,MKSPSHRT00003094,18,MKSPSHRT00003095,20,MKSPSHRT00003096;2799.00;;;<p>100% Polyester</p>;;;;;zerotype;;Winter;;No
2310595;2280C-White-2310595;Floral Print Long Sleeve Shirt;Draft;Shirts;Marks & Spencer;Adults-Women;Women;;;;Fashion;;2017;8,MKSPSHRT00003083,10,MKSPSHRT00003084,12,MKSPSHRT00003085,14,MKSPSHRT00003086,16,MKSPSHRT00003087,18,MKSPSHRT00003088,20,MKSPSHRT00003089;2799.00;;;<p>100% Polyester</p>;;;;;zerotype;;Winter;;No
2310594;1115U-White-2310594;Floral Print Ruffle Neck Long Sleeve Blouse;Draft;Shirts;Marks & Spencer;Adults-Women;Women;;;;Fashion;;2017;12,MKSPSHRT00003079,14,MKSPSHRT00003080,16,MKSPSHRT00003081,20,MKSPSHRT00003082;3499.00;;;<p>100% Polyester</p>;;;;;zerotype;;Winter;;No
2310593;6418-Navy Blue-2310593;METALLIC SPOTTED POPOVER LONG SLEEVE;Draft;Shirts;Marks & Spencer;Adults-Women;Women;;;;Fashion;;2017;6,MKSPSHRT00003070,8,MKSPSHRT00003071,10,MKSPSHRT00003072,12,MKSPSHRT00003073,14,MKSPSHRT00003074,16,MKSPSHRT00003075,18,MKSPSHRT00003076,20,MKSPSHRT00003077;2499.00;;;<p>100% Polyester</p>;;;;;zerotype;;Winter;;No
2310592;1933-WHITE-2310592;Cotton Rich Frill Cuff Shirt;Draft;Shirts;Marks & Spencer;Adults-Women;Women;;;;Fashion;;2017;8,MKSPSHRT00003066,12,MKSPSHRT00003067,14,MKSPSHRT00003068,16,MKSPSHRT00003069;2999.00;;;<p>69% cotton, 27% polyamide and 4% elastane</p>;;;;;zerotype;;Winter;;No
2310591;7505-Green-2310591;Sparkly Ruffle Yoke Funnel Neck Jumper;Draft;Sweaters;Marks & Spencer;Adults-Women;Women;;;;Fashion;;2017;6,MKSPSWTR00002337,8,MKSPSWTR00002338,10,MKSPSWTR00002339,12,MKSPSWTR00002340,14,MKSPSWTR00002341,16,MKSPSWTR00002342,18,MKSPSWTR00002343,20,MKSPSWTR00002344;2999.00;;;<p>66% viscose, 14% polyester, 12% polyamide and 8% metallised fibres</p>;;;;;zerotype;;Winter;;No
2310590;7481-Pink-2310590;Colour Block Sparkle Hem Jumper;Draft;Sweaters;Marks & Spencer;Adults-Women;Women;;;;Fashion;;2017;S,MKSPSWTR00002333,M,MKSPSWTR00002334,L,MKSPSWTR00002335,XL,MKSPSWTR00002336;2999.00;;;<p>68% acrylic, 26% polyester, 3% elastane and 3% metallised fibres</p>;;;;;zerotype;;Winter;;No
2310588;7480-Grey-2310588;Ribbed Funnel Neck Sleeveless Jumper;Draft;Sweaters;Marks & Spencer;Adults-Women;Women;;;;Fashion;;2017;6,MKSPSWTR00002321,8,MKSPSWTR00002322,10,MKSPSWTR00002323,12,MKSPSWTR00002324,14,MKSPSWTR00002325,16,MKSPSWTR00002326,18,MKSPSWTR00002327;1499.00;;;<p>83% viscose, 17% polyamide</p>;;;;;zerotype;;Winter;;No
2310587;7480-BLACK-2310587;Ribbed Funnel Neck Sleeveless Jumper;Draft;Sweaters;Marks & Spencer;Adults-Women;Women;;;;Fashion;;2017;6,MKSPSWTR00002313,8,MKSPSWTR00002314,10,MKSPSWTR00002315,12,MKSPSWTR00002316,14,MKSPSWTR00002317,16,MKSPSWTR00002318,18,MKSPSWTR00002319,20,MKSPSWTR00002320;1499.00;;;<p>83% viscose, 17% polyamide</p>;;;;;zerotype;;Winter;;No
2310586;7479-Green-2310586;Ribbed Bubble Sleeve Round Neck Jumper;Draft;Sweaters;Marks & Spencer;Adults-Women;Women;;;;Fashion;;2017;S,MKSPSWTR00002309,M,MKSPSWTR00002310,L,MKSPSWTR00002311,XL,MKSPSWTR00002312;3499.00;;;<p>80% polyamide, 20% alpaca</p>;;;;;zerotype;;Winter;;No
2299770;7548-Grey-2299770;Pure Wool Tie Side Jumper Dress;Draft;Dresses;Marks & Spencer;Adults-Women;Women;Grey;;;Fashion;;2017;6,MKSPDRSS00001279,8,MKSPDRSS00001280,10,MKSPDRSS00001281,12,MKSPDRSS00001282,14,MKSPDRSS00001283,16,MKSPDRSS00001284,18,MKSPDRSS00001285;3999.00;;;<p>100% Merino Wool</p>;;;;;zerotype;;Winter;;No
2299767;7562-Navy Blue-2299767;Checked Open Front Coatigan;Draft;Jackets;Marks & Spencer;Adults-Women;Women;;;;Fashion;;2017;S,MKSPJCKT00000773,M,MKSPJCKT00000774,L,MKSPJCKT00000775,XL,MKSPJCKT00000776;3499.00;;;<p>75% acrylic, 21% polyester and 4% elastane</p>;;;;;zerotype;;Winter;;No
2299763;6709J-GREY-2299763;Cotton Rich Hooded Neck Sweatshirt;Draft;Sweatshirts;Marks & Spencer;Adults-Women;Women;;;;Fashion;;2017;12,MKSPSWSH00000499,14,MKSPSWSH00000500,16,MKSPSWSH00000501,18,MKSPSWSH00000502,20,MKSPSWSH00000503;2499.00;;;<p>67% cotton, 33% polyester</p>;;;;;zerotype;;Winter;;No
2299751;9808P-Grey-2299751;Active Funnel Neck Top;Draft;Sweaters;Marks & Spencer;Adults-Men;Men;;;;Fashion;;2017;M,MKSPSWTR00002305,L,MKSPSWTR00002306,XL,MKSPSWTR00002307,XXL,MKSPSWTR00002308;2999.00;;;<p>48% polyamide, 45% polyester and 7% elastane</p>;;;;;zerotype;;Winter;;No
2299748;7454B-Blue-2299748;Pure Cotton Colour Block Slash Neck Jumper;Draft;Sweaters;Marks & Spencer;Adults-Women;Women;;;;Fashion;;2017;S,MKSPSWTR00002293,M,MKSPSWTR00002294,L,MKSPSWTR00002295,XL,MKSPSWTR00002296;1999.00;;;<p>100% cotton</p>;;;;;zerotype;;Winter;;No
2299745;6798J-Burgundy-2299745;Tie Cuff Round Neck Long Sleeve Sweatshirt;Draft;Sweaters;Marks & Spencer;Adults-Women;Women;;;;Fashion;;2017;12,MKSPSWTR00002279,14,MKSPSWTR00002280,16,MKSPSWTR00002281,18,MKSPSWTR00002282;2499.00;;;<p>65% viscose, 30% polyester and 5% elastane</p>;;;;;zerotype;;Winter;;No
2299744;6493J-Multi-2299744;Textured Round Neck Flute Sleeve Top;Draft;Sweaters;Marks & Spencer;Adults-Women;Women;;;;Fashion;;2017;12,MKSPSWTR00002275,14,MKSPSWTR00002276,16,MKSPSWTR00002277,18,MKSPSWTR00002278;2499.00;;;<p>92% acrylic, 8% polyester</p>;;;;;zerotype;;Winter;;No
2299741;6438J-PINK-2299741;Round Neck Ruffle Sleeve Sweatshirt;Draft;Sweaters;Marks & Spencer;Adults-Women;Women;;;;Fashion;;2017;6,MKSPSWTR00002259,8,MKSPSWTR00002260,10,MKSPSWTR00002261,12,MKSPSWTR00002262,14,MKSPSWTR00002263,16,MKSPSWTR00002264,18,MKSPSWTR00002265;2299.00;;;<p>97% polyester, 3% elastane</p>;;;;;zerotype;;Winter;;No
2299740;6438J-Navy Blue-2299740;Round Neck Ruffle Sleeve Sweatshirt;Draft;Sweaters;Marks & Spencer;Adults-Women;Women;;;;Fashion;;2017;6,MKSPSWTR00002252,8,MKSPSWTR00002253,10,MKSPSWTR00002254,12,MKSPSWTR00002255,14,MKSPSWTR00002256,16,MKSPSWTR00002257,18,MKSPSWTR00002258,20,MKSPSWTR00002346;2299.00;;;<p>97% polyester, 3% elastane</p>;;;;;zerotype;;Winter;;No
2299739;6378U-Blue-2299739;Ribbed Open Front Cardigan;Draft;Sweaters;Marks & Spencer;Adults-Women;Women;;;;Fashion;;2017;8,MKSPSWTR00002246,10,MKSPSWTR00002247,12,MKSPSWTR00002248,14,MKSPSWTR00002249,16,MKSPSWTR00002250,18,MKSPSWTR00002251;2999.00;;;<p>69% viscose, 31% acrylic</p>;;;;;zerotype;;Winter;;No
2299737;5810C-MAGENTA-2299737;Cashmilona Round Neck Cardigan;Draft;Sweaters;Marks & Spencer;Adults-Women;Women;;;;Fashion;;2017;6,MKSPSWTR00002238,8,MKSPSWTR00002239,10,MKSPSWTR00002240;1699.00;;;<p>100% Acrylic</p>;;;;;zerotype;;Winter;;No
2299735;5615C-Green-2299735;Cowl Neck Jumper;Draft;Sweaters;Marks & Spencer;Adults-Women;Women;;;;Fashion;;2017;6,MKSPSWTR00002225,8,MKSPSWTR00002226,10,MKSPSWTR00002227,12,MKSPSWTR00002228,14,MKSPSWTR00002229,16,MKSPSWTR00002230,18,MKSPSWTR00002231;1699.00;;;<p>100% acrylic</p>;;;;;zerotype;;Winter;;No
2299721;7807-Grey-2299721;Tie Front V-Neck Jumper;Draft;Sweaters;Marks & Spencer;Adults-Women;Women;;;;Fashion;;2017;6,MKSPSWTR00002160,8,MKSPSWTR00002161,10,MKSPSWTR00002162,12,MKSPSWTR00002163,14,MKSPSWTR00002164,16,MKSPSWTR00002165;2499.00;;;<p>60% viscose, 35% polyamide and 5% wool</p>;;;;;zerotype;;Winter;;No
2299720;7807-Gold-2299720;Tie Front V-Neck Jumper;Draft;Sweaters;Marks & Spencer;Adults-Women;Women;;;;Fashion;;2017;6,MKSPSWTR00002153,8,MKSPSWTR00002154,10,MKSPSWTR00002155,12,MKSPSWTR00002156,14,MKSPSWTR00002157,16,MKSPSWTR00002158,18,MKSPSWTR00002159;2499.00;;;<p>60% viscose, 35% polyamide and 5% wool</p>;;;;;zerotype;;Winter;;No
2299719;7807-CREAM-2299719;Tie Front V-Neck Jumper;Draft;Sweaters;Marks & Spencer;Adults-Women;Women;;;;Fashion;;2017;8,MKSPSWTR00002147,10,MKSPSWTR00002148,12,MKSPSWTR00002149,14,MKSPSWTR00002150,16,MKSPSWTR00002151,18,MKSPSWTR00002152,20,MKSPSWTR00002345;2499.00;;;<p>60% viscose, 35% polyamide and 5% wool</p>;;;;;zerotype;;Winter;;No
2299718;5677-Grey-2299718;Line Floral Print Round Neck Cardigan;Draft;Sweaters;Marks & Spencer;Adults-Women;Women;;;;Fashion;;2017;6,MKSPSWTR00002140,8,MKSPSWTR00002141,10,MKSPSWTR00002142,12,MKSPSWTR00002143,14,MKSPSWTR00002144,16,MKSPSWTR00002145,18,MKSPSWTR00002146;2499.00;;;<p>82% viscose, 18% polyamide</p>;;;;;zerotype;;Winter;;No
2252465;2303C-Navy Blue-2252465;Pintuck Long Sleeve Shirt;On Hold - Sample;Shirts;Marks & Spencer;Adults-Women;Women;;;;Fashion;;2017;10,MKSPSHRT00002926,12,MKSPSHRT00002927,14,MKSPSHRT00002928,16,MKSPSHRT00002929,8,MKSPSHRT00003097,18,MKSPSHRT00003098,20,MKSPSHRT00003099;2799.00;;;<p>100% Polyester</p>;;;;;zerotype;;Winter;Broken size;No
2251141;6448J-BERRY-2251141;Metallic Knot Front Long Sleeve T-Shirt;On Hold - Sample;Tops;Marks & Spencer;Adults-Women;Women;;;;Fashion;;2017;10,MKSPTOPS00004862,12,MKSPTOPS00004863,14,MKSPTOPS00004864,16,MKSPTOPS00004865;1999.00;;;<p>65% Viscose, 30% Polyester, 5% Elastane</p>;;;;;zerotype;;Winter;Broken size;No
2251132;2300C-IVORY MIX-2251132;FLORAL PRINT FRILL FRONT LONG SLEEVE BLOUSE;On Hold - Sample;Tops;Marks & Spencer;Adults-Women;Women;;;;Fashion;;2017;10,MKSPTOPS00004806,14,MKSPTOPS00004807,16,MKSPTOPS00004808,18,MKSPTOPS00004809;2799.00;;;<p>100% VISCOSE</p>;;;;;zerotype;;Winter;Broken size;No
2251089;8006-GREY-2251089;Marble Print Fleece Jacket;On Hold - Sample;Jackets;Marks & Spencer;Adults-Women;Women;;;;Fashion;;2017;10,MKSPJCKT00000661,12,MKSPJCKT00000662,14,MKSPJCKT00000663,16,MKSPJCKT00000664,18,MKSPJCKT00000665,8,MKSPJCKT00000779,20,MKSPJCKT00000791;1999.00;;;<p>100% Polyester</p>;;;;;zerotype;;Winter;Broken size;No
2240002;1000540810003-M STONE-2240002;aLL Mens Denim;Inactive - PMM - Category;Jeans;aLL;Adults-Men;Men;Grey;;;Fashion;;2017;3,ALLAJENS00000489;2699.00;;;<p>HAND WASH SEPARATELY IN COLD WATER, WASH INSIDE OUT, COLOUR MAY BLEED, DO NOT SOAK, BLEACH,WRING, HAND DRY IN SHADE, WARM IRON, DO NOT IRON ON ENBELLISHMENTS</p>;;;;;zerotype;;Spring;BV Not received;No
2239998;1000540751003-INDIGO-2239998;aLL Mens Denim;Inactive - PMM - Category;Jeans;aLL;Adults-Men;Men;Blue;;;Fashion;;2017;3,ALLAJENS00000485;2699.00;;;<p>HAND WASH SEPARATELY IN COLD WATER, WASH INSIDE OUT, COLOUR MAY BLEED, DO NOT SOAK, BLEACH,WRING, HAND DRY IN SHADE, WARM IRON, DO NOT IRON ON ENBELLISHMENTS</p>;;;;;zerotype;;Spring;BV Not received;No
2239974;1000451655003-DARK INDIGO-2239974;aLL Mens Denim;Inactive - PMM - Category;Jeans;aLL;Adults-Men;Men;Blue;;;Fashion;;2017;3,ALLAJENS00000461;2899.00;;;<p>HAND WASH SEPARATELY IN COLD WATER, WASH INSIDE OUT, COLOUR MAY BLEED, DO NOT SOAK, BLEACH,WRING, HAND DRY IN SHADE, WARM IRON, DO NOT IRON ON ENBELLISHMENTS</p>;;;;;zerotype;;Spring;BV Not received;No
2239953;1000451494002-DARK INDIGO-2239953;aLL Mens Denim;Inactive - PMM - Category;Jeans;aLL;Adults-Men;Men;Blue;;;Fashion;;2017;2,ALLAJENS00000440;2849.00;;;<p>HAND WASH SEPARATELY IN COLD WATER, WASH INSIDE OUT, COLOUR MAY BLEED, DO NOT SOAK, BLEACH,WRING, HAND DRY IN SHADE, WARM IRON, DO NOT IRON ON ENBELLISHMENTS</p>;;;;;zerotype;;Spring;BV Not received;No
2239938;1000546440003-PISTACHIO-2239938;aLL Mens Wovens;On Hold - Sample;Shirts;aLL;Adults-Men;Men;Green;;;Fashion;Casual;2017;3,ALLASHRT00000888;1499.00;Green solid casual shirt, has a spread collar, button placket, 1 pocket, long sleeves, straight hem;You'll love the design of this high-fashion aLL shirt.  You'll love putting this green piece on with some trainers and chinos for the perfect outdoor activity with your friends.;Cotton<br> Machine-wash;Super Regular Fit<br> The model (height 6') is wearing a size M;;aLL Men Green Super Regular Fit Solid Casual Shirt;aLL;zerotype;;Spring;Broken size;No
2239922;1000545760001-GREEN-2239922;aLL Mens Wovens;On Hold - Sample;Shirts;aLL;Adults-Men;Men;Green;Red;;Fashion;Casual;2017;1,ALLASHRT00000872;1799.00;Green and red checked casual shirt, has a spread collar, button placket, 1 pocket, long sleeves, straight hem;For year-round comfort and style, opt for this top-notch shirt from aLL.  For a night at the movies or casual dinner date, team this green shirt with slim trousers and light jacket.;Cotton<br> Machine-wash;Classic Regular Fit<br> The model (height 6') is wearing a size M;;aLL Men Green & Red Regular Fit Checked Casual Shirt;aLL;zerotype;;Spring;Broken size;No
2239913;1000545750003-S BLUE-2239913;aLL Mens Wovens;PreActive;Shirts;aLL;Adults-Men;Men;Navy Blue;;;Fashion;Casual;2017;3,ALLASHRT00000863;1499.00;Navy blue solid formal shirt, has a spread collar, button placket, 1 pocket, long sleeves, curved hem;Sharpen up your style with this in-style shirt by aLL.  Pair this navy blue piece with chinos and canvas shoes when you're going to brunch with your family.;100% cotton<br />Machine-wash;Comfort Regular Fit<br />The model (height 6') is wearing a size 3XL;;aLL Men Navy Comfort Regular Fit Solid Formal Shirt;aLL;zerotype;;Spring;;No
2219212;1253U-pink-2219212;1253U NI Bengal Stripe A1, 17.5;Inactive - PMM - Category;Shirts;Marks & Spencer;Adults-Men;Men;Burgundy;White;;Fashion;Formal;2017;S,MKSPSHRT00002866,M,MKSPSHRT00002867,L,MKSPSHRT00002868,XL,MKSPSHRT00002869,XXL,MKSPSHRT00002870,15,MKSPSHRT00003164,15.5,MKSPSHRT00003165,16,MKSPSHRT00003166,16.5,MKSPSHRT00003167,17,MKSPSHRT00003168,17.5,MKSPSHRT00003169;2499.00;Burgundy and white striped casual shirt, has a spread collar, button placket, 1 pocket, long sleeves, curved hem;Keep warm on the coldest of days with this top-of-the-line shirt by Marks & Spencer.  This burgundy piece can be worn with dark wash jeans and Chelsea boots when you're going to an after-work happy hour.;<p>100% cotton</p>;Regular fit<br />The model (height 6') is wearing a size 40;;Marks & Spencer Men Burgundy & White Regular Fit Striped Casual Shirt;Marks & Spencer;zerotype;;Winter;Duplicate Sizes created- 2 diff size format;No
2024261;8605-blue-2024261;8605 HIGH WAISTED SS E5, REG;Inactive - PMM - Category;Jeans;Marks & Spencer;Adults-Women;Women;Navy Blue;;;Fashion;Casual;2017;UK8,MKSPJENS00000717,UK10,MKSPJENS00000718,UK12,MKSPJENS00000719,UK14,MKSPJENS00000720,UK16,MKSPJENS00000721,UK18,MKSPJENS00000722,UK6,MKSPJENS00000783,10,MKSPJENS00000959,12,MKSPJENS00000960,14,MKSPJENS00000961,16,MKSPJENS00000962,18,MKSPJENS00000963;1999.00;Navy dark wash 2-pocket high-rise jeans, clean look with no fade, has a button and zip closure, without belt loops waistband;Flaunt your figure in these Marks & Spencer jeans. Match them with a basic white tee and jewellery for a trendy ensemble.;<p>72% cotton, 25% polyester and 3% elastane</p>;Super-skinny fit<br />Stretchable<br />The model (height 5'8") is wearing a size 29;;Marks & Spencer Women Navy Super-Skinny Fit High-Rise Clean Look Stretchable Jeans;Marks & Spencer,BV,international-brands-new,aw17-new-season,marks-spencer-new,marks-spencer-bbd,bbd17-coupon-offer,coupon-offer-diwali17,new-season-diwali17,express-delivery-17,try-and-buy-17;zerotype;;Winter;Sizing Attributes Not Shared;No
