Style ID;Vendor Article Number;Vendor Article Name;Active Status;Article type;Brand;Age Group;Gender;Base Colour;Colour1;Colour2;Fashion Type;Usage;Year;Size - SKU code pair;MRP;Style Description;Style Note;Materials and Care Description;Size and Fit Description;Size Chart Path;Product Display Name;Tags;Product Type;Classification Brand;Season;Comments;Upload Images
2286531;MBDTF021-Blue-2286531;High Star Shorts MBDTF021;Draft;Shorts;High Star;Adults-Men;Men;Blue;;;Core;Casual;2017;34,HSTRSHOR00000148,32,HSTRSHOR00000149,38,HSTRSHOR00000150,36,HSTRSHOR00000151,30,HSTRSHOR00000152,28,HSTRSHOR00000153;2199.00;;;<p> 100%Cotton  <br>Machine  wash in cold water</p>;;;MBDTF02134;;zerotype;;Winter;;No
2286529;HSTF003-Blue-2286529;High Star Shorts HSTF003;Draft;Shorts;High Star;Adults-Men;Men;Blue;;;Core;Casual;2017;36,HSTRSHOR00000142,34,HSTRSHOR00000143,38,HSTRSHOR00000144,32,HSTRSHOR00000145,28,HSTRSHOR00000146,30,HSTRSHOR00000147;2199.00;;;<p> 100%Cotton  <br>Machine  wash in cold water</p>;;;HSTF00336;;zerotype;;Winter;;No
2286528;HSTF001-Blue-2286528;High Star Shorts HSTF001;Draft;Shorts;High Star;Adults-Men;Men;Blue;;;Core;Casual;2017;38,HSTRSHOR00000136,30,HSTRSHOR00000137,36,HSTRSHOR00000138,28,HSTRSHOR00000139,34,HSTRSHOR00000140,32,HSTRSHOR00000141;2199.00;;;<p> 100%Cotton  <br>Machine  wash in cold water</p>;;;HSTF00138;;zerotype;;Winter;;No
2286527;MBD311-Blue-2286527;High Star Jeans MBD311;Draft;Jeans;High Star;Adults-Men;Men;Blue;;;Core;Casual;2017;36,HSTRJENS00002519,34,HSTRJENS00002520,32,HSTRJENS00002521,30,HSTRJENS00002522,28,HSTRJENS00002523;2399.00;;;<p>Blended<br>Machine  wash in cold water</p>;;;MBD31136;;zerotype;;Winter;;No
2286525;MBDFK353-Blue-2286525;High Star Jeans MBDFK353;Draft;Jeans;High Star;Adults-Men;Men;Blue;;;Core;Casual;2017;34,HSTRJENS00002513,32,HSTRJENS00002514,30,HSTRJENS00002515,28,HSTRJENS00002516,38,HSTRJENS00002517,36,HSTRJENS00002518;1999.00;;;<p>Blended<br>Machine  wash in cold water</p>;;;MBDFK35334;;zerotype;;Winter;;No
2286524;MBDFK339-Blue-2286524;High Star Denim Jeans MBD337;Draft;Jeans;High Star;Adults-Men;Men;Blue;;;Core;Casual;2017;36,HSTRJENS00002508,34,HSTRJENS00002509,32,HSTRJENS00002510,30,HSTRJENS00002511,28,HSTRJENS00002512;2255.00;;;<p>Blended<br>Machine  wash in cold water</p>;;;MBDFK33936;;zerotype;;Winter;;No
2286522;MBDFK349-Blue-2286522;High Star Jeans MBDFK349;Draft;Jeans;High Star;Adults-Men;Men;Blue;;;Core;Casual;2017;30,HSTRJENS00002502,32,HSTRJENS00002503,28,HSTRJENS00002504,34,HSTRJENS00002505,36,HSTRJENS00002506,38,HSTRJENS00002507;1999.00;;;<p>Blended<br>Machine  wash in cold water</p>;;;MBDFK34930;;zerotype;;Winter;;No
2286521;MBDFK355-Blue-2286521;High Star Jeans MBDFK355;Draft;Jeans;High Star;Adults-Men;Men;Blue;;;Core;Casual;2017;38,HSTRJENS00002496,34,HSTRJENS00002497,32,HSTRJENS00002498,30,HSTRJENS00002499,28,HSTRJENS00002500,36,HSTRJENS00002501;1999.00;;;<p>Blended<br>Machine  wash in cold water</p>;;;MBDFK35538;;zerotype;;Winter;;No
2286520;MBDFK361-Blue-2286520;High Star Jeans MBDFK361;Draft;Jeans;High Star;Adults-Men;Men;Blue;;;Core;Casual;2017;30,HSTRJENS00002490,28,HSTRJENS00002491,38,HSTRJENS00002492,36,HSTRJENS00002493,34,HSTRJENS00002494,32,HSTRJENS00002495;1999.00;;;<p>Blended<br>Machine  wash in cold water</p>;;;MBDFK36130;;zerotype;;Winter;;No
2286519;MBD336-Blue-2286519;High Star Knittd Denim Jeans MBD336;Draft;Jeans;High Star;Adults-Men;Men;Blue;;;Fashion;Casual;2017;36,HSTRJENS00002485,34,HSTRJENS00002486,32,HSTRJENS00002487,30,HSTRJENS00002488,28,HSTRJENS00002489;2399.00;;;<p>Knitted Cotton Denim<br>Machine  wash in cold water</p>;;;MBD33636;;zerotype;;Winter;;No
2286518;MBDFK352-Blue-2286518;High Star Jeans MBDFK352;Draft;Jeans;High Star;Adults-Men;Men;Blue;;;Core;Casual;2017;30,HSTRJENS00002479,28,HSTRJENS00002480,38,HSTRJENS00002481,36,HSTRJENS00002482,34,HSTRJENS00002483,32,HSTRJENS00002484;1999.00;;;<p>Blended<br>Machine  wash in cold water</p>;;;MBDFK35230;;zerotype;;Winter;;No
2286517;MBDFK358-Blue-2286517;High Star Jeans MBDFK358;Draft;Jeans;High Star;Adults-Men;Men;Blue;;;Core;Casual;2017;38,HSTRJENS00002473,36,HSTRJENS00002474,34,HSTRJENS00002475,32,HSTRJENS00002476,30,HSTRJENS00002477,28,HSTRJENS00002478;1999.00;;;<p>Blended<br>Machine  wash in cold water</p>;;;MBDFK35838;;zerotype;;Winter;;No
2286516;MBDFK338-Blue-2286516;High Star Denim Jeans MBD337;Draft;Jeans;High Star;Adults-Men;Men;Blue;;;Core;Casual;2017;36,HSTRJENS00002468,34,HSTRJENS00002469,32,HSTRJENS00002470,30,HSTRJENS00002471,28,HSTRJENS00002472;2255.00;;;<p>Blended<br>Machine  wash in cold water</p>;;;MBDFK33836;;zerotype;;Winter;;No
2286515;MBDFK360-Blue-2286515;High Star Jeans MBDFK360;Draft;Jeans;High Star;Adults-Men;Men;Blue;;;Core;Casual;2017;32,HSTRJENS00002462,38,HSTRJENS00002463,30,HSTRJENS00002464,28,HSTRJENS00002465,36,HSTRJENS00002466,34,HSTRJENS00002467;1999.00;;;<p>Blended<br>Machine  wash in cold water</p>;;;MBDFK36032;;zerotype;;Winter;;No
2286514;MBDNR369-Blue-2286514;High Star Jeans MBDNR369;Draft;Jeans;High Star;Adults-Men;Men;Blue;;;Core;Casual;2017;38,HSTRJENS00002456,34,HSTRJENS00002457,32,HSTRJENS00002458,30,HSTRJENS00002459,36,HSTRJENS00002460,28,HSTRJENS00002461;2399.00;;;<p>Blended<br>Machine  wash in cold water</p>;;;MBDNR36938;;zerotype;;Winter;;No
2286513;MBDFK351-Blue-2286513;High Star Jeans MBDFK351;Draft;Jeans;High Star;Adults-Men;Men;Blue;;;Core;Casual;2017;30,HSTRJENS00002450,28,HSTRJENS00002451,38,HSTRJENS00002452,36,HSTRJENS00002453,34,HSTRJENS00002454,32,HSTRJENS00002455;1999.00;;;<p>Blended<br>Machine  wash in cold water</p>;;;MBDFK35130;;zerotype;;Winter;;No
2286512;MBDFK350-Blue-2286512;High Star Jeans MBDFK350;Draft;Jeans;High Star;Adults-Men;Men;Blue;;;Core;Casual;2017;38,HSTRJENS00002444,32,HSTRJENS00002445,30,HSTRJENS00002446,36,HSTRJENS00002447,34,HSTRJENS00002448,28,HSTRJENS00002449;1999.00;;;<p>Blended<br>Machine  wash in cold water</p>;;;MBDFK35038;;zerotype;;Winter;;No
2286511;MBDFK356-Blue-2286511;High Star Jeans MBDFK356;Draft;Jeans;High Star;Adults-Men;Men;Blue;;;Core;Casual;2017;32,HSTRJENS00002438,30,HSTRJENS00002439,28,HSTRJENS00002440,38,HSTRJENS00002441,36,HSTRJENS00002442,34,HSTRJENS00002443;1999.00;;;<p>Blended<br>Machine  wash in cold water</p>;;;MBDFK35632;;zerotype;;Winter;;No
2286510;MBDM365-Blue-2286510;High Star Jeans MBDM365;Draft;Jeans;High Star;Adults-Men;Men;Blue;;;Fashion;Casual;2017;32,HSTRJENS00002432,30,HSTRJENS00002433,28,HSTRJENS00002434,36,HSTRJENS00002435,38,HSTRJENS00002436,34,HSTRJENS00002437;2799.00;;;<p>Cotton Lycra<br>Machine  wash in cold water</p>;;;MBDM36532;;zerotype;;Winter;;No
2286509;MBDFK357-Blue-2286509;High Star Jeans MBDFK357;Draft;Jeans;High Star;Adults-Men;Men;Blue;;;Core;Casual;2017;38,HSTRJENS00002426,28,HSTRJENS00002427,36,HSTRJENS00002428,34,HSTRJENS00002429,32,HSTRJENS00002430,30,HSTRJENS00002431;1999.00;;;<p>Blended<br>Machine  wash in cold water</p>;;;MBDFK35738;;zerotype;;Winter;;No
2286508;MBDM366-Blue-2286508;High Star Jeans MBDM366;Draft;Jeans;High Star;Adults-Men;Men;Blue;;;Fashion;Casual;2017;38,HSTRJENS00002420,34,HSTRJENS00002421,36,HSTRJENS00002422,30,HSTRJENS00002423,28,HSTRJENS00002424,32,HSTRJENS00002425;2799.00;;;<p>Cotton Lycra<br>Machine  wash in cold water</p>;;;MBDM36638;;zerotype;;Winter;;No
2286507;MBDFK354-Blue-2286507;High Star Jeans MBDFK354;Draft;Jeans;High Star;Adults-Men;Men;Blue;;;Core;Casual;2017;38,HSTRJENS00002414,36,HSTRJENS00002415,34,HSTRJENS00002416,32,HSTRJENS00002417,30,HSTRJENS00002418,28,HSTRJENS00002419;1999.00;;;<p>Blended<br>Machine  wash in cold water</p>;;;MBDFK35438;;zerotype;;Winter;;No
2286506;MBDM363-Blue-2286506;High Star Jeans MBDM363;Draft;Jeans;High Star;Adults-Men;Men;Blue;;;Fashion;Casual;2017;36,HSTRJENS00002408,38,HSTRJENS00002409,34,HSTRJENS00002410,32,HSTRJENS00002411,30,HSTRJENS00002412,28,HSTRJENS00002413;2799.00;;;<p>Cotton Lycra<br>Machine  wash in cold water</p>;;;MBDM36336;;zerotype;;Winter;;No
2286505;MBDA293-Blue-2286505;High Star Jeans MBDA293;Draft;Jeans;High Star;Adults-Men;Men;Blue;;;Core;Casual;2017;38,HSTRJENS00002402,36,HSTRJENS00002403,34,HSTRJENS00002404,32,HSTRJENS00002405,30,HSTRJENS00002406,28,HSTRJENS00002407;2399.00;;;<p>Blended<br>Machine  wash in cold water</p>;;;MBDA29338;;zerotype;;Winter;;No
2286504;MBD337-Blue-2286504;High Star Knittd Denim Jeans MBD337;Draft;Jeans;High Star;Adults-Men;Men;Blue;;;Fashion;Casual;2017;36,HSTRJENS00002397,34,HSTRJENS00002398,32,HSTRJENS00002399,30,HSTRJENS00002400,28,HSTRJENS00002401;2399.00;;;<p>Knitted Cotton Denim<br>Machine  wash in cold water</p>;;;MBD33736;;zerotype;;Winter;;No
2286503;MBDFK362-Blue-2286503;High Star Jeans MBDFK362;Draft;Jeans;High Star;Adults-Men;Men;Blue;;;Core;Casual;2017;28,HSTRJENS00002391,38,HSTRJENS00002392,36,HSTRJENS00002393,34,HSTRJENS00002394,32,HSTRJENS00002395,30,HSTRJENS00002396;1999.00;;;<p>Blended<br>Machine  wash in cold water</p>;;;MBDFK36228;;zerotype;;Winter;;No
2286502;MBDM368-Blue-2286502;High Star Jeans MBDM368;Draft;Jeans;High Star;Adults-Men;Men;Blue;;;Fashion;Casual;2017;36,HSTRJENS00002385,38,HSTRJENS00002386,34,HSTRJENS00002387,32,HSTRJENS00002388,30,HSTRJENS00002389,28,HSTRJENS00002390;2799.00;;;<p>Cotton Lycra<br>Machine  wash in cold water</p>;;;MBDM36836;;zerotype;;Winter;;No
2286501;MBDM364-Blue-2286501;High Star Jeans MBDM364;Draft;Jeans;High Star;Adults-Men;Men;Blue;;;Fashion;Casual;2017;34,HSTRJENS00002379,32,HSTRJENS00002380,30,HSTRJENS00002381,28,HSTRJENS00002382,38,HSTRJENS00002383,36,HSTRJENS00002384;2799.00;;;<p>Cotton Lycra<br>Machine  wash in cold water</p>;;;MBDM36434;;zerotype;;Winter;;No
2286500;MBDFK359-Blue-2286500;High Star Jeans MBDFK359;Draft;Jeans;High Star;Adults-Men;Men;Blue;;;Core;Casual;2017;36,HSTRJENS00002373,38,HSTRJENS00002374,28,HSTRJENS00002375,30,HSTRJENS00002376,32,HSTRJENS00002377,34,HSTRJENS00002378;1999.00;;;<p>Blended<br>Machine  wash in cold water</p>;;;MBDFK35936;;zerotype;;Winter;;No
2286499;MBDM367-Blue-2286499;High Star Jeans MBDM367;Draft;Jeans;High Star;Adults-Men;Men;Blue;;;Fashion;Casual;2017;28,HSTRJENS00002367,38,HSTRJENS00002368,36,HSTRJENS00002369,34,HSTRJENS00002370,32,HSTRJENS00002371,30,HSTRJENS00002372;2799.00;;;<p>Cotton Lycra<br>Machine  wash in cold water</p>;;;MBDM36728;;zerotype;;Winter;;No
