Style ID;Vendor Article Number;Vendor Article Name;Active Status;Article type;Brand;Age Group;Gender;Base Colour;Colour1;Colour2;Fashion Type;Usage;Year;Size - SKU code pair;MRP;Style Description;Style Note;Materials and Care Description;Size and Fit Description;Size Chart Path;Product Display Name;Tags;Product Type;Classification Brand;Season;Comments;Upload Images
1830166;SS17-SETSLD-152-Green Green-1830166;Girls Coordinates (clothing sets);Draft;Clothing Set;Soul Fairy;Kids-Girls;Girls;;;;Fashion;Casual;2017;2-3Y,SLRYCLST00000161,3-4Y,SLRYCLST00000162,5-6Y,SLRYCLST00000163,7-8Y,SLRYCLST00000164;1499.00;;;;;;;;zerotype;;Summer;;No
1830165;SS17-SETSLD-152-Green Green-1830165;Girls Coordinates (clothing sets);Draft;Clothing Set;Soul Fairy;Kids-Girls;Girls;;;;Fashion;Casual;2017;0-6M,SLRYCLST00000157,6-12M,SLRYCLST00000158,12-18M,SLRYCLST00000159,18-24M,SLRYCLST00000160;1399.00;;;;;;;;zerotype;;Summer;;No
1830164;SS17-SETSLD-154-PEACH PEACH-1830164;Girls Coordinates (clothing sets);Draft;Clothing Set;Soul Fairy;Kids-Girls;Girls;;;;Fashion;Casual;2017;2-3Y,SLRYCLST00000153,3-4Y,SLRYCLST00000154,5-6Y,SLRYCLST00000155,7-8Y,SLRYCLST00000156;1499.00;;;;;;;;zerotype;;Summer;;No
1830163;SS17-SETSLD-154-PEACH PEACH-1830163;Girls Coordinates (clothing sets);Draft;Clothing Set;Soul Fairy;Kids-Girls;Girls;;;;Fashion;Casual;2017;0-6M,SLRYCLST00000149,6-12M,SLRYCLST00000150,12-18M,SLRYCLST00000151,18-24M,SLRYCLST00000152;1399.00;;;;;;;;zerotype;;Summer;;No
1830162;SS17-SETSLD-156-Red Navy Blue-1830162;Girls Coordinates (clothing sets);Draft;Clothing Set;Soul Fairy;Kids-Girls;Girls;;;;Fashion;Casual;2017;2-3Y,SLRYCLST00000145,3-4Y,SLRYCLST00000146,5-6Y,SLRYCLST00000147,7-8Y,SLRYCLST00000148;1399.00;;;;;;;;zerotype;;Summer;;No
1830161;SS17-SETSLD-156-Red Navy Blue-1830161;Girls Coordinates (clothing sets);Draft;Clothing Set;Soul Fairy;Kids-Girls;Girls;;;;Fashion;Casual;2017;0-6M,SLRYCLST00000141,6-12M,SLRYCLST00000142,12-18M,SLRYCLST00000143,18-24M,SLRYCLST00000144;1299.00;;;;;;;;zerotype;;Summer;;No
1830160;SS17-SETSLD-161-Turquoise Blue Black-1830160;Girls Coordinates (clothing sets);Draft;Clothing Set;Soul Fairy;Kids-Girls;Girls;;;;Fashion;Casual;2017;2-3Y,SLRYCLST00000137,3-4Y,SLRYCLST00000138,5-6Y,SLRYCLST00000139,7-8Y,SLRYCLST00000140;1599.00;;;;;;;;zerotype;;Summer;;No
1830159;SS17-SETSLD-161-Turquoise Blue Black-1830159;Girls Coordinates (clothing sets);Draft;Clothing Set;Soul Fairy;Kids-Girls;Girls;;;;Fashion;Casual;2017;0-6M,SLRYCLST00000133,6-12M,SLRYCLST00000134,12-18M,SLRYCLST00000135,18-24M,SLRYCLST00000136;1499.00;;;;;;;;zerotype;;Summer;;No
1830158;SS17-SETSTR-145-Yellow Navy Blue-1830158;Girls Coordinates (clothing sets);Draft;Clothing Set;Soul Fairy;Kids-Girls;Girls;;;;Fashion;Casual;2017;0-6M,SLRYCLST00000126,6-12M,SLRYCLST00000127,12-18M,SLRYCLST00000128,18-24M,SLRYCLST00000129,2-3Y,SLRYCLST00000130,3-4Y,SLRYCLST00000131,5-6Y,SLRYCLST00000132;1199.00;;;;;;;;zerotype;;Summer;;No
1830157;SS17-SETPLK-143-Red Navy Blue-1830157;Girls Coordinates (clothing sets);Draft;Clothing Set;Soul Fairy;Kids-Girls;Girls;;;;Fashion;Casual;2017;0-6M,SLRYCLST00000119,6-12M,SLRYCLST00000120,12-18M,SLRYCLST00000121,18-24M,SLRYCLST00000122,2-3Y,SLRYCLST00000123,3-4Y,SLRYCLST00000124,5-6Y,SLRYCLST00000125;1199.00;;;;;;;;zerotype;;Summer;;No
1830156;AW16-PRYSET-038-Red Navy Blue-1830156;SKIRT WITH TEE  (clothing sets);Draft;Clothing Set;Soul Fairy;Kids-Girls;Girls;;;;Fashion;Party;2017;2-3Y,SLRYCLST00000115,3-4Y,SLRYCLST00000116,5-6Y,SLRYCLST00000117,7-8Y,SLRYCLST00000118;1199.00;;;;;;;;zerotype;;Summer;;No
1830155;AW16-PRYSET-038-Red Navy Blue-1830155;SKIRT WITH TEE  (clothing sets);Draft;Clothing Set;Soul Fairy;Kids-Girls;Girls;;;;Fashion;Party;2017;0-6M,SLRYCLST00000111,6-12M,SLRYCLST00000112,12-18M,SLRYCLST00000113,18-24M,SLRYCLST00000114;1099.00;;;;;;;;zerotype;;Summer;;No
1830154;SS17-SETSLD-158-Royal Royal-1830154;Girls Coordinates (clothing sets);Draft;Clothing Set;Soul Fairy;Kids-Girls;Girls;;;;Fashion;Casual;2017;2-3Y,SLRYCLST00000107,3-4Y,SLRYCLST00000108,5-6Y,SLRYCLST00000109,7-8Y,SLRYCLST00000110;1499.00;;;;;;;;zerotype;;Summer;;No
1830153;SS17-SETSLD-158-Royal Royal-1830153;Girls Coordinates (clothing sets);Draft;Clothing Set;Soul Fairy;Kids-Girls;Girls;;;;Fashion;Casual;2017;0-6M,SLRYCLST00000103,6-12M,SLRYCLST00000104,12-18M,SLRYCLST00000105,18-24M,SLRYCLST00000106;1399.00;;;;;;;;zerotype;;Summer;;No
1830152;SS17-SETPRT-130-Pink Multi-1830152;Girls Coordinates (clothing sets);Draft;Clothing Set;Soul Fairy;Kids-Girls;Girls;;;;Fashion;Casual;2017;2-3Y,SLRYCLST00000099,3-4Y,SLRYCLST00000100,5-6Y,SLRYCLST00000101,7-8Y,SLRYCLST00000102;1899.00;;;;;;;;zerotype;;Summer;;No
1830151;SS17-SETPRT-130-Pink Multi-1830151;Girls Coordinates (clothing sets);Draft;Clothing Set;Soul Fairy;Kids-Girls;Girls;;;;Fashion;Casual;2017;0-6M,SLRYCLST00000095,6-12M,SLRYCLST00000096,12-18M,SLRYCLST00000097,18-24M,SLRYCLST00000098;1699.00;;;;;;;;zerotype;;Summer;;No
