Style ID;Vendor Article Number;Vendor Article Name;Active Status;Article type;Brand;Age Group;Gender;Base Colour;Colour1;Colour2;Fashion Type;Usage;Year;Size - SKU code pair;MRP;Style Description;Style Note;Materials and Care Description;Size and Fit Description;Size Chart Path;Product Display Name;Tags;Product Type;Classification Brand;Season;Comments;Upload Images
2220367;Kielz-988-26-Black-2220367;Kielz-988-26-Black;Draft;Flats;Kielz;Adults-Women;Women;Black;;;Fashion;Smart Casual;2017;35,KELZFlats00004311,36,KELZFlats00004312,37,KELZFlats00004313,38,KELZFlats00004314,39,KELZFlats00004315,40,KELZFlats00004316,41,KELZFlats00004317;2799.00;;;<p>Gently Rub With A Cloth</p>;;;;;zerotype;;Winter;;No
2220362;Kielz-CV-1857-White-2220362;Kielz-CV-1857-White;Draft;Casual Shoes;Kielz;Adults-Women;Women;White;;;Fashion;Smart Casual;2017;35,KELZCASH00002237,36,KELZCASH00002238,37,KELZCASH00002239,38,KELZCASH00002240,39,KELZCASH00002241,40,KELZCASH00002242;2499.00;;;<p>Gently Rub With A Cloth</p>;;;;;zerotype;;Winter;;No
2220351;Kielz-CV-1857-Black-2220351;Kielz-CV-1857-Black;Draft;Casual Shoes;Kielz;Adults-Women;Women;Black;;;Fashion;Smart Casual;2017;35,KELZCASH00002231,36,KELZCASH00002232,37,KELZCASH00002233,38,KELZCASH00002234,39,KELZCASH00002235,40,KELZCASH00002236;2499.00;;;<p>Gently Rub With A Cloth</p>;;;;;zerotype;;Winter;;No
2220334;Kielz-F-2786-1-Gold-2220334;Kielz-F-2786-1-Gold;Draft;Heels;Kielz;Adults-Women;Women;Gold;;;Fashion;Smart Casual;2017;35,KELZHeels00006328,36,KELZHeels00006329,37,KELZHeels00006330,38,KELZHeels00006331,39,KELZHeels00006332,40,KELZHeels00006333;2799.00;;;<p>Gently Rub With A Cloth</p>;;;;;zerotype;;Winter;;No
