Style ID;Vendor Article Number;Vendor Article Name;Active Status;Article type;Brand;Age Group;Gender;Base Colour;Colour1;Colour2;Fashion Type;Usage;Year;Size - SKU code pair;MRP;Style Description;Style Note;Materials and Care Description;Size and Fit Description;Size Chart Path;Product Display Name;Tags;Product Type;Classification Brand;Season;Comments;Upload Images
2204146;8244011-Brown-2204146;HEMINGWAY;Draft;Formal Shoes;Bata;Adults-Men;Men;Brown;;;Fashion;Formal;2017;UK6,BATAFOSH00002274,UK7,BATAFOSH00002275,UK8,BATAFOSH00002276,UK9,BATAFOSH00002277,UK10,BATAFOSH00002278,UK11,BATAFOSH00002279;3499.00;;;;;;;;zerotype;;Winter;;No
2204145;8216052-Black-2204145;COLTON;Draft;Formal Shoes;Bata;Adults-Men;Men;Black;;;Fashion;Formal;2017;UK6,BATAFOSH00002268,UK7,BATAFOSH00002269,UK8,BATAFOSH00002270,UK9,BATAFOSH00002271,UK10,BATAFOSH00002272,UK11,BATAFOSH00002273;1999.00;;;;;;;;zerotype;;Winter;;No
2204141;8646041-Black-2204141;DESCARTES;Draft;Sandals;Hush Puppies;Adults-Men;Men;Black;;;Fashion;Casual;2017;UK6,HUPUSNDL00000234,UK7,HUPUSNDL00000235,UK8,HUPUSNDL00000236,UK9,HUPUSNDL00000237,UK10,HUPUSNDL00000238,UK11,HUPUSNDL00000239;1999.00;;;;;;;;zerotype;;Winter;;No
2204140;8711897-Wine-2204140;FOOTIN;Draft;Sandals;Footin;Adults-Men;Men;Maroon;;;Fashion;Casual;2017;UK6,FOTNSNDL00000085,UK7,FOTNSNDL00000086,UK8,FOTNSNDL00000087,UK9,FOTNSNDL00000088,UK10,FOTNSNDL00000089,UK11,FOTNSNDL00000090;699.00;;;;;;;;zerotype;;Winter;;No
2204135;8533005-Light Brown Tan-2204135;WIESEL;Draft;Casual Shoes;Bata;Adults-Men;Men;Tan;;;Fashion;Casual;2017;UK6,BATACASH00001384,UK7,BATACASH00001385,UK8,BATACASH00001386,UK9,BATACASH00001387,UK10,BATACASH00001388,UK11,BATACASH00001389;2999.00;;;;;;;;zerotype;;Winter;;No
2204134;8537003-Green-2204134;SVEVO;Draft;Casual Shoes;Bata;Adults-Men;Men;Green;;;Fashion;Casual;2017;UK6,BATACASH00001378,UK7,BATACASH00001379,UK8,BATACASH00001380,UK9,BATACASH00001381,UK10,BATACASH00001382,UK11,BATACASH00001383;2499.00;;;;;;;;zerotype;;Winter;;No
2204132;8319054-Blue-2204132;MICAH;Draft;Casual Shoes;Bata;Adults-Men;Men;Blue;;;Fashion;Casual;2017;UK6,BATACASH00001366,UK7,BATACASH00001367,UK8,BATACASH00001368,UK9,BATACASH00001369,UK10,BATACASH00001370,UK11,BATACASH00001371;1999.00;;;;;;;;zerotype;;Winter;;No
2204130;8317053-Green-2204130;GAGE;Draft;Casual Shoes;Bata;Adults-Men;Men;Green;;;Fashion;Casual;2017;UK6,BATACASH00001354,UK7,BATACASH00001355,UK8,BATACASH00001356,UK9,BATACASH00001357,UK10,BATACASH00001358,UK11,BATACASH00001359;1999.00;;;;;;;;zerotype;;Winter;;No
2204128;8316055-Black-2204128;FRANCESCO;Draft;Casual Shoes;Bata;Adults-Men;Men;Black;;;Fashion;Casual;2017;UK6,BATACASH00001348,UK7,BATACASH00001349,UK8,BATACASH00001350,UK9,BATACASH00001351,UK10,BATACASH00001352,UK11,BATACASH00001353;1999.00;;;;;;;;zerotype;;Winter;;No
2200131;8343019-Light Brown Tan-2200131;THOMPSON;Draft;Formal Shoes;Bata;Adults-Men;Men;Tan;;;Fashion;;2017;UK6,BATAFOSH00002226,UK7,BATAFOSH00002227,UK8,BATAFOSH00002228,UK9,BATAFOSH00002229,UK10,BATAFOSH00002230,UK11,BATAFOSH00002231;3499.00;;;;;;;;zerotype;;Winter;;No
2200130;8246004-Black-2200130;MARTIN;Draft;Formal Shoes;Bata;Adults-Men;Men;Black;;;Fashion;;2017;UK6,BATAFOSH00002220,UK7,BATAFOSH00002221,UK8,BATAFOSH00002222,UK9,BATAFOSH00002223,UK10,BATAFOSH00002224,UK11,BATAFOSH00002225;3499.00;;;;;;;;zerotype;;Winter;;No
2200125;8746016-Black-2200125;GINSBERG;Draft;Sandals;Bata;Adults-Men;Men;Black;;;Fashion;;2017;UK11,BATASNDL00000761,UK10,BATASNDL00000762,UK6,BATASNDL00000763,UK7,BATASNDL00000764,UK8,BATASNDL00000765,UK9,BATASNDL00000766;1999.00;;;;;;;;zerotype;;Winter;;No
2200124;8746015-Black-2200124;HUXLEY;Draft;Sandals;Bata;Adults-Men;Men;Black;;;Fashion;;2017;UK11,BATASNDL00000755,UK10,BATASNDL00000756,UK6,BATASNDL00000757,UK7,BATASNDL00000758,UK8,BATASNDL00000759,UK9,BATASNDL00000760;1699.00;;;;;;;;zerotype;;Winter;;No
2200122;8744016-Brown-2200122;GINSBERG;Draft;Sandals;Bata;Adults-Men;Men;Brown;;;Fashion;;2017;UK11,BATASNDL00000743,UK10,BATASNDL00000744,UK6,BATASNDL00000745,UK7,BATASNDL00000746,UK8,BATASNDL00000747,UK9,BATASNDL00000748;1999.00;;;;;;;;zerotype;;Winter;;No
2200119;8744012-Brown-2200119;MOORE;Draft;Sandals;Bata;Adults-Men;Men;Brown;;;Fashion;;2017;UK11,BATASNDL00000731,UK10,BATASNDL00000732,UK6,BATASNDL00000733,UK7,BATASNDL00000734,UK8,BATASNDL00000735,UK9,BATASNDL00000736;1699.00;;;;;;;;zerotype;;Winter;;No
2200105;8546062-Black-2200105;RUSSELL;Draft;Casual Shoes;Hush Puppies;Adults-Men;Men;Black;;;Fashion;;2017;UK6,HUPUCASH00000623,UK7,HUPUCASH00000624,UK8,HUPUCASH00000625,UK9,HUPUCASH00000626,UK10,HUPUCASH00000627,UK11,HUPUCASH00000628;4999.00;;;;;;;;zerotype;;Winter;;No
2200104;8349065-Blue-2200104;HOBBES;Draft;Casual Shoes;Hush Puppies;Adults-Men;Men;Blue;;;Fashion;;2017;UK6,HUPUCASH00000617,UK7,HUPUCASH00000618,UK8,HUPUCASH00000619,UK9,HUPUCASH00000620,UK10,HUPUCASH00000621,UK11,HUPUCASH00000622;3999.00;;;;;;;;zerotype;;Winter;;No
2200103;8345065-Wine-2200103;HOBBES;Draft;Casual Shoes;Hush Puppies;Adults-Men;Men;Maroon;;;Fashion;;2017;UK6,HUPUCASH00000611,UK7,HUPUCASH00000612,UK8,HUPUCASH00000613,UK9,HUPUCASH00000614,UK10,HUPUCASH00000615,UK11,HUPUCASH00000616;3999.00;;;;;;;;zerotype;;Winter;;No
2200098;8530003-Blue-2200098;SVEVO;Draft;Casual Shoes;Bata;Adults-Men;Men;Blue;;;Fashion;;2017;UK6,BATACASH00001318,UK7,BATACASH00001319,UK8,BATACASH00001320,UK9,BATACASH00001321,UK10,BATACASH00001322,UK11,BATACASH00001323;2499.00;;;;;;;;zerotype;;Winter;;No
2200097;8346030-Black-2200097;WARREN;Draft;Casual Shoes;Bata;Adults-Men;Men;Black;;;Fashion;;2017;UK6,BATACASH00001312,UK7,BATACASH00001313,UK8,BATACASH00001314,UK9,BATACASH00001315,UK10,BATACASH00001316,UK11,BATACASH00001317;2999.00;;;;;;;;zerotype;;Winter;;No
2200096;8344030-Brown-2200096;WARREN;Draft;Casual Shoes;Bata;Adults-Men;Men;Brown;;;Fashion;;2017;UK6,BATACASH00001306,UK7,BATACASH00001307,UK8,BATACASH00001308,UK9,BATACASH00001309,UK10,BATACASH00001310,UK11,BATACASH00001311;2999.00;;;;;;;;zerotype;;Winter;;No
2186208;P42FB0699413791-Beige-2186208;Flats;Draft;Flats;People;Adults-Women;Women;Beige;;;Fashion;;2017;UK3,PEPLFlats00000667,UK4,PEPLFlats00000668,UK5,PEPLFlats00000669,UK6,PEPLFlats00000670,UK7,PEPLFlats00000671;699.00;;;<p>PU</p>;;;;;zerotype;;Winter;;No
