Style ID;Vendor Article Number;Vendor Article Name;Active Status;Article type;Brand;Age Group;Gender;Base Colour;Colour1;Colour2;Fashion Type;Usage;Year;Size - SKU code pair;MRP;Style Description;Style Note;Materials and Care Description;Size and Fit Description;Size Chart Path;Product Display Name;Tags;Product Type;Classification Brand;Season;Comments;Upload Images
1833297;D62T4B06643C9999-Black-1833297;Sandal;Draft;Flats;Geox;Adults-Women;Women;Black;;;Fashion;;2017;EURO36,GEOXFlats00000797,EURO37,GEOXFlats00000798,EURO39,GEOXFlats00000799;6999.00;;;;;;;;zerotype;;Summer;;No
1833296;D62R6C000CLC6738-Taupe-1833296;Sandal;Draft;Flats;Geox;Adults-Women;Women;Taupe;;;Fashion;;2017;EURO35,GEOXFlats00000791,EURO36,GEOXFlats00000792,EURO37,GEOXFlats00000793,EURO38,GEOXFlats00000794,EURO39,GEOXFlats00000795,EURO40,GEOXFlats00000796;4999.00;;;;;;;;zerotype;;Summer;;No
1833295;D62R6C00085C9999-Black-1833295;Sandal;Draft;Flats;Geox;Adults-Women;Women;Black;;;Fashion;;2017;EURO35,GEOXFlats00000785,EURO36,GEOXFlats00000786,EURO37,GEOXFlats00000787,EURO38,GEOXFlats00000788,EURO39,GEOXFlats00000789,EURO40,GEOXFlats00000790;4999.00;;;;;;;;zerotype;;Summer;;No
1833294;D62Q6B0HHRZC9999-Black-1833294;Sandal;Draft;Flats;Geox;Adults-Women;Women;Black;;;Fashion;;2017;EURO36,GEOXFlats00000782,EURO38,GEOXFlats00000783,EURO39,GEOXFlats00000784;5999.00;;;;;;;;zerotype;;Summer;;No
1833293;D62P6D04338C1391-Multi-1833293;Sandal;Draft;Flats;Geox;Adults-Women;Women;Multi;;;Fashion;;2017;EURO36,GEOXFlats00000779,EURO37,GEOXFlats00000780,EURO38,GEOXFlats00000781;6999.00;;;;;;;;zerotype;;Summer;;No
1833292;D62P3D043RZC9999-Black-1833292;Sandal;Draft;Flats;Geox;Adults-Women;Women;Black;;;Fashion;;2017;EURO35,GEOXFlats00000775,EURO37,GEOXFlats00000776,EURO38,GEOXFlats00000777,EURO40,GEOXFlats00000778;5999.00;;;;;;;;zerotype;;Summer;;No
1833291;D62P3C0RZAKC9999-Black-1833291;Sandal;Draft;Flats;Geox;Adults-Women;Women;Black;;;Fashion;;2017;EURO37,GEOXFlats00000772,EURO38,GEOXFlats00000773,EURO40,GEOXFlats00000774;6999.00;;;;;;;;zerotype;;Summer;;No
1833290;D62F1B000LTC5046-Beige-1833290;Sandal;Draft;Flats;Geox;Adults-Women;Women;Beige;;;Fashion;;2017;EURO35,GEOXFlats00000767,EURO36,GEOXFlats00000768,EURO37,GEOXFlats00000769,EURO38,GEOXFlats00000770,EURO39,GEOXFlats00000771;4999.00;;;;;;;;zerotype;;Summer;;No
1833289;D62F1B000LTC4008-Navy Blue-1833289;Sandal;Draft;Flats;Geox;Adults-Women;Women;Navy Blue;;;Fashion;;2017;EURO35,GEOXFlats00000764,EURO36,GEOXFlats00000765,EURO39,GEOXFlats00000766;4999.00;;;;;;;;zerotype;;Summer;;No
1833288;D6293C085KYCH6H8-Taupe-1833288;Sandal;Draft;Flats;Geox;Adults-Women;Women;Taupe;;;Fashion;;2017;EURO40,GEOXFlats00000763;6499.00;;;;;;;;zerotype;;Summer;;No
1833287;D6293C085KYCH6H8-Taupe-1833287;Sandal;Draft;Flats;Geox;Adults-Women;Women;Taupe;;;Fashion;;2017;EURO35,GEOXFlats00000758,EURO36,GEOXFlats00000759,EURO37,GEOXFlats00000760,EURO38,GEOXFlats00000761,EURO39,GEOXFlats00000762;4999.00;;;;;;;;zerotype;;Summer;;No
1833286;D6293B0RZNHC8616-Beige-1833286;Sandal;Draft;Flats;Geox;Adults-Women;Women;Beige;;;Fashion;;2017;EURO35,GEOXFlats00000755,EURO36,GEOXFlats00000756,EURO37,GEOXFlats00000757;4999.00;;;;;;;;zerotype;;Summer;;No
1833285;D6285C000KFC8182-Beige-1833285;Sandal;Draft;Flats;Geox;Adults-Women;Women;Beige;;;Fashion;;2017;EURO36,GEOXFlats00000749,EURO37,GEOXFlats00000750,EURO38,GEOXFlats00000751,EURO39,GEOXFlats00000752,EURO40,GEOXFlats00000753,EURO41,GEOXFlats00000754;5999.00;;;;;;;;zerotype;;Summer;;No
1833284;D6283E0RZHHC2004-Yellow-1833284;Sandal;Draft;Flats;Geox;Adults-Women;Women;Yellow;;;Fashion;;2017;EURO35,GEOXFlats00000744,EURO36,GEOXFlats00000745,EURO37,GEOXFlats00000746,EURO38,GEOXFlats00000747,EURO39,GEOXFlats00000748;4999.00;;;;;;;;zerotype;;Summer;;No
1833283;D6283D000KFC9999-Black-1833283;Sandal;Draft;Flats;Geox;Adults-Women;Women;Black;;;Fashion;;2017;EURO36,GEOXFlats00000740,EURO37,GEOXFlats00000741,EURO38,GEOXFlats00000742,EURO39,GEOXFlats00000743;6999.00;;;;;;;;zerotype;;Summer;;No
1833282;D6283D000KFC8182-Beige-1833282;Sandal;Draft;Flats;Geox;Adults-Women;Women;Beige;;;Fashion;;2017;EURO36,GEOXFlats00000736,EURO37,GEOXFlats00000737,EURO38,GEOXFlats00000738,EURO39,GEOXFlats00000739;6999.00;;;;;;;;zerotype;;Summer;;No
1833281;D6273A085HHC9999-Black-1833281;Sandal;Draft;Flats;Geox;Adults-Women;Women;Black;;;Fashion;;2017;EURO36,GEOXFlats00000733,EURO37,GEOXFlats00000734,EURO39,GEOXFlats00000735;6499.00;;;;;;;;zerotype;;Summer;;No
1833280;D621VB0KFNHC9999-Black-1833280;Sandal;Draft;Flats;Geox;Adults-Women;Women;Black;;;Fashion;;2017;EURO35,GEOXFlats00000730,EURO36,GEOXFlats00000731,EURO37,GEOXFlats00000732;5999.00;;;;;;;;zerotype;;Summer;;No
1833279;D621TC08854C9999-Black-1833279;Sandal;Draft;Flats;Geox;Adults-Women;Women;Black;;;Fashion;;2017;EURO36,GEOXFlats00000727,EURO37,GEOXFlats00000728,EURO38,GEOXFlats00000729;6999.00;;;;;;;;zerotype;;Summer;;No
1833278;U62P4C00043C6006-Coffee Brown-1833278;Formal Shoes;Draft;Formal Shoes;Geox;Adults-Men;Men;Coffee Brown;;;Fashion;;2017;EURO40,GEOXFOSH00000330,EURO41,GEOXFOSH00000331,EURO42,GEOXFOSH00000332,EURO43,GEOXFOSH00000333,EURO44,GEOXFOSH00000334;10999.00;;;;;;;;zerotype;;Summer;;No
1833277;U54P4D00043C6001-Brown-1833277;Formal Shoes;Draft;Formal Shoes;Geox;Adults-Men;Men;Brown;;;Fashion;;2017;EURO41,GEOXFOSH00000327,EURO42,GEOXFOSH00000328,EURO43,GEOXFOSH00000329;10999.00;;;;;;;;zerotype;;Summer;;No
1833276;U3257Q00043C9999-Black-1833276;Formal Shoes;Draft;Formal Shoes;Geox;Adults-Men;Men;Black;;;Fashion;;2017;EURO40,GEOXFOSH00000323,EURO41,GEOXFOSH00000324,EURO42,GEOXFOSH00000325,EURO43,GEOXFOSH00000326;7999.00;;;;;;;;zerotype;;Summer;;No
1833275;U2257Z00043C9999-Black-1833275;Formal Shoes;Draft;Formal Shoes;Geox;Adults-Men;Men;Black;;;Fashion;;2017;EURO39,GEOXFOSH00000318,EURO40,GEOXFOSH00000319,EURO41,GEOXFOSH00000320,EURO42,GEOXFOSH00000321,EURO44,GEOXFOSH00000322;7999.00;;;;;;;;zerotype;;Summer;;No
1833274;D54T4C0KFFCC7005-Burgundy-1833274;Pumps;Draft;Heels;Geox;Adults-Women;Women;Burgundy;;;Fashion;;2017;EURO38,GEOXHeels00000058,EURO40,GEOXHeels00000059,EURO41,GEOXHeels00000060;7999.00;;;;;;;;zerotype;;Summer;;No
1833273;D54T4A0KF66C9999-Black-1833273;Pumps;Draft;Heels;Geox;Adults-Women;Women;Black;;;Fashion;;2017;EURO36,GEOXHeels00000055,EURO37,GEOXHeels00000056,EURO38,GEOXHeels00000057;7999.00;;;;;;;;zerotype;;Summer;;No
1833272;D54P8A000KFC9999-Black-1833272;Pumps;Draft;Heels;Geox;Adults-Women;Women;Black;;;Fashion;;2017;EURO37,GEOXHeels00000052,EURO38,GEOXHeels00000053,EURO41,GEOXHeels00000054;7999.00;;;;;;;;zerotype;;Summer;;No
1833271;D54P8A000KFC1018-Grey Melange-1833271;Pumps;Draft;Heels;Geox;Adults-Women;Women;Grey Melange;;;Fashion;;2017;EURO36,GEOXHeels00000049,EURO39,GEOXHeels00000050,EURO40,GEOXHeels00000051;7999.00;;;;;;;;zerotype;;Summer;;No
1833270;U62D6A00022C6037-Rust-1833270;Moccasins;Draft;Casual Shoes;Geox;Adults-Men;Men;Rust;;;Fashion;;2017;EURO41,GEOXCASH00001102,EURO42,GEOXCASH00001103,EURO43,GEOXCASH00001104;8999.00;;;;;;;;zerotype;;Summer;;No
1833269;U620XD00043C6006-Coffee Brown-1833269;Moccasins;Draft;Casual Shoes;Geox;Adults-Men;Men;Coffee Brown;;;Fashion;;2017;EURO41,GEOXCASH00001098,EURO42,GEOXCASH00001099,EURO43,GEOXCASH00001100,EURO44,GEOXCASH00001101;8999.00;;;;;;;;zerotype;;Summer;;No
1833268;U620XB02285C6L6N-Brown-1833268;Moccasins;Draft;Casual Shoes;Geox;Adults-Men;Men;Brown;;;Fashion;;2017;EURO39,GEOXCASH00001094,EURO40,GEOXCASH00001095,EURO41,GEOXCASH00001096,EURO42,GEOXCASH00001097;8999.00;;;;;;;;zerotype;;Summer;;No
1833267;U620XB02285C4284-Navy Blue-1833267;Moccasins;Draft;Casual Shoes;Geox;Adults-Men;Men;Navy Blue;;;Fashion;;2017;EURO40,GEOXCASH00001090,EURO41,GEOXCASH00001091,EURO42,GEOXCASH00001092,EURO43,GEOXCASH00001093;8999.00;;;;;;;;zerotype;;Summer;;No
1833266;U620XB00085C4072-Blue-1833266;Moccasins;Draft;Casual Shoes;Geox;Adults-Men;Men;Blue;;;Fashion;;2017;EURO39,GEOXCASH00001088,EURO40,GEOXCASH00001089;8999.00;;;;;;;;zerotype;;Summer;;No
1833265;U54Y7B00046C9999-Black-1833265;Ankle Boots;Draft;Casual Shoes;Geox;Adults-Men;Men;Black;;;Fashion;;2017;EURO41,GEOXCASH00001086,EURO42,GEOXCASH00001087;11999.00;;;;;;;;zerotype;;Summer;;No
1833264;U54D7B02211C9055-Charcoal-1833264;Sneakers;Draft;Casual Shoes;Geox;Adults-Men;Men;Charcoal;;;Fashion;;2017;EURO42,GEOXCASH00001083,EURO43,GEOXCASH00001084,EURO44,GEOXCASH00001085;10999.00;;;;;;;;zerotype;;Summer;;No
1833263;U52D7B04622C4002-Navy Blue-1833263;Sneakers;Draft;Casual Shoes;Geox;Adults-Men;Men;Navy Blue;;;Fashion;;2017;EURO43,GEOXCASH00001082;10999.00;;;;;;;;zerotype;;Summer;;No
1833262;U52D7B01122C2008-Orange-1833262;Sneakers;Draft;Casual Shoes;Geox;Adults-Men;Men;Orange;;;Fashion;;2017;EURO39,GEOXCASH00001077,EURO40,GEOXCASH00001078,EURO41,GEOXCASH00001079,EURO42,GEOXCASH00001080,EURO44,GEOXCASH00001081;11999.00;;;;;;;;zerotype;;Summer;;No
1833261;U52D7B00046C9999-Black-1833261;Sneakers;Draft;Casual Shoes;Geox;Adults-Men;Men;Black;;;Fashion;;2017;EURO39,GEOXCASH00001070,EURO40,GEOXCASH00001071,EURO41,GEOXCASH00001072,EURO42,GEOXCASH00001073,EURO43,GEOXCASH00001074,EURO44,GEOXCASH00001075,EURO45,GEOXCASH00001076;11999.00;;;;;;;;zerotype;;Summer;;No
1833260;U52B7B0ZI85C6248-Coffee Brown-1833260;Sneakers;Draft;Casual Shoes;Geox;Adults-Men;Men;Coffee Brown;;;Fashion;;2017;EURO40,GEOXCASH00001064,EURO41,GEOXCASH00001065,EURO42,GEOXCASH00001066,EURO43,GEOXCASH00001067,EURO44,GEOXCASH00001068,EURO45,GEOXCASH00001069;6999.00;;;;;;;;zerotype;;Summer;;No
1833259;U44R9A04622C9355-Black-1833259;Ankle Boots;Draft;Casual Shoes;Geox;Adults-Men;Men;Black;;;Fashion;;2017;EURO40,GEOXCASH00001061,EURO41,GEOXCASH00001062,EURO42,GEOXCASH00001063;11999.00;;;;;;;;zerotype;;Summer;;No
1833258;U44D3A00043C6010-Coffee Brown-1833258;Moccasins;Draft;Casual Shoes;Geox;Adults-Men;Men;Coffee Brown;;;Fashion;;2017;EURO40,GEOXCASH00001056,EURO41,GEOXCASH00001057,EURO42,GEOXCASH00001058,EURO43,GEOXCASH00001059,EURO44,GEOXCASH00001060;9999.00;;;;;;;;zerotype;;Summer;;No
1833257;U1107U00046C9999-Black-1833257;Moccasins;Draft;Casual Shoes;Geox;Adults-Men;Men;Black;;;Fashion;;2017;EURO40,GEOXCASH00001054,EURO45,GEOXCASH00001055;7999.00;;;;;;;;zerotype;;Summer;;No
1833256;U1107U00046C9999-Black-1833256;Moccasins;Draft;Casual Shoes;Geox;Adults-Men;Men;Black;;;Fashion;;2017;EURO41,GEOXCASH00001051,EURO42,GEOXCASH00001052,EURO43,GEOXCASH00001053;6999.00;;;;;;;;zerotype;;Summer;;No
1833255;D62P7C0RZHHC9999-Black-1833255;Ballerina;Draft;Casual Shoes;Geox;Adults-Women;Women;Black;;;Fashion;;2017;EURO36,GEOXCASH00001048,EURO37,GEOXCASH00001049,EURO39,GEOXCASH00001050;6999.00;;;;;;;;zerotype;;Summer;;No
1833254;D621PA0MW47C6738-Taupe-1833254;Moccasins;Draft;Casual Shoes;Geox;Adults-Women;Women;Taupe;;;Fashion;;2017;EURO36,GEOXCASH00001045,EURO37,GEOXCASH00001046,EURO38,GEOXCASH00001047;7999.00;;;;;;;;zerotype;;Summer;;No
1833253;D621EC01122C3003-Sea Green-1833253;Sneakers;Draft;Casual Shoes;Geox;Adults-Women;Women;Sea Green;;;Fashion;;2017;EURO36,GEOXCASH00001041,EURO37,GEOXCASH00001042,EURO39,GEOXCASH00001043,EURO40,GEOXCASH00001044;9999.00;;;;;;;;zerotype;;Summer;;No
1833252;D540HB00043C9999-Black-1833252;Ankle Boots;Draft;Casual Shoes;Geox;Adults-Women;Women;Black;;;Fashion;;2017;EURO36,GEOXCASH00001038,EURO38,GEOXCASH00001039,EURO39,GEOXCASH00001040;15999.00;;;;;;;;zerotype;;Summer;;No
1833251;D540HA00043C9999-Black-1833251;Ankle Boots;Draft;Casual Shoes;Geox;Adults-Women;Women;Black;;;Fashion;;2017;EURO39,GEOXCASH00001035,EURO40,GEOXCASH00001036,EURO41,GEOXCASH00001037;10999.00;;;;;;;;zerotype;;Summer;;No
1833250;D44L2C00022C9999-Black-1833250;Ankle Boots;Draft;Casual Shoes;Geox;Adults-Women;Women;Black;;;Fashion;;2017;EURO35,GEOXCASH00001032,EURO36,GEOXCASH00001033,EURO37,GEOXCASH00001034;10999.00;;;;;;;;zerotype;;Summer;;No
1833249;D22P9S00067C9999-Black-1833249;Pumps;Draft;Casual Shoes;Geox;Adults-Women;Women;Black;;;Fashion;;2017;EURO38,GEOXCASH00001029,EURO39,GEOXCASH00001030,EURO40,GEOXCASH00001031;8999.00;;;;;;;;zerotype;;Summer;;No
1833248;U62V1C00043C6006-Coffee Brown-1833248;Sandal;Draft;Sandals;Geox;Adults-Men;Men;Coffee Brown;;;Fashion;;2017;EURO39,GEOXSNDL00000026,EURO40,GEOXSNDL00000027,EURO41,GEOXSNDL00000028,EURO42,GEOXSNDL00000029,EURO43,GEOXSNDL00000030,EURO44,GEOXSNDL00000031,EURO45,GEOXSNDL00000032;4999.00;;;;;;;;zerotype;;Summer;;No
1833247;U62V1A0NB22C6037-Rust-1833247;Sandal;Draft;Sandals;Geox;Adults-Men;Men;Rust;;;Fashion;;2017;EURO40,GEOXSNDL00000021,EURO42,GEOXSNDL00000022,EURO43,GEOXSNDL00000023,EURO44,GEOXSNDL00000024,EURO45,GEOXSNDL00000025;4999.00;;;;;;;;zerotype;;Summer;;No
1833246;U6224C0AU50C9999-Black-1833246;Sandal;Draft;Sandals;Geox;Adults-Men;Men;Black;;;Fashion;;2017;EURO40,GEOXSNDL00000016,EURO41,GEOXSNDL00000017,EURO42,GEOXSNDL00000018,EURO43,GEOXSNDL00000019,EURO44,GEOXSNDL00000020;4999.00;;;;;;;;zerotype;;Summer;;No
1833245;U6224C0AU50C6024-Coffee Brown-1833245;Sandal;Draft;Sandals;Geox;Adults-Men;Men;Coffee Brown;;;Fashion;;2017;EURO40,GEOXSNDL00000012,EURO41,GEOXSNDL00000013,EURO42,GEOXSNDL00000014,EURO43,GEOXSNDL00000015;4999.00;;;;;;;;zerotype;;Summer;;No
1833244;U4224A000BCC9999-Black-1833244;Sandal;Draft;Sandals;Geox;Adults-Men;Men;Black;;;Fashion;;2017;EURO40,GEOXSNDL00000006,EURO41,GEOXSNDL00000007,EURO42,GEOXSNDL00000008,EURO43,GEOXSNDL00000009,EURO44,GEOXSNDL00000010,EURO46,GEOXSNDL00000011;4999.00;;;;;;;;zerotype;;Summer;;No
1833243;U4224A000BCC6024-Coffee Brown-1833243;Sandal;Draft;Sandals;Geox;Adults-Men;Men;Coffee Brown;;;Fashion;;2017;EURO40,GEOXSNDL00000001,EURO41,GEOXSNDL00000002,EURO42,GEOXSNDL00000003,EURO43,GEOXSNDL00000004,EURO44,GEOXSNDL00000005;4999.00;;;;;;;;zerotype;;Summer;;No
