Style ID;Vendor Article Number;Vendor Article Name;Active Status;Article type;Brand;Age Group;Gender;Base Colour;Colour1;Colour2;Fashion Type;Usage;Year;Size - SKU code pair;MRP;Style Description;Style Note;Materials and Care Description;Size and Fit Description;Size Chart Path;Product Display Name;Tags;Product Type;Classification Brand;Season;Comments;Upload Images
1941520;TP-2102A-Cream-40-Cream-1941520;Girls Top;Draft;Tops;CUTECUMBER;Kids-Girls;Girls;Cream;;;Fashion;Party;2017;16,CTMRTOPS00008049,18,CTMRTOPS00008050,20,CTMRTOPS00008051,22,CTMRTOPS00008052,24,CTMRTOPS00008053,26,CTMRTOPS00008054,28,CTMRTOPS00008055,30,CTMRTOPS00008056,32,CTMRTOPS00008057,34,CTMRTOPS00008058,36,CTMRTOPS00008059,38,CTMRTOPS00008060,40,CTMRTOPS00008061;1120.00;;;;;;;;zerotype;;Summer;;No
1941519;TP-2102A-MD.BurgundyPurple-40-Burgundy-1941519;Girls Top;Draft;Tops;CUTECUMBER;Kids-Girls;Girls;Burgundy;;;Fashion;Party;2017;16,CTMRTOPS00008036,18,CTMRTOPS00008037,20,CTMRTOPS00008038,22,CTMRTOPS00008039,24,CTMRTOPS00008040,26,CTMRTOPS00008041,28,CTMRTOPS00008042,30,CTMRTOPS00008043,32,CTMRTOPS00008044,34,CTMRTOPS00008045,36,CTMRTOPS00008046,38,CTMRTOPS00008047,40,CTMRTOPS00008048;1120.00;;;;;;;;zerotype;;Summer;;No
1941518;TP-CC690A-Pink-40-Pink-1941518;Girls Top;Draft;Tops;CUTECUMBER;Kids-Girls;Girls;Pink;;;Fashion;Party;2017;16,CTMRTOPS00008023,18,CTMRTOPS00008024,20,CTMRTOPS00008025,22,CTMRTOPS00008026,24,CTMRTOPS00008027,26,CTMRTOPS00008028,28,CTMRTOPS00008029,30,CTMRTOPS00008030,32,CTMRTOPS00008031,34,CTMRTOPS00008032,36,CTMRTOPS00008033,38,CTMRTOPS00008034,40,CTMRTOPS00008035;550.00;;;;;;;;zerotype;;Summer;;No
