Style ID;Vendor Article Number;Vendor Article Name;Active Status;Article type;Brand;Age Group;Gender;Base Colour;Colour1;Colour2;Fashion Type;Usage;Year;Size - SKU code pair;MRP;Style Description;Style Note;Materials and Care Description;Size and Fit Description;Size Chart Path;Product Display Name;Tags;Product Type;Classification Brand;Season;Comments;Upload Images
2266778;SV59DSP8Y-Blue-2266778;Bella Moda Solid Denim;Draft;Jeans;Bella Moda;Kids-Boys;Boys;Blue;;;Fashion;Casual;2017;7-8Y,BAMAJENS00000122,5-6Y,BAMAJENS00000123,4-5Y,BAMAJENS00000124,3-4Y,BAMAJENS00000125,6-7Y,BAMAJENS00000126,8-9Y,BAMAJENS00000127;1797.00;;;<p>Machine wash as per tag</p>;;;na;;zerotype;;Winter;;No
2266774;SV56DS12M-Blue-2266774;Bella Moda Solid Denim;Draft;Jeans;Bella Moda;Kids-Boys;Boys;Blue;;;Fashion;Casual;2017;4-5Y,BAMAJENS00000116,3-4Y,BAMAJENS00000117,2-3Y,BAMAJENS00000118,18-24M,BAMAJENS00000119,5-6Y,BAMAJENS00000120,12-18M,BAMAJENS00000121;1797.00;;;<p>Machine wash as per tag</p>;;;na;;zerotype;;Winter;;No
2266771;SV55DP6M-Blue-2266771;Bella Moda Solid Denim;Draft;Jeans;Bella Moda;Kids-Boys;Boys;Blue;;;Fashion;Casual;2017;4-5Y,BAMAJENS00000112,3-4Y,BAMAJENS00000113,12-18M,BAMAJENS00000114,6-12M,BAMAJENS00000115;1747.00;;;<p>Machine wash as per tag</p>;;;na;;zerotype;;Winter;;No
2266767;SV54DS5Y-Blue-2266767;Bella Moda Solid Denim;Draft;Jeans;Bella Moda;Kids-Boys;Boys;Blue;;;Fashion;Casual;2017;5-6Y,BAMAJENS00000106,2-3Y,BAMAJENS00000107,4-5Y,BAMAJENS00000108,12-18M,BAMAJENS00000109,3-4Y,BAMAJENS00000110,6-7Y,BAMAJENS00000111;1797.00;;;<p>Machine wash as per tag</p>;;;na;;zerotype;;Winter;;No
2266764;SV53TP3Y-Blue-2266764;Bella Moda Solid Denim;Draft;Jeans;Bella Moda;Kids-Boys;Boys;Blue;;;Fashion;Casual;2017;2-3Y,BAMAJENS00000100,6-7Y,BAMAJENS00000101,5-6Y,BAMAJENS00000102,18-24M,BAMAJENS00000103,12-18M,BAMAJENS00000104,3-4Y,BAMAJENS00000105;2697.00;;;<p>Machine wash as per tag</p>;;;na;;zerotype;;Winter;;No
