Style ID;Vendor Article Number;Vendor Article Name;Active Status;Article type;Brand;Age Group;Gender;Base Colour;Colour1;Colour2;Fashion Type;Usage;Year;Size - SKU code pair;MRP;Style Description;Style Note;Materials and Care Description;Size and Fit Description;Size Chart Path;Product Display Name;Tags;Product Type;Classification Brand;Season;Comments;Upload Images
2525440;EP2791A-Blue-2525440;EP2791A;Draft;Trousers;RARE;Adults-Women;Women;Blue;;;Fashion;Casual;2018;S,RARETRSR00000057,M,RARETRSR00000058,L,RARETRSR00000059,XL,RARETRSR00000060;1499.00;;;<p>Hand Wash in Cold Water. Dry in Shade for Lasting Color.</p>;;;na;;zerotype;;Spring;;No
2525439;EP2791-Blue White-2525439;EP2791;Draft;Trousers;RARE;Adults-Women;Women;Blue;White;;Fashion;Casual;2018;S,RARETRSR00000053,M,RARETRSR00000054,L,RARETRSR00000055,XL,RARETRSR00000056;1499.00;;;<p>Hand Wash in Cold Water. Dry in Shade for Lasting Color.</p>;;;na;;zerotype;;Spring;;No
2525438;EP2155A-Black-2525438;EP2155A;Draft;Shrug;RARE;Adults-Women;Women;Black;;;Fashion;Casual;2018;S,RARESHRG00000120,XL,RARESHRG00000121,L,RARESHRG00000122,M,RARESHRG00000123;1200.00;<p>Rare Women Black Solid Shrug</p>;;<p>Hand Wash in Cold Water. Dry in Shade for Lasting Color.</p>;;;na;;zerotype;;Spring;;No
2525437;EP2926A-Coral-2525437;EP2926A;Draft;Tops;RARE;Adults-Women;Women;Coral;;;Fashion;Casual;2018;XL,RARETOPS00002793,L,RARETOPS00002794,M,RARETOPS00002795,S,RARETOPS00002796;1399.00;;;<p>Hand Wash in Cold Water. Dry in Shade for Lasting Color.</p>;;;na;;zerotype;;Spring;;No
2525436;EP2762B-Teal-2525436;EP2762B;Draft;Tops;RARE;Adults-Women;Women;Teal;;;Fashion;Casual;2018;XL,RARETOPS00002789,L,RARETOPS00002790,M,RARETOPS00002791,S,RARETOPS00002792;1199.00;;;<p>Hand Wash in Cold Water. Dry in Shade for Lasting Color.</p>;;;na;;zerotype;;Spring;;No
2525435;EP2735A-Teal-2525435;EP2735A;Draft;Tops;RARE;Adults-Women;Women;Teal;;;Fashion;Casual;2018;XL,RARETOPS00002785,L,RARETOPS00002786,M,RARETOPS00002787,S,RARETOPS00002788;1200.00;;;<p>Hand Wash in Cold Water. Dry in Shade for Lasting Color.</p>;;;na;;zerotype;;Spring;;No
2525434;EP2944-Blue-2525434;EP2944;Draft;Tops;RARE;Adults-Women;Women;Blue;;;Fashion;Casual;2018;XL,RARETOPS00002781,L,RARETOPS00002782,S,RARETOPS00002783,M,RARETOPS00002784;1299.00;;;<p>Hand Wash in Cold Water. Dry in Shade for Lasting Color.</p>;;;na;;zerotype;;Spring;;No
2525433;EP2946A-White Green-2525433;EP2946A;Draft;Tops;RARE;Adults-Women;Women;White;Green;Mustard;Fashion;Casual;2018;L,RARETOPS00002777,XL,RARETOPS00002778,M,RARETOPS00002779,S,RARETOPS00002780;1199.00;;;<p>Hand Wash in Cold Water. Dry in Shade for Lasting Color.</p>;;;na;;zerotype;;Spring;;No
2525432;EP2764A-Maroon White-2525432;EP2764A;Draft;Tops;RARE;Adults-Women;Women;Maroon;White;;Fashion;Casual;2018;S,RARETOPS00002773,L,RARETOPS00002774,M,RARETOPS00002775,XL,RARETOPS00002776;1200.00;;;<p>Hand Wash in Cold Water. Dry in Shade for Lasting Color.</p>;;;na;;zerotype;;Spring;;No
2525431;EP2951-Blue-2525431;EP2951;Draft;Tops;RARE;Adults-Women;Women;Blue;;;Fashion;Casual;2018;S,RARETOPS00002769,M,RARETOPS00002770,L,RARETOPS00002771,XL,RARETOPS00002772;1599.00;;;<p>Hand Wash in Cold Water. Dry in Shade for Lasting Color.</p>;;;na;;zerotype;;Spring;;No
2525430;EP2813-Grey-2525430;EP2813;Draft;Tops;RARE;Adults-Women;Women;Grey;;;Fashion;Casual;2018;M,RARETOPS00002765,S,RARETOPS00002766,XL,RARETOPS00002767,L,RARETOPS00002768;1399.00;;;<p>Hand Wash in Cold Water. Dry in Shade for Lasting Color.</p>;;;na;;zerotype;;Spring;;No
2525429;EP2952A-Maroon-2525429;EP2952A;Draft;Tops;RARE;Adults-Women;Women;Maroon;;;Fashion;Casual;2018;XL,RARETOPS00002761,S,RARETOPS00002762,L,RARETOPS00002763,M,RARETOPS00002764;1299.00;;;<p>Hand Wash in Cold Water. Dry in Shade for Lasting Color.</p>;;;na;;zerotype;;Spring;;No
2525428;EP2732A-Mustard-2525428;EP2732A;Draft;Tops;RARE;Adults-Women;Women;Mustard;;;Fashion;Casual;2018;XL,RARETOPS00002757,M,RARETOPS00002758,S,RARETOPS00002759,L,RARETOPS00002760;1399.00;;;<p>Hand Wash in Cold Water. Dry in Shade for Lasting Color.</p>;;;na;;zerotype;;Spring;;No
2525427;EP2806-Black-2525427;EP2806;Draft;Tops;RARE;Adults-Women;Women;Black;;;Fashion;Casual;2018;S,RARETOPS00002753,XL,RARETOPS00002754,L,RARETOPS00002755,M,RARETOPS00002756;1099.00;;;<p>Hand Wash in Cold Water. Dry in Shade for Lasting Color.</p>;;;na;;zerotype;;Spring;;No
2525426;EP2951A-Grey-2525426;EP2951A;Draft;Tops;RARE;Adults-Women;Women;Grey;;;Fashion;Casual;2018;S,RARETOPS00002749,XL,RARETOPS00002750,L,RARETOPS00002751,M,RARETOPS00002752;1599.00;;;<p>Hand Wash in Cold Water. Dry in Shade for Lasting Color.</p>;;;na;;zerotype;;Spring;;No
2525425;EP2946-Navy Blue Pink-2525425;EP2946;Draft;Tops;RARE;Adults-Women;Women;Navy Blue;Pink;;Fashion;Casual;2018;S,RARETOPS00002745,XL,RARETOPS00002746,L,RARETOPS00002747,M,RARETOPS00002748;1199.00;;;<p>Hand Wash in Cold Water. Dry in Shade for Lasting Color.</p>;;;na;;zerotype;;Spring;;No
2525424;EP2097D-White-2525424;EP2097D;Draft;Tops;RARE;Adults-Women;Women;White;;;Fashion;Casual;2018;XL,RARETOPS00002741,L,RARETOPS00002742,M,RARETOPS00002743,S,RARETOPS00002744;1199.00;;;<p>Hand Wash in Cold Water. Dry in Shade for Lasting Color.</p>;;;na;;zerotype;;Spring;;No
2525423;EP2811-Blue White-2525423;EP2811;Draft;Tops;RARE;Adults-Women;Women;Blue;White;;Fashion;Casual;2018;S,RARETOPS00002737,M,RARETOPS00002738,L,RARETOPS00002739,XL,RARETOPS00002740;1299.00;;;<p>Hand Wash in Cold Water. Dry in Shade for Lasting Color.</p>;;;na;;zerotype;;Spring;;No
2525422;EP2947-Grey-2525422;EP2947;Draft;Tops;RARE;Adults-Women;Women;Grey;;;Fashion;Casual;2018;XL,RARETOPS00002733,L,RARETOPS00002734,M,RARETOPS00002735,S,RARETOPS00002736;1499.00;;;<p>Hand Wash in Cold Water. Dry in Shade for Lasting Color.</p>;;;na;;zerotype;;Spring;;No
2525421;EP2732-Black-2525421;EP2732;Draft;Tops;RARE;Adults-Women;Women;Black;;;Fashion;Casual;2018;XL,RARETOPS00002729,L,RARETOPS00002730,M,RARETOPS00002731,S,RARETOPS00002732;1399.00;;;<p>Hand Wash in Cold Water. Dry in Shade for Lasting Color.</p>;;;na;;zerotype;;Spring;;No
2525420;EP2930-Mustard-2525420;EP2930;Draft;Tops;RARE;Adults-Women;Women;Mustard;;;Fashion;Casual;2018;M,RARETOPS00002725,S,RARETOPS00002726,XL,RARETOPS00002727,L,RARETOPS00002728;1299.00;;;<p>Hand Wash in Cold Water. Dry in Shade for Lasting Color.</p>;;;na;;zerotype;;Spring;;No
2525419;EP2947A-Sea Green-2525419;EP2947A;Draft;Tops;RARE;Adults-Women;Women;Sea Green;;;Fashion;Casual;2018;S,RARETOPS00002721,XL,RARETOPS00002722,L,RARETOPS00002723,M,RARETOPS00002724;1499.00;;;<p>Hand Wash in Cold Water. Dry in Shade for Lasting Color.</p>;;;na;;zerotype;;Spring;;No
2525418;EP2787A-Pink-2525418;EP2787A;Draft;Tops;RARE;Adults-Women;Women;Pink;;;Fashion;Casual;2018;L,RARETOPS00002717,XL,RARETOPS00002718,M,RARETOPS00002719,S,RARETOPS00002720;1399.00;;;<p>Hand Wash in Cold Water. Dry in Shade for Lasting Color.</p>;;;na;;zerotype;;Spring;;No
2525417;EP2787-Navy Blue-2525417;EP2787;Draft;Tops;RARE;Adults-Women;Women;Navy Blue;;;Fashion;Casual;2018;S,RARETOPS00002713,M,RARETOPS00002714,L,RARETOPS00002715,XL,RARETOPS00002716;1399.00;;;<p>Hand Wash in Cold Water. Dry in Shade for Lasting Color.</p>;;;na;;zerotype;;Spring;;No
2525416;EP2952-Blue-2525416;EP2952;Draft;Tops;RARE;Adults-Women;Women;Blue;;;Fashion;Casual;2018;L,RARETOPS00002709,M,RARETOPS00002710,S,RARETOPS00002711,XL,RARETOPS00002712;1299.00;;;<p>Hand Wash in Cold Water. Dry in Shade for Lasting Color.</p>;;;na;;zerotype;;Spring;;No
2525415;EP2734A-Blue White-2525415;EP2734A;Draft;Tops;RARE;Adults-Women;Women;Blue;White;;Fashion;Casual;2018;XL,RARETOPS00002705,L,RARETOPS00002706,M,RARETOPS00002707,S,RARETOPS00002708;1249.00;;;<p>Hand Wash in Cold Water. Dry in Shade for Lasting Color.</p>;;;na;;zerotype;;Spring;;No
2525414;EP2734-Blue-2525414;EP2734;Draft;Tops;RARE;Adults-Women;Women;Blue;;;Fashion;Casual;2018;XL,RARETOPS00002701,L,RARETOPS00002702,M,RARETOPS00002703,S,RARETOPS00002704;1249.00;;;<p>Hand Wash in Cold Water. Dry in Shade for Lasting Color.</p>;;;na;;zerotype;;Spring;;No
2525413;EP2764-Blue White-2525413;EP2764;Draft;Tops;RARE;Adults-Women;Women;Blue;White;;Fashion;Casual;2018;XL,RARETOPS00002697,L,RARETOPS00002698,S,RARETOPS00002699,M,RARETOPS00002700;1200.00;;;<p>Hand Wash in Cold Water. Dry in Shade for Lasting Color.</p>;;;na;;zerotype;;Spring;;No
2525412;EP2796A-Black-2525412;EP2796A;Draft;Tops;RARE;Adults-Women;Women;Black;;;Fashion;Casual;2018;XL,RARETOPS00002693,S,RARETOPS00002694,M,RARETOPS00002695,L,RARETOPS00002696;1199.00;;;<p>Hand Wash in Cold Water. Dry in Shade for Lasting Color.</p>;;;na;;zerotype;;Spring;;No
2525411;EP1970-White-2525411;EP1970;Draft;Tops;RARE;Adults-Women;Women;White;;;Fashion;Casual;2018;S,RARETOPS00002689,M,RARETOPS00002690,L,RARETOPS00002691,XL,RARETOPS00002692;1299.00;;;<p>Hand Wash in Cold Water. Dry in Shade for Lasting Color.</p>;;;na;;zerotype;;Spring;;No
2525410;EP2813A-Blue-2525410;EP2813A;Draft;Tops;RARE;Adults-Women;Women;Blue;;;Fashion;Casual;2018;XL,RARETOPS00002685,L,RARETOPS00002686,M,RARETOPS00002687,S,RARETOPS00002688;1399.00;;;<p>Hand Wash in Cold Water. Dry in Shade for Lasting Color.</p>;;;na;;zerotype;;Spring;;No
2525409;EP1970A-Red-2525409;EP1970A;Draft;Tops;RARE;Adults-Women;Women;Red;;;Fashion;Casual;2018;XL,RARETOPS00002681,L,RARETOPS00002682,M,RARETOPS00002683,S,RARETOPS00002684;1299.00;;;<p>Hand Wash in Cold Water. Dry in Shade for Lasting Color.</p>;;;na;;zerotype;;Spring;;No
2525408;EP2926-Pink-2525408;EP2926;Draft;Tops;RARE;Adults-Women;Women;Pink;;;Fashion;Casual;2018;XL,RARETOPS00002677,L,RARETOPS00002678,M,RARETOPS00002679,S,RARETOPS00002680;1399.00;;;<p>Hand Wash in Cold Water. Dry in Shade for Lasting Color.</p>;;;na;;zerotype;;Spring;;No
2525407;EP2765A-Black-2525407;EP2765A;Draft;Tops;RARE;Adults-Women;Women;Black;;;Fashion;Casual;2018;XL,RARETOPS00002673,L,RARETOPS00002674,M,RARETOPS00002675,S,RARETOPS00002676;1099.00;;;<p>Hand Wash in Cold Water. Dry in Shade for Lasting Color.</p>;;;na;;zerotype;;Spring;;No
2525406;EP2944A-Blue-2525406;EP2944A;Draft;Tops;RARE;Adults-Women;Women;Blue;;;Fashion;Casual;2018;L,RARETOPS00002669,M,RARETOPS00002670,S,RARETOPS00002671,XL,RARETOPS00002672;1299.00;;;<p>Hand Wash in Cold Water. Dry in Shade for Lasting Color.</p>;;;na;;zerotype;;Spring;;No
2525405;EP2721A-Navy Blue-2525405;EP2721A;Draft;Tops;RARE;Adults-Women;Women;Navy Blue;;;Fashion;Casual;2018;XS,RARETOPS00002664,XL,RARETOPS00002665,L,RARETOPS00002666,M,RARETOPS00002667,S,RARETOPS00002668;1399.00;;;<p>Hand Wash in Cold Water. Dry in Shade for Lasting Color.</p>;;;na;;zerotype;;Spring;;No
2525404;EP2930A-Pink-2525404;EP2930A;Draft;Tops;RARE;Adults-Women;Women;Pink;;;Fashion;Casual;2018;XL,RARETOPS00002660,L,RARETOPS00002661,M,RARETOPS00002662,S,RARETOPS00002663;1299.00;;;<p>Hand Wash in Cold Water. Dry in Shade for Lasting Color.</p>;;;na;;zerotype;;Spring;;No
2525403;EP2761-Black-2525403;EP2761;Draft;Tops;RARE;Adults-Women;Women;Black;;;Fashion;Casual;2018;XL,RARETOPS00002656,M,RARETOPS00002657,S,RARETOPS00002658,L,RARETOPS00002659;1099.00;;;<p>Hand Wash in Cold Water. Dry in Shade for Lasting Color.</p>;;;na;;zerotype;;Spring;;No
2525402;EP2802-White-2525402;EP2802;Draft;Dresses;RARE;Adults-Women;Women;White;;;Fashion;Casual;2018;L,RAREDRSS00001261,M,RAREDRSS00001262,S,RAREDRSS00001263,XL,RAREDRSS00001264;1899.00;;;<p>Hand Wash in Cold Water. Dry in Shade for Lasting Color.</p>;;;na;;zerotype;;Spring;;No
2525401;EP2789-Grey-2525401;EP2789;Draft;Dresses;RARE;Adults-Women;Women;Grey;;;Fashion;Casual;2018;S,RAREDRSS00001257,XL,RAREDRSS00001258,M,RAREDRSS00001259,L,RAREDRSS00001260;1999.00;;;<p>Hand Wash in Cold Water. Dry in Shade for Lasting Color.</p>;;;na;;zerotype;;Spring;;No
2525400;EP3152-Black-2525400;EP3152;Draft;Dresses;RARE;Adults-Women;Women;Black;;;Fashion;Casual;2018;S,RAREDRSS00001253,M,RAREDRSS00001254,L,RAREDRSS00001255,XL,RAREDRSS00001256;1899.00;;;<p>Hand Wash in Cold Water. Dry in Shade for Lasting Color.</p>;;;na;;zerotype;;Spring;;No
2525399;EP3149B-Beige-2525399;EP3149B;Draft;Dresses;RARE;Adults-Women;Women;Beige;;;Fashion;Casual;2018;XL,RAREDRSS00001249,L,RAREDRSS00001250,M,RAREDRSS00001251,S,RAREDRSS00001252;1899.00;;;<p>Hand Wash in Cold Water. Dry in Shade for Lasting Color.</p>;;;na;;zerotype;;Spring;;No
2525398;EP3154-Pink-2525398;EP3154;Draft;Dresses;RARE;Adults-Women;Women;Pink;;;Fashion;Casual;2018;S,RAREDRSS00001245,M,RAREDRSS00001246,L,RAREDRSS00001247,XL,RAREDRSS00001248;1899.00;;;<p>Hand Wash in Cold Water. Dry in Shade for Lasting Color.</p>;;;na;;zerotype;;Spring;;No
2525397;EP2790A-Grey-2525397;EP2790A;Draft;Dresses;RARE;Adults-Women;Women;Grey;;;Fashion;Casual;2018;M,RAREDRSS00001241,XL,RAREDRSS00001242,L,RAREDRSS00001243,S,RAREDRSS00001244;1699.00;;;<p>Hand Wash in Cold Water. Dry in Shade for Lasting Color.</p>;;;na;;zerotype;;Spring;;No
2525396;EP2789A-Red-2525396;EP2789A;Draft;Dresses;RARE;Adults-Women;Women;Red;;;Fashion;Casual;2018;XL,RAREDRSS00001237,M,RAREDRSS00001238,S,RAREDRSS00001239,L,RAREDRSS00001240;1999.00;;;<p>Hand Wash in Cold Water. Dry in Shade for Lasting Color.</p>;;;na;;zerotype;;Spring;;No
2525395;EP2790B-Blue White-2525395;EP2790B;Draft;Dresses;RARE;Adults-Women;Women;Blue;White;;Fashion;Casual;2018;XL,RAREDRSS00001233,L,RAREDRSS00001234,M,RAREDRSS00001235,S,RAREDRSS00001236;1699.00;;;<p>Hand Wash in Cold Water. Dry in Shade for Lasting Color.</p>;;;na;;zerotype;;Spring;;No
2525394;EP2801-Blue-2525394;EP2801;Draft;Dresses;RARE;Adults-Women;Women;Blue;;;Fashion;Casual;2018;XL,RAREDRSS00001229,L,RAREDRSS00001230,M,RAREDRSS00001231,S,RAREDRSS00001232;2000.00;;;<p>Hand Wash in Cold Water. Dry in Shade for Lasting Color.</p>;;;na;;zerotype;;Spring;;No
2525393;EP1661-Red-2525393;EP1661;Draft;Dresses;RARE;Adults-Women;Women;Red;;;Fashion;Casual;2018;S,RAREDRSS00001225,M,RAREDRSS00001226,L,RAREDRSS00001227,XL,RAREDRSS00001228;1799.00;;;<p>Hand Wash in Cold Water. Dry in Shade for Lasting Color.</p>;;;na;;zerotype;;Spring;;No
2525392;EP3153-Blue-2525392;EP3153;Draft;Dresses;RARE;Adults-Women;Women;Blue;;;Fashion;Casual;2018;S,RAREDRSS00001221,XL,RAREDRSS00001222,L,RAREDRSS00001223,M,RAREDRSS00001224;1899.00;;;<p>Hand Wash in Cold Water. Dry in Shade for Lasting Color.</p>;;;na;;zerotype;;Spring;;No
2525391;EP2775-Black-2525391;EP2775;Draft;Dresses;RARE;Adults-Women;Women;Black;;;Fashion;Casual;2018;S,RAREDRSS00001217,XL,RAREDRSS00001218,M,RAREDRSS00001219,L,RAREDRSS00001220;1499.00;;;<p>Hand Wash in Cold Water. Dry in Shade for Lasting Color.</p>;;;na;;zerotype;;Spring;;No
2525390;EP2802A-Black-2525390;EP2802A;Draft;Dresses;RARE;Adults-Women;Women;Black;;;Fashion;Casual;2018;XL,RAREDRSS00001213,L,RAREDRSS00001214,M,RAREDRSS00001215,S,RAREDRSS00001216;1899.00;;;<p>Hand Wash in Cold Water. Dry in Shade for Lasting Color.</p>;;;na;;zerotype;;Spring;;No
2525389;EP2790-Brown Black-2525389;EP2790;Draft;Dresses;RARE;Adults-Women;Women;Brown;Black;;Fashion;Casual;2018;XL,RAREDRSS00001209,L,RAREDRSS00001210,S,RAREDRSS00001211,M,RAREDRSS00001212;1699.00;;;<p>Hand Wash in Cold Water. Dry in Shade for Lasting Color.</p>;;;na;;zerotype;;Spring;;No
2525388;EP2830-Maroon-2525388;EP2830;Draft;Dresses;RARE;Adults-Women;Women;Maroon;;;Fashion;Casual;2018;XL,RAREDRSS00001205,L,RAREDRSS00001206,M,RAREDRSS00001207,S,RAREDRSS00001208;1999.00;;;<p>Hand Wash in Cold Water. Dry in Shade for Lasting Color.</p>;;;na;;zerotype;;Spring;;No
2398628;EP2913A-Black-2398628;EP2913A;Inactive - Marketplace - Reject;Coats;RARE;Adults-Women;Women;Black;;;Fashion;Casual;2018;S,RARECOAT00000013,XL,RARECOAT00000014,L,RARECOAT00000015,M,RARECOAT00000016;2999.00;<p>Black woven coat, front-open, longbell sleeves, two welt pockets, an attached fleece lining</p>;<p>Feel stylish and warm this season in this trendy coat by RARE.This is a perfect addtion to your winter wardrobe.</p>;<p>Polyester<br>Hand wash</p>;<p>The model (height 5'8'') is wearing a size S</p>;;RARE Woman Black Solid Coat;RARE,JIT;zerotype;;Spring;;No
2271600;EP2859A-Maroon-2271600;EP2859A;Warehouse Investigation;Dresses;RARE;Adults-Women;Women;Burgundy;;;Fashion;Casual;2017;S,RAREDRSS00000815,M,RAREDRSS00000816,L,RAREDRSS00000817,XL,RAREDRSS00000818;2099.00;Burgundy solid knitted maxi dress, has an off-shoulder neck, sleeveless, flared hem;Turn heads this season in this effortlessly stylish dress by RARE.  Dress to the nines for your party this weekend by styling this solid maroon piece with pumps and a cute clutch.;Polyester <br> Hand-wash;Regular Fit<br> The model (height 5'8") is wearing a size S;;RARE Women Burgundy Solid Maxi Dress;RARE,JIT,party-store-2017-additions-557590,party-exclusives,Myntra-exclusive-partywear-2018,exclusive-women-western-560141,Exclusive-styles-dress-fest;zerotype;;Winter;WWW;No
