Style ID;Vendor Article Number;Vendor Article Name;Active Status;Article type;Brand;Age Group;Gender;Base Colour;Colour1;Colour2;Fashion Type;Usage;Year;Size - SKU code pair;MRP;Style Description;Style Note;Materials and Care Description;Size and Fit Description;Size Chart Path;Product Display Name;Tags;Product Type;Classification Brand;Season;Comments;Upload Images
1832529;AAYWDTS2118B-BLUE  LIGHT-1832529;Tshirts;Draft;Tshirts;all about you;Adults-Women;Women;;;;Fashion;;2017;S,AATUTSHT00000415,M,AATUTSHT00000416,L,AATUTSHT00000417,XL,AATUTSHT00000418;1499.00;;;;;;;aay-ss179mar;zerotype;;Spring;sis all ss17;No
1832528;AAYWDTS2118A-ALMOND BLOSSOM-1832528;Tshirts;Draft;Tshirts;all about you;Adults-Women;Women;;;;Fashion;;2017;S,AATUTSHT00000411,M,AATUTSHT00000412,L,AATUTSHT00000413,XL,AATUTSHT00000414;1499.00;;;;;;;aay-ss179mar;zerotype;;Spring;sis all ss17;No
1814854;RD-WJ-529R-Indigo-1814854;DENIM SHORT;Draft;Shorts;Roadster;Adults-Women;Women;;;;Fashion;;2017;26,RDSTSHOR00002174,28,RDSTSHOR00002175,30,RDSTSHOR00002176,32,RDSTSHOR00002177,34,RDSTSHOR00002178,36,RDSTSHOR00002218;999.00;;;;;;;;zerotype;;Spring;;No
1814853;RD-WJ-528R-Indigo-1814853;DENIM SHORT;Draft;Shorts;Roadster;Adults-Women;Women;;;;Fashion;;2017;26,RDSTSHOR00002169,28,RDSTSHOR00002170,30,RDSTSHOR00002171,32,RDSTSHOR00002172,34,RDSTSHOR00002173,36,RDSTSHOR00002217;999.00;;;;;;;;zerotype;;Spring;;No
1814849;RD-SI-04CR-Indigo-1814849;DENIM SHORT;Draft;Shorts;Roadster;Adults-Women;Women;;;;Fashion;;2017;26,RDSTSHOR00002149,28,RDSTSHOR00002150,30,RDSTSHOR00002151,32,RDSTSHOR00002152,34,RDSTSHOR00002153,36,RDSTSHOR00002213;999.00;;;;;;;;zerotype;;Spring;;No
1814848;RD-SI-04BR-Indigo-1814848;DENIM SHORT;Draft;Shorts;Roadster;Adults-Women;Women;;;;Fashion;;2017;26,RDSTSHOR00002144,28,RDSTSHOR00002145,30,RDSTSHOR00002146,32,RDSTSHOR00002147,34,RDSTSHOR00002148,36,RDSTSHOR00002212;999.00;;;;;;;;zerotype;;Spring;;No
1814847;RD-SI-04AR-Indigo-1814847;DENIM SHORT;Draft;Shorts;Roadster;Adults-Women;Women;;;;Fashion;;2017;26,RDSTSHOR00002139,28,RDSTSHOR00002140,30,RDSTSHOR00002141,32,RDSTSHOR00002142,34,RDSTSHOR00002143,36,RDSTSHOR00002211;999.00;;;;;;;;zerotype;;Spring;;No
1814846;RD-SI-02BR-Indigo-1814846;DENIM SHORT;Draft;Shorts;Roadster;Adults-Women;Women;;;;Fashion;;2017;26,RDSTSHOR00002134,28,RDSTSHOR00002135,30,RDSTSHOR00002136,32,RDSTSHOR00002137,34,RDSTSHOR00002138,36,RDSTSHOR00002210;1199.00;;;;;;;;zerotype;;Spring;;No
1814845;RD-SI-02AR-Indigo-1814845;DENIM SHORT;Draft;Shorts;Roadster;Adults-Women;Women;;;;Fashion;;2017;26,RDSTSHOR00002129,28,RDSTSHOR00002130,30,RDSTSHOR00002131,32,RDSTSHOR00002132,34,RDSTSHOR00002133,36,RDSTSHOR00002209;1199.00;;;;;;;;zerotype;;Spring;;No
1808542;MBDR0406-WHITE-1808542;WOMENS WESTERN WEAR  DRESS;Draft;Dresses;Ms.Taken;Adults-Women;Women;;;;Fashion;;2017;XS,MTENDRSS00000376,S,MTENDRSS00000377,M,MTENDRSS00000378,L,MTENDRSS00000379,XL,MTENDRSS00000380;2199.00;;;;;;;;zerotype;;Spring;;No
1808525;MBDR0334-BLACK-1808525;WOMENS WESTERN WEAR  DRESS;Draft;Dresses;Ms.Taken;Adults-Women;Women;;;;Fashion;;2017;XS,MTENDRSS00000321,S,MTENDRSS00000322,M,MTENDRSS00000323,L,MTENDRSS00000324,XL,MTENDRSS00000325;2199.00;;;;;;;;zerotype;;Spring;;No
1808305;MBWT0405-WHITE-1808305;WOMENS WESTERN WEAR  TOP;Draft;Tops;Ms.Taken;Adults-Women;Women;;;;Fashion;;2017;XS,MTENTOPS00001539,S,MTENTOPS00001540,M,MTENTOPS00001541,L,MTENTOPS00001542,XL,MTENTOPS00001543;1299.00;;;;;;;;zerotype;;Spring;;No
1808271;MBWT0140-BLACK-1808271;WOMENS WESTERN WEAR  TOP;Draft;Tops;Ms.Taken;Adults-Women;Women;;;;Fashion;;2017;XS,MTENTOPS00001369,S,MTENTOPS00001370,M,MTENTOPS00001371,L,MTENTOPS00001372,XL,MTENTOPS00001373;1599.00;;;;;;;;zerotype;;Spring;;No
1807080;SS17MB003B-BLACK-1807080;CHAMBRAY SHORT;Draft;Shorts;ether;Adults-Men;Men;;;;Fashion;;2017;28,ETHRSHOR00000180,30,ETHRSHOR00000181,32,ETHRSHOR00000182,34,ETHRSHOR00000183,36,ETHRSHOR00000184;1199.00;;;;;;;;zerotype;;Summer;;No
1807079;SS17MB003A-LT. GREY-1807079;CHAMBRAY SHORT;Draft;Shorts;ether;Adults-Men;Men;;;;Fashion;;2017;28,ETHRSHOR00000175,30,ETHRSHOR00000176,32,ETHRSHOR00000177,34,ETHRSHOR00000178,36,ETHRSHOR00000179;1199.00;;;;;;;;zerotype;;Summer;;No
1805916;STELLA49SLI-NAVY/WHITE-1805916;STELLA;Draft;Shirts;Roadster;Adults-Women;Women;;;;Fashion;;2017;S,RDSTSHRT00020949,M,RDSTSHRT00020950,L,RDSTSHRT00020951,XL,RDSTSHRT00020952;1299.00;;;;;;;roadster-mar-main-women;zerotype;;Spring;No comment entered;No
1805914;STELLA47SLI-WHITE/BLACK-1805914;STELLA;Draft;Shirts;Roadster;Adults-Women;Women;;;;Fashion;;2017;S,RDSTSHRT00020941,M,RDSTSHRT00020942,L,RDSTSHRT00020943,XL,RDSTSHRT00020944;1299.00;;;;;;;roadster-mar-main-women;zerotype;;Spring;No comment entered;No
1805904;STELLA32SLI-RED/BLACK-1805904;STELLA;Draft;Shirts;Roadster;Adults-Women;Women;;;;Fashion;;2017;S,RDSTSHRT00020901,M,RDSTSHRT00020902,L,RDSTSHRT00020903,XL,RDSTSHRT00020904;1099.00;;;;;;;roadster-mar-main-women;zerotype;;Spring;No comment entered;No
1805900;STELLA30SLI-BLUE/BLACK-1805900;STELLA;Draft;Shirts;Roadster;Adults-Women;Women;;;;Fashion;;2017;S,RDSTSHRT00020885,M,RDSTSHRT00020886,L,RDSTSHRT00020887,XL,RDSTSHRT00020888;1099.00;;;;;;;roadster-mar-main-women;zerotype;;Spring;No comment entered;No
1805895;STELLA35SLI-LICHEN/BLUE-1805895;STELLA;Draft;Shirts;Roadster;Adults-Women;Women;;;;Fashion;;2017;S,RDSTSHRT00020865,M,RDSTSHRT00020866,L,RDSTSHRT00020867,XL,RDSTSHRT00020868;1099.00;;;;;;;roadster-mar-main-women;zerotype;;Spring;No comment entered;No
1804824;RANDYFRAC2-OLIVE+BLACK-1804824;RANDY;Draft;Tops;Roadster;Adults-Women;Women;;;;Fashion;;2017;S,RDSTTOPS00009996,M,RDSTTOPS00009997,L,RDSTTOPS00009998,XL,RDSTTOPS00009999;899.00;;;;;;;roadster-mar-main-women;zerotype;;Spring;roadster-mar-main-women;No
1804817;RANDYFRAC1-BURGUNDY+BLACK-1804817;RANDY;Draft;Tops;Roadster;Adults-Women;Women;;;;Fashion;;2017;S,RDSTTOPS00009992,M,RDSTTOPS00009993,L,RDSTTOPS00009994,XL,RDSTTOPS00009995;899.00;;;;;;;roadster-mar-main-women;zerotype;;Spring;roadster-mar-main-women;No
1804811;CINDYFRAC5-BLACK-1804811;CINDY;Draft;Tops;Roadster;Adults-Women;Women;;;;Fashion;;2017;S,RDSTTOPS00009988,M,RDSTTOPS00009989,L,RDSTTOPS00009990,XL,RDSTTOPS00009991;999.00;;;;;;;roadster-mar-main-women;zerotype;;Spring;roadster-mar-main-women;No
1804803;CINDYFRAC4-BURGUNDY-1804803;CINDY;Draft;Tops;Roadster;Adults-Women;Women;;;;Fashion;;2017;S,RDSTTOPS00009984,M,RDSTTOPS00009985,L,RDSTTOPS00009986,XL,RDSTTOPS00009987;999.00;;;;;;;roadster-mar-main-women;zerotype;;Spring;roadster-mar-main-women;No
1804796;CINDYFRAC3-OLIVE-1804796;CINDY;Draft;Tops;Roadster;Adults-Women;Women;;;;Fashion;;2017;S,RDSTTOPS00009980,M,RDSTTOPS00009981,L,RDSTTOPS00009982,XL,RDSTTOPS00009983;999.00;;;;;;;roadster-mar-main-women;zerotype;;Spring;roadster-mar-main-women;No
1804791;CINDYFRAC2-WHITE-1804791;CINDY;Draft;Tops;Roadster;Adults-Women;Women;;;;Fashion;;2017;S,RDSTTOPS00009976,M,RDSTTOPS00009977,L,RDSTTOPS00009978,XL,RDSTTOPS00009979;999.00;;;;;;;roadster-mar-main-women;zerotype;;Spring;roadster-mar-main-women;No
1804784;CINDYFRAC1-MUSTERD-1804784;CINDY;Draft;Tops;Roadster;Adults-Women;Women;;;;Fashion;;2017;S,RDSTTOPS00009972,M,RDSTTOPS00009973,L,RDSTTOPS00009974,XL,RDSTTOPS00009975;999.00;;;;;;;roadster-mar-main-women;zerotype;;Spring;roadster-mar-main-women;No
1803340;HRX-WJ-MR-47-Indigo-1803340;HRX Women Denim Bottom;Draft;Jeans;HRX by Hrithik Roshan;Adults-Women;Women;;;;Fashion;;2017;26,HBHRJENS00001357,28,HBHRJENS00001358,30,HBHRJENS00001359,32,HBHRJENS00001360,34,HBHRJENS00001361;1899.00;;;<p>86% Cotton 12 % polyester 2% Elastane</p>;;;;;zerotype;;Spring;;No
1783339;Melton-03-Teal-1783339;Mens Graphic tee;Draft;Tshirts;Roadster;Adults-Men;Men;Teal;;;Fashion;Casual;2017;S,RDSTTSHT00029590,M,RDSTTSHT00029591,L,RDSTTSHT00029592,XL,RDSTTSHT00029593;699.00;Teal printed waist length T-shirt, has a round neck, short raglan sleeves;Slip into this snug T-shirt from Roadster and look your very best.  Wear this teal piece many ways, with dark wash jeans, cuffed chinos and more.;100% cotton <br />Machine-wash;The model (height 6') is wearing a size M;;Roadster Teal Printed Round Neck T-shirt;NIKO0457,Roadster,roadster-fnf-main,roadster-fnf-men,roadster-fnf-men-tees,roadster-mar-main-men;zerotype;;Spring;No comment entered;No
1777384;MBDR0133-MEDSTONE-1777384;WOMENS WESTERN WEAR  DRESS;Draft;Dresses;Ms.Taken;Adults-Women;Women;;;;Fashion;;2017;XS,MTENDRSS00000201,S,MTENDRSS00000202,M,MTENDRSS00000203,L,MTENDRSS00000204,XL,MTENDRSS00000205;1999.00;;;;;;;;zerotype;;Spring;;No
1774293;YMS362-BEIGE-1774293;YMS362;Draft;Shirts;YWC;Adults-Men;Men;;;;Fashion;;2017;S,YWCCSHRT00000076,L,YWCCSHRT00000077,XL,YWCCSHRT00000078,XXL,YWCCSHRT00000079,M,YWCCSHRT00000080;1899.00;<p>Cotton</p>;;;;;;;zerotype;;Summer;;No
1774224;YMT371-ORANGE-1774224;YMT371;Draft;Tshirts;YWC;Adults-Men;Men;;;;Fashion;;2017;S,YWCCTSHT00001000,L,YWCCTSHT00001001,XL,YWCCTSHT00001002,XXL,YWCCTSHT00001003,M,YWCCTSHT00001004;1499.00;<p>Blended</p>;;;;;;;zerotype;;Summer;;No
1774222;YMT371-BLUE-1774222;YMT371;Draft;Tshirts;YWC;Adults-Men;Men;;;;Fashion;;2017;S,YWCCTSHT00000995,L,YWCCTSHT00000996,XL,YWCCTSHT00000997,XXL,YWCCTSHT00000998,M,YWCCTSHT00000999;1499.00;<p>Blended</p>;;;;;;;zerotype;;Summer;;No
1774198;YMT281-PURPLE-1774198;YMT281;Draft;Tshirts;YWC;Adults-Men;Men;;;;Fashion;;2017;L,YWCCTSHT00000930,XL,YWCCTSHT00000931,XXL,YWCCTSHT00000932,S,YWCCTSHT00000933,M,YWCCTSHT00000934;1399.00;<p>Blended</p>;;;;;;;zerotype;;Summer;;No
1774197;YMT281-BROWN-1774197;YMT281;Draft;Tshirts;YWC;Adults-Men;Men;;;;Fashion;;2017;S,YWCCTSHT00000925,L,YWCCTSHT00000926,XL,YWCCTSHT00000927,XXL,YWCCTSHT00000928,M,YWCCTSHT00000929;1399.00;<p>Blended</p>;;;;;;;zerotype;;Summer;;No
1774191;YMT277-GREEN-1774191;YMT277;Draft;Tshirts;YWC;Adults-Men;Men;;;;Fashion;;2017;S,YWCCTSHT00000900,L,YWCCTSHT00000901,XL,YWCCTSHT00000902,XXL,YWCCTSHT00000903,M,YWCCTSHT00000904;1499.00;<p>Cotton</p>;;;;;;;zerotype;;Summer;;No
1774190;YMT277-DENIMEX BLUE-1774190;YMT277;Draft;Tshirts;YWC;Adults-Men;Men;;;;Fashion;;2017;S,YWCCTSHT00000895,L,YWCCTSHT00000896,XL,YWCCTSHT00000897,XXL,YWCCTSHT00000898,M,YWCCTSHT00000899;1499.00;<p>Cotton</p>;;;;;;;zerotype;;Summer;;No
1774189;YMT276-RED-1774189;YMT276;Draft;Tshirts;YWC;Adults-Men;Men;;;;Fashion;;2017;S,YWCCTSHT00000890,L,YWCCTSHT00000891,XL,YWCCTSHT00000892,XXL,YWCCTSHT00000893,M,YWCCTSHT00000894;1299.00;<p>Cotton</p>;;;;;;;zerotype;;Summer;;No
1774168;YMP432-BROWN-1774168;YMP432;Draft;Tshirts;YWC;Adults-Men;Men;;;;Fashion;;2017;S,YWCCTSHT00000785,L,YWCCTSHT00000786,XL,YWCCTSHT00000787,XXL,YWCCTSHT00000788,M,YWCCTSHT00000789;1299.00;<p>Cotton</p>;;;;;;;zerotype;;Summer;;No
1774111;YMJ256-GREY MELANGE-1774111;YMJ256;Draft;Track Pants;YWC;Adults-Men;Men;;;;Fashion;;2017;S,YWCCTRPT00000121,L,YWCCTRPT00000122,XL,YWCCTRPT00000123,XXL,YWCCTRPT00000124,M,YWCCTRPT00000125;2099.00;<p>Cotton</p>;;;;;;tbfg-fitfabulous-sports,tbfg-sportsfanatic,tbfg-sportsfashion-athleisurelyyours-viewall,tbfg-sportsfashion-athleisurelyyours-joggers,tbfg-sports-fitfabulous-day2-apparel;zerotype;;Summer;tbfg-sports-fitfabulous-athleisuregrati;No
1770985;ANWSS1700512B-Multi Color-1770985;AnoukMulti ColorPLAZZO;Draft;Palazzos;Anouk;Adults-Women;Women;;;;Fashion;;2017;S,ANUKPLZS00000145,M,ANUKPLZS00000146,L,ANUKPLZS00000147,XL,ANUKPLZS00000148;1499.00;;;;;;;anouk-ss17-newarrivals;zerotype;;Spring;anouk-ss17-newarrivals;No
1770984;ANWSS1700512A-Multi Color-1770984;AnoukMulti ColorPLAZZO;Draft;Palazzos;Anouk;Adults-Women;Women;;;;Fashion;;2017;S,ANUKPLZS00000141,M,ANUKPLZS00000142,L,ANUKPLZS00000143,XL,ANUKPLZS00000144;1499.00;;;;;;;anouk-ss17-newarrivals;zerotype;;Spring;anouk-ss17-newarrivals;No
1763188;SS17WTE010B-White/Blue-1763188;3-WAY STRIPE T-SHIRT;Draft;Tshirts;ether;Adults-Women;Women;;;;Fashion;;2017;S,ETHRTSHT00003215,M,ETHRTSHT00003216,L,ETHRTSHT00003217,XL,ETHRTSHT00003218;499.00;;;;;;;;zerotype;;Spring;;No
1758105;MNHSS17GNGTEE006-C-Mango yellow/Bright White-1758105;Men Y/D striper V neck;Draft;Tshirts;Mast & Harbour;Adults-Men;Men;White;Mustard;;Fashion;Casual;2017;S,MTHBTSHT00008460,M,MTHBTSHT00008461,L,MTHBTSHT00008462,XL,MTHBTSHT00008463;499.00;White striped waist length T-shirt, has a v-neck, short sleeves;Liven up your collection of T-shirts with this high-end tee from Mast & Harbour.  This white shirt is the perfect note to strike with a pair of skinny jeans when you're looking for a simple night out at the bars.;Cotton <br> Machine-wash;The model (height 6' and shoulders 18") is wearing a size M;;Mast & Harbour Men White Striped V-Neck T-Shirt;Mast & Harbour, mnh-ss17-men-newarv,mnh-ss17-newarv,mnh-ss17-gng,ss17-apr-newarv,myntra-fashion-store;zerotype;;Spring;No comment entered;No
1757457;DB FF - 4005B-Blush base & black polka-1757457;Pussy Bow- Polka;Draft;Tops;DressBerry;Adults-Women;Women;;;;Fashion;;2017;S,DSBYTOPS00012545,M,DSBYTOPS00012546,L,DSBYTOPS00012547,XL,DSBYTOPS00012548;1199.00;;;;;;;;zerotype;;Spring;;No
1756377;AAY-WJ-126-LT. BLUE-1756377;Indigo dyed denim;Draft;Jeans;all about you;Adults-Women;Women;;;;Fashion;;2017;28,AATUJENS00000341,30,AATUJENS00000342,32,AATUJENS00000343,34,AATUJENS00000344;1999.00;;;;;;;aay-ss179mar;zerotype;;Spring;sis all ss17;No
1755114;SS17WD014C-BLACK-1755114;FLARED KNIT DRESS;Draft;Dresses;ether;Adults-Women;Women;;;;Fashion;;2017;S,ETHRDRSS00000285,M,ETHRDRSS00000286,L,ETHRDRSS00000287,XL,ETHRDRSS00000288;999.00;;;;;;;;zerotype;;Spring;;No
1755113;SS17WD014B-NAVY-1755113;FLARED KNIT DRESS;Draft;Dresses;ether;Adults-Women;Women;;;;Fashion;;2017;S,ETHRDRSS00000281,M,ETHRDRSS00000282,L,ETHRDRSS00000283,XL,ETHRDRSS00000284;999.00;;;;;;;;zerotype;;Spring;;No
1755112;SS17WD014A-WHITE-1755112;FLARED KNIT DRESS;Draft;Dresses;ether;Adults-Women;Women;;;;Fashion;;2017;S,ETHRDRSS00000277,M,ETHRDRSS00000278,L,ETHRDRSS00000279,XL,ETHRDRSS00000280;999.00;;;;;;;;zerotype;;Spring;;No
1753968;HRX-SS17-GKCWNBLGA0175-b-MIDNIGHT BLUE-1753968;Active Seamless Tights;Draft;Tights;HRX by Hrithik Roshan;Adults-Women;Women;;;;Fashion;;2017;S,HBHRTIGH00000445,M,HBHRTIGH00000446,L,HBHRTIGH00000447;1399.00;;;;;;;;zerotype;;Summer;;No
1753894;AAY-WJ-122-LT. BLUE-1753894;Indigo Dyed denim;Draft;Shorts;all about you;Adults-Women;Women;;;;Fashion;;2017;28,AATUSHOR00000069,30,AATUSHOR00000070,32,AATUSHOR00000071,34,AATUSHOR00000072;1699.00;;;;;;;aay-ss179mar;zerotype;;Spring;sis all ss17;No
1753499;SADER-03-CHARCOAL/ BLACK-1753499;SLEEVLESS TEE COLOR BLOCKING;Draft;Tshirts;Roadster;Adults-Men;Men;;;;Fashion;;2017;S,RDSTTSHT00027948,M,RDSTTSHT00027949,L,RDSTTSHT00027950,XL,RDSTTSHT00027951;399.00;;;;;;;roadster-mar-main-men;zerotype;;Spring;roadster-mar-main-men;No
1753498;SADER-02-LT GREY MEL/ANTHRA MEL-1753498;SLEEVLESS TEE COLOR BLOCKING;Draft;Tshirts;Roadster;Adults-Men;Men;;;;Fashion;;2017;S,RDSTTSHT00027944,M,RDSTTSHT00027945,L,RDSTTSHT00027946,XL,RDSTTSHT00027947;399.00;;;;;;;roadster-mar-main-men;zerotype;;Spring;roadster-mar-main-men;No
1750254;HRX-SS17-MK-7637A-POSEIDON-1750254;HRX MEN'S H/ SLEEVE TEE;Draft;Tshirts;HRX by Hrithik Roshan;Adults-Men;Men;;;;Fashion;;2017;S,HBHRTSHT00006662,M,HBHRTSHT00006663,L,HBHRTSHT00006664,XL,HBHRTSHT00006665;1299.00;;;;;;;;zerotype;;Summer;;No
1745256;GNG Crew Neck with pocket8-Charcoal Grey-1745256;Anchor GnG Crew Solid With pocket;Draft;Tshirts;Mast & Harbour;Adults-Women;Women;;;;Fashion;;2017;XS,MTHBTSHT00008154,S,MTHBTSHT00008155,M,MTHBTSHT00008156,L,MTHBTSHT00008157,XL,MTHBTSHT00008158;399.00;;;;;;;ss17-new-basics,mnh-ss17;zerotype;;Spring;add tag;No
1745255;GNG Crew Neck with pocket7-Navy Peone-1745255;Anchor GnG Crew Solid With pocket;Draft;Tshirts;Mast & Harbour;Adults-Women;Women;;;;Fashion;;2017;XS,MTHBTSHT00008149,S,MTHBTSHT00008150,M,MTHBTSHT00008151,L,MTHBTSHT00008152,XL,MTHBTSHT00008153;399.00;;;;;;;ss17-new-basics,mnh-ss17;zerotype;;Spring;add tag;No
1745252;GNG Crew Neck with pocket6-Winter White-1745252;Anchor GnG Crew Solid with Striper Pocket;Draft;Tshirts;Mast & Harbour;Adults-Women;Women;;;;Fashion;;2017;XS,MTHBTSHT00008134,S,MTHBTSHT00008135,M,MTHBTSHT00008136,L,MTHBTSHT00008137,XL,MTHBTSHT00008138;399.00;;;;;;;ss17-new-basics,mnh-ss17;zerotype;;Spring;add tag;No
1745251;GNG Crew Neck with pocket5-Cream Pink-1745251;Anchor GnG Crew Solid with Striper Pocket;Draft;Tshirts;Mast & Harbour;Adults-Women;Women;;;;Fashion;;2017;XS,MTHBTSHT00008129,S,MTHBTSHT00008130,M,MTHBTSHT00008131,L,MTHBTSHT00008132,XL,MTHBTSHT00008133;399.00;;;;;;;ss17-new-basics,mnh-ss17;zerotype;;Spring;add tag;No
1745249;GNG Crew Neck with pocket4-Blue Bell-1745249;Anchor GnG Crew Solid with Striper Pocket;Draft;Tshirts;Mast & Harbour;Adults-Women;Women;;;;Fashion;;2017;XS,MTHBTSHT00008119,S,MTHBTSHT00008120,M,MTHBTSHT00008121,L,MTHBTSHT00008122,XL,MTHBTSHT00008123;399.00;;;;;;;ss17-new-basics,mnh-ss17;zerotype;;Spring;add tag;No
1745246;GNG Crew Neck with pocket3-Peach Melba-1745246;Anchor GnG Crew Solid with Striper Pocket;Draft;Tshirts;Mast & Harbour;Adults-Women;Women;;;;Fashion;;2017;XS,MTHBTSHT00008104,S,MTHBTSHT00008105,M,MTHBTSHT00008106,L,MTHBTSHT00008107,XL,MTHBTSHT00008108;399.00;;;;;;;ss17-new-basics,mnh-ss17;zerotype;;Spring;add tag;No
1745242;GNG Crew Neck with pocket2-Shell Pink-1745242;Anchor GnG Crew Solid with Striper Pocket;Draft;Tshirts;Mast & Harbour;Adults-Women;Women;;;;Fashion;;2017;XS,MTHBTSHT00008084,S,MTHBTSHT00008085,M,MTHBTSHT00008086,L,MTHBTSHT00008087,XL,MTHBTSHT00008088;399.00;;;;;;;ss17-new-basics,mnh-ss17;zerotype;;Spring;add tag;No
1745241;GNG Crew Neck with pocket1-Shell Pink-1745241;Anchor GnG Crew Solid with Striper Pocket;Draft;Tshirts;Mast & Harbour;Adults-Women;Women;;;;Fashion;;2017;XS,MTHBTSHT00008079,S,MTHBTSHT00008080,M,MTHBTSHT00008081,L,MTHBTSHT00008082,XL,MTHBTSHT00008083;399.00;;;;;;;ss17-new-basics,mnh-ss17;zerotype;;Spring;add tag;No
1745239;GNG Crew Neck with pocket-Bird of Paradise-1745239;Anchor GnG Crew Solid with Striper Pocket;Draft;Tshirts;Mast & Harbour;Adults-Women;Women;;;;Fashion;;2017;XS,MTHBTSHT00008069,S,MTHBTSHT00008070,M,MTHBTSHT00008071,L,MTHBTSHT00008072,XL,MTHBTSHT00008073;399.00;;;;;;;ss17-new-basics,mnh-ss17;zerotype;;Spring;add tag;No
1744699;AAYEMKA1126B-Aqua Splash/Ivory-1744699;Kurtas;Draft;Kurtas;all about you;Adults-Women;Women;;;;Fashion;;2017;S,AATUKRTA00001148,M,AATUKRTA00001149,L,AATUKRTA00001150,XL,AATUKRTA00001151;1499.00;;;;;;;aay-ss179mar;zerotype;;Spring;sis all ss17;No
1744698;AAYEMKA1126A-Yellow/Ivory-1744698;Kurtas;Draft;Kurtas;all about you;Adults-Women;Women;;;;Fashion;;2017;S,AATUKRTA00001144,M,AATUKRTA00001145,L,AATUKRTA00001146,XL,AATUKRTA00001147;1499.00;;;;;;;aay-ss179mar;zerotype;;Spring;sis all ss17;No
1733295;True Blue Iven2-INDIGO LIGHT-1733295;Shirts;Draft;Shirts;Mast & Harbour;Adults-Women;Women;;;;Fashion;;2017;XS,MTHBSHRT00007825,S,MTHBSHRT00007826,M,MTHBSHRT00007827,L,MTHBSHRT00007828,XL,MTHBSHRT00007829;1299.00;;;;;;;mnh-ss17;zerotype;;Spring;add tag;No
1733294;True Blue Iven1-INDIGO LIGHT-1733294;Shirts;Draft;Shirts;Mast & Harbour;Adults-Women;Women;;;;Fashion;;2017;XS,MTHBSHRT00007820,S,MTHBSHRT00007821,M,MTHBSHRT00007822,L,MTHBSHRT00007823,XL,MTHBSHRT00007824;1299.00;;;;;;;mnh-ss17;zerotype;;Spring;add tag;No
1733291;True Blue Jasper2-ICE DENIM-1733291;Shirts;Draft;Shirts;Mast & Harbour;Adults-Women;Women;;;;Fashion;;2017;XS,MTHBSHRT00007805,S,MTHBSHRT00007806,M,MTHBSHRT00007807,L,MTHBSHRT00007808,XL,MTHBSHRT00007809;1299.00;;;;;;;mnh-ss17;zerotype;;Spring;add tag;No
1722762;AARON-01-NAVY/LT GREY MELANGE-1722762;MENS STRIPER CREW NECK T-SHIRT;Draft;Tshirts;Roadster;Adults-Men;Men;;;;Fashion;;2017;S,RDSTTSHT00026848,M,RDSTTSHT00026849,L,RDSTTSHT00026850,XL,RDSTTSHT00026851;699.00;;;;;;;;zerotype;;Spring;;No
1716881;MNHPATREA- 01A-LT.BLUE-1716881;LADIES TOPS;Draft;Tops;Mast & Harbour;Adults-Women;Women;;;;Fashion;;2017;XS,MTHBTOPS00003480,S,MTHBTOPS00003481,M,MTHBTOPS00003482,L,MTHBTOPS00003483,XL,MTHBTOPS00003484;1299.00;;;;;;;mnh-ss17-wom-newarv,ss17-apr-newarv;zerotype;;Spring;No comment entered;No
1711580;MNHSS17TBLTEE-054 A8B-Crystal blue/Myconos Blue-1711580;Mens t-shirt;Draft;Tshirts;Mast & Harbour;Adults-Men;Men;;;;Fashion;;2017;S,MTHBTSHT00007284,M,MTHBTSHT00007285,L,MTHBTSHT00007286,XL,MTHBTSHT00007287;899.00;;;;;;;mnh-ss17,myntra-fashion-store;zerotype;;Spring;add tag;No
1711557;MNHSS17ANCTEE-404B-Cement Grey/Mango yellow Striper-1711557;Mens t-shirt;Draft;Tshirts;Mast & Harbour;Adults-Men;Men;;;;Fashion;;2017;S,MTHBTSHT00007192,M,MTHBTSHT00007193,L,MTHBTSHT00007194,XL,MTHBTSHT00007195;899.00;;;;;;;mnh-ss17,myntra-fashion-store;zerotype;;Spring;add tag;No
1711555;MNHSS17ANCTEE-402-BB-Electric Blue/Mango Yellow Striper-1711555;Mens t-shirt;Draft;Tshirts;Mast & Harbour;Adults-Men;Men;;;;Fashion;;2017;S,MTHBTSHT00007184,M,MTHBTSHT00007185,L,MTHBTSHT00007186,XL,MTHBTSHT00007187;899.00;;;;;;;mnh-ss17,myntra-fashion-store;zerotype;;Spring;add tag;No
1708261;ANKUSSMK270-Beige/ Maroon-1708261;Anouk Printed Trousers;Draft;Trousers;Anouk;Adults-Women;Women;Maroon;;;Fashion;Casual;2017;S,ANUKPLZS00000105,M,ANUKPLZS00000106,L,ANUKPLZS00000107,XL,ANUKPLZS00000108;1299.00;Maroon printed casual mid-rise regular trousers, has a zipper closure;These trousers from Anouk feature a simple and elegant design that you're sure to love.  Dress up this printed maroon pair with patent heels and a casual blazer when you're heading out to meet with clients.;Cotton <br> Hand-wash;The model (height 5'8" and waist 28") is wearing a size 28;;Anouk Women Maroon Printed Tapered Fit Regular Trousers;Anouk,anouk-ss17-newarrivals;zerotype;;Spring;No comment entered;No
1708198;ANKUSSMK348-OFFWHITE-1708198;Anouk Solid Kurta;Draft;Kurtas;Anouk;Adults-Women;Women;;;;Fashion;;2017;XS,ANUKKRTA00028789,S,ANUKKRTA00028790,M,ANUKKRTA00028791,L,ANUKKRTA00028792,XL,ANUKKRTA00028793,XXL,ANUKKRTA00028794;1199.00;;;;;;;;zerotype;;Spring;;No
1700402;HRX-SS17-WW-7931-B-Sodalite Blue-1700402;Womens Trouser;Draft;Trousers;HRX by Hrithik Roshan;Adults-Women;Women;;;;Fashion;;2017;S,HBHRTRSR00000892,M,HBHRTRSR00000893,L,HBHRTRSR00000894,XL,HBHRTRSR00000895;1599.00;;;;;;;;zerotype;;Summer;;No
1700401;HRX-SS17-WW-7931-A-Sodalite Blue-1700401;Womens Trouser;Draft;Trousers;HRX by Hrithik Roshan;Adults-Women;Women;;;;Fashion;;2017;S,HBHRTRSR00000888,M,HBHRTRSR00000889,L,HBHRTRSR00000890,XL,HBHRTRSR00000891;1599.00;;;;;;;;zerotype;;Summer;;No
1700388;HRX-SS17-WK-7944-B-Sky Driver-1700388;Women Tshirt;Draft;Tshirts;HRX by Hrithik Roshan;Adults-Women;Women;;;;Fashion;;2017;S,HBHRTSHT00005748,M,HBHRTSHT00005749,L,HBHRTSHT00005750,XL,HBHRTSHT00005751;799.00;;;;;;;;zerotype;;Summer;;No
1700387;HRX-SS17-WK-7944-A-JET BLACK-1700387;Women Tshirt;Draft;Tshirts;HRX by Hrithik Roshan;Adults-Women;Women;;;;Fashion;;2017;S,HBHRTSHT00005744,M,HBHRTSHT00005745,L,HBHRTSHT00005746,XL,HBHRTSHT00005747;799.00;;;;;;;;zerotype;;Summer;;No
1700382;HRX-SS17-WK-7915-B-Lollipop-1700382;Women Tshirt;Draft;Tshirts;HRX by Hrithik Roshan;Adults-Women;Women;;;;Fashion;;2017;S,HBHRTSHT00005724,M,HBHRTSHT00005725,L,HBHRTSHT00005726,XL,HBHRTSHT00005727;799.00;;;;;;;;zerotype;;Summer;;No
1700381;HRX-SS17-WK-7915-A-JET BLACK-1700381;Women Tshirt;Draft;Tshirts;HRX by Hrithik Roshan;Adults-Women;Women;;;;Fashion;;2017;S,HBHRTSHT00005720,M,HBHRTSHT00005721,L,HBHRTSHT00005722,XL,HBHRTSHT00005723;799.00;;;;;;;;zerotype;;Summer;;No
1700347;HRX-SS17-MK-7654-B-Sulphur-1700347;Men's t-shirt;Draft;Tshirts;HRX by Hrithik Roshan;Adults-Men;Men;;;;Fashion;;2017;S,HBHRTSHT00005677,M,HBHRTSHT00005678,L,HBHRTSHT00005679,XL,HBHRTSHT00005680,XXL,HBHRTSHT00005681;899.00;;;;;;;tbfg-fitfabulous-sports,tbfg-sportsfanatic,tbfg-sportsfashion-athleisurelyyours-hrx,tbfg-sports-fitfabulous-day1-topwear,tbfg-sports-fitfabulous-brands-hrx,tbfg-sportsfashion-athleisurelyyours-viewall,tbfg-sportsfashion-athleisurelyyours-tshirts,tbfg-sports-fitfabulous-day2-apparel,tbfg-sports-fitfabulous-day3-topwear;zerotype;;Summer;tbfg-sports-fitfabulous-day3-topwear;No
1684675;RD-MJ-1038R-D.INDIGO-1684675;DENIM JEANS;Draft;Jeans;Roadster;Adults-Men;Men;;;;Fashion;;2017;28,RDSTJENS00013166,30,RDSTJENS00013167,32,RDSTJENS00013168,34,RDSTJENS00013169,36,RDSTJENS00013170;1499.00;;;;;;;roadster-mar-main-men;zerotype;;Spring;roadster-mar-main-men;No
1684674;RD-MJ-1037R-M.INDIGO-1684674;DENIM JEANS;Draft;Jeans;Roadster;Adults-Men;Men;;;;Fashion;;2017;28,RDSTJENS00013161,30,RDSTJENS00013162,32,RDSTJENS00013163,34,RDSTJENS00013164,36,RDSTJENS00013165;1499.00;;;;;;;roadster-mar-main-men;zerotype;;Spring;roadster-mar-main-men;No
1676133;117DBWSLD027075B-MEDIUM wash-1676133;DRESS;Draft;Dresses;DressBerry;Adults-Women;Women;;;;Fashion;;2017;XS,DSBYDRSS00006553,S,DSBYDRSS00006554,M,DSBYDRSS00006555,L,DSBYDRSS00006556,XL,DSBYDRSS00006557;1799.00;;;;;;;;zerotype;;Spring;;No
1676132;117DBWSLD027075A-MEDIUM wash-1676132;DRESS;Draft;Dresses;DressBerry;Adults-Women;Women;;;;Fashion;;2017;XS,DSBYDRSS00006548,S,DSBYDRSS00006549,M,DSBYDRSS00006550,L,DSBYDRSS00006551,XL,DSBYDRSS00006552;1699.00;;;;;;;;zerotype;;Spring;;No
1662212;DB-WJ-103-charcoal-1662212;5 pkt denim;Draft;Jeans;DressBerry;Adults-Women;Women;;;;Fashion;;2016;26,DSBYJENS00000757,28,DSBYJENS00000758,30,DSBYJENS00000759,32,DSBYJENS00000760,34,DSBYJENS00000761;1499.00;;;;;;;;zerotype;;Fall;;No
1662211;DB-WJ-102-black-1662211;5 pkt denim;Draft;Jeans;DressBerry;Adults-Women;Women;;;;Fashion;;2016;26,DSBYJENS00000752,28,DSBYJENS00000753,30,DSBYJENS00000754,32,DSBYJENS00000755,34,DSBYJENS00000756;1499.00;;;;;;;;zerotype;;Fall;;No
1641560;MNHWTOP-015A-TURQUOISE-1641560;Tops;Draft;Tops;Mast & Harbour;Adults-Women;Women;;;;Fashion;;2017;XS,MTHBTOPS00003285,S,MTHBTOPS00003286,M,MTHBTOPS00003287,L,MTHBTOPS00003288,XL,MTHBTOPS00003289;1299.00;;;;;;;mnh-ss17-wom-newarv,ss17-apr-newarv;zerotype;;Spring;No comment entered;No
1641552;MNHLALA-010A-BLUE-1641552;Tops;Draft;Tops;Mast & Harbour;Adults-Women;Women;;;;Fashion;;2017;XS,MTHBTOPS00003245,S,MTHBTOPS00003246,M,MTHBTOPS00003247,L,MTHBTOPS00003248,XL,MTHBTOPS00003249;1299.00;;;;;;;mnh-ss17-wom-newarv,ss17-apr-newarv;zerotype;;Spring;No comment entered;No
1548555;ANSHUJKG830-Maroon-1548555;Anouk MAROON Cambric  Ajrakh printed  Kurta;Draft;Shrug;Anouk;Adults-Women;Women;Brown;Black;;Fashion;Ethnic;2016;S,ANUKKRTA00024633,M,ANUKKRTA00024634,L,ANUKKRTA00024635,XL,ANUKKRTA00024636;1299.00;Brown and black Ajrakh print A-line shrug, has a v-neck, sleeveless, asymmetric hem;Add class to your look with this appealing A-line shrug from Anouk. When you have a weeknight date, pair this brown kurta with leggings and canvas flats.;100% cotton <br />Machine-wash;The model (height 5'8", chest 33'' and waist 28'') is wearing a size S;;Anouk Brown & Black Ajrakh Print A-Line Kurta;Anouk,ajrakhkurtas,HH07FEB17,HH12JAN17,v-day-styles,welcome-to-myntra-feb,anouk-ss17-ajrakh,anoukss17-jaipuriblocks;zerotype;;Fall;No comment entered;No
1544860;HD-7832-C-BLACK-1544860;WOMEN`S SPORT BRA;Draft;Tops;HRX by Hrithik Roshan;Adults-Women;Women;;;;Fashion;;2017;S,HBHRTOPS00000703,M,HBHRTOPS00000704,L,HBHRTOPS00000705,XL,HBHRTOPS00000706;1099.00;;;;;;;;zerotype;;Summer;season change;No
1544859;HD-7832-B-CHILI PEPPER-1544859;WOMEN`S SPORT BRA;Draft;Tops;HRX by Hrithik Roshan;Adults-Women;Women;;;;Fashion;;2017;S,HBHRTOPS00000699,M,HBHRTOPS00000700,L,HBHRTOPS00000701,XL,HBHRTOPS00000702;1099.00;;;;;;;;zerotype;;Summer;season change;No
1544858;HD-7832-A-WILD LIME-1544858;WOMEN`S SPORT BRA;Draft;Tops;HRX by Hrithik Roshan;Adults-Women;Women;;;;Fashion;;2017;S,HBHRTOPS00000695,M,HBHRTOPS00000696,L,HBHRTOPS00000697,XL,HBHRTOPS00000698;1099.00;;;;;;;;zerotype;;Summer;season change;No
1540735;AW16IR-S09 A-PEARLED IVORY ALLOVER PRINT-1540735;KURTA STRAIGHT;Draft;Kurtas;all about you;Adults-Women;Women;Pink;Cream;;Fashion;Ethnic;2016;S,AATUKRTA00000553,M,AATUKRTA00000554,L,AATUKRTA00000555,XL,AATUKRTA00000556;1499.00;Pink and cream-coloured printed straight kurta, has a keyhole neck, three quarter sleeves, straight hem;You'll love the style, comfort and durability of this all about you kurta. Sport this pink piece with studded flats and minimal jewellery for a simple yet stunning evening ensemble.;100% cotton <br /> Machine-wash;The model (height 5'8", chest 33'' and waist 28'') is wearing a size S;;all about you from Deepika Padukone Women Pink & Cream-Coloured Printed Straight Kurta;all about you from Deepika Padukone,rtw-fusion-kurtas;zerotype;;Fall;No comment entered;No
1468737;RIGHTEOUS-02-CLASSIC RED-1468737;MENS H/SLEEVE TEE;Tech Reject;Tshirts;Roadster;Adults-Men;Men;Maroon;Black;;Fashion;Casual;2017;S,RDSTTSHT00023955,M,RDSTTSHT00023956,L,RDSTTSHT00023957,XL,RDSTTSHT00023958;699.00;Maroon printed waist length T-shirt, has a round neck, short sleeves;<p>Pull over this snug tee to keep your style looking fresh.  A quick drink with the gang is as easy as putting this maroon piece in league with some slim black jeans and a sturdy overshirt.</p>;<p>100% Cotton <br> Machine-wash</p>;<p>The model (height 6' and shoulders 18") is wearing a size M</p>;;Roadster Men Maroon Printed Slim Fit Round Neck T-Shirt;Roadster,roadster-hp-app,roadster-mar-main-men;zerotype;;Spring;roadster-mar-main-men;No
1468687;MEDIEVAL-04-COBALT-1468687;MENS H/SLEEVE TEE;Tech Reject;Tshirts;Roadster;Adults-Men;Men;Blue;;;Fashion;Casual;2016;S,RDSTTSHT00023827,M,RDSTTSHT00023828,L,RDSTTSHT00023829,XL,RDSTTSHT00023830;599.00;Blue printed waist length T-shirt, has a round neck, short sleeves;<p>You'll love the softness and durability of this high-fashion Roadster tee.  A quick drink with the gang is as easy as putting this blue piece in league with some slim black jeans and a sturdy overshirt.</p>;<p>100% Cotton <br> Machine-wash</p>;<p>The model (height 6' and shoulders 18") is wearing a size M</p>;;Roadster Men Blue Printed Slim Fit Round Neck T-Shirt;Roadster,roadster-hp-app;zerotype;;Fall;No comment entered;No
1468686;MEDIEVAL-03-BLACK-1468686;MENS H/SLEEVE TEE;Tech Reject;Tshirts;Roadster;Adults-Men;Men;Black;;;Fashion;Casual;2017;S,RDSTTSHT00023823,M,RDSTTSHT00023824,L,RDSTTSHT00023825,XL,RDSTTSHT00023826;599.00;Black printed waist length T-shirt, has a round neck, short sleeves;<p>This top-notch T-shirt from Roadster will have you looking fresh all year long.  Wear this black piece many ways, with dark wash jeans, cuffed chinos and more.</p>;<p>100% Cotton <br> Machine-wash</p>;<p>The model (height 6' and shoulders 18") is wearing a size M</p>;;Roadster Men Black Printed Slim Fit Round Neck T-Shirt;Roadster,roadster-hp-app,roadster-mar-main-men;zerotype;;Spring;roadster-mar-main-men;No
1468684;MEDIEVAL-01-Lt GREY MELANGE-1468684;MENS H/SLEEVE TEE;Tech Reject;Tshirts;Roadster;Adults-Men;Men;Grey Melange;;;Fashion;Casual;2016;S,RDSTTSHT00023815,M,RDSTTSHT00023816,L,RDSTTSHT00023817,XL,RDSTTSHT00023818;599.00;Grey Melange printed waist length T-shirt, has a round neck, short sleeves;<p>This top-notch T-shirt from Roadster will have you looking fresh all year long.  This grey melange piece is incredibly versatile and can be matched with dark or light denim for an evening out with the guys.</p>;<p>100% Cotton <br> Machine-wash</p>;<p>The model (height 6' and shoulders 18") is wearing a size M</p>;;Roadster Men Grey Melange Printed Slim Fit Round Neck T-Shirt;Roadster,roadster-hp-app;zerotype;;Fall;No comment entered;No
1468683;MARBLE-02-BLACK-1468683;MENS H/SLEEVE TEE;Tech Reject;Tshirts;Roadster;Adults-Men;Men;Black;;;Fashion;Casual;2016;S,RDSTTSHT00023811,M,RDSTTSHT00023812,L,RDSTTSHT00023813,XL,RDSTTSHT00023814;599.00;Black printed waist length T-shirt, has a v-neck, short sleeves;<p>Soft, well-structured, and durable, you'll definitely love being the proud owner of this Roadster T-shirt.  When you're attending an after-work happy hour, wear this black piece with chinos and easy loafers.</p>;<p>100% Cotton <br> Machine-wash</p>;<p>The model (height 6' and shoulders 18") is wearing a size M</p>;;Roadster Men Black Printed Slim Fit V-Neck T-Shirt;Roadster,roadster-hp-app;zerotype;;Fall;No comment entered;No
1468682;MARBLE-01-Lt GREY MELANGE-1468682;MENS H/SLEEVE TEE;Tech Reject;Tshirts;Roadster;Adults-Men;Men;Grey;Navy Blue;;Fashion;Casual;2016;S,RDSTTSHT00023807,M,RDSTTSHT00023808,L,RDSTTSHT00023809,XL,RDSTTSHT00023810;599.00;Grey printed waist length T-shirt, has a v-neck, short sleeves;<p>Made of cotton, you'll love the high-quality fit and feel of this Roadster tee.  When you're going for a stroll in the park, put this grey piece with a pair of chinos and sneakers to feel both comfortable and stylish outside.</p>;<p>100% Cotton <br> Machine-wash</p>;<p>The model (height 6' and shoulders 18") is wearing a size M</p>;;Roadster Men Grey Printed V-Neck Slim Fit T-Shirt;Roadster,roadster-hp-app;zerotype;;Fall;No comment entered;No
1113742;R DOD 16-C-Indigo-1113742;Full Sleeve Shirt;Draft;Shirts;Roadster;Adults-Women;Women;Blue;;;Fashion;Casual;2017;S,RDSTSHRT00011438,M,RDSTSHRT00011439,L,RDSTSHRT00011440,XL,RDSTSHRT00011441;999.00;Blue denim faded casual shirt, has a spread collar, button placket, long sleeves with roll-up tabs, a chest pocket, a curved hem;This shirt from Roadster will add an extra layer of warmth to your outfit. It can be outfitted with slim jeans and ballerinas when you're having a casual dinner party with your friends and family.;100% cotton<br />Machine-wash;The model (height 5'7" and chest 32") is wearing a size S;;Roadster Women Blue Faded Denim Casual Shirt;ANNA0440 IKRM5656,Roadster,flat30-extra40-jan7,extra-30-jan,ftod-Jan16,perfect-way-to-play-peekaboo,most-wanted-styles-mar,roadster-mar-main-women;zerotype;Roadster;Spring;No comment entered;No
