Style ID;Vendor Article Number;Vendor Article Name;Active Status;Article type;Brand;Age Group;Gender;Base Colour;Colour1;Colour2;Fashion Type;Usage;Year;Size - SKU code pair;MRP;Style Description;Style Note;Materials and Care Description;Size and Fit Description;Size Chart Path;Product Display Name;Tags;Product Type;Classification Brand;Season;Comments;Upload Images
1953282;EP2114-WHITE-1953282;EP2114;Draft;Tops;RARE;Adults-Women;Women;White;;;Fashion;Casual;2017;S,RARETOPS00002037,M,RARETOPS00002038,L,RARETOPS00002039,XL,RARETOPS00002040;1299.00;;;<p>Hand Wash in Cold Water. Dry in Shade for Lasting Color.</p>;;;;;zerotype;;Summer;;No
1953281;EP2108-PEACH-1953281;EP2108;Draft;Tops;RARE;Adults-Women;Women;Peach;;;Fashion;Casual;2017;S,RARETOPS00002033,M,RARETOPS00002034,L,RARETOPS00002035,XL,RARETOPS00002036;1199.00;;;<p>Hand Wash in Cold Water. Dry in Shade for Lasting Color.</p>;;;;;zerotype;;Summer;;No
1953280;EP2107A-PINK-1953280;EP2107A;Draft;Tops;RARE;Adults-Women;Women;Peach;Pink;;Fashion;Casual;2017;S,RARETOPS00002029,M,RARETOPS00002030,L,RARETOPS00002031,XL,RARETOPS00002032;1099.00;;;<p>Hand Wash in Cold Water. Dry in Shade for Lasting Color.</p>;;;;;zerotype;;Summer;;No
1953279;EP2107-OFF WHITE-1953279;EP2107;Draft;Tops;RARE;Adults-Women;Women;Off White;;;Fashion;Casual;2017;S,RARETOPS00002025,M,RARETOPS00002026,L,RARETOPS00002027,XL,RARETOPS00002028;1099.00;;;<p>Hand Wash in Cold Water. Dry in Shade for Lasting Color.</p>;;;;;zerotype;;Summer;;No
1953278;EP2102-BLUE-1953278;EP2102;Draft;Tops;RARE;Adults-Women;Women;Blue;;;Fashion;Casual;2017;S,RARETOPS00002021,M,RARETOPS00002022,L,RARETOPS00002023,XL,RARETOPS00002024;999.00;;;<p>Hand Wash in Cold Water. Dry in Shade for Lasting Color.</p>;;;;;zerotype;;Summer;;No
1953277;EP2100-MULTI-1953277;EP2100;Draft;Tops;RARE;Adults-Women;Women;Maroon;Peach;;Fashion;Casual;2017;S,RARETOPS00002017,M,RARETOPS00002018,L,RARETOPS00002019,XL,RARETOPS00002020;1099.00;;;<p>Hand Wash in Cold Water. Dry in Shade for Lasting Color.</p>;;;;;zerotype;;Summer;;No
1953276;EP2099A-RED-1953276;EP2099A;Draft;Tops;RARE;Adults-Women;Women;Red;;;Fashion;Casual;2017;S,RARETOPS00002013,M,RARETOPS00002014,L,RARETOPS00002015,XL,RARETOPS00002016;999.00;;;<p>Hand Wash in Cold Water. Dry in Shade for Lasting Color.</p>;;;;;zerotype;;Summer;;No
1953275;EP2099-NAVYBLUE-1953275;EP2099;Draft;Tops;RARE;Adults-Women;Women;Navy Blue;;;Fashion;Casual;2017;S,RARETOPS00002009,M,RARETOPS00002010,L,RARETOPS00002011,XL,RARETOPS00002012;999.00;;;<p>Hand Wash in Cold Water. Dry in Shade for Lasting Color.</p>;;;;;zerotype;;Summer;;No
1953274;EP2097B-SKYBLUE-1953274;EP2097B;Draft;Tops;RARE;Adults-Women;Women;Blue;;;Fashion;Casual;2017;S,RARETOPS00002005,M,RARETOPS00002006,L,RARETOPS00002007,XL,RARETOPS00002008;1099.00;;;<p>Hand Wash in Cold Water. Dry in Shade for Lasting Color.</p>;;;;;zerotype;;Summer;;No
1953268;EP2095A-WHITE-1953268;EP2095A;Draft;Tops;RARE;Adults-Women;Women;White;;;Fashion;Casual;2017;S,RARETOPS00002001,M,RARETOPS00002002,L,RARETOPS00002003,XL,RARETOPS00002004;1199.00;;;<p>Hand Wash in Cold Water. Dry in Shade for Lasting Color.</p>;;;;;zerotype;;Summer;;No
1953262;EP2089A-MULTI-1953262;EP2089A;Draft;Tops;RARE;Adults-Women;Women;Peach;Pink;;Fashion;Casual;2017;S,RARETOPS00001997,M,RARETOPS00001998,L,RARETOPS00001999,XL,RARETOPS00002000;999.00;;;<p>Hand Wash in Cold Water. Dry in Shade for Lasting Color.</p>;;;;;zerotype;;Summer;;No
1953258;EP2089-BLACK-1953258;EP2089;Draft;Tops;RARE;Adults-Women;Women;Black;;;Fashion;Casual;2017;S,RARETOPS00001993,M,RARETOPS00001994,L,RARETOPS00001995,XL,RARETOPS00001996;1099.00;;;<p>Hand Wash in Cold Water. Dry in Shade for Lasting Color.</p>;;;;;zerotype;;Summer;;No
1953257;EP2085-BLACK-1953257;EP2085;Draft;Tops;RARE;Adults-Women;Women;Black;;;Fashion;Casual;2017;S,RARETOPS00001989,M,RARETOPS00001990,L,RARETOPS00001991,XL,RARETOPS00001992;1099.00;;;<p>Hand Wash in Cold Water. Dry in Shade for Lasting Color.</p>;;;;;zerotype;;Summer;;No
1953256;EP1947-WHITE-1953256;EP1947;Draft;Tops;RARE;Adults-Women;Women;White;;;Fashion;Casual;2017;S,RARETOPS00001985,M,RARETOPS00001986,L,RARETOPS00001987,XL,RARETOPS00001988;1099.00;;;<p>Hand Wash in Cold Water. Dry in Shade for Lasting Color.</p>;;;;;zerotype;;Summer;;No
1953252;EP1928A-CORAL-1953252;EP1928A;Draft;Tops;RARE;Adults-Women;Women;Peach;Pink;;Fashion;Casual;2017;S,RARETOPS00001981,M,RARETOPS00001982,L,RARETOPS00001983,XL,RARETOPS00001984;1399.00;;;<p>Hand Wash in Cold Water. Dry in Shade for Lasting Color.</p>;;;;;zerotype;;Summer;;No
1953249;EP1928-BLUE-1953249;EP1928;Draft;Tops;RARE;Adults-Women;Women;Blue;;;Fashion;Casual;2017;S,RARETOPS00001977,M,RARETOPS00001978,L,RARETOPS00001979,XL,RARETOPS00001980;1099.00;;;<p>Hand Wash in Cold Water. Dry in Shade for Lasting Color.</p>;;;;;zerotype;;Summer;;No
1953245;EP1910A-MULTI-1953245;EP1910A;Draft;Tops;RARE;Adults-Women;Women;Black;;;Fashion;Casual;2017;S,RARETOPS00001973,M,RARETOPS00001974,L,RARETOPS00001975,XL,RARETOPS00001976;1099.00;;;<p>Hand Wash in Cold Water. Dry in Shade for Lasting Color.</p>;;;;;zerotype;;Summer;;No
1953240;EP1910-MULTI-1953240;EP1910;Draft;Tops;RARE;Adults-Women;Women;Black;;;Fashion;Casual;2017;S,RARETOPS00001969,M,RARETOPS00001970,L,RARETOPS00001971,XL,RARETOPS00001972;999.00;;;<p>Hand Wash in Cold Water. Dry in Shade for Lasting Color.</p>;;;;;zerotype;;Summer;;No
1953234;EP1753-MULTI-1953234;EP1753;Draft;Tops;RARE;Adults-Women;Women;Brown;Maroon;White;Fashion;Casual;2017;M,RARETOPS00001966,L,RARETOPS00001967,XL,RARETOPS00001968;1199.00;;;<p>Hand Wash in Cold Water. Dry in Shade for Lasting Color.</p>;;;;;zerotype;;Summer;;No
1953228;EP1689A-WHITE-1953228;EP1689A;Draft;Tops;RARE;Adults-Women;Women;White;;;Fashion;Casual;2017;S,RARETOPS00001962,M,RARETOPS00001963,L,RARETOPS00001964,XL,RARETOPS00001965;1299.00;;;<p>Hand Wash in Cold Water. Dry in Shade for Lasting Color.</p>;;;;;zerotype;;Summer;;No
1953222;EP1689-PINK-1953222;EP1689;Draft;Tops;RARE;Adults-Women;Women;Pink;;;Fashion;Casual;2017;S,RARETOPS00001958,M,RARETOPS00001959,L,RARETOPS00001960,XL,RARETOPS00001961;1299.00;;;<p>Hand Wash in Cold Water. Dry in Shade for Lasting Color.</p>;;;;;zerotype;;Summer;;No
1953219;EP1048D-MULTI-1953219;EP1048D;Draft;Tops;RARE;Adults-Women;Women;Pink;;;Fashion;Casual;2017;S,RARETOPS00001954,M,RARETOPS00001955,L,RARETOPS00001956,XL,RARETOPS00001957;1199.00;;;<p>Hand Wash in Cold Water. Dry in Shade for Lasting Color.</p>;;;;;zerotype;;Summer;;No
1953216;EP1048C-MULTI-1953216;EP1048C;Draft;Tops;RARE;Adults-Women;Women;Cream;Blue;;Fashion;Casual;2017;S,RARETOPS00001950,M,RARETOPS00001951,L,RARETOPS00001952,XL,RARETOPS00001953;1299.00;;;<p>Hand Wash in Cold Water. Dry in Shade for Lasting Color.</p>;;;;;zerotype;;Summer;;No
1953214;EP1038H-RED-1953214;EP1038H;Draft;Tops;RARE;Adults-Women;Women;Red;;;Fashion;Casual;2017;S,RARETOPS00001946,M,RARETOPS00001947,L,RARETOPS00001948,XL,RARETOPS00001949;1099.00;;;<p>Hand Wash in Cold Water. Dry in Shade for Lasting Color.</p>;;;;;zerotype;;Summer;;No
1953213;EP1038G-BLUE-1953213;EP1038G;Draft;Tops;RARE;Adults-Women;Women;Blue;;;Fashion;Casual;2017;S,RARETOPS00001942,M,RARETOPS00001943,L,RARETOPS00001944,XL,RARETOPS00001945;1099.00;;;<p>Hand Wash in Cold Water. Dry in Shade for Lasting Color.</p>;;;;;zerotype;;Summer;;No
