Style ID;Vendor Article Number;Vendor Article Name;Active Status;Article type;Brand;Age Group;Gender;Base Colour;Colour1;Colour2;Fashion Type;Usage;Year;Size - SKU code pair;MRP;Style Description;Style Note;Materials and Care Description;Size and Fit Description;Size Chart Path;Product Display Name;Tags;Product Type;Classification Brand;Season;Comments;Upload Images
2014032;44-9915-14-41-Grey-2014032;44-9915;Draft;Flats;Mochi;Adults-Women;Women;Grey;;;Fashion;;2017;37,MCHIFlats00008276,38,MCHIFlats00008277,39,MCHIFlats00008278,40,MCHIFlats00008279,41,MCHIFlats00008280;2490.00;;;<p>Rotate Your Pair Of Shoes Once Every Other Day, Allowing Them To De-Odorize And Retain Their Shapes</p>;;;;;zerotype;;Winter;;No
2014028;44-9915-11-41-Black-2014028;44-9915;Draft;Flats;Mochi;Adults-Women;Women;Black;;;Fashion;;2017;36,MCHIFlats00008270,37,MCHIFlats00008271,38,MCHIFlats00008272,39,MCHIFlats00008273,40,MCHIFlats00008274,41,MCHIFlats00008275;2490.00;;;<p>Rotate Your Pair Of Shoes Once Every Other Day, Allowing Them To De-Odorize And Retain Their Shapes</p>;;;;;zerotype;;Winter;;No
2014022;44-9316-20-41-Beige-2014022;44-9316;Draft;Flats;Mochi;Adults-Women;Women;Beige;;;Fashion;;2017;36,MCHIFlats00008264,37,MCHIFlats00008265,38,MCHIFlats00008266,39,MCHIFlats00008267,40,MCHIFlats00008268,41,MCHIFlats00008269;1690.00;;;<p>Rotate Your Pair Of Shoes Once Every Other Day, Allowing Them To De-Odorize And Retain Their Shapes</p>;;;;;zerotype;;Winter;;No
2014018;44-9316-18-41-Red-2014018;44-9316;Draft;Flats;Mochi;Adults-Women;Women;Red;;;Fashion;;2017;36,MCHIFlats00008258,37,MCHIFlats00008259,38,MCHIFlats00008260,39,MCHIFlats00008261,40,MCHIFlats00008262,41,MCHIFlats00008263;1690.00;;;<p>Rotate Your Pair Of Shoes Once Every Other Day, Allowing Them To De-Odorize And Retain Their Shapes</p>;;;;;zerotype;;Winter;;No
2014015;40-1793-24-41-Pink-2014015;40-1793;Draft;Heels;Mochi;Adults-Women;Women;Pink;;;Fashion;;2017;36,MCHIHeels00010530,37,MCHIHeels00010531,38,MCHIHeels00010532,39,MCHIHeels00010533,40,MCHIHeels00010534,41,MCHIHeels00010535;1490.00;;;<p>Rotate Your Pair Of Shoes Once Every Other Day, Allowing Them To De-Odorize And Retain Their Shapes</p>;;;;;zerotype;;Winter;;No
2014010;40-1793-20-41-Beige-2014010;40-1793;Draft;Heels;Mochi;Adults-Women;Women;Beige;;;Fashion;;2017;36,MCHIHeels00010524,37,MCHIHeels00010525,38,MCHIHeels00010526,39,MCHIHeels00010527,40,MCHIHeels00010528,41,MCHIHeels00010529;1490.00;;;<p>Rotate Your Pair Of Shoes Once Every Other Day, Allowing Them To De-Odorize And Retain Their Shapes</p>;;;;;zerotype;;Winter;;No
2013994;35-2943-45-41-Blue-2013994;35-2943;Draft;Heels;Mochi;Adults-Women;Women;Blue;;;Fashion;;2017;36,MCHIHeels00010518,37,MCHIHeels00010519,38,MCHIHeels00010520,39,MCHIHeels00010521,40,MCHIHeels00010522,41,MCHIHeels00010523;2990.00;;;<p>Rotate Your Pair Of Shoes Once Every Other Day, Allowing Them To De-Odorize And Retain Their Shapes</p>;;;;;zerotype;;Winter;;No
2013973;35-2943-28-41-Bronze-2013973;35-2943;Draft;Heels;Mochi;Adults-Women;Women;Bronze;;;Fashion;;2017;36,MCHIHeels00010512,37,MCHIHeels00010513,38,MCHIHeels00010514,39,MCHIHeels00010515,40,MCHIHeels00010516,41,MCHIHeels00010517;2990.00;;;<p>Rotate Your Pair Of Shoes Once Every Other Day, Allowing Them To De-Odorize And Retain Their Shapes</p>;;;;;zerotype;;Winter;;No
2013958;35-2943-15-41-Gold-2013958;35-2943;Draft;Heels;Mochi;Adults-Women;Women;Gold;;;Fashion;;2017;36,MCHIHeels00010506,37,MCHIHeels00010507,38,MCHIHeels00010508,39,MCHIHeels00010509,40,MCHIHeels00010510,41,MCHIHeels00010511;2990.00;;;<p>Rotate Your Pair Of Shoes Once Every Other Day, Allowing Them To De-Odorize And Retain Their Shapes</p>;;;;;zerotype;;Winter;;No
2013947;34-9368-20-41-Beige-2013947;34-9368;Draft;Heels;Mochi;Adults-Women;Women;Beige;;;Fashion;;2017;36,MCHIHeels00010500,37,MCHIHeels00010501,38,MCHIHeels00010502,39,MCHIHeels00010503,40,MCHIHeels00010504,41,MCHIHeels00010505;1890.00;;;<p>Rotate Your Pair Of Shoes Once Every Other Day, Allowing Them To De-Odorize And Retain Their Shapes</p>;;;;;zerotype;;Winter;;No
2013933;34-9368-18-41-Red-2013933;34-9368;Draft;Heels;Mochi;Adults-Women;Women;Red;;;Fashion;;2017;36,MCHIHeels00010494,37,MCHIHeels00010495,38,MCHIHeels00010496,39,MCHIHeels00010497,40,MCHIHeels00010498,41,MCHIHeels00010499;1890.00;;;<p>Rotate Your Pair Of Shoes Once Every Other Day, Allowing Them To De-Odorize And Retain Their Shapes</p>;;;;;zerotype;;Winter;;No
2013930;34-9368-11-41-Black-2013930;34-9368;Draft;Heels;Mochi;Adults-Women;Women;Black;;;Fashion;;2017;36,MCHIHeels00010488,37,MCHIHeels00010489,38,MCHIHeels00010490,39,MCHIHeels00010491,40,MCHIHeels00010492,41,MCHIHeels00010493;1890.00;;;<p>Rotate Your Pair Of Shoes Once Every Other Day, Allowing Them To De-Odorize And Retain Their Shapes</p>;;;;;zerotype;;Winter;;No
2013925;34-9218-45-41-Blue-2013925;34-9218;Draft;Heels;Mochi;Adults-Women;Women;Blue;;;Fashion;;2017;36,MCHIHeels00010482,37,MCHIHeels00010483,38,MCHIHeels00010484,39,MCHIHeels00010485,40,MCHIHeels00010486,41,MCHIHeels00010487;2290.00;;;<p>Rotate Your Pair Of Shoes Once Every Other Day, Allowing Them To De-Odorize And Retain Their Shapes</p>;;;;;zerotype;;Winter;;No
