Style ID;Vendor Article Number;Vendor Article Name;Active Status;Article type;Brand;Age Group;Gender;Base Colour;Colour1;Colour2;Fashion Type;Usage;Year;Size - SKU code pair;MRP;Style Description;Style Note;Materials and Care Description;Size and Fit Description;Size Chart Path;Product Display Name;Tags;Product Type;Classification Brand;Season;Comments;Upload Images
1968362;MC594A-Navy Blue;MC594A;Draft;Dresses;Marie Claire;Adults-Women;Women;;;;Fashion;;2017;S,MRCLDRSS00000764;3099.00;;;;;;;;zerotype;;Summer;;No
1968361;MC594-Blue-1968361;MC594;Draft;Dresses;Marie Claire;Adults-Women;Women;;;;Fashion;;2017;S,MRCLDRSS00000760,M,MRCLDRSS00000761,L,MRCLDRSS00000762,XL,MRCLDRSS00000763;3099.00;;;;;;;;zerotype;;Summer;;No
1968360;MC584A-Blue-1968360;MC584A;Draft;Dresses;Marie Claire;Adults-Women;Women;;;;Fashion;;2017;S,MRCLDRSS00000756,M,MRCLDRSS00000757,L,MRCLDRSS00000758,XL,MRCLDRSS00000759;2199.00;;;;;;;;zerotype;;Summer;;No
1968359;MC584-Navy Blue-1968359;MC584;Draft;Dresses;Marie Claire;Adults-Women;Women;;;;Fashion;;2017;S,MRCLDRSS00000752,M,MRCLDRSS00000753,L,MRCLDRSS00000754,XL,MRCLDRSS00000755;2199.00;;;;;;;;zerotype;;Summer;;No
1968358;MC483A-WHITE-1968358;MC483A;Draft;Skirts;Marie Claire;Adults-Women;Women;;;;Fashion;;2017;XS,MRCLSKRT00000056,S,MRCLSKRT00000057,M,MRCLSKRT00000058,L,MRCLSKRT00000059,XL,MRCLSKRT00000060;1499.00;;;;;;;;zerotype;;Summer;;No
1968357;MC483-BLACK-1968357;MC483;Draft;Skirts;Marie Claire;Adults-Women;Women;;;;Fashion;;2017;XS,MRCLSKRT00000051,S,MRCLSKRT00000052,M,MRCLSKRT00000053,L,MRCLSKRT00000054,XL,MRCLSKRT00000055;1499.00;;;;;;;;zerotype;;Summer;;No
1968356;MC610A-NAVYBLUE-1968356;MC610A;Draft;Jumpsuit;Marie Claire;Adults-Women;Women;;;;Fashion;;2017;S,MRCLJMST00000049,M,MRCLJMST00000050,L,MRCLJMST00000051,XL,MRCLJMST00000052;2699.00;;;;;;;;zerotype;;Summer;;No
1968354;MC610-MULTI-1968354;MC610;Draft;Jumpsuit;Marie Claire;Adults-Women;Women;;;;Fashion;;2017;S,MRCLJMST00000045,M,MRCLJMST00000046,L,MRCLJMST00000047,XL,MRCLJMST00000048;2999.00;;;;;;;;zerotype;;Summer;;No
1968353;MC608-BLACK-1968353;MC608;Draft;Jumpsuit;Marie Claire;Adults-Women;Women;;;;Fashion;;2017;S,MRCLJMST00000041,M,MRCLJMST00000042,L,MRCLJMST00000043,XL,MRCLJMST00000044;2399.00;;;;;;;;zerotype;;Summer;;No
1968351;MC642B-Blue-1968351;MC642B;Draft;Trousers;Marie Claire;Adults-Women;Women;;;;Fashion;;2017;XS,MRCLTRSR00000114,S,MRCLTRSR00000115,M,MRCLTRSR00000116,L,MRCLTRSR00000117,XL,MRCLTRSR00000118;1699.00;;;;;;;;zerotype;;Summer;;No
1968350;MC688A-Maroon-1968350;MC688A;Draft;Trousers;Marie Claire;Adults-Women;Women;;;;Fashion;;2017;XS,MRCLTRSR00000109,S,MRCLTRSR00000110,M,MRCLTRSR00000111,L,MRCLTRSR00000112,XL,MRCLTRSR00000113;1399.00;;;;;;;;zerotype;;Summer;;No
1968349;MC688-Blue-1968349;MC688;Draft;Trousers;Marie Claire;Adults-Women;Women;;;;Fashion;;2017;XS,MRCLTRSR00000104,S,MRCLTRSR00000105,M,MRCLTRSR00000106,L,MRCLTRSR00000107,XL,MRCLTRSR00000108;1399.00;;;;;;;;zerotype;;Summer;;No
1968348;MC686A-Black-1968348;MC686A;Draft;Trousers;Marie Claire;Adults-Women;Women;;;;Fashion;;2017;S,MRCLTRSR00000100,M,MRCLTRSR00000101,L,MRCLTRSR00000102,XL,MRCLTRSR00000103;1599.00;;;;;;;;zerotype;;Summer;;No
1968347;MC686-Orange-1968347;MC686;Draft;Trousers;Marie Claire;Adults-Women;Women;;;;Fashion;;2017;S,MRCLTRSR00000096,M,MRCLTRSR00000097,L,MRCLTRSR00000098,XL,MRCLTRSR00000099;1599.00;;;;;;;;zerotype;;Summer;;No
1968346;MC563-Maroon-1968346;MC563;Draft;Shirts;Marie Claire;Adults-Women;Women;;;;Fashion;;2017;XS,MRCLSHRT00000424,S,MRCLSHRT00000425,M,MRCLSHRT00000426,L,MRCLSHRT00000427,XL,MRCLSHRT00000428;1899.00;;;;;;;;zerotype;;Summer;;No
1968345;MC553A-White-1968345;MC553A;Draft;Shirts;Marie Claire;Adults-Women;Women;;;;Fashion;;2017;XS,MRCLSHRT00000419,S,MRCLSHRT00000420,M,MRCLSHRT00000421,L,MRCLSHRT00000422,XL,MRCLSHRT00000423;1899.00;;;;;;;;zerotype;;Summer;;No
1968344;MC553-Navy Blue-1968344;MC553;Draft;Shirts;Marie Claire;Adults-Women;Women;;;;Fashion;;2017;XS,MRCLSHRT00000414,S,MRCLSHRT00000415,M,MRCLSHRT00000416,L,MRCLSHRT00000417,XL,MRCLSHRT00000418;1899.00;;;;;;;;zerotype;;Summer;;No
1968343;MC10301C-Blue-1968343;MC10301C;Draft;Tops;Marie Claire;Adults-Women;Women;;;;Fashion;;2017;S,MRCLTOPS00002032,M,MRCLTOPS00002033,L,MRCLTOPS00002034,XL,MRCLTOPS00002035;1899.00;;;;;;;;zerotype;;Summer;;No
1968342;MC10311-Blue-1968342;MC10311;Draft;Tops;Marie Claire;Adults-Women;Women;;;;Fashion;;2017;XS,MRCLTOPS00002027,S,MRCLTOPS00002028,M,MRCLTOPS00002029,L,MRCLTOPS00002030,XL,MRCLTOPS00002031;1499.00;;;;;;;;zerotype;;Summer;;No
1968341;MC10310-Yellow-1968341;MC10310;Draft;Tops;Marie Claire;Adults-Women;Women;;;;Fashion;;2017;XS,MRCLTOPS00002022,S,MRCLTOPS00002023,M,MRCLTOPS00002024,L,MRCLTOPS00002025,XL,MRCLTOPS00002026;1499.00;;;;;;;;zerotype;;Summer;;No
1968340;MC551B-Maroon-1968340;MC551B;Draft;Tops;Marie Claire;Adults-Women;Women;;;;Fashion;;2017;XS,MRCLTOPS00002017,S,MRCLTOPS00002018,M,MRCLTOPS00002019,L,MRCLTOPS00002020,XL,MRCLTOPS00002021;1899.00;;;;;;;;zerotype;;Summer;;No
1968339;MC543B-Red-1968339;MC543B;Draft;Tops;Marie Claire;Adults-Women;Women;;;;Fashion;;2017;XS,MRCLTOPS00002012,S,MRCLTOPS00002013,M,MRCLTOPS00002014,L,MRCLTOPS00002015,XL,MRCLTOPS00002016;2099.00;;;;;;;;zerotype;;Summer;;No
1968338;MC10309-Purple-1968338;MC10309;Draft;Tops;Marie Claire;Adults-Women;Women;;;;Fashion;;2017;XS,MRCLTOPS00002007,S,MRCLTOPS00002008,M,MRCLTOPS00002009,L,MRCLTOPS00002010,XL,MRCLTOPS00002011;1499.00;;;;;;;;zerotype;;Summer;;No
1968337;MC10306-Blue-1968337;MC10306;Draft;Tops;Marie Claire;Adults-Women;Women;;;;Fashion;;2017;XS,MRCLTOPS00002002,S,MRCLTOPS00002003,M,MRCLTOPS00002004,L,MRCLTOPS00002005,XL,MRCLTOPS00002006;1599.00;;;;;;;;zerotype;;Summer;;No
1968336;MC701A-Blue-1968336;MC701A;Draft;Tops;Marie Claire;Adults-Women;Women;;;;Fashion;;2017;XS,MRCLTOPS00001997,S,MRCLTOPS00001998,M,MRCLTOPS00001999,L,MRCLTOPS00002000,XL,MRCLTOPS00002001;1599.00;;;;;;;;zerotype;;Summer;;No
1968335;MC701-Pink-1968335;MC701;Draft;Tops;Marie Claire;Adults-Women;Women;;;;Fashion;;2017;XS,MRCLTOPS00001992,S,MRCLTOPS00001993,M,MRCLTOPS00001994,L,MRCLTOPS00001995,XL,MRCLTOPS00001996;1599.00;;;;;;;;zerotype;;Summer;;No
1968334;MC696A-Coral-1968334;MC696A;Draft;Tops;Marie Claire;Adults-Women;Women;;;;Fashion;;2017;XS,MRCLTOPS00001987,S,MRCLTOPS00001988,M,MRCLTOPS00001989,L,MRCLTOPS00001990,XL,MRCLTOPS00001991;1599.00;;;;;;;;zerotype;;Summer;;No
1968333;MC696-Purple-1968333;MC696;Draft;Tops;Marie Claire;Adults-Women;Women;;;;Fashion;;2017;XS,MRCLTOPS00001982,S,MRCLTOPS00001983,M,MRCLTOPS00001984,L,MRCLTOPS00001985,XL,MRCLTOPS00001986;1599.00;;;;;;;;zerotype;;Summer;;No
1968332;MC669A-Beige-1968332;MC669A;Draft;Tops;Marie Claire;Adults-Women;Women;;;;Fashion;;2017;S,MRCLTOPS00001978,M,MRCLTOPS00001979,L,MRCLTOPS00001980,XL,MRCLTOPS00001981;1699.00;;;;;;;;zerotype;;Summer;;No
1968331;MC669-Pink-1968331;MC669;Draft;Tops;Marie Claire;Adults-Women;Women;;;;Fashion;;2017;S,MRCLTOPS00001974,M,MRCLTOPS00001975,L,MRCLTOPS00001976,XL,MRCLTOPS00001977;1699.00;;;;;;;;zerotype;;Summer;;No
1968330;MC629A-Navy Blue-1968330;MC629A;Draft;Tops;Marie Claire;Adults-Women;Women;;;;Fashion;;2017;XS,MRCLTOPS00001969,S,MRCLTOPS00001970,M,MRCLTOPS00001971,L,MRCLTOPS00001972,XL,MRCLTOPS00001973;1799.00;;;;;;;;zerotype;;Summer;;No
1968329;MC629-Maroon-1968329;MC629;Draft;Tops;Marie Claire;Adults-Women;Women;;;;Fashion;;2017;XS,MRCLTOPS00001964,S,MRCLTOPS00001965,M,MRCLTOPS00001966,L,MRCLTOPS00001967,XL,MRCLTOPS00001968;1799.00;;;;;;;;zerotype;;Summer;;No
1968328;MC581A-Navy Blue-1968328;MC581A;Draft;Tops;Marie Claire;Adults-Women;Women;;;;Fashion;;2017;S,MRCLTOPS00001960,M,MRCLTOPS00001961,L,MRCLTOPS00001962,XL,MRCLTOPS00001963;1699.00;;;;;;;;zerotype;;Summer;;No
1968327;MC581-Blue-1968327;MC581;Draft;Tops;Marie Claire;Adults-Women;Women;;;;Fashion;;2017;S,MRCLTOPS00001956,M,MRCLTOPS00001957,L,MRCLTOPS00001958,XL,MRCLTOPS00001959;1699.00;;;;;;;;zerotype;;Summer;;No
1968326;MC551C-Off White-1968326;MC551C;Draft;Tops;Marie Claire;Adults-Women;Women;;;;Fashion;;2017;S,MRCLTOPS00001952,M,MRCLTOPS00001953,L,MRCLTOPS00001954,XL,MRCLTOPS00001955;1899.00;;;;;;;;zerotype;;Summer;;No
1968325;MC512D-Maroon-1968325;MC512D;Draft;Tops;Marie Claire;Adults-Women;Women;;;;Fashion;;2017;S,MRCLTOPS00001948,M,MRCLTOPS00001949,L,MRCLTOPS00001950,XL,MRCLTOPS00001951;1599.00;;;;;;;;zerotype;;Summer;;No
1968324;MC512C-Blue-1968324;MC512C;Draft;Tops;Marie Claire;Adults-Women;Women;;;;Fashion;;2017;S,MRCLTOPS00001944,M,MRCLTOPS00001945,L,MRCLTOPS00001946,XL,MRCLTOPS00001947;1599.00;;;;;;;;zerotype;;Summer;;No
1853784;MC551A-Blue-1853784;MC551A;QC Reject;Tops;Marie Claire;Adults-Women;Women;Beige;Beige;Beige;Fashion;Ethnic;2017;XS,MRCLTOPS00001834,S,MRCLTOPS00001835,M,MRCLTOPS00001836,L,MRCLTOPS00001837,XL,MRCLTOPS00001838;1899.00;Beige and beige checked knitted blouson  top, has a mandarin collar, short sleeves, zip closure;This versatile Marie Claire shirt complements any woman's wardrobe.  This beige piece will maximize your casually cool work ensemble when you pair it with a slim blazer and darker slim jean.;Blended <br> Hand-wash;The model (height 5'8") is wearing a size S;;Marie Claire Women Beige Checked Blouson Top;a;zerotype;;Summer;PI and Image mismatch;No
1813552;MC599A-Black-1813552;MC599A;Active;Dresses;Marie Claire;Adults-Women;Women;Black;;;Fashion;Party;2017;XS,MRCLDRSS00000582,S,MRCLDRSS00000583,M,MRCLDRSS00000584,L,MRCLDRSS00000585,XL,MRCLDRSS00000586;2199.00;Black woven panelled sequinned A-line dress, has a round neck, shoulder straps, a slit on the back, and an attached lining;This dress from Marie Claire offerings will take your personal style to new heights. When you need an outfit for a dinner date, wear this black piece with platform heels and some minimalist silver jewellery.;Polyester<br />Machine-wash cold;The model (height 5'7'') is wearing a size S;;Marie Claire Women Black Sequinned A-Line Dress;Marie Claire,JIT,bfg-fb-women-jazz,apr12-super-hour,new-season-styles-apr13,upto40-extra20-bb,gold22-bb,b3-20-power20,flash-sale-bb21,b3-20-apr22,apr15-hh,coupon-crush05,coupon-crush09,myntra-rupay,coupon-crush10,price-surge,pp-extra25-off,extra20-ccmay,rs300off-ccmay,new-season30-ccmay,super-hour-ccmay,women-offer-may05,coupon-offer-may,extra400-may9,super-hour-may9,rs300off-1105,big10-flash30,big10-lucky10,big10-price-surge,big10-rs501off,big10-super-hour25,myntra-icici-offer,big10-350off,flash-sale-may17,may20-500off,may20-flash-sale,may21-hh,big10-gratification,ladies-night-coupon1,ladies-night-coupon2,price-surge-may25,extra500-may29,coupon-crush-jun6,jun08-wonder-hour,jun8-offer999,offer-11jun;zerotype;;Spring;offer-11jun;No
