Style ID;Vendor Article Number;Vendor Article Name;Active Status;Article type;Brand;Age Group;Gender;Base Colour;Colour1;Colour2;Fashion Type;Usage;Year;Size - SKU code pair;MRP;Style Description;Style Note;Materials and Care Description;Size and Fit Description;Size Chart Path;Product Display Name;Tags;Product Type;Classification Brand;Season;Comments;Upload Images
2155660;VSSH317S07074-White With blue-2155660;VSSH317S07074;Draft;Shirts;Van Heusen Sport;Adults-Men;Men;;;;Fashion;;2017;38,VHSPSHRT00005100,40,VHSPSHRT00005101,42,VHSPSHRT00005102,39,VHSPSHRT00005103;1799.00;;;<p>100%Cotton</p>;;;;ndd17-mum;zerotype;;Summer;ndd17-mum;No
2155659;VSSH317S07073-Light blue With blue-2155659;VSSH317S07073;Draft;Shirts;Van Heusen Sport;Adults-Men;Men;;;;Fashion;;2017;38,VHSPSHRT00005096,40,VHSPSHRT00005097,42,VHSPSHRT00005098,39,VHSPSHRT00005099;1799.00;;;<p>100%Cotton</p>;;;;ndd17-mum;zerotype;;Summer;ndd17-mum;No
2155655;VSSH317S04959-Medium blue Solid-2155655;VSSH317S04959;Draft;Shirts;Van Heusen Sport;Adults-Men;Men;;;;Fashion;;2017;39,VHSPSHRT00005083,40,VHSPSHRT00005084,42,VHSPSHRT00005085;2999.00;;;<p>100%Linen</p>;;;;ndd17-mum;zerotype;;Summer;ndd17-mum;No
2155654;VSSH317S03053-Light Orange With Orange-2155654;VSSH317S03053;Draft;Shirts;Van Heusen Sport;Adults-Men;Men;;;;Fashion;;2017;40,VHSPSHRT00005080,42,VHSPSHRT00005081,39,VHSPSHRT00005082;1699.00;;;<p>100%Cotton</p>;;;;ndd17-mum;zerotype;;Summer;ndd17-mum;No
2155653;VSSH317S01435-Light grey With Yellow-2155653;VSSH317S01435;Draft;Shirts;Van Heusen Sport;Adults-Men;Men;;;;Fashion;;2017;40,VHSPSHRT00005076,39,VHSPSHRT00005077,38,VHSPSHRT00005078,42,VHSPSHRT00005079;1999.00;;;<p>100%Cotton</p>;;;;ndd17-mum;zerotype;;Summer;ndd17-mum;No
2155651;VSSH317S01426-Medium blue With White-2155651;VSSH317S01426;Draft;Shirts;Van Heusen Sport;Adults-Men;Men;;;;Fashion;;2017;42,VHSPSHRT00005070,39,VHSPSHRT00005071,40,VHSPSHRT00005072;2999.00;;;<p>100%Linen</p>;;;;ndd17-mum;zerotype;;Summer;ndd17-mum;No
2155649;VSSF517S06077-Light Red With Red-2155649;VSSF517S06077;Draft;Shirts;Van Heusen Sport;Adults-Men;Men;;;;Fashion;;2017;42,VHSPSHRT00005060,40,VHSPSHRT00005061,38,VHSPSHRT00005062,39,VHSPSHRT00005063,44,VHSPSHRT00005064;1699.00;;;<p>100%Cotton</p>;;;;ndd17-mum;zerotype;;Winter;ndd17-mum;No
2155648;VSSF517S05939-Light grey With grey-2155648;VSSF517S05939;Draft;Shirts;Van Heusen Sport;Adults-Men;Men;;;;Fashion;;2017;42,VHSPSHRT00005055,40,VHSPSHRT00005056,38,VHSPSHRT00005057,39,VHSPSHRT00005058,44,VHSPSHRT00005059;1999.00;;;<p>97%Cotton3%Spandex</p>;;;;ndd17-mum;zerotype;;Winter;ndd17-mum;No
2155638;VSSF517S04280-White-2155638;VSSF517S04280;Draft;Shirts;Van Heusen Sport;Adults-Men;Men;;;;Fashion;;2017;42,VHSPSHRT00005005,40,VHSPSHRT00005006,38,VHSPSHRT00005007,39,VHSPSHRT00005008,44,VHSPSHRT00005009;2099.00;;;<p>67%Cotton33%Polyester</p>;;;;ndd17-mum;zerotype;;Winter;ndd17-mum;No
2155637;VSSF517S04273-White-2155637;VSSF517S04273;Draft;Shirts;Van Heusen Sport;Adults-Men;Men;;;;Fashion;;2017;42,VHSPSHRT00005000,40,VHSPSHRT00005001,38,VHSPSHRT00005002,39,VHSPSHRT00005003,44,VHSPSHRT00005004;2199.00;;;<p>100%Cotton</p>;;;;ndd17-mum;zerotype;;Winter;ndd17-mum;No
2155634;VSSF517S04179-White-2155634;VSSF517S04179;Draft;Shirts;Van Heusen Sport;Adults-Men;Men;;;;Fashion;;2017;42,VHSPSHRT00004990,40,VHSPSHRT00004991,38,VHSPSHRT00004992,39,VHSPSHRT00004993,44,VHSPSHRT00004994;1999.00;;;<p>100%Cotton</p>;;;;ndd17-mum;zerotype;;Winter;ndd17-mum;No
2155633;VSSF517S03931-White-2155633;VSSF517S03931;Draft;Shirts;Van Heusen Sport;Adults-Men;Men;;;;Fashion;;2017;42,VHSPSHRT00004985,40,VHSPSHRT00004986,38,VHSPSHRT00004987,39,VHSPSHRT00004988,44,VHSPSHRT00004989;2199.00;;;<p>100%Cotton</p>;;;;ndd17-mum;zerotype;;Winter;ndd17-mum;No
2155631;VSSF517S02604-White-2155631;VSSF517S02604;Draft;Shirts;Van Heusen Sport;Adults-Men;Men;;;;Fashion;;2017;42,VHSPSHRT00004975,40,VHSPSHRT00004976,38,VHSPSHRT00004977,39,VHSPSHRT00004978,44,VHSPSHRT00004979;1999.00;;;<p>100%Cotton</p>;;;;ndd17-mum;zerotype;;Winter;ndd17-mum;No
2155629;VSSF517S02403-White-2155629;VSSF517S02403;Draft;Shirts;Van Heusen Sport;Adults-Men;Men;;;;Fashion;;2017;42,VHSPSHRT00004965,40,VHSPSHRT00004966,38,VHSPSHRT00004967,39,VHSPSHRT00004968,44,VHSPSHRT00004969;1799.00;;;<p>100%Cotton</p>;;;;ndd17-mum;zerotype;;Winter;ndd17-mum;No
2155625;VSSF517S02121-White-2155625;VSSF517S02121;Draft;Shirts;Van Heusen Sport;Adults-Men;Men;;;;Fashion;;2017;42,VHSPSHRT00004945,40,VHSPSHRT00004946,38,VHSPSHRT00004947,39,VHSPSHRT00004948,44,VHSPSHRT00004949;2099.00;;;<p>100%Cotton</p>;;;;ndd17-mum;zerotype;;Winter;ndd17-mum;No
2155624;VSSF517S02119-White-2155624;VSSF517S02119;Draft;Shirts;Van Heusen Sport;Adults-Men;Men;;;;Fashion;;2017;42,VHSPSHRT00004940,40,VHSPSHRT00004941,38,VHSPSHRT00004942,39,VHSPSHRT00004943,44,VHSPSHRT00004944;1799.00;;;<p>100%Cotton</p>;;;;ndd17-mum;zerotype;;Winter;ndd17-mum;No
2155622;VSSF517S02061-White-2155622;VSSF517S02061;Draft;Shirts;Van Heusen Sport;Adults-Men;Men;;;;Fashion;;2017;42,VHSPSHRT00004930,40,VHSPSHRT00004931,38,VHSPSHRT00004932,39,VHSPSHRT00004933,44,VHSPSHRT00004934;2199.00;;;<p>100%Cotton</p>;;;;ndd17-mum;zerotype;;Winter;ndd17-mum;No
2155621;VSSF516S12288-Light Yellow With blue-2155621;VSSF516S12288;Draft;Shirts;Van Heusen Sport;Adults-Men;Men;;;;Fashion;;2016;39,VHSPSHRT00004927,40,VHSPSHRT00004928,42,VHSPSHRT00004929;1899.00;;;<p>100%Cotton</p>;;;;ndd17-mum;zerotype;;Winter;ndd17-mum;No
2155617;VSSF516S03615-Medium grey With blue-2155617;VSSF516S03615;Draft;Shirts;Van Heusen Sport;Adults-Men;Men;;;;Fashion;;2016;39,VHSPSHRT00004916,38,VHSPSHRT00004917,40,VHSPSHRT00004918,42,VHSPSHRT00004919;2599.00;;;<p>100%Cotton</p>;;;;ndd17-mum;zerotype;;Winter;ndd17-mum;No
2155607;VSSF317S05081-Medium Orange With White-2155607;VSSF317S05081;Draft;Shirts;Van Heusen Sport;Adults-Men;Men;;;;Fashion;;2017;42,VHSPSHRT00004898,39,VHSPSHRT00004899,40,VHSPSHRT00004900;2199.00;;;<p>100%Cotton</p>;;;;ndd17-mum;zerotype;;Summer;ndd17-mum;No
2155605;VSSF317S03052-Light Pink with Red-2155605;VSSF317S03052;Draft;Shirts;Van Heusen Sport;Adults-Men;Men;;;;Fashion;;2017;39,VHSPSHRT00004894,42,VHSPSHRT00004895,40,VHSPSHRT00004896;1699.00;;;<p>100%Cotton</p>;;;;ndd17-mum;zerotype;;Summer;ndd17-mum;No
2155603;VSSF316S03598-Light blue With White-2155603;VSSF316S03598;Draft;Shirts;Van Heusen Sport;Adults-Men;Men;;;;Fashion;;2016;42,VHSPSHRT00004888,40,VHSPSHRT00004889,39,VHSPSHRT00004890;2199.00;;;<p>100%Cotton</p>;;;;ndd17-mum;zerotype;;Summer;ndd17-mum;No
2155589;VHSF517M06410-Medium blue With Red-2155589;VHSF517M06410;Draft;Shirts;Van Heusen;Adults-Men;Men;;;;Fashion;;2017;42,VNHSSHRT00014813,40,VNHSSHRT00014814,39,VNHSSHRT00014815,46,VNHSSHRT00014816,44,VNHSSHRT00014817;2399.00;;;<p>95%Cotton5%Spandex</p>;;;;ndd17-mum;zerotype;;Winter;ndd17-mum;No
2155585;VHSF517M05220-White-2155585;VHSF517M05220;Draft;Shirts;Van Heusen;Adults-Men;Men;;;;Fashion;;2017;42,VNHSSHRT00014798,40,VNHSSHRT00014799,39,VNHSSHRT00014800,46,VNHSSHRT00014801,44,VNHSSHRT00014802;1999.00;;;<p>100%Cotton</p>;;;;ndd17-mum;zerotype;;Winter;ndd17-mum;No
2155572;VHSF517M04159-Medium grey Solid-2155572;VHSF517M04159;Draft;Shirts;Van Heusen;Adults-Men;Men;;;;Fashion;;2017;42,VNHSSHRT00014768,40,VNHSSHRT00014769,39,VNHSSHRT00014770,46,VNHSSHRT00014771,44,VNHSSHRT00014772;2399.00;;;<p>100%Cotton</p>;;;;ndd17-mum;zerotype;;Winter;ndd17-mum;No
2155566;VHSF517M04110-Medium Purple Solid-2155566;VHSF517M04110;Draft;Shirts;Van Heusen;Adults-Men;Men;;;;Fashion;;2017;42,VNHSSHRT00014758,40,VNHSSHRT00014759,39,VNHSSHRT00014760,46,VNHSSHRT00014761,44,VNHSSHRT00014762;2299.00;;;<p>100%Cotton</p>;;;;ndd17-mum;zerotype;;Winter;ndd17-mum;No
2155564;VHSF517M03724-Medium Red With White-2155564;VHSF517M03724;Draft;Shirts;Van Heusen;Adults-Men;Men;;;;Fashion;;2017;42,VNHSSHRT00014753,40,VNHSSHRT00014754,39,VNHSSHRT00014755,46,VNHSSHRT00014756,44,VNHSSHRT00014757;2399.00;;;<p>100%Cotton</p>;;;;ndd17-mum;zerotype;;Winter;ndd17-mum;No
2155553;VHSF517M03648-Light Pink with Red-2155553;VHSF517M03648;Draft;Shirts;Van Heusen;Adults-Men;Men;;;;Fashion;;2017;42,VNHSSHRT00014733,40,VNHSSHRT00014734,39,VNHSSHRT00014735,46,VNHSSHRT00014736,44,VNHSSHRT00014737;1899.00;;;<p>100%Cotton</p>;;;;ndd17-mum;zerotype;;Winter;ndd17-mum;No
2155547;VHSF517M03635-Light Red With White-2155547;VHSF517M03635;Draft;Shirts;Van Heusen;Adults-Men;Men;;;;Fashion;;2017;42,VNHSSHRT00014723,40,VNHSSHRT00014724,39,VNHSSHRT00014725,46,VNHSSHRT00014726,44,VNHSSHRT00014727;1799.00;;;<p>100%Cotton</p>;;;;ndd17-mum;zerotype;;Winter;ndd17-mum;No
2155536;VHSF517M03017-Dark blue With White-2155536;VHSF517M03017;Draft;Shirts;Van Heusen;Adults-Men;Men;;;;Fashion;;2017;42,VNHSSHRT00014703,40,VNHSSHRT00014704,39,VNHSSHRT00014705,46,VNHSSHRT00014706,44,VNHSSHRT00014707;2599.00;;;<p>100%Cotton</p>;;;;ndd17-mum;zerotype;;Winter;ndd17-mum;No
2155512;VHSF517M02279-Light Pink with Black-2155512;VHSF517M02279;Draft;Shirts;Van Heusen;Adults-Men;Men;;;;Fashion;;2017;42,VNHSSHRT00014662,40,VNHSSHRT00014663,39,VNHSSHRT00014664,46,VNHSSHRT00014665,44,VNHSSHRT00014666;2399.00;;;<p>100%Cotton</p>;;;;ndd17-mum;zerotype;;Winter;ndd17-mum;No
2155503;VHSF517M02255-Light Red With White-2155503;VHSF517M02255;Draft;Shirts;Van Heusen;Adults-Men;Men;;;;Fashion;;2017;42,VNHSSHRT00014647,40,VNHSSHRT00014648,39,VNHSSHRT00014649,46,VNHSSHRT00014650,44,VNHSSHRT00014651;2399.00;;;<p>100%Cotton</p>;;;;ndd17-mum;zerotype;;Winter;ndd17-mum;No
2155498;VHSF517M02248-Light blue With White-2155498;VHSF517M02248;Draft;Shirts;Van Heusen;Adults-Men;Men;;;;Fashion;;2017;42,VNHSSHRT00014637,40,VNHSSHRT00014638,39,VNHSSHRT00014639,46,VNHSSHRT00014640,44,VNHSSHRT00014641;2599.00;;;<p>100%Cotton</p>;;;;ndd17-mum;zerotype;;Winter;ndd17-mum;No
2155495;VHSF517M02009-White-2155495;VHSF517M02009;Draft;Shirts;Van Heusen;Adults-Men;Men;;;;Fashion;;2017;42,VNHSSHRT00014632,40,VNHSSHRT00014633,39,VNHSSHRT00014634,46,VNHSSHRT00014635,44,VNHSSHRT00014636;2099.00;;;<p>100%Cotton</p>;;;;ndd17-mum;zerotype;;Winter;ndd17-mum;No
2155324;VSKC517S00116-Light Green With Green-2155324;VSKC517S00116;Draft;Tshirts;Van Heusen Sport;Adults-Men;Men;;;;Fashion;;2016;XL,VHSPTSHT00001011,L,VHSPTSHT00001012,M,VHSPTSHT00001013,S,VHSPTSHT00001014,XXL,VHSPTSHT00001015;1249.00;;;<p>100%Cotton</p>;;;;ndd17-mum;zerotype;;Winter;ndd17-mum;No
2155323;VSKC517S00043-Light Red With blue-2155323;VSKC517S00043;Draft;Tshirts;Van Heusen Sport;Adults-Men;Men;;;;Fashion;;2016;XL,VHSPTSHT00001006,L,VHSPTSHT00001007,M,VHSPTSHT00001008,S,VHSPTSHT00001009,XXL,VHSPTSHT00001010;1349.00;;;<p>100%Cotton</p>;;;;ndd17-mum;zerotype;;Winter;ndd17-mum;No
2155311;VSTF517S06544-Medium blue With Black-2155311;VSTF517S06544;Draft;Trousers;Van Heusen Sport;Adults-Men;Men;;;;Fashion;;2017;36,VHSPTRSR00002218,34,VHSPTRSR00002219,30,VHSPTRSR00002220,28,VHSPTRSR00002221,32,VHSPTRSR00002222;1699.00;;;<p>100%Cotton</p>;;;;ndd17-mum;zerotype;;Winter;ndd17-mum;No
2155310;VSTF517S06119-Light grey With blue-2155310;VSTF517S06119;Draft;Trousers;Van Heusen Sport;Adults-Men;Men;;;;Fashion;;2017;36,VHSPTRSR00002213,34,VHSPTRSR00002214,30,VHSPTRSR00002215,28,VHSPTRSR00002216,32,VHSPTRSR00002217;2299.00;;;<p>100%Cotton</p>;;;;ndd17-mum;zerotype;;Winter;ndd17-mum;No
2155309;VSTF517S04543-White-2155309;VSTF517S04543;Draft;Trousers;Van Heusen Sport;Adults-Men;Men;;;;Fashion;;2017;36,VHSPTRSR00002208,34,VHSPTRSR00002209,30,VHSPTRSR00002210,28,VHSPTRSR00002211,32,VHSPTRSR00002212;1699.00;;;<p>100%Cotton</p>;;;;ndd17-mum;zerotype;;Winter;ndd17-mum;No
2155307;VSTF517S04508-White-2155307;VSTF517S04508;Draft;Trousers;Van Heusen Sport;Adults-Men;Men;;;;Fashion;;2017;36,VHSPTRSR00002198,34,VHSPTRSR00002199,30,VHSPTRSR00002200,28,VHSPTRSR00002201,32,VHSPTRSR00002202;1699.00;;;<p>100%Cotton</p>;;;;ndd17-mum;zerotype;;Winter;ndd17-mum;No
2155302;VSTF317S01537-Light grey With blue-2155302;VSTF317S01537;Draft;Trousers;Van Heusen Sport;Adults-Men;Men;;;;Fashion;;2017;38,VHSPTRSR00002177,30,VHSPTRSR00002178,34,VHSPTRSR00002179,32,VHSPTRSR00002180,36,VHSPTRSR00002181;2399.00;;;<p>97%Cotton3%Spandex</p>;;;;ndd17-mum;zerotype;;Summer;ndd17-mum;No
2155301;VSTF316S07337-Light Brown Solid-2155301;VSTF316S07337;Draft;Trousers;Van Heusen Sport;Adults-Men;Men;;;;Fashion;;2016;36,VHSPTRSR00002171,30,VHSPTRSR00002172,32,VHSPTRSR00002173,34,VHSPTRSR00002174,38,VHSPTRSR00002175;2999.00;;;<p>71%Cotton29%Tencel</p>;;;;ndd17-mum;zerotype;;Summer;ndd17-mum;No
2155286;VHTF517M02883-Dark Brown Solid-2155286;VHTF517M02883;Draft;Trousers;Van Heusen;Adults-Men;Men;;;;Fashion;;2017;36,VNHSTRSR00008284,34,VNHSTRSR00008285,30,VNHSTRSR00008286,28,VNHSTRSR00008287,32,VNHSTRSR00008288;1699.00;;;<p>78%Polyester22%Viscose</p>;;;;ndd17-mum;zerotype;;Winter;ndd17-mum;No
2155284;VHTF317M08080-Medium grey Solid-2155284;VHTF317M08080;Draft;Trousers;Van Heusen;Adults-Men;Men;;;;Fashion;;2017;38,VNHSTRSR00008264,32,VNHSTRSR00008265,36,VNHSTRSR00008266,30,VNHSTRSR00008267,34,VNHSTRSR00008268;1999.00;;;<p>70%Polyester30%Viscose</p>;;;;ndd17-mum;zerotype;;Summer;ndd17-mum;No
2155283;VHTF317M07259-Light grey Solid-2155283;VHTF317M07259;Draft;Trousers;Van Heusen;Adults-Men;Men;;;;Fashion;;2017;38,VNHSTRSR00008259,36,VNHSTRSR00008260,34,VNHSTRSR00008261,32,VNHSTRSR00008262,30,VNHSTRSR00008263;2299.00;;;<p>63%Polyester35%Viscose2%Elasti</p>;;;;ndd17-mum;zerotype;;Summer;ndd17-mum;No
2155279;VHTF317M05873-Medium blue Solid-2155279;VHTF317M05873;Draft;Trousers;Van Heusen;Adults-Men;Men;;;;Fashion;;2017;30,VNHSTRSR00008243,38,VNHSTRSR00008244,32,VNHSTRSR00008245,34,VNHSTRSR00008246,36,VNHSTRSR00008247;2499.00;;;<p>75%Terelene25%Rayon</p>;;;;ndd17-mum;zerotype;;Summer;ndd17-mum;No
2155278;VHTF317M05862-Dark Grey Solid-2155278;VHTF317M05862;Draft;Trousers;Van Heusen;Adults-Men;Men;;;;Fashion;;2017;36,VNHSTRSR00008237,30,VNHSTRSR00008238,32,VNHSTRSR00008239,38,VNHSTRSR00008240,34,VNHSTRSR00008241,28,VNHSTRSR00008242;2499.00;;;<p>84%Terelene16%Rayon</p>;;;;ndd17-mum;zerotype;;Summer;ndd17-mum;No
2155277;VHTF317M05205-Dark Grey Solid-2155277;VHTF317M05205;Draft;Trousers;Van Heusen;Adults-Men;Men;;;;Fashion;;2017;38,VNHSTRSR00008232,30,VNHSTRSR00008233,34,VNHSTRSR00008234,32,VNHSTRSR00008235,36,VNHSTRSR00008236;1999.00;;;<p>63%Polyester34%Viscose3%Elasti</p>;;;;ndd17-mum;zerotype;;Summer;ndd17-mum;No
2155272;VHTF317M01213-Medium blue Solid-2155272;VHTF317M01213;Draft;Trousers;Van Heusen;Adults-Men;Men;;;;Fashion;;2017;36,VNHSTRSR00008210,38,VNHSTRSR00008211,34,VNHSTRSR00008212,30,VNHSTRSR00008213,32,VNHSTRSR00008214;2299.00;;;<p>70%Polyester30%Viscose</p>;;;;ndd17-mum;zerotype;;Summer;ndd17-mum;No
2138744;92282 OL-Black-2138744;92282 OL;Draft;Jackets;Fort Collins;Adults-Men;Men;Black;;;Fashion;;2017;M,FRCLJCKT00021037,L,FRCLJCKT00021038,XL,FRCLJCKT00021039;2750.00;<p>Pu zip</p>;<p>Net work</p>;<p>Easy Hand Wash</p>;;;Hooded Jacket;;zerotype;;Winter;;No
2138743;92290 OL-Dark grey-2138743;92290 OL;Draft;Jackets;Fort Collins;Adults-Men;Men;Grey;;;Fashion;;2017;M,FRCLJCKT00021033,L,FRCLJCKT00021034,XL,FRCLJCKT00021035,XXL,FRCLJCKT00021036;2690.00;<p>Metal zip</p>;<p>Ban caller</p>;<p>Easy Hand Wash</p>;;;Fort Collins Jacket;;zerotype;;Winter;;No
2138739;92273 OL-Black-2138739;92273 OL;Draft;Jackets;Fort Collins;Adults-Men;Men;Black;;;Fashion;;2017;M,FRCLJCKT00021017,L,FRCLJCKT00021018,XL,FRCLJCKT00021019,XXL,FRCLJCKT00021020;3499.00;<p>Metal zip</p>;<p>Ban caller</p>;<p>Easy Hand Wash</p>;;;Fort Collins Jacket;;zerotype;;Winter;;No
2138738;92273 OL-Maroon-2138738;92273 OL;Draft;Jackets;Fort Collins;Adults-Men;Men;Maroon;;;Fashion;;2017;M,FRCLJCKT00021013,L,FRCLJCKT00021014,XL,FRCLJCKT00021015,XXL,FRCLJCKT00021016;3499.00;<p>Metal zip</p>;<p>Ban caller</p>;<p>Easy Hand Wash</p>;;;Fort Collins Jacket;;zerotype;;Winter;;No
2138737;81276 OL-Wine-2138737;81276 OL;Draft;Jackets;Fort Collins;Adults-Men;Men;Red;;;Fashion;;2017;M,FRCLJCKT00021009,L,FRCLJCKT00021010,XL,FRCLJCKT00021011,XXL,FRCLJCKT00021012;2160.00;<p>Pu zip</p>;<p>Ban caller</p>;<p>Easy Hand Wash</p>;;;Fort Collins Jacket;;zerotype;;Winter;;No
2138736;81276 OL-Black-2138736;81276 OL;Draft;Jackets;Fort Collins;Adults-Men;Men;Black;;;Fashion;;2017;M,FRCLJCKT00021005,L,FRCLJCKT00021006,XL,FRCLJCKT00021007,XXL,FRCLJCKT00021008;2160.00;<p><a href='/pu?src=pd' class='seolink'>Pu</a> zip</p>;<p>Ban caller</p>;<p>Easy Hand Wash</p>;;;Fort Collins Jacket;;zerotype;;Winter;;No
2138735;CS87 OL-Blue-2138735;CS87 OL;Draft;Jackets;Fort Collins;Adults-Men;Men;Blue;;;Fashion;;2017;M,FRCLJCKT00021001,L,FRCLJCKT00021002,XL,FRCLJCKT00021003,XXL,FRCLJCKT00021004;3330.00;<p>Pu zip</p>;<p>Ban caller</p>;<p>Easy Hand Wash</p>;;;Fort Collins Jacket;;zerotype;;Winter;;No
2138734;CS87 OL-Black-2138734;CS87 OL;Draft;Jackets;Fort Collins;Adults-Men;Men;Black;;;Fashion;;2017;M,FRCLJCKT00020997,L,FRCLJCKT00020998,XL,FRCLJCKT00020999,XXL,FRCLJCKT00021000;3330.00;<p>Pu zip</p>;<p>Ban caller</p>;<p>Easy Hand Wash</p>;;;Fort Collins Jacket;;zerotype;;Winter;;No
2138733;n070 OL-Black-2138733;n070 OL;Draft;Jackets;Fort Collins;Adults-Men;Men;Black;;;Fashion;;2017;M,FRCLJCKT00020993,L,FRCLJCKT00020994,XL,FRCLJCKT00020995,XXL,FRCLJCKT00020996;2550.00;<p>Pu zip</p>;<p>Ban caller</p>;<p>Easy Hand Wash</p>;;;Fort Collins Jacket;;zerotype;;Winter;;No
2138729;43016 OL-Black-2138729;43016 OL;Draft;Jackets;Fort Collins;Adults-Men;Men;Black;;;Fashion;;2017;M,FRCLJCKT00020977,L,FRCLJCKT00020978,XL,FRCLJCKT00020979,XXL,FRCLJCKT00020980;2225.00;<p>Fiber zip</p>;<p>Ban caller</p>;<p>Easy Hand Wash</p>;;;Reversible Jacket;;zerotype;;Winter;;No
2138728;sl70 OL-Navy-2138728;sl70 OL;Draft;Jackets;Fort Collins;Adults-Men;Men;Navy Blue;;;Fashion;;2017;M,FRCLJCKT00020973,L,FRCLJCKT00020974,XL,FRCLJCKT00020975,XXL,FRCLJCKT00020976;2130.00;<p>Fiber zip</p>;<p>Rib at bottom</p>;<p>Easy Hand Wash</p>;;;Hooded Jacket;;zerotype;;Winter;;No
2138727;sl70 OL-Black-2138727;sl70 OL;Draft;Jackets;Fort Collins;Adults-Men;Men;Black;;;Fashion;;2017;M,FRCLJCKT00020969,L,FRCLJCKT00020970,XL,FRCLJCKT00020971,XXL,FRCLJCKT00020972;2130.00;<p>Fiber zip</p>;<p>Rib at bottom</p>;<p>Easy Hand Wash</p>;;;Hooded Jacket;;zerotype;;Winter;;No
2138725;10714 OL-Navy-2138725;10714 OL;Draft;Jackets;Fort Collins;Adults-Men;Men;Navy Blue;;;Fashion;;2017;M,FRCLJCKT00020961,L,FRCLJCKT00020962,XL,FRCLJCKT00020963,XXL,FRCLJCKT00020964;2899.00;<p>Gun metal</p>;<p>Ban caller</p>;<p>Easy Hand Wash</p>;;;Fort Collins Jacket;;zerotype;;Winter;;No
2138724;10714 OL-Black-2138724;10714 OL;Draft;Jackets;Fort Collins;Adults-Men;Men;Black;;;Fashion;;2017;M,FRCLJCKT00020957,L,FRCLJCKT00020958,XL,FRCLJCKT00020959,XXL,FRCLJCKT00020960;2899.00;<p>Gun metal</p>;<p>Ban caller</p>;<p>Easy Hand Wash</p>;;;Fort Collins Jacket;;zerotype;;Winter;;No
2138723;67407 OL-Black-2138723;67407 OL;Draft;Jackets;Fort Collins;Adults-Men;Men;Black;;;Fashion;;2017;M,FRCLJCKT00020953,L,FRCLJCKT00020954,XL,FRCLJCKT00020955,XXL,FRCLJCKT00020956;2180.00;<p>Fiber zip</p>;<p>Ban caller</p>;<p>Easy Hand Wash</p>;;;Fort Collins Jacket;;zerotype;;Winter;;No
2138722;67407 OL-Navy-2138722;67407 OL;Draft;Jackets;Fort Collins;Adults-Men;Men;Navy Blue;;;Fashion;;2017;M,FRCLJCKT00020949,L,FRCLJCKT00020950,XL,FRCLJCKT00020951,XXL,FRCLJCKT00020952;2180.00;<p>Fiber zip</p>;<p>Ban caller</p>;<p>Easy Hand Wash</p>;;;Fort Collins Jacket;;zerotype;;Winter;;No
2138721;67407 OL-Khaki-2138721;67407 OL;Draft;Jackets;Fort Collins;Adults-Men;Men;Khaki;;;Fashion;;2017;M,FRCLJCKT00020945,L,FRCLJCKT00020946,XL,FRCLJCKT00020947,XXL,FRCLJCKT00020948;2180.00;<p>Fiber zip</p>;<p>Ban caller</p>;<p>Easy Hand Wash</p>;;;Fort Collins Jacket;;zerotype;;Winter;;No
2138718;7303 OL-Olive-2138718;7303 OL;Draft;Jackets;Fort Collins;Adults-Men;Men;Olive;;;Fashion;;2017;M,FRCLJCKT00020933,L,FRCLJCKT00020934,XL,FRCLJCKT00020935,XXL,FRCLJCKT00020936;2475.00;<p>Fiber zip</p>;<p>Ban caller</p>;<p>Easy Hand Wash</p>;;;Fort Collins Jacket;;zerotype;;Winter;;No
2138717;7303 OL-Black-2138717;7303 OL;Draft;Jackets;Fort Collins;Adults-Men;Men;Black;;;Fashion;;2017;M,FRCLJCKT00020929,L,FRCLJCKT00020930,XL,FRCLJCKT00020931,XXL,FRCLJCKT00020932;2475.00;<p>Fiber zip</p>;<p>Ban caller</p>;<p>Easy Hand Wash</p>;;;Fort Collins Jacket;;zerotype;;Winter;;No
2138716;SS01 OL-Navy-2138716;SS01 OL;Draft;Jackets;Fort Collins;Adults-Men;Men;Navy Blue;;;Fashion;;2017;M,FRCLJCKT00020925,L,FRCLJCKT00020926,XL,FRCLJCKT00020927,XXL,FRCLJCKT00020928;3470.00;<p>Metal zip</p>;<p>Ban caller</p>;<p>Easy Hand Wash</p>;;;Fort Collins Jacket;;zerotype;;Winter;;No
2138713;47181 OL-Green-2138713;47181 OL;Draft;Jackets;Fort Collins;Adults-Men;Men;Green;;;Fashion;;2017;M,FRCLJCKT00020913,L,FRCLJCKT00020914,XL,FRCLJCKT00020915,XXL,FRCLJCKT00020916;2120.00;<p>Pu zip</p>;<p>Ban caller</p>;<p>Easy Hand Wash</p>;;;Fort Collins Jacket;;zerotype;;Winter;;No
2138712;47181 OL-Grey-2138712;47181 OL;Draft;Jackets;Fort Collins;Adults-Men;Men;Grey;;;Fashion;;2017;M,FRCLJCKT00020909,L,FRCLJCKT00020910,XL,FRCLJCKT00020911,XXL,FRCLJCKT00020912;2120.00;<p>Pu zip</p>;<p>Ban caller</p>;<p>Easy Hand Wash</p>;;;Fort Collins Jacket;;zerotype;;Winter;;No
2138709;47181 OL-Mustard-2138709;47181 OL;Draft;Jackets;Fort Collins;Adults-Men;Men;Mustard;;;Fashion;;2017;M,FRCLJCKT00020897,L,FRCLJCKT00020898,XL,FRCLJCKT00020899,XXL,FRCLJCKT00020900;2120.00;<p>Pu zip</p>;<p>Ban caller</p>;<p>Easy Hand Wash</p>;;;Fort Collins Jacket;;zerotype;;Winter;;No
2138706;cs301 OL-Black-2138706;cs301 OL;Draft;Jackets;Fort Collins;Adults-Men;Men;Black;;;Fashion;;2017;M,FRCLJCKT00020889,L,FRCLJCKT00020890,XL,FRCLJCKT00020891,XXL,FRCLJCKT00020892;2930.00;<p>Pu zip</p>;<p>Ban caller</p>;<p>Easy Hand Wash</p>;;;Fort Collins Jacket;;zerotype;;Winter;;No
2138705;cs90 OL-Grey-2138705;cs90 OL;Draft;Jackets;Fort Collins;Adults-Men;Men;Grey;;;Fashion;;2017;M,FRCLJCKT00020885,L,FRCLJCKT00020886,XL,FRCLJCKT00020887,XXL,FRCLJCKT00020888;2999.00;<p>Pu zip</p>;<p>Ban caller</p>;<p>Easy Hand Wash</p>;;;Fort Collins Jacket;;zerotype;;Winter;;No
2138704;cs90 OL-Turquoise-2138704;cs90 OL;Draft;Jackets;Fort Collins;Adults-Men;Men;Blue;;;Fashion;;2017;M,FRCLJCKT00020881,L,FRCLJCKT00020882,XL,FRCLJCKT00020883,XXL,FRCLJCKT00020884;2999.00;<p>Pu zip</p>;<p>Ban caller</p>;<p>Easy Hand Wash</p>;;;Fort Collins Jacket;;zerotype;;Winter;;No
2138703;N075 OL-Navy-2138703;N075 OL;Draft;Jackets;Fort Collins;Adults-Men;Men;Navy Blue;;;Fashion;;2017;M,FRCLJCKT00020877,L,FRCLJCKT00020878,XL,FRCLJCKT00020879,XXL,FRCLJCKT00020880;2599.00;<p>Pu zip</p>;<p>Ban caller</p>;<p>Easy Hand Wash</p>;;;Fort Collins Jacket;;zerotype;;Winter;;No
2138701;N075 OL-Black-2138701;N075 OL;Draft;Jackets;Fort Collins;Adults-Men;Men;Black;;;Fashion;;2017;M,FRCLJCKT00020873,L,FRCLJCKT00020874,XL,FRCLJCKT00020875,XXL,FRCLJCKT00020876;2599.00;<p>Pu zip</p>;<p>Ban caller</p>;<p>Easy Hand Wash</p>;;;Fort Collins Jacket;;zerotype;;Winter;;No
2138699;N097 OL-Navy-2138699;N097 OL;Draft;Jackets;Fort Collins;Adults-Men;Men;Navy Blue;;;Fashion;;2017;M,FRCLJCKT00020865,L,FRCLJCKT00020866,XL,FRCLJCKT00020867,XXL,FRCLJCKT00020868;2380.00;<p>Ykk gun metal</p>;<p>Rib at bottom</p>;<p>Easy Hand Wash</p>;;;Fort Collins Jacket;;zerotype;;Winter;;No
2138698;CS069B OL-Navy-2138698;CS069B OL;Draft;Jackets;Fort Collins;Adults-Men;Men;Navy Blue;;;Fashion;;2017;M,FRCLJCKT00020861,L,FRCLJCKT00020862,XL,FRCLJCKT00020863,XXL,FRCLJCKT00020864;2575.00;<p>Ykk gun metal</p>;<p>Ban caller</p>;<p>Easy Hand Wash</p>;;;Fort Collins Jacket;;zerotype;;Winter;;No
2138696;CS069B OL-Khaki-2138696;CS069B OL;Draft;Jackets;Fort Collins;Adults-Men;Men;Khaki;;;Fashion;;2017;M,FRCLJCKT00020857,L,FRCLJCKT00020858,XL,FRCLJCKT00020859,XXL,FRCLJCKT00020860;2575.00;<p>Ykk gun metal</p>;<p>Ban caller</p>;<p>Easy Hand Wash</p>;;;Fort Collins Jacket;;zerotype;;Winter;;No
2138695;N104 OL-Camel-2138695;N104 OL;Draft;Jackets;Fort Collins;Adults-Men;Men;Beige;;;Fashion;;2017;M,FRCLJCKT00020853,L,FRCLJCKT00020854,XL,FRCLJCKT00020855,XXL,FRCLJCKT00020856;2460.00;<p>Metal zip</p>;<p>Rib at bottom</p>;<p>Easy Hand Wash</p>;;;Hooded Jacket;;zerotype;;Winter;;No
2138693;CS72 OL-Maroon-2138693;CS72 OL;Draft;Jackets;Fort Collins;Adults-Men;Men;Maroon;;;Fashion;;2017;M,FRCLJCKT00020845,L,FRCLJCKT00020846,XL,FRCLJCKT00020847,XXL,FRCLJCKT00020848;3195.00;<p>Gun metal</p>;<p>Biker</p>;<p>Easy Hand Wash</p>;;;Fort Collins Jacket;;zerotype;;Winter;;No
2138691;CS72 OL-Black-2138691;CS72 OL;Draft;Jackets;Fort Collins;Adults-Men;Men;Black;;;Fashion;;2017;M,FRCLJCKT00020841,L,FRCLJCKT00020842,XL,FRCLJCKT00020843,XXL,FRCLJCKT00020844;3195.00;<p>Gun metal</p>;<p>Biker</p>;<p>Easy Hand Wash</p>;;;Fort Collins Jacket;;zerotype;;Winter;;No
2138690;43181 OL-Camel-2138690;43181 OL;Draft;Jackets;Fort Collins;Adults-Men;Men;Beige;;;Fashion;;2017;M,FRCLJCKT00020837,L,FRCLJCKT00020838,XL,FRCLJCKT00020839,XXL,FRCLJCKT00020840;2250.00;<p>Gun metal</p>;<p>Ban caller</p>;<p>Easy Hand Wash</p>;;;Reversible Jacket;;zerotype;;Winter;;No
2138689;43181 OL-Black-2138689;43181 OL;Draft;Jackets;Fort Collins;Adults-Men;Men;Black;;;Fashion;;2017;M,FRCLJCKT00020833,L,FRCLJCKT00020834,XL,FRCLJCKT00020835,XXL,FRCLJCKT00020836;2250.00;<p>Gun metal</p>;<p>Ban caller</p>;<p>Easy Hand Wash</p>;;;Reversible Jacket;;zerotype;;Winter;;No
2138685;92025 OL-Black-2138685;92025 OL;Draft;Sweatshirts;Fort Collins;Adults-Men;Men;Black;;;Fashion;;2017;M,FRCLSWSH00004747,L,FRCLSWSH00004748,XL,FRCLSWSH00004749,XXL,FRCLSWSH00004750;1550.00;;;<p>Easy Hand Wash</p>;;;;;zerotype;;Winter;;No
2138678;62141 OL-Black-2138678;62141 OL;Draft;Coats;Fort Collins;Adults-Men;Men;Black;;;Fashion;;2017;M,FRCLCOAT00002721,L,FRCLCOAT00002722,XL,FRCLCOAT00002723,XXL,FRCLCOAT00002724;2975.00;<p>Printing</p>;;<p>Easy Hand Wash</p>;;;;;zerotype;;Winter;;No
2138676;62136 OL-Mehandi-2138676;62136 OL;Draft;Coats;Fort Collins;Adults-Men;Men;Green;;;Fashion;;2017;M,FRCLCOAT00002717,L,FRCLCOAT00002718,XL,FRCLCOAT00002719,XXL,FRCLCOAT00002720;2545.00;<p>Cotton</p>;;<p>Easy Hand Wash</p>;;;;;zerotype;;Winter;;No
2138675;62120 OL-Tan-2138675;62120 OL;Draft;Coats;Fort Collins;Adults-Men;Men;Blue;;;Fashion;;2017;M,FRCLCOAT00002713,L,FRCLCOAT00002714,XL,FRCLCOAT00002715,XXL,FRCLCOAT00002716;3190.00;<p>PU</p>;;<p>Easy Hand Wash</p>;;;;;zerotype;;Winter;;No
2138673;62114 OL-Tan-2138673;62114 OL;Draft;Coats;Fort Collins;Adults-Men;Men;Blue;;;Fashion;;2017;M,FRCLCOAT00002705,L,FRCLCOAT00002706,XL,FRCLCOAT00002707,XXL,FRCLCOAT00002708;3195.00;<p>Ban caller</p>;;<p>Easy Hand Wash</p>;;;;;zerotype;;Winter;;No
2138672;62114 OL-Black-2138672;62114 OL;Draft;Coats;Fort Collins;Adults-Men;Men;Black;;;Fashion;;2017;M,FRCLCOAT00002701,L,FRCLCOAT00002702,XL,FRCLCOAT00002703,XXL,FRCLCOAT00002704;3195.00;<p>Ban caller</p>;;<p>Easy Hand Wash</p>;;;;;zerotype;;Winter;;No
2138670;6167 OL-Rust-2138670;6167 OL;Draft;Coats;Fort Collins;Adults-Men;Men;Orange;;;Fashion;;2017;M,FRCLCOAT00002697,L,FRCLCOAT00002698,XL,FRCLCOAT00002699,XXL,FRCLCOAT00002700;3299.00;<p>PU</p>;;<p>Easy Hand Wash</p>;;;;;zerotype;;Winter;;No
2138667;10104 OL-Dark grey-2138667;10104 OL;Draft;Coats;Fort Collins;Adults-Men;Men;Grey;;;Fashion;;2017;M,FRCLCOAT00002689,L,FRCLCOAT00002690,XL,FRCLCOAT00002691,XXL,FRCLCOAT00002692;3190.00;<p>Ban caller</p>;;<p>Easy Hand Wash</p>;;;;;zerotype;;Winter;;No
2088717;430164 OL-Navy-2088717;430164 OL;Inactive - PMM - Catalog;Jackets;Fort Collins;Adults-Men;Men;Beige;Navy Blue;;Fashion;Casual;2017;M,FRCLJCKT00020461,L,FRCLJCKT00020462,XL,FRCLJCKT00020463,XXL,FRCLJCKT00020464;2230.00;Beige and navy solid reversible bomber jacket, has a mock collar, 4 pockets, zip closure, long sleeves, straight hem;This fashionable jacket will elevate your overall style. Pair this Fort Collins jacket with a cool T-shirt and trim denims when you're going out for drinks with the boys.;Outer: Nylon<br />Inner: Cotton <br /> Machine-wash;The model (height 6') is wearing a size M;;Fort Collins Men Beige & Navy Solid Reversible Bomber Jacket;Fort Collins,coh-exp-aug,menscasualfest-oct,ftod-sep30,new-season-diwali17,coupon-offer-diwali17;zerotype;;Winter;image mismatch;No
2078391;LF3232-Navy Mix-2078391;Duke Tshirts;Active;Tshirts;Duke Stardust;Adults-Men;Men;Navy Blue;;;Fashion;Casual;2017;L,DUKETSHT00012327,M,DUKETSHT00012328,S,DUKETSHT00012329,XL,DUKETSHT00012330,XXL,DUKETSHT00012331;1195.00;Navy blue striped T-shirt, has a polo collar, long sleeves;This top-notch T-shirt from Duke will have you looking fresh all year long.  Whether you're running errands or meeting friends for coffee, sport this number with slim black jeans or cutoff shorts for a relaxed style.;Cotton blend<br />Machine-wash;The model (height 6') is wearing a size M;;Duke Stardust Men Navy Blue Striped Polo Collar T-shirt;Duke,ALEX032;zerotype;;Fall;image mismatch;No
2078311;LF2674-D.Grey-2078311;Duke Tshirts;Inactive - PMM - Catalog;Tshirts;Duke;Adults-Men;Men;Navy Blue;;;Fashion;Casual;2017;L,DUKETSHT00011927,M,DUKETSHT00011928,S,DUKETSHT00011929,XL,DUKETSHT00011930,XXL,DUKETSHT00011931;1395.00;Navy striped waist length polo T-shirt with melange effect, has a polo collar, a short button placket, and long sleeves;Keep it trendy and casual this season with this high-quality Duke tee. You can pair this navy piece with slick black jeans and Chelsea boots for a fashionable weekend outfit.;Cotton <br />Machine-wash cold;The model (height 6') is wearing a size M;;Duke Men Navy Striped Polo Collar T-shirt;Duke,ALEX032,bbd17-coupon-offer,coh-exp-aug,bbd17-combo-buy3,bbd17-new-season,menscasualfest-oct,coupon-offer-sep30,ftod-sep30,combo-deals,combo-buy2-sep30,coupon-offer-diwali17,welcome-to-myntra-oct17,ds17-buy2-1999;zerotype;;Fall;Image Mismatch;No
2072566;VSSF517S04371-White-2072566;Shirts;Draft;Shirts;Van Heusen Sport;Adults-Men;Men;White;;;Fashion;;2017;42,VHSPSHRT00004832,40,VHSPSHRT00004833,38,VHSPSHRT00004834,39,VHSPSHRT00004835,46,VHSPSHRT00004836,44,VHSPSHRT00004837;2299.00;;;<p>100%Cotton</p>;;;;;zerotype;;Fall;;No
2065093;P10101101136013-ECRU MELANGE-2065093;People Grey T Shirt;On Hold - Sample;Tshirts;People;Adults-Men;Men;Grey;;;Fashion;;2017;S,PEPLTSHT00008074,M,PEPLTSHT00008075,L,PEPLTSHT00008076,XL,PEPLTSHT00008077,XXL,PEPLTSHT00008078;399.00;;;<p>98% Cotton and 2% Polyester</p>;;;;ndd17-mum;zerotype;;Spring;ndd17-mum;No
2065092;P10101101129013-IVORY-2065092;People Cream T Shirt;On Hold - Sample;Tshirts;People;Adults-Men;Men;Cream;;;Fashion;;2017;S,PEPLTSHT00008070,M,PEPLTSHT00008071,L,PEPLTSHT00008072,XL,PEPLTSHT00008073;299.00;;;<p>100% Cotton</p>;;;;;zerotype;;Spring;Broken size;No
2064884;P10102161036819-RUST-2064884;People Red Shirt;On Hold - Sample;Shirts;People;Adults-Men;Men;Red;;;Fashion;;2017;38,PEPLSHRT00003722,39,PEPLSHRT00003723,40,PEPLSHRT00003724,42,PEPLSHRT00003725,44,PEPLSHRT00003726,46,PEPLSHRT00003727;1199.00;;;<p>100% Cotton</p>;;;;;zerotype;;Spring;Broken size;No
