Style ID;Vendor Article Number;Vendor Article Name;Active Status;Article type;Brand;Age Group;Gender;Base Colour;Colour1;Colour2;Fashion Type;Usage;Year;Size - SKU code pair;MRP;Style Description;Style Note;Materials and Care Description;Size and Fit Description;Size Chart Path;Product Display Name;Tags;Product Type;Classification Brand;Season;Comments;Upload Images
2288172;D35J00005-Natural/Multi-2288172;Romee Multicolour Jute Dhurrie;Draft;Floor Mats & Dhurries;ROMEE;Adults-Unisex;Unisex;Beige;Beige;;Fashion;Home;2017;3FEETX5FEET,ROMEFLMT00000041;5849.00;;;<p>Material: Jute, Dry Clean</p>;;;NA;;zerotype;;Fall;;No
2288171;D35P00010-Beige/White-2288171;Romee Beige Polypropylene Dhurrie;Draft;Floor Mats & Dhurries;ROMEE;Adults-Unisex;Unisex;Grey;White;;Fashion;Home;2017;3FEETX5FEET,ROMEFLMT00000040;6949.00;;;<p>Material: Polypropylene, Dry Clean</p>;;;NA;;zerotype;;Fall;;No
2288170;D35P00014-Black-2288170;Romee Black Polypropylene Dhurrie;Draft;Floor Mats & Dhurries;ROMEE;Adults-Unisex;Unisex;Grey;;;Fashion;Home;2017;3FEETX5FEET,ROMEFLMT00000039;6949.00;;;<p>Material: Polypropylene, Dry Clean</p>;;;NA;;zerotype;;Fall;;No
2288165;LF-I-A8015-9-BLACK-Black-2288165;LF-I-A8015-9-BLACK;Draft;Heels;SHUZ TOUCH;Adults-Women;Women;Black;;;Fashion;Casual;2017;35,SZTCHeels00000711,39,SZTCHeels00000712,38,SZTCHeels00000713,37,SZTCHeels00000714,36,SZTCHeels00000715,41,SZTCHeels00000716,40,SZTCHeels00000717;3095.00;;;<p>GENTALY RUB WITH A CLOTH</p>;;;na;;zerotype;;Winter;;No
2288162;LF-I-653-35-TAN-Tan-2288162;LF-I-653-35-TAN;Draft;Heels;SHUZ TOUCH;Adults-Women;Women;Tan;;;Fashion;Casual;2017;39,SZTCHeels00000704,38,SZTCHeels00000705,37,SZTCHeels00000706,36,SZTCHeels00000707,35,SZTCHeels00000708,41,SZTCHeels00000709,40,SZTCHeels00000710;3495.00;;;<p>GENTALY RUB WITH A CLOTH</p>;;;na;;zerotype;;Winter;;No
2288160;LF-I-531-26-BLACK-Black-2288160;LF-I-531-26-BLACK;Draft;Heels;SHUZ TOUCH;Adults-Women;Women;Black;;;Fashion;Casual;2017;40,SZTCHeels00000697,39,SZTCHeels00000698,38,SZTCHeels00000699,37,SZTCHeels00000700,36,SZTCHeels00000701,35,SZTCHeels00000702,41,SZTCHeels00000703;3495.00;;;<p>GENTALY RUB WITH A CLOTH</p>;;;na;;zerotype;;Winter;;No
2288158;LF-I-A8015-16-BLACK-Black-2288158;LF-I-A8015-16-BLACK;Draft;Heels;SHUZ TOUCH;Adults-Women;Women;Black;;;Fashion;Casual;2017;37,SZTCHeels00000690,36,SZTCHeels00000691,35,SZTCHeels00000692,41,SZTCHeels00000693,40,SZTCHeels00000694,39,SZTCHeels00000695,38,SZTCHeels00000696;3095.00;;;<p>GENTALY RUB WITH A CLOTH</p>;;;na;;zerotype;;Winter;;No
2288155;LF-I-653-35-BLACK-Black-2288155;LF-I-653-35-BLACK;Draft;Heels;SHUZ TOUCH;Adults-Women;Women;Black;;;Fashion;Casual;2017;40,SZTCHeels00000683,39,SZTCHeels00000684,38,SZTCHeels00000685,37,SZTCHeels00000686,36,SZTCHeels00000687,35,SZTCHeels00000688,41,SZTCHeels00000689;3495.00;;;<p>GENTALY RUB WITH A CLOTH</p>;;;na;;zerotype;;Winter;;No
2288153;LF-I-12328-5-BLACK-Black-2288153;LF-I-12328-5-BLACK;Draft;Heels;SHUZ TOUCH;Adults-Women;Women;Black;;;Fashion;Casual;2017;38,SZTCHeels00000676,37,SZTCHeels00000677,41,SZTCHeels00000678,40,SZTCHeels00000679,36,SZTCHeels00000680,35,SZTCHeels00000681,39,SZTCHeels00000682;3495.00;;;<p>GENTALY RUB WITH A CLOTH</p>;;;na;;zerotype;;Winter;;No
2288150;LF-I-A8015-9-BROWN-Brown-2288150;LF-I-A8015-9-BROWN;Draft;Heels;SHUZ TOUCH;Adults-Women;Women;Brown;;;Fashion;Casual;2017;38,SZTCHeels00000669,37,SZTCHeels00000670,36,SZTCHeels00000671,35,SZTCHeels00000672,41,SZTCHeels00000673,40,SZTCHeels00000674,39,SZTCHeels00000675;3095.00;;;<p>GENTALY RUB WITH A CLOTH</p>;;;na;;zerotype;;Winter;;No
2288148;LF-I-653-19-BROWN-Brown-2288148;LF-I-653-19-BROWN;Draft;Heels;SHUZ TOUCH;Adults-Women;Women;Brown;;;Fashion;Casual;2017;41,SZTCHeels00000662,36,SZTCHeels00000663,40,SZTCHeels00000664,35,SZTCHeels00000665,39,SZTCHeels00000666,38,SZTCHeels00000667,37,SZTCHeels00000668;3495.00;;;<p>GENTALY RUB WITH A CLOTH</p>;;;na;;zerotype;;Winter;;No
2288145;LF-I-653-19-BLACK-Black-2288145;LF-I-653-19-BLACK;Draft;Heels;SHUZ TOUCH;Adults-Women;Women;Black;;;Fashion;Casual;2017;41,SZTCHeels00000655,40,SZTCHeels00000656,38,SZTCHeels00000657,37,SZTCHeels00000658,36,SZTCHeels00000659,39,SZTCHeels00000660,35,SZTCHeels00000661;3495.00;;;<p>GENTALY RUB WITH A CLOTH</p>;;;na;;zerotype;;Winter;;No
2288142;LF-I-A8015-16-TAN-Tan-2288142;LF-I-A8015-16-TAN;Draft;Heels;SHUZ TOUCH;Adults-Women;Women;Tan;;;Fashion;Casual;2017;41,SZTCHeels00000648,40,SZTCHeels00000649,39,SZTCHeels00000650,38,SZTCHeels00000651,37,SZTCHeels00000652,36,SZTCHeels00000653,35,SZTCHeels00000654;3095.00;;;<p>GENTALY RUB WITH A CLOTH</p>;;;na;;zerotype;;Winter;;No
