Style ID;Vendor Article Number;Vendor Article Name;Active Status;Article type;Brand;Age Group;Gender;Base Colour;Colour1;Colour2;Fashion Type;Usage;Year;Size - SKU code pair;MRP;Style Description;Style Note;Materials and Care Description;Size and Fit Description;Size Chart Path;Product Display Name;Tags;Product Type;Classification Brand;Season;Comments;Upload Images
1837374;AR313CRIMSAL-CRIMSAL-1837374;Arise Henley T Shirt;Draft;Tshirts;ARISE;Adults-Men;Men;;;;Fashion;;2017;S,ARSETSHT00000971,M,ARSETSHT00000972,L,ARSETSHT00000973,XL,ARSETSHT00000974,XXL,ARSETSHT00000975;799.00;;;;;;;;zerotype;;Summer;;No
1837373;AR313RED-RED-1837373;Arise Henley T Shirt;Draft;Tshirts;ARISE;Adults-Men;Men;;;;Fashion;;2017;S,ARSETSHT00000966,M,ARSETSHT00000967,L,ARSETSHT00000968,XL,ARSETSHT00000969,XXL,ARSETSHT00000970;799.00;;;;;;;;zerotype;;Summer;;No
1837372;AR313WHITE-WHITE-1837372;Arise Henley T Shirt;Draft;Tshirts;ARISE;Adults-Men;Men;;;;Fashion;;2017;S,ARSETSHT00000961,M,ARSETSHT00000962,L,ARSETSHT00000963,XL,ARSETSHT00000964,XXL,ARSETSHT00000965;799.00;;;;;;;;zerotype;;Summer;;No
1837371;AR308WINE-WINE-1837371;Arise Henley T Shirt;Draft;Tshirts;ARISE;Adults-Men;Men;;;;Fashion;;2017;S,ARSETSHT00000956,M,ARSETSHT00000957,L,ARSETSHT00000958,XL,ARSETSHT00000959,XXL,ARSETSHT00000960;799.00;;;;;;;;zerotype;;Summer;;No
1837370;AR308NAVY-NAVY-1837370;Arise Henley T Shirt;Draft;Tshirts;ARISE;Adults-Men;Men;;;;Fashion;;2017;S,ARSETSHT00000951,M,ARSETSHT00000952,L,ARSETSHT00000953,XL,ARSETSHT00000954,XXL,ARSETSHT00000955;799.00;;;;;;;;zerotype;;Summer;;No
1837369;AR308BLACK-BLACK-1837369;Arise Henley T Shirt;Draft;Tshirts;ARISE;Adults-Men;Men;;;;Fashion;;2017;S,ARSETSHT00000946,M,ARSETSHT00000947,L,ARSETSHT00000948,XL,ARSETSHT00000949,XXL,ARSETSHT00000950;799.00;;;;;;;;zerotype;;Summer;;No
1837368;AR307NAVY1-NAVY-1837368;Arise Henley T Shirt;Draft;Tshirts;ARISE;Adults-Men;Men;;;;Fashion;;2017;S,ARSETSHT00000941,M,ARSETSHT00000942,L,ARSETSHT00000943,XL,ARSETSHT00000944,XXL,ARSETSHT00000945;799.00;;;;;;;;zerotype;;Summer;;No
1837367;AR304COBALTBLUE-COBALT BLUE-1837367;Arise Henley T Shirt;Draft;Tshirts;ARISE;Adults-Men;Men;;;;Fashion;;2017;S,ARSETSHT00000936,M,ARSETSHT00000937,L,ARSETSHT00000938,XL,ARSETSHT00000939,XXL,ARSETSHT00000940;799.00;;;;;;;;zerotype;;Summer;;No
1837366;AR216NAVY-NAVY-1837366;Arise V Neck Tshirt;Draft;Tshirts;ARISE;Adults-Men;Men;;;;Fashion;;2017;S,ARSETSHT00000931,M,ARSETSHT00000932,L,ARSETSHT00000933,XL,ARSETSHT00000934,XXL,ARSETSHT00000935;799.00;;;;;;;;zerotype;;Summer;;No
1837365;AR216BLACK-BLACK-1837365;Arise V Neck Tshirt;Draft;Tshirts;ARISE;Adults-Men;Men;;;;Fashion;;2017;S,ARSETSHT00000926,M,ARSETSHT00000927,L,ARSETSHT00000928,XL,ARSETSHT00000929,XXL,ARSETSHT00000930;799.00;;;;;;;;zerotype;;Summer;;No
1837364;AR212WINE-WINE-1837364;Arise V Neck Tshirt;Draft;Tshirts;ARISE;Adults-Men;Men;;;;Fashion;;2017;S,ARSETSHT00000921,M,ARSETSHT00000922,L,ARSETSHT00000923,XL,ARSETSHT00000924,XXL,ARSETSHT00000925;699.00;;;;;;;;zerotype;;Summer;;No
1837363;AR111BLACK-BLACK-1837363;Arise Crew Neck T Shirt;Draft;Tshirts;ARISE;Adults-Men;Men;;;;Fashion;;2017;S,ARSETSHT00000916,M,ARSETSHT00000917,L,ARSETSHT00000918,XL,ARSETSHT00000919,XXL,ARSETSHT00000920;599.00;;;;;;;;zerotype;;Summer;;No
1837362;AR111GREY-GREY-1837362;Arise Crew Neck T Shirt;Draft;Tshirts;ARISE;Adults-Men;Men;;;;Fashion;;2017;S,ARSETSHT00000911,M,ARSETSHT00000912,L,ARSETSHT00000913,XL,ARSETSHT00000914,XXL,ARSETSHT00000915;599.00;;;;;;;;zerotype;;Summer;;No
1837361;AR103WHITE-WHITE-1837361;Arise Crew Neck T Shirt;Draft;Tshirts;ARISE;Adults-Men;Men;;;;Fashion;;2017;S,ARSETSHT00000906,M,ARSETSHT00000907,L,ARSETSHT00000908,XL,ARSETSHT00000909,XXL,ARSETSHT00000910;599.00;;;;;;;;zerotype;;Summer;;No
1837360;AR103BLACK-BLACK-1837360;Arise Crew Neck T Shirt;Draft;Tshirts;ARISE;Adults-Men;Men;;;;Fashion;;2017;S,ARSETSHT00000901,M,ARSETSHT00000902,L,ARSETSHT00000903,XL,ARSETSHT00000904,XXL,ARSETSHT00000905;599.00;;;;;;;;zerotype;;Summer;;No
1837359;AR102WHITE-WHITE-1837359;Arise Crew Neck T Shirt;Draft;Tshirts;ARISE;Adults-Men;Men;;;;Fashion;;2017;S,ARSETSHT00000896,M,ARSETSHT00000897,L,ARSETSHT00000898,XL,ARSETSHT00000899,XXL,ARSETSHT00000900;499.00;;;;;;;;zerotype;;Summer;;No
1837358;AR102OLIVE-OLIVE-1837358;Arise Crew Neck T Shirt;Draft;Tshirts;ARISE;Adults-Men;Men;;;;Fashion;;2017;S,ARSETSHT00000891,M,ARSETSHT00000892,L,ARSETSHT00000893,XL,ARSETSHT00000894,XXL,ARSETSHT00000895;499.00;;;;;;;;zerotype;;Summer;;No
1837357;AR102BLACK-BLACK-1837357;Arise Crew Neck T Shirt;Draft;Tshirts;ARISE;Adults-Men;Men;;;;Fashion;;2017;S,ARSETSHT00000886,M,ARSETSHT00000887,L,ARSETSHT00000888,XL,ARSETSHT00000889,XXL,ARSETSHT00000890;499.00;;;;;;;;zerotype;;Summer;;No
1837356;AR101BLACK-BLACK-1837356;Arise Crew Neck T Shirt;Draft;Tshirts;ARISE;Adults-Men;Men;;;;Fashion;;2017;S,ARSETSHT00000881,M,ARSETSHT00000882,L,ARSETSHT00000883,XL,ARSETSHT00000884,XXL,ARSETSHT00000885;599.00;;;;;;;;zerotype;;Summer;;No
1837355;AR104HEATHERGREY-HEATHER GREY-1837355;Arise Crew Neck T Shirt;Draft;Tshirts;ARISE;Adults-Men;Men;;;;Fashion;;2017;S,ARSETSHT00000876,M,ARSETSHT00000877,L,ARSETSHT00000878,XL,ARSETSHT00000879,XXL,ARSETSHT00000880;599.00;;;;;;;;zerotype;;Summer;;No
1837354;AR205SMOKE-SMOKE-1837354;Arise V Neck Tshirt;Draft;Tshirts;ARISE;Adults-Men;Men;;;;Fashion;;2017;S,ARSETSHT00000871,M,ARSETSHT00000872,L,ARSETSHT00000873,XL,ARSETSHT00000874,XXL,ARSETSHT00000875;599.00;;;;;;;;zerotype;;Summer;;No
1837353;AR204FADEDOLIVE-FADED OLIVE-1837353;Arise V Neck Tshirt;Draft;Tshirts;ARISE;Adults-Men;Men;;;;Fashion;;2017;S,ARSETSHT00000866,M,ARSETSHT00000867,L,ARSETSHT00000868,XL,ARSETSHT00000869,XXL,ARSETSHT00000870;599.00;;;;;;;;zerotype;;Summer;;No
1837352;AR203WINE-Wine-1837352;Arise V Neck Tshirt;Draft;Tshirts;ARISE;Adults-Men;Men;;;;Fashion;;2017;S,ARSETSHT00000861,M,ARSETSHT00000862,L,ARSETSHT00000863,XL,ARSETSHT00000864,XXL,ARSETSHT00000865;599.00;;;;;;;;zerotype;;Summer;;No
