Style ID;Vendor Article Number;Vendor Article Name;Active Status;Article type;Brand;Age Group;Gender;Base Colour;Colour1;Colour2;Fashion Type;Usage;Year;Size - SKU code pair;MRP;Style Description;Style Note;Materials and Care Description;Size and Fit Description;Size Chart Path;Product Display Name;Tags;Product Type;Classification Brand;Season;Comments;Upload Images
4289627;AMTF1G002531-Olive-4289627;Trousers;Draft;Trousers;Allen Solly;Adults-Men;Men;Olive;;;Core;Casual;2017;40,ALSLTRSR00010502,42,ALSLTRSR00010503;2049.00;;;<p>98% Cotton and 2% Spandex</p>;;;a;;zerotype;;Winter;;No
4289626;AMTF517G005095-Grey-4289626;Trousers;Draft;Trousers;Allen Solly;Adults-Men;Men;Grey;;;Fashion;Casual;2017;40,ALSLTRSR00010500,42,ALSLTRSR00010501;2349.00;;;<p>98% Cotton and 2% Spandex</p>;;;a;;zerotype;;Winter;;No
4289625;AMTF517G005133-Black-4289625;Trousers;Draft;Trousers;Allen Solly;Adults-Men;Men;Black;;;Fashion;Casual;2017;40,ALSLTRSR00010498,42,ALSLTRSR00010499;1849.00;;;<p>98% Cotton and 2% Spandex</p>;;;a;;zerotype;;Winter;;No
4289624;AMTF1G002531-Olive-4289624;Trousers;Draft;Trousers;Allen Solly;Adults-Men;Men;Olive;;;Core;Casual;2017;44,ALSLTRSR00010497;2099.00;;;<p>98% Cotton and 2% Spandex</p>;;;a;;zerotype;;Winter;;No
4289623;AMKW517G04261-Grey-4289623;Tshirts;Draft;Tshirts;Allen Solly;Adults-Men;Men;Grey;;;Fashion;;2017;3XL,ALSLTSHT00011527,XL,ALSLTSHT00011528,L,ALSLTSHT00011529,M,ALSLTSHT00011530,S,ALSLTSHT00011531,XXL,ALSLTSHT00011532;1599.00;;;<p>100% Cotton</p>;;;a;;zerotype;;Winter;;No
3081697;AMTF1G002583-Navy Blue-3081697;Trouser;Draft;Trousers;Allen Solly;Adults-Men;Men;;;;Core;Casual;2018;40,ALSLTRSR00008372,42,ALSLTRSR00008373;2349.00;;;<p>Wash with mild detergent. Do not bleach. Dry in shade</p>;;;;;zerotype;;Spring;;No
3081696;AMTF1G002583-Navy Blue-3081696;Trouser;Draft;Trousers;Allen Solly;Adults-Men;Men;;;;Core;Casual;2018;30,ALSLTRSR00008367,32,ALSLTRSR00008368,34,ALSLTRSR00008369,36,ALSLTRSR00008370,38,ALSLTRSR00008371;2299.00;;;<p>Wash with mild detergent. Do not bleach. Dry in shade</p>;;;;;zerotype;;Spring;;No
3081693;AMTF1G002577-Beige-3081693;Trouser;Draft;Trousers;Allen Solly;Adults-Men;Men;;;;Core;Casual;2018;40,ALSLTRSR00008358,42,ALSLTRSR00008359;2349.00;;;<p>Wash with mild detergent. Do not bleach. Dry in shade</p>;;;;;zerotype;;Spring;;No
3081692;AMTF1G002577-Beige-3081692;Trouser;Draft;Trousers;Allen Solly;Adults-Men;Men;;;;Core;Casual;2018;30,ALSLTRSR00008353,32,ALSLTRSR00008354,34,ALSLTRSR00008355,36,ALSLTRSR00008356,38,ALSLTRSR00008357;2299.00;;;<p>Wash with mild detergent. Do not bleach. Dry in shade</p>;;;;;zerotype;;Spring;;No
3081691;AMTF1G002576-Khaki-3081691;Trouser;Draft;Trousers;Allen Solly;Adults-Men;Men;;;;Core;Casual;2018;40,ALSLTRSR00008351,42,ALSLTRSR00008352;2349.00;;;<p>Wash with mild detergent. Do not bleach. Dry in shade</p>;;;;;zerotype;;Spring;;No
3081689;AMTF1G002576-Khaki-3081689;Trouser;Draft;Trousers;Allen Solly;Adults-Men;Men;;;;Core;Casual;2018;30,ALSLTRSR00008346,32,ALSLTRSR00008347,34,ALSLTRSR00008348,36,ALSLTRSR00008349,38,ALSLTRSR00008350;2299.00;;;<p>Wash with mild detergent. Do not bleach. Dry in shade</p>;;;;;zerotype;;Spring;;No
3081684;AMTF1G002531-Green-3081684;TROUSER;Draft;Trousers;Allen Solly;Adults-Men;Men;;;;Core;Casual;2018;28,ALSLTRSR00008327,30,ALSLTRSR00008328,32,ALSLTRSR00008329,34,ALSLTRSR00008330,36,ALSLTRSR00008331,38,ALSLTRSR00008332;1999.00;;;<p>Wash with mild detergent. Do not bleach. Dry in shade</p>;;;;;zerotype;;Spring;;No
3081546;AMSF1G002708-Orange-3081546;Shirt;Draft;Shirts;Allen Solly;Adults-Men;Men;;;;Core;Casual;2018;38,ALSLSHRT00014500,39,ALSLSHRT00014501,40,ALSLSHRT00014502,42,ALSLSHRT00014503,44,ALSLSHRT00014504,46,ALSLSHRT00014505;1999.00;;;<p>Wash with mild detergent. Do not bleach. Dry in shade</p>;;;;;zerotype;;Spring;;No
3081508;AMSF1G002664-Green-3081508;Shirt;Draft;Shirts;Allen Solly;Adults-Men;Men;;;;Core;Casual;2018;38,ALSLSHRT00014312,39,ALSLSHRT00014313,40,ALSLSHRT00014314,42,ALSLSHRT00014315,44,ALSLSHRT00014316,46,ALSLSHRT00014317;1999.00;;;<p>Wash with mild detergent. Do not bleach. Dry in shade</p>;;;;;zerotype;;Spring;;No
2270375;AMTF517G005133-Brown-2270375;Trouser;Active;Trousers;Allen Solly;Adults-Men;Men;Black;;;Fashion;Formal;2017;30,ALSLTRSR00005639,32,ALSLTRSR00005640,36,ALSLTRSR00005641,38,ALSLTRSR00005642,40,ALSLTRSR00005643,28,ALSLTRSR00010505;1799.00;<a href='/black?src=pd' class='seolink'>Black</a> <a href='/solid?src=pd' class='seolink'>solid</a> mid-rise <a href='/regular-trousers?src=pd' class='seolink'>regular trousers</a>, has a button closure, 4 pockets;Amp up your style game with these classic Allen Solly trousers.  You can match this black pair with a lightweight sweater and leather boots when you're going to a work luncheon.;98% cotton and 2% elastane<br />Machine-wash;Custom Regular Fit <br> The model (height 6') is wearing a size 32;;Allen Solly Men Black Custom Regular Fit Solid Regular Trousers;Allen Solly,workwear-styles,eorsdec17-ftod,men-eors17-formal-business-557601,ltod-bbs,mitm-jan-18,corporate-jetsetter,express-delivery-jan18,Vday-ftod,founding18-ltod;zerotype;;Winter;founding18-ltod;No
2270369;AMTF517G005095-Black-2270369;Trouser;Active;Trousers;Allen Solly;Adults-Men;Men;Navy Blue;;;Fashion;Casual;2017;30,ALSLTRSR00005608,32,ALSLTRSR00005609,36,ALSLTRSR00005610,38,ALSLTRSR00005611,40,ALSLTRSR00005612,28,ALSLTRSR00010504;2299.00;<a href='/navy-blue?src=pd' class='seolink'>Navy blue</a> printed mid-rise <a href='/chinos?src=pd' class='seolink'>chinos</a>, has a button closure, <a href='/4?src=pd' class='seolink'>4</a> pockets;Designed by Allen Solly, these top-notch chinos are ready to amp up your style game.  Paired with canvas sneakers and an untucked white shirt, this navy blue pair works well for a casual dinner date or outing with friends.;98% cotton, 2% elastane<br />Machine-wash;Custom Slim Fit <br> The model (height 6') is wearing a size 32;;Allen Solly Men Navy Blue Custom Slim Fit Printed Chinos;Allen Solly,workwear-styles,mensworkwear-eors,eorsdec17-ftod;zerotype;;Winter;eorsdec17-ftod;No
