Style ID;Vendor Article Number;Vendor Article Name;Active Status;Article type;Brand;Age Group;Gender;Base Colour;Colour1;Colour2;Fashion Type;Usage;Year;Size - SKU code pair;MRP;Style Description;Style Note;Materials and Care Description;Size and Fit Description;Size Chart Path;Product Display Name;Tags;Product Type;Classification Brand;Season;Comments;Upload Images
1968384;MC549A-Cream-1968384;MC549A;Draft;Tshirts;Marie Claire;Adults-Women;Women;;;;Fashion;;2017;XS,MRCLTSHT00000135,S,MRCLTSHT00000136,M,MRCLTSHT00000137,L,MRCLTSHT00000138,XL,MRCLTSHT00000139;1499.00;;;;;;;;zerotype;;Summer;;No
1968383;MC549-Navy Blue-1968383;MC549;Draft;Tshirts;Marie Claire;Adults-Women;Women;;;;Fashion;;2017;XS,MRCLTSHT00000130,S,MRCLTSHT00000131,M,MRCLTSHT00000132,L,MRCLTSHT00000133,XL,MRCLTSHT00000134;1499.00;;;;;;;;zerotype;;Summer;;No
1968382;MC545A-Navy Blue-1968382;MC545A;Draft;Tshirts;Marie Claire;Adults-Women;Women;;;;Fashion;;2017;XS,MRCLTSHT00000125,S,MRCLTSHT00000126,M,MRCLTSHT00000127,L,MRCLTSHT00000128,XL,MRCLTSHT00000129;1299.00;;;;;;;;zerotype;;Summer;;No
1968381;MC545-Off White-1968381;MC545;Draft;Tshirts;Marie Claire;Adults-Women;Women;;;;Fashion;;2017;XS,MRCLTSHT00000120,S,MRCLTSHT00000121,M,MRCLTSHT00000122,L,MRCLTSHT00000123,XL,MRCLTSHT00000124;1299.00;;;;;;;;zerotype;;Summer;;No
1968380;MC519A-Yellow-1968380;MC519A;Draft;Tshirts;Marie Claire;Adults-Women;Women;;;;Fashion;;2017;XS,MRCLTSHT00000115,S,MRCLTSHT00000116,M,MRCLTSHT00000117,L,MRCLTSHT00000118,XL,MRCLTSHT00000119;1599.00;;;;;;;;zerotype;;Summer;;No
1968379;MC519-Off White-1968379;MC519;Draft;Tshirts;Marie Claire;Adults-Women;Women;;;;Fashion;;2017;XS,MRCLTSHT00000110,S,MRCLTSHT00000111,M,MRCLTSHT00000112,L,MRCLTSHT00000113,XL,MRCLTSHT00000114;1599.00;;;;;;;;zerotype;;Summer;;No
1968378;MC10257-Black-1968378;MC10257;Draft;Tshirts;Marie Claire;Adults-Women;Women;;;;Fashion;;2017;XS,MRCLTSHT00000105,S,MRCLTSHT00000106,M,MRCLTSHT00000107,L,MRCLTSHT00000108,XL,MRCLTSHT00000109;1499.00;;;;;;;;zerotype;;Summer;;No
1968377;MC59D-Pink-1968377;MC59D;Draft;Dresses;Marie Claire;Adults-Women;Women;;;;Fashion;;2017;XS,MRCLDRSS00000795,S,MRCLDRSS00000796,M,MRCLDRSS00000797,L,MRCLDRSS00000798,XL,MRCLDRSS00000799;2299.00;;;;;;;;zerotype;;Summer;;No
1968376;MC10308-Black-1968376;MC10308;Draft;Dresses;Marie Claire;Adults-Women;Women;;;;Fashion;;2017;XS,MRCLDRSS00000790,S,MRCLDRSS00000791,M,MRCLDRSS00000792,L,MRCLDRSS00000793,XL,MRCLDRSS00000794;2099.00;;;;;;;;zerotype;;Summer;;No
1968375;MC10307-Multi-1968375;MC10307;Draft;Dresses;Marie Claire;Adults-Women;Women;;;;Fashion;;2017;XS,MRCLDRSS00000785,S,MRCLDRSS00000786,M,MRCLDRSS00000787,L,MRCLDRSS00000788,XL,MRCLDRSS00000789;1899.00;;;;;;;;zerotype;;Summer;;No
1968374;MC710A-Blue-1968374;MC710A;Draft;Dresses;Marie Claire;Adults-Women;Women;;;;Fashion;;2017;S,MRCLDRSS00000781,M,MRCLDRSS00000782,L,MRCLDRSS00000783,XL,MRCLDRSS00000784;2099.00;;;;;;;;zerotype;;Summer;;No
1968373;MC710-Pink-1968373;MC710;Draft;Dresses;Marie Claire;Adults-Women;Women;;;;Fashion;;2017;S,MRCLDRSS00000777,M,MRCLDRSS00000778,L,MRCLDRSS00000779,XL,MRCLDRSS00000780;2099.00;;;;;;;;zerotype;;Summer;;No
1968372;MC596A-Multi-1968372;MC596A;Draft;Dresses;Marie Claire;Adults-Women;Women;;;;Fashion;;2017;S,MRCLDRSS00000773,M,MRCLDRSS00000774,L,MRCLDRSS00000775,XL,MRCLDRSS00000776;2599.00;;;;;;;;zerotype;;Summer;;No
1968371;MC596-Multi-1968371;MC596;Draft;Dresses;Marie Claire;Adults-Women;Women;;;;Fashion;;2017;S,MRCLDRSS00000769,M,MRCLDRSS00000770,L,MRCLDRSS00000771,XL,MRCLDRSS00000772;1899.00;;;;;;;;zerotype;;Summer;;No
1968370;MC594A-Navy Blue-1968370;MC594A;Draft;Dresses;Marie Claire;Adults-Women;Women;;;;Fashion;;2017;S,MRCLDRSS00000765,M,MRCLDRSS00000766,L,MRCLDRSS00000767,XL,MRCLDRSS00000768;3099.00;;;;;;;;zerotype;;Summer;;No
1968361;MC594-Blue-1968361;MC594;Draft;Dresses;Marie Claire;Adults-Women;Women;;;;Fashion;;2017;S,MRCLDRSS00000760,M,MRCLDRSS00000761,L,MRCLDRSS00000762,XL,MRCLDRSS00000763;3099.00;;;;;;;;zerotype;;Summer;;No
1968360;MC584A-Blue-1968360;MC584A;Draft;Dresses;Marie Claire;Adults-Women;Women;;;;Fashion;;2017;S,MRCLDRSS00000756,M,MRCLDRSS00000757,L,MRCLDRSS00000758,XL,MRCLDRSS00000759;2199.00;;;;;;;;zerotype;;Summer;;No
1968359;MC584-Navy Blue-1968359;MC584;Draft;Dresses;Marie Claire;Adults-Women;Women;;;;Fashion;;2017;S,MRCLDRSS00000752,M,MRCLDRSS00000753,L,MRCLDRSS00000754,XL,MRCLDRSS00000755;2199.00;;;;;;;;zerotype;;Summer;;No
1968358;MC483A-WHITE-1968358;MC483A;Draft;Skirts;Marie Claire;Adults-Women;Women;;;;Fashion;;2017;XS,MRCLSKRT00000056,S,MRCLSKRT00000057,M,MRCLSKRT00000058,L,MRCLSKRT00000059,XL,MRCLSKRT00000060;1499.00;;;;;;;;zerotype;;Summer;;No
1968357;MC483-BLACK-1968357;MC483;Draft;Skirts;Marie Claire;Adults-Women;Women;;;;Fashion;;2017;XS,MRCLSKRT00000051,S,MRCLSKRT00000052,M,MRCLSKRT00000053,L,MRCLSKRT00000054,XL,MRCLSKRT00000055;1499.00;;;;;;;;zerotype;;Summer;;No
1968356;MC610A-NAVYBLUE-1968356;MC610A;Draft;Jumpsuit;Marie Claire;Adults-Women;Women;;;;Fashion;;2017;S,MRCLJMST00000049,M,MRCLJMST00000050,L,MRCLJMST00000051,XL,MRCLJMST00000052;2699.00;;;;;;;;zerotype;;Summer;;No
1968354;MC610-MULTI-1968354;MC610;Draft;Jumpsuit;Marie Claire;Adults-Women;Women;;;;Fashion;;2017;S,MRCLJMST00000045,M,MRCLJMST00000046,L,MRCLJMST00000047,XL,MRCLJMST00000048;2999.00;;;;;;;;zerotype;;Summer;;No
1968353;MC608-BLACK-1968353;MC608;Draft;Jumpsuit;Marie Claire;Adults-Women;Women;;;;Fashion;;2017;S,MRCLJMST00000041,M,MRCLJMST00000042,L,MRCLJMST00000043,XL,MRCLJMST00000044;2399.00;;;;;;;;zerotype;;Summer;;No
1968351;MC642B-Blue-1968351;MC642B;Draft;Trousers;Marie Claire;Adults-Women;Women;;;;Fashion;;2017;XS,MRCLTRSR00000114,S,MRCLTRSR00000115,M,MRCLTRSR00000116,L,MRCLTRSR00000117,XL,MRCLTRSR00000118;1699.00;;;;;;;;zerotype;;Summer;;No
1968350;MC688A-Maroon-1968350;MC688A;Draft;Trousers;Marie Claire;Adults-Women;Women;;;;Fashion;;2017;XS,MRCLTRSR00000109,S,MRCLTRSR00000110,M,MRCLTRSR00000111,L,MRCLTRSR00000112,XL,MRCLTRSR00000113;1399.00;;;;;;;;zerotype;;Summer;;No
1968349;MC688-Blue-1968349;MC688;Draft;Trousers;Marie Claire;Adults-Women;Women;;;;Fashion;;2017;XS,MRCLTRSR00000104,S,MRCLTRSR00000105,M,MRCLTRSR00000106,L,MRCLTRSR00000107,XL,MRCLTRSR00000108;1399.00;;;;;;;;zerotype;;Summer;;No
1968348;MC686A-Black-1968348;MC686A;Draft;Trousers;Marie Claire;Adults-Women;Women;;;;Fashion;;2017;S,MRCLTRSR00000100,M,MRCLTRSR00000101,L,MRCLTRSR00000102,XL,MRCLTRSR00000103;1599.00;;;;;;;;zerotype;;Summer;;No
1968347;MC686-Orange-1968347;MC686;Draft;Trousers;Marie Claire;Adults-Women;Women;;;;Fashion;;2017;S,MRCLTRSR00000096,M,MRCLTRSR00000097,L,MRCLTRSR00000098,XL,MRCLTRSR00000099;1599.00;;;;;;;;zerotype;;Summer;;No
1968346;MC563-Maroon-1968346;MC563;Draft;Shirts;Marie Claire;Adults-Women;Women;;;;Fashion;;2017;XS,MRCLSHRT00000424,S,MRCLSHRT00000425,M,MRCLSHRT00000426,L,MRCLSHRT00000427,XL,MRCLSHRT00000428;1899.00;;;;;;;;zerotype;;Summer;;No
1968345;MC553A-White-1968345;MC553A;Draft;Shirts;Marie Claire;Adults-Women;Women;;;;Fashion;;2017;XS,MRCLSHRT00000419,S,MRCLSHRT00000420,M,MRCLSHRT00000421,L,MRCLSHRT00000422,XL,MRCLSHRT00000423;1899.00;;;;;;;;zerotype;;Summer;;No
1968344;MC553-Navy Blue-1968344;MC553;Draft;Shirts;Marie Claire;Adults-Women;Women;;;;Fashion;;2017;XS,MRCLSHRT00000414,S,MRCLSHRT00000415,M,MRCLSHRT00000416,L,MRCLSHRT00000417,XL,MRCLSHRT00000418;1899.00;;;;;;;;zerotype;;Summer;;No
1968343;MC10301C-Blue-1968343;MC10301C;Draft;Tops;Marie Claire;Adults-Women;Women;;;;Fashion;;2017;S,MRCLTOPS00002032,M,MRCLTOPS00002033,L,MRCLTOPS00002034,XL,MRCLTOPS00002035;1899.00;;;;;;;;zerotype;;Summer;;No
1968342;MC10311-Blue-1968342;MC10311;Draft;Tops;Marie Claire;Adults-Women;Women;;;;Fashion;;2017;XS,MRCLTOPS00002027,S,MRCLTOPS00002028,M,MRCLTOPS00002029,L,MRCLTOPS00002030,XL,MRCLTOPS00002031;1499.00;;;;;;;;zerotype;;Summer;;No
1968341;MC10310-Yellow-1968341;MC10310;Draft;Tops;Marie Claire;Adults-Women;Women;;;;Fashion;;2017;XS,MRCLTOPS00002022,S,MRCLTOPS00002023,M,MRCLTOPS00002024,L,MRCLTOPS00002025,XL,MRCLTOPS00002026;1499.00;;;;;;;;zerotype;;Summer;;No
1968340;MC551B-Maroon-1968340;MC551B;Draft;Tops;Marie Claire;Adults-Women;Women;;;;Fashion;;2017;XS,MRCLTOPS00002017,S,MRCLTOPS00002018,M,MRCLTOPS00002019,L,MRCLTOPS00002020,XL,MRCLTOPS00002021;1899.00;;;;;;;;zerotype;;Summer;;No
1968339;MC543B-Red-1968339;MC543B;Draft;Tops;Marie Claire;Adults-Women;Women;;;;Fashion;;2017;XS,MRCLTOPS00002012,S,MRCLTOPS00002013,M,MRCLTOPS00002014,L,MRCLTOPS00002015,XL,MRCLTOPS00002016;2099.00;;;;;;;;zerotype;;Summer;;No
1968338;MC10309-Purple-1968338;MC10309;Draft;Tops;Marie Claire;Adults-Women;Women;;;;Fashion;;2017;XS,MRCLTOPS00002007,S,MRCLTOPS00002008,M,MRCLTOPS00002009,L,MRCLTOPS00002010,XL,MRCLTOPS00002011;1499.00;;;;;;;;zerotype;;Summer;;No
1968337;MC10306-Blue-1968337;MC10306;Draft;Tops;Marie Claire;Adults-Women;Women;;;;Fashion;;2017;XS,MRCLTOPS00002002,S,MRCLTOPS00002003,M,MRCLTOPS00002004,L,MRCLTOPS00002005,XL,MRCLTOPS00002006;1599.00;;;;;;;;zerotype;;Summer;;No
1968336;MC701A-Blue-1968336;MC701A;Draft;Tops;Marie Claire;Adults-Women;Women;;;;Fashion;;2017;XS,MRCLTOPS00001997,S,MRCLTOPS00001998,M,MRCLTOPS00001999,L,MRCLTOPS00002000,XL,MRCLTOPS00002001;1599.00;;;;;;;;zerotype;;Summer;;No
1968335;MC701-Pink-1968335;MC701;Draft;Tops;Marie Claire;Adults-Women;Women;;;;Fashion;;2017;XS,MRCLTOPS00001992,S,MRCLTOPS00001993,M,MRCLTOPS00001994,L,MRCLTOPS00001995,XL,MRCLTOPS00001996;1599.00;;;;;;;;zerotype;;Summer;;No
1968334;MC696A-Coral-1968334;MC696A;Draft;Tops;Marie Claire;Adults-Women;Women;;;;Fashion;;2017;XS,MRCLTOPS00001987,S,MRCLTOPS00001988,M,MRCLTOPS00001989,L,MRCLTOPS00001990,XL,MRCLTOPS00001991;1599.00;;;;;;;;zerotype;;Summer;;No
1968333;MC696-Purple-1968333;MC696;Draft;Tops;Marie Claire;Adults-Women;Women;;;;Fashion;;2017;XS,MRCLTOPS00001982,S,MRCLTOPS00001983,M,MRCLTOPS00001984,L,MRCLTOPS00001985,XL,MRCLTOPS00001986;1599.00;;;;;;;;zerotype;;Summer;;No
1968332;MC669A-Beige-1968332;MC669A;Draft;Tops;Marie Claire;Adults-Women;Women;;;;Fashion;;2017;S,MRCLTOPS00001978,M,MRCLTOPS00001979,L,MRCLTOPS00001980,XL,MRCLTOPS00001981;1699.00;;;;;;;;zerotype;;Summer;;No
1968331;MC669-Pink-1968331;MC669;Draft;Tops;Marie Claire;Adults-Women;Women;;;;Fashion;;2017;S,MRCLTOPS00001974,M,MRCLTOPS00001975,L,MRCLTOPS00001976,XL,MRCLTOPS00001977;1699.00;;;;;;;;zerotype;;Summer;;No
1968330;MC629A-Navy Blue-1968330;MC629A;Draft;Tops;Marie Claire;Adults-Women;Women;;;;Fashion;;2017;XS,MRCLTOPS00001969,S,MRCLTOPS00001970,M,MRCLTOPS00001971,L,MRCLTOPS00001972,XL,MRCLTOPS00001973;1799.00;;;;;;;;zerotype;;Summer;;No
1968329;MC629-Maroon-1968329;MC629;Draft;Tops;Marie Claire;Adults-Women;Women;;;;Fashion;;2017;XS,MRCLTOPS00001964,S,MRCLTOPS00001965,M,MRCLTOPS00001966,L,MRCLTOPS00001967,XL,MRCLTOPS00001968;1799.00;;;;;;;;zerotype;;Summer;;No
1968328;MC581A-Navy Blue-1968328;MC581A;Draft;Tops;Marie Claire;Adults-Women;Women;;;;Fashion;;2017;S,MRCLTOPS00001960,M,MRCLTOPS00001961,L,MRCLTOPS00001962,XL,MRCLTOPS00001963;1699.00;;;;;;;;zerotype;;Summer;;No
1968327;MC581-Blue-1968327;MC581;Draft;Tops;Marie Claire;Adults-Women;Women;;;;Fashion;;2017;S,MRCLTOPS00001956,M,MRCLTOPS00001957,L,MRCLTOPS00001958,XL,MRCLTOPS00001959;1699.00;;;;;;;;zerotype;;Summer;;No
1968326;MC551C-Off White-1968326;MC551C;Draft;Tops;Marie Claire;Adults-Women;Women;;;;Fashion;;2017;S,MRCLTOPS00001952,M,MRCLTOPS00001953,L,MRCLTOPS00001954,XL,MRCLTOPS00001955;1899.00;;;;;;;;zerotype;;Summer;;No
1968325;MC512D-Maroon-1968325;MC512D;Draft;Tops;Marie Claire;Adults-Women;Women;;;;Fashion;;2017;S,MRCLTOPS00001948,M,MRCLTOPS00001949,L,MRCLTOPS00001950,XL,MRCLTOPS00001951;1599.00;;;;;;;;zerotype;;Summer;;No
1968324;MC512C-Blue-1968324;MC512C;Draft;Tops;Marie Claire;Adults-Women;Women;;;;Fashion;;2017;S,MRCLTOPS00001944,M,MRCLTOPS00001945,L,MRCLTOPS00001946,XL,MRCLTOPS00001947;1599.00;;;;;;;;zerotype;;Summer;;No
