Style ID;Vendor Article Number;Vendor Article Name;Active Status;Article type;Brand;Age Group;Gender;Base Colour;Colour1;Colour2;Fashion Type;Usage;Year;Size - SKU code pair;MRP;Style Description;Style Note;Materials and Care Description;Size and Fit Description;Size Chart Path;Product Display Name;Tags;Product Type;Classification Brand;Season;Comments;Upload Images
2684688;VSKC318S000307-grey-2684688;T Shirt;Draft;Tshirts;Van Heusen Sport;Adults-Men;Men;Grey;;;Fashion;;2018;M,VHSPTSHT00001356,L,VHSPTSHT00001357,XL,VHSPTSHT00001358,XXL,VHSPTSHT00001359;999.00;;;<p>100%Cotton</p>;;;;;zerotype;;Spring;;No
2684659;VDSF318E005308-black-2684659;Shirt;Draft;Shirts;V Dot;Adults-Men;Men;Black;;;Fashion;;2018;38,VDOTSHRT00004573,39,VDOTSHRT00004574,40,VDOTSHRT00004575,42,VDOTSHRT00004576;1799.00;;;<p>100%Cotton</p>;;;;;zerotype;;Spring;;No
2594404;8618BEIGE41-BEIGE-2594404;8618BEIGE41;Draft;Heels;Inc 5;Adults-Women;Women;Beige;;;Core;;2018;EURO35,INC5Heels00010291,EURO36,INC5Heels00010292,EURO37,INC5Heels00010293,EURO38,INC5Heels00010294,EURO39,INC5Heels00010295,EURO40,INC5Heels00010296,EURO41,INC5Heels00010297;1590.00;;;;;;;ftw-fest-mar14;zerotype;;Summer;ftw-fest-mar14;No
2594403;8614CHIKOO41-CHIKOO-2594403;8614CHIKOO41;Draft;Heels;Inc 5;Adults-Women;Women;Brown;;;Core;;2018;EURO35,INC5Heels00010284,EURO36,INC5Heels00010285,EURO37,INC5Heels00010286,EURO38,INC5Heels00010287,EURO39,INC5Heels00010288,EURO40,INC5Heels00010289,EURO41,INC5Heels00010290;1690.00;;;;;;;ftw-fest-mar14;zerotype;;Summer;ftw-fest-mar14;No
2594402;5825BROWN41-BROWN-2594402;5825BROWN41;Draft;Heels;Inc 5;Adults-Women;Women;Brown;;;Core;;2018;EURO35,INC5Heels00010277,EURO36,INC5Heels00010278,EURO37,INC5Heels00010279,EURO38,INC5Heels00010280,EURO39,INC5Heels00010281,EURO40,INC5Heels00010282,EURO41,INC5Heels00010283;2290.00;;;;;;;ftw-fest-mar14;zerotype;;Summer;ftw-fest-mar14;No
2594401;28153GUN METAL41-Gun Metal-2594401;28153GUN METAL41;Draft;Heels;Inc 5;Adults-Women;Women;Grey;;;Core;;2018;EURO35,INC5Heels00010270,EURO36,INC5Heels00010271,EURO37,INC5Heels00010272,EURO38,INC5Heels00010273,EURO39,INC5Heels00010274,EURO40,INC5Heels00010275,EURO41,INC5Heels00010276;1690.00;;;;;;;ftw-fest-mar14;zerotype;;Summer;ftw-fest-mar14;No
2594400;2172ANT GOLD41-ANT GOLD-2594400;2172ANT GOLD41;Draft;Heels;Inc 5;Adults-Women;Women;Gold;;;Core;;2018;EURO35,INC5Heels00010263,EURO36,INC5Heels00010264,EURO37,INC5Heels00010265,EURO38,INC5Heels00010266,EURO39,INC5Heels00010267,EURO40,INC5Heels00010268,EURO41,INC5Heels00010269;2190.00;;;;;;;ftw-fest-mar14;zerotype;;Summer;ftw-fest-mar14;No
2594399;14366PEACH41-PEACH-2594399;14366PEACH41;Draft;Heels;Inc 5;Adults-Women;Women;Peach;;;Core;;2018;EURO35,INC5Heels00010256,EURO36,INC5Heels00010257,EURO37,INC5Heels00010258,EURO38,INC5Heels00010259,EURO39,INC5Heels00010260,EURO40,INC5Heels00010261,EURO41,INC5Heels00010262;1590.00;;;;;;;ftw-fest-mar14;zerotype;;Summer;ftw-fest-mar14;No
2594398;14310BLACK41-BLACK-2594398;14310BLACK41;Draft;Heels;Inc 5;Adults-Women;Women;Black;;;Core;;2018;EURO35,INC5Heels00010249,EURO36,INC5Heels00010250,EURO37,INC5Heels00010251,EURO38,INC5Heels00010252,EURO39,INC5Heels00010253,EURO40,INC5Heels00010254,EURO41,INC5Heels00010255;1690.00;;;;;;;ftw-fest-mar14;zerotype;;Summer;ftw-fest-mar14;No
2594397;14310BEIGE41-BEIGE-2594397;14310BEIGE41;Draft;Heels;Inc 5;Adults-Women;Women;Beige;;;Core;;2018;EURO35,INC5Heels00010242,EURO36,INC5Heels00010243,EURO37,INC5Heels00010244,EURO38,INC5Heels00010245,EURO39,INC5Heels00010246,EURO40,INC5Heels00010247,EURO41,INC5Heels00010248;1690.00;;;;;;;ftw-fest-mar14;zerotype;;Summer;ftw-fest-mar14;No
2594396;14286NUDE41-NUDE-2594396;14286NUDE41;Draft;Heels;Inc 5;Adults-Women;Women;Nude;;;Core;;2018;EURO35,INC5Heels00010235,EURO36,INC5Heels00010236,EURO37,INC5Heels00010237,EURO38,INC5Heels00010238,EURO39,INC5Heels00010239,EURO40,INC5Heels00010240,EURO41,INC5Heels00010241;1890.00;;;;;;;ftw-fest-mar14;zerotype;;Summer;ftw-fest-mar14;No
2594395;14286BLACK41-BLACK-2594395;14286BLACK41;Draft;Heels;Inc 5;Adults-Women;Women;Black;;;Core;;2018;EURO35,INC5Heels00010228,EURO36,INC5Heels00010229,EURO37,INC5Heels00010230,EURO38,INC5Heels00010231,EURO39,INC5Heels00010232,EURO40,INC5Heels00010233,EURO41,INC5Heels00010234;1890.00;;;;;;;ftw-fest-mar14;zerotype;;Summer;ftw-fest-mar14;No
2594394;30300GOLD41-Gold-2594394;30300GOLD41;Draft;Flats;Inc 5;Adults-Women;Women;Black;;;Core;;2018;EURO35,INC5Flats00008448,EURO36,INC5Flats00008449,EURO37,INC5Flats00008450,EURO38,INC5Flats00008451,EURO39,INC5Flats00008452,EURO40,INC5Flats00008453,EURO41,INC5Flats00008454;1590.00;;;;;;;ftw-fest-mar14;zerotype;;Summer;ftw-fest-mar14;No
2580901;91261315567-Tan Leather-2580901;Benero Edge Tan Leather;Draft;Formal Shoes;Clarks;Adults-Men;Men;Tan;;;Core;;2018;UK7,CLARFOSH00005388,UK8,CLARFOSH00005389,UK9,CLARFOSH00005390,UK10,CLARFOSH00005391,UK11,CLARFOSH00005392;4999.00;;;<p>Clean your shoes with leather cleaner</p>;;;;mens-ftw-fest;zerotype;;Summer;mens-ftw-fest;No
2580890;91261315277-Black Leather-2580890;Benero Edge Black Leather;Draft;Formal Shoes;Clarks;Adults-Men;Men;Black;;;Core;;2018;UK7,CLARFOSH00005363,UK8,CLARFOSH00005364,UK9,CLARFOSH00005365,UK10,CLARFOSH00005366,UK11,CLARFOSH00005367;4999.00;;;<p>Clean your shoes with leather cleaner</p>;;;;mens-ftw-fest;zerotype;;Summer;mens-ftw-fest;No
2532525;BGMJ-314-Indigo-2532525;Men Denim Bottom;Draft;Jeans;HERE&NOW;Adults-Men;Men;NA;;;Fashion;;2018;28,HENWJENS00008070,30,HENWJENS00008071,32,HENWJENS00008072,34,HENWJENS00008073,36,HENWJENS00008074;2099.00;;;<p>70%Cotton+30%Elastrell-P</p>;;;;;zerotype;;Summer;;No
2520711;P401GR1IN-Green-2520711;Sunglasses;Draft;Sunglasses;Fastrack;Adults-Men;Men;;;;Fashion;;2018;57,FSTKSGLS00099548;2499.00;;;;;http://assets.myntassets.com/assets/images/sizechart/2016/4/25/11461584543399-Sunglasses_and_frames_size_chart.jpg;;;zerotype;;Spring;;No
2520710;P401BR2IN-Brown-2520710;Sunglasses;Draft;Sunglasses;Fastrack;Adults-Men;Men;;;;Fashion;;2018;57,FSTKSGLS00099547;2499.00;;;;;http://assets.myntassets.com/assets/images/sizechart/2016/4/25/11461584543399-Sunglasses_and_frames_size_chart.jpg;;;zerotype;;Spring;;No
2520709;P402YL1IN-Yellow-2520709;Sunglasses;Draft;Sunglasses;Fastrack;Adults-Men;Men;;;;Fashion;;2018;73,FSTKSGLS00099546;2499.00;;;;;http://assets.myntassets.com/assets/images/sizechart/2016/4/25/11461584543399-Sunglasses_and_frames_size_chart.jpg;;;zerotype;;Spring;;No
2518657;XPS208-8904052417170-2518657;COSMIC POUCH-Pink;Draft;Free Gifts;Colorbar;Adults-Women;Women;Nude;;;Core;;2018;Onesize,CLBRFRGF00000013;0.01;;;;;;;;zerotype;;Spring;;No
2507729;TH 824 C1 58 S with case-S Black-2507729;TH 824 C1 58 S with case;Draft;Sunglasses;Tommy Hilfiger;Adults-Men;Men;;;;Fashion;;2018;58,TOMHSGLS00001035;5040.00;;;;;;;;zerotype;;Spring;;No
2507716;FC 7428 C4 S with case-S Black-2507716;FC 7428 C4 S with case;Draft;Sunglasses;French Connection;Adults-Women;Women;;;;Fashion;;2018;58,FCONSGLS00000608;3990.00;;;;;;;;zerotype;;Spring;;No
2507715;FC 7428 C3 S with case-Pink-2507715;FC 7428 C3 S with case;Draft;Sunglasses;French Connection;Adults-Women;Women;;;;Fashion;;2018;58,FCONSGLS00000607;3990.00;;;;;;;;zerotype;;Spring;;No
2507714;FC 7425 C2 S-Silver-2507714;FC 7425 C2 S;Draft;Sunglasses;French Connection;Adults-Women;Women;;;;Fashion;;2018;64,FCONSGLS00000606;3960.00;;;;;;;;zerotype;;Spring;;No
2507713;FC 7425 C1 S-Gold-2507713;FC 7425 C1 S;Draft;Sunglasses;French Connection;Adults-Women;Women;;;;Fashion;;2018;64,FCONSGLS00000605;3960.00;;;;;;;;zerotype;;Spring;;No
2507712;FC 7422 C3 S with case-Silver-2507712;FC 7422 C3 S with case;Draft;Sunglasses;French Connection;Adults-Women;Women;;;;Fashion;;2018;58,FCONSGLS00000604;3990.00;;;;;;;;zerotype;;Spring;;No
2507711;FC 7422 C2 S with case-Rose Gold-2507711;FC 7422 C2 S with case;Draft;Sunglasses;French Connection;Adults-Women;Women;;;;Fashion;;2018;58,FCONSGLS00000603;3990.00;;;;;;;;zerotype;;Spring;;No
2507710;FC 7422 C1 S with case-Gold-2507710;FC 7422 C1 S with case;Draft;Sunglasses;French Connection;Adults-Women;Women;;;;Fashion;;2018;58,FCONSGLS00000602;3990.00;;;;;;;;zerotype;;Spring;;No
2507709;FC 7421 C3 S with case-Silver-2507709;FC 7421 C3 S with case;Draft;Sunglasses;French Connection;Adults-Unisex;Unisex;;;;Fashion;;2018;52,FCONSGLS00000601;4490.00;;;;;;;;zerotype;;Spring;;No
2507708;FC 7421 C2 S with case-Gold-2507708;FC 7421 C2 S with case;Draft;Sunglasses;French Connection;Adults-Unisex;Unisex;;;;Fashion;;2018;52,FCONSGLS00000600;4490.00;;;;;;;;zerotype;;Spring;;No
2507707;FC 7421 C1 S with case-Gold-2507707;FC 7421 C1 S with case;Draft;Sunglasses;French Connection;Adults-Unisex;Unisex;;;;Fashion;;2018;52,FCONSGLS00000599;4490.00;;;;;;;;zerotype;;Spring;;No
2507706;FC 7420 C3 S with case-Silver-2507706;FC 7420 C3 S with case;Draft;Sunglasses;French Connection;Adults-Unisex;Unisex;;;;Fashion;;2018;51,FCONSGLS00000598;3990.00;;;;;;;;zerotype;;Spring;;No
2507705;FC 7420 C2 S with case-Rose Gold-2507705;FC 7420 C2 S with case;Draft;Sunglasses;French Connection;Adults-Unisex;Unisex;;;;Fashion;;2018;51,FCONSGLS00000597;3990.00;;;;;;;;zerotype;;Spring;;No
2507704;FC 7420 C1 S with case-Gold-2507704;FC 7420 C1 S with case;Draft;Sunglasses;French Connection;Adults-Unisex;Unisex;;;;Fashion;;2018;51,FCONSGLS00000596;3990.00;;;;;;;;zerotype;;Spring;;No
2507703;FC 7415 C3 S with case-Rose Gold-2507703;FC 7415 C3 S with case;Draft;Sunglasses;French Connection;Adults-Unisex;Unisex;;;;Fashion;;2018;60,FCONSGLS00000595;4490.00;;;;;;;;zerotype;;Spring;;No
2507702;FC 7415 C2 S with case-Silver-2507702;FC 7415 C2 S with case;Draft;Sunglasses;French Connection;Adults-Unisex;Unisex;;;;Fashion;;2018;60,FCONSGLS00000594;4490.00;;;;;;;;zerotype;;Spring;;No
2507701;FC 7415 C1 S with case-Gold-2507701;FC 7415 C1 S with case;Draft;Sunglasses;French Connection;Adults-Unisex;Unisex;;;;Fashion;;2018;60,FCONSGLS00000593;4490.00;;;;;;;;zerotype;;Spring;;No
2507700;FC 7430 C4 S with case-Silver-2507700;FC 7430 C4 S with case;Draft;Sunglasses;French Connection;Adults-Men;Men;;;;Fashion;;2018;54,FCONSGLS00000592;4490.00;;;;;;;;zerotype;;Spring;;No
2507699;FC 7430 C3 S with case-Gun-2507699;FC 7430 C3 S with case;Draft;Sunglasses;French Connection;Adults-Men;Men;;;;Fashion;;2018;54,FCONSGLS00000591;4490.00;;;;;;;;zerotype;;Spring;;No
2507698;FC 7430 C2 S with case-Gold-2507698;FC 7430 C2 S with case;Draft;Sunglasses;French Connection;Adults-Men;Men;;;;Fashion;;2018;54,FCONSGLS00000590;4490.00;;;;;;;;zerotype;;Spring;;No
2507697;FC 7430 C1 S with case-Gold-2507697;FC 7430 C1 S with case;Draft;Sunglasses;French Connection;Adults-Men;Men;;;;Fashion;;2018;54,FCONSGLS00000589;4490.00;;;;;;;;zerotype;;Spring;;No
2507696;FC 7429 C4 S with case-Gun-2507696;FC 7429 C4 S with case;Draft;Sunglasses;French Connection;Adults-Men;Men;;;;Fashion;;2018;64,FCONSGLS00000588;4490.00;;;;;;;;zerotype;;Spring;;No
2507695;FC 7429 C3 S with case-Gold-2507695;FC 7429 C3 S with case;Draft;Sunglasses;French Connection;Adults-Men;Men;;;;Fashion;;2018;64,FCONSGLS00000587;4490.00;;;;;;;;zerotype;;Spring;;No
2507694;FC 7429 C2 S with case-Gold-2507694;FC 7429 C2 S with case;Draft;Sunglasses;French Connection;Adults-Men;Men;;;;Fashion;;2018;64,FCONSGLS00000586;4490.00;;;;;;;;zerotype;;Spring;;No
2507693;FC 7429 C1 S with case-Gold-2507693;FC 7429 C1 S with case;Draft;Sunglasses;French Connection;Adults-Men;Men;;;;Fashion;;2018;64,FCONSGLS00000585;4490.00;;;;;;;;zerotype;;Spring;;No
2507692;FC 7427 C4 S-Matt Blue-2507692;FC 7427 C4 S;Draft;Sunglasses;French Connection;Adults-Men;Men;;;;Fashion;;2018;56,FCONSGLS00000584;4080.00;;;;;;;;zerotype;;Spring;;No
2507691;FC 7427 C3 S-Matt Demi-2507691;FC 7427 C3 S;Draft;Sunglasses;French Connection;Adults-Men;Men;;;;Fashion;;2018;56,FCONSGLS00000583;4080.00;;;;;;;;zerotype;;Spring;;No
2507690;FC 7427 C2 S-S Black-2507690;FC 7427 C2 S;Draft;Sunglasses;French Connection;Adults-Men;Men;;;;Fashion;;2018;56,FCONSGLS00000582;4080.00;;;;;;;;zerotype;;Spring;;No
2507689;FC 7427 C1 S-Matt Black-2507689;FC 7427 C1 S;Draft;Sunglasses;French Connection;Adults-Men;Men;;;;Fashion;;2018;56,FCONSGLS00000581;4080.00;;;;;;;;zerotype;;Spring;;No
2507688;FC 7423 C2 S-Demi Gold-2507688;FC 7423 C2 S;Draft;Sunglasses;French Connection;Adults-Men;Men;;;;Fashion;;2018;54,FCONSGLS00000580;4080.00;;;;;;;;zerotype;;Spring;;No
2507687;FC 7423 C1 S-Gold Black-2507687;FC 7423 C1 S;Draft;Sunglasses;French Connection;Adults-Men;Men;;;;Fashion;;2018;54,FCONSGLS00000579;4080.00;;;;;;;;zerotype;;Spring;;No
2507686;FC 7419 C3 S with case-Gun-2507686;FC 7419 C3 S with case;Draft;Sunglasses;French Connection;Adults-Men;Men;;;;Fashion;;2018;62,FCONSGLS00000578;4490.00;;;;;;;;zerotype;;Spring;;No
2507685;FC 7419 C2 S with case-Silver-2507685;FC 7419 C2 S with case;Draft;Sunglasses;French Connection;Adults-Men;Men;;;;Fashion;;2018;62,FCONSGLS00000577;4490.00;;;;;;;;zerotype;;Spring;;No
2507684;FC 7419 C1 S with case-Gold-2507684;FC 7419 C1 S with case;Draft;Sunglasses;French Connection;Adults-Men;Men;;;;Fashion;;2018;62,FCONSGLS00000576;4490.00;;;;;;;;zerotype;;Spring;;No
2507683;FC 7418 C3 S with case-Gun-2507683;FC 7418 C3 S with case;Draft;Sunglasses;French Connection;Adults-Men;Men;;;;Fashion;;2018;51,FCONSGLS00000575;4490.00;;;;;;;;zerotype;;Spring;;No
2507682;FC 7418 C2 S with case-Gold-2507682;FC 7418 C2 S with case;Draft;Sunglasses;French Connection;Adults-Men;Men;;;;Fashion;;2018;51,FCONSGLS00000574;4490.00;;;;;;;;zerotype;;Spring;;No
2507681;FC 7418 C1 S with case-Gold-2507681;FC 7418 C1 S with case;Draft;Sunglasses;French Connection;Adults-Men;Men;;;;Fashion;;2018;51,FCONSGLS00000573;4490.00;;;;;;;;zerotype;;Spring;;No
2507680;FC 7417 C4 S with case-Blue-2507680;FC 7417 C4 S with case;Draft;Sunglasses;French Connection;Adults-Men;Men;;;;Fashion;;2018;59,FCONSGLS00000572;4490.00;;;;;;;;zerotype;;Spring;;No
2507679;FC 7417 C3 S with case-Silver-2507679;FC 7417 C3 S with case;Draft;Sunglasses;French Connection;Adults-Men;Men;;;;Fashion;;2018;59,FCONSGLS00000571;4490.00;;;;;;;;zerotype;;Spring;;No
2507678;FC 7417 C2 S with case-Gold-2507678;FC 7417 C2 S with case;Draft;Sunglasses;French Connection;Adults-Men;Men;;;;Fashion;;2018;59,FCONSGLS00000570;4490.00;;;;;;;;zerotype;;Spring;;No
2507677;FC 7417 C1 S with case-Gold-2507677;FC 7417 C1 S with case;Draft;Sunglasses;French Connection;Adults-Men;Men;;;;Fashion;;2018;59,FCONSGLS00000569;4490.00;;;;;;;;zerotype;;Spring;;No
2507676;FC 7416 C3 S with case-Silver-2507676;FC 7416 C3 S with case;Draft;Sunglasses;French Connection;Adults-Men;Men;;;;Fashion;;2018;61,FCONSGLS00000568;3990.00;;;;;;;;zerotype;;Spring;;No
2507675;FC 7416 C2 S with case-Gold-2507675;FC 7416 C2 S with case;Draft;Sunglasses;French Connection;Adults-Men;Men;;;;Fashion;;2018;61,FCONSGLS00000567;3990.00;;;;;;;;zerotype;;Spring;;No
2507674;FC 7416 C1 S with case-Gold-2507674;FC 7416 C1 S with case;Draft;Sunglasses;French Connection;Adults-Men;Men;;;;Fashion;;2018;61,FCONSGLS00000566;3990.00;;;;;;;;zerotype;;Spring;;No
2507673;FC 7412 C3 S-S Black-2507673;FC 7412 C3 S;Draft;Sunglasses;French Connection;Adults-Men;Men;;;;Fashion;;2018;56,FCONSGLS00000565;4490.00;;;;;;;;zerotype;;Spring;;No
2507672;FC 7412 C2 S-Matt Blue-2507672;FC 7412 C2 S;Draft;Sunglasses;French Connection;Adults-Men;Men;;;;Fashion;;2018;56,FCONSGLS00000564;4490.00;;;;;;;;zerotype;;Spring;;No
2507671;FC 7412 C1 S-Matt Black-2507671;FC 7412 C1 S;Draft;Sunglasses;French Connection;Adults-Men;Men;;;;Fashion;;2018;56,FCONSGLS00000563;4490.00;;;;;;;;zerotype;;Spring;;No
2507670;FC 425 C3 S with case-Silver-2507670;FC 425 C3 S with case;Draft;Sunglasses;French Connection;Adults-Men;Men;;;;Fashion;;2018;60,FCONSGLS00000562;4790.00;;;;;;;;zerotype;;Spring;;No
2507669;FC 425 C2 S with case-Gun-2507669;FC 425 C2 S with case;Draft;Sunglasses;French Connection;Adults-Men;Men;;;;Fashion;;2018;60,FCONSGLS00000561;4790.00;;;;;;;;zerotype;;Spring;;No
2507668;FC 425 C1 S with case-Gold-2507668;FC 425 C1 S with case;Draft;Sunglasses;French Connection;Adults-Men;Men;;;;Fashion;;2018;60,FCONSGLS00000560;4790.00;;;;;;;;zerotype;;Spring;;No
2507667;FC 424 C3 S with case-Gun-2507667;FC 424 C3 S with case;Draft;Sunglasses;French Connection;Adults-Men;Men;;;;Fashion;;2018;61,FCONSGLS00000559;4790.00;;;;;;;;zerotype;;Spring;;No
2507666;FC 424 C2 S with case-Gold-2507666;FC 424 C2 S with case;Draft;Sunglasses;French Connection;Adults-Men;Men;;;;Fashion;;2018;61,FCONSGLS00000558;4790.00;;;;;;;;zerotype;;Spring;;No
2507665;FC 424 C1 S with case-Silver-2507665;FC 424 C1 S with case;Draft;Sunglasses;French Connection;Adults-Men;Men;;;;Fashion;;2018;61,FCONSGLS00000557;4790.00;;;;;;;;zerotype;;Spring;;No
2507664;FC 423 C3 S with case-Gun-2507664;FC 423 C3 S with case;Draft;Sunglasses;French Connection;Adults-Men;Men;;;;Fashion;;2018;53,FCONSGLS00000556;4790.00;;;;;;;;zerotype;;Spring;;No
2507663;FC 423 C2 S with case-Gold-2507663;FC 423 C2 S with case;Draft;Sunglasses;French Connection;Adults-Men;Men;;;;Fashion;;2018;53,FCONSGLS00000555;4790.00;;;;;;;;zerotype;;Spring;;No
2507662;FC 423 C1 S with case-Gold-2507662;FC 423 C1 S with case;Draft;Sunglasses;French Connection;Adults-Men;Men;;;;Fashion;;2018;53,FCONSGLS00000554;4790.00;;;;;;;;zerotype;;Spring;;No
2495301;8907613166982-AQUA-2495301;M7S11452 043;Draft;Tops;Madame;Adults-Women;Women;Blue;;;Fashion;;2018;S,MADETOPS00005442;799.00;;;<p>100% cotton</p>;;;;;zerotype;;Spring;;No
2489361;BGMJ-282-Indigo-2489361;Men Denim Bottom;Draft;Jeans;HERE&NOW;Adults-Men;Men;NA;;;Fashion;;2018;28,HENWJENS00007474,30,HENWJENS00007475,32,HENWJENS00007476,34,HENWJENS00007477,36,HENWJENS00007478;2099.00;;;<p>66% COTTON + 32% POLYESTER+ 2% ELASTANE</p>;;;;;zerotype;;Summer;;No
2482383;3410272-BROWN-2482383;3410272 MENSCOLOROD;Draft;Jeans;Splash;Adults-Men;Men;;;;Fashion;;2018;42,SPLSJENS00003433,40,SPLSJENS00003434,38,SPLSJENS00003435,36,SPLSJENS00003436,34,SPLSJENS00003437,32,SPLSJENS00003438,30,SPLSJENS00003439,28,SPLSJENS00003440;2499.00;;;<p>98  COTTON 2  SPANDEX</p>;;;;international-brands-ss-18;zerotype;;Spring;NA;No
2482380;4405754-BLUE-2482380;4405754 SPLMANSPR18S;Draft;Shorts;Splash;Adults-Men;Men;;;;Fashion;;2018;2XL,SPLSSHOR00000469,XL,SPLSSHOR00000470,L,SPLSSHOR00000471,M,SPLSSHOR00000472,S,SPLSSHOR00000473;1299.00;;;<p>65  POLY 35  COTTON</p>;;;;international-brands-ss-18;zerotype;;Spring;NA;No
2482360;4405759-BLUE-2482360;4405759 SPLMANS18UTY;Draft;Tshirts;Splash;Adults-Men;Men;;;;Fashion;;2018;2XL,SPLSTSHT00011443,XL,SPLSTSHT00011444,L,SPLSTSHT00011445,M,SPLSTSHT00011446,S,SPLSTSHT00011447;1399.00;;;<p>65  POLY 35  COTTON</p>;;;;international-brands-ss-18;zerotype;;Spring;NA;No
2482354;3511309-WHITE-2482354;3511309 118SUPERME;Draft;Tshirts;Splash;Adults-Men;Men;;;;Fashion;;2018;2XL,SPLSTSHT00011416,XL,SPLSTSHT00011417,L,SPLSTSHT00011418,M,SPLSTSHT00011419,S,SPLSTSHT00011420;1299.00;;;<p>100  COTTON</p>;;;;international-brands-ss-18;zerotype;;Spring;NA;No
2482351;3511302-BLUE-2482351;3511302 118OVERVIEW;Draft;Tshirts;Splash;Adults-Men;Men;;;;Fashion;;2018;2XL,SPLSTSHT00011401,XL,SPLSTSHT00011402,L,SPLSTSHT00011403,M,SPLSTSHT00011404,S,SPLSTSHT00011405;1299.00;;;<p>100  COTTON</p>;;;;international-brands-ss-18;zerotype;;Spring;NA;No
2482350;3511297-RED-2482350;3511297 118DOWNLOAD;Draft;Tshirts;Splash;Adults-Men;Men;;;;Fashion;;2018;2XL,SPLSTSHT00011396,XL,SPLSTSHT00011397,L,SPLSTSHT00011398,M,SPLSTSHT00011399,S,SPLSTSHT00011400;1299.00;;;<p>100  COTTON</p>;;;;international-brands-ss-18;zerotype;;Spring;NA;No
2482349;3511295-BLACK-2482349;3511295 118BUZZING;Draft;Tshirts;Splash;Adults-Men;Men;;;;Fashion;;2018;2XL,SPLSTSHT00011391,XL,SPLSTSHT00011392,L,SPLSTSHT00011393,M,SPLSTSHT00011394,S,SPLSTSHT00011395;1299.00;;;<p>100  COTTON</p>;;;;international-brands-ss-18;zerotype;;Spring;NA;No
2461641;SRAW17-HD7377P-BLACK-2461641;Bikini;Draft;Briefs;Strings;Adults-Women;Women;;;;Fashion;;2017;L,STGSBREF00000119,M,STGSBREF00000120,S,STGSBREF00000121,XL,STGSBREF00000122,XXL,STGSBREF00000123;499.00;;;<p>Machine wash at 40C, Do not bleach, Mild iron, Do not dry clean ,Do not Thumble dry, Wash dark colour separately, Line dry in Shade</p>;;;;;zerotype;;Fall;;No
2449502;1995523005-Black-2449502;VMBRENDA LINEN S/L JUMPSUIT IN, Black, S;Inactive - PMM - Category;Jumpsuit;Vero Moda;Adults-Women;Women;Black;;;Fashion;;2018;XS,VEMOJMST00000297,M,VEMOJMST00000298,L,VEMOJMST00000299,XL,VEMOJMST00000300,S,VEMOJMST00000301;3499.00;;;<p>Wash dark colours separately</p>;;;;;zerotype;;Spring;Bv Missing;No
2449497;2000462004-Black-2449497;VMBRUNCH LACE S/S TOP IN, Black, S;Inactive - PMM - Category;Tops;Vero Moda;Adults-Women;Women;Black;;;Fashion;;2018;XS,VEMOTOPS00015290,M,VEMOTOPS00015291,L,VEMOTOPS00015292,S,VEMOTOPS00015293;2799.00;;;<p>Wash Dark Colors Seperately</p>;;;;;zerotype;;Spring;Bv Missing;No
2449493;1992119005-Lotus-2449493;VMSTELLA KIMONO TOP IN, Lotus, S;Inactive - PMM - Category;Tops;Vero Moda;Adults-Women;Women;Pink;;;Fashion;;2018;XS,VEMOTOPS00015271,M,VEMOTOPS00015272,L,VEMOTOPS00015273,S,VEMOTOPS00015274;2299.00;;;<p>Wash Dark Colors Seperately</p>;;;;;zerotype;;Spring;Bv Missing;No
2449491;1992095005-Black-2449491;VMJOCE L/S WIDE TOP D2-2, Black, XL;Inactive - PMM - Category;Tops;Vero Moda;Adults-Women;Women;Black;;;Fashion;;2018;M,VEMOTOPS00015261,XS,VEMOTOPS00015262,S,VEMOTOPS00015263,L,VEMOTOPS00015264,XL,VEMOTOPS00015265;2299.00;;;<p>Wash Dark Colors Seperately</p>;;;;;zerotype;;Spring;Bv Missing;No
2449490;1983804005-Zephyr-2449490;VMNOLA TIE L/S TOP SB1, Zephyr, S;Inactive - PMM - Category;Tops;Vero Moda;Adults-Women;Women;Pink;;;Fashion;;2018;XS,VEMOTOPS00015256,M,VEMOTOPS00015257,L,VEMOTOPS00015258,XL,VEMOTOPS00015259,S,VEMOTOPS00015260;1799.00;;;<p>Wash Dark Colors Seperately</p>;;;;;zerotype;;Spring;Bv Missing;No
2449489;1969471006-Black-2449489;VMRIBBED S/L TANK TOP IN, Black, S;Inactive - PMM - Category;Tops;Vero Moda;Adults-Women;Women;Black;;;Fashion;;2018;XS,VEMOTOPS00015251,M,VEMOTOPS00015252,L,VEMOTOPS00015253,XL,VEMOTOPS00015254,S,VEMOTOPS00015255;1299.00;;;<p>Wash Dark Colors Seperately</p>;;;;;zerotype;;Spring;Bv Missing;No
2449486;2000755005-Snow White-2449486;VM SANDIE BLAZER IN, Snow White, S;Inactive - PMM - Category;Blazers;Vero Moda;Adults-Women;Women;White;;;Fashion;;2018;XS,VEMOBLZR00001953,M,VEMOBLZR00001954,L,VEMOBLZR00001955,XL,VEMOBLZR00001956,S,VEMOBLZR00001957;2299.00;;<p>NA</p>;<p>Dryclean only</p>;;;;;zerotype;;Spring;Bv Missing;No
2449483;1990595005-Black-2449483;%VMNORA   L/S BELTED BLAZER D2, Black, S;Inactive - PMM - Category;Blazers;Vero Moda;Adults-Women;Women;Black;;;Fashion;;2018;XS,VEMOBLZR00001938,M,VEMOBLZR00001939,L,VEMOBLZR00001940,XL,VEMOBLZR00001941,S,VEMOBLZR00001942;2299.00;;<p>NA</p>;<p>Dryclean only</p>;;;;;zerotype;;Spring;Bv Missing;No
2449482;1996944005-Navy Blazer-2449482;VMRIB LEGGING REP IN, Navy Blazer, S;Inactive - PMM - Category;Leggings;Vero Moda;Adults-Women;Women;Navy Blue;;;Fashion;;2018;XS,VEMOLEGG00000388,M,VEMOLEGG00000389,L,VEMOLEGG00000390,XL,VEMOLEGG00000391,S,VEMOLEGG00000392;1999.00;;;<p>Wash in Cold water Only</p>;;;;;zerotype;;Spring;Bv Missing;No
2449481;1996941005-Dark Grey-2449481;VMCOUNTRY LEGGING REP IN, Dark Grey, S;Inactive - PMM - Category;Leggings;Vero Moda;Adults-Women;Women;Grey;;;Fashion;;2018;XS,VEMOLEGG00000383,M,VEMOLEGG00000384,L,VEMOLEGG00000385,XL,VEMOLEGG00000386,S,VEMOLEGG00000387;2299.00;;;<p>Wash in Cold water Only</p>;;;;;zerotype;;Spring;Bv Missing;No
2449480;1995521005-kalamata-2449480;VMLIMA NW CHECK LEGGINGS IN, kalamata, S;Inactive - PMM - Category;Leggings;Vero Moda;Adults-Women;Women;Olive;;;Fashion;;2018;XS,VEMOLEGG00000378,M,VEMOLEGG00000379,L,VEMOLEGG00000380,XL,VEMOLEGG00000381,S,VEMOLEGG00000382;1999.00;;;<p>Wash in Cold water Only</p>;;;;;zerotype;;Spring;Bv Missing;No
2449476;1997211020-Poppy Red-2449476;VMLUNA S/S TEE IN, Poppy Red, S;Inactive - PMM - Category;Tshirts;Vero Moda;Adults-Women;Women;Red;;;Fashion;;2018;XS,VEMOTSHT00005994,M,VEMOTSHT00005995,L,VEMOTSHT00005996,XL,VEMOTSHT00005997,S,VEMOTSHT00005998;799.00;;;<p>Wash Dark Colors Seperately</p>;;;;;zerotype;;Spring;Bv Missing;No
2449474;1997211010-Black-2449474;VMLUNA S/S TEE IN, Black, S;Inactive - PMM - Category;Tshirts;Vero Moda;Adults-Women;Women;Black;;;Fashion;;2018;XS,VEMOTSHT00005984,M,VEMOTSHT00005985,L,VEMOTSHT00005986,XL,VEMOTSHT00005987,S,VEMOTSHT00005988;799.00;;;<p>Wash Dark Colors Seperately</p>;;;;;zerotype;;Spring;Bv Missing;No
2449473;1997211005-Light Grey Melange-2449473;VMLUNA S/S TEE IN, Light Grey Melange, S;Inactive - PMM - Category;Tshirts;Vero Moda;Adults-Women;Women;Grey;;;Fashion;;2018;XS,VEMOTSHT00005979,M,VEMOTSHT00005980,L,VEMOTSHT00005981,XL,VEMOTSHT00005982,S,VEMOTSHT00005983;799.00;;;<p>Wash Dark Colors Seperately</p>;;;;;zerotype;;Spring;Bv Missing;No
2449472;2001440005-Snow White-2449472;VMTODAY S/S T-SHIRT IN, Snow White, S;Inactive - PMM - Category;Tshirts;Vero Moda;Adults-Women;Women;White;;;Fashion;;2018;XS,VEMOTSHT00005974,M,VEMOTSHT00005975,L,VEMOTSHT00005976,XL,VEMOTSHT00005977,S,VEMOTSHT00005978;999.00;;;<p>Wash Dark Colors Seperately</p>;;;;;zerotype;;Spring;Bv Missing;No
2449471;1996418005-Snow White-2449471;VMJENNA S/S T-SHIRT IN, Snow White, S;Inactive - PMM - Category;Tshirts;Vero Moda;Adults-Women;Women;White;;;Fashion;;2018;XS,VEMOTSHT00005969,M,VEMOTSHT00005970,L,VEMOTSHT00005971,XL,VEMOTSHT00005972,S,VEMOTSHT00005973;999.00;;;<p>Wash Dark Colors Seperately</p>;;;;;zerotype;;Spring;Bv Missing;No
2449468;1991169005-Black-2449468;VMPETAL  2/4 SL DRESS IN, Black, M;Inactive - PMM - Category;Dresses;Vero Moda;Adults-Women;Women;Black;;;Fashion;;2018;XS,VEMODRSS00007240,XL,VEMODRSS00007241,S,VEMODRSS00007242,L,VEMODRSS00007243,M,VEMODRSS00007244;2499.00;;;<p>Wash Dark Colors seperately</p>;;;;;zerotype;;Spring;Bv Missing;No
2449467;1991008005-Eggnog-2449467;VMFAIRY L/S DRESS IN, Eggnog, S;Inactive - PMM - Category;Dresses;Vero Moda;Adults-Women;Women;White;;;Fashion;;2018;XS,VEMODRSS00007235,M,VEMODRSS00007236,L,VEMODRSS00007237,XL,VEMODRSS00007238,S,VEMODRSS00007239;2799.00;;;<p>Wash Dark Colors seperately</p>;;;;;zerotype;;Spring;Bv Missing;No
2449460;1993607005-Lotus-2449460;VM CARIBIEN 2/4 SHIRT GA, Lotus, S;Inactive - PMM - Category;Shirts;Vero Moda;Adults-Women;Women;Pink;;;Fashion;;2018;XS,VEMOSHRT00003749,M,VEMOSHRT00003750,L,VEMOSHRT00003751,XL,VEMOSHRT00003752,S,VEMOSHRT00003753;2499.00;;;<p>Wash Dark Colors Seperately</p>;;;;;zerotype;;Spring;Bv Missing;No
2447017;PWYA00409-B3-Blue-2447017;JEANS;On Hold - Sample;Jeans;Park Avenue;Adults-Women;Women;Blue;;;Fashion;;2017;91,PKAVJENS00001190,71,PKAVJENS00001191;1799.00;;;<p>M/C WASH GENTLE</p>;;;;;zerotype;;Winter;Broken size;No
2430318;1966702005-Faded Rose-2430318;VM GRIDS SS T-SHIRT  REP, Faded Rose, S;Inactive - PMM - Category;Tshirts;Vero Moda;Adults-Women;Women;Pink;;;Fashion;;2018;XS,VEMOTSHT00005894,M,VEMOTSHT00005895,L,VEMOTSHT00005896,XL,VEMOTSHT00005897,S,VEMOTSHT00005898;1499.00;;;<p>Wash Dark Colors Seperately</p>;;;;;zerotype;;Spring;Bv Missing;No
2430311;1991035005-Snow White-2430311;VMCHROME ASYMMETRICAL L/, Snow White, XS;Inactive - PMM - Category;Dresses;Vero Moda;Adults-Women;Women;White;;;Fashion;;2018;M,VEMODRSS00007185,L,VEMODRSS00007186,XL,VEMODRSS00007187,S,VEMODRSS00007188,XS,VEMODRSS00007189;2999.00;;;<p>Wash Dark Colors Seperately</p>;;;;;zerotype;;Spring;Bv Missing;No
2430310;1990604005-Snow White-2430310;VMNILLY S/S SHORT DRESS D, Snow White, S;Inactive - PMM - Category;Dresses;Vero Moda;Adults-Women;Women;White;;;Fashion;;2018;XS,VEMODRSS00007180,M,VEMODRSS00007181,L,VEMODRSS00007182,XL,VEMODRSS00007183,S,VEMODRSS00007184;2299.00;;;<p>Wash Dark Colors Seperately</p>;;;;;zerotype;;Spring;Bv Missing;No
2430308;1990601005-Snow White-2430308;%VMNIBBY  N/W KNEE PENCIL, Snow White, S;Inactive - PMM - Category;Skirts;Vero Moda;Adults-Women;Women;White;;;Fashion;;2018;XS,VEMOSKRT00001529,M,VEMOSKRT00001530,L,VEMOSKRT00001531,XL,VEMOSKRT00001532,S,VEMOSKRT00001533;2299.00;;;<p>Dry Clean Only</p>;;;;;zerotype;;Spring;Bv Missing;No
2430307;1999037005-Snow White-2430307;VMBABETT S/S PLAYSUIT IN, Snow White, S;Inactive - PMM - Category;Jumpsuit;Vero Moda;Adults-Women;Women;White;;;Fashion;;2018;XS,VEMOJMST00000292,M,VEMOJMST00000293,L,VEMOJMST00000294,XL,VEMOJMST00000295,S,VEMOJMST00000296;2999.00;;;<p>Wash Dark Colors Seperately</p>;;;;;zerotype;;Spring;Bv Missing;No
2430304;1991028005-Black-2430304;VMSLIT NW TROUSER IN, Black, S;Inactive - PMM - Category;Trousers;Vero Moda;Adults-Women;Women;Black;;;Fashion;;2018;XS,VEMOTRSR00003086,M,VEMOTRSR00003087,L,VEMOTRSR00003088,XL,VEMOTRSR00003089,S,VEMOTRSR00003090;2299.00;;;<p>Wash Dark Colors Seperately</p>;;;;;zerotype;;Spring;Bv Missing;No
2430301;1992690005-Light Blue Denim-2430301;VMSAMBA HW CHAMBRA, Light Blue Denim, 42;Inactive - PMM - Category;Jeans;Vero Moda;Adults-Women;Women;Blue;;;Fashion;;2018;34,VEMOJENS00005243,36,VEMOJENS00005244,38,VEMOJENS00005245,40,VEMOJENS00005246,42,VEMOJENS00005247;3299.00;;;<p>Wash Dark Colors Seperately</p>;;;;;zerotype;;Spring;Bv Missing;No
2430300;1999313005-Black Beauty-2430300;VMWILD S/S TOP IN, Black Beauty, S;Inactive - PMM - Category;Tops;Vero Moda;Adults-Women;Women;Black;;;Fashion;;2018;XS,VEMOTOPS00015162,M,VEMOTOPS00015163,L,VEMOTOPS00015164,XL,VEMOTOPS00015165,S,VEMOTOPS00015166;999.00;;;<p>Wash Dark Colors Seperately</p>;;;;;zerotype;;Spring;Bv Missing;No
2430298;1999035005-Snow White-2430298;VMBABETT L/S TOP IN, Snow White, S;Inactive - PMM - Category;Tops;Vero Moda;Adults-Women;Women;White;;;Fashion;;2018;XS,VEMOTOPS00015152,M,VEMOTOPS00015153,L,VEMOTOPS00015154,XL,VEMOTOPS00015155,S,VEMOTOPS00015156;1999.00;;;<p>Wash Dark Colors Seperately</p>;;;;;zerotype;;Spring;Bv Missing;No
2430295;1995730005-Dark Ivy-2430295;VM NISHA VICTORIA 2/4 TOP A, Dark Ivy, S;Inactive - PMM - Category;Tops;Vero Moda;Adults-Women;Women;Green;;;Fashion;;2018;XS,VEMOTOPS00015137,M,VEMOTOPS00015138,L,VEMOTOPS00015139,XL,VEMOTOPS00015140,S,VEMOTOPS00015141;1799.00;;;<p>Wash Dark Colors Seperately</p>;;;;;zerotype;;Spring;Bv Missing;No
2430294;1993275005-Snow White-2430294;VMJANE ONE SHOULDER TOP I, Snow White, S;Inactive - PMM - Category;Tops;Vero Moda;Adults-Women;Women;White;;;Fashion;;2018;XS,VEMOTOPS00015132,M,VEMOTOPS00015133,L,VEMOTOPS00015134,XL,VEMOTOPS00015135,S,VEMOTOPS00015136;2499.00;;;<p>Wash Dark Colors Seperately</p>;;;;;zerotype;;Spring;Bv Missing;No
2430291;1991026005-Black-2430291;VMERIC V NECK 3/4 TOP IN, Black, S;Inactive - PMM - Category;Tops;Vero Moda;Adults-Women;Women;Black;;;Fashion;;2018;XS,VEMOTOPS00015117,M,VEMOTOPS00015118,L,VEMOTOPS00015119,XL,VEMOTOPS00015120,S,VEMOTOPS00015121;1799.00;;;<p>Wash Dark Colors Seperately</p>;;;;;zerotype;;Spring;Bv Missing;No
2430290;1991018005-Snow White-2430290;VMKIM OFF SHOULDER L/S TO, Snow White, S;Inactive - PMM - Category;Tops;Vero Moda;Adults-Women;Women;White;;;Fashion;;2018;XS,VEMOTOPS00015112,M,VEMOTOPS00015113,L,VEMOTOPS00015114,XL,VEMOTOPS00015115,S,VEMOTOPS00015116;1999.00;;;<p>Wash Dark Colors Seperately</p>;;;;;zerotype;;Spring;Bv Missing;No
2430289;1991016005-Black-2430289;VMSAM L/S TOP IN, Black, S;Inactive - PMM - Category;Tops;Vero Moda;Adults-Women;Women;Black;;;Fashion;;2018;XS,VEMOTOPS00015107,M,VEMOTOPS00015108,L,VEMOTOPS00015109,XL,VEMOTOPS00015110,S,VEMOTOPS00015111;1999.00;;;<p>Wash Dark Colors Seperately</p>;;;;;zerotype;;Spring;Bv Missing;No
2430284;1995721005-kalamata-2430284;VMFIORA L/S LONG SHIRT IN, kalamata, S;Inactive - PMM - Category;Shirts;Vero Moda;Adults-Women;Women;Olive;;;Fashion;;2018;XS,VEMOSHRT00003690,M,VEMOSHRT00003691,L,VEMOSHRT00003692,XL,VEMOSHRT00003693,S,VEMOSHRT00003694;3299.00;;;<p>Wash Dark Colors Seperately</p>;;;;;zerotype;;Spring;Bv Missing;No
2430282;1993621005-Cream Gold-2430282;VMKATEY 3/4 BLAZER IN, Cream Gold, S;Inactive - PMM - Category;Blazers;Vero Moda;Adults-Women;Women;Yellow;;;Fashion;;2018;XS,VEMOBLZR00001928,M,VEMOBLZR00001929,L,VEMOBLZR00001930,XL,VEMOBLZR00001931,S,VEMOBLZR00001932;2799.00;<p>yellow</p>;;<p>Dry Clean Only</p>;;;;;zerotype;;Spring;Bv Missing;No
2427597;HN D5 0076-WHITE-2427597;HOODY CUT N SEWN L SLV;Inactive - PMM - Catalog;Tshirts;HERE&NOW;Adults-Men;Men;Navy Blue;White;Maroon;Fashion;Casual;2018;S,HENWTSHT00001985,M,HENWTSHT00001986,L,HENWTSHT00001987,XL,HENWTSHT00001988;1099.00;Navy Blue and white colourblocked T-shirt, has a polo collar, short sleeves;Keep it hip and casual this season with this high-quality HERE&NOW tee.  When you're going for a stroll in the park, put this navy blue piece with a pair of chinos and sneakers to feel both comfortable and stylish outside.;100% cotton<br />Machine-wash;The model (height 6') is wearing a size M;;HERE&NOW Men Navy Colourblocked Polo Collar T-shirt;HERE&NOW;zerotype;;Summer;image mismatch;No
2383044;INFPF110-00-6902395654513-2383044;Infallible ProMatte Foundation Crme Caf 110;Draft;Foundation and Primer;LOreal;Adults-Women;Women;;;;Core;;2018;30ml,LORLFDPR00000061;999.00;<p>Introducing the new L'Oreal Paris 24 hour, long stay, Matte foundation. Clinically proven  waterproof, steamproof. All the comfort, none of the shine. Perfect coverage. No Cakey effect. Perfectly glides and fuses on the skin  no cakey or dull effect. Easy to apply, enriched with perlite technology, and reduces the appearance of shine up to 24 hours. 24HR Mattifying action. Absorbing mineral micro sponges help to absorb excess oil.</p>;;<p>Introducing the new L'Oreal Paris 24 hour, long stay, Matte foundation. Clinically proven  waterproof, steamproof. All the comfort, none of the shine. Perfect coverage. No Cakey effect. Perfectly glides and fuses on the skin  no cakey or dull effect. Easy to apply, enriched with perlite technology, and reduces the appearance of shine up to 24 hours. 24HR Mattifying action. Absorbing mineral micro sponges help to absorb excess oil.</p>;;;;;zerotype;;Winter;;No
2383019;DEHSM100-00-6928820057131-2383019;Hydrafresh Genius Sleeping Mask 100 ml;Draft;Face Moisturisers;LOreal;Adults-Women;Women;;;;Core;;2018;100ml,LORLFMNC00000011;850.00;<p>The Hydrafresh Genius Sleeping Night Mask has an innovative gel-like texture which breaks into water upon gentle application, penetrating deeply into skin for quick absorption. It works overnight to give you hydrated, nourished, more radiant skin by morning. With ingredients like Hyaluronic Acid and Aloe Water, you can effectively bid adieu to your oily skin woes, and experience smoother, softer skin every day. Usage: Apply a thin layer on cleansed face and neck before sleeping. Avoid eye contour and around lips.</p>;;;;;;;zerotype;;Winter;;No
2383018;DEHMAC50-00-6928820057124-2383018;Hydrafresh Genius Multi-Active Essence Cream 50ml;Draft;Face Moisturisers;LOreal;Adults-Women;Women;;;;Core;;2018;50ml,LORLFMNC00000010;599.00;<p>The Hydrafresh Genius Multi-Active Essence cream has a refreshing gel-like texture that glides onto skin softly, and bursts into water droplets on application. It instantly hydrates the skin, making it feel supple and fresh immediately. Day after day, the skin looks watery-smooth and fully loaded with moisture. With ingredients like Hyaluronic Acid and Aloe Water, you can effectively bid adieu to your oily skin woes, and experience smoother, softer skin every day.Usage: Use every morning on cleansed skin  Apply onto skin, gently massage until all is absorbed.</p>;;;;;;;zerotype;;Winter;;No
2383016;DEHGW130-00-6928820057148-2383016;Hydrafresh Genius Water 130 ml;Draft;Toner;LOreal;Adults-Women;Women;;;;Core;;2018;130ml,LORLTONR00000006;650.00;<p>The Hydrafresh Genius Water is a true innovation by the experts at L'Oral Paris. Enriched with 1000 water-bursting bubbles, this water has a light texture which leaves the skin feeling smooth and refreshed. With high moisturizing and nourishing powers, the Genius Water hydrates skin intensively day after day, leaving it soft and dewy. With ingredients like Hyaluronic Acid and Aloe Water, you can effectively bid adieu to your oily skin woes, and experience smoother, softer skin every day. Usage: Use day and night after cleansing your skin  Pour 2-3 drops onto your palm and softly pat onto skin until all is absorbed.</p>;;;;;;;zerotype;;Winter;;No
2383015;DEHSW130-00-6928820056714-2383015;Hydrafresh Anti-Ox Spa Water 130ml;Draft;Toner;LOreal;Adults-Women;Women;;;;Core;;2018;130ml,LORLTONR00000005;650.00;<p>L'Oreal Paris introduces the Hydrafresh Anti OX Spa water. Fresh watery hydration with 50X anti-oxidant power. Skin feels fresher, smoother and more supple immidiately. Day after day: your skin feels unimaginably supple and comfortable. Light texture melts instantly, leaving a bouncy sensation on skin. Use morning & night after cleansing.</p>;;;;;;;zerotype;;Winter;;No
2382998;INEGC102-00-6902395503859-2382998;Infallible Gel Crayon Eye Liner 102 Grey  Fever;Draft;Kajal and Eyeliner;LOreal;Adults-Women;Women;;;;Core;;2018;1.2gm,LORLKEPL00000006;675.00;<p>L'Oral Paris Infallible Crayon Eyeliner, a waterproof gel liner in a crayon for bold colour impact. Achieve intense colour and 24 hour wear, with the easy application of a pencil and smooth glide of a gel crayon. 24HR long-lasting waterproof. Saturated pigments for intense colour payoff. Creamy formula for easy glide application.How to use: To open the eye and intensify your lash line draw your Infallible Gel Crayon along your top waterline. To do this look down into a mirror, lift the eye lid and draw directly into the root of the eyelashes.</p>;;<p>L'Oral Paris Infallible Crayon Eyeliner, a waterproof gel liner in a crayon for bold colour impact. Achieve intense colour and 24 hour wear, with the easy application of a pencil and smooth glide of a gel crayon. 24HR long-lasting waterproof. Saturated pigments for intense colour payoff. Creamy formula for easy glide application.How to use: To open the eye and intensify your lash line draw your Infallible Gel Crayon along your top waterline. To do this look down into a mirror, lift the eye lid and draw directly into the root of the eyelashes.</p>;;;;;zerotype;;Winter;;No
2322621;RDCR- STWJ-020-INDIGO-2322621;Indigo Dyed denim;Draft;Jeans;Roadster;Adults-Women;Women;;;;Fashion;;2018;26,RDSTJENS00019894,28,RDSTJENS00019895,30,RDSTJENS00019896,32,RDSTJENS00019897,34,RDSTJENS00019898,36,RDSTJENS00019899;1299.00;;;;;;;;zerotype;;Spring;;No
2322616;RDCR- STWJ-015-INDIGO-2322616;Indigo Dyed denim;Draft;Jeans;Roadster;Adults-Women;Women;;;;Fashion;;2018;26,RDSTJENS00019864,28,RDSTJENS00019865,30,RDSTJENS00019866,32,RDSTJENS00019867,34,RDSTJENS00019868,36,RDSTJENS00019869;1099.00;;;;;;;;zerotype;;Spring;;No
2322590;RDCR- STWJ-010-INDIGO-2322590;Indigo Dyed denim;Draft;Jeans;Roadster;Adults-Women;Women;;;;Fashion;;2018;26,RDSTJENS00019708,28,RDSTJENS00019709,30,RDSTJENS00019710,32,RDSTJENS00019711,34,RDSTJENS00019712,36,RDSTJENS00019713;1299.00;;;;;;;;zerotype;;Spring;;No
2322587;RDCR- STWJ-007-White-2322587;White Denim;Draft;Jeans;Roadster;Adults-Women;Women;;;;Fashion;;2018;26,RDSTJENS00019690,28,RDSTJENS00019691,30,RDSTJENS00019692,32,RDSTJENS00019693,34,RDSTJENS00019694,36,RDSTJENS00019695;1299.00;;;;;;;;zerotype;;Spring;;No
2314461;HRX-SS18-MK-4057-A-bright white-2314461;MEN T-SHIRT;Draft;Tshirts;HRX by Hrithik Roshan;Adults-Men;Men;;;;Fashion;;2018;S,HBHRTSHT00010607,M,HBHRTSHT00010608,L,HBHRTSHT00010609,XL,HBHRTSHT00010610;1499.00;;;;;;;sportsallstyles-2017,all-sports-styles-2017,ss-18-sports;zerotype;;Summer;remove;No
2284801;170926-2-WHITE-2284801;170926-2 WHITE;Draft;Casual Shoes;Roadster;Adults-Men;Men;;;;Fashion;;2018;UK 6,RDSTCASH00022311,UK 7,RDSTCASH00022312,UK 8,RDSTCASH00022313,UK 9,RDSTCASH00022314,UK 10,RDSTCASH00022315,UK 11,RDSTCASH00022316;1999.00;;;;;;;mens-ftw-fest;zerotype;;Summer;mens-ftw-fest;No
2284797;170922-1-BLACK-2284797;170922-1 BLACK;Draft;Casual Shoes;Roadster;Adults-Men;Men;;;;Fashion;;2018;UK 6,RDSTCASH00022287,UK 7,RDSTCASH00022288,UK 8,RDSTCASH00022289,UK 9,RDSTCASH00022290,UK 10,RDSTCASH00022291,UK 11,RDSTCASH00022292;1999.00;;;;;;;mens-ftw-fest;zerotype;;Summer;mens-ftw-fest;No
2199452;773602151103-773602151103-2199452;DAZZLEGLASS-COMET BLUE;Draft;Lip Gloss;M.A.C;Adults-Women;Women;;;;Core;;2017;1.92GM,MAACLPGS00000045;1600.00;;;;;;;Dazzle;zerotype;;Fall;Dazzle;No
2167269;JG662346-Multi-2167269;G LUX SLG LARGE ZIP AROUND;Draft;Handbags;GUESS;Adults-Women;Women;;;;Fashion;;2017;Onesize,GUESHDBG00001516;4999.00;;;;;;;;zerotype;;Fall;;No
2167259;SE649170-Copper-2167259;ARIANNA MINI XBODY TOP ZIP;Draft;Handbags;GUESS;Adults-Women;Women;;;;Fashion;;2017;Onesize,GUESHDBG00001506;7999.00;;;;;;;;zerotype;;Fall;;No
2167257;SE649121-Copper-2167257;ARIANNA CONVERTIBLE XBODY FLAP;Draft;Handbags;GUESS;Adults-Women;Women;;;;Fashion;;2017;Onesize,GUESHDBG00001504;9999.00;;;;;;;;zerotype;;Fall;;No
2167251;VY617246-Pink-2167251;KORRY SLG LARGE ZIP AROUND;Draft;Handbags;GUESS;Adults-Women;Women;;;;Fashion;;2017;Onesize,GUESHDBG00001498;4999.00;;;;;;;;zerotype;;Fall;;No
2167249;VH654278-Black-2167249;LOVE BEAT MINI CROSSBODY FLAP;Draft;Handbags;GUESS;Adults-Women;Women;;;;Fashion;;2017;Onesize,GUESHDBG00001496;7999.00;;;;;;;;zerotype;;Fall;;No
2167234;VG633806-Black-2167234;ANDIE GIRLFRIEND SATCHEL;Draft;Handbags;GUESS;Adults-Women;Women;;;;Fashion;;2017;Onesize,GUESHDBG00001481;11999.00;;;;;;;;zerotype;;Fall;;No
2156659;GLM645-81555966454-2156659;L. A GIRL PRO Coverage HD Foundation-Nude Beige;Draft;Foundation and Primer;L.A Girl;Adults-Women;Women;Beige;;;Core;;2017;28ML,LAGLFDPR00000005;1250.00;<p>high-definition long wear illuminating liquid foundation is ideal for a flawless looking, full coverage finish. Lightweight formula is comfortable for all day wear. Paraben free formula with added anti-oxidants helps hydrate and improve the skin's appearance. Now available to extend the color range even further, an innovative white foundation mixer to adjust and customize color.</p>;;<p>Store in cool and dry Place</p>;;;;;zerotype;;Fall;;No
2156656;GLM642-81555966423-2156656;L. A GIRL PRO Coverage HD Foundation-Fair;Draft;Foundation and Primer;L.A Girl;Adults-Women;Women;Beige;;;Core;;2017;28ML,LAGLFDPR00000002;1250.00;<p>high-definition long wear illuminating liquid foundation is ideal for a flawless looking, full coverage finish. Lightweight formula is comfortable for all day wear. Paraben free formula with added anti-oxidants helps hydrate and improve the skin's appearance. Now available to extend the color range even further, an innovative white foundation mixer to adjust and customize color.</p>;;<p>Store in cool and dry Place</p>;;;;;zerotype;;Fall;;No
2156604;GES468-81555964689-2156604;Eyelux Mesmerizing Eyeshadow - Fantasize;Draft;Eyeshadow;L.A Girl;Adults-Women;Women;Multi;;;Core;;2017;5.2G,LAGLEYSD00000020;675.00;<p>L.A Girl introduces a luxurious, long wearing and intensely pigmented eyeshadow collection that inspires dazzling looks. EyeLux Mesmerizing eyeshadow is formulated to be extra smooth and silky in a mix of matte, Satin and metal finishes.Available in 16 exhilarating quads with pretty, Coordinated shades, These eyeshadow palettes are sure to capture your imagination and inspire beautiful eye looks.The slim, Lightweight palette is perfect to carry on the go and try versatile eye makeup looks every day.</p>;;<p>Store in cool and dry Place</p>;;;;;zerotype;;Fall;;No
2156560;GP602-Black-2156560;Eyeliner Pencil- Brown / Black;Draft;Kajal and Eyeliner;L.A Girl;Adults-Women;Women;Black;;;Core;NA;2017;1.3g,LAGLEYLN00000021;250.00;<p>Makeup wearers no longer have to choose between the ease of application in an eye pencil and the smooth feel of liquid eyeliner. The new glide liner has the soft and gliding feel of liquid that comes in a pencil that can be sharpened. Available in highly pigmented colours, this product is designed for makeup enthusiasts and trendsetters who are looking for the best products on the market as a reasonable price.</p>;<p>NA</p>;<p>NA</p>;<p>NA</p>;;NA;Coupon-Offer,womenwsbeauty,womenwsbeauty1,CMS30k;zerotype;;Spring;;No
2122673;INLPL101-00-3600523339730-2122673;Infallible Lip Paints Lacquer 101GonewithNude;Draft;Lipstick;LOreal;Adults-Women;Women;;;;Core;;2017;8gm,LORLLPST00000261;799.00;;;;;;;;zerotype;;Fall;;No
2063473;8903965358402-Black-2063473;Handbags;Draft;Handbags;Addons;Adults-Women;Women;;;;Fashion;;2017;Onesize,ADONHDBG00000713;3799.00;;;;;;;;zerotype;;Fall;;No
2063472;8903965358396-Maroon-2063472;Handbags;Draft;Handbags;Addons;Adults-Women;Women;;;;Fashion;;2017;Onesize,ADONHDBG00000712;3799.00;;;;;;;;zerotype;;Fall;;No
2038956;Anouk AW179573B-Black-2038956;Anouk printed kurta;Inactive - PMM - Catalog;Kurtas;Anouk;Adults-Women;Women;Black;;;Fashion;Ethnic;2017;XS,ANUKKRTA00033627,S,ANUKKRTA00033628,M,ANUKKRTA00033629,L,ANUKKRTA00033630,XL,ANUKKRTA00033631,XXL,ANUKKRTA00033632;1499.00;Black printed straight kurta, has a round neck, cold-shoulder three-quarter sleeves, straight hem, side slits;This stylish kurta from Anouk will take your personal style to new heights.  This black piece is a stylish option for a nice family function or event when teamed with churidar leggings and classic flats.;Cotton <br> Hand-wash;The model (height 5'8") is wearing a size S;;Anouk Women Black Printed Straight Kurta;Anouk,anouk-unwindinstyle,coupon-offer-dec2017,uber-offer-mar18,buy2buy3;zerotype;;Fall;image mismatch;No
1963358;CRNLH664-00-30120792-1963358;L'Huile Nailpaints Nail 664 Greige amoureux;Draft;Nail Polish;LOreal;Adults-Women;Women;;;;Core;;2017;12ml,LORLNLPS00000074;399.00;;;;;;;;zerotype;;Summer;;No
1963312;CRLMME01-00-6902395481911-1963312;Color Riche Moist Mat Lipstick Beige Couture;Draft;Lipstick;LOreal;Adults-Women;Women;;;;Core;;2017;4.2,LORLLPST00000179;950.00;;;;;;;;zerotype;;Summer;;No
1963270;MMLBR225-00-6902395458913-1963270;Color Riche Moist Mat Lipstick Choco Bisous;Draft;Lipstick;LOreal;Adults-Women;Women;;;;Core;;2017;4.2 gm,LORLLPST00000171;950.00;;;;;;;;zerotype;;Summer;;No
1795811;9273-9273-1795811;Velvet Silk Body Cream Vitamin E;Bundled Only;Free Gifts;Forest Essentials;Adults-Unisex;Unisex;Pink;;;Core;Casual;2017;15gm,FTESFRGF00000001;0.00;<a href='/forest-essentials?src=pd' class='seolink'>Forest Essentials</a> Unisex Velvet <a href='/silk?src=pd' class='seolink'>Silk</a> <a href='/body?src=pd' class='seolink'>body</a> <a href='/cream?src=pd' class='seolink'>cream</a><br />Enriched with blend of herbs rich in antioxidants along with Vitamin E and organic beeswax that makes it excellent for dry and sensitive <a href='/skin?src=pd' class='seolink'>skin</a><br />Contains cold-pressed organic oils that soften the skin and increase skin's elasticity;This body cream is rich in vitamin E and antioxidants and will keep your skin soft and nourished. Use regularly for a healthy and rejuvenated skin.;;15 g;;Forest Essentials Unisex Velvet Silk Body Cream with Vitamin E;Forest Essentials;zerotype;;Spring;;No
1546419;IFLNL005-10-71249152768-1546419;Infallible Lip Liner;Draft;Lip Liner;LOreal;Adults-Women;Women;;;;Core;;2017;0.25gm,LORLLPLN00000017;650.00;;;;;;;;zerotype;;Spring;Season Tagging PC TO SS17-Jainesh;No
1546415;IFLNL003-10-71249152812-1546415;Infallible Lip Liner 707 BROWN;Draft;Lip Liner;LOreal;Adults-Women;Women;;;;Core;;2017;0.25gm,LORLLPLN00000013;650.00;;;;;;;;zerotype;;Spring;Season Tagging PC TO SS17-Jainesh;No
1511877;1826691010-Harvest Gold-1511877;VMTULIPS LS CABLE BLOUS, Harvest Gold, M;Draft;Tops;Vero Moda;Adults-Women;Women;;;;Fashion;;2016;XL,VEMOTOPS00009766,XS,VEMOTOPS00009767,L,VEMOTOPS00009768,M,VEMOTOPS00009769;2695.00;<p>Cotton</p>;;;;;;bestseller-jan30;zerotype;;Fall;No comment entered;No
1270766;116ETKSLD020003C-Charcoal Melange-1270766;Women's Grindle Tee with Pkt;Inactive - PMM - Catalog;Tshirts;ether;Adults-Women;Women;Charcoal;;;Core;Casual;2017;S,ETHRTSHT00001802,M,ETHRTSHT00001803,L,ETHRTSHT00001804,XL,ETHRTSHT00001805;399.00;Charcoal grey grindle&nbsp knitted t-shirt, has a round neck, short sleeves, a chest pocket, a&nbsp curved hemline with the back slightly longer than the front;This T-shirt packs the right amount of style and comfort. Team it up with denim shorts and casual shoes for a laid-back look.<br>;65% cotton, 35%&nbsp polyester<br>Machine-wash cold;The model (height 5'8" and chest 33") is wearing a size S;;ETHER Charcoal Grey Grindle T-shirt;ETHER,TIJA0370,first-login-offer,Exclusive-Main-Women,Exclusive-Tops-Tees,last-time-on-discount-i-day,ether-new-aw16,Ether-women-topwear-aw16,ss17-new-basics,ether-brand-day-women,ether-brand-day-womentees,ether-women-solidtees,ether-women-regularfit,jun08-wonder-hour,eors-wishlist20,ftod-eorsjun17,eorsjun17-uber-offer,wishlist-eors,wonder-hour-jun25,ola-offer-jul17,welcome-to-myntra-july,duty-offer-new,ftod-bbsjul17,bss-uber-offer,ladies-night-jul18,duty-offer-august,welcome-to-myntra-august17,extra500-jul24,a-listers-csale,min500-jul29,uber-offer-aug,best-sellers-aug06,welcome-to-myntra-aug17-new,rakhi-deals,rakhi-tops-999,dutyfree-august17,uber-offer-new-aug,ftod-rtf,uber-offer-aug-rtf,freedom-fest-rtf,uber-offer-16aug,welcome-to-myntra-aug-v2,deal-aug-top-999,coupon-offer-aug19,coupon-offer-23aug,ftod-sw,extra20-sports,sw-women-tops,aug31-tops,welcome-to-myntra-sep2017,aw17-new-season,welcome-to-mynt-v2sep2017,dutyfree-sept17,Coupon-offer-aug19,buy3-sept13,ftod-bbd17,bbd17-coupon-offer,bbd17-extra20,bbd17-combo-tops,uber-offer-sept25,welcome-to-myntra-oct17,coupon-offer-sep30,ftod-sep30,combo-deals,combo-buy2-sep30,diwali17-ftod,ds17-buy2-1999,combo-ds17,ndd17-blr,combo-oct15,ether-musthave-women,ether-bestsellers-mw,ether-essentials-core,ether-women-essentials,coupon-offer-dec2017,combo2499-feb14,combo-feb14,extra300-dec28,uber-offer-feb18,combo-2499-feb17,coupon-offer-rtf18,extra500-feb19,Brand-Coupon-200,founding18-ltod;zerotype;;Fall;old season;No
