Style ID;Vendor Article Number;Vendor Article Name;Active Status;Article type;Brand;Age Group;Gender;Base Colour;Colour1;Colour2;Fashion Type;Usage;Year;Size - SKU code pair;MRP;Style Description;Style Note;Materials and Care Description;Size and Fit Description;Size Chart Path;Product Display Name;Tags;Product Type;Classification Brand;Season;Comments;Upload Images
1830442;43420Blue-Blue-1830442;Hancock Blue and Grey Printed Pure Cotton Sli;Draft;Shirts;Hancock;Adults-Men;Men;;;;Fashion;;2017;38,HNCKSHRT00001887,40,HNCKSHRT00001888,42,HNCKSHRT00001889,44,HNCKSHRT00001890;1899.00;;;;;;;;zerotype;;Spring;;No
1830440;43420Green-Green-1830440;Hancock Green and Grey Printed Pure Cotton Sl;Draft;Shirts;Hancock;Adults-Men;Men;;;;Fashion;;2017;38,HNCKSHRT00001883,40,HNCKSHRT00001884,42,HNCKSHRT00001885,44,HNCKSHRT00001886;1899.00;;;;;;;;zerotype;;Spring;;No
1830439;43420Brown-Brown-1830439;Hancock Brown and Mustard Printed Pure Cotton;Draft;Shirts;Hancock;Adults-Men;Men;;;;Fashion;;2017;38,HNCKSHRT00001879,40,HNCKSHRT00001880,42,HNCKSHRT00001881,44,HNCKSHRT00001882;1899.00;;;;;;;;zerotype;;Spring;;No
1830437;9335Navy-Navy-1830437;Hancock Grey and Navy Printed Pure Cotton Sli;Draft;Shirts;Hancock;Adults-Men;Men;;;;Fashion;;2017;38,HNCKSHRT00001875,40,HNCKSHRT00001876,42,HNCKSHRT00001877,44,HNCKSHRT00001878;1899.00;;;;;;;;zerotype;;Spring;;No
1830435;9335Black-Grey-1830435;Hancock Grey and Black Printed Pure Cotton Sl;Draft;Shirts;Hancock;Adults-Men;Men;;;;Fashion;;2017;38,HNCKSHRT00001871,40,HNCKSHRT00001872,42,HNCKSHRT00001873,44,HNCKSHRT00001874;1899.00;;;;;;;;zerotype;;Spring;;No
1830434;9333Black-Black-1830434;Hancock Black Printed Pure Cotton Slim Fit Fo;Draft;Shirts;Hancock;Adults-Men;Men;;;;Fashion;;2017;38,HNCKSHRT00001867,40,HNCKSHRT00001868,42,HNCKSHRT00001869,44,HNCKSHRT00001870;1699.00;;;;;;;;zerotype;;Spring;;No
1830432;9334Wine-Wine-1830432;Hancock Wine and Navy Printed Pure Cotton Sli;Draft;Shirts;Hancock;Adults-Men;Men;;;;Fashion;;2017;38,HNCKSHRT00001863,40,HNCKSHRT00001864,42,HNCKSHRT00001865,44,HNCKSHRT00001866;1899.00;;;;;;;;zerotype;;Spring;;No
1830430;9334Brown-Brown-1830430;Hancock Brown and Navy Printed Pure Cotton Sl;Draft;Shirts;Hancock;Adults-Men;Men;;;;Fashion;;2017;38,HNCKSHRT00001859,40,HNCKSHRT00001860,42,HNCKSHRT00001861,44,HNCKSHRT00001862;1899.00;;;;;;;;zerotype;;Spring;;No
1830428;43415White-White-1830428;Hancock White Solid Pure Cotton Slim Fit Form;Draft;Shirts;Hancock;Adults-Men;Men;;;;Fashion;;2017;38,HNCKSHRT00001855,40,HNCKSHRT00001856,42,HNCKSHRT00001857,44,HNCKSHRT00001858;1899.00;;;;;;;;zerotype;;Spring;;No
1830427;43412Navy-Navy-1830427;Hancock Navy Solid Pure Cotton Slim Fit Forma;Draft;Shirts;Hancock;Adults-Men;Men;;;;Fashion;;2017;38,HNCKSHRT00001852,40,HNCKSHRT00001853,42,HNCKSHRT00001854;1499.00;;;;;;;;zerotype;;Spring;;No
1830425;43410Black-Black-1830425;Hancock Black Printed Pure Cotton Slim Fit Fo;Draft;Shirts;Hancock;Adults-Men;Men;;;;Fashion;;2017;38,HNCKSHRT00001848,40,HNCKSHRT00001849,42,HNCKSHRT00001850,44,HNCKSHRT00001851;1799.00;;;;;;;;zerotype;;Spring;;No
