Style ID;Vendor Article Number;Vendor Article Name;Active Status;Article type;Brand;Age Group;Gender;Base Colour;Colour1;Colour2;Fashion Type;Usage;Year;Size - SKU code pair;MRP;Style Description;Style Note;Materials and Care Description;Size and Fit Description;Size Chart Path;Product Display Name;Tags;Product Type;Classification Brand;Season;Comments;Upload Images
1928672;TIBTS000005A-Navy Blue-1928672;Tickles Boys T-Shirt cotton Na;Draft;Tshirts;Tickles;Kids-Boys;Boys;;;;Fashion;;2017;2-3Y,TKLSTSHT00001659,3-4Y,TKLSTSHT00001660,4-5Y,TKLSTSHT00001661,5-6Y,TKLSTSHT00001662,6-7Y,TKLSTSHT00001663;799.00;;;;;;;;zerotype;;Summer;;No
1928671;131246515740 C664-PERSIAN JEWEL(C664)-1928671;CC LEVIN TEE H C664;Draft;Tshirts;Palm Tree;Kids-Boys;Boys;;;;Fashion;Casual;2017;10,PMTRTSHT00001869,12,PMTRTSHT00001870,14,PMTRTSHT00001871,16,PMTRTSHT00001872;699.00;;;;;;;;zerotype;;Summer;;No
1928670;131246515740 C664-PERSIAN JEWEL(C664)-1928670;CC LEVIN TEE H C664;Draft;Tshirts;Palm Tree;Kids-Boys;Boys;;;;Fashion;Casual;2017;2,PMTRTSHT00001865,4,PMTRTSHT00001866,6,PMTRTSHT00001867,8,PMTRTSHT00001868;599.00;;;;;;;;zerotype;;Summer;;No
1928669;131246515740 C664-PERSIAN JEWEL(C664)-1928669;CC LEVIN TEE H C664;Draft;Tshirts;Palm Tree;Kids-Boys;Boys;;;;Fashion;Casual;2017;12M,PMTRTSHT00001862,18M,PMTRTSHT00001863,24M,PMTRTSHT00001864;499.00;;;;;;;;zerotype;;Summer;;No
1928668;131246515740 C454-TOMATO(C454)-1928668;CC LEVIN TEE H C454;Draft;Tshirts;Palm Tree;Kids-Boys;Boys;;;;Fashion;Casual;2017;10,PMTRTSHT00001858,12,PMTRTSHT00001859,14,PMTRTSHT00001860,16,PMTRTSHT00001861;699.00;;;;;;;;zerotype;;Summer;;No
1928667;131246515740 C454-TOMATO(C454)-1928667;CC LEVIN TEE H C454;Draft;Tshirts;Palm Tree;Kids-Boys;Boys;;;;Fashion;Casual;2017;2,PMTRTSHT00001854,4,PMTRTSHT00001855,6,PMTRTSHT00001856,8,PMTRTSHT00001857;599.00;;;;;;;;zerotype;;Summer;;No
1928666;131246515740 C454-TOMATO(C454)-1928666;CC LEVIN TEE H C454;Draft;Tshirts;Palm Tree;Kids-Boys;Boys;;;;Fashion;Casual;2017;12M,PMTRTSHT00001851,18M,PMTRTSHT00001852,24M,PMTRTSHT00001853;499.00;;;;;;;;zerotype;;Summer;;No
1928665;131246515736 C101-BRIGHT WHITE(C101)-1928665;CC LANCE TEE H C101;Draft;Tshirts;Palm Tree;Kids-Boys;Boys;;;;Fashion;Casual;2017;10,PMTRTSHT00001847,12,PMTRTSHT00001848,14,PMTRTSHT00001849,16,PMTRTSHT00001850;599.00;;;;;;;;zerotype;;Summer;;No
1928664;131246515736 C101-BRIGHT WHITE(C101)-1928664;CC LANCE TEE H C101;Draft;Tshirts;Palm Tree;Kids-Boys;Boys;;;;Fashion;Casual;2017;2,PMTRTSHT00001843,4,PMTRTSHT00001844,6,PMTRTSHT00001845,8,PMTRTSHT00001846;499.00;;;;;;;;zerotype;;Summer;;No
1928663;131246515736 C101-BRIGHT WHITE(C101)-1928663;CC LANCE TEE H C101;Draft;Tshirts;Palm Tree;Kids-Boys;Boys;;;;Fashion;Casual;2017;12M,PMTRTSHT00001840,18M,PMTRTSHT00001841,24M,PMTRTSHT00001842;399.00;;;;;;;;zerotype;;Summer;;No
1928662;131246515223 C101-BRIGHT WHITE(C101)-1928662;SS SANDERS SAN C101;Draft;Tshirts;Palm Tree;Kids-Boys;Boys;;;;Fashion;Casual;2017;10,PMTRTSHT00001836,12,PMTRTSHT00001837,14,PMTRTSHT00001838,16,PMTRTSHT00001839;549.00;;;;;;;;zerotype;;Summer;;No
1928661;131246515223 C101-BRIGHT WHITE(C101)-1928661;SS SANDERS SAN C101;Draft;Tshirts;Palm Tree;Kids-Boys;Boys;;;;Fashion;Casual;2017;2,PMTRTSHT00001832,4,PMTRTSHT00001833,6,PMTRTSHT00001834,8,PMTRTSHT00001835;449.00;;;;;;;;zerotype;;Summer;;No
1928660;131246515223 C101-BRIGHT WHITE(C101)-1928660;SS SANDERS SAN C101;Draft;Tshirts;Palm Tree;Kids-Boys;Boys;;;;Fashion;Casual;2017;12M,PMTRTSHT00001829,18M,PMTRTSHT00001830,24M,PMTRTSHT00001831;349.00;;;;;;;;zerotype;;Summer;;No
1928659;131246515221 C656-NAVY(C656)-1928659;CR HOPE POLO C656;Draft;Tshirts;Palm Tree;Kids-Boys;Boys;;;;Fashion;Casual;2017;10,PMTRTSHT00001825,12,PMTRTSHT00001826,14,PMTRTSHT00001827,16,PMTRTSHT00001828;899.00;;;;;;;;zerotype;;Summer;;No
1928658;131246515221 C656-NAVY(C656)-1928658;CR HOPE POLO C656;Draft;Tshirts;Palm Tree;Kids-Boys;Boys;;;;Fashion;Casual;2017;2,PMTRTSHT00001821,4,PMTRTSHT00001822,6,PMTRTSHT00001823,8,PMTRTSHT00001824;799.00;;;;;;;;zerotype;;Summer;;No
1928657;131246515221 C656-NAVY(C656)-1928657;CR HOPE POLO C656;Draft;Tshirts;Palm Tree;Kids-Boys;Boys;;;;Fashion;Casual;2017;12M,PMTRTSHT00001818,18M,PMTRTSHT00001819,24M,PMTRTSHT00001820;699.00;;;;;;;;zerotype;;Summer;;No
1928656;GD16RGT015-Pink-1928656;DISNEY GAMME PINK PRINCESS EMBOSS KIDS LUGGAG;Draft;Trolley Bag;Disney;Kids-Girls;Girls;;;;Fashion;;2017;M,DSNYTRBA00000014;5499.00;;;;;;;;zerotype;;Summer;;No
1928655;GD16RGT014-Pink-1928655;DISNEY GAMME PINK PRINCESS EMBOSS KIDS LUGGAG;Draft;Trolley Bag;Disney;Kids-Girls;Girls;;;;Fashion;;2017;M,DSNYTRBA00000013;4699.00;;;;;;;;zerotype;;Summer;;No
1928654;GD16RGT013-Blue-1928654;DISNEY GAMME BLUE FROZEN EMBOSS KIDS LUGGAGE;Draft;Trolley Bag;Disney;Kids-Girls;Girls;;;;Fashion;;2017;M,DSNYTRBA00000012;5499.00;;;;;;;;zerotype;;Summer;;No
1928653;GD16RGT012-Blue-1928653;DISNEY GAMME BLUE FROZEN EMBOSS KIDS LUGGAGE;Draft;Trolley Bag;Disney;Kids-Girls;Girls;;;;Fashion;;2017;M,DSNYTRBA00000011;4699.00;;;;;;;;zerotype;;Summer;;No
1928652;GD16RGT011-Red-1928652;DISNEY GAMME RED MICKEY EMBOSS KIDS LUGGAGE T;Draft;Trolley Bag;Disney;Kids-Boys;Boys;;;;Fashion;;2017;M,DSNYTRBA00000010;5499.00;;;;;;;;zerotype;;Summer;;No
1928651;GD16RGT010-Red-1928651;DISNEY GAMME RED MICKEY EMBOSS KIDS LUGGAGE T;Draft;Trolley Bag;Disney;Kids-Boys;Boys;;;;Fashion;;2017;M,DSNYTRBA00000009;4699.00;;;;;;;;zerotype;;Summer;;No
1928650;GD16RGT003-Red-1928650;DISNEY GAMME RED PIXAR CAR KIDS LUGGAGE TROLL;Draft;Trolley Bag;Disney;Kids-Boys;Boys;;;;Fashion;;2017;M,DSNYTRBA00000008;4599.00;;;;;;;;zerotype;;Summer;;No
1928649;GD16RGT004-Yellow-1928649;DISNEY GAMME YELLOW MICKEY KIDS LUGGAGE TROLL;Draft;Trolley Bag;Disney;Kids-Girls;Girls;;;;Fashion;;2017;M,DSNYTRBA00000007;4599.00;;;;;;;;zerotype;;Summer;;No
1928648;GD16RGT007-Pink-1928648;DISNEY GAMME PIXAR-CAR KIDS SOFT LUGGAGE BLAC;Draft;Trolley Bag;Disney;Kids-Girls;Girls;;;;Fashion;;2017;S,DSNYTRBA00000006;2999.00;;;;;;;;zerotype;;Summer;;No
1928647;GD16RGT006-Pink-1928647;DISNEY GAMME PRINCESS KIDS SOFT LUGGAGE PINK-;Draft;Trolley Bag;Disney;Kids-Girls;Girls;;;;Fashion;;2017;S,DSNYTRBA00000005;2999.00;;;;;;;;zerotype;;Summer;;No
1928646;GD16RGT005-Blue-1928646;DISNEY GAMME FROZEN KIDS SOFT LUGGAGE BLUE- 1;Draft;Trolley Bag;Disney;Kids-Girls;Girls;;;;Fashion;;2017;S,DSNYTRBA00000004;2999.00;;;;;;;;zerotype;;Summer;;No
1928645;GD16RGT016-Pink-1928645;DISNEY GAMME  FROZEN PINK NEW KIDS LUGGAGE TR;Draft;Trolley Bag;Disney;Kids-Girls;Girls;;;;Fashion;;2017;M,DSNYTRBA00000003;4599.00;;;;;;;;zerotype;;Summer;;No
1928644;GD16RGT002-Pink-1928644;DISNEY GAMME  MAGNIFICENT BEAUTI PRINCESS KID;Draft;Trolley Bag;Disney;Kids-Girls;Girls;;;;Fashion;;2017;M,DSNYTRBA00000002;4599.00;;;;;;;;zerotype;;Summer;;No
1928643;GD16RGT001-Blue-1928643;DISNEY GAMME FROZEN GRECEFUL & GORGEOUS KIDS;Draft;Trolley Bag;Disney;Kids-Girls;Girls;;;;Fashion;;2017;M,DSNYTRBA00000001;4599.00;;;;;;;;zerotype;;Summer;;No
1928642;COM_WLT_252_BLT_143-Brown-1928642;COM_WLT_252_BLT_143;Draft;Accessory Gift Set;Teakwood Leathers;Adults-Unisex;Unisex;;;;Fashion;;2017;34,TWLTACGS00000015;2999.00;;;;;;;;zerotype;;Summer;;No
1928641;COM_WLT_144_BLT_115-Black-1928641;COM_WLT_144_BLT_115;Draft;Accessory Gift Set;Teakwood Leathers;Adults-Unisex;Unisex;;;;Fashion;;2017;34,TWLTACGS00000014;2999.00;;;;;;;;zerotype;;Summer;;No
1928640;COM_WLT_138_BLT_194-Brown-1928640;COM_WLT_138_BLT_194;Draft;Accessory Gift Set;Teakwood Leathers;Adults-Unisex;Unisex;;;;Fashion;;2017;34,TWLTACGS00000013;2999.00;;;;;;;;zerotype;;Summer;;No
1928639;COM_WLT_138_BLT_115-Brown-1928639;COM_WLT_138_BLT_115;Draft;Accessory Gift Set;Teakwood Leathers;Adults-Unisex;Unisex;;;;Fashion;;2017;34,TWLTACGS00000012;2999.00;;;;;;;;zerotype;;Summer;;No
1928638;COM_WLT_92_HUNTER_BROWN_BLT_146-Brown-1928638;COM_WLT_92_HUNTER_BROWN_BLT_146;Draft;Accessory Gift Set;Teakwood Leathers;Adults-Unisex;Unisex;;;;Fashion;;2017;34,TWLTACGS00000011;2999.00;;;;;;;;zerotype;;Summer;;No
1928637;COM_WLT_92_BLT_115_1-Brown-1928637;COM_WLT_92_BLT_115_1;Draft;Accessory Gift Set;Teakwood Leathers;Adults-Unisex;Unisex;;;;Fashion;;2017;34,TWLTACGS00000010;2999.00;;;;;;;;zerotype;;Summer;;No
1928636;COM_WLT_92_BLT_115-Brown-1928636;COM_WLT_92_BLT_115;Draft;Accessory Gift Set;Teakwood Leathers;Adults-Unisex;Unisex;;;;Fashion;;2017;34,TWLTACGS00000009;2999.00;;;;;;;;zerotype;;Summer;;No
1928635;COM_WLT_86_BLT_106-Beige-1928635;COM_WLT_86_BLT_106;Draft;Accessory Gift Set;Teakwood Leathers;Adults-Unisex;Unisex;;;;Fashion;;2017;34,TWLTACGS00000008;2999.00;;;;;;;;zerotype;;Summer;;No
1928634;COM_WLT_31_DK_BLACK_BLT__115-Black-1928634;COM_WLT_31_DK_BLACK_BLT__115;Draft;Accessory Gift Set;Teakwood Leathers;Adults-Unisex;Unisex;;;;Fashion;;2017;34,TWLTACGS00000007;2999.00;;;;;;;;zerotype;;Summer;;No
1928633;COM_WLT_31_BROWN_BLT_106-Brown-1928633;COM_WLT_31_BROWN_BLT_106;Draft;Accessory Gift Set;Teakwood Leathers;Adults-Unisex;Unisex;;;;Fashion;;2017;34,TWLTACGS00000006;2999.00;;;;;;;;zerotype;;Summer;;No
1928632;COM_WLT_31_BLT_201-Tan-1928632;COM_WLT_31_BLT_201;Draft;Accessory Gift Set;Teakwood Leathers;Adults-Unisex;Unisex;;;;Fashion;;2017;34,TWLTACGS00000005;2999.00;;;;;;;;zerotype;;Summer;;No
1928631;COM_WLT_31_BLT_115-Tan-1928631;COM_WLT_31_BLT_115;Draft;Accessory Gift Set;Teakwood Leathers;Adults-Unisex;Unisex;;;;Fashion;;2017;34,TWLTACGS00000004;2999.00;;;;;;;;zerotype;;Summer;;No
1928630;COM_WLT_31_BLACK_BLT_110-Black-1928630;COM_WLT_31_BLACK_BLT_110;Draft;Accessory Gift Set;Teakwood Leathers;Adults-Unisex;Unisex;;;;Fashion;;2017;34,TWLTACGS00000003;2999.00;;;;;;;;zerotype;;Summer;;No
1928629;COM_WLT_31_BLACK_BLT_106-Black-1928629;COM_WLT_31_BLACK_BLT_106;Draft;Accessory Gift Set;Teakwood Leathers;Adults-Unisex;Unisex;;;;Fashion;;2017;34,TWLTACGS00000002;2999.00;;;;;;;;zerotype;;Summer;;No
1928628;COM_WLT_21_BLT_149-Brown-1928628;COM_WLT_21_BLT_149;Draft;Accessory Gift Set;Teakwood Leathers;Adults-Unisex;Unisex;;;;Fashion;;2017;34,TWLTACGS00000001;2999.00;;;;;;;;zerotype;;Summer;;No
1928627;131246516066 C101-BRIGHT WHITE(C101)-1928627;CR BOXY SHO C101;Draft;Shorts;Palm Tree;Kids-Boys;Boys;;;;Fashion;Casual;2017;2,PMTRSHOR00087207,4,PMTRSHOR00087208,6,PMTRSHOR00087209,8,PMTRSHOR00087210,10,PMTRSHOR00087211,12,PMTRSHOR00087212,12M,PMTRSHOR00087213,14,PMTRSHOR00087214,16,PMTRSHOR00087215,18M,PMTRSHOR00087216,24M,PMTRSHOR00087217;399.00;;;;;;;;zerotype;;Summer;;No
1928626;131246515356 C601-FAIR AQUA(C601)-1928626;US HENRIKA SHO C601;Draft;Shorts;Palm Tree;Kids-Girls;Girls;;;;Fashion;Casual;2017;2,PMTRSHOR00087196,4,PMTRSHOR00087197,6,PMTRSHOR00087198,8,PMTRSHOR00087199,10,PMTRSHOR00087200,12,PMTRSHOR00087201,12M,PMTRSHOR00087202,14,PMTRSHOR00087203,16,PMTRSHOR00087204,18M,PMTRSHOR00087205,24M,PMTRSHOR00087206;699.00;;;;;;;;zerotype;;Summer;;No
1928625;131246515351 C204-WHITE MELANGE(C204)-1928625;CB CARRIE SHO C204;Draft;Shorts;Palm Tree;Kids-Girls;Girls;;;;Fashion;Casual;2017;2,PMTRSHOR00087185,4,PMTRSHOR00087186,6,PMTRSHOR00087187,8,PMTRSHOR00087188,10,PMTRSHOR00087189,12,PMTRSHOR00087190,12M,PMTRSHOR00087191,14,PMTRSHOR00087192,16,PMTRSHOR00087193,18M,PMTRSHOR00087194,24M,PMTRSHOR00087195;499.00;;;;;;;;zerotype;;Summer;;No
1928620;131246515277 C452-HOT CORAL(C452)-1928620;SS SILVER BRM C452;Draft;Shorts;Palm Tree;Kids-Boys;Boys;;;;Fashion;Casual;2017;2,PMTRSHOR00087174,4,PMTRSHOR00087175,6,PMTRSHOR00087176,8,PMTRSHOR00087177,10,PMTRSHOR00087178,12,PMTRSHOR00087179,12M,PMTRSHOR00087180,14,PMTRSHOR00087181,16,PMTRSHOR00087182,18M,PMTRSHOR00087183,24M,PMTRSHOR00087184;799.00;;;;;;;;zerotype;;Summer;;No
1928618;TIBds000005A-Dark Wash-1928618;Tickles Boys Denim Denim Drk W;Draft;Shorts;Tickles;Kids-Boys;Boys;;;;Fashion;;2017;2-3Y,TKLSSHOR00000451,3-4Y,TKLSSHOR00000452,4-5Y,TKLSSHOR00000453,5-6Y,TKLSSHOR00000454,6-7Y,TKLSSHOR00000455;1149.00;;;;;;;;zerotype;;Summer;;No
1928616;TIBds000004A-Light Wash-1928616;Tickles Boys Denim Denim Lt Wa;Draft;Shorts;Tickles;Kids-Boys;Boys;;;;Fashion;;2017;2-3Y,TKLSSHOR00000446,3-4Y,TKLSSHOR00000447,4-5Y,TKLSSHOR00000448,5-6Y,TKLSSHOR00000449,6-7Y,TKLSSHOR00000450;1149.00;;;;;;;;zerotype;;Summer;;No
1928615;TIBWS000047A-Blue-1928615;Tickles Boys Woven Sh WOV Blue;Draft;Shorts;Tickles;Kids-Boys;Boys;;;;Fashion;;2017;2-3Y,TKLSSHOR00000441,3-4Y,TKLSSHOR00000442,4-5Y,TKLSSHOR00000443,5-6Y,TKLSSHOR00000444,6-7Y,TKLSSHOR00000445;999.00;;;;;;;;zerotype;;Summer;;No
1928610;TIBWS000036A-Blue-1928610;Tickles Boys Woven Sh poplin B;Draft;Shorts;Tickles;Kids-Boys;Boys;;;;Fashion;;2017;2-3Y,TKLSSHOR00000436,3-4Y,TKLSSHOR00000437,4-5Y,TKLSSHOR00000438,5-6Y,TKLSSHOR00000439,6-7Y,TKLSSHOR00000440;849.00;;;;;;;;zerotype;;Summer;;No
1928607;TIBWS000035A-Black-1928607;Tickles Boys Woven Sh poplin B;Draft;Shorts;Tickles;Kids-Boys;Boys;;;;Fashion;;2017;2-3Y,TKLSSHOR00000431,3-4Y,TKLSSHOR00000432,4-5Y,TKLSSHOR00000433,5-6Y,TKLSSHOR00000434,6-7Y,TKLSSHOR00000435;849.00;;;;;;;;zerotype;;Summer;;No
1928606;GT-SR-6-Blue-1928606;GT-SR-6-Blue;Draft;Casual Shoes;Kielz;Adults-Men;Men;;;;Fashion;;2017;EURO40,KELZCASH00001837,EURO41,KELZCASH00001838,EURO42,KELZCASH00001839,EURO43,KELZCASH00001840,EURO44,KELZCASH00001841;2499.00;;;;;;;;zerotype;;Summer;;No
1928603;GT-SR-6-Black-1928603;GT-SR-6-Black;Draft;Casual Shoes;Kielz;Adults-Men;Men;;;;Fashion;;2017;EURO40,KELZCASH00001832,EURO41,KELZCASH00001833,EURO42,KELZCASH00001834,EURO43,KELZCASH00001835,EURO44,KELZCASH00001836;2499.00;;;;;;;;zerotype;;Summer;;No
1928602;GT-SR-4-Brown-1928602;GT-SR-4-Brown;Draft;Casual Shoes;Kielz;Adults-Men;Men;;;;Fashion;;2017;EURO40,KELZCASH00001827,EURO41,KELZCASH00001828,EURO42,KELZCASH00001829,EURO43,KELZCASH00001830,EURO44,KELZCASH00001831;2499.00;;;;;;;;zerotype;;Summer;;No
1928600;GT-SR-4-Blue-1928600;GT-SR-4-Blue;Draft;Casual Shoes;Kielz;Adults-Men;Men;;;;Fashion;;2017;EURO40,KELZCASH00001822,EURO41,KELZCASH00001823,EURO42,KELZCASH00001824,EURO43,KELZCASH00001825,EURO44,KELZCASH00001826;2499.00;;;;;;;;zerotype;;Summer;;No
1928598;GT-SR-4-Black-1928598;GT-SR-4-Black;Draft;Casual Shoes;Kielz;Adults-Men;Men;;;;Fashion;;2017;EURO40,KELZCASH00001817,EURO41,KELZCASH00001818,EURO42,KELZCASH00001819,EURO43,KELZCASH00001820,EURO44,KELZCASH00001821;2499.00;;;;;;;;zerotype;;Summer;;No
1928595;GT-SR-3-Blue-1928595;GT-SR-3-Blue;Draft;Casual Shoes;Kielz;Adults-Men;Men;;;;Fashion;;2017;EURO40,KELZCASH00001812,EURO41,KELZCASH00001813,EURO42,KELZCASH00001814,EURO43,KELZCASH00001815,EURO44,KELZCASH00001816;2499.00;;;;;;;;zerotype;;Summer;;No
1928593;GT-SR-001-Tan-1928593;GT-SR-001-Tan;Draft;Casual Shoes;Kielz;Adults-Men;Men;;;;Fashion;;2017;EURO40,KELZCASH00001807,EURO41,KELZCASH00001808,EURO42,KELZCASH00001809,EURO43,KELZCASH00001810,EURO44,KELZCASH00001811;2999.00;;;;;;;;zerotype;;Summer;;No
1928592;GT-SR-001-Red-1928592;GT-SR-001-Red;Draft;Casual Shoes;Kielz;Adults-Men;Men;;;;Fashion;;2017;EURO40,KELZCASH00001802,EURO41,KELZCASH00001803,EURO42,KELZCASH00001804,EURO43,KELZCASH00001805,EURO44,KELZCASH00001806;2999.00;;;;;;;;zerotype;;Summer;;No
1928590;GT-SR-001-Blue-1928590;GT-SR-001-Blue;Draft;Casual Shoes;Kielz;Adults-Men;Men;;;;Fashion;;2017;EURO40,KELZCASH00001797,EURO41,KELZCASH00001798,EURO42,KELZCASH00001799,EURO43,KELZCASH00001800,EURO44,KELZCASH00001801;2999.00;;;;;;;;zerotype;;Summer;;No
1928588;GT-SR-001-Black-1928588;GT-SR-001-Black;Draft;Casual Shoes;Kielz;Adults-Men;Men;;;;Fashion;;2017;EURO40,KELZCASH00001792,EURO41,KELZCASH00001793,EURO42,KELZCASH00001794,EURO43,KELZCASH00001795,EURO44,KELZCASH00001796;2999.00;;;;;;;;zerotype;;Summer;;No
1928585;GT-SKL-111-White-1928585;GT-SKL-111-White;Draft;Casual Shoes;Kielz;Adults-Men;Men;;;;Fashion;;2017;EURO40,KELZCASH00001787,EURO41,KELZCASH00001788,EURO42,KELZCASH00001789,EURO43,KELZCASH00001790,EURO44,KELZCASH00001791;1899.00;;;;;;;;zerotype;;Summer;;No
1928583;GT-SKL-111-Red-1928583;GT-SKL-111-Red;Draft;Casual Shoes;Kielz;Adults-Men;Men;;;;Fashion;;2017;EURO40,KELZCASH00001782,EURO41,KELZCASH00001783,EURO42,KELZCASH00001784,EURO43,KELZCASH00001785,EURO44,KELZCASH00001786;1899.00;;;;;;;;zerotype;;Summer;;No
1928581;GT-SKL-111-Blue-1928581;GT-SKL-111-Blue;Draft;Casual Shoes;Kielz;Adults-Men;Men;;;;Fashion;;2017;EURO40,KELZCASH00001777,EURO41,KELZCASH00001778,EURO42,KELZCASH00001779,EURO43,KELZCASH00001780,EURO44,KELZCASH00001781;1899.00;;;;;;;;zerotype;;Summer;;No
1928579;GT-SKL-111-Black-1928579;GT-SKL-111-Black;Draft;Casual Shoes;Kielz;Adults-Men;Men;;;;Fashion;;2017;EURO40,KELZCASH00001772,EURO41,KELZCASH00001773,EURO42,KELZCASH00001774,EURO43,KELZCASH00001775,EURO44,KELZCASH00001776;1899.00;;;;;;;;zerotype;;Summer;;No
1928577;TIBTR000114A-Beige-1928577;Tickles Boys Woven Pa cotton B;Draft;Trousers;Tickles;Kids-Boys;Boys;;;;Fashion;;2017;2-3Y,TKLSTRSR00000242,3-4Y,TKLSTRSR00000243,4-5Y,TKLSTRSR00000244,5-6Y,TKLSTRSR00000245,6-7Y,TKLSTRSR00000246;1149.00;;;;;;;;zerotype;;Summer;;No
1928575;TIBTR000113A-Black-1928575;Tickles Boys Woven Pa cotton B;Draft;Trousers;Tickles;Kids-Boys;Boys;;;;Fashion;;2017;2-3Y,TKLSTRSR00000237,3-4Y,TKLSTRSR00000238,4-5Y,TKLSTRSR00000239,5-6Y,TKLSTRSR00000240,6-7Y,TKLSTRSR00000241;1149.00;;;;;;;;zerotype;;Summer;;No
1928573;TIBJN000046A-Drk Blue-1928573;Tickles Boys Jean cotton Drk B;Draft;Jeans;Tickles;Kids-Boys;Boys;;;;Fashion;;2017;2-3Y,TKLSJENS00000296,3-4Y,TKLSJENS00000297,4-5Y,TKLSJENS00000298,6-7Y,TKLSJENS00000299;1099.00;;;;;;;;zerotype;;Summer;;No
1928571;TIBSH000160A-Blue-1928571;Tickles Boys Shirt poplin Blue;Draft;Shirts;Tickles;Kids-Boys;Boys;;;;Fashion;;2017;2-3Y,TKLSSHRT00000406,3-4Y,TKLSSHRT00000407,4-5Y,TKLSSHRT00000408,5-6Y,TKLSSHRT00000409,6-7Y,TKLSSHRT00000410;1149.00;;;;;;;;zerotype;;Summer;;No
1928569;TIBSH000159A-Yellow-1928569;Tickles Boys Shirt poplin Yell;Draft;Shirts;Tickles;Kids-Boys;Boys;;;;Fashion;;2017;2-3Y,TKLSSHRT00000401,3-4Y,TKLSSHRT00000402,4-5Y,TKLSSHRT00000403,5-6Y,TKLSSHRT00000404,6-7Y,TKLSSHRT00000405;1149.00;;;;;;;;zerotype;;Summer;;No
1928567;TIBSH000151A-Maroon-1928567;Tickles Boys Shirt cotton Maro;Draft;Shirts;Tickles;Kids-Boys;Boys;;;;Fashion;;2017;2-3Y,TKLSSHRT00000396,3-4Y,TKLSSHRT00000397,4-5Y,TKLSSHRT00000398,5-6Y,TKLSSHRT00000399,6-7Y,TKLSSHRT00000400;899.00;;;;;;;;zerotype;;Summer;;No
1928565;TIBSH000150A-Olive-1928565;Tickles Boys Shirt cotton Oliv;Draft;Shirts;Tickles;Kids-Boys;Boys;;;;Fashion;;2017;2-3Y,TKLSSHRT00000391,3-4Y,TKLSSHRT00000392,4-5Y,TKLSSHRT00000393,5-6Y,TKLSSHRT00000394,6-7Y,TKLSSHRT00000395;899.00;;;;;;;;zerotype;;Summer;;No
1928563;TIBSH000149A-Blue-1928563;Tickles Boys Shirt cotton Blue;Draft;Shirts;Tickles;Kids-Boys;Boys;;;;Fashion;;2017;2-3Y,TKLSSHRT00000386,3-4Y,TKLSSHRT00000387,4-5Y,TKLSSHRT00000388,5-6Y,TKLSSHRT00000389,6-7Y,TKLSSHRT00000390;899.00;;;;;;;;zerotype;;Summer;;No
1928561;TIBSH000147A-Navy-1928561;Tickles Boys Shirt cotton Navy;Draft;Shirts;Tickles;Kids-Boys;Boys;;;;Fashion;;2017;2-3Y,TKLSSHRT00000381,3-4Y,TKLSSHRT00000382,4-5Y,TKLSSHRT00000383,5-6Y,TKLSSHRT00000384,6-7Y,TKLSSHRT00000385;899.00;;;;;;;;zerotype;;Summer;;No
1928559;131246515782 C101-white-1928559;SM ALFIE TOP C101;Draft;Tops;Palm Tree;Kids-Girls;Girls;;;;Fashion;Casual;2017;18M,PMTRTOPS00100659,24M,PMTRTOPS00100660;349.00;;;;;;;;zerotype;;Summer;;No
1928558;131246515782 C101-white-1928558;SM ALFIE TOP C101;Draft;Tops;Palm Tree;Kids-Girls;Girls;;;;Fashion;Casual;2017;14,PMTRTOPS00100657,16,PMTRTOPS00100658;449.00;;;;;;;;zerotype;;Summer;;No
1928557;131246515782 C101-white-1928557;SM ALFIE TOP C101;Draft;Tops;Palm Tree;Kids-Girls;Girls;;;;Fashion;Casual;2017;12M,PMTRTOPS00100656;349.00;;;;;;;;zerotype;;Summer;;No
1928556;131246515782 C101-white-1928556;SM ALFIE TOP C101;Draft;Tops;Palm Tree;Kids-Girls;Girls;;;;Fashion;Casual;2017;10,PMTRTOPS00100654,12,PMTRTOPS00100655;449.00;;;;;;;;zerotype;;Summer;;No
1928554;131246515782 C101-white-1928554;SM ALFIE TOP C101;Draft;Tops;Palm Tree;Kids-Girls;Girls;;;;Fashion;Casual;2017;2,PMTRTOPS00100650,4,PMTRTOPS00100651,6,PMTRTOPS00100652,8,PMTRTOPS00100653;399.00;;;;;;;;zerotype;;Summer;;No
1928553;131246515320 C404-pink-1928553;CB CANDACE TOP C404;Draft;Tops;Palm Tree;Kids-Girls;Girls;;;;Fashion;Casual;2017;18M,PMTRTOPS00100648,24M,PMTRTOPS00100649;449.00;;;;;;;;zerotype;;Summer;;No
1928551;131246515320 C404-pink-1928551;CB CANDACE TOP C404;Draft;Tops;Palm Tree;Kids-Girls;Girls;;;;Fashion;Casual;2017;14,PMTRTOPS00100646,16,PMTRTOPS00100647;649.00;;;;;;;;zerotype;;Summer;;No
1928550;131246515320 C404-pink-1928550;CB CANDACE TOP C404;Draft;Tops;Palm Tree;Kids-Girls;Girls;;;;Fashion;Casual;2017;12M,PMTRTOPS00100645;449.00;;;;;;;;zerotype;;Summer;;No
1928549;131246515320 C404-pink-1928549;CB CANDACE TOP C404;Draft;Tops;Palm Tree;Kids-Girls;Girls;;;;Fashion;Casual;2017;10,PMTRTOPS00100643,12,PMTRTOPS00100644;649.00;;;;;;;;zerotype;;Summer;;No
1928547;131246515320 C404-pink-1928547;CB CANDACE TOP C404;Draft;Tops;Palm Tree;Kids-Girls;Girls;;;;Fashion;Casual;2017;2,PMTRTOPS00100639,4,PMTRTOPS00100640,6,PMTRTOPS00100641,8,PMTRTOPS00100642;549.00;;;;;;;;zerotype;;Summer;;No
1928415;131246515319 C656-black-1928415;CB CAMERON TOP C656;Draft;Tops;Palm Tree;Kids-Girls;Girls;;;;Fashion;Casual;2017;10,PMTRTOPS00100637,12,PMTRTOPS00100638;449.00;;;;;;;;zerotype;;Summer;;No
1928414;131246515319 C656-black-1928414;CB CAMERON TOP C656;Draft;Tops;Palm Tree;Kids-Girls;Girls;;;;Fashion;Casual;2017;2,PMTRTOPS00100633,4,PMTRTOPS00100634,6,PMTRTOPS00100635,8,PMTRTOPS00100636;399.00;;;;;;;;zerotype;;Summer;;No
1928413;AF18-Cream-1928413;Banarasi Cotton Slub Red Color Saree;Draft;Sarees;Avishi;Adults-Women;Women;;;;Fashion;Ethnic;2017;Onesize,AVISSARS00000055;1299.00;;;;;;;;zerotype;;Summer;;No
1928412;AF17-Cream-1928412;Banarasi Cotton Slub Blue Color Saree;Draft;Sarees;Avishi;Adults-Women;Women;;;;Fashion;Ethnic;2017;Onesize,AVISSARS00000054;1299.00;;;;;;;;zerotype;;Summer;;No
1928411;AF16-Cream-1928411;Banarasi Cotton Slub Pink Color Saree;Draft;Sarees;Avishi;Adults-Women;Women;;;;Fashion;Ethnic;2017;Onesize,AVISSARS00000053;1299.00;;;;;;;;zerotype;;Summer;;No
1928410;AF15-Cream-1928410;Banarasi Cotton Slub Yellow Color Saree;Draft;Sarees;Avishi;Adults-Women;Women;;;;Fashion;Ethnic;2017;Onesize,AVISSARS00000052;1299.00;;;;;;;;zerotype;;Summer;;No
1928409;RZ98-Black-1928409;Banarasi Cotton Silk Red Color Saree;Draft;Sarees;Avishi;Adults-Women;Women;;;;Fashion;Ethnic;2017;Onesize,AVISSARS00000051;2699.00;;;;;;;;zerotype;;Summer;;No
1928408;RZ97-Blue-1928408;Banarasi Viscose Silk Sky Blue Color Saree;Draft;Sarees;Avishi;Adults-Women;Women;;;;Fashion;Ethnic;2017;Onesize,AVISSARS00000050;2599.00;;;;;;;;zerotype;;Summer;;No
1928407;RZ96-Beige-1928407;Banarasi Mercerize Cotton Blue Color Saree;Draft;Sarees;Avishi;Adults-Women;Women;;;;Fashion;Ethnic;2017;Onesize,AVISSARS00000049;2999.00;;;;;;;;zerotype;;Summer;;No
1928406;RZ95-Black-1928406;Banarasi Mercerize Cotton Black Color Saree;Draft;Sarees;Avishi;Adults-Women;Women;;;;Fashion;Ethnic;2017;Onesize,AVISSARS00000048;3149.00;;;;;;;;zerotype;;Summer;;No
1928405;RZ94-Black-1928405;Banarasi Cotton Silk Green Color Saree;Draft;Sarees;Avishi;Adults-Women;Women;;;;Fashion;Ethnic;2017;Onesize,AVISSARS00000047;2699.00;;;;;;;;zerotype;;Summer;;No
1928404;RZ93-Brown-1928404;Banarasi Mercerize Cotton Brown Color Saree;Draft;Sarees;Avishi;Adults-Women;Women;;;;Fashion;Ethnic;2017;Onesize,AVISSARS00000046;3149.00;;;;;;;;zerotype;;Summer;;No
1928403;RZ92-Cream-1928403;Banarasi Mercerize Cotton Cream Color Saree;Draft;Sarees;Avishi;Adults-Women;Women;;;;Fashion;Ethnic;2017;Onesize,AVISSARS00000045;3499.00;;;;;;;;zerotype;;Summer;;No
1928402;RZ91-Silver-1928402;Banarasi Mercerize Cotton Silver Color Saree;Draft;Sarees;Avishi;Adults-Women;Women;;;;Fashion;Ethnic;2017;Onesize,AVISSARS00000044;3149.00;;;;;;;;zerotype;;Summer;;No
1928401;RZ90-Beige-1928401;Banarasi Mercerize Cotton Orange Color Saree;Draft;Sarees;Avishi;Adults-Women;Women;;;;Fashion;Ethnic;2017;Onesize,AVISSARS00000043;2999.00;;;;;;;;zerotype;;Summer;;No
1928400;RZ86-Blue-1928400;Banarasi Lavender Cotton Silk Saree;Draft;Sarees;Avishi;Adults-Women;Women;;;;Fashion;Ethnic;2017;Onesize,AVISSARS00000042;2499.00;;;;;;;;zerotype;;Summer;;No
1793652;FR2-Purple-1793652;Banarasi Purple Supernet  Saree;Inactive - Marketplace - Reject;Sarees;Avishi;Adults-Women;Women;Purple;;;Fashion;Ethnic;2017;Onesize,AVISTDSR00000525;2699.00;<a href='/purple-traditional-saree?src=pd' class='seolink'>Purple traditional saree</a>, has zari woven design throughout, zari woven border<br />Comes with a <a href='/blouse?src=pd' class='seolink'>blouse</a> piece<br />The model is wearing a blouse from our stylist's collection, see the image for a mock-up of what the actual blouse would look like;<p>This beautiful traditional saree is sure to make you feel like an ethnic diva. We suggest that you team it with matching jewellery and heels for a great look.</p>;<p>Banarasi supernet<br />Hand-wash</p>;<p>Length: 5.5 metres plus 0.8 metre blouse piece<br />Width: 1.06 metres</p>;;Avishi Purple Banarasi Supernet Traditional Saree;Avishi,JIT;zerotype;;Summer;Colour mismatch;No
1327940;RZ35-Black-1327940;Banarasi Cotton Viscose Black Color Sare;Inactive - Marketplace - Reject;Sarees;Avishi;Adults-Women;Women;Black;;;Fashion;Ethnic;2016;Onesize,AVISTDSR00000473;2499.00;<a href='/black?src=pd' class='seolink'>Black</a> traditional <a href='/saree?src=pd' class='seolink'>saree</a>, has contrast woven detail throughout, a zari woven border<br>Comes with a <a href='/blouse?src=pd' class='seolink'>blouse</a> piece<br>The model is wearing a blouse from our stylist's collection, see the image for a mock-up of what the actual blouse would look like<br>;<p>Look beautiful in this traditional saree from Avishi. We suggest that you team this gorgeous piece with matching jewellery and embellished heels for a great look.</p>;<p>Cotton and viscose<br>Dry-clean</p>;<p>Length: 5.5 metres plus 0.8 metre blouse piece</p>;;Avishi Black Banarasi Cotton & Viscose Traditional Saree;Avishi,JIT;zerotype;;Summer;No image;No
