Style ID;Vendor Article Number;Vendor Article Name;Active Status;Article type;Brand;Age Group;Gender;Base Colour;Colour1;Colour2;Fashion Type;Usage;Year;Size - SKU code pair;MRP;Style Description;Style Note;Materials and Care Description;Size and Fit Description;Size Chart Path;Product Display Name;Tags;Product Type;Classification Brand;Season;Comments;Upload Images
2007193;NLV-246-Red-2007193;NLV-246-Red-6;Draft;Flats;Nell;Adults-Women;Women;Red;;;Fashion;;2017;EURO 36,NELLFlats00009033,EURO 37,NELLFlats00009034,EURO 38,NELLFlats00009035,EURO 39,NELLFlats00009036,EURO 40,NELLFlats00009037,EURO 41,NELLFlats00009038;1685.00;;;<p>wipe with dry cloth</p>;;;;;zerotype;;Fall;;No
2007186;NLR-256-Yellow-2007186;NLR-256-Yellow-6;Draft;Flats;Nell;Adults-Women;Women;Yellow;;;Fashion;;2017;EURO 36,NELLFlats00009027,EURO 37,NELLFlats00009028,EURO 38,NELLFlats00009029,EURO 39,NELLFlats00009030,EURO 40,NELLFlats00009031,EURO 41,NELLFlats00009032;1685.00;;;<p>wipe with dry cloth</p>;;;;;zerotype;;Fall;;No
2007185;NLR-060-Green-2007185;NLR-060-Green-6;Draft;Flats;Nell;Adults-Women;Women;Green;;;Fashion;;2017;EURO 36,NELLFlats00009021,EURO 37,NELLFlats00009022,EURO 38,NELLFlats00009023,EURO 39,NELLFlats00009024,EURO 40,NELLFlats00009025,EURO 41,NELLFlats00009026;1585.00;;;<p>wipe with dry cloth</p>;;;;;zerotype;;Fall;;No
2007184;NLR-060-Brown-2007184;NLR-060-Brown-6;Draft;Flats;Nell;Adults-Women;Women;Brown;;;Fashion;;2017;EURO 36,NELLFlats00009015,EURO 37,NELLFlats00009016,EURO 38,NELLFlats00009017,EURO 39,NELLFlats00009018,EURO 40,NELLFlats00009019,EURO 41,NELLFlats00009020;1585.00;;;<p>wipe with dry cloth</p>;;;;;zerotype;;Fall;;No
2007183;NLK-012-Green-2007183;NLK-012-Green-6;Draft;Casual Shoes;Nell;Adults-Women;Women;Green;;;Fashion;;2017;EURO 36,NELLCASH00002941,EURO 37,NELLCASH00002942,EURO 38,NELLCASH00002943,EURO 39,NELLCASH00002944,EURO 40,NELLCASH00002945,EURO 41,NELLCASH00002946;1585.00;;;<p>wipe with dry cloth</p>;;;;;zerotype;;Fall;;No
2007181;NLH-231-Grey-2007181;NLH-231-Grey-6;Draft;Casual Shoes;Nell;Adults-Women;Women;Grey;;;Fashion;;2017;EURO 36,NELLCASH00002935,EURO 37,NELLCASH00002936,EURO 38,NELLCASH00002937,EURO 39,NELLCASH00002938,EURO 40,NELLCASH00002939,EURO 41,NELLCASH00002940;1585.00;;;<p>wipe with dry cloth</p>;;;;;zerotype;;Fall;;No
2007180;NLH-230-White-2007180;NLH-230-White-6;Draft;Casual Shoes;Nell;Adults-Women;Women;White;;;Fashion;;2017;EURO 36,NELLCASH00002929,EURO 37,NELLCASH00002930,EURO 38,NELLCASH00002931,EURO 39,NELLCASH00002932,EURO 40,NELLCASH00002933,EURO 41,NELLCASH00002934;1585.00;;;<p>wipe with dry cloth</p>;;;;;zerotype;;Fall;;No
2007178;NLH-226-Black-2007178;NLH-226-Black-6;Draft;Casual Shoes;Nell;Adults-Women;Women;Black;;;Fashion;;2017;EURO 36,NELLCASH00002923,EURO 37,NELLCASH00002924,EURO 38,NELLCASH00002925,EURO 39,NELLCASH00002926,EURO 40,NELLCASH00002927,EURO 41,NELLCASH00002928;1585.00;;;<p>wipe with dry cloth</p>;;;;;zerotype;;Fall;;No
2007152;NLH-225-Blue-2007152;NLH-225-Blue-6;Draft;Casual Shoes;Nell;Adults-Women;Women;Blue;;;Fashion;;2017;EURO 36,NELLCASH00002917,EURO 37,NELLCASH00002918,EURO 38,NELLCASH00002919,EURO 39,NELLCASH00002920,EURO 40,NELLCASH00002921,EURO 41,NELLCASH00002922;1585.00;;;<p>wipe with dry cloth</p>;;;;;zerotype;;Fall;;No
2007126;NLH-221-Green-2007126;NLH-221-Green-6;Draft;Casual Shoes;Nell;Adults-Women;Women;Green;;;Fashion;;2017;EURO 36,NELLCASH00002911,EURO 37,NELLCASH00002912,EURO 38,NELLCASH00002913,EURO 39,NELLCASH00002914,EURO 40,NELLCASH00002915,EURO 41,NELLCASH00002916;1585.00;;;<p>wipe with dry cloth</p>;;;;;zerotype;;Fall;;No
2007092;HP2016-233-Brown-2007092;HP2016-233-Brown-6;Draft;Casual Shoes;Nell;Adults-Women;Women;Brown;;;Fashion;;2017;EURO 36,NELLCASH00002905,EURO 37,NELLCASH00002906,EURO 38,NELLCASH00002907,EURO 39,NELLCASH00002908,EURO 40,NELLCASH00002909,EURO 41,NELLCASH00002910;1585.00;;;<p>wipe with dry cloth</p>;;;;;zerotype;;Fall;;No
2007071;HP2016-232-Blue-2007071;HP2016-232-Blue-6;Draft;Casual Shoes;Nell;Adults-Women;Women;Blue;;;Fashion;;2017;EURO 36,NELLCASH00002899,EURO 37,NELLCASH00002900,EURO 38,NELLCASH00002901,EURO 39,NELLCASH00002902,EURO 40,NELLCASH00002903,EURO 41,NELLCASH00002904;1585.00;;;<p>wipe with dry cloth</p>;;;;;zerotype;;Fall;;No
2007030;VK2016-45-Pink-2007030;VK2016-45-Pink-6;Draft;Heels;Nell;Adults-Women;Women;Pink;;;Fashion;;2017;EURO 36,NELLHeels00011487,EURO 37,NELLHeels00011488,EURO 38,NELLHeels00011489,EURO 39,NELLHeels00011490,EURO 40,NELLHeels00011491,EURO 41,NELLHeels00011492;1785.00;;;<p>wipe with dry cloth</p>;;;;;zerotype;;Fall;;No
2007023;VK2016-45-Blue-2007023;VK2016-45-Blue-6;Draft;Heels;Nell;Adults-Women;Women;Blue;;;Fashion;;2017;EURO 36,NELLHeels00011481,EURO 37,NELLHeels00011482,EURO 38,NELLHeels00011483,EURO 39,NELLHeels00011484,EURO 40,NELLHeels00011485,EURO 41,NELLHeels00011486;1785.00;;;<p>wipe with dry cloth</p>;;;;;zerotype;;Fall;;No
2007015;NLV-239-Silver-2007015;NLV-239-Silver-6;Draft;Heels;Nell;Adults-Women;Women;Silver;;;Fashion;;2017;EURO 36,NELLHeels00011475,EURO 37,NELLHeels00011476,EURO 38,NELLHeels00011477,EURO 39,NELLHeels00011478,EURO 40,NELLHeels00011479,EURO 41,NELLHeels00011480;1985.00;;;<p>wipe with dry cloth</p>;;;;;zerotype;;Fall;;No
2007007;NLM-264-Beige-2007007;NLM-264-Beige-6;Draft;Heels;Nell;Adults-Women;Women;Beige;;;Fashion;;2017;EURO 36,NELLHeels00011469,EURO 37,NELLHeels00011470,EURO 38,NELLHeels00011471,EURO 39,NELLHeels00011472,EURO 40,NELLHeels00011473,EURO 41,NELLHeels00011474;1985.00;;;<p>wipe with dry cloth</p>;;;;;zerotype;;Fall;;No
2007000;NLL-161-Multi-2007000;NLL-161-Multi-6;Draft;Heels;Nell;Adults-Women;Women;Multi;;;Fashion;;2017;EURO 36,NELLHeels00011463,EURO 37,NELLHeels00011464,EURO 38,NELLHeels00011465,EURO 39,NELLHeels00011466,EURO 40,NELLHeels00011467,EURO 41,NELLHeels00011468;1585.00;;;<p>wipe with dry cloth</p>;;;;;zerotype;;Fall;;No
2006995;NLL-158-Multi-2006995;NLL-158-Multi-6;Draft;Heels;Nell;Adults-Women;Women;Multi;;;Fashion;;2017;EURO 36,NELLHeels00011457,EURO 37,NELLHeels00011458,EURO 38,NELLHeels00011459,EURO 39,NELLHeels00011460,EURO 40,NELLHeels00011461,EURO 41,NELLHeels00011462;1585.00;;;<p>wipe with dry cloth</p>;;;;;zerotype;;Fall;;No
2006990;NLB-263-Multi-2006990;NLB-263-Multi-6;Draft;Heels;Nell;Adults-Women;Women;Multi;;;Fashion;;2017;EURO 36,NELLHeels00011451,EURO 37,NELLHeels00011452,EURO 38,NELLHeels00011453,EURO 39,NELLHeels00011454,EURO 40,NELLHeels00011455,EURO 41,NELLHeels00011456;1985.00;;;<p>wipe with dry cloth</p>;;;;;zerotype;;Fall;;No
2006986;NLB-183-Blue-2006986;NLB-183-Blue-6;Draft;Heels;Nell;Adults-Women;Women;Blue;;;Fashion;;2017;EURO 36,NELLHeels00011445,EURO 37,NELLHeels00011446,EURO 38,NELLHeels00011447,EURO 39,NELLHeels00011448,EURO 40,NELLHeels00011449,EURO 41,NELLHeels00011450;1985.00;;;<p>wipe with dry cloth</p>;;;;;zerotype;;Fall;;No
2006977;ML2016-18-Multi-2006977;ML2016-18-Multi-6;Draft;Heels;Nell;Adults-Women;Women;Multi;;;Fashion;;2017;EURO 36,NELLHeels00011439,EURO 37,NELLHeels00011440,EURO 38,NELLHeels00011441,EURO 39,NELLHeels00011442,EURO 40,NELLHeels00011443,EURO 41,NELLHeels00011444;1985.00;;;<p>wipe with dry cloth</p>;;;;;zerotype;;Fall;;No
