Style ID;Vendor Article Number;Vendor Article Name;Active Status;Article type;Brand;Age Group;Gender;Base Colour;Colour1;Colour2;Fashion Type;Usage;Year;Size - SKU code pair;MRP;Style Description;Style Note;Materials and Care Description;Size and Fit Description;Size Chart Path;Product Display Name;Tags;Product Type;Classification Brand;Season;Comments;Upload Images
2042431;BSS0413-Tan-2042431;Bond Street By Red Tape Men Tan Formal Shoes;Draft;Formal Shoes;Bond Street By Red Tape;Adults-Men;Men;Tan;Tan;;Fashion;Formal;2017;UK6,BSRTFOSH00000205,UK7,BSRTFOSH00000206,UK8,BSRTFOSH00000207,UK9,BSRTFOSH00000208,UK10,BSRTFOSH00000209,UK11,BSRTFOSH00000210;2995.00;;;;;;;;zerotype;;Summer;;No
2042430;BSS0743-Tan-2042430;Bond Street By Red Tape Men Tan Formal Shoes;Draft;Formal Shoes;Bond Street By Red Tape;Adults-Men;Men;Tan;Tan;;Fashion;Formal;2017;UK6,BSRTFOSH00000199,UK7,BSRTFOSH00000200,UK8,BSRTFOSH00000201,UK9,BSRTFOSH00000202,UK10,BSRTFOSH00000203,UK11,BSRTFOSH00000204;2995.00;;;;;;;;zerotype;;Summer;;No
2042429;BSS0732-Brown-2042429;Bond Street By Red Tape Men Brown Formal Shoe;Draft;Formal Shoes;Bond Street By Red Tape;Adults-Men;Men;Brown;Brown;;Fashion;Formal;2017;UK6,BSRTFOSH00000193,UK7,BSRTFOSH00000194,UK8,BSRTFOSH00000195,UK9,BSRTFOSH00000196,UK10,BSRTFOSH00000197,UK11,BSRTFOSH00000198;2995.00;;;;;;;;zerotype;;Summer;;No
2042428;BSS0092-Brown-2042428;Bond Street By Red Tape Men Brown Formal Shoe;Draft;Formal Shoes;Bond Street By Red Tape;Adults-Men;Men;Brown;Brown;;Fashion;Formal;2017;UK6,BSRTFOSH00000187,UK7,BSRTFOSH00000188,UK8,BSRTFOSH00000189,UK9,BSRTFOSH00000190,UK10,BSRTFOSH00000191,UK11,BSRTFOSH00000192;2995.00;;;;;;;;zerotype;;Summer;;No
2042427;BSS0182-Brown-2042427;Bond Street By Red Tape Men Brown Formal Shoe;Draft;Formal Shoes;Bond Street By Red Tape;Adults-Men;Men;Brown;Brown;;Fashion;Formal;2017;UK6,BSRTFOSH00000181,UK7,BSRTFOSH00000182,UK8,BSRTFOSH00000183,UK9,BSRTFOSH00000184,UK10,BSRTFOSH00000185,UK11,BSRTFOSH00000186;2995.00;;;;;;;;zerotype;;Summer;;No
2042426;BSS0181-Black-2042426;Bond Street By Red Tape Men Black Formal Shoe;Draft;Formal Shoes;Bond Street By Red Tape;Adults-Men;Men;Black;Black;;Fashion;Formal;2017;UK6,BSRTFOSH00000175,UK7,BSRTFOSH00000176,UK8,BSRTFOSH00000177,UK9,BSRTFOSH00000178,UK10,BSRTFOSH00000179,UK11,BSRTFOSH00000180;2995.00;;;;;;;;zerotype;;Summer;;No
2042425;BSS0222-Brown-2042425;Bond Street By Red Tape Men Brown Formal Shoe;Draft;Formal Shoes;Bond Street By Red Tape;Adults-Men;Men;Brown;Brown;;Fashion;Formal;2017;UK6,BSRTFOSH00000169,UK7,BSRTFOSH00000170,UK8,BSRTFOSH00000171,UK9,BSRTFOSH00000172,UK10,BSRTFOSH00000173,UK11,BSRTFOSH00000174;2995.00;;;;;;;;zerotype;;Summer;;No
2042424;BSS0221-Black-2042424;Bond Street By Red Tape Men Black Formal Shoe;Draft;Formal Shoes;Bond Street By Red Tape;Adults-Men;Men;Black;Black;;Fashion;Formal;2017;UK6,BSRTFOSH00000163,UK7,BSRTFOSH00000164,UK8,BSRTFOSH00000165,UK9,BSRTFOSH00000166,UK10,BSRTFOSH00000167,UK11,BSRTFOSH00000168;2995.00;;;;;;;;zerotype;;Summer;;No
2042422;BSS0211-Black-2042422;Bond Street By Red Tape Men Black Formal Shoe;Draft;Formal Shoes;Bond Street By Red Tape;Adults-Men;Men;Black;Black;;Fashion;Formal;2017;UK6,BSRTFOSH00000157,UK7,BSRTFOSH00000158,UK8,BSRTFOSH00000159,UK9,BSRTFOSH00000160,UK10,BSRTFOSH00000161,UK11,BSRTFOSH00000162;2995.00;;;;;;;;zerotype;;Summer;;No
2042421;BSS0203-Tan-2042421;Bond Street By Red Tape Men Tan Formal Shoes;Draft;Formal Shoes;Bond Street By Red Tape;Adults-Men;Men;Tan;Tan;;Fashion;Formal;2017;UK6,BSRTFOSH00000151,UK7,BSRTFOSH00000152,UK8,BSRTFOSH00000153,UK9,BSRTFOSH00000154,UK10,BSRTFOSH00000155,UK11,BSRTFOSH00000156;2995.00;;;;;;;;zerotype;;Summer;;No
2042420;BSS0201-Black-2042420;Bond Street By Red Tape Men Black Formal Shoe;Draft;Formal Shoes;Bond Street By Red Tape;Adults-Men;Men;Black;Black;;Fashion;Formal;2017;UK6,BSRTFOSH00000145,UK7,BSRTFOSH00000146,UK8,BSRTFOSH00000147,UK9,BSRTFOSH00000148,UK10,BSRTFOSH00000149,UK11,BSRTFOSH00000150;2995.00;;;;;;;;zerotype;;Summer;;No
2042419;RSP0283-Tan-2042419;RSP0283-Tan;Draft;Sandals;Bond Street By Red Tape;Adults-Men;Men;Tan;Tan;;Fashion;Casual;2017;UK6,BSRTSNDL00000073,UK7,BSRTSNDL00000074,UK8,BSRTSNDL00000075,UK9,BSRTSNDL00000076,UK10,BSRTSNDL00000077,UK11,BSRTSNDL00000078;2195.00;;;;;;;;zerotype;;Summer;;No
2042418;RSP0281-Black-2042418;RSP0281-Black;Draft;Sandals;Bond Street By Red Tape;Adults-Men;Men;Black;Black;;Fashion;Casual;2017;UK6,BSRTSNDL00000067,UK7,BSRTSNDL00000068,UK8,BSRTSNDL00000069,UK9,BSRTSNDL00000070,UK10,BSRTSNDL00000071,UK11,BSRTSNDL00000072;2195.00;;;;;;;;zerotype;;Summer;;No
2042417;RSP0273-Tan-2042417;RSP0273-Tan;Draft;Sandals;Bond Street By Red Tape;Adults-Men;Men;Tan;Tan;;Fashion;Casual;2017;UK6,BSRTSNDL00000061,UK7,BSRTSNDL00000062,UK8,BSRTSNDL00000063,UK9,BSRTSNDL00000064,UK10,BSRTSNDL00000065,UK11,BSRTSNDL00000066;1795.00;;;;;;;;zerotype;;Summer;;No
2042416;RSP0272-Brown-2042416;RSP0272-Brown;Draft;Sandals;Bond Street By Red Tape;Adults-Men;Men;Brown;Brown;;Fashion;Casual;2017;UK6,BSRTSNDL00000055,UK7,BSRTSNDL00000056,UK8,BSRTSNDL00000057,UK9,BSRTSNDL00000058,UK10,BSRTSNDL00000059,UK11,BSRTSNDL00000060;1795.00;;;;;;;;zerotype;;Summer;;No
2042415;RSP0271-Black-2042415;RSP0271-Black;Draft;Sandals;Bond Street By Red Tape;Adults-Men;Men;Black;Black;;Fashion;Casual;2017;UK6,BSRTSNDL00000049,UK7,BSRTSNDL00000050,UK8,BSRTSNDL00000051,UK9,BSRTSNDL00000052,UK10,BSRTSNDL00000053,UK11,BSRTSNDL00000054;1795.00;;;;;;;;zerotype;;Summer;;No
2042414;RSP0262-Brown-2042414;RSP0262-Brown;Draft;Sandals;Bond Street By Red Tape;Adults-Men;Men;Brown;Brown;;Fashion;Casual;2017;UK6,BSRTSNDL00000043,UK7,BSRTSNDL00000044,UK8,BSRTSNDL00000045,UK9,BSRTSNDL00000046,UK10,BSRTSNDL00000047,UK11,BSRTSNDL00000048;1795.00;;;;;;;;zerotype;;Summer;;No
2042412;RSP0261-Black-2042412;RSP0261-Black;Draft;Sandals;Bond Street By Red Tape;Adults-Men;Men;Black;Black;;Fashion;Casual;2017;UK6,BSRTSNDL00000037,UK7,BSRTSNDL00000038,UK8,BSRTSNDL00000039,UK9,BSRTSNDL00000040,UK10,BSRTSNDL00000041,UK11,BSRTSNDL00000042;1795.00;;;;;;;;zerotype;;Summer;;No
2042411;RSP0253-Tan-2042411;RSP0253-Tan;Draft;Sandals;Bond Street By Red Tape;Adults-Men;Men;Tan;Tan;;Fashion;Casual;2017;UK6,BSRTSNDL00000031,UK7,BSRTSNDL00000032,UK8,BSRTSNDL00000033,UK9,BSRTSNDL00000034,UK10,BSRTSNDL00000035,UK11,BSRTSNDL00000036;1795.00;;;;;;;;zerotype;;Summer;;No
2042410;RSP0252-Brown-2042410;RSP0252-Brown;Draft;Sandals;Bond Street By Red Tape;Adults-Men;Men;Brown;Brown;;Fashion;Casual;2017;UK6,BSRTSNDL00000025,UK7,BSRTSNDL00000026,UK8,BSRTSNDL00000027,UK9,BSRTSNDL00000028,UK10,BSRTSNDL00000029,UK11,BSRTSNDL00000030;1795.00;;;;;;;;zerotype;;Summer;;No
2042409;RSP0251-Black-2042409;RSP0251-Black;Draft;Sandals;Bond Street By Red Tape;Adults-Men;Men;Black;Black;;Fashion;Casual;2017;UK6,BSRTSNDL00000019,UK7,BSRTSNDL00000020,UK8,BSRTSNDL00000021,UK9,BSRTSNDL00000022,UK10,BSRTSNDL00000023,UK11,BSRTSNDL00000024;1795.00;;;;;;;;zerotype;;Summer;;No
2042408;RSP0243-Tan-2042408;RSP0243-Tan;Draft;Sandals;Bond Street By Red Tape;Adults-Men;Men;Tan;Tan;;Fashion;Casual;2017;UK6,BSRTSNDL00000013,UK7,BSRTSNDL00000014,UK8,BSRTSNDL00000015,UK9,BSRTSNDL00000016,UK10,BSRTSNDL00000017,UK11,BSRTSNDL00000018;1795.00;;;;;;;;zerotype;;Summer;;No
2042407;RSP0242-Brown-2042407;RSP0242-Brown;Draft;Sandals;Bond Street By Red Tape;Adults-Men;Men;Brown;Brown;;Fashion;Casual;2017;UK6,BSRTSNDL00000007,UK7,BSRTSNDL00000008,UK8,BSRTSNDL00000009,UK9,BSRTSNDL00000010,UK10,BSRTSNDL00000011,UK11,BSRTSNDL00000012;1795.00;;;;;;;;zerotype;;Summer;;No
2042406;RSP0241-Black-2042406;RSP0241-Black;Draft;Sandals;Bond Street By Red Tape;Adults-Men;Men;Black;Black;;Fashion;Casual;2017;UK6,BSRTSNDL00000001,UK7,BSRTSNDL00000002,UK8,BSRTSNDL00000003,UK9,BSRTSNDL00000004,UK10,BSRTSNDL00000005,UK11,BSRTSNDL00000006;1795.00;;;;;;;;zerotype;;Summer;;No
2042405;BSS0631-Black-2042405;Bond Street By Red Tape Men Black Boots;Draft;Casual Shoes;Bond Street By Red Tape;Adults-Men;Men;Black;Black;;Fashion;Casual;2017;UK6,BSRTCASH00000073,UK7,BSRTCASH00000074,UK8,BSRTCASH00000075,UK9,BSRTCASH00000076,UK10,BSRTCASH00000077,UK11,BSRTCASH00000078;3195.00;;;;;;;;zerotype;;Summer;;No
2042404;BSS0601-Black-2042404;Bond Street By Red Tape Men Black Sneakers;Draft;Casual Shoes;Bond Street By Red Tape;Adults-Men;Men;Black;Black;;Fashion;Casual;2017;UK6,BSRTCASH00000067,UK7,BSRTCASH00000068,UK8,BSRTCASH00000069,UK9,BSRTCASH00000070,UK10,BSRTCASH00000071,UK11,BSRTCASH00000072;2995.00;;;;;;;;zerotype;;Summer;;No
2042402;BSS0554-Navy Blue-2042402;Bond Street By Red Tape Men Navy Sneakers;Draft;Casual Shoes;Bond Street By Red Tape;Adults-Men;Men;Navy Blue;Navy Blue;;Fashion;Casual;2017;UK6,BSRTCASH00000061,UK7,BSRTCASH00000062,UK8,BSRTCASH00000063,UK9,BSRTCASH00000064,UK10,BSRTCASH00000065,UK11,BSRTCASH00000066;2995.00;;;;;;;;zerotype;;Summer;;No
2042401;BSS0553-Tan-2042401;Bond Street By Red Tape Men Tan Sneakers;Draft;Casual Shoes;Bond Street By Red Tape;Adults-Men;Men;Tan;Tan;;Fashion;Casual;2017;UK6,BSRTCASH00000055,UK7,BSRTCASH00000056,UK8,BSRTCASH00000057,UK9,BSRTCASH00000058,UK10,BSRTCASH00000059,UK11,BSRTCASH00000060;2995.00;;;;;;;;zerotype;;Summer;;No
2042400;BSS0541-Black-2042400;Bond Street By Red Tape Men Black Boots;Draft;Casual Shoes;Bond Street By Red Tape;Adults-Men;Men;Black;Black;;Fashion;Casual;2017;UK6,BSRTCASH00000049,UK7,BSRTCASH00000050,UK8,BSRTCASH00000051,UK9,BSRTCASH00000052,UK10,BSRTCASH00000053,UK11,BSRTCASH00000054;3195.00;;;;;;;;zerotype;;Summer;;No
2042399;BSS0471-Black-2042399;Bond Street By Red Tape Men Black Sneakers;Draft;Casual Shoes;Bond Street By Red Tape;Adults-Men;Men;Black;Black;;Fashion;Casual;2017;UK6,BSRTCASH00000043,UK7,BSRTCASH00000044,UK8,BSRTCASH00000045,UK9,BSRTCASH00000046,UK10,BSRTCASH00000047,UK11,BSRTCASH00000048;2995.00;;;;;;;;zerotype;;Summer;;No
2042398;BSS0191-Black-2042398;Bond Street by Red Tape Men Black Semiformal;Draft;Casual Shoes;Bond Street By Red Tape;Adults-Men;Men;Black;Black;;Fashion;Casual;2017;UK6,BSRTCASH00000037,UK7,BSRTCASH00000038,UK8,BSRTCASH00000039,UK9,BSRTCASH00000040,UK10,BSRTCASH00000041,UK11,BSRTCASH00000042;2995.00;;;;;;;;zerotype;;Summer;;No
