Style ID;Vendor Article Number;Vendor Article Name;Active Status;Article type;Brand;Age Group;Gender;Base Colour;Colour1;Colour2;Fashion Type;Usage;Year;Size - SKU code pair;MRP;Style Description;Style Note;Materials and Care Description;Size and Fit Description;Size Chart Path;Product Display Name;Tags;Product Type;Classification Brand;Season;Comments;Upload Images
2347788;XMYA02276-B8-Blue-2347788;CURVE SHAPE COIN PKT SKINNY FIT;Draft;Jeans;Parx;Adults-Men;Men;Blue;;;Fashion;Casual;2017;36,PARXJENS00001927,34,PARXJENS00001928,32,PARXJENS00001929,38,PARXJENS00001930,30,PARXJENS00001931,42,PARXJENS00001932,40,PARXJENS00001933;2899.00;;;<p>M/C WASH GENTLE,3% Spandex/ 97% Cotton</p>;;;m;;zerotype;;Winter;;No
2347787;XMYA02249-B6-Blue-2347787;TILTED PATCH AT COIN PKT SLIM TAPERED;Draft;Jeans;Parx;Adults-Men;Men;Blue;;;Fashion;Casual;2017;30,PARXJENS00001919,42,PARXJENS00001920,40,PARXJENS00001921,32,PARXJENS00001922,38,PARXJENS00001923,36,PARXJENS00001924,34,PARXJENS00001925;2799.00;;;<p>M/C WASH GENTLE,Cotton 70%/Poly 28%/Lycra 02%</p>;;;m;;zerotype;;Winter;;No
2347786;XMYA02230-B6-Blue-2347786;TILTED STYLIZED COIN PKT SKINNY FIT;Draft;Jeans;Parx;Adults-Men;Men;Blue;;;Fashion;Casual;2017;40,PARXJENS00001912,36,PARXJENS00001913,34,PARXJENS00001914,42,PARXJENS00001915,32,PARXJENS00001916,38,PARXJENS00001917,30,PARXJENS00001918;2699.00;;;<p>M/C WASH GENTLE,COT62%/POLY36%/ELASTANE2%</p>;;;m;;zerotype;;Winter;;No
2347785;XMYA02223-K6-Black-2347785;BASIC LIP PKT COIN PKT SLIM TAPERED;Draft;Jeans;Parx;Adults-Men;Men;Black;;;Fashion;Casual;2017;38,PARXJENS00001905,36,PARXJENS00001906,42,PARXJENS00001907,40,PARXJENS00001908,30,PARXJENS00001909,34,PARXJENS00001910,32,PARXJENS00001911;2699.00;;;<p>M/C WASH GENTLE,COTTON53%/MODAL44%/LYCRA3%</p>;;;m;;zerotype;;Winter;;No
2347784;XMYA02220-B7-Blue-2347784;3NDL STITCH AT SCOOP PKT SKINNY FIT;Draft;Jeans;Parx;Adults-Men;Men;Blue;;;Fashion;Casual;2017;32,PARXJENS00001898,30,PARXJENS00001899,42,PARXJENS00001900,34,PARXJENS00001901,40,PARXJENS00001902,38,PARXJENS00001903,36,PARXJENS00001904;2399.00;;;<p>M/C WASH GENTLE,COT62%/POLY36%/ELASTANE2%</p>;;;m;;zerotype;;Winter;;No
2347783;XMYA02188-B6-Blue-2347783;OPEN COIN PKT WITH BARTACK SLIM TPRD;Draft;Jeans;Parx;Adults-Men;Men;Blue;;;Fashion;Casual;2017;38,PARXJENS00001891,36,PARXJENS00001892,34,PARXJENS00001893,42,PARXJENS00001894,32,PARXJENS00001895,30,PARXJENS00001896,40,PARXJENS00001897;3099.00;;;<p>M/C WASH GENTLE,Cotton 98%/Lycra 02%</p>;;;m;;zerotype;;Winter;;No
2244793;XMYA02258-B8-Blue-2244793;ANGLED PATCH ABOVE COIN PKT SLIM FIT;Active;Jeans;Parx;Adults-Men;Men;Blue;;;Fashion;Casual;2017;30,PARXJENS00001394,32,PARXJENS00001395,34,PARXJENS00001396,36,PARXJENS00001397,38,PARXJENS00001398,40,PARXJENS00001399,42,PARXJENS00001926;2599.00;Blue medium wash 5-pocket mid-rise jeans, clean look with light fade, has a button and zip closure, waistband with belt loops;Maintain a handsome appearance all year long with these stellar Parx slim jeans.  Match yours with sneakers and a comfy tee and join your friends for dinner and drinks.;<p>M/C WASH GENTLE,98% cotton, 2% elastane</p>;Slim fit<br>  Stretchable<br> The model (height 6') is wearing a size 32;;m;Parx,welcome-to-myntra-oct17;zerotype;;Winter;welcome-to-myntra-oct17;No
1726011;XMYA02126-B4-Blue-1726011;SHAPED CUT N SEW PKT SLIM TP DNM;Draft;Jeans;Parx;Adults-Men;Men;;;;Fashion;;2017;32,PARXJENS00000494,30,PARXJENS00000495,34,PARXJENS00000496,36,PARXJENS00000497,38,PARXJENS00000498;2499.00;<p><a href='/cotton?src=pd' class='seolink'>Cotton</a></p>;;;;;;never-settle;zerotype;;Spring;never-settle;No
