Style ID;Vendor Article Number;Vendor Article Name;Active Status;Article type;Brand;Age Group;Gender;Base Colour;Colour1;Colour2;Fashion Type;Usage;Year;Size - SKU code pair;MRP;Style Description;Style Note;Materials and Care Description;Size and Fit Description;Size Chart Path;Product Display Name;Tags;Product Type;Classification Brand;Season;Comments;Upload Images
1843765;NBAKMPN0030062-Grey Melange-1843765;NBA LOGO KNITTED TAPERED LEG PANTS;Draft;Track Pants;NBA;Adults-Men;Men;;;;Core;;2017;M,NBAATRPT00000001,S,NBAATRPT00000002,L,NBAATRPT00000003,XL,NBAATRPT00000004,XXL,NBAATRPT00000005;1499.00;;;;;;;;zerotype;;Spring;;No
1843764;NBAKMSO0020050-Navy Blue-1843764;TEAM LOGO SHORTS;Draft;Shorts;NBA;Adults-Men;Men;;;;Core;;2017;M,NBAASHOR00000001,S,NBAASHOR00000002,L,NBAASHOR00000003,XL,NBAASHOR00000004,XXL,NBAASHOR00000005;1099.00;;;;;;;;zerotype;;Spring;;No
1843763;NBAKMTE0080132-Black-1843763;TEAM FULLSLEEVE GRAPHIC TEE;Draft;Tshirts;NBA;Adults-Men;Men;;;;Core;;2017;M,NBAATSHT00000181,S,NBAATSHT00000182,L,NBAATSHT00000183,XL,NBAATSHT00000184,XXL,NBAATSHT00000185;1499.00;;;;;;;;zerotype;;Spring;;No
1843762;NBAKMTE0050084-Blue-1843762;NAME+NUMBER TEE, front & back print;Draft;Tshirts;NBA;Adults-Men;Men;;;;Core;;2017;S,NBAATSHT00000176,L,NBAATSHT00000177,XL,NBAATSHT00000178,XXL,NBAATSHT00000179,M,NBAATSHT00000180;1299.00;;;;;;;;zerotype;;Spring;;No
1843760;NBAKMTE0050082-Blue-1843760;NAME+NUMBER TEE, front & back print;Draft;Tshirts;NBA;Adults-Men;Men;;;;Core;;2017;S,NBAATSHT00000171,L,NBAATSHT00000172,XL,NBAATSHT00000173,XXL,NBAATSHT00000174,M,NBAATSHT00000175;1299.00;;;;;;;;zerotype;;Spring;;No
1843758;NBAKMTE0050079-Blue-1843758;NAME+NUMBER TEE, front & back print;Draft;Tshirts;NBA;Adults-Men;Men;;;;Core;;2017;S,NBAATSHT00000166,L,NBAATSHT00000167,XL,NBAATSHT00000168,XXL,NBAATSHT00000169,M,NBAATSHT00000170;1299.00;;;;;;;;zerotype;;Spring;;No
1843756;NBAKMTE0050077-Navy Blue-1843756;NAME+NUMBER TEE, front & back print;Draft;Tshirts;NBA;Adults-Men;Men;;;;Core;;2017;S,NBAATSHT00000161,L,NBAATSHT00000162,XL,NBAATSHT00000163,XXL,NBAATSHT00000164,M,NBAATSHT00000165;1299.00;;;;;;;;zerotype;;Spring;;No
1843754;NBAKMTE0050076-Navy Blue-1843754;NAME+NUMBER TEE, front & back print;Draft;Tshirts;NBA;Adults-Men;Men;;;;Core;;2017;S,NBAATSHT00000156,L,NBAATSHT00000157,XL,NBAATSHT00000158,XXL,NBAATSHT00000159,M,NBAATSHT00000160;1299.00;;;;;;;;zerotype;;Spring;;No
1843751;NBAKMTE0050075-Maroon-1843751;NAME+NUMBER TEE, front & back print;Draft;Tshirts;NBA;Adults-Men;Men;;;;Core;;2017;S,NBAATSHT00000151,L,NBAATSHT00000152,XL,NBAATSHT00000153,XXL,NBAATSHT00000154,M,NBAATSHT00000155;1299.00;;;;;;;;zerotype;;Spring;;No
1843749;NBAKMTE0050073-Red-1843749;NAME+NUMBER TEE, front & back print;Draft;Tshirts;NBA;Adults-Men;Men;;;;Core;;2017;S,NBAATSHT00000146,L,NBAATSHT00000147,XL,NBAATSHT00000148,XXL,NBAATSHT00000149,M,NBAATSHT00000150;1299.00;;;;;;;;zerotype;;Spring;;No
1843747;NBAKMTE0050072-Red-1843747;NAME+NUMBER TEE, front & back print;Draft;Tshirts;NBA;Adults-Men;Men;;;;Core;;2017;S,NBAATSHT00000141,L,NBAATSHT00000142,XL,NBAATSHT00000143,XXL,NBAATSHT00000144,M,NBAATSHT00000145;1299.00;;;;;;;;zerotype;;Spring;;No
1843745;NBAKMTE0050071-Red-1843745;NAME+NUMBER TEE, front & back print;Draft;Tshirts;NBA;Adults-Men;Men;;;;Core;;2017;S,NBAATSHT00000136,L,NBAATSHT00000137,XL,NBAATSHT00000138,XXL,NBAATSHT00000139,M,NBAATSHT00000140;1299.00;;;;;;;;zerotype;;Spring;;No
1843743;NBAKMTE0050070-Red-1843743;NAME+NUMBER TEE, front & back print;Draft;Tshirts;NBA;Adults-Men;Men;;;;Core;;2017;S,NBAATSHT00000131,L,NBAATSHT00000132,XL,NBAATSHT00000133,XXL,NBAATSHT00000134,M,NBAATSHT00000135;1299.00;;;;;;;;zerotype;;Spring;;No
1843741;NBAKMTE0050069-Red-1843741;NAME+NUMBER TEE, front & back print;Draft;Tshirts;NBA;Adults-Men;Men;;;;Core;;2017;S,NBAATSHT00000126,L,NBAATSHT00000127,XL,NBAATSHT00000128,XXL,NBAATSHT00000129,M,NBAATSHT00000130;1299.00;;;;;;;;zerotype;;Spring;;No
1843739;NBAKMTE0050068-Black-1843739;NAME+NUMBER TEE, front & back print;Draft;Tshirts;NBA;Adults-Men;Men;;;;Core;;2017;S,NBAATSHT00000121,L,NBAATSHT00000122,XL,NBAATSHT00000123,XXL,NBAATSHT00000124,M,NBAATSHT00000125;1299.00;;;;;;;;zerotype;;Spring;;No
1843737;NBAKMTE0050067-Black-1843737;NAME+NUMBER TEE, front & back print;Draft;Tshirts;NBA;Adults-Men;Men;;;;Core;;2017;S,NBAATSHT00000116,L,NBAATSHT00000117,XL,NBAATSHT00000118,XXL,NBAATSHT00000119,M,NBAATSHT00000120;1299.00;;;;;;;;zerotype;;Spring;;No
1843734;NBAKMTE0010015-Blue-1843734;TEAM LOGO TEE, BASIC PRINT;Draft;Tshirts;NBA;Adults-Men;Men;;;;Core;;2017;M,NBAATSHT00000111,S,NBAATSHT00000112,L,NBAATSHT00000113,XL,NBAATSHT00000114,XXL,NBAATSHT00000115;999.00;;;;;;;;zerotype;;Spring;;No
1843732;NBAKMTE0010014-Black-1843732;TEAM LOGO TEE, BASIC PRINT;Draft;Tshirts;NBA;Adults-Men;Men;;;;Core;;2017;M,NBAATSHT00000106,S,NBAATSHT00000107,L,NBAATSHT00000108,XL,NBAATSHT00000109,XXL,NBAATSHT00000110;999.00;;;;;;;;zerotype;;Spring;;No
1843729;NBAKMTE0010012-Red-1843729;TEAM LOGO TEE, BASIC PRINT;Draft;Tshirts;NBA;Adults-Men;Men;;;;Core;;2017;M,NBAATSHT00000101,S,NBAATSHT00000102,L,NBAATSHT00000103,XL,NBAATSHT00000104,XXL,NBAATSHT00000105;999.00;;;;;;;;zerotype;;Spring;;No
1843727;NBAKMTE0010011-Navy Blue-1843727;TEAM LOGO TEE, BASIC PRINT;Draft;Tshirts;NBA;Adults-Men;Men;;;;Core;;2017;M,NBAATSHT00000096,S,NBAATSHT00000097,L,NBAATSHT00000098,XL,NBAATSHT00000099,XXL,NBAATSHT00000100;999.00;;;;;;;;zerotype;;Spring;;No
1843725;NBAKMTE0010007-Black-1843725;TEAM LOGO TEE, BASIC PRINT;Draft;Tshirts;NBA;Adults-Men;Men;;;;Core;;2017;M,NBAATSHT00000091,S,NBAATSHT00000092,L,NBAATSHT00000093,XL,NBAATSHT00000094,XXL,NBAATSHT00000095;999.00;;;;;;;;zerotype;;Spring;;No
1843723;NBAKMTE0010004-Red-1843723;TEAM LOGO TEE, BASIC PRINT;Draft;Tshirts;NBA;Adults-Men;Men;;;;Core;;2017;M,NBAATSHT00000086,S,NBAATSHT00000087,L,NBAATSHT00000088,XL,NBAATSHT00000089,XXL,NBAATSHT00000090;999.00;;;;;;;;zerotype;;Spring;;No
1843721;NBAKMTE0010003-Green-1843721;TEAM LOGO TEE, BASIC PRINT;Draft;Tshirts;NBA;Adults-Men;Men;;;;Core;;2017;M,NBAATSHT00000081,S,NBAATSHT00000082,L,NBAATSHT00000083,XL,NBAATSHT00000084,XXL,NBAATSHT00000085;999.00;;;;;;;;zerotype;;Spring;;No
1843719;NBAKMTE0010002-Maroon-1843719;TEAM LOGO TEE, BASIC PRINT;Draft;Tshirts;NBA;Adults-Men;Men;;;;Core;;2017;M,NBAATSHT00000076,S,NBAATSHT00000077,L,NBAATSHT00000078,XL,NBAATSHT00000079,XXL,NBAATSHT00000080;999.00;;;;;;;;zerotype;;Spring;;No
1843717;NBAKMPO0090153-Red-1843717;TEAM LOGO POLO, FRONT & BACK;Draft;Tshirts;NBA;Adults-Men;Men;;;;Core;;2017;S,NBAATSHT00000071,L,NBAATSHT00000072,XL,NBAATSHT00000073,XXL,NBAATSHT00000074,M,NBAATSHT00000075;1299.00;;;;;;;;zerotype;;Spring;;No
1843715;NBAKMPO0090152-Blue-1843715;TEAM LOGO POLO, FRONT & BACK;Draft;Tshirts;NBA;Adults-Men;Men;;;;Core;;2017;S,NBAATSHT00000066,L,NBAATSHT00000067,XL,NBAATSHT00000068,XXL,NBAATSHT00000069,M,NBAATSHT00000070;1299.00;;;;;;;;zerotype;;Spring;;No
1843713;NBAKMPO0090151-Yellow-1843713;TEAM LOGO POLO, FRONT & BACK;Draft;Tshirts;NBA;Adults-Men;Men;;;;Core;;2017;S,NBAATSHT00000061,L,NBAATSHT00000062,XL,NBAATSHT00000063,XXL,NBAATSHT00000064,M,NBAATSHT00000065;1299.00;;;;;;;;zerotype;;Spring;;No
1843711;NBAKMPO0090150-Blue-1843711;TEAM LOGO POLO, FRONT & BACK;Draft;Tshirts;NBA;Adults-Men;Men;;;;Core;;2017;S,NBAATSHT00000056,L,NBAATSHT00000057,XL,NBAATSHT00000058,XXL,NBAATSHT00000059,M,NBAATSHT00000060;1299.00;;;;;;;;zerotype;;Spring;;No
1843709;NBAKMPO0090149-Red-1843709;TEAM LOGO POLO, FRONT & BACK;Draft;Tshirts;NBA;Adults-Men;Men;;;;Core;;2017;S,NBAATSHT00000051,L,NBAATSHT00000052,XL,NBAATSHT00000053,XXL,NBAATSHT00000054,M,NBAATSHT00000055;1299.00;;;;;;;;zerotype;;Spring;;No
1843706;NBAKMPO0090148-Navy Blue-1843706;TEAM LOGO POLO, FRONT & BACK;Draft;Tshirts;NBA;Adults-Men;Men;;;;Core;;2017;S,NBAATSHT00000046,L,NBAATSHT00000047,XL,NBAATSHT00000048,XXL,NBAATSHT00000049,M,NBAATSHT00000050;1299.00;;;;;;;;zerotype;;Spring;;No
1843704;NBAKMPO0090147-Green-1843704;TEAM LOGO POLO, FRONT & BACK;Draft;Tshirts;NBA;Adults-Men;Men;;;;Core;;2017;S,NBAATSHT00000041,L,NBAATSHT00000042,XL,NBAATSHT00000043,XXL,NBAATSHT00000044,M,NBAATSHT00000045;1299.00;;;;;;;;zerotype;;Spring;;No
