Style ID;Vendor Article Number;Vendor Article Name;Active Status;Article type;Brand;Age Group;Gender;Base Colour;Colour1;Colour2;Fashion Type;Usage;Year;Size - SKU code pair;MRP;Style Description;Style Note;Materials and Care Description;Size and Fit Description;Size Chart Path;Product Display Name;Tags;Product Type;Classification Brand;Season;Comments;Upload Images
2150765;SL3518-Brown-2150765;Belt;Draft;Belts;CHISEL;Adults-Women;Women;Brown;Brown;;Fashion;Casual;2017;26,CHSLBELT00002724,28,CHSLBELT00002725,30,CHSLBELT00002726,32,CHSLBELT00002727,34,CHSLBELT00002728,36,CHSLBELT00002729,38,CHSLBELT00002730,40,CHSLBELT00002731;1199.00;<p>Classic belt with fashion buckle</p>;;<p>Wipe with clean cloth</p>;<p>40:47in:25mm</p>;;Chisel Leather Belt;Belts::Casual belts::Women Belt;zerotype;;Fall;;No
2150762;SL3517-Black-2150762;Belt;Draft;Belts;CHISEL;Adults-Women;Women;Black;Black;;Fashion;Casual;2017;26,CHSLBELT00002716,28,CHSLBELT00002717,30,CHSLBELT00002718,32,CHSLBELT00002719,34,CHSLBELT00002720,36,CHSLBELT00002721,38,CHSLBELT00002722,40,CHSLBELT00002723;1199.00;<p>Classic belt with fashion buckle</p>;;<p>Wipe with clean cloth</p>;<p>40:47in:25mm</p>;;Chisel Leather Belt;Belts::Casual belts::Women Belt;zerotype;;Fall;;No
2150757;SL3516-Blue-2150757;Belt;Draft;Belts;CHISEL;Adults-Women;Women;Blue;Blue;;Fashion;Casual;2017;26,CHSLBELT00002708,28,CHSLBELT00002709,30,CHSLBELT00002710,32,CHSLBELT00002711,34,CHSLBELT00002712,36,CHSLBELT00002713,38,CHSLBELT00002714,40,CHSLBELT00002715;1199.00;<p>Classic belt with fashion buckle</p>;;<p>Wipe with clean cloth</p>;<p>40:47in:25mm</p>;;Chisel Leather Belt;Belts::Casual belts::Women Belt;zerotype;;Fall;;No
2150751;SL3515-Tan-2150751;Belt;Draft;Belts;CHISEL;Adults-Women;Women;Tan;Tan;;Fashion;Casual;2017;26,CHSLBELT00002700,28,CHSLBELT00002701,30,CHSLBELT00002702,32,CHSLBELT00002703,34,CHSLBELT00002704,36,CHSLBELT00002705,38,CHSLBELT00002706,40,CHSLBELT00002707;1199.00;<p>Classic belt with fashion buckle</p>;;<p>Wipe with clean cloth</p>;<p>40:47in:25mm</p>;;Chisel Leather Belt;Belts::Casual belts::Women Belt;zerotype;;Fall;;No
2150748;CO3550-Black-2150748;Belt;Draft;Belts;CHISEL;Adults-Men;Men;Black;Black;;Fashion;Formal;2017;28,CHSLBELT00002692,30,CHSLBELT00002693,32,CHSLBELT00002694,34,CHSLBELT00002695,36,CHSLBELT00002696,38,CHSLBELT00002697,40,CHSLBELT00002698,42,CHSLBELT00002699;1199.00;<p>Classic belt</p>;;<p>Wipe with clean cloth</p>;<p>42:49in:35mm</p>;;Chisel Belt;Belts::Formal belts::Men Belt;zerotype;;Fall;;No
2150745;CO3549-Black-2150745;Belt;Draft;Belts;CHISEL;Adults-Men;Men;Black;Brown;;Fashion;Formal;2017;28,CHSLBELT00002684,30,CHSLBELT00002685,32,CHSLBELT00002686,34,CHSLBELT00002687,36,CHSLBELT00002688,38,CHSLBELT00002689,40,CHSLBELT00002690,42,CHSLBELT00002691;1099.00;<p>Classic reversible belt</p>;;<p>Wipe with clean cloth</p>;<p>42:49in:35mm</p>;;Chisel Reversible Belt;Belts::Formal belts::Men Belt;zerotype;;Fall;;No
2150742;CO3548-Black-2150742;Belt;Draft;Belts;CHISEL;Adults-Men;Men;Black;Brown;;Fashion;Formal;2017;28,CHSLBELT00002676,30,CHSLBELT00002677,32,CHSLBELT00002678,34,CHSLBELT00002679,36,CHSLBELT00002680,38,CHSLBELT00002681,40,CHSLBELT00002682,42,CHSLBELT00002683;1099.00;<p>Classic reversible belt</p>;;<p>Wipe with clean cloth</p>;<p>42:49in:35mm</p>;;Chisel Reversible Belt;Belts::Formal belts::Men Belt;zerotype;;Fall;;No
2150739;CO3547-Black-2150739;Belt;Draft;Belts;CHISEL;Adults-Men;Men;Black;Brown;;Fashion;Formal;2017;28,CHSLBELT00002668,30,CHSLBELT00002669,32,CHSLBELT00002670,34,CHSLBELT00002671,36,CHSLBELT00002672,38,CHSLBELT00002673,40,CHSLBELT00002674,42,CHSLBELT00002675;1099.00;<p>Classic reversible belt</p>;;<p>Wipe with clean cloth</p>;<p>42:49in:35mm</p>;;Chisel Reversible Belt;Belts::Formal belts::Men Belt;zerotype;;Fall;;No
2150733;CO3546-Black-2150733;Belt;Draft;Belts;CHISEL;Adults-Men;Men;Black;Brown;;Fashion;Formal;2017;28,CHSLBELT00002660,30,CHSLBELT00002661,32,CHSLBELT00002662,34,CHSLBELT00002663,36,CHSLBELT00002664,38,CHSLBELT00002665,40,CHSLBELT00002666,42,CHSLBELT00002667;1099.00;<p>Classic reversible belt</p>;;<p>Wipe with clean cloth</p>;<p>42:49in:35mm</p>;;Chisel Reversible Belt;Belts::Formal belts::Men Belt;zerotype;;Fall;;No
2150728;CO3545-Black-2150728;Belt;Draft;Belts;CHISEL;Adults-Men;Men;Black;Brown;;Fashion;Formal;2017;28,CHSLBELT00002652,30,CHSLBELT00002653,32,CHSLBELT00002654,34,CHSLBELT00002655,36,CHSLBELT00002656,38,CHSLBELT00002657,40,CHSLBELT00002658,42,CHSLBELT00002659;1099.00;<p>Classic reversible belt</p>;;<p>Wipe with clean cloth</p>;<p>42:49in:35mm</p>;;Chisel Reversible Belt;Belts::Formal belts::Men Belt;zerotype;;Fall;;No
2150723;SL3544-Black-2150723;Belt;Draft;Belts;CHISEL;Adults-Men;Men;Black;Brown;;Fashion;Formal;2017;28,CHSLBELT00002644,30,CHSLBELT00002645,32,CHSLBELT00002646,34,CHSLBELT00002647,36,CHSLBELT00002648,38,CHSLBELT00002649,40,CHSLBELT00002650,42,CHSLBELT00002651;1699.00;<p>Classic reversible belt</p>;;<p>Wipe with clean cloth</p>;<p>42:49in:35mm</p>;;Chisel Leather Reversible Belt;Belts::Formal belts::Men Belt;zerotype;;Fall;;No
2150717;SL3543-Black-2150717;Belt;Draft;Belts;CHISEL;Adults-Men;Men;Black;Brown;;Fashion;Formal;2017;28,CHSLBELT00002636,30,CHSLBELT00002637,32,CHSLBELT00002638,34,CHSLBELT00002639,36,CHSLBELT00002640,38,CHSLBELT00002641,40,CHSLBELT00002642,42,CHSLBELT00002643;1699.00;<p>Classic reversible belt</p>;;<p>Wipe with clean cloth</p>;<p>42:49in:35mm</p>;;Chisel Leather Reversible Belt;Belts::Formal belts::Men Belt;zerotype;;Fall;;No
2150713;SL3542-Brown-2150713;Belt;Draft;Belts;CHISEL;Adults-Women;Women;Brown;Brown;;Fashion;Casual;2017;26,CHSLBELT00002628,28,CHSLBELT00002629,30,CHSLBELT00002630,32,CHSLBELT00002631,34,CHSLBELT00002632,36,CHSLBELT00002633,38,CHSLBELT00002634,40,CHSLBELT00002635;1199.00;<p>Classic belt with fashion buckle</p>;;<p>Wipe with clean cloth</p>;<p>40:47in:25mm</p>;;Chisel Leather Belt;Belts::Casual belts::Women Belt;zerotype;;Fall;;No
2150709;SL3541-Black-2150709;Belt;Draft;Belts;CHISEL;Adults-Women;Women;Black;Black;;Fashion;Casual;2017;26,CHSLBELT00002620,28,CHSLBELT00002621,30,CHSLBELT00002622,32,CHSLBELT00002623,34,CHSLBELT00002624,36,CHSLBELT00002625,38,CHSLBELT00002626,40,CHSLBELT00002627;1199.00;<p>Classic belt with fashion buckle</p>;;<p>Wipe with clean cloth</p>;<p>40:47in:25mm</p>;;Chisel Leather Belt;Belts::Casual belts::Women Belt;zerotype;;Fall;;No
2150705;SL3540-Blue-2150705;Belt;Draft;Belts;CHISEL;Adults-Women;Women;Blue;Blue;;Fashion;Casual;2017;26,CHSLBELT00002612,28,CHSLBELT00002613,30,CHSLBELT00002614,32,CHSLBELT00002615,34,CHSLBELT00002616,36,CHSLBELT00002617,38,CHSLBELT00002618,40,CHSLBELT00002619;1199.00;<p>Classic belt with fashion buckle</p>;;<p>Wipe with clean cloth</p>;<p>40:47in:25mm</p>;;Chisel Leather Belt;Belts::Casual belts::Women Belt;zerotype;;Fall;;No
2150702;SL3539-Tan-2150702;Belt;Draft;Belts;CHISEL;Adults-Women;Women;Tan;Tan;;Fashion;Casual;2017;26,CHSLBELT00002604,28,CHSLBELT00002605,30,CHSLBELT00002606,32,CHSLBELT00002607,34,CHSLBELT00002608,36,CHSLBELT00002609,38,CHSLBELT00002610,40,CHSLBELT00002611;1199.00;<p>Classic belt with fashion buckle</p>;;<p>Wipe with clean cloth</p>;<p>40:47in:25mm</p>;;Chisel Leather Belt;Belts::Casual belts::Women Belt;zerotype;;Fall;;No
2150698;SL3538-Red-2150698;Belt;Draft;Belts;CHISEL;Adults-Women;Women;Red;Red;;Fashion;Casual;2017;26,CHSLBELT00002596,28,CHSLBELT00002597,30,CHSLBELT00002598,32,CHSLBELT00002599,34,CHSLBELT00002600,36,CHSLBELT00002601,38,CHSLBELT00002602,40,CHSLBELT00002603;1199.00;<p>Classic belt with fashion buckle</p>;;<p>Wipe with clean cloth</p>;<p>40:47in:25mm</p>;;Chisel Leather Belt;Belts::Casual belts::Women Belt;zerotype;;Fall;;No
2150694;SL3537-Brown-2150694;Belt;Draft;Belts;CHISEL;Adults-Women;Women;Brown;Brown;;Fashion;Casual;2017;26,CHSLBELT00002588,28,CHSLBELT00002589,30,CHSLBELT00002590,32,CHSLBELT00002591,34,CHSLBELT00002592,36,CHSLBELT00002593,38,CHSLBELT00002594,40,CHSLBELT00002595;1199.00;<p>Classic belt with fashion buckle</p>;;<p>Wipe with clean cloth</p>;<p>40:47in:25mm</p>;;Chisel Leather Belt;Belts::Casual belts::Women Belt;zerotype;;Fall;;No
2150690;SL3536-Black-2150690;Belt;Draft;Belts;CHISEL;Adults-Men;Men;Black;Brown;;Fashion;Formal;2017;28,CHSLBELT00002580,30,CHSLBELT00002581,32,CHSLBELT00002582,34,CHSLBELT00002583,36,CHSLBELT00002584,38,CHSLBELT00002585,40,CHSLBELT00002586,42,CHSLBELT00002587;1899.00;<p>Classic slim reversible belt</p>;;<p>Wipe with clean cloth</p>;<p>42:49in:30mm</p>;;Chisel Leather Slim Reversible Belt;Belts::Formal belts::Men Belt;zerotype;;Fall;;No
2150686;SL3535-Black-2150686;Belt;Draft;Belts;CHISEL;Adults-Men;Men;Black;Brown;;Fashion;Formal;2017;28,CHSLBELT00002572,30,CHSLBELT00002573,32,CHSLBELT00002574,34,CHSLBELT00002575,36,CHSLBELT00002576,38,CHSLBELT00002577,40,CHSLBELT00002578,42,CHSLBELT00002579;1899.00;<p>Classic slim reversible belt</p>;;<p>Wipe with clean cloth</p>;<p>42:49in:30mm</p>;;Chisel Leather Slim Reversible Belt;Belts::Formal belts::Men Belt;zerotype;;Fall;;No
2150684;SL3534-Black-2150684;Belt;Draft;Belts;CHISEL;Adults-Men;Men;Black;Brown;;Fashion;Formal;2017;28,CHSLBELT00002564,30,CHSLBELT00002565,32,CHSLBELT00002566,34,CHSLBELT00002567,36,CHSLBELT00002568,38,CHSLBELT00002569,40,CHSLBELT00002570,42,CHSLBELT00002571;1699.00;<p>Classic reversible belt</p>;;<p>Wipe with clean cloth</p>;<p>42:49in:35mm</p>;;Chisel Leather Reversible Belt;Belts::Formal belts::Men Belt;zerotype;;Fall;;No
2150682;UN3533-Black-2150682;Belt;Draft;Belts;CHISEL;Adults-Men;Men;Black;Brown;;Fashion;Formal;2017;28,CHSLBELT00002556,30,CHSLBELT00002557,32,CHSLBELT00002558,34,CHSLBELT00002559,36,CHSLBELT00002560,38,CHSLBELT00002561,40,CHSLBELT00002562,42,CHSLBELT00002563;1699.00;<p>Classic reversible belt</p>;;<p>Wipe with clean cloth</p>;<p>42:49in:35mm</p>;;Chisel Leather Reversible Belt;Belts::Formal belts::Men Belt;zerotype;;Fall;;No
2150679;SL3532-Black-2150679;Belt;Draft;Belts;CHISEL;Adults-Men;Men;Black;Brown;;Fashion;Formal;2017;28,CHSLBELT00002548,30,CHSLBELT00002549,32,CHSLBELT00002550,34,CHSLBELT00002551,36,CHSLBELT00002552,38,CHSLBELT00002553,40,CHSLBELT00002554,42,CHSLBELT00002555;1899.00;<p>Classic reversible belt</p>;;<p>Wipe with clean cloth</p>;<p>42:49in:35mm</p>;;Chisel Leather Reversible Belt;Belts::Formal belts::Men Belt;zerotype;;Fall;;No
2150676;MM3531-Tan-2150676;Belt;Draft;Belts;CHISEL;Adults-Men;Men;Tan;Black;;Fashion;Formal;2017;28,CHSLBELT00002540,30,CHSLBELT00002541,32,CHSLBELT00002542,34,CHSLBELT00002543,36,CHSLBELT00002544,38,CHSLBELT00002545,40,CHSLBELT00002546,42,CHSLBELT00002547;1799.00;<p>Classic reversible belt</p>;;<p>Wipe with clean cloth</p>;<p>42:49in:35mm</p>;;Chisel Leather Reversible Belt;Belts::Formal belts::Men Belt;zerotype;;Fall;;No
2150673;MM3530-Black-2150673;Belt;Draft;Belts;CHISEL;Adults-Men;Men;Black;Brown;;Fashion;Formal;2017;28,CHSLBELT00002532,30,CHSLBELT00002533,32,CHSLBELT00002534,34,CHSLBELT00002535,36,CHSLBELT00002536,38,CHSLBELT00002537,40,CHSLBELT00002538,42,CHSLBELT00002539;1699.00;<p>Classic reversible belt</p>;;<p>Wipe with clean cloth</p>;<p>42:49in:35mm</p>;;Chisel Leather Reversible Belt;Belts::Formal belts::Men Belt;zerotype;;Fall;;No
2150670;SL3529-Black-2150670;Belt;Draft;Belts;CHISEL;Adults-Men;Men;Black;Brown;;Fashion;Formal;2017;28,CHSLBELT00002524,30,CHSLBELT00002525,32,CHSLBELT00002526,34,CHSLBELT00002527,36,CHSLBELT00002528,38,CHSLBELT00002529,40,CHSLBELT00002530,42,CHSLBELT00002531;1699.00;<p>Classic reversible belt</p>;;<p>Wipe with clean cloth</p>;<p>42:49in:35mm</p>;;Chisel Leather Reversible Belt;Belts::Formal belts::Men Belt;zerotype;;Fall;;No
2150668;SL3528-Black-2150668;Belt;Draft;Belts;CHISEL;Adults-Men;Men;Black;Brown;;Fashion;Formal;2017;28,CHSLBELT00002516,30,CHSLBELT00002517,32,CHSLBELT00002518,34,CHSLBELT00002519,36,CHSLBELT00002520,38,CHSLBELT00002521,40,CHSLBELT00002522,42,CHSLBELT00002523;1699.00;<p>Classic reversible belt</p>;;<p>Wipe with clean cloth</p>;<p>42:49in:35mm</p>;;Chisel Leather Reversible Belt;Belts::Formal belts::Men Belt;zerotype;;Fall;;No
2150665;SL3527-Black-2150665;Belt;Draft;Belts;CHISEL;Adults-Men;Men;Black;Brown;;Fashion;Formal;2017;28,CHSLBELT00002508,30,CHSLBELT00002509,32,CHSLBELT00002510,34,CHSLBELT00002511,36,CHSLBELT00002512,38,CHSLBELT00002513,40,CHSLBELT00002514,42,CHSLBELT00002515;1699.00;<p>Classic reversible belt</p>;;<p>Wipe with clean cloth</p>;<p>42:49in:35mm</p>;;Chisel Leather Reversible Belt;Belts::Formal belts::Men Belt;zerotype;;Fall;;No
2150662;MM3526-Tan-2150662;Belt;Draft;Belts;CHISEL;Adults-Men;Men;Tan;Black;;Fashion;Formal;2017;28,CHSLBELT00002500,30,CHSLBELT00002501,32,CHSLBELT00002502,34,CHSLBELT00002503,36,CHSLBELT00002504,38,CHSLBELT00002505,40,CHSLBELT00002506,42,CHSLBELT00002507;1799.00;<p>Classic reversible belt</p>;;<p>Wipe with clean cloth</p>;<p>42:49in:35mm</p>;;Chisel Leather Reversible Belt;Belts::Formal belts::Men Belt;zerotype;;Fall;;No
2150659;SL3525-Black-2150659;Belt;Draft;Belts;CHISEL;Adults-Men;Men;Black;Black;;Fashion;Formal;2017;28,CHSLBELT00002492,30,CHSLBELT00002493,32,CHSLBELT00002494,34,CHSLBELT00002495,36,CHSLBELT00002496,38,CHSLBELT00002497,40,CHSLBELT00002498,42,CHSLBELT00002499;1899.00;<p>Classic belt</p>;;<p>Wipe with clean cloth</p>;<p>42:49in:35mm</p>;;Chisel Leather Belt;Belts::Formal belts::Men Belt;zerotype;;Fall;;No
