Style ID;Vendor Article Number;Vendor Article Name;Active Status;Article type;Brand;Age Group;Gender;Base Colour;Colour1;Colour2;Fashion Type;Usage;Year;Size - SKU code pair;MRP;Style Description;Style Note;Materials and Care Description;Size and Fit Description;Size Chart Path;Product Display Name;Tags;Product Type;Classification Brand;Season;Comments;Upload Images
2057439;ARY1491A-White-2057439;tunic;Draft;Tunics;Ayaany;Adults-Women;Women;White;;;Fashion;;2017;S,AYANTNIC00001150,M,AYANTNIC00001151,L,AYANTNIC00001152,XL,AYANTNIC00001153,XXL,AYANTNIC00001154;1299.00;;;;;;;;zerotype;;Winter;;No
2057438;ARY1490B-Mustard-2057438;tunic;Draft;Tunics;Ayaany;Adults-Women;Women;Mustard;;;Fashion;;2017;S,AYANTNIC00001145,M,AYANTNIC00001146,L,AYANTNIC00001147,XL,AYANTNIC00001148,XXL,AYANTNIC00001149;1299.00;;;;;;;;zerotype;;Winter;;No
2057437;ARY1490A-White-2057437;tunic;Draft;Tunics;Ayaany;Adults-Women;Women;White;;;Fashion;;2017;S,AYANTNIC00001140,M,AYANTNIC00001141,L,AYANTNIC00001142,XL,AYANTNIC00001143,XXL,AYANTNIC00001144;1299.00;;;;;;;;zerotype;;Winter;;No
2057436;ARY1488-Yellow-2057436;tunic;Draft;Tunics;Ayaany;Adults-Women;Women;Yellow;;;Fashion;;2017;S,AYANTNIC00001135,M,AYANTNIC00001136,L,AYANTNIC00001137,XL,AYANTNIC00001138,XXL,AYANTNIC00001139;999.00;;;;;;;;zerotype;;Winter;;No
2057435;ARY1486A-Coral-2057435;tunic;Draft;Tunics;Ayaany;Adults-Women;Women;Coral;;;Fashion;;2017;S,AYANTNIC00001130,M,AYANTNIC00001131,L,AYANTNIC00001132,XL,AYANTNIC00001133,XXL,AYANTNIC00001134;999.00;;;;;;;;zerotype;;Winter;;No
2057434;ARY1489-White-2057434;Kurta Set;Draft;Kurta Sets;Ayaany;Adults-Women;Women;White;;;Fashion;Smart Casual;2017;S,AYANKASS00000096,M,AYANKASS00000097,L,AYANKASS00000098,XL,AYANKASS00000099,XXL,AYANKASS00000100;2199.00;;;;;;;;zerotype;;Winter;;No
2057433;ary1465a-Black-2057433;Double layered Dress;Draft;Dresses;Ayaany;Adults-Women;Women;Black;;;Fashion;;2017;S,AYANDRSS00000451,M,AYANDRSS00000452,L,AYANDRSS00000453,XL,AYANDRSS00000454,XXL,AYANDRSS00000455;1699.00;;;;;;;;zerotype;;Winter;;No
2057432;ARY1482C-White-2057432;2 piece long kurta with angarkha style overlay;Draft;Kurtas;Ayaany;Adults-Women;Women;White;;;Fashion;;2017;S,AYANKRTA00001492,M,AYANKRTA00001493,L,AYANKRTA00001494,XL,AYANKRTA00001495,XXL,AYANKRTA00001496;1499.00;;;;;;;;zerotype;;Winter;;No
2057431;ARY1482B-Black-2057431;2 piece long kurta with angarkha style overlay;Draft;Kurtas;Ayaany;Adults-Women;Women;Black;;;Fashion;;2017;S,AYANKRTA00001487,M,AYANKRTA00001488,L,AYANKRTA00001489,XL,AYANKRTA00001490,XXL,AYANKRTA00001491;1499.00;;;;;;;;zerotype;;Winter;;No
2057430;ARY1482A-Black-2057430;2 piece long kurta with angarkha style overlay;Draft;Kurtas;Ayaany;Adults-Women;Women;Black;;;Fashion;;2017;S,AYANKRTA00001482,M,AYANKRTA00001483,L,AYANKRTA00001484,XL,AYANKRTA00001485,XXL,AYANKRTA00001486;1499.00;;;;;;;;zerotype;;Winter;;No
2057429;ARY1480B-Yellow-2057429;DOUBLE LAYERD LONG FUSION KURTA;Draft;Kurtas;Ayaany;Adults-Women;Women;Yellow;;;Fashion;;2017;S,AYANKRTA00001477,M,AYANKRTA00001478,L,AYANKRTA00001479,XL,AYANKRTA00001480,XXL,AYANKRTA00001481;1499.00;;;;;;;;zerotype;;Winter;;No
2057428;ARY1480A-Yellow-2057428;DOUBLE LAYERD LONG FUSION KURTA;Draft;Kurtas;Ayaany;Adults-Women;Women;Yellow;;;Fashion;;2017;S,AYANKRTA00001472,M,AYANKRTA00001473,L,AYANKRTA00001474,XL,AYANKRTA00001475,XXL,AYANKRTA00001476;1499.00;;;;;;;;zerotype;;Winter;;No
2057427;ary1469B-Black-2057427;cotton long kurta with chiffon shrug;Draft;Kurtas;Ayaany;Adults-Women;Women;Black;;;Fashion;;2017;S,AYANKRTA00001467,M,AYANKRTA00001468,L,AYANKRTA00001469,XL,AYANKRTA00001470,XXL,AYANKRTA00001471;1299.00;;;;;;;;zerotype;;Winter;;No
