Style ID;Vendor Article Number;Vendor Article Name;Active Status;Article type;Brand;Age Group;Gender;Base Colour;Colour1;Colour2;Fashion Type;Usage;Year;Size - SKU code pair;MRP;Style Description;Style Note;Materials and Care Description;Size and Fit Description;Size Chart Path;Product Display Name;Tags;Product Type;Classification Brand;Season;Comments;Upload Images
2279194;TSTE03UB0516-PR-White-2279194;TSTE03UB0516-PR, PRINT, XL;Draft;Tshirts;COVER STORY;Adults-Women;Women;White;;;Fashion;Casual;2017;XL,CVSTTSHT00000596,L,CVSTTSHT00000597,M,CVSTTSHT00000598,S,CVSTTSHT00000599,XS,CVSTTSHT00000600;1290.00;;;<p>95% Polyester,5% Elastane</p>;;;na;;zerotype;;Winter;;No
2279193;TSTE03UB0605-BL-Black-2279193;TSTE03UB0605-BL, BLACK, XL;Draft;Tshirts;COVER STORY;Adults-Women;Women;Black;;;Fashion;Casual;2017;XL,CVSTTSHT00000591,L,CVSTTSHT00000592,M,CVSTTSHT00000593,S,CVSTTSHT00000594,XS,CVSTTSHT00000595;790.00;;;<p>100% Cotton</p>;;;na;;zerotype;;Winter;;No
2279192;TSTE03UB0609-BP-Pink-2279192;TSTE03UB0609-BP, BLUSH PINK, XL;Draft;Tshirts;COVER STORY;Adults-Women;Women;Pink;;;Fashion;Casual;2017;XL,CVSTTSHT00000586,L,CVSTTSHT00000587,M,CVSTTSHT00000588,S,CVSTTSHT00000589,XS,CVSTTSHT00000590;790.00;;;<p>100% Cotton</p>;;;na;;zerotype;;Winter;;No
2279191;DSSK03UB0611-RU-Rust-2279191;DSSK03UB0611-RU, RUST, XS;Draft;Dresses;COVER STORY;Adults-Women;Women;Rust;;;Fashion;Casual;2017;XS,CVSTDRSS00001446,XL,CVSTDRSS00001447,L,CVSTDRSS00001448,M,CVSTDRSS00001449,S,CVSTDRSS00001450;1990.00;;;<p>100% Polyester</p>;;;na;;zerotype;;Winter;;No
2279190;DSSK03UB0535-DE-Blue-2279190;DSSK03UB0535-DE, Dark blue, XL;Draft;Dresses;COVER STORY;Adults-Women;Women;Blue;;;Fashion;Casual;2017;XL,CVSTDRSS00001441,L,CVSTDRSS00001442,M,CVSTDRSS00001443,S,CVSTDRSS00001444,XS,CVSTDRSS00001445;2490.00;;;<p>100% Cotton</p>;;;na;;zerotype;;Winter;;No
2279189;DSSK01UB0536-PR-Blue-2279189;DSSK01UB0536-PR, PRINT, XL;Draft;Dresses;COVER STORY;Adults-Women;Women;Blue;;;Fashion;Casual;2017;XL,CVSTDRSS00001436,L,CVSTDRSS00001437,M,CVSTDRSS00001438,S,CVSTDRSS00001439,XS,CVSTDRSS00001440;2490.00;;;<p>100% Rayon</p>;;;na;;zerotype;;Winter;;No
2279188;DSSK01UB0536-NV-Navy Blue-2279188;DSSK01UB0536-NV, Navy, L;Draft;Dresses;COVER STORY;Adults-Women;Women;Navy Blue;;;Fashion;Casual;2017;L,CVSTDRSS00001431,M,CVSTDRSS00001432,S,CVSTDRSS00001433,XS,CVSTDRSS00001434,XL,CVSTDRSS00001435;2490.00;;;<p>Shell: 100% Viscose,Linning: 100% Polyester</p>;;;na;;zerotype;;Winter;;No
2279187;DSSK01UB0533-BE-Blue-2279187;DSSK01UB0533-BE, Blue, XL;Draft;Dresses;COVER STORY;Adults-Women;Women;Blue;;;Fashion;Casual;2017;XL,CVSTDRSS00001426,L,CVSTDRSS00001427,M,CVSTDRSS00001428,S,CVSTDRSS00001429,XS,CVSTDRSS00001430;2490.00;;;<p>100% Cotton</p>;;;na;;zerotype;;Winter;;No
2279184;DSSK01GL0014-BL-Black-2279184;DSSK01GL0014-BL, Black, S;Draft;Dresses;COVER STORY;Adults-Women;Women;Black;;;Fashion;Casual;2017;S,CVSTDRSS00001421,XS,CVSTDRSS00001422,XL,CVSTDRSS00001423,L,CVSTDRSS00001424,M,CVSTDRSS00001425;3990.00;;;<p>70% Rayon,25% Nylon,5% Lycra</p>;;;na;;zerotype;;Winter;;No
2279182;DSMX03UB0509-PR-Black-2279182;DSMX03UB0509-PR, PRINT, XL;Draft;Dresses;COVER STORY;Adults-Women;Women;Black;;;Fashion;Casual;2017;XL,CVSTDRSS00001416,L,CVSTDRSS00001417,M,CVSTDRSS00001418,S,CVSTDRSS00001419,XS,CVSTDRSS00001420;3490.00;;;<p>100% Polyester</p>;;;NA;;zerotype;;Winter;;No
2279179;DSMX01CR0027-PR-Maroon-2279179;DSMX01CR0027-PR, PRINT, XL;Draft;Dresses;COVER STORY;Adults-Women;Women;Maroon;;;Fashion;Casual;2017;XL,CVSTDRSS00001411,L,CVSTDRSS00001412,M,CVSTDRSS00001413,S,CVSTDRSS00001414,XS,CVSTDRSS00001415;2990.00;;;<p>100% Polyester</p>;;;na;;zerotype;;Winter;;No
2279177;DSBD03UB0534-CB-Blue-2279177;DSBD03UB0534-CB, COBALT, L;Draft;Dresses;COVER STORY;Adults-Women;Women;Blue;;;Fashion;Casual;2017;L,CVSTDRSS00001406,M,CVSTDRSS00001407,S,CVSTDRSS00001408,XS,CVSTDRSS00001409,XL,CVSTDRSS00001410;2990.00;;;<p>68% Rayon,28% Nylon, 4% Spandex</p>;;;na;;zerotype;;Winter;;No
2279175;DSBD02AL0010-RD-Red-2279175;DSBD02AL0010-RD, RED, S;Draft;Dresses;COVER STORY;Adults-Women;Women;Red;;;Fashion;Casual;2017;S,CVSTDRSS00001401,XL,CVSTDRSS00001402,L,CVSTDRSS00001403,M,CVSTDRSS00001404,XS,CVSTDRSS00001405;2490.00;;;<p>59% Rayon,35% Nylon,5% Spandex</p>;;;na;;zerotype;;Winter;;No
2279174;DSBD01GL0006-BL-Black-2279174;DSBD01GL0006-BL, Black, XS;Draft;Dresses;COVER STORY;Adults-Women;Women;Black;;;Fashion;Casual;2017;XS,CVSTDRSS00001396,XL,CVSTDRSS00001397,L,CVSTDRSS00001398,M,CVSTDRSS00001399,S,CVSTDRSS00001400;3990.00;;;<p>100% Polyester</p>;;;na;;zerotype;;Winter;;No
2279173;DSAL01CD0005-PR-Rust-2279173;DSAL01CD0005-PR, PRINT, XL;Draft;Dresses;COVER STORY;Adults-Women;Women;Rust;;;Fashion;Casual;2017;XL,CVSTDRSS00001391,L,CVSTDRSS00001392,M,CVSTDRSS00001393,S,CVSTDRSS00001394,XS,CVSTDRSS00001395;2490.00;;;<p>100% Polyester</p>;;;NA;;zerotype;;Winter;;No
2279172;SKMD01SS0005-GE-Grey-2279172;SKMD01SS0005-GE, GREY, 28;Draft;Skirts;COVER STORY;Adults-Women;Women;Grey;;;Fashion;Casual;2017;28,CVSTSKRT00000223,26,CVSTSKRT00000224,34,CVSTSKRT00000225,32,CVSTSKRT00000226,30,CVSTSKRT00000227;3990.00;;;<p>100% Polyester</p>;;;na;;zerotype;;Winter;;No
2279171;SKMN01TF0002-TN-Multi-2279171;SKMN01TF0002-TN, TAN, 32;Draft;Skirts;COVER STORY;Adults-Women;Women;Multi;;;Fashion;Casual;2017;32,CVSTSKRT00000218,30,CVSTSKRT00000219,28,CVSTSKRT00000220,26,CVSTSKRT00000221,34,CVSTSKRT00000222;2490.00;;;<p>100% Polyester,Linning: Polyester</p>;;;NA;;zerotype;;Winter;;No
2279170;SKMN02AL0012-SL-Silver-2279170;SKMN02AL0012-SL, SILVER, 34;Draft;Skirts;COVER STORY;Adults-Women;Women;Silver;;;Fashion;Casual;2017;34,CVSTSKRT00000213,32,CVSTSKRT00000214,30,CVSTSKRT00000215,28,CVSTSKRT00000216,26,CVSTSKRT00000217;2490.00;;;<p>Shell: 50% Pu,50% Polyester,Linning: 100% Polyester</p>;;;na;;zerotype;;Winter;;No
2279169;SKMD02UF0009-BL-Black-2279169;SKMD02UF0009-BL, BLACK, 30;Draft;Skirts;COVER STORY;Adults-Women;Women;Black;;;Fashion;Casual;2017;30,CVSTSKRT00000208,28,CVSTSKRT00000209,26,CVSTSKRT00000210,34,CVSTSKRT00000211,32,CVSTSKRT00000212;2990.00;;;<p>Shell: 100% Polyester,Linning: 95% Polyester,5% Spandex</p>;;;na;;zerotype;;Winter;;No
2279168;DSJS01GL0005-GL-Gold-2279168;DSJS01GL0005-GL, GOLD, XS;Draft;Jumpsuit;COVER STORY;Adults-Women;Women;Gold;;;Fashion;Casual;2017;XS,CVSTJMST00000082,XL,CVSTJMST00000083,L,CVSTJMST00000084,M,CVSTJMST00000085,S,CVSTJMST00000086;4990.00;;;<p>100% Polyester</p>;;;na;;zerotype;;Winter;;No
2279167;JTCA04CR0017-GE-Grey-2279167;JTCA04CR0017-GE, GREY, S;Draft;Coats;COVER STORY;Adults-Women;Women;Grey;;;Fashion;;2017;S,CVSTCOAT00000006,M,CVSTCOAT00000007,XL,CVSTCOAT00000008,XS,CVSTCOAT00000009,L,CVSTCOAT00000010;5490.00;;;<p>90% Polyester,10% Wool (Dry Clean)</p>;;;na;;zerotype;;Fall;;No
2279166;JTCA04GL0003-WI-Maroon-2279166;JTCA04GL0003-WI, WINE, M;Draft;Coats;COVER STORY;Adults-Women;Women;Maroon;;;Fashion;;2017;M,CVSTCOAT00000001,S,CVSTCOAT00000002,XS,CVSTCOAT00000003,XL,CVSTCOAT00000004,L,CVSTCOAT00000005;4990.00;;;<p>80% Polyester,15% Rayon,5% Elastane (Dry Clean)</p>;;;na;;zerotype;;Fall;;No
2279165;TPBS03UB0416-LB-Blue-2279165;TPBS03UB0416-LB, LIGHT BLUE, M;Draft;Tops;COVER STORY;Adults-Women;Women;Blue;;;Fashion;Casual;2017;M,CVSTTOPS00001873,S,CVSTTOPS00001874,XS,CVSTTOPS00001875,XL,CVSTTOPS00001876,L,CVSTTOPS00001877;1790.00;;;<p>100% Cotton</p>;;;na;;zerotype;;Winter;;No
2279164;TPBS02TD0004-WI-Maroon-2279164;TPBS02TD0004-WI, WINE, S;Draft;Tops;COVER STORY;Adults-Women;Women;Maroon;;;Fashion;Casual;2017;S,CVSTTOPS00001868,XS,CVSTTOPS00001869,XL,CVSTTOPS00001870,L,CVSTTOPS00001871,M,CVSTTOPS00001872;1790.00;;;<p>Shell:65% Cotton,32% Nylon, 3% Spandex Linning:100% Polyester</p>;;;na;;zerotype;;Winter;;No
2279163;TPBS03UB0548-MU-Mustard-2279163;TPBS03UB0548-MU, MUSTARD, S;Draft;Tops;COVER STORY;Adults-Women;Women;Mustard;;;Fashion;Casual;2017;S,CVSTTOPS00001863,XS,CVSTTOPS00001864,XL,CVSTTOPS00001865,L,CVSTTOPS00001866,M,CVSTTOPS00001867;1990.00;;;<p>100% Polyester</p>;;;na;;zerotype;;Winter;;No
2279162;TPBS03UB0518-WT-White-2279162;TPBS03UB0518-WT, WHITE, S;Draft;Tops;COVER STORY;Adults-Women;Women;White;;;Fashion;Casual;2017;S,CVSTTOPS00001858,XL,CVSTTOPS00001859,L,CVSTTOPS00001860,M,CVSTTOPS00001861,XS,CVSTTOPS00001862;1790.00;;;<p>100% Polyester</p>;;;na;;zerotype;;Winter;;No
2279161;TPBS03UB0527-PR-White-2279161;TPBS03UB0527-PR, PRINT, M;Draft;Tops;COVER STORY;Adults-Women;Women;White;;;Fashion;Casual;2017;M,CVSTTOPS00001853,S,CVSTTOPS00001854,XL,CVSTTOPS00001855,L,CVSTTOPS00001856,XS,CVSTTOPS00001857;1790.00;;;<p>80% Polyester,20% Mettalic</p>;;;na;;zerotype;;Winter;;No
2279160;TPSH01CR0023-PR-Mustard-2279160;TPSH01CR0023-PR, PRINT, XL;Draft;Tops;COVER STORY;Adults-Women;Women;Mustard;;;Fashion;Casual;2017;XL,CVSTTOPS00001848,L,CVSTTOPS00001849,M,CVSTTOPS00001850,S,CVSTTOPS00001851,XS,CVSTTOPS00001852;1490.00;;;<p>100% polyester</p>;;;na;;zerotype;;Winter;;No
2279159;TPBS03UB0531-ST-Red-2279159;TPBS03UB0531-ST, RED STRIPE, M;Draft;Tops;COVER STORY;Adults-Women;Women;Red;;;Fashion;Casual;2017;M,CVSTTOPS00001843,S,CVSTTOPS00001844,XL,CVSTTOPS00001845,L,CVSTTOPS00001846,XS,CVSTTOPS00001847;1790.00;;;<p>100% Cotton</p>;;;na;;zerotype;;Winter;;No
2279158;TPBS02CR0025-OL-Olive-2279158;TPBS02CR0025-OL, Olive, XS;Draft;Tops;COVER STORY;Adults-Women;Women;Olive;;;Fashion;Casual;2017;XS,CVSTTOPS00001838,L,CVSTTOPS00001839,M,CVSTTOPS00001840,S,CVSTTOPS00001841,XL,CVSTTOPS00001842;1490.00;;;<p>100% Polyester</p>;;;na;;zerotype;;Winter;;No
2279157;TPBS03UB0444-GL-Gold-2279157;TPBS03UB0444-GL, GOLD, L;Draft;Tops;COVER STORY;Adults-Women;Women;Gold;;;Fashion;Casual;2017;L,CVSTTOPS00001833,M,CVSTTOPS00001834,XS,CVSTTOPS00001835,S,CVSTTOPS00001836,XL,CVSTTOPS00001837;1790.00;;;<p>100% Polyester</p>;;;na;;zerotype;;Winter;;No
2279156;TPBS03UB0545-PR-Navy Blue-2279156;TPBS03UB0545-PR, PRINT, L;Draft;Tops;COVER STORY;Adults-Women;Women;Navy Blue;;;Fashion;Casual;2017;L,CVSTTOPS00001828,XL,CVSTTOPS00001829,M,CVSTTOPS00001830,S,CVSTTOPS00001831,XS,CVSTTOPS00001832;1490.00;;;<p>100% rayon</p>;;;na;;zerotype;;Winter;;No
2279155;TPBS05TD0009-BU-Pink-2279155;TPBS05TD0009-BU, BLUSH, XL;Draft;Tops;COVER STORY;Adults-Women;Women;Pink;;;Fashion;Casual;2017;XL,CVSTTOPS00001823,L,CVSTTOPS00001824,M,CVSTTOPS00001825,S,CVSTTOPS00001826,XS,CVSTTOPS00001827;1490.00;;;<p>100% Polyester</p>;;;na;;zerotype;;Winter;;No
2279154;STCD03UB0001-PI-Pink-2279154;STCD03UB0001-PI, PINK, L;Draft;Sweaters;COVER STORY;Adults-Women;Women;Pink;;;Fashion;Casual;2017;L,CVSTSWTR00000135,XL,CVSTSWTR00000136,M,CVSTSWTR00000137,XS,CVSTSWTR00000138,S,CVSTSWTR00000139;2490.00;;;<p>85% Tensil,15% Lurex</p>;;;na;;zerotype;;Winter;;No
2279153;STCD03UB0002-BL-Black-2279153;STCD03UB0002-BL, BLACK, XS;Draft;Sweaters;COVER STORY;Adults-Women;Women;Black;;;Fashion;Casual;2017;XS,CVSTSWTR00000130,S,CVSTSWTR00000131,M,CVSTSWTR00000132,L,CVSTSWTR00000133,XL,CVSTSWTR00000134;2990.00;;;<p>75% Viscose, 25% Nylon</p>;;;na;;zerotype;;Winter;;No
2158651;STCD03UB0001-NV-Navy Blue-2158651;STCD03UB0001-NV, NAVY, XL;Active;Sweaters;COVER STORY;Adults-Women;Women;Navy Blue;;;Fashion;Casual;2017;XS,CVSTSWTR00000090,S,CVSTSWTR00000091,M,CVSTSWTR00000092,L,CVSTSWTR00000093,XL,CVSTSWTR00000094;2490.00;Navy blue solid cardigan, long sleeves, straight hem;This top-notch COVER STORY sweater will provide you with an ample amount of comfort and style.  When you're having a relaxing night in, wear this navy blue piece with your favourite pair of dark wash jeans.;Blended <br> Hand-wash;The model (height 5'8") is wearing a size S;;COVER STORY Women Navy Blue Solid Cardigan;COVER STORY,JIT,Autumn-Hotpicks,New-Arrivals,bfg17-non-disc;zerotype;;Fall;bfg17-non-disc;No
