Style ID;Vendor Article Number;Vendor Article Name;Active Status;Article type;Brand;Age Group;Gender;Base Colour;Colour1;Colour2;Fashion Type;Usage;Year;Size - SKU code pair;MRP;Style Description;Style Note;Materials and Care Description;Size and Fit Description;Size Chart Path;Product Display Name;Tags;Product Type;Classification Brand;Season;Comments;Upload Images
1889619;5021469169058-Multi-1889619;MG PROMO PINK FLORAL Romper, PINK, 068;Draft;Rompers;mothercare;Kids-Girls;Girls;;;;Fashion;;2017;3-6M,MTCRRMPR00000659,6-9M,MTCRRMPR00000660,9-12M,MTCRRMPR00000661,12-18M,MTCRRMPR00000662,18-24M,MTCRRMPR00000663,2-3Y,MTCRRMPR00000664;899.00;;;;;;;;zerotype;;Summer;;No
1889618;5021469037043-Muti-1889618;IO B 2PK ROMP TRAIN, LIGHB, 086;Draft;Rompers;mothercare;Kids-Boys;Boys;;;;Fashion;;2017;Newborn,MTCRRMPR00000653,0-3M,MTCRRMPR00000654,3-6M,MTCRRMPR00000655,6-9M,MTCRRMPR00000656,9-12M,MTCRRMPR00000657,12-18M,MTCRRMPR00000658;1299.00;;;;;;;;zerotype;;Summer;;No
1889615;5021468689892-Blue-1889615;JB MC61 LIGHT W, DENIM, 098;Draft;Jeans;mothercare;Kids-Boys;Boys;;;;Fashion;;2017;3-4Y,MTCRJENS00000438,4-5Y,MTCRJENS00000439,5-6Y,MTCRJENS00000440,6-7Y,MTCRJENS00000441,7-8Y,MTCRJENS00000442,8-9Y,MTCRJENS00000443,9-10Y,MTCRJENS00000444,2-3Y,MTCRJENS00000445;1299.00;;;;;;;;zerotype;;Summer;;No
1889612;5021468689878-Blue-1889612;JB MC61 MID WAS, DENIM, 140;Draft;Jeans;mothercare;Kids-Boys;Boys;;;;Fashion;;2017;2-3Y,MTCRJENS00000430,3-4Y,MTCRJENS00000431,4-5Y,MTCRJENS00000432,5-6Y,MTCRJENS00000433,6-7Y,MTCRJENS00000434,7-8Y,MTCRJENS00000435,8-9Y,MTCRJENS00000436,9-10Y,MTCRJENS00000437;1499.00;;;;;;;;zerotype;;Summer;;No
1889610;5021469169478-Pink Blue White-1889610;MG PROM TIERED COLOURBLCK DRS, PINK, 098;Draft;Dresses;mothercare;Kids-Girls;Girls;;;;Fashion;;2017;3-6M,MTCRDRSS00001864,6-9M,MTCRDRSS00001865,9-12M,MTCRDRSS00001866,12-18M,MTCRDRSS00001867,18-24M,MTCRDRSS00001868,2-3Y,MTCRDRSS00001869;899.00;;;;;;;;zerotype;;Summer;;No
