Style ID;Vendor Article Number;Vendor Article Name;Active Status;Article type;Brand;Age Group;Gender;Base Colour;Colour1;Colour2;Fashion Type;Usage;Year;Size - SKU code pair;MRP;Style Description;Style Note;Materials and Care Description;Size and Fit Description;Size Chart Path;Product Display Name;Tags;Product Type;Classification Brand;Season;Comments;Upload Images
2369688;ALKP317J03930-Blue-2369688;Tshirts;Draft;Tshirts;Solly Jeans Co.;Adults-Men;Men;Blue;;;Fashion;Casual;2017;XXL,SYJSTSHT00000888,XL,SYJSTSHT00000889,L,SYJSTSHT00000890,M,SYJSTSHT00000891,S,SYJSTSHT00000892,3XL,SYJSTSHT00000893;1299.00;;;<p>100% Cotton</p>;;;na;;zerotype;;Summer;;No
2369687;ALKC317J00427-Blue-2369687;Tshirts;Draft;Tshirts;Solly Jeans Co.;Adults-Men;Men;Blue;;;Fashion;Casual;2017;3XL,SYJSTSHT00000881,XXL,SYJSTSHT00000882,XL,SYJSTSHT00000883,L,SYJSTSHT00000884,M,SYJSTSHT00000885,S,SYJSTSHT00000886;999.00;;;<p>100% Cotton</p>;;;na;;zerotype;;Summer;;No
2369686;ALKC316J05269-Blue-2369686;Tshirts;Draft;Tshirts;Solly Jeans Co.;Adults-Men;Men;Blue;;;Fashion;Casual;2017;3XL,SYJSTSHT00000873,XXL,SYJSTSHT00000874,XL,SYJSTSHT00000875,L,SYJSTSHT00000876,M,SYJSTSHT00000877,S,SYJSTSHT00000878;999.00;;;<p>100% Cotton</p>;;;na;;zerotype;;Summer;;No
2369683;ALTF317J03560-Grey-2369683;Trousers;Draft;Trousers;Solly Jeans Co.;Adults-Men;Men;Grey;;;Fashion;Casual;2017;32,SYJSTRSR00000203,38,SYJSTRSR00000204,42,SYJSTRSR00000205,30,SYJSTRSR00000206,28,SYJSTRSR00000207,40,SYJSTRSR00000208,36,SYJSTRSR00000209,34,SYJSTRSR00000210;1899.00;;;<p>100% Cotton</p>;;;na;;zerotype;;Summer;;No
2369679;ALSF317J02006-Navy Blue-2369679;Shirts;Draft;Shirts;Solly Jeans Co.;Adults-Men;Men;Navy Blue;;;Fashion;Casual;2017;46,SYJSSHRT00000958,44,SYJSSHRT00000959,42,SYJSSHRT00000960,40,SYJSSHRT00000961,39,SYJSSHRT00000962,38,SYJSSHRT00000963;1949.00;;;<p>100% Cotton</p>;;;na;;zerotype;;Summer;;No
2369676;ALSF317J01492-Grey-2369676;Shirts;Draft;Shirts;Solly Jeans Co.;Adults-Men;Men;Grey;;;Fashion;Casual;2017;46,SYJSSHRT00000952,44,SYJSSHRT00000953,42,SYJSSHRT00000954,40,SYJSSHRT00000955,39,SYJSSHRT00000956,38,SYJSSHRT00000957;1749.00;;;<p>100% Cotton</p>;;;na;;zerotype;;Summer;;No
2369670;ALDN317J02050-Navy Blue-2369670;Jeans;Draft;Jeans;Solly Jeans Co.;Adults-Men;Men;Navy Blue;;;Fashion;Casual;2017;36,SYJSJENS00001557,34,SYJSJENS00001558,44,SYJSJENS00001559,32,SYJSJENS00001560,30,SYJSJENS00001561,42,SYJSJENS00001562,40,SYJSJENS00001563,28,SYJSJENS00001564,38,SYJSJENS00001565;2799.00;;;<p>98% Cotton and 2% Elastane</p>;;;na;;zerotype;;Summer;;No
2369666;ALDN317J02036-Blue-2369666;Jeans;Draft;Jeans;Solly Jeans Co.;Adults-Men;Men;Blue;;;Fashion;Casual;2017;40,SYJSJENS00001548,38,SYJSJENS00001549,36,SYJSJENS00001550,34,SYJSJENS00001551,32,SYJSJENS00001552,30,SYJSJENS00001553,28,SYJSJENS00001554,44,SYJSJENS00001555,42,SYJSJENS00001556;2699.00;;;<p>77% Cotton, 22.2% Polyester and 0.8% Elastane</p>;;;na;;zerotype;;Summer;;No
2369663;ALDN317J01179-Blue-2369663;Jeans;Draft;Jeans;Solly Jeans Co.;Adults-Men;Men;Blue;;;Fashion;Casual;2017;38,SYJSJENS00001539,32,SYJSJENS00001540,30,SYJSJENS00001541,36,SYJSJENS00001542,34,SYJSJENS00001543,44,SYJSJENS00001544,42,SYJSJENS00001545,40,SYJSJENS00001546,28,SYJSJENS00001547;2499.00;;;<p>98.5% Cotton and 1.5% Elastane</p>;;;na;;zerotype;;Summer;;No
2369662;ALDN317J01164-Blue-2369662;Jeans;Draft;Jeans;Solly Jeans Co.;Adults-Men;Men;Blue;;;Fashion;Casual;2017;30,SYJSJENS00001532,32,SYJSJENS00001533,36,SYJSJENS00001534,40,SYJSJENS00001535,38,SYJSJENS00001536,34,SYJSJENS00001537,28,SYJSJENS00001538;2699.00;;;<p>98% Cotton and 2% Spandex</p>;;;na;;zerotype;;Summer;;No
2369661;ALDN317J01158-Blue-2369661;Jeans;Draft;Jeans;Solly Jeans Co.;Adults-Men;Men;Blue;;;Fashion;Casual;2017;30,SYJSJENS00001523,42,SYJSJENS00001524,28,SYJSJENS00001525,40,SYJSJENS00001526,34,SYJSJENS00001527,32,SYJSJENS00001528,38,SYJSJENS00001529,44,SYJSJENS00001530,36,SYJSJENS00001531;2499.00;;;<p>98% Cotton and 2% Spandex</p>;;;na;;zerotype;;Summer;;No
2369660;ALDN317J01128-Blue-2369660;Jeans;Draft;Jeans;Solly Jeans Co.;Adults-Men;Men;Blue;;;Fashion;Casual;2017;30,SYJSJENS00001514,32,SYJSJENS00001515,28,SYJSJENS00001516,34,SYJSJENS00001517,36,SYJSJENS00001518,38,SYJSJENS00001519,40,SYJSJENS00001520,42,SYJSJENS00001521,44,SYJSJENS00001522;2299.00;;;<p>61.5% Cotton, 36.5% Polyester and 2% Elastane</p>;;;na;;zerotype;;Summer;;No
2369659;ALDN316J07068-Blue-2369659;Jeans;Draft;Jeans;Solly Jeans Co.;Adults-Men;Men;Blue;;;Fashion;Casual;2017;36,SYJSJENS00001506,34,SYJSJENS00001507,32,SYJSJENS00001508,30,SYJSJENS00001509,28,SYJSJENS00001510,42,SYJSJENS00001511,40,SYJSJENS00001512,38,SYJSJENS00001513;3499.00;;;<p>98.5% Cotton and 1.5% Elastane</p>;;;na;;zerotype;;Summer;;No
2369658;ALDN316J05589-Blue-2369658;Jeans;Draft;Jeans;Solly Jeans Co.;Adults-Men;Men;Blue;;;Fashion;Casual;2017;42,SYJSJENS00001498,40,SYJSJENS00001499,38,SYJSJENS00001500,36,SYJSJENS00001501,28,SYJSJENS00001502,30,SYJSJENS00001503,32,SYJSJENS00001504,34,SYJSJENS00001505;3099.00;;;<p>98.5% Cotton and 1.5% Elastane</p>;;;na;;zerotype;;Summer;;No
2150221;ALKC317J00434-Maroon-2150221;Tshirts;On Hold - Sample;Tshirts;Solly Jeans Co.;Adults-Men;Men;;;;Fashion;;2017;S,SYJSTSHT00000764;999.00;;;<p>Wash with mild detergent. Do not bleach. Dry in shade</p>;;;;ndd17-mum;zerotype;;Spring;Broken Size;No
2150219;ALKC317J00428-Green-2150219;Tshirts;Draft;Tshirts;Solly Jeans Co.;Adults-Men;Men;;;;Fashion;;2017;S,SYJSTSHT00000762;999.00;;;<p>Wash with mild detergent. Do not bleach. Dry in shade</p>;;;;;zerotype;;Spring;;No
1966952;ALKC317J00463-white-1966952;ALKC317J00463;Draft;Tshirts;Solly Jeans Co.;Adults-Men;Men;White;;;Fashion;Casual;2017;S,SYJSTSHT00000376,M,SYJSTSHT00000377,L,SYJSTSHT00000378;999.00;;;<p>Wash with mild detergent. Do not bleach. Dry in shade</p>;;;;;zerotype;;Spring;;No
1946682;ALKC317J00409-White-1946682;TSHIRT;Inactive - Marketplace - Reject;Tshirts;Solly Jeans Co.;Adults-Men;Men;White;;;Fashion;Casual;2017;3XL,SYJSTSHT00000344,L,SYJSTSHT00000345,M,SYJSTSHT00000346,S,SYJSTSHT00000347,XL,SYJSTSHT00000348,XXL,SYJSTSHT00000349;699.00;White <a href='/solid?src=pd' class='seolink'>solid</a>  T-shirt, has a polo collar, <a href='/short?src=pd' class='seolink'>short</a> sleeves, 2 pockets;When you're in need of some new tees, opt for this in-style T-shirt made by Solly Jeans Co.  When you're going for a stroll in the park, put this white piece with a pair of chinos and sneakers to feel both comfortable and stylish outside.;Cotton, cotton and cotton <br> Machine-wash;The model (height 6') is wearing a size M;;Solly Jeans Co. Men White Solid Polo Collar T-shirt;Solly Jeans Co.,PPMP;zerotype;;Spring;No Image;No
1946497;ALDN317J01099-Blue-1946497;JEANS;Active;Jeans;Solly Jeans Co.;Adults-Men;Men;Blue;;;Fashion;Casual;2017;28,SYJSJENS00000734,30,SYJSJENS00000735,32,SYJSJENS00000736,34,SYJSJENS00000737,36,SYJSJENS00000738,38,SYJSJENS00000739,40,SYJSJENS00000740,42,SYJSJENS00000741,44,SYJSJENS00000742;2499.00;Blue light wash 5-pocket low-rise jeans, clean look with light fade, has a button and zip closure, waistband with belt loops<br />Our stylist has paired these trousers with a belt<br />These trousers will not come with a belt;Treat yourself to a new pair of Solly Jeans Co. skinny-fit jeans and enhance your everyday style.  When you're meeting the boys for dinner and drinks, rock them with leather boots and a quality tee.;Cotton <br />Machine-wash;The model (height 6') is wearing a size 32;;Solly Jeans Co. by Allen Solly Men Blue Skinny Fit Low-Rise Clean Look Jeans;Solly Jeans Co.,PPMP,duty-offer-august,welcome-to-myntra-august17,casualfest-june17,express-delivery-17,try-and-buy-17,mantastic-nov-aw17,mensjeanswear-eors,eorsdec17-ftod;zerotype;;Winter;eorsdec17-ftod;No
1946353;ALSF317J01541-Blue-1946353;SHIRTS;Active;Shirts;Solly Jeans Co.;Adults-Men;Men;Blue;;;Fashion;Casual;2017;44,SYJSSHRT00000566,46,SYJSSHRT00000567,48,SYJSSHRT00000568;2049.00;<a href='/blue?src=pd' class='seolink'>Blue</a> printed <a href='/casual?src=pd' class='seolink'>casual</a> shirt, has a cutaway collar, button placket, <a href='/1?src=pd' class='seolink'>1</a> pocket, long sleeves, curved hem;Add this well-designed shirt from Solly Jeans Co. to your wardrobe and stay warm all year long.  For a night at the movies or casual dinner date, team this blue shirt with slim trousers and light jacket.;Cotton <br /> Machine-wash;The model (height 6') is wearing a size 44;;Solly Jeans Co. by Allen Solly Men Blue Printed Casual Shirt;Solly Jeans Co.,PPMP,ftod-eorsjun17,ftod-eorsj17-30,duty-offer-august,welcome-to-myntra-august17,casualfest-june17;zerotype;;Spring;Madura_relist_11th Dec_Sachin_req;No
1946351;ALSF317J01541-Blue-1946351;SHIRTS;Active;Shirts;Solly Jeans Co.;Adults-Men;Men;Blue;;;Fashion;Casual;2017;38,SYJSSHRT00000562,39,SYJSSHRT00000563,40,SYJSSHRT00000564,42,SYJSSHRT00000565;1999.00;<a href='/blue?src=pd' class='seolink'>Blue</a> printed <a href='/casual?src=pd' class='seolink'>casual</a> shirt, has a cutaway collar, button placket, <a href='/1?src=pd' class='seolink'>1</a> pocket, long sleeves, curved hem;Spruce up your look with this handsome shirt from Solly Jeans Co. This blue piece can be worn with dark wash jeans and Chelsea boots when you're going to an after-work happy hour.;Cotton <br /> Machine-wash;The model (height 6') is wearing a size 40;;Solly Jeans Co. by Allen Solly Men Blue Printed Casual Shirt;Solly Jeans Co.,PPMP,ftod-eorsjun17,ftod-eorsj17-30,duty-offer-august,welcome-to-myntra-august17,casualfest-june17,try-and-buy-17;zerotype;;Spring;Parth_req_30th Nov;No
1946341;ALSF317J01470-Blue-1946341;SHIRTS;Delisted;Shirts;Solly Jeans Co.;Adults-Men;Men;Blue;;;Fashion;Casual;2017;44,SYJSSHRT00000539,46,SYJSSHRT00000540,48,SYJSSHRT00000541;1949.00;<a href='/blue?src=pd' class='seolink'>Blue</a> checked <a href='/casual?src=pd' class='seolink'>casual</a> shirt, has a cutaway collar, a full button placket, a chest pocket, long sleeves, and a curved hem;This shirt from Solly Jeans Co. will give you the perfect amount of comfort and durability.  Head to a casual outdoor event with family and friends in this blue shirt with distressed jeans and canvas sneakers.;Cotton <br /> Machine-wash;The model (height 6') is wearing a size 44;;Solly Jeans Co. by Allen Solly Men Blue Checked Casual Shirt;Solly Jeans Co.,PPMP,ftod-eorsjun17,ftod-eorsj17-30,duty-offer-august,welcome-to-myntra-august17,casualfest-june17;zerotype;;Spring;Karthik Req_29th_Nov;No
1946339;ALSF317J01470-Blue-1946339;SHIRTS;Delisted;Shirts;Solly Jeans Co.;Adults-Men;Men;Blue;Grey;;Fashion;Casual;2017;38,SYJSSHRT00000535,39,SYJSSHRT00000536,40,SYJSSHRT00000537,42,SYJSSHRT00000538;1899.00;<a href='/blue?src=pd' class='seolink'>Blue</a> and <a href='/grey?src=pd' class='seolink'>grey</a> checked <a href='/casual?src=pd' class='seolink'>casual</a> shirt, has a cutaway collar, button placket, <a href='/1?src=pd' class='seolink'>1</a> pocket, long sleeves, curved hem;Cozy up with this in-style Solly Jeans Co. shirt this season.  Happy hour just got a whole lot stylish when you put this piece with some chukka boots and leather bracelet.;Cotton <br /> Machine-wash;The model (height 6') is wearing a size 40;;Solly Jeans Co. by Allen Solly Men Blue Regular Fit Checked Casual Shirt;Solly Jeans Co.,PPMP,ftod-eorsjun17,ftod-eorsj17-30,duty-offer-august,welcome-to-myntra-august17,casualfest-june17;zerotype;;Spring;Karthik Req_29th_Nov;No
1934773;ALSF317J02982-White-1934773;SHIRTS;Draft;Shirts;Solly Jeans Co.;Adults-Men;Men;White;;;Fashion;Casual;2017;44,SYJSSHRT00000533,48,SYJSSHRT00000534;1849.00;;;;;;;;zerotype;;Spring;;No
1934772;ALSF317J02982-White-1934772;SHIRTS;Active;Shirts;Solly Jeans Co.;Adults-Men;Men;White;;;Fashion;Casual;2017;38,SYJSSHRT00000529,39,SYJSSHRT00000530,40,SYJSSHRT00000531,42,SYJSSHRT00000532;1799.00;White printed <a href='/casual?src=pd' class='seolink'>casual</a> shirt, has a cutaway collar, button placket, <a href='/1?src=pd' class='seolink'>1</a> pocket, long sleeves, curved hem;This shirt from Solly Jeans Co. will give you the perfect amount of comfort and durability.  This piece can be teamed with distressed denims and canvas shoes when you're grabbing lunch with the guys.;Cotton <br /> Machine-wash;Custom fit<br /> The model (height 6') is wearing a size 40;;Solly Jeans Co. by Allen Solly Men White Custom Fit Printed Casual Shirt;Solly Jeans Co.,JIT;zerotype;;Spring;Madura_relist_11th Dec_Sachin_req;No
1840041;ALKC317J00434-Maroon-1840041;Tshirts;Active;Tshirts;Solly Jeans Co.;Adults-Men;Men;Maroon;;;Fashion;Casual;2017;L,SYJSTSHT00000224,M,SYJSTSHT00000225;999.00;Maroon printed waist length T-shirt, has a round neck, short sleeves;Sport this trendsetting Solly Jeans Co. tee when you're ready to take your style to the next level.  This maroon item can be teamed with fitted jeans for a clean look or lounge shorts for casual weekend wear.;Cotton <br /> Machine-wash;Slim fit <br>The model (height 6') is wearing a size L;;Solly Jeans Co. by Allen Solly Men Maroon Printed Slim Fit T-shirt;Solly Jeans Co.,PPMP,gold22-bb,b3-20-power20,newseason20-bb,b3-20-apr22,price-surge,apr15-hh,men-offer-may05,crush24-ccmay,myntra-icici-offer,big10-mse-all,big10-350off,big10-super-hour25,may21-hh,crush20-may25,crush350-may25,price-surge-may25,hh-jun2,offer999-jun4,welcome-to-myntra-june17,jun08-wonder-hour,duty-offer-august,welcome-to-myntra-august17,casualfest-june17,mitm-casuals-oct,mitm-mainbanner-oct,mitm-streetstyles-oct,express-delivery-17,try-and-buy-17;zerotype;;Spring;coupon-eorsdec17;No
1840040;ALKC317J00433-Grey-1840040;Tshirts;Delisted;Tshirts;Solly Jeans Co.;Adults-Men;Men;Charcoal;;;Fashion;Casual;2017;L,SYJSTSHT00000223,M,SYJSTSHT00000887;999.00;Charcoal grey printed waist length T-shirt, has a round neck, short sleeves;Made of cotton, you'll love the high-quality fit and feel of this Solly Jeans Co. tee.  You can pair this charcoal piece with slick black jeans and Chelsea boots for a fashionable weekend outfit.;Cotton <br /> Machine-wash;Slim fit <br>The model (height 6') is wearing a size L;;Solly Jeans Co. by Allen Solly Men Charcoal Grey Printed Slim Fit T-shirt;Solly Jeans Co.,PPMP,b3-20-apr22,top-picks-menswear,price-surge,brand-out-loud-tshirts,apr15-hh,crush24-ccmay,new-season30-ccmay,men-offer-may05,extra400-may9,big10-lucky30,big10-rs501off,myntra-icici-offer,big10-mse-all,big10-350off,big10-super-hour25,may21-hh,crush20-may25,crush350-may25,price-surge-may25,hh-jun2,offer999-jun4,welcome-to-myntra-june17,jun08-wonder-hour,duty-offer-august,welcome-to-myntra-august17,casualfest-june17;zerotype;;Spring;casualfest-june17;No
1840039;ALKC317J00428-Green-1840039;Tshirts;Delisted;Tshirts;Solly Jeans Co.;Adults-Men;Men;Green;;;Fashion;Casual;2017;L,SYJSTSHT00000221,M,SYJSTSHT00000222;999.00;Green printed waist length T-shirt, has a round neck, short sleeves;Amp up your casual style with a well-structured T-shirt from Solly Jeans Co.  Whether you're running errands or meeting friends for coffee, sport this green number with slim black jeans or cutoff shorts for a relaxed style.;Cotton <br /> Machine-wash;Slim fit<br />The model (height 6') is wearing a size L;;Solly Jeans Co. by Allen Solly Men Green Printed Slim Fit T-shirt;Solly Jeans Co.,PPMP,hh-jun2,offer999-jun4,jun08-wonder-hour,duty-offer-august,welcome-to-myntra-august17,casualfest-june17;zerotype;;Spring;Karthik Req_29th_Nov;No
1840037;ALKC317J00422-Blue-1840037;Tshirts;Delisted;Tshirts;Solly Jeans Co.;Adults-Men;Men;Blue;White;;Fashion;Casual;2017;XL,SYJSTSHT00000216,XXL,SYJSTSHT00000217,L,SYJSTSHT00000218,M,SYJSTSHT00000879,S,SYJSTSHT00000880;999.00;Blue and white striped waist length Henley T-shirt, has a Henley neck, short sleeves, a chest pocket;When you need some new basic tees to allow your statement pieces to shine, go with this one from Solly Jeans Co.  You can pair this blue piece with slick black jeans and Chelsea boots for a fashionable weekend outfit.;Cotton <br /> Machine-wash;Slim fit <br>The model (height 6') is wearing a size L;;Solly Jeans Co. by Allen Solly Men Blue & White Striped Slim Fit Henley T-shirt;Solly Jeans Co.,PPMP,gold22-bb,b3-20-power20,b3-20-apr22,price-surge,stripacular-tshirts,apr15-hh,men-offer-may05,crush24-ccmay,myntra-icici-offer,big10-mse-all,big10-350off,big10-super-hour25,may21-hh,crush20-may25,crush350-may25,price-surge-may25,hh-jun2,offer999-jun4,welcome-to-myntra-june17,jun08-wonder-hour,duty-offer-august,welcome-to-myntra-august17,casualfest-june17,aw17-do-stripes-casually;zerotype;;Spring;aw17-do-stripes-casually;No
1839228;ALDN317J02085-Blue-1839228;Jeans;Delisted;Jeans;Solly Jeans Co.;Adults-Men;Men;Blue;;;Fashion;Casual;2017;34,SYJSJENS00000633,32,SYJSJENS00000634,44,SYJSJENS00001566,40,SYJSJENS00001567,42,SYJSJENS00001568,28,SYJSJENS00001569,38,SYJSJENS00001570,30,SYJSJENS00001571;2299.00;Blue medium-wash 5-pocket mid-rise jeans, clean look with light fade, has whiskers, a zip fly and button closure, waistband with belt loops;Solly Jeans Co. has created a collection of fashionable and comfortable slim jeans. Keep them casual for the weekend by pairing yours with leather boots and a fitted shirt.;Cotton <br />Machine-wash;Slim fit<br />The model (height 6') is wearing a size 32;;Solly Jeans Co. by Allen Solly Men Blue Slim Fit Mid-Rise Clean Look Jeans;Solly Jeans Co.,PPMP,big10-super-hour25,may21-hh,big10-gratification,crush350-may25,price-surge-may25,hh-jun2,offer999-jun4,welcome-to-myntra-june17,jun08-wonder-hour,duty-offer-august,welcome-to-myntra-august17,casualfest-june17;zerotype;;Spring;casualfest-june17;No
1838632;ALDN516J06195-Blue-1838632;Jeans;Delisted;Jeans;Solly Jeans Co.;Adults-Men;Men;Navy Blue;;;Fashion;Casual;2016;28,SYJSJENS00000558,38,SYJSJENS00000559,40,SYJSJENS00000560,42,SYJSJENS00000561;2799.00;Navy Blue medium wash 5-pocket mid-rise jeans, clean look with no fade, has a button and zip closure, waistband with belt loops;You're sure to love the long-lasting comfort and style of these Solly Jeans Co. slim jeans. When you have a low-key dinner date, wear yours with easy loafers and your favourite shirt.;93.5% cotton, 5.5% T400, 1% elastane<br /> Machine-wash;Slim fit<br />The model (height 6') is wearing a size 32;;Solly Jeans Co. by Allen Solly Men Navy Blue Slim Fit Mid-Rise Clean Look Jeans;Solly Jeans Co.,PPMP;zerotype;;Fall;Karthik Req_29th_Nov;No
1838626;ALDN316J04329-Blue-1838626;Jogger Jeans;Delisted;Jeans;Solly Jeans Co.;Adults-Men;Men;Navy Blue;;;Fashion;Casual;2016;28,SYJSJENS00000504,30,SYJSJENS00000505,32,SYJSJENS00000506,34,SYJSJENS00000507,36,SYJSJENS00000508,38,SYJSJENS00000509,40,SYJSJENS00000510,42,SYJSJENS00000511;3499.00;Navy blue dark wash 4-pocket mid-rise jogger jeans, clean look with light fade, has an elasticated waistband with drawstring fastening and belt loops;These slim jeans from Solly Jeans Co. will intensify your personal style statement. Team yours with Chelsea boots and a fitted T-shirt for a handsome look for both work and play.;98% cotton, 2% elastane<br /> Machine-wash;Slim fit <br>The model (height 6') is wearing a size 32;;Solly Jeans Co. by Allen Solly Men Navy Blue Slim Fit Mid-Rise Clean Look Jogger Jeans;Solly Jeans Co.,PPMP,apr12-super-hour,indus-apr13,bnb-styles-apr,summer-style-apr,after-match-apr,apr15-hh,take20-apr17,gold22-bb,b3-20-power20,flash-sale-bb21,coupon-crush05,myntra-rupay,coupon-crush10,mse-all,pp-extra25-off,washed-to-perfection-jeans,washed-to-perfection-shorts2,super-hour-ccmay,welcome-to-myntra-may-big,duty-offer-august,welcome-to-myntra-august17,casualfest-june17,Mitm-college-aug;zerotype;;Spring;Karthik Req_29th_Nov;No
1802814;ALKC317J00463-white-1802814;Tshirts;Draft;Tshirts;Solly Jeans Co.;Adults-Men;Men;;;;Fashion;Casual;2017;XXL,SYJSTSHT00000120,XL,SYJSTSHT00000121,3XL,SYJSTSHT00000122;999.00;;;<p>machine wash warm Do not bleach</p>;;;;sollynewest;zerotype;;Summer;OHS to D;No
1802807;ALKC317J00434-windsorwine-1802807;Tshirts;Draft;Tshirts;Solly Jeans Co.;Adults-Men;Men;;;;Fashion;Casual;2017;XXL,SYJSTSHT00000099,XL,SYJSTSHT00000100,3XL,SYJSTSHT00000101;999.00;;;<p>machine wash warm Do not bleach</p>;;;;sollynewest;zerotype;;Summer;OHS to D;No
1802805;ALKC317J00428-holiday-1802805;Tshirts;On Hold - Sample;Tshirts;Solly Jeans Co.;Adults-Men;Men;;;;Fashion;Casual;2017;XL,SYJSTSHT00000093,XXL,SYJSTSHT00000094,3XL,SYJSTSHT00000095;999.00;;;<p>machine wash warm Do not bleach</p>;;;;sollynewest;zerotype;;Summer;Broken Size;No
1779133;ALDN516J06195-Blue-1779133;JEANS;Delisted;Trousers;Solly Jeans Co.;Adults-Men;Men;Blue;;;Fashion;Casual;2017;30,SYJSJENS00000285,32,SYJSJENS00000286,34,SYJSJENS00000287,36,SYJSJENS00000288;2799.00;<a href='/blue?src=pd' class='seolink'>Blue</a> <a href='/solid?src=pd' class='seolink'>solid</a> <a href='/casual?src=pd' class='seolink'>casual</a> low-rise <a href='/chinos?src=pd' class='seolink'>chinos</a>, has a button closure, five pockets;Designed by Solly Jeans Co., these top-notch chinos are ready to amp up your style game.  For a versatile look that can take you from a nice dinner to a sports bar with friends, try coordinating this blue pair with a collared shirt and lightweight blazer.;Cotton <br /> Machine-wash;Slim fit <br>The model (height 6') is wearing a size 32;;Solly Jeans Co. by Allen Solly Men Blue Solid Slim Fit Chinos;Solly Jeans Co.,PPMP,apr12-super-hour,indus-apr13,bnb-styles-apr,summer-style-apr,after-match-apr,apr15-hh,take20-apr17,gold22-bb,b3-20-power20,flash-sale-bb21,coupon-crush05,myntra-rupay,coupon-crush10,mse-all,pp-extra25-off,stripacular-trousers,stripacular-shorts,welcome-to-myntra-may-big,big10-mse-all,mantastic-uber-link17,mantasticmay17,may27-price-surge,casualfest-june17,casual-june-17,duty-offer-august,welcome-to-myntra-august17;zerotype;;Winter;Karthik Req_29th_Nov;No
1779109;ALKC1J01597-Green-1779109;TSHIRT;Active;Tshirts;Solly Jeans Co.;Adults-Men;Men;Green;;;Core;Casual;2017;3XL,SYJSTSHT00000055,L,SYJSTSHT00000056,M,SYJSTSHT00000057,S,SYJSTSHT00000058,XL,SYJSTSHT00000059;899.00;Green solid waist length T-shirt, has a V-neck, short sleeves;When you're in need of some new tees, opt for this in-style T-shirt made by Solly Jeans Co.  Wear this green piece many ways, with dark wash jeans, cuffed chinos and more.;Cotton <br /> Machine-wash;The model (height 6') is wearing a size L;;Solly Jeans Co. by Allen Solly Men Green Solid T-shirt;Solly Jeans Co.,PPMP,apr12-super-hour,bnb-styles-apr,summer-style-apr,take20-apr17,b3-20-apr22,top-picks-menswear,apr15-hh,coupon-crush05,coupon-crush10,mse-all,big10-mse-all,mantastic-uber-link17,mantasticmay17,casualfest-june17,casual-june-17,mitm-collegejuly,mitm-vacayjuly,duty-offer-august,welcome-to-myntra-august17,Mitm-aw-aug,Mitm-college-aug,mitm-casuals-oct,mitm-mainbanner-oct,mitm-streetstyles-oct,mmb-tshirts,eorsdec17-ftod;zerotype;;Winter;eorsdec17-ftod;No
