Style ID;Vendor Article Number;Vendor Article Name;Active Status;Article type;Brand;Age Group;Gender;Base Colour;Colour1;Colour2;Fashion Type;Usage;Year;Size - SKU code pair;MRP;Style Description;Style Note;Materials and Care Description;Size and Fit Description;Size Chart Path;Product Display Name;Tags;Product Type;Classification Brand;Season;Comments;Upload Images
1855907;BBAPLRD31647_XL-Black-1855907;Black Strap Drop Shoulder Top;Draft;Tops;RIDRESS;Adults-Women;Women;;;;Fashion;Casual;2017;S,RIRSTOPS00001141,M,RIRSTOPS00001142,L,RIRSTOPS00001143,XL,RIRSTOPS00001144;795.00;;;;;;;;zerotype;;Spring;;No
1855905;BBAPLRD31646_XL-Red-1855905;Coral Strap Drop Shoulder Top;Draft;Tops;RIDRESS;Adults-Women;Women;;;;Fashion;Casual;2017;S,RIRSTOPS00001137,M,RIRSTOPS00001138,L,RIRSTOPS00001139,XL,RIRSTOPS00001140;795.00;;;;;;;;zerotype;;Spring;;No
1855904;BBAPLRD31644_L-Green-1855904;Green Cross Front Cold Shoulder Top;Draft;Tops;RIDRESS;Adults-Women;Women;;;;Fashion;Casual;2017;XS,RIRSTOPS00001133,S,RIRSTOPS00001134,M,RIRSTOPS00001135,L,RIRSTOPS00001136;895.00;;;;;;;;zerotype;;Spring;;No
1855902;BBAPLRD31634_L-Green-1855902;Off Shoulder Bardot Tie Top;Draft;Tops;RIDRESS;Adults-Women;Women;;;;Fashion;Casual;2017;XS,RIRSTOPS00001129,S,RIRSTOPS00001130,M,RIRSTOPS00001131,L,RIRSTOPS00001132;1295.00;;;;;;;;zerotype;;Spring;;No
1855900;BBAPLRD31642_XL-Blue-1855900;Cotton Dhoti Trouser;Draft;Trousers;RIDRESS;Adults-Women;Women;;;;Fashion;Casual;2017;S,RIRSTRSR00000095,M,RIRSTRSR00000096,L,RIRSTRSR00000097,XL,RIRSTRSR00000098;1695.00;;;;;;;;zerotype;;Spring;;No
1855899;A1609-04A-White-1855899;Attiitude White Pinted T-shirt;Draft;Tshirts;ATTIITUDE;Adults-Men;Men;;;;Fashion;Casual;2017;S,ATDETSHT00000177,M,ATDETSHT00000178,L,ATDETSHT00000179,XL,ATDETSHT00000180;999.00;;;;;;;;zerotype;;Summer;;No
1855897;A1602-04C-Black White-1855897;Attiitude Color Black Longline T-shirt with S;Draft;Tshirts;ATTIITUDE;Adults-Men;Men;;;;Fashion;Casual;2017;S,ATDETSHT00000173,M,ATDETSHT00000174,L,ATDETSHT00000175,XL,ATDETSHT00000176;999.00;;;;;;;;zerotype;;Summer;;No
1855896;A1602-02C-Black White-1855896;Attiitude Color Black Longline T-shirt with L;Draft;Tshirts;ATTIITUDE;Adults-Men;Men;;;;Fashion;Casual;2017;S,ATDETSHT00000169,M,ATDETSHT00000170,L,ATDETSHT00000171,XL,ATDETSHT00000172;1299.00;;;;;;;;zerotype;;Summer;;No
1855894;A1602-03D-Black White-1855894;Attiitude Black and White  Longhem T-shirt;Draft;Tshirts;ATTIITUDE;Adults-Men;Men;;;;Fashion;Casual;2017;S,ATDETSHT00000165,M,ATDETSHT00000166,L,ATDETSHT00000167,XL,ATDETSHT00000168;999.00;;;;;;;;zerotype;;Summer;;No
1855892;A1602-01D-Black White-1855892;Attiitude Black and White Printed Longhem T-s;Draft;Tshirts;ATTIITUDE;Adults-Men;Men;;;;Fashion;Casual;2017;S,ATDETSHT00000161,M,ATDETSHT00000162,L,ATDETSHT00000163,XL,ATDETSHT00000164;1299.00;;;;;;;;zerotype;;Summer;;No
1855890;A1602-04D-Black White-1855890;Attiitude White and black T-shirt;Draft;Tshirts;ATTIITUDE;Adults-Men;Men;;;;Fashion;Casual;2017;S,ATDETSHT00000157,M,ATDETSHT00000158,L,ATDETSHT00000159,XL,ATDETSHT00000160;999.00;;;;;;;;zerotype;;Summer;;No
1855889;A1602-03C-Black White-1855889;Attiitude Colour Block Long line T-shirt;Draft;Tshirts;ATTIITUDE;Adults-Men;Men;;;;Fashion;Casual;2017;S,ATDETSHT00000153,M,ATDETSHT00000154,L,ATDETSHT00000155,XL,ATDETSHT00000156;999.00;;;;;;;;zerotype;;Summer;;No
1855887;A1602-01C-Black White-1855887;Attiitude Black Long line T-shirt;Draft;Tshirts;ATTIITUDE;Adults-Men;Men;;;;Fashion;Casual;2017;S,ATDETSHT00000149,M,ATDETSHT00000150,L,ATDETSHT00000151,XL,ATDETSHT00000152;1299.00;;;;;;;;zerotype;;Summer;;No
