Style ID;Vendor Article Number;Vendor Article Name;Active Status;Article type;Brand;Age Group;Gender;Base Colour;Colour1;Colour2;Fashion Type;Usage;Year;Size - SKU code pair;MRP;Style Description;Style Note;Materials and Care Description;Size and Fit Description;Size Chart Path;Product Display Name;Tags;Product Type;Classification Brand;Season;Comments;Upload Images
2503020;AFIVIA97-Black-2503020;AFIVIA;Draft;Sandals;ALDO;Adults-Men;Men;Black;;;Fashion;Casual;2017;8,ALDOSNDL00000325,8.5,ALDOSNDL00000326,9,ALDOSNDL00000327,9.5,ALDOSNDL00000328,11,ALDOSNDL00000329,6.5,ALDOSNDL00000330,10,ALDOSNDL00000331,12,ALDOSNDL00000332,7,ALDOSNDL00000333;6999.00;<p>1 month Warranty</p>;;<p>Clean with damp cloth</p>;;;na;;zerotype;;Spring;;No
2503019;SARRAF28-Brown-2503019;ABALENIA;Draft;Sandals;ALDO;Adults-Men;Men;Brown;;;Fashion;Casual;2017;11,ALDOSNDL00000315,8,ALDOSNDL00000316,6.5,ALDOSNDL00000317,12,ALDOSNDL00000318,7,ALDOSNDL00000319,8.5,ALDOSNDL00000320,6,ALDOSNDL00000321,10,ALDOSNDL00000322,9,ALDOSNDL00000323,9.5,ALDOSNDL00000324;4999.00;<p>1 month Warranty</p>;;<p>Clean with damp cloth</p>;;;na;;zerotype;;Fall;;No
2503018;SARRAF2-Navy Blue-2503018;ABALENIA;Draft;Sandals;ALDO;Adults-Men;Men;Navy Blue;;;Fashion;Casual;2017;8,ALDOSNDL00000305,6.5,ALDOSNDL00000306,10,ALDOSNDL00000307,12,ALDOSNDL00000308,11,ALDOSNDL00000309,6,ALDOSNDL00000310,7,ALDOSNDL00000311,9,ALDOSNDL00000312,9.5,ALDOSNDL00000313,8.5,ALDOSNDL00000314;4999.00;<p>1 month Warranty</p>;;<p>Clean with damp cloth</p>;;;na;;zerotype;;Fall;;No
