Style ID;Vendor Article Number;Vendor Article Name;Active Status;Article type;Brand;Age Group;Gender;Base Colour;Colour1;Colour2;Fashion Type;Usage;Year;Size - SKU code pair;MRP;Style Description;Style Note;Materials and Care Description;Size and Fit Description;Size Chart Path;Product Display Name;Tags;Product Type;Classification Brand;Season;Comments;Upload Images
1937251;LYKP317S04788-MediumblueWithblue-1937251;LYKP317S04788;Draft;Tshirts;Louis Philippe Sport;Adults-Men;Men;Blue;;;Fashion;;2017;S,LSPSTSHT00001123,M,LSPSTSHT00001124,L,LSPSTSHT00001125,XL,LSPSTSHT00001126,XXL,LSPSTSHT00001127;1599.00;;;<p>Cotton</p>;;;;;zerotype;;Summer;;No
1937250;LYKP317S04740-White-1937250;LYKP317S04740;Draft;Tshirts;Louis Philippe Sport;Adults-Men;Men;White;;;Fashion;;2017;M,LSPSTSHT00001119,L,LSPSTSHT00001120,XL,LSPSTSHT00001121,XXL,LSPSTSHT00001122;1799.00;;;<p>Cotton</p>;;;;;zerotype;;Summer;;No
1937249;LYKP317S04736-MediumRedSolid-1937249;LYKP317S04736;Draft;Tshirts;Louis Philippe Sport;Adults-Men;Men;Red;;;Fashion;;2017;S,LSPSTSHT00001115,M,LSPSTSHT00001116,L,LSPSTSHT00001117,XL,LSPSTSHT00001118;1799.00;;;<p>Cotton</p>;;;;;zerotype;;Summer;;No
1937247;LRKP516R03458-DarkblueWithPurple-1937247;LRKP516R03458;Draft;Tshirts;Louis Philippe Jeans;Adults-Men;Men;Blue;;;Fashion;;2017;S,LPJSTSHT00001180,M,LPJSTSHT00001181,L,LPJSTSHT00001182,XL,LPJSTSHT00001183,XXL,LPJSTSHT00001184;1699.00;;;<p>Cotton</p>;;;;;zerotype;;Summer;;No
1937245;LRKP317R04504-DarkblueWithblue-1937245;LRKP317R04504;Draft;Tshirts;Louis Philippe Jeans;Adults-Men;Men;Blue;;;Fashion;;2017;S,LPJSTSHT00001171,M,LPJSTSHT00001172,L,LPJSTSHT00001173,XL,LPJSTSHT00001174,XXL,LPJSTSHT00001175;899.00;;;<p>Cotton</p>;;;;;zerotype;;Summer;;No
1937244;LRKP316R08985-White-1937244;LRKP316R08985;Draft;Tshirts;Louis Philippe Jeans;Adults-Men;Men;White;;;Fashion;;2017;M,LPJSTSHT00001167,L,LPJSTSHT00001168,XL,LPJSTSHT00001169,XXL,LPJSTSHT00001170;1699.00;;;<p>Cotton</p>;;;;;zerotype;;Summer;;No
1937242;LRKC515R00176-BlackSolid-1937242;LRKC515R00176;Draft;Tshirts;Louis Philippe Jeans;Adults-Men;Men;Black;;;Fashion;;2017;M,LPJSTSHT00001161,L,LPJSTSHT00001162,XL,LPJSTSHT00001163;1099.00;;;<p>Cotton</p>;;;;;zerotype;;Summer;;No
1937241;LRKC317R04651-MediumgreySolid-1937241;LRKC317R04651;Draft;Tshirts;Louis Philippe Jeans;Adults-Men;Men;Grey;;;Fashion;;2017;S,LPJSTSHT00001156,M,LPJSTSHT00001157,L,LPJSTSHT00001158,XL,LPJSTSHT00001159,XXL,LPJSTSHT00001160;1099.00;;;<p>Cotton</p>;;;;;zerotype;;Summer;;No
1937240;LRKC317R04609-MediumYellowWithBrown-1937240;LRKC317R04609;Draft;Tshirts;Louis Philippe Jeans;Adults-Men;Men;Yellow;;;Fashion;;2017;M,LPJSTSHT00001153,L,LPJSTSHT00001154,XL,LPJSTSHT00001155;999.00;;;<p>Cotton</p>;;;;;zerotype;;Summer;;No
1937239;LRKC317R04604-White-1937239;LRKC317R04604;Draft;Tshirts;Louis Philippe Jeans;Adults-Men;Men;White;;;Fashion;;2017;S,LPJSTSHT00001148,M,LPJSTSHT00001149,L,LPJSTSHT00001150,XL,LPJSTSHT00001151,XXL,LPJSTSHT00001152;999.00;;;<p>Cotton</p>;;;;;zerotype;;Summer;;No
1937238;LRKC317R04593-MediumblueWithGreen-1937238;LRKC317R04593;Draft;Tshirts;Louis Philippe Jeans;Adults-Men;Men;Blue;;;Fashion;;2017;S,LPJSTSHT00001143,M,LPJSTSHT00001144,L,LPJSTSHT00001145,XL,LPJSTSHT00001146,XXL,LPJSTSHT00001147;999.00;;;<p>Cotton</p>;;;;;zerotype;;Summer;;No
1937237;LRKC317R04589-MediumGreenWithWhite-1937237;LRKC317R04589;Draft;Tshirts;Louis Philippe Jeans;Adults-Men;Men;Green;;;Fashion;;2017;S,LPJSTSHT00001138,M,LPJSTSHT00001139,L,LPJSTSHT00001140,XL,LPJSTSHT00001141,XXL,LPJSTSHT00001142;1099.00;;;<p>Cotton</p>;;;;;zerotype;;Summer;;No
1937236;LRKC317R04588-MediumblueWithblue-1937236;LRKC317R04588;Draft;Tshirts;Louis Philippe Jeans;Adults-Men;Men;Blue;;;Fashion;;2017;M,LPJSTSHT00001135,L,LPJSTSHT00001136,XL,LPJSTSHT00001137;1099.00;;;<p>Cotton</p>;;;;;zerotype;;Summer;;No
1937235;LRKC317R04577-DarkblueWithblue-1937235;LRKC317R04577;Draft;Tshirts;Louis Philippe Jeans;Adults-Men;Men;Blue;;;Fashion;;2017;S,LPJSTSHT00001130,M,LPJSTSHT00001131,L,LPJSTSHT00001132,XL,LPJSTSHT00001133,XXL,LPJSTSHT00001134;799.00;;;<p>Cotton</p>;;;;;zerotype;;Summer;;No
1937234;LPKW317M05038-WhiteWithPurple-1937234;LPKW317M05038;Draft;Tshirts;Louis Philippe;Adults-Men;Men;White;;;Fashion;;2017;S,LSPLTSHT00001567,M,LSPLTSHT00001568,L,LSPLTSHT00001569,XL,LSPLTSHT00001570,XXL,LSPLTSHT00001571;1799.00;;;<p>Cotton</p>;;;;;zerotype;;Summer;;No
1937233;LPKP516M11708-DarkblueSolid-1937233;LPKP516M11708;Draft;Tshirts;Louis Philippe;Adults-Men;Men;Blue;;;Fashion;;2017;M,LSPLTSHT00001563,L,LSPLTSHT00001564,XL,LSPLTSHT00001565,XXL,LSPLTSHT00001566;1699.00;;;<p>Cotton</p>;;;;;zerotype;;Summer;;No
1937231;LPKP317M05160-DarkblueWithWhite-1937231;LPKP317M05160;Draft;Tshirts;Louis Philippe;Adults-Men;Men;Blue;;;Fashion;;2017;S,LSPLTSHT00001556,M,LSPLTSHT00001557,L,LSPLTSHT00001558,XL,LSPLTSHT00001559;1799.00;;;<p>Cotton</p>;;;;;zerotype;;Summer;;No
1937229;LPKP317M05143-LightPurpleWithPurple-1937229;LPKP317M05143;Draft;Tshirts;Louis Philippe;Adults-Men;Men;Purple;;;Fashion;;2017;S,LSPLTSHT00001546,M,LSPLTSHT00001547,L,LSPLTSHT00001548,XL,LSPLTSHT00001549,XXL,LSPLTSHT00001550;1799.00;;;<p>Cotton</p>;;;;;zerotype;;Summer;;No
1937228;LPKP317M04958-DarkGreenWithGreen-1937228;LPKP317M04958;Draft;Tshirts;Louis Philippe;Adults-Men;Men;Green;;;Fashion;;2017;M,LSPLTSHT00001543,L,LSPLTSHT00001544,XL,LSPLTSHT00001545;1899.00;;;<p>Cotton</p>;;;;;zerotype;;Summer;;No
1937219;LYTF317S14327-LightkhakiWithWhite-1937219;LYTF317S14327;Draft;Trousers;Louis Philippe Sport;Adults-Men;Men;Khaki;;;Fashion;;2017;30,LSPSTRSR00001123,32,LSPSTRSR00001124,34,LSPSTRSR00001125,36,LSPSTRSR00001126,38,LSPSTRSR00001127;2299.00;;;<p>Polyester</p>;;;;;zerotype;;Summer;;No
1937218;LYTF317S14326-DarkkhakiWithGreen-1937218;LYTF317S14326;BIS + Content Complete;Trousers;Louis Philippe Sport;Adults-Men;Men;Olive;;;Fashion;Casual;2017;30,LSPSTRSR00001118,32,LSPSTRSR00001119,34,LSPSTRSR00001120,36,LSPSTRSR00001121,38,LSPSTRSR00001122;2299.00;Olive Green solid low-rise chinos, has a button closure, 4 pockets;This pair of Louis Philippe Sport chino trousers will be a wardrobe favourite.  When you need a semi-formal event outfit, style this olive pair with a button-down shirt, a fashionable tie, and Oxfords.;Cotton <br> Machine-wash;Slim fit<br> The model (height 6') is wearing a size 32;;Louis Philippe Sport Men Olive Green Slim Fit Solid Chinos;Louis Philippe Sport;zerotype;;Summer;;No
1937216;LYTF317S14325-MediumkhakiSolid-1937216;LYTF317S14325;Draft;Trousers;Louis Philippe Sport;Adults-Men;Men;Khaki;;;Fashion;;2017;30,LSPSTRSR00001113,32,LSPSTRSR00001114,34,LSPSTRSR00001115,36,LSPSTRSR00001116,38,LSPSTRSR00001117;2499.00;;;<p>Polyester</p>;;;;;zerotype;;Summer;;No
1937214;LYTF317S14324-DarkBrownSolid-1937214;LYTF317S14324;BIS + Content Complete;Trousers;Louis Philippe Sport;Adults-Men;Men;Olive;;;Fashion;Casual;2017;30,LSPSTRSR00001108,32,LSPSTRSR00001109,34,LSPSTRSR00001110,36,LSPSTRSR00001111,38,LSPSTRSR00001112;2499.00;Olive Green solid low-rise chinos, has a button closure, 4 pockets;You'll kick your style up a few levels when you find these fashion-forward chino trousers from Louis Philippe Sport.  When you're going to an art gallery, team this olive pair with canvas shoes and a formal shirt.;Cotton and elastane <br> Machine-wash;Slim fit<br> The model (height 6') is wearing a size 32;;Louis Philippe Sport Men Olive Green Slim Fit Solid Chinos;Louis Philippe Sport;zerotype;;Summer;;No
1937211;LYTF317S14323-DarkblueSolid-1937211;LYTF317S14323;Draft;Trousers;Louis Philippe Sport;Adults-Men;Men;Blue;;;Fashion;;2017;30,LSPSTRSR00001103,32,LSPSTRSR00001104,34,LSPSTRSR00001105,36,LSPSTRSR00001106,38,LSPSTRSR00001107;2499.00;;;<p>Polyester</p>;;;;;zerotype;;Summer;;No
1937209;LYTF317S14321-DarkkhakiSolid-1937209;LYTF317S14321;Draft;Trousers;Louis Philippe Sport;Adults-Men;Men;Khaki;;;Fashion;;2017;30,LSPSTRSR00001098,32,LSPSTRSR00001099,34,LSPSTRSR00001100,36,LSPSTRSR00001101,38,LSPSTRSR00001102;2499.00;;;<p>Cotton</p>;;;;;zerotype;;Summer;;No
1937207;LYTF317S14320-MediumkhakiSolid-1937207;LYTF317S14320;Draft;Trousers;Louis Philippe Sport;Adults-Men;Men;Khaki;;;Fashion;;2017;30,LSPSTRSR00001093,32,LSPSTRSR00001094,34,LSPSTRSR00001095,36,LSPSTRSR00001096,38,LSPSTRSR00001097;2499.00;;;<p>Cotton</p>;;;;;zerotype;;Summer;;No
1937205;LYTF317S12215-White-1937205;LYTF317S12215;Draft;Trousers;Louis Philippe Sport;Adults-Men;Men;White;;;Fashion;;2017;30,LSPSTRSR00001088,32,LSPSTRSR00001089,34,LSPSTRSR00001090,36,LSPSTRSR00001091,38,LSPSTRSR00001092;2499.00;;;<p>Cotton</p>;;;;;zerotype;;Summer;;No
1937203;LYTF317S12214-White-1937203;LYTF317S12214;Draft;Trousers;Louis Philippe Sport;Adults-Men;Men;White;;;Fashion;;2017;30,LSPSTRSR00001083,32,LSPSTRSR00001084,34,LSPSTRSR00001085,36,LSPSTRSR00001086,38,LSPSTRSR00001087;2499.00;;;<p>Cotton</p>;;;;;zerotype;;Summer;;No
1937199;LYTF317S10566-BlackWithblue-1937199;LYTF317S10566;Draft;Trousers;Louis Philippe Sport;Adults-Men;Men;Black;;;Fashion;;2017;30,LSPSTRSR00001074,32,LSPSTRSR00001075,34,LSPSTRSR00001076,36,LSPSTRSR00001077,38,LSPSTRSR00001078;2499.00;;;<p>Cotton</p>;;;;;zerotype;;Summer;;No
1937190;LYTF317S02503-MediumkhakiSolid-1937190;LYTF317S02503;Draft;Trousers;Louis Philippe Sport;Adults-Men;Men;Khaki;;;Fashion;;2017;30,LSPSTRSR00001039,32,LSPSTRSR00001040,34,LSPSTRSR00001041,36,LSPSTRSR00001042,38,LSPSTRSR00001043;2499.00;;;<p>Cotton</p>;;;;;zerotype;;Summer;;No
1937186;LYTF317S01506-MediumBrownWithKhakis-1937186;LYTF317S01506;BIS + Content Complete;Trousers;Louis Philippe Sport;Adults-Men;Men;Taupe;;;Fashion;Casual;2017;30,LSPSTRSR00001018,32,LSPSTRSR00001019,34,LSPSTRSR00001020,36,LSPSTRSR00001021,38,LSPSTRSR00001022;2299.00;Taupe solid low-rise chinos, has a button closure, 4 pockets;Kick up your look with a stylish pair of chino trousers from Louis Philippe Sport.  Paired with canvas sneakers and an untucked white shirt, this taupe pair works well for a casual dinner date or outing with friends.;Cotton and elastane <br> Machine-wash;Slim fit<br> The model (height 6') is wearing a size 32;;Louis Philippe Sport Men Taupe Slim Fit Solid Chinos;Louis Philippe Sport;zerotype;;Summer;;No
1937185;LYTF317S01505-DarkkhakiWithGreen-1937185;LYTF317S01505;BIS + Content Complete;Trousers;Louis Philippe Sport;Adults-Men;Men;Olive;;;Fashion;Casual;2017;30,LSPSTRSR00001013,32,LSPSTRSR00001014,34,LSPSTRSR00001015,36,LSPSTRSR00001016,38,LSPSTRSR00001017;2299.00;Olive Green solid low-rise chinos, has a button closure, 4 pockets;These trendy chino trousers from Louis Philippe Sport will help you elevate your everyday style.  Team this olive pair with a dapper shirt and leather boots when you're going to dinner with your friends.;Cotton and elastane <br> Machine-wash;Slim fit<br> The model (height 6') is wearing a size 32;;Louis Philippe Sport Men Olive Green Slim Fit Solid Chinos;Louis Philippe sport;zerotype;;Summer;;No
1937183;LYTF317S01493-LightkhakiSolid-1937183;LYTF317S01493;Draft;Trousers;Louis Philippe Sport;Adults-Men;Men;Khaki;;;Fashion;;2017;30,LSPSTRSR00001005,32,LSPSTRSR00001006,34,LSPSTRSR00001007,36,LSPSTRSR00001008,38,LSPSTRSR00001009;2299.00;;;<p>Cotton</p>;;;;;zerotype;;Summer;;No
1937181;LYTF317S01490-MediumkhakiWithYellow-1937181;LYTF317S01490;Draft;Trousers;Louis Philippe Sport;Adults-Men;Men;Khaki;;;Fashion;;2017;30,LSPSTRSR00000995,32,LSPSTRSR00000996,34,LSPSTRSR00000997,36,LSPSTRSR00000998,38,LSPSTRSR00000999;2299.00;;;<p>Cotton</p>;;;;;zerotype;;Summer;;No
1937180;LYTF317S01488-MediumkhakiSolid-1937180;LYTF317S01488;Draft;Trousers;Louis Philippe Sport;Adults-Men;Men;Khaki;;;Fashion;;2017;30,LSPSTRSR00000990,32,LSPSTRSR00000991,34,LSPSTRSR00000992,36,LSPSTRSR00000993,38,LSPSTRSR00000994;2299.00;;;<p>Cotton</p>;;;;;zerotype;;Summer;;No
1937175;LRTF317R02445-MediumIvorySolid-1937175;LRTF317R02445;BIS + Content Complete;Trousers;Louis Philippe Jeans;Adults-Men;Men;Brown;;;Fashion;Casual;2017;30,LPJSTRSR00000125,32,LPJSTRSR00000126,34,LPJSTRSR00000127,36,LPJSTRSR00000128,38,LPJSTRSR00000129;2499.00;Brown solid low-rise chinos, has a button closure, 5 pockets;These chino trousers belong in every man's closet thanks to the fashion experts at Louis Philippe Jeans.  Team this brown pair with a dapper shirt and leather boots when you're going to dinner with your friends.;Cotton and elastane <br> Machine-wash;Slim fit<br> The model (height 6') is wearing a size 32;;Louis Philippe Jeans Men Brown Slim Fit Solid Chinos;Louis Philippe;zerotype;;Summer;;No
1937163;LPTF317M10445-MediumgreyWithgrey-1937163;LPTF317M10445;Draft;Trousers;Louis Philippe;Adults-Men;Men;Grey;;;Fashion;;2017;30,LSPLTRSR00001692,32,LSPLTRSR00001693,34,LSPLTRSR00001694,36,LSPLTRSR00001695,38,LSPLTRSR00001696;2299.00;;;<p>Polyester</p>;;;;;zerotype;;Summer;;No
1937161;LPTF317M02342-DarkGreySolid-1937161;LPTF317M02342;Draft;Trousers;Louis Philippe;Adults-Men;Men;Grey;;;Fashion;;2017;30,LSPLTRSR00001684,32,LSPLTRSR00001685,34,LSPLTRSR00001686,36,LSPLTRSR00001687;1999.00;;;<p>Cotton</p>;;;;;zerotype;;Summer;;No
1937145;LRDN516R14817-DarkblueSolid-1937145;LRDN516R14817;BIS + Content Complete;Jeans;Louis Philippe Jeans;Adults-Men;Men;Blue;;;Fashion;Casual;2017;76,LPJSJENS00001754,82,LPJSJENS00001755,86,LPJSJENS00001756,92,LPJSJENS00001757,96,LPJSJENS00001758;2999.00;Blue medium wash 5-pocket low-rise jeans, clean look with light fade, has a button and zip closure,;Give your closet a complete makeover and replace your old denims with a handsome new pair of Louis Philippe Jeans slim jeans.  When you're heading out with your buddies for drinks, wear them with leather boots and a light jacket.;Cotton and elastane <br> Machine-wash;Slim fit<br> The model (height 6') is wearing a size 32;;Louis Philippe Jeans Men Blue Slim Fit Low-Rise Clean Look Jeans;Louis Philippe Jeans;zerotype;;Summer;;No
1937132;LRDN515R14130-MediumblueSolid-1937132;LRDN515R14130;Draft;Jeans;Louis Philippe Jeans;Adults-Men;Men;Blue;;;Fashion;;2017;72,LPJSJENS00001690,76,LPJSJENS00001691,82,LPJSJENS00001692,86,LPJSJENS00001693,92,LPJSJENS00001694;2799.00;;;<p>Cotton</p>;;;;;zerotype;;Summer;;No
1937130;LRDN317R14451-Blue-1937130;LRDN317R14451;Draft;Jeans;Louis Philippe Jeans;Adults-Men;Men;Blue;;;Fashion;;2017;30,LPJSJENS00001681,32,LPJSJENS00001682,34,LPJSJENS00001683,36,LPJSJENS00001684,38,LPJSJENS00001685;2799.00;;;<p>Cotton</p>;;;;;zerotype;;Summer;;No
1937129;LRDN317R14449-Blue-1937129;LRDN317R14449;Draft;Jeans;Louis Philippe Jeans;Adults-Men;Men;Blue;;;Fashion;;2017;30,LPJSJENS00001677,32,LPJSJENS00001678,34,LPJSJENS00001679,36,LPJSJENS00001680;2799.00;;;<p>Cotton</p>;;;;;zerotype;;Summer;;No
1937127;LRDN317R14443-Blue-1937127;LRDN317R14443;Draft;Jeans;Louis Philippe Jeans;Adults-Men;Men;Blue;;;Fashion;;2017;30,LPJSJENS00001670,32,LPJSJENS00001671,34,LPJSJENS00001672,38,LPJSJENS00001673;2999.00;;;<p>Cotton</p>;;;;;zerotype;;Summer;;No
1937126;LRDN317R13420-Blue-1937126;LRDN317R13420;Draft;Jeans;Louis Philippe Jeans;Adults-Men;Men;Blue;;;Fashion;;2017;32,LPJSJENS00001667,34,LPJSJENS00001668,36,LPJSJENS00001669;2799.00;;;<p>Cotton</p>;;;;;zerotype;;Summer;;No
1937124;LRDN317R13273-Blue-1937124;LRDN317R13273;BIS + Content Complete;Jeans;Louis Philippe Jeans;Adults-Men;Men;White;;;Fashion;Casual;2017;32,LPJSJENS00001660,34,LPJSJENS00001661,38,LPJSJENS00001662;2799.00;White light wash 5-pocket low-rise jeans, clean look with no fade, has a button and zip closure,;Slip into a pair of slim jeans from Louis Philippe Jeans and discover a whole new meaning of comfort.  When you have a nice date planned, wear yours with easy loafers and your favourite blazer.;Cotton and elastane <br> Machine-wash;Slim fit<br> The model (height 6') is wearing a size 32;;Louis Philippe Jeans Men White Slim Fit Low-Rise Clean Look Jeans;Louis Philippe Jeans;zerotype;;Summer;;No
1937121;LRDN317R13228-Blue-1937121;LRDN317R13228;BIS + Content Complete;Jeans;Louis Philippe Jeans;Adults-Men;Men;Grey;;;Fashion;Casual;2017;30,LPJSJENS00001645,32,LPJSJENS00001646,34,LPJSJENS00001647,36,LPJSJENS00001648,38,LPJSJENS00001649;2999.00;Grey medium wash 5-pocket low-rise jeans, low distress with light fade, has a button and zip closure,;These slim jeans from Louis Philippe Jeans will give you that perfect fit you have been searching for.  They can be worn with Chelsea boots and a printed T-shirt when you need a casual date night ensemble.;Cotton and elastane <br> Machine-wash;Slim fit<br> The model (height 6') is wearing a size 32;;Louis Philippe Jeans Men Grey Slim Fit Low-Rise Low Distress Jeans;Louis Philippe Jeans;zerotype;;Summer;;No
1937119;LRDN317R13216-Blue-1937119;LRDN317R13216;BIS + Content Complete;Jeans;Louis Philippe Jeans;Adults-Men;Men;Blue;;;Fashion;Casual;2017;30,LPJSJENS00001635,32,LPJSJENS00001636,34,LPJSJENS00001637,36,LPJSJENS00001638,38,LPJSJENS00001639;2799.00;Blue dark wash 5-pocket low-rise jeans, clean look with light fade, has a button and zip closure, waistband with belt loops;These slim jeans from Louis Philippe Jeans will make a great addition to any casual wardrobe.  Wear them with a printed tee and some stylish boots when you're attending a movie with your pals.;Cotton and elastane <br> Machine-wash;Slim fit<br> The model (height 6') is wearing a size 32;;Louis Philippe Jeans Men Blue Slim Fit Low-Rise Clean Look Jeans;Louis Philippe Jeans;zerotype;;Summer;;No
1937116;LRDN317R07349-MediumIvorySolid-1937116;LRDN317R07349;Draft;Jeans;Louis Philippe Jeans;Adults-Men;Men;Blue;;;Fashion;;2017;30,LPJSJENS00001623,32,LPJSJENS00001624,34,LPJSJENS00001625,36,LPJSJENS00001626,38,LPJSJENS00001627;2799.00;;;<p>Cotton</p>;;;;;zerotype;;Summer;;No
1937115;LRDN317R07132-Blue-1937115;LRDN317R07132;Draft;Jeans;Louis Philippe Jeans;Adults-Men;Men;Blue;;;Fashion;;2017;30,LPJSJENS00001620,32,LPJSJENS00001621,34,LPJSJENS00001622;2499.00;;;<p>Cotton</p>;;;;;zerotype;;Summer;;No
1937114;LRDN317R07046-Blue-1937114;LRDN317R07046;Draft;Jeans;Louis Philippe Jeans;Adults-Men;Men;Blue;;;Fashion;;2017;30,LPJSJENS00001617,32,LPJSJENS00001618,34,LPJSJENS00001619;2799.00;;;<p>Cotton</p>;;;;;zerotype;;Summer;;No
1936849;LYSH317S14303-BlackSolid-1936849;LYSH317S14303;Draft;Shirts;Louis Philippe Sport;Adults-Men;Men;Black;;;Fashion;;2017;39,LSPSSHRT00004166,40,LSPSSHRT00004167,42,LSPSSHRT00004168;2799.00;;;<p>Cotton</p>;;;;;zerotype;;Summer;;No
1936842;LYSH317S14301-LightRedSolid-1936842;LYSH317S14301;Draft;Shirts;Louis Philippe Sport;Adults-Men;Men;Red;;;Fashion;;2017;39,LSPSSHRT00004158,40,LSPSSHRT00004159,42,LSPSSHRT00004160;2799.00;;;<p>Cotton</p>;;;;;zerotype;;Summer;;No
1936812;LYSH317S08457-LightblueWithWhite-1936812;LYSH317S08457;Draft;Shirts;Louis Philippe Sport;Adults-Men;Men;Blue;;;Fashion;;2017;38,LSPSSHRT00004119,39,LSPSSHRT00004120,40,LSPSSHRT00004121,42,LSPSSHRT00004122;2499.00;;;<p>Cotton</p>;;;;;zerotype;;Summer;;No
1936789;LYSH317S00746-WhiteWithblue-1936789;LYSH317S00746;Draft;Shirts;Louis Philippe Sport;Adults-Men;Men;White;;;Fashion;;2017;38,LSPSSHRT00004091,39,LSPSSHRT00004092,40,LSPSSHRT00004093,42,LSPSSHRT00004094;1799.00;;;<p>Cotton</p>;;;;;zerotype;;Summer;;No
1936635;LYSF516S05240-LightblueWithblue-1936635;LYSF516S05240;Draft;Shirts;Louis Philippe Sport;Adults-Men;Men;Blue;;;Fashion;;2017;39,LSPSSHRT00003920,40,LSPSSHRT00003921,42,LSPSSHRT00003922;1999.00;;;<p>Cotton</p>;;;;;zerotype;;Summer;;No
1936615;LYSF516S02330-WhiteWithBlack-1936615;LYSF516S02330;Draft;Shirts;Louis Philippe Sport;Adults-Men;Men;White;;;Fashion;;2017;39,LSPSSHRT00003895,40,LSPSSHRT00003896,42,LSPSSHRT00003897;2299.00;;;<p>Cotton</p>;;;;;zerotype;;Summer;;No
1936516;LYSF317S14304-LightGreenSolid-1936516;LYSF317S14304;Draft;Shirts;Louis Philippe Sport;Adults-Men;Men;Green;;;Fashion;;2017;39,LSPSSHRT00003768,40,LSPSSHRT00003769,42,LSPSSHRT00003770;2799.00;;;<p>Cotton</p>;;;;;zerotype;;Summer;;No
1936512;LYSF317S14303-BlackSolid-1936512;LYSF317S14303;Draft;Shirts;Louis Philippe Sport;Adults-Men;Men;Black;;;Fashion;;2017;39,LSPSSHRT00003764,40,LSPSSHRT00003765,42,LSPSSHRT00003766;2799.00;;;<p>Cotton</p>;;;;;zerotype;;Summer;;No
1936500;LYSF317S14299-WhiteSolid-1936500;LYSF317S14299;Draft;Shirts;Louis Philippe Sport;Adults-Men;Men;White;;;Fashion;;2017;39,LSPSSHRT00003748,40,LSPSSHRT00003749,42,LSPSSHRT00003750;2799.00;;;<p>Cotton</p>;;;;;zerotype;;Summer;;No
1936488;LYSF317S12253-DarkblueWithKhakis-1936488;LYSF317S12253;Draft;Shirts;Louis Philippe Sport;Adults-Men;Men;Blue;;;Fashion;;2017;38,LSPSSHRT00003731,39,LSPSSHRT00003732,40,LSPSSHRT00003733,42,LSPSSHRT00003734;2799.00;;;<p>Cotton</p>;;;;;zerotype;;Summer;;No
1936479;LYSF317S11092-WhiteWithblue-1936479;LYSF317S11092;Draft;Shirts;Louis Philippe Sport;Adults-Men;Men;White;;;Fashion;;2017;38,LSPSSHRT00003719,39,LSPSSHRT00003720,40,LSPSSHRT00003721,42,LSPSSHRT00003722;2499.00;;;<p>Cotton</p>;;;;;zerotype;;Summer;;No
1936469;LYSF317S10951-LightblueWithWhite-1936469;LYSF317S10951;Draft;Shirts;Louis Philippe Sport;Adults-Men;Men;Blue;;;Fashion;;2017;38,LSPSSHRT00003704,39,LSPSSHRT00003705,40,LSPSSHRT00003706,42,LSPSSHRT00003707;1899.00;;;<p>Cotton</p>;;;;;zerotype;;Summer;;No
1936465;LYSF317S10950-LightYellowSolid-1936465;LYSF317S10950;Draft;Shirts;Louis Philippe Sport;Adults-Men;Men;Yellow;;;Fashion;;2017;38,LSPSSHRT00003698,39,LSPSSHRT00003699,40,LSPSSHRT00003700,42,LSPSSHRT00003701;1899.00;;;<p>Cotton</p>;;;;;zerotype;;Summer;;No
1936460;LYSF317S10949-LightBrownWithWhite-1936460;LYSF317S10949;Draft;Shirts;Louis Philippe Sport;Adults-Men;Men;Brown;;;Fashion;;2017;38,LSPSSHRT00003692,39,LSPSSHRT00003693,40,LSPSSHRT00003694,42,LSPSSHRT00003695;2499.00;;;<p>Cotton</p>;;;;;zerotype;;Summer;;No
1936456;LYSF317S10941-DarkblueWithKhakis-1936456;LYSF317S10941;Draft;Shirts;Louis Philippe Sport;Adults-Men;Men;Blue;;;Fashion;;2017;38,LSPSSHRT00003686,39,LSPSSHRT00003687,40,LSPSSHRT00003688,42,LSPSSHRT00003689;1999.00;;;<p>Cotton</p>;;;;;zerotype;;Summer;;No
1936452;LYSF317S10926-MediumkhakiWithblue-1936452;LYSF317S10926;Draft;Shirts;Louis Philippe Sport;Adults-Men;Men;Khaki;;;Fashion;;2017;39,LSPSSHRT00003681,40,LSPSSHRT00003682,42,LSPSSHRT00003683;1999.00;;;<p>Cotton</p>;;;;;zerotype;;Summer;;No
1936448;LYSF317S10913-WhiteWithblue-1936448;LYSF317S10913;Draft;Shirts;Louis Philippe Sport;Adults-Men;Men;White;;;Fashion;;2017;38,LSPSSHRT00003675,39,LSPSSHRT00003676,40,LSPSSHRT00003677,42,LSPSSHRT00003678;1999.00;;;<p>Cotton</p>;;;;;zerotype;;Summer;;No
1936445;LYSF317S10871-LightblueWithWhite-1936445;LYSF317S10871;Draft;Shirts;Louis Philippe Sport;Adults-Men;Men;Blue;;;Fashion;;2017;38,LSPSSHRT00003670,39,LSPSSHRT00003671,40,LSPSSHRT00003672,42,LSPSSHRT00003673;1899.00;;;<p>Cotton</p>;;;;;zerotype;;Summer;;No
1936441;LYSF317S10869-LightBrownWithWhite-1936441;LYSF317S10869;Draft;Shirts;Louis Philippe Sport;Adults-Men;Men;Brown;;;Fashion;;2017;38,LSPSSHRT00003664,39,LSPSSHRT00003665,40,LSPSSHRT00003666,42,LSPSSHRT00003667;2499.00;;;<p>Cotton</p>;;;;;zerotype;;Summer;;No
1936389;LYSF317S08370-LightblueWithWhite-1936389;LYSF317S08370;Draft;Shirts;Louis Philippe Sport;Adults-Men;Men;Blue;;;Fashion;;2017;39,LSPSSHRT00003601,40,LSPSSHRT00003602,42,LSPSSHRT00003603;2299.00;;;<p>Cotton</p>;;;;;zerotype;;Summer;;No
1936356;LYSF317S04022-LightblueWithRed-1936356;LYSF317S04022;Draft;Shirts;Louis Philippe Sport;Adults-Men;Men;Blue;;;Fashion;;2017;39,LSPSSHRT00003541,40,LSPSSHRT00003542,42,LSPSSHRT00003543;2499.00;;;<p>Cotton</p>;;;;;zerotype;;Summer;;No
1936354;LYSF317S03998-LightkhakiWithBrown-1936354;LYSF317S03998;Draft;Shirts;Louis Philippe Sport;Adults-Men;Men;Khaki;;;Fashion;;2017;38,LSPSSHRT00003535,39,LSPSSHRT00003536,40,LSPSSHRT00003537,42,LSPSSHRT00003538;1999.00;;;<p>Cotton</p>;;;;;zerotype;;Summer;;No
1936352;LYSF317S03996-LightkhakiWithRed-1936352;LYSF317S03996;Draft;Shirts;Louis Philippe Sport;Adults-Men;Men;Khaki;;;Fashion;;2017;39,LSPSSHRT00003531,40,LSPSSHRT00003532,42,LSPSSHRT00003533;2299.00;;;<p>Cotton</p>;;;;;zerotype;;Summer;;No
1936350;LYSF317S03995-WhiteWithblue-1936350;LYSF317S03995;Draft;Shirts;Louis Philippe Sport;Adults-Men;Men;White;;;Fashion;;2017;39,LSPSSHRT00003527,40,LSPSSHRT00003528,42,LSPSSHRT00003529;2299.00;;;<p>Cotton</p>;;;;;zerotype;;Summer;;No
1936338;LYSF317S03482-WhiteWithblue-1936338;LYSF317S03482;Draft;Shirts;Louis Philippe Sport;Adults-Men;Men;White;;;Fashion;;2017;38,LSPSSHRT00003503,39,LSPSSHRT00003504,40,LSPSSHRT00003505,42,LSPSSHRT00003506;1999.00;;;<p>Cotton</p>;;;;;zerotype;;Summer;;No
1936336;LYSF317S03477-DarkblueWithRed-1936336;LYSF317S03477;Draft;Shirts;Louis Philippe Sport;Adults-Men;Men;Blue;;;Fashion;;2017;38,LSPSSHRT00003497,39,LSPSSHRT00003498,40,LSPSSHRT00003499,42,LSPSSHRT00003500;2299.00;;;<p>Cotton</p>;;;;;zerotype;;Summer;;No
1936334;LYSF317S03475-LightblueWithKhakis-1936334;LYSF317S03475;Draft;Shirts;Louis Philippe Sport;Adults-Men;Men;Blue;;;Fashion;;2017;38,LSPSSHRT00003491,39,LSPSSHRT00003492,40,LSPSSHRT00003493,42,LSPSSHRT00003494;2299.00;;;<p>Cotton</p>;;;;;zerotype;;Summer;;No
1936327;LYSF317S03378-LightGreenSolid-1936327;LYSF317S03378;Draft;Shirts;Louis Philippe Sport;Adults-Men;Men;Green;;;Fashion;;2017;38,LSPSSHRT00003474,39,LSPSSHRT00003475,40,LSPSSHRT00003476,42,LSPSSHRT00003477;2499.00;;;<p>Cotton</p>;;;;;zerotype;;Summer;;No
1936309;LYSF317S00660-LightkhakiWithblue-1936309;LYSF317S00660;Draft;Shirts;Louis Philippe Sport;Adults-Men;Men;Cream;;;Fashion;;2017;38,LSPSSHRT00003435,39,LSPSSHRT00003436,40,LSPSSHRT00003437,42,LSPSSHRT00003438;2299.00;;;<p>Cotton</p>;;;;;zerotype;;Summer;;No
1936293;LYSF317S00584-LightkhakiWithblue-1936293;LYSF317S00584;Draft;Shirts;Louis Philippe Sport;Adults-Men;Men;Khaki;;;Fashion;;2017;39,LSPSSHRT00003403,40,LSPSSHRT00003404,42,LSPSSHRT00003405;2299.00;;;<p>Cotton</p>;;;;;zerotype;;Summer;;No
1936291;LYSF316S13560-LightPurpleWithWhite-1936291;LYSF316S13560;Draft;Shirts;Louis Philippe Sport;Adults-Men;Men;Purple;;;Fashion;;2017;38,LSPSSHRT00003397,39,LSPSSHRT00003398,40,LSPSSHRT00003399,42,LSPSSHRT00003400;2499.00;;;<p>Linen</p>;;;;;zerotype;;Summer;;No
1936275;LRSH317R11404-White-1936275;LRSH317R11404;BIS + Content Complete;Shirts;Louis Philippe Jeans;Adults-Men;Men;White;;;Fashion;Casual;2017;38,LPJSSHRT00001843,39,LPJSSHRT00001844,40,LPJSSHRT00001845;1899.00;White printed casual shirt, has a spread collar, button placket, 1 pocket, short sleeves, curved hem;Spruce up your summer-time style with this trendy shirt by Louis Philippe Jeans.  Match this white piece with dark denims and trainers when you're going to brunch with the guys.;Cotton <br> Machine-wash;The model (height 6') is wearing a size 32;;Louis Philippe Jeans Men White Tailored Fit Printed Casual Shirt;Louis Philippe Jeans;zerotype;;Summer;;No
1936273;LRSH317R06407-MediumgreyWithgrey-1936273;LRSH317R06407;BIS + Content Complete;Shirts;Louis Philippe Jeans;Adults-Men;Men;Grey;Blue;;Fashion;Casual;2017;39,LPJSSHRT00001839,40,LPJSSHRT00001840,42,LPJSSHRT00001841;1799.00;Grey and blue printed casual shirt, has a spread collar, button placket, 1 pocket, short sleeves, curved hem;Spruce up your summer-time style with this trendy shirt by Louis Philippe Jeans.  Style this grey shirt with chinos and canvas shoes for a casual day look.;Cotton <br> Machine-wash;The model (height 6') is wearing a size 32;;Louis Philippe Jeans Men Grey & Blue Tailored Fit Printed Casual Shirt;Louis Philippe Jeans;zerotype;;Summer;;No
1936269;LRSF516R17851-White-1936269;LRSF516R17851;Draft;Shirts;Louis Philippe Jeans;Adults-Men;Men;White;;;Fashion;;2017;39,LPJSSHRT00001830,40,LPJSSHRT00001831,42,LPJSSHRT00001832;1899.00;;;<p>Cotton</p>;;;;;zerotype;;Summer;;No
1936267;LRSF516R17848-White-1936267;LRSF516R17848;BIS + Content Complete;Shirts;Louis Philippe Jeans;Adults-Men;Men;Navy Blue;;;Fashion;Casual;2017;39,LPJSSHRT00001826,40,LPJSSHRT00001827,42,LPJSSHRT00001828;1799.00;Navy Blue printed casual shirt, has a mandarin collar, button placket, 1 pocket, long sleeves, curved hem;You'll love the design of this high-fashion Louis Philippe Jeans shirt.  Happy hour just got a whole lot stylish when you put this navy blue piece with some chukka boots and leather bracelet.;Cotton <br> Machine-wash;The model (height 6') is wearing a size 32;;Louis Philippe Jeans Men Navy Blue Tailored Fit Printed Casual Shirt;Louis Philippe Jeans;zerotype;;Summer;;No
1936263;LRSF516R17845-White-1936263;LRSF516R17845;Draft;Shirts;Louis Philippe Jeans;Adults-Men;Men;White;;;Fashion;;2017;39,LPJSSHRT00001818,40,LPJSSHRT00001819,42,LPJSSHRT00001820;1899.00;;;<p>Cotton</p>;;;;;zerotype;;Summer;;No
1936261;LRSF516R17844-White-1936261;LRSF516R17844;Draft;Shirts;Louis Philippe Jeans;Adults-Men;Men;White;;;Fashion;;2017;39,LPJSSHRT00001814,40,LPJSSHRT00001815,42,LPJSSHRT00001816;1899.00;;;<p>Cotton</p>;;;;;zerotype;;Summer;;No
1936259;LRSF516R17843-White-1936259;LRSF516R17843;Draft;Shirts;Louis Philippe Jeans;Adults-Men;Men;White;;;Fashion;;2017;39,LPJSSHRT00001810,40,LPJSSHRT00001811,42,LPJSSHRT00001812;2299.00;;;<p>Cotton</p>;;;;;zerotype;;Summer;;No
1936257;LRSF516R17835-White-1936257;LRSF516R17835;Draft;Shirts;Louis Philippe Jeans;Adults-Men;Men;White;;;Fashion;;2017;39,LPJSSHRT00001806,40,LPJSSHRT00001807,42,LPJSSHRT00001808;1999.00;;;<p>Cotton</p>;;;;;zerotype;;Summer;;No
1936255;LRSF516R17833-White-1936255;LRSF516R17833;Draft;Shirts;Louis Philippe Jeans;Adults-Men;Men;White;;;Fashion;;2017;39,LPJSSHRT00001802,40,LPJSSHRT00001803,42,LPJSSHRT00001804;2299.00;;;<p>Cotton</p>;;;;;zerotype;;Summer;;No
1936247;LRSF516R17583-MediumgreyWithblue-1936247;LRSF516R17583;Draft;Shirts;Louis Philippe Jeans;Adults-Men;Men;Grey;;;Fashion;;2017;39,LPJSSHRT00001786,40,LPJSSHRT00001787,42,LPJSSHRT00001788;2799.00;;;<p>Cotton</p>;;;;;zerotype;;Summer;;No
1936245;LRSF516R17579-DarkblueWithblue-1936245;LRSF516R17579;Draft;Shirts;Louis Philippe Jeans;Adults-Men;Men;Blue;;;Fashion;;2017;39,LPJSSHRT00001782,40,LPJSSHRT00001783,42,LPJSSHRT00001784;2799.00;;;<p>Cotton</p>;;;;;zerotype;;Summer;;No
1936243;LRSF516R17576-MediumblueSolid-1936243;LRSF516R17576;Draft;Shirts;Louis Philippe Jeans;Adults-Men;Men;Blue;;;Fashion;;2017;39,LPJSSHRT00001778,40,LPJSSHRT00001779,42,LPJSSHRT00001780;1999.00;;;<p>Cotton</p>;;;;;zerotype;;Summer;;No
1936233;LRSF516R10568-WhiteWithblue-1936233;LRSF516R10568;Draft;Shirts;Louis Philippe Jeans;Adults-Men;Men;White;;;Fashion;;2017;39,LPJSSHRT00001759,40,LPJSSHRT00001760,42,LPJSSHRT00001761;2299.00;;;<p>Cotton</p>;;;;;zerotype;;Summer;;No
1936231;LRSF516R10339-MediumIvorySolid-1936231;LRSF516R10339;Draft;Shirts;Louis Philippe Jeans;Adults-Men;Men;Cream;;;Fashion;;2017;39,LPJSSHRT00001755,40,LPJSSHRT00001756,42,LPJSSHRT00001757;2799.00;;;<p>Cotton</p>;;;;;zerotype;;Summer;;No
1936229;LRSF516R08029-DarkblueWithKhakis-1936229;LRSF516R08029;Draft;Shirts;Louis Philippe Jeans;Adults-Men;Men;Blue;;;Fashion;;2017;38,LPJSSHRT00001750,39,LPJSSHRT00001751,40,LPJSSHRT00001752,42,LPJSSHRT00001753;2299.00;;;<p>Cotton</p>;;;;;zerotype;;Summer;;No
1936227;LRSF516R07517-LightblueWithblue-1936227;LRSF516R07517;BIS + Content Complete;Shirts;Louis Philippe Jeans;Adults-Men;Men;Blue;;;Fashion;Casual;2017;39,LPJSSHRT00001746,40,LPJSSHRT00001747,42,LPJSSHRT00001748;2499.00;Blue printed casual shirt, has a spread collar, button placket, long sleeves, curved hem;Cozy up with this in-style Louis Philippe Jeans shirt this season.  Rock this blue shirt with dark jeans and comfortable shoes next time you're looking for a casual weekend outfit.;Cotton <br> Machine-wash;Slim fit<br> The model (height 6') is wearing a size 32;;Louis Philippe Jeans Men Blue Slim Fit Printed Casual Shirt;Louis Philippe Jeans;zerotype;;Summer;;No
1936223;LRSF516R04996-WhiteWithblue-1936223;LRSF516R04996;Draft;Shirts;Louis Philippe Jeans;Adults-Men;Men;White;;;Fashion;;2017;39,LPJSSHRT00001738,40,LPJSSHRT00001739,42,LPJSSHRT00001740;2499.00;;;<p>Cotton</p>;;;;;zerotype;;Summer;;No
1936222;LRSF516R01316-DarkblueWithWhite-1936222;LRSF516R01316;Draft;Shirts;Louis Philippe Jeans;Adults-Men;Men;Blue;;;Fashion;;2017;38,LPJSSHRT00001734,39,LPJSSHRT00001735,40,LPJSSHRT00001736,42,LPJSSHRT00001737;2299.00;;;<p>Cotton</p>;;;;;zerotype;;Summer;;No
1936220;LRSF516R00624-DarkGreySolid-1936220;LRSF516R00624;BIS + Content Complete;Shirts;Louis Philippe Jeans;Adults-Men;Men;Grey;;;Fashion;Casual;2017;39,LPJSSHRT00001730,40,LPJSSHRT00001731,42,LPJSSHRT00001732;2499.00;Grey solid casual shirt, has a spread collar, button placket, 2 pockets, long sleeves, curved hem;This shirt from Louis Philippe Jeans will give you the perfect amount of comfort and durability.  Rock this grey shirt with dark jeans and comfortable shoes next time you're looking for a casual weekend outfit.;Cotton and elastane <br> Machine-wash;Slim fit<br> The model (height 6') is wearing a size 32;;Louis Philippe Jeans Men Grey Slim Fit Solid Casual Shirt;Louis Philippe Jeans;zerotype;;Summer;;No
1936219;LRSF516R00621-DarkblueSolid-1936219;LRSF516R00621;Draft;Shirts;Louis Philippe Jeans;Adults-Men;Men;Blue;;;Fashion;;2017;39,LPJSSHRT00001727,40,LPJSSHRT00001728,42,LPJSSHRT00001729;2499.00;;;<p>Cotton</p>;;;;;zerotype;;Summer;;No
1936217;LRSF516R00615-DarkblueSolid-1936217;LRSF516R00615;BIS + Content Complete;Shirts;Louis Philippe Jeans;Adults-Men;Men;Navy Blue;;;Fashion;Casual;2017;39,LPJSSHRT00001723,40,LPJSSHRT00001724,42,LPJSSHRT00001725;1999.00;Navy Blue solid casual shirt, has a slim collar, button placket, 1 pocket, long sleeves, curved hem;Keep warm on the coldest of days with this top-of-the-line shirt by Louis Philippe Jeans.  When you're going out on a dinner date, match this navy blue piece with chinos and a pair of easy loafers.;Cotton <br> Machine-wash;Slim fit<br> The model (height 6') is wearing a size 32;;Louis Philippe Jeans Men Navy Blue Slim Fit Solid Casual Shirt;Louis Philippe Jeans;zerotype;;Summer;;No
1936213;LRSF317R12143-LightgreyWithWhite-1936213;LRSF317R12143;BIS + Content Complete;Shirts;Louis Philippe Jeans;Adults-Men;Men;Blue;;;Fashion;Casual;2017;40,LPJSSHRT00001716,42,LPJSSHRT00001717;2299.00;Blue printed casual shirt, has a spread collar, button placket, 1 pocket, long sleeves, curved hem;Add this well-designed shirt from Louis Philippe Jeans to your wardrobe and stay warm all year long.  This blue piece can be worn with dark wash jeans and Chelsea boots when you're going to an after-work happy hour.;Cotton <br> Machine-wash;The model (height 6') is wearing a size 32;;Louis Philippe Jeans Men Blue Tailored Fit Printed Casual Shirt;Louis Philippe Jeans;zerotype;;Summer;;No
1936211;LRSF317R12077-LightblueSolid-1936211;LRSF317R12077;Draft;Shirts;Louis Philippe Jeans;Adults-Men;Men;Blue;;;Fashion;;2017;40,LPJSSHRT00001713,42,LPJSSHRT00001714;1799.00;;;<p>Cotton</p>;;;;;zerotype;;Summer;;No
1936209;LRSF317R12073-DarkkhakiSolid-1936209;LRSF317R12073;Draft;Shirts;Louis Philippe Jeans;Adults-Men;Men;Khaki;;;Fashion;;2017;40,LPJSSHRT00001710,42,LPJSSHRT00001711;1799.00;;;<p>Cotton</p>;;;;;zerotype;;Summer;;No
1936203;LRSF317R10643-DarkblueWithWhite-1936203;LRSF317R10643;BIS + Content Complete;Shirts;Louis Philippe Jeans;Adults-Men;Men;Navy Blue;White;;Fashion;Casual;2017;39,LPJSSHRT00001696,40,LPJSSHRT00001697,42,LPJSSHRT00001698;2799.00;Navy Blue and white printed casual shirt, has a spread collar, button placket, 1 pocket, long sleeves, curved hem;Spruce up your look with this handsome shirt from Louis Philippe Jeans.  This navy blue shirt pairs well with your favourite blazer and slim black jeans for a breezy weekend hangout with friends.;Cotton <br> Machine-wash;Slim fit<br> The model (height 6') is wearing a size 32;;Louis Philippe Jeans Men Navy Blue & White Slim Fit Printed Casual Shirt;Louis Philippe Jeans;zerotype;;Summer;;No
1936196;LRSF317R09536-WhiteWithKhakis-1936196;LRSF317R09536;Draft;Shirts;Louis Philippe Jeans;Adults-Men;Men;White;;;Fashion;;2017;39,LPJSSHRT00001681,40,LPJSSHRT00001682,42,LPJSSHRT00001683;1899.00;;;<p>Cotton</p>;;;;;zerotype;;Summer;;No
1936194;LRSF317R03945-MediumGreenWithGreen-1936194;LRSF317R03945;BIS + Content Complete;Shirts;Louis Philippe Jeans;Adults-Men;Men;Green;;;Fashion;Casual;2017;39,LPJSSHRT00001677,40,LPJSSHRT00001678,42,LPJSSHRT00001679;2499.00;Green checked casual shirt, has a spread collar, snap button placket, 1 pocket, long sleeves, curved hem;For year-round comfort and style, opt for this top-notch shirt from Louis Philippe Jeans.  Wear this green shirt with a pair of chinos and loafers for the perfect weekend look.;Cotton <br> Machine-wash;The model (height 6') is wearing a size 32;;Louis Philippe Jeans Men Green Tailored Fit Checked Casual Shirt;Louis Philippe Jeans;zerotype;;Summer;;No
1936192;LRSF317R03132-WhiteWithblue-1936192;LRSF317R03132;Draft;Shirts;Louis Philippe Jeans;Adults-Men;Men;White;;;Fashion;;2017;39,LPJSSHRT00001673,40,LPJSSHRT00001674,42,LPJSSHRT00001675;2299.00;;;<p>Cotton</p>;;;;;zerotype;;Summer;;No
1936188;LRSF317R02955-BlackWithblue-1936188;LRSF317R02955;Draft;Shirts;Louis Philippe Jeans;Adults-Men;Men;Black;;;Fashion;;2017;39,LPJSSHRT00001664,40,LPJSSHRT00001665,42,LPJSSHRT00001666;2499.00;;;<p>Cotton</p>;;;;;zerotype;;Summer;;No
1936184;LRSF317R02930-DarkkhakiWithkhaki-1936184;LRSF317R02930;BIS + Content Complete;Shirts;Louis Philippe Jeans;Adults-Men;Men;Yellow;;;Fashion;Casual;2017;39,LPJSSHRT00001655,40,LPJSSHRT00001656,42,LPJSSHRT00001657;2799.00;Yellow printed casual shirt, has a spread collar, button placket, 1 pocket, long sleeves, curved hem;For year-round comfort and style, opt for this top-notch shirt from Louis Philippe Jeans.  When you need a laid-back weekend ensemble, rock this yellow piece with trim denims and sneakers.;Linen and cotton <br> Machine-wash;The model (height 6') is wearing a size 32;;Louis Philippe Jeans Men Yellow Tailored Fit Printed Casual Shirt;Louis Philippe Jeans;zerotype;;Summer;;No
1936182;LRSF317R02921-LightblueWithblue-1936182;LRSF317R02921;Draft;Shirts;Louis Philippe Jeans;Adults-Men;Men;Blue;;;Fashion;;2017;39,LPJSSHRT00001650,40,LPJSSHRT00001651,42,LPJSSHRT00001652;2499.00;;;<p>Cotton</p>;;;;;zerotype;;Summer;;No
1936180;LRSF317R02901-LightblueWithWhite-1936180;LRSF317R02901;Draft;Shirts;Louis Philippe Jeans;Adults-Men;Men;Blue;;;Fashion;;2017;38,LPJSSHRT00001645,39,LPJSSHRT00001646,40,LPJSSHRT00001647,42,LPJSSHRT00001648;2799.00;;;<p>Cotton</p>;;;;;zerotype;;Summer;;No
1936179;LRSF317R02893-MediumblueWithblue-1936179;LRSF317R02893;Draft;Shirts;Louis Philippe Jeans;Adults-Men;Men;Blue;;;Fashion;;2017;39,LPJSSHRT00001643,40,LPJSSHRT00001644;1999.00;;;<p>Cotton</p>;;;;;zerotype;;Summer;;No
1936177;LRSF317R02884-MediumblueWithWhite-1936177;LRSF317R02884;Draft;Shirts;Louis Philippe Jeans;Adults-Men;Men;Blue;;;Fashion;;2017;38,LPJSSHRT00001637,39,LPJSSHRT00001638,40,LPJSSHRT00001639,42,LPJSSHRT00001640;1999.00;;;<p>Cotton</p>;;;;;zerotype;;Summer;;No
1936175;LRSF317R02883-MediumblueWithWhite-1936175;LRSF317R02883;Draft;Shirts;Louis Philippe Jeans;Adults-Men;Men;Blue;;;Fashion;;2017;39,LPJSSHRT00001633,40,LPJSSHRT00001634,42,LPJSSHRT00001635;1999.00;;;<p>Cotton</p>;;;;;zerotype;;Summer;;No
1936173;LRSF317R02832-WhiteWithblue-1936173;LRSF317R02832;BIS + Content Complete;Shirts;Louis Philippe Jeans;Adults-Men;Men;White;Blue;;Fashion;Casual;2017;39,LPJSSHRT00001628,40,LPJSSHRT00001629,42,LPJSSHRT00001630;2499.00;White and blue printed casual shirt, has a spread collar, button placket, 1 pocket, long sleeves, curved hem;This shirt from Louis Philippe Jeans will give you the perfect amount of comfort and durability.  When you're going out shopping, this white piece is ready to up the style game of some darker denim and a cardigan.;Cotton <br> Machine-wash;Slim fit<br> The model (height 6') is wearing a size 32;;Louis Philippe Jeans Men White & Blue Slim Fit Printed Casual Shirt;Louis Philippe Jeans;zerotype;;Summer;;No
1936172;LRSF317R02798-WhiteWithblue-1936172;LRSF317R02798;Draft;Shirts;Louis Philippe Jeans;Adults-Men;Men;White;;;Fashion;;2017;38,LPJSSHRT00001624,39,LPJSSHRT00001625,40,LPJSSHRT00001626,42,LPJSSHRT00001627;2299.00;;;<p>Cotton</p>;;;;;zerotype;;Summer;;No
1936170;LRSF317R02788-DarkGreySolid-1936170;LRSF317R02788;BIS + Content Complete;Shirts;Louis Philippe Jeans;Adults-Men;Men;Beige;;;Fashion;Casual;2017;39,LPJSSHRT00001620,40,LPJSSHRT00001621,42,LPJSSHRT00001622;2299.00;Beige printed casual shirt, has a cutaway collar, button placket, 1 pocket, long sleeves, curved hem;This shirt from Louis Philippe Jeans will give you the perfect amount of comfort and durability.  Rock this beige shirt with dark jeans and comfortable shoes next time you're looking for a casual weekend outfit.;Cotton <br> Machine-wash;The model (height 6') is wearing a size 32;;Louis Philippe Jeans Men Beige Tailored Fit Printed Casual Shirt;Louis Philippe Jeans;zerotype;;Summer;;No
1936168;LRSF317R02738-DarkkhakiSolid-1936168;LRSF317R02738;Draft;Shirts;Louis Philippe Jeans;Adults-Men;Men;Khaki;;;Fashion;;2017;40,LPJSSHRT00001617,42,LPJSSHRT00001618;2299.00;;;<p>Cotton</p>;;;;;zerotype;;Summer;;No
1936166;LRSF317R02706-DarkblueWithblue-1936166;LRSF317R02706;BIS + Content Complete;Shirts;Louis Philippe Jeans;Adults-Men;Men;Blue;;;Fashion;Casual;2017;39,LPJSSHRT00001614,40,LPJSSHRT00001615;2299.00;Blue printed casual shirt, has a spread collar, button placket, 1 pocket, long sleeves, curved hem;Expand your collection of casual staples with this trendy shirt from Louis Philippe Jeans.  Rock this blue shirt with dark jeans and comfortable shoes next time you're looking for a casual weekend outfit.;Cotton <br> Machine-wash;Slim fit<br> The model (height 6') is wearing a size 32;;Louis Philippe Jeans Men Blue Slim Fit Printed Casual Shirt;Louis Philippe Jeans;zerotype;;Summer;;No
1936164;LRSF317R02705-DarkblueWithblue-1936164;LRSF317R02705;Draft;Shirts;Louis Philippe Jeans;Adults-Men;Men;Blue;;;Fashion;;2017;40,LPJSSHRT00001611,42,LPJSSHRT00001612;2299.00;;;<p>Cotton</p>;;;;;zerotype;;Summer;;No
1936162;LRSF317R02683-MediumRedSolid-1936162;LRSF317R02683;Draft;Shirts;Louis Philippe Jeans;Adults-Men;Men;Red;;;Fashion;;2017;39,LPJSSHRT00001607,40,LPJSSHRT00001608,42,LPJSSHRT00001609;2499.00;;;<p>Cotton</p>;;;;;zerotype;;Summer;;No
1936160;LRSF317R02681-MediumblueSolid-1936160;LRSF317R02681;BIS + Content Complete;Shirts;Louis Philippe Jeans;Adults-Men;Men;Blue;;;Fashion;Casual;2017;39,LPJSSHRT00001603,40,LPJSSHRT00001604,42,LPJSSHRT00001605;2499.00;Blue solid casual shirt, has a spread collar, button placket, 1 pocket, long sleeves, curved hem;Spruce up your look with this handsome shirt from Louis Philippe Jeans.  This blue piece can be styled with dark denims, Chelsea boots, and a classic leather jacket for your next concert.;Cotton <br> Machine-wash;Slim fit<br> The model (height 6') is wearing a size 32;;Louis Philippe Jeans Men Blue Slim Fit Solid Casual Shirt;Louis Philippe Jeans;zerotype;;Summer;;No
1936158;LRSF317R02679-LightYellowSolid-1936158;LRSF317R02679;Draft;Shirts;Louis Philippe Jeans;Adults-Men;Men;Yellow;;;Fashion;;2017;39,LPJSSHRT00001599,40,LPJSSHRT00001600,42,LPJSSHRT00001601;2499.00;;;<p>Cotton</p>;;;;;zerotype;;Summer;;No
1936157;LRSF317R02648-White-1936157;LRSF317R02648;Draft;Shirts;Louis Philippe Jeans;Adults-Men;Men;White;;;Fashion;;2017;38,LPJSSHRT00001595,39,LPJSSHRT00001596,40,LPJSSHRT00001597,42,LPJSSHRT00001598;1999.00;;;<p>Cotton</p>;;;;;zerotype;;Summer;;No
1936155;LRSF317R02641-DarkGreenSolid-1936155;LRSF317R02641;BIS + Content Complete;Shirts;Louis Philippe Jeans;Adults-Men;Men;Olive;;;Fashion;Casual;2017;39,LPJSSHRT00001591,40,LPJSSHRT00001592,42,LPJSSHRT00001593;1999.00;Olive Green solid casual shirt, has a spread collar, button placket, 2 pockets, long sleeves, curved hem;For year-round comfort and style, opt for this top-notch shirt from Louis Philippe Jeans.  This olive piece can be teamed with distressed denims and canvas shoes when you're grabbing lunch with the guys.;Cotton <br> Machine-wash;Slim fit<br> The model (height 6') is wearing a size 32;;Louis Philippe Jeans Men Olive Green Slim Fit Solid Casual Shirt;Louis Philippe Jeans;zerotype;;Summer;;No
1936153;LRSF317R02625-MediumYellowSolid-1936153;LRSF317R02625;BIS + Content Complete;Shirts;Louis Philippe Jeans;Adults-Men;Men;Yellow;;;Fashion;Casual;2017;39,LPJSSHRT00001587,40,LPJSSHRT00001588,42,LPJSSHRT00001589;2499.00;Yellow solid casual shirt, has a mandarin collar, button placket, 1 pocket, long sleeves, curved hem;This solid shirt from Louis Philippe Jeans will make you look your casual best.  You'll love putting this yellow piece on with some trainers and chinos for the perfect outdoor activity with your friends.;Linen and cotton <br> Machine-wash;Slim fit<br> The model (height 6') is wearing a size 32;;Louis Philippe Jeans Men Yellow Slim Fit Solid Casual Shirt;Louis Philippe Jeans;zerotype;;Summer;;No
1936151;LRSF317R01640-DarkkhakiSolid-1936151;LRSF317R01640;Draft;Shirts;Louis Philippe Jeans;Adults-Men;Men;Khaki;;;Fashion;;2017;39,LPJSSHRT00001584,40,LPJSSHRT00001585;2299.00;;;<p>Cotton</p>;;;;;zerotype;;Summer;;No
1936149;LRSF317R01624-LightblueWithblue-1936149;LRSF317R01624;Draft;Shirts;Louis Philippe Jeans;Adults-Men;Men;Blue;;;Fashion;;2017;39,LPJSSHRT00001580,40,LPJSSHRT00001581,42,LPJSSHRT00001582;2499.00;;;<p>Cotton</p>;;;;;zerotype;;Summer;;No
1936147;LRSF317R01610-LightRedSolid-1936147;LRSF317R01610;Draft;Shirts;Louis Philippe Jeans;Adults-Men;Men;Red;;;Fashion;;2017;39,LPJSSHRT00001576,40,LPJSSHRT00001577,42,LPJSSHRT00001578;2299.00;;;<p>Cotton</p>;;;;;zerotype;;Summer;;No
1936145;LRSF317R014914-MediumblueWithWhite-1936145;LRSF317R014914;Draft;Shirts;Louis Philippe Jeans;Adults-Men;Men;Blue;;;Fashion;;2017;39,LPJSSHRT00001572,40,LPJSSHRT00001573,42,LPJSSHRT00001574;2299.00;;;<p>Cotton</p>;;;;;zerotype;;Summer;;No
1936143;LRSF316R00769-MediumblueSolid-1936143;LRSF316R00769;BIS + Content Complete;Shirts;Louis Philippe Jeans;Adults-Men;Men;Blue;;;Fashion;Casual;2017;39,LPJSSHRT00001568,40,LPJSSHRT00001569,42,LPJSSHRT00001570;2499.00;Blue faded casual shirt, has a spread collar, button placket, 1 pocket, long sleeves, curved hem;Add this well-designed shirt from Louis Philippe Jeans to your wardrobe and stay warm all year long.  This blue piece is the perfect fall shirt when you put it with a pair of jeans and a lightweight jacket to enjoy the crisper weather.;Cotton <br> Machine-wash;Slim fit<br> The model (height 6') is wearing a size 32;;Louis Philippe Jeans Men Blue Slim Fit Faded Casual Shirt;Louis Philippe Jeans;zerotype;;Summer;;No
1936129;LPSH317M00482-LightblueWithWhite-1936129;LPSH317M00482;Draft;Shirts;Louis Philippe;Adults-Men;Men;Blue;;;Fashion;;2017;39,LSPLSHRT00004001,40,LSPLSHRT00004002,42,LSPLSHRT00004003;1899.00;;;<p>Cotton</p>;;;;;zerotype;;Summer;;No
1936127;LPSH317C11910-LightblueWithWhite-1936127;LPSH317C11910;BIS + Content Complete;Shirts;Louis Philippe;Adults-Men;Men;Blue;;;Fashion;Formal;2017;39,LSPLSHRT00003997,40,LSPLSHRT00003998,42,LSPLSHRT00003999;1899.00;Blue self-design formal shirt, has a spread collar, button placket, 1 pocket, long sleeves, curved hem;Add this trendy shirt from Louis Philippe to your formal staples.  This blue piece can be paired with cuffed chinos and leather boots for your next formal party.;Cotton <br> Machine-wash;Classic Regular Fit<br> The model (height 6') is wearing a size 32;;Louis Philippe Men Blue Classic Regular Fit Self Design Formal Shirt;Louis Philippe;zerotype;;Summer;;No
1936117;LPSH317C00137-LightGreenSolid-1936117;LPSH317C00137;BIS + Content Complete;Shirts;Louis Philippe;Adults-Men;Men;Green;;;Fashion;Formal;2017;39,LSPLSHRT00003976,40,LSPLSHRT00003977,42,LSPLSHRT00003978;1899.00;Green self-design formal shirt, has a spread collar, button placket, 1 pocket, short sleeves, straight hem;Try on this shirt from Louis Philippe for a casual, handsome look.  This green piece deserves to be layered with a lambswool sweater and relaxed chino for a nicer casual outfit when you're lounging around the house.;Cotton <br> Machine-wash;Classic Regular Fit<br> The model (height 6') is wearing a size 32;;Louis Philippe Men Green Classic Regular Fit Self Design Formal Shirt;Louis Philippe;zerotype;;Summer;;No
1936115;LPSH317C00106-WhiteWithYellow-1936115;LPSH317C00106;BIS + Content Complete;Shirts;Louis Philippe;Adults-Men;Men;White;Yellow;;Fashion;Formal;2017;39,LSPLSHRT00003972,40,LSPLSHRT00003973,42,LSPLSHRT00003974;1899.00;White and yellow printed formal shirt, has a spread collar, button placket, 1 pocket, short sleeves, straight hem;Spruce up your summer-time style with this high-quality shirt by Louis Philippe.  Match this white piece with chinos and leather boots when you're going to dinner with your friends.;Cotton <br> Machine-wash;Classic Regular Fit<br> The model (height 6') is wearing a size 32;;Louis Philippe Men White & Yellow Regular Fit Printed Formal Shirt;Louis Philippe;zerotype;;Summer;;No
1936111;LPSH317C00071-MediumgreyWithgrey-1936111;LPSH317C00071;BIS + Content Complete;Shirts;Louis Philippe;Adults-Men;Men;Grey;Black;;Fashion;Formal;2017;39,LSPLSHRT00003964,40,LSPLSHRT00003965,42,LSPLSHRT00003966;1899.00;Grey and black checked formal shirt, has a spread collar, button placket, 1 pocket, short sleeves, straight hem;Spruce up your summer-time style with this high-quality shirt by Louis Philippe.  This grey piece can be styled with slick black jeans and easy loafers when you're dining at a nice restaurant.;Cotton <br> Machine-wash;Classic Regular Fit<br> The model (height 6') is wearing a size 32;;Louis Philippe Men Grey & Black Regular Fit Checked Formal Shirt;Louis Philippe;zerotype;;Summer;;No
1936107;LPSH317C00005-MediumblueWithWhite-1936107;LPSH317C00005;BIS + Content Complete;Shirts;Louis Philippe;Adults-Men;Men;White;Blue;;Fashion;Formal;2017;39,LSPLSHRT00003955,40,LSPLSHRT00003956,42,LSPLSHRT00003957;2299.00;White and blue printed formal shirt, has a spread collar, button placket, 1 pocket, short sleeves, straight hem;Try on this shirt from Louis Philippe for a casual, handsome look.  When you're attending a work conference, style this white piece with professional trousers and a simple blazer.;Cotton <br> Machine-wash;The model (height 6') is wearing a size 32;;Louis Philippe Men White & Blue Regular Fit Printed Formal Shirt;Louis Philippe;zerotype;;Summer;;No
1936104;LPSF517M00679-DarkGreenWithBlack-1936104;LPSF517M00679;BIS + Content Complete;Shirts;Louis Philippe;Adults-Men;Men;Blue;Green;;Fashion;Formal;2017;40,LSPLSHRT00003950;1899.00;Blue and green self-design formal shirt, has a spread collar, button placket, 1 pocket, long sleeves, curved hem;Pull off a formal look any day of the year with this Louis Philippe shirt.  This blue piece can be worn with in-style trousers and Dockers for a professional work outfit.;Cotton <br> Machine-wash;Slim fit<br> The model (height 6') is wearing a size 32;;Louis Philippe Men Blue & Green Slim Fit Self Design Formal Shirt;Louis Philippe;zerotype;;Summer;;No
1936100;LPSF516U12560-MediumOrangeWithblue-1936100;LPSF516U12560;Draft;Shirts;Louis Philippe;Adults-Men;Men;Orange;;;Fashion;;2017;39,LSPLSHRT00003941,40,LSPLSHRT00003942,42,LSPLSHRT00003943;1999.00;;;<p>Cotton</p>;;;;;zerotype;;Summer;;No
1936092;LPSF516M17804-WhiteWithblue-1936092;LPSF516M17804;Draft;Shirts;Louis Philippe;Adults-Men;Men;White;;;Fashion;;2017;39,LSPLSHRT00003924,40,LSPLSHRT00003925,42,LSPLSHRT00003926;1999.00;;;<p>Cotton</p>;;;;;zerotype;;Summer;;No
1936088;LPSF516M17791-WhiteWithblue-1936088;LPSF516M17791;Draft;Shirts;Louis Philippe;Adults-Men;Men;White;;;Fashion;;2017;40,LSPLSHRT00003917,42,LSPLSHRT00003918;2299.00;;;<p>Cotton</p>;;;;;zerotype;;Summer;;No
1936083;LPSF516L17412-WhiteWithBrown-1936083;LPSF516L17412;Draft;Shirts;Louis Philippe;Adults-Men;Men;White;;;Fashion;;2017;40,LSPLSHRT00003908,42,LSPLSHRT00003909;2799.00;;;<p>Cotton</p>;;;;;zerotype;;Summer;;No
1936076;LPSF516C03791-LightPurpleWithWhite-1936076;LPSF516C03791;Draft;Shirts;Louis Philippe;Adults-Men;Men;Purple;;;Fashion;;2017;39,LSPLSHRT00003892,40,LSPLSHRT00003893,42,LSPLSHRT00003894;2299.00;;;<p>Cotton</p>;;;;;zerotype;;Summer;;No
1936074;LPSF317Y09528-MediumblueWithWhite-1936074;LPSF317Y09528;BIS + Content Complete;Shirts;Louis Philippe;Adults-Men;Men;Black;White;;Fashion;Formal;2017;39,LSPLSHRT00003887,40,LSPLSHRT00003888,42,LSPLSHRT00003889;2299.00;Black and white checked formal shirt, has a cutaway collar, button placket, 1 pocket, long sleeves, straight hem;You'll look dapper in this formal shirt from Louis Philippe.  Make it to your next business meeting or formal event wearing this black shirt with slim trousers and brogues.;Cotton <br> Machine-wash;The model (height 6') is wearing a size 32;;Louis Philippe Men Black & White Regular Fit Checked Formal Shirt;Louis Philippe;zerotype;;Summer;;No
1936072;LPSF317Y09526-WhiteWithBlack-1936072;LPSF317Y09526;BIS + Content Complete;Shirts;Louis Philippe;Adults-Men;Men;Off White;Black;;Fashion;Formal;2017;39,LSPLSHRT00003883,40,LSPLSHRT00003884,42,LSPLSHRT00003885;1999.00;Off-White and black checked formal shirt, has a spread collar, button placket, 1 pocket, long sleeves, curved hem;This shirt from Louis Philippe can make any outfit formal.  Pair this off-white piece with chinos and canvas shoes when you're going to brunch with your family.;Cotton <br> Machine-wash;Slim fit<br> The model (height 6') is wearing a size 32;;Louis Philippe Men Off-White & Black Slim Fit Checked Formal Shirt;Louis Philippe;zerotype;;Summer;;No
1936068;LPSF317Y08050-MediumblueSolid-1936068;LPSF317Y08050;BIS + Content Complete;Shirts;Louis Philippe;Adults-Men;Men;Blue;;;Fashion;Formal;2017;39,LSPLSHRT00003875,40,LSPLSHRT00003876,42,LSPLSHRT00003877;2299.00;Blue solid formal shirt, has a spread collar, button placket, 1 pocket, long sleeves, curved hem;Pull off a formal look any day of the year with this Louis Philippe shirt.  When you have a formal event to attend, match this blue piece with cuffed chinos and your favourite pair of Derby shoes.;Cotton <br> Machine-wash;The model (height 6') is wearing a size 32;;Louis Philippe Men Blue Regular Fit Solid Formal Shirt;Louis Philippe;zerotype;;Summer;;No
1936066;LPSF317Y08033-MediumblueWithWhite-1936066;LPSF317Y08033;Draft;Shirts;Louis Philippe;Adults-Men;Men;Blue;;;Fashion;;2017;39,LSPLSHRT00003870,40,LSPLSHRT00003871,42,LSPLSHRT00003872;2299.00;;;<p>Cotton</p>;;;;;zerotype;;Summer;;No
1936062;LPSF317Y07989-LightblueWithWhite-1936062;LPSF317Y07989;BIS + Content Complete;Shirts;Louis Philippe;Adults-Men;Men;Blue;White;;Fashion;Formal;2017;39,LSPLSHRT00003861,40,LSPLSHRT00003862,42,LSPLSHRT00003863;1999.00;Blue and white printed formal shirt, has a spread collar, button placket, 1 pocket, long sleeves, curved hem;This in-style shirt from Louis Philippe will help you nail a handsome look.  If you're attending a work conference, match this blue piece with your favourite pair of trousers and a stellar blazer.;Cotton <br> Machine-wash;Slim fit<br> The model (height 6') is wearing a size 32;;Louis Philippe Men Blue & White Slim Fit Printed Formal Shirt;Louis Philippe;zerotype;;Summer;;No
1936060;LPSF317Y07979-MediumblueSolid-1936060;LPSF317Y07979;BIS + Content Complete;Shirts;Louis Philippe;Adults-Men;Men;Pink;;;Fashion;Formal;2017;39,LSPLSHRT00003857,40,LSPLSHRT00003858,42,LSPLSHRT00003859;2299.00;Pink solid formal shirt, has a spread collar, button placket, 1 pocket, long sleeves, curved hem;Formalise your wardrobe with this cool shirt from Louis Philippe.  This pink piece can be paired with cuffed chinos and leather boots for your next formal party.;Cotton <br> Machine-wash;Slim fit<br> The model (height 6') is wearing a size 32;;Louis Philippe Men Pink Slim Fit Solid Formal Shirt;Louis Philippe;zerotype;;Summer;;No
1936056;LPSF317Y07976-MediumblueSolid-1936056;LPSF317Y07976;BIS + Content Complete;Shirts;Louis Philippe;Adults-Men;Men;Blue;;;Fashion;Formal;2017;39,LSPLSHRT00003849,40,LSPLSHRT00003850,42,LSPLSHRT00003851;2299.00;Blue solid formal shirt, has a spread collar, button placket, 1 pocket, long sleeves, curved hem;Add this trendy shirt from Louis Philippe to your formal staples.  When you have a special date planned, team this blue piece with dark wash jeans, easy loafers and your favourite blazer.;Cotton <br> Machine-wash;The model (height 6') is wearing a size 32;;Louis Philippe Men Blue Regular Fit Solid Formal Shirt;Louis Philippe;zerotype;;Summer;;No
1936054;LPSF317Y06436-MediumblueSolid-1936054;LPSF317Y06436;Draft;Shirts;Louis Philippe;Adults-Men;Men;Blue;;;Fashion;;2017;39,LSPLSHRT00003845,40,LSPLSHRT00003846,42,LSPLSHRT00003847;2299.00;;;<p>Cotton</p>;;;;;zerotype;;Summer;;No
1936050;LPSF317X13184-LightblueWithWhite-1936050;LPSF317X13184;BIS + Content Complete;Shirts;Louis Philippe;Adults-Men;Men;Blue;;;Fashion;Formal;2017;39,LSPLSHRT00003836,40,LSPLSHRT00003837,42,LSPLSHRT00003838;1999.00;Blue solid formal shirt, has a spread collar, button placket, 1 pocket, long sleeves, curved hem;Add class to your year-round style with this formal shirt from Louis Philippe.  This blue piece can be worn with in-style trousers and Dockers for a professional work outfit.;Cotton <br> Machine-wash;Classic Regular Fit<br> The model (height 6') is wearing a size 32;;Louis Philippe Men Blue Classic Regular Fit Solid Formal Shirt;Louis Philippe;zerotype;;Summer;;No
1936048;LPSF317X13183-LightPinkwithWhite-1936048;LPSF317X13183;BIS + Content Complete;Shirts;Louis Philippe;Adults-Men;Men;Pink;;;Fashion;Formal;2017;39,LSPLSHRT00003831,40,LSPLSHRT00003832,42,LSPLSHRT00003833;1999.00;Pink self-design formal shirt, has a spread collar, button placket, 1 pocket, long sleeves, curved hem;Turn up your style with this dapper shirt by Louis Philippe.  Pair this pink piece with some classic trousers and a nice blazer when you're going out to dinner with your coworkers and clients.;Cotton <br> Machine-wash;Slim fit<br> The model (height 6') is wearing a size 32;;Louis Philippe Men Pink Slim Fit Self Design Formal Shirt;Louis Philippe;zerotype;;Summer;;No
1936046;LPSF317X13181-MediumgreyWithWhite-1936046;LPSF317X13181;BIS + Content Complete;Shirts;Louis Philippe;Adults-Men;Men;White;Charcoal;;Fashion;Formal;2017;39,LSPLSHRT00003826,40,LSPLSHRT00003827,42,LSPLSHRT00003828;1999.00;White and charcoal checked formal shirt, has a spread collar, button placket, 1 pocket, long sleeves, curved hem;This shirt from Louis Philippe can make any outfit formal.  You can wear this white piece with trim denims and easy loafers when you're going to a nice restaurant.;Cotton <br> Machine-wash;Classic Regular Fit<br> The model (height 6') is wearing a size 32;;Louis Philippe Men White & Charcoal Regular Fit Checked Formal Shirt;Louis Philippe;zerotype;;Summer;;No
1936034;LPSF317P00251-LightPinkwithWhite-1936034;LPSF317P00251;BIS + Content Complete;Shirts;Louis Philippe;Adults-Men;Men;Pink;White;;Fashion;Formal;2017;39,LSPLSHRT00003801,40,LSPLSHRT00003802,42,LSPLSHRT00003803;2799.00;Pink and white checked formal shirt, has a cutaway collar, button placket, 1 pocket, long sleeves, straight hem;Add this trendy shirt from Louis Philippe to your formal staples.  Pair this pink piece with chinos and canvas shoes when you're going to brunch with your family.;Cotton <br> Machine-wash;The model (height 6') is wearing a size 32;;Louis Philippe Men Pink & White Regular Fit Checked Formal Shirt;Louis Philippe;zerotype;;Summer;;No
1936032;LPSF317P00204-MediumblueWithWhite-1936032;LPSF317P00204;Draft;Shirts;Louis Philippe;Adults-Men;Men;Blue;;;Fashion;;2017;38,LSPLSHRT00003796,39,LSPLSHRT00003797,40,LSPLSHRT00003798,42,LSPLSHRT00003799;2799.00;;;<p>Cotton</p>;;;;;zerotype;;Summer;;No
1936029;LPSF317M10005-LightgreyWithWhite-1936029;LPSF317M10005;BIS + Content Complete;Shirts;Louis Philippe;Adults-Men;Men;Grey;;;Fashion;Formal;2017;39,LSPLSHRT00003790,40,LSPLSHRT00003791,42,LSPLSHRT00003792;1999.00;Grey self-design formal shirt, has a spread collar, button placket, 1 pocket, long sleeves, curved hem;Formalise your wardrobe with this cool shirt from Louis Philippe.  When you have a special date planned, team this grey piece with dark wash jeans, easy loafers and your favourite blazer.;Cotton <br> Machine-wash;Classic Regular Fit<br> The model (height 6') is wearing a size 32;;Louis Philippe Men Grey Classic Regular Fit Self Design Formal Shirt;Louis Philippe;zerotype;;Summer;;No
1936023;LPSF317L07661-LightblueWithWhite-1936023;LPSF317L07661;BIS + Content Complete;Shirts;Louis Philippe;Adults-Men;Men;Blue;White;;Fashion;Casual;2017;39,LSPLSHRT00003778,40,LSPLSHRT00003779,42,LSPLSHRT00003780;2299.00;Blue and white printed casual shirt, has a cutaway collar, button placket, 1 pocket, short sleeves, curved hem;Add this trendy Louis Philippe shirt to your casual staples and keep it trendy all year long.  Sport this super casual blue shirt with cuffed chinos and penny loafers when catching the big game (or just catching up with friends).;Cotton <br> Machine-wash;The model (height 6') is wearing a size 32;;Louis Philippe Men Blue & White Regular Fit Printed Casual Shirt;Louis Philippe;zerotype;;Summer;;No
1936021;LPSF317L07657-MediumblueWithWhite-1936021;LPSF317L07657;BIS + Content Complete;Shirts;Louis Philippe;Adults-Men;Men;Blue;;;Fashion;Casual;2017;39,LSPLSHRT00003774,40,LSPLSHRT00003775,42,LSPLSHRT00003776;2299.00;Blue printed casual shirt, has a spread collar, button placket, 1 pocket, long sleeves, curved hem;For year-round comfort and style, opt for this top-notch shirt from Louis Philippe.  When you're hanging out with friends, you'll win the style game by putting this blue piece with a cardigan and sneakers.;Cotton <br> Machine-wash;The model (height 6') is wearing a size 32;;Louis Philippe Men Blue Tailored Fit Printed Casual Shirt;Louis Philippe;zerotype;;Summer;;No
1935995;LPSF317C12726-LightPinkwithWhite-1935995;LPSF317C12726;Draft;Shirts;Louis Philippe;Adults-Men;Men;Pink;;;Fashion;;2017;39,LSPLSHRT00003720,40,LSPLSHRT00003721,42,LSPLSHRT00003722;1899.00;;;<p>Cotton</p>;;;;;zerotype;;Summer;;No
1935993;LPSF317C12725-LightYellowWithWhite-1935993;LPSF317C12725;BIS + Content Complete;Shirts;Louis Philippe;Adults-Men;Men;Yellow;;;Fashion;Formal;2017;39,LSPLSHRT00003716,40,LSPLSHRT00003717,42,LSPLSHRT00003718;1899.00;Yellow self-design formal shirt, has a spread collar, button placket, 1 pocket, long sleeves, curved hem;Add class to your year-round style with this formal shirt from Louis Philippe.  Pair this yellow piece with some classic trousers and a nice blazer when you're going out to dinner with your coworkers and clients.;Cotton <br> Machine-wash;Slim fit<br> The model (height 6') is wearing a size 32;;Louis Philippe Men Yellow Slim Fit Self Design Formal Shirt;Louis Philippe;zerotype;;Summer;;No
1935983;LPSF317C12634-LightgreyWithWhite-1935983;LPSF317C12634;BIS + Content Complete;Shirts;Louis Philippe;Adults-Men;Men;Grey;White;;Fashion;Formal;2017;39,LSPLSHRT00003699,40,LSPLSHRT00003700,42,LSPLSHRT00003701;2599.00;Grey and white checked formal shirt, has a spread collar, button placket, 1 pocket, long sleeves, curved hem;This in-style shirt from Louis Philippe will help you nail a handsome look.  If you're attending a work conference, match this grey piece with your favourite pair of trousers and a stellar blazer.;Cotton <br> Machine-wash;Slim fit<br> The model (height 6') is wearing a size 32;;Louis Philippe Men Grey & White Slim Fit Checked Formal Shirt;Louis Philippe;zerotype;;Summer;;No
1935958;LPSF317C06592-MediumgreyWithWhite-1935958;LPSF317C06592;BIS + Content Complete;Shirts;Louis Philippe;Adults-Men;Men;White;Black;;Fashion;Formal;2017;40,LSPLSHRT00003648,42,LSPLSHRT00003649;1999.00;White and black checked formal shirt, has a spread collar, button placket, 1 pocket, long sleeves, curved hem;This in-style shirt from Louis Philippe will help you nail a handsome look.  This white piece can be matched with professional trousers and a sleek blazer when you're heading to work.;Cotton <br> Machine-wash;Slim fit<br> The model (height 6') is wearing a size 32;;Louis Philippe Men White & Black Slim Fit Checked Formal Shirt;Louis Philippe;zerotype;;Summer;;No
1935956;LPSF317C06544-LightblueWithWhite-1935956;LPSF317C06544;BIS + Content Complete;Shirts;Louis Philippe;Adults-Men;Men;Blue;White;;Fashion;Formal;2017;38,LSPLSHRT00003643,40,LSPLSHRT00003644,42,LSPLSHRT00003645;1899.00;Blue and white printed formal shirt, has a spread collar, button placket, 1 pocket, long sleeves, curved hem;This shirt from Louis Philippe can make any outfit formal.  Wear this blue shirt with a pair of tailored trousers and Derby shoes for the perfect work look.;Cotton <br> Machine-wash;Slim fit<br> The model (height 6') is wearing a size 32;;Louis Philippe Men Blue & White Slim Fit Printed Formal Shirt;Louis Philippe;zerotype;;Summer;;No
1935952;LPSF317C00362-MediumPurpleWithWhite-1935952;LPSF317C00362;BIS + Content Complete;Shirts;Louis Philippe;Adults-Men;Men;White;Lavender;;Fashion;Formal;2017;39,LSPLSHRT00003635,40,LSPLSHRT00003636,42,LSPLSHRT00003637;2599.00;White and lavender striped formal shirt, has a spread collar, button placket, 1 pocket, long sleeves, curved hem;Formalise your wardrobe with this cool shirt from Louis Philippe.  You can wear this white piece with trim denims and easy loafers when you're going to a nice restaurant.;Cotton <br> Machine-wash;The model (height 6') is wearing a size 32;;Louis Philippe Men White & Lavender Regular Fit Striped Formal Shirt;Louis Philippe;zerotype;;Summer;;No
1935948;LPSF317C00121-MediumPurpleWithWhite-1935948;LPSF317C00121;Draft;Shirts;Louis Philippe;Adults-Men;Men;Purple;;;Fashion;;2017;39,LSPLSHRT00003627,40,LSPLSHRT00003628,42,LSPLSHRT00003629;1999.00;;;<p>Cotton</p>;;;;;zerotype;;Summer;;No
1935942;LPSF316L15055-WhiteWithblue-1935942;LPSF316L15055;BIS + Content Complete;Shirts;Louis Philippe;Adults-Men;Men;Blue;;;Fashion;Casual;2017;39,LSPLSHRT00003613,40,LSPLSHRT00003614,42,LSPLSHRT00003615;2299.00;Blue printed casual shirt, has a mandarin collar, button placket, long sleeves, curved hem;Cozy up with this in-style Louis Philippe shirt this season.  This blue piece can be worn with dark wash jeans and Chelsea boots when you're going to an after-work happy hour.;Cotton <br> Machine-wash;The model (height 6') is wearing a size 32;;Louis Philippe Men Blue Tailored Fit Printed Casual Shirt;Louis Philippe;zerotype;;Summer;;No
1935940;LPSF1M01272-LightRedSolid-1935940;LPSF1M01272;BIS + Content Complete;Shirts;Louis Philippe;Adults-Men;Men;Pink;;;Fashion;Formal;2017;39,LSPLSHRT00003608,40,LSPLSHRT00003609,42,LSPLSHRT00003610;1899.00;Pink solid formal shirt, has a spread collar, button placket, 1 pocket, long sleeves, curved hem;This shirt from Louis Philippe can make any outfit formal.  Pair this pink piece with some classic trousers and a nice blazer when you're going out to dinner with your coworkers and clients.;Cotton <br> Machine-wash;Classic Regular Fit<br> The model (height 6') is wearing a size 32;;Louis Philippe Men Pink Classic Regular Fit Solid Formal Shirt;Louis Philippe;zerotype;;Summer;;No
1926582;ATKC317S02467-Grey-1926582;TSHIRT;Draft;Tshirts;Solly Sport;Adults-Men;Men;Grey;;;Fashion;Casual;2017;M,SLSPTSHT00000587,L,SLSPTSHT00000588,XL,SLSPTSHT00000589,XXL,SLSPTSHT00000590,3XL,SLSPTSHT00000591,S,SLSPTSHT00000604;1199.00;;;<p>Wash with mild detergent. Do not bleach. Dry in shade</p>;;;;;zerotype;;Spring;;No
1926573;ATKC317S02355-Multi-1926573;TSHIRT;Draft;Tshirts;Solly Sport;Adults-Men;Men;;;;Fashion;Casual;2017;L,SLSPTSHT00000552,XL,SLSPTSHT00000553,XXL,SLSPTSHT00000554,3XL,SLSPTSHT00000555;1399.00;;;<p>Wash with mild detergent. Do not bleach. Dry in shade</p>;;;;;zerotype;;Summer;;No
1926528;ALSF317J03009-Multi-1926528;SHIRT;Draft;Shirts;Solly Jeans Co.;Adults-Men;Men;;;;Fashion;Casual;2017;40,SYJSSHRT00000497,38,SYJSSHRT00000498,39,SYJSSHRT00000499,42,SYJSSHRT00000500,44,SYJSSHRT00000501;1399.00;;;<p>Wash with mild detergent. Do not bleach. Dry in shade</p>;;;;;zerotype;;Summer;;No
1926524;ALSF317J02980-White-1926524;SHIRT;Draft;Shirts;Solly Jeans Co.;Adults-Men;Men;;;;Fashion;Casual;2017;40,SYJSSHRT00000478,38,SYJSSHRT00000479,39,SYJSSHRT00000480,42,SYJSSHRT00000481,44,SYJSSHRT00000482;1899.00;;;<p>Wash with mild detergent. Do not bleach. Dry in shade</p>;;;;;zerotype;;Summer;;No
1926522;ALSF317J02003-Black-1926522;SHIRT;Draft;Shirts;Solly Jeans Co.;Adults-Men;Men;;;;Fashion;Casual;2017;40,SYJSSHRT00000468,38,SYJSSHRT00000469,39,SYJSSHRT00000470,42,SYJSSHRT00000471,44,SYJSSHRT00000472,46,SYJSSHRT00000473;1699.00;;;<p>Wash with mild detergent. Do not bleach. Dry in shade</p>;;;;;zerotype;;Summer;;No
1926519;ALSF317J01474-Blue-1926519;SHIRT;Draft;Shirts;Solly Jeans Co.;Adults-Men;Men;;;;Fashion;Casual;2017;40,SYJSSHRT00000454,38,SYJSSHRT00000455,39,SYJSSHRT00000456,42,SYJSSHRT00000457,44,SYJSSHRT00000458;1899.00;;;<p>Wash with mild detergent. Do not bleach. Dry in shade</p>;;;;;zerotype;;Summer;;No
1926518;ALDN317J02077-Blue-1926518;JEANS;Draft;Jeans;Solly Jeans Co.;Adults-Men;Men;;;;Fashion;Casual;2017;30,SYJSJENS00000678,32,SYJSJENS00000679,34,SYJSJENS00000680,36,SYJSJENS00000681,38,SYJSJENS00000682;2299.00;;;<p>Wash with mild detergent. Do not bleach. Dry in shade</p>;;;;;zerotype;;Summer;;No
1926517;ALDN317J02040-Blue-1926517;JEANS;Draft;Jeans;Solly Jeans Co.;Adults-Men;Men;;;;Fashion;Casual;2017;30,SYJSJENS00000673,32,SYJSJENS00000674,34,SYJSJENS00000675,36,SYJSJENS00000676,38,SYJSJENS00000677;2299.00;;;<p>Wash with mild detergent. Do not bleach. Dry in shade</p>;;;;;zerotype;;Summer;;No
1926516;ALDN317J01182-Blue-1926516;JEANS;Draft;Jeans;Solly Jeans Co.;Adults-Men;Men;;;;Fashion;Casual;2017;34,SYJSJENS00000668,30,SYJSJENS00000669,32,SYJSJENS00000670,36,SYJSJENS00000671,38,SYJSJENS00000672;2299.00;;;<p>Wash with mild detergent. Do not bleach. Dry in shade</p>;;;;;zerotype;;Summer;;No
1926515;ALDN317J01176-Blue-1926515;JEANS;Draft;Jeans;Solly Jeans Co.;Adults-Men;Men;;;;Fashion;Casual;2017;34,SYJSJENS00000663,30,SYJSJENS00000664,32,SYJSJENS00000665,36,SYJSJENS00000666,38,SYJSJENS00000667;1999.00;;;<p>Wash with mild detergent. Do not bleach. Dry in shade</p>;;;;;zerotype;;Summer;;No
1926514;ALDN317J01175-Blue-1926514;JEANS;Draft;Jeans;Solly Jeans Co.;Adults-Men;Men;;;;Fashion;Casual;2017;34,SYJSJENS00000658,30,SYJSJENS00000659,32,SYJSJENS00000660,36,SYJSJENS00000661,38,SYJSJENS00000662;2299.00;;;<p>Wash with mild detergent. Do not bleach. Dry in shade</p>;;;;;zerotype;;Summer;;No
1926513;ALDN317J01174-Blue-1926513;JEANS;Draft;Jeans;Solly Jeans Co.;Adults-Men;Men;;;;Fashion;Casual;2017;34,SYJSJENS00000652,28,SYJSJENS00000653,30,SYJSJENS00000654,32,SYJSJENS00000655,36,SYJSJENS00000656,38,SYJSJENS00000657;2299.00;;;<p>Wash with mild detergent. Do not bleach. Dry in shade</p>;;;;;zerotype;;Summer;;No
1926512;ALDN317J01159-Blue-1926512;JEANS;Draft;Jeans;Solly Jeans Co.;Adults-Men;Men;;;;Fashion;Casual;2017;34,SYJSJENS00000646,28,SYJSJENS00000647,30,SYJSJENS00000648,32,SYJSJENS00000649,36,SYJSJENS00000650,38,SYJSJENS00000651;1999.00;;;<p>Wash with mild detergent. Do not bleach. Dry in shade</p>;;;;;zerotype;;Summer;;No
1926511;ALDN317J01151-Blue-1926511;JEANS;Draft;Jeans;Solly Jeans Co.;Adults-Men;Men;;;;Fashion;Casual;2017;34,SYJSJENS00000641,30,SYJSJENS00000642,32,SYJSJENS00000643,36,SYJSJENS00000644,38,SYJSJENS00000645;2299.00;;;<p>Wash with mild detergent. Do not bleach. Dry in shade</p>;;;;;zerotype;;Summer;;No
1926510;ALDN317J01137-Blue-1926510;JEANS;Draft;Jeans;Solly Jeans Co.;Adults-Men;Men;;;;Fashion;Casual;2017;34,SYJSJENS00000635,28,SYJSJENS00000636,30,SYJSJENS00000637,32,SYJSJENS00000638,36,SYJSJENS00000639,38,SYJSJENS00000640;2499.00;;;<p>Wash with mild detergent. Do not bleach. Dry in shade</p>;;;;;zerotype;;Summer;;No
1924056;AHBG317053-PINK-1924056;HOBO;BIS + Content Complete;Handbags;Allen Solly;Adults-Women;Women;Pink;;;Fashion;Casual;2017;Onesize,ALSLHDBG00000150;3499.00;Pink solid hobo bag, has a zip closure<br>1 main compartment, 4 inner pockets<br>Tablet sleeve: No<br>One Handle<br>Warranty: No Warranty;This chic Allen Solly handbag will make you stand out from the crowd.  For a chic work outfit, style this pink piece with slick black jeans, a trendy top, and some platform heels.;Synthetic Leather <br> Wipe with a clean, dry cloth to remove dust;Height:<br>Width:<br>Depth:;;Allen Solly Pink Solid Hobo Bag;Allen Solly;zerotype;;Summer;;No
1924052;AHBG317038-TAN-1924052;HOBO;Draft;Handbags;Allen Solly;Adults-Women;Women;;;;Fashion;;2017;Onesize,ALSLHDBG00000146;2299.00;;;;;;;;zerotype;;Summer;;No
1924050;AHBG317036-BLACK-1924050;HAND BAG;Draft;Handbags;Allen Solly;Adults-Women;Women;;;;Fashion;;2017;Onesize,ALSLHDBG00000144;2699.00;;;;;;;;zerotype;;Summer;;No
1924049;AHBG317035-PINK-1924049;HAND BAG;Draft;Handbags;Allen Solly;Adults-Women;Women;;;;Fashion;;2017;Onesize,ALSLHDBG00000143;2699.00;;;;;;;;zerotype;;Summer;;No
1924046;AHBG317025-BLACK-1924046;HAND BAG;BIS + Content Complete;Handbags;Allen Solly;Adults-Women;Women;Black;;;Fashion;Casual;2017;Onesize,ALSLHDBG00000140;2899.00;Black solid handheld bag, has a zip closure<br>1 main compartment, 3 inner pockets<br>Tablet sleeve: No<br>Two Handles<br>Warranty: No Warranty;This stylish handbag from Allen Solly is a must-have addition to your outfit.  Team this black piece with trim denims, leather boots, and a classic leather jacket for an edgy concert look.;Synthetic Leather <br> Wipe with a clean, dry cloth to remove dust;Height:<br>Width:<br>Depth:;;Allen Solly Black Solid Handheld Bag;Allen Solly;zerotype;;Summer;;No
1924041;AHBG317063-BLACK-1924041;BACK PACK;Draft;Backpacks;Allen Solly;Adults-Women;Women;;;;Fashion;;2017;Onesize,ALSLBAPK00000003;2899.00;;;;;;;;zerotype;;Summer;;No
1924035;AHBG317072-NAVY-1924035;CLUTCH;Draft;Clutches;Allen Solly;Adults-Women;Women;;;;Fashion;;2017;Onesize,ALSLCLTH00000030;1199.00;;;;;;;;zerotype;;Summer;;No
1907741;8903414607747-BROWN-1907741;LXE3 TWINKLING E FORESTDEW BROWN (BROWN) S;Draft;Handbags;Baggit;Adults-Women;Women;;;;Fashion;;2017;S,BGGTHDBG00002743;2150.00;;;;;;;;zerotype;;Summer;;No
1907735;8903414607716-RED-1907735;LXE3 FETCHING E FORESTDEW RED (RED) L;BIS + Content Complete;Handbags;Baggit;Adults-Women;Women;Red;;;Fashion;Casual;2017;L,BGGTHDBG00002737;2450.00;Red solid shoulder bag, has a zip closure<br>1 main compartment, 1 external and 2 inner pockets<br>Tablet sleeve: No<br>Two Handles with a non-detachable sling strap<br>Warranty: 6 months;Treat yourself to a fashionable handbag by Baggit and look stylish all year long.  This red bag can be teamed with dark denims, a cute T-shirt, and ballerinas for a fabulous weekend ensemble.;Synthetic Leather <br> Wipe with a clean, dry cloth to remove dust;Height:<br>Width:<br>Depth:;;Baggit Red Solid Shoulder Bag;Baggit;zerotype;;Summer;;No
1907734;8903414607709-BROWN-1907734;LXE3 FETCHING E FORESTDEW BROWN (BROWN) L;Draft;Handbags;Baggit;Adults-Women;Women;;;;Fashion;;2017;L,BGGTHDBG00002736;2450.00;;;;;;;;zerotype;;Summer;;No
1907696;8903414603329-TEAL-1907696;L MAXIMA TINSEL TEAL (GREEN) L;Draft;Handbags;Baggit;Adults-Women;Women;;;;Fashion;;2017;L,BGGTHDBG00002698;2375.00;;;;;;;;zerotype;;Summer;;No
1907695;8903414603312-BROWN-1907695;L MAXIMA TINSEL BROWN (BROWN) L;BIS + Content Complete;Handbags;Baggit;Adults-Women;Women;Brown;;;Fashion;Casual;2017;L,BGGTHDBG00002697;2375.00;Brown solid shoulder bag, has a button closure<br>1 main compartment, 1 external and 1 inner pocket<br>Tablet sleeve: No<br>Two Handles<br>Warranty: 6 months;This chic Baggit handbag will make you stand out from the crowd.  Create your ideal look in a matter of minutes by pairing this brown bag with caged heels, a fitted top and some leather-trimmed accessories.;Synthetic Leather <br> Wipe with a clean, dry cloth to remove dust;Height:<br>Width:<br>Depth:;;Baggit Brown Solid Shoulder Bag;Baggit;zerotype;;Summer;;No
1907694;8903414602032-RUST-1907694;L HERMINE TIMES RUST (TAN) M;Draft;Handbags;Baggit;Adults-Women;Women;;;;Fashion;;2017;M,BGGTHDBG00002696;2675.00;;;;;;;;zerotype;;Summer;;No
1907693;8903414602025-BLACK-1907693;L HERMINE TIMES BLACK (BLACK) M;Draft;Handbags;Baggit;Adults-Women;Women;;;;Fashion;;2017;M,BGGTHDBG00002695;2675.00;;;;;;;;zerotype;;Summer;;No
