Style ID;Vendor Article Number;Vendor Article Name;Active Status;Article type;Brand;Age Group;Gender;Base Colour;Colour1;Colour2;Fashion Type;Usage;Year;Size - SKU code pair;MRP;Style Description;Style Note;Materials and Care Description;Size and Fit Description;Size Chart Path;Product Display Name;Tags;Product Type;Classification Brand;Season;Comments;Upload Images
2213826;35T0205.02.70-Off White-2213826;Loom Tree Leona floral print Bomber Jacket;Draft;Jackets;LOOM TREE;Adults-Women;Women;Off White;;;Fashion;;2017;XS,LMTRJCKT00000006,S,LMTRJCKT00000007,M,LMTRJCKT00000008,L,LMTRJCKT00000009,XL,LMTRJCKT00000010;2999.00;;;<p>Hand Wash</p>;;;;;zerotype;;Winter;;No
2213822;35T0205.01.70-Pink-2213822;Loom Tree Leona Pink Bomber Jacket;Draft;Jackets;LOOM TREE;Adults-Women;Women;Pink;;;Fashion;;2017;XS,LMTRJCKT00000001,S,LMTRJCKT00000002,M,LMTRJCKT00000003,L,LMTRJCKT00000004,XL,LMTRJCKT00000005;2999.00;;;<p>Hand Wash</p>;;;;;zerotype;;Winter;;No
2213815;6410111.01.70-Black-2213815;Loom Tree Julian Calf  Length Cullote;Draft;Trousers;LOOM TREE;Adults-Women;Women;Black;;;Fashion;Casual;2017;XS,LMTRTRSR00000072,S,LMTRTRSR00000073,M,LMTRTRSR00000074,L,LMTRTRSR00000075,XL,LMTRTRSR00000076,XXL,LMTRTRSR00000077;1499.00;<p>Length- Calf  length Fit- Loose fit Detail-Pleat detailing Waistband- Non elastic Hem line-  Straight hem Fabric- Polyester Model size- Bust: 34" , Waist: 28" Hip: 34"  Model is wearing size Small 'S'.</p>;;<p>Hand Wash</p>;;;;;zerotype;;Winter;;No
2213809;6410111.02.70-Olive-2213809;Loom Tree Julian Calf  Length Cullote;Draft;Trousers;LOOM TREE;Adults-Women;Women;Olive;;;Fashion;Casual;2017;XS,LMTRTRSR00000066,S,LMTRTRSR00000067,M,LMTRTRSR00000068,L,LMTRTRSR00000069,XL,LMTRTRSR00000070,XXL,LMTRTRSR00000071;1499.00;<p>Length- Calf  length Fit- Loose fit Detail-Pleat detailing Waistband- Non elastic Hem line-  Straight hem Fabric- Polyester Model size- Bust: 34" , Waist: 28" Hip: 34"  Model is wearing size Small 'S'.</p>;;<p>Hand Wash</p>;;;;;zerotype;;Winter;;No
2213807;2010016.03.70-Blue-2213807;Loom Tree Lucy Lace Blouse;Draft;Tops;LOOM TREE;Adults-Women;Women;Blue;;;Fashion;;2017;XS,LMTRTOPS00001384,S,LMTRTOPS00001385,M,LMTRTOPS00001386,L,LMTRTOPS00001387,XL,LMTRTOPS00001388;1499.00;;;<p>Hand Wash</p>;;;;;zerotype;;Winter;;No
2213806;2010099.02.70-Blue-2213806;Loom Tree Aliza Printed Cold Shoulder Top;Draft;Tops;LOOM TREE;Adults-Women;Women;Blue;;;Fashion;;2017;XS,LMTRTOPS00001379,S,LMTRTOPS00001380,M,LMTRTOPS00001381,L,LMTRTOPS00001382,XL,LMTRTOPS00001383;1499.00;;;<p>Hand Wash</p>;;;;;zerotype;;Winter;;No
2213805;20T0235.01.70-Black-2213805;Loom Tree Liara Black Striped Waist Tie Up Top;Draft;Tops;LOOM TREE;Adults-Women;Women;Black;;;Fashion;;2017;XS,LMTRTOPS00001374,S,LMTRTOPS00001375,M,LMTRTOPS00001376,L,LMTRTOPS00001377,XL,LMTRTOPS00001378;1299.00;;;<p>Hand Wash</p>;;;;;zerotype;;Winter;;No
2213804;20T0152.01.70-Peach-2213804;Loom Tree Allie Schiffly Top;Draft;Tops;LOOM TREE;Adults-Women;Women;Peach;;;Fashion;;2017;XS,LMTRTOPS00001369,S,LMTRTOPS00001370,M,LMTRTOPS00001371,L,LMTRTOPS00001372,XL,LMTRTOPS00001373;1499.00;;;<p>Hand Wash</p>;;;;;zerotype;;Winter;;No
2213803;2010082.01.70-Off White-2213803;Loom Tree Floria Lace Panel Top;Draft;Tops;LOOM TREE;Adults-Women;Women;Off White;;;Fashion;;2017;XS,LMTRTOPS00001364,S,LMTRTOPS00001365,M,LMTRTOPS00001366,L,LMTRTOPS00001367,XL,LMTRTOPS00001368;2499.00;;;<p>Hand Wash</p>;;;;;zerotype;;Winter;;No
2213802;2010086.01.70-White-2213802;Loom Tree Melissa Lace Yoke Gathered Top;Draft;Tops;LOOM TREE;Adults-Women;Women;White;;;Fashion;;2017;XS,LMTRTOPS00001359,S,LMTRTOPS00001360,M,LMTRTOPS00001361,L,LMTRTOPS00001362,XL,LMTRTOPS00001363;2299.00;;;<p>Hand Wash</p>;;;;;zerotype;;Winter;;No
