Style ID;Vendor Article Number;Vendor Article Name;Active Status;Article type;Brand;Age Group;Gender;Base Colour;Colour1;Colour2;Fashion Type;Usage;Year;Size - SKU code pair;MRP;Style Description;Style Note;Materials and Care Description;Size and Fit Description;Size Chart Path;Product Display Name;Tags;Product Type;Classification Brand;Season;Comments;Upload Images
1935410;KT116101_Red_XXL-White-1935410;Red Printed Kurta;Draft;Kurtas;Ives;Adults-Women;Women;;;;Fashion;;2017;L,IVESKRTA00002659,M,IVESKRTA00002660,S,IVESKRTA00002661,XL,IVESKRTA00002662,XS,IVESKRTA00002663,XXL,IVESKRTA00002664;1199.00;;;;;;;;zerotype;;Summer;;No
1935408;KT115701_Blue_XXL-Navy Blue-1935408;Blue Printed Anarkali;Draft;Kurtas;Ives;Adults-Women;Women;;;;Fashion;;2017;L,IVESKRTA00002653,M,IVESKRTA00002654,S,IVESKRTA00002655,XL,IVESKRTA00002656,XS,IVESKRTA00002657,XXL,IVESKRTA00002658;1599.00;;;;;;;;zerotype;;Summer;;No
1935407;KT115004_White_XXL-White-1935407;White Printed Anarkali;Draft;Kurtas;Ives;Adults-Women;Women;;;;Fashion;;2017;L,IVESKRTA00002647,M,IVESKRTA00002648,S,IVESKRTA00002649,XL,IVESKRTA00002650,XS,IVESKRTA00002651,XXL,IVESKRTA00002652;1399.00;;;;;;;;zerotype;;Summer;;No
1935405;KT115003_Maroon_XXL-Maroon-1935405;Maroon Printed Anarkali;Draft;Kurtas;Ives;Adults-Women;Women;;;;Fashion;;2017;L,IVESKRTA00002641,M,IVESKRTA00002642,S,IVESKRTA00002643,XL,IVESKRTA00002644,XS,IVESKRTA00002645,XXL,IVESKRTA00002646;1399.00;;;;;;;;zerotype;;Summer;;No
1935403;KT114507_Pink_XXL-Navy Blue-1935403;Pink Printed Anarkali;Draft;Kurtas;Ives;Adults-Women;Women;;;;Fashion;;2017;L,IVESKRTA00002635,M,IVESKRTA00002636,S,IVESKRTA00002637,XL,IVESKRTA00002638,XS,IVESKRTA00002639,XXL,IVESKRTA00002640;1699.00;;;;;;;;zerotype;;Summer;;No
1935402;KT114506_Green_XXL-Navy Blue-1935402;Green Printed Anarkali;Draft;Kurtas;Ives;Adults-Women;Women;;;;Fashion;;2017;L,IVESKRTA00002629,M,IVESKRTA00002630,S,IVESKRTA00002631,XL,IVESKRTA00002632,XS,IVESKRTA00002633,XXL,IVESKRTA00002634;1699.00;;;;;;;;zerotype;;Summer;;No
1935400;KT112306_Red_XXL-Red-1935400;Red Printed Anarkali;Draft;Kurtas;Ives;Adults-Women;Women;;;;Fashion;;2017;L,IVESKRTA00002623,M,IVESKRTA00002624,S,IVESKRTA00002625,XL,IVESKRTA00002626,XS,IVESKRTA00002627,XXL,IVESKRTA00002628;1699.00;;;;;;;;zerotype;;Summer;;No
1935398;KT112305_Black_XXL-Black-1935398;Black Printed Anarkali;Draft;Kurtas;Ives;Adults-Women;Women;;;;Fashion;;2017;L,IVESKRTA00002617,M,IVESKRTA00002618,S,IVESKRTA00002619,XL,IVESKRTA00002620,XS,IVESKRTA00002621,XXL,IVESKRTA00002622;1999.00;;;;;;;;zerotype;;Summer;;No
1935397;KT112211_Black_XXL-White-1935397;Black Printed Kurta;Draft;Kurtas;Ives;Adults-Women;Women;;;;Fashion;;2017;L,IVESKRTA00002611,M,IVESKRTA00002612,S,IVESKRTA00002613,XL,IVESKRTA00002614,XS,IVESKRTA00002615,XXL,IVESKRTA00002616;799.00;;;;;;;;zerotype;;Summer;;No
1935395;KT112210_Black_XXL-Black-1935395;Black Printed Kurta;Draft;Kurtas;Ives;Adults-Women;Women;;;;Fashion;;2017;L,IVESKRTA00002605,M,IVESKRTA00002606,S,IVESKRTA00002607,XL,IVESKRTA00002608,XS,IVESKRTA00002609,XXL,IVESKRTA00002610;999.00;;;;;;;;zerotype;;Summer;;No
1935394;KT112209_Black_XXL-White-1935394;Black Printed Kurta;Draft;Kurtas;Ives;Adults-Women;Women;;;;Fashion;;2017;L,IVESKRTA00002599,M,IVESKRTA00002600,S,IVESKRTA00002601,XL,IVESKRTA00002602,XS,IVESKRTA00002603,XXL,IVESKRTA00002604;799.00;;;;;;;;zerotype;;Summer;;No
1935392;KT111509_Blue_XXL-Navy Blue-1935392;Blue Printed Kurta;Draft;Kurtas;Ives;Adults-Women;Women;;;;Fashion;;2017;L,IVESKRTA00002593,M,IVESKRTA00002594,S,IVESKRTA00002595,XL,IVESKRTA00002596,XS,IVESKRTA00002597,XXL,IVESKRTA00002598;999.00;;;;;;;;zerotype;;Summer;;No
1935390;KT111508_Blue_XXL-Navy Blue-1935390;Blue Printed Kurta;Draft;Kurtas;Ives;Adults-Women;Women;;;;Fashion;;2017;L,IVESKRTA00002587,M,IVESKRTA00002588,S,IVESKRTA00002589,XL,IVESKRTA00002590,XS,IVESKRTA00002591,XXL,IVESKRTA00002592;999.00;;;;;;;;zerotype;;Summer;;No
1935389;KT111507_Green_XXL-Green-1935389;Green Solid Kurta;Draft;Kurtas;Ives;Adults-Women;Women;;;;Fashion;;2017;L,IVESKRTA00002581,M,IVESKRTA00002582,S,IVESKRTA00002583,XL,IVESKRTA00002584,XS,IVESKRTA00002585,XXL,IVESKRTA00002586;799.00;;;;;;;;zerotype;;Summer;;No
1935387;KT111303_Black_XXL-White-1935387;Black Printed Kurta;Draft;Kurtas;Ives;Adults-Women;Women;;;;Fashion;;2017;L,IVESKRTA00002575,M,IVESKRTA00002576,S,IVESKRTA00002577,XL,IVESKRTA00002578,XS,IVESKRTA00002579,XXL,IVESKRTA00002580;1199.00;;;;;;;;zerotype;;Summer;;No
1935386;KT109805_White_XXL-White-1935386;White Printed Kurta;Draft;Kurtas;Ives;Adults-Women;Women;;;;Fashion;;2017;L,IVESKRTA00002569,M,IVESKRTA00002570,S,IVESKRTA00002571,XL,IVESKRTA00002572,XS,IVESKRTA00002573,XXL,IVESKRTA00002574;999.00;;;;;;;;zerotype;;Summer;;No
1935384;KT109619_White_XXL-White-1935384;White Printed Kurta;Draft;Kurtas;Ives;Adults-Women;Women;;;;Fashion;;2017;L,IVESKRTA00002563,M,IVESKRTA00002564,S,IVESKRTA00002565,XL,IVESKRTA00002566,XS,IVESKRTA00002567,XXL,IVESKRTA00002568;999.00;;;;;;;;zerotype;;Summer;;No
1935382;KT109618_Maroon_XXL-Maroon-1935382;Maroon Printed Kurta;Draft;Kurtas;Ives;Adults-Women;Women;;;;Fashion;;2017;L,IVESKRTA00002557,M,IVESKRTA00002558,S,IVESKRTA00002559,XL,IVESKRTA00002560,XS,IVESKRTA00002561,XXL,IVESKRTA00002562;999.00;;;;;;;;zerotype;;Summer;;No
1935381;KT109617_Blue_XXL-Blue-1935381;Blue Printed Kurta;Draft;Kurtas;Ives;Adults-Women;Women;;;;Fashion;;2017;L,IVESKRTA00002551,M,IVESKRTA00002552,S,IVESKRTA00002553,XL,IVESKRTA00002554,XS,IVESKRTA00002555,XXL,IVESKRTA00002556;999.00;;;;;;;;zerotype;;Summer;;No
1935379;KT109616_White_XXL-White-1935379;Whte Printed Kurta;Draft;Kurtas;Ives;Adults-Women;Women;;;;Fashion;;2017;L,IVESKRTA00002545,M,IVESKRTA00002546,S,IVESKRTA00002547,XL,IVESKRTA00002548,XS,IVESKRTA00002549,XXL,IVESKRTA00002550;999.00;;;;;;;;zerotype;;Summer;;No
1935377;KT109615_Red_XXL-Red-1935377;Red Printed Kurta;Draft;Kurtas;Ives;Adults-Women;Women;;;;Fashion;;2017;L,IVESKRTA00002539,M,IVESKRTA00002540,S,IVESKRTA00002541,XL,IVESKRTA00002542,XS,IVESKRTA00002543,XXL,IVESKRTA00002544;999.00;;;;;;;;zerotype;;Summer;;No
1935376;KT109611_Black_XXL-Black-1935376;Black Solid Kurta;Draft;Kurtas;Ives;Adults-Women;Women;;;;Fashion;;2017;L,IVESKRTA00002533,M,IVESKRTA00002534,S,IVESKRTA00002535,XL,IVESKRTA00002536,XS,IVESKRTA00002537,XXL,IVESKRTA00002538;899.00;;;;;;;;zerotype;;Summer;;No
1935374;KT109610_Maroon_XXL-Maroon-1935374;Maroon Solid Kurta;Draft;Kurtas;Ives;Adults-Women;Women;;;;Fashion;;2017;L,IVESKRTA00002527,M,IVESKRTA00002528,S,IVESKRTA00002529,XL,IVESKRTA00002530,XS,IVESKRTA00002531,XXL,IVESKRTA00002532;899.00;;;;;;;;zerotype;;Summer;;No
1935373;KT108507_White_XXL-White-1935373;White Printed Kurta;Draft;Kurtas;Ives;Adults-Women;Women;;;;Fashion;;2017;L,IVESKRTA00002521,M,IVESKRTA00002522,S,IVESKRTA00002523,XL,IVESKRTA00002524,XS,IVESKRTA00002525,XXL,IVESKRTA00002526;999.00;;;;;;;;zerotype;;Summer;;No
1935371;KT107618_Black_XXL-Black-1935371;Black Printed Kurta;Draft;Kurtas;Ives;Adults-Women;Women;;;;Fashion;;2017;L,IVESKRTA00002515,M,IVESKRTA00002516,S,IVESKRTA00002517,XL,IVESKRTA00002518,XS,IVESKRTA00002519,XXL,IVESKRTA00002520;799.00;;;;;;;;zerotype;;Summer;;No
1935370;KT100705_Yellow_XXL-Yellow-1935370;Yellow Printed Kurta;Draft;Kurtas;Ives;Adults-Women;Women;;;;Fashion;;2017;L,IVESKRTA00002509,M,IVESKRTA00002510,S,IVESKRTA00002511,XL,IVESKRTA00002512,XS,IVESKRTA00002513,XXL,IVESKRTA00002514;1199.00;;;;;;;;zerotype;;Summer;;No
1935368;KT100704_Red_XXL-Red-1935368;Red Printed Kurta;Draft;Kurtas;Ives;Adults-Women;Women;;;;Fashion;;2017;L,IVESKRTA00002503,M,IVESKRTA00002504,S,IVESKRTA00002505,XL,IVESKRTA00002506,XS,IVESKRTA00002507,XXL,IVESKRTA00002508;1199.00;;;;;;;;zerotype;;Summer;;No
