Style ID;Vendor Article Number;Vendor Article Name;Active Status;Article type;Brand;Age Group;Gender;Base Colour;Colour1;Colour2;Fashion Type;Usage;Year;Size - SKU code pair;MRP;Style Description;Style Note;Materials and Care Description;Size and Fit Description;Size Chart Path;Product Display Name;Tags;Product Type;Classification Brand;Season;Comments;Upload Images
2045483;19-4640-11-44-Black-2045483;19-4640;Draft;Formal Shoes;Mochi;Adults-Men;Men;Black;;;Fashion;;2017;40,MCHIFOSH00002540,41,MCHIFOSH00002541,42,MCHIFOSH00002542,43,MCHIFOSH00002543,44,MCHIFOSH00002544;3290.00;;;<p>Rotate Your Pair Of Shoes Once Every Other Day, Allowing Them To De-Odorize And Retain Their Shapes</p>;;;;;zerotype;;Summer;;No
2045475;19-4451-11-45-Black-2045475;19-4451;Draft;Formal Shoes;Mochi;Adults-Men;Men;Black;;;Fashion;;2017;40,MCHIFOSH00002534,41,MCHIFOSH00002535,42,MCHIFOSH00002536,43,MCHIFOSH00002537,44,MCHIFOSH00002538,45,MCHIFOSH00002539;4990.00;;;<p>Rotate Your Pair Of Shoes Once Every Other Day, Allowing Them To De-Odorize And Retain Their Shapes</p>;;;;;zerotype;;Summer;;No
2045473;19-4168-11-45-Black-2045473;19-4168;Draft;Formal Shoes;Mochi;Adults-Men;Men;Black;;;Fashion;;2017;40,MCHIFOSH00002528,41,MCHIFOSH00002529,42,MCHIFOSH00002530,43,MCHIFOSH00002531,44,MCHIFOSH00002532,45,MCHIFOSH00002533;2990.00;;;<p>Rotate Your Pair Of Shoes Once Every Other Day, Allowing Them To De-Odorize And Retain Their Shapes</p>;;;;;zerotype;;Summer;;No
2045471;16-7718-11-45-Black-2045471;16-7718;Draft;Sandals;Mochi;Adults-Men;Men;Black;;;Fashion;;2017;40,MCHISNDL00002690,41,MCHISNDL00002691,42,MCHISNDL00002692,43,MCHISNDL00002693,44,MCHISNDL00002694,45,MCHISNDL00002695;1990.00;;;<p>Rotate Your Pair Of Shoes Once Every Other Day, Allowing Them To De-Odorize And Retain Their Shapes</p>;;;;;zerotype;;Summer;;No
2045469;71-9112-45-45-Blue-2045469;71-9112;Draft;Casual Shoes;Mochi;Adults-Men;Men;Blue;;;Fashion;;2017;40,MCHICASH00000964,41,MCHICASH00000965,42,MCHICASH00000966,43,MCHICASH00000967,44,MCHICASH00000968,45,MCHICASH00000969;2490.00;;;<p>Rotate Your Pair Of Shoes Once Every Other Day, Allowing Them To De-Odorize And Retain Their Shapes</p>;;;;;zerotype;;Summer;;No
2045467;71-9111-45-44-Blue-2045467;71-9111;Draft;Casual Shoes;Mochi;Adults-Men;Men;Blue;;;Fashion;;2017;40,MCHICASH00000959,41,MCHICASH00000960,42,MCHICASH00000961,43,MCHICASH00000962,44,MCHICASH00000963;2490.00;;;<p>Rotate Your Pair Of Shoes Once Every Other Day, Allowing Them To De-Odorize And Retain Their Shapes</p>;;;;;zerotype;;Summer;;No
2045466;71-9111-18-44-Red-2045466;71-9111;Draft;Casual Shoes;Mochi;Adults-Men;Men;Red;;;Fashion;;2017;40,MCHICASH00000954,41,MCHICASH00000955,42,MCHICASH00000956,43,MCHICASH00000957,44,MCHICASH00000958;2490.00;;;<p>Rotate Your Pair Of Shoes Once Every Other Day, Allowing Them To De-Odorize And Retain Their Shapes</p>;;;;;zerotype;;Summer;;No
2045464;71-9111-14-44-Grey-2045464;71-9111;Draft;Casual Shoes;Mochi;Adults-Men;Men;Grey;;;Fashion;;2017;40,MCHICASH00000949,41,MCHICASH00000950,42,MCHICASH00000951,43,MCHICASH00000952,44,MCHICASH00000953;2490.00;;;<p>Rotate Your Pair Of Shoes Once Every Other Day, Allowing Them To De-Odorize And Retain Their Shapes</p>;;;;;zerotype;;Summer;;No
