Style ID;Vendor Article Number;Vendor Article Name;Active Status;Article type;Brand;Age Group;Gender;Base Colour;Colour1;Colour2;Fashion Type;Usage;Year;Size - SKU code pair;MRP;Style Description;Style Note;Materials and Care Description;Size and Fit Description;Size Chart Path;Product Display Name;Tags;Product Type;Classification Brand;Season;Comments;Upload Images
1860132;SSBLX-R76-Black & Brown-1860132;Men Black & Brown Reversible Belt;Draft;Belts;Second SKIN;Adults-Men;Men;;;;Core;Formal;2017;44,SDSKBELT00001706,46,SDSKBELT00001707,48,SDSKBELT00001708,50,SDSKBELT00001709,52,SDSKBELT00001710,54,SDSKBELT00001711;2299.00;;;;;;;;zerotype;;Summer;;No
1860131;SSBLX-R75-Black & Brown-1860131;Men Black & Brown Reversible Belt;Draft;Belts;Second SKIN;Adults-Men;Men;;;;Core;Formal;2017;44,SDSKBELT00001700,46,SDSKBELT00001701,48,SDSKBELT00001702,50,SDSKBELT00001703,52,SDSKBELT00001704,54,SDSKBELT00001705;2299.00;;;;;;;;zerotype;;Summer;;No
1860130;SSBLX-R74-Black & Brown-1860130;Men Black & Brown Reversible Belt;Draft;Belts;Second SKIN;Adults-Men;Men;;;;Core;Formal;2017;44,SDSKBELT00001694,46,SDSKBELT00001695,48,SDSKBELT00001696,50,SDSKBELT00001697,52,SDSKBELT00001698,54,SDSKBELT00001699;2299.00;;;;;;;;zerotype;;Summer;;No
1860129;SSBLX-R73-Black & Brown-1860129;Men Black & Brown Reversible Belt;Draft;Belts;Second SKIN;Adults-Men;Men;;;;Core;Formal;2017;44,SDSKBELT00001688,46,SDSKBELT00001689,48,SDSKBELT00001690,50,SDSKBELT00001691,52,SDSKBELT00001692,54,SDSKBELT00001693;2299.00;;;;;;;;zerotype;;Summer;;No
1860128;SSBLX-R72-Black & Brown-1860128;Men Black & Brown Reversible Belt;Draft;Belts;Second SKIN;Adults-Men;Men;;;;Core;Formal;2017;44,SDSKBELT00001682,46,SDSKBELT00001683,48,SDSKBELT00001684,50,SDSKBELT00001685,52,SDSKBELT00001686,54,SDSKBELT00001687;2299.00;;;;;;;;zerotype;;Summer;;No
1860127;SSBLX-R71-Black & Brown-1860127;Men Black & Brown Reversible Belt;Draft;Belts;Second SKIN;Adults-Men;Men;;;;Core;Formal;2017;44,SDSKBELT00001676,46,SDSKBELT00001677,48,SDSKBELT00001678,50,SDSKBELT00001679,52,SDSKBELT00001680,54,SDSKBELT00001681;2299.00;;;;;;;;zerotype;;Summer;;No
1860126;SSBLX-K76-Black & Brown-1860126;Men Black & Brown Reversible Belt;Draft;Belts;Second SKIN;Adults-Men;Men;;;;Core;Formal;2017;44,SDSKBELT00001670,46,SDSKBELT00001671,48,SDSKBELT00001672,50,SDSKBELT00001673,52,SDSKBELT00001674,54,SDSKBELT00001675;2299.00;;;;;;;;zerotype;;Summer;;No
1860125;SSBLX-K75-Black & Brown-1860125;Men Black & Brown Reversible Belt;Draft;Belts;Second SKIN;Adults-Men;Men;;;;Core;Formal;2017;44,SDSKBELT00001664,46,SDSKBELT00001665,48,SDSKBELT00001666,50,SDSKBELT00001667,52,SDSKBELT00001668,54,SDSKBELT00001669;2299.00;;;;;;;;zerotype;;Summer;;No
1860124;SSBLX-K74-Black & Brown-1860124;Men Black & Brown Reversible Belt;Draft;Belts;Second SKIN;Adults-Men;Men;;;;Core;Formal;2017;44,SDSKBELT00001658,46,SDSKBELT00001659,48,SDSKBELT00001660,50,SDSKBELT00001661,52,SDSKBELT00001662,54,SDSKBELT00001663;2299.00;;;;;;;;zerotype;;Summer;;No
1860123;SSBLX-K73-Black & Brown-1860123;Men Black & Brown Reversible Belt;Draft;Belts;Second SKIN;Adults-Men;Men;;;;Core;Formal;2017;44,SDSKBELT00001652,46,SDSKBELT00001653,48,SDSKBELT00001654,50,SDSKBELT00001655,52,SDSKBELT00001656,54,SDSKBELT00001657;2299.00;;;;;;;;zerotype;;Summer;;No
1860122;SSBLX-K72-Black & Brown-1860122;Men Black & Brown Reversible Belt;Draft;Belts;Second SKIN;Adults-Men;Men;;;;Core;Formal;2017;44,SDSKBELT00001646,46,SDSKBELT00001647,48,SDSKBELT00001648,50,SDSKBELT00001649,52,SDSKBELT00001650,54,SDSKBELT00001651;2299.00;;;;;;;;zerotype;;Summer;;No
1860121;SSBLX-K71-Black & Brown-1860121;Men Black & Brown Reversible Belt;Draft;Belts;Second SKIN;Adults-Men;Men;;;;Core;Formal;2017;44,SDSKBELT00001640,46,SDSKBELT00001641,48,SDSKBELT00001642,50,SDSKBELT00001643,52,SDSKBELT00001644,54,SDSKBELT00001645;2299.00;;;;;;;;zerotype;;Summer;;No
1860120;SSBLX-G76-Black & Brown-1860120;Men Black & Brown Reversible Belt;Draft;Belts;Second SKIN;Adults-Men;Men;;;;Core;Formal;2017;44,SDSKBELT00001634,46,SDSKBELT00001635,48,SDSKBELT00001636,50,SDSKBELT00001637,52,SDSKBELT00001638,54,SDSKBELT00001639;2299.00;;;;;;;;zerotype;;Summer;;No
1860119;SSBLX-G75-Black & Brown-1860119;Men Black & Brown Reversible Belt;Draft;Belts;Second SKIN;Adults-Men;Men;;;;Core;Formal;2017;44,SDSKBELT00001628,46,SDSKBELT00001629,48,SDSKBELT00001630,50,SDSKBELT00001631,52,SDSKBELT00001632,54,SDSKBELT00001633;2299.00;;;;;;;;zerotype;;Summer;;No
1860118;SSBLX-G74-Black & Brown-1860118;Men Black & Brown Reversible Belt;Draft;Belts;Second SKIN;Adults-Men;Men;;;;Core;Formal;2017;44,SDSKBELT00001622,46,SDSKBELT00001623,48,SDSKBELT00001624,50,SDSKBELT00001625,52,SDSKBELT00001626,54,SDSKBELT00001627;2299.00;;;;;;;;zerotype;;Summer;;No
1860117;SSBLX-G73-Black & Brown-1860117;Men Black & Brown Reversible Belt;Draft;Belts;Second SKIN;Adults-Men;Men;;;;Core;Formal;2017;44,SDSKBELT00001616,46,SDSKBELT00001617,48,SDSKBELT00001618,50,SDSKBELT00001619,52,SDSKBELT00001620,54,SDSKBELT00001621;2299.00;;;;;;;;zerotype;;Summer;;No
1860116;SSBLX-G72-Black & Brown-1860116;Men Black & Brown Reversible Belt;Draft;Belts;Second SKIN;Adults-Men;Men;;;;Core;Formal;2017;44,SDSKBELT00001610,46,SDSKBELT00001611,48,SDSKBELT00001612,50,SDSKBELT00001613,52,SDSKBELT00001614,54,SDSKBELT00001615;2299.00;;;;;;;;zerotype;;Summer;;No
1860115;SSBLX-G71-Black & Brown-1860115;Men Black & Brown Reversible Belt;Draft;Belts;Second SKIN;Adults-Men;Men;;;;Core;Formal;2017;44,SDSKBELT00001604,46,SDSKBELT00001605,48,SDSKBELT00001606,50,SDSKBELT00001607,52,SDSKBELT00001608,54,SDSKBELT00001609;2299.00;;;;;;;;zerotype;;Summer;;No
1860114;SSBLX-D76-Black & Brown-1860114;Men Black & Brown Reversible Belt;Draft;Belts;Second SKIN;Adults-Men;Men;;;;Core;Formal;2017;44,SDSKBELT00001598,46,SDSKBELT00001599,48,SDSKBELT00001600,50,SDSKBELT00001601,52,SDSKBELT00001602,54,SDSKBELT00001603;2299.00;;;;;;;;zerotype;;Summer;;No
1860113;SSBLX-D75-Black & Brown-1860113;Men Black & Brown Reversible Belt;Draft;Belts;Second SKIN;Adults-Men;Men;;;;Core;Formal;2017;44,SDSKBELT00001592,46,SDSKBELT00001593,48,SDSKBELT00001594,50,SDSKBELT00001595,52,SDSKBELT00001596,54,SDSKBELT00001597;2299.00;;;;;;;;zerotype;;Summer;;No
1860112;SSBLX-D74-Black & Brown-1860112;Men Black & Brown Reversible Belt;Draft;Belts;Second SKIN;Adults-Men;Men;;;;Core;Formal;2017;44,SDSKBELT00001586,46,SDSKBELT00001587,48,SDSKBELT00001588,50,SDSKBELT00001589,52,SDSKBELT00001590,54,SDSKBELT00001591;2299.00;;;;;;;;zerotype;;Summer;;No
1860111;SSBLX-D73-Black & Brown-1860111;Men Black & Brown Reversible Belt;Draft;Belts;Second SKIN;Adults-Men;Men;;;;Core;Formal;2017;44,SDSKBELT00001580,46,SDSKBELT00001581,48,SDSKBELT00001582,50,SDSKBELT00001583,52,SDSKBELT00001584,54,SDSKBELT00001585;2299.00;;;;;;;;zerotype;;Summer;;No
1860110;SSBLX-D72-Black & Brown-1860110;Men Black & Brown Reversible Belt;Draft;Belts;Second SKIN;Adults-Men;Men;;;;Core;Formal;2017;44,SDSKBELT00001574,46,SDSKBELT00001575,48,SDSKBELT00001576,50,SDSKBELT00001577,52,SDSKBELT00001578,54,SDSKBELT00001579;2299.00;;;;;;;;zerotype;;Summer;;No
1860109;SSBLX-D71-Black & Brown-1860109;Men Black & Brown Reversible Belt;Draft;Belts;Second SKIN;Adults-Men;Men;;;;Core;Formal;2017;44,SDSKBELT00001568,46,SDSKBELT00001569,48,SDSKBELT00001570,50,SDSKBELT00001571,52,SDSKBELT00001572,54,SDSKBELT00001573;2299.00;;;;;;;;zerotype;;Summer;;No
