Style ID;Vendor Article Number;Vendor Article Name;Active Status;Article type;Brand;Age Group;Gender;Base Colour;Colour1;Colour2;Fashion Type;Usage;Year;Size - SKU code pair;MRP;Style Description;Style Note;Materials and Care Description;Size and Fit Description;Size Chart Path;Product Display Name;Tags;Product Type;Classification Brand;Season;Comments;Upload Images
2500689;SSBL-L65-Black Brown-2500689;Men Black & Brown Reversible Genuine Leather Belt;Draft;Belts;Second SKIN;Adults-Men;Men;Black;Brown;;Core;Formal;2018;30,SDSKBELT00002766,28,SDSKBELT00002767,42,SDSKBELT00002768,40,SDSKBELT00002769,38,SDSKBELT00002770,36,SDSKBELT00002771,34,SDSKBELT00002772,32,SDSKBELT00002773;1999.00;;;<p>Wipe with a clean, dry cloth when needed</p>;;;na;;zerotype;;Spring;;No
2500688;SSBL-L64-Black Brown-2500688;Men Black & Brown Reversible Genuine Leather Belt;Draft;Belts;Second SKIN;Adults-Men;Men;Black;Brown;;Core;Formal;2018;38,SDSKBELT00002758,36,SDSKBELT00002759,34,SDSKBELT00002760,32,SDSKBELT00002761,42,SDSKBELT00002762,40,SDSKBELT00002763,30,SDSKBELT00002764,28,SDSKBELT00002765;1999.00;;;<p>Wipe with a clean, dry cloth when needed</p>;;;na;;zerotype;;Spring;;No
2500687;SSBL-D65-Black Brown-2500687;Men Black & Brown Reversible Genuine Leather Belt;Draft;Belts;Second SKIN;Adults-Men;Men;Black;Brown;;Core;Formal;2018;38,SDSKBELT00002750,36,SDSKBELT00002751,34,SDSKBELT00002752,32,SDSKBELT00002753,30,SDSKBELT00002754,28,SDSKBELT00002755,42,SDSKBELT00002756,40,SDSKBELT00002757;1999.00;;;<p>Wipe with a clean, dry cloth when needed</p>;;;na;;zerotype;;Spring;;No
2500686;SSBL-G62-Black Brown-2500686;Men Black & Brown Reversible Genuine Leather Belt;Draft;Belts;Second SKIN;Adults-Men;Men;Black;Brown;;Core;Formal;2018;34,SDSKBELT00002742,32,SDSKBELT00002743,42,SDSKBELT00002744,40,SDSKBELT00002745,38,SDSKBELT00002746,30,SDSKBELT00002747,28,SDSKBELT00002748,36,SDSKBELT00002749;1999.00;;;<p>Wipe with a clean, dry cloth when needed</p>;;;na;;zerotype;;Spring;;No
2500685;SSBL-R62-Black Brown-2500685;Men Black & Brown Reversible Genuine Leather Belt;Draft;Belts;Second SKIN;Adults-Men;Men;Black;Brown;;Core;Formal;2018;38,SDSKBELT00002734,36,SDSKBELT00002735,34,SDSKBELT00002736,32,SDSKBELT00002737,30,SDSKBELT00002738,28,SDSKBELT00002739,42,SDSKBELT00002740,40,SDSKBELT00002741;1999.00;;;<p>Wipe with a clean, dry cloth when needed</p>;;;na;;zerotype;;Spring;;No
2500684;SSBL-D62-Black Brown-2500684;Men Black & Brown Reversible Genuine Leather Belt;Draft;Belts;Second SKIN;Adults-Men;Men;Black;Brown;;Core;Formal;2018;38,SDSKBELT00002726,36,SDSKBELT00002727,34,SDSKBELT00002728,32,SDSKBELT00002729,42,SDSKBELT00002730,40,SDSKBELT00002731,30,SDSKBELT00002732,28,SDSKBELT00002733;1999.00;;;<p>Wipe with a clean, dry cloth when needed</p>;;;na;;zerotype;;Spring;;No
2500683;SSBL-L63-Black Brown-2500683;Men Black & Brown Reversible Genuine Leather Belt;Draft;Belts;Second SKIN;Adults-Men;Men;Black;Brown;;Core;Formal;2018;36,SDSKBELT00002718,34,SDSKBELT00002719,32,SDSKBELT00002720,30,SDSKBELT00002721,42,SDSKBELT00002722,40,SDSKBELT00002723,38,SDSKBELT00002724,28,SDSKBELT00002725;1999.00;;;<p>Wipe with a clean, dry cloth when needed</p>;;;na;;zerotype;;Spring;;No
2500682;SSBL-R64-Black Brown-2500682;Men Black & Brown Reversible Genuine Leather Belt;Draft;Belts;Second SKIN;Adults-Men;Men;Black;Brown;;Core;Formal;2018;30,SDSKBELT00002710,28,SDSKBELT00002711,38,SDSKBELT00002712,36,SDSKBELT00002713,34,SDSKBELT00002714,32,SDSKBELT00002715,42,SDSKBELT00002716,40,SDSKBELT00002717;1999.00;;;<p>Wipe with a clean, dry cloth when needed</p>;;;na;;zerotype;;Spring;;No
2500681;SSBL-R65-Black Brown-2500681;Men Black & Brown Reversible Genuine Leather Belt;Draft;Belts;Second SKIN;Adults-Men;Men;Black;Brown;;Core;Formal;2018;38,SDSKBELT00002702,42,SDSKBELT00002703,40,SDSKBELT00002704,36,SDSKBELT00002705,34,SDSKBELT00002706,32,SDSKBELT00002707,30,SDSKBELT00002708,28,SDSKBELT00002709;1999.00;;;<p>Wipe with a clean, dry cloth when needed</p>;;;na;;zerotype;;Spring;;No
2500680;SSBL-G64-Black Brown-2500680;Men Black & Brown Reversible Genuine Leather Belt;Draft;Belts;Second SKIN;Adults-Men;Men;Black;Brown;;Core;Formal;2018;30,SDSKBELT00002694,38,SDSKBELT00002695,36,SDSKBELT00002696,34,SDSKBELT00002697,32,SDSKBELT00002698,28,SDSKBELT00002699,42,SDSKBELT00002700,40,SDSKBELT00002701;1999.00;;;<p>Wipe with a clean, dry cloth when needed</p>;;;na;;zerotype;;Spring;;No
2500679;SSBL-D64-Black Brown-2500679;Men Black & Brown Reversible Genuine Leather Belt;Draft;Belts;Second SKIN;Adults-Men;Men;Black;Brown;;Core;Formal;2018;30,SDSKBELT00002686,28,SDSKBELT00002687,42,SDSKBELT00002688,40,SDSKBELT00002689,38,SDSKBELT00002690,36,SDSKBELT00002691,34,SDSKBELT00002692,32,SDSKBELT00002693;1999.00;;;<p>Wipe with a clean, dry cloth when needed</p>;;;na;;zerotype;;Spring;;No
2500678;SSBL-G63-Black Brown-2500678;Men Black & Brown Reversible Genuine Leather Belt;Draft;Belts;Second SKIN;Adults-Men;Men;Black;Brown;;Core;Formal;2018;30,SDSKBELT00002678,28,SDSKBELT00002679,42,SDSKBELT00002680,38,SDSKBELT00002681,36,SDSKBELT00002682,34,SDSKBELT00002683,32,SDSKBELT00002684,40,SDSKBELT00002685;1999.00;;;<p>Wipe with a clean, dry cloth when needed</p>;;;na;;zerotype;;Spring;;No
2500677;SSBL-K65-Black Brown-2500677;Men Black & Brown Reversible Genuine Leather Belt;Draft;Belts;Second SKIN;Adults-Men;Men;Black;Brown;;Core;Formal;2018;28,SDSKBELT00002670,38,SDSKBELT00002671,36,SDSKBELT00002672,34,SDSKBELT00002673,32,SDSKBELT00002674,42,SDSKBELT00002675,40,SDSKBELT00002676,30,SDSKBELT00002677;1999.00;;;<p>Wipe with a clean, dry cloth when needed</p>;;;na;;zerotype;;Spring;;No
2500676;SSBL-L62-Black Brown-2500676;Men Black & Brown Reversible Genuine Leather Belt;Draft;Belts;Second SKIN;Adults-Men;Men;Black;Brown;;Core;Formal;2018;42,SDSKBELT00002662,40,SDSKBELT00002663,38,SDSKBELT00002664,32,SDSKBELT00002665,36,SDSKBELT00002666,34,SDSKBELT00002667,30,SDSKBELT00002668,28,SDSKBELT00002669;1999.00;;;<p>Wipe with a clean, dry cloth when needed</p>;;;na;;zerotype;;Spring;;No
2500675;SSBL-K64-Black Brown-2500675;Men Black & Brown Reversible Genuine Leather Belt;Draft;Belts;Second SKIN;Adults-Men;Men;Black;Brown;;Core;Formal;2018;34,SDSKBELT00002654,42,SDSKBELT00002655,32,SDSKBELT00002656,40,SDSKBELT00002657,38,SDSKBELT00002658,30,SDSKBELT00002659,36,SDSKBELT00002660,28,SDSKBELT00002661;1999.00;;;<p>Wipe with a clean, dry cloth when needed</p>;;;na;;zerotype;;Spring;;No
2500674;SSBL-K63-Black Brown-2500674;Men Black & Brown Reversible Genuine Leather Belt;Draft;Belts;Second SKIN;Adults-Men;Men;Black;Brown;;Core;Formal;2018;30,SDSKBELT00002646,28,SDSKBELT00002647,40,SDSKBELT00002648,38,SDSKBELT00002649,36,SDSKBELT00002650,34,SDSKBELT00002651,32,SDSKBELT00002652,42,SDSKBELT00002653;1999.00;;;<p>Wipe with a clean, dry cloth when needed</p>;;;na;;zerotype;;Spring;;No
2500672;SSBL-D63-Black Brown-2500672;Men Black & Brown Reversible Genuine Leather Belt;Draft;Belts;Second SKIN;Adults-Men;Men;Black;Brown;;Core;Formal;2018;34,SDSKBELT00002638,32,SDSKBELT00002639,30,SDSKBELT00002640,28,SDSKBELT00002641,42,SDSKBELT00002642,40,SDSKBELT00002643,38,SDSKBELT00002644,36,SDSKBELT00002645;1999.00;;;<p>Wipe with a clean, dry cloth when needed</p>;;;na;;zerotype;;Spring;;No
2500669;SSBL-K62-Black Brown-2500669;Men Black & Brown Reversible Genuine Leather Belt;Draft;Belts;Second SKIN;Adults-Men;Men;Black;Brown;;Core;Formal;2018;42,SDSKBELT00002630,40,SDSKBELT00002631,36,SDSKBELT00002632,34,SDSKBELT00002633,38,SDSKBELT00002634,32,SDSKBELT00002635,30,SDSKBELT00002636,28,SDSKBELT00002637;1999.00;;;<p>Wipe with a clean, dry cloth when needed</p>;;;na;;zerotype;;Spring;;No
2500667;SSBL-G65-Black Brown-2500667;Men Black & Brown Reversible Genuine Leather Belt;Draft;Belts;Second SKIN;Adults-Men;Men;Black;Brown;;Core;Formal;2018;42,SDSKBELT00002622,40,SDSKBELT00002623,32,SDSKBELT00002624,30,SDSKBELT00002625,28,SDSKBELT00002626,38,SDSKBELT00002627,36,SDSKBELT00002628,34,SDSKBELT00002629;1999.00;;;<p>Wipe with a clean, dry cloth when needed</p>;;;na;;zerotype;;Spring;;No
2500666;SSBL-R63-Black Brown-2500666;Men Black & Brown Reversible Genuine Leather Belt;Draft;Belts;Second SKIN;Adults-Men;Men;Black;Brown;;Core;Formal;2018;38,SDSKBELT00002614,36,SDSKBELT00002615,34,SDSKBELT00002616,32,SDSKBELT00002617,30,SDSKBELT00002618,28,SDSKBELT00002619,42,SDSKBELT00002620,40,SDSKBELT00002621;1999.00;;;<p>Wipe with a clean, dry cloth when needed</p>;;;na;;zerotype;;Spring;;No
