Style ID;Vendor Article Number;Vendor Article Name;Active Status;Article type;Brand;Age Group;Gender;Base Colour;Colour1;Colour2;Fashion Type;Usage;Year;Size - SKU code pair;MRP;Style Description;Style Note;Materials and Care Description;Size and Fit Description;Size Chart Path;Product Display Name;Tags;Product Type;Classification Brand;Season;Comments;Upload Images
2585554;VN02ST223879-Multi-2585554;Socks Five Pack (Younger Boys);Draft;Socks;next;Kids-Boys;Boys;Multi;Multi;Multi;Fashion;Casual;2018;0-3m,NEXTSCKS00000395,3-6m,NEXTSCKS00000396,6-12m,NEXTSCKS00000397,1-2y,NEXTSCKS00000398;650.00;;;;;;;next,JIT;zerotype;;Winter;;No
2585553;VN02ST221812-Grey Yellow-2585553;Socks Four Pack (Younger Boys);Draft;Socks;next;Kids-Boys;Boys;Grey;Yellow;;Fashion;Casual;2018;0-3m,NEXTSCKS00000391,3-6m,NEXTSCKS00000392,6-12m,NEXTSCKS00000393,1-2y,NEXTSCKS00000394;550.00;;;;;;;next,JIT;zerotype;;Winter;;No
2585552;VN02ST221811-Blue Blue White-2585552;Cloud Socks Four Pack (Younger Boys);Draft;Socks;next;Kids-Boys;Boys;Blue;Blue;White;Fashion;Casual;2018;0-3m,NEXTSCKS00000387,3-6m,NEXTSCKS00000388,6-12m,NEXTSCKS00000389,1-2y,NEXTSCKS00000390;550.00;;;;;;;next,JIT;zerotype;;Winter;;No
2585551;VN02ST210028-Grey-2585551;Socks Five Pack (Younger Boys);Draft;Socks;next;Kids-Boys;Boys;Grey;;;Fashion;Casual;2018;0-3m,NEXTSCKS00000383,3-6m,NEXTSCKS00000384,6-12m,NEXTSCKS00000385,1-2y,NEXTSCKS00000386;650.00;;;;;;;next,JIT;zerotype;;Winter;;No
2585550;VF02ST237413-White Pink-2585550;Bunny Socks Five Pack (Younger Girls);Draft;Socks;next;Kids-Girls;Girls;White;Pink;;Fashion;Casual;2018;0-3m,NEXTSCKS00000379,3-6m,NEXTSCKS00000380,6-12m,NEXTSCKS00000381,1-2y,NEXTSCKS00000382;550.00;;;;;;;next,JIT;zerotype;;Winter;;No
2585549;VF02ST223325-Multi-2585549;Socks Three Pack (Younger Girls);Draft;Socks;next;Kids-Girls;Girls;Multi;Multi;Multi;Fashion;Casual;2018;0-3m,NEXTSCKS00000375,3-6m,NEXTSCKS00000376,6-12m,NEXTSCKS00000377,1-2y,NEXTSCKS00000378;350.00;;;;;;;next,JIT;zerotype;;Winter;;No
2585548;VF02ST223305-White Pink Black-2585548;Socks Four Pack (Younger Girls);Draft;Socks;next;Kids-Girls;Girls;White;Pink;Black;Fashion;Casual;2018;0-3m,NEXTSCKS00000371,3-6m,NEXTSCKS00000372,6-12m,NEXTSCKS00000373,1-2y,NEXTSCKS00000374;550.00;;;;;;;next,JIT;zerotype;;Winter;;No
2585547;VF02ST223302-Green Grey Yellow-2585547;Socks Four Pack (Younger Girls);Draft;Socks;next;Kids-Girls;Girls;Green;Grey;Yellow;Fashion;Casual;2018;0-3m,NEXTSCKS00000367,3-6m,NEXTSCKS00000368,6-12m,NEXTSCKS00000369,1-2y,NEXTSCKS00000370;550.00;;;;;;;next,JIT;zerotype;;Winter;;No
2585546;VF02ST223297-Yellow White Black-2585546;Socks Four Pack (Younger Girls);Draft;Socks;next;Kids-Girls;Girls;Yellow;White;Black;Fashion;Casual;2018;0-3m,NEXTSCKS00000363,3-6m,NEXTSCKS00000364,6-12m,NEXTSCKS00000365,1-2y,NEXTSCKS00000366;550.00;;;;;;;next,JIT;zerotype;;Winter;;No
2585545;UG01ST224633-White Navy Blue Yellow-2585545;Bright Stripe Socks Four Pack (Younger Boys);Draft;Socks;next;Kids-Boys;Boys;White;Navy Blue;Yellow;Fashion;Casual;2018;9-12m,NEXTSCKS00000362;600.00;;;;;;;next,JIT;zerotype;;Winter;;No
2585544;UG01ST224630-Red-2585544;Bright Transport Socks Seven Pack (Younger Boys);Draft;Socks;next;Kids-Boys;Boys;Red;;;Fashion;Casual;2018;9-12m,NEXTSCKS00000361;750.00;;;;;;;next,JIT;zerotype;;Winter;;No
2585543;UG01ST203891-Grey Multi-2585543;Transport Socks Seven Pack (Younger Boys);Draft;Socks;next;Kids-Boys;Boys;Grey;Multi;;Fashion;Casual;2018;9-12m,NEXTSCKS00000360;750.00;;;;;;;next,JIT;zerotype;;Winter;;No
2585542;UF03ST224656-Grey Black-2585542;Text Socks Five Pack (Older Boys);Draft;Socks;next;Kids-Boys;Boys;Grey;Black;;Fashion;Casual;2018;9-12m,NEXTSCKS00000358,7-10y,NEXTSCKS00000359;650.00;;;;;;;next,JIT;zerotype;;Winter;;No
2585541;UF03ST213002-Black-2585541;Embroidered Socks Ten Pack (Older Boys);Draft;Socks;next;Kids-Boys;Boys;Black;;;Fashion;Casual;2018;9-12m,NEXTSCKS00000356,7-10y,NEXTSCKS00000357;1150.00;;;;;;;next,JIT;zerotype;;Winter;;No
2585540;UF02ST224655-Multi-2585540;Lightning Bolt Socks Five Pack (Older Boys);Draft;Socks;next;Kids-Boys;Boys;Multi;;;Fashion;Casual;2018;9-12m,NEXTSCKS00000354,7-10y,NEXTSCKS00000355;750.00;;;;;;;next,JIT;zerotype;;Winter;;No
2585539;UF02ST224654-Multi-2585539;Character Sports Style Socks Five Pack (Older Boys);Draft;Socks;next;Kids-Boys;Boys;Multi;;;Fashion;Casual;2018;9-12m,NEXTSCKS00000352,7-10y,NEXTSCKS00000353;850.00;;;;;;;next,JIT;zerotype;;Winter;;No
2585536;UF02ST216485-Black Black Red-2585536;Tartan Socks Five Pack (Older Boys);Draft;Socks;next;Kids-Boys;Boys;Black;Black;Red;Fashion;Casual;2018;9-12m,NEXTSCKS00000350,7-10y,NEXTSCKS00000351;750.00;;;;;;;next,JIT;zerotype;;Winter;;No
2585531;OL02ST223133-White Black Orange-2585531;Sports Trainer Socks Five Pack (Older Girls);Draft;Socks;next;Kids-Girls;Girls;White;Black;Orange;Fashion;Casual;2018;9-12m,NEXTSCKS00000349;650.00;;;;;;;next,JIT;zerotype;;Winter;;No
2585527;OL02ST223130-Multi Multi-2585527;Rainbow Stripe Socks Five Pack (Older Girls);Draft;Socks;next;Kids-Girls;Girls;Multi;Multi;;Fashion;Casual;2018;9-12m,NEXTSCKS00000348;550.00;;;;;;;next,JIT;zerotype;;Winter;;No
2585524;OL02ST209910-Pink-2585524;Slipper Socks (Older Girls);Draft;Socks;next;Kids-Girls;Girls;Pink;;;Fashion;Casual;2018;9-12m,NEXTSCKS00000347;1050.00;;;;;;;next,JIT;zerotype;;Winter;;No
2585522;OL02ST209460-White Pink White-2585522;Unicorn Socks Three Pack (Older Girls);Draft;Socks;next;Kids-Girls;Girls;White;Pink;White;Fashion;Casual;2018;9-12m,NEXTSCKS00000346;400.00;;;;;;;next,JIT;zerotype;;Winter;;No
2585519;OL02ST200322-Pink White-2585519;Plain Socks Ten Pack (Older Girls);Draft;Socks;next;Kids-Girls;Girls;Pink;White;;Fashion;Casual;2018;9-12m,NEXTSCKS00000345;1050.00;;;;;;;next,JIT;zerotype;;Winter;;No
2585515;MR02ST222726-Black White Pink-2585515;Character Socks Three Pack (Younger Girls);Draft;Socks;next;Kids-Girls;Girls;Black;White;Pink;Fashion;Casual;2018;9-12m,NEXTSCKS00000344;300.00;;;;;;;next,JIT;zerotype;;Winter;;No
2585512;MR02ST217271-White Blue Teal-2585512;Cactus Socks Five Pack (Younger Girls);Draft;Socks;next;Kids-Girls;Girls;White;Blue;Teal;Fashion;Casual;2018;9-12m,NEXTSCKS00000343;550.00;;;;;;;next,JIT;zerotype;;Winter;;No
2585508;MR02ST217270-Multi Multi-2585508;Rainbow Stripe Socks Seven Pack (Younger Girls);Draft;Socks;next;Kids-Girls;Girls;Multi;Multi;;Fashion;Casual;2018;9-12m,NEXTSCKS00000342;650.00;;;;;;;next,JIT;zerotype;;Winter;;No
2585505;MR02ST217269-White Red Blue-2585505;Rainbow Socks Five Pack (Younger Girls);Draft;Socks;next;Kids-Girls;Girls;White;Red;Blue;Fashion;Casual;2018;9-12m,NEXTSCKS00000341;650.00;;;;;;;next,JIT;zerotype;;Winter;;No
2585502;MR02ST217262-Multi Multi-2585502;Floral Socks Seven Pack (Younger Girls);Draft;Socks;next;Kids-Girls;Girls;Multi;Multi;;Fashion;Casual;2018;9-12m,NEXTSCKS00000340;800.00;;;;;;;next,JIT;zerotype;;Winter;;No
2585497;MR02ST201985-Grey Black Cream-2585497;Character Socks Five Pack (Younger Girls);Draft;Socks;next;Kids-Girls;Girls;Grey;Black;Cream;Fashion;Casual;2018;9-12m,NEXTSCKS00000339;650.00;;;;;;;next,JIT;zerotype;;Winter;;No
2585493;MR02090832-Off White Off White Off White-2585493;Textured Ruffle Socks Two Pack (Younger Girls);Draft;Socks;next;Kids-Girls;Girls;Off White;Off White;Off White;Fashion;Casual;2018;9-12m,NEXTSCKS00000338;300.00;;;;;;;next,JIT;zerotype;;Winter;;No
