Style ID;Vendor Article Number;Vendor Article Name;Active Status;Article type;Brand;Age Group;Gender;Base Colour;Colour1;Colour2;Fashion Type;Usage;Year;Size - SKU code pair;MRP;Style Description;Style Note;Materials and Care Description;Size and Fit Description;Size Chart Path;Product Display Name;Tags;Product Type;Classification Brand;Season;Comments;Upload Images
1891747;8907559500307-PINK&BLUE-1891747;Jashn pink & blue floral print pasmina s;Draft;Sarees;Jashn;Adults-Women;Women;;;;Fashion;;2017;Onesize,JSHNSARS00000585;1899.00;;;;;;;;zerotype;;Spring;;No
1891746;8907559499977-PINK-1891746;Jashn pink ethnic print crepe saree;Draft;Sarees;Jashn;Adults-Women;Women;;;;Fashion;;2017;Onesize,JSHNSARS00000584;2299.00;;;;;;;;zerotype;;Spring;;No
1891745;8907559499878-PINK-1891745;Jashn pink floral print crepe saree;Draft;Sarees;Jashn;Adults-Women;Women;;;;Fashion;;2017;Onesize,JSHNSARS00000583;2299.00;;;;;;;;zerotype;;Spring;;No
1891744;8907559503803-PINK-1891744;Jashn pink zigzag ikat print cotton sare;Draft;Sarees;Jashn;Adults-Women;Women;;;;Fashion;;2017;Onesize,JSHNSARS00000582;1899.00;;;;;;;;zerotype;;Spring;;No
1891743;8907559503797-BEIGE-1891743;Jashn beige zigzag ikat print cotton sar;Draft;Sarees;Jashn;Adults-Women;Women;;;;Fashion;;2017;Onesize,JSHNSARS00000581;1899.00;;;;;;;;zerotype;;Spring;;No
1891742;8907559502400-MULTI-1891742;Jashn multi abstract print georgette sar;Draft;Sarees;Jashn;Adults-Women;Women;;;;Fashion;;2017;Onesize,JSHNSARS00000580;3499.00;;;;;;;;zerotype;;Spring;;No
1891741;8907559503612-CREAM-1891741;Jashn cream floral print cotton saree;Draft;Sarees;Jashn;Adults-Women;Women;;;;Fashion;;2017;Onesize,JSHNSARS00000579;1999.00;;;;;;;;zerotype;;Spring;;No
1891740;8907559503575-YELLOW-1891740;Jashn yellow ethnic motif print cotton s;Draft;Sarees;Jashn;Adults-Women;Women;;;;Fashion;;2017;Onesize,JSHNSARS00000578;1999.00;;;;;;;;zerotype;;Spring;;No
1891739;8907559503568-GREEN-1891739;Jashn green ethnic motif print cotton sa;Draft;Sarees;Jashn;Adults-Women;Women;;;;Fashion;;2017;Onesize,JSHNSARS00000577;1999.00;;;;;;;;zerotype;;Spring;;No
1891738;8907559503551-PEACH-1891738;Jashn peach ethnic motif print cotton sa;Draft;Sarees;Jashn;Adults-Women;Women;;;;Fashion;;2017;Onesize,JSHNSARS00000576;1999.00;;;;;;;;zerotype;;Spring;;No
1891737;8907559502752-BEIGE & PINK-1891737;Jashn beige & pink floral print cotton k;Draft;Sarees;Jashn;Adults-Women;Women;;;;Fashion;;2017;Onesize,JSHNSARS00000575;1999.00;;;;;;;;zerotype;;Spring;;No
1891736;8907559498529-CREAM & ORANGE-1891736;Jashn cream & orange botanical print geo;Draft;Sarees;Jashn;Adults-Women;Women;;;;Fashion;;2017;Onesize,JSHNSARS00000574;2499.00;;;;;;;;zerotype;;Spring;;No
1891735;8907559497348-SKY BLUE-1891735;Jashn blue zari woven border chanderi sa;Draft;Sarees;Jashn;Adults-Women;Women;;;;Fashion;;2017;Onesize,JSHNSARS00000573;1899.00;;;;;;;;zerotype;;Spring;;No
1891734;8907559497331-RED-1891734;Jashn red zari woven border chanderi sar;Draft;Sarees;Jashn;Adults-Women;Women;;;;Fashion;;2017;Onesize,JSHNSARS00000572;1899.00;;;;;;;;zerotype;;Spring;;No
1891733;8907559497324-PINK-1891733;Jashn pink zari woven border chanderi sa;Draft;Sarees;Jashn;Adults-Women;Women;;;;Fashion;;2017;Onesize,JSHNSARS00000571;1899.00;;;;;;;;zerotype;;Spring;;No
1891732;8907559497317-PURPLE-1891732;Jashn purple zari woven border chanderi;Draft;Sarees;Jashn;Adults-Women;Women;;;;Fashion;;2017;Onesize,JSHNSARS00000570;1899.00;;;;;;;;zerotype;;Spring;;No
1891731;8907559497300-TURQUOISE BLUE-1891731;Jashn turquoise blue zari woven border c;Draft;Sarees;Jashn;Adults-Women;Women;;;;Fashion;;2017;Onesize,JSHNSARS00000569;1899.00;;;;;;;;zerotype;;Spring;;No
1891730;8907559495870-ROYAL BLUE-1891730;Jashn royal blue zari woven border chand;Draft;Sarees;Jashn;Adults-Women;Women;;;;Fashion;;2017;Onesize,JSHNSARS00000568;3799.00;;;;;;;;zerotype;;Spring;;No
1891729;8907559495863-RED-1891729;Jashn red zari woven border chanderi sar;Draft;Sarees;Jashn;Adults-Women;Women;;;;Fashion;;2017;Onesize,JSHNSARS00000567;3799.00;;;;;;;;zerotype;;Spring;;No
1891728;8907559495856-BLUE-1891728;Jashn blue zari woven border chanderi sa;Draft;Sarees;Jashn;Adults-Women;Women;;;;Fashion;;2017;Onesize,JSHNSARS00000566;3799.00;;;;;;;;zerotype;;Spring;;No
1891727;8907559495849-PURPLE-1891727;Jashn purple zari woven border chanderi;Draft;Sarees;Jashn;Adults-Women;Women;;;;Fashion;;2017;Onesize,JSHNSARS00000565;3799.00;;;;;;;;zerotype;;Spring;;No
1891726;8907559495832-BLACK-1891726;Jashn black zari woven border chanderi s;Draft;Sarees;Jashn;Adults-Women;Women;;;;Fashion;;2017;Onesize,JSHNSARS00000564;3799.00;;;;;;;;zerotype;;Spring;;No
1891725;8907559479481-Peach-1891725;Jashn peach zari motif chanderi dress ma;Draft;Dress Material;Jashn;Adults-Women;Women;;;;Fashion;;2017;Onesize,JSHNDRMT00000123;5499.00;;;;;;;;zerotype;;Spring;;No
1891724;8907559479467-GREEN-1891724;Jashn green zari motif chanderi dress ma;Draft;Dress Material;Jashn;Adults-Women;Women;;;;Fashion;;2017;Onesize,JSHNDRMT00000122;5499.00;;;;;;;;zerotype;;Spring;;No
1891723;8907559479450-sea green-1891723;Jashn seagreen zari motif chanderi dress;Draft;Dress Material;Jashn;Adults-Women;Women;;;;Fashion;;2017;Onesize,JSHNDRMT00000121;5499.00;;;;;;;;zerotype;;Spring;;No
1891722;8907559479412-Blue-1891722;Jashn blue zari motif chanderi dress mat;Draft;Dress Material;Jashn;Adults-Women;Women;;;;Fashion;;2017;Onesize,JSHNDRMT00000120;5499.00;;;;;;;;zerotype;;Spring;;No
