Style ID;Vendor Article Number;Vendor Article Name;Active Status;Article type;Brand;Age Group;Gender;Base Colour;Colour1;Colour2;Fashion Type;Usage;Year;Size - SKU code pair;MRP;Style Description;Style Note;Materials and Care Description;Size and Fit Description;Size Chart Path;Product Display Name;Tags;Product Type;Classification Brand;Season;Comments;Upload Images
1854125;CC361-Navy Blue-1854125;The Cranberry Club Check Shirt;Draft;Shirts;The Cranberry Club;Kids-Boys;Boys;;;;Fashion;;2017;3-4Y,TCCBSHRT00000001,4-5Y,TCCBSHRT00000002,5-6Y,TCCBSHRT00000003,6-7Y,TCCBSHRT00000004,7-8Y,TCCBSHRT00000005,8-9Y,TCCBSHRT00000006,9-10Y,TCCBSHRT00000007,10-11Y,TCCBSHRT00000008,11-12Y,TCCBSHRT00000009;1899.00;;;;;;;;zerotype;;Spring;;No
1854124;CC358-Grey-1854124;The Cranberry Club Butterfly T-Shirt;Draft;Tshirts;The Cranberry Club;Kids-Girls;Girls;;;;Fashion;;2017;3-4Y,TCCBTSHT00000001,4-5Y,TCCBTSHT00000002,5-6Y,TCCBTSHT00000003,6-7Y,TCCBTSHT00000004,7-8Y,TCCBTSHT00000005,8-9Y,TCCBTSHT00000006;1399.00;;;;;;;;zerotype;;Spring;;No
1854123;CC363GTP-Cream Black-1854123;The Cranberry Club Leopard Print Top;Draft;Tops;The Cranberry Club;Kids-Girls;Girls;;;;Fashion;;2017;0-3M,TCCBTOPS00000019,12-18M,TCCBTOPS00000020,18-24M,TCCBTOPS00000021,3-6M,TCCBTOPS00000022,2-3Y,TCCBTOPS00000023,3-4Y,TCCBTOPS00000024,4-5Y,TCCBTOPS00000025,5-6Y,TCCBTOPS00000026,6-9M,TCCBTOPS00000027,9-12M,TCCBTOPS00000028;1029.00;;;;;;;;zerotype;;Spring;;No
1854122;CC382-Copper-1854122;The Cranberry Club Plum Schiffli Dress;Draft;Dresses;The Cranberry Club;Kids-Girls;Girls;;;;Fashion;;2017;5-6Y,TCCBDRSS00000217,6-7Y,TCCBDRSS00000218,7-8Y,TCCBDRSS00000219,8-9Y,TCCBDRSS00000220,9-10Y,TCCBDRSS00000221;2299.00;;;;;;;;zerotype;;Spring;;No
1854121;CC320-Multi-1854121;The Cranberry Club Girl's Midi/Knee Leng;Draft;Dresses;The Cranberry Club;Kids-Girls;Girls;;;;Fashion;;2017;3-4Y,TCCBDRSS00000212,4-5Y,TCCBDRSS00000213,5-6Y,TCCBDRSS00000214,6-7Y,TCCBDRSS00000215,7-8Y,TCCBDRSS00000216;1599.00;;;;;;;;zerotype;;Spring;;No
1854120;CC266-Blue-1854120;The Cranberry Club Aqua FrIll Foil Dress;Draft;Dresses;The Cranberry Club;Kids-Girls;Girls;;;;Fashion;;2017;18-24M,TCCBDRSS00000205,2-3Y,TCCBDRSS00000206,3-4Y,TCCBDRSS00000207,4-5Y,TCCBDRSS00000208,5-6Y,TCCBDRSS00000209,6-7Y,TCCBDRSS00000210,7-8Y,TCCBDRSS00000211;1299.00;;;;;;;;zerotype;;Spring;;No
1854119;CC037-Red-1854119;The Cranberry Club Red Party Dress;Draft;Dresses;The Cranberry Club;Kids-Girls;Girls;;;;Fashion;;2017;2-3Y,TCCBDRSS00000199,3-4Y,TCCBDRSS00000200,4-5Y,TCCBDRSS00000201,5-6Y,TCCBDRSS00000202,6-7Y,TCCBDRSS00000203,7-8Y,TCCBDRSS00000204;1399.00;;;;;;;;zerotype;;Spring;;No
1854118;CC205-Red-1854118;The Cranberry Club Gathered Dress For Gi;Draft;Dresses;The Cranberry Club;Kids-Girls;Girls;;;;Fashion;;2017;2Y-3Y,TCCBDRSS00000191,3-4Y,TCCBDRSS00000192,4-5Y,TCCBDRSS00000193,5-6Y,TCCBDRSS00000194,6-7Y,TCCBDRSS00000195,7-8Y,TCCBDRSS00000196,8-9Y,TCCBDRSS00000197,9-10Y,TCCBDRSS00000198;899.00;;;;;;;;zerotype;;Spring;;No
