Style ID;Vendor Article Number;Vendor Article Name;Active Status;Article type;Brand;Age Group;Gender;Base Colour;Colour1;Colour2;Fashion Type;Usage;Year;Size - SKU code pair;MRP;Style Description;Style Note;Materials and Care Description;Size and Fit Description;Size Chart Path;Product Display Name;Tags;Product Type;Classification Brand;Season;Comments;Upload Images
1805622;S17CXMT616-BLACK-Black-1805622;Party Tees;Draft;Tshirts;Globus;Adults-Men;Men;Black;;;Fashion;Casual;2017;S,GLBSTSHT00004462,M,GLBSTSHT00004463,L,GLBSTSHT00004464,XL,GLBSTSHT00004465;899.00;;;;;;;;zerotype;;Spring;;No
1805618;S17CCMT002-GREY-Grey-1805618;Men's T-shirts Polo;Draft;Tshirts;Globus;Adults-Men;Men;Grey;;;Fashion;Casual;2017;S,GLBSTSHT00004442,M,GLBSTSHT00004443,L,GLBSTSHT00004444,XL,GLBSTSHT00004445,XXL,GLBSTSHT00004446;899.00;;;;;;;;zerotype;;Spring;;No
1805611;S17CXMT707-BLACK-Black-1805611;Fashion Basics;Draft;Tshirts;Globus;Adults-Men;Men;Black;;;Fashion;Casual;2017;S,GLBSTSHT00004413,M,GLBSTSHT00004414,L,GLBSTSHT00004415,XL,GLBSTSHT00004416;699.00;;;;;;;;zerotype;;Spring;;No
1776247;S17CXMT710-GREYNAVY-Grey-1776247;S17CXMT710-GREYNAVY;Draft;Tshirts;Globus;Adults-Men;Men;Grey;;;Fashion;Casual;2017;L,GLBSTSHT00004363,M,GLBSTSHT00004364,S,GLBSTSHT00004365,XL,GLBSTSHT00004366;799.00;;;;;;;;zerotype;;Spring;;No
1776244;S17CXMT310-CHARCOAL-Charcoal-1776244;S17CXMT310-CHARCOAL;Draft;Tshirts;Globus;Adults-Men;Men;Charcoal;;;Fashion;Casual;2017;L,GLBSTSHT00004351,M,GLBSTSHT00004352,S,GLBSTSHT00004353,XL,GLBSTSHT00004354;599.00;;;;;;;;zerotype;;Spring;;No
1776243;S17CXMT306-BLACK-Black-1776243;S17CXMT306-BLACK;Draft;Tshirts;Globus;Adults-Men;Men;Black;;;Fashion;Casual;2017;L,GLBSTSHT00004347,M,GLBSTSHT00004348,S,GLBSTSHT00004349,XL,GLBSTSHT00004350;499.00;;;;;;;;zerotype;;Spring;;No
1776241;S17CXMT304A-WHITE-White-1776241;S17CXMT304A-WHITE;Draft;Tshirts;Globus;Adults-Men;Men;White;;;Fashion;Casual;2017;L,GLBSTSHT00004339,M,GLBSTSHT00004340,S,GLBSTSHT00004341,XL,GLBSTSHT00004342;599.00;;;;;;;;zerotype;;Spring;;No
1776240;S17CXMT304-BLACK-Black-1776240;S17CXMT304-BLACK;Draft;Tshirts;Globus;Adults-Men;Men;Black;;;Fashion;Casual;2017;L,GLBSTSHT00004335,M,GLBSTSHT00004336,S,GLBSTSHT00004337,XL,GLBSTSHT00004338;599.00;;;;;;;;zerotype;;Spring;;No
1776237;S17CXMT708A-OLIVE-Olive-1776237;S17CXMT708A-OLIVE;Draft;Tshirts;Globus;Adults-Men;Men;Olive;;;Fashion;Casual;2017;L,GLBSTSHT00004323,M,GLBSTSHT00004324,S,GLBSTSHT00004325,XL,GLBSTSHT00004326;1299.00;;;;;;;;zerotype;;Spring;;No
1776236;S17CXMT708-BLACK-Black-1776236;S17CXMT708-BLACK;Draft;Tshirts;Globus;Adults-Men;Men;Black;;;Fashion;Casual;2017;L,GLBSTSHT00004319,M,GLBSTSHT00004320,S,GLBSTSHT00004321,XL,GLBSTSHT00004322;1299.00;;;;;;;;zerotype;;Spring;;No
1776230;S17CXMT505-WHITE-White-1776230;S17CXMT505-WHITE;Draft;Tshirts;Globus;Adults-Men;Men;White;;;Fashion;Casual;2017;L,GLBSTSHT00004289,M,GLBSTSHT00004290,S,GLBSTSHT00004291,XL,GLBSTSHT00004292,XXL,GLBSTSHT00004293;399.00;;;;;;;;zerotype;;Spring;;No
1776224;S17CXMT608-BLACK-Black-1776224;S17CXMT608-BLACK;Draft;Tshirts;Globus;Adults-Men;Men;Black;;;Fashion;Casual;2017;L,GLBSTSHT00004260,M,GLBSTSHT00004261,S,GLBSTSHT00004262,XL,GLBSTSHT00004263;899.00;;;;;;;;zerotype;;Spring;;No
1776223;S17CXMT611-BLACK-Black-1776223;S17CXMT611-BLACK;Draft;Tshirts;Globus;Adults-Men;Men;Black;;;Fashion;Casual;2017;L,GLBSTSHT00004256,M,GLBSTSHT00004257,S,GLBSTSHT00004258,XL,GLBSTSHT00004259;899.00;;;;;;;;zerotype;;Spring;;No
1776214;S17CXMT514-BLACK-Black-1776214;S17CXMT514-BLACK;Draft;Tshirts;Globus;Adults-Men;Men;Black;;;Fashion;Casual;2017;L,GLBSTSHT00004219,M,GLBSTSHT00004220,S,GLBSTSHT00004221,XL,GLBSTSHT00004222,XXL,GLBSTSHT00004223;399.00;;;;;;;;zerotype;;Spring;;No
1776210;S17CXMT610-BLACK-Black-1776210;S17CXMT610-BLACK;Draft;Tshirts;Globus;Adults-Men;Men;Black;;;Fashion;Casual;2017;L,GLBSTSHT00004201,M,GLBSTSHT00004202,S,GLBSTSHT00004203,XL,GLBSTSHT00004204;799.00;;;;;;;;zerotype;;Spring;;No
1776208;S17CXMT606-CHARCOALMELANGE-Charcoal-1776208;S17CXMT606-CHARCOALMELANGE;Draft;Tshirts;Globus;Adults-Men;Men;Charcoal;;;Fashion;Casual;2017;L,GLBSTSHT00004193,M,GLBSTSHT00004194,S,GLBSTSHT00004195,XL,GLBSTSHT00004196;799.00;;;;;;;;zerotype;;Spring;;No
1776204;S17CXMT313-RED-Red-1776204;S17CXMT313-RED;Draft;Tshirts;Globus;Adults-Men;Men;Red;;;Fashion;Casual;2017;L,GLBSTSHT00004177,M,GLBSTSHT00004178,S,GLBSTSHT00004179,XL,GLBSTSHT00004180;599.00;;;;;;;;zerotype;;Spring;;No
1776200;S17CCMT001-NAVY-Blue-1776200;S17CCMT001-NAVY;Draft;Tshirts;Globus;Adults-Men;Men;Blue;;;Fashion;Casual;2017;L,GLBSTSHT00004157,M,GLBSTSHT00004158,S,GLBSTSHT00004159,XL,GLBSTSHT00004160,XXL,GLBSTSHT00004161;899.00;;;;;;;;zerotype;;Spring;;No
