Style ID;Vendor Article Number;Vendor Article Name;Active Status;Article type;Brand;Age Group;Gender;Base Colour;Colour1;Colour2;Fashion Type;Usage;Year;Size - SKU code pair;MRP;Style Description;Style Note;Materials and Care Description;Size and Fit Description;Size Chart Path;Product Display Name;Tags;Product Type;Classification Brand;Season;Comments;Upload Images
1965574;SJR-109-44-Black-1965574;Sojanya (Since 1958), Black, Dupion Silk Kurta Churidaar Set, Size: 44;Draft;Kurta Sets;SOJANYA;Adults-Men;Men;Black;;;Fashion;;2017;38,SJYAKASS00000341,40,SJYAKASS00000342,42,SJYAKASS00000343,44,SJYAKASS00000344;2999.00;;;;;;;;zerotype;;Fall;;No
1965573;SJR-107-44-Maroon-1965573;Sojanya (Since 1958), Maroon, Dupion Silk Kurta Churidaar Set, Size: 44;Draft;Kurta Sets;SOJANYA;Adults-Men;Men;Maroon;;;Fashion;;2017;38,SJYAKASS00000337,40,SJYAKASS00000338,42,SJYAKASS00000339,44,SJYAKASS00000340;2999.00;;;;;;;;zerotype;;Fall;;No
1965572;SJR-094-44-Black-1965572;Sojanya (Since 1958), Black, Dupion Silk Kurta Churidaar Set, Size: 44;Draft;Kurta Sets;SOJANYA;Adults-Men;Men;Black;;;Fashion;;2017;38,SJYAKASS00000333,40,SJYAKASS00000334,42,SJYAKASS00000335,44,SJYAKASS00000336;2999.00;;;;;;;;zerotype;;Fall;;No
1965571;SJR-093-44-Maroon-1965571;Sojanya (Since 1958), Maroon, Dupion Silk Kurta Churidaar Set, Size: 44;Draft;Kurta Sets;SOJANYA;Adults-Men;Men;Maroon;;;Fashion;;2017;38,SJYAKASS00000329,40,SJYAKASS00000330,42,SJYAKASS00000331,44,SJYAKASS00000332;2999.00;;;;;;;;zerotype;;Fall;;No
1965570;SJR-092-44-Grey-1965570;Sojanya (Since 1958), Grey, Dupion Silk Kurta Churidaar Set, Size: 44;Draft;Kurta Sets;SOJANYA;Adults-Men;Men;Grey;;;Fashion;;2017;38,SJYAKASS00000325,40,SJYAKASS00000326,42,SJYAKASS00000327,44,SJYAKASS00000328;2999.00;;;;;;;;zerotype;;Fall;;No
1965569;SJR-091-44-Blue-1965569;Sojanya (Since 1958), Royal blue, Dupion Silk Kurta Churidaar Set, Size: 44;Draft;Kurta Sets;SOJANYA;Adults-Men;Men;Blue;;;Fashion;;2017;38,SJYAKASS00000321,40,SJYAKASS00000322,42,SJYAKASS00000323,44,SJYAKASS00000324;2999.00;;;;;;;;zerotype;;Fall;;No
1965568;SJR-057-44-Green-1965568;Sojanya (Since 1958), Dark Green, Dupion Silk Kurta Churidaar Set, Size: 44;Draft;Kurta Sets;SOJANYA;Adults-Men;Men;Green;;;Fashion;;2017;38,SJYAKASS00000317,40,SJYAKASS00000318,42,SJYAKASS00000319,44,SJYAKASS00000320;2999.00;;;;;;;;zerotype;;Fall;;No
1965567;SJR-056-44-Pink-1965567;Sojanya (Since 1958), Pink, Dupion Silk Kurta Churidaar Set, Size: 44;Draft;Kurta Sets;SOJANYA;Adults-Men;Men;Pink;;;Fashion;;2017;38,SJYAKASS00000313,40,SJYAKASS00000314,42,SJYAKASS00000315,44,SJYAKASS00000316;2999.00;;;;;;;;zerotype;;Fall;;No
1965566;SJR-055-44-Purple-1965566;Sojanya (Since 1958), Violet, Dupion Silk Kurta Churidaar Set, Size: 44;Draft;Kurta Sets;SOJANYA;Adults-Men;Men;Purple;;;Fashion;;2017;38,SJYAKASS00000309,40,SJYAKASS00000310,42,SJYAKASS00000311,44,SJYAKASS00000312;2999.00;;;;;;;;zerotype;;Fall;;No
