Style ID;Vendor Article Number;Vendor Article Name;Active Status;Article type;Brand;Age Group;Gender;Base Colour;Colour1;Colour2;Fashion Type;Usage;Year;Size - SKU code pair;MRP;Style Description;Style Note;Materials and Care Description;Size and Fit Description;Size Chart Path;Product Display Name;Tags;Product Type;Classification Brand;Season;Comments;Upload Images
2044248;LTSHS2351-NEONGREEN-XXL-Green-2044248;plusS Ladies Tshirts;Draft;Tshirts;plusS;Adults-Women;Women;Green;;;Fashion;Casual;2017;3XL,PLUSTSHT00004738,4XL,PLUSTSHT00004739,5XL,PLUSTSHT00004740,6XL,PLUSTSHT00004741,7XL,PLUSTSHT00004742,8XL,PLUSTSHT00004743,XL,PLUSTSHT00004744,XXL,PLUSTSHT00004745;599.00;<p>plusS ladies tshirt</p>;;<p>100% Cotton (Hand Wash)</p>;;;;;zerotype;;Summer;;No
2044247;LTSHS2350-CORAL-XXL-Pink-2044247;plusS Ladies Tshirts;Draft;Tshirts;plusS;Adults-Women;Women;Pink;;;Fashion;Casual;2017;3XL,PLUSTSHT00004730,4XL,PLUSTSHT00004731,5XL,PLUSTSHT00004732,6XL,PLUSTSHT00004733,7XL,PLUSTSHT00004734,8XL,PLUSTSHT00004735,XL,PLUSTSHT00004736,XXL,PLUSTSHT00004737;599.00;<p>plusS ladies tshirt</p>;;<p>100% Cotton (Hand Wash)</p>;;;;;zerotype;;Summer;;No
2044246;LTSHS2349-OATMEAL-XXL-Grey-2044246;plusS Ladies Tshirts;Draft;Tshirts;plusS;Adults-Women;Women;Grey;;;Fashion;Casual;2017;3XL,PLUSTSHT00004722,4XL,PLUSTSHT00004723,5XL,PLUSTSHT00004724,6XL,PLUSTSHT00004725,7XL,PLUSTSHT00004726,8XL,PLUSTSHT00004727,XL,PLUSTSHT00004728,XXL,PLUSTSHT00004729;599.00;<p>plusS ladies tshirt</p>;;<p>100% Cotton (Hand Wash)</p>;;;;;zerotype;;Summer;;No
2044245;LTSHS2347-NEONGREEN-XXL-Green-2044245;plusS Ladies Tshirts;Draft;Tshirts;plusS;Adults-Women;Women;Green;;;Fashion;Casual;2017;3XL,PLUSTSHT00004714,4XL,PLUSTSHT00004715,5XL,PLUSTSHT00004716,6XL,PLUSTSHT00004717,7XL,PLUSTSHT00004718,8XL,PLUSTSHT00004719,XL,PLUSTSHT00004720,XXL,PLUSTSHT00004721;599.00;<p>plusS ladies tshirt</p>;;<p>100% Cotton (Hand Wash)</p>;;;;;zerotype;;Summer;;No
2044244;LTSHS2345-CORAL-XXL-Coral-2044244;plusS Ladies Tshirts;Draft;Tshirts;plusS;Adults-Women;Women;Coral;;;Fashion;Casual;2017;3XL,PLUSTSHT00004706,4XL,PLUSTSHT00004707,5XL,PLUSTSHT00004708,6XL,PLUSTSHT00004709,7XL,PLUSTSHT00004710,8XL,PLUSTSHT00004711,XL,PLUSTSHT00004712,XXL,PLUSTSHT00004713;599.00;<p>plusS ladies tshirt</p>;;<p>100% Cotton (Hand Wash)</p>;;;;;zerotype;;Summer;;No
2044243;LTSHS2239-BLACK-XXL-Grey-2044243;plusS Ladies Tshirts;Draft;Tshirts;plusS;Adults-Women;Women;Grey;;;Fashion;Casual;2017;3XL,PLUSTSHT00004699,4XL,PLUSTSHT00004700,L,PLUSTSHT00004701,M,PLUSTSHT00004702,S,PLUSTSHT00004703,XL,PLUSTSHT00004704,XXL,PLUSTSHT00004705;1200.00;<p>plusS ladies tshirt</p>;;<p>100% Polyester (Hand Wash)</p>;;;;;zerotype;;Summer;;No
2044242;LTSHS2198-OATMEAL-XXL-Grey-2044242;plusS Ladies Tshirts;Draft;Tshirts;plusS;Adults-Women;Women;Grey;;;Fashion;Casual;2017;3XL,PLUSTSHT00004691,4XL,PLUSTSHT00004692,5XL,PLUSTSHT00004693,6XL,PLUSTSHT00004694,7XL,PLUSTSHT00004695,8XL,PLUSTSHT00004696,XL,PLUSTSHT00004697,XXL,PLUSTSHT00004698;1066.00;<p>plusS ladies tshirt</p>;;<p>100% Cotton (Hand Wash)</p>;;;;;zerotype;;Summer;;No
2044241;LTSHS1972-NAVYWHITESTRIPE-8XL-Navy Blue White-2044241;plusS Women's Tops;Draft;Tops;plusS;Adults-Women;Women;Navy Blue;White;;Fashion;Casual;2017;XL,PLUSTOPS00003167,XXL,PLUSTOPS00003168,3XL,PLUSTOPS00003169,4XL,PLUSTOPS00003170,5XL,PLUSTOPS00003171,6XL,PLUSTOPS00003172,7XL,PLUSTOPS00003173,8XL,PLUSTOPS00003174;999.00;<p>plusS Womens Tops</p>;;<p>100% Cotton (Hand Wash)</p>;;;;;zerotype;;Summer;;No
2044240;LTSHS1972-BLACKGREYSTRIPE-8XL-Black Grey-2044240;plusS Women's Tops;Draft;Tops;plusS;Adults-Women;Women;Black;Grey;;Fashion;Casual;2017;XL,PLUSTOPS00003159,XXL,PLUSTOPS00003160,3XL,PLUSTOPS00003161,4XL,PLUSTOPS00003162,5XL,PLUSTOPS00003163,6XL,PLUSTOPS00003164,7XL,PLUSTOPS00003165,8XL,PLUSTOPS00003166;999.00;<p>plusS Womens Tops</p>;;<p>100% Cotton (Hand Wash)</p>;;;;;zerotype;;Summer;;No
2044239;LTSFS1507B-GREENPRINT-8XL-Blue-2044239;plusS Women's Tops;Draft;Tops;plusS;Adults-Women;Women;Blue;;;Fashion;Casual;2017;XL,PLUSTOPS00003151,XXL,PLUSTOPS00003152,3XL,PLUSTOPS00003153,4XL,PLUSTOPS00003154,5XL,PLUSTOPS00003155,6XL,PLUSTOPS00003156,7XL,PLUSTOPS00003157,8XL,PLUSTOPS00003158;990.00;<p>plusS Women's Printed Tops</p>;;<p>100% Polyester (Hand Wash)</p>;;;;;zerotype;;Summer;;No
2044238;LTP2254-NAVY-8XL-Blue-2044238;plusS Women's Tops;Draft;Tops;plusS;Adults-Women;Women;Blue;;;Fashion;Casual;2017;XL,PLUSTOPS00003143,XXL,PLUSTOPS00003144,3XL,PLUSTOPS00003145,4XL,PLUSTOPS00003146,5XL,PLUSTOPS00003147,6XL,PLUSTOPS00003148,7XL,PLUSTOPS00003149,8XL,PLUSTOPS00003150;1499.00;<p>plusS Women's Printed Tops</p>;;<p>100% Viscose Rayon (Hand Wash)</p>;;;;;zerotype;;Summer;;No
2044237;LTP2254-FUSHIA-8XL-Red-2044237;plusS Women's Tops;Draft;Tops;plusS;Adults-Women;Women;Red;;;Fashion;Casual;2017;XL,PLUSTOPS00003135,XXL,PLUSTOPS00003136,3XL,PLUSTOPS00003137,4XL,PLUSTOPS00003138,5XL,PLUSTOPS00003139,6XL,PLUSTOPS00003140,7XL,PLUSTOPS00003141,8XL,PLUSTOPS00003142;1499.00;<p>plusS Women's Printed Tops</p>;;<p>100% Viscose Rayon (Hand Wash)</p>;;;;;zerotype;;Summer;;No
2044236;LTP2254-BLACK-8XL-Black-2044236;plusS Women's Tops;Draft;Tops;plusS;Adults-Women;Women;Black;;;Fashion;Casual;2017;XL,PLUSTOPS00003127,XXL,PLUSTOPS00003128,3XL,PLUSTOPS00003129,4XL,PLUSTOPS00003130,5XL,PLUSTOPS00003131,6XL,PLUSTOPS00003132,7XL,PLUSTOPS00003133,8XL,PLUSTOPS00003134;1499.00;<p>plusS Women's Printed Tops</p>;;<p>100% Viscose Rayon (Hand Wash)</p>;;;;;zerotype;;Summer;;No
