Style ID;Vendor Article Number;Vendor Article Name;Active Status;Article type;Brand;Age Group;Gender;Base Colour;Colour1;Colour2;Fashion Type;Usage;Year;Size - SKU code pair;MRP;Style Description;Style Note;Materials and Care Description;Size and Fit Description;Size Chart Path;Product Display Name;Tags;Product Type;Classification Brand;Season;Comments;Upload Images
1955302;6B6SG1907A-Blue-1955302;6by6 Brown Round Women Sunglasses;Draft;Sunglasses;6by6;Adults-Women;Women;Brown;;;Fashion;;2017;50,6BY6SGLS00001186;1599.00;;;;;;;;zerotype;;Summer;;No
1955301;6B6SG1904A-Purple-1955301;6by6 Red Wayfarer Unisex Sunglasses;Draft;Sunglasses;6by6;Adults-Unisex;Unisex;Red;;;Fashion;;2017;50,6BY6SGLS00001185;1999.00;;;;;;;;zerotype;;Summer;;No
1955300;6B6SG1638A-Brown-1955300;6by6 Brown Wayfarer Unisex Sunglasses;Draft;Sunglasses;6by6;Adults-Unisex;Unisex;Brown;;;Fashion;;2017;50,6BY6SGLS00001184;1499.00;;;;;;;;zerotype;;Summer;;No
1955299;6B6SG1628A-Black-1955299;6by6 Black Cat-eye Women Sunglasses;Draft;Sunglasses;6by6;Adults-Women;Women;Black;;;Fashion;;2017;55,6BY6SGLS00001183;1299.00;;;;;;;;zerotype;;Summer;;No
1955298;6B6SG1607A-Black-1955298;6by6 Black Wayfarer Unisex Sunglasses;Draft;Sunglasses;6by6;Adults-Unisex;Unisex;Black;;;Fashion;;2017;50,6BY6SGLS00001182;1699.00;;;;;;;;zerotype;;Summer;;No
1955297;6B6SG1605A-Black-1955297;6by6 Black Rectangular Unisex Sunglasses;Draft;Sunglasses;6by6;Adults-Unisex;Unisex;Black;;;Fashion;;2017;50,6BY6SGLS00001181;1699.00;;;;;;;;zerotype;;Summer;;No
1955296;6B6SG1592A-Black-1955296;6by6 Brown Oversized Women Sunglasses;Draft;Sunglasses;6by6;Adults-Women;Women;Black;;;Fashion;;2017;55,6BY6SGLS00001180;1999.00;;;;;;;;zerotype;;Summer;;No
1955295;6B6SG1591A-Brown-1955295;6by6 Brown Oversized Women Sunglasses;Draft;Sunglasses;6by6;Adults-Women;Women;Brown;;;Fashion;;2017;55,6BY6SGLS00001179;1999.00;;;;;;;;zerotype;;Summer;;No
1955293;6B6SG1583A-Black-1955293;6by6 Black Oversized Women Sunglasses;Draft;Sunglasses;6by6;Adults-Women;Women;Black;;;Fashion;;2017;55,6BY6SGLS00001178;1999.00;;;;;;;;zerotype;;Summer;;No
1955292;6B6SG1577A-Brown-1955292;6by6 Brown Oversized Women Sunglasses;Draft;Sunglasses;6by6;Adults-Women;Women;Brown;;;Fashion;;2017;50,6BY6SGLS00001177;1999.00;;;;;;;;zerotype;;Summer;;No
1955291;6B6SG1560A-Black-1955291;6by6 Black Round Women Sunglasses;Draft;Sunglasses;6by6;Adults-Women;Women;Black;;;Fashion;;2017;55,6BY6SGLS00001176;1999.00;;;;;;;;zerotype;;Summer;;No
1955290;6B6SG1552A-White-1955290;6by6 White Round Unisex Sunglasses;Draft;Sunglasses;6by6;Adults-Unisex;Unisex;White;;;Fashion;;2017;55,6BY6SGLS00001175;1699.00;;;;;;;;zerotype;;Summer;;No
1955289;6B6SG1469A-Brown-1955289;6by6 Brown Wayfarer Unisex Sunglasses;Draft;Sunglasses;6by6;Adults-Unisex;Unisex;Brown;;;Fashion;;2017;50,6BY6SGLS00001174;1599.00;;;;;;;;zerotype;;Summer;;No
1955288;6B6SG1285A-Black-1955288;6by6 Black Cat-eye Women Sunglasses;Draft;Sunglasses;6by6;Adults-Women;Women;Black;;;Fashion;;2017;55,6BY6SGLS00001173;1299.00;;;;;;;;zerotype;;Summer;;No
1955287;6B6SG1284A-Brown-1955287;6by6 Brown Cat-eye Women Sunglasses;Draft;Sunglasses;6by6;Adults-Women;Women;Brown;;;Fashion;;2017;55,6BY6SGLS00001172;1299.00;;;;;;;;zerotype;;Summer;;No
1955286;6B6SG1184A-Brown-1955286;6by6 Brown Wayfarer Unisex Sunglasses;Draft;Sunglasses;6by6;Adults-Unisex;Unisex;Brown;;;Fashion;;2017;50,6BY6SGLS00001171;1499.00;;;;;;;;zerotype;;Summer;;No
1955285;6B6SG1180A-Black-1955285;6by6 Black Wayfarer Unisex Sunglasses;Draft;Sunglasses;6by6;Adults-Unisex;Unisex;Black;;;Fashion;;2017;50,6BY6SGLS00001170;1499.00;;;;;;;;zerotype;;Summer;;No
1955284;6B6SG1164A-Brown-1955284;6by6 Brown Wayfarer Unisex Sunglasses;Draft;Sunglasses;6by6;Adults-Unisex;Unisex;Brown;;;Fashion;;2017;50,6BY6SGLS00001169;1599.00;;;;;;;;zerotype;;Summer;;No
1955283;6B6SG1157A-Black-1955283;6by6 Black Wayfarer Unisex Sunglasses;Draft;Sunglasses;6by6;Adults-Unisex;Unisex;Black;;;Fashion;;2017;50,6BY6SGLS00001168;1299.00;;;;;;;;zerotype;;Summer;;No
1955282;6B6SG1156A-Black-1955282;6by6 Black Wayfarer Unisex Sunglasses;Draft;Sunglasses;6by6;Adults-Unisex;Unisex;Black;;;Fashion;;2017;50,6BY6SGLS00001167;1299.00;;;;;;;;zerotype;;Summer;;No
1955281;6B6SG1152A-Brown-1955281;6by6 Brown Wayfarer Unisex Sunglasses;Draft;Sunglasses;6by6;Adults-Unisex;Unisex;Brown;;;Fashion;;2017;55,6BY6SGLS00001166;1299.00;;;;;;;;zerotype;;Summer;;No
1955280;6B6SG1128A-Black-1955280;6by6 Black Oval Women Sunglasses;Draft;Sunglasses;6by6;Adults-Women;Women;Black;;;Fashion;;2017;50,6BY6SGLS00001165;1299.00;;;;;;;;zerotype;;Summer;;No
1955279;6B6SG1055A-Black-1955279;6by6 Black Wayfarer Unisex Sunglasses;Draft;Sunglasses;6by6;Adults-Unisex;Unisex;Black;;;Fashion;;2017;50,6BY6SGLS00001164;1599.00;;;;;;;;zerotype;;Summer;;No
1955278;6B6SG1053A-Black-1955278;6by6 Black Wayfarer Unisex Sunglasses;Draft;Sunglasses;6by6;Adults-Unisex;Unisex;Black;;;Fashion;;2017;50,6BY6SGLS00001163;1599.00;;;;;;;;zerotype;;Summer;;No
1955277;6B6SG1043A-Blue-1955277;6by6 Blue Round Women Sunglasses;Draft;Sunglasses;6by6;Adults-Women;Women;Blue;;;Fashion;;2017;50,6BY6SGLS00001162;1599.00;;;;;;;;zerotype;;Summer;;No
1955276;6B6SG985A-Brown-1955276;6by6 Brown Wayfarer Women Sunglasses;Draft;Sunglasses;6by6;Adults-Women;Women;Brown;;;Fashion;;2017;55,6BY6SGLS00001161;1699.00;;;;;;;;zerotype;;Summer;;No
1955275;6B6SG847A-Red-1955275;6by6 Red Oversized Women Sunglasses;Draft;Sunglasses;6by6;Adults-Women;Women;Red;;;Fashion;;2017;55,6BY6SGLS00001160;1999.00;;;;;;;;zerotype;;Summer;;No
1955274;6B6SG846A-Red-1955274;6by6 Red Cat-eye Women Sunglasses;Draft;Sunglasses;6by6;Adults-Women;Women;Red;;;Fashion;;2017;55,6BY6SGLS00001159;1999.00;;;;;;;;zerotype;;Summer;;No
1955273;6B6SG795A-Black-1955273;6by6 Black Aviator Unisex Sunglasses;Draft;Sunglasses;6by6;Adults-Unisex;Unisex;Black;;;Fashion;;2017;55,6BY6SGLS00001158;1699.00;;;;;;;;zerotype;;Summer;;No
1955272;6B6SG794A-Brown-1955272;6by6 Brown Aviator Unisex Sunglasses;Draft;Sunglasses;6by6;Adults-Unisex;Unisex;Brown;;;Fashion;;2017;55,6BY6SGLS00001157;1699.00;;;;;;;;zerotype;;Summer;;No
1955271;6B6SG742A-Brown-1955271;6by6 Brown Round Unisex Sunglasses;Draft;Sunglasses;6by6;Adults-Unisex;Unisex;Brown;;;Fashion;;2017;50,6BY6SGLS00001156;1599.00;;;;;;;;zerotype;;Summer;;No
1955270;6B6SG731A-Brown-1955270;6by6 Brown Wayfarer Unisex Sunglasses;Draft;Sunglasses;6by6;Adults-Unisex;Unisex;Brown;;;Fashion;;2017;55,6BY6SGLS00001155;1599.00;;;;;;;;zerotype;;Summer;;No
1955269;6B6SG681A-Brown-1955269;6by6 Brown Wayfarer Unisex Sunglasses;Draft;Sunglasses;6by6;Adults-Unisex;Unisex;Brown;;;Fashion;;2017;50,6BY6SGLS00001154;1599.00;;;;;;;;zerotype;;Summer;;No
