Style ID;Vendor Article Number;Vendor Article Name;Active Status;Article type;Brand;Age Group;Gender;Base Colour;Colour1;Colour2;Fashion Type;Usage;Year;Size - SKU code pair;MRP;Style Description;Style Note;Materials and Care Description;Size and Fit Description;Size Chart Path;Product Display Name;Tags;Product Type;Classification Brand;Season;Comments;Upload Images
1873225;WS-DRS-802-12Y-Blue-1873225;Cherry crumble Embroidered Cotton Denim;Draft;Dresses;Cherry Crumble;Kids-Girls;Girls;;;;Fashion;;2017;9-12M,CYCEDRSS00000550,12-18M,CYCEDRSS00000551,18-24M,CYCEDRSS00000552,2-3Y,CYCEDRSS00000553,3-4Y,CYCEDRSS00000554,4-5Y,CYCEDRSS00000555,5-6Y,CYCEDRSS00000556,6-7Y,CYCEDRSS00000557,7-8Y,CYCEDRSS00000558,8-9Y,CYCEDRSS00000559,9-10Y,CYCEDRSS00000560,10-11Y,CYCEDRSS00000561,11-12Y,CYCEDRSS00000562;1799.00;;;;;;;;zerotype;;Summer;;No
1873224;WS-DRS-0382-12Y-Blue-1873224;Cherry crumble Utility Chest Pleated Dre;Draft;Dresses;Cherry Crumble;Kids-Girls;Girls;;;;Fashion;;2017;9-12M,CYCEDRSS00000537,12-18M,CYCEDRSS00000538,18-24M,CYCEDRSS00000539,2-3Y,CYCEDRSS00000540,3-4Y,CYCEDRSS00000541,4-5Y,CYCEDRSS00000542,5-6Y,CYCEDRSS00000543,6-7Y,CYCEDRSS00000544,7-8Y,CYCEDRSS00000545,8-9Y,CYCEDRSS00000546,9-10Y,CYCEDRSS00000547,10-11Y,CYCEDRSS00000548,11-12Y,CYCEDRSS00000549;1899.00;;;;;;;;zerotype;;Summer;;No
1873223;WS-DRS-0380-12Y-Blue-1873223;Cherry crumble Cute Embroidery Denim Dre;Draft;Dresses;Cherry Crumble;Kids-Girls;Girls;;;;Fashion;;2017;9-12M,CYCEDRSS00000524,12-18M,CYCEDRSS00000525,18-24M,CYCEDRSS00000526,2-3Y,CYCEDRSS00000527,3-4Y,CYCEDRSS00000528,4-5Y,CYCEDRSS00000529,5-6Y,CYCEDRSS00000530,6-7Y,CYCEDRSS00000531,7-8Y,CYCEDRSS00000532,8-9Y,CYCEDRSS00000533,9-10Y,CYCEDRSS00000534,10-11Y,CYCEDRSS00000535,11-12Y,CYCEDRSS00000536;1899.00;;;;;;;;zerotype;;Summer;;No
1873222;WS-DRS-0354-12Y-Blue-1873222;Cherry crumble Ruffled Multi Tier Dress;Draft;Dresses;Cherry Crumble;Kids-Girls;Girls;;;;Fashion;;2017;9-12M,CYCEDRSS00000511,12-18M,CYCEDRSS00000512,18-24M,CYCEDRSS00000513,2-3Y,CYCEDRSS00000514,3-4Y,CYCEDRSS00000515,4-5Y,CYCEDRSS00000516,5-6Y,CYCEDRSS00000517,6-7Y,CYCEDRSS00000518,7-8Y,CYCEDRSS00000519,8-9Y,CYCEDRSS00000520,9-10Y,CYCEDRSS00000521,10-11Y,CYCEDRSS00000522,11-12Y,CYCEDRSS00000523;1549.00;;;;;;;;zerotype;;Summer;;No
1873221;WS-TOP-803-12Y-Blue-1873221;Cherry crumble Embroidered Shell Tank To;Draft;Tops;Cherry Crumble;Kids-Girls;Girls;;;;Fashion;;2017;9-12M,CYCETOPS00000241,12-18M,CYCETOPS00000242,18-24M,CYCETOPS00000243,2-3Y,CYCETOPS00000244,3-4Y,CYCETOPS00000245,4-5Y,CYCETOPS00000246,5-6Y,CYCETOPS00000247,6-7Y,CYCETOPS00000248,7-8Y,CYCETOPS00000249,8-9Y,CYCETOPS00000250,9-10Y,CYCETOPS00000251,10-11Y,CYCETOPS00000252,11-12Y,CYCETOPS00000253;1549.00;;;;;;;;zerotype;;Summer;;No
1873220;WS-TOP-0702-12Y-Blue-1873220;Cherry crumble Cotton Knit Wave Top;Draft;Tops;Cherry Crumble;Kids-Girls;Girls;;;;Fashion;;2017;6-9M,CYCETOPS00000227,9-12M,CYCETOPS00000228,12-18M,CYCETOPS00000229,18-24M,CYCETOPS00000230,2-3Y,CYCETOPS00000231,3-4Y,CYCETOPS00000232,4-5Y,CYCETOPS00000233,5-6Y,CYCETOPS00000234,6-7Y,CYCETOPS00000235,7-8Y,CYCETOPS00000236,8-9Y,CYCETOPS00000237,9-10Y,CYCETOPS00000238,10-11Y,CYCETOPS00000239,11-12Y,CYCETOPS00000240;1249.00;;;;;;;;zerotype;;Summer;;No
1873219;WS-TOP-0701-12Y-Yellow-1873219;Cherry crumble Single Ruffle Layer Top;Draft;Tops;Cherry Crumble;Kids-Girls;Girls;;;;Fashion;;2017;6-9M,CYCETOPS00000213,9-12M,CYCETOPS00000214,12-18M,CYCETOPS00000215,18-24M,CYCETOPS00000216,2-3Y,CYCETOPS00000217,3-4Y,CYCETOPS00000218,4-5Y,CYCETOPS00000219,5-6Y,CYCETOPS00000220,6-7Y,CYCETOPS00000221,7-8Y,CYCETOPS00000222,8-9Y,CYCETOPS00000223,9-10Y,CYCETOPS00000224,10-11Y,CYCETOPS00000225,11-12Y,CYCETOPS00000226;1249.00;;;;;;;;zerotype;;Summer;;No
1873218;WS-TOP-0699-12Y-Green-1873218;Cherry crumble Jersey Knit Slub Top;Draft;Tops;Cherry Crumble;Kids-Girls;Girls;;;;Fashion;;2017;6-9M,CYCETOPS00000199,9-12M,CYCETOPS00000200,12-18M,CYCETOPS00000201,18-24M,CYCETOPS00000202,2-3Y,CYCETOPS00000203,3-4Y,CYCETOPS00000204,4-5Y,CYCETOPS00000205,5-6Y,CYCETOPS00000206,6-7Y,CYCETOPS00000207,7-8Y,CYCETOPS00000208,8-9Y,CYCETOPS00000209,9-10Y,CYCETOPS00000210,10-11Y,CYCETOPS00000211,11-12Y,CYCETOPS00000212;1299.00;;;;;;;;zerotype;;Summer;;No
1873217;WS-TOP-0507-8Y-White-1873217;Cherry crumble Floral Printed Lace Top;Draft;Tops;Cherry Crumble;Kids-Girls;Girls;;;;Fashion;;2017;3-6M,CYCETOPS00000187,6-9M,CYCETOPS00000188,9-12M,CYCETOPS00000189,12-18M,CYCETOPS00000191,18-24M,CYCETOPS00000192,2-3Y,CYCETOPS00000193,3-4Y,CYCETOPS00000194,4-5Y,CYCETOPS00000195,5-6Y,CYCETOPS00000196,6-7Y,CYCETOPS00000197,7-8Y,CYCETOPS00000198;1349.00;;;;;;;;zerotype;;Summer;;No
1873216;WS-SHRT-804-12Y-Blue-1873216;Cherry crumble Denim Jacquard Trim Shirt;Draft;Shirts;Cherry Crumble;Kids-Unisex;Unisex;;;;Fashion;;2017;9-12M,CYCESHRT00000261,12-18M,CYCESHRT00000262,18-24M,CYCESHRT00000263,2-3Y,CYCESHRT00000264,3-4Y,CYCESHRT00000265,4-5Y,CYCESHRT00000266,5-6Y,CYCESHRT00000267,6-7Y,CYCESHRT00000268,7-8Y,CYCESHRT00000269,8-9Y,CYCESHRT00000270,9-10Y,CYCESHRT00000271,10-11Y,CYCESHRT00000272,11-12Y,CYCESHRT00000273;1999.00;;;;;;;;zerotype;;Summer;;No
1873215;WS-SHRT-0523-10Y-Green-1873215;Cherry crumble Checkered Premium Cotton;Draft;Shirts;Cherry Crumble;Kids-Boys;Boys;;;;Fashion;;2017;6-9M,CYCESHRT00000249,9-12M,CYCESHRT00000250,12-18M,CYCESHRT00000251,18-24M,CYCESHRT00000252,2-3Y,CYCESHRT00000253,3-4Y,CYCESHRT00000254,4-5Y,CYCESHRT00000255,5-6Y,CYCESHRT00000256,6-7Y,CYCESHRT00000257,7-8Y,CYCESHRT00000258,8-9Y,CYCESHRT00000259,9-10Y,CYCESHRT00000260;1449.00;;;;;;;;zerotype;;Summer;;No
1873214;WS-SHRT-0521-10Y-Red-1873214;Cherry crumble Checkered Cotton Shirt Fo;Draft;Shirts;Cherry Crumble;Kids-Unisex;Unisex;;;;Fashion;;2017;6-9M,CYCESHRT00000237,9-12M,CYCESHRT00000238,12-18M,CYCESHRT00000239,18-24M,CYCESHRT00000240,2-3Y,CYCESHRT00000241,3-4Y,CYCESHRT00000242,4-5Y,CYCESHRT00000243,5-6Y,CYCESHRT00000244,6-7Y,CYCESHRT00000245,7-8Y,CYCESHRT00000246,8-9Y,CYCESHRT00000247,9-10Y,CYCESHRT00000248;1449.00;;;;;;;;zerotype;;Summer;;No
1873213;WS-SHRT-0519-10Y-Blue-1873213;Cherry crumble Short Sleeve Premium Cott;Draft;Shirts;Cherry Crumble;Kids-Boys;Boys;;;;Fashion;;2017;6-9M,CYCESHRT00000225,9-12M,CYCESHRT00000226,12-18M,CYCESHRT00000227,18-24M,CYCESHRT00000228,2-3Y,CYCESHRT00000229,3-4Y,CYCESHRT00000230,4-5Y,CYCESHRT00000231,5-6Y,CYCESHRT00000232,6-7Y,CYCESHRT00000233,7-8Y,CYCESHRT00000234,8-9Y,CYCESHRT00000235,9-10Y,CYCESHRT00000236;1249.00;;;;;;;;zerotype;;Summer;;No
1873212;WS-SHRT-0518-10Y-Red-1873212;Cherry crumble Scottish check suede trim;Draft;Shirts;Cherry Crumble;Kids-Unisex;Unisex;;;;Fashion;;2017;6-9M,CYCESHRT00000213,9-12M,CYCESHRT00000214,12-18M,CYCESHRT00000215,18-24M,CYCESHRT00000216,2-3Y,CYCESHRT00000217,3-4Y,CYCESHRT00000218,4-5Y,CYCESHRT00000219,5-6Y,CYCESHRT00000220,6-7Y,CYCESHRT00000221,7-8Y,CYCESHRT00000222,8-9Y,CYCESHRT00000223,9-10Y,CYCESHRT00000224;1499.00;;;;;;;;zerotype;;Summer;;No
1873211;WS-SHRT-0517-10Y-Yellow-1873211;Cherry crumble Checkered Alabama Cotton;Draft;Shirts;Cherry Crumble;Kids-Unisex;Unisex;;;;Fashion;;2017;6-9M,CYCESHRT00000201,9-12M,CYCESHRT00000202,12-18M,CYCESHRT00000203,18-24M,CYCESHRT00000204,2-3Y,CYCESHRT00000205,3-4Y,CYCESHRT00000206,4-5Y,CYCESHRT00000207,5-6Y,CYCESHRT00000208,6-7Y,CYCESHRT00000209,7-8Y,CYCESHRT00000210,8-9Y,CYCESHRT00000211,9-10Y,CYCESHRT00000212;1399.00;;;;;;;;zerotype;;Summer;;No
1873210;WS-SHRT-0512-10Y-Blue-1873210;Cherry crumble Checkered Double Pocket S;Draft;Shirts;Cherry Crumble;Kids-Boys;Boys;;;;Fashion;;2017;6-9M,CYCESHRT00000189,9-12M,CYCESHRT00000190,12-18M,CYCESHRT00000191,18-24M,CYCESHRT00000192,2-3Y,CYCESHRT00000193,3-4Y,CYCESHRT00000194,4-5Y,CYCESHRT00000195,5-6Y,CYCESHRT00000196,6-7Y,CYCESHRT00000197,7-8Y,CYCESHRT00000198,8-9Y,CYCESHRT00000199,9-10Y,CYCESHRT00000200;1449.00;;;;;;;;zerotype;;Summer;;No
1873209;WS-TSHRT-0337-8Y-Orange-1873209;Cherry crumble British Wildlife Tee For;Draft;Tshirts;Cherry Crumble;Kids-Unisex;Unisex;;;;Fashion;;2017;3-6M,CYCETSHT00000426,6-9M,CYCETSHT00000427,9-12M,CYCETSHT00000428,12-18M,CYCETSHT00000429,18-24M,CYCETSHT00000430,2-3Y,CYCETSHT00000431,3-4Y,CYCETSHT00000432,4-5Y,CYCETSHT00000433,5-6Y,CYCETSHT00000434,6-7Y,CYCETSHT00000435,7-8Y,CYCETSHT00000436;1199.00;;;;;;;;zerotype;;Summer;;No
1873208;WS-TSHRT-0336-8Y-White-1873208;Cherry crumble Race Track Adventure Tee;Draft;Tshirts;Cherry Crumble;Kids-Unisex;Unisex;;;;Fashion;;2017;3-6M,CYCETSHT00000415,6-9M,CYCETSHT00000416,9-12M,CYCETSHT00000417,12-18M,CYCETSHT00000418,18-24M,CYCETSHT00000419,2-3Y,CYCETSHT00000420,3-4Y,CYCETSHT00000421,4-5Y,CYCETSHT00000422,5-6Y,CYCETSHT00000423,6-7Y,CYCETSHT00000424,7-8Y,CYCETSHT00000425;1149.00;;;;;;;;zerotype;;Summer;;No
1873207;WS-TSHRT-0364-8Y-Orange-1873207;Cherry crumble Sunny Fauna Graphic Tee F;Draft;Tshirts;Cherry Crumble;Kids-Unisex;Unisex;;;;Fashion;;2017;3-6M,CYCETSHT00000404,6-9M,CYCETSHT00000405,9-12M,CYCETSHT00000406,12-18M,CYCETSHT00000407,18-24M,CYCETSHT00000408,2-3Y,CYCETSHT00000409,3-4Y,CYCETSHT00000410,4-5Y,CYCETSHT00000411,5-6Y,CYCETSHT00000412,6-7Y,CYCETSHT00000413,7-8Y,CYCETSHT00000414;1199.00;;;;;;;;zerotype;;Summer;;No
1873206;WS-TSHRT-0338-8Y-Green-1873206;Cherry crumble Crew Neck Cycle Graphic T;Draft;Tshirts;Cherry Crumble;Kids-Unisex;Unisex;;;;Fashion;;2017;3-6M,CYCETSHT00000393,6-9M,CYCETSHT00000394,9-12M,CYCETSHT00000395,12-18M,CYCETSHT00000396,18-24M,CYCETSHT00000397,2-3Y,CYCETSHT00000398,3-4Y,CYCETSHT00000399,4-5Y,CYCETSHT00000400,5-6Y,CYCETSHT00000401,6-7Y,CYCETSHT00000402,7-8Y,CYCETSHT00000403;999.00;;;;;;;;zerotype;;Summer;;No
1873205;WS-JCKT-0077B-11-Lime Green-1873205;Cherry crumble Premiuim Lightweight BARN;Draft;Jackets;Cherry Crumble;Kids-Unisex;Unisex;;;;Fashion;;2017;0-3M,CYCEJCKT00000264,3-6M,CYCEJCKT00000265,6-9M,CYCEJCKT00000266,9-12M,CYCEJCKT00000267,12-18M,CYCEJCKT00000268,18-24M,CYCEJCKT00000269,2-3Y,CYCEJCKT00000270,3-4Y,CYCEJCKT00000271,4-5Y,CYCEJCKT00000272,5-6Y,CYCEJCKT00000273,6-7Y,CYCEJCKT00000274,7-8Y,CYCEJCKT00000275,8-9Y,CYCEJCKT00000276,9-10Y,CYCEJCKT00000277,10-11Y,CYCEJCKT00000278;3299.00;;;;;;;;zerotype;;Winter;;No
1873204;WS-JCKT-0073G-11-Blue-1873204;Cherry crumble Lightweight WindBreaker w;Draft;Jackets;Cherry Crumble;Kids-Girls;Girls;;;;Fashion;;2017;0-3M,CYCEJCKT00000249,3-6M,CYCEJCKT00000250,6-9M,CYCEJCKT00000251,9-12M,CYCEJCKT00000252,12-18M,CYCEJCKT00000253,18-24M,CYCEJCKT00000254,2-3Y,CYCEJCKT00000255,3-4Y,CYCEJCKT00000256,4-5Y,CYCEJCKT00000257,5-6Y,CYCEJCKT00000258,6-7Y,CYCEJCKT00000259,7-8Y,CYCEJCKT00000260,8-9Y,CYCEJCKT00000261,9-10Y,CYCEJCKT00000262,10-11Y,CYCEJCKT00000263;2899.00;;;;;;;;zerotype;;Winter;;No
1873203;WS-JCKT-0071G-11-Blue-1873203;Cherry crumble Lightweight PUFFER Jacket;Draft;Jackets;Cherry Crumble;Kids-Girls;Girls;;;;Fashion;;2017;0-3M,CYCEJCKT00000234,3-6M,CYCEJCKT00000235,6-9M,CYCEJCKT00000236,9-12M,CYCEJCKT00000237,12-18M,CYCEJCKT00000238,18-24M,CYCEJCKT00000239,2-3Y,CYCEJCKT00000240,3-4Y,CYCEJCKT00000241,4-5Y,CYCEJCKT00000242,5-6Y,CYCEJCKT00000243,6-7Y,CYCEJCKT00000244,7-8Y,CYCEJCKT00000245,8-9Y,CYCEJCKT00000246,9-10Y,CYCEJCKT00000247,10-11Y,CYCEJCKT00000248;2799.00;;;;;;;;zerotype;;Winter;;No
1873202;WS-JCKT-0070G-10-Blue-1873202;Cherry crumble Soft Fleece Lined PUFFER;Draft;Jackets;Cherry Crumble;Kids-Girls;Girls;;;;Fashion;;2017;0-3M,CYCEJCKT00000220,3-6M,CYCEJCKT00000221,6-9M,CYCEJCKT00000222,9-12M,CYCEJCKT00000223,12-18M,CYCEJCKT00000224,18-24M,CYCEJCKT00000225,2-3Y,CYCEJCKT00000226,3-4Y,CYCEJCKT00000227,4-5Y,CYCEJCKT00000228,5-6Y,CYCEJCKT00000229,6-7Y,CYCEJCKT00000230,7-8Y,CYCEJCKT00000231,8-9Y,CYCEJCKT00000232,9-10Y,CYCEJCKT00000233;2299.00;;;;;;;;zerotype;;Winter;;No
1873201;WS-JCKT-0069G-11-Blue-1873201;Cherry crumble Premiuim Lightweight PUFF;Draft;Jackets;Cherry Crumble;Kids-Girls;Girls;;;;Fashion;;2017;0-3M,CYCEJCKT00000205,3-6M,CYCEJCKT00000206,6-9M,CYCEJCKT00000207,9-12M,CYCEJCKT00000208,12-18M,CYCEJCKT00000209,18-24M,CYCEJCKT00000210,2-3Y,CYCEJCKT00000211,3-4Y,CYCEJCKT00000212,4-5Y,CYCEJCKT00000213,5-6Y,CYCEJCKT00000214,6-7Y,CYCEJCKT00000215,7-8Y,CYCEJCKT00000216,8-9Y,CYCEJCKT00000217,9-10Y,CYCEJCKT00000218,10-11Y,CYCEJCKT00000219;2299.00;;;;;;;;zerotype;;Winter;;No
1873200;WS-NSUIT-0151-9Y-Grey-1873200;Cherry crumble Soft Cosy Jersey-Woven Pj;Draft;Night suits;Cherry Crumble;Kids-Unisex;Unisex;;;;Fashion;;2017;18-24M,CYCENTST00000258,2-3Y,CYCENTST00000259,3-4Y,CYCENTST00000260,4-5Y,CYCENTST00000261,5-6Y,CYCENTST00000262,6-7Y,CYCENTST00000263,7-8Y,CYCENTST00000264,8-9Y,CYCENTST00000265;1699.00;;;;;;;;zerotype;;Summer;;No
1873199;WS-IC-0196-8-Orange-1873199;Cherry crumble Cotton Patchwork Shirt To;Draft;Night suits;Cherry Crumble;Kids-Unisex;Unisex;;;;Fashion;;2017;3-6M,CYCENTST00000247,6-9M,CYCENTST00000248,9-12M,CYCENTST00000249,12-18M,CYCENTST00000250,2Y,CYCENTST00000251,2-3Y,CYCENTST00000252,3-4Y,CYCENTST00000253,4-5Y,CYCENTST00000254,5-6Y,CYCENTST00000255,6-7Y,CYCENTST00000256,7-8Y,CYCENTST00000257;1899.00;;;;;;;;zerotype;;Summer;;No
1873198;WS-SWSHRT-0202G-11-yellow-1873198;Cherry crumble Soft Fleece Hoodie with S;Draft;Sweatshirts;Cherry Crumble;Kids-Girls;Girls;;;;Fashion;;2017;0-3M,CYCESWSH00000178,3-6M,CYCESWSH00000179,6-9M,CYCESWSH00000180,9-12M,CYCESWSH00000181,12-18M,CYCESWSH00000182,18-24M,CYCESWSH00000183,2-3Y,CYCESWSH00000184,3-4Y,CYCESWSH00000185,4-5Y,CYCESWSH00000186,5-6Y,CYCESWSH00000187,6-7Y,CYCESWSH00000188,7-8Y,CYCESWSH00000189,8-9Y,CYCESWSH00000190,9-10Y,CYCESWSH00000191,10-11Y,CYCESWSH00000192;2149.00;;;;;;;;zerotype;;Summer;;No
