Style ID;Vendor Article Number;Vendor Article Name;Active Status;Article type;Brand;Age Group;Gender;Base Colour;Colour1;Colour2;Fashion Type;Usage;Year;Size - SKU code pair;MRP;Style Description;Style Note;Materials and Care Description;Size and Fit Description;Size Chart Path;Product Display Name;Tags;Product Type;Classification Brand;Season;Comments;Upload Images
1851327;CAMY96-Black Synthetic-1851327;CAMY;Draft;Heels;ALDO;Adults-Women;Women;;;;Fashion;;2017;US6,ALDOHeels00000811,US6.5,ALDOHeels00000812,US7.5,ALDOHeels00000813,US8.5,ALDOHeels00000814,US9,ALDOHeels00000815,US10,ALDOHeels00000816;6999.00;<p>Two-Piece naked wearable/high heel sandal (TBC)</p>;;<p>Clean it with branded  Cleaner</p>;;;;;zerotype;;Summer;;No
1851321;GUANA82-Gold-1851321;GUANA;Draft;Heels;ALDO;Adults-Women;Women;;;;Fashion;;2017;US6,ALDOHeels00000793,US6.5,ALDOHeels00000794,US7.5,ALDOHeels00000795,US8.5,ALDOHeels00000796,US9,ALDOHeels00000797,US10,ALDOHeels00000798;7999.00;<p>Ladies high wedge slide sandal</p>;;<p>Clean it with branded  Cleaner</p>;;;;;zerotype;;Summer;;No
1851319;CAPRICCHIA96-Black Synthetic-1851319;CAPRICCHIA;Draft;Heels;ALDO;Adults-Women;Women;;;;Fashion;;2017;US6,ALDOHeels00000787,US6.5,ALDOHeels00000788,US7.5,ALDOHeels00000789,US8.5,ALDOHeels00000790,US9,ALDOHeels00000791,US10,ALDOHeels00000792;5999.00;<p>Ladies feminine high wedge thong</p>;;<p>Clean it with branded  Cleaner</p>;;;;;zerotype;;Summer;;No
1851318;CAPRICCHIA70-White-1851318;CAPRICCHIA;Draft;Heels;ALDO;Adults-Women;Women;;;;Fashion;;2017;US6,ALDOHeels00000781,US6.5,ALDOHeels00000782,US7.5,ALDOHeels00000783,US8.5,ALDOHeels00000784,US9,ALDOHeels00000785,US10,ALDOHeels00000786;5999.00;<p>Ladies feminine high wedge thong</p>;;<p>Clean it with branded  Cleaner</p>;;;;;zerotype;;Summer;;No
1851315;CAPRICCHIA32-Bone-1851315;CAPRICCHIA;Draft;Heels;ALDO;Adults-Women;Women;;;;Fashion;;2017;US6,ALDOHeels00000775,US6.5,ALDOHeels00000776,US7.5,ALDOHeels00000777,US8.5,ALDOHeels00000778,US9,ALDOHeels00000779,US10,ALDOHeels00000780;5999.00;<p>Ladies feminine high wedge thong</p>;;<p>Clean it with branded  Cleaner</p>;;;;;zerotype;;Summer;;No
1851313;CAPRICCHIA28-Cognac-1851313;CAPRICCHIA;Draft;Heels;ALDO;Adults-Women;Women;;;;Fashion;;2017;US6,ALDOHeels00000769,US6.5,ALDOHeels00000770,US7.5,ALDOHeels00000771,US8.5,ALDOHeels00000772,US9,ALDOHeels00000773,US10,ALDOHeels00000774;5999.00;<p>Ladies feminine high wedge thong</p>;;<p>Clean it with branded  Cleaner</p>;;;;;zerotype;;Summer;;No
1851302;EVONNA96-Black Synthetic-1851302;EVONNA;Draft;Heels;ALDO;Adults-Women;Women;;;;Fashion;;2017;US6,ALDOHeels00000733,US6.5,ALDOHeels00000734,US7.5,ALDOHeels00000735,US8.5,ALDOHeels00000736,US9,ALDOHeels00000737,US10,ALDOHeels00000738;6999.00;<p>Ladies Mid Heel Blocky Sandal with Velcro</p>;;<p>Clean it with branded  Cleaner</p>;;;;;zerotype;;Summer;;No
1851300;EVONNA38-Camel-1851300;EVONNA;Draft;Heels;ALDO;Adults-Women;Women;;;;Fashion;;2017;US6,ALDOHeels00000727,US6.5,ALDOHeels00000728,US7.5,ALDOHeels00000729,US8.5,ALDOHeels00000730,US9,ALDOHeels00000731,US10,ALDOHeels00000732;6999.00;<p>Ladies Mid Heel Blocky Sandal with Velcro</p>;;<p>Clean it with branded  Cleaner</p>;;;;;zerotype;;Summer;;No
1851288;ABELINI28-Cognac-1851288;ABELINI;Draft;Heels;ALDO;Adults-Women;Women;;;;Fashion;;2017;US6,ALDOHeels00000691,US6.5,ALDOHeels00000692,US7.5,ALDOHeels00000693,US8.5,ALDOHeels00000694,US9,ALDOHeels00000695,US10,ALDOHeels00000696;4999.00;<p>Ladies high EVA wedge thong</p>;;<p>Clean it with branded  Cleaner</p>;;;;;zerotype;;Summer;;No
1851280;STESSY K75-White Patent-1851280;STESSY K;Draft;Heels;ALDO;Adults-Women;Women;;;;Fashion;;2017;US6,ALDOHeels00000667,US6.5,ALDOHeels00000668,US7.5,ALDOHeels00000669,US8.5,ALDOHeels00000670,US9,ALDOHeels00000671,US10,ALDOHeels00000672;7999.00;<p>Pointy Plain High Heel Pump</p>;;<p>Clean it with branded  Cleaner</p>;;;;;zerotype;;Summer;;No
1851276;JOGGINS95-Black Patent-1851276;JOGGINS;Draft;Heels;ALDO;Adults-Women;Women;;;;Fashion;;2017;US6,ALDOHeels00000655,US6.5,ALDOHeels00000656,US7.5,ALDOHeels00000657,US8.5,ALDOHeels00000658,US9,ALDOHeels00000659,US10,ALDOHeels00000660;8990.00;<p>Ladies high heel pump with pointy toe pump.</p>;;<p>Clean it with branded  Cleaner</p>;;;;;zerotype;;Summer;;No
1851273;JOGGINS55-Light Pink-1851273;JOGGINS;Draft;Heels;ALDO;Adults-Women;Women;;;;Fashion;;2017;US6,ALDOHeels00000649,US6.5,ALDOHeels00000650,US7.5,ALDOHeels00000651,US8.5,ALDOHeels00000652,US9,ALDOHeels00000653,US10,ALDOHeels00000654;8990.00;<p>Ladies high heel pump with pointy toe pump.</p>;;<p>Clean it with branded  Cleaner</p>;;;;;zerotype;;Summer;;No
1851271;BEATRITZ97-Black Leather-1851271;BEATRITZ;Draft;Heels;ALDO;Adults-Women;Women;;;;Fashion;;2017;US6,ALDOHeels00000643,US6.5,ALDOHeels00000644,US7.5,ALDOHeels00000645,US8.5,ALDOHeels00000646,US9,ALDOHeels00000647,US10,ALDOHeels00000648;7999.00;<p>Pointy Toe high heel pump with detail</p>;;<p>Clean it with branded  Cleaner</p>;;;;;zerotype;;Summer;;No
1851270;BEATRITZ32-Bone-1851270;BEATRITZ;Draft;Heels;ALDO;Adults-Women;Women;;;;Fashion;;2017;US6,ALDOHeels00000637,US6.5,ALDOHeels00000638,US7.5,ALDOHeels00000639,US8.5,ALDOHeels00000640,US9,ALDOHeels00000641,US10,ALDOHeels00000642;7999.00;<p>Pointy Toe high heel pump with detail</p>;;<p>Clean it with branded  Cleaner</p>;;;;;zerotype;;Summer;;No
1851266;ZUSIEN82-Gold-1851266;ZUSIEN;Draft;Heels;ALDO;Adults-Women;Women;;;;Fashion;;2017;US6,ALDOHeels00000625,US6.5,ALDOHeels00000626,US7.5,ALDOHeels00000627,US8.5,ALDOHeels00000628,US9,ALDOHeels00000629,US10,ALDOHeels00000630;5999.00;<p>Ladies pointy two piece ballerina with ankle strap.</p>;;<p>Clean it with branded  Cleaner</p>;;;;;zerotype;;Summer;;No
1851260;DELORIS95-Black Patent-1851260;DELORIS;Draft;Heels;ALDO;Adults-Women;Women;;;;Fashion;;2017;US6,ALDOHeels00000607,US6.5,ALDOHeels00000608,US7.5,ALDOHeels00000609,US8.5,ALDOHeels00000610,US9,ALDOHeels00000611,US10,ALDOHeels00000612;5990.00;<p>Pointy toe ballet on block heel</p>;;<p>Clean it with branded  Cleaner</p>;;;;;zerotype;;Summer;;No
1851257;DELORIS55-Light Pink-1851257;DELORIS;Draft;Heels;ALDO;Adults-Women;Women;;;;Fashion;;2017;US6,ALDOHeels00000601,US6.5,ALDOHeels00000602,US7.5,ALDOHeels00000603,US8.5,ALDOHeels00000604,US9,ALDOHeels00000605,US10,ALDOHeels00000606;5990.00;<p>Pointy toe ballet on block heel</p>;;<p>Clean it with branded  Cleaner</p>;;;;;zerotype;;Summer;;No
1851255;ABBATHA96-Black Synthetic-1851255;ABBATHA;Draft;Heels;ALDO;Adults-Women;Women;;;;Fashion;;2017;US6,ALDOHeels00000595,US6.5,ALDOHeels00000596,US7.5,ALDOHeels00000597,US8.5,ALDOHeels00000598,US9,ALDOHeels00000599,US10,ALDOHeels00000600;6999.00;<p>Pointy toe dandy slip on with electroplated heel</p>;;<p>Clean it with branded  Cleaner</p>;;;;;zerotype;;Summer;;No
1851254;ABBATHA62-Red-1851254;ABBATHA;Draft;Heels;ALDO;Adults-Women;Women;;;;Fashion;;2017;US6,ALDOHeels00000589,US6.5,ALDOHeels00000590,US7.5,ALDOHeels00000591,US8.5,ALDOHeels00000592,US9,ALDOHeels00000593,US10,ALDOHeels00000594;6999.00;<p>Pointy toe dandy slip on with electroplated heel</p>;;<p>Clean it with branded  Cleaner</p>;;;;;zerotype;;Summer;;No
1851252;ABBATHA2-Navy-1851252;ABBATHA;Draft;Heels;ALDO;Adults-Women;Women;;;;Fashion;;2017;US6,ALDOHeels00000583,US6.5,ALDOHeels00000584,US7.5,ALDOHeels00000585,US8.5,ALDOHeels00000586,US9,ALDOHeels00000587,US10,ALDOHeels00000588;6999.00;<p>Pointy toe dandy slip on with electroplated heel</p>;;<p>Clean it with branded  Cleaner</p>;;;;;zerotype;;Summer;;No
1851249;PIRASA96-Black Synthetic-1851249;PIRASA;Draft;Casual Shoes;ALDO;Adults-Women;Women;;;;Fashion;;2017;US6,ALDOCASH00001805,US6.5,ALDOCASH00001806,US7.5,ALDOCASH00001807,US8.5,ALDOCASH00001808,US9,ALDOCASH00001809,US10,ALDOCASH00001810;6999.00;<p>Round toe slip on sneaker with snake band detail</p>;;<p>Clean it with branded  Cleaner</p>;;;;;zerotype;;Summer;;No
1851247;PIRASA81-Silver-1851247;PIRASA;Draft;Casual Shoes;ALDO;Adults-Women;Women;;;;Fashion;;2017;US6,ALDOCASH00001799,US6.5,ALDOCASH00001800,US7.5,ALDOCASH00001801,US8.5,ALDOCASH00001802,US9,ALDOCASH00001803,US10,ALDOCASH00001804;6999.00;<p>Round toe slip on sneaker with snake band detail</p>;;<p>Clean it with branded  Cleaner</p>;;;;;zerotype;;Summer;;No
1851245;PERINE82-Gold-1851245;PERINE;Draft;Casual Shoes;ALDO;Adults-Women;Women;;;;Fashion;;2017;US6,ALDOCASH00001793,US6.5,ALDOCASH00001794,US7.5,ALDOCASH00001795,US8.5,ALDOCASH00001796,US9,ALDOCASH00001797,US10,ALDOCASH00001798;6999.00;<p>Plain twin gore.</p>;;<p>Clean it with branded  Cleaner</p>;;;;;zerotype;;Summer;;No
1851243;PERINE70-White-1851243;PERINE;Draft;Casual Shoes;ALDO;Adults-Women;Women;;;;Fashion;;2017;US6,ALDOCASH00001787,US6.5,ALDOCASH00001788,US7.5,ALDOCASH00001789,US8.5,ALDOCASH00001790,US9,ALDOCASH00001791,US10,ALDOCASH00001792;6999.00;<p>Plain twin gore.</p>;;<p>Clean it with branded  Cleaner</p>;;;;;zerotype;;Summer;;No
1851237;NATION98-Black-1851237;NATION;Draft;Casual Shoes;ALDO;Adults-Women;Women;;;;Fashion;;2017;US6,ALDOCASH00001769,US6.5,ALDOCASH00001770,US7.5,ALDOCASH00001771,US8.5,ALDOCASH00001772,US9,ALDOCASH00001773,US10,ALDOCASH00001774;6999.00;<p>Round toe high vamped slip on</p>;;<p>Clean it with branded  Cleaner</p>;;;;;zerotype;;Summer;;No
1851235;NATION62-Red-1851235;NATION;Draft;Casual Shoes;ALDO;Adults-Women;Women;;;;Fashion;;2017;US6,ALDOCASH00001763,US6.5,ALDOCASH00001764,US7.5,ALDOCASH00001765,US8.5,ALDOCASH00001766,US9,ALDOCASH00001767,US10,ALDOCASH00001768;6999.00;<p>Round toe high vamped slip on</p>;;<p>Clean it with branded  Cleaner</p>;;;;;zerotype;;Summer;;No
1851221;XENNA96-Black Synthetic-1851221;XENNA;Draft;Flats;ALDO;Adults-Women;Women;;;;Fashion;;2017;US6,ALDOFlats00001191,US6.5,ALDOFlats00001192,US7.5,ALDOFlats00001193,US8.5,ALDOFlats00001194,US9,ALDOFlats00001195,US10,ALDOFlats00001196;5999.00;<p>Ladies flat thong sandal with covered heel, back zip and hardware</p>;;<p>Clean it with branded  Cleaner</p>;;;;;zerotype;;Summer;;No
1851220;XENNA82-Gold-1851220;XENNA;Draft;Flats;ALDO;Adults-Women;Women;;;;Fashion;;2017;US6,ALDOFlats00001185,US6.5,ALDOFlats00001186,US7.5,ALDOFlats00001187,US8.5,ALDOFlats00001188,US9,ALDOFlats00001189,US10,ALDOFlats00001190;5999.00;<p>Ladies flat thong sandal with covered heel, back zip and hardware</p>;;<p>Clean it with branded  Cleaner</p>;;;;;zerotype;;Summer;;No
1851218;XENNA38-Camel-1851218;XENNA;Draft;Flats;ALDO;Adults-Women;Women;;;;Fashion;;2017;US6,ALDOFlats00001179,US6.5,ALDOFlats00001180,US7.5,ALDOFlats00001181,US8.5,ALDOFlats00001182,US9,ALDOFlats00001183,US10,ALDOFlats00001184;5999.00;<p>Ladies flat thong sandal with covered heel, back zip and hardware</p>;;<p>Clean it with branded  Cleaner</p>;;;;;zerotype;;Summer;;No
1851216;SURIE96-Black Synthetic-1851216;SURIE;Draft;Flats;ALDO;Adults-Women;Women;;;;Fashion;;2017;US6,ALDOFlats00001173,US6.5,ALDOFlats00001174,US7.5,ALDOFlats00001175,US8.5,ALDOFlats00001176,US9,ALDOFlats00001177,US10,ALDOFlats00001178;4999.00;<p>Ladies flat T-strap sandal with hardware and back zip</p>;;<p>Clean it with branded  Cleaner</p>;;;;;zerotype;;Summer;;No
1851214;SURIE32-Bone-1851214;SURIE;Draft;Flats;ALDO;Adults-Women;Women;;;;Fashion;;2017;US6,ALDOFlats00001167,US6.5,ALDOFlats00001168,US7.5,ALDOFlats00001169,US8.5,ALDOFlats00001170,US9,ALDOFlats00001171,US10,ALDOFlats00001172;4999.00;<p>Ladies flat T-strap sandal with hardware and back zip</p>;;<p>Clean it with branded  Cleaner</p>;;;;;zerotype;;Summer;;No
1851212;SOFFIA96-Black Synthetic-1851212;SOFFIA;Draft;Flats;ALDO;Adults-Women;Women;;;;Fashion;;2017;US6,ALDOFlats00001161,US6.5,ALDOFlats00001162,US7.5,ALDOFlats00001163,US8.5,ALDOFlats00001164,US9,ALDOFlats00001165,US10,ALDOFlats00001166;4999.00;<p>Ladies embellished slide</p>;;<p>Clean it with branded  Cleaner</p>;;;;;zerotype;;Summer;;No
1851211;SOFFIA82-Gold-1851211;SOFFIA;Draft;Flats;ALDO;Adults-Women;Women;;;;Fashion;;2017;US6,ALDOFlats00001155,US6.5,ALDOFlats00001156,US7.5,ALDOFlats00001157,US8.5,ALDOFlats00001158,US9,ALDOFlats00001159,US10,ALDOFlats00001160;4999.00;<p>Ladies embellished slide</p>;;<p>Clean it with branded  Cleaner</p>;;;;;zerotype;;Summer;;No
1851209;SOFFIA81-Silver-1851209;SOFFIA;Draft;Flats;ALDO;Adults-Women;Women;;;;Fashion;;2017;US6,ALDOFlats00001149,US6.5,ALDOFlats00001150,US7.5,ALDOFlats00001151,US8.5,ALDOFlats00001152,US9,ALDOFlats00001153,US10,ALDOFlats00001154;4999.00;<p>Ladies embellished slide</p>;;<p>Clean it with branded  Cleaner</p>;;;;;zerotype;;Summer;;No
1851202;ROQUET97-Black Leather-1851202;ROQUET;Draft;Flats;ALDO;Adults-Women;Women;;;;Fashion;;2017;US6,ALDOFlats00001125,US6.5,ALDOFlats00001126,US7.5,ALDOFlats00001127,US8.5,ALDOFlats00001128,US9,ALDOFlats00001129,US10,ALDOFlats00001130;6999.00;<p>Ladies simple leather flat slide with metal studs</p>;;<p>Clean it with branded  Cleaner</p>;;;;;zerotype;;Summer;;No
1851200;ORIETTA96-Black Synthetic-1851200;ORIETTA;Draft;Flats;ALDO;Adults-Women;Women;;;;Fashion;;2017;US6,ALDOFlats00001119,US6.5,ALDOFlats00001120,US7.5,ALDOFlats00001121,US8.5,ALDOFlats00001122,US9,ALDOFlats00001123,US10,ALDOFlats00001124;4990.00;<p>Ladies feminine thong</p>;;<p>Clean it with branded  Cleaner</p>;;;;;zerotype;;Summer;;No
1851198;ORIETTA82-Gold-1851198;ORIETTA;Draft;Flats;ALDO;Adults-Women;Women;;;;Fashion;;2017;US6,ALDOFlats00001113,US6.5,ALDOFlats00001114,US7.5,ALDOFlats00001115,US8.5,ALDOFlats00001116,US9,ALDOFlats00001117,US10,ALDOFlats00001118;4990.00;<p>Ladies feminine thong</p>;;<p>Clean it with branded  Cleaner</p>;;;;;zerotype;;Summer;;No
1851196;ORIETTA24-Brown Miscellaneous-1851196;ORIETTA;Draft;Flats;ALDO;Adults-Women;Women;;;;Fashion;;2017;US6,ALDOFlats00001107,US6.5,ALDOFlats00001108,US7.5,ALDOFlats00001109,US8.5,ALDOFlats00001110,US9,ALDOFlats00001111,US10,ALDOFlats00001112;4990.00;<p>Ladies feminine thong</p>;;<p>Clean it with branded  Cleaner</p>;;;;;zerotype;;Summer;;No
1851194;MAXXIM96-Black Synthetic-1851194;MAXXIM;Draft;Flats;ALDO;Adults-Women;Women;;;;Fashion;;2017;US6,ALDOFlats00001101,US6.5,ALDOFlats00001102,US7.5,ALDOFlats00001103,US8.5,ALDOFlats00001104,US9,ALDOFlats00001105,US10,ALDOFlats00001106;6999.00;<p>Ladies simple two-piece footbed sandal with buckle fastener</p>;;<p>Clean it with branded  Cleaner</p>;;;;;zerotype;;Summer;;No
1851192;MAXXIM81-Silver-1851192;MAXXIM;Draft;Flats;ALDO;Adults-Women;Women;;;;Fashion;;2017;US6,ALDOFlats00001095,US6.5,ALDOFlats00001096,US7.5,ALDOFlats00001097,US8.5,ALDOFlats00001098,US9,ALDOFlats00001099,US10,ALDOFlats00001100;6999.00;<p>Ladies simple two-piece footbed sandal with buckle fastener</p>;;<p>Clean it with branded  Cleaner</p>;;;;;zerotype;;Summer;;No
1851191;MARYANE96-Black Synthetic-1851191;MARYANE;Draft;Flats;ALDO;Adults-Women;Women;;;;Fashion;;2017;US6,ALDOFlats00001089,US6.5,ALDOFlats00001090,US7.5,ALDOFlats00001091,US8.5,ALDOFlats00001092,US9,ALDOFlats00001093,US10,ALDOFlats00001094;4999.00;<p>Ladies high vamp flat sandal with ankle buckle fastener</p>;;<p>Clean it with branded  Cleaner</p>;;;;;zerotype;;Summer;;No
1851189;MARYANE9-Denim-1851189;MARYANE;Draft;Flats;ALDO;Adults-Women;Women;;;;Fashion;;2017;US6,ALDOFlats00001083,US6.5,ALDOFlats00001084,US7.5,ALDOFlats00001085,US8.5,ALDOFlats00001086,US9,ALDOFlats00001087,US10,ALDOFlats00001088;4999.00;<p>Ladies high vamp flat sandal with ankle buckle fastener</p>;;<p>Clean it with branded  Cleaner</p>;;;;;zerotype;;Summer;;No
1851187;MARYANE82-Gold-1851187;MARYANE;Draft;Flats;ALDO;Adults-Women;Women;;;;Fashion;;2017;US6,ALDOFlats00001077,US6.5,ALDOFlats00001078,US7.5,ALDOFlats00001079,US8.5,ALDOFlats00001080,US9,ALDOFlats00001081,US10,ALDOFlats00001082;4999.00;<p>Ladies high vamp flat sandal with ankle buckle fastener</p>;;<p>Clean it with branded  Cleaner</p>;;;;;zerotype;;Summer;;No
1851183;KERINA96-Black Synthetic-1851183;KERINA;Draft;Flats;ALDO;Adults-Women;Women;;;;Fashion;;2017;US6,ALDOFlats00001065,US6.5,ALDOFlats00001066,US7.5,ALDOFlats00001067,US8.5,ALDOFlats00001068,US9,ALDOFlats00001069,US10,ALDOFlats00001070;4990.00;<p>Ladies microwedge sandal with ankle buckle fastener</p>;;<p>Clean it with branded  Cleaner</p>;;;;;zerotype;;Summer;;No
1851181;KERINA82-Gold-1851181;KERINA;Draft;Flats;ALDO;Adults-Women;Women;;;;Fashion;;2017;US6,ALDOFlats00001059,US6.5,ALDOFlats00001060,US7.5,ALDOFlats00001061,US8.5,ALDOFlats00001062,US9,ALDOFlats00001063,US10,ALDOFlats00001064;4990.00;<p>Ladies microwedge sandal with ankle buckle fastener</p>;;<p>Clean it with branded  Cleaner</p>;;;;;zerotype;;Summer;;No
1851178;KERINA32-Bone-1851178;KERINA;Draft;Flats;ALDO;Adults-Women;Women;;;;Fashion;;2017;US6,ALDOFlats00001053,US6.5,ALDOFlats00001054,US7.5,ALDOFlats00001055,US8.5,ALDOFlats00001056,US9,ALDOFlats00001057,US10,ALDOFlats00001058;4990.00;<p>Ladies microwedge sandal with ankle buckle fastener</p>;;<p>Clean it with branded  Cleaner</p>;;;;;zerotype;;Summer;;No
1851176;KERINA28-Cognac-1851176;KERINA;Draft;Flats;ALDO;Adults-Women;Women;;;;Fashion;;2017;US6,ALDOFlats00001047,US6.5,ALDOFlats00001048,US7.5,ALDOFlats00001049,US8.5,ALDOFlats00001050,US9,ALDOFlats00001051,US10,ALDOFlats00001052;4990.00;<p>Ladies microwedge sandal with ankle buckle fastener</p>;;<p>Clean it with branded  Cleaner</p>;;;;;zerotype;;Summer;;No
1851175;JONI97-Black Leather-1851175;JONI;Draft;Flats;ALDO;Adults-Women;Women;;;;Fashion;;2017;US6,ALDOFlats00001041,US6.5,ALDOFlats00001042,US7.5,ALDOFlats00001043,US8.5,ALDOFlats00001044,US9,ALDOFlats00001045,US10,ALDOFlats00001046;5999.00;<p>Ladies flat T-strap sandal with buckle ornament and fastener</p>;;<p>Clean it with branded  Cleaner</p>;;;;;zerotype;;Summer;;No
1851173;JONI82-Gold-1851173;JONI;Draft;Flats;ALDO;Adults-Women;Women;;;;Fashion;;2017;US6,ALDOFlats00001035,US6.5,ALDOFlats00001036,US7.5,ALDOFlats00001037,US8.5,ALDOFlats00001038,US9,ALDOFlats00001039,US10,ALDOFlats00001040;5999.00;<p>Ladies flat T-strap sandal with buckle ornament and fastener</p>;;<p>Clean it with branded  Cleaner</p>;;;;;zerotype;;Summer;;No
1851171;GWENNA92-Black Miscellaneous-1851171;GWENNA;Draft;Flats;ALDO;Adults-Women;Women;;;;Fashion;;2017;US6,ALDOFlats00001029,US6.5,ALDOFlats00001030,US7.5,ALDOFlats00001031,US8.5,ALDOFlats00001032,US9,ALDOFlats00001033,US10,ALDOFlats00001034;6999.00;<p>Ladies two piece leather flat sandal</p>;;<p>Clean it with branded  Cleaner</p>;;;;;zerotype;;Summer;;No
1851169;GWENNA62-Red-1851169;GWENNA;Draft;Flats;ALDO;Adults-Women;Women;;;;Fashion;;2017;US6,ALDOFlats00001023,US6.5,ALDOFlats00001024,US7.5,ALDOFlats00001025,US8.5,ALDOFlats00001026,US9,ALDOFlats00001027,US10,ALDOFlats00001028;6999.00;<p>Ladies two piece leather flat sandal</p>;;<p>Clean it with branded  Cleaner</p>;;;;;zerotype;;Summer;;No
1851167;GAELLA96-Black Synthetic-1851167;GAELLA;Draft;Flats;ALDO;Adults-Women;Women;;;;Fashion;;2017;US6,ALDOFlats00001017,US6.5,ALDOFlats00001018,US7.5,ALDOFlats00001019,US8.5,ALDOFlats00001020,US9,ALDOFlats00001021,US10,ALDOFlats00001022;4999.00;<p>Ladies thong PU sandal with metal ornament and microwedge</p>;;<p>Clean it with branded  Cleaner</p>;;;;;zerotype;;Summer;;No
1851164;GAELLA82-Gold-1851164;GAELLA;Draft;Flats;ALDO;Adults-Women;Women;;;;Fashion;;2017;US6,ALDOFlats00001011,US6.5,ALDOFlats00001012,US7.5,ALDOFlats00001013,US8.5,ALDOFlats00001014,US9,ALDOFlats00001015,US10,ALDOFlats00001016;4999.00;<p>Ladies thong PU sandal with metal ornament and microwedge</p>;;<p>Clean it with branded  Cleaner</p>;;;;;zerotype;;Summer;;No
1851162;GAELLA32-Bone-1851162;GAELLA;Draft;Flats;ALDO;Adults-Women;Women;;;;Fashion;;2017;US6,ALDOFlats00001005,US6.5,ALDOFlats00001006,US7.5,ALDOFlats00001007,US8.5,ALDOFlats00001008,US9,ALDOFlats00001009,US10,ALDOFlats00001010;4999.00;<p>Ladies thong PU sandal with metal ornament and microwedge</p>;;<p>Clean it with branded  Cleaner</p>;;;;;zerotype;;Summer;;No
1851160;EVLYN96-Black Synthetic-1851160;EVLYN;Draft;Flats;ALDO;Adults-Women;Women;;;;Fashion;;2017;US6,ALDOFlats00000999,US6.5,ALDOFlats00001000,US7.5,ALDOFlats00001001,US8.5,ALDOFlats00001002,US9,ALDOFlats00001003,US10,ALDOFlats00001004;6999.00;<p>Ladies flat sandal with metal ornament and buckle fastener</p>;;<p>Clean it with branded  Cleaner</p>;;;;;zerotype;;Summer;;No
1851159;EVLYN28-Cognac-1851159;EVLYN;Draft;Flats;ALDO;Adults-Women;Women;;;;Fashion;;2017;US6,ALDOFlats00000993,US6.5,ALDOFlats00000994,US7.5,ALDOFlats00000995,US8.5,ALDOFlats00000996,US9,ALDOFlats00000997,US10,ALDOFlats00000998;6999.00;<p>Ladies flat sandal with metal ornament and buckle fastener</p>;;<p>Clean it with branded  Cleaner</p>;;;;;zerotype;;Summer;;No
1851148;ZOANNA96-Black Synthetic-1851148;ZOANNA;Draft;Flats;ALDO;Adults-Women;Women;;;;Fashion;;2017;US6,ALDOFlats00000957,US6.5,ALDOFlats00000958,US7.5,ALDOFlats00000959,US8.5,ALDOFlats00000960,US9,ALDOFlats00000961,US10,ALDOFlats00000962;3999.00;<p>Ladies hooded thong sandal with metal ornament</p>;;<p>Clean it with branded  Cleaner</p>;;;;;zerotype;;Summer;;No
1851146;ZOANNA82-Gold-1851146;ZOANNA;Draft;Flats;ALDO;Adults-Women;Women;;;;Fashion;;2017;US6,ALDOFlats00000951,US6.5,ALDOFlats00000952,US7.5,ALDOFlats00000953,US8.5,ALDOFlats00000954,US9,ALDOFlats00000955,US10,ALDOFlats00000956;3999.00;<p>Ladies hooded thong sandal with metal ornament</p>;;<p>Clean it with branded  Cleaner</p>;;;;;zerotype;;Summer;;No
1851144;ZOANNA70-White-1851144;ZOANNA;Draft;Flats;ALDO;Adults-Women;Women;;;;Fashion;;2017;US6,ALDOFlats00000945,US6.5,ALDOFlats00000946,US7.5,ALDOFlats00000947,US8.5,ALDOFlats00000948,US9,ALDOFlats00000949,US10,ALDOFlats00000950;3999.00;<p>Ladies hooded thong sandal with metal ornament</p>;;<p>Clean it with branded  Cleaner</p>;;;;;zerotype;;Summer;;No
1851143;ZOANNA28-Cognac-1851143;ZOANNA;Draft;Flats;ALDO;Adults-Women;Women;;;;Fashion;;2017;US6,ALDOFlats00000939,US6.5,ALDOFlats00000940,US7.5,ALDOFlats00000941,US8.5,ALDOFlats00000942,US9,ALDOFlats00000943,US10,ALDOFlats00000944;3999.00;<p>Ladies hooded thong sandal with metal ornament</p>;;<p>Clean it with branded  Cleaner</p>;;;;;zerotype;;Summer;;No
1851133;OCEANE28-Cognac-1851133;OCEANE;Draft;Flats;ALDO;Adults-Women;Women;;;;Fashion;;2017;US6,ALDOFlats00000909,US6.5,ALDOFlats00000910,US7.5,ALDOFlats00000911,US8.5,ALDOFlats00000912,US9,ALDOFlats00000913,US10,ALDOFlats00000914;3999.00;<p>Ladies flip flop with metal ornament</p>;;<p>Clean it with branded  Cleaner</p>;;;;;zerotype;;Summer;;No
1851132;PAESSA28-Cognac-1851132;PAESSA;Draft;Flats;ALDO;Adults-Women;Women;;;;Fashion;;2017;US6,ALDOFlats00000903,US6.5,ALDOFlats00000904,US7.5,ALDOFlats00000905,US8.5,ALDOFlats00000906,US9,ALDOFlats00000907,US10,ALDOFlats00000908;4999.00;<p>Ladies round toe ballerina with laser cut overlay and stud detail.</p>;;<p>Clean it with branded  Cleaner</p>;;;;;zerotype;;Summer;;No
1851125;LUISI9-Denim-1851125;LUISI;Draft;Flats;ALDO;Adults-Women;Women;;;;Fashion;;2017;US6,ALDOFlats00000879,US6.5,ALDOFlats00000880,US7.5,ALDOFlats00000881,US8.5,ALDOFlats00000882,US9,ALDOFlats00000883,US10,ALDOFlats00000884;4999.00;<p>Pointy toe dandy slip on</p>;;<p>Clean it with branded  Cleaner</p>;;;;;zerotype;;Summer;;No
1851123;LUISI2-Navy-1851123;LUISI;Draft;Flats;ALDO;Adults-Women;Women;;;;Fashion;;2017;US6,ALDOFlats00000873,US6.5,ALDOFlats00000874,US7.5,ALDOFlats00000875,US8.5,ALDOFlats00000876,US9,ALDOFlats00000877,US10,ALDOFlats00000878;4999.00;<p>Pointy toe dandy slip on</p>;;<p>Clean it with branded  Cleaner</p>;;;;;zerotype;;Summer;;No
1851122;KAYDIEN97-Black Leather-1851122;KAYDIEN;Draft;Flats;ALDO;Adults-Women;Women;;;;Fashion;;2017;US6,ALDOFlats00000867,US6.5,ALDOFlats00000868,US7.5,ALDOFlats00000869,US8.5,ALDOFlats00000870,US9,ALDOFlats00000871,US10,ALDOFlats00000872;5999.00;<p>Round toe ballerina with laser cut detail along top line</p>;;<p>Clean it with branded  Cleaner</p>;;;;;zerotype;;Summer;;No
1851120;KAYDIEN82-Gold-1851120;KAYDIEN;Draft;Flats;ALDO;Adults-Women;Women;;;;Fashion;;2017;US6,ALDOFlats00000861,US6.5,ALDOFlats00000862,US7.5,ALDOFlats00000863,US8.5,ALDOFlats00000864,US9,ALDOFlats00000865,US10,ALDOFlats00000866;5999.00;<p>Round toe ballerina with laser cut detail along top line</p>;;<p>Clean it with branded  Cleaner</p>;;;;;zerotype;;Summer;;No
1851116;FALORISA82-Gold-1851116;FALORISA;Draft;Flats;ALDO;Adults-Women;Women;;;;Fashion;;2017;US6,ALDOFlats00000849,US6.5,ALDOFlats00000850,US7.5,ALDOFlats00000851,US8.5,ALDOFlats00000852,US9,ALDOFlats00000853,US10,ALDOFlats00000854;5999.00;<p>Round toe two piece ballet with ankle strap</p>;;<p>Clean it with branded  Cleaner</p>;;;;;zerotype;;Summer;;No
1851115;CHERRYHILL97-Black Leather-1851115;CHERRYHILL;Draft;Flats;ALDO;Adults-Women;Women;;;;Fashion;;2017;US6,ALDOFlats00000843,US6.5,ALDOFlats00000844,US7.5,ALDOFlats00000845,US8.5,ALDOFlats00000846,US9,ALDOFlats00000847,US10,ALDOFlats00000848;6999.00;<p>Pointy toe casual flat dandy with keeper detail</p>;;<p>Clean it with branded  Cleaner</p>;;;;;zerotype;;Summer;;No
1851113;CHERRYHILL81-Silver-1851113;CHERRYHILL;Draft;Flats;ALDO;Adults-Women;Women;;;;Fashion;;2017;US6,ALDOFlats00000837,US6.5,ALDOFlats00000838,US7.5,ALDOFlats00000839,US8.5,ALDOFlats00000840,US9,ALDOFlats00000841,US10,ALDOFlats00000842;6999.00;<p>Pointy toe casual flat dandy with keeper detail</p>;;<p>Clean it with branded  Cleaner</p>;;;;;zerotype;;Summer;;No
1851111;BEIWEN98-Black-1851111;BEIWEN;Draft;Flats;ALDO;Adults-Women;Women;;;;Fashion;;2017;US6,ALDOFlats00000831,US6.5,ALDOFlats00000832,US7.5,ALDOFlats00000833,US8.5,ALDOFlats00000834,US9,ALDOFlats00000835,US10,ALDOFlats00000836;4999.00;<p>Round toe a-line espadrille</p>;;<p>Clean it with branded  Cleaner</p>;;;;;zerotype;;Summer;;No
1851109;BEIWEN9-Denim-1851109;BEIWEN;Draft;Flats;ALDO;Adults-Women;Women;;;;Fashion;;2017;US6,ALDOFlats00000825,US6.5,ALDOFlats00000826,US7.5,ALDOFlats00000827,US8.5,ALDOFlats00000828,US9,ALDOFlats00000829,US10,ALDOFlats00000830;4999.00;<p>Round toe a-line espadrille</p>;;<p>Clean it with branded  Cleaner</p>;;;;;zerotype;;Summer;;No
1851108;BEIWEN82-Gold-1851108;BEIWEN;Draft;Flats;ALDO;Adults-Women;Women;;;;Fashion;;2017;US6,ALDOFlats00000819,US6.5,ALDOFlats00000820,US7.5,ALDOFlats00000821,US8.5,ALDOFlats00000822,US9,ALDOFlats00000823,US10,ALDOFlats00000824;4999.00;<p>Round toe a-line espadrille</p>;;<p>Clean it with branded  Cleaner</p>;;;;;zerotype;;Summer;;No
1851106;BEIWEN81-Silver-1851106;BEIWEN;Draft;Flats;ALDO;Adults-Women;Women;;;;Fashion;;2017;US6,ALDOFlats00000813,US6.5,ALDOFlats00000814,US7.5,ALDOFlats00000815,US8.5,ALDOFlats00000816,US9,ALDOFlats00000817,US10,ALDOFlats00000818;4999.00;<p>Round toe a-line espadrille</p>;;<p>Clean it with branded  Cleaner</p>;;;;;zerotype;;Summer;;No
1851104;AUCHI96-Black Synthetic-1851104;AUCHI;Draft;Flats;ALDO;Adults-Women;Women;;;;Fashion;;2017;US6,ALDOFlats00000807,US6.5,ALDOFlats00000808,US7.5,ALDOFlats00000809,US8.5,ALDOFlats00000810,US9,ALDOFlats00000811,US10,ALDOFlats00000812;5999.00;<p>Round toe casual flat dandy with tassels</p>;;<p>Clean it with branded  Cleaner</p>;;;;;zerotype;;Summer;;No
1851102;AUCHI82-Gold-1851102;AUCHI;Draft;Flats;ALDO;Adults-Women;Women;;;;Fashion;;2017;US6,ALDOFlats00000801,US6.5,ALDOFlats00000802,US7.5,ALDOFlats00000803,US8.5,ALDOFlats00000804,US9,ALDOFlats00000805,US10,ALDOFlats00000806;5999.00;<p>Round toe casual flat dandy with tassels</p>;;<p>Clean it with branded  Cleaner</p>;;;;;zerotype;;Summer;;No
1851101;AUCHI32-Bone-1851101;AUCHI;Draft;Flats;ALDO;Adults-Women;Women;;;;Fashion;;2017;US6,ALDOFlats00000795,US6.5,ALDOFlats00000796,US7.5,ALDOFlats00000797,US8.5,ALDOFlats00000798,US9,ALDOFlats00000799,US10,ALDOFlats00000800;5999.00;<p>Round toe casual flat dandy with tassels</p>;;<p>Clean it with branded  Cleaner</p>;;;;;zerotype;;Summer;;No
1851099;ASALIWET97-Black Leather-1851099;ASALIWET;Draft;Flats;ALDO;Adults-Women;Women;;;;Fashion;;2017;US6,ALDOFlats00000789,US6.5,ALDOFlats00000790,US7.5,ALDOFlats00000791,US8.5,ALDOFlats00000792,US9,ALDOFlats00000793,US10,ALDOFlats00000794;7999.00;<p>Ladies loafer with hardware detail on vamp</p>;;<p>Clean it with branded  Cleaner</p>;;;;;zerotype;;Summer;;No
1850862;QENAN98-Black-1850862;QENAN;Draft;Handbags;ALDO;Adults-Women;Women;;;;Fashion;;2017;Onesize,ALDOHDBG00000168;5999.00;;;;;;;;zerotype;;Summer;;No
1850861;QENAN62-Red-1850861;QENAN;Draft;Handbags;ALDO;Adults-Women;Women;;;;Fashion;;2017;Onesize,ALDOHDBG00000167;5999.00;;;;;;;;zerotype;;Summer;;No
1850860;FAIR98-Black-1850860;FAIR;Draft;Handbags;ALDO;Adults-Women;Women;;;;Fashion;;2017;Onesize,ALDOHDBG00000166;4999.00;;;;;;;;zerotype;;Summer;;No
1850859;FAIR62-Red-1850859;FAIR;Draft;Handbags;ALDO;Adults-Women;Women;;;;Fashion;;2017;Onesize,ALDOHDBG00000165;4999.00;;;;;;;;zerotype;;Summer;;No
1850858;FAIR4-Blue-1850858;FAIR;Draft;Handbags;ALDO;Adults-Women;Women;;;;Fashion;;2017;Onesize,ALDOHDBG00000164;4999.00;;;;;;;;zerotype;;Summer;;No
1850857;ENROIT82-Gold-1850857;ENROIT;Draft;Handbags;ALDO;Adults-Women;Women;;;;Fashion;;2017;Onesize,ALDOHDBG00000163;5999.00;;;;;;;;zerotype;;Summer;;No
1850856;AFALIAN35-Nude-1850856;AFALIAN;Draft;Handbags;ALDO;Adults-Women;Women;;;;Fashion;;2017;Onesize,ALDOHDBG00000162;6999.00;;;;;;;;zerotype;;Summer;;No
1850855;AFALIAN32-Bone-1850855;AFALIAN;Draft;Handbags;ALDO;Adults-Women;Women;;;;Fashion;;2017;Onesize,ALDOHDBG00000161;6999.00;;;;;;;;zerotype;;Summer;;No
1850854;WERLINGER98-Black-1850854;WERLINGER;Draft;Handbags;ALDO;Adults-Women;Women;;;;Fashion;;2017;Onesize,ALDOHDBG00000160;6999.00;;;;;;;;zerotype;;Summer;;No
1850852;WERLINGER85-Maroon-1850852;WERLINGER;Draft;Handbags;ALDO;Adults-Women;Women;;;;Fashion;;2017;Onesize,ALDOHDBG00000159;6999.00;;;;;;;;zerotype;;Summer;;No
1850851;WERLINGER28-Tan-1850851;WERLINGER;Draft;Handbags;ALDO;Adults-Women;Women;;;;Fashion;;2017;Onesize,ALDOHDBG00000158;6999.00;;;;;;;;zerotype;;Summer;;No
1850850;VERTIZ36-taupe-1850850;VERTIZ;Draft;Handbags;ALDO;Adults-Women;Women;;;;Fashion;;2017;Onesize,ALDOHDBG00000157;6999.00;;;;;;;;zerotype;;Summer;;No
1850849;TOOELE98-Black-1850849;TOOELE;Draft;Handbags;ALDO;Adults-Women;Women;;;;Fashion;;2017;Onesize,ALDOHDBG00000156;7499.00;;;;;;;;zerotype;;Summer;;No
1850848;TOOELE85-Champagne-1850848;TOOELE;Draft;Handbags;ALDO;Adults-Women;Women;;;;Fashion;;2017;Onesize,ALDOHDBG00000155;7499.00;;;;;;;;zerotype;;Summer;;No
1850847;TOOELE28-Tan-1850847;TOOELE;Draft;Handbags;ALDO;Adults-Women;Women;;;;Fashion;;2017;Onesize,ALDOHDBG00000154;7499.00;;;;;;;;zerotype;;Summer;;No
1850846;SELESTINO98-Black-1850846;SELESTINO;Draft;Handbags;ALDO;Adults-Women;Women;;;;Fashion;;2017;Onesize,ALDOHDBG00000153;6999.00;;;;;;;;zerotype;;Summer;;No
1850845;SELESTINO28-Tan-1850845;SELESTINO;Draft;Handbags;ALDO;Adults-Women;Women;;;;Fashion;;2017;Onesize,ALDOHDBG00000152;6999.00;;;;;;;;zerotype;;Summer;;No
1850844;PRILISSA90-Black-1850844;PRILISSA;Draft;Handbags;ALDO;Adults-Women;Women;;;;Fashion;;2017;Onesize,ALDOHDBG00000151;6999.00;;;;;;;;zerotype;;Summer;;No
1850841;PRILISSA36-taupe-1850841;PRILISSA;Draft;Handbags;ALDO;Adults-Women;Women;;;;Fashion;;2017;Onesize,ALDOHDBG00000148;6999.00;;;;;;;;zerotype;;Summer;;No
1850840;PLATACI35-Nude-1850840;PLATACI;Draft;Handbags;ALDO;Adults-Women;Women;;;;Fashion;;2017;Onesize,ALDOHDBG00000147;6999.00;;;;;;;;zerotype;;Summer;;No
1850839;PIEDIGROTTA92-Black-1850839;PIEDIGROTTA;Draft;Handbags;ALDO;Adults-Women;Women;;;;Fashion;;2017;Onesize,ALDOHDBG00000146;3999.00;;;;;;;;zerotype;;Summer;;No
1850838;GLIWEN35-Nude-1850838;GLIWEN;Draft;Handbags;ALDO;Adults-Women;Women;;;;Fashion;;2017;Onesize,ALDOHDBG00000145;6999.00;;;;;;;;zerotype;;Summer;;No
1850837;GLIWEN32-Bone-1850837;GLIWEN;Draft;Handbags;ALDO;Adults-Women;Women;;;;Fashion;;2017;Onesize,ALDOHDBG00000144;6999.00;;;;;;;;zerotype;;Summer;;No
1850836;GIRTMAN28-Tan-1850836;GIRTMAN;Draft;Handbags;ALDO;Adults-Women;Women;;;;Fashion;;2017;Onesize,ALDOHDBG00000143;5999.00;;;;;;;;zerotype;;Summer;;No
1850835;ETIARWEN92-Black-1850835;ETIARWEN;Draft;Handbags;ALDO;Adults-Women;Women;;;;Fashion;;2017;Onesize,ALDOHDBG00000142;7499.00;;;;;;;;zerotype;;Summer;;No
1850834;DRAGOUNOVA92-Black-1850834;DRAGOUNOVA;Draft;Handbags;ALDO;Adults-Women;Women;;;;Fashion;;2017;Onesize,ALDOHDBG00000141;6499.00;;;;;;;;zerotype;;Summer;;No
1850833;CARRULO98-Black-1850833;CARRULO;Draft;Handbags;ALDO;Adults-Women;Women;;;;Fashion;;2017;Onesize,ALDOHDBG00000140;5999.00;;;;;;;;zerotype;;Summer;;No
1850832;CARRULO28-Tan-1850832;CARRULO;Draft;Handbags;ALDO;Adults-Women;Women;;;;Fashion;;2017;Onesize,ALDOHDBG00000139;5999.00;;;;;;;;zerotype;;Summer;;No
1850831;CADOADIA28-Tan-1850831;CADOADIA;Draft;Handbags;ALDO;Adults-Women;Women;;;;Fashion;;2017;Onesize,ALDOHDBG00000138;6999.00;;;;;;;;zerotype;;Summer;;No
1850830;ACIRI98-Black-1850830;ACIRI;Draft;Handbags;ALDO;Adults-Women;Women;;;;Fashion;;2017;Onesize,ALDOHDBG00000137;4999.00;;;;;;;;zerotype;;Summer;;No
1850829;ACIRI28-Tan-1850829;ACIRI;Draft;Handbags;ALDO;Adults-Women;Women;;;;Fashion;;2017;Onesize,ALDOHDBG00000136;4999.00;;;;;;;;zerotype;;Summer;;No
1850827;IBIALLA92-Multi-1850827;IBIALLA;Draft;Wallets;ALDO;Adults-Women;Women;;;;Fashion;;2017;Onesize,ALDOWLLT00000013;3999.00;;;;;;;;zerotype;;Summer;;No
