Style ID;Vendor Article Number;Vendor Article Name;Active Status;Article type;Brand;Age Group;Gender;Base Colour;Colour1;Colour2;Fashion Type;Usage;Year;Size - SKU code pair;MRP;Style Description;Style Note;Materials and Care Description;Size and Fit Description;Size Chart Path;Product Display Name;Tags;Product Type;Classification Brand;Season;Comments;Upload Images
2120878;PSW51708175-Yellow-2120878;Sweaters;Draft;Sweaters;Peter England;Adults-Men;Men;Yellow;;;Fashion;;2017;L,PTENSWTR00001618,M,PTENSWTR00001619,XL,PTENSWTR00001620,XXL,PTENSWTR00001621,3XL,PTENSWTR00001622,S,PTENSWTR00001623;1599.00;;;<p>100%Cotton</p>;;;;;zerotype;;Fall;;No
2120877;PSW51708112-Brown-2120877;Sweaters;Draft;Sweaters;Peter England;Adults-Men;Men;Brown;;;Fashion;;2017;S,PTENSWTR00001612,M,PTENSWTR00001613,XXL,PTENSWTR00001614,L,PTENSWTR00001615,XL,PTENSWTR00001616,3XL,PTENSWTR00001617;2399.00;;;<p>100%Acrylic</p>;;;;;zerotype;;Fall;;No
2120876;PSW51708109-Black-2120876;Sweaters;Draft;Sweaters;Peter England;Adults-Men;Men;Black;;;Fashion;;2017;S,PTENSWTR00001606,L,PTENSWTR00001607,XL,PTENSWTR00001608,M,PTENSWTR00001609,3XL,PTENSWTR00001610,XXL,PTENSWTR00001611;1899.00;;;<p>100%Acrylic</p>;;;;;zerotype;;Fall;;No
2120875;PSW51708106-Green-2120875;Sweaters;Draft;Sweaters;Peter England;Adults-Men;Men;Green;;;Fashion;;2017;L,PTENSWTR00001600,XL,PTENSWTR00001601,S,PTENSWTR00001602,XXL,PTENSWTR00001603,M,PTENSWTR00001604,3XL,PTENSWTR00001605;1599.00;;;<p>100%Acrylic</p>;;;;;zerotype;;Fall;;No
2120874;PSW51708105-Maroon-2120874;Sweaters;Draft;Sweaters;Peter England;Adults-Men;Men;Maroon;;;Fashion;;2017;3XL,PTENSWTR00001594,XL,PTENSWTR00001595,M,PTENSWTR00001596,XXL,PTENSWTR00001597,S,PTENSWTR00001598,L,PTENSWTR00001599;1599.00;;;<p>100%Acrylic</p>;;;;;zerotype;;Fall;;No
2120873;ESW51709615-Brown-2120873;Sweaters;Draft;Sweaters;Peter England;Adults-Men;Men;Brown;;;Fashion;;2017;M,PTENSWTR00001588,S,PTENSWTR00001589,XL,PTENSWTR00001590,XXL,PTENSWTR00001591,3XL,PTENSWTR00001592,L,PTENSWTR00001593;1599.00;;;<p>100%Acrylic</p>;;;;;zerotype;;Fall;;No
2120872;ESW51708072-Maroon-2120872;Sweaters;Draft;Sweaters;Peter England;Adults-Men;Men;Maroon;;;Fashion;;2017;L,PTENSWTR00001582,M,PTENSWTR00001583,3XL,PTENSWTR00001584,XL,PTENSWTR00001585,S,PTENSWTR00001586,XXL,PTENSWTR00001587;2699.00;;;<p>100%Wool</p>;;;;;zerotype;;Fall;;No
2120871;ESW51708069-Beige-2120871;Sweaters;Draft;Sweaters;Peter England;Adults-Men;Men;Beige;;;Fashion;;2017;3XL,PTENSWTR00001576,L,PTENSWTR00001577,M,PTENSWTR00001578,XL,PTENSWTR00001579,XXL,PTENSWTR00001580,S,PTENSWTR00001581;2699.00;;;<p>100%Wool</p>;;;;;zerotype;;Fall;;No
2120870;ESW51708062-Peach-2120870;Sweaters;Draft;Sweaters;Peter England;Adults-Men;Men;Peach;;;Fashion;;2017;XL,PTENSWTR00001570,XXL,PTENSWTR00001571,3XL,PTENSWTR00001572,S,PTENSWTR00001573,M,PTENSWTR00001574,L,PTENSWTR00001575;1999.00;;;<p>100%Cotton</p>;;;;;zerotype;;Fall;;No
2120869;ESW51708060-Red-2120869;Sweaters;Draft;Sweaters;Peter England;Adults-Men;Men;Red;;;Fashion;;2017;S,PTENSWTR00001564,M,PTENSWTR00001565,XL,PTENSWTR00001566,XXL,PTENSWTR00001567,3XL,PTENSWTR00001568,L,PTENSWTR00001569;1999.00;;;<p>100%Cotton</p>;;;;;zerotype;;Fall;;No
2120868;ESW51708042-Grey-2120868;Sweaters;Draft;Sweaters;Peter England;Adults-Men;Men;Grey;;;Fashion;;2017;M,PTENSWTR00001558,L,PTENSWTR00001559,S,PTENSWTR00001560,XL,PTENSWTR00001561,XXL,PTENSWTR00001562,3XL,PTENSWTR00001563;2399.00;;;<p>100%Cotton</p>;;;;;zerotype;;Fall;;No
2120867;ESW51708036-Maroon-2120867;Sweaters;Draft;Sweaters;Peter England;Adults-Men;Men;Maroon;;;Fashion;;2017;XL,PTENSWTR00001552,M,PTENSWTR00001553,3XL,PTENSWTR00001554,L,PTENSWTR00001555,XXL,PTENSWTR00001556,S,PTENSWTR00001557;1999.00;;;<p>100%Cotton</p>;;;;;zerotype;;Fall;;No
2120866;ESW51708035-Blue-2120866;Sweaters;Draft;Sweaters;Peter England;Adults-Men;Men;Blue;;;Fashion;;2017;M,PTENSWTR00001546,L,PTENSWTR00001547,S,PTENSWTR00001548,XXL,PTENSWTR00001549,3XL,PTENSWTR00001550,XL,PTENSWTR00001551;1999.00;;;<p>100%Cotton</p>;;;;;zerotype;;Fall;;No
2120865;ESW51708032-Yellow-2120865;Sweaters;Draft;Sweaters;Peter England;Adults-Men;Men;Yellow;;;Fashion;;2017;S,PTENSWTR00001540,XL,PTENSWTR00001541,XXL,PTENSWTR00001542,3XL,PTENSWTR00001543,M,PTENSWTR00001544,L,PTENSWTR00001545;1999.00;;;<p>100%Cotton</p>;;;;;zerotype;;Fall;;No
2120864;ESW51708023-Grey-2120864;Sweaters;Draft;Sweaters;Peter England;Adults-Men;Men;Grey;;;Fashion;;2017;3XL,PTENSWTR00001534,XXL,PTENSWTR00001535,M,PTENSWTR00001536,XL,PTENSWTR00001537,L,PTENSWTR00001538,S,PTENSWTR00001539;1899.00;;;<p>100%Cotton</p>;;;;;zerotype;;Fall;;No
