Style ID;Vendor Article Number;Vendor Article Name;Active Status;Article type;Brand;Age Group;Gender;Base Colour;Colour1;Colour2;Fashion Type;Usage;Year;Size - SKU code pair;MRP;Style Description;Style Note;Materials and Care Description;Size and Fit Description;Size Chart Path;Product Display Name;Tags;Product Type;Classification Brand;Season;Comments;Upload Images
2296445;1701-17-8901234098790-Beige-2296445;Shorts;Draft;Shorts;Bruun & Stengade;Adults-Men;Men;Beige;;;Fashion;Casual;2017;36,BRNSSHOR00000009,34,BRNSSHOR00000010,32,BRNSSHOR00000011,30,BRNSSHOR00000012,38,BRNSSHOR00000013;3499.00;;;<p>Machiene Wash</p>;;;NA;;zerotype;;Winter;;No
2296444;1701-15-8901234099988-Blue-2296444;Trousers;Draft;Trousers;Bruun & Stengade;Adults-Men;Men;Blue;;;Fashion;Casual;;34/32,BRNSTRSR00000018,38/32,BRNSTRSR00000019,36/32,BRNSTRSR00000020;4499.00;<p>SS16</p>;;<p>Machiene Wash As Per Tag</p>;;;NA;;zerotype;;;;No
2296443;1701-14-8901234099797-White Black-2296443;Trousers;Draft;Trousers;Bruun & Stengade;Adults-Men;Men;White;Black;;Fashion;Casual;;38/32,BRNSTRSR00000014,36/32,BRNSTRSR00000015,34/32,BRNSTRSR00000016,32/32,BRNSTRSR00000017;3999.00;<p>SS16</p>;;<p>Machiene Wash As Per Tag</p>;;;NA;;zerotype;;;;No
2296442;1701-80-8901234094310-White Grey-2296442;Shirts;Draft;Shirts;Bruun & Stengade;Adults-Men;Men;White;Grey;;Fashion;Formal;2017;40,BRNSSHRT00000390,38,BRNSSHRT00000391,46,BRNSSHRT00000392,44,BRNSSHRT00000393,42,BRNSSHRT00000394;3999.00;<p>SS17</p>;;<p>Machiene Wash</p>;;;NA;;zerotype;;Summer;;No
2296441;1602-66-8901234041802-Navy Blue-2296441;Shirts;Draft;Shirts;Bruun & Stengade;Adults-Men;Men;Navy Blue;;;Fashion;Formal;2016;44,BRNSSHRT00000387,42,BRNSSHRT00000388,40,BRNSSHRT00000389;3999.00;<p>AW16</p>;;<p>Machiene Wash</p>;;;NA;;zerotype;;Winter;;No
2043763;1701-103-Blue-2043763;KISA;Delisted;Shirts;Bruun & Stengade;Adults-Men;Men;Blue;;;Fashion;;2017;38,BRNSSHRT00000019,39,BRNSSHRT00000020,40,BRNSSHRT00000021,41,BRNSSHRT00000022,42,BRNSSHRT00000023,43,BRNSSHRT00000024,44,BRNSSHRT00000025,45,BRNSSHRT00000026,46,BRNSSHRT00000027;3499.00;<p>SS17</p>;;<p>Machiene Wash As Per Tag</p>;;;;;zerotype;;Summer;Requested by Sonakshi Gupta;No
