Style ID;Vendor Article Number;Vendor Article Name;Active Status;Article type;Brand;Age Group;Gender;Base Colour;Colour1;Colour2;Fashion Type;Usage;Year;Size - SKU code pair;MRP;Style Description;Style Note;Materials and Care Description;Size and Fit Description;Size Chart Path;Product Display Name;Tags;Product Type;Classification Brand;Season;Comments;Upload Images
1891572;BB2158_6-7Yrs-Yellow-1891572;Budding Bees Girls Yellow Solid Dress;Draft;Dresses;Budding Bees;Kids-Girls;Girls;;;;Fashion;;2017;2-3Y,BDBSDRSS00001472,4-5Y,BDBSDRSS00001473,5-6Y,BDBSDRSS00001474,6-7Y,BDBSDRSS00001475;1099.00;;;;;;;;zerotype;;Summer;;No
1891571;BB2156_6-7Yrs-Off White-1891571;Budding Bees Girls Off White Embroidered;Draft;Dresses;Budding Bees;Kids-Girls;Girls;;;;Fashion;;2017;2-3Y,BDBSDRSS00001468,4-5Y,BDBSDRSS00001469,5-6Y,BDBSDRSS00001470,6-7Y,BDBSDRSS00001471;1099.00;;;;;;;;zerotype;;Summer;;No
1891570;BB2155_6-7Yrs-Green-1891570;Budding Bees Girls Green Polka Dot Print;Draft;Dresses;Budding Bees;Kids-Girls;Girls;;;;Fashion;;2017;2-3Y,BDBSDRSS00001463,4-5Y,BDBSDRSS00001464,5-6Y,BDBSDRSS00001465,6-7Y,BDBSDRSS00001466;1099.00;;;;;;;;zerotype;;Summer;;No
1891569;BB2111-18-24M-Off White-1891569;Budding Bees Infant Off White Lace Solid;Draft;Dresses;Budding Bees;Kids-Girls;Girls;;;;Fashion;;2017;3-6M,BDBSDRSS00001459,6-12M,BDBSDRSS00001460,12-18M,BDBSDRSS00001461,18-24M,BDBSDRSS00001462;999.00;;;;;;;;zerotype;;Summer;;No
1891568;BB1411_7-8Yrs-Blue-1891568;Budding Bees Girls Blue Floral Fit & Fla;Draft;Dresses;Budding Bees;Kids-Girls;Girls;;;;Fashion;;2017;3-4Y,BDBSDRSS00001455,5-6Y,BDBSDRSS00001456,6-7Y,BDBSDRSS00001457,7-8Y,BDBSDRSS00001458;1099.00;;;;;;;;zerotype;;Summer;;No
1891514;IKWDWTP7085-Maroon-1891514;I Know Maroon Top;Draft;Tops;I Know;Adults-Women;Women;Maroon;;;Core;;2017;XS,IKNWTOPS00000630,S,IKNWTOPS00000631,M,IKNWTOPS00000632,L,IKNWTOPS00000633,XL,IKNWTOPS00000634,XXL,IKNWTOPS00000635;1450.00;;;;;;;;zerotype;;Summer;;No
1891513;IKWDWTP7084-White-1891513;I Know White Top;Draft;Tops;I Know;Adults-Women;Women;White;;;Core;;2017;XS,IKNWTOPS00000624,S,IKNWTOPS00000625,M,IKNWTOPS00000626,L,IKNWTOPS00000627,XL,IKNWTOPS00000628,XXL,IKNWTOPS00000629;1450.00;;;;;;;;zerotype;;Summer;;No
1891512;IKWDWTP7081-White-1891512;I Know White Top;Draft;Tops;I Know;Adults-Women;Women;White;;;Core;;2017;XS,IKNWTOPS00000618,S,IKNWTOPS00000619,M,IKNWTOPS00000620,L,IKNWTOPS00000621,XL,IKNWTOPS00000622,XXL,IKNWTOPS00000623;1000.00;;;;;;;;zerotype;;Summer;;No
1891511;IKWDWTP7080-Peach-1891511;I Know Peach Top;Draft;Tops;I Know;Adults-Women;Women;Peach;;;Core;;2017;XS,IKNWTOPS00000612,S,IKNWTOPS00000613,M,IKNWTOPS00000614,L,IKNWTOPS00000615,XL,IKNWTOPS00000616,XXL,IKNWTOPS00000617;1000.00;;;;;;;;zerotype;;Summer;;No
1891510;IKWDWTP7079-Black-1891510;I Know Black Top;Draft;Tops;I Know;Adults-Women;Women;Black;;;Core;;2017;XS,IKNWTOPS00000606,S,IKNWTOPS00000607,M,IKNWTOPS00000608,L,IKNWTOPS00000609,XL,IKNWTOPS00000610,XXL,IKNWTOPS00000611;1050.00;;;;;;;;zerotype;;Summer;;No
1891509;IKWDWTP7078-Navy Blue-1891509;I Know Navy Blue Top;Draft;Tops;I Know;Adults-Women;Women;Navy Blue;;;Core;;2017;XS,IKNWTOPS00000600,S,IKNWTOPS00000601,M,IKNWTOPS00000602,L,IKNWTOPS00000603,XL,IKNWTOPS00000604,XXL,IKNWTOPS00000605;1050.00;;;;;;;;zerotype;;Summer;;No
1891508;IKWDWTP7075-White-1891508;I Know White Top;Draft;Tops;I Know;Adults-Women;Women;White;;;Core;;2017;XS,IKNWTOPS00000594,S,IKNWTOPS00000595,M,IKNWTOPS00000596,L,IKNWTOPS00000597,XL,IKNWTOPS00000598,XXL,IKNWTOPS00000599;1200.00;;;;;;;;zerotype;;Summer;;No
1891507;IKWDWTP7069-Mustard-1891507;I Know Mustard Top;Draft;Tops;I Know;Adults-Women;Women;Mustard;;;Core;;2017;XS,IKNWTOPS00000588,S,IKNWTOPS00000589,M,IKNWTOPS00000590,L,IKNWTOPS00000591,XL,IKNWTOPS00000592,XXL,IKNWTOPS00000593;1100.00;;;;;;;;zerotype;;Summer;;No
1891506;IKWDWTP7068-White-1891506;I Know White Top;Draft;Tops;I Know;Adults-Women;Women;White;;;Core;;2017;XS,IKNWTOPS00000582,S,IKNWTOPS00000583,M,IKNWTOPS00000584,L,IKNWTOPS00000585,XL,IKNWTOPS00000586,XXL,IKNWTOPS00000587;1100.00;;;;;;;;zerotype;;Summer;;No
1891505;IKWDWTP7067-Black-1891505;I Know Black Top;Draft;Tops;I Know;Adults-Women;Women;Black;;;Core;;2017;XS,IKNWTOPS00000576,S,IKNWTOPS00000577,M,IKNWTOPS00000578,L,IKNWTOPS00000579,XL,IKNWTOPS00000580,XXL,IKNWTOPS00000581;850.00;;;;;;;;zerotype;;Summer;;No
1891504;IKWDWTP7066-Maroon-1891504;I Know Maroon Top;Draft;Tops;I Know;Adults-Women;Women;Maroon;;;Core;;2017;XS,IKNWTOPS00000570,S,IKNWTOPS00000571,M,IKNWTOPS00000572,L,IKNWTOPS00000573,XL,IKNWTOPS00000574,XXL,IKNWTOPS00000575;850.00;;;;;;;;zerotype;;Summer;;No
1891503;IKWDWTP7065-Black-1891503;I Know Black Top;Draft;Tops;I Know;Adults-Women;Women;Black;;;Core;;2017;XS,IKNWTOPS00000564,S,IKNWTOPS00000565,M,IKNWTOPS00000566,L,IKNWTOPS00000567,XL,IKNWTOPS00000568,XXL,IKNWTOPS00000569;1450.00;;;;;;;;zerotype;;Summer;;No
1891502;IKWDWTP7064-Navy Blue-1891502;I Know Navy Blue Top;Draft;Tops;I Know;Adults-Women;Women;Navy Blue;;;Core;;2017;XS,IKNWTOPS00000558,S,IKNWTOPS00000559,M,IKNWTOPS00000560,L,IKNWTOPS00000561,XL,IKNWTOPS00000562,XXL,IKNWTOPS00000563;1450.00;;;;;;;;zerotype;;Summer;;No
1891501;IKWDWTP7063-Black-1891501;I Know Black Top;Draft;Tops;I Know;Adults-Women;Women;Black;;;Core;;2017;XS,IKNWTOPS00000552,S,IKNWTOPS00000553,M,IKNWTOPS00000554,L,IKNWTOPS00000555,XL,IKNWTOPS00000556,XXL,IKNWTOPS00000557;1000.00;;;;;;;;zerotype;;Summer;;No
1891500;IKWDWTP7052-Grey-1891500;I Know Grey Top;Draft;Tops;I Know;Adults-Women;Women;Grey;;;Core;;2017;XS,IKNWTOPS00000546,S,IKNWTOPS00000547,M,IKNWTOPS00000548,L,IKNWTOPS00000549,XL,IKNWTOPS00000550,XXL,IKNWTOPS00000551;1050.00;;;;;;;;zerotype;;Summer;;No
1891499;IKWDWTP7051-White-1891499;I Know White Top;Draft;Tops;I Know;Adults-Women;Women;White;;;Core;;2017;XS,IKNWTOPS00000540,S,IKNWTOPS00000541,M,IKNWTOPS00000542,L,IKNWTOPS00000543,XL,IKNWTOPS00000544,XXL,IKNWTOPS00000545;1400.00;;;;;;;;zerotype;;Summer;;No
1891498;IKWDWTP7050-Black-1891498;I Know Black Top;Draft;Tops;I Know;Adults-Women;Women;Black;;;Core;;2017;XS,IKNWTOPS00000534,S,IKNWTOPS00000535,M,IKNWTOPS00000536,L,IKNWTOPS00000537,XL,IKNWTOPS00000538,XXL,IKNWTOPS00000539;1400.00;;;;;;;;zerotype;;Summer;;No
1891497;IKWDWTP7048-White-1891497;I Know White Top;Draft;Tops;I Know;Adults-Women;Women;White;;;Core;;2017;XS,IKNWTOPS00000528,S,IKNWTOPS00000529,M,IKNWTOPS00000530,L,IKNWTOPS00000531,XL,IKNWTOPS00000532,XXL,IKNWTOPS00000533;1100.00;;;;;;;;zerotype;;Summer;;No
1891496;IKWDWTP7047-Pink-1891496;I Know Pink Top;Draft;Tops;I Know;Adults-Women;Women;Pink;;;Core;;2017;XS,IKNWTOPS00000522,S,IKNWTOPS00000523,M,IKNWTOPS00000524,L,IKNWTOPS00000525,XL,IKNWTOPS00000526,XXL,IKNWTOPS00000527;950.00;;;;;;;;zerotype;;Summer;;No
1891495;IKWDWTP7045-Blue-1891495;I Know Blue Top;Draft;Tops;I Know;Adults-Women;Women;Blue;;;Core;;2017;XS,IKNWTOPS00000516,S,IKNWTOPS00000517,M,IKNWTOPS00000518,L,IKNWTOPS00000519,XL,IKNWTOPS00000520,XXL,IKNWTOPS00000521;800.00;;;;;;;;zerotype;;Summer;;No
1891494;IKWDWTP7043-Blue-1891494;I Know Blue Top;Draft;Tops;I Know;Adults-Women;Women;Blue;;;Core;;2017;XS,IKNWTOPS00000510,S,IKNWTOPS00000511,M,IKNWTOPS00000512,L,IKNWTOPS00000513,XL,IKNWTOPS00000514,XXL,IKNWTOPS00000515;1200.00;;;;;;;;zerotype;;Summer;;No
1891493;IKWDWTP7042-Mustard-1891493;I Know Mustard Top;Draft;Tops;I Know;Adults-Women;Women;Mustard;;;Core;;2017;XS,IKNWTOPS00000504,S,IKNWTOPS00000505,M,IKNWTOPS00000506,L,IKNWTOPS00000507,XL,IKNWTOPS00000508,XXL,IKNWTOPS00000509;1200.00;;;;;;;;zerotype;;Summer;;No
1891492;IKWDWTP7037-Teal-1891492;I Know Teal Top;Draft;Tops;I Know;Adults-Women;Women;Teal;;;Core;;2017;XS,IKNWTOPS00000498,S,IKNWTOPS00000499,M,IKNWTOPS00000500,L,IKNWTOPS00000501,XL,IKNWTOPS00000502,XXL,IKNWTOPS00000503;1050.00;;;;;;;;zerotype;;Summer;;No
1891491;IKWDWTP7030-Blue-1891491;I Know Blue Top;Draft;Tops;I Know;Adults-Women;Women;Blue;;;Core;;2017;XS,IKNWTOPS00000492,S,IKNWTOPS00000493,M,IKNWTOPS00000494,L,IKNWTOPS00000495,XL,IKNWTOPS00000496,XXL,IKNWTOPS00000497;1400.00;;;;;;;;zerotype;;Summer;;No
1891490;IKWDWTP7020-Olive-1891490;I Know Olive Top;Draft;Tops;I Know;Adults-Women;Women;Olive;;;Core;;2017;XS,IKNWTOPS00000486,S,IKNWTOPS00000487,M,IKNWTOPS00000488,L,IKNWTOPS00000489,XL,IKNWTOPS00000490,XXL,IKNWTOPS00000491;950.00;;;;;;;;zerotype;;Summer;;No
1891489;IKWDWTP7018-Peach-1891489;I Know Peach Top;Draft;Tops;I Know;Adults-Women;Women;Peach;;;Core;;2017;XS,IKNWTOPS00000480,S,IKNWTOPS00000481,M,IKNWTOPS00000482,L,IKNWTOPS00000483,XL,IKNWTOPS00000484,XXL,IKNWTOPS00000485;650.00;;;;;;;;zerotype;;Summer;;No
1891488;IKWDWTP7010-Cream-1891488;I Know Cream Top;Draft;Tops;I Know;Adults-Women;Women;Cream;;;Core;;2017;XS,IKNWTOPS00000473,S,IKNWTOPS00000474,M,IKNWTOPS00000475,L,IKNWTOPS00000476,XL,IKNWTOPS00000477,XXL,IKNWTOPS00000479;750.00;;;;;;;;zerotype;;Summer;;No
1891487;IKWDWTP7009-Turquoise Blue-1891487;I Know Turquoise Blue Top;Draft;Tops;I Know;Adults-Women;Women;Turquoise Blue;;;Core;;2017;XS,IKNWTOPS00000467,S,IKNWTOPS00000468,M,IKNWTOPS00000469,L,IKNWTOPS00000470,XL,IKNWTOPS00000471,XXL,IKNWTOPS00000472;750.00;;;;;;;;zerotype;;Summer;;No
1891486;IKWDWTP7008-Cream-1891486;I Know Cream Top;Draft;Tops;I Know;Adults-Women;Women;Cream;;;Core;;2017;XS,IKNWTOPS00000461,S,IKNWTOPS00000462,M,IKNWTOPS00000463,L,IKNWTOPS00000464,XL,IKNWTOPS00000465,XXL,IKNWTOPS00000466;850.00;;;;;;;;zerotype;;Summer;;No
1891485;IKWDWTP7004-Lime Green-1891485;I Know Lime Green Top;Draft;Tops;I Know;Adults-Women;Women;Lime Green;;;Core;;2017;XS,IKNWTOPS00000455,S,IKNWTOPS00000456,M,IKNWTOPS00000457,L,IKNWTOPS00000458,XL,IKNWTOPS00000459,XXL,IKNWTOPS00000460;900.00;;;;;;;;zerotype;;Summer;;No
1891484;IKWDWTP7002-Beige-1891484;I Know Beige Top;Draft;Tops;I Know;Adults-Women;Women;Beige;;;Core;;2017;XS,IKNWTOPS00000449,S,IKNWTOPS00000450,M,IKNWTOPS00000451,L,IKNWTOPS00000452,XL,IKNWTOPS00000453,XXL,IKNWTOPS00000454;1350.00;;;;;;;;zerotype;;Summer;;No
1891483;IKWDWTP7001-White-1891483;I Know White Top;Draft;Tops;I Know;Adults-Women;Women;White;;;Core;;2017;XS,IKNWTOPS00000443,S,IKNWTOPS00000444,M,IKNWTOPS00000445,L,IKNWTOPS00000446,XL,IKNWTOPS00000447,XXL,IKNWTOPS00000448;1350.00;;;;;;;;zerotype;;Summer;;No
1891482;IKWDWTP7071-Navy Blue-1891482;I Know Navy Blue Shirt;Draft;Shirts;I Know;Adults-Women;Women;Navy Blue;;;Core;;2017;XS,IKNWSHRT00001474,S,IKNWSHRT00001475,M,IKNWSHRT00001476,L,IKNWSHRT00001477,XL,IKNWSHRT00001478,XXL,IKNWSHRT00001479;1250.00;;;;;;;;zerotype;;Summer;;No
1891481;IKWDWTP7061-White-1891481;I Know White Shirt;Draft;Shirts;I Know;Adults-Women;Women;White;;;Core;;2017;XS,IKNWSHRT00001468,S,IKNWSHRT00001469,M,IKNWSHRT00001470,L,IKNWSHRT00001471,XL,IKNWSHRT00001472,XXL,IKNWSHRT00001473;1000.00;;;;;;;;zerotype;;Summer;;No
1891480;IKWDWTP7060-Orange-1891480;I Know Orange Shirt;Draft;Shirts;I Know;Adults-Women;Women;Orange;;;Core;;2017;XS,IKNWSHRT00001462,S,IKNWSHRT00001463,M,IKNWSHRT00001464,L,IKNWSHRT00001465,XL,IKNWSHRT00001466,XXL,IKNWSHRT00001467;1000.00;;;;;;;;zerotype;;Summer;;No
1891479;IKWDWTP7059-White-1891479;I Know White Shirt;Draft;Shirts;I Know;Adults-Women;Women;White;;;Core;;2017;XS,IKNWSHRT00001456,S,IKNWSHRT00001457,M,IKNWSHRT00001458,L,IKNWSHRT00001459,XL,IKNWSHRT00001460,XXL,IKNWSHRT00001461;1100.00;;;;;;;;zerotype;;Summer;;No
1891478;IKWDWTP7058-Pink-1891478;I Know Pink Shirt;Draft;Shirts;I Know;Adults-Women;Women;Pink;;;Core;;2017;XS,IKNWSHRT00001450,S,IKNWSHRT00001451,M,IKNWSHRT00001452,L,IKNWSHRT00001453,XL,IKNWSHRT00001454,XXL,IKNWSHRT00001455;1100.00;;;;;;;;zerotype;;Summer;;No
1891477;IKWDWTP7057-Lime Green-1891477;I Know Lime Green Shirt;Draft;Shirts;I Know;Adults-Women;Women;Lime Green;;;Core;;2017;XS,IKNWSHRT00001444,S,IKNWSHRT00001445,M,IKNWSHRT00001446,L,IKNWSHRT00001447,XL,IKNWSHRT00001448,XXL,IKNWSHRT00001449;1150.00;;;;;;;;zerotype;;Summer;;No
1891476;IKWDWTP7056-Peach-1891476;I Know Peach Shirt;Draft;Shirts;I Know;Adults-Women;Women;Peach;;;Core;;2017;XS,IKNWSHRT00001438,S,IKNWSHRT00001439,M,IKNWSHRT00001440,L,IKNWSHRT00001441,XL,IKNWSHRT00001442,XXL,IKNWSHRT00001443;1150.00;;;;;;;;zerotype;;Summer;;No
1891475;IKWDWTP7055-Grey-1891475;I Know Grey Shirt;Draft;Shirts;I Know;Adults-Women;Women;Grey;;;Core;;2017;XS,IKNWSHRT00001432,S,IKNWSHRT00001433,M,IKNWSHRT00001434,L,IKNWSHRT00001435,XL,IKNWSHRT00001436,XXL,IKNWSHRT00001437;1100.00;;;;;;;;zerotype;;Summer;;No
1891474;IKWDWTP7022-Pink-1891474;I Know Pink Shirt;Draft;Shirts;I Know;Adults-Women;Women;Pink;;;Core;;2017;XS,IKNWSHRT00001426,S,IKNWSHRT00001427,M,IKNWSHRT00001428,L,IKNWSHRT00001429,XL,IKNWSHRT00001430,XXL,IKNWSHRT00001431;850.00;;;;;;;;zerotype;;Summer;;No
1891473;IKWDWDR7031-Black-1891473;I Know Black Dress;Draft;Dresses;I Know;Adults-Women;Women;Black;;;Core;;2017;XS,IKNWDRSS00000563,S,IKNWDRSS00000564,M,IKNWDRSS00000565,L,IKNWDRSS00000566,XL,IKNWDRSS00000567,XXL,IKNWDRSS00000568;1500.00;;;;;;;;zerotype;;Summer;;No
1891472;IKWDWDR7030-Black-1891472;I Know Black Dress;Draft;Dresses;I Know;Adults-Women;Women;Black;;;Core;;2017;XS,IKNWDRSS00000557,S,IKNWDRSS00000558,M,IKNWDRSS00000559,L,IKNWDRSS00000560,XL,IKNWDRSS00000561,XXL,IKNWDRSS00000562;1450.00;;;;;;;;zerotype;;Summer;;No
1891471;IKWDWDR7029-Navy Blue-1891471;I Know Navy Blue Dress;Draft;Dresses;I Know;Adults-Women;Women;Navy Blue;;;Core;;2017;XS,IKNWDRSS00000551,S,IKNWDRSS00000552,M,IKNWDRSS00000553,L,IKNWDRSS00000554,XL,IKNWDRSS00000555,XXL,IKNWDRSS00000556;1450.00;;;;;;;;zerotype;;Summer;;No
1891470;IKWDWDR7019-Navy Blue-1891470;I Know Navy Blue Dress;Draft;Dresses;I Know;Adults-Women;Women;Navy Blue;;;Core;;2017;XS,IKNWDRSS00000545,S,IKNWDRSS00000546,M,IKNWDRSS00000547,L,IKNWDRSS00000548,XL,IKNWDRSS00000549,XXL,IKNWDRSS00000550;1600.00;;;;;;;;zerotype;;Summer;;No
1891469;IKWDWDR7016-Purple-1891469;I Know Purple Dress;Draft;Dresses;I Know;Adults-Women;Women;Purple;;;Core;;2017;XS,IKNWDRSS00000539,S,IKNWDRSS00000540,M,IKNWDRSS00000541,L,IKNWDRSS00000542,XL,IKNWDRSS00000543,XXL,IKNWDRSS00000544;1700.00;;;;;;;;zerotype;;Summer;;No
1891468;IKWDWDR7015-Black-1891468;I Know Black Dress;Draft;Dresses;I Know;Adults-Women;Women;Black;;;Core;;2017;XS,IKNWDRSS00000533,S,IKNWDRSS00000534,M,IKNWDRSS00000535,L,IKNWDRSS00000536,XL,IKNWDRSS00000537,XXL,IKNWDRSS00000538;1700.00;;;;;;;;zerotype;;Summer;;No
1891467;IKWDWDR7008-Black-1891467;I Know Black Dress;Draft;Dresses;I Know;Adults-Women;Women;Black;;;Core;;2017;XS,IKNWDRSS00000527,S,IKNWDRSS00000528,M,IKNWDRSS00000529,L,IKNWDRSS00000530,XL,IKNWDRSS00000531,XXL,IKNWDRSS00000532;1500.00;;;;;;;;zerotype;;Summer;;No
1891466;IKWDWDR7005-Yellow-1891466;I Know Yellow Dress;Draft;Dresses;I Know;Adults-Women;Women;Yellow;;;Core;;2017;XS,IKNWDRSS00000521,S,IKNWDRSS00000522,M,IKNWDRSS00000523,L,IKNWDRSS00000524,XL,IKNWDRSS00000525,XXL,IKNWDRSS00000526;1700.00;;;;;;;;zerotype;;Summer;;No
1891465;IKWDWDR7003-Peach-1891465;I Know Peach Dress;Draft;Dresses;I Know;Adults-Women;Women;Peach;;;Core;;2017;XS,IKNWDRSS00000515,S,IKNWDRSS00000516,M,IKNWDRSS00000517,L,IKNWDRSS00000518,XL,IKNWDRSS00000519,XXL,IKNWDRSS00000520;1200.00;;;;;;;;zerotype;;Summer;;No
1891464;IKWDWDR7002-White-1891464;I Know White Dress;Draft;Dresses;I Know;Adults-Women;Women;White;;;Core;;2017;XS,IKNWDRSS00000509,S,IKNWDRSS00000510,M,IKNWDRSS00000511,L,IKNWDRSS00000512,XL,IKNWDRSS00000513,XXL,IKNWDRSS00000514;1200.00;;;;;;;;zerotype;;Summer;;No
1891420;TK-MMS781-WH0B-White-1891420;KURTA;Draft;Kurtas;even;Adults-Men;Men;;;;Core;Casual;2017;XS,EVENKRTA00002789,S,EVENKRTA00002790,M,EVENKRTA00002791,L,EVENKRTA00002792,XL,EVENKRTA00002793;799.00;;;;;;;;zerotype;;Spring;;No
1891419;TK-MMS780-OW0C-Off White-1891419;KURTA;Draft;Kurtas;even;Adults-Men;Men;;;;Core;Casual;2017;XS,EVENKRTA00002784,S,EVENKRTA00002785,M,EVENKRTA00002786,L,EVENKRTA00002787,XL,EVENKRTA00002788;649.00;;;;;;;;zerotype;;Spring;;No
1891418;TK-MMS747-PK0C-Pink-1891418;KURTA;Draft;Kurtas;even;Adults-Men;Men;;;;Core;Casual;2017;XS,EVENKRTA00002779,S,EVENKRTA00002780,M,EVENKRTA00002781,L,EVENKRTA00002782,XL,EVENKRTA00002783;729.00;;;;;;;;zerotype;;Spring;;No
1891417;TK-MMS777-NV0C-Navy Blue-1891417;KURTA;Draft;Kurtas;even;Adults-Men;Men;;;;Core;Casual;2017;XS,EVENKRTA00002774,S,EVENKRTA00002775,M,EVENKRTA00002776,L,EVENKRTA00002777,XL,EVENKRTA00002778;749.00;;;;;;;;zerotype;;Spring;;No
1891416;TK-MMS776-GY0C-Grey-1891416;KURTA;Draft;Kurtas;even;Adults-Men;Men;;;;Core;Casual;2017;XS,EVENKRTA00002769,S,EVENKRTA00002770,M,EVENKRTA00002771,L,EVENKRTA00002772,XL,EVENKRTA00002773;699.00;;;;;;;;zerotype;;Spring;;No
1891415;TK-MMS775-PH0C-Peach-1891415;KURTA;Draft;Kurtas;even;Adults-Men;Men;;;;Core;Casual;2017;XS,EVENKRTA00002764,S,EVENKRTA00002765,M,EVENKRTA00002766,L,EVENKRTA00002767,XL,EVENKRTA00002768;749.00;;;;;;;;zerotype;;Spring;;No
1891414;TK-MMS774-BR0L-Orange-1891414;KURTA;Draft;Kurtas;even;Adults-Men;Men;;;;Core;Casual;2017;XS,EVENKRTA00002759,S,EVENKRTA00002760,M,EVENKRTA00002761,L,EVENKRTA00002762,XL,EVENKRTA00002763;799.00;;;;;;;;zerotype;;Spring;;No
1891413;TK-MMS772-RD0C-Magenta-1891413;KURTA;Draft;Kurtas;even;Adults-Men;Men;;;;Core;Casual;2017;XS,EVENKRTA00002754,S,EVENKRTA00002755,M,EVENKRTA00002756,L,EVENKRTA00002757,XL,EVENKRTA00002758;699.00;;;;;;;;zerotype;;Spring;;No
1891412;TK-MMS766-BL0C-Blue-1891412;KURTA;Draft;Kurtas;even;Adults-Men;Men;;;;Core;Casual;2017;XS,EVENKRTA00002749,S,EVENKRTA00002750,M,EVENKRTA00002751,L,EVENKRTA00002752,XL,EVENKRTA00002753;699.00;;;;;;;;zerotype;;Spring;;No
1891411;TK-MMS764-PK0C-Pink-1891411;KURTA;Draft;Kurtas;even;Adults-Men;Men;;;;Core;Casual;2017;XS,EVENKRTA00002744,S,EVENKRTA00002745,M,EVENKRTA00002746,L,EVENKRTA00002747,XL,EVENKRTA00002748;699.00;;;;;;;;zerotype;;Spring;;No
1891410;TK-MMS763-GR0C-Green-1891410;KURTA;Draft;Kurtas;even;Adults-Men;Men;;;;Core;Casual;2017;XS,EVENKRTA00002739,S,EVENKRTA00002740,M,EVENKRTA00002741,L,EVENKRTA00002742,XL,EVENKRTA00002743;699.00;;;;;;;;zerotype;;Spring;;No
1891409;TK-MMS762-GY0C-Blue-1891409;KURTA;Draft;Kurtas;even;Adults-Men;Men;;;;Core;Casual;2017;XS,EVENKRTA00002734,S,EVENKRTA00002735,M,EVENKRTA00002736,L,EVENKRTA00002737,XL,EVENKRTA00002738;699.00;;;;;;;;zerotype;;Spring;;No
1891408;TK-MMS761-ID0C-Blue-1891408;KURTA;Draft;Kurtas;even;Adults-Men;Men;;;;Core;Casual;2017;XS,EVENKRTA00002729,S,EVENKRTA00002730,M,EVENKRTA00002731,L,EVENKRTA00002732,XL,EVENKRTA00002733;699.00;;;;;;;;zerotype;;Spring;;No
1891407;TK-MMS760-GR0C-Blue-1891407;KURTA;Draft;Kurtas;even;Adults-Men;Men;;;;Core;Casual;2017;XS,EVENKRTA00002724,S,EVENKRTA00002725,M,EVENKRTA00002726,L,EVENKRTA00002727,XL,EVENKRTA00002728;699.00;;;;;;;;zerotype;;Spring;;No
1891406;TK-MMS759-GY0C-Blue-1891406;KURTA;Draft;Kurtas;even;Adults-Men;Men;;;;Core;Casual;2017;XS,EVENKRTA00002719,S,EVENKRTA00002720,M,EVENKRTA00002721,L,EVENKRTA00002722,XL,EVENKRTA00002723;699.00;;;;;;;;zerotype;;Spring;;No
1891405;TK-MMS758-GR0C-Green-1891405;KURTA;Draft;Kurtas;even;Adults-Men;Men;;;;Core;Casual;2017;XS,EVENKRTA00002714,S,EVENKRTA00002715,M,EVENKRTA00002716,L,EVENKRTA00002717,XL,EVENKRTA00002718;699.00;;;;;;;;zerotype;;Spring;;No
1891404;TK-MMS757-RD0C-Red-1891404;KURTA;Draft;Kurtas;even;Adults-Men;Men;;;;Core;Casual;2017;XS,EVENKRTA00002709,S,EVENKRTA00002710,M,EVENKRTA00002711,L,EVENKRTA00002712,XL,EVENKRTA00002713;699.00;;;;;;;;zerotype;;Spring;;No
1891403;TK-MMS756-BL0C-Blue-1891403;KURTA;Draft;Kurtas;even;Adults-Men;Men;;;;Core;Casual;2017;XS,EVENKRTA00002704,S,EVENKRTA00002705,M,EVENKRTA00002706,L,EVENKRTA00002707,XL,EVENKRTA00002708;699.00;;;;;;;;zerotype;;Spring;;No
1891402;TK-MMS755-PR0C-Purple-1891402;KURTA;Draft;Kurtas;even;Adults-Men;Men;;;;Core;Casual;2017;XS,EVENKRTA00002699,S,EVENKRTA00002700,M,EVENKRTA00002701,L,EVENKRTA00002702,XL,EVENKRTA00002703;699.00;;;;;;;;zerotype;;Spring;;No
1891401;TK-MMS754-RD0C-Maroon-1891401;KURTA;Draft;Kurtas;even;Adults-Men;Men;;;;Core;Casual;2017;XS,EVENKRTA00002694,S,EVENKRTA00002695,M,EVENKRTA00002696,L,EVENKRTA00002697,XL,EVENKRTA00002698;699.00;;;;;;;;zerotype;;Spring;;No
1891400;TK-MMS753-BL0C-Blue-1891400;KURTA;Draft;Kurtas;even;Adults-Men;Men;;;;Core;Casual;2017;XS,EVENKRTA00002689,S,EVENKRTA00002690,M,EVENKRTA00002691,L,EVENKRTA00002692,XL,EVENKRTA00002693;699.00;;;;;;;;zerotype;;Spring;;No
1891399;TK-MMS752-GY0C-Grey-1891399;KURTA;Draft;Kurtas;even;Adults-Men;Men;;;;Core;Casual;2017;XS,EVENKRTA00002684,S,EVENKRTA00002685,M,EVENKRTA00002686,L,EVENKRTA00002687,XL,EVENKRTA00002688;649.00;;;;;;;;zerotype;;Spring;;No
1891398;TK-MMS751-GY0B-Grey-1891398;KURTA;Draft;Kurtas;even;Adults-Men;Men;;;;Core;Casual;2017;XS,EVENKRTA00002679,S,EVENKRTA00002680,M,EVENKRTA00002681,L,EVENKRTA00002682,XL,EVENKRTA00002683;699.00;;;;;;;;zerotype;;Spring;;No
1891397;TK-MMS750-SB0B-Blue-1891397;KURTA;Draft;Kurtas;even;Adults-Men;Men;;;;Core;Casual;2017;XS,EVENKRTA00002674,S,EVENKRTA00002675,M,EVENKRTA00002676,L,EVENKRTA00002677,XL,EVENKRTA00002678;699.00;;;;;;;;zerotype;;Spring;;No
1891396;TK-MMS748-GY0B-Grey-1891396;KURTA;Draft;Kurtas;even;Adults-Men;Men;;;;Core;Casual;2017;XS,EVENKRTA00002669,S,EVENKRTA00002670,M,EVENKRTA00002671,L,EVENKRTA00002672,XL,EVENKRTA00002673;699.00;;;;;;;;zerotype;;Spring;;No
1891395;TK-MMS257-WH0C-White-1891395;KURTA;Draft;Kurtas;even;Adults-Men;Men;;;;Core;Casual;2017;XS,EVENKRTA00002664,S,EVENKRTA00002665,M,EVENKRTA00002666,L,EVENKRTA00002667,XL,EVENKRTA00002668;699.00;;;;;;;;zerotype;;Spring;;No
1891392;NBAKMTE0080134-Blue-1891392;TEAM FULLSLEEVE GRAPHIC TEE;Draft;Tshirts;NBA;Adults-Men;Men;;;;Core;;2017;M,NBAATSHT00000321,S,NBAATSHT00000322,L,NBAATSHT00000323,XL,NBAATSHT00000324,XXL,NBAATSHT00000325;1499.00;;;;;;;;zerotype;;Spring;;No
1891391;NBAKMTE0050078-Navy Blue-1891391;NAME+NUMBER TEE, front & back print;Draft;Tshirts;NBA;Adults-Men;Men;;;;Core;;2017;S,NBAATSHT00000316,L,NBAATSHT00000317,XL,NBAATSHT00000318,XXL,NBAATSHT00000319,M,NBAATSHT00000320;1299.00;;;;;;;;zerotype;;Spring;;No
1891386;NO9900Zf Blue-Blue-1891386;Blue  Color Full Sleeve Printed Boys Tshirts;Draft;Tshirts;NO.99;Kids-Boys;Boys;;;;Fashion;;2017;12-18M,NONNTSHT00000787,18-24M,NONNTSHT00000788,2-3Y,NONNTSHT00000789,3-4Y,NONNTSHT00000790,4-5Y,NONNTSHT00000791,5-6Y,NONNTSHT00000792;499.00;;;;;;;;zerotype;;Summer;;No
1891384;NO9900Zf Black-Black-1891384;Black Color Full Sleeve Printed Boys Tshirts;Draft;Tshirts;NO.99;Kids-Boys;Boys;;;;Fashion;;2017;12-18M,NONNTSHT00000781,18-24M,NONNTSHT00000782,2-3Y,NONNTSHT00000783,3-4Y,NONNTSHT00000784,4-5Y,NONNTSHT00000785,5-6Y,NONNTSHT00000786;499.00;;;;;;;;zerotype;;Summer;;No
1891383;NO9900Xf Orange-Orange-1891383;Orange Color Full Sleeve Printed Boys Tshirts;Draft;Tshirts;NO.99;Kids-Boys;Boys;;;;Fashion;;2017;12-18M,NONNTSHT00000775,18-24M,NONNTSHT00000776,2-3Y,NONNTSHT00000777,3-4Y,NONNTSHT00000778,4-5Y,NONNTSHT00000779,5-6Y,NONNTSHT00000780;499.00;;;;;;;;zerotype;;Summer;;No
1891381;NO9900Xf Black-Black-1891381;Black Color Full Sleeve Printed Boys Tshirts;Draft;Tshirts;NO.99;Kids-Boys;Boys;;;;Fashion;;2017;12-18M,NONNTSHT00000763,18-24M,NONNTSHT00000764,2-3Y,NONNTSHT00000765,3-4Y,NONNTSHT00000766,4-5Y,NONNTSHT00000767,5-6Y,NONNTSHT00000768;499.00;;;;;;;;zerotype;;Summer;;No
1891380;NO9900Tf Green-Green-1891380;Green Color Full Sleeve Printed Boys Tshirts;Draft;Tshirts;NO.99;Kids-Boys;Boys;;;;Fashion;;2017;12-18M,NONNTSHT00000757,18-24M,NONNTSHT00000758,2-3Y,NONNTSHT00000759,3-4Y,NONNTSHT00000760,4-5Y,NONNTSHT00000761,5-6Y,NONNTSHT00000762;499.00;;;;;;;;zerotype;;Summer;;No
1891379;NO9900Tf Orange-Orange-1891379;Orange Color Full Sleeve Printed Boys Tshirts;Draft;Tshirts;NO.99;Kids-Boys;Boys;;;;Fashion;;2017;12-18M,NONNTSHT00000751,18-24M,NONNTSHT00000752,2-3Y,NONNTSHT00000753,3-4Y,NONNTSHT00000754,4-5Y,NONNTSHT00000755,5-6Y,NONNTSHT00000756;499.00;;;;;;;;zerotype;;Summer;;No
1891378;NO9900Tf Blue-Blue-1891378;Blue  Color Full Sleeve Printed Boys Tshirts;Draft;Tshirts;NO.99;Kids-Boys;Boys;;;;Fashion;;2017;12-18M,NONNTSHT00000745,18-24M,NONNTSHT00000746,2-3Y,NONNTSHT00000747,3-4Y,NONNTSHT00000748,4-5Y,NONNTSHT00000749,5-6Y,NONNTSHT00000750;499.00;;;;;;;;zerotype;;Summer;;No
1891373;AWWT000475B-Orange-1891373;Amari West Woven To visc.;Draft;Tops;Amari West;Adults-Women;Women;;;;Fashion;;2017;XS,AMWTTOPS00001569,S,AMWTTOPS00001570,M,AMWTTOPS00001571,L,AMWTTOPS00001572,XL,AMWTTOPS00001573,XXL,AMWTTOPS00001574;1199.00;;;;;;;;zerotype;;Summer;;No
1891372;NO9900Of Green-Green-1891372;Green  Color Full Sleeve Printed Boys Tshirts;Draft;Tshirts;NO.99;Kids-Boys;Boys;;;;Fashion;;2017;12-18M,NONNTSHT00000715,18-24M,NONNTSHT00000716,2-3Y,NONNTSHT00000717,3-4Y,NONNTSHT00000718,4-5Y,NONNTSHT00000719,5-6Y,NONNTSHT00000720;499.00;;;;;;;;zerotype;;Summer;;No
1891371;AWKN000205A-Blue-1891371;Amari West Knit Top poly. Blue;Draft;Tops;Amari West;Adults-Women;Women;;;;Fashion;;2017;L,AMWTTOPS00001563,M,AMWTTOPS00001564,S,AMWTTOPS00001565,XL,AMWTTOPS00001566,XS,AMWTTOPS00001567,XXL,AMWTTOPS00001568;799.00;;;;;;;;zerotype;;Summer;;No
1891364;NO9900Mf Green-Green-1891364;Green  Color Full Sleeve Printed Boys Tshirts;Draft;Tshirts;NO.99;Kids-Boys;Boys;;;;Fashion;;2017;12-18M,NONNTSHT00000697,18-24M,NONNTSHT00000698,2-3Y,NONNTSHT00000699,3-4Y,NONNTSHT00000700,4-5Y,NONNTSHT00000701,5-6Y,NONNTSHT00000702;499.00;;;;;;;;zerotype;;Summer;;No
1891356;NO9900Gf Blue-Blue-1891356;Blue  Color Full Sleeve Printed Boys Tshirts;Draft;Tshirts;NO.99;Kids-Boys;Boys;;;;Fashion;;2017;12-18M,NONNTSHT00000660,18-24M,NONNTSHT00000661,2-3Y,NONNTSHT00000662,3-4Y,NONNTSHT00000663,4-5Y,NONNTSHT00000664,5-6Y,NONNTSHT00000666;499.00;;;;;;;;zerotype;;Summer;;No
1891355;NO9900Cf Black-Black-1891355;Black Color Full Sleeve Printed Boys Tshirts;Draft;Tshirts;NO.99;Kids-Boys;Boys;;;;Fashion;;2017;12-18M,NONNTSHT00000654,18-24M,NONNTSHT00000655,2-3Y,NONNTSHT00000656,3-4Y,NONNTSHT00000657,4-5Y,NONNTSHT00000658,5-6Y,NONNTSHT00000659;499.00;;;;;;;;zerotype;;Summer;;No
1891354;NO9900Cf Orange-Orange-1891354;Orange Color Full Sleeve Printed Boys Tshirts;Draft;Tshirts;NO.99;Kids-Boys;Boys;;;;Fashion;;2017;12-18M,NONNTSHT00000648,18-24M,NONNTSHT00000649,2-3Y,NONNTSHT00000650,3-4Y,NONNTSHT00000651,4-5Y,NONNTSHT00000652,5-6Y,NONNTSHT00000653;499.00;;;;;;;;zerotype;;Summer;;No
1891353;NO9900Cf Green-Green-1891353;Green  Color Full Sleeve Printed Boys Tshirts;Draft;Tshirts;NO.99;Kids-Boys;Boys;;;;Fashion;;2017;12-18M,NONNTSHT00000642,18-24M,NONNTSHT00000643,2-3Y,NONNTSHT00000644,3-4Y,NONNTSHT00000645,4-5Y,NONNTSHT00000646,5-6Y,NONNTSHT00000647;499.00;;;;;;;;zerotype;;Summer;;No
1891351;NO9900Bf Green-Green-1891351;Green  Color Full Sleeve Printed Boys Tshirts;Draft;Tshirts;NO.99;Kids-Boys;Boys;;;;Fashion;;2017;12-18M,NONNTSHT00000630,18-24M,NONNTSHT00000631,2-3Y,NONNTSHT00000632,3-4Y,NONNTSHT00000633,4-5Y,NONNTSHT00000634,5-6Y,NONNTSHT00000635;499.00;;;;;;;;zerotype;;Summer;;No
1891350;NO9900Bf Blue-Blue-1891350;Blue  Color Full Sleeve Printed Boys Tshirts;Draft;Tshirts;NO.99;Kids-Boys;Boys;;;;Fashion;;2017;12-18M,NONNTSHT00000624,18-24M,NONNTSHT00000625,2-3Y,NONNTSHT00000626,3-4Y,NONNTSHT00000627,4-5Y,NONNTSHT00000628,5-6Y,NONNTSHT00000629;499.00;;;;;;;;zerotype;;Summer;;No
1891349;NO9900100f Orange-Orange-1891349;Orange Color Full Sleeve Printed Boys Tshirts;Draft;Tshirts;NO.99;Kids-Boys;Boys;;;;Fashion;;2017;12-18M,NONNTSHT00000618,18-24M,NONNTSHT00000619,2-3Y,NONNTSHT00000620,3-4Y,NONNTSHT00000621,4-5Y,NONNTSHT00000622,5-6Y,NONNTSHT00000623;499.00;;;;;;;;zerotype;;Summer;;No
1891348;NO990080f Orange-Orange-1891348;Orange Color Full Sleeve Printed Boys Tshirts;Draft;Tshirts;NO.99;Kids-Boys;Boys;;;;Fashion;;2017;12-18M,NONNTSHT00000612,18-24M,NONNTSHT00000613,2-3Y,NONNTSHT00000614,3-4Y,NONNTSHT00000615,4-5Y,NONNTSHT00000616,5-6Y,NONNTSHT00000617;499.00;;;;;;;;zerotype;;Summer;;No
1891346;NO990013f Green-Green-1891346;Green  Color Full Sleeve Printed Boys Tshirts;Draft;Tshirts;NO.99;Kids-Boys;Boys;;;;Fashion;;2017;12-18M,NONNTSHT00000600,18-24M,NONNTSHT00000601,2-3Y,NONNTSHT00000602,3-4Y,NONNTSHT00000603,4-5Y,NONNTSHT00000604,5-6Y,NONNTSHT00000605;499.00;;;;;;;;zerotype;;Summer;;No
1891342;NO99009f Orange-Orange-1891342;Orange Color Full Sleeve Printed Boys Tshirts;Draft;Tshirts;NO.99;Kids-Boys;Boys;;;;Fashion;;2017;12-18M,NONNTSHT00000582,18-24M,NONNTSHT00000583,2-3Y,NONNTSHT00000584,3-4Y,NONNTSHT00000585,4-5Y,NONNTSHT00000586,5-6Y,NONNTSHT00000587;499.00;;;;;;;;zerotype;;Summer;;No
1891341;NO99009f Black-Black-1891341;Black Color Full Sleeve Printed Boys Tshirts;Draft;Tshirts;NO.99;Kids-Boys;Boys;;;;Fashion;;2017;12-18M,NONNTSHT00000576,18-24M,NONNTSHT00000577,2-3Y,NONNTSHT00000578,3-4Y,NONNTSHT00000579,4-5Y,NONNTSHT00000580,5-6Y,NONNTSHT00000581;499.00;;;;;;;;zerotype;;Summer;;No
1891333;NO99005f Orange-Orange-1891333;Orange Color Full Sleeve Printed Boys Tshirts;Draft;Tshirts;NO.99;Kids-Boys;Boys;;;;Fashion;;2017;12-18M,NONNTSHT00000528,18-24M,NONNTSHT00000529,2-3Y,NONNTSHT00000530,3-4Y,NONNTSHT00000531,4-5Y,NONNTSHT00000532,5-6Y,NONNTSHT00000533;499.00;;;;;;;;zerotype;;Summer;;No
1891331;NO99004f Green-Green-1891331;Green  Color Full Sleeve Printed Boys Tshirts;Draft;Tshirts;NO.99;Kids-Boys;Boys;;;;Fashion;;2017;12-18M,NONNTSHT00000516,18-24M,NONNTSHT00000517,2-3Y,NONNTSHT00000518,3-4Y,NONNTSHT00000519,4-5Y,NONNTSHT00000520,5-6Y,NONNTSHT00000521;499.00;;;;;;;;zerotype;;Summer;;No
1891330;NO99004f Blue-Blue-1891330;Blue  Color Full Sleeve Printed Boys Tshirts;Draft;Tshirts;NO.99;Kids-Boys;Boys;;;;Fashion;;2017;12-18M,NONNTSHT00000510,18-24M,NONNTSHT00000511,2-3Y,NONNTSHT00000512,3-4Y,NONNTSHT00000513,4-5Y,NONNTSHT00000514,5-6Y,NONNTSHT00000515;499.00;;;;;;;;zerotype;;Summer;;No
1891328;NO99001f Blue-Blue-1891328;Blue  Color Full Sleeve Printed Boys Tshirts;Draft;Tshirts;NO.99;Kids-Boys;Boys;;;;Fashion;;2017;12-18M,NONNTSHT00000499,18-24M,NONNTSHT00000500,2-3Y,NONNTSHT00000501,3-4Y,NONNTSHT00000502,4-5Y,NONNTSHT00000503,5-6Y,NONNTSHT00000504;499.00;;;;;;;;zerotype;;Summer;;No
1891323;5021468607322-PinkGrey-1891323;IO MG MC61 2PK SHORTS, PINK, 098;Draft;Shorts;mothercare;Kids-Girls;Girls;;;;Fashion;;2017;3-6M,MTCRSHOR00001794,6-9M,MTCRSHOR00001795,9-12M,MTCRSHOR00001796,12-18M,MTCRSHOR00001797,18-24M,MTCRSHOR00001798,2-3Y,MTCRSHOR00001799;899.00;;;;;;;;zerotype;;Summer;;No
1891322;5021468562478-Blue-1891322;MB MC61 BLUE JERSEY SHORTS, BLUE, 098;Draft;Shorts;mothercare;Kids-Boys;Boys;;;;Fashion;;2017;3-6M,MTCRSHOR00001788,6-9M,MTCRSHOR00001789,9-12M,MTCRSHOR00001790,12-18M,MTCRSHOR00001791,18-24M,MTCRSHOR00001792,2-3Y,MTCRSHOR00001793;599.00;;;;;;;;zerotype;;Winter;;No
1891321;5021468671095-YellowGreyWhite-1891321;JB UBEX GRY/STR, GMARL, 140;Draft;Shorts;mothercare;Kids-Boys;Boys;;;;Fashion;;2017;3-4Y,MTCRSHOR00001781,4-5Y,MTCRSHOR00001782,5-6Y,MTCRSHOR00001783,6-7Y,MTCRSHOR00001784,7-8Y,MTCRSHOR00001785,8-9Y,MTCRSHOR00001786,9-10Y,MTCRSHOR00001787;1499.00;;;;;;;;zerotype;;Summer;;No
1891320;5021468670999-Green-1891320;JB URBEX GREEN, GREEN, 140;Draft;Shorts;mothercare;Kids-Boys;Boys;;;;Fashion;;2017;3-4Y,MTCRSHOR00001774,4-5Y,MTCRSHOR00001775,5-6Y,MTCRSHOR00001776,6-7Y,MTCRSHOR00001777,7-8Y,MTCRSHOR00001778,8-9Y,MTCRSHOR00001779,9-10Y,MTCRSHOR00001780;1299.00;;;;;;;;zerotype;;Winter;;No
1891319;5021468562560-Blue-1891319;MB MC61 LIGHTWASH DENIM SHOR, DENIM, 098;Draft;Shorts;mothercare;Kids-Boys;Boys;;;;Fashion;;2017;3-6M,MTCRSHOR00001768,6-9M,MTCRSHOR00001769,9-12M,MTCRSHOR00001770,12-18M,MTCRSHOR00001771,18-24M,MTCRSHOR00001772,2-3Y,MTCRSHOR00001773;1099.00;;;;;;;;zerotype;;Summer;;No
1891317;5021468617246-White-1891317;IO MG PROM SS VAC FLRL JSY D, WHITE, 098;Draft;Dresses;mothercare;Kids-Girls;Girls;;;;Fashion;;2017;3-6M,MTCRDRSS00001889,6-9M,MTCRDRSS00001890,9-12M,MTCRDRSS00001891,12-18M,MTCRDRSS00001892,18-24M,MTCRDRSS00001893,2-3Y,MTCRDRSS00001894;699.00;;;;;;;;zerotype;;Summer;;No
1891316;5021468617062-Pink-1891316;IO MG MC61 SS PIQUE POLO DRES, PINK, 098;Draft;Dresses;mothercare;Kids-Girls;Girls;;;;Fashion;;2017;3-6M,MTCRDRSS00001883,6-9M,MTCRDRSS00001884,9-12M,MTCRDRSS00001885,12-18M,MTCRDRSS00001886,18-24M,MTCRDRSS00001887,2-3Y,MTCRDRSS00001888;899.00;;;;;;;;zerotype;;Winter;;No
1891315;5021468616782-Pink-1891315;MG MC61 SS BRDR PRINT JSY DRS, PINK, 098;Draft;Dresses;mothercare;Kids-Girls;Girls;;;;Fashion;;2017;3-6M,MTCRDRSS00001877,6-9M,MTCRDRSS00001878,9-12M,MTCRDRSS00001879,12-18M,MTCRDRSS00001880,18-24M,MTCRDRSS00001881,2-3Y,MTCRDRSS00001882;899.00;;;;;;;;zerotype;;Summer;;No
1891314;5021469023633-Red-1891314;JG PRMO SPOT WAISTED DRS, RED, 140;Draft;Dresses;mothercare;Kids-Girls;Girls;;;;Fashion;;2017;3-4Y,MTCRDRSS00001870,4-5Y,MTCRDRSS00001871,5-6Y,MTCRDRSS00001872,6-7Y,MTCRDRSS00001873,7-8Y,MTCRDRSS00001874,8-9Y,MTCRDRSS00001875,9-10Y,MTCRDRSS00001876;899.00;;;;;;;;zerotype;;Summer;;No
1891311;5021468649209-White-1891311;IO MG FRM SS DADDY I LOVE U, CREAM, 098;Draft;Tshirts;mothercare;Kids-Girls;Girls;;;;Fashion;;2017;3-6M,MTCRTSHT00006914,6-9M,MTCRTSHT00006915,9-12M,MTCRTSHT00006916,12-18M,MTCRTSHT00006917,18-24M,MTCRTSHT00006918,2-3Y,MTCRTSHT00006919;499.00;;;;;;;;zerotype;;Summer;;No
1891310;5021468613781-White-1891310;MG MC SS MICE BALLOON UBER T, WHITE, 098;Draft;Tshirts;mothercare;Kids-Girls;Girls;;;;Fashion;;2017;3-6M,MTCRTSHT00006908,6-9M,MTCRTSHT00006909,9-12M,MTCRTSHT00006910,12-18M,MTCRTSHT00006911,18-24M,MTCRTSHT00006912,2-3Y,MTCRTSHT00006913;399.00;;;;;;;;zerotype;;Summer;;No
1891309;5021468614306-White-1891309;MG MC SS HRT AOP LVE 2 DNCE, WHITE, 098;Draft;Tshirts;mothercare;Kids-Girls;Girls;;;;Fashion;;2017;3-6M,MTCRTSHT00006902,6-9M,MTCRTSHT00006903,9-12M,MTCRTSHT00006904,12-18M,MTCRTSHT00006905,18-24M,MTCRTSHT00006906,2-3Y,MTCRTSHT00006907;599.00;;;;;;;;zerotype;;Summer;;No
1891308;5021468614399-Pink-1891308;IO MG MC61 SS PINK PIQUE POLO, PINK, 098;Draft;Tshirts;mothercare;Kids-Girls;Girls;;;;Fashion;;2017;3-6M,MTCRTSHT00006896,6-9M,MTCRTSHT00006897,9-12M,MTCRTSHT00006898,12-18M,MTCRTSHT00006899,18-24M,MTCRTSHT00006900,2-3Y,MTCRTSHT00006901;699.00;;;;;;;;zerotype;;Winter;;No
1891306;5021468613699-White-1891306;IO MG MC61 SS MICE BALLOON T, WHITE, 098;Draft;Tshirts;mothercare;Kids-Girls;Girls;;;;Fashion;;2017;3-6M,MTCRTSHT00006890,6-9M,MTCRTSHT00006891,9-12M,MTCRTSHT00006892,12-18M,MTCRTSHT00006893,18-24M,MTCRTSHT00006894,2-3Y,MTCRTSHT00006895;499.00;;;;;;;;zerotype;;Summer;;No
1891305;5021468613163-Pink-1891305;MG MC SS DAD LIL TWT HEART TE, PINK, 098;Draft;Tshirts;mothercare;Kids-Girls;Girls;;;;Fashion;;2017;3-6M,MTCRTSHT00006884,6-9M,MTCRTSHT00006885,9-12M,MTCRTSHT00006886,12-18M,MTCRTSHT00006887,18-24M,MTCRTSHT00006888,2-3Y,MTCRTSHT00006889;499.00;;;;;;;;zerotype;;Summer;;No
1891304;5021468611367-PinkWhite-1891304;IO MG MC61 SS 3PK CHRACTER TE, PINK, 098;Draft;Tshirts;mothercare;Kids-Girls;Girls;;;;Fashion;;2017;3-6M,MTCRTSHT00006878,6-9M,MTCRTSHT00006879,9-12M,MTCRTSHT00006880,12-18M,MTCRTSHT00006881,18-24M,MTCRTSHT00006882,2-3Y,MTCRTSHT00006883;1299.00;;;;;;;;zerotype;;Summer;;No
1891303;5021468712330-Pink-1891303;JG MC61 PINK PIQUE POLO, PINK, 140;Draft;Tshirts;mothercare;Kids-Girls;Girls;;;;Fashion;;2017;3-4Y,MTCRTSHT00006871,4-5Y,MTCRTSHT00006872,5-6Y,MTCRTSHT00006873,6-7Y,MTCRTSHT00006874,7-8Y,MTCRTSHT00006875,8-9Y,MTCRTSHT00006876,9-10Y,MTCRTSHT00006877;699.00;;;;;;;;zerotype;;Winter;;No
1891302;5021468572064-White-1891302;MB MC61 NAVY STRIPE SS TEE, BLUE, 098;Draft;Tshirts;mothercare;Kids-Boys;Boys;;;;Fashion;;2017;3-6M,MTCRTSHT00006865,6-9M,MTCRTSHT00006866,9-12M,MTCRTSHT00006867,12-18M,MTCRTSHT00006868,18-24M,MTCRTSHT00006869,2-3Y,MTCRTSHT00006870;599.00;;;;;;;;zerotype;;Summer;;No
1891301;5021468569125-Blue-1891301;MB URB EXOTIC SKATE SS TEE, BLUE, 098;Draft;Tshirts;mothercare;Kids-Boys;Boys;;;;Fashion;;2017;3-6M,MTCRTSHT00006859,6-9M,MTCRTSHT00006860,9-12M,MTCRTSHT00006861,12-18M,MTCRTSHT00006862,18-24M,MTCRTSHT00006863,2-3Y,MTCRTSHT00006864;499.00;;;;;;;;zerotype;;Winter;;No
1891300;5021468702508-Navy BlueBlueGrey-1891300;JB MC61 BLUE /S, BLUE, 140;Draft;Tshirts;mothercare;Kids-Boys;Boys;;;;Fashion;;2017;3-4Y,MTCRTSHT00006852,4-5Y,MTCRTSHT00006853,5-6Y,MTCRTSHT00006854,6-7Y,MTCRTSHT00006855,7-8Y,MTCRTSHT00006856,8-9Y,MTCRTSHT00006857,9-10Y,MTCRTSHT00006858;1699.00;;;;;;;;zerotype;;Winter;;No
1891299;5021468572866-White-1891299;MB MC61 WHITE PIQUE SS POLO, WHITE, 098;Draft;Tshirts;mothercare;Kids-Boys;Boys;;;;Fashion;;2017;3-6M,MTCRTSHT00006846,6-9M,MTCRTSHT00006847,9-12M,MTCRTSHT00006848,12-18M,MTCRTSHT00006849,18-24M,MTCRTSHT00006850,2-3Y,MTCRTSHT00006851;699.00;;;;;;;;zerotype;;Summer;;No
1891298;5021468571661-GreyRed-1891298;MB MC61 QUALITY RAGLAN GREY S, GREY, 098;Draft;Tshirts;mothercare;Kids-Boys;Boys;;;;Fashion;;2017;3-6M,MTCRTSHT00006840,6-9M,MTCRTSHT00006841,9-12M,MTCRTSHT00006842,12-18M,MTCRTSHT00006843,18-24M,MTCRTSHT00006844,2-3Y,MTCRTSHT00006845;599.00;;;;;;;;zerotype;;Winter;;No
1891297;5021468570787-BlueGrey-1891297;MB MC61 BLUE TIGER RAGLAN SS, BLUE, 098;Draft;Tshirts;mothercare;Kids-Boys;Boys;;;;Fashion;;2017;3-6M,MTCRTSHT00006834,6-9M,MTCRTSHT00006835,9-12M,MTCRTSHT00006836,12-18M,MTCRTSHT00006837,18-24M,MTCRTSHT00006838,2-3Y,MTCRTSHT00006839;599.00;;;;;;;;zerotype;;Winter;;No
1891296;5021468570602-RedBlue-1891296;MB MC61 CHAMPION RAGLAN RED SS, RED, 098;Draft;Tshirts;mothercare;Kids-Boys;Boys;;;;Fashion;;2017;3-6M,MTCRTSHT00006828,6-9M,MTCRTSHT00006829,9-12M,MTCRTSHT00006830,12-18M,MTCRTSHT00006831,18-24M,MTCRTSHT00006832,2-3Y,MTCRTSHT00006833;599.00;;;;;;;;zerotype;;Winter;;No
1891295;5021468570398-Navy BlueGreyWhite-1891295;MB MC61 3PK SS TIGER TEES, BRIGM, 098;Draft;Tshirts;mothercare;Kids-Boys;Boys;;;;Fashion;;2017;3-6M,MTCRTSHT00006822,6-9M,MTCRTSHT00006823,9-12M,MTCRTSHT00006824,12-18M,MTCRTSHT00006825,18-24M,MTCRTSHT00006826,2-3Y,MTCRTSHT00006827;1299.00;;;;;;;;zerotype;;Summer;;No
1891293;5021468568432-BlueGreen-1891293;MB URB EXTC 3PK DINO NOISE S, BRIGM, 098;Draft;Tshirts;mothercare;Kids-Boys;Boys;;;;Fashion;;2017;3-6M,MTCRTSHT00006816,6-9M,MTCRTSHT00006817,9-12M,MTCRTSHT00006818,12-18M,MTCRTSHT00006819,18-24M,MTCRTSHT00006820,2-3Y,MTCRTSHT00006821;1299.00;;;;;;;;zerotype;;Winter;;No
1891292;5021468565707-White-1891292;MB URBAN FARM  TRACTOR ROLL, WHITE, 098;Draft;Tshirts;mothercare;Kids-Boys;Boys;;;;Fashion;;2017;3-6M,MTCRTSHT00006810,6-9M,MTCRTSHT00006811,9-12M,MTCRTSHT00006812,12-18M,MTCRTSHT00006813,18-24M,MTCRTSHT00006814,2-3Y,MTCRTSHT00006815;499.00;;;;;;;;zerotype;;Winter;;No
1891285;5021468564045-Navy Blue-1891285;MB MC61 NAVY POPLIN ROLL UP T, NAVY, 098;Draft;Trousers;mothercare;Kids-Boys;Boys;;;;Fashion;;2017;3-6M,MTCRTRSR00000446,6-9M,MTCRTRSR00000447,9-12M,MTCRTRSR00000448,12-18M,MTCRTRSR00000449,18-24M,MTCRTRSR00000450,2-3Y,MTCRTRSR00000451;1299.00;;;;;;;;zerotype;;Winter;;No
1891284;5021468564489-Blue-1891284;MB URBFARM LEAD IN MID WASH, DENIM, 098;Draft;Jeans;mothercare;Kids-Boys;Boys;;;;Fashion;;2017;3-6M,MTCRJENS00000446,6-9M,MTCRJENS00000447,9-12M,MTCRJENS00000448,12-18M,MTCRJENS00000449,18-24M,MTCRJENS00000450,2-3Y,MTCRJENS00000451;1299.00;;;;;;;;zerotype;;Summer;;No
1891251;GR3803-WHITE-WHITE-1891251;GR3803WHITE;Draft;Tops;Harpa;Adults-Women;Women;;;;Fashion;Casual;2017;S,HRPATOPS00010110,M,HRPATOPS00010111,L,HRPATOPS00010112,XL,HRPATOPS00010113;1199.00;;;;;;;;zerotype;;Summer;;No
1891250;GR2793-PINK-PINK-1891250;GR2793PINK;Draft;Tops;Harpa;Adults-Women;Women;;;;Fashion;Casual;2017;S,HRPATOPS00010106,M,HRPATOPS00010107,L,HRPATOPS00010108,XL,HRPATOPS00010109;1199.00;;;;;;;;zerotype;;Summer;;No
1891249;GR2793-NAVY-NAVY-1891249;GR2793NAVY;Draft;Tops;Harpa;Adults-Women;Women;;;;Fashion;Casual;2017;S,HRPATOPS00010102,M,HRPATOPS00010103,L,HRPATOPS00010104,XL,HRPATOPS00010105;1199.00;;;;;;;;zerotype;;Summer;;No
1891248;GR2793-GREEN-GREEN-1891248;GR2793GREEN;Draft;Tops;Harpa;Adults-Women;Women;;;;Fashion;Casual;2017;S,HRPATOPS00010098,M,HRPATOPS00010099,L,HRPATOPS00010100,XL,HRPATOPS00010101;1199.00;;;;;;;;zerotype;;Summer;;No
1891247;GR2793-CORAL-CORAL-1891247;GR2793CORAL;Draft;Tops;Harpa;Adults-Women;Women;;;;Fashion;Casual;2017;S,HRPATOPS00010093,M,HRPATOPS00010095,L,HRPATOPS00010096,XL,HRPATOPS00010097;1199.00;;;;;;;;zerotype;;Summer;;No
1891246;GR2809A-RED-RED-1891246;GR2809ARED;Draft;Tops;Harpa;Adults-Women;Women;;;;Fashion;Casual;2017;S,HRPATOPS00010089,M,HRPATOPS00010090,L,HRPATOPS00010091,XL,HRPATOPS00010092;1199.00;;;;;;;;zerotype;;Summer;;No
1891245;GR2809A-P.GREEN-P.GREEN-1891245;GR2809AP.GREEN;Draft;Tops;Harpa;Adults-Women;Women;;;;Fashion;Casual;2017;S,HRPATOPS00010085,M,HRPATOPS00010086,L,HRPATOPS00010087,XL,HRPATOPS00010088;1199.00;;;;;;;;zerotype;;Summer;;No
1891244;GR2809A-GREEN-GREEN-1891244;GR2809AGREEN;Draft;Tops;Harpa;Adults-Women;Women;;;;Fashion;Casual;2017;S,HRPATOPS00010081,M,HRPATOPS00010082,L,HRPATOPS00010083,XL,HRPATOPS00010084;1199.00;;;;;;;;zerotype;;Summer;;No
1891243;GR2809A-BLACK-BLACK-1891243;GR2809ABLACK;Draft;Tops;Harpa;Adults-Women;Women;;;;Fashion;Casual;2017;S,HRPATOPS00010077,M,HRPATOPS00010078,L,HRPATOPS00010079,XL,HRPATOPS00010080;1199.00;;;;;;;;zerotype;;Summer;;No
1891242;GR3850A-PURPLE-PURPLE-1891242;GR3850APURPLE;Draft;Tops;Harpa;Adults-Women;Women;;;;Fashion;Casual;2017;S,HRPATOPS00010073,M,HRPATOPS00010074,L,HRPATOPS00010075,XL,HRPATOPS00010076;1099.00;;;;;;;;zerotype;;Summer;;No
1891241;GR3850A-NAVY-NAVY-1891241;GR3850ANAVY;Draft;Tops;Harpa;Adults-Women;Women;;;;Fashion;Casual;2017;S,HRPATOPS00010069,M,HRPATOPS00010070,L,HRPATOPS00010071,XL,HRPATOPS00010072;1099.00;;;;;;;;zerotype;;Summer;;No
1891240;GR3850A-OFF WHITE-OFF WHITE-1891240;GR3850AOFFWHITE;Draft;Tops;Harpa;Adults-Women;Women;;;;Fashion;Casual;2017;S,HRPATOPS00010065,M,HRPATOPS00010066,L,HRPATOPS00010067,XL,HRPATOPS00010068;1099.00;;;;;;;;zerotype;;Summer;;No
1891239;GR3850A-GREY-GREY-1891239;GR3850AGREY;Draft;Tops;Harpa;Adults-Women;Women;;;;Fashion;Casual;2017;S,HRPATOPS00010061,M,HRPATOPS00010062,L,HRPATOPS00010063,XL,HRPATOPS00010064;1099.00;;;;;;;;zerotype;;Summer;;No
1891238;GR3850A-BEIGE-BEIGE-1891238;GR3850ABEIGE;Draft;Tops;Harpa;Adults-Women;Women;;;;Fashion;Casual;2017;S,HRPATOPS00010057,M,HRPATOPS00010058,L,HRPATOPS00010059,XL,HRPATOPS00010060;1099.00;;;;;;;;zerotype;;Summer;;No
1891237;GR5113-NAVY-NAVY-1891237;GR5113NAVY;Draft;Tops;Harpa;Adults-Women;Women;;;;Fashion;Casual;2017;S,HRPATOPS00010053,M,HRPATOPS00010054,L,HRPATOPS00010055,XL,HRPATOPS00010056;1099.00;;;;;;;;zerotype;;Summer;;No
1891236;GR5113-CORAL-CORAL-1891236;GR5113CORAL;Draft;Tops;Harpa;Adults-Women;Women;;;;Fashion;Casual;2017;S,HRPATOPS00010049,M,HRPATOPS00010050,L,HRPATOPS00010051,XL,HRPATOPS00010052;1099.00;;;;;;;;zerotype;;Summer;;No
1891235;GR5113-BLACK-BLACK-1891235;GR5113BLACK;Draft;Tops;Harpa;Adults-Women;Women;;;;Fashion;Casual;2017;S,HRPATOPS00010045,M,HRPATOPS00010046,L,HRPATOPS00010047,XL,HRPATOPS00010048;1099.00;;;;;;;;zerotype;;Summer;;No
1891234;GR2195B-ORANGE-ORANGE-1891234;GR2195BORANGE;Draft;Tops;Harpa;Adults-Women;Women;;;;Fashion;Casual;2017;S,HRPATOPS00010041,M,HRPATOPS00010042,L,HRPATOPS00010043,XL,HRPATOPS00010044;1199.00;;;;;;;;zerotype;;Summer;;No
1891233;GR2195B-NAVY-NAVY-1891233;GR2195BNAVY;Draft;Tops;Harpa;Adults-Women;Women;;;;Fashion;Casual;2017;S,HRPATOPS00010037,M,HRPATOPS00010038,L,HRPATOPS00010039,XL,HRPATOPS00010040;1199.00;;;;;;;;zerotype;;Summer;;No
1891232;GR2195B-MAROON-MAROON-1891232;GR2195BMAROON;Draft;Tops;Harpa;Adults-Women;Women;;;;Fashion;Casual;2017;S,HRPATOPS00010033,M,HRPATOPS00010034,L,HRPATOPS00010035,XL,HRPATOPS00010036;1199.00;;;;;;;;zerotype;;Summer;;No
1891231;GR2195B-BLACK-BLACK-1891231;GR2195BBLACK;Draft;Tops;Harpa;Adults-Women;Women;;;;Fashion;Casual;2017;S,HRPATOPS00010029,M,HRPATOPS00010030,L,HRPATOPS00010031,XL,HRPATOPS00010032;1199.00;;;;;;;;zerotype;;Summer;;No
1891196;L521-Green-1891196;L521-GREEN;Draft;Tops;GRAIN;Adults-Women;Women;;;;Fashion;;2017;S,GRINTOPS00000225,M,GRINTOPS00000226,L,GRINTOPS00000227,XL,GRINTOPS00000228;650.00;;;;;;;;zerotype;;Spring;;No
1891146;EM15-152-17-XL-Off White-1891146;WHITE OFF SHOULDER TOP WITH APPLIQUE;Draft;Tops;Envy Me;Adults-Women;Women;;;;Fashion;Casual;2017;XS,ENMETOPS00000308,S,ENMETOPS00000309,M,ENMETOPS00000310,L,ENMETOPS00000311,XL,ENMETOPS00000312;1299.00;;;;;;;;zerotype;;Summer;;No
1891145;EM15-145-17-XL-Blue-1891145;DENIM OFF SHOULDER TOP WITH STAR PRINT;Draft;Tops;Envy Me;Adults-Women;Women;;;;Fashion;Casual;2017;XS,ENMETOPS00000303,S,ENMETOPS00000304,M,ENMETOPS00000305,L,ENMETOPS00000306,XL,ENMETOPS00000307;1299.00;;;;;;;;zerotype;;Summer;;No
1891144;EM15-143-17-XL-White Black-1891144;GINGHAM PEPLUM TOP;Draft;Tops;Envy Me;Adults-Women;Women;;;;Fashion;Casual;2017;XS,ENMETOPS00000298,S,ENMETOPS00000299,M,ENMETOPS00000300,L,ENMETOPS00000301,XL,ENMETOPS00000302;1299.00;;;;;;;;zerotype;;Summer;;No
1891143;EM15-141-17-XL-White Blue-1891143;NAVY/WHITE GINGHAM OFF SHOULDER TOP WITH APPL;Draft;Tops;Envy Me;Adults-Women;Women;;;;Fashion;Casual;2017;XS,ENMETOPS00000293,S,ENMETOPS00000294,M,ENMETOPS00000295,L,ENMETOPS00000296,XL,ENMETOPS00000297;1299.00;;;;;;;;zerotype;;Summer;;No
1891142;EM15-140-17-XL-White Blue-1891142;STRIPE PEPLUM TOP;Draft;Tops;Envy Me;Adults-Women;Women;;;;Fashion;Casual;2017;XS,ENMETOPS00000288,S,ENMETOPS00000289,M,ENMETOPS00000290,L,ENMETOPS00000291,XL,ENMETOPS00000292;1299.00;;;;;;;;zerotype;;Summer;;No
1891141;EM15-133-17-XL-White Blue-1891141;NAVY/WHITE STRIPE OFF SHOULDER TOP WITH APPLI;Draft;Tops;Envy Me;Adults-Women;Women;;;;Fashion;Casual;2017;XS,ENMETOPS00000283,S,ENMETOPS00000284,M,ENMETOPS00000285,L,ENMETOPS00000286,XL,ENMETOPS00000287;1299.00;;;;;;;;zerotype;;Summer;;No
1891140;EM15-132-17-XL-Blue White-1891140;BLUE/WHITE STRIPE OFF SHOULDER TOP WITH APPLI;Draft;Tops;Envy Me;Adults-Women;Women;;;;Fashion;Casual;2017;XS,ENMETOPS00000278,S,ENMETOPS00000279,M,ENMETOPS00000280,L,ENMETOPS00000281,XL,ENMETOPS00000282;1299.00;;;;;;;;zerotype;;Summer;;No
1891139;EM15-131-17-XL-White Blue-1891139;BLUE/WHITE STRIPE OFF SHOULDER TOP WITH APPLI;Draft;Tops;Envy Me;Adults-Women;Women;;;;Fashion;Casual;2017;XS,ENMETOPS00000273,S,ENMETOPS00000274,M,ENMETOPS00000275,L,ENMETOPS00000276,XL,ENMETOPS00000277;1299.00;;;;;;;;zerotype;;Summer;;No
1891138;EM15-130-17-XL-White Blue-1891138;NAVY/WHITE GINGHAM OFF SHOULDER TOP WITH APPL;Draft;Tops;Envy Me;Adults-Women;Women;;;;Fashion;Casual;2017;XS,ENMETOPS00000268,S,ENMETOPS00000269,M,ENMETOPS00000270,L,ENMETOPS00000271,XL,ENMETOPS00000272;1299.00;;;;;;;;zerotype;;Summer;;No
1891121;NG25845-Maroon-Maroon-1891121;N-Gal Wine Asymmetric Ruffle Side Peplum;Draft;Tops;N-Gal;Adults-Women;Women;;;;Fashion;;2017;S,NGALTOPS00000035,M,NGALTOPS00000036,L,NGALTOPS00000037;1499.00;;;;;;;;zerotype;;Summer;;No
1891120;NG25826-Black-Black-1891120;N-Gal Black Double Cascading Ruffle Neck;Draft;Tops;N-Gal;Adults-Women;Women;;;;Fashion;;2017;S,NGALTOPS00000031,M,NGALTOPS00000032,L,NGALTOPS00000033,XL,NGALTOPS00000034;999.00;;;;;;;;zerotype;;Summer;;No
1891119;NG60309-White-White-1891119;N-Gal White Sexy Embellished Long Prom D;Draft;Dresses;N-Gal;Adults-Women;Women;;;;Fashion;;2017;M,NGALDRSS00000110,L,NGALDRSS00000111;1699.00;;;;;;;;zerotype;;Summer;;No
1891118;NG60208-White-White-1891118;N-Gal Goddess Halter Neck Lace Backless;Draft;Dresses;N-Gal;Adults-Women;Women;;;;Fashion;;2017;M,NGALDRSS00000108,L,NGALDRSS00000109;1299.00;;;;;;;;zerotype;;Summer;;No
1891117;NG2741-Red-Red-1891117;N-Gal Red Sequin Top Peplum Dress;Draft;Dresses;N-Gal;Adults-Women;Women;;;;Fashion;;2017;M,NGALDRSS00000106,L,NGALDRSS00000107;1599.00;;;;;;;;zerotype;;Summer;;No
1891116;NG2688-White-White-1891116;N-Gal Sexy White Sweetheart Lace Overlay;Draft;Dresses;N-Gal;Adults-Women;Women;;;;Fashion;;2017;S-L,NGALDRSS00000105;1699.00;;;;;;;;zerotype;;Summer;;No
1891115;NG2382-Red-Red-1891115;N-Gal Sexy Glamaur Strapless Dress Loop;Draft;Dresses;N-Gal;Adults-Women;Women;;;;Fashion;;2017;S-L,NGALDRSS00000104;1699.00;;;;;;;;zerotype;;Summer;;No
1891114;NG22635-Black-Black-1891114;N-Gal Black Sweet Scallop Pleated Skater;Draft;Dresses;N-Gal;Adults-Women;Women;;;;Fashion;;2017;S,NGALDRSS00000101,M,NGALDRSS00000102,L,NGALDRSS00000103;2099.00;;;;;;;;zerotype;;Summer;;No
1891113;NG21553-Black-Black-1891113;N-Gal Sleeveless Tank Black Bodycon Dres;Draft;Dresses;N-Gal;Adults-Women;Women;;;;Fashion;;2017;M,NGALDRSS00000099,L,NGALDRSS00000100;1299.00;;;;;;;;zerotype;;Summer;;No
1891112;NG21307-White-White-1891112;N-Gal Black White Colour Block Cross Bac;Draft;Dresses;N-Gal;Adults-Women;Women;;;;Fashion;;2017;M,NGALDRSS00000097,L,NGALDRSS00000098;1999.00;;;;;;;;zerotype;;Summer;;No
1891111;NG21236-Multi-Multi-1891111;N-Gal Fashion Polka and Vertical Stripes;Draft;Dresses;N-Gal;Adults-Women;Women;;;;Fashion;;2017;M,NGALDRSS00000094,L,NGALDRSS00000095,XL,NGALDRSS00000096;1299.00;;;;;;;;zerotype;;Summer;;No
1891110;NG21145-White-White-1891110;N-Gal White Sexy Mesh Bandage Illusion M;Draft;Dresses;N-Gal;Adults-Women;Women;;;;Fashion;;2017;M,NGALDRSS00000092,L,NGALDRSS00000093;1699.00;;;;;;;;zerotype;;Summer;;No
1891109;NG21144-Pink-Pink-1891109;N-Gal Pink Sexy Cut-Out Long Sleeves Par;Draft;Dresses;N-Gal;Adults-Women;Women;;;;Fashion;;2017;M,NGALDRSS00000089,L,NGALDRSS00000090,XL,NGALDRSS00000091;1699.00;;;;;;;;zerotype;;Summer;;No
1891108;NG21086-White-White-1891108;N-Gal Angela Bandeau Peplum Dress;Draft;Dresses;N-Gal;Adults-Women;Women;;;;Fashion;;2017;M,NGALDRSS00000087,L,NGALDRSS00000088;1699.00;;;;;;;;zerotype;;Summer;;No
1891107;NG21043-Blue-Blue-1891107;N-Gal Blue Sexy Contrast-colored Mesh Pe;Draft;Dresses;N-Gal;Adults-Women;Women;;;;Fashion;;2017;S-L,NGALDRSS00000086;1999.00;;;;;;;;zerotype;;Summer;;No
1891106;NG21043-Black-Black-1891106;N-Gal Black Sexy Contrast-colored Mesh P;Draft;Dresses;N-Gal;Adults-Women;Women;;;;Fashion;;2017;S-L,NGALDRSS00000085;1999.00;;;;;;;;zerotype;;Summer;;No
1891105;NG21029-Red-Red-1891105;N-Gal Red Trendy Celeb Red Curve-enhanci;Draft;Dresses;N-Gal;Adults-Women;Women;;;;Fashion;;2017;M,NGALDRSS00000083,L,NGALDRSS00000084;1499.00;;;;;;;;zerotype;;Summer;;No
1891103;NG21019-Navy Blue-Navy Blue-1891103;N-Gal Sexy Navy Color Block Lace Vintage;Draft;Dresses;N-Gal;Adults-Women;Women;;;;Fashion;;2017;M,NGALDRSS00000081,L,NGALDRSS00000082;1699.00;;;;;;;;zerotype;;Summer;;No
1891102;NG21000-Blue-Blue-1891102;N-Gal Blue Fashionable Long-sleeved Mini;Draft;Dresses;N-Gal;Adults-Women;Women;;;;Fashion;;2017;S-L,NGALDRSS00000080;1999.00;;;;;;;;zerotype;;Summer;;No
1890984;AKCOMPO0020016-Blue-1890984;SOLOMON POLO;Draft;Tshirts;Alcis;Adults-Men;Men;;;;Core;;2017;M,ALCSTSHT00000860,S,ALCSTSHT00000861,L,ALCSTSHT00000862,XL,ALCSTSHT00000863,XXL,ALCSTSHT00000864;899.00;;;;;;;;zerotype;;Spring;;No
1890983;AKCOMPO0020014-Orange-1890983;SOLOMON POLO;Draft;Tshirts;Alcis;Adults-Men;Men;;;;Core;;2017;M,ALCSTSHT00000855,S,ALCSTSHT00000856,L,ALCSTSHT00000857,XL,ALCSTSHT00000858,XXL,ALCSTSHT00000859;899.00;;;;;;;;zerotype;;Spring;;No
1890982;AKCOMPO0020013-Red-1890982;SOLOMON POLO;Draft;Tshirts;Alcis;Adults-Men;Men;;;;Core;;2017;M,ALCSTSHT00000850,S,ALCSTSHT00000851,L,ALCSTSHT00000852,XL,ALCSTSHT00000853,XXL,ALCSTSHT00000854;899.00;;;;;;;;zerotype;;Spring;;No
1890980;AKCOMPO0010011-TURQUISE-1890980;PETER POLO;Draft;Tshirts;Alcis;Adults-Men;Men;;;;Core;;2017;M,ALCSTSHT00000845,S,ALCSTSHT00000846,L,ALCSTSHT00000847,XL,ALCSTSHT00000848,XXL,ALCSTSHT00000849;899.00;;;;;;;;zerotype;;Spring;;No
1890979;AFW16RMWS01101-WHITE-1890979;ALCIS SPRINT SHORTS;Draft;Shorts;Alcis;Adults-Men;Men;;;;Core;;2017;L,ALCSSHOR00000101,M,ALCSSHOR00000102,S,ALCSSHOR00000103,XL,ALCSSHOR00000104,XXL,ALCSSHOR00000105;699.00;;;;;;;;zerotype;;Spring;;No
1890703;TG1530-Brown-1890703;Tusker Gourd Lamp;Draft;Lamps Lanterns and Lamp Shades;Sylvn Studio;Adults-Unisex;Unisex;;;;Core;;2017;8"x8"x11",SVSTLLLS00000055;3599.00;;;;;;;;zerotype;;Summer;;No
1890702;PG1520-Brown-1890702;Papillon Gourd Lamp;Draft;Lamps Lanterns and Lamp Shades;Sylvn Studio;Adults-Unisex;Unisex;;;;Core;;2017;6.5"x6.5"x9",SVSTLLLS00000054;2999.00;;;;;;;;zerotype;;Summer;;No
1890699;PG1480-Brown-1890699;Polka Gourd Lamp;Draft;Lamps Lanterns and Lamp Shades;Sylvn Studio;Adults-Unisex;Unisex;;;;Core;;2017;6"x6"x12.5",SVSTLLLS00000051;3399.00;;;;;;;;zerotype;;Summer;;No
1890694;PG1420-Brown-1890694;Pollux Gourd Lamp;Draft;Lamps Lanterns and Lamp Shades;Sylvn Studio;Adults-Unisex;Unisex;;;;Core;;2017;7"x7"x12",SVSTLLLS00000046;3399.00;;;;;;;;zerotype;;Summer;;No
1773891;BB1970_6-7Yrs-Blue-1773891;Budding Bees Girls Blue Printed Shirt Dr;BIS + Content Complete;Dresses;Budding Bees;Kids-Girls;Girls;Blue;;;Fashion;Casual;2017;2-3Y,BDBSDRSS00001358,4-5Y,BDBSDRSS00001359,5-6Y,BDBSDRSS00001360,6-7Y,BDBSDRSS00001361;1099.00;<a href='/blue?src=pd' class='seolink'>Blue</a> printed woven <a href='/shirt-dress?src=pd' class='seolink'>shirt dress</a>, has a shirt collar, sleeveless , flared hem;Keep your little girl looking classy with this super-cute dress from Budding Bees.  This blue dress is a fun piece for her this summer for either hanging out with friends or going out for dinner.;Cotton <br> Hand-wash;;;Budding Bees Girls Blue Printed Shirt Dress;Budding Bees,JIT;zerotype;;Summer;;No
1773882;BB1918_7-8Yrs-Black-1773882;Budding Bees Girls Navy Blue Floral Dres;Inactive - Marketplace - Reject;Dresses;Budding Bees;Kids-Girls;Girls;Black;;;Fashion;Casual;2017;2-3Y,BDBSDRSS00001322,4-5Y,BDBSDRSS00001323,5-6Y,BDBSDRSS00001324,7-8Y,BDBSDRSS00001325;1099.00;<a href='/black?src=pd' class='seolink'>Black</a> printed woven fit and flare <a href='/dress?src=pd' class='seolink'>dress</a>, has a round neck, sleeveless , flared hem;This fashionable dress from Budding Bees will have your little girl looking and feeling like a princess.  This black dress is a fun piece for her this summer for either hanging out with friends or going out for dinner.;Cotton <br /> Hand-wash;;;Budding Bees Girls Black Printed Fit and Flare Dress;Budding Bees,JIT;zerotype;;Summer;Color mismatch. Its Navy blue not black;No
