Style ID;Vendor Article Number;Vendor Article Name;Active Status;Article type;Brand;Age Group;Gender;Base Colour;Colour1;Colour2;Fashion Type;Usage;Year;Size - SKU code pair;MRP;Style Description;Style Note;Materials and Care Description;Size and Fit Description;Size Chart Path;Product Display Name;Tags;Product Type;Classification Brand;Season;Comments;Upload Images
1890690;ARY1155AK-Red-1890690;round neck contrast play kurti;Draft;Kurtas;Ayaany;Adults-Women;Women;Red;;;Core;;2017;S,AYANKRTA00001302,M,AYANKRTA00001303,L,AYANKRTA00001304,XL,AYANKRTA00001305,XXL,AYANKRTA00001306;999.00;;;<p>100% Cotton Handwash</p>;;;;;zerotype;;Summer;;No
1890689;ARY1393A-Black-1890689;contrast play kurta;Draft;Kurtas;Ayaany;Adults-Women;Women;Black;;;Core;;2017;S,AYANKRTA00001297,M,AYANKRTA00001298,L,AYANKRTA00001299,XL,AYANKRTA00001300,XXL,AYANKRTA00001301;999.00;;;<p>100% Cotton Handwash</p>;;;;;zerotype;;Summer;;No
1890688;ARY1396D-Yellow-1890688;kurta with shrug;Draft;Kurtas;Ayaany;Adults-Women;Women;Yellow;;;Core;;2017;S,AYANKRTA00001292,M,AYANKRTA00001293,L,AYANKRTA00001294,XL,AYANKRTA00001295,XXL,AYANKRTA00001296;1499.00;;;<p>100% Cotton Handwash</p>;;;;;zerotype;;Summer;;No
1890675;ARY1396A-Black-1890675;kurta with shrug;Draft;Kurtas;Ayaany;Adults-Women;Women;Black;Off White;;Core;;2017;S,AYANKRTA00001287,M,AYANKRTA00001288,L,AYANKRTA00001289,XL,AYANKRTA00001290,XXL,AYANKRTA00001291;1499.00;;;<p>100% Cotton Handwash</p>;;;;;zerotype;;Summer;;No
1890674;ARY1194-Cream-1890674;kaftan kurta;Draft;Kurtas;Ayaany;Adults-Women;Women;Cream;;;Core;;2017;S,AYANKRTA00001282,M,AYANKRTA00001283,L,AYANKRTA00001284,XL,AYANKRTA00001285,XXL,AYANKRTA00001286;999.00;;;<p>100% Cotton Handwash</p>;;;;;zerotype;;Summer;;No
1890671;ARY1355A-Black-1890671;angarakha neck flare kurta;Draft;Kurtas;Ayaany;Adults-Women;Women;Black;;;Core;;2017;S,AYANKRTA00001277,M,AYANKRTA00001278,L,AYANKRTA00001279,XL,AYANKRTA00001280,XXL,AYANKRTA00001281;1699.00;;;<p>100% Cotton Handwash</p>;;;;;zerotype;;Summer;;No
1890649;ARY1169C-Pink-1890649;strappy kurta with shrug;Draft;Kurtas;Ayaany;Adults-Women;Women;Pink;Brown;;Core;;2017;S,AYANKRTA00001272,M,AYANKRTA00001273,L,AYANKRTA00001274,XL,AYANKRTA00001275,XXL,AYANKRTA00001276;1299.00;;;<p>100% Cotton Handwash</p>;;;;;zerotype;;Summer;;No
1890647;ARY1169B-Blue-1890647;strappy kurta with shrug;Draft;Kurtas;Ayaany;Adults-Women;Women;Blue;;;Core;;2017;S,AYANKRTA00001267,M,AYANKRTA00001268,L,AYANKRTA00001269,XL,AYANKRTA00001270,XXL,AYANKRTA00001271;1299.00;;;<p>100% Cotton Handwash</p>;;;;;zerotype;;Summer;;No
