Style ID;Vendor Article Number;Vendor Article Name;Active Status;Article type;Brand;Age Group;Gender;Base Colour;Colour1;Colour2;Fashion Type;Usage;Year;Size - SKU code pair;MRP;Style Description;Style Note;Materials and Care Description;Size and Fit Description;Size Chart Path;Product Display Name;Tags;Product Type;Classification Brand;Season;Comments;Upload Images
2279565;RQSZ00088-B7-Blue-2279565;F/S MANDARIN CLR WT BRL CUF &PKT-CONT FT;Draft;Shirts;Raymond;Adults-Men;Men;Blue;;;Fashion;Formal;2017;38,RYMDSHRT00009711,44,RYMDSHRT00009712,46,RYMDSHRT00009713,39,RYMDSHRT00009714,40,RYMDSHRT00009715,42,RYMDSHRT00009716;2499.00;<p>RA-GQ-SHIRT</p>;;<p>MACHINE WASH WARM GENTLE CYCLE</p>;;;NA;;zerotype;;Winter;;No
2279562;RMSZ07033-B5-Blue-2279562;F/S SEMI CUTAWY STANDARD PLKT-SLIM FIT;Draft;Shirts;Raymond;Adults-Men;Men;Blue;;;Fashion;Formal;2017;38,RYMDSHRT00009703,44,RYMDSHRT00009704,46,RYMDSHRT00009705,39,RYMDSHRT00009706,40,RYMDSHRT00009707,42,RYMDSHRT00009708;1799.00;<p>RA-GM-SHIRT</p>;;<p>MACHINE WASH WARM GENTLE CYCLE</p>;;;NA;;zerotype;;Winter;;No
2279559;RMSZ07024-B7-Blue-2279559;F/S SEMI CUTAWY STANDARD PLKT-SLIM FIT;Draft;Shirts;Raymond;Adults-Men;Men;Blue;;;Fashion;Formal;2017;38,RYMDSHRT00009697,44,RYMDSHRT00009698,46,RYMDSHRT00009699,39,RYMDSHRT00009700,40,RYMDSHRT00009701,42,RYMDSHRT00009702;3199.00;<p>RA-GM-SHIRT</p>;;<p>MACHINE WASH WARM GENTLE CYCLE</p>;;;NA;;zerotype;;Winter;;No
2279555;RMSZ06945-B6-Blue-2279555;F/S SEMI CUT WT TM@INR CLR,CUF&PLKT-CNTP;Draft;Shirts;Raymond;Adults-Men;Men;Blue;;;Fashion;Formal;2017;38,RYMDSHRT00009691,44,RYMDSHRT00009692,46,RYMDSHRT00009693,39,RYMDSHRT00009694,40,RYMDSHRT00009695,42,RYMDSHRT00009696;2499.00;<p>RA-GM-SHIRT</p>;;<p>MACHINE WASH WARM GENTLE CYCLE</p>;;;NA;;zerotype;;Winter;;No
2279554;RMSZ06885-G4-Grey-2279554;F/S SEMI CUTAWY TRIPLE STCH CLR-CONT FT;Draft;Shirts;Raymond;Adults-Men;Men;Grey;;;Fashion;Formal;2017;38,RYMDSHRT00009683,44,RYMDSHRT00009684,46,RYMDSHRT00009685,39,RYMDSHRT00009686,40,RYMDSHRT00009687,42,RYMDSHRT00009688;3499.00;<p>RA-GM-SHIRT</p>;;<p>MACHINE WASH WARM GENTLE CYCLE</p>;;;NA;;zerotype;;Winter;;No
2279553;RMSZ06842-B1-Blue-2279553;F/S SEMI CUTAWY STANDARD PLKT-SLIM FIT;Draft;Shirts;Raymond;Adults-Men;Men;Blue;;;Fashion;Formal;2017;38,RYMDSHRT00009677,44,RYMDSHRT00009678,46,RYMDSHRT00009679,39,RYMDSHRT00009680,40,RYMDSHRT00009681,42,RYMDSHRT00009682;2499.00;<p>RA-GM-SHIRT</p>;;<p>MACHINE WASH WARM GENTLE CYCLE</p>;;;NA;;zerotype;;Winter;;No
2279552;RMSZ06805-F2-Beige-2279552;F/S FULL CUTAWY WTH PATCH@CLR & CUFF-SLM;Draft;Shirts;Raymond;Adults-Men;Men;Beige;;;Fashion;Casual;2017;38,RYMDSHRT00009669,44,RYMDSHRT00009670,46,RYMDSHRT00009671,39,RYMDSHRT00009672,40,RYMDSHRT00009673,42,RYMDSHRT00009674;3199.00;<p>RA-GM-SHIRT</p>;;<p>M/C WASH GENTLE</p>;;;NA;;zerotype;;Winter;;No
2279551;RMSZ06804-B4-Blue-2279551;F/S NAROW MNDRN CLR SLIM PLACKT CNTP FIT;Draft;Shirts;Raymond;Adults-Men;Men;Blue;;;Fashion;Casual;2017;38,RYMDSHRT00009663,44,RYMDSHRT00009664,46,RYMDSHRT00009665,39,RYMDSHRT00009666,40,RYMDSHRT00009667,42,RYMDSHRT00009668;3199.00;<p>RA-GM-SHIRT</p>;;<p>M/C WASH GENTLE</p>;;;NA;;zerotype;;Winter;;No
2279550;RMSZ06786-B6-Blue-2279550;F/S SEMI CUTAWY CLR LOOP SHIRT-CNTP;Draft;Shirts;Raymond;Adults-Men;Men;Blue;;;Fashion;Formal;2017;38,RYMDSHRT00009657,44,RYMDSHRT00009658,46,RYMDSHRT00009659,39,RYMDSHRT00009660,40,RYMDSHRT00009661,42,RYMDSHRT00009662;2499.00;<p>RA-GM-SHIRT</p>;;<p>MACHINE WASH WARM GENTLE CYCLE</p>;;;NA;;zerotype;;Winter;;No
2279549;RMSZ06711-W0-White-2279549;F/S SEMI CUTAWY STANDARD PLKT-SLIM FIT;Draft;Shirts;Raymond;Adults-Men;Men;White;;;Fashion;Formal;2017;38,RYMDSHRT00009651,44,RYMDSHRT00009652,46,RYMDSHRT00009653,39,RYMDSHRT00009654,40,RYMDSHRT00009655,42,RYMDSHRT00009656;2299.00;<p>RA-GM-SHIRT</p>;;<p>MACHINE WASH WARM GENTLE CYCLE</p>;;;NA;;zerotype;;Winter;;No
2279548;RMSY06449-B1-Blue White-2279548;H/S SEMI CUTAWY CLR STNDRD PLKT-CONT FIT;Draft;Shirts;Raymond;Adults-Men;Men;Blue;White;;Fashion;Formal;2017;38,RYMDSHRT00009645,39,RYMDSHRT00009646,40,RYMDSHRT00009647,42,RYMDSHRT00009648,44,RYMDSHRT00009649,46,RYMDSHRT00009650;1799.00;<p>Cut to perfection for corporate men, this formal shirt by Raymond exhibits a charming interplay of white and blue hues. While the micro check pattern adds an element of sophistication into it, the cotton fabric assures exceptional breathability. Club it with formal trousers and dress shoes.</p>;;<p>MACHINE WASH WARM GENTLE CYCLE</p>;;;NA;;zerotype;;Winter;;No
2279547;RMSY06161-B5-Blue-2279547;H/S SEMI CUTAWY CLR STNDRD PLKT-CONT FIT;Draft;Shirts;Raymond;Adults-Men;Men;Blue;;;Fashion;Formal;2017;38,RYMDSHRT00009631,39,RYMDSHRT00009632,40,RYMDSHRT00009633,42,RYMDSHRT00009634,44,RYMDSHRT00009635,46,RYMDSHRT00009636;2399.00;<p>For that love of wearing checks, urbane men can pick this blue formal shirt from Raymond. Adding oodles of charm to your formal corporate look, this shirt is styled with a half cutaway collar and patch pocket. Team it best with contrast formal trousers and lace-ups to stand out in the crowd.</p>;;<p>MACHINE WASH WARM GENTLE CYCLE</p>;;;NA;;zerotype;;Winter;;No
2279546;RMSX07028-M8-Maroon-2279546;F/S SEMICUTAWY CLR CHSL PKT&CUF-CONT FIT;Draft;Shirts;Raymond;Adults-Men;Men;Maroon;;;Fashion;Formal;2017;38,RYMDSHRT00009623,44,RYMDSHRT00009624,46,RYMDSHRT00009625,39,RYMDSHRT00009626,40,RYMDSHRT00009627,42,RYMDSHRT00009628;2799.00;<p>RA-GM-SHIRT</p>;;<p>MACHINE WASH WARM GENTLE CYCLE</p>;;;NA;;zerotype;;Winter;;No
2279545;RMSX06927-W0-White-2279545;F/S SEMI CUT WTH PIPNG & TRM@CLR&CUF-CNT;Draft;Shirts;Raymond;Adults-Men;Men;White;;;Fashion;Formal;2017;38,RYMDSHRT00009617,44,RYMDSHRT00009618,46,RYMDSHRT00009619,39,RYMDSHRT00009620,40,RYMDSHRT00009621,42,RYMDSHRT00009622;3199.00;<p>RA-GM-SHIRT</p>;;<p>MACHINE WASH WARM GENTLE CYCLE</p>;;;NA;;zerotype;;Winter;;No
2279544;RMSX06926-W0-White-2279544;F/S SEMICUTAWY CLR CHSL PKT&CUF-CONT FIT;Draft;Shirts;Raymond;Adults-Men;Men;White;;;Fashion;Formal;2017;38,RYMDSHRT00009611,44,RYMDSHRT00009612,46,RYMDSHRT00009613,39,RYMDSHRT00009614,40,RYMDSHRT00009615,42,RYMDSHRT00009616;2299.00;<p>RA-GM-SHIRT</p>;;<p>MACHINE WASH WARM GENTLE CYCLE</p>;;;NA;;zerotype;;Winter;;No
2279543;RMSX06900-B4-Blue-2279543;F/S SEMICUTAWY CLR CHSL PKT&CUF-CONT FIT;Draft;Shirts;Raymond;Adults-Men;Men;Blue;;;Fashion;Formal;2017;38,RYMDSHRT00009605,44,RYMDSHRT00009606,46,RYMDSHRT00009607,39,RYMDSHRT00009608,40,RYMDSHRT00009609,42,RYMDSHRT00009610;1999.00;<p>RA-GM-SHIRT</p>;;<p>MACHINE WASH WARM GENTLE CYCLE</p>;;;NA;;zerotype;;Winter;;No
2279542;RMSX06882-B4-Blue-2279542;F/S SEMICUTAWY CLR CHSL PKT&CUF-CONT FIT;Draft;Shirts;Raymond;Adults-Men;Men;Blue;;;Fashion;Formal;2017;38,RYMDSHRT00009599,44,RYMDSHRT00009600,46,RYMDSHRT00009601,39,RYMDSHRT00009602,40,RYMDSHRT00009603,42,RYMDSHRT00009604;3499.00;<p>RA-GM-SHIRT</p>;;<p>MACHINE WASH WARM GENTLE CYCLE</p>;;;NA;;zerotype;;Winter;;No
2279541;RMSX06845-R6-Red Pink-2279541;F/S SEMI CUTAWY CONCEALED PLKT-CONT FT;Draft;Shirts;Raymond;Adults-Men;Men;Red;Pink;;Fashion;Formal;2017;38,RYMDSHRT00009593,44,RYMDSHRT00009594,46,RYMDSHRT00009595,39,RYMDSHRT00009596,40,RYMDSHRT00009597,42,RYMDSHRT00009598;2499.00;<p>RA-GM-SHIRT</p>;;<p>MACHINE WASH WARM GENTLE CYCLE</p>;;;NA;;zerotype;;Winter;;No
2279540;RMSX06839-B2-Blue-2279540;F/S SEMI CUTAWY WTH STYLSD CLR BND-CNTP;Draft;Shirts;Raymond;Adults-Men;Men;Blue;;;Fashion;Formal;2017;38,RYMDSHRT00009586,44,RYMDSHRT00009587,46,RYMDSHRT00009588,39,RYMDSHRT00009589,40,RYMDSHRT00009590,42,RYMDSHRT00009591;2499.00;<p>RA-GM-SHIRT</p>;;<p>MACHINE WASH WARM GENTLE CYCLE</p>;;;NA;;zerotype;;Winter;;No
2279539;RMSX06834-F2-Beige-2279539;F/S SEMICUTAWY CLR CHSL PKT&CUF-CONT FIT;Draft;Shirts;Raymond;Adults-Men;Men;Beige;;;Fashion;Formal;2017;38,RYMDSHRT00009580,44,RYMDSHRT00009581,46,RYMDSHRT00009582,39,RYMDSHRT00009583,40,RYMDSHRT00009584,42,RYMDSHRT00009585;2799.00;<p>RA-GM-SHIRT</p>;;<p>MACHINE WASH WARM GENTLE CYCLE</p>;;;NA;;zerotype;;Winter;;No
2279538;RMSX06810-F4-Beige-2279538;F/S SEMICUTAWY CLR CHSL PKT&CUF-CONT FIT;Draft;Shirts;Raymond;Adults-Men;Men;Beige;;;Fashion;Formal;2017;38,RYMDSHRT00009572,44,RYMDSHRT00009573,46,RYMDSHRT00009574,39,RYMDSHRT00009575,40,RYMDSHRT00009576,42,RYMDSHRT00009577;3299.00;<p>RA-GM-SHIRT</p>;;<p>M/C WASH GENTLE</p>;;;NA;;zerotype;;Winter;;No
2279537;RMSX06802-F3-Beige-2279537;F/S SEMICUTAWY CLR CHSL PKT&CUF-CONT FIT;Draft;Shirts;Raymond;Adults-Men;Men;Beige;;;Fashion;Formal;2017;38,RYMDSHRT00009566,44,RYMDSHRT00009567,46,RYMDSHRT00009568,39,RYMDSHRT00009569,40,RYMDSHRT00009570,42,RYMDSHRT00009571;3199.00;<p>RA-GM-SHIRT</p>;;<p>M/C WASH GENTLE</p>;;;NA;;zerotype;;Winter;;No
2279536;RMSX06792-B7-Blue-2279536;F/S SEMI CUTAWY CLR FRENCH PLKT-CONT FT;Draft;Shirts;Raymond;Adults-Men;Men;Blue;;;Fashion;Formal;2017;38,RYMDSHRT00009560,39,RYMDSHRT00009561,40,RYMDSHRT00009562,42,RYMDSHRT00009563,44,RYMDSHRT00009564,46,RYMDSHRT00009565;2499.00;<p>Showcasing classy appeal and solid design for perfect formal style is this dark blue formal shirt from Raymond. The full front button placket and a semi cutaway collar are other highlights of this shirt. Stitched to perfection using 100% cotton fabric, this full-sleeved shirt can be comfortably worn with formal trousers.</p>;;<p>MACHINE WASH WARM GENTLE CYCLE</p>;;;NA;;zerotype;;Winter;;No
2279535;RMSX06689-W0-White-2279535;F/S SEMI CUT WT TM@INR CLR,CUF&PLKT-CNTP;Draft;Shirts;Raymond;Adults-Men;Men;White;;;Fashion;Formal;2017;38,RYMDSHRT00009554,44,RYMDSHRT00009555,46,RYMDSHRT00009556,39,RYMDSHRT00009557,40,RYMDSHRT00009558,42,RYMDSHRT00009559;2299.00;<p>RA-GM-SHIRT</p>;;<p>MACHINE WASH WARM GENTLE CYCLE</p>;;;NA;;zerotype;;Winter;;No
2279534;RMSX06540-W0-White-2279534;F/S SEMI CUTAWY CLR FRENCH PLKT-CONT FIT;Draft;Shirts;Raymond;Adults-Men;Men;White;;;Fashion;Formal;2017;38,RYMDSHRT00009548,39,RYMDSHRT00009549,40,RYMDSHRT00009550,42,RYMDSHRT00009551,44,RYMDSHRT00009552,46,RYMDSHRT00009553;1999.00;<p>White in colour, this shirt from Raymond will bring forth the best of both worlds, with its structured cuts and classic design that promises the highest form of style and comfort. It has a textured finish all over, French placket and full sleeves with barrel cuffs that adds in a boost of style. Complete your charming look by teaming this shirt with a pair of blue trousers and black shoes.</p>;;<p>MACHINE WASH WARM GENTLE CYCLE</p>;;;NA;;zerotype;;Winter;;No
2279533;RMSX06449-B1-Blue White-2279533;F/S SEMI CUTAWY CLR CHSL PKT&CUF-CONT FT;Draft;Shirts;Raymond;Adults-Men;Men;Blue;White;;Fashion;Formal;2017;38,RYMDSHRT00009542,44,RYMDSHRT00009543,46,RYMDSHRT00009544,39,RYMDSHRT00009545,40,RYMDSHRT00009546,42,RYMDSHRT00009547;1799.00;<p>RA-GM-SHIRT</p>;;<p>MACHINE WASH WARM GENTLE CYCLE</p>;;;NA;;zerotype;;Winter;;No
2279530;RMSX06410-G7-Grey-2279530;F/S SEMI CUTAWY CLR CHSL PKT&CUF-CONT FT;Draft;Shirts;Raymond;Adults-Men;Men;Grey;;;Fashion;Formal;2017;38,RYMDSHRT00009534,39,RYMDSHRT00009535,40,RYMDSHRT00009536,42,RYMDSHRT00009537,44,RYMDSHRT00009538,46,RYMDSHRT00009539;2099.00;<p>Showcasing true formal appeal is this dark grey shirt from Raymond. Decked with a self-design all over and a semi cutaway collar, this full-sleeved shirt is a wardrobe must-have. Classy and appealing, this shirt can be best paired with contrast trousers and lace-ups.</p>;;<p>MACHINE WASH WARM GENTLE CYCLE</p>;;;NA;;zerotype;;Winter;;No
2279527;RMSX06409-V6-Purple-2279527;F/S NAROW MNDRN CLR SLIM PLACKT CNTP FIT;Draft;Shirts;Raymond;Adults-Men;Men;Purple;;;Fashion;Formal;2017;38,RYMDSHRT00009528,39,RYMDSHRT00009529,40,RYMDSHRT00009530,42,RYMDSHRT00009531,44,RYMDSHRT00009532,46,RYMDSHRT00009533;2299.00;<p>Sharply tailored to lend smart look to urbane men is this dark violet formal shirt from Raymond. Decked with a mandarin collar and woven motifs all over, this shirt is a wardrobe must-have. You will surely fall in love with the amazing sheen of this shirt. Team it perfectly with contrast trousers and smart lace-ups.</p>;;<p>M/C WASH GENTLE</p>;;;NA;;zerotype;;Winter;;No
2279526;RMSX06408-R6-Red-2279526;F/S SEMI CUTAWY CLR FRENCH PLKT-CONT FIT;Draft;Shirts;Raymond;Adults-Men;Men;Red;;;Fashion;Formal;2017;38,RYMDSHRT00009520,39,RYMDSHRT00009521,40,RYMDSHRT00009522,42,RYMDSHRT00009523,44,RYMDSHRT00009524,46,RYMDSHRT00009525;2299.00;<p>Red in colour, this shirt from Raymond will reign supreme over the rest with its vibrant hue and attractive self-pattern all over, making it perfect for the stylish man. It has a French placket and a semi cutaway collar that gives it a sophisticated feel and full sleeves with mitered cuffs that adds in a touch of style. Look your best by teaming this shirt with a pair of dark brown trousers and black shoes.</p>;;<p>MACHINE WASH WARM GENTLE CYCLE</p>;;;NA;;zerotype;;Winter;;No
2279525;RMSX06176-R4-Red-2279525;F/S SEMI CUTAWY CLR FRENCH PLKT-CONT FIT;Draft;Shirts;Raymond;Adults-Men;Men;Red;;;Fashion;Formal;2017;38,RYMDSHRT00009512,44,RYMDSHRT00009513,46,RYMDSHRT00009514,39,RYMDSHRT00009515,40,RYMDSHRT00009516,42,RYMDSHRT00009517;2199.00;<p>RA-GM-SHIRT</p>;;<p>MACHINE WASH WARM GENTLE CYCLE</p>;;;NA;;zerotype;;Winter;;No
2279524;RMSX06170-Y4-Yellow-2279524;F/S SEMI CUTAWY CLR FRENCH PLKT-CONT FIT;Draft;Shirts;Raymond;Adults-Men;Men;Yellow;;;Fashion;Formal;2017;38,RYMDSHRT00009506,39,RYMDSHRT00009507,40,RYMDSHRT00009508,42,RYMDSHRT00009509,44,RYMDSHRT00009510,46,RYMDSHRT00009511;2399.00;<p>Look sharp and edgy at work wearing this yellow coloured shirt from the house of Raymond. The cotton fabric ensures lightweight feel and maximum breathability throughout the day. Featuring a refined solid pattern, this shirt will be best teamed with grey trousers and black glossy Oxford shoes.</p>;;<p>MACHINE WASH WARM GENTLE CYCLE</p>;;;NA;;zerotype;;Winter;;No
2279523;RMSX05195-R4-Red White-2279523;F/s dbl btndwn clr cntrst btnplkt cntpft;Draft;Shirts;Raymond;Adults-Men;Men;Red;White;;Fashion;Formal;2017;38,RYMDSHRT00009500,39,RYMDSHRT00009501,40,RYMDSHRT00009502,42,RYMDSHRT00009503,44,RYMDSHRT00009504,46,RYMDSHRT00009505;1999.00;<p>Adding oodles of style and class to this white coloured shirt from the house of Raymond is the check pattern all over as well as double button-down collar. The high-quality cotton fabric ensures soft feel and total comfort. Pair up this shirt with black trousers and formal shoes to put your best look forward.</p>;;<p>MACHINE WASH WARM GENTLE CYCLE</p>;;;NA;;zerotype;;Winter;;No
2279520;RMSH06538-W0-White-2279520;F/S SEMI CUTAWY CLR CHSL PKT&CUF-CONT FT;Draft;Shirts;Raymond;Adults-Men;Men;White;;;Fashion;Formal;2017;38,RYMDSHRT00009494,39,RYMDSHRT00009495,40,RYMDSHRT00009496,42,RYMDSHRT00009497,44,RYMDSHRT00009498,46,RYMDSHRT00009499;2199.00;<p>Tailored to excellence, this white coloured shirt from the house of Raymond features a neat and refined solid pattern. The 100% cotton fabric will keep you comfortable and sweat free all day long, whereas the perfectly-cut silhouette offers a flattering fit. Pair up this shirt with beige trousers and brown Oxford shoes to make a distinct style statement.</p>;;<p>MACHINE WASH WARM GENTLE CYCLE</p>;;;NA;;zerotype;;Winter;;No
2279516;RMSH06525-W0-White-2279516;F/S SEMI CUTAWY CLR FRENCH PLKT-CONT FIT;Draft;Shirts;Raymond;Adults-Men;Men;White;;;Fashion;Formal;2017;38,RYMDSHRT00009488,39,RYMDSHRT00009489,40,RYMDSHRT00009490,42,RYMDSHRT00009491,44,RYMDSHRT00009492,46,RYMDSHRT00009493;2299.00;<p>Understated and timeless, this white formal shirt from Raymond will give your corporate dressing a sharp character. Tailored in ultra-soft cotton fabric for maximum comfort, it is finished with a semi-cutaway collar for added grace. Pair it with flat-front trousers and Derbies to look classy.</p>;;<p>MACHINE WASH WARM GENTLE CYCLE</p>;;;NA;;zerotype;;Winter;;No
2279514;RMSH06161-N5-Green-2279514;F/S SPRD CLR,FRCH PLKT  SLIM FIT;Draft;Shirts;Raymond;Adults-Men;Men;Green;;;Fashion;Formal;2017;38,RYMDSHRT00009482,39,RYMDSHRT00009483,40,RYMDSHRT00009484,42,RYMDSHRT00009485,44,RYMDSHRT00009486,46,RYMDSHRT00009487;2399.00;<p>Created exclusively for the man who loves standout styling, this green formal shirt by Raymond exhibits a marriage of seasoned tailoring and cutting-edge machines. Featuring a classy shepherds check pattern and plain placket, it is finished with a patch pocket on the left chest. Fashioned using cotton, it will go well with flat-front trousers and dress shoes.</p>;;<p>MACHINE WASH WARM GENTLE CYCLE</p>;;;NA;;zerotype;;Winter;;No
2279512;RMSH05976-P7-Blue-2279512;F/S SPRD CLR,FRCH PLKT  SLIM FIT;Draft;Shirts;Raymond;Adults-Men;Men;Blue;;;Fashion;Formal;2017;46,RYMDSHRT00009474,44,RYMDSHRT00009475,42,RYMDSHRT00009476,40,RYMDSHRT00009477,39,RYMDSHRT00009478,38,RYMDSHRT00009479;2199.00;<p>The classy and timeless appeal of stripes dictates the urbane grace of this blue formal shirt from Raymond. Designed with a spreadcollar and a French placketfor a well-defined character, it is best worn with pastel trousers and brown brogues.</p>;;<p>MACHINE WASH WARM GENTLE CYCLE</p>;;;NA;;zerotype;;Winter;;No
2279511;RMSF06712-K9-Black-2279511;F/S FULL CUTAWY WTH STYLZ FRNCH CUF-CNTP;Draft;Shirts;Raymond;Adults-Men;Men;Black;;;Fashion;Formal;2017;46,RYMDSHRT00009468,39,RYMDSHRT00009469,38,RYMDSHRT00009470,44,RYMDSHRT00009471,42,RYMDSHRT00009472,40,RYMDSHRT00009473;2799.00;<p>RA-GM-SHIRT-French Cuff Regular Collar</p>;;<p>MACHINE WASH WARM GENTLE CYCLE</p>;;;NA;;zerotype;;Winter;;No
2279509;RMSA06694-B6-Blue-2279509;F/S FULL CUT WT TRPL STCH DTL AL OVR-SLM;Draft;Shirts;Raymond;Adults-Men;Men;Blue;;;Fashion;Formal;2017;40,RYMDSHRT00009462,44,RYMDSHRT00009463,42,RYMDSHRT00009464,39,RYMDSHRT00009465,38,RYMDSHRT00009466,46,RYMDSHRT00009467;2099.00;<p>RA-GM-SHIRT-Full Sleeve Regular Collar</p>;;<p>MACHINE WASH WARM GENTLE CYCLE</p>;;;NA;;zerotype;;Winter;;No
2279505;RMSA06679-B3-Blue-2279505;F/S FULL CUTAWY WTH TRIM @ INR CLR-SLM;Draft;Shirts;Raymond;Adults-Men;Men;Blue;;;Fashion;Formal;2017;46,RYMDSHRT00009456,39,RYMDSHRT00009457,38,RYMDSHRT00009458,44,RYMDSHRT00009459,42,RYMDSHRT00009460,40,RYMDSHRT00009461;2499.00;<p>RA-GM-SHIRT-Full Sleeve Regular Collar</p>;;<p>MACHINE WASH WARM GENTLE CYCLE</p>;;;NA;;zerotype;;Winter;;No
2279502;RISZ00232-W0-White-2279502;F/S CUT & SEW TRIM MANDARIN CLR-CNTP;Draft;Shirts;Raymond;Adults-Men;Men;White;;;Fashion;Formal;2017;46,RYMDSHRT00009450,39,RYMDSHRT00009451,38,RYMDSHRT00009452,44,RYMDSHRT00009453,42,RYMDSHRT00009454,40,RYMDSHRT00009455;2599.00;<p>RA-GI-SHIRT</p>;;<p>MACHINE WASH WARM GENTLE CYCLE</p>;;;NA;;zerotype;;Winter;;No
2279500;RISZ00232-K9-Black-2279500;F/S CUT & SEW TRIM MANDARIN CLR-CNTP;Draft;Shirts;Raymond;Adults-Men;Men;Black;;;Fashion;Formal;2017;46,RYMDSHRT00009444,39,RYMDSHRT00009445,38,RYMDSHRT00009446,44,RYMDSHRT00009447,42,RYMDSHRT00009448,40,RYMDSHRT00009449;2599.00;<p>RA-GI-SHIRT</p>;;<p>MACHINE WASH WARM GENTLE CYCLE</p>;;;NA;;zerotype;;Winter;;No
2279496;RISZ00226-K9-Black-2279496;F/S CUT & SEW TRIM MANDARIN CLR-CNTP;Draft;Shirts;Raymond;Adults-Men;Men;Black;;;Fashion;Formal;2017;46,RYMDSHRT00009438,39,RYMDSHRT00009439,38,RYMDSHRT00009440,44,RYMDSHRT00009441,42,RYMDSHRT00009442,40,RYMDSHRT00009443;2599.00;<p>RA-GI-SHIRT</p>;;<p>MACHINE WASH WARM GENTLE CYCLE</p>;;;NA;;zerotype;;Winter;;No
2279493;RISX00236-V8-Purple-2279493;F/S SEMICUTAWY CLR CHSL PKT&CUF-CONT FT;Draft;Shirts;Raymond;Adults-Men;Men;Purple;;;Fashion;Formal;2017;38,RYMDSHRT00009432,39,RYMDSHRT00009433,40,RYMDSHRT00009434,42,RYMDSHRT00009435,44,RYMDSHRT00009436,46,RYMDSHRT00009437;2399.00;<p>Extremely classy and appealing is this dark violet formal shirt from Raymond. Highlighted with solid design, subtle sheen and a semi cutaway collar, this full-sleeved shirt is a wardrobe must-have. The soft cotton fabric makes it comfortable to wear with trousers and formal lace-ups.</p>;;<p>MACHINE WASH WARM GENTLE CYCLE</p>;;;NA;;zerotype;;Winter;;No
2279490;RISX00232-W0-White-2279490;F/S SEMICUTAWY CLR CHSL PKT&CUF-CONT FT;Draft;Shirts;Raymond;Adults-Men;Men;White;;;Fashion;Formal;2017;46,RYMDSHRT00009426,39,RYMDSHRT00009427,38,RYMDSHRT00009428,44,RYMDSHRT00009429,42,RYMDSHRT00009430,40,RYMDSHRT00009431;2499.00;<p>RA-GI-SHIRT</p>;;<p>MACHINE WASH WARM GENTLE CYCLE</p>;;;NA;;zerotype;;Winter;;No
2279489;RCSX00864-W1-White-2279489;F/S SPRED CLR INER CNTRAST DTAIL CON FIT;Draft;Shirts;Raymond;Adults-Men;Men;White;;;Fashion;Formal;2017;46,RYMDSHRT00009419,39,RYMDSHRT00009420,38,RYMDSHRT00009421,44,RYMDSHRT00009422,42,RYMDSHRT00009423,40,RYMDSHRT00009424;3049.00;<p>RA-GM-SHIRT-MENS CASUAL SHIRT STYLE</p>;;<p>M/C WASH GENTLE</p>;;;NA;;zerotype;;Winter;;No
2255555;RMSY06386-W1-White-2255555;H/S  SPREAD CLR WT PIPING @ CLR BND-CONT;Draft;Shirts;Raymond;Adults-Men;Men;White;;;Fashion;;2016;39,RYMDSHRT00009402,40,RYMDSHRT00009403,42,RYMDSHRT00009404,44,RYMDSHRT00009405,38,RYMDSHRT00009639,46,RYMDSHRT00009640;2499.00;;;<p>MACHINE WASH WARM GENTLE CYCLE, WASH DARK COLORS SEPARATELY</p>;;;;;zerotype;;Winter;;No
2237912;RQSX00104-B7-Blue-2237912;F/S SEMICTAWY WT INR CLRBND TRM-CONT FIT;Draft;Shirts;Raymond;Adults-Men;Men;Blue;;;Fashion;;2017;39,RYMDSHRT00009165,40,RYMDSHRT00009166,42,RYMDSHRT00009167,44,RYMDSHRT00009168,38,RYMDSHRT00009709,46,RYMDSHRT00009710;2099.00;;;<p>MACHINE WASH WARM GENTLE CYCLE</p>;;;;;zerotype;;Winter;;No
2237905;RMSZ06928-W0-White-2237905;F/S SEMI CUTAWY STANDARD PLKT-SLIM FIT;Draft;Shirts;Raymond;Adults-Men;Men;White;;;Fashion;;2017;39,RYMDSHRT00009137,40,RYMDSHRT00009138,42,RYMDSHRT00009139,44,RYMDSHRT00009140,38,RYMDSHRT00009689,46,RYMDSHRT00009690;2499.00;;;<p>MACHINE WASH WARM GENTLE CYCLE</p>;;;;;zerotype;;Winter;;No
2237902;RMSZ06826-B4-Blue-2237902;F/S SEMI CUTAWY CLR FRENCH CUFF-CONT FT;Draft;Shirts;Raymond;Adults-Men;Men;Blue;;;Fashion;;2017;39,RYMDSHRT00009125,40,RYMDSHRT00009126,42,RYMDSHRT00009127,44,RYMDSHRT00009128,38,RYMDSHRT00009675,46,RYMDSHRT00009676;1799.00;;;<p>MACHINE WASH WARM GENTLE CYCLE</p>;;;;;zerotype;;Winter;;No
2237884;RMSX06820-B7-Blue-2237884;F/S SEMI CUTAWY TRIPLE STCH CLR-CONT FT;Draft;Shirts;Raymond;Adults-Men;Men;Blue;;;Fashion;;2017;39,RYMDSHRT00009053,40,RYMDSHRT00009054,42,RYMDSHRT00009055,44,RYMDSHRT00009056,38,RYMDSHRT00009578,46,RYMDSHRT00009579;2499.00;;;<p>MACHINE WASH WARM GENTLE CYCLE</p>;;;;;zerotype;;Winter;;No
2141882;RMSX06803-R5-Grey-2141882;Raymond Pink Shirts;Active;Shirts;Raymond;Adults-Men;Men;Grey;Maroon;;Fashion;Formal;2017;38,RYMDSHRT00008980,39,RYMDSHRT00008981,40,RYMDSHRT00008982,42,RYMDSHRT00008983,44,RYMDSHRT00008984,46,RYMDSHRT00008985;3199.00;<a href='/grey?src=pd' class='seolink'>Grey</a> and <a href='/maroon?src=pd' class='seolink'>maroon</a> printed <a href='/formal?src=pd' class='seolink'>formal</a> shirt, has a <a href='/spread?src=pd' class='seolink'>spread</a> collar, button placket, <a href='/1?src=pd' class='seolink'>1</a> pocket, long sleeves, straight hem;This shirt from Raymond can make any outfit formal.  This grey piece can be matched with professional trousers and a sleek blazer when you're heading to work.;Linen <br> Machine-wash;Regular fit<br />The model (height 6') is wearing a size 40;;Raymond Men Grey & Maroon Regular Fit Printed Formal Shirt;Raymond,JIT;zerotype;;Winter;;No
2141878;RMSJ06748-F3-Off White-2141878;Raymond Beige Shirts;Active;Shirts;Raymond;Adults-Men;Men;Off White;;;Fashion;Formal;2017;38,RYMDSHRT00008974,39,RYMDSHRT00008975,40,RYMDSHRT00008976,42,RYMDSHRT00008977,44,RYMDSHRT00008978,46,RYMDSHRT00008979;3199.00;Off-white <a href='/solid?src=pd' class='seolink'>solid</a> <a href='/formal?src=pd' class='seolink'>formal</a> shirt, has a mandarin collar, button placket, <a href='/1?src=pd' class='seolink'>1</a> pocket, long sleeves, straight hem;Add class to your year-round style with this formal shirt from Raymond.  For a truly professional look, impress your colleagues by pairing this off-white shirt with chinos and a tailored jacket.;Linen <br> Machine-wash;Regular fit<br />The model (height 6') is wearing a size 40;;Raymond Men Off-White Regular Fit Solid Formal Shirt;Raymond,JIT;zerotype;;Winter;;No
2121663;RMSZ06844-R6-Red-2121663;Raymond Red Shirts;Draft;Shirts;Raymond;Adults-Men;Men;Red;;;Fashion;;2017;38,RYMDSHRT00008962,39,RYMDSHRT00008963,40,RYMDSHRT00008964,42,RYMDSHRT00008965,44,RYMDSHRT00008966,46,RYMDSHRT00008967;2299.00;<p>Score a dapper look instantly wearing this dark red formal shirt from the latest collection of Raymond. Featuring mini check pattern and interesting motifs, it looks visually appealing. The plush softness is guaranteed by the fine cotton fabric. Club it with flat-front trousers and dress shoes.</p>;;<p>Machine Wash Warm Gentle Cycle Wash Dark Colors Separately, Do Not Bleach, Tumble Dry Low, Warm Iron</p>;;;;;zerotype;;Winter;;No
2017509;RMSX06839-V2-Purple-2017509;F/S SEMI CUTAWY WTH STYLSD CLR BND-CNTP;Inactive - Marketplace - Reject;Shirts;Raymond;Adults-Men;Men;Purple;White;;Fashion;Formal;2017;38,RYMDSHRT00007888,39,RYMDSHRT00007889,40,RYMDSHRT00007890,42,RYMDSHRT00007891,44,RYMDSHRT00007892,46,RYMDSHRT00009592;2499.00;<a href='/purple?src=pd' class='seolink'>Purple</a> and white <a href='/solid?src=pd' class='seolink'>solid</a> <a href='/formal?src=pd' class='seolink'>formal</a> shirt, has a cutaway collar, button placket, <a href='/1?src=pd' class='seolink'>1</a> pocket, long sleeves, straight hem;Sharpen up your style with this in-style shirt by Raymond.  When you're attending a family outing, pair this purple piece with slim jeans and easy loafers.;Cotton <br> Machine-wash;Classic Regular Fit<br> The model (height 6') is wearing a size M;;Raymond Men Purple & White Regular Fit Solid Formal Shirt;Raymond,JIT;zerotype;;Winter;Colour mismatch;No
2017250;RCSX00916-B3-Blue-2017250;F/S SPRED CLR INER CNTRAST DTAIL CON FIT;Inactive - Marketplace - Reject;Shirts;Raymond;Adults-Men;Men;Blue;White;;Fashion;Casual;2017;38,RYMDSHRT00007613,39,RYMDSHRT00007614,40,RYMDSHRT00007615,42,RYMDSHRT00007616,44,RYMDSHRT00007617,46,RYMDSHRT00009425;3049.00;Blue and white checked casual shirt, has a spread collar, button placket, one patch pocket, long sleeves, straight hem;Spruce up your look with this handsome shirt from Raymond.  The next time you head to a basketball or baseball game, all you need to do is put this blue piece with a lightweight bomber jacket and dark denim to root for your home team.;Cotton <br /> Hand-wash;Classic regular fit<br /> The model (height 6') is wearing a size 42;;Raymond Men Blue & White Classic Regular Fit Checked Casual Shirt;Raymond,JIT;zerotype;;Winter;;No
2017208;RCSH00862-R5-Red-2017208;F/S FUL CUT AWAY SMALL CLR SLM FIT;Inactive - Marketplace - Reject;Shirts;Raymond;Adults-Men;Men;Red;;;Fashion;Casual;2017;38,RYMDSHRT00007498,39,RYMDSHRT00007499,40,RYMDSHRT00007500,42,RYMDSHRT00007501,44,RYMDSHRT00007502,46,RYMDSHRT00009418;2649.00;<a href='/red?src=pd' class='seolink'>Red</a> <a href='/solid?src=pd' class='seolink'>solid</a> <a href='/casual?src=pd' class='seolink'>casual</a> shirt, has a cutaway collar, button placket, long sleeves, straight hem;Cozy up with this in-style Raymond shirt this season.  When you're hanging out with friends, you'll win the style game by putting this red piece with a cardigan and sneakers.;Cotton <br /> Machine-wash;Smart Slim Fit<br /> The model (height 6') is wearing a size M;;Raymond Men Red Smart Slim Fit Solid Casual Shirt;;zerotype;;Winter;Colour mismatch;No
1947196;RMSH05745-B786F046-Purple-1947196;Raymond Purple Shirt;Inactive - Marketplace - Reject;Shirts;Raymond;Adults-Men;Men;Purple;;;Core;Formal;2017;38,RYMDSHRT00006196,39,RYMDSHRT00006197,40,RYMDSHRT00006198,42,RYMDSHRT00006199,44,RYMDSHRT00006200,46,RYMDSHRT00006201;2299.00;<a href='/purple?src=pd' class='seolink'>Purple</a> printed <a href='/formal?src=pd' class='seolink'>formal</a> shirt, has a cutaway collar, button placket, <a href='/1?src=pd' class='seolink'>1</a> pocket, long sleeves, curved hem;Pull off a formal look any day of the year with this Raymond shirt.  This purple piece can be styled with chinos and Oxford shoes when you're going to a job interview.;Cotton <br /> Machine-wash;Slim fit<br /> The model (height 6') is wearing a size 32;;Raymond Men Purple Slim Fit Printed Formal Shirt;Raymond,JIT;zerotype;;Spring;colour mismatch;No
1915492;RMSY06412-B6-Blue-1915492;H/S SEMI CUTAWY CLR STNDRD PLKT-CONT FIT;Draft;Shirts;Raymond;Adults-Men;Men;Blue;;;Fashion;;2016;39,RYMDSHRT00005844,40,RYMDSHRT00005845,42,RYMDSHRT00005846,44,RYMDSHRT00005847,38,RYMDSHRT00009643,46,RYMDSHRT00009644;1799.00;;;<p>MACHINE WASH WARM GENTLE CYCLE</p>;;;;never-settle;zerotype;;Winter;never-settle;No
1915491;RMSY06388-W1-White-1915491;H/S  SPREAD CLR WT PIPING @ CLR BND-CONT;Draft;Shirts;Raymond;Adults-Men;Men;White;;;Fashion;;2016;39,RYMDSHRT00005840,40,RYMDSHRT00005841,42,RYMDSHRT00005842,44,RYMDSHRT00005843,38,RYMDSHRT00009641,46,RYMDSHRT00009642;2999.00;;;<p>MACHINE WASH WARM GENTLE CYCLE</p>;;;;never-settle;zerotype;;Winter;never-settle;No
1915489;RMSY06270-B2-Blue-1915489;H/S SEMI CUTAWY CLR STNDRD PLKT-CONT FIT;Draft;Shirts;Raymond;Adults-Men;Men;Blue;;;Fashion;;2016;39,RYMDSHRT00005832,40,RYMDSHRT00005833,42,RYMDSHRT00005834,44,RYMDSHRT00005835,38,RYMDSHRT00009637,46,RYMDSHRT00009638;1999.00;;;<p>MACHINE WASH WARM GENTLE CYCLE</p>;;;;never-settle;zerotype;;Winter;never-settle;No
1915487;RMSY06080-R5-Red-1915487;H/S SEMI CUTAWY CLR STNDRD PLKT-CONT FIT;Draft;Shirts;Raymond;Adults-Men;Men;Red;;;Fashion;;2016;39,RYMDSHRT00005828,40,RYMDSHRT00005829,42,RYMDSHRT00005830,44,RYMDSHRT00005831,38,RYMDSHRT00009629,46,RYMDSHRT00009630;1799.00;;;<p>MACHINE WASH WARM GENTLE CYCLE</p>;;;;never-settle;zerotype;;Winter;never-settle;No
1915461;RMSX06411-O6-Brown-1915461;F/S  KURTA PLACKET MANDARIN CLR-CNTP;Draft;Shirts;Raymond;Adults-Men;Men;Brown;;;Fashion;;2016;39,RYMDSHRT00005784,40,RYMDSHRT00005785,42,RYMDSHRT00005786,44,RYMDSHRT00005787,38,RYMDSHRT00009540,46,RYMDSHRT00009541;2099.00;;;<p>MACHINE WASH WARM GENTLE CYCLE</p>;;;;never-settle;zerotype;;Winter;never-settle;No
1915455;RMSX06409-R6-Red-1915455;F/S NAROW MNDRN CLR SLIM PLACKT CNTP FIT;Draft;Shirts;Raymond;Adults-Men;Men;Red;;;Fashion;;2016;39,RYMDSHRT00005780,40,RYMDSHRT00005781,42,RYMDSHRT00005782,44,RYMDSHRT00005783,38,RYMDSHRT00009526,46,RYMDSHRT00009527;2299.00;;;<p>M/C WASH GENTLE</p>;;;;never-settle;zerotype;;Winter;never-settle;No
1915396;RMSX06301-R6-Red-1915396;F/S SEMI CUTAWY CLR CHSL PKT&CUF-CONT FT;Draft;Shirts;Raymond;Adults-Men;Men;Red;;;Fashion;;2016;39,RYMDSHRT00005741,40,RYMDSHRT00005742,42,RYMDSHRT00005743,44,RYMDSHRT00005744,38,RYMDSHRT00009518,46,RYMDSHRT00009519;2999.00;;;<p>M/C WASH GENTLE</p>;;;;never-settle;zerotype;;Winter;never-settle;No
1915338;RMSH06090-B8-Blue-1915338;F/S PIK STITCH CONT COLLAR-SLIM FIT;Draft;Shirts;Raymond;Adults-Men;Men;Blue;;;Fashion;;2016;39,RYMDSHRT00005538,40,RYMDSHRT00005539,42,RYMDSHRT00005540,44,RYMDSHRT00005541,38,RYMDSHRT00009480,46,RYMDSHRT00009481;1799.00;;;<p>MACHINE WASH WARM GENTLE CYCLE</p>;;;;never-settle;zerotype;;Winter;never-settle;No
