Style ID;Vendor Article Number;Vendor Article Name;Active Status;Article type;Brand;Age Group;Gender;Base Colour;Colour1;Colour2;Fashion Type;Usage;Year;Size - SKU code pair;MRP;Style Description;Style Note;Materials and Care Description;Size and Fit Description;Size Chart Path;Product Display Name;Tags;Product Type;Classification Brand;Season;Comments;Upload Images
2335347;CRSK217-244-D25-Aqua Marl-2335347;CRSK217-244;Draft;Tshirts;Crocodile;Adults-Men;Men;Sea Green;Blue;White;Fashion;Casual;2017;L,CRDETSHT00001193,M,CRDETSHT00001194,S,CRDETSHT00001195,XL,CRDETSHT00001196,XXL,CRDETSHT00001197;1399.00;;;<p>Machine Wash, Do Not Bleach, Do Not Tumble Dry, Cool Iron, Dry Clean</p>;;;NA;;zerotype;;Winter;;No
2335346;CRSK217-244-D24-Lt Blue Marl-2335346;CRSK217-244;Draft;Tshirts;Crocodile;Adults-Men;Men;Blue;Pink;Grey;Fashion;Casual;2017;L,CRDETSHT00001188,M,CRDETSHT00001189,S,CRDETSHT00001190,XL,CRDETSHT00001191,XXL,CRDETSHT00001192;1399.00;;;<p>Machine Wash, Do Not Bleach, Do Not Tumble Dry, Cool Iron, Dry Clean</p>;;;NA;;zerotype;;Winter;;No
2335345;CRSK217-243-D23-BLUE MARL-2335345;CRSK217-243;Draft;Tshirts;Crocodile;Adults-Men;Men;Turquoise Blue;;;Fashion;Casual;2017;L,CRDETSHT00001183,M,CRDETSHT00001184,S,CRDETSHT00001185,XL,CRDETSHT00001186,XXL,CRDETSHT00001187;1399.00;;;<p>Machine Wash, Do Not Bleach, Do Not Tumble Dry, Cool Iron, Dry Clean</p>;;;NA;;zerotype;;Winter;;No
2335344;CRSK217-243-D22-GREEN MARL-2335344;CRSK217-243;Draft;Tshirts;Crocodile;Adults-Men;Men;Olive;White;;Fashion;Casual;2017;L,CRDETSHT00001178,M,CRDETSHT00001179,S,CRDETSHT00001180,XL,CRDETSHT00001181,XXL,CRDETSHT00001182;1399.00;;;<p>Machine Wash, Do Not Bleach, Do Not Tumble Dry, Cool Iron, Dry Clean</p>;;;NA;;zerotype;;Winter;;No
2335343;CRQT217-241-D19-Brown Stone-2335343;CRQT217-241;Draft;Tshirts;Crocodile;Adults-Men;Men;Brown;Black;Coral;Fashion;Casual;2017;L,CRDETSHT00001173,M,CRDETSHT00001174,S,CRDETSHT00001175,XL,CRDETSHT00001176,XXL,CRDETSHT00001177;1299.00;;;<p>Machine Wash, Do Not Bleach, Do Not Tumble Dry, Cool Iron, Dry Clean</p>;;;NA;;zerotype;;Winter;;No
2335341;CRQT217-241-D18-ANTHRA MEL-2335341;CRQT217-241;Draft;Tshirts;Crocodile;Adults-Men;Men;Grey Melange;;;Fashion;Casual;2017;L,CRDETSHT00001168,M,CRDETSHT00001169,S,CRDETSHT00001170,XL,CRDETSHT00001171,XXL,CRDETSHT00001172;1299.00;;;<p>Machine Wash, Do Not Bleach, Do Not Tumble Dry, Cool Iron, Dry Clean</p>;;;NA;;zerotype;;Winter;;No
2335338;CRQT217-240-D21-Dark Navy-2335338;CRQT217-240;Draft;Tshirts;Crocodile;Adults-Men;Men;Blue;Red;;Fashion;Casual;2017;L,CRDETSHT00001163,M,CRDETSHT00001164,S,CRDETSHT00001165,XL,CRDETSHT00001166,XXL,CRDETSHT00001167;1299.00;;;<p>Machine Wash, Do Not Bleach, Do Not Tumble Dry, Cool Iron, Dry Clean</p>;;;NA;;zerotype;;Winter;;No
2335335;CRQT217-240-D20-GREY MARL-2335335;CRQT217-240;Draft;Tshirts;Crocodile;Adults-Men;Men;Grey Melange;Red;;Fashion;Casual;2017;L,CRDETSHT00001158,M,CRDETSHT00001159,S,CRDETSHT00001160,XL,CRDETSHT00001161,XXL,CRDETSHT00001162;1299.00;;;<p>Machine Wash, Do Not Bleach, Do Not Tumble Dry, Cool Iron, Dry Clean</p>;;;NA;;zerotype;;Winter;;No
2335334;CRQT217-239-D16-RED MARL-2335334;CRQT217-239;Draft;Tshirts;Crocodile;Adults-Men;Men;Red;Yellow;Blue;Fashion;Casual;2017;L,CRDETSHT00001153,M,CRDETSHT00001154,S,CRDETSHT00001155,XL,CRDETSHT00001156,XXL,CRDETSHT00001157;1299.00;;;<p>Machine Wash, Do Not Bleach, Do Not Tumble Dry, Cool Iron, Dry Clean</p>;;;NA;;zerotype;;Winter;;No
2335333;CRFP217-236-D14-Brown-2335333;CRFP217-236;Draft;Tshirts;Crocodile;Adults-Men;Men;Maroon;White;;Fashion;Casual;2017;L,CRDETSHT00001148,M,CRDETSHT00001149,S,CRDETSHT00001150,XL,CRDETSHT00001151,XXL,CRDETSHT00001152;1499.00;;;<p>Machine Wash, Do Not Bleach, Do Not Tumble Dry, Cool Iron, Dry Clean</p>;;;NA;;zerotype;;Winter;;No
2335332;CRFP217-235-D15-INDIGO BLUE-2335332;CRFP217-235;Draft;Tshirts;Crocodile;Adults-Men;Men;Navy Blue;;;Fashion;Casual;2017;L,CRDETSHT00001143,M,CRDETSHT00001144,S,CRDETSHT00001145,XL,CRDETSHT00001146,XXL,CRDETSHT00001147;1699.00;;;<p>Machine Wash, Do Not Bleach, Do Not Tumble Dry, Cool Iron, Dry Clean</p>;;;NA;;zerotype;;Winter;;No
2335331;CRFP217-234-D13-Lt Grey Marl-2335331;CRFP217-234;Draft;Tshirts;Crocodile;Adults-Men;Men;Sea Green;;;Fashion;Casual;2017;L,CRDETSHT00001138,M,CRDETSHT00001139,S,CRDETSHT00001140,XL,CRDETSHT00001141,XXL,CRDETSHT00001142;1499.00;;;<p>Machine Wash, Do Not Bleach, Do Not Tumble Dry, Cool Iron, Dry Clean</p>;;;NA;;zerotype;;Winter;;No
2335330;CRFP217-234-D12-Blue-2335330;CRFP217-234;Draft;Tshirts;Crocodile;Adults-Men;Men;Blue;;;Fashion;Casual;2017;L,CRDETSHT00001133,M,CRDETSHT00001134,S,CRDETSHT00001135,XL,CRDETSHT00001136,XXL,CRDETSHT00001137;1499.00;;;<p>Machine Wash, Do Not Bleach, Do Not Tumble Dry, Cool Iron, Dry Clean</p>;;;NA;;zerotype;;Winter;;No
2335329;CRFP217-223-D3-NAVY-2335329;CRFP217-223;Draft;Tshirts;Crocodile;Adults-Men;Men;Blue;Green;White;Fashion;Casual;2017;L,CRDETSHT00001128,M,CRDETSHT00001129,S,CRDETSHT00001130,XL,CRDETSHT00001131,XXL,CRDETSHT00001132;1399.00;;;<p>Machine Wash, Do Not Bleach, Do Not Tumble Dry, Cool Iron, Dry Clean</p>;;;NA;;zerotype;;Winter;;No
2335328;CRFP217-222-D6-NAVY BLUE-2335328;CRFP217-222;Draft;Tshirts;Crocodile;Adults-Men;Men;Blue;White;Red;Fashion;Casual;2017;L,CRDETSHT00001123,M,CRDETSHT00001124,S,CRDETSHT00001125,XL,CRDETSHT00001126,XXL,CRDETSHT00001127;1599.00;;;<p>Machine Wash, Do Not Bleach, Do Not Tumble Dry, Cool Iron, Dry Clean</p>;;;NA;;zerotype;;Winter;;No
2335327;CRFP217-222-D5-White-2335327;CRFP217-222;Draft;Tshirts;Crocodile;Adults-Men;Men;White;Black;Red;Fashion;Casual;2017;L,CRDETSHT00001118,M,CRDETSHT00001119,S,CRDETSHT00001120,XL,CRDETSHT00001121,XXL,CRDETSHT00001122;1599.00;;;<p>Machine Wash, Do Not Bleach, Do Not Tumble Dry, Cool Iron, Dry Clean</p>;;;NA;;zerotype;;Winter;;No
2335326;CRFP217-220-B-D8-INDIGO BLUE-2335326;CRFP217-220-B;Draft;Tshirts;Crocodile;Adults-Men;Men;Navy Blue;;;Fashion;Casual;2017;L,CRDETSHT00001113,M,CRDETSHT00001114,S,CRDETSHT00001115,XL,CRDETSHT00001116,XXL,CRDETSHT00001117;1699.00;;;<p>Machine Wash, Do Not Bleach, Do Not Tumble Dry, Cool Iron, Dry Clean</p>;;;NA;;zerotype;;Winter;;No
2335325;CRFP217-220-A-D7-Red-2335325;CRFP217-220-A;Draft;Tshirts;Crocodile;Adults-Men;Men;Red;;;Fashion;Casual;2017;L,CRDETSHT00001108,M,CRDETSHT00001109,S,CRDETSHT00001110,XL,CRDETSHT00001111,XXL,CRDETSHT00001112;1599.00;;;<p>Machine Wash, Do Not Bleach, Do Not Tumble Dry, Cool Iron, Dry Clean</p>;;;NA;;zerotype;;Winter;;No
2335324;CRFP217-219-D2-White-2335324;CRFP217-219;Draft;Tshirts;Crocodile;Adults-Men;Men;White;;;Fashion;Casual;2017;L,CRDETSHT00001103,M,CRDETSHT00001104,S,CRDETSHT00001105,XL,CRDETSHT00001106,XXL,CRDETSHT00001107;2099.00;;;<p>Machine Wash, Do Not Bleach, Do Not Tumble Dry, Cool Iron, Dry Clean</p>;;;NA;;zerotype;;Winter;;No
2335323;CRFC217-265-D11-RED MEL-2335323;CRFC217-265;Draft;Tshirts;Crocodile;Adults-Men;Men;Coral;;;Fashion;Casual;2017;L,CRDETSHT00001098,M,CRDETSHT00001099,S,CRDETSHT00001100,XL,CRDETSHT00001101,XXL,CRDETSHT00001102;699.00;;;<p>Machine Wash, Do Not Bleach, Do Not Tumble Dry, Cool Iron, Dry Clean</p>;;;NA;;zerotype;;Winter;;No
2335322;CRFC217-261-D9-NAVY-2335322;CRFC217-261;Draft;Tshirts;Crocodile;Adults-Men;Men;Navy Blue;;;Fashion;Casual;2017;L,CRDETSHT00001093,M,CRDETSHT00001094,S,CRDETSHT00001095,XL,CRDETSHT00001096,XXL,CRDETSHT00001097;699.00;;;<p>Machine Wash, Do Not Bleach, Do Not Tumble Dry, Cool Iron, Dry Clean</p>;;;NA;;zerotype;;Winter;;No
2335320;CRFC217-261-D10-White-2335320;CRFC217-261;Draft;Tshirts;Crocodile;Adults-Men;Men;White;;;Fashion;Casual;2017;L,CRDETSHT00001088,M,CRDETSHT00001089,S,CRDETSHT00001090,XL,CRDETSHT00001091,XXL,CRDETSHT00001092;699.00;;;<p>Machine Wash, Do Not Bleach, Do Not Tumble Dry, Cool Iron, Dry Clean</p>;;;NA;;zerotype;;Winter;;No
2335318;CRCS217-333-D29-Blue-2335318;CRCS217-333;Draft;Shirts;Crocodile;Adults-Men;Men;Blue;;;Fashion;Casual;2017;39,CRDESHRT00000438,40,CRDESHRT00000439,42,CRDESHRT00000440,44,CRDESHRT00000441,46,CRDESHRT00000442;2199.00;;;<p>Machine Wash, Do Not Bleach, Do Not Tumble Dry, Cool Iron, Dry Clean</p>;;;NA;;zerotype;;Winter;;No
2335316;CRCS217-331 B-D26-Red-2335316;CRCS217-331 B;Draft;Shirts;Crocodile;Adults-Men;Men;Red;Grey;;Fashion;Casual;2017;39,CRDESHRT00000433,40,CRDESHRT00000434,42,CRDESHRT00000435,44,CRDESHRT00000436,46,CRDESHRT00000437;1999.00;;;<p>Machine Wash, Do Not Bleach, Do Not Tumble Dry, Cool Iron, Dry Clean</p>;;;NA;;zerotype;;Winter;;No
2335313;CRCS217-331 A-D25-Teal-2335313;CRCS217-331 A;Draft;Shirts;Crocodile;Adults-Men;Men;Teal;Grey;Turquoise Blue;Fashion;Casual;2017;39,CRDESHRT00000428,40,CRDESHRT00000429,42,CRDESHRT00000430,44,CRDESHRT00000431,46,CRDESHRT00000432;1999.00;;;<p>Machine Wash, Do Not Bleach, Do Not Tumble Dry, Cool Iron, Dry Clean</p>;;;NA;;zerotype;;Winter;;No
2335311;CRCS217-328 B-D23-Navy Blue-2335311;CRCS217-328 B;Draft;Shirts;Crocodile;Adults-Men;Men;Navy Blue;;;Fashion;Casual;2017;39,CRDESHRT00000423,40,CRDESHRT00000424,42,CRDESHRT00000425,44,CRDESHRT00000426,46,CRDESHRT00000427;1999.00;;;<p>Machine Wash, Do Not Bleach, Do Not Tumble Dry, Cool Iron, Dry Clean</p>;;;NA;;zerotype;;Winter;;No
2335309;CRCS217-328 A-D22-White-2335309;CRCS217-328 A;Draft;Shirts;Crocodile;Adults-Men;Men;White;Blue;;Fashion;Casual;2017;39,CRDESHRT00000418,40,CRDESHRT00000419,42,CRDESHRT00000420,44,CRDESHRT00000421,46,CRDESHRT00000422;1999.00;;;<p>Machine Wash, Do Not Bleach, Do Not Tumble Dry, Cool Iron, Dry Clean</p>;;;NA;;zerotype;;Winter;;No
2335308;CRCS217-327 D-D30-Blue-2335308;CRCS217-327 D;Draft;Shirts;Crocodile;Adults-Men;Men;Blue;;;Fashion;Casual;2017;39,CRDESHRT00000413,40,CRDESHRT00000414,42,CRDESHRT00000415,44,CRDESHRT00000416,46,CRDESHRT00000417;1999.00;;;<p>Machine Wash, Do Not Bleach, Do Not Tumble Dry, Cool Iron, Dry Clean</p>;;;NA;;zerotype;;Winter;;No
2335307;CRCS217-327 C-D21-White-2335307;CRCS217-327 C;Draft;Shirts;Crocodile;Adults-Men;Men;White;Navy Blue;;Fashion;Casual;2017;39,CRDESHRT00000408,40,CRDESHRT00000409,42,CRDESHRT00000410,44,CRDESHRT00000411,46,CRDESHRT00000412;1999.00;;;<p>Machine Wash, Do Not Bleach, Do Not Tumble Dry, Cool Iron, Dry Clean</p>;;;NA;;zerotype;;Winter;;No
2335306;CRCS217-326 A-D20-Blue-2335306;CRCS217-326 A;Draft;Shirts;Crocodile;Adults-Men;Men;Blue;;;Fashion;Casual;2017;39,CRDESHRT00000403,40,CRDESHRT00000404,42,CRDESHRT00000405,44,CRDESHRT00000406,46,CRDESHRT00000407;2299.00;;;<p>Machine Wash, Do Not Bleach, Do Not Tumble Dry, Cool Iron, Dry Clean</p>;;;NA;;zerotype;;Winter;;No
2335305;CRCS217-325-D19-Navy Blue-2335305;CRCS217-325;Draft;Shirts;Crocodile;Adults-Men;Men;Navy Blue;;;Fashion;Casual;2017;39,CRDESHRT00000398,40,CRDESHRT00000399,42,CRDESHRT00000400,44,CRDESHRT00000401,46,CRDESHRT00000402;2399.00;;;<p>Machine Wash, Do Not Bleach, Do Not Tumble Dry, Cool Iron, Dry Clean</p>;;;NA;;zerotype;;Winter;;No
2335304;CRCS217-324-D18-Sea Green-2335304;CRCS217-324;Draft;Shirts;Crocodile;Adults-Men;Men;Sea Green;;;Fashion;Casual;2017;39,CRDESHRT00000393,40,CRDESHRT00000394,42,CRDESHRT00000395,44,CRDESHRT00000396,46,CRDESHRT00000397;2199.00;;;<p>Machine Wash, Do Not Bleach, Do Not Tumble Dry, Cool Iron, Dry Clean</p>;;;NA;;zerotype;;Winter;;No
2335303;CRCS217-323-D17-Grey-2335303;CRCS217-323;Draft;Shirts;Crocodile;Adults-Men;Men;Grey;;;Fashion;Casual;2017;39,CRDESHRT00000388,40,CRDESHRT00000389,42,CRDESHRT00000390,44,CRDESHRT00000391,46,CRDESHRT00000392;2199.00;;;<p>Machine Wash, Do Not Bleach, Do Not Tumble Dry, Cool Iron, Dry Clean</p>;;;NA;;zerotype;;Winter;;No
2335302;CRCS217-321 B-D16-Blue-2335302;CRCS217-321 B;Draft;Shirts;Crocodile;Adults-Men;Men;Blue;Navy Blue;;Fashion;Casual;2017;39,CRDESHRT00000383,40,CRDESHRT00000384,42,CRDESHRT00000385,44,CRDESHRT00000386,46,CRDESHRT00000387;1999.00;;;<p>Machine Wash, Do Not Bleach, Do Not Tumble Dry, Cool Iron, Dry Clean</p>;;;NA;;zerotype;;Winter;;No
2335301;CRCS217-321 A-D15-Navy Blue-2335301;CRCS217-321 A;Draft;Shirts;Crocodile;Adults-Men;Men;Navy Blue;Red;;Fashion;Casual;2017;39,CRDESHRT00000378,40,CRDESHRT00000379,42,CRDESHRT00000380,44,CRDESHRT00000381,46,CRDESHRT00000382;1999.00;;;<p>Machine Wash, Do Not Bleach, Do Not Tumble Dry, Cool Iron, Dry Clean</p>;;;NA;;zerotype;;Winter;;No
2335300;CRCS217-319-D13-Blue-2335300;CRCS217-319;Draft;Shirts;Crocodile;Adults-Men;Men;Blue;;;Fashion;Casual;2017;39,CRDESHRT00000373,40,CRDESHRT00000374,42,CRDESHRT00000375,44,CRDESHRT00000376,46,CRDESHRT00000377;2199.00;;;<p>Machine Wash, Do Not Bleach, Do Not Tumble Dry, Cool Iron, Dry Clean</p>;;;NA;;zerotype;;Winter;;No
2335299;CRCS217-318-D12-Sea Green-2335299;CRCS217-318;Draft;Shirts;Crocodile;Adults-Men;Men;Sea Green;White;;Fashion;Casual;2017;39,CRDESHRT00000368,40,CRDESHRT00000369,42,CRDESHRT00000370,44,CRDESHRT00000371,46,CRDESHRT00000372;2199.00;;;<p>Machine Wash, Do Not Bleach, Do Not Tumble Dry, Cool Iron, Dry Clean</p>;;;NA;;zerotype;;Winter;;No
2335298;CRCS217-317-D11-Navy Blue-2335298;CRCS217-317;Draft;Shirts;Crocodile;Adults-Men;Men;Navy Blue;Grey;;Fashion;Casual;2017;39,CRDESHRT00000363,40,CRDESHRT00000364,42,CRDESHRT00000365,44,CRDESHRT00000366,46,CRDESHRT00000367;2299.00;;;<p>Machine Wash, Do Not Bleach, Do Not Tumble Dry, Cool Iron, Dry Clean</p>;;;NA;;zerotype;;Winter;;No
2335297;CRCS217-314 B-D10-Blue-2335297;CRCS217-314 B;Draft;Shirts;Crocodile;Adults-Men;Men;Blue;;;Fashion;Casual;2017;39,CRDESHRT00000358,40,CRDESHRT00000359,42,CRDESHRT00000360,44,CRDESHRT00000361,46,CRDESHRT00000362;1899.00;;;<p>Machine Wash, Do Not Bleach, Do Not Tumble Dry, Cool Iron, Dry Clean</p>;;;NA;;zerotype;;Winter;;No
2335296;CRCS217-314 A-D9-Beige-2335296;CRCS217-314 A;Draft;Shirts;Crocodile;Adults-Men;Men;Beige;;;Fashion;Casual;2017;39,CRDESHRT00000353,40,CRDESHRT00000354,42,CRDESHRT00000355,44,CRDESHRT00000356,46,CRDESHRT00000357;1899.00;;;<p>Machine Wash, Do Not Bleach, Do Not Tumble Dry, Cool Iron, Dry Clean</p>;;;NA;;zerotype;;Winter;;No
2335295;CRCS217-313 B-D8-Blue-2335295;CRCS217-313 B;Draft;Shirts;Crocodile;Adults-Men;Men;Blue;;;Fashion;Casual;2017;39,CRDESHRT00000348,40,CRDESHRT00000349,42,CRDESHRT00000350,44,CRDESHRT00000351,46,CRDESHRT00000352;1999.00;;;<p>Machine Wash, Do Not Bleach, Do Not Tumble Dry, Cool Iron, Dry Clean</p>;;;NA;;zerotype;;Winter;;No
2335294;CRCS217-313 A-D7-Magenta-2335294;CRCS217-313 A;Draft;Shirts;Crocodile;Adults-Men;Men;Magenta;;;Fashion;Casual;2017;39,CRDESHRT00000343,40,CRDESHRT00000344,42,CRDESHRT00000345,44,CRDESHRT00000346,46,CRDESHRT00000347;1999.00;;;<p>Machine Wash, Do Not Bleach, Do Not Tumble Dry, Cool Iron, Dry Clean</p>;;;NA;;zerotype;;Winter;;No
2335293;CRCS217-310 B-D6-Blue-2335293;CRCS217-310 B;Draft;Shirts;Crocodile;Adults-Men;Men;Blue;Yellow;;Fashion;Casual;2017;39,CRDESHRT00000338,40,CRDESHRT00000339,42,CRDESHRT00000340,44,CRDESHRT00000341,46,CRDESHRT00000342;2099.00;;;<p>Machine Wash, Do Not Bleach, Do Not Tumble Dry, Cool Iron, Dry Clean</p>;;;NA;;zerotype;;Winter;;No
2335292;CRCS217-310 A-D5-Navy Blue-2335292;CRCS217-310 A;Draft;Shirts;Crocodile;Adults-Men;Men;Navy Blue;Red;Grey;Fashion;Casual;2017;39,CRDESHRT00000333,40,CRDESHRT00000334,42,CRDESHRT00000335,44,CRDESHRT00000336,46,CRDESHRT00000337;2099.00;;;<p>Machine Wash, Do Not Bleach, Do Not Tumble Dry, Cool Iron, Dry Clean</p>;;;NA;;zerotype;;Winter;;No
2335291;CRCS217-308 B-D4-Blue-2335291;CRCS217-308 B;Draft;Shirts;Crocodile;Adults-Men;Men;Blue;Off White;;Fashion;Casual;2017;39,CRDESHRT00000328,40,CRDESHRT00000329,42,CRDESHRT00000330,44,CRDESHRT00000331,46,CRDESHRT00000332;1949.00;;;<p>Machine Wash, Do Not Bleach, Do Not Tumble Dry, Cool Iron, Dry Clean</p>;;;NA;;zerotype;;Winter;;No
2335290;CRCS217-308 A-D3-Maroon-2335290;CRCS217-308 A;Draft;Shirts;Crocodile;Adults-Men;Men;Maroon;White;;Fashion;Casual;2017;39,CRDESHRT00000323,40,CRDESHRT00000324,42,CRDESHRT00000325,44,CRDESHRT00000326,46,CRDESHRT00000327;1949.00;;;<p>Machine Wash, Do Not Bleach, Do Not Tumble Dry, Cool Iron, Dry Clean</p>;;;NA;;zerotype;;Winter;;No
2335289;CRCS217-306 B-D24-Black-2335289;CRCS217-306 B;Draft;Shirts;Crocodile;Adults-Men;Men;Black;White;Grey;Fashion;Casual;2017;39,CRDESHRT00000318,40,CRDESHRT00000319,42,CRDESHRT00000320,44,CRDESHRT00000321,46,CRDESHRT00000322;1949.00;;;<p>Machine Wash, Do Not Bleach, Do Not Tumble Dry, Cool Iron, Dry Clean</p>;;;NA;;zerotype;;Winter;;No
2335288;CRCS217-306 A-D2-Blue-2335288;CRCS217-306 A;Draft;Shirts;Crocodile;Adults-Men;Men;Blue;Black;White;Fashion;Casual;2017;39,CRDESHRT00000313,40,CRDESHRT00000314,42,CRDESHRT00000315,44,CRDESHRT00000316,46,CRDESHRT00000317;1949.00;;;<p>Machine Wash, Do Not Bleach, Do Not Tumble Dry, Cool Iron, Dry Clean</p>;;;NA;;zerotype;;Winter;;No
2335287;CRCS217-305-D1-Blue-2335287;CRCS217-305;Draft;Shirts;Crocodile;Adults-Men;Men;Blue;Off White;;Fashion;Casual;2017;39,CRDESHRT00000308,40,CRDESHRT00000309,42,CRDESHRT00000310,44,CRDESHRT00000311,46,CRDESHRT00000312;1999.00;;;<p>Machine Wash, Do Not Bleach, Do Not Tumble Dry, Cool Iron, Dry Clean</p>;;;NA;;zerotype;;Winter;;No
