Style ID;Vendor Article Number;Vendor Article Name;Active Status;Article type;Brand;Age Group;Gender;Base Colour;Colour1;Colour2;Fashion Type;Usage;Year;Size - SKU code pair;MRP;Style Description;Style Note;Materials and Care Description;Size and Fit Description;Size Chart Path;Product Display Name;Tags;Product Type;Classification Brand;Season;Comments;Upload Images
1976070;19043202-Grey-1976070;Carson Runner Camo Mesh IDP;Draft;Sports Shoes;Puma;Adults-Men;Men;;;;Core;;2017;UK6,PUMASPSH00115861,UK7,PUMASPSH00115862,UK8,PUMASPSH00115863,UK9,PUMASPSH00115864,UK10,PUMASPSH00115865,UK11,PUMASPSH00115866,UK12,PUMASPSH00115867;5999.00;;;;;;;;zerotype;;Spring;;No
1976069;18899703-Black-1976069;Ignite XT v2;Draft;Sports Shoes;Puma;Adults-Men;Men;;;;Fashion;;2016;UK6,PUMASPSH00115854,UK7,PUMASPSH00115855,UK8,PUMASPSH00115856,UK9,PUMASPSH00115857,UK10,PUMASPSH00115858,UK11,PUMASPSH00115859,UK12,PUMASPSH00115860;8999.00;;;;;;;;zerotype;;Winter;;No
1976068;18861110-Blue-1976068;IGNITE v2;Draft;Sports Shoes;Puma;Adults-Men;Men;;;;Core;;2017;UK7,PUMASPSH00115849,UK8,PUMASPSH00115850,UK9,PUMASPSH00115851,UK10,PUMASPSH00115852,UK11,PUMASPSH00115853;9999.00;;;;;;;;zerotype;;Summer;;No
1976067;36486102-Blue-1976067;Puma Rebound Street Evo IDP;Draft;Casual Shoes;Puma;Adults-Men;Men;;;;Core;Casual;2017;UK6,PUMACASH00124226,UK7,PUMACASH00124227,UK8,PUMACASH00124228,UK9,PUMACASH00124229,UK10,PUMACASH00124230,UK11,PUMACASH00124231;4499.00;;;;;;;;zerotype;;Spring;;No
1976066;36480403-Grey-1976066;Icra Evo MU IDP;Draft;Casual Shoes;Puma;Adults-Men;Men;;;;Core;Casual;2017;UK6,PUMACASH00124219,UK7,PUMACASH00124220,UK8,PUMACASH00124221,UK9,PUMACASH00124222,UK10,PUMACASH00124223,UK11,PUMACASH00124224,UK12,PUMACASH00124225;4499.00;;;;;;;;zerotype;;Spring;;No
1976065;36175605-Blue-1976065;Elsu v2 CV DP;Draft;Casual Shoes;Puma;Adults-Men;Men;;;;Core;;2016;UK6,PUMACASH00124215,UK7,PUMACASH00124216,UK9,PUMACASH00124217,UK10,PUMACASH00124218;2999.00;;;;;;;;zerotype;;Spring;;No
1976064;36175505-Blue-1976064;Elsu v2 SL;Draft;Casual Shoes;Puma;Adults-Men;Men;;;;Core;Casual;2016;UK6,PUMACASH00124209,UK7,PUMACASH00124210,UK8,PUMACASH00124211,UK9,PUMACASH00124212,UK10,PUMACASH00124213,UK11,PUMACASH00124214;3499.00;;;;;;;;zerotype;;Winter;;No
1976063;36138301-Blue-1976063;Duplex Evo;Draft;Casual Shoes;Puma;Adults-Men;Men;;;;Core;;2016;UK7,PUMACASH00124204,UK9,PUMACASH00124205,UK10,PUMACASH00124206,UK11,PUMACASH00124207,UK8,PUMACASH00124208;5999.00;;;;;;;;zerotype;;Spring;;No
1976062;36133401-Black-1976062;Blaze Classic;Draft;Casual Shoes;Puma;Adults-Men;Men;;;;Core;;2016;UK9,PUMACASH00124200,UK7,PUMACASH00124201,UK6,PUMACASH00124202,UK10,PUMACASH00124203;7999.00;;;;;;;;zerotype;;Spring;;No
1976061;36110904-Black-1976061;Elsu V2 Perf SL;Draft;Casual Shoes;Puma;Adults-Men;Men;;;;Core;Casual;2017;UK6,PUMACASH00124193,UK7,PUMACASH00124194,UK8,PUMACASH00124195,UK9,PUMACASH00124196,UK10,PUMACASH00124197,UK11,PUMACASH00124198,UK12,PUMACASH00124199;4299.00;;;;;;;;zerotype;;Spring;;No
1976060;35975512-Grey-1976060;Sky Street Vulc;Draft;Casual Shoes;Puma;Adults-Men;Men;;;;Core;;2016;UK9,PUMACASH00124190,UK10,PUMACASH00124191,UK11,PUMACASH00124192;5999.00;;;;;;;;zerotype;;Spring;;No
1976059;30582001-Black-1976059;evoSPEED Sock SF;Draft;Casual Shoes;Puma;Adults-Men;Men;;;;Core;;2016;UK6,PUMACASH00124184,UK7,PUMACASH00124185,UK8,PUMACASH00124186,UK9,PUMACASH00124187,UK10,PUMACASH00124188,UK11,PUMACASH00124189;7999.00;;;;;;;;zerotype;;Spring;;No
