Style ID;Vendor Article Number;Vendor Article Name;Active Status;Article type;Brand;Age Group;Gender;Base Colour;Colour1;Colour2;Fashion Type;Usage;Year;Size - SKU code pair;MRP;Style Description;Style Note;Materials and Care Description;Size and Fit Description;Size Chart Path;Product Display Name;Tags;Product Type;Classification Brand;Season;Comments;Upload Images
1809051;BQ0328-LGREYH/CLAQUA-1809051;W CE NEO TANK;Draft;Tops;Adidas NEO;Adults-Women;Women;;;;Fashion;;2017;XS,ADNOTOPS00000025,L,ADNOTOPS00000026,M,ADNOTOPS00000027,S,ADNOTOPS00000028,XL,ADNOTOPS00000029;1299.00;<p>Pure Cotton</p>;;;;;;;zerotype;;Summer;;No
1809015;BQ0592-CROYAL/WHITE-1809015;M CE NEO SHORTS;Draft;Shorts;Adidas NEO;Adults-Men;Men;;;;Fashion;;2017;XS,ADNOSHOR00000161,M,ADNOSHOR00000162,S,ADNOSHOR00000163,XL,ADNOSHOR00000164,L,ADNOSHOR00000165,XXL,ADNOSHOR00000166;1999.00;<p>Cotton</p>;;;;;;;zerotype;;Summer;;No
1809014;BQ0548-BLACK/WHITE-1809014;M CE NEO SHORTS;Draft;Shorts;Adidas NEO;Adults-Men;Men;;;;Fashion;;2017;S,ADNOSHOR00000155,XS,ADNOSHOR00000156,M,ADNOSHOR00000157,XL,ADNOSHOR00000158,L,ADNOSHOR00000159,XXL,ADNOSHOR00000160;1999.00;<p>Cotton</p>;;;;;;;zerotype;;Summer;;No
1809013;BQ0506-BLACK/WHITE-1809013;M CE C SHORTS;Draft;Shorts;Adidas NEO;Adults-Men;Men;;;;Fashion;;2017;M,ADNOSHOR00000149,S,ADNOSHOR00000150,XS,ADNOSHOR00000151,XXL,ADNOSHOR00000152,XL,ADNOSHOR00000153,L,ADNOSHOR00000154;2299.00;<p>Cotton</p>;;;;;;;zerotype;;Summer;;No
1809006;BK6954-MYSBLU/WHITE-1809006;M CE NEO SHORTS;Draft;Shorts;Adidas NEO;Adults-Men;Men;;;;Fashion;;2017;L,ADNOSHOR00000143,M,ADNOSHOR00000144,XL,ADNOSHOR00000145,XXL,ADNOSHOR00000146,S,ADNOSHOR00000147,XS,ADNOSHOR00000148;1999.00;<p>Cotton</p>;;;;;;;zerotype;;Summer;;No
1809005;BK6918-MGREYH/BLACK-1809005;M CE C SHORTS;Draft;Shorts;Adidas NEO;Adults-Men;Men;;;;Fashion;;2017;L,ADNOSHOR00000137,XL,ADNOSHOR00000138,XXL,ADNOSHOR00000139,XS,ADNOSHOR00000140,S,ADNOSHOR00000141,M,ADNOSHOR00000142;2299.00;<p>Cotton</p>;;;;;;;zerotype;;Summer;;No
1808937;BP6400-MYSBLU/MYSBLU-1808937;W STUDIO LEGGIN;Draft;Tights;Adidas NEO;Adults-Women;Women;;;;Fashion;;2017;L,ADNOTIGH00000133,XL,ADNOTIGH00000134,S,ADNOTIGH00000135,M,ADNOTIGH00000136;1699.00;<p>Cotton</p>;;;;;;;zerotype;;Summer;;No
1808936;BK6890-BLACK/WHITE-1808936;W STUDIO LEGGIN;Draft;Tights;Adidas NEO;Adults-Women;Women;;;;Fashion;;2017;L,ADNOTIGH00000129,S,ADNOTIGH00000130,XL,ADNOTIGH00000131,M,ADNOTIGH00000132;1699.00;<p>Cotton</p>;;;;;;;zerotype;;Summer;;No
1808806;BQ0573-BLACK/LGSOGR-1808806;M UP CF TP;Draft;Track Pants;Adidas NEO;Adults-Men;Men;;;;Fashion;;2017;XL,ADNOTRPT00000817,L,ADNOTRPT00000818,M,ADNOTRPT00000819,S,ADNOTRPT00000820;2999.00;<p>Polyester</p>;;;;;;;zerotype;;Summer;;No
1808805;BQ0347-MYSBLU/ENERGY-1808805;M CE A 3/4 TP;Draft;Track Pants;Adidas NEO;Adults-Men;Men;;;;Fashion;;2017;S,ADNOTRPT00000812,XS,ADNOTRPT00000813,L,ADNOTRPT00000814,XL,ADNOTRPT00000815,M,ADNOTRPT00000816;1999.00;<p>Cotton</p>;;;;;;;zerotype;;Summer;;No
1808800;BK8070-COLRED/WHITE-1808800;W CS JOGGER;Draft;Track Pants;Adidas NEO;Adults-Women;Women;;;;Fashion;;2017;S,ADNOTRPT00000807,XL,ADNOTRPT00000808,L,ADNOTRPT00000809,XS,ADNOTRPT00000810,M,ADNOTRPT00000811;2999.00;<p>Cotton</p>;;;;;;;zerotype;;Summer;;No
1808798;BK6959-BLACK/WHITE-1808798;M CE A 3/4 TP;Draft;Track Pants;Adidas NEO;Adults-Men;Men;;;;Fashion;;2017;S,ADNOTRPT00000802,XL,ADNOTRPT00000803,M,ADNOTRPT00000804,XS,ADNOTRPT00000805,L,ADNOTRPT00000806;1999.00;<p>Cotton</p>;;;;;;;zerotype;;Summer;;No
1808797;BK6871-MYSBLU/CONAVY-1808797;W STUDIO PANTS;Draft;Track Pants;Adidas NEO;Adults-Women;Women;;;;Fashion;;2017;XL,ADNOTRPT00000797,XS,ADNOTRPT00000798,S,ADNOTRPT00000799,M,ADNOTRPT00000800,L,ADNOTRPT00000801;2999.00;<p>Polyester</p>;;;;;;;zerotype;;Summer;;No
1808662;BQ0856-BLACK/WHITE-1808662;M GRAPHIC T;Draft;Tshirts;Adidas NEO;Adults-Men;Men;;;;Fashion;;2017;XL,ADNOTSHT00001187,L,ADNOTSHT00001188,S,ADNOTSHT00001189,M,ADNOTSHT00001190,XS,ADNOTSHT00001191;1699.00;<p>Cotton</p>;;;;;;;zerotype;;Summer;;No
1808661;BQ0845-BLACK/WHITE-1808661;M GRAPHIC T;Draft;Tshirts;Adidas NEO;Adults-Men;Men;;;;Fashion;;2017;L,ADNOTSHT00001182,M,ADNOTSHT00001183,S,ADNOTSHT00001184,XS,ADNOTSHT00001185,XL,ADNOTSHT00001186;1699.00;<p>Cotton</p>;;;;;;;zerotype;;Summer;;No
1808660;BQ0841-CROYAL/WHITE-1808660;M PIQUE T;Draft;Tshirts;Adidas NEO;Adults-Men;Men;;;;Fashion;;2017;L,ADNOTSHT00001176,XXL,ADNOTSHT00001177,S,ADNOTSHT00001178,XS,ADNOTSHT00001179,XL,ADNOTSHT00001180,M,ADNOTSHT00001181;1499.00;<p>Cotton</p>;;;;;;;zerotype;;Summer;;No
1808659;BQ0839-WHITE/WHITE-1808659;M PIQUE T;Draft;Tshirts;Adidas NEO;Adults-Men;Men;;;;Fashion;;2017;S,ADNOTSHT00001171,M,ADNOTSHT00001172,XS,ADNOTSHT00001173,XL,ADNOTSHT00001174,L,ADNOTSHT00001175;1499.00;<p>Cotton</p>;;;;;;;zerotype;;Summer;;No
1808658;BQ0570-BLACK/MGSOGR-1808658;M UP ELNG TEE;Draft;Tshirts;Adidas NEO;Adults-Men;Men;;;;Fashion;;2017;XS,ADNOTSHT00001166,XL,ADNOTSHT00001167,L,ADNOTSHT00001168,S,ADNOTSHT00001169,M,ADNOTSHT00001170;1999.00;<p>Cotton</p>;;;;;;;zerotype;;Summer;;No
1808657;BQ0525-MYSBLU/WHITE-1808657;M CE NEO TANK;Draft;Tshirts;Adidas NEO;Adults-Men;Men;;;;Fashion;;2017;M,ADNOTSHT00001161,L,ADNOTSHT00001162,S,ADNOTSHT00001163,XS,ADNOTSHT00001164,XL,ADNOTSHT00001165;1499.00;<p>Cotton</p>;;;;;;;zerotype;;Summer;;No
1808656;BQ0521-MGREYH/SGREEN-1808656;M CE NEO TANK;Draft;Tshirts;Adidas NEO;Adults-Men;Men;;;;Fashion;;2017;M,ADNOTSHT00001156,XS,ADNOTSHT00001157,S,ADNOTSHT00001158,L,ADNOTSHT00001159,XL,ADNOTSHT00001160;1499.00;<p>Cotton</p>;;;;;;;zerotype;;Summer;;No
1808655;BQ0499-MGREYH/BLACK-1808655;M CE C TEE;Draft;Tshirts;Adidas NEO;Adults-Men;Men;;;;Fashion;;2017;XXL,ADNOTSHT00001150,S,ADNOTSHT00001151,XS,ADNOTSHT00001152,L,ADNOTSHT00001153,XL,ADNOTSHT00001154,M,ADNOTSHT00001155;1699.00;<p>Viscose</p>;;;;;;;zerotype;;Summer;;No
1808654;BQ0496-BLACK/WHITE-1808654;M CE C TEE;Draft;Tshirts;Adidas NEO;Adults-Men;Men;;;;Fashion;;2017;XXL,ADNOTSHT00001144,S,ADNOTSHT00001145,M,ADNOTSHT00001146,L,ADNOTSHT00001147,XS,ADNOTSHT00001148,XL,ADNOTSHT00001149;1699.00;<p>Viscose</p>;;;;;;;zerotype;;Summer;;No
1808653;BQ0457-MGREYH/BLACK-1808653;M SPRTWR TEE;Draft;Tshirts;Adidas NEO;Adults-Men;Men;;;;Fashion;;2017;S,ADNOTSHT00001139,XS,ADNOTSHT00001140,M,ADNOTSHT00001141,L,ADNOTSHT00001142,XL,ADNOTSHT00001143;1499.00;<p>Cotton</p>;;;;;;;zerotype;;Summer;;No
1808652;BQ0344-WHITE/CORPNK-1808652;W CE ADI TEE;Draft;Tshirts;Adidas NEO;Adults-Women;Women;;;;Fashion;;2017;L,ADNOTSHT00001134,S,ADNOTSHT00001135,M,ADNOTSHT00001136,XS,ADNOTSHT00001137,XL,ADNOTSHT00001138;1199.00;<p>Cotton</p>;;;;;;;zerotype;;Summer;;No
1808632;BP6539-BLACK/CLAQUA-1808632;W CS DOUBLE TEE;Draft;Tshirts;Adidas NEO;Adults-Women;Women;;;;Fashion;;2017;L,ADNOTSHT00001129,M,ADNOTSHT00001130,XL,ADNOTSHT00001131,XS,ADNOTSHT00001132,S,ADNOTSHT00001133;2499.00;<p>Cotton</p>;;;;;;;zerotype;;Summer;;No
1808631;BP6435-CORPNK/WHITE-1808631;W GRAP T ILLUST;Draft;Tshirts;Adidas NEO;Adults-Women;Women;;;;Fashion;;2017;M,ADNOTSHT00001124,S,ADNOTSHT00001125,L,ADNOTSHT00001126,XL,ADNOTSHT00001127,XS,ADNOTSHT00001128;1599.00;<p>Polyester</p>;;;;;;;zerotype;;Summer;;No
1808630;BP6434-BLACK/WHITE-1808630;W GRAP T ILLUST;Draft;Tshirts;Adidas NEO;Adults-Women;Women;;;;Fashion;;2017;S,ADNOTSHT00001119,L,ADNOTSHT00001120,M,ADNOTSHT00001121,XL,ADNOTSHT00001122,XS,ADNOTSHT00001123;1599.00;<p>Polyester</p>;;;;;;;zerotype;;Summer;;No
1808629;BP6341-BLACK/WHITE-1808629;W CE ADI TEE;Draft;Tshirts;Adidas NEO;Adults-Women;Women;;;;Fashion;;2017;XL,ADNOTSHT00001114,L,ADNOTSHT00001115,M,ADNOTSHT00001116,S,ADNOTSHT00001117,XS,ADNOTSHT00001118;1199.00;<p>Cotton</p>;;;;;;;zerotype;;Summer;;No
1808628;BP6340-MYSBLU/POP-1808628;W CE ADI TEE;Draft;Tshirts;Adidas NEO;Adults-Women;Women;;;;Fashion;;2017;XS,ADNOTSHT00001109,XL,ADNOTSHT00001110,S,ADNOTSHT00001111,M,ADNOTSHT00001112,L,ADNOTSHT00001113;1199.00;<p>Cotton</p>;;;;;;;zerotype;;Summer;;No
1808627;BK8064-WHITE/COLRED-1808627;W CS DOUBLE TEE;Draft;Tshirts;Adidas NEO;Adults-Women;Women;;;;Fashion;;2017;XL,ADNOTSHT00001104,M,ADNOTSHT00001105,L,ADNOTSHT00001106,XS,ADNOTSHT00001107,S,ADNOTSHT00001108;2699.00;<p>Cotton</p>;;;;;;;zerotype;;Summer;;No
1808626;BK8015-WHITE/BLACK-1808626;M SPRTWR TEE;Draft;Tshirts;Adidas NEO;Adults-Men;Men;;;;Fashion;;2017;M,ADNOTSHT00001099,L,ADNOTSHT00001100,XL,ADNOTSHT00001101,XS,ADNOTSHT00001102,S,ADNOTSHT00001103;1499.00;<p>Cotton</p>;;;;;;;zerotype;;Summer;;No
1808624;BK6931-CLAQUA/WHITE-1808624;W CE NEO RGLN T;Draft;Tshirts;Adidas NEO;Adults-Women;Women;;;;Fashion;;2017;XL,ADNOTSHT00001094,L,ADNOTSHT00001095,S,ADNOTSHT00001096,XS,ADNOTSHT00001097,M,ADNOTSHT00001098;1199.00;<p>Cotton</p>;;;;;;;zerotype;;Summer;;No
1808623;BK6923-CLAQUA/BLACK-1808623;W CE ADI TEE;Draft;Tshirts;Adidas NEO;Adults-Women;Women;;;;Fashion;;2017;XL,ADNOTSHT00001089,L,ADNOTSHT00001090,M,ADNOTSHT00001091,S,ADNOTSHT00001092,XS,ADNOTSHT00001093;1199.00;<p>Cotton</p>;;;;;;;zerotype;;Summer;;No
1808622;BK6922-WHITE/BLACK-1808622;M CE NEO TANK;Draft;Tshirts;Adidas NEO;Adults-Men;Men;;;;Fashion;;2017;S,ADNOTSHT00001084,M,ADNOTSHT00001085,XS,ADNOTSHT00001086,L,ADNOTSHT00001087,XL,ADNOTSHT00001088;1499.00;<p>Cotton</p>;;;;;;;zerotype;;Summer;;No
1808621;BK6914-WHITE/BLACK-1808621;M CE C TEE;Draft;Tshirts;Adidas NEO;Adults-Men;Men;;;;Fashion;;2017;S,ADNOTSHT00001079,XS,ADNOTSHT00001080,XL,ADNOTSHT00001081,M,ADNOTSHT00001082,L,ADNOTSHT00001083;1699.00;<p>Viscose</p>;;;;;;;zerotype;;Summer;;No
1808620;BK6858-WHITE/BLACK-1808620;W GRAP T ILLUST;Draft;Tshirts;Adidas NEO;Adults-Women;Women;;;;Fashion;;2017;XS,ADNOTSHT00001074,S,ADNOTSHT00001075,XL,ADNOTSHT00001076,M,ADNOTSHT00001077,L,ADNOTSHT00001078;1599.00;<p>Polyester</p>;;;;;;;zerotype;;Summer;;No
1808619;BK6839-WHITE/LGSOGR-1808619;M UP LS TEE;Draft;Tshirts;Adidas NEO;Adults-Men;Men;;;;Fashion;;2017;XL,ADNOTSHT00001069,L,ADNOTSHT00001070,S,ADNOTSHT00001071,XS,ADNOTSHT00001072,M,ADNOTSHT00001073;1999.00;<p>Cotton</p>;;;;;;;zerotype;;Summer;;No
1808618;BK6837-WHITE/CHSOGR-1808618;M UP ELNG TEE;Draft;Tshirts;Adidas NEO;Adults-Men;Men;;;;Fashion;;2017;XL,ADNOTSHT00001065,S,ADNOTSHT00001066,L,ADNOTSHT00001067,M,ADNOTSHT00001068;1999.00;<p>Cotton</p>;;;;;;;zerotype;;Summer;;No
1808585;BK0580-BLACK/BLACK-1808585;M PIQUE T;Draft;Tshirts;Adidas NEO;Adults-Men;Men;;;;Fashion;;2017;S,ADNOTSHT00001059,M,ADNOTSHT00001060,XS,ADNOTSHT00001061,XL,ADNOTSHT00001062,XXL,ADNOTSHT00001063,L,ADNOTSHT00001064;1499.00;<p>Cotton</p>;;;;;;;zerotype;;Summer;;No
1808584;BK0579-DRKGRN/WHITE-1808584;M GRAPHIC T;Draft;Tshirts;Adidas NEO;Adults-Men;Men;;;;Fashion;;2017;XS,ADNOTSHT00001054,XL,ADNOTSHT00001055,S,ADNOTSHT00001056,L,ADNOTSHT00001057,M,ADNOTSHT00001058;1699.00;<p>Cotton</p>;;;;;;;zerotype;;Summer;;No
1808583;BK0575-DRKGRN/WHITE-1808583;M GRAPHIC T;Draft;Tshirts;Adidas NEO;Adults-Men;Men;;;;Fashion;;2017;M,ADNOTSHT00001049,L,ADNOTSHT00001050,XS,ADNOTSHT00001051,S,ADNOTSHT00001052,XL,ADNOTSHT00001053;1699.00;<p>Cotton</p>;;;;;;;zerotype;;Summer;;No
1808582;BK0523-WHITE/WHITE-1808582;W CS GRAPHIC T;Draft;Tshirts;Adidas NEO;Adults-Women;Women;;;;Fashion;;2017;M,ADNOTSHT00001044,L,ADNOTSHT00001045,S,ADNOTSHT00001046,XS,ADNOTSHT00001047,XL,ADNOTSHT00001048;1399.00;<p>Cotton</p>;;;;;;;zerotype;;Summer;;No
