Style ID;Vendor Article Number;Vendor Article Name;Active Status;Article type;Brand;Age Group;Gender;Base Colour;Colour1;Colour2;Fashion Type;Usage;Year;Size - SKU code pair;MRP;Style Description;Style Note;Materials and Care Description;Size and Fit Description;Size Chart Path;Product Display Name;Tags;Product Type;Classification Brand;Season;Comments;Upload Images
1938110;FMJN7820-Washed Denim-1938110;MID RISE MICHAEL;Draft;Jeans;Flying Machine;Adults-Men;Men;Blue;;;Fashion;;2016;32,FLYMJENS00005923,34,FLYMJENS00005924,36,FLYMJENS00005925,38,FLYMJENS00005926,30,FLYMJENS00005927;2199.00;;;<p>Washed Denim</p>;;;;;zerotype;;Fall;;No
1930980;8PSF04B353-Jade/Navy-1930980;Speedo Female Swimwear Boom Splice Swim Capri;Draft;Swimwear;Speedo;Adults-Women;Women;;;;Core;;2017;28,SPEESWMW00001294,30,SPEESWMW00001295,32,SPEESWMW00001296,34,SPEESWMW00001297,36,SPEESWMW00001298;1399.00;;;<p>30 Degree Celsius Machine Wash, Do Not Bleach And Tumble Dry</p>;;;;;zerotype;;Summer;;No
1930973;8PSF02B344-Black/Electric Pink-1930973;Speedo Female Swimwear Solid Swim Legging;Draft;Swimwear;Speedo;Adults-Women;Women;;;;Core;;2017;28,SPEESWMW00001274,30,SPEESWMW00001275,32,SPEESWMW00001276,34,SPEESWMW00001277,36,SPEESWMW00001278;1099.00;;;<p>30 Degree Celsius Machine Wash, Do Not Bleach And Tumble Dry</p>;;;;;zerotype;;Summer;;No
1930971;8PSF01B369-Navy/Jade-1930971;Speedo Female swimwear Long Sleeve Suntop;Draft;Swimwear;Speedo;Adults-Women;Women;;;;Core;;2017;32,SPEESWMW00001269,34,SPEESWMW00001270,36,SPEESWMW00001271,38,SPEESWMW00001272,40,SPEESWMW00001273;1799.00;;;<p>30 Degree Celsius Machine Wash, Do Not Bleach And Tumble Dry</p>;;;;;zerotype;;Summer;;No
1930969;8PSF01B344-Black/Electric Pink-1930969;Speedo Female swimwear Long Sleeve Suntop;Draft;Swimwear;Speedo;Adults-Women;Women;;;;Core;;2017;32,SPEESWMW00001264,34,SPEESWMW00001265,36,SPEESWMW00001266,38,SPEESWMW00001267,40,SPEESWMW00001268;1799.00;;;<p>30 Degree Celsius Machine Wash, Do Not Bleach And Tumble Dry</p>;;;;;zerotype;;Summer;;No
1930964;8GS878P016-Orchid/Navy-1930964;Speedo Girls Swimwear Racerback Swimdress with Boyleg;Draft;Swimwear;Speedo;Kids-Girls;Girls;;;;Core;;2017;24,SPEESWMW00001246,26,SPEESWMW00001247,28,SPEESWMW00001248,30,SPEESWMW00001249,32,SPEESWMW00001250,34,SPEESWMW00001251;1499.00;;;<p>30 Degree Celsius Machine Wash, Do Not Bleach And Tumble Dry</p>;;;;;zerotype;;Summer;;No
1930963;8GS878B356-Electric Pink/Black-1930963;Speedo Girls Swimwear Racerback Swimdress with Boyleg;Draft;Swimwear;Speedo;Kids-Girls;Girls;;;;Core;;2017;24,SPEESWMW00001240,26,SPEESWMW00001241,28,SPEESWMW00001242,30,SPEESWMW00001243,32,SPEESWMW00001244,34,SPEESWMW00001245;1499.00;;;<p>30 Degree Celsius Machine Wash, Do Not Bleach And Tumble Dry</p>;;;;;zerotype;;Summer;;No
1930962;8GS878B344-Black/Electric Pink-1930962;Speedo Girls Swimwear Racerback Swimdress with Boyleg;Draft;Swimwear;Speedo;Kids-Girls;Girls;;;;Core;;2017;24,SPEESWMW00001234,26,SPEESWMW00001235,28,SPEESWMW00001236,30,SPEESWMW00001237,32,SPEESWMW00001238,34,SPEESWMW00001239;1499.00;;;<p>30 Degree Celsius Machine Wash, Do Not Bleach And Tumble Dry</p>;;;;;zerotype;;Summer;;No
1930961;8GS876B483-Electric Pink/Light Adriatic/Black-1930961;Speedo Girls Swimwear Astropop Allover Print Racerback Swimdress;Draft;Swimwear;Speedo;Kids-Girls;Girls;;;;Core;;2017;24,SPEESWMW00001228,26,SPEESWMW00001229,28,SPEESWMW00001230,30,SPEESWMW00001231,32,SPEESWMW00001232,34,SPEESWMW00001233;1799.00;;;<p>30 Degree Celsius Machine Wash, Do Not Bleach And Tumble Dry</p>;;;;;zerotype;;Summer;;No
1930959;8FS818B388-Black/Electric Pink-1930959;Speedo Female Swimwear Boom Allover Print Racerback;Draft;Swimwear;Speedo;Adults-Women;Women;;;;Core;;2017;30,SPEESWMW00001217,32,SPEESWMW00001218,34,SPEESWMW00001219,36,SPEESWMW00001220,38,SPEESWMW00001221,40,SPEESWMW00001222;2399.00;;;<p>30 Degree Celsius Machine Wash, Do Not Bleach And Tumble Dry</p>;;;;;zerotype;;Summer;;No
1930932;810401B343-Arabian Night/Orchid/Jade-1930932;Speedo Female Swimwear Speedo Fit Kickback;Draft;Swimwear;Speedo;Adults-Women;Women;;;;Core;;2017;32,SPEESWMW00001085,34,SPEESWMW00001086,36,SPEESWMW00001087,38,SPEESWMW00001088;2699.00;;;<p>30 Degree Celsius Machine Wash, Do Not Bleach And Tumble Dry</p>;;;;;zerotype;;Summer;;No
1930926;809675A349-D.Purple/Lobster/White-1930926;Speedo Male Swimwear Printed Leisure 18" Watershorts;Draft;Swimwear;Speedo;Adults-Men;Men;;;;Core;;2017;L,SPEESWMW00001052,M,SPEESWMW00001053,S,SPEESWMW00001054,XL,SPEESWMW00001055,XS,SPEESWMW00001056;1199.00;;;<p>30 Degree Celsius Machine Wash, Do Not Bleach And Tumble Dry</p>;;;;;zerotype;;Summer;;No
1930897;8104043503-Black/White-1930897;Speedo Female Swimwear Jewelshine Printed Swimsuit;Draft;Swimwear;Speedo;Adults-Women;Women;;;;Core;;2017;32,SPEESWMW00000898,34,SPEESWMW00000899,36,SPEESWMW00000900;6999.00;;;<p>30 Degree Celsius Machine Wash, Do Not Bleach And Tumble Dry</p>;;;;;zerotype;;Summer;;No
1930892;870990B424-Pink-1930892;Speedo Unisex-Junior Plain Moulded Silicone  Swimcap;Draft;Swimwear Accessories;Speedo;Kids-Unisex;Unisex;;;;Core;;2017;Onesize,SPEESWMA00000323;449.00;<p>Featuring An Ergonomic 3D Design For A Comfortable And Secure Fit, Our Moulded Silicone Swim Caps Create A Smooth, Hydrodynamic Outline In The Water. A Kit Bag Essential, TheyRe Ideal For Regular Training Or Leisure Swimming And Come In A Variety Of Colours.</p>;;;;;;;zerotype;;Summer;;No
1930880;810898B568-Fluro Green/Clear-1930880;Speedo Unisex-Adult Futura Classic Goggles;Draft;Swimwear Accessories;Speedo;Adults-Unisex;Unisex;;;;Core;;2017;Onesize,SPEESWMA00000316;999.00;<p>This Soft Frame Goggle Offers Great Comfort And Is Easy To Adjust, Making It Perfect For Regular Swimming Sessions.</p>;;;;;;;zerotype;;Summer;;No
1930879;810895B582-Orange/Clear-1930879;Speedo Female-Adult Futura Biofuse Female Goggles;Draft;Swimwear Accessories;Speedo;Adults-Women;Women;;;;Core;;2017;Onesize,SPEESWMA00000315;1799.00;<p>Designed To Mimic Face Cuves, This Goggle Uses Super Soft, Gel-Like Materials For Ultimate Comfort. Featuring A New, Easy To Use Push Adjustment For A Secure Fit Every Time You Swim. Experience Goggles So Comfortable You Could Almost Forget You'Re Wearing Them.</p>;;;;;;;zerotype;;Summer;;No
1930878;810895B566-Pink/Smoke-1930878;Speedo Female-Adult Futura Biofuse Female Goggles;Draft;Swimwear Accessories;Speedo;Adults-Women;Women;;;;Core;;2017;Onesize,SPEESWMA00000314;1799.00;<p>Designed To Mimic Face Cuves, This Goggle Uses Super Soft, Gel-Like Materials For Ultimate Comfort. Featuring A New, Easy To Use Push Adjustment For A Secure Fit Every Time You Swim. Experience Goggles So Comfortable You Could Almost Forget You'Re Wearing Them.</p>;;;;;;;zerotype;;Summer;;No
1930876;809337B435-Grey/Blue-1930876;Speedo Unisex-Adult Luna Vision Reversible  Swimcap;Draft;Swimwear Accessories;Speedo;Adults-Unisex;Unisex;;;;Core;;2017;Onesize,SPEESWMA00000312;849.00;<p>This Reversible Cap Allows You To Alternate Your Style. Ideal For Regular Swimming, Its Durable, Won'T Snag Your Hair And Helps Protect Hair Against Chlorine.</p>;;;;;;;zerotype;;Summer;;No
1930875;808772B351-Black/White-1930875;Speedo Unisex-Adult Boom Endurance+  Swimcap;Draft;Swimwear Accessories;Speedo;Adults-Unisex;Unisex;;;;Core;;2017;Onesize,SPEESWMA00000311;599.00;<p>Made From Endurance+ Fabric, This Comfortable, Long-Lasting Cap Is Ideal For Regular Swim Sessions. Designed To Last Longer, Endurance+ Is An Exclusive Speedo Fabric Which Is 100% Chlorine-Resistant And Resists Snagging And Fading 20 Times Longer Than Any Other Swim Fabric.</p>;;;;;;;zerotype;;Summer;;No
1930874;8720641731-Silver-1930874;Speedo Unisex-Adult Pace  Swimcap;Draft;Swimwear Accessories;Speedo;Adults-Unisex;Unisex;;;;Core;;2017;Onesize,SPEESWMA00000310;799.00;<p>Shaped for comfort and a great fit, this cap is designed for regular swim sessions. Helping to create a smooth, sleek outline in the water, this cap reduces drag and helps protect your hair against chlorine.</p>;;;;;;;zerotype;;Summer;;No
1930873;8709901543-Pink-1930873;Speedo Unisex-Junior Moulded Silicone  Swimcap;Draft;Swimwear Accessories;Speedo;Kids-Unisex;Unisex;;;;Core;;2017;Onesize,SPEESWMA00000309;449.00;<p>Featuring an ergonomic 3D design for a comfortable and secure fit, our moulded silicone swim caps create a smooth, hydrodynamic outline in the water. A kit bag essential, theyre ideal for regular training or leisure swimming and come in a variety of colours.</p>;;;;;;;zerotype;;Summer;;No
1930867;8104434577-Black/Red-1930867;Speedo Unisex-Adult Futura Biofuse Mirror Goggles;Draft;Swimwear Accessories;Speedo;Adults-Unisex;Unisex;;;;Core;;2017;Onesize,SPEESWMA00000303;2099.00;<p>Worn By Millions Of Swimmers Around The World, Futura Biofuse Goggles Offer The Ultimate In Goggle Comfort. Designed Using Supersoft, Gel-Like Materials And Featuring Speedo Biofuse Technology, This Goggle Makes Your Comfort Top Priority. Experience Goggles So Comfortable You Could Almost Forget You'Re Wearing Them.</p>;;;;;;;zerotype;;Summer;;No
1930862;8069800001-Black-1930862;Speedo Unisex-Adult 3D Fast  Swimcap;Draft;Swimwear Accessories;Speedo;Adults-Unisex;Unisex;;;;Core;;2017;Onesize,SPEESWMA00000298;899.00;<p>Enhance Your Performance With This Streamlined 3D Moulded Silicone Cap. Designed For Superior Comfort And Fit, This Cap Is Great For Training And Racing. The Simple Design Will Match Any Goggles, Ensuring You Are Race-Ready.</p>;;;;;;;zerotype;;Summer;;No
1930859;8012139316-Orange/Blue-1930859;Speedo Unisex - Junior Rift Goggles;Draft;Swimwear Accessories;Speedo;Kids-Unisex;Unisex;;;;Core;;2017;Onesize,SPEESWMA00000295;1599.00;<p>The Rift Goggle Is A Hybrid Mask Which Features Biofuse Technology For Maximum Visibility And Comfort. The Child-Friendly Design Means The Goggle Is Quick And Easy To Adjust, And The Anti-Fog Technology Ensures Clarity Underwater.</p>;;;;;;;zerotype;;Summer;;No
1930858;8012137688-Green/Purple-1930858;Speedo Unisex - Junior Rift Goggles;Draft;Swimwear Accessories;Speedo;Kids-Unisex;Unisex;;;;Core;;2017;Onesize,SPEESWMA00000294;1599.00;<p>The Rift Goggle Is A Hybrid Mask Which Features Biofuse Technology For Maximum Visibility And Comfort. The Child-Friendly Design Means The Goggle Is Quick And Easy To Adjust, And The Anti-Fog Technology Ensures Clarity Underwater.</p>;;;;;;;zerotype;;Summer;;No
1930857;8012133985-Pink/Yellow-1930857;Speedo Unisex - Junior Rift Goggles;Draft;Swimwear Accessories;Speedo;Kids-Unisex;Unisex;;;;Core;;2017;Onesize,SPEESWMA00000293;1599.00;<p>The Rift Goggle Is A Hybrid Mask Which Features Biofuse Technology For Maximum Visibility And Comfort. The Child-Friendly Design Means The Goggle Is Quick And Easy To Adjust, And The Anti-Fog Technology Ensures Clarity Underwater.</p>;;;;;;;zerotype;;Summer;;No
1930856;8012132255-Blue/Orange-1930856;Speedo Unisex - Junior Rift Goggles;Draft;Swimwear Accessories;Speedo;Kids-Unisex;Unisex;;;;Core;;2017;Onesize,SPEESWMA00000292;1599.00;<p>The Rift Goggle Is A Hybrid Mask Which Features Biofuse Technology For Maximum Visibility And Comfort. The Child-Friendly Design Means The Goggle Is Quick And Easy To Adjust, And The Anti-Fog Technology Ensures Clarity Underwater.</p>;;;;;;;zerotype;;Summer;;No
1883557;CF 1705-BLACK-1883557;CF 1705 BLACK;Draft;Casual Shoes;WROGN;Adults-Men;Men;;;;Fashion;;2017;Euro 40,WRGNCASH00001045,Euro 41,WRGNCASH00001046,Euro 42,WRGNCASH00001047,Euro 43,WRGNCASH00001048,Euro 44,WRGNCASH00001049,Euro 45,WRGNCASH00001050;2299.00;;;;;;;myntra-store-02;zerotype;;Spring;myntra-store-02;No
1883555;CF 1704-NAVY-1883555;CF 1704 NAVY;Draft;Casual Shoes;WROGN;Adults-Men;Men;;;;Fashion;;2017;Euro 40,WRGNCASH00001039,Euro 41,WRGNCASH00001040,Euro 42,WRGNCASH00001041,Euro 43,WRGNCASH00001042,Euro 44,WRGNCASH00001043,Euro 45,WRGNCASH00001044;2299.00;;;;;;;myntra-store-02;zerotype;;Spring;myntra-store-02;No
1883552;CF 1703-GREY-1883552;CF 1703 GREY;Draft;Casual Shoes;WROGN;Adults-Men;Men;;;;Fashion;;2017;Euro 40,WRGNCASH00001033,Euro 41,WRGNCASH00001034,Euro 42,WRGNCASH00001035,Euro 43,WRGNCASH00001036,Euro 44,WRGNCASH00001037,Euro 45,WRGNCASH00001038;2299.00;;;;;;;myntra-store-02;zerotype;;Spring;myntra-store-02;No
1883550;CF 1702-NAVY-1883550;CF 1702 NAVY;Draft;Casual Shoes;WROGN;Adults-Men;Men;;;;Fashion;;2017;Euro 40,WRGNCASH00001027,Euro 41,WRGNCASH00001028,Euro 42,WRGNCASH00001029,Euro 43,WRGNCASH00001030,Euro 44,WRGNCASH00001031,Euro 45,WRGNCASH00001032;2299.00;;;;;;;myntra-store-02;zerotype;;Spring;myntra-store-02;No
1883547;CF 1701-LIGHT BLUE-1883547;CF 1701 LIGHT BLUE;Draft;Casual Shoes;WROGN;Adults-Men;Men;;;;Fashion;;2017;Euro 40,WRGNCASH00001021,Euro 41,WRGNCASH00001022,Euro 42,WRGNCASH00001023,Euro 43,WRGNCASH00001024,Euro 44,WRGNCASH00001025,Euro 45,WRGNCASH00001026;2299.00;;;;;;;myntra-store-02;zerotype;;Spring;myntra-store-02;No
1868907;2531712507-GREY-1868907;USPA Grey Open Buckle Casual Shoe;Draft;Sandals;U.S. Polo Assn.;Adults-Men;Men;;;;Fashion;;2017;UK6,USPOSNDL00000457,UK7,USPOSNDL00000458,UK8,USPOSNDL00000459,UK9,USPOSNDL00000460,UK10,USPOSNDL00000461,UK11,USPOSNDL00000462;2999.00;;;<p>clean it with good conditioner</p>;;;;;zerotype;;Spring;;No
1841525;HPEP377096K2-OCHER-1841525;PAPERSTONE SMALL BAG;Draft;Handbags;Lavie;Adults-Women;Women;;;;Fashion;;2017;Onesize,LAVEHDBG00002404;3560.00;;;;;;;;zerotype;;Summer;;No
1750539;2531709931-Cognac-1750539;2531709931Cognac;Active;Casual Shoes;U.S. Polo Assn.;Adults-Men;Men;Brown;;;Core;Smart Casual;2017;UK6,USPOCASH00002168,UK7,USPOCASH00002169,UK8,USPOCASH00002170,UK10,USPOCASH00002171,UK11,USPOCASH00002172,UK9,USPOCASH00002173;5599.00;A pair of round-toe <a href='/brown?src=pd' class='seolink'>brown</a> textured flat <a href='/boots?src=pd' class='seolink'>boots</a>, has high-top styling, lace-up detail<br />Genuine <a href='/leather?src=pd' class='seolink'>leather</a> upper<br />Cushioned footbed<br />Textured and patterned outsole, has a stacked heel<br />Warranty: <a href='/3?src=pd' class='seolink'>3</a> months against manufacturing defects only;Maximise your comfort and style with a fashionable pair of boots from U.S. Polo Assn. For a cool look for your lunch date, match this brown pair with trim denims and a casual blazer.;Genuine leather <br />Use a branded leather conditioner to clean the product;;;U.S. Polo Assn. Men Brown Genuine Leather High-Top Flat Boots;U.S. Polo Assn.,weekend-coupon-offer,bday-return-gift,bday125-feb,mitm-biker-all,mitm-boys-night-out-all,welcome-to-march,holi-basket-mar,happy-hour-mar19,ss17ftwpoloarrow,ss17mcfftw,mar29-super-hour,poloss17ftwfy,bfg-event-apr,bfg-extra10,bfg-extra20,bfg-extra30,bfg-wanderlust-men-leisureessentials,bfg-bollywood-seventies-men-520441,men-sneakers-2499,new-season-styles-apr13,apr15-hh,coupon-crush05,coupon-crush09,myntra-rupay,price-surge,pp-extra25-off,extra20-ccmay,crush24-ccmay,rs300off-ccmay,new-season30-ccmay,super-hour-ccmay,men-offer-may05,high-street-brands,high-street-footwear-men,high-street-shoes-acc,extra400-may9,rs300off-1105,ndd-bangalore,big10-ftod,big10-350off,crush350-may25,price-surge-may25,myntra-store-02;zerotype;;Summer;myntra-store-02;No
1750535;2531713048-Orange-1750535;2531713048Orange;Active;Sandals;U.S. Polo Assn.;Adults-Men;Men;Orange;Brown;;Core;Casual;2017;UK6,USPOFLFP00000345,UK7,USPOFLFP00000346,UK8,USPOFLFP00000347,UK10,USPOFLFP00000348,UK11,USPOFLFP00000349,UK9,USPOFLFP00000350;1999.00;A pair of <a href='/orange?src=pd' class='seolink'>orange</a> and <a href='/brown-sandals?src=pd' class='seolink'>brown sandals</a><br />Fabric and genuine <a href='/leather?src=pd' class='seolink'>leather</a> thong-style upper<br />Cushioned footbed<br />Textured outsole with patterned grooves<br />Warranty: 3 months against manufacturing defects only;This pair of sandals is casual yet classy. Team it with shorts and a polo T-shirt for a dapper, laid-back look.;Fabric and genuine leather<br />Wipe with a clean, dry cloth to remove dust;;;U.S. Polo Assn. Men Orange & Brown Sandals;U.S. Polo Assn.,weekend-coupon-offer,welcome-to-march,holi-basket-mar,happy-hour-mar19,ss17ftwpoloarrow,ss17mcfftw,mar29-super-hour,poloss17ftwfy,bfg-event-apr,bfg-wanderlust-jaiselmer-men-519499,new-season-styles-apr13,apr15-hh,coupon-crush05,coupon-crush09,myntra-rupay,price-surge,pp-extra25-off,extra20-ccmay,crush24-ccmay,rs300off-ccmay,new-season30-ccmay,super-hour-ccmay,men-offer-may05,coupon-offer-may,extra400-may9,super-hour-may9,rs300off-1105,ndd-bangalore,big10-ftod,look3-mitm-holiday,crush350-may25,price-surge-may25,myntra-store-02;zerotype;;Summer;myntra-store-02;No
1729317;WEJN1153-DARKSTONE-1729317;MENS CASUAL JEANS;Draft;Jeans;WROGN;Adults-Men;Men;;;;Fashion;;2017;28,WRGNJENS00001641,36,WRGNJENS00001642,30,WRGNJENS00001643,34,WRGNJENS00001644,32,WRGNJENS00001645;2599.00;;;;;;;wrogn-ss17,myntra-store-02;zerotype;;Spring;myntra-store-02;No
1729314;WEJN1142-DARKSTONE-1729314;MENS CASUAL JEANS;Draft;Jeans;WROGN;Adults-Men;Men;;;;Fashion;;2017;28,WRGNJENS00001626,36,WRGNJENS00001627,30,WRGNJENS00001628,34,WRGNJENS00001629,32,WRGNJENS00001630;2799.00;;;;;;;wrogn-ss17,myntra-store-02;zerotype;;Spring;myntra-store-02;No
1661923;2531613729-Brown-1661923;USPA Brown Closed  Casual Shoe;Warehouse Investigation;Casual Shoes;U.S. Polo Assn.;Adults-Men;Men;;;;Fashion;;2017;UK6,USPOCASH00001982,UK7,USPOCASH00001983,UK10,USPOCASH00001984,UK8,USPOCASH00002068,UK9,USPOCASH00002274,UK11,USPOCASH00002275;4399.00;<p>Leather</p>;;;;;;mcfeorsjan17,mensftwfirstondiscount,ftwfirstondiseors,poloss17ftwfy;zerotype;;Summer;ADD;No
1605249;PA11410-NB-1605249;PA11410;Active;Tshirts;Proline Active;Adults-Men;Men;Navy Blue;;;Fashion;Sports;2016;S,PLAVTSHT00000728,L,PLAVTSHT00000729,XL,PLAVTSHT00000730,XXL,PLAVTSHT00000731,M,PLAVTSHT00000732;999.00;Navy Blue solid waist length polo T-shirt engineered with PRO-DRY technology, has a polo collar, zip closure, short sleeves;Elevate the look of your wardrobe with a few more basic tees like this high-end polyester one from Proline Active.  When you're attending a concert, rock this piece with dark denims, leather boots, and a classic leather jacket.;Polyester <br> Machine-wash;The model (height 6' and shoulders 18") is wearing a size M;;Proline Active Men Navy Blue Solid Polo T-shirt;Proline Active,THOM0389,welcome-to-eors,eors-coupon-4jan,HH12JAN17,men-work-casual-polos-navy,HH20JAN17,bbd-sports-allstyles,stylesforextra5-jan17,vday-coupon-offer,welcome-to-myntra-feb-new,bday-offer,bday-happy-hour,coupon-crush-11,superhour-feb26,wishlisters-wish10-feb25,coupon-offer-monday,balloon-blast-13,balloon-blast-18,flash-sale-launch,happy-hour-mar19,spring15-mar20,welcome-to-myntra-mar17,super-hour-mar17,welcome-to-march-new,welcome-to-mar17-new,mar29-super-hour,welcome-to-myntra-april,hh-0104,chill-summer-apr,tbfg-fitfabulous-sports,tbfg-sportsfanatic,bfg-event-apr,bfg-extra10,tbfg-sports-fitfabulous-day1-topwear,tbfg-sportsfashion-athleisurelyyours-viewall,tbfg-sportsfashion-athleisurelyyours-tshirts,tbfg-sports-fitfabulous-day2-apparel,tbfg-sports-fitfabulous-day3-topwear,bfg-campus-offer-guy1,mens-tshirt-1299,apr12-super-hour,bnb-styles-apr,summer-style-apr,apr15-hh,rs-500-off-apr25,SportsAllStyles-2017,mse-all,super-hour-ccmay,super-hour-may9,sportsallstyles-2017,flash-sale-may17,big10-super-hour25,may21-hh,may27-price-surge,hh-jun2,coupon-crush-jun6;zerotype;;Winter;coupon-crush-jun6;No
1344869;870993A084-green Fizz-1344869;Flat Colour Silcon Cap Ju-Green/Blue;Draft;Swimwear Accessories;Speedo;Adults-Unisex;Unisex;;;;Core;;2016;Onesize,SPEESWMA00000096;649.00;<p>Composition: 100% silicone</p>;;;;;;;zerotype;;Summer;;No
1344830;8097957485-Black-1344830;Aquapulse Max Mirror Au-Black/Silver;Draft;Swimwear Accessories;Speedo;Adults-Unisex;Unisex;;;;Core;;2016;Onesize,SPEESWMA00000057;1999.00;<p>Composition: LENS: PC. SEAL: TPR. WISHBONE: TPU. STRAP: SILICONE</p>;;;;;;;zerotype;;Summer;;No
