Style ID;Vendor Article Number;Vendor Article Name;Active Status;Article type;Brand;Age Group;Gender;Base Colour;Colour1;Colour2;Fashion Type;Usage;Year;Size - SKU code pair;MRP;Style Description;Style Note;Materials and Care Description;Size and Fit Description;Size Chart Path;Product Display Name;Tags;Product Type;Classification Brand;Season;Comments;Upload Images
1950823;K217MTS103046-blue-1950823;Mens Tshirts;Draft;Tshirts;Minions by Kook N Keech;Adults-Men;Men;;;;Fashion;;2017;S,KNKHTSHT00007765,M,KNKHTSHT00007766,L,KNKHTSHT00007767,XL,KNKHTSHT00007768,XXL,KNKHTSHT00007769;699.00;;;;;;;Minions-06-19-2017,minions,minions-apparel;zerotype;;Summer;add;No
1948500;DBSMAAYSFB0285C-PINK-1948500;Tops;Draft;Tops;all about you;Adults-Women;Women;;;;Fashion;;2017;S,AATUTOPS00002986,M,AATUTOPS00002987,L,AATUTOPS00002988,XL,AATUTOPS00002989;1699.00;;;;;;;;zerotype;;Fall;;No
1940919;INVSS1709B-Navy-1940919;SLIM FIT Navy Premium FORMALSHIRT;Draft;Shirts;INVICTUS;Adults-Men;Men;;;;Fashion;;2017;38,TILCSHRT00005666,39,TILCSHRT00005667,40,TILCSHRT00005668,42,TILCSHRT00005669,44,TILCSHRT00005670;1799.00;;;;;;;;zerotype;;Fall;;No
1940918;INVSS1709A-Navy-1940918;SLIM FIT Navy Premium FORMALSHIRT;Draft;Shirts;INVICTUS;Adults-Men;Men;;;;Fashion;;2017;38,TILCSHRT00005661,39,TILCSHRT00005662,40,TILCSHRT00005663,42,TILCSHRT00005664,44,TILCSHRT00005665;1799.00;;;;;;;;zerotype;;Fall;;No
1928971;SS17WTOP114A-BLUE/WHITE-1928971;2 PART TOP;On Hold - Sample;Tops;ether;Adults-Women;Women;;;;Fashion;;2017;S,ETHRTOPS00000904,M,ETHRTOPS00000905,L,ETHRTOPS00000906,XL,ETHRTOPS00000907;1299.00;;;;;;;ether-ss17-mwnew;zerotype;;Summer;ss17;No
1923546;DBSMAAYD0225A-blue/white stripes-1923546;Dresses;Draft;Dresses;all about you;Adults-Women;Women;;;;Fashion;;2017;S,AATUDRSS00001346,M,AATUDRSS00001347,L,AATUDRSS00001348,XL,AATUDRSS00001349;2199.00;;;;;;;;zerotype;;Spring;;No
1897443;LKC12-04-Blue-1897443;Poly Crepe Long Kurta;Draft;Kurtas;Anouk;Adults-Women;Women;;;;Fashion;;2017;S,ANUKKRTA00031587,M,ANUKKRTA00031588,L,ANUKKRTA00031589,XL,ANUKKRTA00031590;999.00;;;;;;;;zerotype;;Spring;;No
1897441;LKC12-03-Broken lines grey-1897441;Poly Crepe Long Kurta;Draft;Kurtas;Anouk;Adults-Women;Women;;;;Fashion;;2017;S,ANUKKRTA00031583,M,ANUKKRTA00031584,L,ANUKKRTA00031585,XL,ANUKKRTA00031586;999.00;;;;;;;;zerotype;;Spring;;No
1897440;LKC12-02-Zigzag Grey Lines-1897440;Poly Crepe Long Kurta;Draft;Kurtas;Anouk;Adults-Women;Women;;;;Fashion;;2017;S,ANUKKRTA00031579,M,ANUKKRTA00031580,L,ANUKKRTA00031581,XL,ANUKKRTA00031582;999.00;;;;;;;;zerotype;;Spring;;No
1897438;LKC12-01-Dotted Black-1897438;Poly Crepe Long Kurta;Draft;Kurtas;Anouk;Adults-Women;Women;;;;Fashion;;2017;S,ANUKKRTA00031575,M,ANUKKRTA00031576,L,ANUKKRTA00031577,XL,ANUKKRTA00031578;999.00;;;;;;;;zerotype;;Spring;;No
1897415;LKC5-02-Dark Pink-1897415;Cotton Cambrin Anarkali Style Gold ChainBrass;Draft;Kurtas;Anouk;Adults-Women;Women;;;;Fashion;;2017;S,ANUKKRTA00031523,M,ANUKKRTA00031524,L,ANUKKRTA00031525,XL,ANUKKRTA00031526;1599.00;;;;;;;;zerotype;;Spring;;No
1870842;70459124-INDIGO-1870842;Dorothy Perkins Women INDIGO JEANS;On Hold - Sample;Jeans;DOROTHY PERKINS;Adults-Women;Women;;;;Fashion;;2017;UK10,DYPNJENS00000094,UK14,DYPNJENS00000095,UK12,DYPNJENS00000096;2190.00;<p>100% Cotton</p>;;;;;;ndd-gurgaon,big10-ftod,dorothy-perkins-select,myntra-store-01,high-street-brands,eors-wishlist06,eors-wishlist08;zerotype;;Spring;eors-wishlist08;No
1866538;CLEO7-CYPRESS /ANTHRA /POSEIDON-1866538;KNIT TOP WITH CONTRAST RIB;Draft;Tshirts;Roadster;Adults-Women;Women;;;;Fashion;;2017;S,RDSTTSHT00034425,M,RDSTTSHT00034426,L,RDSTTSHT00034427,XL,RDSTTSHT00034428;499.00;;;;;;;;zerotype;;Fall;;No
1866537;CLEO6-GOLDEN CREAM/ANTHRA/POSEIDON-1866537;KNIT TOP WITH CONTRAST RIB;Draft;Tshirts;Roadster;Adults-Women;Women;;;;Fashion;;2017;S,RDSTTSHT00034421,M,RDSTTSHT00034422,L,RDSTTSHT00034423,XL,RDSTTSHT00034424;499.00;;;;;;;;zerotype;;Fall;;No
1866268;RONALD3-POSEIDON,BLUE GLOW-1866268;TOP WITH LOW SIDE SEAMS;Draft;Tops;Roadster;Adults-Women;Women;;;;Fashion;;2017;S,RDSTTOPS00010680,M,RDSTTOPS00010681,L,RDSTTOPS00010682,XL,RDSTTOPS00010683;899.00;;;;;;;;zerotype;;Fall;;No
1866267;RONALD2-JET BLACK,WHISPER WHITE-1866267;TOP WITH LOW SIDE SEAMS;Draft;Tops;Roadster;Adults-Women;Women;;;;Fashion;;2017;S,RDSTTOPS00010676,M,RDSTTOPS00010677,L,RDSTTOPS00010678,XL,RDSTTOPS00010679;899.00;;;;;;;;zerotype;;Fall;;No
1866266;RONALD1-RUMBA RED,ROSE QUARTZ-1866266;TOP WITH LOW SIDE SEAMS;Draft;Tops;Roadster;Adults-Women;Women;;;;Fashion;;2017;S,RDSTTOPS00010672,M,RDSTTOPS00010673,L,RDSTTOPS00010674,XL,RDSTTOPS00010675;899.00;;;;;;;;zerotype;;Fall;;No
1866261;RIMA4-GOLDEN YELLOW-1866261;TOP WITH PANELLED HEM;Draft;Tops;Roadster;Adults-Women;Women;;;;Fashion;;2017;S,RDSTTOPS00010652,M,RDSTTOPS00010653,L,RDSTTOPS00010654,XL,RDSTTOPS00010655;899.00;;;;;;;;zerotype;;Fall;;No
1866260;RIMA3-HARBOR BLUE-1866260;TOP WITH PANELLED HEM;Draft;Tops;Roadster;Adults-Women;Women;;;;Fashion;;2017;S,RDSTTOPS00010648,M,RDSTTOPS00010649,L,RDSTTOPS00010650,XL,RDSTTOPS00010651;899.00;;;;;;;;zerotype;;Fall;;No
1866259;RIMA2-RUMBA RED-1866259;TOP WITH PANELLED HEM;Draft;Tops;Roadster;Adults-Women;Women;;;;Fashion;;2017;S,RDSTTOPS00010644,M,RDSTTOPS00010645,L,RDSTTOPS00010646,XL,RDSTTOPS00010647;899.00;;;;;;;;zerotype;;Fall;;No
1866257;RACHEL3-WHISPER WHITE-1866257;FRILL ON TOP;Draft;Tops;Roadster;Adults-Women;Women;;;;Fashion;;2017;S,RDSTTOPS00010636,M,RDSTTOPS00010637,L,RDSTTOPS00010638,XL,RDSTTOPS00010639;899.00;;;;;;;;zerotype;;Fall;;No
1866255;RACHEL1-SERENITY-1866255;FRILL ON TOP;Draft;Tops;Roadster;Adults-Women;Women;;;;Fashion;;2017;S,RDSTTOPS00010628,M,RDSTTOPS00010629,L,RDSTTOPS00010630,XL,RDSTTOPS00010631;899.00;;;;;;;;zerotype;;Fall;;No
1866249;ALCOTT2-GREY MELANGE-1866249;TOP WITH PRINT;Draft;Tops;Roadster;Adults-Women;Women;;;;Fashion;;2017;S,RDSTTOPS00010604,M,RDSTTOPS00010605,L,RDSTTOPS00010606,XL,RDSTTOPS00010607;899.00;;;;;;;;zerotype;;Fall;;No
1856345;SS17MT120B-Ivory/Mint-1856345;STRIPE TEE;Draft;Tshirts;ether;Adults-Men;Men;;;;Fashion;;2017;S,ETHRTSHT00003729,M,ETHRTSHT00003730,L,ETHRTSHT00003731,XL,ETHRTSHT00003732;699.00;;;;;;;;zerotype;;Summer;;No
1856344;SS17MT120A-Ivory/Navy-1856344;STRIPE TEE;Draft;Tshirts;ether;Adults-Men;Men;;;;Fashion;;2017;S,ETHRTSHT00003725,M,ETHRTSHT00003726,L,ETHRTSHT00003727,XL,ETHRTSHT00003728;699.00;;;;;;;;zerotype;;Summer;;No
1856335;SS17MT105B-Ink blue-1856335;COLLAR DETAIL TEE;Draft;Tshirts;ether;Adults-Men;Men;;;;Fashion;;2017;S,ETHRTSHT00003684,M,ETHRTSHT00003685,L,ETHRTSHT00003686,XL,ETHRTSHT00003687,XXL,ETHRTSHT00003688;899.00;;;;;;;;zerotype;;Summer;;No
1856334;SS17MT105A-Ivory-1856334;COLLAR DETAIL TEE;Draft;Tshirts;ether;Adults-Men;Men;;;;Fashion;;2017;S,ETHRTSHT00003679,M,ETHRTSHT00003680,L,ETHRTSHT00003681,XL,ETHRTSHT00003682,XXL,ETHRTSHT00003683;899.00;;;;;;;;zerotype;;Summer;;No
1848683;JACQUEMUSFR4-GREY-1848683;JACQUEMUS;Draft;Tops;Roadster;Adults-Women;Women;;;;Fashion;;2017;S,RDSTTOPS00010276,M,RDSTTOPS00010277,L,RDSTTOPS00010278,XL,RDSTTOPS00010279;1099.00;;;;;;;;zerotype;;Spring;;No
1848681;JACQUEMUSFR2-MUSTERD-1848681;JACQUEMUS;Draft;Tops;Roadster;Adults-Women;Women;;;;Fashion;;2017;S,RDSTTOPS00010268,M,RDSTTOPS00010269,L,RDSTTOPS00010270,XL,RDSTTOPS00010271;1099.00;;;;;;;;zerotype;;Spring;;No
1848680;JACQUEMUSFR1-BLACK-1848680;JACQUEMUS;Draft;Tops;Roadster;Adults-Women;Women;;;;Fashion;;2017;S,RDSTTOPS00010264,M,RDSTTOPS00010265,L,RDSTTOPS00010266,XL,RDSTTOPS00010267;1099.00;;;;;;;;zerotype;;Spring;;No
1848668;CREAMFR1-BEIGE-1848668;CREAM;Draft;Tops;Roadster;Adults-Women;Women;;;;Fashion;;2017;S,RDSTTOPS00010216,M,RDSTTOPS00010217,L,RDSTTOPS00010218,XL,RDSTTOPS00010219;999.00;;;;;;;;zerotype;;Spring;;No
1848645;QUNNIFR4-NAVY-1848645;QUNNI;Draft;Tops;Roadster;Adults-Women;Women;;;;Fashion;;2017;S,RDSTTOPS00010124,M,RDSTTOPS00010125,L,RDSTTOPS00010126,XL,RDSTTOPS00010127;899.00;;;;;;;;zerotype;;Spring;;No
1848644;QUNNIFR3-WHITE-1848644;QUNNI;Draft;Tops;Roadster;Adults-Women;Women;;;;Fashion;;2017;S,RDSTTOPS00010120,M,RDSTTOPS00010121,L,RDSTTOPS00010122,XL,RDSTTOPS00010123;899.00;;;;;;;;zerotype;;Spring;;No
1848643;QUNNIFR2-BEIGE-1848643;QUNNI;Draft;Tops;Roadster;Adults-Women;Women;;;;Fashion;;2017;S,RDSTTOPS00010116,M,RDSTTOPS00010117,L,RDSTTOPS00010118,XL,RDSTTOPS00010119;899.00;;;;;;;;zerotype;;Spring;;No
1848642;QUNNIFR1-BURGUNDY-1848642;QUNNI;Draft;Tops;Roadster;Adults-Women;Women;;;;Fashion;;2017;S,RDSTTOPS00010112,M,RDSTTOPS00010113,L,RDSTTOPS00010114,XL,RDSTTOPS00010115;899.00;;;;;;;;zerotype;;Spring;;No
1848610;HUMAFR3-DEEP RED STRIPER Y/D-1848610;HUMA;Draft;Dresses;Roadster;Adults-Women;Women;;;;Fashion;;2017;S,RDSTDRSS00001003,M,RDSTDRSS00001004,L,RDSTDRSS00001005,XL,RDSTDRSS00001006;1699.00;;;;;;;;zerotype;;Spring;;No
1848609;HUMAFR2-BLACK STRIPER Y/D-1848609;HUMA;Draft;Dresses;Roadster;Adults-Women;Women;;;;Fashion;;2017;S,RDSTDRSS00000999,M,RDSTDRSS00001000,L,RDSTDRSS00001001,XL,RDSTDRSS00001002;1699.00;;;;;;;;zerotype;;Spring;;No
1848608;HUMAFR1-NAVY STRIPER Y/D-1848608;HUMA;Draft;Dresses;Roadster;Adults-Women;Women;;;;Fashion;;2017;S,RDSTDRSS00000995,M,RDSTDRSS00000996,L,RDSTDRSS00000997,XL,RDSTDRSS00000998;1699.00;;;;;;;;zerotype;;Spring;;No
1847531;AAYAW17SKT002B-MOUSE-1847531;Pu Skirt;Draft;Skirts;all about you;Adults-Women;Women;;;;Fashion;;2017;28,AATUSKRT00000356,30,AATUSKRT00000357,32,AATUSKRT00000358,34,AATUSKRT00000359;1999.00;;;;;;;aay-ww2017;zerotype;;Winter;removed nonethnic;No
1847530;AAYAW17SKT002A-OLIVE-1847530;Pu Skirt;Draft;Skirts;all about you;Adults-Women;Women;;;;Fashion;;2017;28,AATUSKRT00000352,30,AATUSKRT00000353,32,AATUSKRT00000354,34,AATUSKRT00000355;1999.00;;;;;;;aay-ww2017;zerotype;;Winter;removed nonethnic;No
1843907;HVMSS7CS030B-Purple-1843907;MENS CHECKS SHIRT;Draft;Shirts;Harvard;Adults-Men;Men;;;;Fashion;;2017;S,HRVDSHRT00001585,M,HRVDSHRT00001586,L,HRVDSHRT00001587,XL,HRVDSHRT00001588;1899.00;;;;;;;CS-HARVARD-SHIRTS;zerotype;;Spring;Adding Tag;No
1843435;GGC Gabriela A-Marshmallow-1843435;TAPE DETAIL CARROT PANTS;Draft;Trousers;Mast & Harbour;Adults-Women;Women;;;;Fashion;;2017;26,MTHBTRSR00005542,28,MTHBTRSR00005543,30,MTHBTRSR00005544,32,MTHBTRSR00005545,34,MTHBTRSR00005546;2599.00;;;;;;;;zerotype;;Spring;;No
1843306;GGC Gary A-Floral scribble print-1843306;PRINTED SKATER SKIRT;Draft;Skirts;Mast & Harbour;Adults-Women;Women;;;;Fashion;;2017;26,MTHBSKRT00000325,28,MTHBSKRT00000326,30,MTHBSKRT00000327,32,MTHBSKRT00000328,34,MTHBSKRT00000329;1199.00;;;;;;;;zerotype;;Spring;;No
1843304;GGC Geraldine C-Blue/White Stripe-1843304;Jackets;Draft;Jackets;Mast & Harbour;Adults-Women;Women;;;;Fashion;;2017;XS,MTHBJCKT00001551,S,MTHBJCKT00001552,M,MTHBJCKT00001553,L,MTHBJCKT00001554,XL,MTHBJCKT00001555;1699.00;;;;;;;;zerotype;;Spring;;No
1837958;DBSMAAYTBP 0350 B-DEEP LICHEN GREEN-1837958;Trousers;Draft;Trousers;all about you;Adults-Women;Women;;;;Fashion;;2017;28,AATUTRSR00000378,30,AATUTRSR00000379,32,AATUTRSR00000380,34,AATUTRSR00000381;2499.00;;;;;;;aay-ss179mar,aay-bottoms21sep,aay-ww2017;zerotype;;Spring;removed nonethnic;No
1837956;DBSMAAYTBP 0350 A-CEYLON YELLOW-1837956;Trousers;Draft;Trousers;all about you;Adults-Women;Women;;;;Fashion;;2017;28,AATUTRSR00000374,30,AATUTRSR00000375,32,AATUTRSR00000376,34,AATUTRSR00000377;2499.00;;;;;;;aay-ss179mar,aay-bottoms21sep,aay-ww2017;zerotype;;Spring;removed nonethnic;No
1837950;AAYWSFTR3131 A-MAGENTA-1837950;Trousers;Draft;Trousers;all about you;Adults-Women;Women;;;;Fashion;;2017;28,AATUTRSR00000358,30,AATUTRSR00000359,32,AATUTRSR00000360,34,AATUTRSR00000361;1499.00;;;;;;;aay-ss179mar,aay-bottoms21sep,aay-ww2017;zerotype;;Spring;removed nonethnic;No
1831910;S17JAMCK105A-OFF WHITE-1831910;JACKET KURTA SET;On Hold - Sample;Kurta Sets;IMARA;Adults-Women;Women;;;;Fashion;;2017;S,IMRAKASS00000336,M,IMRAKASS00000337,L,IMRAKASS00000338,XL,IMRAKASS00000339,XXL,IMRAKASS00000340;2999.00;;;;;;;ndd-bangalore;zerotype;;Spring;Broken Size;No
1831354;GGC Gracie C-GGC Logo Print-1831354;CROPPED SHIRT;Draft;Shirts;Mast & Harbour;Adults-Women;Women;;;;Fashion;;2017;XS,MTHBSHRT00008456,S,MTHBSHRT00008457,M,MTHBSHRT00008458,L,MTHBSHRT00008459,XL,MTHBSHRT00008460;1299.00;;;;;;;;zerotype;;Spring;;No
1831352;GGC Gracie A-Honey Mustard-1831352;CROPPED SHIRT;Draft;Shirts;Mast & Harbour;Adults-Women;Women;;;;Fashion;;2017;XS,MTHBSHRT00008446,S,MTHBSHRT00008447,M,MTHBSHRT00008448,L,MTHBSHRT00008449,XL,MTHBSHRT00008450;1299.00;;;;;;;;zerotype;;Spring;;No
1831350;GGC Glenda A-Blue/White/Red (TBC)-1831350;Y/D SHIRT WITH PANELS;Draft;Shirts;Mast & Harbour;Adults-Women;Women;;;;Fashion;;2017;XS,MTHBSHRT00008436,S,MTHBSHRT00008437,M,MTHBSHRT00008438,L,MTHBSHRT00008439,XL,MTHBSHRT00008440;1499.00;;;;;;;;zerotype;;Spring;;No
1831337;GGC Giana B-White/Black Checks (TBC)-1831337;SLEEVELESS DRESS WITH ELASTICATED BACK;Draft;Dresses;Mast & Harbour;Adults-Women;Women;;;;Fashion;;2017;XS,MTHBDRSS00003051,S,MTHBDRSS00003052,M,MTHBDRSS00003053,L,MTHBDRSS00003054,XL,MTHBDRSS00003055;1699.00;;;;;;;;zerotype;;Spring;;No
1831336;GGC Giana A-White/Blue stripe-1831336;SLEEVELESS DRESS WITH ELASTICATED BACK;Draft;Dresses;Mast & Harbour;Adults-Women;Women;;;;Fashion;;2017;XS,MTHBDRSS00003046,S,MTHBDRSS00003047,M,MTHBDRSS00003048,L,MTHBDRSS00003049,XL,MTHBDRSS00003050;1699.00;;;;;;;;zerotype;;Spring;;No
1831332;GGC Goya A-Marshmallow/Blue-white stripe-1831332;ELASTICATED WAIST KNEE LENGTH SHORTS;Draft;Shorts;Mast & Harbour;Adults-Women;Women;;;;Fashion;;2017;26,MTHBSHOR00000819,28,MTHBSHOR00000820,30,MTHBSHOR00000821,32,MTHBSHOR00000822,34,MTHBSHOR00000823;1299.00;;;;;;;;zerotype;;Spring;;No
1825947;GGC GarnetB-Dark floral print-1825947;SHORT SLEEVE LACE TOP;Draft;Tops;Mast & Harbour;Adults-Women;Women;;;;Fashion;;2017;XS,MTHBTOPS00004075,S,MTHBTOPS00004076,M,MTHBTOPS00004077,L,MTHBTOPS00004078,XL,MTHBTOPS00004079;1499.00;;;;;;;;zerotype;;Spring;;No
1825942;GGC GannetA-Whisper White/Black-1825942;TOP WITH CONTRAST PIPING;Draft;Tops;Mast & Harbour;Adults-Women;Women;;;;Fashion;;2017;XS,MTHBTOPS00004050,S,MTHBTOPS00004051,M,MTHBTOPS00004052,L,MTHBTOPS00004053,XL,MTHBTOPS00004054;1499.00;;;;;;;;zerotype;;Spring;;No
1825928;GGC GayA-Winter White-1825928;TUCK DETAIL PEPLUM TOP;Draft;Tops;Mast & Harbour;Adults-Women;Women;;;;Fashion;;2017;XS,MTHBTOPS00003980,S,MTHBTOPS00003981,M,MTHBTOPS00003982,L,MTHBTOPS00003983,XL,MTHBTOPS00003984;1499.00;;;;;;;;zerotype;;Spring;;No
1820764;DBSMAAYTBD0343B-PRINT -TB79COMBO2-1820764;Dresses;Draft;Dresses;all about you;Adults-Women;Women;;;;Fashion;;2017;S,AATUDRSS00001330,M,AATUDRSS00001331,L,AATUDRSS00001332,XL,AATUDRSS00001333;2499.00;;;;;;;aay-ss179mar,aay-dresses-22sep,aay-ww2017;zerotype;;Spring;removed nonethnic;No
1820760;DBSMAAYTBD0343A-PRINT - TB79COMBO1-1820760;Dresses;Draft;Dresses;all about you;Adults-Women;Women;;;;Fashion;;2017;S,AATUDRSS00001326,M,AATUDRSS00001327,L,AATUDRSS00001328,XL,AATUDRSS00001329;2499.00;;;;;;;aay-ss179mar,aay-dresses-22sep,aay-ww2017;zerotype;;Spring;removed nonethnic;No
1819247;HRX-SS17-WK-8798-C-DARK DENIM-1819247;WOMEN'S TRACKPANT;Draft;Track Pants;HRX by Hrithik Roshan;Adults-Women;Women;;;;Fashion;;2017;26,HBHRTRPT00002469,28,HBHRTRPT00002470,30,HBHRTRPT00002471,32,HBHRTRPT00002472,34,HBHRTRPT00002473;1799.00;;;;;;;;zerotype;;Summer;;No
1819246;HRX-SS17-WK-8798-B-OATMEAL-1819246;WOMEN'S TRACKPANT;Draft;Track Pants;HRX by Hrithik Roshan;Adults-Women;Women;;;;Fashion;;2017;26,HBHRTRPT00002464,28,HBHRTRPT00002465,30,HBHRTRPT00002466,32,HBHRTRPT00002467,34,HBHRTRPT00002468;1799.00;;;;;;;;zerotype;;Summer;;No
1819245;HRX-SS17-WK-8798-A-BLACK-1819245;WOMEN'S TRACKPANT;Draft;Track Pants;HRX by Hrithik Roshan;Adults-Women;Women;;;;Fashion;;2017;26,HBHRTRPT00002459,28,HBHRTRPT00002460,30,HBHRTRPT00002461,32,HBHRTRPT00002462,34,HBHRTRPT00002463;1799.00;;;;;;;;zerotype;;Summer;;No
1819243;HRX-SS17-WK-8797-A-BLACK-1819243;WOMEN'S TRACKPANT;Draft;Track Pants;HRX by Hrithik Roshan;Adults-Women;Women;;;;Fashion;;2017;26,HBHRTRPT00002449,28,HBHRTRPT00002450,30,HBHRTRPT00002451,32,HBHRTRPT00002452,34,HBHRTRPT00002453;1999.00;;;;;;;;zerotype;;Summer;;No
1819240;HRX-SS17-WK-8795-C-Rhododendron-1819240;WOMEN'S TRACKPANT;Draft;Track Pants;HRX by Hrithik Roshan;Adults-Women;Women;;;;Fashion;;2017;26,HBHRTRPT00002434,28,HBHRTRPT00002435,30,HBHRTRPT00002436,32,HBHRTRPT00002437,34,HBHRTRPT00002438;1699.00;;;;;;;;zerotype;;Summer;;No
1819239;HRX-SS17-WK-8795-B-DARK DENIM-1819239;WOMEN'S TRACKPANT;Draft;Track Pants;HRX by Hrithik Roshan;Adults-Women;Women;;;;Fashion;;2017;26,HBHRTRPT00002429,28,HBHRTRPT00002430,30,HBHRTRPT00002431,32,HBHRTRPT00002432,34,HBHRTRPT00002433;1699.00;;;;;;;;zerotype;;Summer;;No
1819238;HRX-SS17-WK-8795-A-EIFFEL TOWER-1819238;WOMEN'S TRACKPANT;Draft;Track Pants;HRX by Hrithik Roshan;Adults-Women;Women;;;;Fashion;;2017;26,HBHRTRPT00002424,28,HBHRTRPT00002425,30,HBHRTRPT00002426,32,HBHRTRPT00002427,34,HBHRTRPT00002428;1699.00;;;;;;;;zerotype;;Summer;;No
1819237;HRX-SS17-WK-8794-B-RED MELANGE-1819237;WOMEN'S TRACKPANT;Draft;Track Pants;HRX by Hrithik Roshan;Adults-Women;Women;;;;Fashion;;2017;26,HBHRTRPT00002419,28,HBHRTRPT00002420,30,HBHRTRPT00002421,32,HBHRTRPT00002422,34,HBHRTRPT00002423;1699.00;;;;;;;;zerotype;;Summer;;No
1819236;HRX-SS17-WK-8794-A-ANTHRA MELANGE-1819236;WOMEN'S TRACKPANT;Draft;Track Pants;HRX by Hrithik Roshan;Adults-Women;Women;;;;Fashion;;2017;26,HBHRTRPT00002414,28,HBHRTRPT00002415,30,HBHRTRPT00002416,32,HBHRTRPT00002417,34,HBHRTRPT00002418;1699.00;;;;;;;;zerotype;;Summer;;No
1819235;HRX-SS17-WK-8793-B-JET BLACK-1819235;WOMEN'S TRACKPANT;Draft;Track Pants;HRX by Hrithik Roshan;Adults-Women;Women;;;;Fashion;;2017;26,HBHRTRPT00002409,28,HBHRTRPT00002410,30,HBHRTRPT00002411,32,HBHRTRPT00002412,34,HBHRTRPT00002413;1999.00;;;;;;;;zerotype;;Summer;;No
1819234;HRX-SS17-WK-8793-A-OATMEAL-1819234;WOMEN'S TRACKPANT;Draft;Track Pants;HRX by Hrithik Roshan;Adults-Women;Women;;;;Fashion;;2017;26,HBHRTRPT00002404,28,HBHRTRPT00002405,30,HBHRTRPT00002406,32,HBHRTRPT00002407,34,HBHRTRPT00002408;1999.00;;;;;;;;zerotype;;Summer;;No
1819233;HRX-SS17-WK-8792-B-ANTHRA MELANGE-1819233;WOMEN'S TRACKPANT;Draft;Track Pants;HRX by Hrithik Roshan;Adults-Women;Women;;;;Fashion;;2017;26,HBHRTRPT00002399,28,HBHRTRPT00002400,30,HBHRTRPT00002401,32,HBHRTRPT00002402,34,HBHRTRPT00002403;1799.00;;;;;;;;zerotype;;Summer;;No
1819232;HRX-SS17-WK-8792-A-GREY MELANGE-1819232;WOMEN'S TRACKPANT;Draft;Track Pants;HRX by Hrithik Roshan;Adults-Women;Women;;;;Fashion;;2017;26,HBHRTRPT00002394,28,HBHRTRPT00002395,30,HBHRTRPT00002396,32,HBHRTRPT00002397,34,HBHRTRPT00002398;1799.00;;;;;;;;zerotype;;Summer;;No
1819231;HRX-SS17-WK-8791-C-Rhododendron-1819231;WOMEN'S TRACKPANT;Draft;Track Pants;HRX by Hrithik Roshan;Adults-Women;Women;;;;Fashion;;2017;26,HBHRTRPT00002389,28,HBHRTRPT00002390,30,HBHRTRPT00002391,32,HBHRTRPT00002392,34,HBHRTRPT00002393;1799.00;;;;;;;;zerotype;;Summer;;No
1819230;HRX-SS17-WK-8791-B-JET BLACK-1819230;WOMEN'S TRACKPANT;Draft;Track Pants;HRX by Hrithik Roshan;Adults-Women;Women;;;;Fashion;;2017;26,HBHRTRPT00002384,28,HBHRTRPT00002385,30,HBHRTRPT00002386,32,HBHRTRPT00002387,34,HBHRTRPT00002388;1799.00;;;;;;;;zerotype;;Summer;;No
1819229;HRX-SS17-WK-8791-A-OATMEAL-1819229;WOMEN'S TRACKPANT;Draft;Track Pants;HRX by Hrithik Roshan;Adults-Women;Women;;;;Fashion;;2017;26,HBHRTRPT00002379,28,HBHRTRPT00002380,30,HBHRTRPT00002381,32,HBHRTRPT00002382,34,HBHRTRPT00002383;1799.00;;;;;;;;zerotype;;Summer;;No
1808537;MBDR0387-BLACK-1808537;WOMENS WESTERN WEAR  DRESS;Draft;Dresses;Ms.Taken;Adults-Women;Women;;;;Fashion;;2017;XS,MTENDRSS00000361,S,MTENDRSS00000362,M,MTENDRSS00000363,L,MTENDRSS00000364,XL,MTENDRSS00000365;2399.00;;;;;;;;zerotype;;Spring;;No
1808532;MBDR0352-YELLOW-1808532;WOMENS WESTERN WEAR  DRESS;Draft;Dresses;Ms.Taken;Adults-Women;Women;;;;Fashion;;2017;XS,MTENDRSS00000346,S,MTENDRSS00000347,M,MTENDRSS00000348,L,MTENDRSS00000349,XL,MTENDRSS00000350;1999.00;;;;;;;;zerotype;;Spring;;No
1808530;MBDR0349-BLACK-1808530;WOMENS WESTERN WEAR  DRESS;Draft;Dresses;Ms.Taken;Adults-Women;Women;;;;Fashion;;2017;XS,MTENDRSS00000341,S,MTENDRSS00000342,M,MTENDRSS00000343,L,MTENDRSS00000344,XL,MTENDRSS00000345;2199.00;;;;;;;;zerotype;;Spring;;No
1808527;MBDR0343-BLACK-1808527;WOMENS WESTERN WEAR  DRESS;Draft;Dresses;Ms.Taken;Adults-Women;Women;;;;Fashion;;2017;XS,MTENDRSS00000331,S,MTENDRSS00000332,M,MTENDRSS00000333,L,MTENDRSS00000334,XL,MTENDRSS00000335;2399.00;;;;;;;;zerotype;;Spring;;No
1808291;MBWT0237-WHITE-1808291;WOMENS WESTERN WEAR  TOP;Draft;Tops;Ms.Taken;Adults-Women;Women;;;;Fashion;;2017;XS,MTENTOPS00001469,S,MTENTOPS00001470,M,MTENTOPS00001471,L,MTENTOPS00001472,XL,MTENTOPS00001473;1299.00;;;;;;;;zerotype;;Spring;;No
1807248;MBJP1175-BLUE-1807248;WOMENS WESTERN WEAR  OTHERS;Draft;Jumpsuit;Ms.Taken;Adults-Women;Women;;;;Fashion;;2017;XS,MTENJMST00000046,S,MTENJMST00000047,M,MTENJMST00000048,L,MTENJMST00000049,XL,MTENJMST00000050;2399.00;;;;;;;;zerotype;;Spring;;No
1807247;MBJP0355-BLACK-1807247;WOMENS WESTERN WEAR  OTHERS;Draft;Jumpsuit;Ms.Taken;Adults-Women;Women;;;;Fashion;;2017;XS,MTENJMST00000041,S,MTENJMST00000042,M,MTENJMST00000043,L,MTENJMST00000044,XL,MTENJMST00000045;1999.00;;;;;;;;zerotype;;Spring;;No
1807246;MBJP0176-DARKSTONE-1807246;WOMENS WESTERN WEAR  OTHERS;Draft;Jumpsuit;Ms.Taken;Adults-Women;Women;;;;Fashion;;2017;XS,MTENJMST00000036,S,MTENJMST00000037,M,MTENJMST00000038,L,MTENJMST00000039,XL,MTENJMST00000040;2199.00;;;;;;;;zerotype;;Spring;;No
1807245;MBJP0148-NAVY-1807245;WOMENS WESTERN WEAR  OTHERS;Draft;Jumpsuit;Ms.Taken;Adults-Women;Women;;;;Fashion;;2017;XS,MTENJMST00000031,S,MTENJMST00000032,M,MTENJMST00000033,L,MTENJMST00000034,XL,MTENJMST00000035;2199.00;;;;;;;;zerotype;;Spring;;No
1807244;MBJP0147-RED-1807244;WOMENS WESTERN WEAR  OTHERS;Draft;Jumpsuit;Ms.Taken;Adults-Women;Women;;;;Fashion;;2017;XS,MTENJMST00000026,S,MTENJMST00000027,M,MTENJMST00000028,L,MTENJMST00000029,XL,MTENJMST00000030;2199.00;;;;;;;;zerotype;;Spring;;No
1786377;ANKUSSMY774-Green-1786377;Anouk Kurta;Draft;Kurtas;Anouk;Adults-Women;Women;;;;Fashion;;2017;XS,ANUKKRTA00030949,S,ANUKKRTA00030950,M,ANUKKRTA00030951,L,ANUKKRTA00030952,XL,ANUKKRTA00030953,XXL,ANUKKRTA00030954;1199.00;;;;;;;;zerotype;;Spring;;No
1786374;ANKUSSMY773-Fuschia-1786374;Anouk Kurta;Draft;Kurtas;Anouk;Adults-Women;Women;;;;Fashion;;2017;XS,ANUKKRTA00030943,S,ANUKKRTA00030944,M,ANUKKRTA00030945,L,ANUKKRTA00030946,XL,ANUKKRTA00030947,XXL,ANUKKRTA00030948;1199.00;;;;;;;;zerotype;;Spring;;No
1786372;ANKUSSMY772-Black-1786372;Anouk Kurta;Draft;Kurtas;Anouk;Adults-Women;Women;;;;Fashion;;2017;XS,ANUKKRTA00030937,S,ANUKKRTA00030938,M,ANUKKRTA00030939,L,ANUKKRTA00030940,XL,ANUKKRTA00030941,XXL,ANUKKRTA00030942;1299.00;;;;;;;;zerotype;;Spring;;No
1786369;ANKUSSMY771-Green-1786369;Anouk Kurta;Draft;Kurtas;Anouk;Adults-Women;Women;;;;Fashion;;2017;XS,ANUKKRTA00030931,S,ANUKKRTA00030932,M,ANUKKRTA00030933,L,ANUKKRTA00030934,XL,ANUKKRTA00030935,XXL,ANUKKRTA00030936;1299.00;;;;;;;;zerotype;;Spring;;No
1786367;ANKUSSMY770-Navy blue-1786367;Anouk Kurta;Draft;Kurtas;Anouk;Adults-Women;Women;;;;Fashion;;2017;XS,ANUKKRTA00030925,S,ANUKKRTA00030926,M,ANUKKRTA00030927,L,ANUKKRTA00030928,XL,ANUKKRTA00030929,XXL,ANUKKRTA00030930;1399.00;;;;;;;;zerotype;;Spring;;No
1786364;ANKUSSMY769-Mustard-1786364;Anouk Kurta;Draft;Kurtas;Anouk;Adults-Women;Women;;;;Fashion;;2017;XS,ANUKKRTA00030919,S,ANUKKRTA00030920,M,ANUKKRTA00030921,L,ANUKKRTA00030922,XL,ANUKKRTA00030923,XXL,ANUKKRTA00030924;1399.00;;;;;;;;zerotype;;Spring;;No
1786263;ANKUSSMY751-Navy blue-1786263;Anouk Kurta;Draft;Kurtas;Anouk;Adults-Women;Women;;;;Fashion;;2017;XS,ANUKKRTA00030811,S,ANUKKRTA00030812,M,ANUKKRTA00030813,L,ANUKKRTA00030814,XL,ANUKKRTA00030815,XXL,ANUKKRTA00030816;1499.00;;;;;;;;zerotype;;Spring;;No
1786259;ANKUSSMY750-beige-1786259;Anouk Kurta;Draft;Kurtas;Anouk;Adults-Women;Women;;;;Fashion;;2017;XS,ANUKKRTA00030805,S,ANUKKRTA00030806,M,ANUKKRTA00030807,L,ANUKKRTA00030808,XL,ANUKKRTA00030809,XXL,ANUKKRTA00030810;1499.00;;;;;;;;zerotype;;Spring;;No
1785017;AAYEOKA2109 B-Print/  OA-177-CO-01-1785017;Kurtas;Draft;Kurtas;all about you;Adults-Women;Women;;;;Fashion;;2017;S,AATUKRTA00001508,M,AATUKRTA00001509,L,AATUKRTA00001510,XL,AATUKRTA00001511;2799.00;;;;;;;aay-ss179mar,aay-kurtas21sep,aay-ethnic2017;zerotype;;Spring;sis;No
1785016;AAYEOKA2109 A-Print/ OA-176-CO-01-1785016;Kurtas;Draft;Kurtas;all about you;Adults-Women;Women;;;;Fashion;;2017;S,AATUKRTA00001504,M,AATUKRTA00001505,L,AATUKRTA00001506,XL,AATUKRTA00001507;2799.00;;;;;;;aay-ss179mar,aay-kurtas21sep,aay-ethnic2017;zerotype;;Spring;sis;No
1781576;ANKUSSMK842-Multy-1781576;Anouk Printed Kurta;Draft;Kurtas;Anouk;Adults-Women;Women;;;;Fashion;;2017;XS,ANUKKRTA00030433,S,ANUKKRTA00030434,M,ANUKKRTA00030435,L,ANUKKRTA00030436,XL,ANUKKRTA00030437,XXL,ANUKKRTA00030438;1499.00;;;;;;;;zerotype;;Spring;;No
1781575;ANKUSSMK841-Multy-1781575;Anouk Printed Kurta;Draft;Kurtas;Anouk;Adults-Women;Women;;;;Fashion;;2017;XS,ANUKKRTA00030427,S,ANUKKRTA00030428,M,ANUKKRTA00030429,L,ANUKKRTA00030430,XL,ANUKKRTA00030431,XXL,ANUKKRTA00030432;1499.00;;;;;;;;zerotype;;Spring;;No
1781574;ANKUSSMK840-yellow-1781574;Anouk Printed Kurta;Draft;Kurtas;Anouk;Adults-Women;Women;;;;Fashion;;2017;XS,ANUKKRTA00030421,S,ANUKKRTA00030422,M,ANUKKRTA00030423,L,ANUKKRTA00030424,XL,ANUKKRTA00030425,XXL,ANUKKRTA00030426;1499.00;;;;;;;;zerotype;;Spring;;No
1781573;ANKUSSMK839-offwhite-1781573;Anouk Printed Kurta;Draft;Kurtas;Anouk;Adults-Women;Women;;;;Fashion;;2017;XS,ANUKKRTA00030415,S,ANUKKRTA00030416,M,ANUKKRTA00030417,L,ANUKKRTA00030418,XL,ANUKKRTA00030419,XXL,ANUKKRTA00030420;1499.00;;;;;;;;zerotype;;Spring;;No
1781570;ANKUSSMK836-black-1781570;Anouk Printed Kurta;Draft;Kurtas;Anouk;Adults-Women;Women;;;;Fashion;;2017;XS,ANUKKRTA00030397,S,ANUKKRTA00030398,M,ANUKKRTA00030399,L,ANUKKRTA00030400,XL,ANUKKRTA00030401,XXL,ANUKKRTA00030402;1499.00;;;;;;;;zerotype;;Spring;;No
1781569;ANKUSSMK835-offwhite-1781569;Anouk Printed Kurta;Draft;Kurtas;Anouk;Adults-Women;Women;;;;Fashion;;2017;XS,ANUKKRTA00030391,S,ANUKKRTA00030392,M,ANUKKRTA00030393,L,ANUKKRTA00030394,XL,ANUKKRTA00030395,XXL,ANUKKRTA00030396;1499.00;;;;;;;;zerotype;;Spring;;No
1781568;ANKUSSMK834-offwhite-1781568;Anouk Printed Kurta;Draft;Kurtas;Anouk;Adults-Women;Women;;;;Fashion;;2017;XS,ANUKKRTA00030385,S,ANUKKRTA00030386,M,ANUKKRTA00030387,L,ANUKKRTA00030388,XL,ANUKKRTA00030389,XXL,ANUKKRTA00030390;1499.00;;;;;;;;zerotype;;Spring;;No
1781567;ANKUSSMK833-offwhite-1781567;Anouk Printed Kurta;Draft;Kurtas;Anouk;Adults-Women;Women;;;;Fashion;;2017;XS,ANUKKRTA00030379,S,ANUKKRTA00030380,M,ANUKKRTA00030381,L,ANUKKRTA00030382,XL,ANUKKRTA00030383,XXL,ANUKKRTA00030384;1499.00;;;;;;;;zerotype;;Spring;;No
1781566;ANKUSSMK832-offwhite-1781566;Anouk Printed Kurta;Draft;Kurtas;Anouk;Adults-Women;Women;;;;Fashion;;2017;XS,ANUKKRTA00030373,S,ANUKKRTA00030374,M,ANUKKRTA00030375,L,ANUKKRTA00030376,XL,ANUKKRTA00030377,XXL,ANUKKRTA00030378;1399.00;;;;;;;;zerotype;;Spring;;No
1781565;ANKUSSMK831-yellow-1781565;Anouk Printed Kurta;Draft;Kurtas;Anouk;Adults-Women;Women;;;;Fashion;;2017;XS,ANUKKRTA00030367,S,ANUKKRTA00030368,M,ANUKKRTA00030369,L,ANUKKRTA00030370,XL,ANUKKRTA00030371,XXL,ANUKKRTA00030372;1399.00;;;;;;;;zerotype;;Spring;;No
1781564;ANKUSSMK830-pista green-1781564;Anouk Printed Kurta;Draft;Kurtas;Anouk;Adults-Women;Women;;;;Fashion;;2017;XS,ANUKKRTA00030361,S,ANUKKRTA00030362,M,ANUKKRTA00030363,L,ANUKKRTA00030364,XL,ANUKKRTA00030365,XXL,ANUKKRTA00030366;1499.00;;;;;;;;zerotype;;Spring;;No
1781563;ANKUSSMK829-peach-1781563;Anouk Printed Kurta;Draft;Kurtas;Anouk;Adults-Women;Women;;;;Fashion;;2017;XS,ANUKKRTA00030355,S,ANUKKRTA00030356,M,ANUKKRTA00030357,L,ANUKKRTA00030358,XL,ANUKKRTA00030359,XXL,ANUKKRTA00030360;1499.00;;;;;;;;zerotype;;Spring;;No
1781562;ANKUSSMK828-Yellow-1781562;Anouk Printed Kurta;Draft;Kurtas;Anouk;Adults-Women;Women;;;;Fashion;;2017;XS,ANUKKRTA00030349,S,ANUKKRTA00030350,M,ANUKKRTA00030351,L,ANUKKRTA00030352,XL,ANUKKRTA00030353,XXL,ANUKKRTA00030354;1499.00;;;;;;;;zerotype;;Spring;;No
1781561;ANKUSSMK827-OFFWHITE-1781561;Anouk Printed Kurta;Draft;Kurtas;Anouk;Adults-Women;Women;;;;Fashion;;2017;XS,ANUKKRTA00030343,S,ANUKKRTA00030344,M,ANUKKRTA00030345,L,ANUKKRTA00030346,XL,ANUKKRTA00030347,XXL,ANUKKRTA00030348;1499.00;;;;;;;;zerotype;;Spring;;No
1781559;ANKUSSMK825-peach-1781559;Anouk Printed Kurta;Draft;Kurtas;Anouk;Adults-Women;Women;;;;Fashion;;2017;XS,ANUKKRTA00030331,S,ANUKKRTA00030332,M,ANUKKRTA00030333,L,ANUKKRTA00030334,XL,ANUKKRTA00030335,XXL,ANUKKRTA00030336;1499.00;;;;;;;;zerotype;;Spring;;No
1781556;ANKUSSMK818-MUSTARD-1781556;Anouk Kurta;Draft;Kurtas;Anouk;Adults-Women;Women;;;;Fashion;;2017;XS,ANUKKRTA00030313,S,ANUKKRTA00030314,M,ANUKKRTA00030315,L,ANUKKRTA00030316,XL,ANUKKRTA00030317,XXL,ANUKKRTA00030318;1499.00;;;;;;;;zerotype;;Spring;;No
1781555;ANKUSSMK817-BLACK-1781555;Anouk Kurta;Draft;Kurtas;Anouk;Adults-Women;Women;;;;Fashion;;2017;XS,ANUKKRTA00030307,S,ANUKKRTA00030308,M,ANUKKRTA00030309,L,ANUKKRTA00030310,XL,ANUKKRTA00030311,XXL,ANUKKRTA00030312;1499.00;;;;;;;;zerotype;;Spring;;No
1781546;ANKUSSMK808-PINK-1781546;Anouk Kurta;Draft;Kurtas;Anouk;Adults-Women;Women;;;;Fashion;;2017;XS,ANUKKRTA00030253,S,ANUKKRTA00030254,M,ANUKKRTA00030255,L,ANUKKRTA00030256,XL,ANUKKRTA00030257,XXL,ANUKKRTA00030258;1499.00;;;;;;;;zerotype;;Spring;;No
1781545;ANKUSSMK807-BLACK-1781545;Anouk Kurta;Draft;Kurtas;Anouk;Adults-Women;Women;;;;Fashion;;2017;XS,ANUKKRTA00030247,S,ANUKKRTA00030248,M,ANUKKRTA00030249,L,ANUKKRTA00030250,XL,ANUKKRTA00030251,XXL,ANUKKRTA00030252;1499.00;;;;;;;;zerotype;;Spring;;No
1781542;ANKUSSMK804-MAROON-1781542;Anouk Kurta;Draft;Kurtas;Anouk;Adults-Women;Women;;;;Fashion;;2017;XS,ANUKKRTA00030229,S,ANUKKRTA00030230,M,ANUKKRTA00030231,L,ANUKKRTA00030232,XL,ANUKKRTA00030233,XXL,ANUKKRTA00030234;1499.00;;;;;;;;zerotype;;Spring;;No
1781541;ANKUSSMK803-Navy-1781541;Anouk Kurta;Draft;Kurtas;Anouk;Adults-Women;Women;;;;Fashion;;2017;XS,ANUKKRTA00030223,S,ANUKKRTA00030224,M,ANUKKRTA00030225,L,ANUKKRTA00030226,XL,ANUKKRTA00030227,XXL,ANUKKRTA00030228;1499.00;;;;;;;;zerotype;;Spring;;No
1781540;ANKUSSMK802-OFFWHITE/BLUE-1781540;Anouk Printed Kurta;Draft;Kurtas;Anouk;Adults-Women;Women;;;;Fashion;;2017;XS,ANUKKRTA00030217,S,ANUKKRTA00030218,M,ANUKKRTA00030219,L,ANUKKRTA00030220,XL,ANUKKRTA00030221,XXL,ANUKKRTA00030222;1499.00;;;;;;;;zerotype;;Spring;;No
1781538;ANKUSSMK800-OFFWHITE-1781538;Anouk Printed Kurta;Draft;Kurtas;Anouk;Adults-Women;Women;;;;Fashion;;2017;XS,ANUKKRTA00030205,S,ANUKKRTA00030206,M,ANUKKRTA00030207,L,ANUKKRTA00030208,XL,ANUKKRTA00030209,XXL,ANUKKRTA00030210;1499.00;;;;;;;;zerotype;;Spring;;No
1781537;ANKUSSMK799-YELLOW-1781537;Anouk Printed Kurta;Draft;Kurtas;Anouk;Adults-Women;Women;;;;Fashion;;2017;XS,ANUKKRTA00030199,S,ANUKKRTA00030200,M,ANUKKRTA00030201,L,ANUKKRTA00030202,XL,ANUKKRTA00030203,XXL,ANUKKRTA00030204;1499.00;;;;;;;;zerotype;;Spring;;No
1781536;ANKUSSMK793-NAVY/OFFWHITE-1781536;Anouk Printed Kurta;Draft;Kurtas;Anouk;Adults-Women;Women;;;;Fashion;;2017;XS,ANUKKRTA00030193,S,ANUKKRTA00030194,M,ANUKKRTA00030195,L,ANUKKRTA00030196,XL,ANUKKRTA00030197,XXL,ANUKKRTA00030198;1499.00;;;;;;;;zerotype;;Spring;;No
1781535;ANKUSSMK792-Yellow-1781535;Anouk Colour Block Kurta;Draft;Kurtas;Anouk;Adults-Women;Women;;;;Fashion;;2017;XS,ANUKKRTA00030187,S,ANUKKRTA00030188,M,ANUKKRTA00030189,L,ANUKKRTA00030190,XL,ANUKKRTA00030191,XXL,ANUKKRTA00030192;1499.00;;;;;;;;zerotype;;Spring;;No
1781534;ANKUSSMK791-Navy-1781534;Anouk Colour Block Kurta;Draft;Kurtas;Anouk;Adults-Women;Women;;;;Fashion;;2017;XS,ANUKKRTA00030181,S,ANUKKRTA00030182,M,ANUKKRTA00030183,L,ANUKKRTA00030184,XL,ANUKKRTA00030185,XXL,ANUKKRTA00030186;1499.00;;;;;;;;zerotype;;Spring;;No
1781533;ANKUSSMK790-Green/ Navy/ Yellow-1781533;Anouk Colour Block Kurta;Draft;Kurtas;Anouk;Adults-Women;Women;;;;Fashion;;2017;XS,ANUKKRTA00030175,S,ANUKKRTA00030176,M,ANUKKRTA00030177,L,ANUKKRTA00030178,XL,ANUKKRTA00030179,XXL,ANUKKRTA00030180;1499.00;;;;;;;;zerotype;;Spring;;No
1781532;ANKUSSMK789-Black/ Mustard-1781532;Anouk Colour Block Kurta;Draft;Kurtas;Anouk;Adults-Women;Women;;;;Fashion;;2017;XS,ANUKKRTA00030169,S,ANUKKRTA00030170,M,ANUKKRTA00030171,L,ANUKKRTA00030172,XL,ANUKKRTA00030173,XXL,ANUKKRTA00030174;1499.00;;;;;;;;zerotype;;Spring;;No
1781531;ANKUSSMK788-Black-1781531;Anouk Colour Block Kurta;Draft;Kurtas;Anouk;Adults-Women;Women;;;;Fashion;;2017;XS,ANUKKRTA00030163,S,ANUKKRTA00030164,M,ANUKKRTA00030165,L,ANUKKRTA00030166,XL,ANUKKRTA00030167,XXL,ANUKKRTA00030168;1499.00;;;;;;;;zerotype;;Spring;;No
1781530;ANKUSSMK787-Pink-1781530;Anouk Colour Block Kurta;Draft;Kurtas;Anouk;Adults-Women;Women;;;;Fashion;;2017;XS,ANUKKRTA00030157,S,ANUKKRTA00030158,M,ANUKKRTA00030159,L,ANUKKRTA00030160,XL,ANUKKRTA00030161,XXL,ANUKKRTA00030162;1499.00;;;;;;;;zerotype;;Spring;;No
1781529;ANKUSSMK786-Off white/ Beige-1781529;Anouk Colour Block Kurta;Draft;Kurtas;Anouk;Adults-Women;Women;;;;Fashion;;2017;XS,ANUKKRTA00030151,S,ANUKKRTA00030152,M,ANUKKRTA00030153,L,ANUKKRTA00030154,XL,ANUKKRTA00030155,XXL,ANUKKRTA00030156;1499.00;;;;;;;;zerotype;;Spring;;No
1778650;DBS/MAAY/FVKU0366A-Printed-1778650;FERGANA VALLEY;Draft;Kurtas;all about you;Adults-Women;Women;;;;Fashion;;2017;S,AATUKRTA00001284,M,AATUKRTA00001285,L,AATUKRTA00001286,XL,AATUKRTA00001287;1899.00;;;;;;;aay-ss179mar,aay-kurtas21sep,aay-ethnic2017;zerotype;;Spring;sis;No
1778641;DBS/MAAY/FVKU0355B-Printed-1778641;FERGANA VALLEY;Draft;Kurtas;all about you;Adults-Women;Women;;;;Fashion;;2017;S,AATUKRTA00001248,M,AATUKRTA00001249,L,AATUKRTA00001250,XL,AATUKRTA00001251;1999.00;;;;;;;aay-ss179mar,aay-kurtas21sep,aay-ethnic2017;zerotype;;Spring;sis;No
1778640;DBS/MAAY/FVKU0355A-Printed-1778640;FERGANA VALLEY;Draft;Kurtas;all about you;Adults-Women;Women;;;;Fashion;;2017;S,AATUKRTA00001244,M,AATUKRTA00001245,L,AATUKRTA00001246,XL,AATUKRTA00001247;1999.00;;;;;;;aay-ss179mar,aay-kurtas21sep,aay-ethnic2017;zerotype;;Spring;sis;No
1769327;LOLA-C-CASTLE ROCK-1769327;KNIT TOP WITH EYELETS;Draft;Tops;Roadster;Adults-Women;Women;;;;Fashion;;2017;S,RDSTTOPS00009968,M,RDSTTOPS00009969,L,RDSTTOPS00009970,XL,RDSTTOPS00009971;699.00;;;;;;;;zerotype;;Spring;;No
1769326;LOLA-B-ESTATE BLUE-1769326;KNIT TOP WITH EYELETS;Draft;Tops;Roadster;Adults-Women;Women;;;;Fashion;;2017;S,RDSTTOPS00009964,M,RDSTTOPS00009965,L,RDSTTOPS00009966,XL,RDSTTOPS00009967;699.00;;;;;;;;zerotype;;Spring;;No
1769325;LOLA-A-RASPBERRY WINE-1769325;KNIT TOP WITH EYELETS;Draft;Tops;Roadster;Adults-Women;Women;;;;Fashion;;2017;S,RDSTTOPS00009960,M,RDSTTOPS00009961,L,RDSTTOPS00009962,XL,RDSTTOPS00009963;699.00;;;;;;;;zerotype;;Spring;;No
1769311;LINDA-C-FOSSIL /JET BLACK-1769311;LONG KNIT TOP WITH STRIPES;Draft;Tops;Roadster;Adults-Women;Women;;;;Fashion;;2017;S,RDSTTOPS00009904,M,RDSTTOPS00009905,L,RDSTTOPS00009906,XL,RDSTTOPS00009907;1199.00;;;;;;;;zerotype;;Spring;;No
1769309;LINDA-A-POSEIDON/RASPBERRY WINE-1769309;LONG KNIT TOP WITH STRIPES;Draft;Tops;Roadster;Adults-Women;Women;;;;Fashion;;2017;S,RDSTTOPS00009896,M,RDSTTOPS00009897,L,RDSTTOPS00009898,XL,RDSTTOPS00009899;1199.00;;;;;;;;zerotype;;Spring;;No
1769308;LILO-D-JET BLACK-1769308;KNIT TOP WITH CUTOUTS;Draft;Tops;Roadster;Adults-Women;Women;;;;Fashion;;2017;S,RDSTTOPS00009892,M,RDSTTOPS00009893,L,RDSTTOPS00009894,XL,RDSTTOPS00009895;799.00;;;;;;;;zerotype;;Spring;;No
1769307;LILO-C-WHISPER WHITE-1769307;KNIT TOP WITH CUTOUTS;Draft;Tops;Roadster;Adults-Women;Women;;;;Fashion;;2017;S,RDSTTOPS00009888,M,RDSTTOPS00009889,L,RDSTTOPS00009890,XL,RDSTTOPS00009891;799.00;;;;;;;;zerotype;;Spring;;No
1769306;LILO-B-ESTATE BLUE-1769306;KNIT TOP WITH CUTOUTS;Draft;Tops;Roadster;Adults-Women;Women;;;;Fashion;;2017;S,RDSTTOPS00009884,M,RDSTTOPS00009885,L,RDSTTOPS00009886,XL,RDSTTOPS00009887;799.00;;;;;;;;zerotype;;Spring;;No
1766901;HD-9042-B-BRIGHT ROSE-1766901;WOMENS VEST;Draft;Bra;HRX by Hrithik Roshan;Adults-Women;Women;;;;Fashion;;2017;XS,HBHRBRAA00000106,S,HBHRBRAA00000107,M,HBHRBRAA00000108,L,HBHRBRAA00000109,XL,HBHRBRAA00000110;1499.00;;;;;;;;zerotype;;Summer;;No
1766900;HD-9042-A-JET BLACK-1766900;WOMENS VEST;Draft;Bra;HRX by Hrithik Roshan;Adults-Women;Women;;;;Fashion;;2017;XS,HBHRBRAA00000101,S,HBHRBRAA00000102,M,HBHRBRAA00000103,L,HBHRBRAA00000104,XL,HBHRBRAA00000105;1499.00;;;;;;;;zerotype;;Summer;;No
1766899;HD-9041-C-JUNE BUG-1766899;WOMENS VEST;Draft;Bra;HRX by Hrithik Roshan;Adults-Women;Women;;;;Fashion;;2017;XS,HBHRBRAA00000096,S,HBHRBRAA00000097,M,HBHRBRAA00000098,L,HBHRBRAA00000099,XL,HBHRBRAA00000100;1499.00;;;;;;;;zerotype;;Summer;;No
1766897;HD-9041-A-AUSTRAL AURA-1766897;WOMENS VEST;Draft;Bra;HRX by Hrithik Roshan;Adults-Women;Women;;;;Fashion;;2017;XS,HBHRBRAA00000086,S,HBHRBRAA00000087,M,HBHRBRAA00000088,L,HBHRBRAA00000089,XL,HBHRBRAA00000090;1499.00;;;;;;;;zerotype;;Summer;;No
1766896;HD-9031-C-LYNOS BLUE-1766896;WOMENS SPORT BRA;Draft;Bra;HRX by Hrithik Roshan;Adults-Women;Women;;;;Fashion;;2017;S,HBHRBRAA00000082,M,HBHRBRAA00000083,L,HBHRBRAA00000084,XL,HBHRBRAA00000085;1499.00;;;;;;;;zerotype;;Summer;;No
1766891;HD-9028-C-WAVE PRINT-1766891;WOMENS VEST;Draft;Bra;HRX by Hrithik Roshan;Adults-Women;Women;;;;Fashion;;2017;XS,HBHRBRAA00000061,S,HBHRBRAA00000062,M,HBHRBRAA00000063,L,HBHRBRAA00000064,XL,HBHRBRAA00000065;2099.00;;;;;;;;zerotype;;Summer;;No
1766890;HD-9028-B-ROSE SAND-1766890;WOMENS VEST;Draft;Bra;HRX by Hrithik Roshan;Adults-Women;Women;;;;Fashion;;2017;XS,HBHRBRAA00000056,S,HBHRBRAA00000057,M,HBHRBRAA00000058,L,HBHRBRAA00000059,XL,HBHRBRAA00000060;2099.00;;;;;;;;zerotype;;Summer;;No
1766880;HD-9035-B-CARIBEAN SEA-1766880;WOMENS VEST;Draft;Tshirts;HRX by Hrithik Roshan;Adults-Women;Women;;;;Fashion;;2017;XS,HBHRTSHT00006787,S,HBHRTSHT00006788,M,HBHRTSHT00006789,L,HBHRTSHT00006790,XL,HBHRTSHT00006791;1399.00;;;;;;;;zerotype;;Summer;;No
1766878;HD-9022-A-BLACK-1766878;WOMENS T-SHIRT;Draft;Tshirts;HRX by Hrithik Roshan;Adults-Women;Women;;;;Fashion;;2017;XS,HBHRTSHT00006777,S,HBHRTSHT00006778,M,HBHRTSHT00006779,L,HBHRTSHT00006780,XL,HBHRTSHT00006781;2099.00;;;;;;;;zerotype;;Summer;;No
1766877;HD-9021-B-BLACK/AQUA-1766877;WOMENS T-SHIRT;Draft;Tshirts;HRX by Hrithik Roshan;Adults-Women;Women;;;;Fashion;;2017;XS,HBHRTSHT00006772,S,HBHRTSHT00006773,M,HBHRTSHT00006774,L,HBHRTSHT00006775,XL,HBHRTSHT00006776;2099.00;;;;;;;;zerotype;;Summer;;No
1766876;HD-9021-A-BLACK/NEON ORANGE-1766876;WOMENS T-SHIRT;Draft;Tshirts;HRX by Hrithik Roshan;Adults-Women;Women;;;;Fashion;;2017;XS,HBHRTSHT00006767,S,HBHRTSHT00006768,M,HBHRTSHT00006769,L,HBHRTSHT00006770,XL,HBHRTSHT00006771;2099.00;;;;;;;;zerotype;;Summer;;No
1766847;HD-9023-B-BLACK MELANGE-1766847;WOMENS VEST;Draft;Tops;HRX by Hrithik Roshan;Adults-Women;Women;;;;Fashion;;2017;XS,HBHRTOPS00000828,S,HBHRTOPS00000829,M,HBHRTOPS00000830,L,HBHRTOPS00000831,XL,HBHRTOPS00000832;1299.00;;;;;;;;zerotype;;Summer;;No
1766846;HD-9023-A-GREEN MELANGE-1766846;WOMENS VEST;Draft;Tops;HRX by Hrithik Roshan;Adults-Women;Women;;;;Fashion;;2017;XS,HBHRTOPS00000823,S,HBHRTOPS00000824,M,HBHRTOPS00000825,L,HBHRTOPS00000826,XL,HBHRTOPS00000827;1299.00;;;;;;;;zerotype;;Summer;;No
1766831;HD-9046-B-BRIGHT ROSE-1766831;WOMENS TIGHTS;Draft;Tights;HRX by Hrithik Roshan;Adults-Women;Women;;;;Fashion;;2017;XS,HBHRTIGH00000639,S,HBHRTIGH00000640,M,HBHRTIGH00000641,L,HBHRTIGH00000642,XL,HBHRTIGH00000643;1999.00;;<p>Women</p>;;;;;;zerotype;;Summer;;No
1766830;HD-9046-A-JET BLACK-1766830;WOMENS TIGHTS;Draft;Tights;HRX by Hrithik Roshan;Adults-Women;Women;;;;Fashion;;2017;XS,HBHRTIGH00000634,S,HBHRTIGH00000635,M,HBHRTIGH00000636,L,HBHRTIGH00000637,XL,HBHRTIGH00000638;1999.00;;<p>Women</p>;;;;;;zerotype;;Summer;;No
1766829;HD-9045-C-JUNE BUG-1766829;WOMENS TIGHTS;Draft;Tights;HRX by Hrithik Roshan;Adults-Women;Women;;;;Fashion;;2017;XS,HBHRTIGH00000629,S,HBHRTIGH00000630,M,HBHRTIGH00000631,L,HBHRTIGH00000632,XL,HBHRTIGH00000633;1999.00;;<p>Women</p>;;;;;;zerotype;;Summer;;No
1766828;HD-9045-B-DK. PURPLE-1766828;WOMENS TIGHTS;Draft;Tights;HRX by Hrithik Roshan;Adults-Women;Women;;;;Fashion;;2017;XS,HBHRTIGH00000624,S,HBHRTIGH00000625,M,HBHRTIGH00000626,L,HBHRTIGH00000627,XL,HBHRTIGH00000628;1999.00;;<p>Women</p>;;;;;;zerotype;;Summer;;No
1766827;HD-9045-A-AUSTRAL AURA-1766827;WOMENS TIGHTS;Draft;Tights;HRX by Hrithik Roshan;Adults-Women;Women;;;;Fashion;;2017;XS,HBHRTIGH00000619,S,HBHRTIGH00000620,M,HBHRTIGH00000621,L,HBHRTIGH00000622,XL,HBHRTIGH00000623;1999.00;;<p>Women</p>;;;;;;zerotype;;Summer;;No
1766826;HD-9043-B-PSYCHOTROPICAL FLORAL CAMO RACING RED-1766826;WOMENS TIGHTS;Draft;Tights;HRX by Hrithik Roshan;Adults-Women;Women;;;;Fashion;;2017;XS,HBHRTIGH00000614,S,HBHRTIGH00000615,M,HBHRTIGH00000616,L,HBHRTIGH00000617,XL,HBHRTIGH00000618;1699.00;;<p>Women</p>;;;;;;zerotype;;Summer;;No
1766825;HD-9043-A-PSYCHOTROPICAL FLORAL CAMO EVERGLADE-1766825;WOMENS TIGHTS;Draft;Tights;HRX by Hrithik Roshan;Adults-Women;Women;;;;Fashion;;2017;XS,HBHRTIGH00000609,S,HBHRTIGH00000610,M,HBHRTIGH00000611,L,HBHRTIGH00000612,XL,HBHRTIGH00000613;1699.00;;<p>Women</p>;;;;;;zerotype;;Summer;;No
1766820;HD-9036-C-PSYCHADELIC AUSTRAL AURA-1766820;WOMENS TIGHTS;Draft;Tights;HRX by Hrithik Roshan;Adults-Women;Women;;;;Fashion;;2017;XS,HBHRTIGH00000584,S,HBHRTIGH00000585,M,HBHRTIGH00000586,L,HBHRTIGH00000587,XL,HBHRTIGH00000588;2199.00;;<p>Women</p>;;;;;;zerotype;;Summer;;No
1766819;HD-9036-B-PALMZ PRINT DRESS BLUE-1766819;WOMENS TIGHTS;Draft;Tights;HRX by Hrithik Roshan;Adults-Women;Women;;;;Fashion;;2017;XS,HBHRTIGH00000579,S,HBHRTIGH00000580,M,HBHRTIGH00000581,L,HBHRTIGH00000582,XL,HBHRTIGH00000583;2199.00;;<p>Women</p>;;;;;;zerotype;;Summer;;No
1766817;HD-9034-B-GRENADINE-1766817;WOMENS TIGHTS;Draft;Tights;HRX by Hrithik Roshan;Adults-Women;Women;;;;Fashion;;2017;XS,HBHRTIGH00000569,S,HBHRTIGH00000570,M,HBHRTIGH00000571,L,HBHRTIGH00000572,XL,HBHRTIGH00000573;1699.00;;<p>Women</p>;;;;;;zerotype;;Summer;;No
1766816;HD-9034-A-BERING SEA-1766816;WOMENS TIGHTS;Draft;Tights;HRX by Hrithik Roshan;Adults-Women;Women;;;;Fashion;;2017;XS,HBHRTIGH00000564,S,HBHRTIGH00000565,M,HBHRTIGH00000566,L,HBHRTIGH00000567,XL,HBHRTIGH00000568;1699.00;;<p>Women</p>;;;;;;zerotype;;Summer;;No
1766815;HD-9033-B-PINK SALT-1766815;WOMENS TIGHTS;Draft;Tights;HRX by Hrithik Roshan;Adults-Women;Women;;;;Fashion;;2017;XS,HBHRTIGH00000559,S,HBHRTIGH00000560,M,HBHRTIGH00000561,L,HBHRTIGH00000562,XL,HBHRTIGH00000563;1999.00;;<p>Women</p>;;;;;;zerotype;;Summer;;No
1766814;HD-9033-A-LYNOS BLUE-1766814;WOMENS TIGHTS;Draft;Tights;HRX by Hrithik Roshan;Adults-Women;Women;;;;Fashion;;2017;XS,HBHRTIGH00000554,S,HBHRTIGH00000555,M,HBHRTIGH00000556,L,HBHRTIGH00000557,XL,HBHRTIGH00000558;1999.00;;<p>Women</p>;;;;;;zerotype;;Summer;;No
1766813;HD-9032-B-GRENADINE-1766813;WOMENS TIGHTS;Draft;Tights;HRX by Hrithik Roshan;Adults-Women;Women;;;;Fashion;;2017;XS,HBHRTIGH00000549,S,HBHRTIGH00000550,M,HBHRTIGH00000551,L,HBHRTIGH00000552,XL,HBHRTIGH00000553;1999.00;;<p>Women</p>;;;;;;zerotype;;Summer;;No
1766812;HD-9032-A-ARONA-1766812;WOMENS TIGHTS;Draft;Tights;HRX by Hrithik Roshan;Adults-Women;Women;;;;Fashion;;2017;XS,HBHRTIGH00000544,S,HBHRTIGH00000545,M,HBHRTIGH00000546,L,HBHRTIGH00000547,XL,HBHRTIGH00000548;1999.00;;<p>Women</p>;;;;;;zerotype;;Summer;;No
1766805;HD-9018-B-BLACK/ORANGE-1766805;WOMENS SHORTS;Draft;Tights;HRX by Hrithik Roshan;Adults-Women;Women;;;;Fashion;;2017;S,HBHRTIGH00000511,M,HBHRTIGH00000512,L,HBHRTIGH00000513,XL,HBHRTIGH00000514;2599.00;;<p>Women</p>;;;;;;zerotype;;Summer;;No
1766804;HD-9018-A-BLACK/AQUA-1766804;WOMENS SHORTS;Draft;Tights;HRX by Hrithik Roshan;Adults-Women;Women;;;;Fashion;;2017;S,HBHRTIGH00000507,M,HBHRTIGH00000508,L,HBHRTIGH00000509,XL,HBHRTIGH00000510;2599.00;;<p>Women</p>;;;;;;zerotype;;Summer;;No
1766782;HD-9017-B-BLACK/ORANGE-1766782;WOMENS SHORTS;Draft;Shorts;HRX by Hrithik Roshan;Adults-Women;Women;;;;Fashion;;2017;S,HBHRSHOR00000822,M,HBHRSHOR00000823,L,HBHRSHOR00000824,XL,HBHRSHOR00000825;2099.00;;;;;;;;zerotype;;Summer;;No
1766781;HD-9017-A-BLACK/AQUA-1766781;WOMENS SHORTS;Draft;Shorts;HRX by Hrithik Roshan;Adults-Women;Women;;;;Fashion;;2017;S,HBHRSHOR00000818,M,HBHRSHOR00000819,L,HBHRSHOR00000820,XL,HBHRSHOR00000821;2099.00;;;;;;;;zerotype;;Summer;;No
1754325;CARA5E-DENIM WASH 5-1754325;CARA;Draft;Shirts;Roadster;Adults-Women;Women;;;;Fashion;;2017;S,RDSTSHRT00019736,M,RDSTSHRT00019737,L,RDSTSHRT00019738,XL,RDSTSHRT00019739;1599.00;;;;;;;;zerotype;;Spring;Correct season updation;No
1735839;RD-WJ-696-Black-1735839;Black Denim;On Hold - Sample;Jeans;Roadster;Adults-Women;Women;Charcoal;;;Fashion;Casual;2017;26,RDSTJENS00013848,28,RDSTJENS00013849,30,RDSTJENS00013850,32,RDSTJENS00013851,34,RDSTJENS00013852,36,RDSTJENS00013853;1499.00;<a href='/charcoal?src=pd' class='seolink'>Charcoal</a> <a href='/medium?src=pd' class='seolink'>medium</a> wash 5-pocket mid-rise <a href='/jeans?src=pd' class='seolink'>jeans</a>, clean look with light fade, has a button and zip closure, waistband with belt loops;These Roadster jeans will be your everyday favourite.  You can match them with caged heels and your favourite top when you're going to a friend's birthday party.;Cotton, polyester and elastane <br> Machine-wash;Regular Fit <br> The model (height 5'8") is wearing a size 28;;Roadster Women Charcoal Regular Fit Mid-Rise Clean Look Jeans;Roadster;zerotype;;Spring;Small size;No
1735831;RD-WJ-688-Black-1735831;Black Denim;On Hold - Sample;Jeans;Roadster;Adults-Women;Women;Grey;;;Fashion;Casual;2017;26,RDSTJENS00013800,28,RDSTJENS00013801,30,RDSTJENS00013802,32,RDSTJENS00013803,34,RDSTJENS00013804,36,RDSTJENS00013805;1299.00;<a href='/grey?src=pd' class='seolink'>Grey</a> <a href='/medium?src=pd' class='seolink'>medium</a> wash 5-pocket mid-rise <a href='/jeans?src=pd' class='seolink'>jeans</a>, clean look with light fade, has a button and zip closure, waistband with belt loops;These Roadster jeans will be your everyday favourite.  Rock these with a pretty top and caged heels for your next dinner date.;Cotton, polyester and elastane <br> Machine-wash;Regular Fit <br> The model (height 5'8") is wearing a size 28;;Roadster Women Grey Regular Fit Mid-Rise Clean Look Jeans;Roadster;zerotype;;Spring;Small size;No
1735826;RD-WJ-677-Indigo-1735826;Indigo Dyed Jeans;On Hold - Sample;Jeans;Roadster;Adults-Women;Women;Blue;;;Fashion;Casual;2017;26,RDSTJENS00013770,28,RDSTJENS00013771,30,RDSTJENS00013772,32,RDSTJENS00013773,34,RDSTJENS00013774,36,RDSTJENS00013775;1299.00;;;;;;;Roadster;zerotype;;Spring;Small size;No
1735821;RD-WJ-664-Indigo-1735821;Indigo Dyed Jeans;On Hold - Sample;Jeans;Roadster;Adults-Women;Women;Navy Blue;;;Fashion;Casual;2017;26,RDSTJENS00013740,28,RDSTJENS00013741,30,RDSTJENS00013742,32,RDSTJENS00013743,34,RDSTJENS00013744,36,RDSTJENS00013745;1299.00;<a href='/navy-blue?src=pd' class='seolink'>Navy Blue</a> dark wash 5-pocket mid-rise <a href='/jeans?src=pd' class='seolink'>jeans</a>, clean look with light fade, has a button and zip closure, waistband with belt loops;Expand your denims collection with a trendy pair of jeans from Roadster.  These can be matched with espadrilles and a simple T-shirt when you're going to lunch with your family.;Cotton, polyester and elastane <br> Machine-wash;Regular Fit <br> The model (height 5'8") is wearing a size 28;;Roadster Women Navy Blue Regular Fit Mid-Rise Clean Look Jeans;Roadster;zerotype;;Spring;Small size;No
1735820;RD-WJ-663-Indigo-1735820;Indigo Dyed Jeans;On Hold - Sample;Jeans;Roadster;Adults-Women;Women;Blue;;;Fashion;Casual;2017;26,RDSTJENS00013734,28,RDSTJENS00013735,30,RDSTJENS00013736,32,RDSTJENS00013737,34,RDSTJENS00013738,36,RDSTJENS00013739;1299.00;;;;;;;Roadster;zerotype;;Spring;Small size;No
1735816;RD-WJ-678-Indigo-1735816;Indigo Dyed Jeans;On Hold - Sample;Jeans;Roadster;Adults-Women;Women;Navy Blue;;;Fashion;Casual;2017;26,RDSTJENS00013710,28,RDSTJENS00013711,30,RDSTJENS00013712,32,RDSTJENS00013713,34,RDSTJENS00013714,36,RDSTJENS00013715;1099.00;<a href='/navy-blue?src=pd' class='seolink'>Navy Blue</a> dark wash 5-pocket mid-rise <a href='/jeans?src=pd' class='seolink'>jeans</a>, clean look with light fade, has a button and zip closure, waistband with belt loops;Slip into a pair of trendy Roadster jeans and discover a whole new meaning of comfort.  For a fashionable weekend outfit, style these with your favourite top and a pair of chic ballerinas.;Cotton, polyester and elastane <br> Machine-wash;Regular Fit <br> The model (height 5'8") is wearing a size 28;;Roadster Women Navy Blue Regular Fit Mid-Rise Clean Look Jeans;Roadster;zerotype;;Spring;Small size;No
1735815;RD-WJ-668-Indigo-1735815;Indigo Dyed Jeans;On Hold - Sample;Jeans;Roadster;Adults-Women;Women;Black;;;Fashion;Casual;2017;26,RDSTJENS00013704,28,RDSTJENS00013705,30,RDSTJENS00013706,32,RDSTJENS00013707,34,RDSTJENS00013708,36,RDSTJENS00013709;1099.00;<a href='/black?src=pd' class='seolink'>Black</a> dark wash 5-pocket mid-rise <a href='/jeans?src=pd' class='seolink'>jeans</a>, clean look with no fade, has a button and zip closure, waistband with belt loops;Expand your denims collection with a fashionable pair of jeans from Roadster.  You can pair these with leather boots and a fitted tank when you're going out for cocktails with the girls.;Cotton, polyester and elastane <br> Machine-wash;Regular Fit <br> The model (height 5'8") is wearing a size 28;;Roadster Women Black Regular Fit Mid-Rise Clean Look Jeans;Roadster,myntra-store-02;zerotype;;Spring;myntra-store-02;No
1735814;RD-WJ-667-Indigo-1735814;Indigo Dyed Jeans;On Hold - Sample;Jeans;Roadster;Adults-Women;Women;Blue;;;Fashion;Casual;2017;26,RDSTJENS00013698,28,RDSTJENS00013699,30,RDSTJENS00013700,32,RDSTJENS00013701,34,RDSTJENS00013702,36,RDSTJENS00013703;1099.00;<a href='/blue?src=pd' class='seolink'>Blue</a> <a href='/medium?src=pd' class='seolink'>medium</a> wash 5-pocket mid-rise <a href='/jeans?src=pd' class='seolink'>jeans</a>, clean look with light fade, has a button and zip closure, waistband with belt loops;Slip into a pair of trendy Roadster jeans and discover a whole new meaning of comfort.  Sport them with your favourite top and leather jacket for an edgy dinner-and-drinks ensemble.;Cotton, polyester and elastane <br> Machine-wash;Regular Fit <br> The model (height 5'8") is wearing a size 28;;Roadster Women Blue Regular Fit Mid-Rise Clean Look Jeans;Roadster;zerotype;;Spring;Small size;No
1735813;RD-WJ-666-Indigo-1735813;Indigo Dyed Jeans;On Hold - Sample;Jeans;Roadster;Adults-Women;Women;Blue;;;Fashion;Casual;2017;26,RDSTJENS00013692,28,RDSTJENS00013693,30,RDSTJENS00013694,32,RDSTJENS00013695,34,RDSTJENS00013696,36,RDSTJENS00013697;1099.00;<a href='/blue?src=pd' class='seolink'>Blue</a> light wash 5-pocket mid-rise <a href='/jeans?src=pd' class='seolink'>jeans</a>, clean look with light fade, has a button and zip closure, waistband with belt loops;Treat yourself to a brand new pair of chic Roadster jeans.  Look stunning for your next dinner date when paired with a trendy blouse and statement necklace.;Cotton, polyester and elastane <br> Machine-wash;Regular Fit <br> The model (height 5'8") is wearing a size 28;;Roadster Women Blue Regular Fit Mid-Rise Clean Look Jeans;Roadster;zerotype;;Spring;Small size;No
1735148;MDKU0294 B-MD-144 C-1-1735148;Kurtas;Draft;Kurtas;all about you;Adults-Women;Women;;;;Fashion;;2017;S,AATUKRTA00000968,M,AATUKRTA00000969,L,AATUKRTA00000970,XL,AATUKRTA00000971;1899.00;;;;;;;aay-ss179mar,aay-kurtas21sep,aay-ethnic2017;zerotype;;Spring;sis;No
1707124;ANKUSSMY638-Red-1707124;Anouk printed Kurta;Draft;Kurtas;Anouk;Adults-Women;Women;;;;Fashion;;2017;XS,ANUKKRTA00028163,S,ANUKKRTA00028164,M,ANUKKRTA00028165,L,ANUKKRTA00028166,XL,ANUKKRTA00028167,XXL,ANUKKRTA00028168;899.00;;;;;;;;zerotype;;Spring;;No
1707123;ANKUSSMY637-black-1707123;Anouk printed Kurta;Draft;Kurtas;Anouk;Adults-Women;Women;;;;Fashion;;2017;XS,ANUKKRTA00028157,S,ANUKKRTA00028158,M,ANUKKRTA00028159,L,ANUKKRTA00028160,XL,ANUKKRTA00028161,XXL,ANUKKRTA00028162;899.00;;;;;;;;zerotype;;Spring;;No
1707122;ANKUSSMY636-Mallard Green-1707122;Anouk printed Kurta;Draft;Kurtas;Anouk;Adults-Women;Women;;;;Fashion;;2017;XS,ANUKKRTA00028151,S,ANUKKRTA00028152,M,ANUKKRTA00028153,L,ANUKKRTA00028154,XL,ANUKKRTA00028155,XXL,ANUKKRTA00028156;899.00;;;;;;;;zerotype;;Spring;;No
1707111;ANKUSSMY625-Poppy Red-1707111;Anouk printed Kurta;Draft;Kurtas;Anouk;Adults-Women;Women;;;;Fashion;;2017;XS,ANUKKRTA00028085,S,ANUKKRTA00028086,M,ANUKKRTA00028087,L,ANUKKRTA00028088,XL,ANUKKRTA00028089,XXL,ANUKKRTA00028090;899.00;;;;;;;;zerotype;;Spring;;No
1707110;ANKUSSMY624-navy blue-1707110;Anouk printed Kurta;Draft;Kurtas;Anouk;Adults-Women;Women;;;;Fashion;;2017;XS,ANUKKRTA00028079,S,ANUKKRTA00028080,M,ANUKKRTA00028081,L,ANUKKRTA00028082,XL,ANUKKRTA00028083,XXL,ANUKKRTA00028084;899.00;;;;;;;;zerotype;;Spring;;No
1707109;ANKUSSMY623-Camel-1707109;Anouk printed Kurta;Draft;Kurtas;Anouk;Adults-Women;Women;;;;Fashion;;2017;XS,ANUKKRTA00028073,S,ANUKKRTA00028074,M,ANUKKRTA00028075,L,ANUKKRTA00028076,XL,ANUKKRTA00028077,XXL,ANUKKRTA00028078;899.00;;;;;;;;zerotype;;Spring;;No
1707108;ANKUSSMY622-Orange/ White-1707108;Anouk printed Kurta;Draft;Kurtas;Anouk;Adults-Women;Women;;;;Fashion;;2017;XS,ANUKKRTA00028067,S,ANUKKRTA00028068,M,ANUKKRTA00028069,L,ANUKKRTA00028070,XL,ANUKKRTA00028071,XXL,ANUKKRTA00028072;899.00;;;;;;;;zerotype;;Spring;;No
1707058;ANKUSSMY187-Peach-1707058;Anouk Chanderi Kurta;Draft;Kurtas;Anouk;Adults-Women;Women;;;;Fashion;;2017;XS,ANUKKRTA00027767,S,ANUKKRTA00027768,M,ANUKKRTA00027769,L,ANUKKRTA00027770,XL,ANUKKRTA00027771,XXL,ANUKKRTA00027772;1599.00;;;;;;;;zerotype;;Spring;;No
1707057;ANKUSSMY186-Lime Green-1707057;Anouk Chanderi Kurta;Draft;Kurtas;Anouk;Adults-Women;Women;;;;Fashion;;2017;XS,ANUKKRTA00027761,S,ANUKKRTA00027762,M,ANUKKRTA00027763,L,ANUKKRTA00027764,XL,ANUKKRTA00027765,XXL,ANUKKRTA00027766;1599.00;;;;;;;;zerotype;;Spring;;No
1707056;ANKUSSMY185-Mustard-1707056;Anouk Chanderi Kurta;Draft;Kurtas;Anouk;Adults-Women;Women;;;;Fashion;;2017;XS,ANUKKRTA00027755,S,ANUKKRTA00027756,M,ANUKKRTA00027757,L,ANUKKRTA00027758,XL,ANUKKRTA00027759,XXL,ANUKKRTA00027760;1599.00;;;;;;;;zerotype;;Spring;;No
1707046;ANKUSSMY175-Coral-1707046;Anouk Jacquard Kurta;Draft;Kurtas;Anouk;Adults-Women;Women;;;;Fashion;;2017;XS,ANUKKRTA00027695,S,ANUKKRTA00027696,M,ANUKKRTA00027697,L,ANUKKRTA00027698,XL,ANUKKRTA00027699,XXL,ANUKKRTA00027700;1199.00;;;;;;;;zerotype;;Spring;;No
1707045;ANKUSSMY174-Rogue red-1707045;Anouk Jacquard Kurta;Draft;Kurtas;Anouk;Adults-Women;Women;;;;Fashion;;2017;XS,ANUKKRTA00027689,S,ANUKKRTA00027690,M,ANUKKRTA00027691,L,ANUKKRTA00027692,XL,ANUKKRTA00027693,XXL,ANUKKRTA00027694;1199.00;;;;;;;;zerotype;;Spring;;No
1707043;ANKUSSMY172-Ceramic-1707043;Anouk Jacquard Kurta;Draft;Kurtas;Anouk;Adults-Women;Women;;;;Fashion;;2017;XS,ANUKKRTA00027677,S,ANUKKRTA00027678,M,ANUKKRTA00027679,L,ANUKKRTA00027680,XL,ANUKKRTA00027681,XXL,ANUKKRTA00027682;1199.00;;;;;;;;zerotype;;Spring;;No
1707042;ANKUSSMY171-Fuschia-1707042;Anouk Jacquard Kurta;Draft;Kurtas;Anouk;Adults-Women;Women;;;;Fashion;;2017;XS,ANUKKRTA00027671,S,ANUKKRTA00027672,M,ANUKKRTA00027673,L,ANUKKRTA00027674,XL,ANUKKRTA00027675,XXL,ANUKKRTA00027676;1199.00;;;;;;;;zerotype;;Spring;;No
1707037;ANKUSSMY163-Maroon-1707037;Anouk Solid/ Printed Kurta;Draft;Kurtas;Anouk;Adults-Women;Women;;;;Fashion;;2017;XS,ANUKKRTA00027641,S,ANUKKRTA00027642,M,ANUKKRTA00027643,L,ANUKKRTA00027644,XL,ANUKKRTA00027645,XXL,ANUKKRTA00027646;1199.00;;;;;;;;zerotype;;Spring;;No
1707034;ANKUSSMY160-Lime Green-1707034;Anouk Solid/ Printed Kurta;Draft;Kurtas;Anouk;Adults-Women;Women;;;;Fashion;;2017;XS,ANUKKRTA00027623,S,ANUKKRTA00027624,M,ANUKKRTA00027625,L,ANUKKRTA00027626,XL,ANUKKRTA00027627,XXL,ANUKKRTA00027628;1199.00;;;;;;;;zerotype;;Spring;;No
1478978;HD-7325-DARK INDIGO-1478978;WOMEN DENIM JEAN;Inactive - PMM - Catalog;Jeans;Roadster;Adults-Women;Women;Blue;;;Fashion;Casual;2016;26,RDSTJENS00011486,28,RDSTJENS00011487,30,RDSTJENS00011488,32,RDSTJENS00011489,34,RDSTJENS00011490,36,RDSTJENS00011491;1499.00;Blue dark wash 5-pocket mid-rise  stretchable jeans, heavily distressed with light fade, has whiskers, a button and zip closure, waistband with belt loops;When you're ready for a style upgrade, reach for these Roadster slim jeans.  By pairing them with espadrilles and a lightweight T-shirt, you can pull off a casual look for dinner with your friends.;65% cotton, 33% polyester, 2% spandex <br />  Stretchable <br/>  Machine-wash cold;Slim fit <br />The model (height 5'8'') is wearing a size 28;;Roadster Women Blue Slim Fit Heavily Distressed Stretchable Jeans;ra1000-mar28,welcome-to-march-new,welcome-to-mar17-new,rs300-off-mar17,mar29-super-hour,welcome-to-myntra-april,extra50-apr1,chill-summer-apr,bfg-event-apr,mcd-bottoms-women-519130,bfg-extra10,bfg-extra20,bfg-gno-secret30,biker-bfg,apr12-super-hour,extra50-apr13,indus-apr13,bnb-styles-apr,summer-style-apr,after-match-apr,take20-apr17,coupon-crush-bb,ftod-bb-apr20,upto40-extra20-bb,flat40-extra30-bb,min30-extra1000,gold22-bb,power500-bb,b3-20-power20,flash-sale-bb21,rs-500-off-apr25,extra30-apr26,min40-extra500-apr27,coupon-crush02,coupon-crush03,coupon-crush04,coupon-crush05,myntra-rupay,coupon-crush08,coupon-crush11,mse-roadster,mse-all,flat40-extra500-apr29,pp-extra25-off,apr15-hh,pp-extra1000-off,extra20-ccmay,extra30-ccmay,super-hour-ccmay,ndd-mumbai,big10-lucky10,welcome-to-myntra-may-big,roadster-bp-jeans-destruction,gratification-jun2,hh-jun2,offer999-jun4,welcome-to-myntra-june17,myntra-store-03,coupon-crush-jun6,rd-women-jeans-look,jun08-wonder-hour,offer-11jun,eors-wishlist20;zerotype;;Winter;Image Mismatch;No
1349498;RD-WJ-363-L Blue-1349498;Indigo Dyed Jeans;On Hold - Sample;Jeans;Roadster;Adults-Women;Women;Blue;;;Fashion;Casual;2016;26,RDSTJENS00010193,28,RDSTJENS00010194,30,RDSTJENS00010195,32,RDSTJENS00010196,34,RDSTJENS00010197,36,RDSTJENS00010198;1499.00;Blue medium wash 5-pocket mid-rise jeans, clean look with heavy fade, has a button and zip closure, waistband with belt loops;These flattering Roadster skinny jeans will help you create a standout look.  Team yours with patent pumps and a dressy top when you're heading out for dinner and cocktails with your friends.;Cotton, Polyester  <br> Machine-wash;Skinny Fit <br> The model (height 5'8" and waist 28") is wearing a size 28;;Roadster Women Blue Skinny Fit Mid Rise Clean Look Jeans;Roadster;zerotype;;Winter;Broken Size;No
