Style ID;Vendor Article Number;Vendor Article Name;Active Status;Article type;Brand;Age Group;Gender;Base Colour;Colour1;Colour2;Fashion Type;Usage;Year;Size - SKU code pair;MRP;Style Description;Style Note;Materials and Care Description;Size and Fit Description;Size Chart Path;Product Display Name;Tags;Product Type;Classification Brand;Season;Comments;Upload Images
2164772;JT0245-Black& white-2164772;JT0245;Draft;Blazers;SUITLTD;Adults-Men;Men;Black;White;;Fashion;Party;2017;38,SUTDBLZR00000788,40,SUTDBLZR00000789,42,SUTDBLZR00000790,44,SUTDBLZR00000791;7950.00;;;<p>46% ACRYLIC 45% POLYESTER 9% METALISHED</p>;<p>Regular Fit</p>;;;;zerotype;;Winter;;No
2164770;JT0244-Black-2164770;JT0244;Draft;Blazers;SUITLTD;Adults-Men;Men;Silver;;;Fashion;Party;2017;38,SUTDBLZR00000784,40,SUTDBLZR00000785,42,SUTDBLZR00000786,44,SUTDBLZR00000787;7950.00;;;<p>88% POLYESTER 12% RAYON</p>;<p>Regular Fit</p>;;;;zerotype;;Winter;;No
2164769;JT0243-Silver-2164769;JT0243;Draft;Blazers;SUITLTD;Adults-Men;Men;Silver;;;Fashion;Party;2017;40,SUTDBLZR00000781,42,SUTDBLZR00000782,44,SUTDBLZR00000783;7950.00;;;<p>98% COTTON 2% ELASTANE</p>;<p>Regular Fit</p>;;;;zerotype;;Winter;;No
2164768;JT0242-Gold-2164768;JT0242;Draft;Blazers;SUITLTD;Adults-Men;Men;Gold;;;Fashion;Party;2017;38,SUTDBLZR00000777,40,SUTDBLZR00000778,42,SUTDBLZR00000779,44,SUTDBLZR00000780;7950.00;;;<p>76% COTTON 21% POLYESTER 3% ELASTANE</p>;<p>Regular Fit</p>;;;;zerotype;;Winter;;No
2164766;JT0240-Green-2164766;JT0240;Draft;Blazers;SUITLTD;Adults-Men;Men;Green;;;Fashion;Party;2017;38,SUTDBLZR00000773,40,SUTDBLZR00000774,42,SUTDBLZR00000775,44,SUTDBLZR00000776;7475.00;;;<p>100% COTTON VELVET</p>;<p>Regular Fit</p>;;;;zerotype;;Winter;;No
2164765;JT0239-Maroon-2164765;JT0239;Draft;Blazers;SUITLTD;Adults-Men;Men;Maroon;;;Fashion;Party;2017;38,SUTDBLZR00000769,40,SUTDBLZR00000770,42,SUTDBLZR00000771,44,SUTDBLZR00000772;7475.00;;;<p>100% COTTON</p>;<p>Regular Fit</p>;;;;zerotype;;Winter;;No
2162134;SW0005-Off White-2162134;SW0005;Draft;Sherwani;SUITLTD;Adults-Men;Men;Off White;;;Fashion;Party;2017;S,SUTDSRWI00000013,M,SUTDSRWI00000014,L,SUTDSRWI00000015;9995.00;;;<p>70% POLYESTER 30% VISCOSE</p>;<p>Regular Fit</p>;;;;zerotype;;Winter;;No
2162133;SW0004-Black-2162133;SW0004;Draft;Sherwani;SUITLTD;Adults-Men;Men;Black;;;Fashion;Party;2017;S,SUTDSRWI00000010,M,SUTDSRWI00000011,L,SUTDSRWI00000012;9995.00;;;<p>100% WOOL</p>;<p>Regular Fit</p>;;;;zerotype;;Winter;;No
2162132;SW0003-Black-2162132;SW0003;Draft;Sherwani;SUITLTD;Adults-Men;Men;Black;;;Fashion;Party;2017;S,SUTDSRWI00000007,M,SUTDSRWI00000008,L,SUTDSRWI00000009;9995.00;;;<p>55% POLYESTER 45% WOOL</p>;<p>Regular Fit</p>;;;;zerotype;;Winter;;No
2162131;SW0002-MAROON-2162131;SW0002;Draft;Sherwani;SUITLTD;Adults-Men;Men;Maroon;;;Fashion;Party;2017;S,SUTDSRWI00000004,M,SUTDSRWI00000005,L,SUTDSRWI00000006;9995.00;;;<p>100% POLYESTER</p>;<p>Regular Fit</p>;;;;zerotype;;Winter;;No
2162130;SW0001-Navy-2162130;SW0001;Draft;Sherwani;SUITLTD;Adults-Men;Men;Navy Blue;;;Fashion;Party;2017;S,SUTDSRWI00000001,M,SUTDSRWI00000002,L,SUTDSRWI00000003;9995.00;;;<p>100% POLYESTER</p>;<p>Regular Fit</p>;;;;zerotype;;Winter;;No
2145081;RSW5260-LIGHT BLUE-2145081;RSW5260;Draft;Shirts;Peter England;Adults-Men;Men;;;;Fashion;;2016;40,PTENSHRT00023132,42,PTENSHRT00023133,44,PTENSHRT00023134,46,PTENSHRT00023135;1099.00;;;<p>100%Cotton</p>;;;;;zerotype;;Spring;;No
2145076;RSF6242-BLACK-2145076;RSF6242;Draft;Shirts;Peter England;Adults-Men;Men;;;;Fashion;;2016;42,PTENSHRT00023115,44,PTENSHRT00023116,40,PTENSHRT00023117,46,PTENSHRT00023118;1099.00;;;<p>100%Cotton</p>;;;;;zerotype;;Spring;;No
2145075;PSF51709966-BlackSolid-2145075;PSF51709966;Draft;Shirts;Peter England;Adults-Men;Men;;;;Fashion;;2017;44,PTENSHRT00023111,42,PTENSHRT00023112,39,PTENSHRT00023113,40,PTENSHRT00023114;1599.00;;;<p>67%Cotton23%Tencel10%Linen</p>;;;;;zerotype;;Fall;;No
2145074;PSF51709964-DarkRedWithWhite-2145074;PSF51709964;Draft;Shirts;Peter England;Adults-Men;Men;;;;Fashion;;2017;38,PTENSHRT00023106,39,PTENSHRT00023107,40,PTENSHRT00023108,42,PTENSHRT00023109,44,PTENSHRT00023110;1599.00;;;<p>67%Cotton23%Tencel10%Linen</p>;;;;;zerotype;;Fall;;No
2145073;PSF51709950-LightYellowWithWhite-2145073;PSF51709950;Draft;Shirts;Peter England;Adults-Men;Men;;;;Fashion;;2017;40,PTENSHRT00023101,42,PTENSHRT00023102,44,PTENSHRT00023103,39,PTENSHRT00023104,38,PTENSHRT00023105;1599.00;;;<p>67%Cotton23%Tencel10%Linen</p>;;;;;zerotype;;Fall;;No
2145072;PSF51706647-MediumblueWithKhakis-2145072;PSF51706647;Draft;Shirts;Peter England;Adults-Men;Men;;;;Fashion;;2017;44,PTENSHRT00023097,42,PTENSHRT00023098,39,PTENSHRT00023099,40,PTENSHRT00023100;999.00;;;<p>60%Polyester40%Cotton</p>;;;;;zerotype;;Fall;;No
2145071;PSF51706456-WhiteWithBrown-2145071;PSF51706456;Draft;Shirts;Peter England;Adults-Men;Men;;;;Fashion;;2017;40,PTENSHRT00023093,44,PTENSHRT00023094,39,PTENSHRT00023095,42,PTENSHRT00023096;1499.00;;;<p>100%Cotton</p>;;;;;zerotype;;Fall;;No
2145070;PSF51706312-DarkRedWithblue-2145070;PSF51706312;Draft;Shirts;Peter England;Adults-Men;Men;;;;Fashion;;2017;40,PTENSHRT00023089,42,PTENSHRT00023090,44,PTENSHRT00023091,39,PTENSHRT00023092;1499.00;;;<p>100%Cotton</p>;;;;;zerotype;;Fall;;No
2145069;PSF51705681-BlackWithWhite-2145069;PSF51705681;Draft;Shirts;Peter England;Adults-Men;Men;;;;Fashion;;2017;42,PTENSHRT00023086,40,PTENSHRT00023087,39,PTENSHRT00023088;1249.00;;;<p>100%Cotton</p>;;;;;zerotype;;Fall;;No
2145067;PSF51704703-DarkblueWithblue-2145067;PSF51704703;Draft;Shirts;Peter England;Adults-Men;Men;;;;Fashion;;2017;42,PTENSHRT00023078,40,PTENSHRT00023079,44,PTENSHRT00023080,39,PTENSHRT00023081;1399.00;;;<p>100%Cotton</p>;;;;;zerotype;;Fall;;No
2145066;PSF51704700-MediumblueWithblue-2145066;PSF51704700;Draft;Shirts;Peter England;Adults-Men;Men;;;;Fashion;;2017;44,PTENSHRT00023073,42,PTENSHRT00023074,39,PTENSHRT00023075,40,PTENSHRT00023076,38,PTENSHRT00023077;1349.00;;;<p>60%Polyester40%Cotton</p>;;;;;zerotype;;Fall;;No
2145065;PSF51704629-MediumPurpleWithWhite-2145065;PSF51704629;Draft;Shirts;Peter England;Adults-Men;Men;;;;Fashion;;2017;40,PTENSHRT00023068,39,PTENSHRT00023069,38,PTENSHRT00023070,44,PTENSHRT00023071,42,PTENSHRT00023072;1349.00;;;<p>55%Polyester45%Cotton</p>;;;;;zerotype;;Fall;;No
2145064;PSF51704588-LightblueSolid-2145064;PSF51704588;Draft;Shirts;Peter England;Adults-Men;Men;;;;Fashion;;2017;42,PTENSHRT00023065,39,PTENSHRT00023066,40,PTENSHRT00023067;799.00;;;<p>80%Polyester20%Cotton</p>;;;;;zerotype;;Fall;;No
2145054;ISF51700259-DarkblueWithblue-2145054;ISF51700259;Draft;Shirts;Peter England;Adults-Men;Men;;;;Fashion;;2017;40,PTENSHRT00023054,42,PTENSHRT00023055,39,PTENSHRT00023056,44,PTENSHRT00023057,38,PTENSHRT00023058;1699.00;;;<p>100%Cotton</p>;;;;;zerotype;;Fall;;No
2145028;RT48608R-BLACK-2145028;RT48608R;Draft;Trousers;Peter England;Adults-Men;Men;;;;Fashion;;2016;32,PTENTRSR00008218,38,PTENTRSR00008219,34,PTENTRSR00008220,30,PTENTRSR00008221,36,PTENTRSR00008222,28,PTENTRSR00008223,40,PTENTRSR00008224;1099.00;;;<p>PC</p>;;;;;zerotype;;Spring;;No
2145027;RT29511R-GREEN-2145027;RT29511R;Draft;Trousers;Peter England;Adults-Men;Men;;;;Fashion;;2016;34,PTENTRSR00008212,30,PTENTRSR00008213,40,PTENTRSR00008214,36,PTENTRSR00008215,32,PTENTRSR00008216,38,PTENTRSR00008217;1399.00;;;<p>65%Polyester35%Cotton</p>;;;;;zerotype;;Spring;;No
2145025;PTF51703551-DarkblueSolid-2145025;PTF51703551;Draft;Trousers;Peter England;Adults-Men;Men;;;;Fashion;;2017;28,PTENTRSR00008204,30,PTENTRSR00008205,32,PTENTRSR00008206,34,PTENTRSR00008207,40,PTENTRSR00008208,36,PTENTRSR00008209;1699.00;;;<p>90%Polyester10%Viscose</p>;;;;;zerotype;;Fall;;No
2145024;PTF51603286-Dark blue With Black-2145024;PTF51603286;Draft;Trousers;Peter England;Adults-Men;Men;;;;Fashion;;2016;34,PTENTRSR00008199,40,PTENTRSR00008200,30,PTENTRSR00008201,36,PTENTRSR00008202,32,PTENTRSR00008203;1899.00;;;<p>77%Polyester23%Viscose</p>;;;;;zerotype;;Spring;;No
2145022;PTF41700710-MediumkhakiSolid-2145022;PTF41700710;Draft;Trousers;Peter England;Adults-Men;Men;;;;Fashion;;2017;32,PTENTRSR00008194,40,PTENTRSR00008195,34,PTENTRSR00008196,42,PTENTRSR00008197;1599.00;;;<p>80%Polyester20%Viscose</p>;;;;;zerotype;;Spring;;No
2145020;PTF31704184-Dark blue With blue-2145020;PTF31704184;Draft;Trousers;Peter England;Adults-Men;Men;;;;Fashion;;2016;40,PTENTRSR00008188,32,PTENTRSR00008189,34,PTENTRSR00008190,36,PTENTRSR00008191,38,PTENTRSR00008192;1099.00;;;<p>65%Polyester35%Viscose</p>;;;;;zerotype;;Spring;;No
2145019;PTF31704183-Dark Grey with Black-2145019;PTF31704183;Draft;Trousers;Peter England;Adults-Men;Men;;;;Fashion;;2016;34,PTENTRSR00008183,38,PTENTRSR00008184,36,PTENTRSR00008185,40,PTENTRSR00008186,32,PTENTRSR00008187;1099.00;;;<p>65%Polyester35%Viscose</p>;;;;;zerotype;;Spring;;No
2145018;PTF31704179-Light Brown With Brown-2145018;PTF31704179;Draft;Trousers;Peter England;Adults-Men;Men;;;;Fashion;;2016;38,PTENTRSR00008178,36,PTENTRSR00008179,34,PTENTRSR00008180,40,PTENTRSR00008181,32,PTENTRSR00008182;1099.00;;;<p>65%Polyester35%Viscose</p>;;;;;zerotype;;Spring;;No
2145017;PTF31704175-Dark Grey with Black-2145017;PTF31704175;Draft;Trousers;Peter England;Adults-Men;Men;;;;Fashion;;2016;40,PTENTRSR00008174,32,PTENTRSR00008175,34,PTENTRSR00008176,36,PTENTRSR00008177;1199.00;;;<p>65%Polyester35%Viscose</p>;;;;;zerotype;;Spring;;No
2145015;PTF31701048-Dark Grey with Black-2145015;PTF31701048;Draft;Trousers;Peter England;Adults-Men;Men;;;;Fashion;;2016;32,PTENTRSR00008166,30,PTENTRSR00008167,36,PTENTRSR00008168,40,PTENTRSR00008169,34,PTENTRSR00008170;1499.00;;;<p>80%Polyester20%Viscose</p>;;;;;zerotype;;Spring;;No
2145011;PTF31700842-Light khaki With khaki-2145011;PTF31700842;Draft;Trousers;Peter England;Adults-Men;Men;;;;Fashion;;2016;38,PTENTRSR00008156,36,PTENTRSR00008157,34,PTENTRSR00008158,40,PTENTRSR00008159,32,PTENTRSR00008160;1399.00;;;<p>80%Polyester20%Viscose</p>;;;;;zerotype;;Spring;;No
2145010;PT516EPPS030-LIGHT GREY-2145010;PT516EPPS030;Draft;Trousers;Peter England;Adults-Men;Men;;;;Fashion;;2016;30,PTENTRSR00008151,32,PTENTRSR00008152,40,PTENTRSR00008153,36,PTENTRSR00008154,34,PTENTRSR00008155;1199.00;;;<p>100%Cotton</p>;;;;;zerotype;;Spring;;No
2145008;PT516EPPS022-LIGHT GREY-2145008;PT516EPPS022;Draft;Trousers;Peter England;Adults-Men;Men;;;;Fashion;;2016;32,PTENTRSR00008142,36,PTENTRSR00008143,30,PTENTRSR00008144,34,PTENTRSR00008145,40,PTENTRSR00008146;1099.00;;;<p>100%Cotton</p>;;;;;zerotype;;Spring;;No
2145006;ITF31701223-BlackSolid-2145006;ITF31701223;Draft;Trousers;Peter England;Adults-Men;Men;;;;Fashion;;2017;32,PTENTRSR00008138,40,PTENTRSR00008139,36,PTENTRSR00008140,34,PTENTRSR00008141;2299.00;;;<p>7%Sorona63%Terelene30%Rayon</p>;;;;;zerotype;;Spring;;No
2144998;ITF31701188-BlackWithWhite-2144998;ITF31701188;Draft;Trousers;Peter England;Adults-Men;Men;;;;Fashion;;2017;34,PTENTRSR00008119,36,PTENTRSR00008120,40,PTENTRSR00008121,30,PTENTRSR00008122,32,PTENTRSR00008123,38,PTENTRSR00008124;1999.00;;;<p>63%Polyester34%Viscose3%Lycra</p>;;;;;zerotype;;Spring;;No
2144919;PKW51707765-DarkGreywithBlue-2144919;PKW51707765;Draft;Tshirts;Peter England;Adults-Men;Men;;;;Fashion;;2017;M,PTENTSHT00008084,L,PTENTSHT00008085,XL,PTENTSHT00008086,S,PTENTSHT00008087;1299.00;;;<p>50%Cotton50%Polyester</p>;;;;;zerotype;;Fall;;No
2144917;PKW31700403-DarkPinkwithBlue-2144917;PKW31700403;Draft;Tshirts;Peter England;Adults-Men;Men;;;;Fashion;;2017;S,PTENTSHT00008079,XL,PTENTSHT00008080,L,PTENTSHT00008081,XXL,PTENTSHT00008082,M,PTENTSHT00008083;999.00;;;<p>50%Cotton50%Polyester</p>;;;;;zerotype;;Spring;;No
2144912;PKW31700383-DarkPinkSolid-2144912;PKW31700383;Draft;Tshirts;Peter England;Adults-Men;Men;;;;Fashion;;2017;M,PTENTSHT00008069,XL,PTENTSHT00008070,S,PTENTSHT00008071,XXL,PTENTSHT00008072,L,PTENTSHT00008073;999.00;;;<p>50%Cotton50%Polyester</p>;;;;;zerotype;;Spring;;No
2144906;PKW31700348-LightGreenWithblue-2144906;PKW31700348;Draft;Tshirts;Peter England;Adults-Men;Men;;;;Fashion;;2017;XL,PTENTSHT00008062,L,PTENTSHT00008063,M,PTENTSHT00008064;749.00;;;<p>50%Cotton50%Polyester</p>;;;;;zerotype;;Spring;;No
2144903;PKW31700314-DarkGreywithBlue-2144903;PKW31700314;Draft;Tshirts;Peter England;Adults-Men;Men;;;;Fashion;;2017;XL,PTENTSHT00008057,M,PTENTSHT00008058,L,PTENTSHT00008059,XXL,PTENTSHT00008060;799.00;;;<p>50%Cotton50%Polyester</p>;;;;;zerotype;;Spring;;No
2144900;PKW31700298-MediumGreenWithWhite-2144900;PKW31700298;Draft;Tshirts;Peter England;Adults-Men;Men;;;;Fashion;;2017;M,PTENTSHT00008050,L,PTENTSHT00008051,3XL,PTENTSHT00008052,XL,PTENTSHT00008053,S,PTENTSHT00008054,XXL,PTENTSHT00008055;749.00;;;<p>50%Cotton50%Polyester</p>;;;;;zerotype;;Spring;;No
2144896;PKW100460-Medium Yellow Solid-2144896;PKW100460;Draft;Tshirts;Peter England;Adults-Men;Men;;;;Fashion;;2016;XXL,PTENTSHT00008044,3XL,PTENTSHT00008045,L,PTENTSHT00008046,M,PTENTSHT00008047,XL,PTENTSHT00008048;699.00;;;<p>50%Cotton50%Polyester</p>;;;;;zerotype;;Spring;;No
2144895;PKW100162-White-2144895;PKW100162;Draft;Tshirts;Peter England;Adults-Men;Men;;;;Fashion;;2016;3XL,PTENTSHT00008039,L,PTENTSHT00008040,XXL,PTENTSHT00008041,XL,PTENTSHT00008042,M,PTENTSHT00008043;699.00;;;<p>50%Cotton50%Polyester</p>;;;;;zerotype;;Spring;;No
2144893;PKW100140-Medium Red With Red-2144893;PKW100140;Draft;Tshirts;Peter England;Adults-Men;Men;;;;Fashion;;2016;XXL,PTENTSHT00008033,3XL,PTENTSHT00008034,S,PTENTSHT00008035,M,PTENTSHT00008036,XL,PTENTSHT00008037,L,PTENTSHT00008038;699.00;;;<p>50%Cotton50%Polyester</p>;;;;;zerotype;;Spring;;No
2144891;PKP61601303-White With blue-2144891;PKP61601303;Draft;Tshirts;Peter England;Adults-Men;Men;;;;Fashion;;2016;M,PTENTSHT00008029,XXL,PTENTSHT00008030,XL,PTENTSHT00008031,L,PTENTSHT00008032;899.00;;;<p>52%Polyester48%Cotton</p>;;;;;zerotype;;Spring;;No
2144890;PKP61600277-Dark blue With Green-2144890;PKP61600277;Draft;Tshirts;Peter England;Adults-Men;Men;;;;Fashion;;2016;XL,PTENTSHT00008025,M,PTENTSHT00008026,L,PTENTSHT00008027,XXL,PTENTSHT00008028;899.00;;;<p>52%Polyester48%Cotton</p>;;;;;zerotype;;Spring;;No
2144888;PKP51709839-LightgreySolid-2144888;PKP51709839;Draft;Tshirts;Peter England;Adults-Men;Men;;;;Fashion;;2017;S,PTENTSHT00008020,L,PTENTSHT00008021,XL,PTENTSHT00008022,M,PTENTSHT00008023,XXL,PTENTSHT00008024;899.00;;;<p>50%Cotton50%Polyester</p>;;;;;zerotype;;Fall;;No
2144886;PKP51707804-LightgreyWithgrey-2144886;PKP51707804;Draft;Tshirts;Peter England;Adults-Men;Men;;;;Fashion;;2017;M,PTENTSHT00008015,S,PTENTSHT00008016,L,PTENTSHT00008017,XXL,PTENTSHT00008018,XL,PTENTSHT00008019;999.00;;;<p>50%Cotton50%Polyester</p>;;;;;zerotype;;Fall;;No
2144882;PKP51707791-MediumkhakiWithWhite-2144882;PKP51707791;Draft;Tshirts;Peter England;Adults-Men;Men;;;;Fashion;;2017;M,PTENTSHT00008005,XL,PTENTSHT00008006,L,PTENTSHT00008007,S,PTENTSHT00008008,XXL,PTENTSHT00008009;799.00;;;<p>50%Modal50%Polyester</p>;;;;;zerotype;;Fall;;No
2144877;PKP51707753-LightOrangeWithWhite-2144877;PKP51707753;Draft;Tshirts;Peter England;Adults-Men;Men;;;;Fashion;;2017;L,PTENTSHT00007995,XXL,PTENTSHT00007996,S,PTENTSHT00007997,M,PTENTSHT00007998,XL,PTENTSHT00007999;899.00;;;<p>50%Cotton50%Polyester</p>;;;;;zerotype;;Fall;;No
2144875;PKP51707752-MediumOrangeWithblue-2144875;PKP51707752;Draft;Tshirts;Peter England;Adults-Men;Men;;;;Fashion;;2017;M,PTENTSHT00007990,XL,PTENTSHT00007991,XXL,PTENTSHT00007992,L,PTENTSHT00007993,S,PTENTSHT00007994;799.00;;;<p>50%Cotton50%Polyester</p>;;;;;zerotype;;Fall;;No
2144872;PKP51707751-WhiteWithOrange-2144872;PKP51707751;Draft;Tshirts;Peter England;Adults-Men;Men;;;;Fashion;;2017;L,PTENTSHT00007985,M,PTENTSHT00007986,S,PTENTSHT00007987,XL,PTENTSHT00007988,XXL,PTENTSHT00007989;749.00;;;<p>50%Cotton50%Polyester</p>;;;;;zerotype;;Fall;;No
2144871;PKP51707750-DarkGreenWithPurple-2144871;PKP51707750;Draft;Tshirts;Peter England;Adults-Men;Men;;;;Fashion;;2017;XXL,PTENTSHT00007980,L,PTENTSHT00007981,M,PTENTSHT00007982,XL,PTENTSHT00007983,S,PTENTSHT00007984;799.00;;;<p>50%Cotton50%Polyester</p>;;;;;zerotype;;Fall;;No
2144869;PKP51707749-DarkGreenWithRed-2144869;PKP51707749;Draft;Tshirts;Peter England;Adults-Men;Men;;;;Fashion;;2017;S,PTENTSHT00007975,XL,PTENTSHT00007976,L,PTENTSHT00007977,M,PTENTSHT00007978,XXL,PTENTSHT00007979;799.00;;;<p>50%Cotton50%Polyester</p>;;;;;zerotype;;Fall;;No
2144867;PKP51707745-DarkGreenWithblue-2144867;PKP51707745;Draft;Tshirts;Peter England;Adults-Men;Men;;;;Fashion;;2017;L,PTENTSHT00007970,S,PTENTSHT00007971,XL,PTENTSHT00007972,XXL,PTENTSHT00007973,M,PTENTSHT00007974;749.00;;;<p>50%Cotton50%Polyester</p>;;;;;zerotype;;Fall;;No
2144864;PKP51707733-MediumYellowWithOrange-2144864;PKP51707733;Draft;Tshirts;Peter England;Adults-Men;Men;;;;Fashion;;2017;S,PTENTSHT00007965,M,PTENTSHT00007966,XL,PTENTSHT00007967,XXL,PTENTSHT00007968,L,PTENTSHT00007969;799.00;;;<p>50%Cotton50%Polyester</p>;;;;;zerotype;;Fall;;No
2144862;PKP51707728-DarkPurpleWithRed-2144862;PKP51707728;Draft;Tshirts;Peter England;Adults-Men;Men;;;;Fashion;;2017;L,PTENTSHT00007960,S,PTENTSHT00007961,M,PTENTSHT00007962,XL,PTENTSHT00007963,XXL,PTENTSHT00007964;799.00;;;<p>50%Cotton50%Polyester</p>;;;;;zerotype;;Fall;;No
2144860;PKP51707709-LightYellowWithOrange-2144860;PKP51707709;Draft;Tshirts;Peter England;Adults-Men;Men;;;;Fashion;;2017;L,PTENTSHT00007955,M,PTENTSHT00007956,S,PTENTSHT00007957,XL,PTENTSHT00007958,XXL,PTENTSHT00007959;799.00;;;<p>50%Cotton50%Polyester</p>;;;;;zerotype;;Fall;;No
2144858;PKP51707708-LightblueWithYellow-2144858;PKP51707708;Draft;Tshirts;Peter England;Adults-Men;Men;;;;Fashion;;2017;XL,PTENTSHT00007950,L,PTENTSHT00007951,XXL,PTENTSHT00007952,M,PTENTSHT00007953,S,PTENTSHT00007954;799.00;;;<p>50%Cotton50%Polyester</p>;;;;;zerotype;;Fall;;No
2144855;PKP51707705-DarkblueWithWhite-2144855;PKP51707705;Draft;Tshirts;Peter England;Adults-Men;Men;;;;Fashion;;2017;L,PTENTSHT00007945,XXL,PTENTSHT00007946,S,PTENTSHT00007947,M,PTENTSHT00007948,XL,PTENTSHT00007949;899.00;;;<p>50%Cotton50%Polyester</p>;;;;;zerotype;;Fall;;No
2144853;PKP51707703-MediumblueWithGreen-2144853;PKP51707703;Draft;Tshirts;Peter England;Adults-Men;Men;;;;Fashion;;2017;M,PTENTSHT00007940,S,PTENTSHT00007941,XL,PTENTSHT00007942,XXL,PTENTSHT00007943,L,PTENTSHT00007944;899.00;;;<p>50%Cotton50%Polyester</p>;;;;;zerotype;;Fall;;No
2144422;POKU517C10182-MediumblueWithblue-2144422;POKU517C10182;Draft;Kurtas;Peter England;Adults-Men;Men;;;;Fashion;;2016;44,PTENKRTA00000100,42,PTENKRTA00000101,40,PTENKRTA00000102,38,PTENKRTA00000103;1699.00;;;<p>100%Cotton</p>;;;;;zerotype;;Fall;;No
2144421;POKU517C08529-DarkRedWithblue-2144421;POKU517C08529;Draft;Kurtas;Peter England;Adults-Men;Men;;;;Fashion;;2016;44,PTENKRTA00000096,40,PTENKRTA00000097,38,PTENKRTA00000098,42,PTENKRTA00000099;1299.00;;;<p>100%Cotton</p>;;;;;zerotype;;Fall;;No
2144420;POKU517C08518-DarkblueWithWhite-2144420;POKU517C08518;Draft;Kurtas;Peter England;Adults-Men;Men;;;;Fashion;;2016;42,PTENKRTA00000092,44,PTENKRTA00000093,38,PTENKRTA00000094,40,PTENKRTA00000095;1299.00;;;<p>100%Cotton</p>;;;;;zerotype;;Fall;;No
2144419;POKU517C08513-MediumblueWithRed-2144419;POKU517C08513;Draft;Kurtas;Peter England;Adults-Men;Men;;;;Fashion;;2016;44,PTENKRTA00000088,42,PTENKRTA00000089,40,PTENKRTA00000090,38,PTENKRTA00000091;1399.00;;;<p>100%Cotton</p>;;;;;zerotype;;Fall;;No
2144418;POKU517C08512-DarkblueWithWhite-2144418;POKU517C08512;Draft;Kurtas;Peter England;Adults-Men;Men;;;;Fashion;;2016;36,PTENKRTA00000083,40,PTENKRTA00000084,44,PTENKRTA00000085,42,PTENKRTA00000086,38,PTENKRTA00000087;1399.00;;;<p>100%Cotton</p>;;;;;zerotype;;Fall;;No
2144416;POKU517C08508-LightblueWithWhite-2144416;POKU517C08508;Draft;Kurtas;Peter England;Adults-Men;Men;;;;Fashion;;2016;42,PTENKRTA00000075,38,PTENKRTA00000076,44,PTENKRTA00000077,40,PTENKRTA00000078;1299.00;;;<p>100%Cotton</p>;;;;;zerotype;;Fall;;No
2144415;POKU517C08503-DarkRedWithBlack-2144415;POKU517C08503;Draft;Kurtas;Peter England;Adults-Men;Men;;;;Fashion;;2016;36,PTENKRTA00000070,44,PTENKRTA00000071,40,PTENKRTA00000072,42,PTENKRTA00000073,38,PTENKRTA00000074;1399.00;;;<p>100%Cotton</p>;;;;;zerotype;;Fall;;No
2144414;POKU517C08502-MediumgreyWithblue-2144414;POKU517C08502;Draft;Kurtas;Peter England;Adults-Men;Men;;;;Fashion;;2016;40,PTENKRTA00000066,38,PTENKRTA00000067,44,PTENKRTA00000068,42,PTENKRTA00000069;1399.00;;;<p>100%Cotton</p>;;;;;zerotype;;Fall;;No
2144413;POKU517C08500-DarkblueWithKhakis-2144413;POKU517C08500;Draft;Kurtas;Peter England;Adults-Men;Men;;;;Fashion;;2016;40,PTENKRTA00000062,38,PTENKRTA00000063,44,PTENKRTA00000064,42,PTENKRTA00000065;1299.00;;;<p>100%Cotton</p>;;;;;zerotype;;Fall;;No
2144412;POKU517C08499-DarkblueWithWhite-2144412;POKU517C08499;Draft;Kurtas;Peter England;Adults-Men;Men;;;;Fashion;;2016;40,PTENKRTA00000058,38,PTENKRTA00000059,42,PTENKRTA00000060,44,PTENKRTA00000061;1399.00;;;<p>100%Cotton</p>;;;;;zerotype;;Fall;;No
2144411;POKU517C08496-DarkblueWithWhite-2144411;POKU517C08496;Draft;Kurtas;Peter England;Adults-Men;Men;;;;Fashion;;2016;44,PTENKRTA00000053,42,PTENKRTA00000054,36,PTENKRTA00000055,38,PTENKRTA00000056,40,PTENKRTA00000057;1399.00;;;<p>90%Cotton10%Polyester</p>;;;;;zerotype;;Fall;;No
2144410;POKU517C07314-DarkblueWithWhite-2144410;POKU517C07314;Draft;Kurtas;Peter England;Adults-Men;Men;;;;Fashion;;2016;44,PTENKRTA00000049,42,PTENKRTA00000050,40,PTENKRTA00000051,38,PTENKRTA00000052;1399.00;;;<p>100%Cotton</p>;;;;;zerotype;;Fall;;No
2144408;POKU517C07241-DarkblueWithblue-2144408;POKU517C07241;Draft;Kurtas;Peter England;Adults-Men;Men;;;;Fashion;;2016;44,PTENKRTA00000045,42,PTENKRTA00000046,38,PTENKRTA00000047,40,PTENKRTA00000048;1599.00;;;<p>100%Cotton</p>;;;;;zerotype;;Fall;;No
2144407;POKU517C07232-DarkRedWithblue-2144407;POKU517C07232;Draft;Kurtas;Peter England;Adults-Men;Men;;;;Fashion;;2016;42,PTENKRTA00000041,38,PTENKRTA00000042,40,PTENKRTA00000043,44,PTENKRTA00000044;1499.00;;;<p>100%Cotton</p>;;;;;zerotype;;Fall;;No
2144406;POKU517C07230-MediumblueWithblue-2144406;POKU517C07230;Draft;Kurtas;Peter England;Adults-Men;Men;;;;Fashion;;2016;42,PTENKRTA00000037,38,PTENKRTA00000038,44,PTENKRTA00000039,40,PTENKRTA00000040;1499.00;;;<p>100%Cotton</p>;;;;;zerotype;;Fall;;No
2144405;POKU517C07229-MediumGreenWithGreen-2144405;POKU517C07229;Draft;Kurtas;Peter England;Adults-Men;Men;;;;Fashion;;2016;38,PTENKRTA00000033,42,PTENKRTA00000034,40,PTENKRTA00000035,44,PTENKRTA00000036;1299.00;;;<p>100%Cotton</p>;;;;;zerotype;;Fall;;No
2144404;POKU517C07228-MediumGreenWithGreen-2144404;POKU517C07228;Draft;Kurtas;Peter England;Adults-Men;Men;;;;Fashion;;2016;42,PTENKRTA00000029,40,PTENKRTA00000030,44,PTENKRTA00000031,38,PTENKRTA00000032;1499.00;;;<p>100%Cotton</p>;;;;;zerotype;;Fall;;No
2144403;POKU517C07227-BlackSolid-2144403;POKU517C07227;Draft;Kurtas;Peter England;Adults-Men;Men;;;;Fashion;;2016;36,PTENKRTA00000024,40,PTENKRTA00000025,38,PTENKRTA00000026,44,PTENKRTA00000027,42,PTENKRTA00000028;1299.00;;;<p>100%Cotton</p>;;;;;zerotype;;Fall;;No
2144402;POKU517C07226-BlackSolid-2144402;POKU517C07226;Draft;Kurtas;Peter England;Adults-Men;Men;;;;Fashion;;2016;42,PTENKRTA00000019,36,PTENKRTA00000020,38,PTENKRTA00000021,44,PTENKRTA00000022,40,PTENKRTA00000023;1599.00;;;<p>100%Cotton</p>;;;;;zerotype;;Fall;;No
2144401;POKU517C07224-White-2144401;POKU517C07224;Draft;Kurtas;Peter England;Adults-Men;Men;;;;Fashion;;2016;38,PTENKRTA00000014,42,PTENKRTA00000015,44,PTENKRTA00000016,40,PTENKRTA00000017,36,PTENKRTA00000018;1299.00;;;<p>100%Cotton</p>;;;;;zerotype;;Fall;;No
2144400;POKU517C07223-White-2144400;POKU517C07223;Draft;Kurtas;Peter England;Adults-Men;Men;;;;Fashion;;2016;40,PTENKRTA00000009,36,PTENKRTA00000010,44,PTENKRTA00000011,38,PTENKRTA00000012,42,PTENKRTA00000013;1599.00;;;<p>100%Cotton</p>;;;;;zerotype;;Fall;;No
2144399;POKU517C07217-BlackSolid-2144399;POKU517C07217;Draft;Kurtas;Peter England;Adults-Men;Men;;;;Fashion;;2016;44,PTENKRTA00000005,42,PTENKRTA00000006,40,PTENKRTA00000007,38,PTENKRTA00000008;1599.00;;;<p>100%Cotton</p>;;;;;zerotype;;Fall;;No
2144398;POKU517C07212-White-2144398;POKU517C07212;Draft;Kurtas;Peter England;Adults-Men;Men;;;;Fashion;;2016;40,PTENKRTA00000001,44,PTENKRTA00000002,38,PTENKRTA00000003,42,PTENKRTA00000004;1599.00;;;<p>100%Cotton</p>;;;;;zerotype;;Fall;;No
2127600;PKW31700345-DarkGreenWithBrown-2127600;PKW31700345;On Hold - Sample;Tshirts;Peter England;Adults-Men;Men;;;;Fashion;;2016;M,PTENTSHT00007931,XXL,PTENTSHT00007932,XL,PTENTSHT00007933,L,PTENTSHT00007934;749.00;;;<p>50%Cotton50%Polyester</p>;;;;ndd17-mum;zerotype;;Spring;ndd17-mum;No
2127594;PKW31700327-LightGreenWithWhite-2127594;PKW31700327;On Hold - Sample;Tshirts;Peter England;Adults-Men;Men;;;;Fashion;;2016;L,PTENTSHT00007901,XXL,PTENTSHT00007902,M,PTENTSHT00007903,XL,PTENTSHT00007904,S,PTENTSHT00007905;799.00;;;<p>50%Cotton50%Polyester</p>;;;;ndd17-mum;zerotype;;Spring;ndd17-mum;No
2127593;PKW31700326-MediumPinkwithWhite-2127593;PKW31700326;On Hold - Sample;Tshirts;Peter England;Adults-Men;Men;;;;Fashion;;2016;XXL,PTENTSHT00007897,L,PTENTSHT00007898,XL,PTENTSHT00007899,M,PTENTSHT00007900;799.00;;;<p>50%Cotton50%Polyester</p>;;;;ndd17-mum;zerotype;;Spring;ndd17-mum;No
2127592;PKW31700319-LightOrangeWithblue-2127592;PKW31700319;On Hold - Sample;Tshirts;Peter England;Adults-Men;Men;;;;Fashion;;2016;XL,PTENTSHT00007892,S,PTENTSHT00007893,M,PTENTSHT00007894,L,PTENTSHT00007895,XXL,PTENTSHT00007896;749.00;;;<p>50%Cotton50%Polyester</p>;;;;ndd17-mum;zerotype;;Spring;ndd17-mum;No
2127589;PKW31700291-MediumYellowWithblue-2127589;PKW31700291;On Hold - Sample;Tshirts;Peter England;Adults-Men;Men;;;;Fashion;;2016;M,PTENTSHT00007878,XL,PTENTSHT00007879,L,PTENTSHT00007880,XXL,PTENTSHT00007881;799.00;;;<p>50%Cotton50%Polyester</p>;;;;ndd17-mum;zerotype;;Spring;ndd17-mum;No
2127588;PKW31700276-MediumYellowWithblue-2127588;PKW31700276;On Hold - Sample;Tshirts;Peter England;Adults-Men;Men;;;;Fashion;;2016;L,PTENTSHT00007874,XL,PTENTSHT00007875,M,PTENTSHT00007876,XXL,PTENTSHT00007877;799.00;;;<p>50%Cotton50%Polyester</p>;;;;ndd17-mum;zerotype;;Spring;ndd17-mum;No
2127566;PSF31701641-MediumblueWithWhite-2127566;PSF31701641;On Hold - Sample;Shirts;Peter England;Adults-Men;Men;;;;Fashion;;2016;42,PTENSHRT00023007,40,PTENSHRT00023008,44,PTENSHRT00023009,39,PTENSHRT00023010,46,PTENSHRT00023011;999.00;;;<p>55%Polyester45%Cotton</p>;;;;ndd17-mum;zerotype;;Spring;ndd17-mum;No
2104484;PKW51709699-Blue-2104484;PKW51709699;On Hold - Sample;Tshirts;Peter England;Adults-Men;Men;Blue;;;Fashion;;2017;L,PTENTSHT00007839,XXL,PTENTSHT00007840,XL,PTENTSHT00007841,M,PTENTSHT00007842,S,PTENTSHT00007843;799.00;;;<p>50%Cotton50%Polyester</p>;;;;;zerotype;;Fall;D to OHS;No
2033922;PKW31700277-MediumGreenWithRed-2033922;PKW31700277;On Hold - Sample;Tshirts;Peter England;Adults-Men;Men;Red;;;Fashion;;2017;S,PTENTSHT00007580,XXL,PTENTSHT00007581,M,PTENTSHT00007582,XL,PTENTSHT00007583,L,PTENTSHT00007584;799.00;;;<p>50%Cotton50%Polyester</p>;;;;;zerotype;;Spring;Broken size;No
