Style ID;Vendor Article Number;Vendor Article Name;Active Status;Article type;Brand;Age Group;Gender;Base Colour;Colour1;Colour2;Fashion Type;Usage;Year;Size - SKU code pair;MRP;Style Description;Style Note;Materials and Care Description;Size and Fit Description;Size Chart Path;Product Display Name;Tags;Product Type;Classification Brand;Season;Comments;Upload Images
2248868;ST-0026171383-40-Blue-2248868;Light Blue Khadi Cotton Solid Kurta;Draft;Kurtas;RENE;Adults-Men;Men;Blue;;;Fashion;Ethnic;2017;38,REENKRTA00000173,46,REENKRTA00000174,44,REENKRTA00000175,42,REENKRTA00000176,40,REENKRTA00000177;1395.00;;;<p>100% Cotton</p>;;;na;;zerotype;;Fall;;No
2248867;S-0027171615-38-Navy Blue-2248867;Navy Blue Cotton Slub Kurta;Draft;Kurtas;RENE;Adults-Men;Men;Navy Blue;;;Fashion;Ethnic;2017;46,REENKRTA00000168,44,REENKRTA00000169,42,REENKRTA00000170,40,REENKRTA00000171,38,REENKRTA00000172;1475.00;;;<p>100% Cotton</p>;;;na;;zerotype;;Fall;;No
2248866;ST-0026171384-38-Blue-2248866;Blue Khadi Cotton Solid Kurta;Draft;Kurtas;RENE;Adults-Men;Men;Blue;;;Fashion;Ethnic;2017;46,REENKRTA00000163,44,REENKRTA00000164,42,REENKRTA00000165,40,REENKRTA00000166,38,REENKRTA00000167;1395.00;;;<p>100% Cotton</p>;;;na;;zerotype;;Fall;;No
