Style ID;Vendor Article Number;Vendor Article Name;Active Status;Article type;Brand;Age Group;Gender;Base Colour;Colour1;Colour2;Fashion Type;Usage;Year;Size - SKU code pair;MRP;Style Description;Style Note;Materials and Care Description;Size and Fit Description;Size Chart Path;Product Display Name;Tags;Product Type;Classification Brand;Season;Comments;Upload Images
2241144;NC16633XL-White-2241144;Kurtas;Draft;Kurtas;Nikhaar;Adults-Women;Women;White;;;Fashion;Ethnic;2017;L,NKHRKRTA00001338,5XL,NKHRKRTA00001339,XL,NKHRKRTA00001340,6XL,NKHRKRTA00001341,XXL,NKHRKRTA00001342,XXS,NKHRKRTA00001343,XS,NKHRKRTA00001344,S,NKHRKRTA00001345,M,NKHRKRTA00001346,7XL,NKHRKRTA00001347,8XL,NKHRKRTA00001348,4XL,NKHRKRTA00001349,3XL,NKHRKRTA00001350;2999.00;;;<p>100% Polyester Dry Clean Only</p>;;;na;;zerotype;;Winter;;No
2241142;NC1654XXS-Coral-2241142;Kurtas;Draft;Kurtas;Nikhaar;Adults-Women;Women;Coral;;;Fashion;Ethnic;2017;M,NKHRKRTA00001325,4XL,NKHRKRTA00001326,3XL,NKHRKRTA00001327,S,NKHRKRTA00001328,XXL,NKHRKRTA00001329,8XL,NKHRKRTA00001330,7XL,NKHRKRTA00001331,XL,NKHRKRTA00001332,6XL,NKHRKRTA00001333,L,NKHRKRTA00001334,XS,NKHRKRTA00001335,5XL,NKHRKRTA00001336,XXS,NKHRKRTA00001337;2999.00;;;<p>100% Cotton Dry Clean Only</p>;;;na;;zerotype;;Winter;;No
2241141;NC1739XXL-Coral-2241141;Kurtas;Draft;Kurtas;Nikhaar;Adults-Women;Women;Coral;;;Fashion;Ethnic;2017;7XL,NKHRKRTA00001312,8XL,NKHRKRTA00001313,XL,NKHRKRTA00001314,3XL,NKHRKRTA00001315,5XL,NKHRKRTA00001316,XS,NKHRKRTA00001317,S,NKHRKRTA00001318,M,NKHRKRTA00001319,4XL,NKHRKRTA00001320,6XL,NKHRKRTA00001321,L,NKHRKRTA00001322,XXS,NKHRKRTA00001323,XXL,NKHRKRTA00001324;2999.00;;;<p>100% Cotton Dry Clean Only</p>;;;na;;zerotype;;Winter;;No
2241140;NC16505XL-Black-2241140;Kurtas;Draft;Kurtas;Nikhaar;Adults-Women;Women;Black;;;Fashion;Ethnic;2017;4XL,NKHRKRTA00001299,L,NKHRKRTA00001300,8XL,NKHRKRTA00001301,3XL,NKHRKRTA00001302,XXL,NKHRKRTA00001303,M,NKHRKRTA00001304,S,NKHRKRTA00001305,XS,NKHRKRTA00001306,XXS,NKHRKRTA00001307,XL,NKHRKRTA00001308,7XL,NKHRKRTA00001309,6XL,NKHRKRTA00001310,5XL,NKHRKRTA00001311;2999.00;;;<p>100% Cotton Dry Clean Only</p>;;;na;;zerotype;;Winter;;No
2241139;NC1660L-Coral-2241139;Kurtas;Draft;Kurtas;Nikhaar;Adults-Women;Women;Coral;;;Fashion;Ethnic;2017;5XL,NKHRKRTA00001286,7XL,NKHRKRTA00001287,8XL,NKHRKRTA00001288,XL,NKHRKRTA00001289,XXL,NKHRKRTA00001290,3XL,NKHRKRTA00001291,XXS,NKHRKRTA00001292,XS,NKHRKRTA00001293,M,NKHRKRTA00001294,S,NKHRKRTA00001295,4XL,NKHRKRTA00001296,6XL,NKHRKRTA00001297,L,NKHRKRTA00001298;2999.00;;;<p>100% Polyester Dry Clean Only</p>;;;na;;zerotype;;Winter;;No
2241136;NC1806XL-Magenta-2241136;Kurtas;Draft;Kurtas;Nikhaar;Adults-Women;Women;Magenta;;;Fashion;Ethnic;2017;XXL,NKHRKRTA00001273,XS,NKHRKRTA00001274,3XL,NKHRKRTA00001275,7XL,NKHRKRTA00001276,8XL,NKHRKRTA00001277,XXS,NKHRKRTA00001278,S,NKHRKRTA00001279,M,NKHRKRTA00001280,4XL,NKHRKRTA00001281,5XL,NKHRKRTA00001282,6XL,NKHRKRTA00001283,L,NKHRKRTA00001284,XL,NKHRKRTA00001285;2999.00;;;<p>100% Cotton Dry Clean Only</p>;;;na;;zerotype;;Winter;;No
2241135;NC17683XL-Rust-2241135;Kurtas;Draft;Kurtas;Nikhaar;Adults-Women;Women;Rust;;;Fashion;Ethnic;2017;4XL,NKHRKRTA00001260,M,NKHRKRTA00001261,XL,NKHRKRTA00001262,L,NKHRKRTA00001263,XXL,NKHRKRTA00001264,XXS,NKHRKRTA00001265,5XL,NKHRKRTA00001266,6XL,NKHRKRTA00001267,7XL,NKHRKRTA00001268,S,NKHRKRTA00001269,XS,NKHRKRTA00001270,8XL,NKHRKRTA00001271,3XL,NKHRKRTA00001272;2999.00;;;<p>100% Cotton Dry Clean Only</p>;;;na;;zerotype;;Winter;;No
2241133;NC1662XS-Blue-2241133;Kurtas;Draft;Kurtas;Nikhaar;Adults-Women;Women;Blue;;;Fashion;Ethnic;2017;4XL,NKHRKRTA00001247,XXS,NKHRKRTA00001248,3XL,NKHRKRTA00001249,S,NKHRKRTA00001250,5XL,NKHRKRTA00001251,7XL,NKHRKRTA00001252,M,NKHRKRTA00001253,6XL,NKHRKRTA00001254,L,NKHRKRTA00001255,8XL,NKHRKRTA00001256,XL,NKHRKRTA00001257,XXL,NKHRKRTA00001258,XS,NKHRKRTA00001259;2999.00;;;<p>100% Polyester Dry Clean Only</p>;;;na;;zerotype;;Winter;;No
2241131;NC15013XL-Pink-2241131;Kurtas;Draft;Kurtas;Nikhaar;Adults-Women;Women;Pink;;;Fashion;Ethnic;2017;M,NKHRKRTA00001234,S,NKHRKRTA00001235,5XL,NKHRKRTA00001236,8XL,NKHRKRTA00001237,XXL,NKHRKRTA00001238,7XL,NKHRKRTA00001239,XS,NKHRKRTA00001240,4XL,NKHRKRTA00001241,XL,NKHRKRTA00001242,L,NKHRKRTA00001243,6XL,NKHRKRTA00001244,XXS,NKHRKRTA00001245,3XL,NKHRKRTA00001246;2999.00;;;<p>100% Polyester Dry Clean Only</p>;;;na;;zerotype;;Winter;;No
