Style ID;Vendor Article Number;Vendor Article Name;Active Status;Article type;Brand;Age Group;Gender;Base Colour;Colour1;Colour2;Fashion Type;Usage;Year;Size - SKU code pair;MRP;Style Description;Style Note;Materials and Care Description;Size and Fit Description;Size Chart Path;Product Display Name;Tags;Product Type;Classification Brand;Season;Comments;Upload Images
2228905;16P2CH2E9348I-100-Black-2228905;United Colors of Benetton Full Sleeve Basic J;Draft;Jackets;United Colors of Benetton;Adults-Women;Women;Black;;;Fashion;;2017;46,UCFBJCKT00003091,44,UCFBJCKT00003092,42,UCFBJCKT00003093,40,UCFBJCKT00003094,38,UCFBJCKT00003095;2999.00;;<p>95% COTTON & 5% ELASTANE</p>;<p>Normal</p>;;;;;zerotype;;Winter;;No
2228902;16P2CH2E9348I-W13-Pink-2228902;United Colors of Benetton Full Sleeve Basic J;Draft;Jackets;United Colors of Benetton;Adults-Women;Women;Pink;;;Fashion;;2017;46,UCFBJCKT00003086,44,UCFBJCKT00003087,42,UCFBJCKT00003088,40,UCFBJCKT00003089,38,UCFBJCKT00003090;2999.00;;<p>95% COTTON & 5% ELASTANE</p>;<p>Normal</p>;;;;;zerotype;;Winter;;No
2228900;16A3NS8E9018I-902-Grey-2228900;United Colors of Benetton Printed Jacket;Draft;Jackets;United Colors of Benetton;Adults-Women;Women;Grey;;;Fashion;;2017;46,UCFBJCKT00003081,44,UCFBJCKT00003082,42,UCFBJCKT00003083,40,UCFBJCKT00003084,38,UCFBJCKT00003085;3599.00;;<p>100% POLYESTER</p>;<p>Normal</p>;;;;;zerotype;;Winter;;No
2228897;16A3EV2D9603I-902-Red-2228897;United Colors of Benetton Red & Black Striper;Draft;Jackets;United Colors of Benetton;Adults-Women;Women;Red;;;Fashion;;2017;46,UCFBJCKT00003076,44,UCFBJCKT00003077,42,UCFBJCKT00003078,40,UCFBJCKT00003079,38,UCFBJCKT00003080;3399.00;;<p>100% COTTON</p>;<p>Normal</p>;;;;;zerotype;;Winter;;No
2228894;16A3CH3E9669I-A19-Blue-2228894;United Colors of Benetton Jacket With Overlap;Draft;Jackets;United Colors of Benetton;Adults-Women;Women;Blue;;;Fashion;;2017;46,UCFBJCKT00003071,44,UCFBJCKT00003072,42,UCFBJCKT00003073,40,UCFBJCKT00003074,38,UCFBJCKT00003075;3099.00;;<p>100% POLYESTER</p>;<p>Normal</p>;;;;;zerotype;;Winter;;No
2228892;16A2TW9E969AI-901-Blue-2228892;United Colors of Benetton Jacket With Shawl C;Draft;Jackets;United Colors of Benetton;Adults-Women;Women;Blue;;;Fashion;;2017;46,UCFBJCKT00003066,44,UCFBJCKT00003067,42,UCFBJCKT00003068,40,UCFBJCKT00003069,38,UCFBJCKT00003070;4099.00;;<p>98% COTTON & 2% EALSATNE</p>;<p>Normal</p>;;;;;zerotype;;Winter;;No
2228888;16A2ST8E9019I-901-Black-2228888;United Colors of Benetton long Sleeve Biker L;Draft;Jackets;United Colors of Benetton;Adults-Women;Women;Black;;;Fashion;;2017;46,UCFBJCKT00003061,44,UCFBJCKT00003062,42,UCFBJCKT00003063,40,UCFBJCKT00003064,38,UCFBJCKT00003065;6099.00;;<p>100% PU</p>;<p>Normal</p>;;;;;zerotype;;Winter;;No
2228885;16A2SG6E9009I-A32-Maroon-2228885;United Colors of Benetton Bomber Jacket With;Draft;Jackets;United Colors of Benetton;Adults-Women;Women;Maroon;;;Fashion;;2017;46,UCFBJCKT00003056,44,UCFBJCKT00003057,42,UCFBJCKT00003058,40,UCFBJCKT00003059,38,UCFBJCKT00003060;5099.00;;<p>100% POLYESTER</p>;<p>Normal</p>;;;;;zerotype;;Winter;;No
2228883;16A2SG6D6605I-A19-Blue-2228883;United Colors of Benetton Quilted Jacket With;Draft;Jackets;United Colors of Benetton;Adults-Women;Women;Blue;;;Fashion;;2017;46,UCFBJCKT00003051,44,UCFBJCKT00003052,42,UCFBJCKT00003053,40,UCFBJCKT00003054,38,UCFBJCKT00003055;5099.00;;<p>100% POLYESTER</p>;<p>Normal</p>;;;;;zerotype;;Winter;;No
2228878;16A2SG5D6604I-902-Multi-2228878;United Colors of Benetton long Sleeve Printed;Draft;Jackets;United Colors of Benetton;Adults-Women;Women;Multi;;;Fashion;;2017;46,UCFBJCKT00003046,44,UCFBJCKT00003047,42,UCFBJCKT00003048,40,UCFBJCKT00003049,38,UCFBJCKT00003050;4599.00;;<p>100% POLYESTER</p>;<p>Normal</p>;;;;;zerotype;;Winter;;No
2228876;16A2SG1D6600I-A48-Blue-2228876;United Colors of Benetton Blue Puffer Jacket;Draft;Jackets;United Colors of Benetton;Adults-Women;Women;Blue;;;Fashion;;2017;46,UCFBJCKT00003041,44,UCFBJCKT00003042,42,UCFBJCKT00003043,40,UCFBJCKT00003044,38,UCFBJCKT00003045;4099.00;;<p>100% POLYESTER</p>;<p>Normal</p>;;;;;zerotype;;Winter;;No
2228872;16A2PL5E9697I-100-Black-2228872;United Colors of Benetton jacket With Shawl C;Draft;Jackets;United Colors of Benetton;Adults-Women;Women;Black;;;Fashion;;2017;46,UCFBJCKT00003036,44,UCFBJCKT00003037,42,UCFBJCKT00003038,40,UCFBJCKT00003039,38,UCFBJCKT00003040;3599.00;;<p>100% POLYESTER</p>;<p>Normal</p>;;;;;zerotype;;Winter;;No
2228868;16A2PL5E9697I-A22-Teal-2228868;United Colors of Benetton Jacket With Shawl C;Draft;Jackets;United Colors of Benetton;Adults-Women;Women;Teal;;;Fashion;;2017;46,UCFBJCKT00003031,44,UCFBJCKT00003032,42,UCFBJCKT00003033,40,UCFBJCKT00003034,38,UCFBJCKT00003035;3599.00;;<p>100% POLYESTER</p>;<p>Normal</p>;;;;;zerotype;;Winter;;No
2228867;16A2NY3E9016I-901-Blue-2228867;United Colors of Benetton long Sleeve Jacket;Draft;Jackets;United Colors of Benetton;Adults-Women;Women;Blue;;;Fashion;;2017;46,UCFBJCKT00003026,44,UCFBJCKT00003027,42,UCFBJCKT00003028,40,UCFBJCKT00003029,38,UCFBJCKT00003030;5099.00;;<p>100% POLYESTER</p>;<p>Normal</p>;;;;;zerotype;;Winter;;No
2228860;16A2GS1D6609I-A16-Maroon-2228860;United Colors of Benetton Quilted Jacket;Draft;Jackets;United Colors of Benetton;Adults-Women;Women;Maroon;;;Fashion;;2017;46,UCFBJCKT00003021,44,UCFBJCKT00003022,42,UCFBJCKT00003023,40,UCFBJCKT00003024,38,UCFBJCKT00003025;4399.00;;<p>100% POLYESTER</p>;<p>Normal</p>;;;;;zerotype;;Winter;;No
2228859;16A2CP3E970AI-901-Blue-2228859;United Colors of Benetton Blue Jacket With Al;Draft;Jackets;United Colors of Benetton;Adults-Women;Women;Blue;;;Fashion;;2017;46,UCFBJCKT00003016,44,UCFBJCKT00003017,42,UCFBJCKT00003018,40,UCFBJCKT00003019,38,UCFBJCKT00003020;3399.00;;<p>100% COTTON</p>;<p>Normal</p>;;;;;zerotype;;Winter;;No
2228857;16A1092D9278I-A32-Maroon-2228857;United Colors of Benetton tricot Jacket;Draft;Jackets;United Colors of Benetton;Adults-Women;Women;Maroon;;;Fashion;;2017;XS,UCFBJCKT00003011,XL,UCFBJCKT00003012,S,UCFBJCKT00003013,M,UCFBJCKT00003014,L,UCFBJCKT00003015;3099.00;;<p>100% COTTON</p>;<p>Normal</p>;;;;;zerotype;;Winter;;No
