Style ID;Vendor Article Number;Vendor Article Name;Active Status;Article type;Brand;Age Group;Gender;Base Colour;Colour1;Colour2;Fashion Type;Usage;Year;Size - SKU code pair;MRP;Style Description;Style Note;Materials and Care Description;Size and Fit Description;Size Chart Path;Product Display Name;Tags;Product Type;Classification Brand;Season;Comments;Upload Images
4439129;LYP5069MOONDUST-Blue-4439129;Denim Blue Jeans;Draft;Jeans;Westwood;Adults-Women;Women;Blue;;;Core;Formal;2018;28,WSWDJENS00000214,30,WSWDJENS00000215,32,WSWDJENS00000216,34,WSWDJENS00000217,36,WSWDJENS00000218,38,WSWDJENS00000219,40,WSWDJENS00000220,42,WSWDJENS00000221;1649.00;<p>Denim Blue Jeans</p>;;<p>80% Cotton,20% Lycra</p>;;;Westwood Denim Blue Jeans;;zerotype;;Summer;;No
4439128;LYP5069CLASSIC-Blue-4439128;Denim Blue Jeans;Draft;Jeans;Westwood;Adults-Women;Women;Blue;;;Core;Formal;2018;28,WSWDJENS00000206,30,WSWDJENS00000207,32,WSWDJENS00000208,34,WSWDJENS00000209,36,WSWDJENS00000210,38,WSWDJENS00000211,40,WSWDJENS00000212,42,WSWDJENS00000213;1649.00;<p>Denim Blue Jeans</p>;;<p>80% Cotton,20% Lycra</p>;;;Westwood Denim Blue Jeans;;zerotype;;Summer;;No
4439127;LYP5069SLATE-Blue-4439127;Denim Blue Jeans;Draft;Jeans;Westwood;Adults-Women;Women;Blue;;;Core;Formal;2018;42,WSWDJENS00000198,28,WSWDJENS00000199,30,WSWDJENS00000200,32,WSWDJENS00000201,34,WSWDJENS00000202,36,WSWDJENS00000203,38,WSWDJENS00000204,40,WSWDJENS00000205;1649.00;<p>Denim Blue Jeans</p>;;<p>80% Cotton,20% Lycra</p>;;;Westwood Denim Blue Jeans;;zerotype;;Summer;;No
4439126;LYP5069AZUL-Blue-4439126;Denim Blue Jeans;Draft;Jeans;Westwood;Adults-Women;Women;Blue;;;Core;Formal;2018;28,WSWDJENS00000190,30,WSWDJENS00000191,32,WSWDJENS00000192,34,WSWDJENS00000193,36,WSWDJENS00000194,38,WSWDJENS00000195,40,WSWDJENS00000196,42,WSWDJENS00000197;1649.00;<p>Denim Blue Jeans</p>;;<p>80% Cotton,20% Lycra</p>;;;Westwood Denim Blue Jeans;;zerotype;;Summer;;No
4439125;HYNELLY001FAWN-Beige-4439125;Fawn Viscose Jeggings;Draft;Jeggings;Westwood;Adults-Women;Women;Beige;;;Fashion;Party;2018;34,WSWDJGNG00006046,36,WSWDJGNG00006047,28,WSWDJGNG00006048,30,WSWDJGNG00006049,32,WSWDJGNG00006050,40,WSWDJGNG00006051,38,WSWDJGNG00006052;1799.00;<p>Fawn Viscose Jeggings</p>;;<p>80%Poly,20% Lycra</p>;;;Westwood Fawn Viscose Jeggings;;zerotype;;Summer;;No
4439124;HYCO04BLACK-Black-4439124;Black Cotton Jeggings;Draft;Jeggings;Westwood;Adults-Women;Women;Black;;;Fashion;Party;2018;30,WSWDJGNG00006041,32,WSWDJGNG00006042,34,WSWDJGNG00006043,36,WSWDJGNG00006044,28,WSWDJGNG00006045;2089.00;<p>Black Cotton Jeggings</p>;;<p>80% Cotton,19% Lycra,1% Leather</p>;;;Westwood Black Cotton Jeggings;;zerotype;;Summer;;No
4439123;LYTGT047AZUL-Blue-4439123;Denim Blue Jeggings;Draft;Jeggings;Westwood;Adults-Women;Women;Blue;;;Core;Party;2018;28,WSWDJGNG00006033,38,WSWDJGNG00006034,36,WSWDJGNG00006035,40,WSWDJGNG00006036,42,WSWDJGNG00006037,32,WSWDJGNG00006038,30,WSWDJGNG00006039,34,WSWDJGNG00006040;1649.00;<p>Denim Blue Jeggings</p>;;<p>80% Cotton,20% Lycra</p>;;;Westwood Denim Blue Jeggings;;zerotype;;Summer;;No
4439122;HYCO04NAVY-Navy Blue-4439122;Navy Blue Cotton Jeggings;Draft;Jeggings;Westwood;Adults-Women;Women;Navy Blue;;;Fashion;Party;2018;32,WSWDJGNG00006028,34,WSWDJGNG00006029,36,WSWDJGNG00006030,28,WSWDJGNG00006031,30,WSWDJGNG00006032;2089.00;<p>Navy Blue Cotton Jeggings</p>;;<p>80% Cotton,19% Lycra,1% Leather</p>;;;Westwood Navy Blue Cotton Jeggings;;zerotype;;Summer;;No
