Style ID;Vendor Article Number;Vendor Article Name;Active Status;Article type;Brand;Age Group;Gender;Base Colour;Colour1;Colour2;Fashion Type;Usage;Year;Size - SKU code pair;MRP;Style Description;Style Note;Materials and Care Description;Size and Fit Description;Size Chart Path;Product Display Name;Tags;Product Type;Classification Brand;Season;Comments;Upload Images
2461605;V-002340-Multi Multi Multi-2461605;Short Sleeve T-Shirts Five Pack (3-16yrs);Draft;Tshirts;next;Kids-Girls;Girls;Multi;Multi;Multi;Fashion;Casual;2018;3Y,NEXTTSHT00012801,4Y,NEXTTSHT00012802,5Y,NEXTTSHT00012803,6Y,NEXTTSHT00012804,7Y,NEXTTSHT00012805,8Y,NEXTTSHT00012806,9Y,NEXTTSHT00012807,10Y,NEXTTSHT00012808,11Y,NEXTTSHT00012809,12Y,NEXTTSHT00012810,13Y,NEXTTSHT00012811,14Y,NEXTTSHT00012812,15Y,NEXTTSHT00012813,16Y,NEXTTSHT00012814;1900.00;;;;;;next Kids Multicolored Pack of 5 Tshirts;next,JIT;zerotype;;Winter;;No
2461603;V-002340-Multi Multi Multi-2461603;Scribble Dinosaur Long Sleeve T-Shirts Three Pack (3mths-6yrs);Draft;Tshirts;next;Kids-Boys;Boys;Multi;Multi;Multi;Fashion;Smart Casual;2018;3-6M,NEXTTSHT00012792,6-9M,NEXTTSHT00012793,9-12M,NEXTTSHT00012794,12-18M,NEXTTSHT00012795,1.5-2Y,NEXTTSHT00012796,2-3Y,NEXTTSHT00012797,3-4Y,NEXTTSHT00012798,4-5Y,NEXTTSHT00012799,5-6Y,NEXTTSHT00012800;1250.00;;;;;;next Kids Multicolored Pack of 3 Tshirts;next,JIT;zerotype;;Winter;;No
2461602;V-002340-Charcoal Purple-2461602;Short Sleeve T-Shirts Three Pack (3-16yrs);Draft;Tshirts;next;Kids-Girls;Girls;Charcoal;Purple;;Fashion;Casual;2018;3Y,NEXTTSHT00012778,4Y,NEXTTSHT00012779,5Y,NEXTTSHT00012780,6Y,NEXTTSHT00012781,7Y,NEXTTSHT00012782,8Y,NEXTTSHT00012783,9Y,NEXTTSHT00012784,10Y,NEXTTSHT00012785,11Y,NEXTTSHT00012786,12Y,NEXTTSHT00012787,13Y,NEXTTSHT00012788,14Y,NEXTTSHT00012789,15Y,NEXTTSHT00012790,16Y,NEXTTSHT00012791;1700.00;;;;;;next Kids Charcoal Grey T-shirt;next,JIT;zerotype;;Winter;;No
2461601;V-002340-Pink-2461601;Graphic T-Shirt (3-16yrs);Draft;Tshirts;next;Kids-Girls;Girls;Pink;;;Fashion;Casual;2018;3Y,NEXTTSHT00012764,4Y,NEXTTSHT00012765,5Y,NEXTTSHT00012766,6Y,NEXTTSHT00012767,7Y,NEXTTSHT00012768,8Y,NEXTTSHT00012769,9Y,NEXTTSHT00012770,10Y,NEXTTSHT00012771,11Y,NEXTTSHT00012772,12Y,NEXTTSHT00012773,13Y,NEXTTSHT00012774,14Y,NEXTTSHT00012775,15Y,NEXTTSHT00012776,16Y,NEXTTSHT00012777;400.00;;;;;;next Kids Pink T-shirt;next,JIT;zerotype;;Winter;;No
2461600;V-002340-Pink Multi-2461600;T-Shirts Five Pack (3mths-6yrs);Draft;Tshirts;next;Kids-Girls;Girls;Pink;Multi;;Fashion;Casual;2018;3-6M,NEXTTSHT00012755,6-9M,NEXTTSHT00012756,9-12M,NEXTTSHT00012757,12-18M,NEXTTSHT00012758,1.5-2Y,NEXTTSHT00012759,2-3Y,NEXTTSHT00012760,3-4Y,NEXTTSHT00012761,4-5Y,NEXTTSHT00012762,5-6Y,NEXTTSHT00012763;1800.00;;;;;;next Kids Pink T-Shirts;next,JIT;zerotype;;Winter;;No
2461599;V-002340-Grey Grey Grey-2461599;Best Big Sis Long Sleeve T-Shirt (9mths-6yrs);Draft;Tshirts;next;Kids-Girls;Girls;Grey;Grey;Grey;Fashion;Casual;2018;9-12M,NEXTTSHT00012748,12-18M,NEXTTSHT00012749,1.5-2Y,NEXTTSHT00012750,2-3Y,NEXTTSHT00012751,3-4Y,NEXTTSHT00012752,4-5Y,NEXTTSHT00012753,5-6Y,NEXTTSHT00012754;650.00;;;;;;next kids grey t-shirt;next,JIT;zerotype;;Winter;;No
2461598;V-002340-Blue Black White-2461598;Linear Space Long Sleeve T-Shirts Four Pack (3mths-6yrs);Draft;Tshirts;next;Kids-Boys;Boys;Blue;Black;White;Fashion;Casual;2018;3-6M,NEXTTSHT00012739,6-9M,NEXTTSHT00012740,9-12M,NEXTTSHT00012741,12-18M,NEXTTSHT00012742,1.5-2Y,NEXTTSHT00012743,2-3Y,NEXTTSHT00012744,3-4Y,NEXTTSHT00012745,4-5Y,NEXTTSHT00012746,5-6Y,NEXTTSHT00012747;1450.00;;;;;;next kids pack of four t-shirts;next,JIT;zerotype;;Winter;;No
2461597;V-002340-White Multi-2461597;Curved Back T-Shirts Four Pack (3-16yrs);Draft;Tshirts;next;Kids-Boys;Boys;White;Multi;;Fashion;Casual;2018;3Y,NEXTTSHT00012725,4Y,NEXTTSHT00012726,5Y,NEXTTSHT00012727,6Y,NEXTTSHT00012728,7Y,NEXTTSHT00012729,8Y,NEXTTSHT00012730,9Y,NEXTTSHT00012731,10Y,NEXTTSHT00012732,11Y,NEXTTSHT00012733,12Y,NEXTTSHT00012734,13Y,NEXTTSHT00012735,14Y,NEXTTSHT00012736,15Y,NEXTTSHT00012737,16Y,NEXTTSHT00012738;1250.00;;;;;;next Kids White T-shirt;next,JIT;zerotype;;Winter;;No
2461590;V-002340-Cream Black-2461590;Lace Blouse (3-16yrs);Draft;Tshirts;next;Kids-Girls;Girls;Cream;Black;;Fashion;Casual;2018;3Y,NEXTTSHT00012711,4Y,NEXTTSHT00012712,5Y,NEXTTSHT00012713,6Y,NEXTTSHT00012714,7Y,NEXTTSHT00012715,8Y,NEXTTSHT00012716,9Y,NEXTTSHT00012717,10Y,NEXTTSHT00012718,11Y,NEXTTSHT00012719,12Y,NEXTTSHT00012720,13Y,NEXTTSHT00012721,14Y,NEXTTSHT00012722,15Y,NEXTTSHT00012723,16Y,NEXTTSHT00012724;1050.00;;;;;;next/Kids/Cream/T shirt;next,JIT;zerotype;;Winter;;No
2461588;V-002340-Navy Blue-2461588;Long Sleeve Top (3mths-6yrs);Draft;Tshirts;next;Kids-Boys;Boys;Navy Blue;;;Fashion;Casual;2018;3-6M,NEXTTSHT00012702,6-9M,NEXTTSHT00012703,9-12M,NEXTTSHT00012704,12-18M,NEXTTSHT00012705,1.5-2Y,NEXTTSHT00012706,2-3Y,NEXTTSHT00012707,3-4Y,NEXTTSHT00012708,4-5Y,NEXTTSHT00012709,5-6Y,NEXTTSHT00012710;650.00;;;;;;next/Kids/Blue/T shirt;next,JIT;zerotype;;Winter;;No
2461587;V-002340-Blue Blue Blue-2461587;Short Sleeve Animal Embroidered Polo (3mths-6yrs);Draft;Tshirts;next;Kids-Boys;Boys;Blue;Blue;Blue;Fashion;Casual;2018;3-6M,NEXTTSHT00012694,6-9M,NEXTTSHT00012695,9-12M,NEXTTSHT00012696,12-18M,NEXTTSHT00012697,1.5-2Y,NEXTTSHT00012698,2-3Y,NEXTTSHT00012699,3-4Y,NEXTTSHT00012700,4-5Y,NEXTTSHT00012701;950.00;;;;;;next kids blue t-shirt;next,JIT;zerotype;;Winter;;No
2461586;V-002340-White-2461586;Short Sleeve Animal Embroidered Polo (3mths-6yrs);Draft;Tshirts;next;Kids-Boys;Boys;White;;;Fashion;Casual;2018;3-6M,NEXTTSHT00012685,6-9M,NEXTTSHT00012686,9-12M,NEXTTSHT00012687,12-18M,NEXTTSHT00012688,1.5-2Y,NEXTTSHT00012689,2-3Y,NEXTTSHT00012690,3-4Y,NEXTTSHT00012691,4-5Y,NEXTTSHT00012692,5-6Y,NEXTTSHT00012693;950.00;;;;;;next Kids White T-shirt;next,JIT;zerotype;;Winter;;No
2461583;V-002340-White-2461583;Graphic Short Sleeve T-Shirt (3-16yrs);Draft;Tshirts;next;Kids-Girls;Girls;White;;;Fashion;Casual;2018;3Y,NEXTTSHT00012671,4Y,NEXTTSHT00012672,5Y,NEXTTSHT00012673,6Y,NEXTTSHT00012674,7Y,NEXTTSHT00012675,8Y,NEXTTSHT00012676,9Y,NEXTTSHT00012677,10Y,NEXTTSHT00012678,11Y,NEXTTSHT00012679,12Y,NEXTTSHT00012680,13Y,NEXTTSHT00012681,14Y,NEXTTSHT00012682,15Y,NEXTTSHT00012683,16Y,NEXTTSHT00012684;750.00;;;;;;next Kids White T-shirt;next,JIT;zerotype;;Winter;;No
2461573;V-002340-Fluorescent Green Fluorescent Green Fluorescent Green-2461573;Tie Dye T-Shirt (3-16yrs);Draft;Tshirts;next;Kids-Boys;Boys;Fluorescent Green;Fluorescent Green;Fluorescent Green;Fashion;Casual;2018;3Y,NEXTTSHT00012657,4Y,NEXTTSHT00012658,5Y,NEXTTSHT00012659,6Y,NEXTTSHT00012660,7Y,NEXTTSHT00012661,8Y,NEXTTSHT00012662,9Y,NEXTTSHT00012663,10Y,NEXTTSHT00012664,11Y,NEXTTSHT00012665,12Y,NEXTTSHT00012666,13Y,NEXTTSHT00012667,14Y,NEXTTSHT00012668,15Y,NEXTTSHT00012669,16Y,NEXTTSHT00012670;750.00;;;;;;next kids flourescent green t-shirt;next,JIT;zerotype;;Winter;;No
2461562;V-002340-Olive Olive Green-2461562;Long Sleeve Reversible T-Shirt (3mths-6yrs);Draft;Tshirts;next;Kids-Boys;Boys;Olive;Olive;Green;Fashion;Casual;2018;3-6M,NEXTTSHT00012648,6-9M,NEXTTSHT00012649,9-12M,NEXTTSHT00012650,12-18M,NEXTTSHT00012651,1.5-2Y,NEXTTSHT00012652,2-3Y,NEXTTSHT00012653,3-4Y,NEXTTSHT00012654,4-5Y,NEXTTSHT00012655,5-6Y,NEXTTSHT00012656;950.00;;;;;;next kids olive t-shirt;next,JIT;zerotype;;Winter;;No
2461545;V-002340-White-2461545;Tie Side Short Sleeve T-Shirt (3-16yrs);Draft;Tshirts;next;Kids-Girls;Girls;White;;;Fashion;Casual;2018;7Y,NEXTTSHT00012638,8Y,NEXTTSHT00012639,9Y,NEXTTSHT00012640,10Y,NEXTTSHT00012641,11Y,NEXTTSHT00012642,12Y,NEXTTSHT00012643,13Y,NEXTTSHT00012644,14Y,NEXTTSHT00012645,15Y,NEXTTSHT00012646,16Y,NEXTTSHT00012647;1050.00;;;;;;next Kids White T-shirt;next,JIT;zerotype;;Winter;;No
