Style ID;Vendor Article Number;Vendor Article Name;Active Status;Article type;Brand;Age Group;Gender;Base Colour;Colour1;Colour2;Fashion Type;Usage;Year;Size - SKU code pair;MRP;Style Description;Style Note;Materials and Care Description;Size and Fit Description;Size Chart Path;Product Display Name;Tags;Product Type;Classification Brand;Season;Comments;Upload Images
2075720;PT0068-Blue-2075720;Blue Terry Slim fit Trouser;Draft;Trousers;SUITLTD;Adults-Men;Men;Blue;;;Fashion;Formal;2017;30,SUTDTRSR00000579,32,SUTDTRSR00000580,34,SUTDTRSR00000581,36,SUTDTRSR00000582;2095.00;;;<p>75% Terry 25% Rayon</p>;;;Blue Terry Slim fit Trouser;;zerotype;;Winter;;No
2075718;PT0066-Grey-2075718;Grey Plain Slim fit Trouser;Draft;Trousers;SUITLTD;Adults-Men;Men;Grey;;;Fashion;Formal;2017;30,SUTDTRSR00000573,32,SUTDTRSR00000574,34,SUTDTRSR00000575,36,SUTDTRSR00000576,38,SUTDTRSR00000577,40,SUTDTRSR00000578;1595.00;;;<p>80% Polyester 20% Viscose</p>;;;Grey Plain Slim fit Trouser;;zerotype;;Winter;;No
2075716;PT0065-Grey-2075716;Grey Classy Slim fit Trouser;Draft;Trousers;SUITLTD;Adults-Men;Men;Grey;;;Fashion;Formal;2017;30,SUTDTRSR00000569,32,SUTDTRSR00000570,34,SUTDTRSR00000571,36,SUTDTRSR00000572;1695.00;;;<p>70% Polyester 30% Viscose</p>;;;Grey Classy Slim fit Trouser;;zerotype;;Winter;;No
2075714;PT0064-Black-2075714;Black Herringbone Slim fit Trouser;Draft;Trousers;SUITLTD;Adults-Men;Men;Black;;;Fashion;Formal;2017;30,SUTDTRSR00000564,32,SUTDTRSR00000565,34,SUTDTRSR00000566,36,SUTDTRSR00000567,40,SUTDTRSR00000568;1695.00;;;<p>77% Polyester 23% Viscose</p>;;;Black Herringbone Slim fit Trouser;;zerotype;;Winter;;No
2075706;PT0063-Grey-2075706;Grey Slim fit Trouser;Draft;Trousers;SUITLTD;Adults-Men;Men;Grey;;;Fashion;Formal;2017;30,SUTDTRSR00000558,32,SUTDTRSR00000559,34,SUTDTRSR00000560,36,SUTDTRSR00000561,38,SUTDTRSR00000562,40,SUTDTRSR00000563;1695.00;;;<p>77% Polyester 23% Viscose</p>;;;Grey Slim fit Trouser;;zerotype;;Winter;;No
2075704;PT0061-Black-2075704;Black Stretchable Slim fit Trouser;Draft;Trousers;SUITLTD;Adults-Men;Men;Black;;;Fashion;Formal;2017;32,SUTDTRSR00000554,34,SUTDTRSR00000555,36,SUTDTRSR00000556,38,SUTDTRSR00000557;2495.00;;;<p>47% Poly 47% Modal 6% Lycra</p>;;;Black Stretchable Slim fit Trouser;;zerotype;;Winter;;No
2075703;PT0056-Grey-2075703;Grey Slim fit Men's Trouser;Draft;Trousers;SUITLTD;Adults-Men;Men;Grey;;;Fashion;Formal;2017;30,SUTDTRSR00000551,32,SUTDTRSR00000552,34,SUTDTRSR00000553;1695.00;;;<p>70% Polyester 30% Viscose</p>;;;Grey Slim fit Men's Trouser;;zerotype;;Winter;;No
2075702;VT0046-Brown-2075702;Brown Suede Slim fit Waistcoat;Draft;Waistcoat;SUITLTD;Adults-Men;Men;Brown;;;Fashion;Party;2017;38,SUTDWACO00000182,40,SUTDWACO00000183,42,SUTDWACO00000184,44,SUTDWACO00000185;3995.00;;<p>Walk in at the next party with an unmatched aura and confidence in this suede waistcoat. This  waistcoat is made for men who command supremacy.</p>;<p>100% Polyester</p>;<p>Slim Fit</p>;;Brown Suede Slim fit Waistcoat;;zerotype;;Winter;;No
2075651;37732-0023-Blue/Blue/Blue-2075651;Men's FK Mid-Cut;Draft;Socks;Levis;Adults-Men;Men;Blue;Blue;Blue;Fashion;Casual;2017;Foot Size,LEVISCKS00000155;469.00;;;<p>79% Cotton, 18% Polyester, 2% Nylon, 1% Spandex</p>;;;;;zerotype;;Fall;;No
2075649;37732-0022-Blue/Black/Grey-2075649;Men's FK Mid-Cut;Draft;Socks;Levis;Adults-Men;Men;Blue;Black;Grey;Fashion;Casual;2017;Foot Size,LEVISCKS00000154;469.00;;;<p>80% Cotton, 17 % Polyester, 2 % Nylon, 1 % Spandex</p>;;;;;zerotype;;Fall;;No
2075647;37732-0017-Black/Charcoal/Navy-2075647;Men' HC Mid-Cut;Draft;Socks;Levis;Adults-Men;Men;Black;Charcoal;Navy Blue;Fashion;Casual;2017;Foot Size,LEVISCKS00000153;499.00;;;<p>59% Cotton/ 37% Polyester, 3 % Nylon, 1% Spandex</p>;;;;;zerotype;;Fall;;No
2075645;37526-0013-Grey/White/Black-2075645;Men's FC Crew;Draft;Socks;Levis;Adults-Men;Men;Grey;White;Black;Fashion;Casual;2017;Foot Size,LEVISCKS00000152;529.00;;;<p>67% Cotton, 26% Polyester, 5% Nylon, 2% Elastane</p>;;;;;zerotype;;Fall;;No
2075643;37733-0006-Black-2075643;Men's FK  No Show;Draft;Socks;Levis;Adults-Men;Men;Black;Black;Black;Fashion;Casual;2017;Foot Size,LEVISCKS00000151;489.00;;;<p>84% Cotton, 13% Polyester, 1 % Nylon, 2 % Spandex</p>;;;;;zerotype;;Fall;;No
2075641;37732-0010-Black/White/Grey-2075641;Men's FC Mid-cut;Draft;Socks;Levis;Adults-Men;Men;Black;White;Grey;Fashion;Casual;2017;Foot Size,LEVISCKS00000150;499.00;;;<p>87% Cotton, 11% Polyester, 1% Nylon, 1% Elastane</p>;;;;;zerotype;;Fall;;No
2075639;37732-0005-Navy Blue/Grey/Black-2075639;Men's FK Mid-Cut;Draft;Socks;Levis;Adults-Men;Men;Black;Grey;Navy Blue;Fashion;Casual;2017;Foot Size,LEVISCKS00000149;459.00;;;<p>75% Cotton, 16% Polyester, 8% Nylon, 1 % Elastane</p>;;;;;zerotype;;Fall;;No
2075636;37732-0012-Grey/Black/White-2075636;Men's HC Mid-Cut;Draft;Socks;Levis;Adults-Men;Men;Black;White;Grey;Fashion;Casual;2017;Foot Size,LEVISCKS00000148;499.00;;;<p>59% Cotton/ 37% Polyester, 3 % Nylon, 1% Spandex</p>;;;;;zerotype;;Fall;;No
2075635;37526-0004-Charcoal/Black/Navy Blue-2075635;Men's FC Crew;Draft;Socks;Levis;Adults-Men;Men;Black;Charcoal;Navy Blue;Fashion;Casual;2017;Foot Size,LEVISCKS00000147;529.00;;;<p>67% Cotton, 26% Polyester, 5% Nylon, 2% Elastane</p>;;;;;zerotype;;Fall;;No
2075632;37732-0011-White/Navy Blue/Charcoal-2075632;Men's FC Mid-cut;Draft;Socks;Levis;Adults-Men;Men;Navy Blue;White;Charcoal;Fashion;Casual;2017;Foot Size,LEVISCKS00000146;499.00;;;<p>87% Cotton, 11% Polyester, 1% Nylon, 1% Elastane</p>;;;;;zerotype;;Fall;;No
2075630;37732-0021-Black/Magenta/Navy Blue-2075630;Men's FK Mid-cut;Draft;Socks;Levis;Adults-Men;Men;Black;Magenta;Navy Blue;Fashion;Casual;2017;Foot Size,LEVISCKS00000145;469.00;;;<p>80% Cotton, 17% Polyester, 2% Nylon, 1% Spandex</p>;;;;;zerotype;;Fall;;No
2075629;37732-0024-Black/Green/Blue-2075629;Men' HC Mid-Cut;Draft;Socks;Levis;Adults-Men;Men;Blue;Green;Black;Fashion;Casual;2017;Foot Size,LEVISCKS00000144;499.00;;;<p>85 % Cotton, 12 % Polyester, 2 % Nylon, 1 % Spandex</p>;;;;;zerotype;;Fall;;No
2075627;37730-0005-Navy/White/Black-2075627;Men's FK Low Cut;Draft;Socks;Levis;Adults-Men;Men;Black;White;Navy Blue;Fashion;Casual;2017;Foot Size,LEVISCKS00000143;399.00;;;<p>78 % Cotton, 18 % Polyester, 3% Nylon, 1% Spandex</p>;;;;;zerotype;;Fall;;No
2075624;37526-0003-Navy/Charcoal/Black-2075624;Men's FK Crew;Draft;Socks;Levis;Adults-Men;Men;Navy Blue;Charcoal;Black;Fashion;Casual;2017;Foot Size,LEVISCKS00000142;509.00;;;<p>76% Cotton, 17% Polyester, 6% Nylon, 1% Elastane</p>;;;;;zerotype;;Fall;;No
2075622;37732-0018-White/Charcoal/Black-2075622;Men's FK Mid-Cut;Draft;Socks;Levis;Adults-Men;Men;Black;White;Charcoal;Fashion;Casual;2017;Foot Size,LEVISCKS00000141;459.00;;;<p>75% Cotton, 16% Polyester, 8%Nylon, 1% Elastane</p>;;;;;zerotype;;Fall;;No
2075620;37730-0011-Grey/Navy/Black-2075620;Men's HC Low-cut;Draft;Socks;Levis;Adults-Men;Men;Grey;Navy Blue;Black;Fashion;Casual;2017;Foot Size,LEVISCKS00000140;429.00;;;<p>75% Cotton, 21% Polyester, 3% Nylon, 1% Elastane</p>;;;;;zerotype;;Fall;;No
2075618;37730-0010-Grey/Navy/Black-2075618;Men's HC Low-cut;Draft;Socks;Levis;Adults-Men;Men;Grey;Navy Blue;Black;Fashion;Casual;2017;Foot Size,LEVISCKS00000139;429.00;;;<p>62% Cotton, 26 % Polyester, 11% Nylon, 1 % Spandex</p>;;;;;zerotype;;Fall;;No
