Style ID;Vendor Article Number;Vendor Article Name;Active Status;Article type;Brand;Age Group;Gender;Base Colour;Colour1;Colour2;Fashion Type;Usage;Year;Size - SKU code pair;MRP;Style Description;Style Note;Materials and Care Description;Size and Fit Description;Size Chart Path;Product Display Name;Tags;Product Type;Classification Brand;Season;Comments;Upload Images
2161701;116523DRSB-Blue-2161701;MARTHA JEGGING;Draft;Jeggings;Kazo;Adults-Women;Women;Blue;;;Fashion;;2017;XS,KAZOJGNG00000210,S,KAZOJGNG00000211,M,KAZOJGNG00000212,L,KAZOJGNG00000213,XL,KAZOJGNG00000214;1690.00;<p>Faux Pocket Jegging</p>;;<p>Machine Wash</p>;;;;;zerotype;;Summer;;No
2161700;116484GLCRG-Grey-2161700;Iris Bomber;Draft;Jackets;Kazo;Adults-Women;Women;Grey;;;Fashion;;2017;XS,KAZOJCKT00000209,S,KAZOJCKT00000210,M,KAZOJCKT00000211,L,KAZOJCKT00000212,XL,KAZOJCKT00000213;2490.00;;;<p>Handwash</p>;;;;;zerotype;;Summer;;No
2161699;116480GRN-Green-2161699;Vernia Jacket;Draft;Jackets;Kazo;Adults-Women;Women;Green;;;Fashion;;2017;XS,KAZOJCKT00000204,S,KAZOJCKT00000205,M,KAZOJCKT00000206,L,KAZOJCKT00000207,XL,KAZOJCKT00000208;3990.00;;;<p>Dry clean</p>;;;;;zerotype;;Summer;;No
2161698;116479BLACK-Black-2161698;Derina Bomber;Draft;Jackets;Kazo;Adults-Women;Women;Black;;;Fashion;;2017;XS,KAZOJCKT00000199,S,KAZOJCKT00000200,M,KAZOJCKT00000201,L,KAZOJCKT00000202,XL,KAZOJCKT00000203;3490.00;;;<p>Handwash</p>;;;;;zerotype;;Summer;;No
2161696;116473BLACK-Black-2161696;Ella Bomber;Draft;Jackets;Kazo;Adults-Women;Women;Black;;;Fashion;;2017;XS,KAZOJCKT00000194,S,KAZOJCKT00000195,M,KAZOJCKT00000196,L,KAZOJCKT00000197,XL,KAZOJCKT00000198;2990.00;;;<p>Handwash</p>;;;;;zerotype;;Summer;;No
2161691;116511BLACK-Black-2161691;ALISIE DRESS;Draft;Dresses;Kazo;Adults-Women;Women;Black;;;Fashion;;2017;XS,KAZODRSS00001887,S,KAZODRSS00001888,M,KAZODRSS00001889,L,KAZODRSS00001890,XL,KAZODRSS00001891;2990.00;<p>Mini dress with flared sleeves and neck patch</p>;;<p>Handwash</p>;;;;;zerotype;;Summer;;No
2161686;116509BLACK-Black-2161686;JULIA DRESS;Draft;Dresses;Kazo;Adults-Women;Women;Black;;;Fashion;;2017;XS,KAZODRSS00001882,S,KAZODRSS00001883,M,KAZODRSS00001884,L,KAZODRSS00001885,XL,KAZODRSS00001886;3490.00;<p>Foil Print Skater Dress</p>;;<p>Handwash</p>;;;;;zerotype;;Summer;;No
2161680;116506PCHBG-Pink-2161680;JOANA DRESS;Draft;Dresses;Kazo;Adults-Women;Women;Pink;;;Fashion;;2017;XS,KAZODRSS00001877,S,KAZODRSS00001878,M,KAZODRSS00001879,L,KAZODRSS00001880,XL,KAZODRSS00001881;4990.00;<p>One Shoulder Embellished Dress</p>;;<p>DRYCLEAN</p>;;;;;zerotype;;Summer;;No
2161671;116503BLACK-Black-2161671;LASHES DRESS;Draft;Dresses;Kazo;Adults-Women;Women;Black;;;Fashion;;2017;XS,KAZODRSS00001872,S,KAZODRSS00001873,M,KAZODRSS00001874,L,KAZODRSS00001875,XL,KAZODRSS00001876;2490.00;<p>Off shoulder dress with flared sleeves</p>;;<p>Handwash</p>;;;;;zerotype;;Summer;;No
2161659;116493BLACK-Black-2161659;AMANDA DRESS;Draft;Dresses;Kazo;Adults-Women;Women;Black;;;Fashion;;2017;XS,KAZODRSS00001867,S,KAZODRSS00001868,M,KAZODRSS00001869,L,KAZODRSS00001870,XL,KAZODRSS00001871;2990.00;<p>Wrap Dress with Tie-Up</p>;;<p>Handwash</p>;;;;;zerotype;;Summer;;No
2161648;116487BLACK-Black-2161648;MONICA DRESS;Draft;Dresses;Kazo;Adults-Women;Women;Black;;;Fashion;;2017;XS,KAZODRSS00001862,S,KAZODRSS00001863,M,KAZODRSS00001864,L,KAZODRSS00001865,XL,KAZODRSS00001866;3490.00;<p>Embellished neckband maxi dress</p>;;<p>Handwash</p>;;;;;zerotype;;Summer;;No
2161641;116486PCHBG-Pink-2161641;SCARLET DRESS;Draft;Dresses;Kazo;Adults-Women;Women;Pink;;;Fashion;;2017;XS,KAZODRSS00001857,S,KAZODRSS00001858,M,KAZODRSS00001859,L,KAZODRSS00001860,XL,KAZODRSS00001861;3490.00;<p>Cold shoulder lace dress</p>;;<p>Handwash</p>;;;;;zerotype;;Summer;;No
2161635;116475BLACK-Black-2161635;Bella Top;Draft;Tops;Kazo;Adults-Women;Women;Black;;;Fashion;;2017;XS,KAZOTOPS00002237,S,KAZOTOPS00002238,M,KAZOTOPS00002239,L,KAZOTOPS00002240,XL,KAZOTOPS00002241;2490.00;<p>Peplum top with see through striper PU detailing</p>;;<p>Dryclean</p>;;;;;zerotype;;Summer;;No
2161629;116464PCHBG-Pink-2161629;Kate Top;Draft;Tops;Kazo;Adults-Women;Women;Pink;;;Fashion;;2017;XS,KAZOTOPS00002232,S,KAZOTOPS00002233,M,KAZOTOPS00002234,L,KAZOTOPS00002235,XL,KAZOTOPS00002236;1990.00;<p>Collar neck peplum top</p>;;<p>Machine Wash</p>;;;;;zerotype;;Summer;;No
2161623;116457PLMPRPL-Purple-2161623;Casey Top;Draft;Tops;Kazo;Adults-Women;Women;Purple;;;Fashion;;2017;XS,KAZOTOPS00002227,S,KAZOTOPS00002228,M,KAZOTOPS00002229,L,KAZOTOPS00002230,XL,KAZOTOPS00002231;2490.00;<p>Shoulder patch embellished high low peplum top</p>;;<p>Dryclean</p>;;;;;zerotype;;Summer;;No
2161622;116453BLACK-Black-2161622;Agatha Top;Draft;Tops;Kazo;Adults-Women;Women;Black;;;Fashion;;2017;XS,KAZOTOPS00002223,S,KAZOTOPS00002224,M,KAZOTOPS00002225,L,KAZOTOPS00002226;1990.00;<p>Asymmetric top with neck chain detailing</p>;;<p>Handwash</p>;;;;;zerotype;;Summer;;No
2161621;116450MNLIT-Beige-2161621;Meliska Top;Draft;Tops;Kazo;Adults-Women;Women;Beige;;;Fashion;;2017;XS,KAZOTOPS00002218,S,KAZOTOPS00002219,M,KAZOTOPS00002220,L,KAZOTOPS00002221,XL,KAZOTOPS00002222;1990.00;<p>Shoulder Satin Panel Embellished Top</p>;;<p>Dryclean</p>;;;;;zerotype;;Summer;;No
2161620;116443BLACK-Black-2161620;Christine Top;Draft;Tops;Kazo;Adults-Women;Women;Black;;;Fashion;;2017;XS,KAZOTOPS00002213,S,KAZOTOPS00002214,M,KAZOTOPS00002215,L,KAZOTOPS00002216,XL,KAZOTOPS00002217;1690.00;<p>A-line top with eyelet lace-ups</p>;;<p>Handwash</p>;;;;;zerotype;;Summer;;No
2161619;116430NVYC-Blue-2161619;Milena Pullover;Draft;Sweaters;Kazo;Adults-Women;Women;Blue;;;Fashion;;2017;S,KAZOSWTR00000128,M,KAZOSWTR00000129,L,KAZOSWTR00000130,XL,KAZOSWTR00000131;2490.00;<p>Striped lurex pullover with front zip</p>;;<p>Handwash</p>;;;;;zerotype;;Summer;;No
2161618;116425BEIGE-Beige-2161618;Princy Pullover;Draft;Sweaters;Kazo;Adults-Women;Women;Beige;;;Fashion;;2017;S,KAZOSWTR00000124,M,KAZOSWTR00000125,L,KAZOSWTR00000126,XL,KAZOSWTR00000127;2990.00;<p>Long line pullover with side slit detailing</p>;;<p>Handwash</p>;;;;;zerotype;;Summer;;No
2161617;116424BEIGE-Beige-2161617;Felix Pullover;Draft;Sweaters;Kazo;Adults-Women;Women;Beige;;;Fashion;;2017;S,KAZOSWTR00000120,M,KAZOSWTR00000121,L,KAZOSWTR00000122,XL,KAZOSWTR00000123;1990.00;<p>Fitted pullover with stud detailing</p>;;<p>Handwash</p>;;;;;zerotype;;Summer;;No
2161616;116422NAVY-Blue-2161616;Sandra Pullover;Draft;Sweaters;Kazo;Adults-Women;Women;Blue;;;Fashion;;2017;S,KAZOSWTR00000116,M,KAZOSWTR00000117,L,KAZOSWTR00000118,XL,KAZOSWTR00000119;2990.00;<p>Cold shoulder pullover with embellsihed detailing</p>;;<p>Handwash</p>;;;;;zerotype;;Summer;;No
2161615;116421BLACK-Black-2161615;Betsy Pullover;Draft;Sweaters;Kazo;Adults-Women;Women;Black;;;Fashion;;2017;S,KAZOSWTR00000112,M,KAZOSWTR00000113,L,KAZOSWTR00000114,XL,KAZOSWTR00000115;2990.00;<p>Knit pullover with embellished detailing</p>;;<p>Handwash</p>;;;;;zerotype;;Summer;;No
2161614;116420GOLD-Gold-2161614;Marina Pullover;Draft;Sweaters;Kazo;Adults-Women;Women;Gold;;;Fashion;;2017;S,KAZOSWTR00000108,M,KAZOSWTR00000109,L,KAZOSWTR00000110,XL,KAZOSWTR00000111;2490.00;<p>Lurex pullover with back detailing</p>;;<p>Handwash</p>;;;;;zerotype;;Summer;;No
2161613;116419BLACK-Black-2161613;Kiara Pullover;Draft;Sweaters;Kazo;Adults-Women;Women;Black;;;Fashion;;2017;S,KAZOSWTR00000104,M,KAZOSWTR00000105,L,KAZOSWTR00000106,XL,KAZOSWTR00000107;2990.00;<p>Cold shoulder pullover with eyelet detailing</p>;;<p>Handwash</p>;;;;;zerotype;;Summer;;No
2161612;116419BEIGE-Beige-2161612;Kiara Pullover;Draft;Sweaters;Kazo;Adults-Women;Women;Beige;;;Fashion;;2017;S,KAZOSWTR00000100,M,KAZOSWTR00000101,L,KAZOSWTR00000102,XL,KAZOSWTR00000103;2990.00;<p>Cold shoulder pullover with eyelet detailing</p>;;<p>Handwash</p>;;;;;zerotype;;Summer;;No
2161611;116418NAVY-Blue-2161611;Nysa Pullover;Draft;Sweaters;Kazo;Adults-Women;Women;Blue;;;Fashion;;2017;S,KAZOSWTR00000096,M,KAZOSWTR00000097,L,KAZOSWTR00000098,XL,KAZOSWTR00000099;1990.00;<p>Knit pullover with stone detailing on the shoulder</p>;;<p>Handwash</p>;;;;;zerotype;;Summer;;No
2161610;116417CYPRS-Green-2161610;Gisele Pullover;Draft;Sweaters;Kazo;Adults-Women;Women;Green;;;Fashion;;2017;S,KAZOSWTR00000092,M,KAZOSWTR00000093,L,KAZOSWTR00000094,XL,KAZOSWTR00000095;2990.00;<p>Knit pullover with eyelet detailing</p>;;<p>Handwash</p>;;;;;zerotype;;Summer;;No
2161609;116417BLACK-Black-2161609;Gisele Pullover;Draft;Sweaters;Kazo;Adults-Women;Women;Black;;;Fashion;;2017;S,KAZOSWTR00000088,M,KAZOSWTR00000089,L,KAZOSWTR00000090,XL,KAZOSWTR00000091;2990.00;<p>Knit pullover with eyelet detailing</p>;;<p>Handwash</p>;;;;;zerotype;;Summer;;No
2161608;116416GREY-Grey-2161608;Mellisa Pullover;Draft;Sweaters;Kazo;Adults-Women;Women;Grey;;;Fashion;;2017;S,KAZOSWTR00000084,M,KAZOSWTR00000085,L,KAZOSWTR00000086,XL,KAZOSWTR00000087;2490.00;<p>Pullover with shoulder cutout and detailing</p>;;<p>Handwash</p>;;;;;zerotype;;Summer;;No
2161607;116414MNLIT-Beige-2161607;Marissa Pullover;Draft;Sweaters;Kazo;Adults-Women;Women;Beige;;;Fashion;;2017;S,KAZOSWTR00000080,M,KAZOSWTR00000081,L,KAZOSWTR00000082,XL,KAZOSWTR00000083;2490.00;<p>Sequined pullover with back detailing</p>;;<p>Handwash</p>;;;;;zerotype;;Summer;;No
