Style ID;Vendor Article Number;Vendor Article Name;Active Status;Article type;Brand;Age Group;Gender;Base Colour;Colour1;Colour2;Fashion Type;Usage;Year;Size - SKU code pair;MRP;Style Description;Style Note;Materials and Care Description;Size and Fit Description;Size Chart Path;Product Display Name;Tags;Product Type;Classification Brand;Season;Comments;Upload Images
1843242;D5068XXL-Blue-1843242;Striped Dress;Draft;Dresses;SCOUP;Adults-Women;Women;;;;Fashion;;2017;XS,SCUPDRSS00000247,S,SCUPDRSS00000248,M,SCUPDRSS00000249,L,SCUPDRSS00000250,XL,SCUPDRSS00000251,XXL,SCUPDRSS00000252;1770.00;;;;;;;;zerotype;;Summer;;No
1843241;D5065XXL-Black-1843241;Dobby Shirt Dress;Draft;Dresses;SCOUP;Adults-Women;Women;;;;Fashion;;2017;XS,SCUPDRSS00000241,S,SCUPDRSS00000242,M,SCUPDRSS00000243,L,SCUPDRSS00000244,XL,SCUPDRSS00000245,XXL,SCUPDRSS00000246;1370.00;;;;;;;;zerotype;;Summer;;No
1843240;D5059XXL-Rust-1843240;Sand Wash Reyon Dress;Draft;Dresses;SCOUP;Adults-Women;Women;;;;Fashion;;2017;XS,SCUPDRSS00000235,S,SCUPDRSS00000236,M,SCUPDRSS00000237,L,SCUPDRSS00000238,XL,SCUPDRSS00000239,XXL,SCUPDRSS00000240;2199.00;;;;;;;;zerotype;;Summer;;No
1843239;T081XXL-Off White-1843239;Zip Front Embroidered Top;Draft;Tops;SCOUP;Adults-Women;Women;;;;Fashion;;2017;XS,SCUPTOPS00000577,S,SCUPTOPS00000578,M,SCUPTOPS00000579,L,SCUPTOPS00000580,XL,SCUPTOPS00000581,XXL,SCUPTOPS00000582;1440.00;;;;;;;;zerotype;;Summer;;No
1843238;T078XL-Yellow-1843238;Gathered Fluid Crepe Top;Draft;Tops;SCOUP;Adults-Women;Women;;;;Fashion;;2017;XS,SCUPTOPS00000571,S,SCUPTOPS00000572,M,SCUPTOPS00000573,L,SCUPTOPS00000574,XL,SCUPTOPS00000575,XXL,SCUPTOPS00000576;1240.00;;;;;;;;zerotype;;Summer;;No
1843237;T133XXL-Maroon-1843237;Big Frill Structure Cotton;Draft;Tops;SCOUP;Adults-Women;Women;;;;Fashion;;2017;XS,SCUPTOPS00000565,S,SCUPTOPS00000566,M,SCUPTOPS00000567,L,SCUPTOPS00000568,XL,SCUPTOPS00000569,XXL,SCUPTOPS00000570;1299.00;;;;;;;;zerotype;;Summer;;No
1843236;T132XXL-Off White-1843236;Striped Cotton Cami;Draft;Tops;SCOUP;Adults-Women;Women;;;;Fashion;;2017;XS,SCUPTOPS00000559,S,SCUPTOPS00000560,M,SCUPTOPS00000561,L,SCUPTOPS00000562,XL,SCUPTOPS00000563,XXL,SCUPTOPS00000564;699.00;;;;;;;;zerotype;;Summer;;No
1843235;T131XXL-Blue-1843235;Lace Detail Striped Cami;Draft;Tops;SCOUP;Adults-Women;Women;;;;Fashion;;2017;XS,SCUPTOPS00000553,S,SCUPTOPS00000554,M,SCUPTOPS00000555,L,SCUPTOPS00000556,XL,SCUPTOPS00000557,XXL,SCUPTOPS00000558;799.00;;;;;;;;zerotype;;Summer;;No
1843234;T129XXL-Blue-1843234;Chambray Embroidered Cami;Draft;Tops;SCOUP;Adults-Women;Women;;;;Fashion;;2017;XS,SCUPTOPS00000547,S,SCUPTOPS00000548,M,SCUPTOPS00000549,L,SCUPTOPS00000550,XL,SCUPTOPS00000551,XXL,SCUPTOPS00000552;820.00;;;;;;;;zerotype;;Summer;;No
1843233;T127XXL-Blue-1843233;lace Insert Cotton Top;Draft;Tops;SCOUP;Adults-Women;Women;;;;Fashion;;2017;XS,SCUPTOPS00000541,S,SCUPTOPS00000542,M,SCUPTOPS00000543,L,SCUPTOPS00000544,XL,SCUPTOPS00000545,XXL,SCUPTOPS00000546;1199.00;;;;;;;;zerotype;;Summer;;No
1843232;T119XXL-Blue-1843232;Malticolor Embroidered Striped  Top;Draft;Tops;SCOUP;Adults-Women;Women;;;;Fashion;;2017;XS,SCUPTOPS00000535,S,SCUPTOPS00000536,M,SCUPTOPS00000537,L,SCUPTOPS00000538,XL,SCUPTOPS00000539,XXL,SCUPTOPS00000540;1540.00;;;;;;;;zerotype;;Summer;;No
1843231;T115XXL-Off White-1843231;Cutwork Contrast Embroidery;Draft;Tops;SCOUP;Adults-Women;Women;;;;Fashion;;2017;XS,SCUPTOPS00000529,S,SCUPTOPS00000530,M,SCUPTOPS00000531,L,SCUPTOPS00000532,XL,SCUPTOPS00000533,XXL,SCUPTOPS00000534;2199.00;;;;;;;;zerotype;;Summer;;No
1843230;T108XXL-Blue-1843230;Losse Fit Striped Top;Draft;Tops;SCOUP;Adults-Women;Women;;;;Fashion;;2017;XS,SCUPTOPS00000523,S,SCUPTOPS00000524,M,SCUPTOPS00000525,L,SCUPTOPS00000526,XL,SCUPTOPS00000527,XXL,SCUPTOPS00000528;1170.00;;;;;;;;zerotype;;Summer;;No
1843229;T094XXL-Coffee Brown-1843229;Schiffli Flared Top;Draft;Tops;SCOUP;Adults-Women;Women;;;;Fashion;;2017;XS,SCUPTOPS00000517,S,SCUPTOPS00000518,M,SCUPTOPS00000519,L,SCUPTOPS00000520,XL,SCUPTOPS00000521,XXL,SCUPTOPS00000522;1570.00;;;;;;;;zerotype;;Summer;;No
1843228;T083XXL-White-1843228;Fray Detaile lace Top;Draft;Tops;SCOUP;Adults-Women;Women;;;;Fashion;;2017;XS,SCUPTOPS00000511,S,SCUPTOPS00000512,M,SCUPTOPS00000513,L,SCUPTOPS00000514,XL,SCUPTOPS00000515,XXL,SCUPTOPS00000516;1390.00;;;;;;;;zerotype;;Summer;;No
1843227;T077XXL-White-1843227;Sleeveless Frill Top;Draft;Tops;SCOUP;Adults-Women;Women;;;;Fashion;;2017;XS,SCUPTOPS00000505,S,SCUPTOPS00000506,M,SCUPTOPS00000507,L,SCUPTOPS00000508,XL,SCUPTOPS00000509,XXL,SCUPTOPS00000510;940.00;;;;;;;;zerotype;;Summer;;No
1843226;T073XXL-Blue-1843226;Poplin Frill Top;Draft;Tops;SCOUP;Adults-Women;Women;;;;Fashion;;2017;XS,SCUPTOPS00000499,S,SCUPTOPS00000500,M,SCUPTOPS00000501,L,SCUPTOPS00000502,XL,SCUPTOPS00000503,XXL,SCUPTOPS00000504;904.00;;;;;;;;zerotype;;Summer;;No
1843225;T054XXL-Navy Blue-1843225;Loose fit Striped Top;Draft;Tops;SCOUP;Adults-Women;Women;;;;Fashion;;2017;XS,SCUPTOPS00000493,S,SCUPTOPS00000494,M,SCUPTOPS00000495,L,SCUPTOPS00000496,XL,SCUPTOPS00000497,XXL,SCUPTOPS00000498;1170.00;;;;;;;;zerotype;;Summer;;No
