Style ID;Vendor Article Number;Vendor Article Name;Active Status;Article type;Brand;Age Group;Gender;Base Colour;Colour1;Colour2;Fashion Type;Usage;Year;Size - SKU code pair;MRP;Style Description;Style Note;Materials and Care Description;Size and Fit Description;Size Chart Path;Product Display Name;Tags;Product Type;Classification Brand;Season;Comments;Upload Images
2067803;OG-0624-XL-White-2067803;Anouksha Lace Swing Dress;Draft;Dresses;LOOM TREE;Adults-Women;Women;White;;;Fashion;;2017;XS,LMTRDRSS00000086,S,LMTRDRSS00000087,M,LMTRDRSS00000088,L,LMTRDRSS00000089,XL,LMTRDRSS00000090;1999.00;;;<p>Hand Wash</p>;;;;;zerotype;;Spring;;No
2067790;JP-DR-IKP-01-XL-Pink-2067790;Emma Layered A-Line Dress;Draft;Dresses;LOOM TREE;Adults-Women;Women;Pink;;;Fashion;;2017;XS,LMTRDRSS00000081,S,LMTRDRSS00000082,M,LMTRDRSS00000083,L,LMTRDRSS00000084,XL,LMTRDRSS00000085;2700.00;;;<p>Hand Wash</p>;;;;;zerotype;;Spring;;No
2067789;LT3538-XL-Blue-2067789;Lalika Easy Flow Dress;Draft;Dresses;LOOM TREE;Adults-Women;Women;Blue;;;Fashion;;2017;XS,LMTRDRSS00000076,S,LMTRDRSS00000077,M,LMTRDRSS00000078,L,LMTRDRSS00000079,XL,LMTRDRSS00000080;2999.00;;;<p>Hand Wash</p>;;;;;zerotype;;Spring;;No
2067788;Y-6025-XL-Green-2067788;Amayra Floral Print dress;Draft;Dresses;LOOM TREE;Adults-Women;Women;Green;;;Fashion;;2017;XS,LMTRDRSS00000071,S,LMTRDRSS00000072,M,LMTRDRSS00000073,L,LMTRDRSS00000074,XL,LMTRDRSS00000075;2299.00;;;<p>Hand Wash</p>;;;;;zerotype;;Spring;;No
2067782;H5-DR-01-XL-Navy Blue-2067782;Ella Floral Printed Pleated Shift Dress;Draft;Dresses;LOOM TREE;Adults-Women;Women;Navy Blue;;;Fashion;;2017;XS,LMTRDRSS00000066,S,LMTRDRSS00000067,M,LMTRDRSS00000068,L,LMTRDRSS00000069,XL,LMTRDRSS00000070;2299.00;;;<p>Hand Wash</p>;;;;;zerotype;;Spring;;No
2067776;H602-XL-Black-2067776;Hollie Kaftan Dress;Draft;Dresses;LOOM TREE;Adults-Women;Women;Black;;;Fashion;;2017;XS,LMTRDRSS00000061,S,LMTRDRSS00000062,M,LMTRDRSS00000063,L,LMTRDRSS00000064,XL,LMTRDRSS00000065;3999.00;;;<p>Hand Wash</p>;;;;;zerotype;;Spring;;No
2067769;OG-0508-XL-Beige-2067769;Smita Printed Drop Waist Dress;Draft;Dresses;LOOM TREE;Adults-Women;Women;Beige;;;Fashion;;2017;XS,LMTRDRSS00000056,S,LMTRDRSS00000057,M,LMTRDRSS00000058,L,LMTRDRSS00000059,XL,LMTRDRSS00000060;1799.00;;;<p>Hand Wash</p>;;;;;zerotype;;Spring;;No
2067760;JP-TR-KL-155-XXL-Yellow-2067760;Aishani Pleated Flared Palazzo;Draft;Trousers;LOOM TREE;Adults-Women;Women;Yellow;;;Fashion;;2017;XS,LMTRTRSR00000060,S,LMTRTRSR00000061,M,LMTRTRSR00000062,L,LMTRTRSR00000063,XL,LMTRTRSR00000064,XXL,LMTRTRSR00000065;2700.00;;;<p>Hand wash</p>;;;;;zerotype;;Spring;;No
2067759;IC-S2-TR-146A-XXL-Black-2067759;Arabella Black Twill Balloon Pants;Draft;Trousers;LOOM TREE;Adults-Women;Women;Black;;;Fashion;;2017;XS,LMTRTRSR00000054,S,LMTRTRSR00000055,M,LMTRTRSR00000056,L,LMTRTRSR00000057,XL,LMTRTRSR00000058,XXL,LMTRTRSR00000059;1799.00;;;<p>Hand wash</p>;;;;;zerotype;;Spring;;No
2067758;2010012.02.70-XL-Black-2067758;Loom Tree Juliana bell sleeve blouse;Draft;Tops;LOOM TREE;Adults-Women;Women;Black;;;Fashion;;2017;XS,LMTRTOPS00001054,S,LMTRTOPS00001055,M,LMTRTOPS00001056,L,LMTRTOPS00001057,XL,LMTRTOPS00001058;1799.00;;;<p>Handwash only</p>;;;;;zerotype;;Spring;;No
2067757;2010020.03.70-XL-Off White-2067757;Loom Tree Linda flowy kimonon;Draft;Tops;LOOM TREE;Adults-Women;Women;Off White;;;Fashion;;2017;XS,LMTRTOPS00001049,S,LMTRTOPS00001050,M,LMTRTOPS00001051,L,LMTRTOPS00001052,XL,LMTRTOPS00001053;2299.00;;;<p>Handwash only</p>;;;;;zerotype;;Spring;;No
2067756;2010020.01.70-XL-Navy Blue-2067756;Loom Tree Linda flowy kimonon;Draft;Tops;LOOM TREE;Adults-Women;Women;Navy Blue;;;Fashion;;2017;XS,LMTRTOPS00001044,S,LMTRTOPS00001045,M,LMTRTOPS00001046,L,LMTRTOPS00001047,XL,LMTRTOPS00001048;2299.00;;;<p>Handwash only</p>;;;;;zerotype;;Spring;;No
2067755;2010020.04.70-XL-White-2067755;Loom Tree Linda flowy kimono;Draft;Tops;LOOM TREE;Adults-Women;Women;White;;;Fashion;;2017;XS,LMTRTOPS00001039,S,LMTRTOPS00001040,M,LMTRTOPS00001041,L,LMTRTOPS00001042,XL,LMTRTOPS00001043;2499.00;;;<p>Handwash only</p>;;;;;zerotype;;Spring;;No
2067733;2010005.02.70-XL-Yellow-2067733;Loom Tree Charlotte Embroidered Panel Top;Draft;Tops;LOOM TREE;Adults-Women;Women;Yellow;;;Fashion;;2017;XS,LMTRTOPS00001034,S,LMTRTOPS00001035,M,LMTRTOPS00001036,L,LMTRTOPS00001037,XL,LMTRTOPS00001038;2299.00;;;<p>Handwash only</p>;;;;;zerotype;;Spring;;No
2067729;2010014.04.70-XL-Black-2067729;Loom Tree Christiana Back Tie String Blouse;Draft;Tops;LOOM TREE;Adults-Women;Women;Black;;;Fashion;;2017;XS,LMTRTOPS00001029,S,LMTRTOPS00001030,M,LMTRTOPS00001031,L,LMTRTOPS00001032,XL,LMTRTOPS00001033;2299.00;;;<p>Handwash only</p>;;;;;zerotype;;Spring;;No
2067725;2010023.01.70-XL-Navy Blue-2067725;Loom Tree Reene wrapover blouse with hi-lo he;Draft;Tops;LOOM TREE;Adults-Women;Women;Navy Blue;;;Fashion;;2017;XS,LMTRTOPS00001024,S,LMTRTOPS00001025,M,LMTRTOPS00001026,L,LMTRTOPS00001027,XL,LMTRTOPS00001028;1999.00;;;<p>Handwash only</p>;;;;;zerotype;;Spring;;No
2067724;H3-S2-TP-314C-XL-Maroon-2067724;Loom Tree Safia Blouson Peasant Top;Draft;Tops;LOOM TREE;Adults-Women;Women;Maroon;;;Fashion;;2017;XS,LMTRTOPS00001019,S,LMTRTOPS00001020,M,LMTRTOPS00001021,L,LMTRTOPS00001022,XL,LMTRTOPS00001023;3499.00;<p>Blouson Embroidered Peasant Top Embroidered Yoke Gathered body Tasseled Neckline Regular Length Blouson sleeves Model size- Bust: 34", Waist: 28", Hip: 34", Height: 5'7' Model is wearing size Small 'S'</p>;;<p>Hand Wash</p>;;;;;zerotype;;Spring;;No
2067723;20T0173.02.70-XL-Blue-2067723;Loom Tree Viona Color Blocked Peasant Top;Draft;Tops;LOOM TREE;Adults-Women;Women;Blue;;;Fashion;;2017;XS,LMTRTOPS00001014,S,LMTRTOPS00001015,M,LMTRTOPS00001016,L,LMTRTOPS00001017,XL,LMTRTOPS00001018;1499.00;<p>Hi-lo peasant top with tassel tie up details and blouson sleeve</p>;;<p>Hand Wash</p>;;;;;zerotype;;Spring;;No
