Style ID;Vendor Article Number;Vendor Article Name;Active Status;Article type;Brand;Age Group;Gender;Base Colour;Colour1;Colour2;Fashion Type;Usage;Year;Size - SKU code pair;MRP;Style Description;Style Note;Materials and Care Description;Size and Fit Description;Size Chart Path;Product Display Name;Tags;Product Type;Classification Brand;Season;Comments;Upload Images
1943483;AESTR5748-Mauve-1943483;AESTR5748;Draft;Tshirts;Avoir Envie;Adults-Men;Men;Mauve;;;Fashion;;2017;S,AVRETSHT00000898,M,AVRETSHT00000899,L,AVRETSHT00000900,XL,AVRETSHT00000901,XXL,AVRETSHT00000902;1399.00;;;;;;;;zerotype;;Summer;;No
1943482;AESTR5746-Yellow-1943482;AESTR5746;Draft;Tshirts;Avoir Envie;Adults-Men;Men;Yellow;;;Fashion;;2017;S,AVRETSHT00000893,M,AVRETSHT00000894,L,AVRETSHT00000895,XL,AVRETSHT00000896,XXL,AVRETSHT00000897;1399.00;;;;;;;;zerotype;;Summer;;No
1943481;AESTR5743-Blue-1943481;AESTR5743;Draft;Tshirts;Avoir Envie;Adults-Men;Men;Blue;;;Fashion;;2017;S,AVRETSHT00000888,M,AVRETSHT00000889,L,AVRETSHT00000890,XL,AVRETSHT00000891,XXL,AVRETSHT00000892;1199.00;;;;;;;;zerotype;;Summer;;No
1943480;AESTR5734-Red-1943480;AESTR5734;Draft;Tshirts;Avoir Envie;Adults-Men;Men;Red;;;Fashion;;2017;S,AVRETSHT00000883,M,AVRETSHT00000884,L,AVRETSHT00000885,XL,AVRETSHT00000886,XXL,AVRETSHT00000887;1299.00;;;;;;;;zerotype;;Summer;;No
1943479;AESTR5729-Mauve-1943479;AESTR5729;Draft;Tshirts;Avoir Envie;Adults-Men;Men;Mauve;;;Fashion;;2017;S,AVRETSHT00000878,M,AVRETSHT00000879,L,AVRETSHT00000880,XL,AVRETSHT00000881,XXL,AVRETSHT00000882;1399.00;;;;;;;;zerotype;;Summer;;No
