Style ID;Vendor Article Number;Vendor Article Name;Active Status;Article type;Brand;Age Group;Gender;Base Colour;Colour1;Colour2;Fashion Type;Usage;Year;Size - SKU code pair;MRP;Style Description;Style Note;Materials and Care Description;Size and Fit Description;Size Chart Path;Product Display Name;Tags;Product Type;Classification Brand;Season;Comments;Upload Images
2258278;LG-746K-Rust-2258278;rust printed kurti;Draft;Kurtas;Laabha;Adults-Women;Women;Rust;;;Fashion;Casual;2017;L,LABHKRTA00002386,M,LABHKRTA00002387,S,LABHKRTA00002388,XL,LABHKRTA00002389,XXL,LABHKRTA00002390,XXXL,LABHKRTA00002391;999.00;;;<p>Machine wash</p>;;;na;;zerotype;;Winter;;No
2258277;LG-745K-Green-2258277;SAP Green Pasmina Kurti with sequence;Draft;Kurtas;Laabha;Adults-Women;Women;Green;;;Fashion;Casual;2017;L,LABHKRTA00002380,M,LABHKRTA00002381,S,LABHKRTA00002382,XL,LABHKRTA00002383,XXL,LABHKRTA00002384,XXXL,LABHKRTA00002385;1099.00;;;<p>Machine wash</p>;;;na;;zerotype;;Winter;;No
2258276;LG-744K-Mustard-2258276;Honey comb pashmina printed kurti;Draft;Kurtas;Laabha;Adults-Women;Women;Mustard;Blue;;Fashion;Casual;2017;L,LABHKRTA00002374,M,LABHKRTA00002375,S,LABHKRTA00002376,XL,LABHKRTA00002377,XXL,LABHKRTA00002378,XXXL,LABHKRTA00002379;999.00;;;<p>Machine wash</p>;;;na;;zerotype;;Winter;;No
2258274;LG-742K-Red-2258274;Corel pashmina printed kurti;Draft;Kurtas;Laabha;Adults-Women;Women;Red;;;Fashion;Casual;2017;L,LABHKRTA00002368,M,LABHKRTA00002369,S,LABHKRTA00002370,XL,LABHKRTA00002371,XXL,LABHKRTA00002372,XXXL,LABHKRTA00002373;1099.00;;;<p>Machine wash</p>;;;na;;zerotype;;Winter;;No
2258272;LG-741K-Black-2258272;Black and grey pashmina kurti;Draft;Kurtas;Laabha;Adults-Women;Women;Black;White;Blue;Fashion;Casual;2017;L,LABHKRTA00002362,M,LABHKRTA00002363,S,LABHKRTA00002364,XL,LABHKRTA00002365,XXL,LABHKRTA00002366,XXXL,LABHKRTA00002367;1099.00;;;<p>Machine wash</p>;;;na;;zerotype;;Winter;;No
2258270;LG-740K-Lime Green-2258270;Lime Green Pushmina Print Kurti;Draft;Kurtas;Laabha;Adults-Women;Women;Lime Green;;;Fashion;Casual;2017;L,LABHKRTA00002356,M,LABHKRTA00002357,S,LABHKRTA00002358,XL,LABHKRTA00002359,XXL,LABHKRTA00002360,XXXL,LABHKRTA00002361;1099.00;;;<p>Machine wash</p>;;;na;;zerotype;;Winter;;No
2258268;LG-739K-Green-2258268;Green Pasmina Kurti with sequence;Draft;Kurtas;Laabha;Adults-Women;Women;Green;;;Fashion;Casual;2017;L,LABHKRTA00002350,M,LABHKRTA00002351,S,LABHKRTA00002352,XL,LABHKRTA00002353,XXL,LABHKRTA00002354,XXXL,LABHKRTA00002355;1099.00;;;<p>Machine wash</p>;;;na;;zerotype;;Winter;;No
2258266;LG-738K-Blue-2258266;Blue pashmina kuri without sequence;Draft;Kurtas;Laabha;Adults-Women;Women;Blue;;;Fashion;Casual;2017;L,LABHKRTA00002344,M,LABHKRTA00002345,S,LABHKRTA00002346,XL,LABHKRTA00002347,XXL,LABHKRTA00002348,XXXL,LABHKRTA00002349;999.00;;;<p>Machine wash</p>;;;na;;zerotype;;Winter;;No
2258264;LG-730K-Beige-2258264;Laabha Beige Modal Kurta;Draft;Kurtas;Laabha;Adults-Women;Women;Beige;;;Fashion;Casual;2017;L,LABHKRTA00002338,M,LABHKRTA00002339,S,LABHKRTA00002340,XL,LABHKRTA00002341,XXL,LABHKRTA00002342,XXXL,LABHKRTA00002343;1299.00;;;<p>Machine wash</p>;;;na;;zerotype;;Spring;;No
2258262;LG-729K-Blue-2258262;Laabha Blue Modal Kurta;Draft;Kurtas;Laabha;Adults-Women;Women;Blue;;;Fashion;Casual;2017;L,LABHKRTA00002332,M,LABHKRTA00002333,S,LABHKRTA00002334,XL,LABHKRTA00002335,XXL,LABHKRTA00002336,XXXL,LABHKRTA00002337;1299.00;;;<p>Machine wash</p>;;;na;;zerotype;;Spring;;No
2258261;LG-711K-White-2258261;Laabha Women Crme Chanderi Kurti;Draft;Kurtas;Laabha;Adults-Women;Women;White;;;Fashion;Casual;2017;L,LABHKRTA00002326,M,LABHKRTA00002327,S,LABHKRTA00002328,XL,LABHKRTA00002329,XXL,LABHKRTA00002330,XXXL,LABHKRTA00002331;1499.00;;;<p>Machine wash</p>;;;na;;zerotype;;Spring;;No
2258259;LG-708K-Navy Blue-2258259;Navy Blue Crepe Silk Kurti;Draft;Kurtas;Laabha;Adults-Women;Women;Navy Blue;;;Fashion;Casual;2017;L,LABHKRTA00002320,M,LABHKRTA00002321,S,LABHKRTA00002322,XL,LABHKRTA00002323,XXL,LABHKRTA00002324,XXXL,LABHKRTA00002325;1499.00;;;<p>Machine wash</p>;;;na;;zerotype;;Spring;;No
2258257;LG-698K-Pink-2258257;Pink Color Solid Kurta;Draft;Kurtas;Laabha;Adults-Women;Women;Pink;;;Fashion;Casual;2017;L,LABHKRTA00002314,M,LABHKRTA00002315,S,LABHKRTA00002316,XL,LABHKRTA00002317,XXL,LABHKRTA00002318,XXXL,LABHKRTA00002319;1499.00;;;<p>Machine wash</p>;;;na;;zerotype;;Spring;;No
2258255;LG-676K-Green-2258255;Turqoise Green A-line Printed Kurti;Draft;Kurtas;Laabha;Adults-Women;Women;Green;;;Fashion;Casual;2017;L,LABHKRTA00002308,M,LABHKRTA00002309,S,LABHKRTA00002310,XL,LABHKRTA00002311,XXL,LABHKRTA00002312,XXXL,LABHKRTA00002313;1499.00;;;<p>Machine wash</p>;;;na;;zerotype;;Spring;;No
2258253;LG-667K-Grey-2258253;GREYISH BLUE COIN POCKET KURTI;Draft;Kurtas;Laabha;Adults-Women;Women;Grey;;;Fashion;Casual;2017;L,LABHKRTA00002302,M,LABHKRTA00002303,S,LABHKRTA00002304,XL,LABHKRTA00002305,XXL,LABHKRTA00002306,XXXL,LABHKRTA00002307;1699.00;;;<p>Machine wash</p>;;;na;;zerotype;;Spring;;No
2258251;LG-666K-Navy Blue-2258251;NAVY BLUE COIN POCKET KURTI;Draft;Kurtas;Laabha;Adults-Women;Women;Navy Blue;;;Fashion;Casual;2017;L,LABHKRTA00002296,M,LABHKRTA00002297,S,LABHKRTA00002298,XL,LABHKRTA00002299,XXL,LABHKRTA00002300,XXXL,LABHKRTA00002301;1699.00;;;<p>Machine wash</p>;;;na;;zerotype;;Spring;;No
2258249;LG-657K-Blue-2258249;COBALT CORE KURTA;Draft;Kurtas;Laabha;Adults-Women;Women;Blue;;;Fashion;Casual;2017;L,LABHKRTA00002290,M,LABHKRTA00002291,S,LABHKRTA00002292,XL,LABHKRTA00002293,XXL,LABHKRTA00002294,XXXL,LABHKRTA00002295;1399.00;;;<p>Machine wash</p>;;;na;;zerotype;;Spring;;No
2258247;LG-656K-Pink-2258247;PINK CORE KURTA;Draft;Kurtas;Laabha;Adults-Women;Women;Pink;;;Fashion;Casual;2017;L,LABHKRTA00002284,M,LABHKRTA00002285,S,LABHKRTA00002286,XL,LABHKRTA00002287,XXL,LABHKRTA00002288,XXXL,LABHKRTA00002289;1399.00;;;<p>Machine wash</p>;;;na;;zerotype;;Spring;;No
2258245;LG-652K-White-2258245;WHITE CORE KURTA;Draft;Kurtas;Laabha;Adults-Women;Women;White;;;Fashion;Casual;2017;L,LABHKRTA00002278,M,LABHKRTA00002279,S,LABHKRTA00002280,XL,LABHKRTA00002281,XXL,LABHKRTA00002282,XXXL,LABHKRTA00002283;1399.00;;;<p>Machine wash</p>;;;na;;zerotype;;Spring;;No
2258244;LG-651K-Red-2258244;RED CORE KURTA;Draft;Kurtas;Laabha;Adults-Women;Women;Red;;;Fashion;Casual;2017;L,LABHKRTA00002272,M,LABHKRTA00002273,S,LABHKRTA00002274,XL,LABHKRTA00002275,XXL,LABHKRTA00002276,XXXL,LABHKRTA00002277;1399.00;;;<p>Machine wash</p>;;;na;;zerotype;;Spring;;No
2258243;LG-650K-Off White-2258243;OFFWHITE CORE KURTA;Draft;Kurtas;Laabha;Adults-Women;Women;Off White;;;Fashion;Casual;2017;L,LABHKRTA00002266,M,LABHKRTA00002267,S,LABHKRTA00002268,XL,LABHKRTA00002269,XXL,LABHKRTA00002270,XXXL,LABHKRTA00002271;1399.00;;;<p>Machine wash</p>;;;na;;zerotype;;Spring;;No
2258242;LG-647K-Mustard-2258242;MUSTARD CORE KURTA;Draft;Kurtas;Laabha;Adults-Women;Women;Mustard;;;Fashion;Casual;2017;S,LABHKRTA00002260,M,LABHKRTA00002261,L,LABHKRTA00002262,XL,LABHKRTA00002263,XXL,LABHKRTA00002264,XXXL,LABHKRTA00002265;1399.00;;;<p>Machine wash</p>;;;na;;zerotype;;Spring;;No
2258241;LG-642K-Navy Blue-2258241;NAVY AND GREY BOOTI EMBROIDERED KURTA;Draft;Kurtas;Laabha;Adults-Women;Women;Navy Blue;Grey;;Fashion;Casual;2017;L,LABHKRTA00002254,M,LABHKRTA00002255,S,LABHKRTA00002256,XL,LABHKRTA00002257,XXL,LABHKRTA00002258,XXXL,LABHKRTA00002259;1799.00;;;<p>Machine wash</p>;;;na;;zerotype;;Spring;;No
2258240;LG-641K-Purple-2258240;PHALSA AND SAP GREEN BOX KURTA;Draft;Kurtas;Laabha;Adults-Women;Women;Purple;Green;;Fashion;Casual;2017;S,LABHKRTA00002248,L,LABHKRTA00002249,M,LABHKRTA00002250,XL,LABHKRTA00002251,XXL,LABHKRTA00002252,XXXL,LABHKRTA00002253;1799.00;;;<p>Machine wash</p>;;;na;;zerotype;;Spring;;No
2258239;LG-639K-Mustard-2258239;MUSTARD AND PINK BOX KURTA;Draft;Kurtas;Laabha;Adults-Women;Women;Mustard;Pink;;Fashion;Casual;2017;XXXL,LABHKRTA00002242,L,LABHKRTA00002243,M,LABHKRTA00002244,S,LABHKRTA00002245,XL,LABHKRTA00002246,XXL,LABHKRTA00002247;1799.00;;;<p>Machine wash</p>;;;na;;zerotype;;Spring;;No
2258230;LG-633K-Olive-2258230;OG&BEIGE;Draft;Kurtas;Laabha;Adults-Women;Women;Olive;Beige;;Fashion;Casual;2017;L,LABHKRTA00002236,M,LABHKRTA00002237,S,LABHKRTA00002238,XL,LABHKRTA00002239,XXL,LABHKRTA00002240,XXXL,LABHKRTA00002241;1799.00;;;<p>Machine wash</p>;;;na;;zerotype;;Spring;;No
2258229;LG-632K-Black-2258229;B\W HALF N HALF EMB KURTI;Draft;Kurtas;Laabha;Adults-Women;Women;Black;White;;Fashion;Casual;2017;XXXL,LABHKRTA00002230,XXL,LABHKRTA00002231,XL,LABHKRTA00002232,S,LABHKRTA00002233,M,LABHKRTA00002234,L,LABHKRTA00002235;1799.00;;;<p>Machine wash</p>;;;na;;zerotype;;Spring;;No
2258227;LG-628K-Black-2258227;BLACK DOUBLE LAYER PRINT;Draft;Kurtas;Laabha;Adults-Women;Women;Black;;;Fashion;Casual;2017;XL,LABHKRTA00002224,S,LABHKRTA00002225,M,LABHKRTA00002226,L,LABHKRTA00002227,XXXL,LABHKRTA00002228,XXL,LABHKRTA00002229;1799.00;;;<p>Machine wash</p>;;;na;;zerotype;;Spring;;No
2258226;LG-624K-Black-2258226;BLACK COTTON PRINT HALF N HALF;Draft;Kurtas;Laabha;Adults-Women;Women;Black;;;Fashion;Casual;2017;M,LABHKRTA00002218,L,LABHKRTA00002219,XXXL,LABHKRTA00002220,XXL,LABHKRTA00002221,XL,LABHKRTA00002222,S,LABHKRTA00002223;1599.00;;;<p>Machine wash</p>;;;na;;zerotype;;Spring;;No
2258225;LG-615K-Blue-2258225;BLUE AND BLACK PANELLED KURTA;Draft;Kurtas;Laabha;Adults-Women;Women;Blue;Black;;Fashion;Casual;2017;XXXL,LABHKRTA00002212,XXL,LABHKRTA00002213,XL,LABHKRTA00002214,S,LABHKRTA00002215,M,LABHKRTA00002216,L,LABHKRTA00002217;1399.00;;;<p>Machine wash</p>;;;na;;zerotype;;Spring;;No
