Style ID;Vendor Article Number;Vendor Article Name;Active Status;Article type;Brand;Age Group;Gender;Base Colour;Colour1;Colour2;Fashion Type;Usage;Year;Size - SKU code pair;MRP;Style Description;Style Note;Materials and Care Description;Size and Fit Description;Size Chart Path;Product Display Name;Tags;Product Type;Classification Brand;Season;Comments;Upload Images
2407314;PD22-Green-2407314;Sparkling Digital Print Mosque On Wooden Fram;Draft;Wall Art;Home Sparkle;Adults-Unisex;Unisex;Green;;;Core;Home;2018;L : 29, W : 1.5, H : 27 (IN CM),HSPKATWK00000179;1799.00;;;;;;NA;;zerotype;;Winter;;No
2407313;PD17-Multi-2407313;Sparkling Digital Print Shivaji On Wooden Fra;Draft;Wall Art;Home Sparkle;Adults-Unisex;Unisex;Multi;;;Core;Home;2018;L : 29, W : 1.5, H : 27 (IN CM),HSPKATWK00000178;1799.00;;;;;;NA;;zerotype;;Winter;;No
2407312;PC18-Green-2407312;Sparkling Digital Print Mosque On Wooden Fram;Draft;Wall Art;Home Sparkle;Adults-Unisex;Unisex;Green;;;Core;Home;2018;L : 35, W : 1.5, H : 50 (IN CM),HSPKATWK00000177;1799.00;;;;;;NA;;zerotype;;Winter;;No
2407311;PD19-Grey Black Brown-2407311;Sparkling Digital Print Flower pot On Wooden;Draft;Wall Art;Home Sparkle;Adults-Unisex;Unisex;Grey;Black;Brown;Core;Home;2018;L : 29, W : 1.5, H : 27 (IN CM),HSPKATWK00000176;1799.00;;;;;;NA;;zerotype;;Winter;;No
2407310;PA10-Brown-2407310;Sparkling Digital Print Buddha On Wooden Fram;Draft;Wall Art;Home Sparkle;Adults-Unisex;Unisex;Brown;;;Core;Home;2018;L : 50, W : 1.5, H : 35 (IN CM),HSPKATWK00000175;1799.00;;;;;;NA;;zerotype;;Winter;;No
2407309;PB17-Brown Beige-2407309;Sparkling Digital Print Pot On Wooden Frame W;Draft;Wall Art;Home Sparkle;Adults-Unisex;Unisex;Brown;Beige;;Core;Home;2018;L : 35, W : 1.5, H : 50 (IN CM),HSPKATWK00000174;1799.00;;;;;;NA;;zerotype;;Winter;;No
2407308;PC19-Pink-2407308;Sparkling Digital Print Flower pot On Wooden;Draft;Wall Art;Home Sparkle;Adults-Unisex;Unisex;Pink;;;Core;Home;2018;L : 50, W : 1.5, H : 35 (IN CM),HSPKATWK00000173;1799.00;;;;;;NA;;zerotype;;Winter;;No
2407307;PC26-Multi-2407307;Sparkling Digital Print Sai Baba On Wooden Fr;Draft;Wall Art;Home Sparkle;Adults-Unisex;Unisex;Multi;;;Core;Home;2018;L : 35, W : 1.5, H : 50 (IN CM),HSPKATWK00000172;1799.00;;;;;;NA;;zerotype;;Winter;;No
2407306;PC22-Multi-2407306;Sparkling Digital Print Waterfall On Wooden F;Draft;Wall Art;Home Sparkle;Adults-Unisex;Unisex;Multi;;;Core;Home;2018;L : 35, W : 1.5, H : 50 (IN CM),HSPKATWK00000171;1799.00;;;;;;NA;;zerotype;;Winter;;No
2407305;PD20-Cream Brown-2407305;Sparkling Digital Print Flower pot On Wooden;Draft;Wall Art;Home Sparkle;Adults-Unisex;Unisex;Cream;Brown;;Core;Home;2018;L : 29, W : 1.5, H : 27 (IN CM),HSPKATWK00000170;1799.00;;;;;;NA;;zerotype;;Winter;;No
2407304;PC24-Multi-2407304;Sparkling Digital Print Waterfall On Wooden F;Draft;Wall Art;Home Sparkle;Adults-Unisex;Unisex;Multi;;;Core;Home;2018;L : 35, W : 1.5, H : 50 (IN CM),HSPKATWK00000169;1799.00;;;;;;NA;;zerotype;;Winter;;No
2407303;PA5-Multi-2407303;Sparkling Digital Print Ganesha On Wooden Fra;Draft;Wall Art;Home Sparkle;Adults-Unisex;Unisex;Multi;;;Core;Home;2018;L : 35, W : 1.5, H : 50 (IN CM),HSPKATWK00000168;1799.00;;;;;;NA;;zerotype;;Winter;;No
2407302;PA25-Blue Black-2407302;Sparkling Digital Print White Horses On Woode;Draft;Wall Art;Home Sparkle;Adults-Unisex;Unisex;Blue;Black;;Core;Home;2018;L : 50, W : 1.5, H : 35 (IN CM),HSPKATWK00000167;1799.00;;;;;;NA;;zerotype;;Winter;;No
2407301;PD3-Multi-2407301;Sparkling Digital Print Ganesha On Wooden Fra;Draft;Wall Art;Home Sparkle;Adults-Unisex;Unisex;Multi;;;Core;Home;2018;L : 29, W : 1.5, H : 27 (IN CM),HSPKATWK00000166;1799.00;;;;;;NA;;zerotype;;Winter;;No
2407300;PD7-Multi-2407300;Sparkling Digital Print Radha Krishna On Wood;Draft;Wall Art;Home Sparkle;Adults-Unisex;Unisex;Multi;;;Core;Home;2018;L : 29, W : 1.5, H : 27 (IN CM),HSPKATWK00000165;1799.00;;;;;;NA;;zerotype;;Winter;;No
2407299;PC3-Purple-2407299;Sparkling Digital Print Ganesha On Wooden Fra;Draft;Wall Art;Home Sparkle;Adults-Unisex;Unisex;Purple;;;Core;Home;2018;L : 35, W : 1.5, H : 50 (IN CM),HSPKATWK00000164;1799.00;;;;;;NA;;zerotype;;Winter;;No
2407298;PC14-Multi-2407298;Sparkling Digital Print Shiva On Wooden Frame;Draft;Wall Art;Home Sparkle;Adults-Unisex;Unisex;Multi;;;Core;Home;2018;L : 50, W : 1.5, H : 35 (IN CM),HSPKATWK00000163;1799.00;;;;;;NA;;zerotype;;Winter;;No
2407297;PB7-Brown-2407297;Sparkling Digital Print Buddha On Wooden Fram;Draft;Wall Art;Home Sparkle;Adults-Unisex;Unisex;Brown;;;Core;Home;2018;L : 35, W : 1.5, H : 50 (IN CM),HSPKATWK00000162;1799.00;;;;;;NA;;zerotype;;Winter;;No
2407296;PA20-Multi-2407296;Sparkling Digital Print Flower pot On Wooden;Draft;Wall Art;Home Sparkle;Adults-Unisex;Unisex;Multi;;;Core;Home;2018;L : 50, W : 1.5, H : 35 (IN CM),HSPKATWK00000161;1799.00;;;;;;NA;;zerotype;;Winter;;No
2407295;PE15-Brown-2407295;Sparkling Digital Print Hanuman On Wooden Fra;Draft;Wall Art;Home Sparkle;Adults-Unisex;Unisex;Brown;;;Core;Home;2018;L : 41, W : 1.5, H : 41 (IN CM),HSPKATWK00000160;1799.00;;;;;;NA;;zerotype;;Winter;;No
2407294;PB16-Multi-2407294;Sparkling Digital Print Shivaji On Wooden Fra;Draft;Wall Art;Home Sparkle;Adults-Unisex;Unisex;Multi;;;Core;Home;2018;L : 35, W : 1.5, H : 50 (IN CM),HSPKATWK00000159;1799.00;;;;;;NA;;zerotype;;Winter;;No
2407293;PD4-Purple Brown-2407293;Sparkling Digital Print Ganesha On Wooden Fra;Draft;Wall Art;Home Sparkle;Adults-Unisex;Unisex;Purple;Brown;;Core;Home;2018;L : 29, W : 1.5, H : 27 (IN CM),HSPKATWK00000158;1799.00;;;;;;NA;;zerotype;;Winter;;No
2407292;PA8-Blue-2407292;Sparkling Digital Print Radha Krishna On Wood;Draft;Wall Art;Home Sparkle;Adults-Unisex;Unisex;Blue;;;Core;Home;2018;L : 35, W : 1.5, H : 50 (IN CM),HSPKATWK00000157;1799.00;;;;;;NA;;zerotype;;Winter;;No
2407291;PE4-Multi-2407291;Sparkling Digital Print Ganesha On Wooden Fra;Draft;Wall Art;Home Sparkle;Adults-Unisex;Unisex;Multi;;;Core;Home;2018;L : 41, W : 1.5, H : 41 (IN CM),HSPKATWK00000156;1799.00;;;;;;NA;;zerotype;;Winter;;No
2407290;PA9-Brown-2407290;Sparkling Digital Print Buddha On Wooden Fram;Draft;Wall Art;Home Sparkle;Adults-Unisex;Unisex;Brown;;;Core;Home;2018;L : 50, W : 1.5, H : 35 (IN CM),HSPKATWK00000155;1799.00;;;;;;NA;;zerotype;;Winter;;No
2407289;PA24-Multi-2407289;Sparkling Digital Print Waterfall On Wooden F;Draft;Wall Art;Home Sparkle;Adults-Unisex;Unisex;Multi;;;Core;Home;2018;L : 35, W : 1.5, H : 50 (IN CM),HSPKATWK00000154;1799.00;;;;;;NA;;zerotype;;Winter;;No
2407288;PE19-White Black-2407288;Sparkling Digital Print Flower pot On Wooden;Draft;Wall Art;Home Sparkle;Adults-Unisex;Unisex;White;Black;;Core;Home;2018;L : 41, W : 1.5, H : 41 (IN CM),HSPKATWK00000153;1799.00;;;;;;NA;;zerotype;;Winter;;No
2407287;PC15-Brown-2407287;Sparkling Digital Print Hanuman On Wooden Fra;Draft;Wall Art;Home Sparkle;Adults-Unisex;Unisex;Brown;;;Core;Home;2018;L : 35, W : 1.5, H : 50 (IN CM),HSPKATWK00000152;1799.00;;;;;;NA;;zerotype;;Winter;;No
2407286;PB21-Multi-2407286;Sparkling Digital Print Nature On Wooden Fram;Draft;Wall Art;Home Sparkle;Adults-Unisex;Unisex;Multi;;;Core;Home;2018;L : 35, W : 1.5, H : 50 (IN CM),HSPKATWK00000151;1799.00;;;;;;NA;;zerotype;;Winter;;No
2407285;PE13-Blue-2407285;Sparkling Digital Print Buddha On Wooden Fram;Draft;Wall Art;Home Sparkle;Adults-Unisex;Unisex;Blue;;;Core;Home;2018;L : 41, W : 1.5, H : 41 (IN CM),HSPKATWK00000150;1799.00;;;;;;NA;;zerotype;;Winter;;No
2407284;PA18-Green-2407284;Sparkling Digital Print Mosque On Wooden Fram;Draft;Wall Art;Home Sparkle;Adults-Unisex;Unisex;Green;;;Core;Home;2018;L : 35, W : 1.5, H : 50 (IN CM),HSPKATWK00000149;1799.00;;;;;;NA;;zerotype;;Winter;;No
2407283;PB9-Multi-2407283;Sparkling Digital Print Buddha On Wooden Fram;Draft;Wall Art;Home Sparkle;Adults-Unisex;Unisex;Multi;;;Core;Home;2018;L : 35, W : 1.5, H : 50 (IN CM),HSPKATWK00000148;1799.00;;;;;;NA;;zerotype;;Winter;;No
2407282;PC11-Multi-2407282;Sparkling Digital Print Buddha On Wooden Fram;Draft;Wall Art;Home Sparkle;Adults-Unisex;Unisex;Multi;;;Core;Home;2018;L : 35, W : 1.5, H : 50 (IN CM),HSPKATWK00000147;1799.00;;;;;;NA;;zerotype;;Winter;;No
2407281;PA21-Cream Black Gold-2407281;Sparkling Digital Print Golden Temple On Wood;Draft;Wall Art;Home Sparkle;Adults-Unisex;Unisex;Cream;Black;Gold;Core;Home;2018;L : 50, W : 1.5, H : 35 (IN CM),HSPKATWK00000146;1799.00;;;;;;NA;;zerotype;;Winter;;No
2407280;PC16-Rust-2407280;Sparkling Digital Print Kali On Wooden Frame;Draft;Wall Art;Home Sparkle;Adults-Unisex;Unisex;Rust;;;Core;Home;2018;L : 35, W : 1.5, H : 50 (IN CM),HSPKATWK00000145;1799.00;;;;;;NA;;zerotype;;Winter;;No
2407279;PC17-Green-2407279;Sparkling Digital Print Mosque On Wooden Fram;Draft;Wall Art;Home Sparkle;Adults-Unisex;Unisex;Green;;;Core;Home;2018;L : 50, W : 1.5, H : 35 (IN CM),HSPKATWK00000144;1799.00;;;;;;NA;;zerotype;;Winter;;No
2407278;PD5-Multi-2407278;Sparkling Digital Print Ganesha On Wooden Fra;Draft;Wall Art;Home Sparkle;Adults-Unisex;Unisex;Multi;;;Core;Home;2018;L : 29, W : 1.5, H : 27 (IN CM),HSPKATWK00000143;1799.00;;;;;;NA;;zerotype;;Winter;;No
2407277;PA16-Rust-2407277;Sparkling Digital Print Kali On Wooden Frame;Draft;Wall Art;Home Sparkle;Adults-Unisex;Unisex;Rust;;;Core;Home;2018;L : 35, W : 1.5, H : 50 (IN CM),HSPKATWK00000142;1799.00;;;;;;NA;;zerotype;;Winter;;No
2407276;PD11-Multi-2407276;Sparkling Digital Print Buddha On Wooden Fram;Draft;Wall Art;Home Sparkle;Adults-Unisex;Unisex;Multi;;;Core;Home;2018;L : 29, W : 1.5, H : 27 (IN CM),HSPKATWK00000141;1799.00;;;;;;NA;;zerotype;;Winter;;No
2407275;PB22-Multi-2407275;Sparkling Digital Print Nature On Wooden Fram;Draft;Wall Art;Home Sparkle;Adults-Unisex;Unisex;Multi;;;Core;Home;2018;L : 35, W : 1.5, H : 50 (IN CM),HSPKATWK00000140;1799.00;;;;;;NA;;zerotype;;Winter;;No
2407274;PD16-Multi-2407274;Sparkling Digital Print Sikha Guru On Wooden;Draft;Wall Art;Home Sparkle;Adults-Unisex;Unisex;Multi;;;Core;Home;2018;L : 29, W : 1.5, H : 27 (IN CM),HSPKATWK00000139;1799.00;;;;;;NA;;zerotype;;Winter;;No
2407273;PB11-Multi-2407273;Sparkling Digital Print Shiva On Wooden Frame;Draft;Wall Art;Home Sparkle;Adults-Unisex;Unisex;Multi;;;Core;Home;2018;L : 35, W : 1.5, H : 50 (IN CM),HSPKATWK00000138;1799.00;;;;;;NA;;zerotype;;Winter;;No
2407272;PE10-Brown-2407272;Sparkling Digital Print Buddha On Wooden Fram;Draft;Wall Art;Home Sparkle;Adults-Unisex;Unisex;Brown;;;Core;Home;2018;L : 41, W : 1.5, H : 41 (IN CM),HSPKATWK00000137;1799.00;;;;;;NA;;zerotype;;Winter;;No
2407271;PA15-Multi-2407271;Sparkling Digital Print Hanuman On Wooden Fra;Draft;Wall Art;Home Sparkle;Adults-Unisex;Unisex;Multi;;;Core;Home;2018;L : 35, W : 1.5, H : 50 (IN CM),HSPKATWK00000136;1799.00;;;;;;NA;;zerotype;;Winter;;No
2407270;PE18-Green-2407270;Sparkling Digital Print Mosque On Wooden Fram;Draft;Wall Art;Home Sparkle;Adults-Unisex;Unisex;Green;;;Core;Home;2018;L : 41, W : 1.5, H : 41 (IN CM),HSPKATWK00000135;1799.00;;;;;;NA;;zerotype;;Winter;;No
2407269;PC21-Cream-2407269;Sparkling Digital Print Golden Temple On Wood;Draft;Wall Art;Home Sparkle;Adults-Unisex;Unisex;Cream;;;Core;Home;2018;L : 50, W : 1.5, H : 35 (IN CM),HSPKATWK00000134;1799.00;;;;;;NA;;zerotype;;Winter;;No
2407268;PD15-Black Brown-2407268;Sparkling Digital Print Hanuman On Wooden Fra;Draft;Wall Art;Home Sparkle;Adults-Unisex;Unisex;Black;Brown;;Core;Home;2018;L : 29, W : 1.5, H : 27 (IN CM),HSPKATWK00000133;1799.00;;;;;;NA;;zerotype;;Winter;;No
2407267;PB15-Multi-2407267;Sparkling Digital Print Sikha Guru On Wooden;Draft;Wall Art;Home Sparkle;Adults-Unisex;Unisex;Multi;;;Core;Home;2018;L : 35, W : 1.5, H : 50 (IN CM),HSPKATWK00000132;1799.00;;;;;;NA;;zerotype;;Winter;;No
2407266;PA23-Multi-2407266;Sparkling Digital Print Waterfall On Wooden F;Draft;Wall Art;Home Sparkle;Adults-Unisex;Unisex;Multi;;;Core;Home;2018;L : 35, W : 1.5, H : 50 (IN CM),HSPKATWK00000131;1799.00;;;;;;NA;;zerotype;;Winter;;No
2407265;PB1-Multi-2407265;Sparkling Digital Print Ganesha On Wooden Fra;Draft;Wall Art;Home Sparkle;Adults-Unisex;Unisex;Multi;;;Core;Home;2018;L : 35, W : 1.5, H : 50 (IN CM),HSPKATWK00000130;1799.00;;;;;;NA;;zerotype;;Winter;;No
2407264;PE21-Multi-2407264;Sparkling Digital Print Golden Temple On Wood;Draft;Wall Art;Home Sparkle;Adults-Unisex;Unisex;Multi;;;Core;Home;2018;L : 41, W : 1.5, H : 41 (IN CM),HSPKATWK00000129;1799.00;;;;;;NA;;zerotype;;Winter;;No
2407263;PE1-Teal-2407263;Sparkling Digital Print Ganesha On Wooden Fra;Draft;Wall Art;Home Sparkle;Adults-Unisex;Unisex;Teal;;;Core;Home;2018;L : 41, W : 1.5, H : 41 (IN CM),HSPKATWK00000128;1799.00;;;;;;NA;;zerotype;;Winter;;No
2407262;PA6-Multi-2407262;Sparkling Digital Print Radha Krishna On Wood;Draft;Wall Art;Home Sparkle;Adults-Unisex;Unisex;Multi;;;Core;Home;2018;L : 35, W : 1.5, H : 50 (IN CM),HSPKATWK00000127;1799.00;;;;;;NA;;zerotype;;Winter;;No
2407261;PA3-Multi-2407261;Sparkling Digital Print Ganesha On Wooden Fra;Draft;Wall Art;Home Sparkle;Adults-Unisex;Unisex;Multi;;;Core;Home;2018;L : 35, W : 1.5, H : 50 (IN CM),HSPKATWK00000126;1799.00;;;;;;NA;;zerotype;;Winter;;No
2407260;PD24-Multi-2407260;Sparkling Digital Print Village On Wooden Fra;Draft;Wall Art;Home Sparkle;Adults-Unisex;Unisex;Multi;;;Core;Home;2018;L : 29, W : 1.5, H : 27 (IN CM),HSPKATWK00000125;1799.00;;;;;;NA;;zerotype;;Winter;;No
2407259;PC1-Teal-2407259;Sparkling Digital Print Ganesha On Wooden Fra;Draft;Wall Art;Home Sparkle;Adults-Unisex;Unisex;Teal;;;Core;Home;2018;L : 50, W : 1.5, H : 35 (IN CM),HSPKATWK00000124;1799.00;;;;;;NA;;zerotype;;Winter;;No
2407258;PB23-Multi-2407258;Sparkling Digital Print White Horses On Woode;Draft;Wall Art;Home Sparkle;Adults-Unisex;Unisex;Multi;;;Core;Home;2018;L : 35, W : 1.5, H : 50 (IN CM),HSPKATWK00000123;1799.00;;;;;;NA;;zerotype;;Winter;;No
2407257;PA2-Multi-2407257;Sparkling Digital Print Ganesha On Wooden Fra;Draft;Wall Art;Home Sparkle;Adults-Unisex;Unisex;Multi;;;Core;Home;2018;L : 50, W : 1.5, H : 35 (IN CM),HSPKATWK00000122;1799.00;;;;;;NA;;zerotype;;Winter;;No
2407256;PD23-Multi-2407256;Sparkling Digital Print Waterfall On Wooden F;Draft;Wall Art;Home Sparkle;Adults-Unisex;Unisex;Multi;;;Core;Home;2018;L : 29, W : 1.5, H : 27 (IN CM),HSPKATWK00000121;1799.00;;;;;;NA;;zerotype;;Winter;;No
2407255;PB13-Multi-2407255;Sparkling Digital Print Hanuman On Wooden Fra;Draft;Wall Art;Home Sparkle;Adults-Unisex;Unisex;Multi;;;Core;Home;2018;L : 35, W : 1.5, H : 50 (IN CM),HSPKATWK00000120;1799.00;;;;;;NA;;zerotype;;Winter;;No
2407254;PC5-Multi-2407254;Sparkling Digital Print Ganesha On Wooden Fra;Draft;Wall Art;Home Sparkle;Adults-Unisex;Unisex;Multi;;;Core;Home;2018;L : 35, W : 1.5, H : 50 (IN CM),HSPKATWK00000119;1799.00;;;;;;NA;;zerotype;;Winter;;No
2407253;PD9-Brown-2407253;Sparkling Digital Print Buddha On Wooden Fram;Draft;Wall Art;Home Sparkle;Adults-Unisex;Unisex;Brown;;;Core;Home;2018;L : 29, W : 1.5, H : 27 (IN CM),HSPKATWK00000118;1799.00;;;;;;NA;;zerotype;;Winter;;No
2407252;PD18-Beige Brown-2407252;Sparkling Digital Print Vase On Wooden Frame;Draft;Wall Art;Home Sparkle;Adults-Unisex;Unisex;Beige;Brown;;Core;Home;2018;L : 29, W : 1.5, H : 27 (IN CM),HSPKATWK00000117;1799.00;;;;;;NA;;zerotype;;Winter;;No
2407251;PB8-Orange-2407251;Sparkling Digital Print Buddha On Wooden Fram;Draft;Wall Art;Home Sparkle;Adults-Unisex;Unisex;Orange;;;Core;Home;2018;L : 35, W : 1.5, H : 50 (IN CM),HSPKATWK00000116;1799.00;;;;;;NA;;zerotype;;Winter;;No
2407250;PA17-Green-2407250;Sparkling Digital Print Mosque On Wooden Fram;Draft;Wall Art;Home Sparkle;Adults-Unisex;Unisex;Green;;;Core;Home;2018;L : 50, W : 1.5, H : 35 (IN CM),HSPKATWK00000115;1799.00;;;;;;NA;;zerotype;;Winter;;No
2407249;PE12-Blue-2407249;Sparkling Digital Print Buddha On Wooden Fram;Draft;Wall Art;Home Sparkle;Adults-Unisex;Unisex;Blue;;;Core;Home;2018;L : 41, W : 1.5, H : 41 (IN CM),HSPKATWK00000114;1799.00;;;;;;NA;;zerotype;;Winter;;No
2407248;PE7-Blue-2407248;Sparkling Digital Print Radha Krishna On Wood;Draft;Wall Art;Home Sparkle;Adults-Unisex;Unisex;Blue;;;Core;Home;2018;L : 41, W : 1.5, H : 41 (IN CM),HSPKATWK00000113;1799.00;;;;;;NA;;zerotype;;Winter;;No
2407247;PA12-Blue-2407247;Sparkling Digital Print Buddha On Wooden Fram;Draft;Wall Art;Home Sparkle;Adults-Unisex;Unisex;Blue;;;Core;Home;2018;L : 35, W : 1.5, H : 50 (IN CM),HSPKATWK00000112;1799.00;;;;;;NA;;zerotype;;Winter;;No
2407246;PC13-Blue-2407246;Sparkling Digital Print Buddha On Wooden Fram;Draft;Wall Art;Home Sparkle;Adults-Unisex;Unisex;Blue;;;Core;Home;2018;L : 35, W : 1.5, H : 50 (IN CM),HSPKATWK00000111;1799.00;;;;;;NA;;zerotype;;Winter;;No
2407245;PA13-Blue-2407245;Sparkling Digital Print Buddha On Wooden Fram;Draft;Wall Art;Home Sparkle;Adults-Unisex;Unisex;Blue;;;Core;Home;2018;L : 35, W : 1.5, H : 50 (IN CM),HSPKATWK00000110;1799.00;;;;;;NA;;zerotype;;Winter;;No
2407244;PE8-Blue-2407244;Sparkling Digital Print Radha Krishna On Wood;Draft;Wall Art;Home Sparkle;Adults-Unisex;Unisex;Blue;;;Core;Home;2018;L : 41, W : 1.5, H : 41 (IN CM),HSPKATWK00000109;1799.00;;;;;;NA;;zerotype;;Winter;;No
2407243;PA4-Multi-2407243;Sparkling Digital Print Ganesha On Wooden Fra;Draft;Wall Art;Home Sparkle;Adults-Unisex;Unisex;Multi;;;Core;Home;2018;L : 35, W : 1.5, H : 50 (IN CM),HSPKATWK00000108;1799.00;;;;;;NA;;zerotype;;Winter;;No
2407242;PD25-Multi-2407242;Sparkling Digital Print Nature On Wooden Fram;Draft;Wall Art;Home Sparkle;Adults-Unisex;Unisex;Multi;;;Core;Home;2018;L : 29, W : 1.5, H : 27 (IN CM),HSPKATWK00000107;1799.00;;;;;;NA;;zerotype;;Winter;;No
2407241;PA22-Multi-2407241;Sparkling Digital Print Waterfall On Wooden F;Draft;Wall Art;Home Sparkle;Adults-Unisex;Unisex;Multi;;;Core;Home;2018;L : 35, W : 1.5, H : 50 (IN CM),HSPKATWK00000106;1799.00;;;;;;NA;;zerotype;;Winter;;No
2407240;PE17-Green-2407240;Sparkling Digital Print Mosque On Wooden Fram;Draft;Wall Art;Home Sparkle;Adults-Unisex;Unisex;Green;;;Core;Home;2018;L : 41, W : 1.5, H : 41 (IN CM),HSPKATWK00000105;1799.00;;;;;;NA;;zerotype;;Winter;;No
2407239;PC20-Brown-2407239;Sparkling Digital Print Flower pot On Wooden;Draft;Wall Art;Home Sparkle;Adults-Unisex;Unisex;Brown;;;Core;Home;2018;L : 50, W : 1.5, H : 35 (IN CM),HSPKATWK00000104;1799.00;;;;;;NA;;zerotype;;Winter;;No
2407238;PE14-Multi-2407238;Sparkling Digital Print Shiva On Wooden Frame;Draft;Wall Art;Home Sparkle;Adults-Unisex;Unisex;Multi;;;Core;Home;2018;L : 41, W : 1.5, H : 41 (IN CM),HSPKATWK00000103;1799.00;;;;;;NA;;zerotype;;Winter;;No
2407237;PA19-Off White-2407237;Sparkling Digital Print Flower pot On Wooden;Draft;Wall Art;Home Sparkle;Adults-Unisex;Unisex;Off White;;;Core;Home;2018;L : 50, W : 1.5, H : 35 (IN CM),HSPKATWK00000102;1799.00;;;;;;NA;;zerotype;;Winter;;No
2407236;PB3-Multi-2407236;Sparkling Digital Print Ganesha On Wooden Fra;Draft;Wall Art;Home Sparkle;Adults-Unisex;Unisex;Multi;;;Core;Home;2018;L : 35, W : 1.5, H : 50 (IN CM),HSPKATWK00000101;1799.00;;;;;;NA;;zerotype;;Winter;;No
2407235;PB2-Multi-2407235;Sparkling Digital Print Ganesha On Wooden Fra;Draft;Wall Art;Home Sparkle;Adults-Unisex;Unisex;Multi;;;Core;Home;2018;L : 35, W : 1.5, H : 50 (IN CM),HSPKATWK00000100;1799.00;;;;;;NA;;zerotype;;Winter;;No
2407234;PB5-Multi-2407234;Sparkling Digital Print Ganesha On Wooden Fra;Draft;Wall Art;Home Sparkle;Adults-Unisex;Unisex;Multi;;;Core;Home;2018;L : 35, W : 1.5, H : 50 (IN CM),HSPKATWK00000099;1799.00;;;;;;NA;;zerotype;;Winter;;No
2407233;PB19-Multi-2407233;Sparkling Digital Print Flower pot On Wooden;Draft;Wall Art;Home Sparkle;Adults-Unisex;Unisex;Multi;;;Core;Home;2018;L : 35, W : 1.5, H : 50 (IN CM),HSPKATWK00000098;1799.00;;;;;;NA;;zerotype;;Winter;;No
2407232;PD14-Multi-2407232;Sparkling Digital Print Shiva On Wooden Frame;Draft;Wall Art;Home Sparkle;Adults-Unisex;Unisex;Multi;;;Core;Home;2018;L : 29, W : 1.5, H : 27 (IN CM),HSPKATWK00000097;1799.00;;;;;;NA;;zerotype;;Winter;;No
2407231;PA7-Blue-2407231;Sparkling Digital Print Radha Krishna On Wood;Draft;Wall Art;Home Sparkle;Adults-Unisex;Unisex;Blue;;;Core;Home;2018;L : 35, W : 1.5, H : 50 (IN CM),HSPKATWK00000096;1799.00;;;;;;NA;;zerotype;;Winter;;No
2407230;PC8-Multi-2407230;Sparkling Digital Print Radha Krishna On Wood;Draft;Wall Art;Home Sparkle;Adults-Unisex;Unisex;Multi;;;Core;Home;2018;L : 35, W : 1.5, H : 50 (IN CM),HSPKATWK00000095;1799.00;;;;;;NA;;zerotype;;Winter;;No
2407229;PC12-Blue-2407229;Sparkling Digital Print Buddha On Wooden Fram;Draft;Wall Art;Home Sparkle;Adults-Unisex;Unisex;Blue;;;Core;Home;2018;L : 35, W : 1.5, H : 50 (IN CM),HSPKATWK00000094;1799.00;;;;;;NA;;zerotype;;Winter;;No
2407228;PA14-Multi-2407228;Sparkling Digital Print Shiva On Wooden Frame;Draft;Wall Art;Home Sparkle;Adults-Unisex;Unisex;Multi;;;Core;Home;2018;L : 50, W : 1.5, H : 35 (IN CM),HSPKATWK00000093;1799.00;;;;;;NA;;zerotype;;Winter;;No
2407227;PE9-Brown Black-2407227;Sparkling Digital Print Buddha On Wooden Fram;Draft;Wall Art;Home Sparkle;Adults-Unisex;Unisex;Brown;Black;;Core;Home;2018;L : 41, W : 1.5, H : 41 (IN CM),HSPKATWK00000092;1799.00;;;;;;NA;;zerotype;;Winter;;No
2407226;PB4-Multi-2407226;Sparkling Digital Print Ganesha On Wooden Fra;Draft;Wall Art;Home Sparkle;Adults-Unisex;Unisex;Multi;;;Core;Home;2018;L : 35, W : 1.5, H : 50 (IN CM),HSPKATWK00000091;1799.00;;;;;;NA;;zerotype;;Winter;;No
2407225;PE24-Multi-2407225;Sparkling Digital Print Waterfall On Wooden F;Draft;Wall Art;Home Sparkle;Adults-Unisex;Unisex;Multi;;;Core;Home;2018;L : 41, W : 1.5, H : 41 (IN CM),HSPKATWK00000090;1799.00;;;;;;NA;;zerotype;;Winter;;No
2407224;PC25-Blue-2407224;Sparkling Digital Print White Horses On Woode;Draft;Wall Art;Home Sparkle;Adults-Unisex;Unisex;Blue;;;Core;Home;2018;L : 50, W : 1.5, H : 35 (IN CM),HSPKATWK00000089;1799.00;;;;;;NA;;zerotype;;Winter;;No
2407223;PC4-Multi-2407223;Sparkling Digital Print Ganesha On Wooden Fra;Draft;Wall Art;Home Sparkle;Adults-Unisex;Unisex;Multi;;;Core;Home;2018;L : 35, W : 1.5, H : 50 (IN CM),HSPKATWK00000088;1799.00;;;;;;NA;;zerotype;;Winter;;No
2407222;PE6-Magenta-2407222;Sparkling Digital Print Radha Krishna On Wood;Draft;Wall Art;Home Sparkle;Adults-Unisex;Unisex;Magenta;;;Core;Home;2018;L : 41, W : 1.5, H : 41 (IN CM),HSPKATWK00000087;1799.00;;;;;;NA;;zerotype;;Winter;;No
2407221;PE26-Gold-2407221;Sparkling Digital Print Leaf Digital Printed;Draft;Wall Art;Home Sparkle;Adults-Unisex;Unisex;Gold;;;Core;Home;2018;L : 29, W : 1.5, H : 29 (IN CM),HSPKATWK00000086;1799.00;;;;;;NA;;zerotype;;Winter;;No
2407220;PB6-Multi-2407220;Sparkling Digital Print Buddha On Wooden Fram;Draft;Wall Art;Home Sparkle;Adults-Unisex;Unisex;Multi;;;Core;Home;2018;L : 35, W : 1.5, H : 50 (IN CM),HSPKATWK00000085;1799.00;;;;;;NA;;zerotype;;Winter;;No
2407219;PD6-Orange Brown-2407219;Sparkling Digital Print Radha Krishna On Wood;Draft;Wall Art;Home Sparkle;Adults-Unisex;Unisex;Orange;Brown;;Core;Home;2018;L : 29, W : 1.5, H : 27 (IN CM),HSPKATWK00000084;1799.00;;;;;;NA;;zerotype;;Winter;;No
2407218;PC2-Multi-2407218;Sparkling Digital Print Ganesha On Wooden Fra;Draft;Wall Art;Home Sparkle;Adults-Unisex;Unisex;Multi;;;Core;Home;2018;L : 50, W : 1.5, H : 35 (IN CM),HSPKATWK00000083;1799.00;;;;;;NA;;zerotype;;Winter;;No
2407217;PE22-Multi-2407217;Sparkling Digital Print Waterfall On Wooden F;Draft;Wall Art;Home Sparkle;Adults-Unisex;Unisex;Multi;;;Core;Home;2018;L : 41, W : 1.5, H : 41 (IN CM),HSPKATWK00000082;1799.00;;;;;;NA;;zerotype;;Winter;;No
2407216;PA11-Multi-2407216;Sparkling Digital Print Buddha On Wooden Fram;Draft;Wall Art;Home Sparkle;Adults-Unisex;Unisex;Multi;;;Core;Home;2018;L : 35, W : 1.5, H : 50 (IN CM),HSPKATWK00000081;1799.00;;;;;;NA;;zerotype;;Winter;;No
2407214;PE25-Blue-2407214;Sparkling Digital Print White Horses On Woode;Draft;Wall Art;Home Sparkle;Adults-Unisex;Unisex;Blue;;;Core;Home;2018;L : 41, W : 1.5, H : 41 (IN CM),HSPKATWK00000080;1799.00;;;;;;NA;;zerotype;;Winter;;No
2407212;PC7-Blue-2407212;Sparkling Digital Print Radha Krishna On Wood;Draft;Wall Art;Home Sparkle;Adults-Unisex;Unisex;Blue;;;Core;Home;2018;L : 35, W : 1.5, H : 50 (IN CM),HSPKATWK00000079;1799.00;;;;;;NA;;zerotype;;Winter;;No
2407210;PD1-Blue-2407210;Sparkling Digital Print Ganesha On Wooden Fra;Draft;Wall Art;Home Sparkle;Adults-Unisex;Unisex;Blue;;;Core;Home;2018;L : 29, W : 1.5, H : 27 (IN CM),HSPKATWK00000078;1799.00;;;;;;NA;;zerotype;;Winter;;No
2407208;PB20-Multi-2407208;Sparkling Digital Print Nature On Wooden Fram;Draft;Wall Art;Home Sparkle;Adults-Unisex;Unisex;Multi;;;Core;Home;2018;L : 35, W : 1.5, H : 50 (IN CM),HSPKATWK00000077;1799.00;;;;;;NA;;zerotype;;Winter;;No
2407207;PB10-Multi-2407207;Sparkling Digital Print Buddha On Wooden Fram;Draft;Wall Art;Home Sparkle;Adults-Unisex;Unisex;Multi;;;Core;Home;2018;L : 35, W : 1.5, H : 50 (IN CM),HSPKATWK00000076;1799.00;;;;;;NA;;zerotype;;Winter;;No
2407205;PE11-Multi-2407205;Sparkling Digital Print Buddha On Wooden Fram;Draft;Wall Art;Home Sparkle;Adults-Unisex;Unisex;Multi;;;Core;Home;2018;L : 41, W : 1.5, H : 41 (IN CM),HSPKATWK00000075;1799.00;;;;;;NA;;zerotype;;Winter;;No
2407204;PB18-Multi-2407204;Sparkling Digital Print Flower pot On Wooden;Draft;Wall Art;Home Sparkle;Adults-Unisex;Unisex;Multi;;;Core;Home;2018;L : 35, W : 1.5, H : 50 (IN CM),HSPKATWK00000074;1799.00;;;;;;NA;;zerotype;;Winter;;No
2407202;PD10-Brown-2407202;Sparkling Digital Print Buddha On Wooden Fram;Draft;Wall Art;Home Sparkle;Adults-Unisex;Unisex;Brown;;;Core;Home;2018;L : 29, W : 1.5, H : 27 (IN CM),HSPKATWK00000073;1799.00;;;;;;NA;;zerotype;;Winter;;No
2407200;PE5-Multi-2407200;Sparkling Digital Print Ganesha On Wooden Fra;Draft;Wall Art;Home Sparkle;Adults-Unisex;Unisex;Multi;;;Core;Home;2018;L : 41, W : 1.5, H : 41 (IN CM),HSPKATWK00000072;1799.00;;;;;;NA;;zerotype;;Winter;;No
2407199;PE16-Brown-2407199;Sparkling Digital Print Kali On Wooden Frame;Draft;Wall Art;Home Sparkle;Adults-Unisex;Unisex;Brown;;;Core;Home;2018;L : 41, W : 1.5, H : 41 (IN CM),HSPKATWK00000071;1799.00;;;;;;NA;;zerotype;;Winter;;No
2407198;PD12-Blue-2407198;Sparkling Digital Print Buddha On Wooden Fram;Draft;Wall Art;Home Sparkle;Adults-Unisex;Unisex;Blue;;;Core;Home;2018;L : 29, W : 1.5, H : 27 (IN CM),HSPKATWK00000070;1799.00;;;;;;NA;;zerotype;;Winter;;No
2407197;PA1-Teal-2407197;Sparkling Digital Print Ganesha On Wooden Fra;Draft;Wall Art;Home Sparkle;Adults-Unisex;Unisex;Teal;;;Core;Home;2018;L : 50, W : 1.5, H : 35 (IN CM),HSPKATWK00000069;1799.00;;;;;;NA;;zerotype;;Winter;;No
2407196;PC10-Brown-2407196;Sparkling Digital Print Buddha On Wooden Fram;Draft;Wall Art;Home Sparkle;Adults-Unisex;Unisex;Brown;;;Core;Home;2018;L : 50, W : 1.5, H : 35 (IN CM),HSPKATWK00000068;1799.00;;;;;;NA;;zerotype;;Winter;;No
2407195;PC9-Brown-2407195;Sparkling Digital Print Buddha On Wooden Fram;Draft;Wall Art;Home Sparkle;Adults-Unisex;Unisex;Brown;;;Core;Home;2018;L : 50, W : 1.5, H : 35 (IN CM),HSPKATWK00000067;1799.00;;;;;;NA;;zerotype;;Winter;;No
2407194;PB12-Multi-2407194;Sparkling Digital Print Radha Krishna On Wood;Draft;Wall Art;Home Sparkle;Adults-Unisex;Unisex;Multi;;;Core;Home;2018;L : 35, W : 1.5, H : 50 (IN CM),HSPKATWK00000066;1799.00;;;;;;NA;;zerotype;;Winter;;No
2407193;PB14-Multi-2407193;Sparkling Digital Print Mosque On Wooden Fram;Draft;Wall Art;Home Sparkle;Adults-Unisex;Unisex;Multi;;;Core;Home;2018;L : 35, W : 1.5, H : 50 (IN CM),HSPKATWK00000065;1799.00;;;;;;NA;;zerotype;;Winter;;No
2407192;PE23-Multi-2407192;Sparkling Digital Print Waterfall On Wooden F;Draft;Wall Art;Home Sparkle;Adults-Unisex;Unisex;Multi;;;Core;Home;2018;L : 41, W : 1.5, H : 41 (IN CM),HSPKATWK00000064;1799.00;;;;;;NA;;zerotype;;Winter;;No
2407191;PC6-Multi-2407191;Sparkling Digital Print Radha Krishna On Wood;Draft;Wall Art;Home Sparkle;Adults-Unisex;Unisex;Multi;;;Core;Home;2018;L : 35, W : 1.5, H : 50 (IN CM),HSPKATWK00000063;1799.00;;;;;;NA;;zerotype;;Winter;;No
2407190;PE20-Beige-2407190;Sparkling Digital Print Flower pot On Wooden;Draft;Wall Art;Home Sparkle;Adults-Unisex;Unisex;Beige;;;Core;Home;2018;L : 41, W : 1.5, H : 41 (IN CM),HSPKATWK00000062;1799.00;;;;;;NA;;zerotype;;Winter;;No
2407189;PE2-Blue-2407189;Sparkling Digital Print Ganesha On Wooden Fra;Draft;Wall Art;Home Sparkle;Adults-Unisex;Unisex;Blue;;;Core;Home;2018;L : 41, W : 1.5, H : 41 (IN CM),HSPKATWK00000061;1799.00;;;;;;NA;;zerotype;;Winter;;No
2407188;PC23-Brown-2407188;Sparkling Digital Print Waterfall On Wooden F;Draft;Wall Art;Home Sparkle;Adults-Unisex;Unisex;Brown;;;Core;Home;2018;L : 35, W : 1.5, H : 50 (IN CM),HSPKATWK00000060;1799.00;;;;;;NA;;zerotype;;Winter;;No
2407187;PE3-Purple-2407187;Sparkling Digital Print Ganesha On Wooden Fra;Draft;Wall Art;Home Sparkle;Adults-Unisex;Unisex;Purple;;;Core;Home;2018;L : 41, W : 1.5, H : 41 (IN CM),HSPKATWK00000059;1799.00;;;;;;NA;;zerotype;;Winter;;No
