Style ID;Vendor Article Number;Vendor Article Name;Active Status;Article type;Brand;Age Group;Gender;Base Colour;Colour1;Colour2;Fashion Type;Usage;Year;Size - SKU code pair;MRP;Style Description;Style Note;Materials and Care Description;Size and Fit Description;Size Chart Path;Product Display Name;Tags;Product Type;Classification Brand;Season;Comments;Upload Images
1953119;5021469181555-Teal-1953119;IO FOLK LS AWESOME SLGN TEE, TURQ, 140;Draft;Tshirts;mothercare;Kids-Girls;Girls;Teal;;;Fashion;;2016;3-4 Y,MTCRTSHT00007442,4-5 Y,MTCRTSHT00007443,5-6 Y,MTCRTSHT00007444,6-7 Y,MTCRTSHT00007445,7-8 Y,MTCRTSHT00007446,8-9 Y,MTCRTSHT00007447,9-10 Y,MTCRTSHT00007448;599.00;;;;;;;;zerotype;;Winter;;No
1953114;5021469743821-Red-1953114;JB CN RED&GRYMR, RED, 140;Draft;Tshirts;mothercare;Kids-Boys;Boys;Red;;;Fashion;;2016;3-4 Y,MTCRTSHT00007435,4-5 Y,MTCRTSHT00007436,5-6 Y,MTCRTSHT00007437,6-7 Y,MTCRTSHT00007438,7-8 Y,MTCRTSHT00007439,8-9 Y,MTCRTSHT00007440,9-10 Y,MTCRTSHT00007441;599.00;;;;;;;;zerotype;;Winter;;No
1953109;5021469088977-Pink-1953109;HERITGE IO UPSPC UBR CROWN TE, PINK, 140;Draft;Tshirts;mothercare;Kids-Girls;Girls;Pink;;;Fashion;;2016;3-4 Y,MTCRTSHT00007428,4-5 Y,MTCRTSHT00007429,5-6 Y,MTCRTSHT00007430,6-7 Y,MTCRTSHT00007431,7-8 Y,MTCRTSHT00007432,8-9 Y,MTCRTSHT00007433,9-10 Y,MTCRTSHT00007434;699.00;;;;;;;;zerotype;;Winter;;No
1953103;5021469524185-Off White-1953103;URBARC SLOGAN L, CREAM, 140;Draft;Tshirts;mothercare;Kids-Boys;Boys;Off White;;;Fashion;;2016;3-4 Y,MTCRTSHT00007421,4-5 Y,MTCRTSHT00007422,5-6 Y,MTCRTSHT00007423,6-7 Y,MTCRTSHT00007424,7-8 Y,MTCRTSHT00007425,8-9 Y,MTCRTSHT00007426,9-10 Y,MTCRTSHT00007427;599.00;;;;;;;;zerotype;;Winter;;No
1953097;5021465557941-Peach-1953097;IO RED POLO TOP, RED, 128;Draft;Tshirts;mothercare;Kids-Boys;Boys;Peach;;;Fashion;;2014;18-24 M,MTCRTSHT00007414,2-3 Y,MTCRTSHT00007415,3-4 Y,MTCRTSHT00007416,4-5 Y,MTCRTSHT00007417,5-6 Y,MTCRTSHT00007418,6-7 Y,MTCRTSHT00007419,7-8 Y,MTCRTSHT00007420;799.00;;;;;;;;zerotype;;Summer;;No
1953091;5021463238927-Pink-1953091;IO SR SS LITTLE, PINK, 098;Draft;Tshirts;mothercare;Kids-Girls;Girls;Pink;;;Fashion;;2014;3-6 M,MTCRTSHT00007408,6-9 M,MTCRTSHT00007409,9-12 M,MTCRTSHT00007410,12-18 M,MTCRTSHT00007411,18-24 M,MTCRTSHT00007412,2-3 Y,MTCRTSHT00007413;399.00;;;;;;;;zerotype;;Summer;;No
1953086;5021463002634-Navy Blue-1953086;VALUE 2 FOR 7 P, NAVY, 098;Draft;Tshirts;mothercare;Kids-Boys;Boys;Navy Blue;;;Fashion;;2014;3-6 M,MTCRTSHT00007402,6-9 M,MTCRTSHT00007403,9-12 M,MTCRTSHT00007404,12-18 M,MTCRTSHT00007405,18-24 M,MTCRTSHT00007406,2-3 Y,MTCRTSHT00007407;699.00;;;;;;;;zerotype;;Summer;;No
1953082;5021466489715-Pink-1953082;IO G 2PK DANCIN, MULTI, 140;Draft;Dresses;mothercare;Kids-Girls;Girls;Pink;;;Fashion;;2015;2-3 Y,MTCRDRSS00001989,3-4 Y,MTCRDRSS00001990,4-5 Y,MTCRDRSS00001991,5-6 Y,MTCRDRSS00001992,6-7 Y,MTCRDRSS00001993,7-8 Y,MTCRDRSS00001994,8-9 Y,MTCRDRSS00001995,9-10 Y,MTCRDRSS00001996;1499.00;;;;;;;;zerotype;;Summer;;No
1953077;5021465846519-Yellow-1953077;G YEL AOP SATIN, LEMON, 086;Draft;Dresses;mothercare;Kids-Girls;Girls;Yellow;;;Fashion;;2014;NEWBORN,MTCRDRSS00001983,0-3 M,MTCRDRSS00001984,3-6 M,MTCRDRSS00001985,6-9 M,MTCRDRSS00001986,9-12 M,MTCRDRSS00001987,12-18 M,MTCRDRSS00001988;1899.00;;;;;;;;zerotype;;Summer;;No
1953072;5021469264258-Red-1953072;UX AIO PRESENT, RED, 086;Draft;Sleepsuit;mothercare;Kids-Unisex;Unisex;Red;;;Fashion;;2016;NEWBORN,MTCRSPST00001122,0-3 M,MTCRSPST00001123,3-6 M,MTCRSPST00001124,6-9 M,MTCRSPST00001125,9-12 M,MTCRSPST00001126,12-18 M,MTCRSPST00001127;999.00;;;;;;;;zerotype;;Winter;;No
1953067;5021469263954-Grey Melange-1953067;UX AIO SPROUT F, GMARL, 086;Draft;Sleepsuit;mothercare;Kids-Unisex;Unisex;Grey Melange;;;Fashion;;2016;NEWBORN,MTCRSPST00001116,0-3 M,MTCRSPST00001117,3-6 M,MTCRSPST00001118,6-9 M,MTCRSPST00001119,9-12 M,MTCRSPST00001120,12-18 M,MTCRSPST00001121;999.00;;;;;;;;zerotype;;Winter;;No
1953063;5021468154888-Blue-1953063;B 2PK LEG AOP&S, BLUE, 086;Draft;Pyjamas;mothercare;Kids-Boys;Boys;Blue;;;Fashion;;2016;NEWBORN,MTCRPJPJ00001004,0-3 M,MTCRPJPJ00001005,3-6 M,MTCRPJPJ00001006,6-9 M,MTCRPJPJ00001007,9-12 M,MTCRPJPJ00001008,12-18 M,MTCRPJPJ00001009;899.00;;;;;;;;zerotype;;Winter;;No
1953059;5021465038006-Navy Blue-1953059;NV CFD LD IN JG, NAVY, 098;Draft;Pyjamas;mothercare;Kids-Boys;Boys;Navy Blue;;;Fashion;;2014;3-6 M,MTCRPJPJ00000998,6-9 M,MTCRPJPJ00000999,9-12 M,MTCRPJPJ00001000,12-18 M,MTCRPJPJ00001001,18-24 M,MTCRPJPJ00001002,2-3 Y,MTCRPJPJ00001003;699.00;;;;;;;;zerotype;;Winter;;No
1953056;5021468657402-Red-1953056;IO UX 3PK SLP T, RED, 080;Draft;Clothing Set;mothercare;Kids-Unisex;Unisex;Red;;;Fashion;;2016;TINY BABY,MTCRCLST00001145,NEWBORN,MTCRCLST00001146,0-3 M,MTCRCLST00001147,3-6 M,MTCRCLST00001148,6-9 M,MTCRCLST00001149,9-12 M,MTCRCLST00001150;2099.00;;;;;;;;zerotype;;Winter;;No
1953053;5021465186257-Blue-1953053;IO B 2PK HANG P, BLUE, 092;Draft;Clothing Set;mothercare;Kids-Boys;Boys;Blue;;;Fashion;;2016;NEWBORN,MTCRCLST00001138,0-3 M,MTCRCLST00001139,3-6 M,MTCRCLST00001140,6-9 M,MTCRCLST00001141,9-12 M,MTCRCLST00001142,12-18 M,MTCRCLST00001143,18-24 M,MTCRCLST00001144;1499.00;;;;;;;;zerotype;;Winter;;No
1953047;5021468201506-Grey Melange-1953047;SOFT MARL PRETT, PINK, 140;Draft;Clothing Set;mothercare;Kids-Girls;Girls;Grey Melange;;;Fashion;;2016;2-3 Y,MTCRCLST00001130,3-4 Y,MTCRCLST00001131,4-5 Y,MTCRCLST00001132,5-6 Y,MTCRCLST00001133,6-7 Y,MTCRCLST00001134,7-8 Y,MTCRCLST00001135,8-9 Y,MTCRCLST00001136,9-10 Y,MTCRCLST00001137;999.00;;;;;;;;zerotype;;Winter;;No
1953041;5021468168656-Grey Melange-1953041;2PK BUTTERFLY S, PASTM, 140;Draft;Clothing Set;mothercare;Kids-Girls;Girls;Grey Melange;;;Fashion;;2016;2-3 Y,MTCRCLST00001122,3-4 Y,MTCRCLST00001123,4-5 Y,MTCRCLST00001124,5-6 Y,MTCRCLST00001125,6-7 Y,MTCRCLST00001126,7-8 Y,MTCRCLST00001127,8-9 Y,MTCRCLST00001128,9-10 Y,MTCRCLST00001129;2099.00;;;;;;;;zerotype;;Winter;;No
1953039;5021466910974-White-1953039;B POLO ROMP MUL, MULTI, 086;Draft;Rompers;mothercare;Kids-Boys;Boys;White;;;Fashion;;2015;NEWBORN,MTCRRMPR00000856,0-3 M,MTCRRMPR00000857,3-6 M,MTCRRMPR00000858,6-9 M,MTCRRMPR00000859,9-12 M,MTCRRMPR00000860,12-18 M,MTCRRMPR00000861;799.00;;;;;;;;zerotype;;Summer;;No
