Style ID;Vendor Article Number;Vendor Article Name;Active Status;Article type;Brand;Age Group;Gender;Base Colour;Colour1;Colour2;Fashion Type;Usage;Year;Size - SKU code pair;MRP;Style Description;Style Note;Materials and Care Description;Size and Fit Description;Size Chart Path;Product Display Name;Tags;Product Type;Classification Brand;Season;Comments;Upload Images
2144176;13750300-2-2144176;TROUSERS FLUIDO;QC Reject;Trousers;MANGO;Adults-Women;Women;;;;Fashion;;2017;21/M,MNGOTRSR00001698,22/L,MNGOTRSR00001699,20/S,MNGOTRSR00001700;1990.00;;;<p>Viscose Rayon</p>;;;;;zerotype;;Fall;OHS to QCR;No
2144155;13045697-OR-2144155;NECKLACE PIET;Draft;Necklace and Chains;MANGO;Adults-Women;Women;;;;Fashion;;2017;99/ One size,MNGONECK00000045;1490.00;;;<p>Brass</p>;;;;;zerotype;;Fall;;No
2144148;13063010-37-2144148;TROUSERS NINA1-H;QC Reject;Trousers;MANGO;Adults-Women;Women;;;;Fashion;;2017;34,MNGOTRSR00001662,36,MNGOTRSR00001663,38,MNGOTRSR00001664,40,MNGOTRSR00001665;2390.00;;;<p>Polyester</p>;;;;;zerotype;;Fall;OHS to QCR;No
2144138;13025684-15-2144138;TROUSERS CHINA;QC Reject;Trousers;MANGO;Adults-Women;Women;;;;Fashion;;2017;34,MNGOTRSR00001621,36,MNGOTRSR00001622,38,MNGOTRSR00001623,40,MNGOTRSR00001624;3590.00;;;<p>Polyester</p>;;;;;zerotype;;Fall;OHS to QCR;No
2144137;13023027-69-2144137;TROUSERS AVANTIP1;QC Reject;Trousers;MANGO;Adults-Women;Women;;;;Fashion;;2017;36,MNGOTRSR00001616,38,MNGOTRSR00001617,40,MNGOTRSR00001618,34,MNGOTRSR00001619,42,MNGOTRSR00001620;2590.00;;;<p>Polyester</p>;;;;;zerotype;;Fall;OHS to QCR;No
2144134;13013679-99-2144134;TROUSERS TORT;QC Reject;Trousers;MANGO;Adults-Women;Women;;;;Fashion;;2017;34,MNGOTRSR00001602,36,MNGOTRSR00001603,38,MNGOTRSR00001604,40,MNGOTRSR00001605,42,MNGOTRSR00001606;3590.00;;;<p>Polyester</p>;;;;;zerotype;;Fall;OHS to QCR;No
2144127;11063721-92-2144127;TROUSERS ENCLUCAS;Draft;Trousers;MANGO;Adults-Women;Women;;;;Fashion;;2017;36,MNGOTRSR00001579,38,MNGOTRSR00001580;4990.00;;;<p>Polyester</p>;;;;;zerotype;;Fall;;No
2144123;11053707-69-2144123;TROUSERS DEPMERCE;QC Reject;Trousers;MANGO;Adults-Women;Women;;;;Fashion;;2017;36,MNGOTRSR00001563,38,MNGOTRSR00001564;3590.00;;;<p>Polyester</p>;;;;;zerotype;;Fall;OHS to QCR;No
2144109;14063661-50-2144109;BLOUSE GLOBO-H;QC Reject;Tops;MANGO;Adults-Women;Women;;;;Fashion;;2017;20/S,MNGOTOPS00004564,21/M,MNGOTOPS00004565,22/L,MNGOTOPS00004566;2590.00;;;<p>Cotton</p>;;;;;zerotype;;Fall;OHS to QCR;No
2144107;14040354-TC-2144107;BLOUSE TIBI;Draft;Tops;MANGO;Adults-Women;Women;;;;Fashion;;2017;20/S,MNGOTOPS00004563;2590.00;;;<p>Lyocell</p>;;;;;zerotype;;Fall;;No
2144104;13093669-12-2144104;BLOUSE AREA-H;On Hold - Sample;Tops;MANGO;Adults-Women;Women;;;;Fashion;;2017;19/XS,MNGOTOPS00004558,20/S,MNGOTOPS00004559,21/M,MNGOTOPS00004560;2390.00;;;<p>Cotton</p>;;;;;zerotype;;Fall;D to OHS;No
2144101;13083657-50-2144101;BLOUSE FAMA-H;On Hold - Sample;Tops;MANGO;Adults-Women;Women;;;;Fashion;;2017;19/XS,MNGOTOPS00004546,20/S,MNGOTOPS00004547,21/M,MNGOTOPS00004548,22/L,MNGOTOPS00004549;2990.00;;;<p>Cotton</p>;;;;;zerotype;;Fall;D to OHS;No
2144100;13083652-1-2144100;BLOUSE HOLLY-H;QC Reject;Tops;MANGO;Adults-Women;Women;;;;Fashion;;2017;19/XS,MNGOTOPS00004542,20/S,MNGOTOPS00004543,21/M,MNGOTOPS00004544,22/L,MNGOTOPS00004545;2990.00;;;<p>Cotton</p>;;;;;zerotype;;Fall;OHS to QCR;No
2144096;13073652-1-2144096;BLOUSE RYAN-H;QC Reject;Tops;MANGO;Adults-Women;Women;;;;Fashion;;2017;19/XS,MNGOTOPS00004530,20/S,MNGOTOPS00004531,21/M,MNGOTOPS00004532,22/L,MNGOTOPS00004533;2590.00;;;<p>Cotton</p>;;;;;zerotype;;Fall;OHS to QCR;No
2144087;13063722-99-2144087;BLOUSE VICTORIA;QC Reject;Tops;MANGO;Adults-Women;Women;;;;Fashion;;2017;20/S,MNGOTOPS00004502,21/M,MNGOTOPS00004503,22/L,MNGOTOPS00004504;3990.00;;;<p>Polyester</p>;;;;;zerotype;;Fall;OHS to QCR;No
2144085;13055684-50-2144085;BLOUSE RIB-H;QC Reject;Tops;MANGO;Adults-Women;Women;;;;Fashion;;2017;19/XS,MNGOTOPS00004491,20/S,MNGOTOPS00004492,21/M,MNGOTOPS00004493,22/L,MNGOTOPS00004494;2990.00;;;<p>Cotton</p>;;;;;zerotype;;Fall;OHS to QCR;No
2144077;13053658-51-2144077;BLOUSE COSI-H;QC Reject;Tops;MANGO;Adults-Women;Women;;;;Fashion;;2017;19/XS,MNGOTOPS00004475,20/S,MNGOTOPS00004476,21/M,MNGOTOPS00004477,22/L,MNGOTOPS00004478;2990.00;;;<p>Cotton</p>;;;;;zerotype;;Fall;OHS to QCR;No
2144076;13053015-51-2144076;BLOUSE LUCIAP-H;QC Reject;Tops;MANGO;Adults-Women;Women;;;;Fashion;;2017;19/XS,MNGOTOPS00004471,20/S,MNGOTOPS00004472,21/M,MNGOTOPS00004473,22/L,MNGOTOPS00004474;2390.00;;;<p>Cotton</p>;;;;;zerotype;;Fall;OHS to QCR;No
2144069;13033713-99-2144069;BLOUSON ACTOR-A;On Hold - Sample;Tops;MANGO;Adults-Women;Women;;;;Fashion;;2017;20/S,MNGOTOPS00004453,21/M,MNGOTOPS00004454,22/L,MNGOTOPS00004455,23/XL,MNGOTOPS00004456;2490.00;;;<p>Polyester</p>;;;;;zerotype;;Fall;D to OHS;No
2144065;13025679-1-2144065;BLOUSE MAGGIE-H;QC Reject;Tops;MANGO;Adults-Women;Women;;;;Fashion;;2017;19/XS,MNGOTOPS00004445,20/S,MNGOTOPS00004446,21/M,MNGOTOPS00004447,22/L,MNGOTOPS00004448;2990.00;;;<p>Cotton</p>;;;;;zerotype;;Fall;OHS to QCR;No
2144064;13023699-5-2144064;BLOUSE IVORY;On Hold - Sample;Tops;MANGO;Adults-Women;Women;;;;Fashion;;2017;20/S,MNGOTOPS00004442,21/M,MNGOTOPS00004443,22/L,MNGOTOPS00004444;6590.00;;;<p>Synthetic</p>;;;;;zerotype;;Fall;D to OHS;No
2144058;13013708-50-2144058;BLOUSE TAMBOR;QC Reject;Tops;MANGO;Adults-Women;Women;;;;Fashion;;2017;19/XS,MNGOTOPS00004424,20/S,MNGOTOPS00004425,21/M,MNGOTOPS00004426,22/L,MNGOTOPS00004427,23/XL,MNGOTOPS00004428;2990.00;;;<p>Cotton</p>;;;;;zerotype;;Fall;OHS to QCR;No
2144057;13013703-TO-2144057;BLOUSE BARISTA;On Hold - Sample;Tops;MANGO;Adults-Women;Women;;;;Fashion;;2017;20/S,MNGOTOPS00004422,21/M,MNGOTOPS00004423;4590.00;;;<p>Cotton</p>;;;;;zerotype;;Fall;D to OHS;No
2144056;13013035-99-2144056;BLOUSE GARDENI;QC Reject;Tops;MANGO;Adults-Women;Women;;;;Fashion;;2017;20/S,MNGOTOPS00004419,21/M,MNGOTOPS00004420,22/L,MNGOTOPS00004421;4590.00;;;<p>Synthetic</p>;;;;;zerotype;;Fall;OHS to QCR;No
2144054;13003727-2-2144054;BLOUSE ALANIS;QC Reject;Tops;MANGO;Adults-Women;Women;;;;Fashion;;2017;20/S,MNGOTOPS00004413,21/M,MNGOTOPS00004414,22/L,MNGOTOPS00004415;2390.00;;;<p>Viscose Rayon</p>;;;;;zerotype;;Fall;OHS to QCR;No
2144053;13003725-56-2144053;BLOUSE RING;QC Reject;Tops;MANGO;Adults-Women;Women;;;;Fashion;;2017;20/S,MNGOTOPS00004410,21/M,MNGOTOPS00004411,22/L,MNGOTOPS00004412;2590.00;;;<p>Cotton</p>;;;;;zerotype;;Fall;OHS to QCR;No
2144051;13003725-1-2144051;BLOUSE RING;QC Reject;Tops;MANGO;Adults-Women;Women;;;;Fashion;;2017;20/S,MNGOTOPS00004407,21/M,MNGOTOPS00004408,22/L,MNGOTOPS00004409;2590.00;;;<p>Cotton</p>;;;;;zerotype;;Fall;OHS to QCR;No
2144050;13003712-56-2144050;BLOUSE NAOMI-A;On Hold - Sample;Tops;MANGO;Adults-Women;Women;;;;Fashion;;2017;21/M,MNGOTOPS00004404,22/L,MNGOTOPS00004405,23/XL,MNGOTOPS00004406;2490.00;;;<p>Cotton</p>;;;;;zerotype;;Fall;D to OHS;No
2144049;13003712-50-2144049;BLOUSE NAOMI-A;QC Reject;Tops;MANGO;Adults-Women;Women;;;;Fashion;;2017;19/XS,MNGOTOPS00004399,20/S,MNGOTOPS00004400,21/M,MNGOTOPS00004401,22/L,MNGOTOPS00004402,23/XL,MNGOTOPS00004403;2490.00;;;<p>Cotton</p>;;;;;zerotype;;Fall;OHS to QCR;No
2144048;13003712-2-2144048;BLOUSE NAOMI-A;QC Reject;Tops;MANGO;Adults-Women;Women;;;;Fashion;;2017;19/XS,MNGOTOPS00004394,20/S,MNGOTOPS00004395,21/M,MNGOTOPS00004396,22/L,MNGOTOPS00004397,23/XL,MNGOTOPS00004398;2490.00;;;<p>Cotton</p>;;;;;zerotype;;Fall;OHS to QCR;No
2144042;11943029-88-2144042;BLOUSE LENA1;QC Reject;Tops;MANGO;Adults-Women;Women;;;;Fashion;;2017;19/XS,MNGOTOPS00004380,20/S,MNGOTOPS00004381,21/M,MNGOTOPS00004382,22/L,MNGOTOPS00004383,23/XL,MNGOTOPS00004384;2990.00;;;<p>Polyester</p>;;;;;zerotype;;Fall;OHS to QCR;No
2144039;11090656-85-2144039;BLOUSE LENT;QC Reject;Tops;MANGO;Adults-Women;Women;;;;Fashion;;2017;19/XS,MNGOTOPS00004369,20/S,MNGOTOPS00004370,21/M,MNGOTOPS00004371,22/L,MNGOTOPS00004372;2990.00;;;<p>Polyester</p>;;;;;zerotype;;Fall;OHS to QCR;No
2144037;11080775-74-2144037;BLOUSE PINK;Draft;Tops;MANGO;Adults-Women;Women;;;;Fashion;;2017;20/S,MNGOTOPS00004364,21/M,MNGOTOPS00004365,22/L,MNGOTOPS00004366;3590.00;;;<p>Polyester</p>;;;;;zerotype;;Fall;;No
2144036;11055035-70-2144036;BLOUSE DIAGONAL;QC Reject;Tops;MANGO;Adults-Women;Women;;;;Fashion;;2017;20/S,MNGOTOPS00004361,21/M,MNGOTOPS00004362,22/L,MNGOTOPS00004363;4590.00;;;<p>Polyester</p>;;;;;zerotype;;Fall;OHS to QCR;No
2144035;11050874-TC-2144035;BLOUSE OFFSHOUL;QC Reject;Tops;MANGO;Adults-Women;Women;;;;Fashion;;2017;20/S,MNGOTOPS00004359,21/M,MNGOTOPS00004360;3590.00;;;<p>Cotton</p>;;;;;zerotype;;Fall;OHS to QCR;No
2144026;11013038-14-2144026;BLOUSE LIMA-H;On Hold - Sample;Tops;MANGO;Adults-Women;Women;;;;Fashion;;2017;21/M,MNGOTOPS00004330,19/XS,MNGOTOPS00004331,20/S,MNGOTOPS00004332;3590.00;;;<p>Synthetic</p>;;;;;zerotype;;Fall;D to OHS;No
2144022;11003693-2-2144022;BLOUSE VIC;QC Reject;Tops;MANGO;Adults-Women;Women;;;;Fashion;;2017;19/XS,MNGOTOPS00004320,20/S,MNGOTOPS00004321,21/M,MNGOTOPS00004322,22/L,MNGOTOPS00004323,23/XL,MNGOTOPS00004324;3590.00;;;<p>Polyester</p>;;;;;zerotype;;Fall;OHS to QCR;No
2144021;11003690-99-2144021;BLOUSE PUCHI;QC Reject;Tops;MANGO;Adults-Women;Women;;;;Fashion;;2017;22/L,MNGOTOPS00004315,19/XS,MNGOTOPS00004316,20/S,MNGOTOPS00004317,21/M,MNGOTOPS00004318,23/XL,MNGOTOPS00004319;2590.00;;;<p>Polyester</p>;;;;;zerotype;;Fall;OHS to QCR;No
2144020;11003690-53-2144020;BLOUSE PUCHI;QC Reject;Tops;MANGO;Adults-Women;Women;;;;Fashion;;2017;19/XS,MNGOTOPS00004310,20/S,MNGOTOPS00004311,21/M,MNGOTOPS00004312,23/XL,MNGOTOPS00004313,22/L,MNGOTOPS00004314;2590.00;;;<p>Polyester</p>;;;;;zerotype;;Fall;OHS to QCR;No
2144019;11003690-2-2144019;BLOUSE PUCHI;QC Reject;Tops;MANGO;Adults-Women;Women;;;;Fashion;;2017;19/XS,MNGOTOPS00004306,20/S,MNGOTOPS00004307,21/M,MNGOTOPS00004308,22/L,MNGOTOPS00004309;2590.00;;;<p>Polyester</p>;;;;;zerotype;;Fall;OHS to QCR;No
2143956;14013676-88-2143956;T-SHIRT DOG-H;QC Reject;Tshirts;MANGO;Adults-Women;Women;;;;Fashion;;2017;19/XS,MNGOTSHT00006396,20/S,MNGOTSHT00006397,21/M,MNGOTSHT00006398,22/L,MNGOTSHT00006399;990.00;;;<p>Cotton</p>;;;;;zerotype;;Fall;OHS to QCR;No
2143955;14013676-45-2143955;T-SHIRT DOG-H;On Hold - Sample;Tshirts;MANGO;Adults-Women;Women;;;;Fashion;;2017;19/XS,MNGOTSHT00006393,21/M,MNGOTSHT00006394,22/L,MNGOTSHT00006395;990.00;;;<p>Cotton</p>;;;;;zerotype;;Fall;D to OHS;No
2143954;14013676-1-2143954;T-SHIRT DOG-H;On Hold - Sample;Tshirts;MANGO;Adults-Women;Women;;;;Fashion;;2017;19/XS,MNGOTSHT00006389,20/S,MNGOTSHT00006390,21/M,MNGOTSHT00006391,22/L,MNGOTSHT00006392;990.00;;;<p>Cotton</p>;;;;;zerotype;;Fall;D to OHS;No
2143953;14003780-99-2143953;T-SHIRT CAMICORS;On Hold - Sample;Tshirts;MANGO;Adults-Women;Women;;;;Fashion;;2017;21/M,MNGOTSHT00006388;1990.00;;;<p>Cotton</p>;;;;;zerotype;;Fall;D to OHS;No
2143950;13995683-99-2143950;T-SHIRT SKULL;QC Reject;Tshirts;MANGO;Adults-Women;Women;;;;Fashion;;2017;21/M,MNGOTSHT00006383,22/L,MNGOTSHT00006384,20/S,MNGOTSHT00006385;2290.00;;;<p>Cotton</p>;;;;;zerotype;;Fall;OHS to QCR;No
2143946;13913721-94-2143946;T-SHIRT CHALONEW;QC Reject;Tshirts;MANGO;Adults-Women;Women;;;;Fashion;;2017;19/XS,MNGOTSHT00006368,20/S,MNGOTSHT00006369,21/M,MNGOTSHT00006370,22/L,MNGOTSHT00006371,23/XL,MNGOTSHT00006372;790.00;;;<p>Viscose Rayon</p>;;;;;zerotype;;Fall;OHS to QCR;No
2143943;13903677-99-2143943;T-SHIRT ILUSTRA2;On Hold - Sample;Tshirts;MANGO;Adults-Women;Women;;;;Fashion;;2017;19/XS,MNGOTSHT00006358,22/L,MNGOTSHT00006359,20/S,MNGOTSHT00006360,21/M,MNGOTSHT00006361;690.00;;;<p>Cotton</p>;;;;;zerotype;;Fall;D to OHS;No
2143942;13903677-1-2143942;T-SHIRT ILUSTRA2;On Hold - Sample;Tshirts;MANGO;Adults-Women;Women;;;;Fashion;;2017;19/XS,MNGOTSHT00006354,20/S,MNGOTSHT00006355,21/M,MNGOTSHT00006356,22/L,MNGOTSHT00006357;690.00;;;<p>Cotton</p>;;;;;zerotype;;Fall;D to OHS;No
2143941;13803677-92-2143941;T-SHIRT ILUSTRA2;QC Reject;Tshirts;MANGO;Adults-Women;Women;;;;Fashion;;2017;19/XS,MNGOTSHT00006350,20/S,MNGOTSHT00006351,21/M,MNGOTSHT00006352,22/L,MNGOTSHT00006353;790.00;;;<p>Viscose Rayon</p>;;;;;zerotype;;Fall;OHS to QCR;No
2143935;13053706-99-2143935;T-SHIRT CUSO;QC Reject;Tshirts;MANGO;Adults-Women;Women;;;;Fashion;;2017;23/XL,MNGOTSHT00006329,19/XS,MNGOTSHT00006330,20/S,MNGOTSHT00006331,21/M,MNGOTSHT00006332,22/L,MNGOTSHT00006333;990.00;;;<p>Cotton</p>;;;;;zerotype;;Fall;OHS to QCR;No
2143934;13053706-15-2143934;T-SHIRT CUSO;On Hold - Sample;Tshirts;MANGO;Adults-Women;Women;;;;Fashion;;2017;19/XS,MNGOTSHT00006324,23/XL,MNGOTSHT00006325,20/S,MNGOTSHT00006326,21/M,MNGOTSHT00006327,22/L,MNGOTSHT00006328;990.00;;;<p>Cotton</p>;;;;;zerotype;;Fall;D to OHS;No
2143933;13053706-2-2143933;T-SHIRT CUSO;On Hold - Sample;Tshirts;MANGO;Adults-Women;Women;;;;Fashion;;2017;19/XS,MNGOTSHT00006319,23/XL,MNGOTSHT00006320,20/S,MNGOTSHT00006321,21/M,MNGOTSHT00006322,22/L,MNGOTSHT00006323;990.00;;;<p>Cotton</p>;;;;;zerotype;;Fall;D to OHS;No
2143932;13053706-1-2143932;T-SHIRT CUSO;QC Reject;Tshirts;MANGO;Adults-Women;Women;;;;Fashion;;2017;19/XS,MNGOTSHT00006314,20/S,MNGOTSHT00006315,21/M,MNGOTSHT00006316,22/L,MNGOTSHT00006317,23/XL,MNGOTSHT00006318;990.00;;;<p>Cotton</p>;;;;;zerotype;;Fall;OHS to QCR;No
2143929;13035680-56-2143929;T-SHIRT LUCKYU-H;QC Reject;Tshirts;MANGO;Adults-Women;Women;;;;Fashion;;2017;19/XS,MNGOTSHT00006304,20/S,MNGOTSHT00006305,21/M,MNGOTSHT00006306,22/L,MNGOTSHT00006307;1590.00;;;<p>Cotton</p>;;;;;zerotype;;Fall;OHS to QCR;No
2143921;13023730-99-2143921;T-SHIRT TOSAY;QC Reject;Tshirts;MANGO;Adults-Women;Women;;;;Fashion;;2017;20/S,MNGOTSHT00006279,21/M,MNGOTSHT00006280,22/L,MNGOTSHT00006281;1590.00;;;<p>Cotton</p>;;;;;zerotype;;Fall;OHS to QCR;No
2143919;13023728-94-2143919;T-SHIRT GARRIGA;On Hold - Sample;Tshirts;MANGO;Adults-Women;Women;;;;Fashion;;2017;20/S,MNGOTSHT00006273,21/M,MNGOTSHT00006274,22/L,MNGOTSHT00006275;1990.00;;;<p>Viscose Rayon</p>;;;;;zerotype;;Fall;D to OHS;No
2143916;13023726-94-2143916;T-SHIRT NEWKAY2;QC Reject;Tshirts;MANGO;Adults-Women;Women;;;;Fashion;;2017;20/S,MNGOTSHT00006264,21/M,MNGOTSHT00006265,22/L,MNGOTSHT00006266;2590.00;;;<p>Polyester</p>;;;;;zerotype;;Fall;OHS to QCR;No
2143910;13013750-1-2143910;T-SHIRT CHERIE;QC Reject;Tshirts;MANGO;Adults-Women;Women;;;;Fashion;;2017;20/S,MNGOTSHT00006247,21/M,MNGOTSHT00006248,22/L,MNGOTSHT00006249;1990.00;;;<p>Cotton</p>;;;;;zerotype;;Fall;OHS to QCR;No
2143904;13013721-99-2143904;T-SHIRT CHALONEW;QC Reject;Tshirts;MANGO;Adults-Women;Women;;;;Fashion;;2017;21/M,MNGOTSHT00006229,22/L,MNGOTSHT00006230,20/S,MNGOTSHT00006231,23/XL,MNGOTSHT00006232,19/XS,MNGOTSHT00006233;690.00;;;<p>Cotton</p>;;;;;zerotype;;Fall;OHS to QCR;No
2143903;13013721-82-2143903;T-SHIRT CHALONEW;QC Reject;Tshirts;MANGO;Adults-Women;Women;;;;Fashion;;2017;19/XS,MNGOTSHT00006224,20/S,MNGOTSHT00006225,21/M,MNGOTSHT00006226,22/L,MNGOTSHT00006227,23/XL,MNGOTSHT00006228;690.00;;;<p>Cotton</p>;;;;;zerotype;;Fall;OHS to QCR;No
2143901;13013721-1-2143901;T-SHIRT CHALONEW;QC Reject;Tshirts;MANGO;Adults-Women;Women;;;;Fashion;;2017;19/XS,MNGOTSHT00006214,20/S,MNGOTSHT00006215,21/M,MNGOTSHT00006216,22/L,MNGOTSHT00006217,23/XL,MNGOTSHT00006218;690.00;;;<p>Cotton</p>;;;;;zerotype;;Fall;OHS to QCR;No
2143899;13010867-2-2143899;T-SHIRT TEKA;QC Reject;Tshirts;MANGO;Adults-Women;Women;;;;Fashion;;2017;20/S,MNGOTSHT00006209,22/L,MNGOTSHT00006210,21/M,MNGOTSHT00006211;2290.00;;;<p>Cotton</p>;;;;;zerotype;;Fall;OHS to QCR;No
2143897;13010696-1-2143897;T-SHIRT PINI;On Hold - Sample;Tshirts;MANGO;Adults-Women;Women;;;;Fashion;;2017;20/S,MNGOTSHT00006203,21/M,MNGOTSHT00006204,22/L,MNGOTSHT00006205;1990.00;;;<p>Cotton</p>;;;;;zerotype;;Fall;D to OHS;No
2143896;13010681-12-2143896;T-SHIRT PEONZI;QC Reject;Tshirts;MANGO;Adults-Women;Women;;;;Fashion;;2017;20/S,MNGOTSHT00006200,21/M,MNGOTSHT00006201,22/L,MNGOTSHT00006202;1090.00;;;<p>Synthetic</p>;;;;;zerotype;;Fall;OHS to QCR;No
2143889;13003755-2-2143889;T-SHIRT DIROMA;On Hold - Sample;Tshirts;MANGO;Adults-Women;Women;;;;Fashion;;2017;21/M,MNGOTSHT00006183;2290.00;;;<p>Cotton</p>;;;;;zerotype;;Fall;D to OHS;No
2143883;13003677-76-2143883;T-SHIRT ILUSTRA2;Draft;Tshirts;MANGO;Adults-Women;Women;;;;Fashion;;2017;21/M,MNGOTSHT00006163,22/L,MNGOTSHT00006164,19/XS,MNGOTSHT00006165,20/S,MNGOTSHT00006166;690.00;;;<p>Cotton</p>;;;;;zerotype;;Fall;;No
2143879;13003673-56-2143879;T-SHIRT BONVE-H;On Hold - Sample;Tshirts;MANGO;Adults-Women;Women;;;;Fashion;;2017;19/XS,MNGOTSHT00006154,20/S,MNGOTSHT00006155,21/M,MNGOTSHT00006156,22/L,MNGOTSHT00006157;1090.00;;;<p>Cotton</p>;;;;;zerotype;;Fall;D to OHS;No
2143878;13003672-92-2143878;T-SHIRT PELICAN-H;On Hold - Sample;Tshirts;MANGO;Adults-Women;Women;;;;Fashion;;2017;22/L,MNGOTSHT00006153;1090.00;;;<p>Viscose Rayon</p>;;;;;zerotype;;Fall;D to OHS;No
2143877;13000895-2-2143877;T-SHIRT BAMBO;On Hold - Sample;Tshirts;MANGO;Adults-Women;Women;;;;Fashion;;2017;21/M,MNGOTSHT00006151,22/L,MNGOTSHT00006152;1990.00;;;<p>Cotton</p>;;;;;zerotype;;Fall;D to OHS;No
2143873;13000827-12-2143873;T-SHIRT LEMONADE-H;QC Reject;Tshirts;MANGO;Adults-Women;Women;;;;Fashion;;2017;20/S,MNGOTSHT00006139,21/M,MNGOTSHT00006140,19/XS,MNGOTSHT00006141,22/L,MNGOTSHT00006142;1390.00;;;<p>Cotton</p>;;;;;zerotype;;Fall;OHS to QCR;No
2143872;13000827-1-2143872;T-SHIRT LEMONADE-H;On Hold - Sample;Tshirts;MANGO;Adults-Women;Women;;;;Fashion;;2017;19/XS,MNGOTSHT00006135,20/S,MNGOTSHT00006136,21/M,MNGOTSHT00006137,22/L,MNGOTSHT00006138;1390.00;;;<p>Cotton</p>;;;;;zerotype;;Fall;D to OHS;No
2143867;13000688-1-2143867;T-SHIRT BEACH;QC Reject;Tshirts;MANGO;Adults-Women;Women;;;;Fashion;;2017;20/S,MNGOTSHT00006122,21/M,MNGOTSHT00006123,22/L,MNGOTSHT00006124;1490.00;;;<p>Cotton</p>;;;;;zerotype;;Fall;OHS to QCR;No
2143865;13000680-1-2143865;T-SHIRT NEON;QC Reject;Tshirts;MANGO;Adults-Women;Women;;;;Fashion;;2017;20/S,MNGOTSHT00006116,21/M,MNGOTSHT00006117,22/L,MNGOTSHT00006118;1390.00;;;<p>Cotton</p>;;;;;zerotype;;Fall;OHS to QCR;No
2143863;13000658-88-2143863;T-SHIRT HELL;QC Reject;Tshirts;MANGO;Adults-Women;Women;;;;Fashion;;2017;20/S,MNGOTSHT00006112,21/M,MNGOTSHT00006113,22/L,MNGOTSHT00006114;1790.00;;;<p>Cotton</p>;;;;;zerotype;;Fall;OHS to QCR;No
2143862;13000307-82-2143862;T-SHIRT MERCH;QC Reject;Tshirts;MANGO;Adults-Women;Women;;;;Fashion;;2017;20/S,MNGOTSHT00006109,21/M,MNGOTSHT00006110,22/L,MNGOTSHT00006111;1090.00;;;<p>Viscose Rayon</p>;;;;;zerotype;;Fall;OHS to QCR;No
2143844;13035685-56-2143844;SKIRT GALAXIA-H;On Hold - Sample;Skirts;MANGO;Adults-Women;Women;;;;Fashion;;2017;21/M,MNGOSKRT00000647,22/L,MNGOSKRT00000648;2990.00;;;<p>Cotton</p>;;;;;zerotype;;Fall;D to OHS;No
2143837;11083036-56-2143837;SKIRT OYSTER-H;QC Reject;Skirts;MANGO;Adults-Women;Women;;;;Fashion;;2017;19/XS,MNGOSKRT00000627,20/S,MNGOSKRT00000628,21/M,MNGOSKRT00000629,22/L,MNGOSKRT00000630;3590.00;;;<p>Cotton</p>;;;;;zerotype;;Fall;OHS to QCR;No
2143806;13063688-32-2143806;SUNGLASSES SKYLER;Draft;Sunglasses;MANGO;Adults-Women;Women;;;;Fashion;;2017;99/ One size,MNGOSGLS00000265;1790.00;;;<p>Metal</p>;;http://assets.myntassets.com/assets/images/sizechart/2016/4/25/11461584543399-Sunglasses_and_frames_size_chart.jpg;;;zerotype;;Fall;;No
2143805;13063636-32-2143805;SUNGLASSES OXFORD;Draft;Sunglasses;MANGO;Adults-Women;Women;;;;Fashion;;2017;99/ One size,MNGOSGLS00000264;2390.00;;;<p>Metal</p>;;http://assets.myntassets.com/assets/images/sizechart/2016/4/25/11461584543399-Sunglasses_and_frames_size_chart.jpg;;;zerotype;;Fall;;No
2143804;13030354-OR-2143804;SUNGLASSES SIRENA;Draft;Sunglasses;MANGO;Adults-Women;Women;;;;Fashion;;2017;99/ One size,MNGOSGLS00000263;2390.00;;;<p>Metal</p>;;http://assets.myntassets.com/assets/images/sizechart/2016/4/25/11461584543399-Sunglasses_and_frames_size_chart.jpg;;;zerotype;;Fall;;No
2143802;13013694-OR-2143802;SUNGLASSES NEPAL;Draft;Sunglasses;MANGO;Adults-Women;Women;;;;Fashion;;2017;99/ One size,MNGOSGLS00000261;1790.00;;;<p>Metal</p>;;http://assets.myntassets.com/assets/images/sizechart/2016/4/25/11461584543399-Sunglasses_and_frames_size_chart.jpg;;;zerotype;;Fall;;No
2143801;13013693-32-2143801;SUNGLASSES SANDY;Draft;Sunglasses;MANGO;Adults-Women;Women;;;;Fashion;;2017;99/ One size,MNGOSGLS00000260;1790.00;;;<p>Metal</p>;;http://assets.myntassets.com/assets/images/sizechart/2016/4/25/11461584543399-Sunglasses_and_frames_size_chart.jpg;;;zerotype;;Fall;;No
2143799;13013691-70-2143799;SUNGLASSES SOFIE;Draft;Sunglasses;MANGO;Adults-Women;Women;;;;Fashion;;2017;99/ One size,MNGOSGLS00000258;1790.00;;;<p>Metal</p>;;http://assets.myntassets.com/assets/images/sizechart/2016/4/25/11461584543399-Sunglasses_and_frames_size_chart.jpg;;;zerotype;;Fall;;No
2143735;13073010-99-2143735;SHORTS NINA1-H;On Hold - Sample;Shorts;MANGO;Adults-Women;Women;;;;Fashion;;2017;36,MNGOSHOR00000469,38,MNGOSHOR00000470,40,MNGOSHOR00000471,34,MNGOSHOR00000472;1790.00;;;<p>Polyester</p>;;;;;zerotype;;Fall;D to OHS;No
2143599;14063680-56-2143599;ONE-PIECE SUIT INMA-H;QC Reject;Jumpsuit;MANGO;Adults-Women;Women;;;;Fashion;;2017;22/L,MNGOJMST00000336,19/XS,MNGOJMST00000337,20/S,MNGOJMST00000338,21/M,MNGOJMST00000339;3590.00;;;<p>Viscose Rayon</p>;;;;;zerotype;;Fall;OHS to QCR;No
2143595;13050822-12-2143595;PLAYSUIT VICHY;Draft;Jumpsuit;MANGO;Adults-Women;Women;;;;Fashion;;2017;22/L,MNGOJMST00000321,20/S,MNGOJMST00000322,21/M,MNGOJMST00000323;3590.00;;;<p>Viscose Rayon</p>;;;;;zerotype;;Fall;;No
2143587;14040465-2-2143587;LEGGINGS NADA-A;On Hold - Sample;Leggings;MANGO;Adults-Women;Women;;;;Fashion;;2017;21/M,MNGOLEGG00000439,22/L,MNGOLEGG00000440;3590.00;;;<p>Viscose Rayon</p>;;;;;zerotype;;Fall;D to OHS;No
2143586;11095740-94-2143586;LEGGINGS BLAS;QC Reject;Leggings;MANGO;Adults-Women;Women;;;;Fashion;;2017;19/XS,MNGOLEGG00000434,20/S,MNGOLEGG00000435,21/M,MNGOLEGG00000436,22/L,MNGOLEGG00000437,23/XL,MNGOLEGG00000438;2490.00;;;<p>Viscose Rayon</p>;;;;;zerotype;;Fall;OHS to QCR;No
2143584;11063745-96-2143584;LEGGINGS PUNTA-A;On Hold - Sample;Leggings;MANGO;Adults-Women;Women;;;;Fashion;;2017;22/L,MNGOLEGG00000429,23/XL,MNGOLEGG00000430,21/M,MNGOLEGG00000431;2390.00;;;<p>Viscose Rayon</p>;;;;;zerotype;;Fall;D to OHS;No
2143583;11063745-56-2143583;LEGGINGS PUNTA-A;On Hold - Sample;Leggings;MANGO;Adults-Women;Women;;;;Fashion;;2017;21/M,MNGOLEGG00000426,22/L,MNGOLEGG00000427,23/XL,MNGOLEGG00000428;2390.00;;;<p>Viscose Rayon</p>;;;;;zerotype;;Fall;D to OHS;No
2143408;11093706-69-2143408;BLAZER DEPMERCE;QC Reject;Blazers;MANGO;Adults-Women;Women;;;;Fashion;;2017;20/S,MNGOBLZR00000171,21/M,MNGOBLZR00000172;5990.00;;;<p>Polyester</p>;;;;;zerotype;;Fall;OHS to QCR;No
2143407;11083669-99-2143407;BLAZER PLEC1;Draft;Blazers;MANGO;Adults-Women;Women;;;;Fashion;;2017;19/XS,MNGOBLZR00000166,20/S,MNGOBLZR00000167,21/M,MNGOBLZR00000168,22/L,MNGOBLZR00000169,23/XL,MNGOBLZR00000170;5590.00;;;<p>Polyester</p>;;;;;zerotype;;Fall;;No
2143406;11083669-69-2143406;BLAZER PLEC1;QC Reject;Blazers;MANGO;Adults-Women;Women;;;;Fashion;;2017;19/XS,MNGOBLZR00000161,20/S,MNGOBLZR00000162,21/M,MNGOBLZR00000163,22/L,MNGOBLZR00000164,23/XL,MNGOBLZR00000165;5590.00;;;<p>Polyester</p>;;;;;zerotype;;Fall;OHS to QCR;No
2143405;11083669-3-2143405;BLAZER PLEC1;QC Reject;Blazers;MANGO;Adults-Women;Women;;;;Fashion;;2017;19/XS,MNGOBLZR00000156,20/S,MNGOBLZR00000157,21/M,MNGOBLZR00000158,22/L,MNGOBLZR00000159,23/XL,MNGOBLZR00000160;5590.00;;;<p>Polyester</p>;;;;;zerotype;;Fall;OHS to QCR;No
2143404;11075670-99-2143404;BLAZER INGRID;QC Reject;Blazers;MANGO;Adults-Women;Women;;;;Fashion;;2017;19/XS,MNGOBLZR00000152,20/S,MNGOBLZR00000153,21/M,MNGOBLZR00000154,22/L,MNGOBLZR00000155;5990.00;;;<p>Polyester</p>;;;;;zerotype;;Fall;OHS to QCR;No
2143403;11075670-70-2143403;BLAZER INGRID;QC Reject;Blazers;MANGO;Adults-Women;Women;;;;Fashion;;2017;19/XS,MNGOBLZR00000148,20/S,MNGOBLZR00000149,21/M,MNGOBLZR00000150,22/L,MNGOBLZR00000151;5990.00;;;<p>Polyester</p>;;;;;zerotype;;Fall;OHS to QCR;No
2143401;11075006-99-2143401;BLAZER VOLANTE;QC Reject;Blazers;MANGO;Adults-Women;Women;;;;Fashion;;2017;21/M,MNGOBLZR00000139,22/L,MNGOBLZR00000140,23/XL,MNGOBLZR00000141,19/XS,MNGOBLZR00000142,20/S,MNGOBLZR00000143;6590.00;;;<p>Polyester</p>;;;;;zerotype;;Fall;OHS to QCR;No
2143399;11075006-70-2143399;BLAZER VOLANTE;QC Reject;Blazers;MANGO;Adults-Women;Women;;;;Fashion;;2017;19/XS,MNGOBLZR00000134,20/S,MNGOBLZR00000135,21/M,MNGOBLZR00000136,22/L,MNGOBLZR00000137,23/XL,MNGOBLZR00000138;6590.00;;;<p>Polyester</p>;;;;;zerotype;;Fall;OHS to QCR;No
2143395;11053721-92-2143395;BLAZER ENCLUCAS;Draft;Blazers;MANGO;Adults-Women;Women;;;;Fashion;;2017;20/S,MNGOBLZR00000121,21/M,MNGOBLZR00000122;7490.00;;;<p>Polyester</p>;;;;;zerotype;;Fall;;No
2143173;13083017-TM-2143173;JEANS GIRLFR1;Draft;Jeans;MANGO;Adults-Women;Women;;;;Fashion;;2017;42,MNGOJENS00002834,32,MNGOJENS00002835,34,MNGOJENS00002836,36,MNGOJENS00002837,38,MNGOJENS00002838,40,MNGOJENS00002839;3590.00;;;<p>Cotton</p>;;;;;zerotype;;Fall;;No
2143169;13045033-TM-2143169;JEANS ZIGZAG;Draft;Jeans;MANGO;Adults-Women;Women;;;;Fashion;;2017;32,MNGOJENS00002816,34,MNGOJENS00002817,36,MNGOJENS00002818,38,MNGOJENS00002819,40,MNGOJENS00002820;3990.00;;;<p>Cotton</p>;;;;;zerotype;;Fall;;No
2143163;13033012-TO-2143163;JEANS GIRLFR1;Draft;Jeans;MANGO;Adults-Women;Women;;;;Fashion;;2017;38,MNGOJENS00002785,40,MNGOJENS00002786,42,MNGOJENS00002787,32,MNGOJENS00002788,34,MNGOJENS00002789,36,MNGOJENS00002790;3590.00;;;<p>Cotton</p>;;;;;zerotype;;Fall;;No
2143160;13020311-TU-2143160;JEANS ISA1;Draft;Jeans;MANGO;Adults-Women;Women;;;;Fashion;;2017;32,MNGOJENS00002763,34,MNGOJENS00002764,38,MNGOJENS00002765,40,MNGOJENS00002766,36,MNGOJENS00002767,42,MNGOJENS00002768;3590.00;;;<p>Cotton</p>;;;;;zerotype;;Fall;;No
2143149;13005013-TN-2143149;JEANS BIKER;Draft;Jeans;MANGO;Adults-Women;Women;;;;Fashion;;2017;32,MNGOJENS00002709,34,MNGOJENS00002710,36,MNGOJENS00002711,38,MNGOJENS00002712,40,MNGOJENS00002713,42,MNGOJENS00002714;3990.00;;;<p>Cotton</p>;;;;;zerotype;;Fall;;No
2143148;13005012-TG-2143148;JEANS KIM1;Draft;Jeans;MANGO;Adults-Women;Women;;;;Fashion;;2017;34,MNGOJENS00002703,36,MNGOJENS00002704,38,MNGOJENS00002705,40,MNGOJENS00002706,42,MNGOJENS00002707,32,MNGOJENS00002708;2990.00;;;<p>Cotton</p>;;;;;zerotype;;Fall;;No
2143147;13005011-54-2143147;JEANS KIM1;Draft;Jeans;MANGO;Adults-Women;Women;;;;Fashion;;2017;32,MNGOJENS00002697,34,MNGOJENS00002698,36,MNGOJENS00002699,38,MNGOJENS00002700,40,MNGOJENS00002701,42,MNGOJENS00002702;2990.00;;;<p>Cotton</p>;;;;;zerotype;;Fall;;No
2143146;13005007-TM-2143146;JEANS CIGAR1;Draft;Jeans;MANGO;Adults-Women;Women;;;;Fashion;;2017;32,MNGOJENS00002691,36,MNGOJENS00002692,38,MNGOJENS00002693,40,MNGOJENS00002694,34,MNGOJENS00002695,42,MNGOJENS00002696;3590.00;;;<p>Cotton</p>;;;;;zerotype;;Fall;;No
2143141;11015005-57-2143141;JEANS BELLE1;Draft;Jeans;MANGO;Adults-Women;Women;;;;Fashion;;2017;32,MNGOJENS00002665,34,MNGOJENS00002666,36,MNGOJENS00002667,38,MNGOJENS00002668,40,MNGOJENS00002669,42,MNGOJENS00002670;3590.00;;;<p>Cotton</p>;;;;;zerotype;;Fall;;No
2143103;13970460-94-2143103;SWEATSHIRT COMBI;QC Reject;Sweatshirts;MANGO;Adults-Women;Women;;;;Fashion;;2017;22/L,MNGOSWSH00000578,21/M,MNGOSWSH00000579,20/S,MNGOSWSH00000580;1290.00;;;<p>Polyester</p>;;;;;zerotype;;Fall;OHS to QCR;No
2143100;13073694-85-2143100;SWEATSHIRT DEAR;QC Reject;Sweatshirts;MANGO;Adults-Women;Women;;;;Fashion;;2017;22/L,MNGOSWSH00000568,20/S,MNGOSWSH00000569,21/M,MNGOSWSH00000570;1790.00;;;<p>Polyester</p>;;;;;zerotype;;Fall;OHS to QCR;No
2143096;13070460-99-2143096;SWEATSHIRT COMBI;QC Reject;Sweatshirts;MANGO;Adults-Women;Women;;;;Fashion;;2017;20/S,MNGOSWSH00000556,22/L,MNGOSWSH00000557,21/M,MNGOSWSH00000558;1390.00;;;<p>Polyester</p>;;;;;zerotype;;Fall;OHS to QCR;No
2143095;13070460-37-2143095;SWEATSHIRT COMBI;QC Reject;Sweatshirts;MANGO;Adults-Women;Women;;;;Fashion;;2017;20/S,MNGOSWSH00000553,21/M,MNGOSWSH00000554,22/L,MNGOSWSH00000555;1390.00;;;<p>Polyester</p>;;;;;zerotype;;Fall;OHS to QCR;No
2143093;13023737-99-2143093;SWEATSHIRT BICHI;On Hold - Sample;Sweatshirts;MANGO;Adults-Women;Women;;;;Fashion;;2017;20/S,MNGOSWSH00000548,21/M,MNGOSWSH00000549,22/L,MNGOSWSH00000550;3590.00;;;<p>Synthetic</p>;;;;;zerotype;;Fall;D to OHS;No
2143092;13023736-70-2143092;SWEATSHIRT RABBIT;QC Reject;Sweatshirts;MANGO;Adults-Women;Women;;;;Fashion;;2017;21/M,MNGOSWSH00000545,22/L,MNGOSWSH00000546,20/S,MNGOSWSH00000547;2590.00;;;<p>Synthetic</p>;;;;;zerotype;;Fall;OHS to QCR;No
2143091;13023717-99-2143091;SWEATSHIRT JEWEL1;QC Reject;Sweatshirts;MANGO;Adults-Women;Women;;;;Fashion;;2017;20/S,MNGOSWSH00000542,21/M,MNGOSWSH00000543,22/L,MNGOSWSH00000544;2990.00;;;<p>Polyester</p>;;;;;zerotype;;Fall;OHS to QCR;No
2143088;13013755-52-2143088;SWEATSHIRT POWERFUL;QC Reject;Sweatshirts;MANGO;Adults-Women;Women;;;;Fashion;;2017;20/S,MNGOSWSH00000536,22/L,MNGOSWSH00000537,21/M,MNGOSWSH00000538;2790.00;;;<p>Cotton</p>;;;;;zerotype;;Fall;OHS to QCR;No
