Style ID;Vendor Article Number;Vendor Article Name;Active Status;Article type;Brand;Age Group;Gender;Base Colour;Colour1;Colour2;Fashion Type;Usage;Year;Size - SKU code pair;MRP;Style Description;Style Note;Materials and Care Description;Size and Fit Description;Size Chart Path;Product Display Name;Tags;Product Type;Classification Brand;Season;Comments;Upload Images
1987092;DAMT-22-DK Grey-1987092;Men Non Denim;Draft;Trousers;Moda Rapido;Adults-Men;Men;;;;Fashion;;2017;28,MAROTRSR00002265,30,MAROTRSR00002266,32,MAROTRSR00002267,34,MAROTRSR00002268,36,MAROTRSR00002269,38,MAROTRSR00002270;1699.00;;;<p>100% COTTON</p>;;;;;zerotype;;Fall;;No
1986872;SS17MS121D-White / Grey-1986872;COLOR BLOCK SLIM FIT SHIRT;Draft;Shirts;ether;Adults-Men;Men;;;;Fashion;;2017;S,ETHRSHRT00001549,M,ETHRSHRT00001550,L,ETHRSHRT00001551,XL,ETHRSHRT00001552;1699.00;;;;;;;;zerotype;;Summer;;No
1986207;ML-DL-0121-CHR MEL-1986207;CREW NECK  L SLV W CUT N SEWN;Draft;Tshirts;HERE&NOW;Adults-Men;Men;;;;Fashion;;2017;S,HENWTSHT00000521,M,HENWTSHT00000522,L,HENWTSHT00000523,XL,HENWTSHT00000524;799.00;<p>CREW NECK  L SLV W CUT N SEWN</p>;;<p>100% COTTON</p>;;;;;zerotype;;Fall;;No
1986206;ML-DL-0120-TEAL-1986206;CREW NECK  L SLV W CUT N SEWN;Draft;Tshirts;HERE&NOW;Adults-Men;Men;;;;Fashion;;2017;S,HENWTSHT00000517,M,HENWTSHT00000518,L,HENWTSHT00000519,XL,HENWTSHT00000520;749.00;<p>CREW NECK  L SLV W CUT N SEWN</p>;;<p>100% COTTON</p>;;;;;zerotype;;Fall;;No
1986199;ML-DL-0107-GREY MEL-1986199;CREW NECK L SLV W NECK PLKT;Draft;Tshirts;HERE&NOW;Adults-Men;Men;;;;Fashion;;2017;S,HENWTSHT00000489,M,HENWTSHT00000490,L,HENWTSHT00000491,XL,HENWTSHT00000492;749.00;<p>CREW NECK L SLV W NECK PLKT</p>;;<p>100% COTTON</p>;;;;;zerotype;;Fall;;No
1986198;ML-DL-0106-TEAL-1986198;CREW NECK L SLV W NECK PLKT;Draft;Tshirts;HERE&NOW;Adults-Men;Men;;;;Fashion;;2017;S,HENWTSHT00000485,M,HENWTSHT00000486,L,HENWTSHT00000487,XL,HENWTSHT00000488;749.00;<p>CREW NECK L SLV W NECK PLKT</p>;;<p>100% COTTON</p>;;;;;zerotype;;Fall;;No
1986197;ML-DL-0105-MAROON-1986197;CREW NECK L SLV W NECK PLKT;Draft;Tshirts;HERE&NOW;Adults-Men;Men;;;;Fashion;;2017;S,HENWTSHT00000481,M,HENWTSHT00000482,L,HENWTSHT00000483,XL,HENWTSHT00000484;749.00;<p>CREW NECK L SLV W NECK PLKT</p>;;<p>100% COTTON</p>;;;;;zerotype;;Fall;;No
1986196;ML-DL-0104-SLATE GREY-1986196;CREW NECK L SLV W NECK PLKT;Draft;Tshirts;HERE&NOW;Adults-Men;Men;;;;Fashion;;2017;S,HENWTSHT00000477,M,HENWTSHT00000478,L,HENWTSHT00000479,XL,HENWTSHT00000480;749.00;<p>CREW NECK L SLV W NECK PLKT</p>;;<p>100% COTTON</p>;;;;;zerotype;;Fall;;No
1986195;ML-DL-0103-CHR MEL-1986195;CREW NECK RAGLAN 3 QTRSLV;Draft;Tshirts;HERE&NOW;Adults-Men;Men;;;;Fashion;;2017;S,HENWTSHT00000473,M,HENWTSHT00000474,L,HENWTSHT00000475,XL,HENWTSHT00000476;749.00;<p>CREW NECK RAGLAN 3 QTRSLV</p>;;<p>100% COTTON</p>;;;;;zerotype;;Fall;;No
1986194;ML-DL-0102-BLACK-1986194;CREW NECK RAGLAN 3 QTRSLV;Draft;Tshirts;HERE&NOW;Adults-Men;Men;;;;Fashion;;2017;S,HENWTSHT00000469,M,HENWTSHT00000470,L,HENWTSHT00000471,XL,HENWTSHT00000472;749.00;<p>CREW NECK RAGLAN 3 QTRSLV</p>;;<p>100% COTTON</p>;;;;;zerotype;;Fall;;No
1986192;ML-DL-0086-TEAL-1986192;HENLY PLKT L SLV;Draft;Tshirts;HERE&NOW;Adults-Men;Men;;;;Fashion;;2017;S,HENWTSHT00000461,M,HENWTSHT00000462,L,HENWTSHT00000463,XL,HENWTSHT00000464;699.00;<p>HENLY PLKT L SLV</p>;;<p>100% COTTON</p>;;;;;zerotype;;Fall;;No
1986190;ML-DL-0084-MAROON-1986190;HENLY PLKT L SLV;Draft;Tshirts;HERE&NOW;Adults-Men;Men;;;;Fashion;;2017;S,HENWTSHT00000453,M,HENWTSHT00000454,L,HENWTSHT00000455,XL,HENWTSHT00000456;699.00;<p>HENLY PLKT L SLV</p>;;<p>100% COTTON</p>;;;;;zerotype;;Fall;;No
1986189;ML-DL-0083-CORAL-1986189;HENLY PLKT L SLV;Draft;Tshirts;HERE&NOW;Adults-Men;Men;;;;Fashion;;2017;S,HENWTSHT00000449,M,HENWTSHT00000450,L,HENWTSHT00000451,XL,HENWTSHT00000452;699.00;<p>HENLY PLKT L SLV</p>;;<p>100% COTTON</p>;;;;;zerotype;;Fall;;No
1986188;ML-DL-0082-ECRU MEL-1986188;HENLY PLKT L SLV;Draft;Tshirts;HERE&NOW;Adults-Men;Men;;;;Fashion;;2017;S,HENWTSHT00000445,M,HENWTSHT00000446,L,HENWTSHT00000447,XL,HENWTSHT00000448;699.00;<p>HENLY PLKT L SLV</p>;;<p>100% COTTON</p>;;;;;zerotype;;Fall;;No
1986187;ML-DL-0081-WHITE-1986187;HENLY PLKT L SLV;Draft;Tshirts;HERE&NOW;Adults-Men;Men;;;;Fashion;;2017;S,HENWTSHT00000441,M,HENWTSHT00000442,L,HENWTSHT00000443,XL,HENWTSHT00000444;699.00;<p>HENLY PLKT L SLV</p>;;<p>100% COTTON</p>;;;;;zerotype;;Fall;;No
1984928;MRDA-32-Purple-1984928;Men Solid Shirts;Draft;Shirts;Moda Rapido;Adults-Men;Men;;;;Fashion;;2017;S,MAROSHRT00001392,M,MAROSHRT00001393,L,MAROSHRT00001394,XL,MAROSHRT00001395,XXL,MAROSHRT00001396;1499.00;;;<p>100% Cotton</p>;;;;;zerotype;;Fall;;No
1964398;ML-DL-0069-NAVY-1964398;CREW NECK S SLV W STRIPER;Draft;Tshirts;HERE&NOW;Adults-Men;Men;;;;Fashion;;2017;S,HENWTSHT00000189,M,HENWTSHT00000190,L,HENWTSHT00000191,XL,HENWTSHT00000192;649.00;<p>CREW NECK S SLV W STRIPER</p>;;<p>100% COTTON</p>;;;;ftod-eorsjun17;zerotype;;Summer;ftod-eorsjun17;No
1944910;HVMSS7HN009F-Medival blue /Cloud cream-1944910;MEN'S POLO;Draft;Tshirts;Harvard;Adults-Men;Men;;;;Fashion;;2017;S,HRVDTSHT00002740,M,HRVDTSHT00002741,L,HRVDTSHT00002742,XL,HRVDTSHT00002743;799.00;;;;;;;;zerotype;;Spring;;No
1944909;HVMSS7HN009E-Castle rock /Viridian Green-1944909;MEN'S POLO;Draft;Tshirts;Harvard;Adults-Men;Men;;;;Fashion;;2017;S,HRVDTSHT00002736,M,HRVDTSHT00002737,L,HRVDTSHT00002738,XL,HRVDTSHT00002739;799.00;;;;;;;;zerotype;;Spring;;No
1944908;HVMSS7HN009D-Marshmallow /High rise-1944908;MEN'S POLO;Draft;Tshirts;Harvard;Adults-Men;Men;;;;Fashion;;2017;S,HRVDTSHT00002732,M,HRVDTSHT00002733,L,HRVDTSHT00002734,XL,HRVDTSHT00002735;799.00;;;;;;;;zerotype;;Spring;;No
1944906;HVMSS7HN009B-Cloud cream /Medivalblue-1944906;MEN'S POLO;Draft;Tshirts;Harvard;Adults-Men;Men;;;;Fashion;;2017;S,HRVDTSHT00002724,M,HRVDTSHT00002725,L,HRVDTSHT00002726,XL,HRVDTSHT00002727;799.00;;;;;;;;zerotype;;Spring;;No
1944904;HVMSS7HN009A-High rise / Marshmallow-1944904;MEN'S POLO;Draft;Tshirts;Harvard;Adults-Men;Men;;;;Fashion;;2017;S,HRVDTSHT00002720,M,HRVDTSHT00002721,L,HRVDTSHT00002722,XL,HRVDTSHT00002723;799.00;;;;;;;;zerotype;;Spring;;No
1930955;810889B378-Black/Pink-1930955;Speedo Female Swimwear Speedo Fit Power Form X Back;QC Reject;Swimwear;Speedo;Adults-Women;Women;Black;;;Core;Casual;2017;30,SPEESWMW00001199,32,SPEESWMW00001200,34,SPEESWMW00001201;6999.00;Black monokini, has removable padded cups, a round neck, sleeveless, a criss-cross back, elasticated leg openings, and a double-layered gusset;Hit the pool in style with this trendy piece. Style it with a pair of oversized sunglasses and flip-flops for the perfect look.;100% polyester<br />Hand-wash;;;Speedo Black Monokini 810889B378;Speedo,eors-sports-min2000off;zerotype;;Summer;eors-sports-under999;No
1930929;810391B369-Navy/Navy/Jade-1930929;Speedo Female Swimwear Essential Splice Kneesuit;On Hold - Sample;Swimwear;Speedo;Adults-Women;Women;;;;Core;;2017;32,SPEESWMW00001065,34,SPEESWMW00001066,36,SPEESWMW00001067,38,SPEESWMW00001068,40,SPEESWMW00001069,44,SPEESWMW00001070;2499.00;;;<p>30 Degree Celsius Machine Wash, Do Not Bleach And Tumble Dry</p>;;;;sportsallstyles-2017;zerotype;;Summer;eors-sports-under999;No
1930915;808876B532-Electric Pink/Tapestry/White-1930915;Speedo Female Swimwear Racerback Swimdress with Boyleg;On Hold - Sample;Swimwear;Speedo;Adults-Women;Women;;;;Core;;2017;32,SPEESWMW00000998,34,SPEESWMW00000999,36,SPEESWMW00001000,38,SPEESWMW00001001,40,SPEESWMW00001002,42,SPEESWMW00001003,44,SPEESWMW00001004;2399.00;;;<p>30 Degree Celsius Machine Wash, Do Not Bleach And Tumble Dry</p>;;;;sportsallstyles-2017;zerotype;;Summer;eors-sports-under999;No
1930914;808876B388-Black/Electric Pink-1930914;Speedo Female Swimwear Racerback Swimdress with Boyleg;On Hold - Sample;Swimwear;Speedo;Adults-Women;Women;;;;Core;;2017;32,SPEESWMW00000993,34,SPEESWMW00000994,36,SPEESWMW00000995,38,SPEESWMW00000996,40,SPEESWMW00000997;2399.00;;;<p>30 Degree Celsius Machine Wash, Do Not Bleach And Tumble Dry</p>;;;;sportsallstyles-2017;zerotype;;Summer;eors-sports-under999;No
1930913;808876B353-Jade/Navy-1930913;Speedo Female Swimwear Racerback Swimdress with Boyleg;On Hold - Sample;Swimwear;Speedo;Adults-Women;Women;;;;Core;;2017;32,SPEESWMW00000987,34,SPEESWMW00000988,36,SPEESWMW00000989,38,SPEESWMW00000990,40,SPEESWMW00000991,44,SPEESWMW00000992;2399.00;;;<p>30 Degree Celsius Machine Wash, Do Not Bleach And Tumble Dry</p>;;;;sportsallstyles-2017;zerotype;;Summer;eors-sports-under999;No
1867391;809696A202-Blue-1867391;Speedo Female Swimwear Essential Splice Knees;QC Reject;Swimwear;Speedo;Adults-Women;Women;;;;Core;;2017;32,SPEESWMW00000876,34,SPEESWMW00000877,36,SPEESWMW00000878,38,SPEESWMW00000879,40,SPEESWMW00000880;1999.00;;;<p>30 Degree Celsius Machine Wash, Do Not Bleach And Tumble Dry</p>;;;;myntra-store-02,sportsallstyles-2017;zerotype;;Summer;eors-sports-under999;No
1786263;ANKUSSMY751-Navy blue-1786263;Anouk Kurta;Inactive - PMM - Catalog;Kurtas;Anouk;Adults-Women;Women;Navy Blue;;;Fashion;Ethnic;2017;XS,ANUKKRTA00030811,S,ANUKKRTA00030812,M,ANUKKRTA00030813,L,ANUKKRTA00030814,XL,ANUKKRTA00030815,XXL,ANUKKRTA00030816;1499.00;Navy blue printed A-line kurta, has a round neck, sleeveless, curved hem, no slits;You'll love the elegant design and fit of this stunning kurta from Anouk.  Sport this navy blue piece with studded flats and minimal jewellery for a simple yet stunning evening ensemble.;Cotton <br /> Hand-wash;The model (height 5'8") is wearing a size S;;Anouk Women Navy Blue Printed A-Line Kurta;Anouk,ALEK0281,ftod-eoss-bbsjul17,bss-uber-offer,ladies-night-jul18;zerotype;;Spring;ladies-night-jul18;No
1786259;ANKUSSMY750-beige-1786259;Anouk Kurta;Inactive - PMM - Catalog;Kurtas;Anouk;Adults-Women;Women;Beige;;;Fashion;Ethnic;2017;XS,ANUKKRTA00030805,S,ANUKKRTA00030806,M,ANUKKRTA00030807,L,ANUKKRTA00030808,XL,ANUKKRTA00030809,XXL,ANUKKRTA00030810;1499.00;Beige printed A-line kurta, has a round neck, sleeveless, straight hem, no slits;Comfortable and stylish, this kurta from Anouk is ideal for any fashionista.  For your next dinner party or family gathering, this beige piece pairs well with dark leggings and chic flats.;Cotton <br /> Hand-wash;The model (height 5'8") is wearing a size S;;Anouk Women Beige Printed A-Line Kurta;Anouk,ELMI0482,ftod-eoss-bbsjul17,bss-uber-offer,ladies-night-jul18;zerotype;;Spring;ladies-night-jul18;No
1757508;MACDONALD-01-BURNT ORANGE-1757508;MENS  GRAPHIC H/SLEEVE  TEE;Draft;Tshirts;Roadster;Adults-Men;Men;;;;Fashion;;2017;S,RDSTTSHT00028364,M,RDSTTSHT00028365,L,RDSTTSHT00028366,XL,RDSTTSHT00028367;599.00;;;;;;;;zerotype;;Spring;;No
1757500;NAYLOR-02-NAVY BLUE-1757500;MENS  GRAPHIC H/SLEEVE  TEE;Draft;Tshirts;Roadster;Adults-Men;Men;;;;Fashion;;2017;S,RDSTTSHT00028332,M,RDSTTSHT00028333,L,RDSTTSHT00028334,XL,RDSTTSHT00028335;599.00;;;;;;;;zerotype;;Spring;;No
1757499;NAYLOR-01-ECRU-1757499;MENS  GRAPHIC H/SLEEVE  TEE;Draft;Tshirts;Roadster;Adults-Men;Men;;;;Fashion;;2017;S,RDSTTSHT00028328,M,RDSTTSHT00028329,L,RDSTTSHT00028330,XL,RDSTTSHT00028331;599.00;;;;;;;;zerotype;;Spring;;No
1757484;MACHT-03-ASS BLUE-1757484;MENS  GRAPHIC H/SLEEVE  TEE;Draft;Tshirts;Roadster;Adults-Men;Men;;;;Fashion;;2017;S,RDSTTSHT00028268,M,RDSTTSHT00028269,L,RDSTTSHT00028270,XL,RDSTTSHT00028271;599.00;;;;;;;;zerotype;;Spring;;No
1757478;MACARTHUR -01-WHITE-1757478;MENS  GRAPHIC H/SLEEVE  TEE;Draft;Tshirts;Roadster;Adults-Men;Men;;;;Fashion;;2017;S,RDSTTSHT00028244,M,RDSTTSHT00028245,L,RDSTTSHT00028246,XL,RDSTTSHT00028247;599.00;;;;;;;;zerotype;;Spring;;No
1757477;MABIUS-03-BLACK-1757477;MENS  GRAPHIC H/SLEEVE  TEE;Draft;Tshirts;Roadster;Adults-Men;Men;;;;Fashion;;2017;S,RDSTTSHT00028240,M,RDSTTSHT00028241,L,RDSTTSHT00028242,XL,RDSTTSHT00028243;599.00;;;;;;;;zerotype;;Spring;;No
1757476;MABIUS-02-Ecru-1757476;MENS  GRAPHIC H/SLEEVE  TEE;Draft;Tshirts;Roadster;Adults-Men;Men;;;;Fashion;;2017;S,RDSTTSHT00028236,M,RDSTTSHT00028237,L,RDSTTSHT00028238,XL,RDSTTSHT00028239;599.00;;;;;;;;zerotype;;Spring;;No
1757475;MABIUS-01-STONE GREY-1757475;MENS  GRAPHIC H/SLEEVE  TEE;Draft;Tshirts;Roadster;Adults-Men;Men;;;;Fashion;;2017;S,RDSTTSHT00028232,M,RDSTTSHT00028233,L,RDSTTSHT00028234,XL,RDSTTSHT00028235;599.00;;;;;;;;zerotype;;Spring;;No
1744692;AAYEMKA1118C-Yellow-1744692;Kurtas;Inactive - PMM - Catalog;Kurtas;all about you;Adults-Women;Women;Pink;;;Fashion;Ethnic;2017;S,AATUKRTA00001128,M,AATUKRTA00001129,L,AATUKRTA00001130,XL,AATUKRTA00001131;1799.00;Pink solid straight kurta, has a mandarin collar, long sleeves with roll-up tab features, curved hem;This eye-catching kurta from all about you will help you maintain an elegant look all year long.  Dress up for your next family event by pairing this mustard piece with your best Kolhapuris and simple jewellery.;Polyester <br /> Machine-wash;The model (height 5'8") is wearing a size S;;all about you from Deepika Padukone Women Pink Solid Straight Kurta;all about you from Deepika Padukone,aay-ss179mar,aay-kurtas21sep,aay-ethnic2017,aay-newstyles,aay-kurtas-sis,bss-uber-offer;zerotype;;Spring;Image Interchange with 1744691;No
1721621;SW10152PAISC-CORAL-1721621;PAISLEY-CO;On Hold - Sample;Swimwear;Heart 2 Heart;Adults-Women;Women;;;;Fashion;;2017;L,H2HPSWMW00001036,M,H2HPSWMW00001037,XL,H2HPSWMW00001038;1800.00;<p>Blended</p>;;;;;;lfb1500g20;zerotype;;Summer;Season_Update_25Apr;No
1355565;SW9033-Blue-1355565;BLUESTONE;On Hold - Sample;Swimwear;Heart 2 Heart;Adults-Women;Women;Blue;;;Fashion;Casual;2017;L,H2HPSWMW00000459,M,H2HPSWMW00000460,XL,H2HPSWMW00000461;1800.00;Blue knitted animal print layered swimwear with padded cups, has a V-neck, sleeveless, and&nbsp an attached&nbsp pair of shorts;Your swimwear collection is incomplete without this trendy piece from Heart 2 Heart. Team it with sunglasses and&nbsp a pair of&nbsp flip-flops for the perfect beach look.;Nylon and spandex blend<br>Hand-wash cold;The model (height 5'6", chest 31.5" and waist 26.5")&nbsp is wearing a size M;;Heart 2 Heart Blue Animal Print Layered Swimwear SW9033;Heart 2 Heart, LUAN3461,h2hnewswim,lfb1500g20;zerotype;;Summer;season_Update_25Apr;No
1268769;4917I-LILAC MIX-1268769;4917I IBOP Spot HL G4,;On Hold - Sample;Briefs;Marks & Spencer;Adults-Women;Women;;;;Core;;2016;UK12,MKSPBREF00001104,UK14,MKSPBREF00001105,UK16,MKSPBREF00001106,UK20,MKSPBREF00001107;699.00;<p>57% Cotton - BCI, 38% Cotton  5% Elastane</p>;;;;;;high-street-brands,eors-wishlist08;zerotype;;Summer;eors-wishlist08;No
1268768;4911I-LILAC MIX-1268768;4911I IBOP Floral FB G4,;On Hold - Sample;Briefs;Marks & Spencer;Adults-Women;Women;Beige;Beige;Beige;Core;Sports;2016;UK12,MKSPBREF00001099,UK14,MKSPBREF00001100,UK16,MKSPBREF00001101,UK18,MKSPBREF00001102,UK20,MKSPBREF00001103;699.00;57%Cotton-BCI38%Cotton-Conventional5%Elastane;;;;;;undefined,high-street-brands,eors-wishlist08;zerotype;;Summer;eors-wishlist08;No
1213865;SW 8006-Black-1213865;SW 8006BlackXL;On Hold - Sample;Swimwear;Heart 2 Heart;Adults-Women;Women;Blue;White;;Fashion;Sports;2017;M,H2HPSWMW00000319,L,H2HPSWMW00000320,XL,H2HPSWMW00000321;1650.00;Blue and white striped&nbsp swimsuit, has shoulder straps that extend to form a&nbsp V-neckline, cups with removable padding, <a rel="" target="">tie</a>-up and elasticated details on the front, a layered and flared skirt portion with attached <a rel="" target="">briefs</a>&nbsp inside<br>;Flaunt those toned legs in this trendy swimsuit by Heart 2 Heart&nbsp on your next girl trip to the beach. It is sure to make you look like a star.;Nylon and spandex blend<br>Hand-wash cold;The model (height 5'8", chest 33" and waist 28") is wearing a size M<br>;;Heart 2 Heart Blue & White Striped Swimsuit SW 8006;Heart 2 Heart,robeswimwear,new-styles-on-discount-7apr,extra20-9apr,new-arrivals-offer-10apr,tat-styles-31aug,lfb1500g20;zerotype;;Summer;season_Update_25Apr;No
963412;LSW 39-PINK-963412;SMALL HEARTS;On Hold - Sample;Swimwear;Heart 2 Heart;Adults-Women;Women;Blue;;;Fashion;Casual;2017;M,H2HPSWMW00000070,S,H2HPSWMW00000071;1650.00;<p>Light Blue printed swimsuit with a skirt, has a square neck, sleeveless, has a mock tie-up detail on the chest, flared panelling along the hem<br></p>;<p>Look glamorous at your pool parties or beach holidays in this swimsuit from Heart 2 Heart. Wear it with a straw hat and flip-flops to look great.<br></p>;<p>Nylon and elastane blend<br>Hand-wash cold<br></p>;<p>The model (height 5'8", chest 33" and waist 28") is wearing a size S<br></p>;;Heart 2 Heart Light Blue Printed Swimsuit;Heart 2 Heart,lfb1500g20;zerotype;Heart 2 Heart;Summer;season_Update_25Apr;No
963404;LSW 30-LIME GREEN-963404;SMALL FLOWERS;On Hold - Sample;Swimwear;Heart 2 Heart;Adults-Women;Women;;;;Fashion;;2017;L,H2HPSWMW00000050,M,H2HPSWMW00000051;1900.00;<p>Blended</p>;;;;;;tat-styles-31aug,lfb1500g20;zerotype;;Summer;season_Update_25Apr;No
