Style ID;Vendor Article Number;Vendor Article Name;Active Status;Article type;Brand;Age Group;Gender;Base Colour;Colour1;Colour2;Fashion Type;Usage;Year;Size - SKU code pair;MRP;Style Description;Style Note;Materials and Care Description;Size and Fit Description;Size Chart Path;Product Display Name;Tags;Product Type;Classification Brand;Season;Comments;Upload Images
2407991;135998-BLACK/HOT PINK-2407991;FOREVER 21BLACK/HOT PINKLeggings;Draft;Leggings;FOREVER 21;Adults-Women;Women;NA;;;Fashion;;2018;1/XS,FRTOLEGG00002667,2/S,FRTOLEGG00002668,3/M,FRTOLEGG00002669,4/L,FRTOLEGG00002670;1599.00;;;<p>Contents:87% NYLON / POLYAMIDE, 13% SPANDEX/ELASTANE, Lini</p>;;;;international-brands-ss-18;zerotype;;Spring;Tag;No
2407987;113286-BLACK/WHITE-2407987;FOREVER 21BLACK/WHITELeggings;Draft;Leggings;FOREVER 21;Adults-Women;Women;NA;;;Fashion;;2018;1/XS,FRTOLEGG00002655,2/S,FRTOLEGG00002656,3/M,FRTOLEGG00002657,4/L,FRTOLEGG00002658;1299.00;;;<p>Contents:93% COTTON, 7% SPANDEX/ELASTANE, Lining:, Other:</p>;;;;international-brands-ss-18;zerotype;;Spring;Tag;No
2407984;101781-EGGPLANT-2407984;FOREVER 21EGGPLANTLeggings;Draft;Leggings;FOREVER 21;Adults-Women;Women;NA;;;Fashion;;2018;1/XS,FRTOLEGG00002643,2/S,FRTOLEGG00002644,3/M,FRTOLEGG00002645,4/L,FRTOLEGG00002646;1299.00;;;<p>Contents:87% NYLON/POLYAMIDE, 13% SPANDEX/ELASTANE, Lining</p>;;;;international-brands-ss-18;zerotype;;Spring;Tag;No
2407980;75520-BLACK/WHITE-2407980;FOREVER 21BLACK/WHITELeggings;Draft;Leggings;FOREVER 21;Adults-Women;Women;NA;;;Fashion;;2018;1/XS,FRTOLEGG00002631,2/S,FRTOLEGG00002632,3/M,FRTOLEGG00002633,4/L,FRTOLEGG00002634;1299.00;;;<p>Contents:86% NYLON/POLYAMIDE, 14% SPANDEX/ELASTANE,90% POL</p>;;;;international-brands-ss-18;zerotype;;Spring;Tag;No
2407808;211620-BLACK/CREAM-2407808;FOREVER 21BLACK/CREAMShirts;Draft;Shirts;FOREVER 21;Adults-Women;Women;NA;;;Fashion;;2018;2/S,FRTOSHRT00005294,3/M,FRTOSHRT00005295,4/L,FRTOSHRT00005296;1199.00;;;<p>Contents:100% POLYESTER, Lining:, Other:</p>;;;;international-brands-ss-18;zerotype;;Spring;Tag;No
2407102;95274-PURPLE-2407102;FOREVER 21PURPLETshirts;Draft;Tshirts;FOREVER 21;Adults-Men;Men;NA;;;Fashion;;2018;1/XS,FRTOTSHT00007445,2/S,FRTOTSHT00007446,3/M,FRTOTSHT00007447,4/L,FRTOTSHT00007448;799.00;;;<p>Contents:60% COTTON, 40% POLYESTER, Lining:, Other:</p>;;;;international-brands-ss-18,ss-18-menswear-tshirts;zerotype;;Spring;Tshirts;No
2406750;250197-BURGUNDY/TAUPE-2406750;FOREVER 21BURGUNDY/TAUPEDresses;Draft;Dresses;FOREVER 21;Adults-Women;Women;NA;;;Fashion;;2018;2/S,FRTODRSS00021760,3/M,FRTODRSS00021761,4/L,FRTODRSS00021762;1799.00;;;<p>Contents:100% RAYON, Lining:, Other:</p>;;;;international-brands-ss-18;zerotype;;Spring;Tag;No
2406744;244170-BLACK/BLUE/PINK-2406744;FOREVER 21BLACK/BLUE/PINKDresses;Draft;Dresses;FOREVER 21;Adults-Women;Women;NA;;;Fashion;;2018;2/S,FRTODRSS00021743,3/M,FRTODRSS00021744,4/L,FRTODRSS00021745;1199.00;;;<p>Contents:90% NYLON/POLYAMIDE, 10% METALLIC YARN, Lining:, Ot</p>;;;;international-brands-ss-18;zerotype;;Spring;Tag;No
2406724;238783-MINT/CREAM-2406724;FOREVER 21MINT/CREAMDresses;Draft;Dresses;FOREVER 21;Adults-Women;Women;NA;;;Fashion;;2018;1/XS,FRTODRSS00021693,2/S,FRTODRSS00021694,3/M,FRTODRSS00021695,4/L,FRTODRSS00021696,5/XL,FRTODRSS00021697;1499.00;;;<p>Contents:100% RAYON, Lining:, Other:</p>;;;;international-brands-ss-18;zerotype;;Spring;Tag;No
2406722;238783-LIGHT PINK/CREAM-2406722;FOREVER 21LIGHT PINK/CREAMDresses;Draft;Dresses;FOREVER 21;Adults-Women;Women;NA;;;Fashion;;2018;1/XS,FRTODRSS00021688,2/S,FRTODRSS00021689,3/M,FRTODRSS00021690,4/L,FRTODRSS00021691,5/XL,FRTODRSS00021692;1499.00;;;<p>Contents:100% RAYON, Lining:, Other:</p>;;;;international-brands-ss-18;zerotype;;Spring;Tag;No
2406720;237732-NAVY/GREEN-2406720;FOREVER 21NAVY/GREENDresses;Draft;Dresses;FOREVER 21;Adults-Women;Women;NA;;;Fashion;;2018;2/S,FRTODRSS00021682,3/M,FRTODRSS00021683,4/L,FRTODRSS00021684;1599.00;;;<p>Contents:50% RAYON, 29% POLYESTER, 21% NYLON/POLYAMIDE, Lini</p>;;;;international-brands-ss-18;zerotype;;Spring;Tag;No
2406697;222597-PINK/GREEN/YELLOW-2406697;FOREVER 21PINK/GREEN/YELLOWDresses;Draft;Dresses;FOREVER 21;Adults-Women;Women;NA;;;Fashion;;2018;2/S,FRTODRSS00021622,3/M,FRTODRSS00021623,4/L,FRTODRSS00021624;2099.00;;;<p>Contents:100% POLYESTER, Lining:100% POLYESTER, Other:</p>;;;;international-brands-ss-18;zerotype;;Spring;Tag;No
2406687;216794-GOLD-2406687;FOREVER 21GOLDDresses;Draft;Dresses;FOREVER 21;Adults-Women;Women;NA;;;Fashion;;2018;2/S,FRTODRSS00021592,3/M,FRTODRSS00021593,4/L,FRTODRSS00021594;1199.00;;;<p>Contents:96% POLYESTER, 4% SPANDEX/ELASTANE, Lining:94% PO</p>;;;;international-brands-ss-18;zerotype;;Spring;Tag;No
2406684;216794-SILVER-2406684;FOREVER 21SILVERDresses;Draft;Dresses;FOREVER 21;Adults-Women;Women;NA;;;Fashion;;2018;2/S,FRTODRSS00021589,3/M,FRTODRSS00021590,4/L,FRTODRSS00021591;1199.00;;;<p>Contents:96% POLYESTER, 4% SPANDEX/ELASTANE, Lining:94% PO</p>;;;;international-brands-ss-18;zerotype;;Spring;Tag;No
2406654;200969-DUSTY PINK/LAVENDER-2406654;FOREVER 21DUSTY PINK/LAVENDERDresses;Draft;Dresses;FOREVER 21;Adults-Women;Women;NA;;;Fashion;;2018;2/S,FRTODRSS00021521,3/M,FRTODRSS00021522,4/L,FRTODRSS00021523;1599.00;;;<p>Contents:49% NYLON/POLYAMIDE, 37% POLYESTER, 14% SPANDEX / E</p>;;;;international-brands-ss-18;zerotype;;Spring;Tag;No
2406648;192931-MAUVE-2406648;FOREVER 21MAUVEDresses;Draft;Dresses;FOREVER 21;Adults-Women;Women;NA;;;Fashion;;2018;1/S,FRTODRSS00021508,2/M,FRTODRSS00021509,3/L,FRTODRSS00021510,4/XL,FRTODRSS00021511;1499.00;;;<p>Contents:95% RAYON, 5% SPANDEX/ELASTANE, Lining:, Other:</p>;;;;international-brands-ss-18;zerotype;;Spring;Tag;No
2406646;191237-BLACK/CREAM-2406646;FOREVER 21BLACK/CREAMDresses;Draft;Dresses;FOREVER 21;Adults-Women;Women;NA;;;Fashion;;2018;2/S,FRTODRSS00021505,3/M,FRTODRSS00021506,4/L,FRTODRSS00021507;1899.00;;;<p>Contents:100% RAYON, Lining:100% COTTON, Other:100% POLYESTE</p>;;;;international-brands-ss-18;zerotype;;Spring;Tag;No
2406641;188330-RED/YELLOW-2406641;FOREVER 21RED/YELLOWDresses;Draft;Dresses;FOREVER 21;Adults-Women;Women;NA;;;Fashion;;2018;2/S,FRTODRSS00021492,3/M,FRTODRSS00021493,4/L,FRTODRSS00021494;1699.00;;;<p>Contents:54% POLYESTER, 46% NYLON / POLYAMIDE, Lining:100% P</p>;;;;international-brands-ss-18;zerotype;;Spring;Tag;No
2406631;175019-CITRON/MULTI-2406631;FOREVER 21CITRON/MULTIDresses;Draft;Dresses;FOREVER 21;Adults-Women;Women;NA;;;Fashion;;2018;2/S,FRTODRSS00021464,3/M,FRTODRSS00021465,4/L,FRTODRSS00021466;1499.00;;;<p>Contents:100% RAYON, Lining:100% RAYON, Other:</p>;;;;international-brands-ss-18;zerotype;;Spring;Tag;No
2406623;159819-BLACK-2406623;FOREVER 21BLACKDresses;Draft;Dresses;FOREVER 21;Adults-Women;Women;NA;;;Fashion;;2018;2/S,FRTODRSS00021440,3/M,FRTODRSS00021441,4/L,FRTODRSS00021442;1199.00;;;<p>Contents:94% POLYESTER, 6% SPANDEX/ELASTANE, Lining:, Othe</p>;;;;international-brands-ss-18;zerotype;;Spring;Tag;No
2406622;158934-LAVENDER/BLACK-2406622;FOREVER 21LAVENDER/BLACKDresses;Draft;Dresses;FOREVER 21;Adults-Women;Women;NA;;;Fashion;;2018;2/S,FRTODRSS00021437,3/M,FRTODRSS00021438,4/L,FRTODRSS00021439;1199.00;;;<p>Contents:100% POLYESTER, Lining:, Other:</p>;;;;international-brands-ss-18;zerotype;;Spring;Tag;No
2406617;158425-HEATHER GREY-2406617;FOREVER 21HEATHER GREYDresses;Draft;Dresses;FOREVER 21;Adults-Women;Women;NA;;;Fashion;;2018;2/S,FRTODRSS00021422,3/M,FRTODRSS00021423,4/L,FRTODRSS00021424;1199.00;;;<p>Contents:95% RAYON, 5% SPANDEX/ELASTANE, Lining:, Other:</p>;;;;international-brands-ss-18;zerotype;;Spring;Tag;No
2406614;149702-HUNTER GREEN-2406614;FOREVER 21HUNTER GREENDresses;Draft;Dresses;FOREVER 21;Adults-Women;Women;NA;;;Fashion;;2018;2/S,FRTODRSS00021413,3/M,FRTODRSS00021414,4/L,FRTODRSS00021415;1699.00;;;<p>Contents:100% COTTON, Lining:, Other:</p>;;;;international-brands-ss-18;zerotype;;Spring;Tag;No
2406613;149132-OLIVE/TAN-2406613;FOREVER 21OLIVE/TANDresses;Draft;Dresses;FOREVER 21;Adults-Women;Women;NA;;;Fashion;;2018;2/S,FRTODRSS00021410,3/M,FRTODRSS00021411,4/L,FRTODRSS00021412;949.00;;;<p>Contents:62% POLYESTER, 33% RAYON, 5% SPANDEX/ELASTANE, Li</p>;;;;international-brands-ss-18;zerotype;;Spring;Tag;No
2406604;143284-AMBER-2406604;FOREVER 21AMBERDresses;Draft;Dresses;FOREVER 21;Adults-Women;Women;NA;;;Fashion;;2018;2/S,FRTODRSS00021380,3/M,FRTODRSS00021381,4/L,FRTODRSS00021382;1549.00;;;<p>Contents:91% POLYESTER, 9% SPANDEX/ELASTANE, Lining:, Othe</p>;;;;international-brands-ss-18;zerotype;;Spring;Tag;No
2406586;126245-WHITE/SILVER-2406586;FOREVER 21WHITE/SILVERDresses;Draft;Dresses;FOREVER 21;Adults-Women;Women;NA;;;Fashion;;2018;2/S,FRTODRSS00021325,3/M,FRTODRSS00021326,4/L,FRTODRSS00021327;1599.00;;;<p>Contents:96% RAYON, 4% OTHER FIBERS, Lining:100% POLYESTER,</p>;;;;international-brands-ss-18;zerotype;;Spring;Tag;No
2406578;122144-DUSTY LAVENDER-2406578;FOREVER 21DUSTY LAVENDERDresses;Draft;Dresses;FOREVER 21;Adults-Women;Women;NA;;;Fashion;;2018;1/S,FRTODRSS00021299,2/M,FRTODRSS00021300,3/L,FRTODRSS00021301,4/XL,FRTODRSS00021302;1899.00;;;<p>Contents:51% RAYON, 31% NYLON/POLYAMIDE, 18% POLYESTER, Lini</p>;;;;international-brands-ss-18;zerotype;;Spring;Tag;No
2406572;111134-MUSTARD/BEIGE-2406572;FOREVER 21MUSTARD/BEIGEDresses;Draft;Dresses;FOREVER 21;Adults-Women;Women;NA;;;Fashion;;2018;1/S,FRTODRSS00021279,2/M,FRTODRSS00021280,3/L,FRTODRSS00021281,4/XL,FRTODRSS00021282;1499.00;;;<p>Contents:100% POLYESTER, Lining:100% POLYESTER, Other:</p>;;;;international-brands-ss-18;zerotype;;Spring;Tag;No
2406569;109165-WHITE/RED-2406569;FOREVER 21WHITE/REDDresses;Draft;Dresses;FOREVER 21;Adults-Women;Women;NA;;;Fashion;;2018;2/S,FRTODRSS00021266,3/M,FRTODRSS00021267,4/L,FRTODRSS00021268;1599.00;;;<p>Contents:100% POLYESTER, Lining:, Other:</p>;;;;international-brands-ss-18;zerotype;;Spring;Tag;No
2406563;106402-BEIGE/YELLOW-2406563;FOREVER 21BEIGE/YELLOWDresses;Draft;Dresses;FOREVER 21;Adults-Women;Women;NA;;;Fashion;;2018;1/XS,FRTODRSS00021244,2/S,FRTODRSS00021245,3/M,FRTODRSS00021246,4/L,FRTODRSS00021247,5/XL,FRTODRSS00021248;1299.00;;;<p>Contents:100% POLYESTER, Lining:, Other:</p>;;;;international-brands-ss-18;zerotype;;Spring;Tag;No
2406559;105569-RED-2406559;FOREVER 21REDDresses;Draft;Dresses;FOREVER 21;Adults-Women;Women;NA;;;Fashion;;2018;2/S,FRTODRSS00021230,3/M,FRTODRSS00021231,4/L,FRTODRSS00021232;1399.00;;;<p>Contents:93% RAYON, 7% SPANDEX/ELASTANE, Lining:, Other:</p>;;;;international-brands-ss-18;zerotype;;Spring;Tag;No
2406541;93259-BLACK-2406541;FOREVER 21BLACKDresses;Draft;Dresses;FOREVER 21;Adults-Women;Women;NA;;;Fashion;;2018;1/S,FRTODRSS00021165,2/M,FRTODRSS00021166,3/L,FRTODRSS00021167,4/XL,FRTODRSS00021168;1299.00;;;<p>Contents:66% RAYON, 29% NYLON/POLYAMIDE, 5% SPANDEX/ELASTANE</p>;;;;international-brands-ss-18;zerotype;;Spring;Tag;No
2406539;91346-AQUA/ORANGE-2406539;FOREVER 21AQUA/ORANGEDresses;Draft;Dresses;FOREVER 21;Adults-Women;Women;NA;;;Fashion;;2018;1/S,FRTODRSS00021158,2/M,FRTODRSS00021159,3/L,FRTODRSS00021160,4/XL,FRTODRSS00021161;1699.00;;;<p>Contents:100% POLYESTER, Lining:, Other:</p>;;;;international-brands-ss-18;zerotype;;Spring;Tag;No
2405980;158731-BLACK-2405980;FOREVER 21BLACKTops;Draft;Tops;FOREVER 21;Adults-Women;Women;NA;;;Fashion;;2018;2/S,FRTOTOPS00037296,3/M,FRTOTOPS00037297,4/L,FRTOTOPS00037298;699.00;;;<p>Contents:61% POLYESTER, 33% RAYON, 6% SPANDEX/ELASTANE, Li</p>;;;;international-brands-ss-18;zerotype;;Spring;Tag;No
2405963;149557-LIGHT PINK-2405963;FOREVER 21LIGHT PINKTops;Draft;Tops;FOREVER 21;Adults-Women;Women;NA;;;Fashion;;2018;2/S,FRTOTOPS00037249,3/M,FRTOTOPS00037250,4/L,FRTOTOPS00037251;949.00;;;<p>Contents:93% RAYON, 7% SPANDEX/ELASTANE, Lining:, Other:</p>;;;;international-brands-ss-18;zerotype;;Spring;Tag;No
2405962;149557-BLACK-2405962;FOREVER 21BLACKTops;Draft;Tops;FOREVER 21;Adults-Women;Women;NA;;;Fashion;;2018;2/S,FRTOTOPS00037246,3/M,FRTOTOPS00037247,4/L,FRTOTOPS00037248;949.00;;;<p>Contents:93% RAYON, 7% SPANDEX/ELASTANE, Lining:, Other:</p>;;;;international-brands-ss-18;zerotype;;Spring;Tag;No
2405955;149065-HUNTER GREEN-2405955;FOREVER 21HUNTER GREENTops;Draft;Tops;FOREVER 21;Adults-Women;Women;NA;;;Fashion;;2018;1/S,FRTOTOPS00037222,2/M,FRTOTOPS00037223,3/L,FRTOTOPS00037224,4/XL,FRTOTOPS00037225;1299.00;;;<p>Contents:100% POLYESTER, Lining:, Other:</p>;;;;international-brands-ss-18;zerotype;;Spring;Tag;No
2405948;145089-YELLOW-2405948;FOREVER 21YELLOWTops;Draft;Tops;FOREVER 21;Adults-Women;Women;NA;;;Fashion;;2018;2/S,FRTOTOPS00037199,3/M,FRTOTOPS00037200,4/L,FRTOTOPS00037201;949.00;;;<p>Contents:60% COTTON, 40% POLYESTER, Lining:, Other:</p>;;;;international-brands-ss-18;zerotype;;Spring;Tag;No
2405946;145089-CREAM-2405946;FOREVER 21CREAMTops;Draft;Tops;FOREVER 21;Adults-Women;Women;NA;;;Fashion;;2018;2/S,FRTOTOPS00037193,3/M,FRTOTOPS00037194,4/L,FRTOTOPS00037195;949.00;;;<p>Contents:60% COTTON, 40% POLYESTER, Lining:, Other:</p>;;;;international-brands-ss-18;zerotype;;Spring;Tag;No
2405919;133701-BURGUNDY/WHITE-2405919;FOREVER 21BURGUNDY/WHITETops;Draft;Tops;FOREVER 21;Adults-Women;Women;NA;;;Fashion;;2018;2/S,FRTOTOPS00037108,3/M,FRTOTOPS00037109,4/L,FRTOTOPS00037110;1399.00;;;<p>Contents:80% COTTON, 20% POLYESTER, Lining:, Other:</p>;;;;international-brands-ss-18;zerotype;;Spring;Tag;No
2405918;126050-AUBERGINE-2405918;FOREVER 21AUBERGINETops;Draft;Tops;FOREVER 21;Adults-Women;Women;NA;;;Fashion;;2018;2/S,FRTOTOPS00037105,3/M,FRTOTOPS00037106,4/L,FRTOTOPS00037107;649.00;;;<p>Contents:91% RAYON, 9% SPANDEX/ELASTANE, Lining:, Other:</p>;;;;international-brands-ss-18;zerotype;;Spring;Tag;No
2405915;125997-LAVENDER-2405915;FOREVER 21LAVENDERTops;Draft;Tops;FOREVER 21;Adults-Women;Women;NA;;;Fashion;;2018;2/S,FRTOTOPS00037096,3/M,FRTOTOPS00037097,4/L,FRTOTOPS00037098;1549.00;;;<p>Contents:100% COTTON, Lining:, Other:</p>;;;;international-brands-ss-18;zerotype;;Spring;Tag;No
2405879;108830-WHITE-2405879;FOREVER 21WHITETops;Draft;Tops;FOREVER 21;Adults-Women;Women;NA;;;Fashion;;2018;2/S,FRTOTOPS00036985,3/M,FRTOTOPS00036986,4/L,FRTOTOPS00036987;1199.00;;;<p>Contents:95% RAYON, 5% SPANDEX/ELASTANE, Lining:, Other:</p>;;;;international-brands-ss-18;zerotype;;Spring;Tag;No
2405877;106305-NAVY-2405877;FOREVER 21NAVYTops;Draft;Tops;FOREVER 21;Adults-Women;Women;NA;;;Fashion;;2018;2/S,FRTOTOPS00036979,3/M,FRTOTOPS00036980,4/L,FRTOTOPS00036981;549.00;;;<p>Contents:60% COTTON, 36% POLYESTER, 4% SPANDEX/ELASTANE, Lin</p>;;;;international-brands-ss-18;zerotype;;Spring;Tag;No
2405867;98254-BLUSH-2405867;FOREVER 21BLUSHTops;Draft;Tops;FOREVER 21;Adults-Women;Women;NA;;;Fashion;;2018;2/S,FRTOTOPS00036947,3/M,FRTOTOPS00036948,4/L,FRTOTOPS00036949;1199.00;;;<p>Contents:100% COTTON, Lining:, Other:</p>;;;;international-brands-ss-18;zerotype;;Spring;Tag;No
2405866;98139-WHITE/BLACK-2405866;FOREVER 21WHITE/BLACKTops;Draft;Tops;FOREVER 21;Adults-Women;Women;NA;;;Fashion;;2018;1/S,FRTOTOPS00036943,2/M,FRTOTOPS00036944,3/L,FRTOTOPS00036945,4/XL,FRTOTOPS00036946;1549.00;;;<p>Contents:75% POLYESTER, 25% COTTON,100% POLYURETHANE Lining:</p>;;;;international-brands-ss-18;zerotype;;Spring;Tag;No
2405865;95473-DUSTY LAVENDER-2405865;FOREVER 21DUSTY LAVENDERTops;Draft;Tops;FOREVER 21;Adults-Women;Women;NA;;;Fashion;;2018;2/S,FRTOTOPS00036940,3/M,FRTOTOPS00036941,4/L,FRTOTOPS00036942;1149.00;;;<p>Contents:100% COTTON, Lining:, Other:</p>;;;;international-brands-ss-18;zerotype;;Spring;Tag;No
2405853;94329-BLACK-2405853;FOREVER 21BLACKTops;Draft;Tops;FOREVER 21;Adults-Women;Women;NA;;;Fashion;;2018;2/S,FRTOTOPS00036902,3/M,FRTOTOPS00036903,4/L,FRTOTOPS00036904;1399.00;;;<p>Contents:77% RAYON, 20% NYLON/POLYAMIDE, 3% SPANDEX/ELASTANE</p>;;;;international-brands-ss-18;zerotype;;Spring;Tag;No
2405849;91450-CORAL-2405849;FOREVER 21CORALTops;Draft;Tops;FOREVER 21;Adults-Women;Women;NA;;;Fashion;;2018;2/S,FRTOTOPS00036890,3/M,FRTOTOPS00036891,4/L,FRTOTOPS00036892;799.00;;;<p>Contents:60% COTTON, 40% MODAL RAYON, Lining:, Other:</p>;;;;international-brands-ss-18;zerotype;;Spring;Tag;No
2405845;84623-SKY BLUE-2405845;FOREVER 21SKY BLUETops;Draft;Tops;FOREVER 21;Adults-Women;Women;NA;;;Fashion;;2018;1/XS,FRTOTOPS00036872,2/S,FRTOTOPS00036873,3/M,FRTOTOPS00036874,4/L,FRTOTOPS00036875,5/XL,FRTOTOPS00036876;549.00;;;<p>Contents:60% COTTON, 40% POLYESTER, Lining:, Other:</p>;;;;international-brands-ss-18;zerotype;;Spring;Tag;No
2405844;84623-TAN-2405844;FOREVER 21TANTops;Draft;Tops;FOREVER 21;Adults-Women;Women;NA;;;Fashion;;2018;1/XS,FRTOTOPS00036867,2/S,FRTOTOPS00036868,3/M,FRTOTOPS00036869,4/L,FRTOTOPS00036870,5/XL,FRTOTOPS00036871;549.00;;;<p>Contents:60% COTTON, 40% POLYESTER, Lining:, Other:</p>;;;;international-brands-ss-18;zerotype;;Spring;Tag;No
2405839;58120-SANDSHELL-2405839;FOREVER 21SANDSHELLTops;Draft;Tops;FOREVER 21;Adults-Women;Women;NA;;;Fashion;;2018;2/S,FRTOTOPS00036852,3/M,FRTOTOPS00036853,4/L,FRTOTOPS00036854;1399.00;;;<p>Contents:92% POLYESTER, 8% SPANDEX/ELASTANE, Lining:, Othe</p>;;;;international-brands-ss-18;zerotype;;Spring;Tag;No
2405835;54582-BLACK-2405835;FOREVER 21BLACKTops;Draft;Tops;FOREVER 21;Adults-Women;Women;NA;;;Fashion;;2018;2/S,FRTOTOPS00036839,3/M,FRTOTOPS00036840,4/L,FRTOTOPS00036841;999.00;;;<p>Contents:78% POLYESTER, 22% COTTON, Lining:, Other:</p>;;;;international-brands-ss-18;zerotype;;Spring;Tag;No
2405188;250812-BURGUNDY-2405188;FOREVER 21 BURGUNDYJumpsuit;Draft;Jumpsuit;FOREVER 21;Adults-Women;Women;NA;;;Fashion;;2018;2/S,FRTOJMST00003751,3/M,FRTOJMST00003752,4/L,FRTOJMST00003753;1889.00;;;<p>Contents:95% rayon, 5% spandex</p>;;;;international-brands-ss-18;zerotype;;Spring;Tag;No
2405180;238663-YELLOW/WHITE-2405180;FOREVER 21YELLOW/WHITEJumpsuit;Draft;Jumpsuit;FOREVER 21;Adults-Women;Women;NA;;;Fashion;;2018;2/S,FRTOJMST00003727,3/M,FRTOJMST00003728,4/L,FRTOJMST00003729;1199.00;;;<p>Contents:93% RAYON, 7% SPANDEX/ELASTANE, Lining:, Other:</p>;;;;international-brands-ss-18;zerotype;;Spring;Tag;No
2405179;233168-BLACK-2405179;FOREVER 21BLACKJumpsuit;Draft;Jumpsuit;FOREVER 21;Adults-Women;Women;NA;;;Fashion;;2018;1/S,FRTOJMST00003723,2/M,FRTOJMST00003724,3/L,FRTOJMST00003725,4/XL,FRTOJMST00003726;1599.00;;;<p>Contents:95% POLYESTER, 5% SPANDEX/ELASTANE, Lining:, Othe</p>;;;;international-brands-ss-18;zerotype;;Spring;Tag;No
2405173;224311-PINK/GREEN-2405173;FOREVER 21PINK/GREENJumpsuit;Draft;Jumpsuit;FOREVER 21;Adults-Women;Women;NA;;;Fashion;;2018;2/S,FRTOJMST00003704,3/M,FRTOJMST00003705,4/L,FRTOJMST00003706;1249.00;;;<p>Contents:100% POLYESTER, Lining:, Other:</p>;;;;international-brands-ss-18;zerotype;;Spring;Tag;No
2405172;224311-SAGE/RUST-2405172;FOREVER 21SAGE/RUSTJumpsuit;Draft;Jumpsuit;FOREVER 21;Adults-Women;Women;NA;;;Fashion;;2018;2/S,FRTOJMST00003701,3/M,FRTOJMST00003702,4/L,FRTOJMST00003703;1249.00;;;<p>Contents:100% POLYESTER, Lining:, Other:</p>;;;;international-brands-ss-18;zerotype;;Spring;Tag;No
2405170;219390-BLACK/IVORY-2405170;FOREVER 21BLACK/IVORYJumpsuit;Draft;Jumpsuit;FOREVER 21;Adults-Women;Women;NA;;;Fashion;;2018;2/S,FRTOJMST00003695,3/M,FRTOJMST00003696,4/L,FRTOJMST00003697;1499.00;;;<p>Contents:100% POLYESTER, Lining:, Other:</p>;;;;international-brands-ss-18;zerotype;;Spring;Tag;No
2405151;193305-BLACK-2405151;FOREVER 21BLACKJumpsuit;Draft;Jumpsuit;FOREVER 21;Adults-Women;Women;NA;;;Fashion;;2018;2/S,FRTOJMST00003642,3/M,FRTOJMST00003643,4/L,FRTOJMST00003644;1199.00;;;<p>Contents:93% RAYON, 7% SPANDEX/ELASTANE, Lining:, Other:</p>;;;;international-brands-ss-18;zerotype;;Spring;Tag;No
2405135;148125-DARK DENIM-2405135;FOREVER 21DARK DENIMJumpsuit;Draft;Jumpsuit;FOREVER 21;Adults-Women;Women;NA;;;Fashion;;2018;1/XS,FRTOJMST00003590,2/S,FRTOJMST00003591,3/M,FRTOJMST00003592,4/L,FRTOJMST00003593;2249.00;;;<p>Contents:100% LYOCELL, Lining:, Other:</p>;;;;international-brands-ss-18;zerotype;;Spring;Tag;No
2405134;143805-IVORY-2405134;FOREVER 21IVORYJumpsuit;Draft;Jumpsuit;FOREVER 21;Adults-Women;Women;NA;;;Fashion;;2018;2/S,FRTOJMST00003587,3/M,FRTOJMST00003588,4/L,FRTOJMST00003589;1799.00;;;<p>Contents:89% POLYESTER, 11% SPANDEX/ELASTANE, Lining:100%</p>;;;;international-brands-ss-18;zerotype;;Spring;Tag;No
2405132;135898-AUBERGINE-2405132;FOREVER 21AUBERGINEJumpsuit;Draft;Jumpsuit;FOREVER 21;Adults-Women;Women;NA;;;Fashion;;2018;2/S,FRTOJMST00003581,3/M,FRTOJMST00003582,4/L,FRTOJMST00003583;1599.00;;;<p>Contents:68% RAYON, 28% NYLON/POLYAMIDE, 4% SPANDEX / ELASTA</p>;;;;international-brands-ss-18;zerotype;;Spring;Tag;No
2405131;135898-BLACK-2405131;FOREVER 21BLACKJumpsuit;Draft;Jumpsuit;FOREVER 21;Adults-Women;Women;NA;;;Fashion;;2018;2/S,FRTOJMST00003578,3/M,FRTOJMST00003579,4/L,FRTOJMST00003580;1599.00;;;<p>Contents:68% RAYON, 28% NYLON/POLYAMIDE, 4% SPANDEX / ELASTA</p>;;;;international-brands-ss-18;zerotype;;Spring;Tag;No
2405112;88855-BLACK-2405112;FOREVER 21BLACKJumpsuit;On Hold - Sample;Jumpsuit;FOREVER 21;Adults-Women;Women;NA;;;Fashion;;2018;1/S,FRTOJMST00003511,2/M,FRTOJMST00003512,3/L,FRTOJMST00003513,4/XL,FRTOJMST00003514;1499.00;;;<p>Contents:100% RAYON, Lining:, Other:</p>;;;;international-brands-ss-18;zerotype;;Spring;Tag;No
2405111;85966-PEACH BUD-2405111;FOREVER 21PEACH BUDJumpsuit;Draft;Jumpsuit;FOREVER 21;Adults-Women;Women;NA;;;Fashion;;2018;2/S,FRTOJMST00003508,3/M,FRTOJMST00003509,4/L,FRTOJMST00003510;1599.00;;;<p>Contents:100% RAYON, Lining:100% RAYON, Other:</p>;;;;international-brands-ss-18;zerotype;;Spring;Tag;No
2404487;75602-TAN-2404487;FOREVER 21TANHandbags;Draft;Handbags;FOREVER 21;Adults-Women;Women;NA;;;Fashion;;2018;1/Onesize,FRTOHDBG00001260;1999.00;;;<p>Contents:100% POLYURETHANE,41% RAYON, 36% LINEN (FLAX), 23%</p>;;;;international-brands-ss-18;zerotype;;Spring;Tag;No
2404459;268208-BLACK-2404459;FOREVER 21BLACKHandbags;Draft;Handbags;FOREVER 21;Adults-Women;Women;NA;;;Fashion;;2018;1/Onesize,FRTOHDBG00001232;1899.00;;;<p>Contents:100% POLYURETHANE, Lining:88% POLYESTER, 12% COTTON</p>;;;;international-brands-ss-18;zerotype;;Spring;Tag;No
2404444;148194-BLACK-2404444;FOREVER 21BLACKHandbags;Draft;Handbags;FOREVER 21;Adults-Women;Women;NA;;;Fashion;;2018;1/Onesize,FRTOHDBG00001217;449.00;;;<p>Contents:94% POLYESTER, 6% SPANDEX/ELASTANE, Lining:100% P</p>;;;;international-brands-ss-18;zerotype;;Spring;Tag;No
2390810;92881-BLACK-2390810;92881;On Hold - Sample;Blazers;Fort Collins;Adults-Men;Men;Black;;;Fashion;Smart Casual;2018;M,FRCLBLZR00000138,L,FRCLBLZR00000139,XL,FRCLBLZR00000140,XXL,FRCLBLZR00000141;3250.00;Black checked single-breasted smart casual blazer, has a notched lapel, double button closure, long sleeves, slightly padded shoulders, five pockets, double vented back hem and has an attached lining;Make a style statement by donning this stylish blazer from Fort Collins. Wear this piece with a shirt, a pair of jeans and your favourite shoes for the suave and debonair look.;80% polyester, 20% wool<br />Machine-wash;The model (height 6') is wearing a size 40;;Fort Collins Black Checked Single-Breasted Smart Casual Blazer;Fort Collins;zerotype;;Summer;broken size;No
2390797;16079-NAVY-2390797;16079;On Hold - Sample;Blazers;Fort Collins;Adults-Men;Men;Navy Blue;;;Fashion;Smart Casual;2018;M,FRCLBLZR00000092,L,FRCLBLZR00000093,XL,FRCLBLZR00000094,XXL,FRCLBLZR00000095;3250.00;<a href='/navy-blue?src=pd' class='seolink'>Navy blue</a> checked single-breasted smart <a href='/casual?src=pd' class='seolink'>casual</a> blazer, has a peak lapel, double button closure, long sleeves, slightly padded shoulders, five pockets, double vented back hem and has an attached lining;Make a style statement by donning this stylish blazer from Fort Collins. Wear this piece with a shirt, a pair of jeans and your favourite shoes for the suave and debonair look.;80% polyester, 20% wool<br />Hand-wash;The model (height 6') is wearing a size 40;;Fort Collins Navy Blue Checked Single-Breasted Smart Casual Blazer;Fort Collins;zerotype;;Summer;broken size;No
2386207;B0404LTN01X-Tan-2386207;B0404LTN01X;Draft;Belts;Fastrack;Adults-Men;Men;Tan;Tan;Tan;Fashion;;2017;39 - 44 Inch (X),FSTKBELT00092462;1095.00;;;<p>Leather</p>;;;;;zerotype;;Fall;;No
2386205;B0404LTN01S-Tan-2386205;B0404LTN01S;Draft;Belts;Fastrack;Adults-Men;Men;Tan;Tan;Tan;Fashion;;2017;28 - 33 Inch (S),FSTKBELT00092460;1095.00;;;<p>Leather</p>;;;;;zerotype;;Fall;;No
2386201;B0401LBK01X-Black-2386201;B0401LBK01X;Draft;Belts;Fastrack;Adults-Men;Men;Black;Black;Black;Fashion;;2017;39 - 44 Inch (X),FSTKBELT00092456;1095.00;;;<p>Leather</p>;;;;;zerotype;;Fall;;No
2386199;B0401LBK01S-Black-2386199;B0401LBK01S;Draft;Belts;Fastrack;Adults-Men;Men;Black;Black;Black;Fashion;;2017;28 - 33 Inch (S),FSTKBELT00092454;1095.00;;;<p>Leather</p>;;;;;zerotype;;Fall;;No
2386198;B0400LTN01X-Tan-2386198;B0400LTN01X;Draft;Belts;Fastrack;Adults-Men;Men;Tan;Tan;Tan;Fashion;;2017;39 - 44 Inch (X),FSTKBELT00092453;1095.00;;;<p>Leather</p>;;;;;zerotype;;Fall;;No
2386196;B0400LTN01S-Tan-2386196;B0400LTN01S;Draft;Belts;Fastrack;Adults-Men;Men;Tan;Tan;Tan;Fashion;;2017;28 - 33 Inch (S),FSTKBELT00092451;1095.00;;;<p>Leather</p>;;;;;zerotype;;Fall;;No
2386195;B0399LTN01X-Tan-2386195;B0399LTN01X;Draft;Belts;Fastrack;Adults-Men;Men;Tan;Tan;Tan;Fashion;;2017;39 - 44 Inch (X),FSTKBELT00092450;1095.00;;;<p>Leather</p>;;;;;zerotype;;Fall;;No
2386193;B0399LTN01S-Tan-2386193;B0399LTN01S;Draft;Belts;Fastrack;Adults-Men;Men;Tan;Tan;Tan;Fashion;;2017;28 - 33 Inch (S),FSTKBELT00092448;1095.00;;;<p>Leather</p>;;;;;zerotype;;Fall;;No
2386192;B0398LBR02X-Brown-2386192;B0398LBR02X;Draft;Belts;Fastrack;Adults-Men;Men;Brown;Brown;Brown;Fashion;;2017;39 - 44 Inch (X),FSTKBELT00092447;1095.00;;;<p>Leather</p>;;;;;zerotype;;Fall;;No
2386190;B0398LBR02S-Brown-2386190;B0398LBR02S;Draft;Belts;Fastrack;Adults-Men;Men;Brown;Brown;Brown;Fashion;;2017;28 - 33 Inch (S),FSTKBELT00092445;1095.00;;;<p>Leather</p>;;;;;zerotype;;Fall;;No
2386187;B0398LBK02S-Black-2386187;B0398LBK02S;Draft;Belts;Fastrack;Adults-Men;Men;Black;Black;Black;Fashion;;2017;28 - 33 Inch (S),FSTKBELT00092442;1095.00;;;<p>Leather</p>;;;;;zerotype;;Fall;;No
2386180;B0396LBG02X-Beige-2386180;B0396LBG02X;Draft;Belts;Fastrack;Adults-Men;Men;Beige;Beige;Beige;Fashion;;2017;39 - 44 Inch (X),FSTKBELT00092435;1095.00;;;<p>Leather</p>;;;;;zerotype;;Fall;;No
2386178;B0396LBG02S-Beige-2386178;B0396LBG02S;Draft;Belts;Fastrack;Adults-Men;Men;Beige;Beige;Beige;Fashion;;2017;28 - 33 Inch (S),FSTKBELT00092433;1095.00;;;<p>Leather</p>;;;;;zerotype;;Fall;;No
2386174;B0395LTN02X-Tan-2386174;B0395LTN02X;Draft;Belts;Fastrack;Adults-Men;Men;Tan;Tan;Tan;Fashion;;2017;39 - 44 Inch (X),FSTKBELT00092429;1095.00;;;<p>Leather</p>;;;;;zerotype;;Fall;;No
2386172;B0395LTN02S-Tan-2386172;B0395LTN02S;Draft;Belts;Fastrack;Adults-Men;Men;Tan;Tan;Tan;Fashion;;2017;28 - 33 Inch (S),FSTKBELT00092427;1095.00;;;<p>Leather</p>;;;;;zerotype;;Fall;;No
2386171;B0395LBR02X-Brown-2386171;B0395LBR02X;Draft;Belts;Fastrack;Adults-Men;Men;Brown;Brown;Brown;Fashion;;2017;39 - 44 Inch (X),FSTKBELT00092426;1095.00;;;<p>Leather</p>;;;;;zerotype;;Fall;;No
2386169;B0395LBR02S-Brown-2386169;B0395LBR02S;Draft;Belts;Fastrack;Adults-Men;Men;Brown;Brown;Brown;Fashion;;2017;28 - 33 Inch (S),FSTKBELT00092424;1095.00;;;<p>Leather</p>;;;;;zerotype;;Fall;;No
2386162;B0393LBR02X-Brown-2386162;B0393LBR02X;Draft;Belts;Fastrack;Adults-Men;Men;Brown;Brown;Brown;Fashion;;2017;39 - 44 Inch (X),FSTKBELT00092417;1095.00;;;<p>Leather</p>;;;;;zerotype;;Fall;;No
2386160;B0393LBR02S-Brown-2386160;B0393LBR02S;Draft;Belts;Fastrack;Adults-Men;Men;Brown;Brown;Brown;Fashion;;2017;28 - 33 Inch (S),FSTKBELT00092415;1095.00;;;<p>Leather</p>;;;;;zerotype;;Fall;;No
2386152;B0390LBR02X-Brown-2386152;B0390LBR02X;Draft;Belts;Fastrack;Adults-Men;Men;Brown;Brown;Brown;Fashion;;2017;39 - 44 Inch (X),FSTKBELT00092407;1095.00;;;<p>Leather</p>;;;;;zerotype;;Fall;;No
2386150;B0390LBR02S-Brown-2386150;B0390LBR02S;Draft;Belts;Fastrack;Adults-Men;Men;Brown;Brown;Brown;Fashion;;2017;28 - 33 Inch (S),FSTKBELT00092405;1095.00;;;<p>Leather</p>;;;;;zerotype;;Fall;;No
2386146;B0375LBR01X-Brown-2386146;B0375LBR01X;Draft;Belts;Fastrack;Adults-Men;Men;Brown;Brown;Brown;Fashion;;2017;36 - 41 inch (X),FSTKBELT00092401;945.00;;;<p>Leather</p>;;;;;zerotype;;Fall;;No
2377603;A0568NYL01-Red-2377603;A0568NYL01;Draft;Handbags;Fastrack;Adults-Women;Women;Red;Red;Red;Fashion;;2017;Onesize,FSTKHDBG00000185;1295.00;;;<p>Polyester</p>;;;;;zerotype;;Fall;;No
2377586;A0560NNE01-Green-2377586;A0560NNE01;Draft;Handbags;Fastrack;Adults-Women;Women;Green;Green;Green;Fashion;;2017;Onesize,FSTKHDBG00000168;795.00;;;<p>Polyester</p>;;;;;zerotype;;Fall;;No
2377581;A0552PTL01-Teal-2377581;A0552PTL01;Draft;Handbags;Fastrack;Adults-Women;Women;Teal;Teal;Teal;Fashion;;2017;Onesize,FSTKHDBG00000163;1795.00;;;<p>Semi PU</p>;;;;;zerotype;;Fall;;No
2377580;A0552PBL01-Blue-2377580;A0552PBL01;Draft;Handbags;Fastrack;Adults-Women;Women;Blue;Blue;Blue;Fashion;;2017;Onesize,FSTKHDBG00000162;1795.00;;;<p>Semi PU</p>;;;;;zerotype;;Fall;;No
2377579;A0550NPR01-Purple-2377579;A0550NPR01;Draft;Handbags;Fastrack;Adults-Women;Women;Purple;Purple;Purple;Fashion;;2017;Onesize,FSTKHDBG00000161;1195.00;;;<p>210D Nylon</p>;;;;;zerotype;;Fall;;No
2377578;A0549NBK01-Black-2377578;A0549NBK01;Draft;Handbags;Fastrack;Adults-Women;Women;Black;Black;Black;Fashion;;2017;Onesize,FSTKHDBG00000160;1195.00;;;<p>210D Nylon</p>;;;;;zerotype;;Fall;;No
2377577;A0549NBL01-Blue-2377577;A0549NBL01;Draft;Handbags;Fastrack;Adults-Women;Women;Blue;Blue;Blue;Fashion;;2017;Onesize,FSTKHDBG00000159;1195.00;;;<p>210D Nylon</p>;;;;;zerotype;;Fall;;No
2377576;A0548NPK01-Pink-2377576;A0548NPK01;Draft;Handbags;Fastrack;Adults-Women;Women;Pink;Pink;Pink;Fashion;;2017;Onesize,FSTKHDBG00000158;1695.00;;;<p>210D Nylon</p>;;;;;zerotype;;Fall;;No
2377575;A0548NBL01-Blue-2377575;A0548NBL01;Draft;Handbags;Fastrack;Adults-Women;Women;Blue;Blue;Blue;Fashion;;2017;Onesize,FSTKHDBG00000157;1695.00;;;<p>210D Nylon</p>;;;;;zerotype;;Fall;;No
2376807;8902789913880-True Navy-2376807;Tobia knit jogger, 34;Draft;Trousers;Wills Lifestyle;Adults-Women;Women;;;;Fashion;;2017;26,WILITRSR00007085,28,WILITRSR00007086,30,WILITRSR00007087,32,WILITRSR00007088,34,WILITRSR00007089;2599.00;;;<p>POLYBLEND</p>;;;;;zerotype;;Spring;;No
2376805;8902789913781-Beige-2376805;Tobia knit jogger, 36;Draft;Trousers;Wills Lifestyle;Adults-Women;Women;;;;Fashion;;2017;26,WILITRSR00007079,28,WILITRSR00007080,30,WILITRSR00007081,32,WILITRSR00007082,34,WILITRSR00007083,36,WILITRSR00007084;2599.00;;;<p>POLYBLEND</p>;;;;;zerotype;;Spring;;No
2376797;8902789917246-Beige-2376797;NOA TROUSERS, 36;Draft;Trousers;Wills Lifestyle;Adults-Women;Women;;;;Fashion;;2017;26,WILITRSR00007055,28,WILITRSR00007056,30,WILITRSR00007057,32,WILITRSR00007058,34,WILITRSR00007059,36,WILITRSR00007060;2799.00;;;<p>POLY VISCOSE SPANDEX</p>;;;;;zerotype;;Spring;;No
2376795;8902789737363-Frost Gray-2376795;EEL PANTS, 26;Draft;Trousers;Wills Lifestyle;Adults-Women;Women;;;;Fashion;;2017;36,WILITRSR00007049,34,WILITRSR00007050,32,WILITRSR00007051,30,WILITRSR00007052,28,WILITRSR00007053,26,WILITRSR00007054;2099.00;;;<p>POLY VISCOSE SPANDEX</p>;;;;;zerotype;;Spring;;No
2376787;8902789943627-Vanilla Ice-2376787;ROSITA TOP, XS;Draft;Tops;Wills Lifestyle;Adults-Women;Women;;;;Fashion;;2017;L,WILITOPS00004578,M,WILITOPS00004579,S,WILITOPS00004580,XL,WILITOPS00004581,XS,WILITOPS00004582;2799.00;;;<p>100% POLYESTER</p>;;;;;zerotype;;Spring;;No
2376786;8902789943764-Mood Indigo-2376786;VIRGINIA TOP, XL;Draft;Tops;Wills Lifestyle;Adults-Women;Women;;;;Fashion;;2017;L,WILITOPS00004574,M,WILITOPS00004575,S,WILITOPS00004576,XL,WILITOPS00004577;3499.00;;;<p>100% POLYESTER</p>;;;;;zerotype;;Spring;;No
2376784;8902789941357-Classic Blue-2376784;CATLA TOP, XL;Draft;Tops;Wills Lifestyle;Adults-Women;Women;;;;Fashion;;2017;L,WILITOPS00004566,M,WILITOPS00004567,S,WILITOPS00004568,XL,WILITOPS00004569;2999.00;;;<p>100% POLYESTER</p>;;;;;zerotype;;Spring;;No
2376780;8902789917581-English Rose-2376780;INGRID TOP, XL;Draft;Tops;Wills Lifestyle;Adults-Women;Women;;;;Fashion;;2017;L,WILITOPS00004548,M,WILITOPS00004549,S,WILITOPS00004550,XL,WILITOPS00004551;2499.00;;;<p>100% cotton</p>;;;;;zerotype;;Spring;;No
2376778;8902789914788-English Rose-2376778;NEW SHELBY TOP, XL;Draft;Tops;Wills Lifestyle;Adults-Women;Women;;;;Fashion;;2017;L,WILITOPS00004540,M,WILITOPS00004541,S,WILITOPS00004542,XL,WILITOPS00004543;2799.00;;;<p>POLYBLEND</p>;;;;;zerotype;;Spring;;No
2376777;8902789994872-Vanilla Ice-2376777;Kelly Blouse, XL;Draft;Tops;Wills Lifestyle;Adults-Women;Women;;;;Fashion;;2017;L,WILITOPS00004536,M,WILITOPS00004537,S,WILITOPS00004538,XL,WILITOPS00004539;1999.00;;;<p>Polyviscose</p>;;;;;zerotype;;Spring;;No
2376775;8902789993523-Vanilla Ice-2376775;NIGI TOP, XL;Draft;Tops;Wills Lifestyle;Adults-Women;Women;;;;Fashion;;2017;L,WILITOPS00004528,M,WILITOPS00004529,S,WILITOPS00004530,XL,WILITOPS00004531;2299.00;;;<p>Polyviscose</p>;;;;;zerotype;;Spring;;No
2376772;8902789990560-Peach Cobbler-2376772;Mango Top, XS;Draft;Tops;Wills Lifestyle;Adults-Women;Women;;;;Fashion;;2017;L,WILITOPS00004514,M,WILITOPS00004515,S,WILITOPS00004516,XL,WILITOPS00004517,XS,WILITOPS00004518;2499.00;;;<p>Polyviscose</p>;;;;;zerotype;;Spring;;No
2376770;8902789910339-Classic Blue-2376770;FAUSTA top, XS;Draft;Tops;Wills Lifestyle;Adults-Women;Women;;;;Fashion;;2017;L,WILITOPS00004504,M,WILITOPS00004505,S,WILITOPS00004506,XL,WILITOPS00004507,XS,WILITOPS00004508;1999.00;;;<p>100% POLYESTER</p>;;;;;zerotype;;Spring;;No
2376769;8902789972443-Tomato-2376769;Clara ruffle shirt, XS;Draft;Shirts;Wills Lifestyle;Adults-Women;Women;;;;Fashion;;2017;L,WILISHRT00013845,M,WILISHRT00013846,S,WILISHRT00013847,XL,WILISHRT00013848,XS,WILISHRT00013849;1799.00;;;<p>COTTON MODAL</p>;;;;;zerotype;;Spring;;No
2376767;8902789734683-Bright White-2376767;JERI PRINTED SHIRT, XL;Draft;Shirts;Wills Lifestyle;Adults-Women;Women;;;;Fashion;;2017;L,WILISHRT00013837,M,WILISHRT00013838,S,WILISHRT00013839,XL,WILISHRT00013840;1999.00;;;<p>100% POLYESTER</p>;;;;;zerotype;;Spring;;No
2376766;8902789734867-True Blue-2376766;POLKA PRINTED SHIRT, L;Draft;Shirts;Wills Lifestyle;Adults-Women;Women;;;;Fashion;;2017;XS,WILISHRT00013832,XL,WILISHRT00013833,S,WILISHRT00013834,M,WILISHRT00013835,L,WILISHRT00013836;1999.00;;;<p>COTTON MODAL</p>;;;;;zerotype;;Spring;;No
2376764;8902789689006-Camelia-2376764;CARY SHIRT, XL;Draft;Shirts;Wills Lifestyle;Adults-Women;Women;;;;Fashion;;2017;L,WILISHRT00013824,M,WILISHRT00013825,S,WILISHRT00013826,XL,WILISHRT00013827;2199.00;;;<p>100% POLYESTER</p>;;;;;zerotype;;Spring;;No
2376763;8902789732979-Blazing Yellow-2376763;CARLSBAD SHIRT, L;Draft;Shirts;Wills Lifestyle;Adults-Women;Women;;;;Fashion;;2017;XL,WILISHRT00013820,S,WILISHRT00013821,M,WILISHRT00013822,L,WILISHRT00013823;1699.00;;;<p>COTTON MODAL</p>;;;;;zerotype;;Spring;;No
2376761;8902789833836-Mood Indigo-2376761;Deni jeans, 36;Draft;Jeans;Wills Lifestyle;Adults-Women;Women;;;;Fashion;;2017;26,WILIJENS00000742,28,WILIJENS00000743,30,WILIJENS00000744,32,WILIJENS00000745,34,WILIJENS00000746,36,WILIJENS00000747;2999.00;;;<p>COTTON POLY SPANDEX</p>;;;;;zerotype;;Spring;;No
2376383;285508-PINK-2376383;FOREVER 21PINKShorts;Draft;Shorts;FOREVER 21;Adults-Men;Men;NA;;;Fashion;;2018;4/30,FRTOSHOR00005687,6/32,FRTOSHOR00005688;1399.00;;;<p>Contents:100% ACRYLIC, Lining:, Other:</p>;;;;international-brands-ss-18;zerotype;;Spring;Tag;No
2376381;285508-CREAM-2376381;FOREVER 21CREAMShorts;Draft;Shorts;FOREVER 21;Adults-Men;Men;NA;;;Fashion;;2018;0/36,FRTOSHOR00005675,4/30,FRTOSHOR00005676,5/31,FRTOSHOR00005677,6/32,FRTOSHOR00005678,8/34,FRTOSHOR00005679;1399.00;;;<p>Contents:100% ACRYLIC, Lining:, Other:</p>;;;;international-brands-ss-18;zerotype;;Spring;Tag;No
2376303;80826-MEDIUMDENIM-2376303;FOREVER 21MEDIUMDENIMTrousers;Draft;Trousers;FOREVER 21;Adults-Women;Women;NA;;;Fashion;;2018;5/28,FRTOTRSR00006275;1499.00;;;<p>Contents:100% ACRYLIC, Lining:, Other:</p>;;;;international-brands-ss-18;zerotype;;Spring;Tag;No
2376299;68240-EMERALD-2376299;FOREVER 21EMERALDTrousers;Draft;Trousers;FOREVER 21;Adults-Men;Men;NA;;;Fashion;;2018;6/32,FRTOTRSR00006271;1219.00;;;<p>Contents:100% ACRYLIC, Lining:, Other:</p>;;;;international-brands-ss-18;zerotype;;Spring;Tag;No
2376243;21738601-WHITE/RED-2376243;FOREVER 21WHITE/REDTshirts;Draft;Tshirts;FOREVER 21;Adults-Men;Men;NA;;;Fashion;;2018;1/XS,FRTOTSHT00007381,2/S,FRTOTSHT00007382,3/M,FRTOTSHT00007383,4/L,FRTOTSHT00007384,5/XL,FRTOTSHT00007385;1259.00;;;<p>Contents:60% COTTON, 40% POLYESTER, Lining:, Other:</p>;;;;international-brands-ss-18,ss-18-menswear-tshirts;zerotype;;Spring;Tshirts;No
2376238;285691-PINK/BLACK-2376238;FOREVER 21PINK/BLACKTshirts;Draft;Tshirts;FOREVER 21;Adults-Women;Women;NA;;;Fashion;;2018;2/S,FRTOTSHT00007375,3/M,FRTOTSHT00007376;1099.00;;;<p>Contents:60% COTTON, 40% POLYESTER, Lining:, Other:</p>;;;;international-brands-ss-18;zerotype;;Spring;Tag;No
2376233;251173-RED/BLUE-2376233;FOREVER 21RED/BLUETshirts;Draft;Tshirts;FOREVER 21;Adults-Men;Men;NA;;;Fashion;;2018;2/S,FRTOTSHT00007364,3/M,FRTOTSHT00007365,4/L,FRTOTSHT00007366;1299.00;;;<p>Contents:60% COTTON, 40% POLYESTER, Lining:, Other:</p>;;;;international-brands-ss-18,ss-18-menswear-tshirts;zerotype;;Spring;Tshirts;No
2376222;235062-BLACK/YELLOW-2376222;FOREVER 21BLACK/YELLOWTshirts;Draft;Tshirts;FOREVER 21;Adults-Women;Women;NA;;;Fashion;;2018;2/S,FRTOTSHT00007345;1679.00;;;<p>Contents:60% COTTON, 40% POLYESTER, Lining:, Other:</p>;;;;international-brands-ss-18;zerotype;;Spring;Tag;No
2376219;232228-TAUPE/BLACK-2376219;FOREVER 21TAUPE/BLACKTshirts;Draft;Tshirts;FOREVER 21;Adults-Men;Men;NA;;;Fashion;;2018;1/XS,FRTOTSHT00007338,3/M,FRTOTSHT00007339,4/L,FRTOTSHT00007340,5/XL,FRTOTSHT00007341;909.00;;;<p>Contents:60% COTTON, 40% POLYESTER, Lining:, Other:</p>;;;;international-brands-ss-18,ss-18-menswear-tshirts;zerotype;;Spring;Tshirts;No
2376218;231828-BLACK/OLIVE-2376218;FOREVER 21BLACK/OLIVETshirts;Draft;Tshirts;FOREVER 21;Adults-Men;Men;NA;;;Fashion;;2018;3/M,FRTOTSHT00007336,5/XL,FRTOTSHT00007337;1099.00;;;<p>Contents:60% COTTON, 40% POLYESTER, Lining:, Other:</p>;;;;international-brands-ss-18,ss-18-menswear-tshirts;zerotype;;Spring;Tshirts;No
2376216;221145-WHITE/BLACK-2376216;FOREVER 21WHITE/BLACKTshirts;Draft;Tshirts;FOREVER 21;Adults-Men;Men;NA;;;Fashion;;2018;3/M,FRTOTSHT00007328,4/L,FRTOTSHT00007329,5/XL,FRTOTSHT00007330;689.00;;;<p>Contents:60% COTTON, 40% POLYESTER,50% POLYESTER, 39% COTTON</p>;;;;international-brands-ss-18,ss-18-menswear-tshirts;zerotype;;Spring;Tshirts;No
2376215;217631-HEATHERGREY/RED-2376215;FOREVER 21HEATHERGREY/REDTshirts;Draft;Tshirts;FOREVER 21;Adults-Women;Women;NA;;;Fashion;;2018;2/S,FRTOTSHT00007325,3/M,FRTOTSHT00007326,4/L,FRTOTSHT00007327;1119.00;;;<p>Contents:60% COTTON, 40% POLYESTER, Lining:, Other:</p>;;;;international-brands-ss-18;zerotype;;Spring;Tag;No
2376214;215465-BLACK/RED-2376214;FOREVER 21BLACK/REDTshirts;Draft;Tshirts;FOREVER 21;Adults-Women;Women;NA;;;Fashion;;2018;2/S,FRTOTSHT00007323,3/M,FRTOTSHT00007324;909.00;;;<p>Contents:60% COTTON, 40% POLYESTER, Lining:, Other:</p>;;;;international-brands-ss-18;zerotype;;Spring;Tag;No
2376207;194998-ORANGE/BLACK-2376207;FOREVER 21ORANGE/BLACKTshirts;Draft;Tshirts;FOREVER 21;Adults-Women;Women;NA;;;Fashion;;2018;2/S,FRTOTSHT00007302,3/M,FRTOTSHT00007303;1539.00;;;<p>Contents:60% COTTON, 40% POLYESTER, Lining:, Other:</p>;;;;international-brands-ss-18;zerotype;;Spring;Tag;No
2376199;66247-WHITE-2376199;FOREVER 21WHITETshirts;Draft;Tshirts;FOREVER 21;Adults-Men;Men;NA;;;Fashion;;2018;3/M,FRTOTSHT00007281,5/XL,FRTOTSHT00007282;1009.00;;;<p>Contents:60% COTTON, 40% POLYESTER, Lining:, Other:</p>;;;;international-brands-ss-18,ss-18-menswear-tshirts;zerotype;;Spring;Tshirts;No
2376190;322668-BLUE/WHITE-2376190;FOREVER 21BLUE/WHITEShirts;Draft;Shirts;FOREVER 21;Adults-Women;Women;NA;;;Fashion;;2018;2/S,FRTOSHRT00005249;999.00;;;<p>Contents:100% COTTON, Lining:100% COTTON, Other:</p>;;;;international-brands-ss-18;zerotype;;Spring;Tag;No
2376188;268403-SAGE-2376188;FOREVER 21SAGEShirts;Draft;Shirts;FOREVER 21;Adults-Women;Women;NA;;;Fashion;;2018;2/S,FRTOSHRT00005243,3/M,FRTOSHRT00005244,4/L,FRTOSHRT00005245;1699.00;;;<p>Contents:100% LYOCELL, Lining:, Other:</p>;;;;international-brands-ss-18;zerotype;;Spring;Tag;No
2376185;236417-CREAM/ORANGE-2376185;FOREVER 21CREAM/ORANGEShirts;Draft;Shirts;FOREVER 21;Adults-Women;Women;NA;;;Fashion;;2018;1/S,FRTOSHRT00005236,2/M,FRTOSHRT00005237,3/L,FRTOSHRT00005238,4/XL,FRTOSHRT00005239;1399.00;;;<p>Contents:100% COTTON, Lining:, Other:</p>;;;;international-brands-ss-18;zerotype;;Spring;Tag;No
2376176;217632-BLUSH-2376176;FOREVER 21BLUSHBlazers;Draft;Blazers;FOREVER 21;Adults-Women;Women;NA;;;Fashion;;2018;1/S,FRTOBLZR00000163,4/XL,FRTOBLZR00000164;2399.00;;;<p>Contents:100% ACRYLIC, Lining:, Other:</p>;;;;international-brands-ss-18;zerotype;;Spring;Tag;No
2376175;198141-NAVY-2376175;FOREVER 21NAVYBlazers;Draft;Blazers;FOREVER 21;Adults-Women;Women;NA;;;Fashion;;2018;1/S,FRTOBLZR00000161,2/M,FRTOBLZR00000162;2399.00;;;<p>Contents:100% ACRYLIC, Lining:, Other:</p>;;;;international-brands-ss-18;zerotype;;Spring;Tag;No
2376172;322073-BEIGE/MULTI-2376172;FOREVER 21BEIGE/MULTIHandbags;Draft;Handbags;FOREVER 21;Adults-Women;Women;NA;;;Fashion;;2018;1/Onesize,FRTOHDBG00001208;399.00;;;<p>Contents:80% COTTON, 20% POLYESTER, Lining:, Other:</p>;;;;international-brands-ss-18;zerotype;;Spring;Tag;No
2376171;285656-CREAM/RED-2376171;FOREVER 21CREAM/REDHandbags;Draft;Handbags;FOREVER 21;Adults-Women;Women;NA;;;Fashion;;2018;1/Onesize,FRTOHDBG00001207;399.00;;;<p>Contents:81% COTTON, 19% POLYESTER, Lining:, Other:</p>;;;;international-brands-ss-18;zerotype;;Spring;Tag;No
2376170;285547-BLACK/MULTI-2376170;FOREVER 21BLACK/MULTIHandbags;Draft;Handbags;FOREVER 21;Adults-Women;Women;NA;;;Fashion;;2018;1/Onesize,FRTOHDBG00001206;399.00;;;<p>Contents:92% WOOL, 8% COTTON, Lining:100% POLYESTER, Other:</p>;;;;international-brands-ss-18;zerotype;;Spring;Tag;No
2376169;214575-CREAM/MULTI-2376169;FOREVER 21CREAM/MULTIHandbags;Draft;Handbags;FOREVER 21;Adults-Women;Women;NA;;;Fashion;;2018;1/Onesize,FRTOHDBG00001205;269.00;;;<p>Contents:92% WOOL, 8% COTTON, Lining:100% POLYESTER, Other:</p>;;;;international-brands-ss-18;zerotype;;Spring;Tag;No
2376168;207942-BEIGE/RED-2376168;FOREVER 21BEIGE/REDHandbags;Draft;Handbags;FOREVER 21;Adults-Women;Women;NA;;;Fashion;;2018;1/Onesize,FRTOHDBG00001204;399.00;;;<p>Contents:92% WOOL, 8% COTTON, Lining:100% POLYESTER, Other:</p>;;;;international-brands-ss-18;zerotype;;Spring;Tag;No
2376165;154401-CREAM-2376165;FOREVER 21CREAMHandbags;Draft;Handbags;FOREVER 21;Adults-Women;Women;NA;;;Fashion;;2018;1/Onesize,FRTOHDBG00001201;1059.00;;;<p>Contents:92% WOOL, 8% COTTON, Lining:100% POLYESTER, Other:</p>;;;;international-brands-ss-18;zerotype;;Spring;Tag;No
2376164;151012-BLACK-2376164;FOREVER 21BLACKHandbags;Draft;Handbags;FOREVER 21;Adults-Women;Women;NA;;;Fashion;;2018;1/Onesize,FRTOHDBG00001200;2129.00;;;<p>Contents:92% WOOL, 8% COTTON, Lining:100% POLYESTER, Other:</p>;;;;international-brands-ss-18;zerotype;;Spring;Tag;No
2373485;C0409LBK01-Brown-2373485;C0410LTN01;Draft;Wallets;Fastrack;Adults-Men;Men;Brown;Brown;Brown;Fashion;;2017;Onesize,FSTKWLLT00098312;995.00;;;<p>1. Not to damage with Nails / Any sharp edgesCaution: 1.scuff cannot be removed 2. Avoid  water contact</p>;;;;;zerotype;;Fall;;No
2373453;A0641NBK01-Black-2373453;A0641NBK01;Draft;Backpacks;Fastrack;Adults-Men;Men;Black;Black;Black;Fashion;;2017;Onesize,FSTKBAPK00098563;1795.00;;;<p>450D Polyester</p>;;;;;zerotype;;Fall;;No
2373452;A0641NBL01-Black-2373452;A0641NBL01;Draft;Backpacks;Fastrack;Adults-Men;Men;Black;Black;Black;Fashion;;2017;Onesize,FSTKBAPK00098562;1795.00;;;<p>450D Polyester</p>;;;;;zerotype;;Fall;;No
2373450;A0639NBL01-Blue-2373450;A0639NBL01;Draft;Backpacks;Fastrack;Adults-Men;Men;Blue;Blue;Blue;Fashion;;2017;Onesize,FSTKBAPK00098560;1395.00;;;<p>600D Polyester</p>;;;;;zerotype;;Fall;;No
2373449;A0639NBK01-Black-2373449;A0639NBK01;Draft;Backpacks;Fastrack;Adults-Men;Men;Black;Black;Black;Fashion;;2017;Onesize,FSTKBAPK00098559;1395.00;;;<p>600D Polyester</p>;;;;;zerotype;;Fall;;No
2373437;A0634NGR01-Green-2373437;A0634NGR01;Draft;Backpacks;Fastrack;Adults-Men;Men;Green;Green;Green;Fashion;;2017;Onesize,FSTKBAPK00098547;1595.00;;;<p>600D Polyester</p>;;;;;zerotype;;Fall;;No
2373436;A0630NGY01-Grey-2373436;A0630NGY01;Draft;Backpacks;Fastrack;Adults-Men;Men;Grey;Grey;Grey;Fashion;;2017;Onesize,FSTKBAPK00098546;1895.00;;;<p>600DPolyester</p>;;;;;zerotype;;Fall;;No
2373435;A0630NBL01-Blue-2373435;A0630NBL01;Draft;Backpacks;Fastrack;Adults-Men;Men;Blue;Blue;Blue;Fashion;;2017;Onesize,FSTKBAPK00098545;1895.00;;;<p>600DPolyester</p>;;;;;zerotype;;Fall;;No
2373430;A0557CRD01-Red-2373430;A0557CRD01;Draft;Backpacks;Fastrack;Adults-Women;Women;Red;Red;Red;Fashion;;2017;Onesize,FSTKBAPK00098540;1595.00;;;<p>Polyester</p>;;;;;zerotype;;Fall;;No
2373428;A0556CRD01-Red-2373428;A0556CRD01;Draft;Backpacks;Fastrack;Adults-Women;Women;Red;Red;Red;Fashion;;2017;Onesize,FSTKBAPK00098538;1495.00;;;<p>Polyester</p>;;;;;zerotype;;Fall;;No
2373426;A0553PTN01-Tan-2373426;A0553PTN01;Draft;Backpacks;Fastrack;Adults-Women;Women;Tan;Tan;Tan;Fashion;;2017;Onesize,FSTKBAPK00098536;1695.00;;;<p>PU</p>;;;;;zerotype;;Fall;;No
2373386;A0676NBL01-Blue-2373386;A0676NBL01;Draft;Backpacks;Fastrack;Adults-Men;Men;Blue;Blue;Blue;Fashion;;2017;Onesize,FSTKBAPK00098496;995.00;;;<p>Polyester</p>;;;;;zerotype;;Fall;;No
2369520;ETSS18WD130B-OLIVE-2369520;SHORT SLEEVE DRESS;Draft;Dresses;ether;Adults-Women;Women;;;;Fashion;;2018;S,ETHRDRSS00000943,M,ETHRDRSS00000944,L,ETHRDRSS00000945,XL,ETHRDRSS00000946;1599.00;;;;;;;;zerotype;;Summer;;No
2369519;ETSS18WD130A-NAVY-2369519;SHORT SLEEVE DRESS;Draft;Dresses;ether;Adults-Women;Women;;;;Fashion;;2018;S,ETHRDRSS00000939,M,ETHRDRSS00000940,L,ETHRDRSS00000941,XL,ETHRDRSS00000942;1599.00;;;;;;;;zerotype;;Summer;;No
2354412;ETSS18WTOP108B-Pink-2354412;Womens Top;Draft;Tops;ether;Adults-Women;Women;;;;Fashion;;2018;S,ETHRTOPS00001176,M,ETHRTOPS00001177,L,ETHRTOPS00001178,XL,ETHRTOPS00001179;1199.00;;;;;;;;zerotype;;Summer;;No
2354411;ETSS18WTOP108A-Blue-2354411;Womens Top;Draft;Tops;ether;Adults-Women;Women;;;;Fashion;;2018;S,ETHRTOPS00001172,M,ETHRTOPS00001173,L,ETHRTOPS00001174,XL,ETHRTOPS00001175;1199.00;;;;;;;;zerotype;;Summer;;No
2331755;SS18-DB1676299B-Windsor wine-2331755;Tops;Draft;Tops;DressBerry;Adults-Women;Women;NA;;;Fashion;;2018;S,DSBYTOPS00017209,M,DSBYTOPS00017210,L,DSBYTOPS00017211,XL,DSBYTOPS00017212;999.00;;;;;;;;zerotype;;Spring;;No
2331754;SS18-DB1676299A-Pesto-2331754;Tops;Draft;Tops;DressBerry;Adults-Women;Women;NA;;;Fashion;;2018;S,DSBYTOPS00017205,M,DSBYTOPS00017206,L,DSBYTOPS00017207,XL,DSBYTOPS00017208;999.00;;;;;;;;zerotype;;Spring;;No
2322982;AnoukSS8-AKMK-9E-Orange Multy-2322982;Kurtas;Draft;Kurtas;Anouk;Adults-Women;Women;;;;Fashion;;2018;XS,ANUKKRTA00035080,S,ANUKKRTA00035081,M,ANUKKRTA00035082,L,ANUKKRTA00035083,XL,ANUKKRTA00035084,XXL,ANUKKRTA00035085;1699.00;;;;;;;;zerotype;;Spring;;No
2322981;AnoukSS8-AKMK-9D-Multy-2322981;Kurtas;Draft;Kurtas;Anouk;Adults-Women;Women;;;;Fashion;;2018;XS,ANUKKRTA00035074,S,ANUKKRTA00035075,M,ANUKKRTA00035076,L,ANUKKRTA00035077,XL,ANUKKRTA00035078,XXL,ANUKKRTA00035079;1699.00;;;;;;;;zerotype;;Spring;;No
2322980;AnoukSS8-AKMK-9C-Black / Pink-2322980;Kurtas;Draft;Kurtas;Anouk;Adults-Women;Women;;;;Fashion;;2018;XS,ANUKKRTA00035068,S,ANUKKRTA00035069,M,ANUKKRTA00035070,L,ANUKKRTA00035071,XL,ANUKKRTA00035072,XXL,ANUKKRTA00035073;1699.00;;;;;;;;zerotype;;Spring;;No
2322979;AnoukSS8-AKMK-9B-Pink Multy-2322979;Kurtas;Draft;Kurtas;Anouk;Adults-Women;Women;;;;Fashion;;2018;XS,ANUKKRTA00035062,S,ANUKKRTA00035063,M,ANUKKRTA00035064,L,ANUKKRTA00035065,XL,ANUKKRTA00035066,XXL,ANUKKRTA00035067;1699.00;;;;;;;;zerotype;;Spring;;No
2322978;AnoukSS8-AKMK-9A-Red Multy-2322978;Kurtas;Draft;Kurtas;Anouk;Adults-Women;Women;;;;Fashion;;2018;XS,ANUKKRTA00035056,S,ANUKKRTA00035057,M,ANUKKRTA00035058,L,ANUKKRTA00035059,XL,ANUKKRTA00035060,XXL,ANUKKRTA00035061;1699.00;;;;;;;;zerotype;;Spring;;No
2322977;AnoukSS8-AKMK-8F-Yellow Multy-2322977;Kurtas;Draft;Kurtas;Anouk;Adults-Women;Women;;;;Fashion;;2018;XS,ANUKKRTA00035050,S,ANUKKRTA00035051,M,ANUKKRTA00035052,L,ANUKKRTA00035053,XL,ANUKKRTA00035054,XXL,ANUKKRTA00035055;1899.00;;;;;;;;zerotype;;Spring;;No
2322976;AnoukSS8-AKMK-8E-Multy-2322976;Kurtas;Draft;Kurtas;Anouk;Adults-Women;Women;;;;Fashion;;2018;XS,ANUKKRTA00035044,S,ANUKKRTA00035045,M,ANUKKRTA00035046,L,ANUKKRTA00035047,XL,ANUKKRTA00035048,XXL,ANUKKRTA00035049;1899.00;;;;;;;;zerotype;;Spring;;No
2322975;AnoukSS8-AKMK-8D-Multy-2322975;Kurtas;Draft;Kurtas;Anouk;Adults-Women;Women;;;;Fashion;;2018;XS,ANUKKRTA00035038,S,ANUKKRTA00035039,M,ANUKKRTA00035040,L,ANUKKRTA00035041,XL,ANUKKRTA00035042,XXL,ANUKKRTA00035043;1899.00;;;;;;;;zerotype;;Spring;;No
2322974;AnoukSS8-AKMK-8C-Multy-2322974;Kurtas;Draft;Kurtas;Anouk;Adults-Women;Women;;;;Fashion;;2018;XS,ANUKKRTA00035032,S,ANUKKRTA00035033,M,ANUKKRTA00035034,L,ANUKKRTA00035035,XL,ANUKKRTA00035036,XXL,ANUKKRTA00035037;1899.00;;;;;;;;zerotype;;Spring;;No
2322973;AnoukSS8-AKMK-8B-Yellow Multy-2322973;Kurtas;Draft;Kurtas;Anouk;Adults-Women;Women;;;;Fashion;;2018;XS,ANUKKRTA00035026,S,ANUKKRTA00035027,M,ANUKKRTA00035028,L,ANUKKRTA00035029,XL,ANUKKRTA00035030,XXL,ANUKKRTA00035031;1899.00;;;;;;;;zerotype;;Spring;;No
2322972;AnoukSS8-AKMK-8A-Red Multy-2322972;Kurtas;Draft;Kurtas;Anouk;Adults-Women;Women;;;;Fashion;;2018;XS,ANUKKRTA00035020,S,ANUKKRTA00035021,M,ANUKKRTA00035022,L,ANUKKRTA00035023,XL,ANUKKRTA00035024,XXL,ANUKKRTA00035025;1899.00;;;;;;;;zerotype;;Spring;;No
2322971;AnoukSS8-AKMK-5D-Brown Multy-2322971;Kurtas;Draft;Kurtas;Anouk;Adults-Women;Women;;;;Fashion;;2018;XS,ANUKKRTA00035014,S,ANUKKRTA00035015,M,ANUKKRTA00035016,L,ANUKKRTA00035017,XL,ANUKKRTA00035018,XXL,ANUKKRTA00035019;1699.00;;;;;;;;zerotype;;Spring;;No
2322970;AnoukSS8-AKMK-5C-Blue / White-2322970;Kurtas;Draft;Kurtas;Anouk;Adults-Women;Women;;;;Fashion;;2018;XS,ANUKKRTA00035008,S,ANUKKRTA00035009,M,ANUKKRTA00035010,L,ANUKKRTA00035011,XL,ANUKKRTA00035012,XXL,ANUKKRTA00035013;1699.00;;;;;;;;zerotype;;Spring;;No
2322969;AnoukSS8-AKMK-5B-Multy-2322969;Kurtas;Draft;Kurtas;Anouk;Adults-Women;Women;;;;Fashion;;2018;XS,ANUKKRTA00035002,S,ANUKKRTA00035003,M,ANUKKRTA00035004,L,ANUKKRTA00035005,XL,ANUKKRTA00035006,XXL,ANUKKRTA00035007;1699.00;;;;;;;;zerotype;;Spring;;No
2322966;AnoukSS8-AKMK-4B-Red Multy-2322966;Kurtas;Draft;Kurtas;Anouk;Adults-Women;Women;;;;Fashion;;2018;XS,ANUKKRTA00034984,S,ANUKKRTA00034985,M,ANUKKRTA00034986,L,ANUKKRTA00034987,XL,ANUKKRTA00034988,XXL,ANUKKRTA00034989;1699.00;;;;;;;;zerotype;;Spring;;No
2322965;AnoukSS8-AKMK-4A-Green-2322965;Kurtas;Draft;Kurtas;Anouk;Adults-Women;Women;;;;Fashion;;2018;XS,ANUKKRTA00034978,S,ANUKKRTA00034979,M,ANUKKRTA00034980,L,ANUKKRTA00034981,XL,ANUKKRTA00034982,XXL,ANUKKRTA00034983;1699.00;;;;;;;;zerotype;;Spring;;No
2322964;AnoukSS8-AKMK-3B-Blue Multy-2322964;Kurtas;Draft;Kurtas;Anouk;Adults-Women;Women;;;;Fashion;;2018;XS,ANUKKRTA00034972,S,ANUKKRTA00034973,M,ANUKKRTA00034974,L,ANUKKRTA00034975,XL,ANUKKRTA00034976,XXL,ANUKKRTA00034977;1699.00;;;;;;;;zerotype;;Spring;;No
2322963;AnoukSS8-AKMK-3A-Black Multy-2322963;Kurtas;Draft;Kurtas;Anouk;Adults-Women;Women;;;;Fashion;;2018;XS,ANUKKRTA00034966,S,ANUKKRTA00034967,M,ANUKKRTA00034968,L,ANUKKRTA00034969,XL,ANUKKRTA00034970,XXL,ANUKKRTA00034971;1699.00;;;;;;;;zerotype;;Spring;;No
2322962;AnoukSS8-AKMK-2D-Multy-2322962;Kurtas;Draft;Kurtas;Anouk;Adults-Women;Women;;;;Fashion;;2018;XS,ANUKKRTA00034960,S,ANUKKRTA00034961,M,ANUKKRTA00034962,L,ANUKKRTA00034963,XL,ANUKKRTA00034964,XXL,ANUKKRTA00034965;1699.00;;;;;;;;zerotype;;Spring;;No
2322961;AnoukSS8-AKMK-2C-Blue Multy-2322961;Kurtas;Draft;Kurtas;Anouk;Adults-Women;Women;;;;Fashion;;2018;XS,ANUKKRTA00034954,S,ANUKKRTA00034955,M,ANUKKRTA00034956,L,ANUKKRTA00034957,XL,ANUKKRTA00034958,XXL,ANUKKRTA00034959;1699.00;;;;;;;;zerotype;;Spring;;No
2322960;AnoukSS8-AKMK-2B-White Multy-2322960;Kurtas;Draft;Kurtas;Anouk;Adults-Women;Women;;;;Fashion;;2018;XS,ANUKKRTA00034948,S,ANUKKRTA00034949,M,ANUKKRTA00034950,L,ANUKKRTA00034951,XL,ANUKKRTA00034952,XXL,ANUKKRTA00034953;1699.00;;;;;;;;zerotype;;Spring;;No
2322959;AnoukSS8-AKMK-2A-White Multy-2322959;Kurtas;Draft;Kurtas;Anouk;Adults-Women;Women;;;;Fashion;;2018;XS,ANUKKRTA00034942,S,ANUKKRTA00034943,M,ANUKKRTA00034944,L,ANUKKRTA00034945,XL,ANUKKRTA00034946,XXL,ANUKKRTA00034947;1699.00;;;;;;;;zerotype;;Spring;;No
2322958;AnoukSS8-AKMK-1D-Black-2322958;Kurtas;Draft;Kurtas;Anouk;Adults-Women;Women;;;;Fashion;;2018;XS,ANUKKRTA00034936,S,ANUKKRTA00034937,M,ANUKKRTA00034938,L,ANUKKRTA00034939,XL,ANUKKRTA00034940,XXL,ANUKKRTA00034941;1699.00;;;;;;;;zerotype;;Spring;;No
2322957;AnoukSS8-AKMK-1C-Peach Multy-2322957;Kurtas;Draft;Kurtas;Anouk;Adults-Women;Women;;;;Fashion;;2018;XS,ANUKKRTA00034930,S,ANUKKRTA00034931,M,ANUKKRTA00034932,L,ANUKKRTA00034933,XL,ANUKKRTA00034934,XXL,ANUKKRTA00034935;1699.00;;;;;;;;zerotype;;Spring;;No
2322956;AnoukSS8-AKMK-1B-Black Multy-2322956;Kurtas;Draft;Kurtas;Anouk;Adults-Women;Women;;;;Fashion;;2018;XS,ANUKKRTA00034924,S,ANUKKRTA00034925,M,ANUKKRTA00034926,L,ANUKKRTA00034927,XL,ANUKKRTA00034928,XXL,ANUKKRTA00034929;1699.00;;;;;;;;zerotype;;Spring;;No
2322955;AnoukSS8-AKMK-1A-Fuschia Multy-2322955;Kurtas;Draft;Kurtas;Anouk;Adults-Women;Women;;;;Fashion;;2018;XS,ANUKKRTA00034918,S,ANUKKRTA00034919,M,ANUKKRTA00034920,L,ANUKKRTA00034921,XL,ANUKKRTA00034922,XXL,ANUKKRTA00034923;1699.00;;;;;;;;zerotype;;Spring;;No
2207539;251744-BLACK/WHITE-2207539;FOREVER 21BLACK/WHITETops;Draft;Tops;FOREVER 21;Adults-Women;Women;NA;;;Fashion;;2017;2/L,FRTOTOPS00034229,3/S,FRTOTOPS00034230,4/M,FRTOTOPS00034231;1099.00;;;<p>Contents:100% COTTON, Lining:, Other:</p>;;;;international-brands-new;zerotype;;Winter;Tag;No
2021330;ANWAW1700035A-BLACK-2021330;Kurtas;Draft;Kurtas;Anouk;Adults-Women;Women;;;;Fashion;;2017;S,ANUKKRTA00033153,M,ANUKKRTA00033154,L,ANUKKRTA00033155,XL,ANUKKRTA00033156;1999.00;;;;;;;anouk-aw17-festive,anouk-perfectcocktails;zerotype;;Fall;anouk-perfectcocktails;No
2021313;ANWAW1700037B-ORANGE-2021313;Kurtas;Draft;Kurtas;Anouk;Adults-Women;Women;;;;Fashion;;2017;S,ANUKKRTA00033097,M,ANUKKRTA00033098,L,ANUKKRTA00033099,XL,ANUKKRTA00033100;1999.00;;;;;;;anouk-aw17-festive,anouk-perfectcocktails;zerotype;;Fall;anouk-perfectcocktails;No
2021312;ANWAW1700037A-BLACK-2021312;Kurtas;Draft;Kurtas;Anouk;Adults-Women;Women;;;;Fashion;;2017;S,ANUKKRTA00033093,M,ANUKKRTA00033094,L,ANUKKRTA00033095,XL,ANUKKRTA00033096;1999.00;;;;;;;anouk-aw17-festive,anouk-perfectcocktails;zerotype;;Fall;anouk-perfectcocktails;No
1719817;229617-IVORY-1719817;Forever 21IVORYTrousers;Draft;Trousers;FOREVER 21;Adults-Women;Women;;;;Fashion;;2017;S,FRTOTRSR00002840,M,FRTOTRSR00002841,L,FRTOTRSR00002842,XL,FRTOTRSR00002843;1699.00;<p>Contents:76% POLYESTER, 19% RAYON, 5% SPANDEX / ELASTANE, Li</p>;;;;;;high-street-brands;zerotype;;Summer;add tag;No
1280666;UKST5026-OLIVE-1280666;Sports-Prntd Long Short-Olive;Draft;Shorts;U.S. Polo Assn. Kids;Kids-Boys;Boys;;;;Fashion;;2012;ES,USPKSHOR00000450;1399.00;<p>Cotton</p>;;;;;;;zerotype;;Summer;;No
1280634;UJST5057-USPA RED-1280634;PRINTED CHECKS JAMAICANS-USPA RED;Draft;Shorts;U.S. Polo Assn. Kids;Kids-Boys;Boys;;;;Fashion;;2013;L,USPKSHOR00000385;1699.00;<p>Cotton</p>;;;;;;;zerotype;;Summer;;No
1075622;AMJK515S03931-Black With White-1075622;jacket;On Hold - Sample;Jackets;Allen Solly;Adults-Men;Men;;;;Fashion;;2015;L,ALSLJCKT00000131,M,ALSLJCKT00000132,XL,ALSLJCKT00000133,XXL,ALSLJCKT00000134;3299.00;<p>100%Polyester</p>;;;;;;workwear-styles;zerotype;;Winter;workwear-styles;No
