Style ID;Vendor Article Number;Vendor Article Name;Active Status;Article type;Brand;Age Group;Gender;Base Colour;Colour1;Colour2;Fashion Type;Usage;Year;Size - SKU code pair;MRP;Style Description;Style Note;Materials and Care Description;Size and Fit Description;Size Chart Path;Product Display Name;Tags;Product Type;Classification Brand;Season;Comments;Upload Images
2530751;6209200090-Grey Green-2530751;Contrast Turn-Up Jeans (3mths-6yrs);Draft;Jeans;next;Kids-Boys;Boys;Grey;Green;Navy Blue;Fashion;;2018;3-6m,NEXTJENS00011603,6-9m,NEXTJENS00011604,9-12m,NEXTJENS00011605,12-18m,NEXTJENS00011606,1.5-2y,NEXTJENS00011607,2-3y,NEXTJENS00011608,3-4y,NEXTJENS00011609,4-5y,NEXTJENS00011610,5-6y,NEXTJENS00011611;1250.00;;;;;;;next,JIT;zerotype;;Spring;;No
2530750;6209200090-Light Blue Yellow-2530750;Contrast Turn-Up Jeans (3mths-6yrs);Draft;Jeans;next;Kids-Boys;Boys;Blue;;;Fashion;;2018;3-6m,NEXTJENS00011594,6-9m,NEXTJENS00011595,9-12m,NEXTJENS00011596,12-18m,NEXTJENS00011597,1.5-2y,NEXTJENS00011598,2-3y,NEXTJENS00011599,3-4y,NEXTJENS00011600,4-5y,NEXTJENS00011601,5-6y,NEXTJENS00011602;1250.00;;;;;;;next,JIT;zerotype;;Spring;;No
2530749;6204623990-Mid Blue-2530749;Straight Leg Jeans (3-16yrs);Draft;Jeans;next;Kids-Girls;Girls;Blue;Blue;;Fashion;;2018;3y,NEXTJENS00011580,4y,NEXTJENS00011581,5y,NEXTJENS00011582,6y,NEXTJENS00011583,7y,NEXTJENS00011584,8y,NEXTJENS00011585,9y,NEXTJENS00011586,10y,NEXTJENS00011587,11y,NEXTJENS00011588,12y,NEXTJENS00011589,13y,NEXTJENS00011590,14y,NEXTJENS00011591,15y,NEXTJENS00011592,16y,NEXTJENS00011593;1600.00;;;;;;;next,JIT;zerotype;;Spring;;No
2530747;6204623990-Mid Blue-2530747;Distressed Skinny Jeans (3-16yrs);Draft;Jeans;next;Kids-Girls;Girls;Blue;Blue;;Fashion;;2018;3y,NEXTJENS00011566,4y,NEXTJENS00011567,5y,NEXTJENS00011568,6y,NEXTJENS00011569,7y,NEXTJENS00011570,8y,NEXTJENS00011571,9y,NEXTJENS00011572,10y,NEXTJENS00011573,11y,NEXTJENS00011574,12y,NEXTJENS00011575,13y,NEXTJENS00011576,14y,NEXTJENS00011577,15y,NEXTJENS00011578,16y,NEXTJENS00011579;1350.00;;;;;;;next,JIT;zerotype;;Spring;;No
2530746;6209200090-Mid Blue-2530746;Floral Embroidered Jeans (3mths-6yrs);Draft;Jeans;next;Kids-Girls;Girls;Blue;Navy Blue;;Fashion;;2018;3-6m,NEXTJENS00011557,6-9m,NEXTJENS00011558,9-12m,NEXTJENS00011559,12-18m,NEXTJENS00011560,1.5-2y,NEXTJENS00011561,2-3y,NEXTJENS00011562,3-4y,NEXTJENS00011563,4-5y,NEXTJENS00011564,5-6y,NEXTJENS00011565;1600.00;;;;;;;next,JIT;zerotype;;Spring;;No
2530744;6203423500-Mid Blue-2530744;Soft Touch Super Skinny Denim Jeans (3-16yrs);Draft;Jeans;next;Kids-Boys;Boys;Blue;Blue;;Fashion;;2018;3y,NEXTJENS00011543,4y,NEXTJENS00011544,5y,NEXTJENS00011545,6y,NEXTJENS00011546,7y,NEXTJENS00011547,8y,NEXTJENS00011548,9y,NEXTJENS00011549,10y,NEXTJENS00011550,11y,NEXTJENS00011551,12y,NEXTJENS00011552,13y,NEXTJENS00011553,14y,NEXTJENS00011554,15y,NEXTJENS00011555,16y,NEXTJENS00011556;1600.00;;;;;;;next,JIT;zerotype;;Spring;;No
2530743;6203423500-Grey-2530743;Rip Knee Spray-On Jeans (3-16yrs);Draft;Jeans;next;Kids-Boys;Boys;Grey;Grey Melange;;Fashion;;2018;3y,NEXTJENS00011529,4y,NEXTJENS00011530,5y,NEXTJENS00011531,6y,NEXTJENS00011532,7y,NEXTJENS00011533,8y,NEXTJENS00011534,9y,NEXTJENS00011535,10y,NEXTJENS00011536,11y,NEXTJENS00011537,12y,NEXTJENS00011538,13y,NEXTJENS00011539,14y,NEXTJENS00011540,15y,NEXTJENS00011541,16y,NEXTJENS00011542;1450.00;;;;;;;next,JIT;zerotype;;Spring;;No
2530742;6204623990-Mid Blue-2530742;Sequin Relaxed Skinny Jeans (3-16yrs);Draft;Jeans;next;Kids-Girls;Girls;Blue;;;Fashion;;2018;3y,NEXTJENS00011515,4y,NEXTJENS00011516,5y,NEXTJENS00011517,6y,NEXTJENS00011518,7y,NEXTJENS00011519,8y,NEXTJENS00011520,9y,NEXTJENS00011521,10y,NEXTJENS00011522,11y,NEXTJENS00011523,12y,NEXTJENS00011524,13y,NEXTJENS00011525,14y,NEXTJENS00011526,15y,NEXTJENS00011527,16y,NEXTJENS00011528;2000.00;;;;;;;next,JIT;zerotype;;Spring;;No
2530739;6209200090-Grey-2530739;Character Pull-On Trousers (3mths-6yrs);Draft;Jeans;next;Kids-Girls;Girls;Grey;Grey;Grey;Fashion;;2018;3-6m,NEXTJENS00011506,6-9m,NEXTJENS00011507,9-12m,NEXTJENS00011508,12-18m,NEXTJENS00011509,1.5-2y,NEXTJENS00011510,2-3y,NEXTJENS00011511,3-4y,NEXTJENS00011512,4-5y,NEXTJENS00011513,5-6y,NEXTJENS00011514;1350.00;;;;;;;next,JIT;zerotype;;Spring;;No
2530736;6203423500-Black-2530736;Skinny Jeans (3-16yrs);Draft;Jeans;next;Kids-Boys;Boys;Black;;;Fashion;;2018;3y,NEXTJENS00011492,4y,NEXTJENS00011493,5y,NEXTJENS00011494,6y,NEXTJENS00011495,7y,NEXTJENS00011496,8y,NEXTJENS00011497,9y,NEXTJENS00011498,10y,NEXTJENS00011499,11y,NEXTJENS00011500,12y,NEXTJENS00011501,13y,NEXTJENS00011502,14y,NEXTJENS00011503,15y,NEXTJENS00011504,16y,NEXTJENS00011505;1050.00;;;;;;;next,JIT;zerotype;;Spring;;No
2530735;6209200090-Grey-2530735;Cat Embellished Jeans (3mths-6yrs);Draft;Jeans;next;Kids-Girls;Girls;Grey;Grey;Grey;Fashion;;2018;3-6m,NEXTJENS00011483,6-9m,NEXTJENS00011484,9-12m,NEXTJENS00011485,12-18m,NEXTJENS00011486,1.5-2y,NEXTJENS00011487,2-3y,NEXTJENS00011488,3-4y,NEXTJENS00011489,4-5y,NEXTJENS00011490,5-6y,NEXTJENS00011491;1450.00;;;;;;;next,JIT;zerotype;;Spring;;No
2530733;6204520090-Mid Blue-2530733;Denim Culottes (3-16yrs);Draft;Jeans;next;Kids-Girls;Girls;Blue;Blue;Blue;Fashion;;2018;3y,NEXTJENS00011469,4y,NEXTJENS00011470,5y,NEXTJENS00011471,6y,NEXTJENS00011472,7y,NEXTJENS00011473,8y,NEXTJENS00011474,9y,NEXTJENS00011475,10y,NEXTJENS00011476,11y,NEXTJENS00011477,12y,NEXTJENS00011478,13y,NEXTJENS00011479,14y,NEXTJENS00011480,15y,NEXTJENS00011481,16y,NEXTJENS00011482;1700.00;;;;;;;next,JIT;zerotype;;Spring;;No
2530730;6204623990-Dark Blue-2530730;Straight Leg Jeans (3-16yrs);Draft;Jeans;next;Kids-Girls;Girls;Blue;Blue;Blue;Fashion;;2018;3y,NEXTJENS00011455,4y,NEXTJENS00011456,5y,NEXTJENS00011457,6y,NEXTJENS00011458,7y,NEXTJENS00011459,8y,NEXTJENS00011460,9y,NEXTJENS00011461,10y,NEXTJENS00011462,11y,NEXTJENS00011463,12y,NEXTJENS00011464,13y,NEXTJENS00011465,14y,NEXTJENS00011466,15y,NEXTJENS00011467,16y,NEXTJENS00011468;1600.00;;;;;;;next,JIT;zerotype;;Spring;;No
2530727;6204623990-Denim Dark Wash-2530727;Skinny Jeans (3-16yrs);Draft;Jeans;next;Kids-Girls;Girls;Navy Blue;;;Fashion;;2018;3y,NEXTJENS00011441,4y,NEXTJENS00011442,5y,NEXTJENS00011443,6y,NEXTJENS00011444,7y,NEXTJENS00011445,8y,NEXTJENS00011446,9y,NEXTJENS00011447,10y,NEXTJENS00011448,11y,NEXTJENS00011449,12y,NEXTJENS00011450,13y,NEXTJENS00011451,14y,NEXTJENS00011452,15y,NEXTJENS00011453,16y,NEXTJENS00011454;1050.00;;;;;;;next,JIT;zerotype;;Spring;;No
2530726;6209200090-Grey-2530726;Jeans (0mths-2yrs);Draft;Jeans;next;Kids-Boys;Boys;Grey;;;Fashion;;2018;0-1m,NEXTJENS00011434,0-3m,NEXTJENS00011435,3-6m,NEXTJENS00011436,6-9m,NEXTJENS00011437,9-12m,NEXTJENS00011438,12-18m,NEXTJENS00011439,1.5-2y,NEXTJENS00011440;1050.00;;;;;;;next,JIT;zerotype;;Spring;;No
2530724;6203423500-Mid Blue-2530724;Acid Wash Skinny Jeans (3-16yrs);Draft;Jeans;next;Kids-Boys;Boys;Navy Blue;Blue;;Fashion;;2018;3y,NEXTJENS00011420,4y,NEXTJENS00011421,5y,NEXTJENS00011422,6y,NEXTJENS00011423,7y,NEXTJENS00011424,8y,NEXTJENS00011425,9y,NEXTJENS00011426,10y,NEXTJENS00011427,11y,NEXTJENS00011428,12y,NEXTJENS00011429,13y,NEXTJENS00011430,14y,NEXTJENS00011431,15y,NEXTJENS00011432,16y,NEXTJENS00011433;1050.00;;;;;;;next,JIT;zerotype;;Spring;;No
2530723;6209200090-Blue-2530723;Denim Jeans (0mths-2yrs);Draft;Jeans;next;Kids-Boys;Boys;Navy Blue;Blue;Blue;Fashion;;2018;0-1m,NEXTJENS00011413,0-3m,NEXTJENS00011414,3-6m,NEXTJENS00011415,6-9m,NEXTJENS00011416,9-12m,NEXTJENS00011417,12-18m,NEXTJENS00011418,1.5-2y,NEXTJENS00011419;1050.00;;;;;;;next,JIT;zerotype;;Spring;;No
2530722;6209200090-Snow Wash-2530722;Jeggings (3mths-6yrs);Draft;Jeans;next;Kids-Girls;Girls;Navy Blue;;;Fashion;;2018;3-6m,NEXTJENS00011404,6-9m,NEXTJENS00011405,9-12m,NEXTJENS00011406,12-18m,NEXTJENS00011407,1.5-2y,NEXTJENS00011408,2-3y,NEXTJENS00011409,3-4y,NEXTJENS00011410,4-5y,NEXTJENS00011411,5-6y,NEXTJENS00011412;1000.00;;;;;;;next,JIT;zerotype;;Spring;;No
2530720;6204623990-Mid Blue-2530720;Floral Embroidery Skinny Jeans (3-16yrs);Draft;Jeans;next;Kids-Girls;Girls;Blue;Blue;;Fashion;;2018;3y,NEXTJENS00011390,4y,NEXTJENS00011391,5y,NEXTJENS00011392,6y,NEXTJENS00011393,7y,NEXTJENS00011394,8y,NEXTJENS00011395,9y,NEXTJENS00011396,10y,NEXTJENS00011397,11y,NEXTJENS00011398,12y,NEXTJENS00011399,13y,NEXTJENS00011400,14y,NEXTJENS00011401,15y,NEXTJENS00011402,16y,NEXTJENS00011403;1600.00;;;;;;;next,JIT;zerotype;;Spring;;No
2530719;6203423500-Mid Blue-2530719;Acid Wash Skinny Jeans (3-16yrs);Draft;Jeans;next;Kids-Boys;Boys;Navy Blue;;;Fashion;;2018;3y,NEXTJENS00011376,4y,NEXTJENS00011377,5y,NEXTJENS00011378,6y,NEXTJENS00011379,7y,NEXTJENS00011380,8y,NEXTJENS00011381,9y,NEXTJENS00011382,10y,NEXTJENS00011383,11y,NEXTJENS00011384,12y,NEXTJENS00011385,13y,NEXTJENS00011386,14y,NEXTJENS00011387,15y,NEXTJENS00011388,16y,NEXTJENS00011389;1050.00;;;;;;;next,JIT;zerotype;;Spring;;No
2530718;6203423500-Black-2530718;Skinny Jeans (3-16yrs);Draft;Jeans;next;Kids-Boys;Boys;Black;;;Fashion;;2018;3y,NEXTJENS00011362,4y,NEXTJENS00011363,5y,NEXTJENS00011364,6y,NEXTJENS00011365,7y,NEXTJENS00011366,8y,NEXTJENS00011367,9y,NEXTJENS00011368,10y,NEXTJENS00011369,11y,NEXTJENS00011370,12y,NEXTJENS00011371,13y,NEXTJENS00011372,14y,NEXTJENS00011373,15y,NEXTJENS00011374,16y,NEXTJENS00011375;1050.00;;;;;;;next,JIT;zerotype;;Spring;;No
2530717;6204623990-Dark Blue-2530717;Asymmetric Hem Jeans (3-16yrs);Draft;Jeans;next;Kids-Girls;Girls;Blue;;;Fashion;;2018;3y,NEXTJENS00011348,4y,NEXTJENS00011349,5y,NEXTJENS00011350,6y,NEXTJENS00011351,7y,NEXTJENS00011352,8y,NEXTJENS00011353,9y,NEXTJENS00011354,10y,NEXTJENS00011355,11y,NEXTJENS00011356,12y,NEXTJENS00011357,13y,NEXTJENS00011358,14y,NEXTJENS00011359,15y,NEXTJENS00011360,16y,NEXTJENS00011361;1250.00;;;;;;;next,JIT;zerotype;;Spring;;No
2530715;6204623990-Dark Blue-2530715;Jeggings (3-16yrs);Draft;Jeans;next;Kids-Girls;Girls;Navy Blue;;;Fashion;;2018;3y,NEXTJENS00011334,4y,NEXTJENS00011335,5y,NEXTJENS00011336,6y,NEXTJENS00011337,7y,NEXTJENS00011338,8y,NEXTJENS00011339,9y,NEXTJENS00011340,10y,NEXTJENS00011341,11y,NEXTJENS00011342,12y,NEXTJENS00011343,13y,NEXTJENS00011344,14y,NEXTJENS00011345,15y,NEXTJENS00011346,16y,NEXTJENS00011347;1150.00;;;;;;;next,JIT;zerotype;;Spring;;No
2530714;6204623990-Dark Blue-2530714;Ripped Knee Skinny Jeans (3-16yrs);Draft;Jeans;next;Kids-Girls;Girls;Blue;;;Fashion;;2018;3y,NEXTJENS00011320,4y,NEXTJENS00011321,5y,NEXTJENS00011322,6y,NEXTJENS00011323,7y,NEXTJENS00011324,8y,NEXTJENS00011325,9y,NEXTJENS00011326,10y,NEXTJENS00011327,11y,NEXTJENS00011328,12y,NEXTJENS00011329,13y,NEXTJENS00011330,14y,NEXTJENS00011331,15y,NEXTJENS00011332,16y,NEXTJENS00011333;1250.00;;;;;;;next,JIT;zerotype;;Spring;;No
2530713;6204623990-Mid Blue-2530713;Pearl Detail Skinny Jeans (3-16yrs);Draft;Jeans;next;Kids-Girls;Girls;Blue;;;Fashion;;2018;3y,NEXTJENS00011306,4y,NEXTJENS00011307,5y,NEXTJENS00011308,6y,NEXTJENS00011309,7y,NEXTJENS00011310,8y,NEXTJENS00011311,9y,NEXTJENS00011312,10y,NEXTJENS00011313,11y,NEXTJENS00011314,12y,NEXTJENS00011315,13y,NEXTJENS00011316,14y,NEXTJENS00011317,15y,NEXTJENS00011318,16y,NEXTJENS00011319;1800.00;;;;;;;next,JIT;zerotype;;Spring;;No
2530711;6203423500-Black-2530711;Skinny Jeans (3-16yrs);Draft;Jeans;next;Kids-Boys;Boys;Charcoal;Grey Melange;;Fashion;;2018;3y,NEXTJENS00011292,4y,NEXTJENS00011293,5y,NEXTJENS00011294,6y,NEXTJENS00011295,7y,NEXTJENS00011296,8y,NEXTJENS00011297,9y,NEXTJENS00011298,10y,NEXTJENS00011299,11y,NEXTJENS00011300,12y,NEXTJENS00011301,13y,NEXTJENS00011302,14y,NEXTJENS00011303,15y,NEXTJENS00011304,16y,NEXTJENS00011305;1050.00;;;;;;;next,JIT;zerotype;;Spring;;No
2530710;6204623990-Dark Blue-2530710;Denim Culottes (3-16yrs);Draft;Jeans;next;Kids-Girls;Girls;Blue;;;Fashion;;2018;3y,NEXTJENS00011278,4y,NEXTJENS00011279,5y,NEXTJENS00011280,6y,NEXTJENS00011281,7y,NEXTJENS00011282,8y,NEXTJENS00011283,9y,NEXTJENS00011284,10y,NEXTJENS00011285,11y,NEXTJENS00011286,12y,NEXTJENS00011287,13y,NEXTJENS00011288,14y,NEXTJENS00011289,15y,NEXTJENS00011290,16y,NEXTJENS00011291;1350.00;;;;;;;next,JIT;zerotype;;Spring;;No
2530709;6204623990-Grey-2530709;Ripped Knee Skinny Jeans (3-16yrs);Draft;Jeans;next;Kids-Girls;Girls;Black;;;Fashion;;2018;3y,NEXTJENS00011264,4y,NEXTJENS00011265,5y,NEXTJENS00011266,6y,NEXTJENS00011267,7y,NEXTJENS00011268,8y,NEXTJENS00011269,9y,NEXTJENS00011270,10y,NEXTJENS00011271,11y,NEXTJENS00011272,12y,NEXTJENS00011273,13y,NEXTJENS00011274,14y,NEXTJENS00011275,15y,NEXTJENS00011276,16y,NEXTJENS00011277;1250.00;;;;;;;next,JIT;zerotype;;Spring;;No
2530708;6204623990-Light Blue-2530708;Asymmetric Hem Jeans (3-16yrs);Draft;Jeans;next;Kids-Girls;Girls;Blue;;;Fashion;;2018;3y,NEXTJENS00011250,4y,NEXTJENS00011251,5y,NEXTJENS00011252,6y,NEXTJENS00011253,7y,NEXTJENS00011254,8y,NEXTJENS00011255,9y,NEXTJENS00011256,10y,NEXTJENS00011257,11y,NEXTJENS00011258,12y,NEXTJENS00011259,13y,NEXTJENS00011260,14y,NEXTJENS00011261,15y,NEXTJENS00011262,16y,NEXTJENS00011263;1250.00;;;;;;;next,JIT;zerotype;;Spring;;No
2530706;6203423500-Bright Blue-2530706;Skinny Jeans With Keyring (3-16yrs);Draft;Jeans;next;Kids-Boys;Boys;Blue;;;Fashion;;2018;3y,NEXTJENS00011236,4y,NEXTJENS00011237,5y,NEXTJENS00011238,6y,NEXTJENS00011239,7y,NEXTJENS00011240,8y,NEXTJENS00011241,9y,NEXTJENS00011242,10y,NEXTJENS00011243,11y,NEXTJENS00011244,12y,NEXTJENS00011245,13y,NEXTJENS00011246,14y,NEXTJENS00011247,15y,NEXTJENS00011248,16y,NEXTJENS00011249;1250.00;;;;;;;next,JIT;zerotype;;Spring;;No
2530705;6209200090-Mid Blue-2530705;Sparkly Belt Jeans (3mths-6yrs);Draft;Jeans;next;Kids-Girls;Girls;Blue;Orange;;Fashion;;2018;3-6m,NEXTJENS00011227,6-9m,NEXTJENS00011228,9-12m,NEXTJENS00011229,12-18m,NEXTJENS00011230,1.5-2y,NEXTJENS00011231,2-3y,NEXTJENS00011232,3-4y,NEXTJENS00011233,4-5y,NEXTJENS00011234,5-6y,NEXTJENS00011235;1450.00;;;;;;;next,JIT;zerotype;;Spring;;No
2530704;6204623990-Light Blue-2530704;Doodle Quote Skinny Jeans (3-16yrs);Draft;Jeans;next;Kids-Girls;Girls;Blue;Blue;;Fashion;;2018;3y,NEXTJENS00011213,4y,NEXTJENS00011214,5y,NEXTJENS00011215,6y,NEXTJENS00011216,7y,NEXTJENS00011217,8y,NEXTJENS00011218,9y,NEXTJENS00011219,10y,NEXTJENS00011220,11y,NEXTJENS00011221,12y,NEXTJENS00011222,13y,NEXTJENS00011223,14y,NEXTJENS00011224,15y,NEXTJENS00011225,16y,NEXTJENS00011226;1450.00;;;;;;;next,JIT;zerotype;;Spring;;No
2530702;6204623990-Pink-2530702;Skinny Jeans With Accessory (3-16yrs);Draft;Jeans;next;Kids-Girls;Girls;Pink;;;Fashion;;2018;3y,NEXTJENS00011199,4y,NEXTJENS00011200,5y,NEXTJENS00011201,6y,NEXTJENS00011202,7y,NEXTJENS00011203,8y,NEXTJENS00011204,9y,NEXTJENS00011205,10y,NEXTJENS00011206,11y,NEXTJENS00011207,12y,NEXTJENS00011208,13y,NEXTJENS00011209,14y,NEXTJENS00011210,15y,NEXTJENS00011211,16y,NEXTJENS00011212;1600.00;;;;;;;next,JIT;zerotype;;Spring;;No
2530701;6204623990-Grey-2530701;Jeggings (3-16yrs);Draft;Jeans;next;Kids-Girls;Girls;Grey;Grey;Grey;Fashion;;2018;3y,NEXTJENS00011185,4y,NEXTJENS00011186,5y,NEXTJENS00011187,6y,NEXTJENS00011188,7y,NEXTJENS00011189,8y,NEXTJENS00011190,9y,NEXTJENS00011191,10y,NEXTJENS00011192,11y,NEXTJENS00011193,12y,NEXTJENS00011194,13y,NEXTJENS00011195,14y,NEXTJENS00011196,15y,NEXTJENS00011197,16y,NEXTJENS00011198;1350.00;;;;;;;next,JIT;zerotype;;Spring;;No
2530700;6209200090-Camouflage-2530700;Skinny Jeans (3mths-6yrs);Draft;Jeans;next;Kids-Girls;Girls;Olive;Green;Sea Green;Fashion;;2018;3-6m,NEXTJENS00011176,6-9m,NEXTJENS00011177,9-12m,NEXTJENS00011178,12-18m,NEXTJENS00011179,1.5-2y,NEXTJENS00011180,2-3y,NEXTJENS00011181,3-4y,NEXTJENS00011182,4-5y,NEXTJENS00011183,5-6y,NEXTJENS00011184;1050.00;;;;;;;next,JIT;zerotype;;Spring;;No
2530699;6209200090-Grey-2530699;Dinosaur Jersey Denim Jeans (3mths-6yrs);Draft;Jeans;next;Kids-Boys;Boys;Grey;;;Fashion;;2018;3-6m,NEXTJENS00011167,6-9m,NEXTJENS00011168,9-12m,NEXTJENS00011169,12-18m,NEXTJENS00011170,1.5-2y,NEXTJENS00011171,2-3y,NEXTJENS00011172,3-4y,NEXTJENS00011173,4-5y,NEXTJENS00011174,5-6y,NEXTJENS00011175;1450.00;;;;;;;next,JIT;zerotype;;Spring;;No
2530698;6209200090-Dark Blue-2530698;Distressed Jeans (3mths-6yrs);Draft;Jeans;next;Kids-Girls;Girls;Navy Blue;Navy Blue;Blue;Fashion;;2018;3-6m,NEXTJENS00011158,6-9m,NEXTJENS00011159,9-12m,NEXTJENS00011160,12-18m,NEXTJENS00011161,1.5-2y,NEXTJENS00011162,2-3y,NEXTJENS00011163,3-4y,NEXTJENS00011164,4-5y,NEXTJENS00011165,5-6y,NEXTJENS00011166;1450.00;;;;;;;next,JIT;zerotype;;Spring;;No
2530697;6209200090-Dark Blue-2530697;Skinny Jeans (3mths-6yrs);Draft;Jeans;next;Kids-Girls;Girls;Red;;;Fashion;;2018;3-6m,NEXTJENS00011149,6-9m,NEXTJENS00011150,9-12m,NEXTJENS00011151,12-18m,NEXTJENS00011152,1.5-2y,NEXTJENS00011153,2-3y,NEXTJENS00011154,3-4y,NEXTJENS00011155,4-5y,NEXTJENS00011156,5-6y,NEXTJENS00011157;900.00;;;;;;;next,JIT;zerotype;;Spring;;No
2530695;6203423500-Denim Grey-2530695;Distressed Super Skinny Jeans (3-16yrs);Draft;Jeans;next;Kids-Boys;Boys;Black;;;Fashion;;2018;3y,NEXTJENS00011135,4y,NEXTJENS00011136,5y,NEXTJENS00011137,6y,NEXTJENS00011138,7y,NEXTJENS00011139,8y,NEXTJENS00011140,9y,NEXTJENS00011141,10y,NEXTJENS00011142,11y,NEXTJENS00011143,12y,NEXTJENS00011144,13y,NEXTJENS00011145,14y,NEXTJENS00011146,15y,NEXTJENS00011147,16y,NEXTJENS00011148;1450.00;;;;;;;next,JIT;zerotype;;Spring;;No
2530694;6204623990-Grey-2530694;Skinny Jeans (3-16yrs);Draft;Jeans;next;Kids-Girls;Girls;Grey;Grey Melange;;Fashion;;2018;3y,NEXTJENS00011121,4y,NEXTJENS00011122,5y,NEXTJENS00011123,6y,NEXTJENS00011124,7y,NEXTJENS00011125,8y,NEXTJENS00011126,9y,NEXTJENS00011127,10y,NEXTJENS00011128,11y,NEXTJENS00011129,12y,NEXTJENS00011130,13y,NEXTJENS00011131,14y,NEXTJENS00011132,15y,NEXTJENS00011133,16y,NEXTJENS00011134;1050.00;;;;;;;next,JIT;zerotype;;Spring;;No
2530693;6203423500-Rinse-2530693;Skinny Jeans (3-16yrs);Draft;Jeans;next;Kids-Boys;Boys;Navy Blue;;;Fashion;;2018;3y,NEXTJENS00011107,4y,NEXTJENS00011108,5y,NEXTJENS00011109,6y,NEXTJENS00011110,7y,NEXTJENS00011111,8y,NEXTJENS00011112,9y,NEXTJENS00011113,10y,NEXTJENS00011114,11y,NEXTJENS00011115,12y,NEXTJENS00011116,13y,NEXTJENS00011117,14y,NEXTJENS00011118,15y,NEXTJENS00011119,16y,NEXTJENS00011120;1050.00;;;;;;;next,JIT;zerotype;;Spring;;No
2530691;6204623990-Dark Blue-2530691;Cross Stitch Floral Skinny Jeans (3-16yrs);Draft;Jeans;next;Kids-Girls;Girls;Blue;White;Green;Fashion;;2018;3y,NEXTJENS00011093,4y,NEXTJENS00011094,5y,NEXTJENS00011095,6y,NEXTJENS00011096,7y,NEXTJENS00011097,8y,NEXTJENS00011098,9y,NEXTJENS00011099,10y,NEXTJENS00011100,11y,NEXTJENS00011101,12y,NEXTJENS00011102,13y,NEXTJENS00011103,14y,NEXTJENS00011104,15y,NEXTJENS00011105,16y,NEXTJENS00011106;1600.00;;;;;;;next,JIT;zerotype;;Spring;;No
2530690;6204623990-Grey-2530690;Eyelet Skinny Jeans (3-16yrs);Draft;Jeans;next;Kids-Girls;Girls;Grey;;;Fashion;;2018;3y,NEXTJENS00011079,4y,NEXTJENS00011080,5y,NEXTJENS00011081,6y,NEXTJENS00011082,7y,NEXTJENS00011083,8y,NEXTJENS00011084,9y,NEXTJENS00011085,10y,NEXTJENS00011086,11y,NEXTJENS00011087,12y,NEXTJENS00011088,13y,NEXTJENS00011089,14y,NEXTJENS00011090,15y,NEXTJENS00011091,16y,NEXTJENS00011092;1450.00;;;;;;;next,JIT;zerotype;;Spring;;No
2530689;6203423500-Turquoise-2530689;Contrast Weft Skinny Jeans (3-16yrs);Draft;Jeans;next;Kids-Boys;Boys;Blue;;;Fashion;;2018;3y,NEXTJENS00011065,4y,NEXTJENS00011066,5y,NEXTJENS00011067,6y,NEXTJENS00011068,7y,NEXTJENS00011069,8y,NEXTJENS00011070,9y,NEXTJENS00011071,10y,NEXTJENS00011072,11y,NEXTJENS00011073,12y,NEXTJENS00011074,13y,NEXTJENS00011075,14y,NEXTJENS00011076,15y,NEXTJENS00011077,16y,NEXTJENS00011078;1600.00;;;;;;;next,JIT;zerotype;;Spring;;No
2530688;6204623990-Dark Blue-2530688;Skinny Jeans (3-16yrs);Draft;Jeans;next;Kids-Girls;Girls;Navy Blue;;;Fashion;;2018;3y,NEXTJENS00011051,4y,NEXTJENS00011052,5y,NEXTJENS00011053,6y,NEXTJENS00011054,7y,NEXTJENS00011055,8y,NEXTJENS00011056,9y,NEXTJENS00011057,10y,NEXTJENS00011058,11y,NEXTJENS00011059,12y,NEXTJENS00011060,13y,NEXTJENS00011061,14y,NEXTJENS00011062,15y,NEXTJENS00011063,16y,NEXTJENS00011064;1050.00;;;;;;;next,JIT;zerotype;;Spring;;No
2530686;6203423500-Green-2530686;5 Pocket Skinny Jeans (3-16yrs);Draft;Jeans;next;Kids-Boys;Boys;;;;Fashion;;2018;3y,NEXTJENS00011037,4y,NEXTJENS00011038,5y,NEXTJENS00011039,6y,NEXTJENS00011040,7y,NEXTJENS00011041,8y,NEXTJENS00011042,9y,NEXTJENS00011043,10y,NEXTJENS00011044,11y,NEXTJENS00011045,12y,NEXTJENS00011046,13y,NEXTJENS00011047,14y,NEXTJENS00011048,15y,NEXTJENS00011049,16y,NEXTJENS00011050;1250.00;;;;;;;next,JIT;zerotype;;Spring;;No
2530685;6204623990-Mid Blue Unicorn Print-2530685;Jeggings (3-16yrs);Draft;Jeans;next;Kids-Girls;Girls;Grey;White;Blue;Fashion;Casual;2018;3y,NEXTJENS00011023,4y,NEXTJENS00011024,5y,NEXTJENS00011025,6y,NEXTJENS00011026,7y,NEXTJENS00011027,8y,NEXTJENS00011028,9y,NEXTJENS00011029,10y,NEXTJENS00011030,11y,NEXTJENS00011031,12y,NEXTJENS00011032,13y,NEXTJENS00011033,14y,NEXTJENS00011034,15y,NEXTJENS00011035,16y,NEXTJENS00011036;1450.00;;;;;;;next,JIT;zerotype;;Spring;;No
2530684;6209200090-Mid Blue-2530684;Unicorn Embellished Jeans (3mths-6yrs);Draft;Jeans;next;Kids-Girls;Girls;Navy Blue;Navy Blue;Multi;Fashion;Smart Casual;2018;3-6m,NEXTJENS00011014,6-9m,NEXTJENS00011015,9-12m,NEXTJENS00011016,12-18m,NEXTJENS00011017,1.5-2y,NEXTJENS00011018,2-3y,NEXTJENS00011019,3-4y,NEXTJENS00011020,4-5y,NEXTJENS00011021,5-6y,NEXTJENS00011022;1350.00;;;;;;;next,JIT;zerotype;;Spring;;No
2530683;6203423500-Black-2530683;Five Pocket Regular Jeans (3-16yrs);Draft;Jeans;next;Kids-Boys;Boys;Black;;;Fashion;Casual;2018;3y,NEXTJENS00011000,4y,NEXTJENS00011001,5y,NEXTJENS00011002,6y,NEXTJENS00011003,7y,NEXTJENS00011004,8y,NEXTJENS00011005,9y,NEXTJENS00011006,10y,NEXTJENS00011007,11y,NEXTJENS00011008,12y,NEXTJENS00011009,13y,NEXTJENS00011010,14y,NEXTJENS00011011,15y,NEXTJENS00011012,16y,NEXTJENS00011013;1050.00;;;;;;;next,JIT;zerotype;;Spring;;No
2530682;6203423500-Black-2530682;Paint Splat Patch Jeans (3-16yrs);Draft;Jeans;next;Kids-Boys;Boys;Charcoal;Charcoal;;Fashion;Smart Casual;2018;3y,NEXTJENS00010986,4y,NEXTJENS00010987,5y,NEXTJENS00010988,6y,NEXTJENS00010989,7y,NEXTJENS00010990,8y,NEXTJENS00010991,9y,NEXTJENS00010992,10y,NEXTJENS00010993,11y,NEXTJENS00010994,12y,NEXTJENS00010995,13y,NEXTJENS00010996,14y,NEXTJENS00010997,15y,NEXTJENS00010998,16y,NEXTJENS00010999;1600.00;;;;;;;next,JIT;zerotype;;Spring;;No
2530680;6203423500-Dark Wash-2530680;Skinny Fit Trousers (3-16yrs);Draft;Jeans;next;Kids-Boys;Boys;Blue;Blue;;Fashion;Smart Casual;2018;3y,NEXTJENS00010972,4y,NEXTJENS00010973,5y,NEXTJENS00010974,6y,NEXTJENS00010975,7y,NEXTJENS00010976,8y,NEXTJENS00010977,9y,NEXTJENS00010978,10y,NEXTJENS00010979,11y,NEXTJENS00010980,12y,NEXTJENS00010981,13y,NEXTJENS00010982,14y,NEXTJENS00010983,15y,NEXTJENS00010984,16y,NEXTJENS00010985;1050.00;;;;;;;next,JIT;zerotype;;Spring;;No
2530679;6203423500-Grey-2530679;Loose Fit 5 Pocket Jeans (3-16yrs);Draft;Jeans;next;Kids-Boys;Boys;Grey;;;Fashion;Casual;2018;3y,NEXTJENS00010958,4y,NEXTJENS00010959,5y,NEXTJENS00010960,6y,NEXTJENS00010961,7y,NEXTJENS00010962,8y,NEXTJENS00010963,9y,NEXTJENS00010964,10y,NEXTJENS00010965,11y,NEXTJENS00010966,12y,NEXTJENS00010967,13y,NEXTJENS00010968,14y,NEXTJENS00010969,15y,NEXTJENS00010970,16y,NEXTJENS00010971;1600.00;;;;;;;next,JIT;zerotype;;Spring;;No
2530677;6204623990-Yellow-2530677;Skinny Jeans With Accessory (3-16yrs);Draft;Jeans;next;Kids-Girls;Girls;Yellow;;;Fashion;Casual;2018;3y,NEXTJENS00010944,4y,NEXTJENS00010945,5y,NEXTJENS00010946,6y,NEXTJENS00010947,7y,NEXTJENS00010948,8y,NEXTJENS00010949,9y,NEXTJENS00010950,10y,NEXTJENS00010951,11y,NEXTJENS00010952,12y,NEXTJENS00010953,13y,NEXTJENS00010954,14y,NEXTJENS00010955,15y,NEXTJENS00010956,16y,NEXTJENS00010957;1700.00;;;;;;;next,JIT;zerotype;;Spring;;No
2530676;6209200090-Dark Wash Blue-2530676;Contrast Turn-Up Jeans (3mths-6yrs);Draft;Jeans;next;Kids-Boys;Boys;Blue;;;Fashion;Casual;2018;3-6m,NEXTJENS00010935,6-9m,NEXTJENS00010936,9-12m,NEXTJENS00010937,12-18m,NEXTJENS00010938,1.5-2y,NEXTJENS00010939,2-3y,NEXTJENS00010940,3-4y,NEXTJENS00010941,4-5y,NEXTJENS00010942,5-6y,NEXTJENS00010943;1250.00;;;;;;;next,JIT;zerotype;;Spring;;No
2530675;6204623990-Green-2530675;Skinny Jeans With Accessory (3-16yrs);Draft;Jeans;next;Kids-Girls;Girls;Turquoise Blue;Turquoise Blue;;Fashion;Smart Casual;2018;3y,NEXTJENS00010921,4y,NEXTJENS00010922,5y,NEXTJENS00010923,6y,NEXTJENS00010924,7y,NEXTJENS00010925,8y,NEXTJENS00010926,9y,NEXTJENS00010927,10y,NEXTJENS00010928,11y,NEXTJENS00010929,12y,NEXTJENS00010930,13y,NEXTJENS00010931,14y,NEXTJENS00010932,15y,NEXTJENS00010933,16y,NEXTJENS00010934;1600.00;;;;;;;next,JIT;zerotype;;Spring;;No
2530674;6204623990-Bright Blue-2530674;Skinny Jeans (3-16yrs);Draft;Jeans;next;Kids-Girls;Girls;Blue;;;Fashion;Casual;2018;3y,NEXTJENS00010907,4y,NEXTJENS00010908,5y,NEXTJENS00010909,6y,NEXTJENS00010910,7y,NEXTJENS00010911,8y,NEXTJENS00010912,9y,NEXTJENS00010913,10y,NEXTJENS00010914,11y,NEXTJENS00010915,12y,NEXTJENS00010916,13y,NEXTJENS00010917,14y,NEXTJENS00010918,15y,NEXTJENS00010919,16y,NEXTJENS00010920;1050.00;;;;;;;next,JIT;zerotype;;Spring;;No
2530673;6209200090-Light Blue-2530673;Floral Embellished Jeans (3mths-6yrs);Draft;Jeans;next;Kids-Girls;Girls;Blue;;;Fashion;Casual;2018;3-6m,NEXTJENS00010898,6-9m,NEXTJENS00010899,9-12m,NEXTJENS00010900,12-18m,NEXTJENS00010901,1.5-2y,NEXTJENS00010902,2-3y,NEXTJENS00010903,3-4y,NEXTJENS00010904,4-5y,NEXTJENS00010905,5-6y,NEXTJENS00010906;1250.00;;;;;;;next,JIT;zerotype;;Spring;;No
2530672;6209200090-Aqua-2530672;Super Soft Jeans (3mths-6yrs);Draft;Jeans;next;Kids-Boys;Boys;Blue;;;Fashion;Casual;2018;3-6m,NEXTJENS00010889,6-9m,NEXTJENS00010890,9-12m,NEXTJENS00010891,12-18m,NEXTJENS00010892,1.5-2y,NEXTJENS00010893,2-3y,NEXTJENS00010894,3-4y,NEXTJENS00010895,4-5y,NEXTJENS00010896,5-6y,NEXTJENS00010897;1250.00;;;;;;;next,JIT;zerotype;;Spring;;No
2530670;6209200090-Dark Blue-2530670;Jersey Denim Joggers (3mths-6yrs);Draft;Jeans;next;Kids-Boys;Boys;Navy Blue;;;Fashion;Smart Casual;2018;3-6m,NEXTJENS00010880,6-9m,NEXTJENS00010881,9-12m,NEXTJENS00010882,12-18m,NEXTJENS00010883,1.5-2y,NEXTJENS00010884,2-3y,NEXTJENS00010885,3-4y,NEXTJENS00010886,4-5y,NEXTJENS00010887,5-6y,NEXTJENS00010888;1050.00;;;;;;;next,JIT;zerotype;;Spring;;No
2530669;6203423500-Vintage-2530669;Loose Fit Jeans (3-16yrs);Draft;Jeans;next;Kids-Boys;Boys;Blue;Blue;Blue;Fashion;Casual;2018;3y,NEXTJENS00010866,4y,NEXTJENS00010867,5y,NEXTJENS00010868,6y,NEXTJENS00010869,7y,NEXTJENS00010870,8y,NEXTJENS00010871,9y,NEXTJENS00010872,10y,NEXTJENS00010873,11y,NEXTJENS00010874,12y,NEXTJENS00010875,13y,NEXTJENS00010876,14y,NEXTJENS00010877,15y,NEXTJENS00010878,16y,NEXTJENS00010879;1600.00;;;;;;;next,JIT;zerotype;;Spring;;No
2530668;6209200090-Grey-2530668;Super Soft Jeans (3mths-6yrs);Draft;Jeans;next;Kids-Boys;Boys;Black;;;Fashion;Casual;2018;3-6m,NEXTJENS00010857,6-9m,NEXTJENS00010858,9-12m,NEXTJENS00010859,12-18m,NEXTJENS00010860,1.5-2y,NEXTJENS00010861,2-3y,NEXTJENS00010862,3-4y,NEXTJENS00010863,4-5y,NEXTJENS00010864,5-6y,NEXTJENS00010865;1250.00;;;;;;;next,JIT;zerotype;;Spring;;No
2530667;6209200090-Coral-2530667;Jeggings (3mths-6yrs);Draft;Jeans;next;Kids-Girls;Girls;Peach;Peach;Peach;Fashion;Casual;2018;3-6m,NEXTJENS00010848,6-9m,NEXTJENS00010849,9-12m,NEXTJENS00010850,12-18m,NEXTJENS00010851,1.5-2y,NEXTJENS00010852,2-3y,NEXTJENS00010853,3-4y,NEXTJENS00010854,4-5y,NEXTJENS00010855,5-6y,NEXTJENS00010856;900.00;;;;;;;next,JIT;zerotype;;Spring;;No
2530665;6204623990-Black-2530665;Skinny Jeans (3-16yrs);Draft;Jeans;next;Kids-Girls;Girls;Black;Black;Black;Fashion;Casual;2018;3y,NEXTJENS00010834,4y,NEXTJENS00010835,5y,NEXTJENS00010836,6y,NEXTJENS00010837,7y,NEXTJENS00010838,8y,NEXTJENS00010839,9y,NEXTJENS00010840,10y,NEXTJENS00010841,11y,NEXTJENS00010842,12y,NEXTJENS00010843,13y,NEXTJENS00010844,14y,NEXTJENS00010845,15y,NEXTJENS00010846,16y,NEXTJENS00010847;1050.00;;;;;;;next,JIT;zerotype;;Spring;;No
2530664;6209200090-Black-2530664;Distressed Jeans (3mths-6yrs);Draft;Jeans;next;Kids-Boys;Boys;Charcoal;Grey Melange;;Fashion;Smart Casual;2018;3-6m,NEXTJENS00010825,6-9m,NEXTJENS00010826,9-12m,NEXTJENS00010827,12-18m,NEXTJENS00010828,1.5-2y,NEXTJENS00010829,2-3y,NEXTJENS00010830,3-4y,NEXTJENS00010831,4-5y,NEXTJENS00010832,5-6y,NEXTJENS00010833;1450.00;;;;;;;next,JIT;zerotype;;Spring;;No
2530663;6209200090-Grey-2530663;Skinny Jeans (3mths-6yrs);Draft;Jeans;next;Kids-Girls;Girls;Grey;Grey Melange;;Fashion;Smart Casual;2018;3-6m,NEXTJENS00010816,6-9m,NEXTJENS00010817,9-12m,NEXTJENS00010818,12-18m,NEXTJENS00010819,1.5-2y,NEXTJENS00010820,2-3y,NEXTJENS00010821,3-4y,NEXTJENS00010822,4-5y,NEXTJENS00010823,5-6y,NEXTJENS00010824;900.00;;;;;;;next,JIT;zerotype;;Spring;;No
2530662;6209200090-Grey-2530662;Cat Face Printed Jeans (3mths-6yrs);Draft;Jeans;next;Kids-Girls;Girls;Grey;Charcoal;;Fashion;Smart Casual;2018;3-6m,NEXTJENS00010807,6-9m,NEXTJENS00010808,9-12m,NEXTJENS00010809,12-18m,NEXTJENS00010810,1.5-2y,NEXTJENS00010811,2-3y,NEXTJENS00010812,3-4y,NEXTJENS00010813,4-5y,NEXTJENS00010814,5-6y,NEXTJENS00010815;1050.00;;;;;;;next,JIT;zerotype;;Spring;;No
2530661;6203423500-Rinse-2530661;Mega Stretch Skinny Jeans (3-16yrs);Draft;Jeans;next;Kids-Boys;Boys;Navy Blue;;;Fashion;Casual;2018;3y,NEXTJENS00010793,4y,NEXTJENS00010794,5y,NEXTJENS00010795,6y,NEXTJENS00010796,7y,NEXTJENS00010797,8y,NEXTJENS00010798,9y,NEXTJENS00010799,10y,NEXTJENS00010800,11y,NEXTJENS00010801,12y,NEXTJENS00010802,13y,NEXTJENS00010803,14y,NEXTJENS00010804,15y,NEXTJENS00010805,16y,NEXTJENS00010806;1600.00;;;;;;;next,JIT;zerotype;;Spring;;No
2530659;6203423500-Chalk-2530659;Super Skinny Jersey Denim Jeans (3-16yrs);Draft;Jeans;next;Kids-Boys;Boys;Blue;Blue;Blue;Fashion;Casual;2018;3y,NEXTJENS00010779,4y,NEXTJENS00010780,5y,NEXTJENS00010781,6y,NEXTJENS00010782,7y,NEXTJENS00010783,8y,NEXTJENS00010784,9y,NEXTJENS00010785,10y,NEXTJENS00010786,11y,NEXTJENS00010787,12y,NEXTJENS00010788,13y,NEXTJENS00010789,14y,NEXTJENS00010790,15y,NEXTJENS00010791,16y,NEXTJENS00010792;1450.00;;;;;;;next,JIT;zerotype;;Spring;;No
2530658;6209200090-Light Blue-2530658;Bleached Distressed Jeans (3mths-6yrs);Draft;Jeans;next;Kids-Boys;Boys;Blue;;;Fashion;Casual;2018;3-6m,NEXTJENS00010770,6-9m,NEXTJENS00010771,9-12m,NEXTJENS00010772,12-18m,NEXTJENS00010773,1.5-2y,NEXTJENS00010774,2-3y,NEXTJENS00010775,3-4y,NEXTJENS00010776,4-5y,NEXTJENS00010777,5-6y,NEXTJENS00010778;1350.00;;;;;;;next,JIT;zerotype;;Spring;;No
2530657;6209200090-Mid Blue-2530657;Rainbow Printed Jeans (3mths-6yrs);Draft;Jeans;next;Kids-Girls;Girls;Blue;;;Fashion;Casual;2018;3-6m,NEXTJENS00010761,6-9m,NEXTJENS00010762,9-12m,NEXTJENS00010763,12-18m,NEXTJENS00010764,1.5-2y,NEXTJENS00010765,2-3y,NEXTJENS00010766,3-4y,NEXTJENS00010767,4-5y,NEXTJENS00010768,5-6y,NEXTJENS00010769;1450.00;;;;;;;next,JIT;zerotype;;Spring;;No
2530656;6204623990-Mid Blue-2530656;Cactus Print Skinny Jeans (3-16yrs);Draft;Jeans;next;Kids-Girls;Girls;Blue;;;Fashion;Casual;2018;3y,NEXTJENS00010747,4y,NEXTJENS00010748,5y,NEXTJENS00010749,6y,NEXTJENS00010750,7y,NEXTJENS00010751,8y,NEXTJENS00010752,9y,NEXTJENS00010753,10y,NEXTJENS00010754,11y,NEXTJENS00010755,12y,NEXTJENS00010756,13y,NEXTJENS00010757,14y,NEXTJENS00010758,15y,NEXTJENS00010759,16y,NEXTJENS00010760;2100.00;;;;;;;next,JIT;zerotype;;Spring;;No
2530655;6204623990-Orange-2530655;Skinny Jeans With Accessory (3-16yrs);Draft;Jeans;next;Kids-Girls;Girls;Peach;;;Fashion;Casual;2018;3y,NEXTJENS00010733,4y,NEXTJENS00010734,5y,NEXTJENS00010735,6y,NEXTJENS00010736,7y,NEXTJENS00010737,8y,NEXTJENS00010738,9y,NEXTJENS00010739,10y,NEXTJENS00010740,11y,NEXTJENS00010741,12y,NEXTJENS00010742,13y,NEXTJENS00010743,14y,NEXTJENS00010744,15y,NEXTJENS00010745,16y,NEXTJENS00010746;1700.00;;;;;;;next,JIT;zerotype;;Spring;;No
2530654;6209200090-Dark Wash-2530654;Daisy Embellished Jeans (3mths-6yrs);Draft;Jeans;next;Kids-Girls;Girls;Blue;;;Fashion;Casual;2018;3-6m,NEXTJENS00010724,6-9m,NEXTJENS00010725,9-12m,NEXTJENS00010726,12-18m,NEXTJENS00010727,1.5-2y,NEXTJENS00010728,2-3y,NEXTJENS00010729,3-4y,NEXTJENS00010730,4-5y,NEXTJENS00010731,5-6y,NEXTJENS00010732;1250.00;;;;;;;next,JIT;zerotype;;Spring;;No
