Style ID;Vendor Article Number;Vendor Article Name;Active Status;Article type;Brand;Age Group;Gender;Base Colour;Colour1;Colour2;Fashion Type;Usage;Year;Size - SKU code pair;MRP;Style Description;Style Note;Materials and Care Description;Size and Fit Description;Size Chart Path;Product Display Name;Tags;Product Type;Classification Brand;Season;Comments;Upload Images
4331261;W3G02184000404 NAVY-Navy Blue-4331261;W3G02184000404 NAVY;Draft;Tops;O2xygen;Adults-Women;Women;Navy Blue;;;Fashion;Casual;2018;XS,OXGNTOPS00000026,S,OXGNTOPS00000027,M,OXGNTOPS00000028,L,OXGNTOPS00000029;1699.00;;;<p>100% POLYESTER</p>;;;na;;zerotype;;Spring;;No
4331260;W3G02181000307 PEACH-Peach-4331260;W3G02181000307 PEACH;Draft;Tops;O2xygen;Adults-Women;Women;Peach;;;Fashion;Casual;2018;XS,OXGNTOPS00000022,S,OXGNTOPS00000023,M,OXGNTOPS00000024,L,OXGNTOPS00000025;1299.00;;;<p>100% POLYESTER</p>;;;na;;zerotype;;Spring;;No
4331259;W3G02181001501 OFF WHITE-Off White-4331259;W3G02181001501 OFF WHITE;Draft;Tops;O2xygen;Adults-Women;Women;Off White;;;Fashion;Casual;2018;XS,OXGNTOPS00000016,S,OXGNTOPS00000017,M,OXGNTOPS00000018,L,OXGNTOPS00000019,XL,OXGNTOPS00000020,XXL,OXGNTOPS00000021;1599.00;;;<p>50% NYLON 50% COTTON</p>;;;na;;zerotype;;Spring;;No
4331258;W3G02182000510 BLACK-Black-4331258;W3G02182000510 BLACK;Draft;Tops;O2xygen;Adults-Women;Women;Black;Multi;;Fashion;Casual;2018;XS,OXGNTOPS00000011,S,OXGNTOPS00000012,M,OXGNTOPS00000013,L,OXGNTOPS00000014,XL,OXGNTOPS00000015;1399.00;;;<p>100% VISCOSE</p>;;;na;;zerotype;;Spring;;No
4331257;W3G02181000707 PEACH-Peach-4331257;W3G02181000707 PEACH;Draft;Tops;O2xygen;Adults-Women;Women;Peach;;;Fashion;Casual;2018;XS,OXGNTOPS00000006,S,OXGNTOPS00000007,M,OXGNTOPS00000008,L,OXGNTOPS00000009,XL,OXGNTOPS00000010;1499.00;;;<p>100% POLYESTER</p>;;;na;;zerotype;;Spring;;No
4331256;W3G02181000110 BLACK-Black-4331256;W3G02181000110 BLACK;Draft;Tops;O2xygen;Adults-Women;Women;Black;;;Fashion;Casual;2018;XS,OXGNTOPS00000001,S,OXGNTOPS00000002,M,OXGNTOPS00000003,L,OXGNTOPS00000004,XL,OXGNTOPS00000005;1599.00;;;<p>95% VISCOSE+5% SPANDEX</p>;;;na;;zerotype;;Spring;;No
4331255;W3D02182001010 BLACK-Black-4331255;W3D02182001010 BLACK;Draft;Skirts;O2xygen;Adults-Women;Women;Black;;;Fashion;Casual;2018;XL,OXGNSKRT00000001,L,OXGNSKRT00000002,M,OXGNSKRT00000003,S,OXGNSKRT00000004,XS,OXGNSKRT00000005;2399.00;;;<p>OUTER-100% VISCOSE INNER-100% POLYESTER</p>;;;na;;zerotype;;Spring;;No
4331254;W3I02182000910 BLACK-Black-4331254;W3I02182000910 BLACK;Draft;Shirts;O2xygen;Adults-Women;Women;Black;;;Fashion;Casual;2018;L,OXGNSHRT00000001,M,OXGNSHRT00000002,S,OXGNSHRT00000003,XS,OXGNSHRT00000004,XL,OXGNSHRT00000005;1499.00;;;<p>95% VISCOSE 5% ACRYLIC</p>;;;na;;zerotype;;Spring;;No
4331253;W3F02184000304 NAVY-Navy Blue-4331253;W3F02184000304 NAVY;Draft;Dresses;O2xygen;Adults-Women;Women;Navy Blue;;;Fashion;Casual;2018;XS,OXGNDRSS00000011,S,OXGNDRSS00000012,M,OXGNDRSS00000013,L,OXGNDRSS00000014,XL,OXGNDRSS00000015;2499.00;;;<p>100% POLYESTER</p>;;;na;;zerotype;;Spring;;No
4331252;W3F02184000207 BLUSH-Peach-4331252;W3F02184000207 BLUSH;Draft;Dresses;O2xygen;Adults-Women;Women;Peach;;;Fashion;Casual;2018;XL,OXGNDRSS00000006,L,OXGNDRSS00000007,M,OXGNDRSS00000008,S,OXGNDRSS00000009,XS,OXGNDRSS00000010;1999.00;;;<p>100% POLYESTER</p>;;;na;;zerotype;;Spring;;No
4331251;W3F02181002907 BLUSH-Peach-4331251;W3F02181002907 BLUSH;Draft;Dresses;O2xygen;Adults-Women;Women;Peach;;;Fashion;Casual;2018;XS,OXGNDRSS00000001,XL,OXGNDRSS00000002,L,OXGNDRSS00000003,M,OXGNDRSS00000004,S,OXGNDRSS00000005;1599.00;;;<p>100% POLYESTER</p>;;;na;;zerotype;;Spring;;No
