Style ID;Vendor Article Number;Vendor Article Name;Active Status;Article type;Brand;Age Group;Gender;Base Colour;Colour1;Colour2;Fashion Type;Usage;Year;Size - SKU code pair;MRP;Style Description;Style Note;Materials and Care Description;Size and Fit Description;Size Chart Path;Product Display Name;Tags;Product Type;Classification Brand;Season;Comments;Upload Images
1824708;LT-RS-T-20A-Grey-1824708;LT-RS-T-20A-Grey;Draft;Flats;Get Glamr;Adults-Women;Women;;;;Fashion;;2017;EURO36,GGLMFlats00004151,EURO37,GGLMFlats00004152,EURO38,GGLMFlats00004153,EURO39,GGLMFlats00004154,EURO40,GGLMFlats00004155,EURO41,GGLMFlats00004156;1499.00;;;;;;;;zerotype;;Spring;;No
1824707;LT-RS-T-20A-Gold-1824707;LT-RS-T-20A-Gold;Draft;Flats;Get Glamr;Adults-Women;Women;;;;Fashion;;2017;EURO36,GGLMFlats00004145,EURO37,GGLMFlats00004146,EURO38,GGLMFlats00004147,EURO39,GGLMFlats00004148,EURO40,GGLMFlats00004149,EURO41,GGLMFlats00004150;1499.00;;;;;;;;zerotype;;Spring;;No
1824706;LT-RS-T-20A-Copper-1824706;LT-RS-T-20A-Copper;Draft;Flats;Get Glamr;Adults-Women;Women;;;;Fashion;;2017;EURO36,GGLMFlats00004139,EURO37,GGLMFlats00004140,EURO38,GGLMFlats00004141,EURO39,GGLMFlats00004142,EURO40,GGLMFlats00004143,EURO41,GGLMFlats00004144;1499.00;;;;;;;;zerotype;;Spring;;No
1824705;LT-RS-T-19A-White-1824705;LT-RS-T-19A-White;Draft;Flats;Get Glamr;Adults-Women;Women;;;;Fashion;;2017;EURO36,GGLMFlats00004133,EURO37,GGLMFlats00004134,EURO38,GGLMFlats00004135,EURO39,GGLMFlats00004136,EURO40,GGLMFlats00004137,EURO41,GGLMFlats00004138;1499.00;;;;;;;;zerotype;;Spring;;No
1824704;LT-RS-T-19A-Silver-1824704;LT-RS-T-19A-Silver;Draft;Flats;Get Glamr;Adults-Women;Women;;;;Fashion;;2017;EURO36,GGLMFlats00004127,EURO37,GGLMFlats00004128,EURO38,GGLMFlats00004129,EURO39,GGLMFlats00004130,EURO40,GGLMFlats00004131,EURO41,GGLMFlats00004132;1499.00;;;;;;;;zerotype;;Spring;;No
1824703;LT-RS-T-19A-Gold-1824703;LT-RS-T-19A-Gold;Draft;Flats;Get Glamr;Adults-Women;Women;;;;Fashion;;2017;EURO36,GGLMFlats00004121,EURO37,GGLMFlats00004122,EURO38,GGLMFlats00004123,EURO39,GGLMFlats00004124,EURO40,GGLMFlats00004125,EURO41,GGLMFlats00004126;1499.00;;;;;;;;zerotype;;Spring;;No
1824702;LT-RS-T-19A-Black-1824702;LT-RS-T-19A-Black;Draft;Flats;Get Glamr;Adults-Women;Women;;;;Fashion;;2017;EURO36,GGLMFlats00004115,EURO37,GGLMFlats00004116,EURO38,GGLMFlats00004117,EURO39,GGLMFlats00004118,EURO40,GGLMFlats00004119,EURO41,GGLMFlats00004120;1499.00;;;;;;;;zerotype;;Spring;;No
1824700;LT-KP-9540A-Black-1824700;LT-KP-9540A-Black;Draft;Flats;Get Glamr;Adults-Women;Women;;;;Fashion;;2017;EURO36,GGLMFlats00004109,EURO37,GGLMFlats00004110,EURO38,GGLMFlats00004111,EURO39,GGLMFlats00004112,EURO40,GGLMFlats00004113,EURO41,GGLMFlats00004114;1199.00;;;;;;;;zerotype;;Spring;;No
1824699;LT-KP-3536A-Black-1824699;LT-KP-3536A-Black;Draft;Flats;Get Glamr;Adults-Women;Women;;;;Fashion;;2017;EURO36,GGLMFlats00004103,EURO37,GGLMFlats00004104,EURO38,GGLMFlats00004105,EURO39,GGLMFlats00004106,EURO40,GGLMFlats00004107,EURO41,GGLMFlats00004108;1699.00;;;;;;;;zerotype;;Spring;;No
1824698;LT-KP-3536A-Beige-1824698;LT-KP-3536A-Beige;Draft;Flats;Get Glamr;Adults-Women;Women;;;;Fashion;;2017;EURO36,GGLMFlats00004097,EURO37,GGLMFlats00004098,EURO38,GGLMFlats00004099,EURO39,GGLMFlats00004100,EURO40,GGLMFlats00004101,EURO41,GGLMFlats00004102;1699.00;;;;;;;;zerotype;;Spring;;No
1824697;LT-KP-3334A-Copper-1824697;LT-KP-3334A-Copper;Draft;Flats;Get Glamr;Adults-Women;Women;;;;Fashion;;2017;EURO36,GGLMFlats00004091,EURO37,GGLMFlats00004092,EURO38,GGLMFlats00004093,EURO39,GGLMFlats00004094,EURO40,GGLMFlats00004095,EURO41,GGLMFlats00004096;1699.00;;;;;;;;zerotype;;Spring;;No
1824696;LT-KP-3132A-Black-1824696;LT-KP-3132A-Black;Draft;Flats;Get Glamr;Adults-Women;Women;;;;Fashion;;2017;EURO36,GGLMFlats00004085,EURO37,GGLMFlats00004086,EURO38,GGLMFlats00004087,EURO39,GGLMFlats00004088,EURO40,GGLMFlats00004089,EURO41,GGLMFlats00004090;1699.00;;;;;;;;zerotype;;Spring;;No
1824695;LT-KP-3132A-Beige-1824695;LT-KP-3132A-Beige;Draft;Flats;Get Glamr;Adults-Women;Women;;;;Fashion;;2017;EURO36,GGLMFlats00004079,EURO37,GGLMFlats00004080,EURO38,GGLMFlats00004081,EURO39,GGLMFlats00004082,EURO40,GGLMFlats00004083,EURO41,GGLMFlats00004084;1699.00;;;;;;;;zerotype;;Spring;;No
1824694;LT-KP-2526A-Green-1824694;LT-KP-2526A-Green;Draft;Flats;Get Glamr;Adults-Women;Women;;;;Fashion;;2017;EURO36,GGLMFlats00004073,EURO37,GGLMFlats00004074,EURO38,GGLMFlats00004075,EURO39,GGLMFlats00004076,EURO40,GGLMFlats00004077,EURO41,GGLMFlats00004078;999.00;;;;;;;;zerotype;;Spring;;No
1824693;LT-KP-2526A-Blue-1824693;LT-KP-2526A-Blue;Draft;Flats;Get Glamr;Adults-Women;Women;;;;Fashion;;2017;EURO36,GGLMFlats00004067,EURO37,GGLMFlats00004068,EURO38,GGLMFlats00004069,EURO39,GGLMFlats00004070,EURO40,GGLMFlats00004071,EURO41,GGLMFlats00004072;999.00;;;;;;;;zerotype;;Spring;;No
1824692;LT-KP-2526A-Black-1824692;LT-KP-2526A-Black;Draft;Flats;Get Glamr;Adults-Women;Women;;;;Fashion;;2017;EURO36,GGLMFlats00004061,EURO37,GGLMFlats00004062,EURO38,GGLMFlats00004063,EURO39,GGLMFlats00004064,EURO40,GGLMFlats00004065,EURO41,GGLMFlats00004066;999.00;;;;;;;;zerotype;;Spring;;No
1824691;LT-KP-2324A-Beige-1824691;LT-KP-2324A-Beige;Draft;Flats;Get Glamr;Adults-Women;Women;;;;Fashion;;2017;EURO36,GGLMFlats00004055,EURO37,GGLMFlats00004056,EURO38,GGLMFlats00004057,EURO39,GGLMFlats00004058,EURO40,GGLMFlats00004059,EURO41,GGLMFlats00004060;999.00;;;;;;;;zerotype;;Spring;;No
1824690;LT-D883-10-Red-1824690;LT-D883-10-Red;Draft;Casual Shoes;Get Glamr;Adults-Women;Women;;;;Fashion;;2017;EURO36,GGLMCASH00004722,EURO37,GGLMCASH00004723,EURO38,GGLMCASH00004724,EURO39,GGLMCASH00004725,EURO40,GGLMCASH00004726,EURO41,GGLMCASH00004727;2299.00;;;;;;;;zerotype;;Spring;;No
1824689;LT-D883-10-Brown-1824689;LT-D883-10-Brown;Draft;Casual Shoes;Get Glamr;Adults-Women;Women;;;;Fashion;;2017;EURO36,GGLMCASH00004716,EURO37,GGLMCASH00004717,EURO38,GGLMCASH00004718,EURO39,GGLMCASH00004719,EURO40,GGLMCASH00004720,EURO41,GGLMCASH00004721;2299.00;;;;;;;;zerotype;;Spring;;No
1824688;LT-D883-10-Blue-1824688;LT-D883-10-Blue;Draft;Casual Shoes;Get Glamr;Adults-Women;Women;;;;Fashion;;2017;EURO36,GGLMCASH00004710,EURO37,GGLMCASH00004711,EURO38,GGLMCASH00004712,EURO39,GGLMCASH00004713,EURO40,GGLMCASH00004714,EURO41,GGLMCASH00004715;2299.00;;;;;;;;zerotype;;Spring;;No
1824687;LT-D883-10-Black-1824687;LT-D883-10-Black;Draft;Casual Shoes;Get Glamr;Adults-Women;Women;;;;Fashion;;2017;EURO36,GGLMCASH00004704,EURO37,GGLMCASH00004705,EURO38,GGLMCASH00004706,EURO39,GGLMCASH00004707,EURO40,GGLMCASH00004708,EURO41,GGLMCASH00004709;2299.00;;;;;;;;zerotype;;Spring;;No
1824686;LT-A883-509-White-1824686;LT-A883-509-White;Draft;Casual Shoes;Get Glamr;Adults-Women;Women;;;;Fashion;;2017;EURO36,GGLMCASH00004698,EURO37,GGLMCASH00004699,EURO38,GGLMCASH00004700,EURO39,GGLMCASH00004701,EURO40,GGLMCASH00004702,EURO41,GGLMCASH00004703;2299.00;;;;;;;;zerotype;;Spring;;No
1824685;LT-A883-509-Brown-1824685;LT-A883-509-Brown;Draft;Casual Shoes;Get Glamr;Adults-Women;Women;;;;Fashion;;2017;EURO36,GGLMCASH00004692,EURO37,GGLMCASH00004693,EURO38,GGLMCASH00004694,EURO39,GGLMCASH00004695,EURO40,GGLMCASH00004696,EURO41,GGLMCASH00004697;2299.00;;;;;;;;zerotype;;Spring;;No
1824684;LT-A883-509-Blue-1824684;LT-A883-509-Blue;Draft;Casual Shoes;Get Glamr;Adults-Women;Women;;;;Fashion;;2017;EURO36,GGLMCASH00004686,EURO37,GGLMCASH00004687,EURO38,GGLMCASH00004688,EURO39,GGLMCASH00004689,EURO40,GGLMCASH00004690,EURO41,GGLMCASH00004691;2299.00;;;;;;;;zerotype;;Spring;;No
1824683;LT-A883-509-Black-1824683;LT-A883-509-Black;Draft;Casual Shoes;Get Glamr;Adults-Women;Women;;;;Fashion;;2017;EURO36,GGLMCASH00004680,EURO37,GGLMCASH00004681,EURO38,GGLMCASH00004682,EURO39,GGLMCASH00004683,EURO40,GGLMCASH00004684,EURO41,GGLMCASH00004685;2299.00;;;;;;;;zerotype;;Spring;;No
1824682;LT-883-406-Cream-1824682;LT-883-406-Cream;Draft;Casual Shoes;Get Glamr;Adults-Women;Women;;;;Fashion;;2017;EURO36,GGLMCASH00004674,EURO37,GGLMCASH00004675,EURO38,GGLMCASH00004676,EURO39,GGLMCASH00004677,EURO40,GGLMCASH00004678,EURO41,GGLMCASH00004679;2299.00;;;;;;;;zerotype;;Spring;;No
1824681;LT-883-406-Black-1824681;LT-883-406-Black;Draft;Casual Shoes;Get Glamr;Adults-Women;Women;;;;Fashion;;2017;EURO36,GGLMCASH00004668,EURO37,GGLMCASH00004669,EURO38,GGLMCASH00004670,EURO39,GGLMCASH00004671,EURO40,GGLMCASH00004672,EURO41,GGLMCASH00004673;2299.00;;;;;;;;zerotype;;Spring;;No
1824680;LT-520-376-Red-1824680;LT-520-376-Red;Draft;Casual Shoes;Get Glamr;Adults-Women;Women;;;;Fashion;;2017;EURO36,GGLMCASH00004662,EURO37,GGLMCASH00004663,EURO38,GGLMCASH00004664,EURO39,GGLMCASH00004665,EURO40,GGLMCASH00004666,EURO41,GGLMCASH00004667;2299.00;;;;;;;;zerotype;;Spring;;No
1824679;LT-520-376-Cream-1824679;LT-520-376-Cream;Draft;Casual Shoes;Get Glamr;Adults-Women;Women;;;;Fashion;;2017;EURO36,GGLMCASH00004656,EURO37,GGLMCASH00004657,EURO38,GGLMCASH00004658,EURO39,GGLMCASH00004659,EURO40,GGLMCASH00004660,EURO41,GGLMCASH00004661;2299.00;;;;;;;;zerotype;;Spring;;No
1824678;LT-520-351-Multi-1824678;LT-520-351-Multi;Draft;Casual Shoes;Get Glamr;Adults-Women;Women;;;;Fashion;;2017;EURO36,GGLMCASH00004650,EURO37,GGLMCASH00004651,EURO38,GGLMCASH00004652,EURO39,GGLMCASH00004653,EURO40,GGLMCASH00004654,EURO41,GGLMCASH00004655;2299.00;;;;;;;;zerotype;;Spring;;No
1824677;LT-520-337-Brown-1824677;LT-520-337-Brown;Draft;Casual Shoes;Get Glamr;Adults-Women;Women;;;;Fashion;;2017;EURO36,GGLMCASH00004644,EURO37,GGLMCASH00004645,EURO38,GGLMCASH00004646,EURO39,GGLMCASH00004647,EURO40,GGLMCASH00004648,EURO41,GGLMCASH00004649;2499.00;;;;;;;;zerotype;;Spring;;No
1824676;LT-520-337-Black-1824676;LT-520-337-Black;Draft;Casual Shoes;Get Glamr;Adults-Women;Women;;;;Fashion;;2017;EURO36,GGLMCASH00004638,EURO37,GGLMCASH00004639,EURO38,GGLMCASH00004640,EURO39,GGLMCASH00004641,EURO40,GGLMCASH00004642,EURO41,GGLMCASH00004643;2499.00;;;;;;;;zerotype;;Spring;;No
1824675;LT-520-328-Multi-1824675;LT-520-328-Multi;Draft;Casual Shoes;Get Glamr;Adults-Women;Women;;;;Fashion;;2017;EURO36,GGLMCASH00004632,EURO37,GGLMCASH00004633,EURO38,GGLMCASH00004634,EURO39,GGLMCASH00004635,EURO40,GGLMCASH00004636,EURO41,GGLMCASH00004637;2299.00;;;;;;;;zerotype;;Spring;;No
1824673;LT-520-16A-Beige-1824673;LT-520-16A-Beige;Draft;Casual Shoes;Get Glamr;Adults-Women;Women;;;;Fashion;;2017;EURO36,GGLMCASH00004626,EURO37,GGLMCASH00004627,EURO38,GGLMCASH00004628,EURO39,GGLMCASH00004629,EURO40,GGLMCASH00004630,EURO41,GGLMCASH00004631;2299.00;;;;;;;;zerotype;;Spring;;No
1824672;LT-103-4-Black-1824672;LT-103-4-Black;Draft;Casual Shoes;Get Glamr;Adults-Women;Women;;;;Fashion;;2017;EURO36,GGLMCASH00004620,EURO37,GGLMCASH00004621,EURO38,GGLMCASH00004622,EURO39,GGLMCASH00004623,EURO40,GGLMCASH00004624,EURO41,GGLMCASH00004625;3499.00;;;;;;;;zerotype;;Spring;;No
1824671;LT-003-7-Silver-1824671;LT-003-7-Silver;Draft;Casual Shoes;Get Glamr;Adults-Women;Women;;;;Fashion;;2017;EURO36,GGLMCASH00004614,EURO37,GGLMCASH00004615,EURO38,GGLMCASH00004616,EURO39,GGLMCASH00004617,EURO40,GGLMCASH00004618,EURO41,GGLMCASH00004619;2299.00;;;;;;;;zerotype;;Spring;;No
1824670;LT-003-7-Gold-1824670;LT-003-7-Gold;Draft;Casual Shoes;Get Glamr;Adults-Women;Women;;;;Fashion;;2017;EURO36,GGLMCASH00004608,EURO37,GGLMCASH00004609,EURO38,GGLMCASH00004610,EURO39,GGLMCASH00004611,EURO40,GGLMCASH00004612,EURO41,GGLMCASH00004613;2299.00;;;;;;;;zerotype;;Spring;;No
1630663;LT-KP-3132A-Blue-1630663;LT-KP-3132A-Blue;Active;Flats;Get Glamr;Adults-Women;Women;Blue;;;Fashion;Casual;2016;EURO36,GGLMFlats00003808,EURO37,GGLMFlats00003809,EURO38,GGLMFlats00003810,EURO39,GGLMFlats00003811,EURO40,GGLMFlats00003812,EURO41,GGLMFlats00003813;1699.00;A pair of open-toed <a href='/blue-flats?src=pd' class='seolink'>blue flats</a><br>Synthetic upper, has a forefoot strap, an ankle loop<br>Cushioned footbed<br>Textured and patterned outsole;These breathable flats Get Glamr flats are ideal for any fashionista's wardrobe. Team this blue pair with a printed top, jeans and sling bag when heading out for a lunch date.;Synthetic <br> Wipe with a clean, dry cloth to remove dust;;;Get Glamr Women Blue Solid Open-Toed Flats;Get Glamr,JIT,15Perc-Off-FW-Nov16,20Perc-Off-FW-Nov16,500-Off-FW-Nov-16,1000-Off-FW-Nov-16,flats-and-casual-shoes-menu-infocus-white-soled-flats,foryou15,coupon-offer-monday,super-hour-mar17;zerotype;;Fall;super-hour-mar17;No
1625492;LT-RK-4324A-Black-1625492;LT-RK-4324A-Black;Active;Flats;Get Glamr;Adults-Women;Women;Black;;;Fashion;Casual;2016;EURO36,GGLMFlats00003802,EURO37,GGLMFlats00003803,EURO38,GGLMFlats00003804,EURO39,GGLMFlats00003805,EURO40,GGLMFlats00003806,EURO41,GGLMFlats00003807;1699.00;A pair of open-toed <a href='/black-flats?src=pd' class='seolink'>black flats</a>, has mid-top styling with&nbsp zip closure on the back<br>Synthetic upper<br>Cushioned footbed<br>Textured and patterned outsole;Show off your playful side with these fun open-toed Get Glamr flats.  Team this black pair with a printed top, jeans and sling bag when heading out for a lunch date.;Synthetic <br> Wipe with a clean, dry cloth to remove dust;;;Get Glamr Women Black Solid Flats;Get Glamr,JIT,foryou15,vacation-store-women-beach-footwear,v-day-deals-11feb,weekend-offer-styles,wishlisters-wish10-feb25,coupon-offer-monday,super-hour-mar17;zerotype;;Fall;super-hour-mar17;No
1625491;LT-KP-4546A-Gold-1625491;LT-KP-4546A-Gold;Active;Flats;Get Glamr;Adults-Women;Women;Silver;;;Fashion;Casual;2016;EURO36,GGLMFlats00003796,EURO37,GGLMFlats00003797,EURO38,GGLMFlats00003798,EURO39,GGLMFlats00003799,EURO40,GGLMFlats00003800,EURO41,GGLMFlats00003801;1699.00;A pair of open-toed silver-toned <a href='/flats?src=pd' class='seolink'>flats</a> with embellished detail, has a buckle closure<br>Synthetic upper<br>Cushioned footbed<br>Textured and patterned outsole;Try on a pair of these open-toed Get Glamr flats.  Team this silver pair with a printed top, jeans and sling bag when heading out for a lunch date.;Synthetic <br> Wipe with a clean, dry cloth to remove dust;;;Get Glamr Women Silver-Toned Flats with Embellished Detail;Get Glamr,JIT,footwear-partytheme-2016,flats-and-casual-shoes-menu-infocus-white-soled-flats,foryou15,v-day-deals-11feb,wishlisters-wish10-feb25,coupon-offer-monday,super-hour-mar17;zerotype;;Fall;super-hour-mar17;No
1625490;LT-KP-1248A-Brown-1625490;LT-KP-1248A-Brown;Active;Flats;Get Glamr;Adults-Women;Women;Gold;;;Fashion;Casual;2016;EURO36,GGLMFlats00003790,EURO37,GGLMFlats00003791,EURO38,GGLMFlats00003792,EURO39,GGLMFlats00003793,EURO40,GGLMFlats00003794,EURO41,GGLMFlats00003795;999.00;A pair of open-toed gold-toned embellished <a href='/flats?src=pd' class='seolink'>flats</a>, has a buckle closure<br>Synthetic upper, has a T-strap<br>Cushioned footbed<br>Textured and patterned outsole;Stay trendy this season with a brand new pair of chic T-Strap Get Glamr flats.  This gold pair can be matched with trim denims and a pretty top when you're meeting the girls for drinks.;Synthetic <br> Wipe with a clean, dry cloth to remove dust;;;Get Glamr Women Gold-Toned Embellished Flats;Get Glamr,JIT;zerotype;;Fall;File 5 : relisting post seller migration;No
1625489;LT-KP-1248A-Black-1625489;LT-KP-1248A-Black;Active;Flats;Get Glamr;Adults-Women;Women;Black;;;Fashion;Casual;2016;EURO36,GGLMFlats00003784,EURO37,GGLMFlats00003785,EURO38,GGLMFlats00003786,EURO39,GGLMFlats00003787,EURO40,GGLMFlats00003788,EURO41,GGLMFlats00003789;999.00;A pair of open-toed <a href='/black-sandals?src=pd' class='seolink'>black sandals</a>, has buckle detail<br>Synthetic upper with a T-strap<br>Cushioned footbed<br>Textured and patterned outsole;For long-lasting comfort and style, look no further than these adorable T-strap Get Glamr flats. Style this black pair with dark wash jeans and a cute tank top for a must-have dinner outfit.;Synthetic <br> Wipe with a clean, dry cloth to remove dust;;;Get Glamr Women Black Solid Sandals;Get Glamr,JIT,wishlisters-wish10-feb25,coupon-offer-monday,super-hour-mar17;zerotype;;Fall;super-hour-mar17;No
1526595;LT-KP-2526A-Yellow-1526595;LT-KP-2526A-Yellow;Delisted;Flats;Get Glamr;Adults-Women;Women;Yellow;;;Fashion;Casual;2016;EURO36,GGLMFlats00003724,EURO37,GGLMFlats00003725,EURO38,GGLMFlats00003726,EURO39,GGLMFlats00003727,EURO40,GGLMFlats00003728,EURO41,GGLMFlats00003729;999.00;A pair of <a href='/yellow-flats?src=pd' class='seolink'>yellow flats</a>, has buckle closure<br>Synthetic upper<br>Cushioned footbed<br>Textured and patterned outsole;Treat your feet to a breathable and stylish pair of T-strap Get Glamr flats.  Perfect for an outdoor concert, this yellow pair can be worn with your favourite casual dress.;Synthetic <br> Wipe with a clean, dry cloth to remove dust;;;Get Glamr Women Yellow Solid Flats;Get Glamr,JIT,bbd-tstrap-flats,first-time-on-discount-10oct,diwali-womenfootwear-oct,wedding-bride-flats-heels,wedding-all;zerotype;;Summer;wedding-all;No
