Style ID;Vendor Article Number;Vendor Article Name;Active Status;Article type;Brand;Age Group;Gender;Base Colour;Colour1;Colour2;Fashion Type;Usage;Year;Size - SKU code pair;MRP;Style Description;Style Note;Materials and Care Description;Size and Fit Description;Size Chart Path;Product Display Name;Tags;Product Type;Classification Brand;Season;Comments;Upload Images
1896171;LITCPR022 BLACK-BLACK-1896171;Black Capri;Draft;Capris;Westwood;Adults-Women;Women;;;;Fashion;Casual;2017;28,WSWDCPRI00000315,30,WSWDCPRI00000316,32,WSWDCPRI00000317,34,WSWDCPRI00000318,36,WSWDCPRI00000319,38,WSWDCPRI00000320,40,WSWDCPRI00000321;1499.00;;;;;;;;zerotype;;Summer;;No
1896170;HYNELLY009 NAVY-NAVY-1896170;Blue Jegging;Draft;Jeggings;Westwood;Adults-Women;Women;;;;Fashion;Casual;2017;28,WSWDJGNG00003427,30,WSWDJGNG00003428,32,WSWDJGNG00003429,34,WSWDJGNG00003430,36,WSWDJGNG00003431,38,WSWDJGNG00003432,40,WSWDJGNG00003433;1899.00;;;;;;;;zerotype;;Summer;;No
1896169;HYNELLY009 BLACK-BLACK-1896169;Black Jegging;Draft;Jeggings;Westwood;Adults-Women;Women;;;;Fashion;Casual;2017;28,WSWDJGNG00003420,30,WSWDJGNG00003421,32,WSWDJGNG00003422,34,WSWDJGNG00003423,36,WSWDJGNG00003424,38,WSWDJGNG00003425,40,WSWDJGNG00003426;1899.00;;;;;;;;zerotype;;Summer;;No
1896168;LITJG046 BLUE-BLUE-1896168;Blue Jegging;Draft;Jeggings;Westwood;Adults-Women;Women;;;;Fashion;Casual;2017;28,WSWDJGNG00003413,30,WSWDJGNG00003414,32,WSWDJGNG00003415,34,WSWDJGNG00003416,36,WSWDJGNG00003417,38,WSWDJGNG00003418,40,WSWDJGNG00003419;1899.00;;;;;;;;zerotype;;Summer;;No
1896167;LITJG046 BLACK-BLACK-1896167;Black Jegging;Draft;Jeggings;Westwood;Adults-Women;Women;;;;Fashion;Casual;2017;28,WSWDJGNG00003406,30,WSWDJGNG00003407,32,WSWDJGNG00003408,34,WSWDJGNG00003409,36,WSWDJGNG00003410,38,WSWDJGNG00003411,40,WSWDJGNG00003412;1899.00;;;;;;;;zerotype;;Summer;;No
1896166;HYR06 BLACK-BLACK-1896166;Black Jegging;Draft;Jeggings;Westwood;Adults-Women;Women;;;;Fashion;Casual;2017;28,WSWDJGNG00003401,30,WSWDJGNG00003402,32,WSWDJGNG00003403,34,WSWDJGNG00003404,36,WSWDJGNG00003405;1799.00;;;;;;;;zerotype;;Summer;;No
1891056;LITCPR021 WHITE-WHITE-1891056;White Capri;Draft;Capris;Westwood;Adults-Women;Women;;;;Fashion;;2017;28,WSWDCPRI00000309,30,WSWDCPRI00000310,32,WSWDCPRI00000311,34,WSWDCPRI00000312,36,WSWDCPRI00000313,38,WSWDCPRI00000314;1499.00;;;;;;;;zerotype;;Summer;;No
1891054;LITCPR022 PINK-PINK-1891054;Pink Capri;Draft;Capris;Westwood;Adults-Women;Women;;;;Fashion;;2017;28,WSWDCPRI00000302,30,WSWDCPRI00000303,32,WSWDCPRI00000304,34,WSWDCPRI00000305,36,WSWDCPRI00000306,38,WSWDCPRI00000307,40,WSWDCPRI00000308;1499.00;;;;;;;;zerotype;;Summer;;No
1891053;LITCPR022 GREY-GREY-1891053;Grey Capri;Draft;Capris;Westwood;Adults-Women;Women;;;;Fashion;;2017;28,WSWDCPRI00000295,30,WSWDCPRI00000296,32,WSWDCPRI00000297,34,WSWDCPRI00000298,36,WSWDCPRI00000299,38,WSWDCPRI00000300,40,WSWDCPRI00000301;1499.00;;;;;;;;zerotype;;Summer;;No
695989;DHYLJG027 GREY-GREY-695989;Westwood jeggings;Active;Jeggings;Westwood;Adults-Women;Women;Grey;;;Fashion;Casual;2015;28,WSWDJGNG00000010,30,WSWDJGNG00000011,32,WSWDJGNG00000012,34,WSWDJGNG00000013,36,WSWDJGNG00000014,38,WSWDJGNG00000015,40,WSWDJGNG00000016;1349.00;<p>A pair of grey mid-rise <a href='/jeggings?src=pd' class='seolink'>jeggings</a>, has an elasticated waistband, scoop pockets with metal rivets on either side of the front, 2 patch pockets on either side of the back, tapered legs<br><br><br><p><br></p>;<p>This pair of jeans from Westwood is an absolute wardrobe classic. For the days when you have no idea how to work your wardrobe, team this pair with a t-shirt for a quick fix.</p>;<p>Cotton<br>Hand wash</p>;<p>The model (height 5'8" and waist 28") is wearing a size 28</p>;;Westwood Women Grey Slim Fit Jeggings;,,Westwood,HH24MARCH2015,HH28APRIL2015,,HH12MAY2015,mw0206,,,,,,,HH20AUG2915,,,HH19NOV2015,MINIHH23NOV,ios-promo-25nov,HH26NOV2015,,HH16DEC,hh08jan16,HH18JAN15,welcome-to-myntra-april,ftod-bfg,apr12-super-hour,bnb-styles-apr,summer-style-apr,after-match-apr,take20-apr17;Jeggings;Westwood;Summer;apr15-hh;No
