Style ID;Vendor Article Number;Vendor Article Name;Active Status;Article type;Brand;Age Group;Gender;Base Colour;Colour1;Colour2;Fashion Type;Usage;Year;Size - SKU code pair;MRP;Style Description;Style Note;Materials and Care Description;Size and Fit Description;Size Chart Path;Product Display Name;Tags;Product Type;Classification Brand;Season;Comments;Upload Images
2438843;CORE-ITDND045-Blue-2438843;Men's Denim;Draft;Jeans;Indian Terrain;Adults-Men;Men;Blue;;;Fashion;Casual;2017;40,INTRJENS00000851,36,INTRJENS00000852,34,INTRJENS00000853,52,INTRJENS00000854,32,INTRJENS00000855,50,INTRJENS00000856,30,INTRJENS00000857,28,INTRJENS00000858,42,INTRJENS00000859,38,INTRJENS00000860;2499.00;;;<p>ENZYME SOFTNER WASH</p>;;;na;;zerotype;;Winter;;No
2438841;ITS17DND001-Blue-2438841;Men's Denim;Draft;Jeans;Indian Terrain;Adults-Men;Men;Blue;;;Fashion;Casual;2017;28,INTRJENS00000844,40,INTRJENS00000845,34,INTRJENS00000846,30,INTRJENS00000847,38,INTRJENS00000848,36,INTRJENS00000849,42,INTRJENS00000850;2299.00;;;<p>ENZYME SOFTNER WASH</p>;;;na;;zerotype;;Summer;;No
2438838;ITA17DND009-Blue-2438838;Men's Denim;Draft;Jeans;Indian Terrain;Adults-Men;Men;Blue;;;Fashion;Casual;2017;52,INTRJENS00000834,44,INTRJENS00000835,42,INTRJENS00000836,32,INTRJENS00000837,40,INTRJENS00000838,30,INTRJENS00000839,28,INTRJENS00000840,38,INTRJENS00000841,36,INTRJENS00000842,34,INTRJENS00000843;2999.00;;;<p>ENZYME SOFTNER WASH</p>;;;na;;zerotype;;Winter;;No
