Style ID;Vendor Article Number;Vendor Article Name;Active Status;Article type;Brand;Age Group;Gender;Base Colour;Colour1;Colour2;Fashion Type;Usage;Year;Size - SKU code pair;MRP;Style Description;Style Note;Materials and Care Description;Size and Fit Description;Size Chart Path;Product Display Name;Tags;Product Type;Classification Brand;Season;Comments;Upload Images
2166181;BREEZ-WHN-TRESSME-2-SKY-Burgundy Turquoise Blue-2166181;Pack of 2 Light Padded T-Shirt Bras;Draft;Bra;Lady Lyka;Adults-Women;Women;;;;Fashion;;2017;30B,LYLABRAA00005120,32B,LYLABRAA00005121,34B,LYLABRAA00005122,36B,LYLABRAA00005123,38B,LYLABRAA00005124,40B,LYLABRAA00005125;750.00;;;;;;;;zerotype;;Fall;;No
2166179;BREEZ-WHN-TRESSME-2-PNK-Burgundy Pink-2166179;Pack of 2 Light Padded T-Shirt Bras;Draft;Bra;Lady Lyka;Adults-Women;Women;;;;Fashion;;2017;30B,LYLABRAA00005114,32B,LYLABRAA00005115,34B,LYLABRAA00005116,36B,LYLABRAA00005117,38B,LYLABRAA00005118,40B,LYLABRAA00005119;750.00;;;;;;;;zerotype;;Fall;;No
2166177;BREEZ-WHN-MISTIQUE-SKN-Burgundy Beige-2166177;Pack of 2 Light Padded T-Shirt Bras;Draft;Bra;Lady Lyka;Adults-Women;Women;;;;Fashion;;2017;30B,LYLABRAA00005108,32B,LYLABRAA00005109,34B,LYLABRAA00005110,36B,LYLABRAA00005111,38B,LYLABRAA00005112,40B,LYLABRAA00005113;750.00;;;;;;;;zerotype;;Fall;;No
2166174;BREEZ-WHN-MISTIQUE-PPL-Burgundy Purple-2166174;Pack of 2 Light Padded T-Shirt Bras;Draft;Bra;Lady Lyka;Adults-Women;Women;;;;Fashion;;2017;30B,LYLABRAA00005102,32B,LYLABRAA00005103,34B,LYLABRAA00005104,36B,LYLABRAA00005105,38B,LYLABRAA00005106,40B,LYLABRAA00005107;750.00;;;;;;;;zerotype;;Fall;;No
2166172;BREEZ-WHN-MISTIQUE-PNK-Burgundy Pink-2166172;Pack of 2 Light Padded T-Shirt Bras;Draft;Bra;Lady Lyka;Adults-Women;Women;;;;Fashion;;2017;30B,LYLABRAA00005096,32B,LYLABRAA00005097,34B,LYLABRAA00005098,36B,LYLABRAA00005099,38B,LYLABRAA00005100,40B,LYLABRAA00005101;750.00;;;;;;;;zerotype;;Fall;;No
2166170;BREEZ-WHN-MISTIQUE-PLM-Burgundy Peach-2166170;Pack of 2 Light Padded T-Shirt Bras;Draft;Bra;Lady Lyka;Adults-Women;Women;;;;Fashion;;2017;30B,LYLABRAA00005090,32B,LYLABRAA00005091,34B,LYLABRAA00005092,36B,LYLABRAA00005093,38B,LYLABRAA00005094,40B,LYLABRAA00005095;750.00;;;;;;;;zerotype;;Fall;;No
2166168;BREEZ-WHN-MISTIQUE-MRN-Burgundy Maroon-2166168;Pack of 2 Light Padded T-Shirt Bras;Draft;Bra;Lady Lyka;Adults-Women;Women;;;;Fashion;;2017;30B,LYLABRAA00005084,32B,LYLABRAA00005085,34B,LYLABRAA00005086,36B,LYLABRAA00005087,38B,LYLABRAA00005088,40B,LYLABRAA00005089;750.00;;;;;;;;zerotype;;Fall;;No
2166166;BREEZ-WHN-MISTIQUE-BLK-Burgundy Black-2166166;Pack of 2 Light Padded T-Shirt Bras;Draft;Bra;Lady Lyka;Adults-Women;Women;;;;Fashion;;2017;30B,LYLABRAA00005078,32B,LYLABRAA00005079,34B,LYLABRAA00005080,36B,LYLABRAA00005081,38B,LYLABRAA00005082,40B,LYLABRAA00005083;750.00;;;;;;;;zerotype;;Fall;;No
2166164;BREEZ-WHN-HIDEOUTS-SKY-Burgundy Turquoise Blue-2166164;Pack of 2 Light Padded T-Shirt Bras;Draft;Bra;Lady Lyka;Adults-Women;Women;;;;Fashion;;2017;30B,LYLABRAA00005072,32B,LYLABRAA00005073,34B,LYLABRAA00005074,36B,LYLABRAA00005075,38B,LYLABRAA00005076,40B,LYLABRAA00005077;750.00;;;;;;;;zerotype;;Fall;;No
2166162;BREEZ-WHN-HIDEOUTS-ORG-Burgundy Orange-2166162;Pack of 2 Light Padded T-Shirt Bras;Draft;Bra;Lady Lyka;Adults-Women;Women;;;;Fashion;;2017;30B,LYLABRAA00005066,32B,LYLABRAA00005067,34B,LYLABRAA00005068,36B,LYLABRAA00005069,38B,LYLABRAA00005070,40B,LYLABRAA00005071;750.00;;;;;;;;zerotype;;Fall;;No
2166160;BREEZ-WHN-HIDEOUTS-FCA-Burgundy Magenta-2166160;Pack of 2 Light Padded T-Shirt Bras;Draft;Bra;Lady Lyka;Adults-Women;Women;;;;Fashion;;2017;30B,LYLABRAA00005060,32B,LYLABRAA00005061,34B,LYLABRAA00005062,36B,LYLABRAA00005063,38B,LYLABRAA00005064,40B,LYLABRAA00005065;750.00;;;;;;;;zerotype;;Fall;;No
2166157;BREEZ-WHN-DENIM-6-GRY-Burgundy Grey-2166157;Pack of 2 Light Padded T-Shirt Bras;Draft;Bra;Lady Lyka;Adults-Women;Women;;;;Fashion;;2017;30B,LYLABRAA00005054,32B,LYLABRAA00005055,34B,LYLABRAA00005056,36B,LYLABRAA00005057,38B,LYLABRAA00005058,40B,LYLABRAA00005059;825.00;;;;;;;;zerotype;;Fall;;No
2166156;BREEZ-WHN-DENIM-5-BLU-Burgundy Blue-2166156;Pack of 2 Light Padded T-Shirt Bras;Draft;Bra;Lady Lyka;Adults-Women;Women;;;;Fashion;;2017;30B,LYLABRAA00005048,32B,LYLABRAA00005049,34B,LYLABRAA00005050,36B,LYLABRAA00005051,38B,LYLABRAA00005052,40B,LYLABRAA00005053;825.00;;;;;;;;zerotype;;Fall;;No
2166155;BREEZ-WHN-DENIM-4-BLU-Burgundy Blue-2166155;Pack of 2 Light Padded T-Shirt Bras;Draft;Bra;Lady Lyka;Adults-Women;Women;;;;Fashion;;2017;30B,LYLABRAA00005042,32B,LYLABRAA00005043,34B,LYLABRAA00005044,36B,LYLABRAA00005045,38B,LYLABRAA00005046,40B,LYLABRAA00005047;825.00;;;;;;;;zerotype;;Fall;;No
2166154;BREEZ-WHN-DENIM-3-BLU-Burgundy Blue-2166154;Pack of 2 Light Padded T-Shirt Bras;Draft;Bra;Lady Lyka;Adults-Women;Women;;;;Fashion;;2017;30B,LYLABRAA00005036,32B,LYLABRAA00005037,34B,LYLABRAA00005038,36B,LYLABRAA00005039,38B,LYLABRAA00005040,40B,LYLABRAA00005041;825.00;;;;;;;;zerotype;;Fall;;No
2166153;BREEZ-WHN-DENIM-2-BLK-Burgundy Black-2166153;Pack of 2 Light Padded T-Shirt Bras;Draft;Bra;Lady Lyka;Adults-Women;Women;;;;Fashion;;2017;30B,LYLABRAA00005030,32B,LYLABRAA00005031,34B,LYLABRAA00005032,36B,LYLABRAA00005033,38B,LYLABRAA00005034,40B,LYLABRAA00005035;825.00;;;;;;;;zerotype;;Fall;;No
2166152;BREEZ-WHN-DENIM-1-BLU-Burgundy Blue-2166152;Pack of 2 Light Padded T-Shirt Bras;Draft;Bra;Lady Lyka;Adults-Women;Women;;;;Fashion;;2017;30B,LYLABRAA00005024,32B,LYLABRAA00005025,34B,LYLABRAA00005026,36B,LYLABRAA00005027,38B,LYLABRAA00005028,40B,LYLABRAA00005029;825.00;;;;;;;;zerotype;;Fall;;No
2166151;BREEZ-WHN-BLACK-ROSE-3-BLK-Burgundy Black-2166151;Pack of 2 Light Padded T-Shirt Bras;Draft;Bra;Lady Lyka;Adults-Women;Women;;;;Fashion;;2017;30B,LYLABRAA00005018,32B,LYLABRAA00005019,34B,LYLABRAA00005020,36B,LYLABRAA00005021,38B,LYLABRAA00005022,40B,LYLABRAA00005023;825.00;;;;;;;;zerotype;;Fall;;No
2166150;BREEZ-WHN-BLACK-ROSE-2-BLK-Burgundy Black-2166150;Pack of 2 Light Padded T-Shirt Bras;Draft;Bra;Lady Lyka;Adults-Women;Women;;;;Fashion;;2017;30B,LYLABRAA00005012,32B,LYLABRAA00005013,34B,LYLABRAA00005014,36B,LYLABRAA00005015,38B,LYLABRAA00005016,40B,LYLABRAA00005017;825.00;;;;;;;;zerotype;;Fall;;No
2166149;BREEZ-WHN-BLACK-ROSE-1-BLK-Burgundy Black-2166149;Pack of 2 Light Padded T-Shirt Bras;Draft;Bra;Lady Lyka;Adults-Women;Women;;;;Fashion;;2017;30B,LYLABRAA00005006,32B,LYLABRAA00005007,34B,LYLABRAA00005008,36B,LYLABRAA00005009,38B,LYLABRAA00005010,40B,LYLABRAA00005011;825.00;;;;;;;;zerotype;;Fall;;No
2166148;BREEZ-WHN-ATTRACTIONS-SKY-Burgundy Turquoise Blue-2166148;Pack of 2 Light Padded T-Shirt Bras;Draft;Bra;Lady Lyka;Adults-Women;Women;;;;Fashion;;2017;30B,LYLABRAA00005000,32B,LYLABRAA00005001,34B,LYLABRAA00005002,36B,LYLABRAA00005003,38B,LYLABRAA00005004,40B,LYLABRAA00005005;750.00;;;;;;;;zerotype;;Fall;;No
2166147;BREEZ-WHN-ATTRACTIONS-PNK-Burgundy Pink-2166147;Pack of 2 Light Padded T-Shirt Bras;Draft;Bra;Lady Lyka;Adults-Women;Women;;;;Fashion;;2017;30B,LYLABRAA00004994,32B,LYLABRAA00004995,34B,LYLABRAA00004996,36B,LYLABRAA00004997,38B,LYLABRAA00004998,40B,LYLABRAA00004999;750.00;;;;;;;;zerotype;;Fall;;No
2166146;BREEZ-SKN-TRESSME-2-SKY-Beige Turquoise Blue-2166146;Pack of 2 Light Padded T-Shirt Bras;Draft;Bra;Lady Lyka;Adults-Women;Women;;;;Fashion;;2017;30B,LYLABRAA00004988,32B,LYLABRAA00004989,34B,LYLABRAA00004990,36B,LYLABRAA00004991,38B,LYLABRAA00004992,40B,LYLABRAA00004993;750.00;;;;;;;;zerotype;;Fall;;No
2166145;BREEZ-SKN-TRESSME-2-PNK-Beige Pink-2166145;Pack of 2 Light Padded T-Shirt Bras;Draft;Bra;Lady Lyka;Adults-Women;Women;;;;Fashion;;2017;30B,LYLABRAA00004982,32B,LYLABRAA00004983,34B,LYLABRAA00004984,36B,LYLABRAA00004985,38B,LYLABRAA00004986,40B,LYLABRAA00004987;750.00;;;;;;;;zerotype;;Fall;;No
2166144;BREEZ-SKN-MISTIQUE-WHN-Beige Burgundy-2166144;Pack of 2 Light Padded T-Shirt Bras;Draft;Bra;Lady Lyka;Adults-Women;Women;;;;Fashion;;2017;30B,LYLABRAA00004976,32B,LYLABRAA00004977,34B,LYLABRAA00004978,36B,LYLABRAA00004979,38B,LYLABRAA00004980,40B,LYLABRAA00004981;750.00;;;;;;;;zerotype;;Fall;;No
2166143;BREEZ-SKN-MISTIQUE-PPL-Beige Purple-2166143;Pack of 2 Light Padded T-Shirt Bras;Draft;Bra;Lady Lyka;Adults-Women;Women;;;;Fashion;;2017;30B,LYLABRAA00004970,32B,LYLABRAA00004971,34B,LYLABRAA00004972,36B,LYLABRAA00004973,38B,LYLABRAA00004974,40B,LYLABRAA00004975;750.00;;;;;;;;zerotype;;Fall;;No
2166142;BREEZ-SKN-MISTIQUE-PNK-Beige Pink-2166142;Pack of 2 Light Padded T-Shirt Bras;Draft;Bra;Lady Lyka;Adults-Women;Women;;;;Fashion;;2017;30B,LYLABRAA00004964,32B,LYLABRAA00004965,34B,LYLABRAA00004966,36B,LYLABRAA00004967,38B,LYLABRAA00004968,40B,LYLABRAA00004969;750.00;;;;;;;;zerotype;;Fall;;No
2166141;BREEZ-SKN-MISTIQUE-PLM-Beige Peach-2166141;Pack of 2 Light Padded T-Shirt Bras;Draft;Bra;Lady Lyka;Adults-Women;Women;;;;Fashion;;2017;30B,LYLABRAA00004958,32B,LYLABRAA00004959,34B,LYLABRAA00004960,36B,LYLABRAA00004961,38B,LYLABRAA00004962,40B,LYLABRAA00004963;750.00;;;;;;;;zerotype;;Fall;;No
2166140;BREEZ-SKN-MISTIQUE-MRN-Beige Maroon-2166140;Pack of 2 Light Padded T-Shirt Bras;Draft;Bra;Lady Lyka;Adults-Women;Women;;;;Fashion;;2017;30B,LYLABRAA00004952,32B,LYLABRAA00004953,34B,LYLABRAA00004954,36B,LYLABRAA00004955,38B,LYLABRAA00004956,40B,LYLABRAA00004957;750.00;;;;;;;;zerotype;;Fall;;No
2166139;BREEZ-SKN-MISTIQUE-BLK-Beige Black-2166139;Pack of 2 Light Padded T-Shirt Bras;Draft;Bra;Lady Lyka;Adults-Women;Women;;;;Fashion;;2017;30B,LYLABRAA00004946,32B,LYLABRAA00004947,34B,LYLABRAA00004948,36B,LYLABRAA00004949,38B,LYLABRAA00004950,40B,LYLABRAA00004951;750.00;;;;;;;;zerotype;;Fall;;No
2166138;BREEZ-SKN-HIDEOUTS-SKY-Beige Turquoise Blue-2166138;Pack of 2 Light Padded T-Shirt Bras;Draft;Bra;Lady Lyka;Adults-Women;Women;;;;Fashion;;2017;30B,LYLABRAA00004940,32B,LYLABRAA00004941,34B,LYLABRAA00004942,36B,LYLABRAA00004943,38B,LYLABRAA00004944,40B,LYLABRAA00004945;750.00;;;;;;;;zerotype;;Fall;;No
2166137;BREEZ-SKN-HIDEOUTS-ORG-Beige Orange-2166137;Pack of 2 Light Padded T-Shirt Bras;Draft;Bra;Lady Lyka;Adults-Women;Women;;;;Fashion;;2017;30B,LYLABRAA00004934,32B,LYLABRAA00004935,34B,LYLABRAA00004936,36B,LYLABRAA00004937,38B,LYLABRAA00004938,40B,LYLABRAA00004939;750.00;;;;;;;;zerotype;;Fall;;No
2166136;BREEZ-SKN-HIDEOUTS-FCA-Beige Magenta-2166136;Pack of 2 Light Padded T-Shirt Bras;Draft;Bra;Lady Lyka;Adults-Women;Women;;;;Fashion;;2017;30B,LYLABRAA00004928,32B,LYLABRAA00004929,34B,LYLABRAA00004930,36B,LYLABRAA00004931,38B,LYLABRAA00004932,40B,LYLABRAA00004933;750.00;;;;;;;;zerotype;;Fall;;No
2166135;BREEZ-SKN-DENIM-6-GRY-Beige Grey-2166135;Pack of 2 Light Padded T-Shirt Bras;Draft;Bra;Lady Lyka;Adults-Women;Women;;;;Fashion;;2017;30B,LYLABRAA00004922,32B,LYLABRAA00004923,34B,LYLABRAA00004924,36B,LYLABRAA00004925,38B,LYLABRAA00004926,40B,LYLABRAA00004927;825.00;;;;;;;;zerotype;;Fall;;No
2166134;BREEZ-SKN-DENIM-5-BLU-Beige Blue-2166134;Pack of 2 Light Padded T-Shirt Bras;Draft;Bra;Lady Lyka;Adults-Women;Women;;;;Fashion;;2017;30B,LYLABRAA00004916,32B,LYLABRAA00004917,34B,LYLABRAA00004918,36B,LYLABRAA00004919,38B,LYLABRAA00004920,40B,LYLABRAA00004921;825.00;;;;;;;;zerotype;;Fall;;No
2166133;BREEZ-SKN-DENIM-4-BLU-Beige Blue-2166133;Pack of 2 Light Padded T-Shirt Bras;Draft;Bra;Lady Lyka;Adults-Women;Women;;;;Fashion;;2017;30B,LYLABRAA00004910,32B,LYLABRAA00004911,34B,LYLABRAA00004912,36B,LYLABRAA00004913,38B,LYLABRAA00004914,40B,LYLABRAA00004915;825.00;;;;;;;;zerotype;;Fall;;No
2166132;BREEZ-SKN-DENIM-3-BLU-Beige Blue-2166132;Pack of 2 Light Padded T-Shirt Bras;Draft;Bra;Lady Lyka;Adults-Women;Women;;;;Fashion;;2017;30B,LYLABRAA00004904,32B,LYLABRAA00004905,34B,LYLABRAA00004906,36B,LYLABRAA00004907,38B,LYLABRAA00004908,40B,LYLABRAA00004909;825.00;;;;;;;;zerotype;;Fall;;No
2166131;BREEZ-SKN-DENIM-2-BLK-Beige Black-2166131;Pack of 2 Light Padded T-Shirt Bras;Draft;Bra;Lady Lyka;Adults-Women;Women;;;;Fashion;;2017;30B,LYLABRAA00004898,32B,LYLABRAA00004899,34B,LYLABRAA00004900,36B,LYLABRAA00004901,38B,LYLABRAA00004902,40B,LYLABRAA00004903;825.00;;;;;;;;zerotype;;Fall;;No
2166130;BREEZ-SKN-DENIM-1-BLU-Beige Blue-2166130;Pack of 2 Light Padded T-Shirt Bras;Draft;Bra;Lady Lyka;Adults-Women;Women;;;;Fashion;;2017;30B,LYLABRAA00004892,32B,LYLABRAA00004893,34B,LYLABRAA00004894,36B,LYLABRAA00004895,38B,LYLABRAA00004896,40B,LYLABRAA00004897;825.00;;;;;;;;zerotype;;Fall;;No
2166129;BREEZ-SKN-BLACK-ROSE-3-BLK-Beige Black-2166129;Pack of 2 Light Padded T-Shirt Bras;Draft;Bra;Lady Lyka;Adults-Women;Women;;;;Fashion;;2017;30B,LYLABRAA00004886,32B,LYLABRAA00004887,34B,LYLABRAA00004888,36B,LYLABRAA00004889,38B,LYLABRAA00004890,40B,LYLABRAA00004891;825.00;;;;;;;;zerotype;;Fall;;No
2166128;BREEZ-SKN-BLACK-ROSE-2-BLK-Beige Black-2166128;Pack of 2 Light Padded T-Shirt Bras;Draft;Bra;Lady Lyka;Adults-Women;Women;;;;Fashion;;2017;30B,LYLABRAA00004880,32B,LYLABRAA00004881,34B,LYLABRAA00004882,36B,LYLABRAA00004883,38B,LYLABRAA00004884,40B,LYLABRAA00004885;825.00;;;;;;;;zerotype;;Fall;;No
2166127;BREEZ-SKN-BLACK-ROSE-1-BLK-Beige Black-2166127;Pack of 2 Light Padded T-Shirt Bras;Draft;Bra;Lady Lyka;Adults-Women;Women;;;;Fashion;;2017;30B,LYLABRAA00004874,32B,LYLABRAA00004875,34B,LYLABRAA00004876,36B,LYLABRAA00004877,38B,LYLABRAA00004878,40B,LYLABRAA00004879;825.00;;;;;;;;zerotype;;Fall;;No
2166126;BREEZ-SKN-ATTRACTIONS-SKY-Beige Turquoise Blue-2166126;Pack of 2 Light Padded T-Shirt Bras;Draft;Bra;Lady Lyka;Adults-Women;Women;;;;Fashion;;2017;30B,LYLABRAA00004868,32B,LYLABRAA00004869,34B,LYLABRAA00004870,36B,LYLABRAA00004871,38B,LYLABRAA00004872,40B,LYLABRAA00004873;750.00;;;;;;;;zerotype;;Fall;;No
2166125;BREEZ-SKN-ATTRACTIONS-PNK-Beige Pink-2166125;Pack of 2 Light Padded T-Shirt Bras;Draft;Bra;Lady Lyka;Adults-Women;Women;;;;Fashion;;2017;30B,LYLABRAA00004862,32B,LYLABRAA00004863,34B,LYLABRAA00004864,36B,LYLABRAA00004865,38B,LYLABRAA00004866,40B,LYLABRAA00004867;750.00;;;;;;;;zerotype;;Fall;;No
2166124;BREEZ-RED-TRESSME-2-SKY-Red Turquoise Blue-2166124;Pack of 2 Light Padded T-Shirt Bras;Draft;Bra;Lady Lyka;Adults-Women;Women;;;;Fashion;;2017;30B,LYLABRAA00004856,32B,LYLABRAA00004857,34B,LYLABRAA00004858,36B,LYLABRAA00004859,38B,LYLABRAA00004860,40B,LYLABRAA00004861;750.00;;;;;;;;zerotype;;Fall;;No
2166123;BREEZ-RED-TRESSME-2-PNK-Red Pink-2166123;Pack of 2 Light Padded T-Shirt Bras;Draft;Bra;Lady Lyka;Adults-Women;Women;;;;Fashion;;2017;30B,LYLABRAA00004850,32B,LYLABRAA00004851,34B,LYLABRAA00004852,36B,LYLABRAA00004853,38B,LYLABRAA00004854,40B,LYLABRAA00004855;750.00;;;;;;;;zerotype;;Fall;;No
2166122;BREEZ-RED-MISTIQUE-WHN-Red Burgundy-2166122;Pack of 2 Light Padded T-Shirt Bras;Draft;Bra;Lady Lyka;Adults-Women;Women;;;;Fashion;;2017;30B,LYLABRAA00004844,32B,LYLABRAA00004845,34B,LYLABRAA00004846,36B,LYLABRAA00004847,38B,LYLABRAA00004848,40B,LYLABRAA00004849;750.00;;;;;;;;zerotype;;Fall;;No
2166121;BREEZ-RED-MISTIQUE-SKN-Red Beige-2166121;Pack of 2 Light Padded T-Shirt Bras;Draft;Bra;Lady Lyka;Adults-Women;Women;;;;Fashion;;2017;30B,LYLABRAA00004838,32B,LYLABRAA00004839,34B,LYLABRAA00004840,36B,LYLABRAA00004841,38B,LYLABRAA00004842,40B,LYLABRAA00004843;750.00;;;;;;;;zerotype;;Fall;;No
2166120;BREEZ-RED-MISTIQUE-PPL-Red Purple-2166120;Pack of 2 Light Padded T-Shirt Bras;Draft;Bra;Lady Lyka;Adults-Women;Women;;;;Fashion;;2017;30B,LYLABRAA00004832,32B,LYLABRAA00004833,34B,LYLABRAA00004834,36B,LYLABRAA00004835,38B,LYLABRAA00004836,40B,LYLABRAA00004837;750.00;;;;;;;;zerotype;;Fall;;No
2166119;BREEZ-RED-MISTIQUE-PNK-Red Pink-2166119;Pack of 2 Light Padded T-Shirt Bras;Draft;Bra;Lady Lyka;Adults-Women;Women;;;;Fashion;;2017;30B,LYLABRAA00004826,32B,LYLABRAA00004827,34B,LYLABRAA00004828,36B,LYLABRAA00004829,38B,LYLABRAA00004830,40B,LYLABRAA00004831;750.00;;;;;;;;zerotype;;Fall;;No
2166118;BREEZ-RED-MISTIQUE-PLM-Red Peach-2166118;Pack of 2 Light Padded T-Shirt Bras;Draft;Bra;Lady Lyka;Adults-Women;Women;;;;Fashion;;2017;30B,LYLABRAA00004820,32B,LYLABRAA00004821,34B,LYLABRAA00004822,36B,LYLABRAA00004823,38B,LYLABRAA00004824,40B,LYLABRAA00004825;750.00;;;;;;;;zerotype;;Fall;;No
2166116;BREEZ-RED-MISTIQUE-MRN-Red Maroon-2166116;Pack of 2 Light Padded T-Shirt Bras;Draft;Bra;Lady Lyka;Adults-Women;Women;;;;Fashion;;2017;30B,LYLABRAA00004814,32B,LYLABRAA00004815,34B,LYLABRAA00004816,36B,LYLABRAA00004817,38B,LYLABRAA00004818,40B,LYLABRAA00004819;750.00;;;;;;;;zerotype;;Fall;;No
2166112;BREEZ-RED-MISTIQUE-BLK-Red Black-2166112;Pack of 2 Light Padded T-Shirt Bras;Draft;Bra;Lady Lyka;Adults-Women;Women;;;;Fashion;;2017;30B,LYLABRAA00004808,32B,LYLABRAA00004809,34B,LYLABRAA00004810,36B,LYLABRAA00004811,38B,LYLABRAA00004812,40B,LYLABRAA00004813;750.00;;;;;;;;zerotype;;Fall;;No
2166108;BREEZ-RED-HIDEOUTS-SKY-Red Turquoise Blue-2166108;Pack of 2 Light Padded T-Shirt Bras;Draft;Bra;Lady Lyka;Adults-Women;Women;;;;Fashion;;2017;30B,LYLABRAA00004802,32B,LYLABRAA00004803,34B,LYLABRAA00004804,36B,LYLABRAA00004805,38B,LYLABRAA00004806,40B,LYLABRAA00004807;750.00;;;;;;;;zerotype;;Fall;;No
2166105;BREEZ-RED-HIDEOUTS-ORG-Red Orange-2166105;Pack of 2 Light Padded T-Shirt Bras;Draft;Bra;Lady Lyka;Adults-Women;Women;;;;Fashion;;2017;30B,LYLABRAA00004796,32B,LYLABRAA00004797,34B,LYLABRAA00004798,36B,LYLABRAA00004799,38B,LYLABRAA00004800,40B,LYLABRAA00004801;750.00;;;;;;;;zerotype;;Fall;;No
2166102;BREEZ-RED-HIDEOUTS-FCA-Red Magenta-2166102;Pack of 2 Light Padded T-Shirt Bras;Draft;Bra;Lady Lyka;Adults-Women;Women;;;;Fashion;;2017;30B,LYLABRAA00004790,32B,LYLABRAA00004791,34B,LYLABRAA00004792,36B,LYLABRAA00004793,38B,LYLABRAA00004794,40B,LYLABRAA00004795;750.00;;;;;;;;zerotype;;Fall;;No
2166099;BREEZ-RED-DENIM-6-GRY-Red Grey-2166099;Pack of 2 Light Padded T-Shirt Bras;Draft;Bra;Lady Lyka;Adults-Women;Women;;;;Fashion;;2017;30B,LYLABRAA00004784,32B,LYLABRAA00004785,34B,LYLABRAA00004786,36B,LYLABRAA00004787,38B,LYLABRAA00004788,40B,LYLABRAA00004789;825.00;;;;;;;;zerotype;;Fall;;No
2166096;BREEZ-RED-DENIM-5-BLU-Red Blue-2166096;Pack of 2 Light Padded T-Shirt Bras;Draft;Bra;Lady Lyka;Adults-Women;Women;;;;Fashion;;2017;30B,LYLABRAA00004778,32B,LYLABRAA00004779,34B,LYLABRAA00004780,36B,LYLABRAA00004781,38B,LYLABRAA00004782,40B,LYLABRAA00004783;825.00;;;;;;;;zerotype;;Fall;;No
2166092;BREEZ-RED-DENIM-4-BLU-Red Blue-2166092;Pack of 2 Light Padded T-Shirt Bras;Draft;Bra;Lady Lyka;Adults-Women;Women;;;;Fashion;;2017;30B,LYLABRAA00004772,32B,LYLABRAA00004773,34B,LYLABRAA00004774,36B,LYLABRAA00004775,38B,LYLABRAA00004776,40B,LYLABRAA00004777;825.00;;;;;;;;zerotype;;Fall;;No
2166089;BREEZ-RED-DENIM-3-BLU-Red Blue-2166089;Pack of 2 Light Padded T-Shirt Bras;Draft;Bra;Lady Lyka;Adults-Women;Women;;;;Fashion;;2017;30B,LYLABRAA00004766,32B,LYLABRAA00004767,34B,LYLABRAA00004768,36B,LYLABRAA00004769,38B,LYLABRAA00004770,40B,LYLABRAA00004771;825.00;;;;;;;;zerotype;;Fall;;No
2166086;BREEZ-RED-DENIM-2-BLK-Red Black-2166086;Pack of 2 Light Padded T-Shirt Bras;Draft;Bra;Lady Lyka;Adults-Women;Women;;;;Fashion;;2017;30B,LYLABRAA00004760,32B,LYLABRAA00004761,34B,LYLABRAA00004762,36B,LYLABRAA00004763,38B,LYLABRAA00004764,40B,LYLABRAA00004765;825.00;;;;;;;;zerotype;;Fall;;No
2166082;BREEZ-RED-BLACK-ROSE-3-BLK-Red Black-2166082;Pack of 2 Light Padded T-Shirt Bras;Draft;Bra;Lady Lyka;Adults-Women;Women;;;;Fashion;;2017;30B,LYLABRAA00004754,32B,LYLABRAA00004755,34B,LYLABRAA00004756,36B,LYLABRAA00004757,38B,LYLABRAA00004758,40B,LYLABRAA00004759;825.00;;;;;;;;zerotype;;Fall;;No
2166079;BREEZ-RED-BLACK-ROSE-2-BLK-Red Black-2166079;Pack of 2 Light Padded T-Shirt Bras;Draft;Bra;Lady Lyka;Adults-Women;Women;;;;Fashion;;2017;30B,LYLABRAA00004748,32B,LYLABRAA00004749,34B,LYLABRAA00004750,36B,LYLABRAA00004751,38B,LYLABRAA00004752,40B,LYLABRAA00004753;825.00;;;;;;;;zerotype;;Fall;;No
2166075;BREEZ-RED-BLACK-ROSE-1-BLK-Red Black-2166075;Pack of 2 Light Padded T-Shirt Bras;Draft;Bra;Lady Lyka;Adults-Women;Women;;;;Fashion;;2017;30B,LYLABRAA00004742,32B,LYLABRAA00004743,34B,LYLABRAA00004744,36B,LYLABRAA00004745,38B,LYLABRAA00004746,40B,LYLABRAA00004747;825.00;;;;;;;;zerotype;;Fall;;No
2166071;BREEZ-RED-ATTRACTIONS-SKY-Red Turquoise Blue-2166071;Pack of 2 Light Padded T-Shirt Bras;Draft;Bra;Lady Lyka;Adults-Women;Women;;;;Fashion;;2017;30B,LYLABRAA00004736,32B,LYLABRAA00004737,34B,LYLABRAA00004738,36B,LYLABRAA00004739,38B,LYLABRAA00004740,40B,LYLABRAA00004741;750.00;;;;;;;;zerotype;;Fall;;No
2166068;BREEZ-RED-ATTRACTIONS-PNK-Red Pink-2166068;Pack of 2 Light Padded T-Shirt Bras;Draft;Bra;Lady Lyka;Adults-Women;Women;;;;Fashion;;2017;30B,LYLABRAA00004730,32B,LYLABRAA00004731,34B,LYLABRAA00004732,36B,LYLABRAA00004733,38B,LYLABRAA00004734,40B,LYLABRAA00004735;750.00;;;;;;;;zerotype;;Fall;;No
2166064;BREEZ-PNK-TRESSME-2-SKY-Pink Turquoise Blue-2166064;Pack of 2 Light Padded T-Shirt Bras;Draft;Bra;Lady Lyka;Adults-Women;Women;;;;Fashion;;2017;30B,LYLABRAA00004724,32B,LYLABRAA00004725,34B,LYLABRAA00004726,36B,LYLABRAA00004727,38B,LYLABRAA00004728,40B,LYLABRAA00004729;750.00;;;;;;;;zerotype;;Fall;;No
2166062;BREEZ-PNK-TRESSME-2-PNK-Pink Pink-2166062;Pack of 2 Light Padded T-Shirt Bras;Draft;Bra;Lady Lyka;Adults-Women;Women;;;;Fashion;;2017;30B,LYLABRAA00004718,32B,LYLABRAA00004719,34B,LYLABRAA00004720,36B,LYLABRAA00004721,38B,LYLABRAA00004722,40B,LYLABRAA00004723;750.00;;;;;;;;zerotype;;Fall;;No
2166061;BREEZ-PNK-MISTIQUE-WHN-Pink Burgundy-2166061;Pack of 2 Light Padded T-Shirt Bras;Draft;Bra;Lady Lyka;Adults-Women;Women;;;;Fashion;;2017;30B,LYLABRAA00004712,32B,LYLABRAA00004713,34B,LYLABRAA00004714,36B,LYLABRAA00004715,38B,LYLABRAA00004716,40B,LYLABRAA00004717;750.00;;;;;;;;zerotype;;Fall;;No
2166060;BREEZ-PNK-MISTIQUE-SKN-Pink Beige-2166060;Pack of 2 Light Padded T-Shirt Bras;Draft;Bra;Lady Lyka;Adults-Women;Women;;;;Fashion;;2017;30B,LYLABRAA00004706,32B,LYLABRAA00004707,34B,LYLABRAA00004708,36B,LYLABRAA00004709,38B,LYLABRAA00004710,40B,LYLABRAA00004711;750.00;;;;;;;;zerotype;;Fall;;No
2166059;BREEZ-PNK-MISTIQUE-PPL-Pink Purple-2166059;Pack of 2 Light Padded T-Shirt Bras;Draft;Bra;Lady Lyka;Adults-Women;Women;;;;Fashion;;2017;30B,LYLABRAA00004700,32B,LYLABRAA00004701,34B,LYLABRAA00004702,36B,LYLABRAA00004703,38B,LYLABRAA00004704,40B,LYLABRAA00004705;750.00;;;;;;;;zerotype;;Fall;;No
2166058;BREEZ-PNK-MISTIQUE-PLM-Pink Peach-2166058;Pack of 2 Light Padded T-Shirt Bras;Draft;Bra;Lady Lyka;Adults-Women;Women;;;;Fashion;;2017;30B,LYLABRAA00004694,32B,LYLABRAA00004695,34B,LYLABRAA00004696,36B,LYLABRAA00004697,38B,LYLABRAA00004698,40B,LYLABRAA00004699;750.00;;;;;;;;zerotype;;Fall;;No
2166057;BREEZ-PNK-MISTIQUE-MRN-Pink Maroon-2166057;Pack of 2 Light Padded T-Shirt Bras;Draft;Bra;Lady Lyka;Adults-Women;Women;;;;Fashion;;2017;30B,LYLABRAA00004688,32B,LYLABRAA00004689,34B,LYLABRAA00004690,36B,LYLABRAA00004691,38B,LYLABRAA00004692,40B,LYLABRAA00004693;750.00;;;;;;;;zerotype;;Fall;;No
2166056;BREEZ-PNK-MISTIQUE-BLK-Pink Black-2166056;Pack of 2 Light Padded T-Shirt Bras;Draft;Bra;Lady Lyka;Adults-Women;Women;;;;Fashion;;2017;30B,LYLABRAA00004682,32B,LYLABRAA00004683,34B,LYLABRAA00004684,36B,LYLABRAA00004685,38B,LYLABRAA00004686,40B,LYLABRAA00004687;750.00;;;;;;;;zerotype;;Fall;;No
2166055;BREEZ-PNK-HIDEOUTS-SKY-Pink Turquoise Blue-2166055;Pack of 2 Light Padded T-Shirt Bras;Draft;Bra;Lady Lyka;Adults-Women;Women;;;;Fashion;;2017;30B,LYLABRAA00004676,32B,LYLABRAA00004677,34B,LYLABRAA00004678,36B,LYLABRAA00004679,38B,LYLABRAA00004680,40B,LYLABRAA00004681;750.00;;;;;;;;zerotype;;Fall;;No
2166054;BREEZ-PNK-HIDEOUTS-ORG-Pink Orange-2166054;Pack of 2 Light Padded T-Shirt Bras;Draft;Bra;Lady Lyka;Adults-Women;Women;;;;Fashion;;2017;30B,LYLABRAA00004670,32B,LYLABRAA00004671,34B,LYLABRAA00004672,36B,LYLABRAA00004673,38B,LYLABRAA00004674,40B,LYLABRAA00004675;750.00;;;;;;;;zerotype;;Fall;;No
2166053;BREEZ-PNK-HIDEOUTS-FCA-Pink Magenta-2166053;Pack of 2 Light Padded T-Shirt Bras;Draft;Bra;Lady Lyka;Adults-Women;Women;;;;Fashion;;2017;30B,LYLABRAA00004664,32B,LYLABRAA00004665,34B,LYLABRAA00004666,36B,LYLABRAA00004667,38B,LYLABRAA00004668,40B,LYLABRAA00004669;750.00;;;;;;;;zerotype;;Fall;;No
2166052;BREEZ-PNK-DENIM-6-GRY-Pink Grey-2166052;Pack of 2 Light Padded T-Shirt Bras;Draft;Bra;Lady Lyka;Adults-Women;Women;;;;Fashion;;2017;30B,LYLABRAA00004658,32B,LYLABRAA00004659,34B,LYLABRAA00004660,36B,LYLABRAA00004661,38B,LYLABRAA00004662,40B,LYLABRAA00004663;825.00;;;;;;;;zerotype;;Fall;;No
2166051;BREEZ-PNK-DENIM-5-BLU-Pink Blue-2166051;Pack of 2 Light Padded T-Shirt Bras;Draft;Bra;Lady Lyka;Adults-Women;Women;;;;Fashion;;2017;30B,LYLABRAA00004652,32B,LYLABRAA00004653,34B,LYLABRAA00004654,36B,LYLABRAA00004655,38B,LYLABRAA00004656,40B,LYLABRAA00004657;825.00;;;;;;;;zerotype;;Fall;;No
2166050;BREEZ-PNK-DENIM-4-BLU-Pink Blue-2166050;Pack of 2 Light Padded T-Shirt Bras;Draft;Bra;Lady Lyka;Adults-Women;Women;;;;Fashion;;2017;30B,LYLABRAA00004646,32B,LYLABRAA00004647,34B,LYLABRAA00004648,36B,LYLABRAA00004649,38B,LYLABRAA00004650,40B,LYLABRAA00004651;825.00;;;;;;;;zerotype;;Fall;;No
2166049;BREEZ-PNK-DENIM-3-BLU-Pink Blue-2166049;Pack of 2 Light Padded T-Shirt Bras;Draft;Bra;Lady Lyka;Adults-Women;Women;;;;Fashion;;2017;30B,LYLABRAA00004640,32B,LYLABRAA00004641,34B,LYLABRAA00004642,36B,LYLABRAA00004643,38B,LYLABRAA00004644,40B,LYLABRAA00004645;825.00;;;;;;;;zerotype;;Fall;;No
2166048;BREEZ-PNK-DENIM-2-BLK-Pink Black-2166048;Pack of 2 Light Padded T-Shirt Bras;Draft;Bra;Lady Lyka;Adults-Women;Women;;;;Fashion;;2017;30B,LYLABRAA00004634,32B,LYLABRAA00004635,34B,LYLABRAA00004636,36B,LYLABRAA00004637,38B,LYLABRAA00004638,40B,LYLABRAA00004639;825.00;;;;;;;;zerotype;;Fall;;No
2166047;BREEZ-PNK-DENIM-1-BLU-Pink Blue-2166047;Pack of 2 Light Padded T-Shirt Bras;Draft;Bra;Lady Lyka;Adults-Women;Women;;;;Fashion;;2017;30B,LYLABRAA00004628,32B,LYLABRAA00004629,34B,LYLABRAA00004630,36B,LYLABRAA00004631,38B,LYLABRAA00004632,40B,LYLABRAA00004633;825.00;;;;;;;;zerotype;;Fall;;No
2166046;BREEZ-PNK-BLACK-ROSE-3-BLK-Pink Black-2166046;Pack of 2 Light Padded T-Shirt Bras;Draft;Bra;Lady Lyka;Adults-Women;Women;;;;Fashion;;2017;30B,LYLABRAA00004622,32B,LYLABRAA00004623,34B,LYLABRAA00004624,36B,LYLABRAA00004625,38B,LYLABRAA00004626,40B,LYLABRAA00004627;825.00;;;;;;;;zerotype;;Fall;;No
2166045;BREEZ-PNK-BLACK-ROSE-2-BLK-Pink Black-2166045;Pack of 2 Light Padded T-Shirt Bras;Draft;Bra;Lady Lyka;Adults-Women;Women;;;;Fashion;;2017;30B,LYLABRAA00004616,32B,LYLABRAA00004617,34B,LYLABRAA00004618,36B,LYLABRAA00004619,38B,LYLABRAA00004620,40B,LYLABRAA00004621;825.00;;;;;;;;zerotype;;Fall;;No
2166044;BREEZ-PNK-BLACK-ROSE-1-BLK-Pink Black-2166044;Pack of 2 Light Padded T-Shirt Bras;Draft;Bra;Lady Lyka;Adults-Women;Women;;;;Fashion;;2017;30B,LYLABRAA00004610,32B,LYLABRAA00004611,34B,LYLABRAA00004612,36B,LYLABRAA00004613,38B,LYLABRAA00004614,40B,LYLABRAA00004615;825.00;;;;;;;;zerotype;;Fall;;No
2166043;BREEZ-PNK-ATTRACTIONS-SKY-Pink Turquoise Blue-2166043;Pack of 2 Light Padded T-Shirt Bras;Draft;Bra;Lady Lyka;Adults-Women;Women;;;;Fashion;;2017;30B,LYLABRAA00004604,32B,LYLABRAA00004605,34B,LYLABRAA00004606,36B,LYLABRAA00004607,38B,LYLABRAA00004608,40B,LYLABRAA00004609;750.00;;;;;;;;zerotype;;Fall;;No
2166042;BREEZ-PNK-ATTRACTIONS-PNK-Pink Pink-2166042;Pack of 2 Light Padded T-Shirt Bras;Draft;Bra;Lady Lyka;Adults-Women;Women;;;;Fashion;;2017;30B,LYLABRAA00004598,32B,LYLABRAA00004599,34B,LYLABRAA00004600,36B,LYLABRAA00004601,38B,LYLABRAA00004602,40B,LYLABRAA00004603;750.00;;;;;;;;zerotype;;Fall;;No
2166041;BREEZ-MRN-TRESSME-2-SKY-Maroon Turquoise Blue-2166041;Pack of 2 Light Padded T-Shirt Bras;Draft;Bra;Lady Lyka;Adults-Women;Women;;;;Fashion;;2017;30B,LYLABRAA00004592,32B,LYLABRAA00004593,34B,LYLABRAA00004594,36B,LYLABRAA00004595,38B,LYLABRAA00004596,40B,LYLABRAA00004597;750.00;;;;;;;;zerotype;;Fall;;No
2166040;BREEZ-MRN-TRESSME-2-PNK-Maroon Pink-2166040;Pack of 2 Light Padded T-Shirt Bras;Draft;Bra;Lady Lyka;Adults-Women;Women;;;;Fashion;;2017;30B,LYLABRAA00004586,32B,LYLABRAA00004587,34B,LYLABRAA00004588,36B,LYLABRAA00004589,38B,LYLABRAA00004590,40B,LYLABRAA00004591;750.00;;;;;;;;zerotype;;Fall;;No
2166039;BREEZ-MRN-MISTIQUE-WHN-Maroon Burgundy-2166039;Pack of 2 Light Padded T-Shirt Bras;Draft;Bra;Lady Lyka;Adults-Women;Women;;;;Fashion;;2017;30B,LYLABRAA00004580,32B,LYLABRAA00004581,34B,LYLABRAA00004582,36B,LYLABRAA00004583,38B,LYLABRAA00004584,40B,LYLABRAA00004585;750.00;;;;;;;;zerotype;;Fall;;No
2166038;BREEZ-MRN-MISTIQUE-SKN-Maroon Beige-2166038;Pack of 2 Light Padded T-Shirt Bras;Draft;Bra;Lady Lyka;Adults-Women;Women;;;;Fashion;;2017;30B,LYLABRAA00004574,32B,LYLABRAA00004575,34B,LYLABRAA00004576,36B,LYLABRAA00004577,38B,LYLABRAA00004578,40B,LYLABRAA00004579;750.00;;;;;;;;zerotype;;Fall;;No
2166037;BREEZ-MRN-MISTIQUE-PPL-Maroon Purple-2166037;Pack of 2 Light Padded T-Shirt Bras;Draft;Bra;Lady Lyka;Adults-Women;Women;;;;Fashion;;2017;30B,LYLABRAA00004568,32B,LYLABRAA00004569,34B,LYLABRAA00004570,36B,LYLABRAA00004571,38B,LYLABRAA00004572,40B,LYLABRAA00004573;750.00;;;;;;;;zerotype;;Fall;;No
2166036;BREEZ-MRN-MISTIQUE-PNK-Maroon Pink-2166036;Pack of 2 Light Padded T-Shirt Bras;Draft;Bra;Lady Lyka;Adults-Women;Women;;;;Fashion;;2017;30B,LYLABRAA00004562,32B,LYLABRAA00004563,34B,LYLABRAA00004564,36B,LYLABRAA00004565,38B,LYLABRAA00004566,40B,LYLABRAA00004567;750.00;;;;;;;;zerotype;;Fall;;No
2166035;BREEZ-MRN-MISTIQUE-PLM-Maroon Peach-2166035;Pack of 2 Light Padded T-Shirt Bras;Draft;Bra;Lady Lyka;Adults-Women;Women;;;;Fashion;;2017;30B,LYLABRAA00004556,32B,LYLABRAA00004557,34B,LYLABRAA00004558,36B,LYLABRAA00004559,38B,LYLABRAA00004560,40B,LYLABRAA00004561;750.00;;;;;;;;zerotype;;Fall;;No
2166034;BREEZ-MRN-MISTIQUE-MRN-Maroon Maroon-2166034;Pack of 2 Light Padded T-Shirt Bras;Draft;Bra;Lady Lyka;Adults-Women;Women;;;;Fashion;;2017;30B,LYLABRAA00004550,32B,LYLABRAA00004551,34B,LYLABRAA00004552,36B,LYLABRAA00004553,38B,LYLABRAA00004554,40B,LYLABRAA00004555;750.00;;;;;;;;zerotype;;Fall;;No
2166033;BREEZ-MRN-MISTIQUE-BLK-Maroon Black-2166033;Pack of 2 Light Padded T-Shirt Bras;Draft;Bra;Lady Lyka;Adults-Women;Women;;;;Fashion;;2017;30B,LYLABRAA00004544,32B,LYLABRAA00004545,34B,LYLABRAA00004546,36B,LYLABRAA00004547,38B,LYLABRAA00004548,40B,LYLABRAA00004549;750.00;;;;;;;;zerotype;;Fall;;No
2166032;BREEZ-MRN-HIDEOUTS-SKY-Maroon Turquoise Blue-2166032;Pack of 2 Light Padded T-Shirt Bras;Draft;Bra;Lady Lyka;Adults-Women;Women;;;;Fashion;;2017;30B,LYLABRAA00004538,32B,LYLABRAA00004539,34B,LYLABRAA00004540,36B,LYLABRAA00004541,38B,LYLABRAA00004542,40B,LYLABRAA00004543;750.00;;;;;;;;zerotype;;Fall;;No
2166031;BREEZ-MRN-HIDEOUTS-ORG-Maroon Orange-2166031;Pack of 2 Light Padded T-Shirt Bras;Draft;Bra;Lady Lyka;Adults-Women;Women;;;;Fashion;;2017;30B,LYLABRAA00004532,32B,LYLABRAA00004533,34B,LYLABRAA00004534,36B,LYLABRAA00004535,38B,LYLABRAA00004536,40B,LYLABRAA00004537;750.00;;;;;;;;zerotype;;Fall;;No
2166030;BREEZ-MRN-HIDEOUTS-FCA-Maroon Magenta-2166030;Pack of 2 Light Padded T-Shirt Bras;Draft;Bra;Lady Lyka;Adults-Women;Women;;;;Fashion;;2017;30B,LYLABRAA00004526,32B,LYLABRAA00004527,34B,LYLABRAA00004528,36B,LYLABRAA00004529,38B,LYLABRAA00004530,40B,LYLABRAA00004531;750.00;;;;;;;;zerotype;;Fall;;No
2166029;BREEZ-MRN-DENIM-6-GRY-Maroon Grey-2166029;Pack of 2 Light Padded T-Shirt Bras;Draft;Bra;Lady Lyka;Adults-Women;Women;;;;Fashion;;2017;30B,LYLABRAA00004520,32B,LYLABRAA00004521,34B,LYLABRAA00004522,36B,LYLABRAA00004523,38B,LYLABRAA00004524,40B,LYLABRAA00004525;825.00;;;;;;;;zerotype;;Fall;;No
2166028;BREEZ-MRN-DENIM-5-BLU-Maroon Blue-2166028;Pack of 2 Light Padded T-Shirt Bras;Draft;Bra;Lady Lyka;Adults-Women;Women;;;;Fashion;;2017;30B,LYLABRAA00004514,32B,LYLABRAA00004515,34B,LYLABRAA00004516,36B,LYLABRAA00004517,38B,LYLABRAA00004518,40B,LYLABRAA00004519;825.00;;;;;;;;zerotype;;Fall;;No
2166027;BREEZ-MRN-DENIM-4-BLU-Maroon Blue-2166027;Pack of 2 Light Padded T-Shirt Bras;Draft;Bra;Lady Lyka;Adults-Women;Women;;;;Fashion;;2017;30B,LYLABRAA00004508,32B,LYLABRAA00004509,34B,LYLABRAA00004510,36B,LYLABRAA00004511,38B,LYLABRAA00004512,40B,LYLABRAA00004513;825.00;;;;;;;;zerotype;;Fall;;No
2166026;BREEZ-MRN-DENIM-3-BLU-Maroon Blue-2166026;Pack of 2 Light Padded T-Shirt Bras;Draft;Bra;Lady Lyka;Adults-Women;Women;;;;Fashion;;2017;30B,LYLABRAA00004502,32B,LYLABRAA00004503,34B,LYLABRAA00004504,36B,LYLABRAA00004505,38B,LYLABRAA00004506,40B,LYLABRAA00004507;825.00;;;;;;;;zerotype;;Fall;;No
2166025;BREEZ-MRN-DENIM-2-BLK-Maroon Black-2166025;Pack of 2 Light Padded T-Shirt Bras;Draft;Bra;Lady Lyka;Adults-Women;Women;;;;Fashion;;2017;30B,LYLABRAA00004496,32B,LYLABRAA00004497,34B,LYLABRAA00004498,36B,LYLABRAA00004499,38B,LYLABRAA00004500,40B,LYLABRAA00004501;825.00;;;;;;;;zerotype;;Fall;;No
2166024;BREEZ-MRN-DENIM-1-BLU-Maroon Blue-2166024;Pack of 2 Light Padded T-Shirt Bras;Draft;Bra;Lady Lyka;Adults-Women;Women;;;;Fashion;;2017;30B,LYLABRAA00004490,32B,LYLABRAA00004491,34B,LYLABRAA00004492,36B,LYLABRAA00004493,38B,LYLABRAA00004494,40B,LYLABRAA00004495;825.00;;;;;;;;zerotype;;Fall;;No
2166023;BREEZ-MRN-BLACK-ROSE-3-BLK-Maroon Black-2166023;Pack of 2 Light Padded T-Shirt Bras;Draft;Bra;Lady Lyka;Adults-Women;Women;;;;Fashion;;2017;30B,LYLABRAA00004484,32B,LYLABRAA00004485,34B,LYLABRAA00004486,36B,LYLABRAA00004487,38B,LYLABRAA00004488,40B,LYLABRAA00004489;825.00;;;;;;;;zerotype;;Fall;;No
2166021;BREEZ-MRN-BLACK-ROSE-2-BLK-Maroon Black-2166021;Pack of 2 Light Padded T-Shirt Bras;Draft;Bra;Lady Lyka;Adults-Women;Women;;;;Fashion;;2017;30B,LYLABRAA00004478,32B,LYLABRAA00004479,34B,LYLABRAA00004480,36B,LYLABRAA00004481,38B,LYLABRAA00004482,40B,LYLABRAA00004483;825.00;;;;;;;;zerotype;;Fall;;No
2166019;BREEZ-MRN-BLACK-ROSE-1-BLK-Maroon Black-2166019;Pack of 2 Light Padded T-Shirt Bras;Draft;Bra;Lady Lyka;Adults-Women;Women;;;;Fashion;;2017;30B,LYLABRAA00004472,32B,LYLABRAA00004473,34B,LYLABRAA00004474,36B,LYLABRAA00004475,38B,LYLABRAA00004476,40B,LYLABRAA00004477;825.00;;;;;;;;zerotype;;Fall;;No
2166017;BREEZ-MRN-ATTRACTIONS-SKY-Maroon Turquoise Blue-2166017;Pack of 2 Light Padded T-Shirt Bras;Draft;Bra;Lady Lyka;Adults-Women;Women;;;;Fashion;;2017;30B,LYLABRAA00004466,32B,LYLABRAA00004467,34B,LYLABRAA00004468,36B,LYLABRAA00004469,38B,LYLABRAA00004470,40B,LYLABRAA00004471;750.00;;;;;;;;zerotype;;Fall;;No
2166015;BREEZ-MRN-ATTRACTIONS-PNK-Maroon Pink-2166015;Pack of 2 Light Padded T-Shirt Bras;Draft;Bra;Lady Lyka;Adults-Women;Women;;;;Fashion;;2017;30B,LYLABRAA00004460,32B,LYLABRAA00004461,34B,LYLABRAA00004462,36B,LYLABRAA00004463,38B,LYLABRAA00004464,40B,LYLABRAA00004465;750.00;;;;;;;;zerotype;;Fall;;No
2166013;BREEZ-BLK-TRESSME-2-SKY-Black Turquoise Blue-2166013;Pack of 2 Light Padded T-Shirt Bras;Draft;Bra;Lady Lyka;Adults-Women;Women;;;;Fashion;;2017;30B,LYLABRAA00004454,32B,LYLABRAA00004455,34B,LYLABRAA00004456,36B,LYLABRAA00004457,38B,LYLABRAA00004458,40B,LYLABRAA00004459;750.00;;;;;;;;zerotype;;Fall;;No
2166011;BREEZ-BLK-TRESSME-2-PNK-Black Pink-2166011;Pack of 2 Light Padded T-Shirt Bras;Draft;Bra;Lady Lyka;Adults-Women;Women;;;;Fashion;;2017;30B,LYLABRAA00004448,32B,LYLABRAA00004449,34B,LYLABRAA00004450,36B,LYLABRAA00004451,38B,LYLABRAA00004452,40B,LYLABRAA00004453;750.00;;;;;;;;zerotype;;Fall;;No
2166009;BREEZ-BLK-MISTIQUE-WHN-Black Burgundy-2166009;Pack of 2 Light Padded T-Shirt Bras;Draft;Bra;Lady Lyka;Adults-Women;Women;;;;Fashion;;2017;30B,LYLABRAA00004442,32B,LYLABRAA00004443,34B,LYLABRAA00004444,36B,LYLABRAA00004445,38B,LYLABRAA00004446,40B,LYLABRAA00004447;750.00;;;;;;;;zerotype;;Fall;;No
2166006;BREEZ-BLK-MISTIQUE-SKN-Black Beige-2166006;Pack of 2 Light Padded T-Shirt Bras;Draft;Bra;Lady Lyka;Adults-Women;Women;;;;Fashion;;2017;30B,LYLABRAA00004436,32B,LYLABRAA00004437,34B,LYLABRAA00004438,36B,LYLABRAA00004439,38B,LYLABRAA00004440,40B,LYLABRAA00004441;750.00;;;;;;;;zerotype;;Fall;;No
2166004;BREEZ-BLK-MISTIQUE-PPL-Black Purple-2166004;Pack of 2 Light Padded T-Shirt Bras;Draft;Bra;Lady Lyka;Adults-Women;Women;;;;Fashion;;2017;30B,LYLABRAA00004430,32B,LYLABRAA00004431,34B,LYLABRAA00004432,36B,LYLABRAA00004433,38B,LYLABRAA00004434,40B,LYLABRAA00004435;750.00;;;;;;;;zerotype;;Fall;;No
2166002;BREEZ-BLK-MISTIQUE-PNK-Black Pink-2166002;Pack of 2 Light Padded T-Shirt Bras;Draft;Bra;Lady Lyka;Adults-Women;Women;;;;Fashion;;2017;30B,LYLABRAA00004424,32B,LYLABRAA00004425,34B,LYLABRAA00004426,36B,LYLABRAA00004427,38B,LYLABRAA00004428,40B,LYLABRAA00004429;750.00;;;;;;;;zerotype;;Fall;;No
2166000;BREEZ-BLK-MISTIQUE-PLM-Black Peach-2166000;Pack of 2 Light Padded T-Shirt Bras;Draft;Bra;Lady Lyka;Adults-Women;Women;;;;Fashion;;2017;30B,LYLABRAA00004418,32B,LYLABRAA00004419,34B,LYLABRAA00004420,36B,LYLABRAA00004421,38B,LYLABRAA00004422,40B,LYLABRAA00004423;750.00;;;;;;;;zerotype;;Fall;;No
2165998;BREEZ-BLK-MISTIQUE-MRN-Black Maroon-2165998;Pack of 2 Light Padded T-Shirt Bras;Draft;Bra;Lady Lyka;Adults-Women;Women;;;;Fashion;;2017;30B,LYLABRAA00004412,32B,LYLABRAA00004413,34B,LYLABRAA00004414,36B,LYLABRAA00004415,38B,LYLABRAA00004416,40B,LYLABRAA00004417;750.00;;;;;;;;zerotype;;Fall;;No
2165996;BREEZ-BLK-MISTIQUE-BLK-Black-2165996;Pack of 2 Light Padded T-Shirt Bras;Draft;Bra;Lady Lyka;Adults-Women;Women;;;;Fashion;;2017;30B,LYLABRAA00004406,32B,LYLABRAA00004407,34B,LYLABRAA00004408,36B,LYLABRAA00004409,38B,LYLABRAA00004410,40B,LYLABRAA00004411;750.00;;;;;;;;zerotype;;Fall;;No
2165994;BREEZ-BLK-HIDEOUTS-SKY-Black Turquoise Blue-2165994;Pack of 2 Light Padded T-Shirt Bras;Draft;Bra;Lady Lyka;Adults-Women;Women;;;;Fashion;;2017;30B,LYLABRAA00004400,32B,LYLABRAA00004401,34B,LYLABRAA00004402,36B,LYLABRAA00004403,38B,LYLABRAA00004404,40B,LYLABRAA00004405;750.00;;;;;;;;zerotype;;Fall;;No
2165992;BREEZ-BLK-HIDEOUTS-ORG-Black Orange-2165992;Pack of 2 Light Padded T-Shirt Bras;Draft;Bra;Lady Lyka;Adults-Women;Women;;;;Fashion;;2017;30B,LYLABRAA00004394,32B,LYLABRAA00004395,34B,LYLABRAA00004396,36B,LYLABRAA00004397,38B,LYLABRAA00004398,40B,LYLABRAA00004399;750.00;;;;;;;;zerotype;;Fall;;No
2165990;BREEZ-BLK-HIDEOUTS-FCA-Black Magenta-2165990;Pack of 2 Light Padded T-Shirt Bras;Draft;Bra;Lady Lyka;Adults-Women;Women;;;;Fashion;;2017;30B,LYLABRAA00004388,32B,LYLABRAA00004389,34B,LYLABRAA00004390,36B,LYLABRAA00004391,38B,LYLABRAA00004392,40B,LYLABRAA00004393;750.00;;;;;;;;zerotype;;Fall;;No
2165987;BREEZ-BLK-DENIM-6-GRY-Black Grey-2165987;Pack of 2 Light Padded T-Shirt Bras;Draft;Bra;Lady Lyka;Adults-Women;Women;;;;Fashion;;2017;30B,LYLABRAA00004382,32B,LYLABRAA00004383,34B,LYLABRAA00004384,36B,LYLABRAA00004385,38B,LYLABRAA00004386,40B,LYLABRAA00004387;825.00;;;;;;;;zerotype;;Fall;;No
2165986;BREEZ-BLK-DENIM-5-BLU-Black Blue-2165986;Pack of 2 Light Padded T-Shirt Bras;Draft;Bra;Lady Lyka;Adults-Women;Women;;;;Fashion;;2017;30B,LYLABRAA00004376,32B,LYLABRAA00004377,34B,LYLABRAA00004378,36B,LYLABRAA00004379,38B,LYLABRAA00004380,40B,LYLABRAA00004381;825.00;;;;;;;;zerotype;;Fall;;No
2165985;BREEZ-BLK-DENIM-4-BLU-Black Blue-2165985;Pack of 2 Light Padded T-Shirt Bras;Draft;Bra;Lady Lyka;Adults-Women;Women;;;;Fashion;;2017;30B,LYLABRAA00004370,32B,LYLABRAA00004371,34B,LYLABRAA00004372,36B,LYLABRAA00004373,38B,LYLABRAA00004374,40B,LYLABRAA00004375;825.00;;;;;;;;zerotype;;Fall;;No
2165984;BREEZ-BLK-DENIM-3-BLU-Black Blue-2165984;Pack of 2 Light Padded T-Shirt Bras;Draft;Bra;Lady Lyka;Adults-Women;Women;;;;Fashion;;2017;30B,LYLABRAA00004364,32B,LYLABRAA00004365,34B,LYLABRAA00004366,36B,LYLABRAA00004367,38B,LYLABRAA00004368,40B,LYLABRAA00004369;825.00;;;;;;;;zerotype;;Fall;;No
2165983;BREEZ-BLK-DENIM-2-BLK-Black-2165983;Pack of 2 Light Padded T-Shirt Bras;Draft;Bra;Lady Lyka;Adults-Women;Women;;;;Fashion;;2017;30B,LYLABRAA00004358,32B,LYLABRAA00004359,34B,LYLABRAA00004360,36B,LYLABRAA00004361,38B,LYLABRAA00004362,40B,LYLABRAA00004363;825.00;;;;;;;;zerotype;;Fall;;No
2165982;BREEZ-BLK-DENIM-1-BLU-Black Blue-2165982;Pack of 2 Light Padded T-Shirt Bras;Draft;Bra;Lady Lyka;Adults-Women;Women;;;;Fashion;;2017;30B,LYLABRAA00004352,32B,LYLABRAA00004353,34B,LYLABRAA00004354,36B,LYLABRAA00004355,38B,LYLABRAA00004356,40B,LYLABRAA00004357;825.00;;;;;;;;zerotype;;Fall;;No
2165981;BREEZ-BLK-BLACK-ROSE-3-BLK-Black-2165981;Pack of 2 Light Padded T-Shirt Bras;Draft;Bra;Lady Lyka;Adults-Women;Women;;;;Fashion;;2017;30B,LYLABRAA00004346,32B,LYLABRAA00004347,34B,LYLABRAA00004348,36B,LYLABRAA00004349,38B,LYLABRAA00004350,40B,LYLABRAA00004351;825.00;;;;;;;;zerotype;;Fall;;No
2165980;BREEZ-BLK-BLACK-ROSE-2-BLK-Black-2165980;Pack of 2 Light Padded T-Shirt Bras;Draft;Bra;Lady Lyka;Adults-Women;Women;;;;Fashion;;2017;30B,LYLABRAA00004340,32B,LYLABRAA00004341,34B,LYLABRAA00004342,36B,LYLABRAA00004343,38B,LYLABRAA00004344,40B,LYLABRAA00004345;825.00;;;;;;;;zerotype;;Fall;;No
2165979;BREEZ-BLK-BLACK-ROSE-1-BLK-Black-2165979;Pack of 2 Light Padded T-Shirt Bras;Draft;Bra;Lady Lyka;Adults-Women;Women;;;;Fashion;;2017;30B,LYLABRAA00004334,32B,LYLABRAA00004335,34B,LYLABRAA00004336,36B,LYLABRAA00004337,38B,LYLABRAA00004338,40B,LYLABRAA00004339;825.00;;;;;;;;zerotype;;Fall;;No
2165978;BREEZ-BLK-ATTRACTIONS-SKY-Black Turquoise Blue-2165978;Pack of 2 Light Padded T-Shirt Bras;Draft;Bra;Lady Lyka;Adults-Women;Women;;;;Fashion;;2017;30B,LYLABRAA00004328,32B,LYLABRAA00004329,34B,LYLABRAA00004330,36B,LYLABRAA00004331,38B,LYLABRAA00004332,40B,LYLABRAA00004333;750.00;;;;;;;;zerotype;;Fall;;No
2165977;BREEZ-BLK-ATTRACTIONS-PNK-Black Pink-2165977;Pack of 2 Light Padded T-Shirt Bras;Draft;Bra;Lady Lyka;Adults-Women;Women;;;;Fashion;;2017;30B,LYLABRAA00004322,32B,LYLABRAA00004323,34B,LYLABRAA00004324,36B,LYLABRAA00004325,38B,LYLABRAA00004326,40B,LYLABRAA00004327;750.00;;;;;;;;zerotype;;Fall;;No
