Style ID;Vendor Article Number;Vendor Article Name;Active Status;Article type;Brand;Age Group;Gender;Base Colour;Colour1;Colour2;Fashion Type;Usage;Year;Size - SKU code pair;MRP;Style Description;Style Note;Materials and Care Description;Size and Fit Description;Size Chart Path;Product Display Name;Tags;Product Type;Classification Brand;Season;Comments;Upload Images
2134219;EM15-228-17-XL-Blue/white stripe-2134219;Sleeveless dress with applique;Draft;Dresses;Envy Me;Adults-Women;Women;White;Blue;;Fashion;Casual;2017;XS,ENMEDRSS00000131,S,ENMEDRSS00000132,M,ENMEDRSS00000133,L,ENMEDRSS00000134,XL,ENMEDRSS00000135;1799.00;;;<p>Gentle Machine Wash and Do Not Bleach</p>;;;;;zerotype;;Summer;;No
2134217;EM15-227-17-XL-Red/white stripe-2134217;Sleeveless dress with applique;Draft;Dresses;Envy Me;Adults-Women;Women;White;Red;;Fashion;Casual;2017;XS,ENMEDRSS00000126,S,ENMEDRSS00000127,M,ENMEDRSS00000128,L,ENMEDRSS00000129,XL,ENMEDRSS00000130;1799.00;;;<p>Gentle Machine Wash and Do Not Bleach</p>;;;;;zerotype;;Summer;;No
2134215;EM15-226-17-XL-Blue/white stripe-2134215;Sleeveless dress with applique;Draft;Dresses;Envy Me;Adults-Women;Women;White;Blue;;Fashion;Casual;2017;XS,ENMEDRSS00000121,S,ENMEDRSS00000122,M,ENMEDRSS00000123,L,ENMEDRSS00000124,XL,ENMEDRSS00000125;1799.00;;;<p>Gentle Machine Wash and Do Not Bleach</p>;;;;;zerotype;;Summer;;No
2134213;EM15-225-17-XL-Green-2134213;Bell sleeve solid top;Draft;Tops;Envy Me;Adults-Women;Women;Green;;;Fashion;Casual;2017;XS,ENMETOPS00000673,S,ENMETOPS00000674,M,ENMETOPS00000675,L,ENMETOPS00000676,XL,ENMETOPS00000677;1299.00;;;<p>Gentle Machine Wash and Do Not Bleach</p>;;;;;zerotype;;Spring;;No
2134211;EM15-224-17-XL-Purple-2134211;Bell sleeve solid top;Draft;Tops;Envy Me;Adults-Women;Women;Purple;;;Fashion;Casual;2017;XS,ENMETOPS00000668,S,ENMETOPS00000669,M,ENMETOPS00000670,L,ENMETOPS00000671,XL,ENMETOPS00000672;1299.00;;;<p>Gentle Machine Wash and Do Not Bleach</p>;;;;;zerotype;;Spring;;No
2134209;EM15-223-17-XL-Yellow-2134209;Bell sleeve solid top;Draft;Tops;Envy Me;Adults-Women;Women;Yellow;;;Fashion;Casual;2017;XS,ENMETOPS00000663,S,ENMETOPS00000664,M,ENMETOPS00000665,L,ENMETOPS00000666,XL,ENMETOPS00000667;1299.00;;;<p>Gentle Machine Wash and Do Not Bleach</p>;;;;;zerotype;;Spring;;No
2134207;EM15-222-17-XL-Pink-2134207;Bell sleeve solid top;Draft;Tops;Envy Me;Adults-Women;Women;Pink;;;Fashion;Casual;2017;XS,ENMETOPS00000658,S,ENMETOPS00000659,M,ENMETOPS00000660,L,ENMETOPS00000661,XL,ENMETOPS00000662;1299.00;;;<p>Gentle Machine Wash and Do Not Bleach</p>;;;;;zerotype;;Spring;;No
2134206;EM15-221-17-XL-Peach-2134206;Bell sleeve solid top;Draft;Tops;Envy Me;Adults-Women;Women;Peach;;;Fashion;Casual;2017;XS,ENMETOPS00000653,S,ENMETOPS00000654,M,ENMETOPS00000655,L,ENMETOPS00000656,XL,ENMETOPS00000657;1299.00;;;<p>Gentle Machine Wash and Do Not Bleach</p>;;;;;zerotype;;Spring;;No
2134204;EM15-220-17-XL-Blue-2134204;Bell sleeve solid top;Draft;Tops;Envy Me;Adults-Women;Women;Blue;;;Fashion;Casual;2017;XS,ENMETOPS00000648,S,ENMETOPS00000649,M,ENMETOPS00000650,L,ENMETOPS00000651,XL,ENMETOPS00000652;1299.00;;;<p>Gentle Machine Wash and Do Not Bleach</p>;;;;;zerotype;;Spring;;No
2134202;EM15-219-17-XL-White-2134202;Off-shoulder printed top;Draft;Tops;Envy Me;Adults-Women;Women;White;;;Fashion;Casual;2017;XS,ENMETOPS00000643,S,ENMETOPS00000644,M,ENMETOPS00000645,L,ENMETOPS00000646,XL,ENMETOPS00000647;1299.00;;;<p>Gentle Machine Wash and Do Not Bleach</p>;;;;;zerotype;;Spring;;No
2134200;EM15-218-17-XL-White-2134200;Off-shoulder printed top;Draft;Tops;Envy Me;Adults-Women;Women;White;;;Fashion;Casual;2017;XS,ENMETOPS00000638,S,ENMETOPS00000639,M,ENMETOPS00000640,L,ENMETOPS00000641,XL,ENMETOPS00000642;1299.00;;;<p>Gentle Machine Wash and Do Not Bleach</p>;;;;;zerotype;;Spring;;No
2134198;EM15-217-17-XL-Grey-2134198;Off-shoulder printed top;Draft;Tops;Envy Me;Adults-Women;Women;Grey;;;Fashion;Casual;2017;XS,ENMETOPS00000633,S,ENMETOPS00000634,M,ENMETOPS00000635,L,ENMETOPS00000636,XL,ENMETOPS00000637;1299.00;;;<p>Gentle Machine Wash and Do Not Bleach</p>;;;;;zerotype;;Spring;;No
2134196;EM15-214-17-XL-Black-2134196;Slit sleeve printed top;Draft;Tops;Envy Me;Adults-Women;Women;Black;;;Fashion;Casual;2017;XS,ENMETOPS00000628,S,ENMETOPS00000629,M,ENMETOPS00000630,L,ENMETOPS00000631,XL,ENMETOPS00000632;1299.00;;;<p>Gentle Machine Wash and Do Not Bleach</p>;;;;;zerotype;;Spring;;No
2134194;EM15-213-17-XL-Brown-2134194;Slit sleeve printed top;Draft;Tops;Envy Me;Adults-Women;Women;Brown;;;Fashion;Casual;2017;XS,ENMETOPS00000623,S,ENMETOPS00000624,M,ENMETOPS00000625,L,ENMETOPS00000626,XL,ENMETOPS00000627;1299.00;;;<p>Gentle Machine Wash and Do Not Bleach</p>;;;;;zerotype;;Spring;;No
2134192;EM15-212-17-XL-White-2134192;Two tier top;Draft;Tops;Envy Me;Adults-Women;Women;White;;;Fashion;Casual;2017;XS,ENMETOPS00000618,S,ENMETOPS00000619,M,ENMETOPS00000620,L,ENMETOPS00000621,XL,ENMETOPS00000622;1299.00;;;<p>Gentle Machine Wash and Do Not Bleach</p>;;;;;zerotype;;Spring;;No
2134183;EM15-211-17-XL-Grey-2134183;Two tier top;Draft;Tops;Envy Me;Adults-Women;Women;Grey;;;Fashion;Casual;2017;XS,ENMETOPS00000613,S,ENMETOPS00000614,M,ENMETOPS00000615,L,ENMETOPS00000616,XL,ENMETOPS00000617;1299.00;;;<p>Gentle Machine Wash and Do Not Bleach</p>;;;;;zerotype;;Spring;;No
2134171;EM15-210-17-XL-White-2134171;Two tier top;Draft;Tops;Envy Me;Adults-Women;Women;White;;;Fashion;Casual;2017;XS,ENMETOPS00000608,S,ENMETOPS00000609,M,ENMETOPS00000610,L,ENMETOPS00000611,XL,ENMETOPS00000612;1299.00;;;<p>Gentle Machine Wash and Do Not Bleach</p>;;;;;zerotype;;Spring;;No
2134161;EM15-207-17-XL-Multicolor Stripe-2134161;Three tier top;Draft;Tops;Envy Me;Adults-Women;Women;Multi;;;Fashion;Casual;2017;XS,ENMETOPS00000603,S,ENMETOPS00000604,M,ENMETOPS00000605,L,ENMETOPS00000606,XL,ENMETOPS00000607;1499.00;;;<p>Gentle Machine Wash and Do Not Bleach</p>;;;;;zerotype;;Spring;;No
