Style ID;Vendor Article Number;Vendor Article Name;Active Status;Article type;Brand;Age Group;Gender;Base Colour;Colour1;Colour2;Fashion Type;Usage;Year;Size - SKU code pair;MRP;Style Description;Style Note;Materials and Care Description;Size and Fit Description;Size Chart Path;Product Display Name;Tags;Product Type;Classification Brand;Season;Comments;Upload Images
1847435;115125MLTC-Beige-1847435;Lydia Dress;Draft;Dresses;Kazo;Adults-Women;Women;;;;Fashion;Smart Casual;2017;XS,KAZODRSS00001364,S,KAZODRSS00001365,M,KAZODRSS00001366,L,KAZODRSS00001367,XL,KAZODRSS00001368;2990.00;;;;;;;;zerotype;;Spring;;No
1847434;115106GRPWNC-Multi-1847434;Caroline Dress;Draft;Dresses;Kazo;Adults-Women;Women;;;;Fashion;Smart Casual;2017;XS,KAZODRSS00001359,S,KAZODRSS00001360,M,KAZODRSS00001361,L,KAZODRSS00001362,XL,KAZODRSS00001363;2490.00;;;;;;;;zerotype;;Spring;;No
1847433;115085POPYR-Red-1847433;Molly Dress;Draft;Dresses;Kazo;Adults-Women;Women;;;;Fashion;Smart Casual;2017;XS,KAZODRSS00001354,S,KAZODRSS00001355,M,KAZODRSS00001356,L,KAZODRSS00001357,XL,KAZODRSS00001358;4990.00;;;;;;;;zerotype;;Spring;;No
1847432;115079BLACKC-Black Gold-1847432;Melanie Dress;Draft;Dresses;Kazo;Adults-Women;Women;;;;Fashion;Smart Casual;2017;XS,KAZODRSS00001349,S,KAZODRSS00001350,M,KAZODRSS00001351,L,KAZODRSS00001352,XL,KAZODRSS00001353;4990.00;;;;;;;;zerotype;;Spring;;No
1847431;114971GREYC-Multi-1847431;Sarah Dress;Draft;Dresses;Kazo;Adults-Women;Women;;;;Fashion;Smart Casual;2017;XS,KAZODRSS00001344,S,KAZODRSS00001345,M,KAZODRSS00001346,L,KAZODRSS00001347,XL,KAZODRSS00001348;5990.00;;;;;;;;zerotype;;Spring;;No
1847430;114965DIJN-Mustard-1847430;Angel Dress;Draft;Dresses;Kazo;Adults-Women;Women;;;;Fashion;Smart Casual;2017;XS,KAZODRSS00001339,S,KAZODRSS00001340,M,KAZODRSS00001341,L,KAZODRSS00001342,XL,KAZODRSS00001343;2990.00;;;;;;;;zerotype;;Spring;;No
1847429;114850MCHMUSC-Coffee Brown-1847429;Elizabeth Dress;Draft;Dresses;Kazo;Adults-Women;Women;;;;Fashion;Smart Casual;2017;XS,KAZODRSS00001334,S,KAZODRSS00001335,M,KAZODRSS00001336,L,KAZODRSS00001337,XL,KAZODRSS00001338;3990.00;;;;;;;;zerotype;;Spring;;No
1847428;114791GNMTL-Grey-1847428;Olivia Dress;Draft;Dresses;Kazo;Adults-Women;Women;;;;Fashion;Smart Casual;2017;XS,KAZODRSS00001329,S,KAZODRSS00001330,M,KAZODRSS00001331,L,KAZODRSS00001332,XL,KAZODRSS00001333;5990.00;;;;;;;;zerotype;;Spring;;No
1847427;114789SEACRSTC-Blue White-1847427;Karoline Dress;Draft;Dresses;Kazo;Adults-Women;Women;;;;Fashion;Smart Casual;2017;XS,KAZODRSS00001324,S,KAZODRSS00001325,M,KAZODRSS00001326,L,KAZODRSS00001327,XL,KAZODRSS00001328;3990.00;;;;;;;;zerotype;;Spring;;No
1847426;114989PRSTNC-White-1847426;Brooke Shirt;Draft;Shirts;Kazo;Adults-Women;Women;;;;Fashion;Smart Casual;2017;XS,KAZOSHRT00000493,S,KAZOSHRT00000494,M,KAZOSHRT00000495,L,KAZOSHRT00000496,XL,KAZOSHRT00000497;1990.00;;;;;;;;zerotype;;Spring;;No
1847425;114760MNLIT-Beige-1847425;Aria Shirt;Draft;Shirts;Kazo;Adults-Women;Women;;;;Fashion;Smart Casual;2017;XS,KAZOSHRT00000488,S,KAZOSHRT00000489,M,KAZOSHRT00000490,L,KAZOSHRT00000491,XL,KAZOSHRT00000492;2490.00;;;;;;;;zerotype;;Spring;;No
1847424;115097DRSBLC-Multi-1847424;Kimberly Top;Draft;Tops;Kazo;Adults-Women;Women;;;;Fashion;Smart Casual;2017;XS,KAZOTOPS00001813,S,KAZOTOPS00001814,M,KAZOTOPS00001815,L,KAZOTOPS00001816,XL,KAZOTOPS00001817;1990.00;;;;;;;;zerotype;;Spring;;No
1847423;115094DRSBLC-Multi-1847423;Madeline Top;Draft;Tops;Kazo;Adults-Women;Women;;;;Fashion;Smart Casual;2017;XS,KAZOTOPS00001808,S,KAZOTOPS00001809,M,KAZOTOPS00001810,L,KAZOTOPS00001811,XL,KAZOTOPS00001812;2490.00;;;;;;;;zerotype;;Spring;;No
1847422;115071BLACK-Black-1847422;Maya Top;Draft;Tops;Kazo;Adults-Women;Women;;;;Fashion;Smart Casual;2017;XS,KAZOTOPS00001803,S,KAZOTOPS00001804,M,KAZOTOPS00001805,L,KAZOTOPS00001806,XL,KAZOTOPS00001807;2490.00;;;;;;;;zerotype;;Spring;;No
1847421;115017AZLEA-Pink-1847421;Eva Top;Draft;Tops;Kazo;Adults-Women;Women;;;;Fashion;Smart Casual;2017;XS,KAZOTOPS00001798,S,KAZOTOPS00001799,M,KAZOTOPS00001800,L,KAZOTOPS00001801,XL,KAZOTOPS00001802;1690.00;;;;;;;;zerotype;;Spring;;No
1847420;114969BLACK-Black-1847420;Jennifer Top;Draft;Tops;Kazo;Adults-Women;Women;;;;Fashion;Smart Casual;2017;XS,KAZOTOPS00001793,S,KAZOTOPS00001794,M,KAZOTOPS00001795,L,KAZOTOPS00001796,XL,KAZOTOPS00001797;2490.00;;;;;;;;zerotype;;Spring;;No
1847419;114956PRSTN-White-1847419;Mikayla Top;Draft;Tops;Kazo;Adults-Women;Women;;;;Fashion;Smart Casual;2017;XS,KAZOTOPS00001788,S,KAZOTOPS00001789,M,KAZOTOPS00001790,L,KAZOTOPS00001791,XL,KAZOTOPS00001792;2490.00;;;;;;;;zerotype;;Spring;;No
1847418;114935MCHMUSC-Multi-1847418;Karoline Top;Draft;Tops;Kazo;Adults-Women;Women;;;;Fashion;Smart Casual;2017;XS,KAZOTOPS00001783,S,KAZOTOPS00001784,M,KAZOTOPS00001785,L,KAZOTOPS00001786,XL,KAZOTOPS00001787;1990.00;;;;;;;;zerotype;;Spring;;No
1847417;114933DRSB-Navy Blue-1847417;Trinity Top;Draft;Tops;Kazo;Adults-Women;Women;;;;Fashion;Smart Casual;2017;XS,KAZOTOPS00001779,S,KAZOTOPS00001780,M,KAZOTOPS00001781,L,KAZOTOPS00001782;2490.00;;;;;;;;zerotype;;Spring;;No
1847416;114896BRRS-Rose-1847416;Jessica Top;Draft;Tops;Kazo;Adults-Women;Women;;;;Fashion;Smart Casual;2017;XS,KAZOTOPS00001774,S,KAZOTOPS00001775,M,KAZOTOPS00001776,L,KAZOTOPS00001777,XL,KAZOTOPS00001778;1390.00;;;;;;;;zerotype;;Spring;;No
1847415;114877BLACK-Black-1847415;Jacqueline Top;Draft;Tops;Kazo;Adults-Women;Women;;;;Fashion;Smart Casual;2017;XS,KAZOTOPS00001769,S,KAZOTOPS00001770,M,KAZOTOPS00001771,L,KAZOTOPS00001772,XL,KAZOTOPS00001773;2490.00;;;;;;;;zerotype;;Spring;;No
1847414;114876CRBAPL-Peach-1847414;Kesha Top;Draft;Tops;Kazo;Adults-Women;Women;;;;Fashion;Smart Casual;2017;XS,KAZOTOPS00001764,S,KAZOTOPS00001765,M,KAZOTOPS00001766,L,KAZOTOPS00001767,XL,KAZOTOPS00001768;1690.00;;;;;;;;zerotype;;Spring;;No
1847413;114868DRSB-Navy Blue-1847413;Michelle Top;Draft;Tops;Kazo;Adults-Women;Women;;;;Fashion;Smart Casual;2017;XS,KAZOTOPS00001759,S,KAZOTOPS00001760,M,KAZOTOPS00001761,L,KAZOTOPS00001762,XL,KAZOTOPS00001763;1690.00;;;;;;;;zerotype;;Spring;;No
