Style ID;Vendor Article Number;Vendor Article Name;Active Status;Article type;Brand;Age Group;Gender;Base Colour;Colour1;Colour2;Fashion Type;Usage;Year;Size - SKU code pair;MRP;Style Description;Style Note;Materials and Care Description;Size and Fit Description;Size Chart Path;Product Display Name;Tags;Product Type;Classification Brand;Season;Comments;Upload Images
2093471;08171595N244444-6-Grey-2093471;Nature Casuals Men's Shirt;Draft;Shirts;Nature Casuals;Adults-Men;Men;Grey;;;Fashion;Casual;2017;36,NECSSHRT00005799,38,NECSSHRT00005800,40,NECSSHRT00005801,42,NECSSHRT00005802,44,NECSSHRT00005803;1595.00;;;<p>Machine-Wash</p>;;;;;zerotype;;Winter;;No
2093470;08171595N244444-5-Tan-2093470;Nature Casuals Men's Shirt;Draft;Shirts;Nature Casuals;Adults-Men;Men;Tan;;;Fashion;Casual;2017;36,NECSSHRT00005794,38,NECSSHRT00005795,40,NECSSHRT00005796,42,NECSSHRT00005797,44,NECSSHRT00005798;1595.00;;;<p>Machine-Wash</p>;;;;;zerotype;;Winter;;No
2093469;08171595N244444-4-Mustard-2093469;Nature Casuals Men's Shirt;Draft;Shirts;Nature Casuals;Adults-Men;Men;Mustard;;;Fashion;Casual;2017;36,NECSSHRT00005789,38,NECSSHRT00005790,40,NECSSHRT00005791,42,NECSSHRT00005792,44,NECSSHRT00005793;1595.00;;;<p>Machine-Wash</p>;;;;;zerotype;;Winter;;No
2093468;08171595N244444-3-Navy Blue-2093468;Nature Casuals Men's Shirt;Draft;Shirts;Nature Casuals;Adults-Men;Men;Navy Blue;;;Fashion;Casual;2017;36,NECSSHRT00005784,38,NECSSHRT00005785,40,NECSSHRT00005786,42,NECSSHRT00005787,44,NECSSHRT00005788;1595.00;;;<p>Machine-Wash</p>;;;;;zerotype;;Winter;;No
2093467;08171595N244444-2-Red-2093467;Nature Casuals Men's Shirt;Draft;Shirts;Nature Casuals;Adults-Men;Men;Red;;;Fashion;Casual;2017;36,NECSSHRT00005779,38,NECSSHRT00005780,40,NECSSHRT00005781,42,NECSSHRT00005782,44,NECSSHRT00005783;1595.00;;;<p>Machine-Wash</p>;;;;;zerotype;;Winter;;No
2093466;08171595N244444-1-Green-2093466;Nature Casuals Men's Shirt;Draft;Shirts;Nature Casuals;Adults-Men;Men;Green;;;Fashion;Casual;2017;36,NECSSHRT00005774,38,NECSSHRT00005775,40,NECSSHRT00005776,42,NECSSHRT00005777,44,NECSSHRT00005778;1595.00;;;<p>Machine-Wash</p>;;;;;zerotype;;Winter;;No
2093465;08171595N244544-6-Mustard-2093465;Nature Casuals Men's Shirt;Draft;Shirts;Nature Casuals;Adults-Men;Men;Mustard;;;Fashion;Casual;2017;36,NECSSHRT00005769,38,NECSSHRT00005770,40,NECSSHRT00005771,42,NECSSHRT00005772,44,NECSSHRT00005773;1595.00;;;<p>Machine-Wash</p>;;;;;zerotype;;Winter;;No
2093463;08171595N244544-5-Rust-2093463;Nature Casuals Men's Shirt;Draft;Shirts;Nature Casuals;Adults-Men;Men;Rust;;;Fashion;Casual;2017;36,NECSSHRT00005764,38,NECSSHRT00005765,40,NECSSHRT00005766,42,NECSSHRT00005767,44,NECSSHRT00005768;1595.00;;;<p>Machine-Wash</p>;;;;;zerotype;;Winter;;No
2093462;08171595N244544-4-Olive-2093462;Nature Casuals Men's Shirt;Draft;Shirts;Nature Casuals;Adults-Men;Men;Olive;;;Fashion;Casual;2017;36,NECSSHRT00005759,38,NECSSHRT00005760,40,NECSSHRT00005761,42,NECSSHRT00005762,44,NECSSHRT00005763;1595.00;;;<p>Machine-Wash</p>;;;;;zerotype;;Winter;;No
2093461;08171595N244544-3-Burgundy-2093461;Nature Casuals Men's Shirt;Draft;Shirts;Nature Casuals;Adults-Men;Men;Burgundy;;;Fashion;Casual;2017;36,NECSSHRT00005754,38,NECSSHRT00005755,40,NECSSHRT00005756,42,NECSSHRT00005757,44,NECSSHRT00005758;1595.00;;;<p>Machine-Wash</p>;;;;;zerotype;;Winter;;No
2093460;08171595N244544-2-Beige-2093460;Nature Casuals Men's Shirt;Draft;Shirts;Nature Casuals;Adults-Men;Men;Beige;;;Fashion;Casual;2017;36,NECSSHRT00005749,38,NECSSHRT00005750,40,NECSSHRT00005751,42,NECSSHRT00005752,44,NECSSHRT00005753;1595.00;;;<p>Machine-Wash</p>;;;;;zerotype;;Winter;;No
2093459;08171595N244544-1-Charcoal-2093459;Nature Casuals Men's Shirt;Draft;Shirts;Nature Casuals;Adults-Men;Men;Charcoal;;;Fashion;Casual;2017;36,NECSSHRT00005744,38,NECSSHRT00005745,40,NECSSHRT00005746,42,NECSSHRT00005747,44,NECSSHRT00005748;1595.00;;;<p>Machine-Wash</p>;;;;;zerotype;;Winter;;No
2093454;08171495N259144-4-Blue-2093454;Nature Casuals Men's Solid Shirt;Draft;Shirts;Nature Casuals;Adults-Men;Men;Blue;;;Fashion;Casual;2017;36,NECSSHRT00005719,38,NECSSHRT00005720,40,NECSSHRT00005721,42,NECSSHRT00005722,44,NECSSHRT00005723;1495.00;;;<p>Machine-Wash</p>;;;;;zerotype;;Winter;;No
2093453;08171495N259144-3-Burgundy-2093453;Nature Casuals Men's Solid Shirt;Draft;Shirts;Nature Casuals;Adults-Men;Men;Burgundy;;;Fashion;Casual;2017;36,NECSSHRT00005714,38,NECSSHRT00005715,40,NECSSHRT00005716,42,NECSSHRT00005717,44,NECSSHRT00005718;1495.00;;;<p>Machine-Wash</p>;;;;;zerotype;;Winter;;No
2093452;08171495N259144-2-Charcoal-2093452;Nature Casuals Men's Solid Shirt;Draft;Shirts;Nature Casuals;Adults-Men;Men;Charcoal;;;Fashion;Casual;2017;36,NECSSHRT00005709,38,NECSSHRT00005710,40,NECSSHRT00005711,42,NECSSHRT00005712,44,NECSSHRT00005713;1495.00;;;<p>Machine-Wash</p>;;;;;zerotype;;Winter;;No
2093451;08171495N259144-1-Blue-2093451;Nature Casuals Men's Solid Shirt;Draft;Shirts;Nature Casuals;Adults-Men;Men;Blue;;;Fashion;Casual;2017;36,NECSSHRT00005704,38,NECSSHRT00005705,40,NECSSHRT00005706,42,NECSSHRT00005707,44,NECSSHRT00005708;1495.00;;;<p>Machine-Wash</p>;;;;;zerotype;;Winter;;No
2093450;08171595N261144-4-Khaki-2093450;Nature Casuals Men's Twill Shirt;Draft;Shirts;Nature Casuals;Adults-Men;Men;Khaki;;;Fashion;Casual;2017;36,NECSSHRT00005699,38,NECSSHRT00005700,40,NECSSHRT00005701,42,NECSSHRT00005702,44,NECSSHRT00005703;1595.00;;;<p>Machine-Wash</p>;;;;;zerotype;;Winter;;No
2093448;08171595N261144-3-Brown-2093448;Nature Casuals Men's Twill Shirt;Draft;Shirts;Nature Casuals;Adults-Men;Men;Brown;;;Fashion;Casual;2017;36,NECSSHRT00005694,38,NECSSHRT00005695,40,NECSSHRT00005696,42,NECSSHRT00005697,44,NECSSHRT00005698;1595.00;;;<p>Machine-Wash</p>;;;;;zerotype;;Winter;;No
2093447;08171595N261144-2-Black-2093447;Nature Casuals Men's Twill Shirt;Draft;Shirts;Nature Casuals;Adults-Men;Men;Black;;;Fashion;Casual;2017;36,NECSSHRT00005689,38,NECSSHRT00005690,40,NECSSHRT00005691,42,NECSSHRT00005692,44,NECSSHRT00005693;1595.00;;;<p>Machine-Wash</p>;;;;;zerotype;;Winter;;No
2093446;08171595N261144-1-Olive-2093446;Nature Casuals Men's Twill Shirt;Draft;Shirts;Nature Casuals;Adults-Men;Men;Olive;;;Fashion;Casual;2017;36,NECSSHRT00005684,38,NECSSHRT00005685,40,NECSSHRT00005686,42,NECSSHRT00005687,44,NECSSHRT00005688;1595.00;;;<p>Machine-Wash</p>;;;;;zerotype;;Winter;;No
2093330;08171595J263536-5-Navy Blue-2093330;Nature Casuals Joggers;Draft;Lounge Pants;Nature Casuals;Adults-Men;Men;Navy Blue;;;Fashion;Casual;2017;28,NECSLNGP00000081,30,NECSLNGP00000082,32,NECSLNGP00000083,34,NECSLNGP00000084,36,NECSLNGP00000085;1595.00;;;<p>Machine-Wash</p>;;;;;zerotype;;Winter;;No
2093329;08171595J263536-4-Brown-2093329;Nature Casuals Joggers;Draft;Lounge Pants;Nature Casuals;Adults-Men;Men;Brown;;;Fashion;Casual;2017;28,NECSLNGP00000076,30,NECSLNGP00000077,32,NECSLNGP00000078,34,NECSLNGP00000079,36,NECSLNGP00000080;1595.00;;;<p>Machine-Wash</p>;;;;;zerotype;;Winter;;No
2093328;08171595J263536-3-Black-2093328;Nature Casuals Joggers;Draft;Lounge Pants;Nature Casuals;Adults-Men;Men;Black;;;Fashion;Casual;2017;28,NECSLNGP00000071,30,NECSLNGP00000072,32,NECSLNGP00000073,34,NECSLNGP00000074,36,NECSLNGP00000075;1595.00;;;<p>Machine-Wash</p>;;;;;zerotype;;Winter;;No
2093326;08171595J263536-2-Cream-2093326;Nature Casuals Joggers;Draft;Lounge Pants;Nature Casuals;Adults-Men;Men;Cream;;;Fashion;Casual;2017;28,NECSLNGP00000066,30,NECSLNGP00000067,32,NECSLNGP00000068,34,NECSLNGP00000069,36,NECSLNGP00000070;1595.00;;;<p>Machine-Wash</p>;;;;;zerotype;;Winter;;No
2093324;08171495S264338-5-Beige-2093324;Nature Casuals Men's Short;Draft;Shorts;Nature Casuals;Adults-Men;Men;Beige;;;Fashion;Casual;2017;30,NECSSHOR00000381,32,NECSSHOR00000382,34,NECSSHOR00000383,36,NECSSHOR00000384,38,NECSSHOR00000385;1495.00;;;<p>Machine-Wash</p>;;;;;zerotype;;Winter;;No
2093323;08171495S264338-4-Khaki-2093323;Nature Casuals Men's Short;Draft;Shorts;Nature Casuals;Adults-Men;Men;Khaki;;;Fashion;Casual;2017;30,NECSSHOR00000376,32,NECSSHOR00000377,34,NECSSHOR00000378,36,NECSSHOR00000379,38,NECSSHOR00000380;1495.00;;;<p>Machine-Wash</p>;;;;;zerotype;;Winter;;No
2093322;08171495S264338-3-Olive-2093322;Nature Casuals Men's Short;Draft;Shorts;Nature Casuals;Adults-Men;Men;Olive;;;Fashion;Casual;2017;30,NECSSHOR00000371,32,NECSSHOR00000372,34,NECSSHOR00000373,36,NECSSHOR00000374,38,NECSSHOR00000375;1495.00;;;<p>Machine-Wash</p>;;;;;zerotype;;Winter;;No
2093320;08171495S264338-2-Navy Blue-2093320;Nature Casuals Men's Short;Draft;Shorts;Nature Casuals;Adults-Men;Men;Navy Blue;;;Fashion;Casual;2017;30,NECSSHOR00000366,32,NECSSHOR00000367,34,NECSSHOR00000368,36,NECSSHOR00000369,38,NECSSHOR00000370;1495.00;;;<p>Machine-Wash</p>;;;;;zerotype;;Winter;;No
2093319;08171495S264338-1-Off White-2093319;Nature Casuals Men's Short;Draft;Shorts;Nature Casuals;Adults-Men;Men;Off White;;;Fashion;Casual;2017;30,NECSSHOR00000361,32,NECSSHOR00000362,34,NECSSHOR00000363,36,NECSSHOR00000364,38,NECSSHOR00000365;1495.00;;;<p>Machine-Wash</p>;;;;;zerotype;;Winter;;No
2092640;08171595N260738-5-Black-2092640;Nature Casuals Men's Chinos;Draft;Trousers;Nature Casuals;Adults-Men;Men;Black;;;Fashion;Casual;2017;30,NECSTRSR00000434,32,NECSTRSR00000435,34,NECSTRSR00000436,36,NECSTRSR00000437,38,NECSTRSR00000438;1595.00;;;<p>Machine-Wash</p>;;;;;zerotype;;Winter;;No
2092639;08171595N260738-4-White-2092639;Nature Casuals Men's Chinos;Draft;Trousers;Nature Casuals;Adults-Men;Men;White;;;Fashion;Casual;2017;30,NECSTRSR00000429,32,NECSTRSR00000430,34,NECSTRSR00000431,36,NECSTRSR00000432,38,NECSTRSR00000433;1595.00;;;<p>Machine-Wash</p>;;;;;zerotype;;Winter;;No
2092636;08171595N260738-2-Steel-2092636;Nature Casuals Men's Chinos;Draft;Trousers;Nature Casuals;Adults-Men;Men;Steel;;;Fashion;Casual;2017;30,NECSTRSR00000419,32,NECSTRSR00000420,34,NECSTRSR00000421,36,NECSTRSR00000422,38,NECSTRSR00000423;1595.00;;;<p>Machine-Wash</p>;;;;;zerotype;;Winter;;No
2092634;08171595N260738-1-Off White-2092634;Nature Casuals Men's Chinos;Draft;Trousers;Nature Casuals;Adults-Men;Men;Off White;;;Fashion;Casual;2017;30,NECSTRSR00000414,32,NECSTRSR00000415,34,NECSTRSR00000416,36,NECSTRSR00000417,38,NECSTRSR00000418;1595.00;;;<p>Machine-Wash</p>;;;;;zerotype;;Winter;;No
2062757;S52W154054-L.MEL-2062757;S52WSKBS049FL.MELM;Draft;Sweatshirts;FIFTY TWO;Adults-Men;Men;Grey;;;Core;;2017;M,FTTOSWSH00000158;2495.00;;;<p>Dry Clean Preferred, Wash Inside Out Separately, Use Mild Detergent, Do Not Bleach, Drip Dry in Shade, Warm Iron, Do Not Iron on Decoration</p>;;;;;zerotype;;Winter;;No
2062756;S52W154050-AIRFORCE-2062756;S52WSKBS049FAIRFORCEM;Draft;Sweatshirts;FIFTY TWO;Adults-Men;Men;Blue;;;Core;;2017;M,FTTOSWSH00000157;2495.00;;;<p>Dry Clean Preferred, Wash Inside Out Separately, Use Mild Detergent, Do Not Bleach, Drip Dry in Shade, Warm Iron, Do Not Iron on Decoration</p>;;;;;zerotype;;Winter;;No
2062755;S52W154046-GREEN-2062755;S52WSKBS049FGREENM;Draft;Sweatshirts;FIFTY TWO;Adults-Men;Men;Green;;;Core;;2017;M,FTTOSWSH00000156;2495.00;;;<p>Dry Clean Preferred, Wash Inside Out Separately, Use Mild Detergent, Do Not Bleach, Drip Dry in Shade, Warm Iron, Do Not Iron on Decoration</p>;;;;;zerotype;;Winter;;No
2062754;S52W154042-NAVY-2062754;S52WSKBS049FNAVYM;Draft;Sweatshirts;FIFTY TWO;Adults-Men;Men;Navy Blue;;;Core;;2017;M,FTTOSWSH00000155;2495.00;;;<p>Dry Clean Preferred, Wash Inside Out Separately, Use Mild Detergent, Do Not Bleach, Drip Dry in Shade, Warm Iron, Do Not Iron on Decoration</p>;;;;;zerotype;;Winter;;No
2062752;S52W154038-BLACK-2062752;S52WSKBS049FBLACKM;Draft;Sweatshirts;FIFTY TWO;Adults-Men;Men;Black;;;Core;;2017;M,FTTOSWSH00000154;2495.00;;;<p>Dry Clean Preferred, Wash Inside Out Separately, Use Mild Detergent, Do Not Bleach, Drip Dry in Shade, Warm Iron, Do Not Iron on Decoration</p>;;;;;zerotype;;Winter;;No
2062751;S52W154034-L.MEL-2062751;S52WSKBS048FL.MELM;Draft;Sweatshirts;FIFTY TWO;Adults-Men;Men;Grey;;;Core;;2017;M,FTTOSWSH00000153;2495.00;;;<p>Dry Clean Preferred, Wash Inside Out Separately, Use Mild Detergent, Do Not Bleach, Drip Dry in Shade, Warm Iron, Do Not Iron on Decoration</p>;;;;;zerotype;;Winter;;No
2062750;S52W154030-AIRFORCE-2062750;S52WSKBS048FAIRFORCEM;Draft;Sweatshirts;FIFTY TWO;Adults-Men;Men;Blue;;;Core;;2017;M,FTTOSWSH00000152;2495.00;;;<p>Dry Clean Preferred, Wash Inside Out Separately, Use Mild Detergent, Do Not Bleach, Drip Dry in Shade, Warm Iron, Do Not Iron on Decoration</p>;;;;;zerotype;;Winter;;No
2062749;S52W154026-GREEN-2062749;S52WSKBS048FGREENM;Draft;Sweatshirts;FIFTY TWO;Adults-Men;Men;Green;;;Core;;2017;M,FTTOSWSH00000151;2495.00;;;<p>Dry Clean Preferred, Wash Inside Out Separately, Use Mild Detergent, Do Not Bleach, Drip Dry in Shade, Warm Iron, Do Not Iron on Decoration</p>;;;;;zerotype;;Winter;;No
2062748;S52W154022-NAVY-2062748;S52WSKBS048FNAVYM;Draft;Sweatshirts;FIFTY TWO;Adults-Men;Men;Navy Blue;;;Core;;2017;M,FTTOSWSH00000150;2495.00;;;<p>Dry Clean Preferred, Wash Inside Out Separately, Use Mild Detergent, Do Not Bleach, Drip Dry in Shade, Warm Iron, Do Not Iron on Decoration</p>;;;;;zerotype;;Winter;;No
2062747;S52W154018-BLACK-2062747;S52WSKBS048FBLACKM;Draft;Sweatshirts;FIFTY TWO;Adults-Men;Men;Black;;;Core;;2017;M,FTTOSWSH00000149;2495.00;;;<p>Dry Clean Preferred, Wash Inside Out Separately, Use Mild Detergent, Do Not Bleach, Drip Dry in Shade, Warm Iron, Do Not Iron on Decoration</p>;;;;;zerotype;;Winter;;No
2062746;S52W154014-L.MEL-2062746;S52WSKBS047FL.MELM;Draft;Sweatshirts;FIFTY TWO;Adults-Men;Men;Grey;;;Core;;2017;M,FTTOSWSH00000148;2495.00;;;<p>Dry Clean Preferred, Wash Inside Out Separately, Use Mild Detergent, Do Not Bleach, Drip Dry in Shade, Warm Iron, Do Not Iron on Decoration</p>;;;;;zerotype;;Winter;;No
2062745;S52W154010-AIRFORCE-2062745;S52WSKBS047FAIRFORCEM;Draft;Sweatshirts;FIFTY TWO;Adults-Men;Men;Blue;;;Core;;2017;M,FTTOSWSH00000147;2495.00;;;<p>Dry Clean Preferred, Wash Inside Out Separately, Use Mild Detergent, Do Not Bleach, Drip Dry in Shade, Warm Iron, Do Not Iron on Decoration</p>;;;;;zerotype;;Winter;;No
2062744;S52W154006-GREEN-2062744;S52WSKBS047FGREENM;Draft;Sweatshirts;FIFTY TWO;Adults-Men;Men;Green;;;Core;;2017;M,FTTOSWSH00000146;2495.00;;;<p>Dry Clean Preferred, Wash Inside Out Separately, Use Mild Detergent, Do Not Bleach, Drip Dry in Shade, Warm Iron, Do Not Iron on Decoration</p>;;;;;zerotype;;Winter;;No
2062743;S52W154002-NAVY-2062743;S52WSKBS047FNAVYM;Draft;Sweatshirts;FIFTY TWO;Adults-Men;Men;Navy Blue;;;Core;;2017;M,FTTOSWSH00000145;2495.00;;;<p>Dry Clean Preferred, Wash Inside Out Separately, Use Mild Detergent, Do Not Bleach, Drip Dry in Shade, Warm Iron, Do Not Iron on Decoration</p>;;;;;zerotype;;Winter;;No
2062742;S52W153998-BLACK-2062742;S52WSKBS047FBLACKM;Draft;Sweatshirts;FIFTY TWO;Adults-Men;Men;Black;;;Core;;2017;M,FTTOSWSH00000144;2495.00;;;<p>Dry Clean Preferred, Wash Inside Out Separately, Use Mild Detergent, Do Not Bleach, Drip Dry in Shade, Warm Iron, Do Not Iron on Decoration</p>;;;;;zerotype;;Winter;;No
2062727;S52W153938-L.MEL-2062727;S52WSKBS046FL.MELM;Draft;Sweatshirts;FIFTY TWO;Adults-Men;Men;Grey;;;Core;;2017;M,FTTOSWSH00000129;2495.00;;;<p>Dry Clean Preferred, Wash Inside Out Separately, Use Mild Detergent, Do Not Bleach, Drip Dry in Shade, Warm Iron, Do Not Iron on Decoration</p>;;;;;zerotype;;Winter;;No
2062726;S52W153934-NAVY-2062726;S52WSKBS046FNAVYM;Draft;Sweatshirts;FIFTY TWO;Adults-Men;Men;Navy Blue;;;Core;;2017;M,FTTOSWSH00000128;2495.00;;;<p>Dry Clean Preferred, Wash Inside Out Separately, Use Mild Detergent, Do Not Bleach, Drip Dry in Shade, Warm Iron, Do Not Iron on Decoration</p>;;;;;zerotype;;Winter;;No
2062725;S52W153930-BLACK-2062725;S52WSKBS046FBLACKM;Draft;Sweatshirts;FIFTY TWO;Adults-Men;Men;Black;;;Core;;2017;M,FTTOSWSH00000127;2495.00;;;<p>Dry Clean Preferred, Wash Inside Out Separately, Use Mild Detergent, Do Not Bleach, Drip Dry in Shade, Warm Iron, Do Not Iron on Decoration</p>;;;;;zerotype;;Winter;;No
2062724;S52W153926-D.MEL-2062724;S52WSKBSZ003FD.MELM;Draft;Sweatshirts;FIFTY TWO;Adults-Men;Men;Grey;;;Core;;2017;M,FTTOSWSH00000126;1695.00;;;<p>Dry Clean Preferred, Wash Inside Out Separately, Use Mild Detergent, Do Not Bleach, Drip Dry in Shade, Warm Iron, Do Not Iron on Decoration</p>;;;;;zerotype;;Winter;;No
2062723;S52W153922-L.MEL-2062723;S52WSKBSZ003FL.MELM;Draft;Sweatshirts;FIFTY TWO;Adults-Men;Men;Grey;;;Core;;2017;M,FTTOSWSH00000125;1695.00;;;<p>Dry Clean Preferred, Wash Inside Out Separately, Use Mild Detergent, Do Not Bleach, Drip Dry in Shade, Warm Iron, Do Not Iron on Decoration</p>;;;;;zerotype;;Winter;;No
2062722;S52W153914-BLACK-2062722;S52WSKBSZ003FBLACKM;Draft;Sweatshirts;FIFTY TWO;Adults-Men;Men;Black;;;Core;;2017;M,FTTOSWSH00000124;1695.00;;;<p>Dry Clean Preferred, Wash Inside Out Separately, Use Mild Detergent, Do Not Bleach, Drip Dry in Shade, Warm Iron, Do Not Iron on Decoration</p>;;;;;zerotype;;Winter;;No
2062720;S52W153910-D.MEL-2062720;S52WSKBSZ002FD.MELM;Draft;Sweatshirts;FIFTY TWO;Adults-Men;Men;Grey;;;Core;;2017;M,FTTOSWSH00000123;1695.00;;;<p>Dry Clean Preferred, Wash Inside Out Separately, Use Mild Detergent, Do Not Bleach, Drip Dry in Shade, Warm Iron, Do Not Iron on Decoration</p>;;;;;zerotype;;Winter;;No
2062719;S52W153906-L.MEL-2062719;S52WSKBSZ002FL.MELM;Draft;Sweatshirts;FIFTY TWO;Adults-Men;Men;Grey;;;Core;;2017;M,FTTOSWSH00000122;1695.00;;;<p>Dry Clean Preferred, Wash Inside Out Separately, Use Mild Detergent, Do Not Bleach, Drip Dry in Shade, Warm Iron, Do Not Iron on Decoration</p>;;;;;zerotype;;Winter;;No
2062718;S52W153902-NAVY-2062718;S52WSKBSZ002FNAVYM;Draft;Sweatshirts;FIFTY TWO;Adults-Men;Men;Navy Blue;;;Core;;2017;M,FTTOSWSH00000121;1695.00;;;<p>Dry Clean Preferred, Wash Inside Out Separately, Use Mild Detergent, Do Not Bleach, Drip Dry in Shade, Warm Iron, Do Not Iron on Decoration</p>;;;;;zerotype;;Winter;;No
2062717;S52W153898-BLACK-2062717;S52WSKBSZ002FBLACKM;Draft;Sweatshirts;FIFTY TWO;Adults-Men;Men;Black;;;Core;;2017;M,FTTOSWSH00000120;1695.00;;;<p>Dry Clean Preferred, Wash Inside Out Separately, Use Mild Detergent, Do Not Bleach, Drip Dry in Shade, Warm Iron, Do Not Iron on Decoration</p>;;;;;zerotype;;Winter;;No
2062492;S52W152671-OLIVE GREEN-2062492;S52WHC088FNBMOLIVE GREENXXL/36;Draft;Shorts;FIFTY TWO;Adults-Men;Men;Green;;;Core;;2017;30,FTTOSHOR00000945,32,FTTOSHOR00000946,34,FTTOSHOR00000947,36,FTTOSHOR00000948;1995.00;;;<p>Dry Clean Preferred, Wash Inside Out Separately, Use Mild Detergent, Do Not Bleach, Drip Dry in Shade, Warm Iron, Do Not Iron on Decoration</p>;;;;;zerotype;;Winter;;No
2062491;S52W152667-NAVY BLUE-2062491;S52WHC088FNBMNAVY BLUEXXL/36;Draft;Shorts;FIFTY TWO;Adults-Men;Men;Navy Blue;;;Core;;2017;30,FTTOSHOR00000941,32,FTTOSHOR00000942,34,FTTOSHOR00000943,36,FTTOSHOR00000944;1995.00;;;<p>Dry Clean Preferred, Wash Inside Out Separately, Use Mild Detergent, Do Not Bleach, Drip Dry in Shade, Warm Iron, Do Not Iron on Decoration</p>;;;;;zerotype;;Winter;;No
2062490;S52W152663-GREY-2062490;S52WHC088FNBMGREYXXL/36;Draft;Shorts;FIFTY TWO;Adults-Men;Men;Grey;;;Core;;2017;30,FTTOSHOR00000937,32,FTTOSHOR00000938,34,FTTOSHOR00000939,36,FTTOSHOR00000940;1995.00;;;<p>Dry Clean Preferred, Wash Inside Out Separately, Use Mild Detergent, Do Not Bleach, Drip Dry in Shade, Warm Iron, Do Not Iron on Decoration</p>;;;;;zerotype;;Winter;;No
2062489;S52W152659-DARK KHAKI-2062489;S52WHC088FNBMDARK KHAKIXXL/36;Draft;Shorts;FIFTY TWO;Adults-Men;Men;Khaki;;;Core;;2017;30,FTTOSHOR00000933,32,FTTOSHOR00000934,34,FTTOSHOR00000935,36,FTTOSHOR00000936;1995.00;;;<p>Dry Clean Preferred, Wash Inside Out Separately, Use Mild Detergent, Do Not Bleach, Drip Dry in Shade, Warm Iron, Do Not Iron on Decoration</p>;;;;;zerotype;;Winter;;No
2062488;S52W152655-CAMEL-2062488;S52WHC088FNBMCAMELXXL/36;Draft;Shorts;FIFTY TWO;Adults-Men;Men;Brown;;;Core;;2017;30,FTTOSHOR00000929,32,FTTOSHOR00000930,34,FTTOSHOR00000931,36,FTTOSHOR00000932;1995.00;;;<p>Dry Clean Preferred, Wash Inside Out Separately, Use Mild Detergent, Do Not Bleach, Drip Dry in Shade, Warm Iron, Do Not Iron on Decoration</p>;;;;;zerotype;;Winter;;No
2062487;S52W152651-BROWN-2062487;S52WHC088FNBMBROWNXXL/36;Draft;Shorts;FIFTY TWO;Adults-Men;Men;Brown;;;Core;;2017;30,FTTOSHOR00000925,32,FTTOSHOR00000926,34,FTTOSHOR00000927,36,FTTOSHOR00000928;1995.00;;;<p>Dry Clean Preferred, Wash Inside Out Separately, Use Mild Detergent, Do Not Bleach, Drip Dry in Shade, Warm Iron, Do Not Iron on Decoration</p>;;;;;zerotype;;Winter;;No
2062485;S52W152647-BLACK-2062485;S52WHC088FNBMBLACKXXL/36;Draft;Shorts;FIFTY TWO;Adults-Men;Men;Black;;;Core;;2017;30,FTTOSHOR00000921,32,FTTOSHOR00000922,34,FTTOSHOR00000923,36,FTTOSHOR00000924;1995.00;;;<p>Dry Clean Preferred, Wash Inside Out Separately, Use Mild Detergent, Do Not Bleach, Drip Dry in Shade, Warm Iron, Do Not Iron on Decoration</p>;;;;;zerotype;;Winter;;No
2062484;S52W152643-BEIGE-2062484;S52WHC088FNBMBEIGEXXL/36;Draft;Shorts;FIFTY TWO;Adults-Men;Men;Beige;;;Core;;2017;30,FTTOSHOR00000917,32,FTTOSHOR00000918,34,FTTOSHOR00000919,36,FTTOSHOR00000920;1995.00;;;<p>Dry Clean Preferred, Wash Inside Out Separately, Use Mild Detergent, Do Not Bleach, Drip Dry in Shade, Warm Iron, Do Not Iron on Decoration</p>;;;;;zerotype;;Winter;;No
2062464;S52W152479-OLIVE GREEN-2062464;S52WHC085FNBMOLIVE GREENXXL/36;Draft;Shorts;FIFTY TWO;Adults-Men;Men;Green;;;Core;;2017;30,FTTOSHOR00000849,32,FTTOSHOR00000850,34,FTTOSHOR00000851,36,FTTOSHOR00000852;1995.00;;;<p>Dry Clean Preferred, Wash Inside Out Separately, Use Mild Detergent, Do Not Bleach, Drip Dry in Shade, Warm Iron, Do Not Iron on Decoration</p>;;;;;zerotype;;Winter;;No
2062463;S52W152475-NAVY BLUE-2062463;S52WHC085FNBMNAVY BLUEXXL/36;Draft;Shorts;FIFTY TWO;Adults-Men;Men;Navy Blue;;;Core;;2017;30,FTTOSHOR00000845,32,FTTOSHOR00000846,34,FTTOSHOR00000847,36,FTTOSHOR00000848;1995.00;;;<p>Dry Clean Preferred, Wash Inside Out Separately, Use Mild Detergent, Do Not Bleach, Drip Dry in Shade, Warm Iron, Do Not Iron on Decoration</p>;;;;;zerotype;;Winter;;No
2062461;S52W152471-GREY-2062461;S52WHC085FNBMGREYXXL/36;Draft;Shorts;FIFTY TWO;Adults-Men;Men;Grey;;;Core;;2017;30,FTTOSHOR00000841,32,FTTOSHOR00000842,34,FTTOSHOR00000843,36,FTTOSHOR00000844;1995.00;;;<p>Dry Clean Preferred, Wash Inside Out Separately, Use Mild Detergent, Do Not Bleach, Drip Dry in Shade, Warm Iron, Do Not Iron on Decoration</p>;;;;;zerotype;;Winter;;No
2062460;S52W152467-DARK KHAKI-2062460;S52WHC085FNBMDARK KHAKIXXL/36;Draft;Shorts;FIFTY TWO;Adults-Men;Men;Khaki;;;Core;;2017;30,FTTOSHOR00000837,32,FTTOSHOR00000838,34,FTTOSHOR00000839,36,FTTOSHOR00000840;1995.00;;;<p>Dry Clean Preferred, Wash Inside Out Separately, Use Mild Detergent, Do Not Bleach, Drip Dry in Shade, Warm Iron, Do Not Iron on Decoration</p>;;;;;zerotype;;Winter;;No
2062459;S52W152463-CAMEL-2062459;S52WHC085FNBMCAMELXXL/36;Draft;Shorts;FIFTY TWO;Adults-Men;Men;Brown;;;Core;;2017;30,FTTOSHOR00000833,32,FTTOSHOR00000834,34,FTTOSHOR00000835,36,FTTOSHOR00000836;1995.00;;;<p>Dry Clean Preferred, Wash Inside Out Separately, Use Mild Detergent, Do Not Bleach, Drip Dry in Shade, Warm Iron, Do Not Iron on Decoration</p>;;;;;zerotype;;Winter;;No
2062458;S52W152459-BROWN-2062458;S52WHC085FNBMBROWNXXL/36;Draft;Shorts;FIFTY TWO;Adults-Men;Men;Brown;;;Core;;2017;30,FTTOSHOR00000829,32,FTTOSHOR00000830,34,FTTOSHOR00000831,36,FTTOSHOR00000832;1995.00;;;<p>Dry Clean Preferred, Wash Inside Out Separately, Use Mild Detergent, Do Not Bleach, Drip Dry in Shade, Warm Iron, Do Not Iron on Decoration</p>;;;;;zerotype;;Winter;;No
2062457;S52W152455-BLACK-2062457;S52WHC085FNBMBLACKXXL/36;Draft;Shorts;FIFTY TWO;Adults-Men;Men;Black;;;Core;;2017;30,FTTOSHOR00000825,32,FTTOSHOR00000826,34,FTTOSHOR00000827,36,FTTOSHOR00000828;1995.00;;;<p>Dry Clean Preferred, Wash Inside Out Separately, Use Mild Detergent, Do Not Bleach, Drip Dry in Shade, Warm Iron, Do Not Iron on Decoration</p>;;;;;zerotype;;Winter;;No
2062456;S52W152451-BEIGE-2062456;S52WHC085FNBMBEIGEXXL/36;Draft;Shorts;FIFTY TWO;Adults-Men;Men;Beige;;;Core;;2017;30,FTTOSHOR00000821,32,FTTOSHOR00000822,34,FTTOSHOR00000823,36,FTTOSHOR00000824;1995.00;;;<p>Dry Clean Preferred, Wash Inside Out Separately, Use Mild Detergent, Do Not Bleach, Drip Dry in Shade, Warm Iron, Do Not Iron on Decoration</p>;;;;;zerotype;;Winter;;No
2062455;S52W151843-NAVY.GREEN-2062455;S52WDYM5201FNAVY.GREENM;Draft;Shorts;FIFTY TWO;Adults-Men;Men;Navy Blue;;;Core;;2017;L,FTTOSHOR00000817,XL,FTTOSHOR00000818,XXL,FTTOSHOR00000819,3XL,FTTOSHOR00000820,M,FTTOSHOR00000950;895.00;;;<p>Dry Clean Preferred, Wash Inside Out Separately, Use Mild Detergent, Do Not Bleach, Drip Dry in Shade, Warm Iron, Do Not Iron on Decoration</p>;;;;;zerotype;;Winter;;No
2062452;S52W151833-BLK.GRY-2062452;S52WDYM5201FBLK.GRYM;Draft;Shorts;FIFTY TWO;Adults-Men;Men;Black;;;Core;;2017;L,FTTOSHOR00000810,XL,FTTOSHOR00000811,XXL,FTTOSHOR00000812,3XL,FTTOSHOR00000813,M,FTTOSHOR00000949;895.00;;;<p>Dry Clean Preferred, Wash Inside Out Separately, Use Mild Detergent, Do Not Bleach, Drip Dry in Shade, Warm Iron, Do Not Iron on Decoration</p>;;;;;zerotype;;Winter;;No
2062308;S52W153155-Olive Green-2062308;S52WHC087FJNBKOlive GreenXXL/36;Draft;Trousers;FIFTY TWO;Adults-Men;Men;Green;;;Core;;2017;30,FTTOTRSR00000540,32,FTTOTRSR00000541,34,FTTOTRSR00000542,36,FTTOTRSR00000543;2595.00;;;<p>Dry Clean Preferred, Wash Inside Out Separately, Use Mild Detergent, Do Not Bleach, Drip Dry in Shade, Warm Iron, Do Not Iron on Decoration</p>;;;;;zerotype;;Winter;;No
2062307;S52W153151-Navy-2062307;S52WHC087FJNBKNavyXXL/36;Draft;Trousers;FIFTY TWO;Adults-Men;Men;Navy Blue;;;Core;;2017;30,FTTOTRSR00000536,32,FTTOTRSR00000537,34,FTTOTRSR00000538,36,FTTOTRSR00000539;2595.00;;;<p>Dry Clean Preferred, Wash Inside Out Separately, Use Mild Detergent, Do Not Bleach, Drip Dry in Shade, Warm Iron, Do Not Iron on Decoration</p>;;;;;zerotype;;Winter;;No
2062306;S52W153147-Khaki-2062306;S52WHC087FJNBKNavyL/32;Draft;Trousers;FIFTY TWO;Adults-Men;Men;Khaki;;;Core;;2017;30,FTTOTRSR00000532,32,FTTOTRSR00000533,34,FTTOTRSR00000534,36,FTTOTRSR00000535;2595.00;;;<p>Dry Clean Preferred, Wash Inside Out Separately, Use Mild Detergent, Do Not Bleach, Drip Dry in Shade, Warm Iron, Do Not Iron on Decoration</p>;;;;;zerotype;;Winter;;No
2062305;S52W153143-Grey-2062305;S52WHC087FJNBKGreyXXL/36;Draft;Trousers;FIFTY TWO;Adults-Men;Men;Grey;;;Core;;2017;30,FTTOTRSR00000528,32,FTTOTRSR00000529,34,FTTOTRSR00000530,36,FTTOTRSR00000531;2595.00;;;<p>Dry Clean Preferred, Wash Inside Out Separately, Use Mild Detergent, Do Not Bleach, Drip Dry in Shade, Warm Iron, Do Not Iron on Decoration</p>;;;;;zerotype;;Winter;;No
2062304;S52W153139-Dark Beige-2062304;S52WHC087FJNBKDark BeigeXXL/36;Draft;Trousers;FIFTY TWO;Adults-Men;Men;Beige;;;Core;;2017;30,FTTOTRSR00000524,32,FTTOTRSR00000525,34,FTTOTRSR00000526,36,FTTOTRSR00000527;2595.00;;;<p>Dry Clean Preferred, Wash Inside Out Separately, Use Mild Detergent, Do Not Bleach, Drip Dry in Shade, Warm Iron, Do Not Iron on Decoration</p>;;;;;zerotype;;Winter;;No
2062303;S52W153135-Coffee Brown-2062303;S52WHC087FJNBKCoffee BrownXXL/36;Draft;Trousers;FIFTY TWO;Adults-Men;Men;Brown;;;Core;;2017;30,FTTOTRSR00000520,32,FTTOTRSR00000521,34,FTTOTRSR00000522,36,FTTOTRSR00000523;2595.00;;;<p>Dry Clean Preferred, Wash Inside Out Separately, Use Mild Detergent, Do Not Bleach, Drip Dry in Shade, Warm Iron, Do Not Iron on Decoration</p>;;;;;zerotype;;Winter;;No
2062302;S52W153131-Black-2062302;S52WHC087FJNBKBlackXXL/36;Draft;Trousers;FIFTY TWO;Adults-Men;Men;Black;;;Core;;2017;30,FTTOTRSR00000516,32,FTTOTRSR00000517,34,FTTOTRSR00000518,36,FTTOTRSR00000519;2595.00;;;<p>Dry Clean Preferred, Wash Inside Out Separately, Use Mild Detergent, Do Not Bleach, Drip Dry in Shade, Warm Iron, Do Not Iron on Decoration</p>;;;;;zerotype;;Winter;;No
2062300;S52W153127-Beige-2062300;S52WHC087FJNBKBeigeXXL/36;Draft;Trousers;FIFTY TWO;Adults-Men;Men;Beige;;;Core;;2017;30,FTTOTRSR00000512,32,FTTOTRSR00000513,34,FTTOTRSR00000514,36,FTTOTRSR00000515;2595.00;;;<p>Dry Clean Preferred, Wash Inside Out Separately, Use Mild Detergent, Do Not Bleach, Drip Dry in Shade, Warm Iron, Do Not Iron on Decoration</p>;;;;;zerotype;;Winter;;No
2062298;S52W153123-Olive Green-2062298;S52WHC087FNBKOlive GreenXXL/36;Draft;Trousers;FIFTY TWO;Adults-Men;Men;Green;;;Core;;2017;30,FTTOTRSR00000508,32,FTTOTRSR00000509,34,FTTOTRSR00000510,36,FTTOTRSR00000511;2495.00;;;<p>Dry Clean Preferred, Wash Inside Out Separately, Use Mild Detergent, Do Not Bleach, Drip Dry in Shade, Warm Iron, Do Not Iron on Decoration</p>;;;;;zerotype;;Winter;;No
2062297;S52W153119-Navy-2062297;S52WHC087FNBKNavyXXL/36;Draft;Trousers;FIFTY TWO;Adults-Men;Men;Navy Blue;;;Core;;2017;30,FTTOTRSR00000504,32,FTTOTRSR00000505,34,FTTOTRSR00000506,36,FTTOTRSR00000507;2495.00;;;<p>Dry Clean Preferred, Wash Inside Out Separately, Use Mild Detergent, Do Not Bleach, Drip Dry in Shade, Warm Iron, Do Not Iron on Decoration</p>;;;;;zerotype;;Winter;;No
2062296;S52W153115-Khaki-2062296;S52WHC087FNBKKhakiXXL/36;Draft;Trousers;FIFTY TWO;Adults-Men;Men;Khaki;;;Core;;2017;30,FTTOTRSR00000500,32,FTTOTRSR00000501,34,FTTOTRSR00000502,36,FTTOTRSR00000503;2495.00;;;<p>Dry Clean Preferred, Wash Inside Out Separately, Use Mild Detergent, Do Not Bleach, Drip Dry in Shade, Warm Iron, Do Not Iron on Decoration</p>;;;;;zerotype;;Winter;;No
2062294;S52W153107-Dark Beige-2062294;S52WHC087FNBKDark BeigeXXL/36;Draft;Trousers;FIFTY TWO;Adults-Men;Men;Beige;;;Core;;2017;30,FTTOTRSR00000492,32,FTTOTRSR00000493,34,FTTOTRSR00000494,36,FTTOTRSR00000495;2495.00;;;<p>Dry Clean Preferred, Wash Inside Out Separately, Use Mild Detergent, Do Not Bleach, Drip Dry in Shade, Warm Iron, Do Not Iron on Decoration</p>;;;;;zerotype;;Winter;;No
2062293;S52W153103-Coffee Brown-2062293;S52WHC087FNBKCoffee BrownXXL/36;Draft;Trousers;FIFTY TWO;Adults-Men;Men;Brown;;;Core;;2017;30,FTTOTRSR00000488,32,FTTOTRSR00000489,34,FTTOTRSR00000490,36,FTTOTRSR00000491;2495.00;;;<p>Dry Clean Preferred, Wash Inside Out Separately, Use Mild Detergent, Do Not Bleach, Drip Dry in Shade, Warm Iron, Do Not Iron on Decoration</p>;;;;;zerotype;;Winter;;No
2062292;S52W153099-Black-2062292;S52WHC087FNBKBlackXXL/36;Draft;Trousers;FIFTY TWO;Adults-Men;Men;Black;;;Core;;2017;30,FTTOTRSR00000484,32,FTTOTRSR00000485,34,FTTOTRSR00000486,36,FTTOTRSR00000487;2495.00;;;<p>Dry Clean Preferred, Wash Inside Out Separately, Use Mild Detergent, Do Not Bleach, Drip Dry in Shade, Warm Iron, Do Not Iron on Decoration</p>;;;;;zerotype;;Winter;;No
2062291;S52W153095-Beige-2062291;S52WHC087FNBKBeigeXXL/36;Draft;Trousers;FIFTY TWO;Adults-Men;Men;Beige;;;Core;;2017;30,FTTOTRSR00000480,32,FTTOTRSR00000481,34,FTTOTRSR00000482,36,FTTOTRSR00000483;2495.00;;;<p>Dry Clean Preferred, Wash Inside Out Separately, Use Mild Detergent, Do Not Bleach, Drip Dry in Shade, Warm Iron, Do Not Iron on Decoration</p>;;;;;zerotype;;Winter;;No
2062290;S52W153091-Olive Green-2062290;S52WHC086FJNBKOlive GreenXXL/36;Draft;Trousers;FIFTY TWO;Adults-Men;Men;Green;;;Core;;2017;30,FTTOTRSR00000476,32,FTTOTRSR00000477,34,FTTOTRSR00000478,36,FTTOTRSR00000479;2595.00;;;<p>Dry Clean Preferred, Wash Inside Out Separately, Use Mild Detergent, Do Not Bleach, Drip Dry in Shade, Warm Iron, Do Not Iron on Decoration</p>;;;;;zerotype;;Winter;;No
2062289;S52W153087-Navy-2062289;S52WHC086FJNBKNavyXXL/36;Draft;Trousers;FIFTY TWO;Adults-Men;Men;Navy Blue;;;Core;;2017;30,FTTOTRSR00000472,32,FTTOTRSR00000473,34,FTTOTRSR00000474,36,FTTOTRSR00000475;2595.00;;;<p>Dry Clean Preferred, Wash Inside Out Separately, Use Mild Detergent, Do Not Bleach, Drip Dry in Shade, Warm Iron, Do Not Iron on Decoration</p>;;;;;zerotype;;Winter;;No
2062287;S52W153083-Khaki-2062287;S52WHC086FJNBKKhakiXXL/36;Draft;Trousers;FIFTY TWO;Adults-Men;Men;Khaki;;;Core;;2017;30,FTTOTRSR00000468,32,FTTOTRSR00000469,34,FTTOTRSR00000470,36,FTTOTRSR00000471;2595.00;;;<p>Dry Clean Preferred, Wash Inside Out Separately, Use Mild Detergent, Do Not Bleach, Drip Dry in Shade, Warm Iron, Do Not Iron on Decoration</p>;;;;;zerotype;;Winter;;No
2062286;S52W153079-Grey-2062286;S52WHC086FJNBKGreyXXL/36;Draft;Trousers;FIFTY TWO;Adults-Men;Men;Grey;;;Core;;2017;30,FTTOTRSR00000464,32,FTTOTRSR00000465,34,FTTOTRSR00000466,36,FTTOTRSR00000467;2595.00;;;<p>Dry Clean Preferred, Wash Inside Out Separately, Use Mild Detergent, Do Not Bleach, Drip Dry in Shade, Warm Iron, Do Not Iron on Decoration</p>;;;;;zerotype;;Winter;;No
2062284;S52W153075-Dark Beige-2062284;S52WHC086FJNBKDark BeigeXXL/36;Draft;Trousers;FIFTY TWO;Adults-Men;Men;Beige;;;Core;;2017;30,FTTOTRSR00000460,32,FTTOTRSR00000461,34,FTTOTRSR00000462,36,FTTOTRSR00000463;2595.00;;;<p>Dry Clean Preferred, Wash Inside Out Separately, Use Mild Detergent, Do Not Bleach, Drip Dry in Shade, Warm Iron, Do Not Iron on Decoration</p>;;;;;zerotype;;Winter;;No
2062282;S52W153067-Black-2062282;S52WHC086FJNBKBlackXXL/36;Draft;Trousers;FIFTY TWO;Adults-Men;Men;Black;;;Core;;2017;30,FTTOTRSR00000452,32,FTTOTRSR00000453,34,FTTOTRSR00000454,36,FTTOTRSR00000455;2595.00;;;<p>Dry Clean Preferred, Wash Inside Out Separately, Use Mild Detergent, Do Not Bleach, Drip Dry in Shade, Warm Iron, Do Not Iron on Decoration</p>;;;;;zerotype;;Winter;;No
2062281;S52W153063-Beige-2062281;S52WHC086FJNBKBeigeXXL/36;Draft;Trousers;FIFTY TWO;Adults-Men;Men;Beige;;;Core;;2017;30,FTTOTRSR00000448,32,FTTOTRSR00000449,34,FTTOTRSR00000450,36,FTTOTRSR00000451;2595.00;;;<p>Dry Clean Preferred, Wash Inside Out Separately, Use Mild Detergent, Do Not Bleach, Drip Dry in Shade, Warm Iron, Do Not Iron on Decoration</p>;;;;;zerotype;;Winter;;No
2062280;S52W153059-Olive Green-2062280;S52WHC086FNBKOlive GreenXXL/36;Draft;Trousers;FIFTY TWO;Adults-Men;Men;Green;;;Core;;2017;30,FTTOTRSR00000444,32,FTTOTRSR00000445,34,FTTOTRSR00000446,36,FTTOTRSR00000447;2495.00;;;<p>Dry Clean Preferred, Wash Inside Out Separately, Use Mild Detergent, Do Not Bleach, Drip Dry in Shade, Warm Iron, Do Not Iron on Decoration</p>;;;;;zerotype;;Winter;;No
2062279;S52W153055-Navy-2062279;S52WHC086FNBKNavyXXL/36;Draft;Trousers;FIFTY TWO;Adults-Men;Men;Navy Blue;;;Core;;2017;30,FTTOTRSR00000440,32,FTTOTRSR00000441,34,FTTOTRSR00000442,36,FTTOTRSR00000443;2495.00;;;<p>Dry Clean Preferred, Wash Inside Out Separately, Use Mild Detergent, Do Not Bleach, Drip Dry in Shade, Warm Iron, Do Not Iron on Decoration</p>;;;;;zerotype;;Winter;;No
2062278;S52W153051-Khaki-2062278;S52WHC086FNBKKhakiXXL/36;Draft;Trousers;FIFTY TWO;Adults-Men;Men;Khaki;;;Core;;2017;30,FTTOTRSR00000436,32,FTTOTRSR00000437,34,FTTOTRSR00000438,36,FTTOTRSR00000439;2495.00;;;<p>Dry Clean Preferred, Wash Inside Out Separately, Use Mild Detergent, Do Not Bleach, Drip Dry in Shade, Warm Iron, Do Not Iron on Decoration</p>;;;;;zerotype;;Winter;;No
2062277;S52W153047-Grey-2062277;S52WHC086FNBKGreyXXL/36;Draft;Trousers;FIFTY TWO;Adults-Men;Men;Grey;;;Core;;2017;30,FTTOTRSR00000432,32,FTTOTRSR00000433,34,FTTOTRSR00000434,36,FTTOTRSR00000435;2495.00;;;<p>Dry Clean Preferred, Wash Inside Out Separately, Use Mild Detergent, Do Not Bleach, Drip Dry in Shade, Warm Iron, Do Not Iron on Decoration</p>;;;;;zerotype;;Winter;;No
2062276;S52W153043-Dark Beige-2062276;S52WHC086FNBKDark BeigeXXL/36;Draft;Trousers;FIFTY TWO;Adults-Men;Men;Beige;;;Core;;2017;30,FTTOTRSR00000428,32,FTTOTRSR00000429,34,FTTOTRSR00000430,36,FTTOTRSR00000431;2495.00;;;<p>Dry Clean Preferred, Wash Inside Out Separately, Use Mild Detergent, Do Not Bleach, Drip Dry in Shade, Warm Iron, Do Not Iron on Decoration</p>;;;;;zerotype;;Winter;;No
2062274;S52W153039-Coffee Brown-2062274;S52WHC086FNBKCoffee BrownXXL/36;Draft;Trousers;FIFTY TWO;Adults-Men;Men;Brown;;;Core;;2017;30,FTTOTRSR00000424,32,FTTOTRSR00000425,34,FTTOTRSR00000426,36,FTTOTRSR00000427;2495.00;;;<p>Dry Clean Preferred, Wash Inside Out Separately, Use Mild Detergent, Do Not Bleach, Drip Dry in Shade, Warm Iron, Do Not Iron on Decoration</p>;;;;;zerotype;;Winter;;No
2062273;S52W153035-Black-2062273;S52WHC086FNBKBlackXXL/36;Draft;Trousers;FIFTY TWO;Adults-Men;Men;Black;;;Core;;2017;30,FTTOTRSR00000420,32,FTTOTRSR00000421,34,FTTOTRSR00000422,36,FTTOTRSR00000423;2495.00;;;<p>Dry Clean Preferred, Wash Inside Out Separately, Use Mild Detergent, Do Not Bleach, Drip Dry in Shade, Warm Iron, Do Not Iron on Decoration</p>;;;;;zerotype;;Winter;;No
2062272;S52W153031-Beige-2062272;S52WHC086FNBKBeigeXXL/36;Draft;Trousers;FIFTY TWO;Adults-Men;Men;Beige;;;Core;;2017;30,FTTOTRSR00000416,32,FTTOTRSR00000417,34,FTTOTRSR00000418,36,FTTOTRSR00000419;2495.00;;;<p>Dry Clean Preferred, Wash Inside Out Separately, Use Mild Detergent, Do Not Bleach, Drip Dry in Shade, Warm Iron, Do Not Iron on Decoration</p>;;;;;zerotype;;Winter;;No
2062271;S52W153027-Olive Green-2062271;S52WHC085FJNBKOlive GreenXXL/36;Draft;Trousers;FIFTY TWO;Adults-Men;Men;Green;;;Core;;2017;30,FTTOTRSR00000412,32,FTTOTRSR00000413,34,FTTOTRSR00000414,36,FTTOTRSR00000415;2595.00;;;<p>Dry Clean Preferred, Wash Inside Out Separately, Use Mild Detergent, Do Not Bleach, Drip Dry in Shade, Warm Iron, Do Not Iron on Decoration</p>;;;;;zerotype;;Winter;;No
2062269;S52W153023-Navy-2062269;S52WHC085FJNBKNavyXXL/36;Draft;Trousers;FIFTY TWO;Adults-Men;Men;Navy Blue;;;Core;;2017;30,FTTOTRSR00000408,32,FTTOTRSR00000409,34,FTTOTRSR00000410,36,FTTOTRSR00000411;2595.00;;;<p>Dry Clean Preferred, Wash Inside Out Separately, Use Mild Detergent, Do Not Bleach, Drip Dry in Shade, Warm Iron, Do Not Iron on Decoration</p>;;;;;zerotype;;Winter;;No
2062268;S52W153019-Khaki-2062268;S52WHC085FJNBKKhakiXXL/36;Draft;Trousers;FIFTY TWO;Adults-Men;Men;Khaki;;;Core;;2017;30,FTTOTRSR00000404,32,FTTOTRSR00000405,34,FTTOTRSR00000406,36,FTTOTRSR00000407;2595.00;;;<p>Dry Clean Preferred, Wash Inside Out Separately, Use Mild Detergent, Do Not Bleach, Drip Dry in Shade, Warm Iron, Do Not Iron on Decoration</p>;;;;;zerotype;;Winter;;No
2062267;S52W153015-Grey-2062267;S52WHC085FJNBKGreyXXL/36;Draft;Trousers;FIFTY TWO;Adults-Men;Men;Grey;;;Core;;2017;30,FTTOTRSR00000400,32,FTTOTRSR00000401,34,FTTOTRSR00000402,36,FTTOTRSR00000403;2595.00;;;<p>Dry Clean Preferred, Wash Inside Out Separately, Use Mild Detergent, Do Not Bleach, Drip Dry in Shade, Warm Iron, Do Not Iron on Decoration</p>;;;;;zerotype;;Winter;;No
2062266;S52W153011-Dark Beige-2062266;S52WHC085FJNBKDark BeigeXXL/36;Draft;Trousers;FIFTY TWO;Adults-Men;Men;Beige;;;Core;;2017;30,FTTOTRSR00000396,32,FTTOTRSR00000397,34,FTTOTRSR00000398,36,FTTOTRSR00000399;2595.00;;;<p>Dry Clean Preferred, Wash Inside Out Separately, Use Mild Detergent, Do Not Bleach, Drip Dry in Shade, Warm Iron, Do Not Iron on Decoration</p>;;;;;zerotype;;Winter;;No
2062265;S52W153007-Coffee Brown-2062265;S52WHC085FJNBKCoffee BrownXXL/36;Draft;Trousers;FIFTY TWO;Adults-Men;Men;Brown;;;Core;;2017;30,FTTOTRSR00000392,32,FTTOTRSR00000393,34,FTTOTRSR00000394,36,FTTOTRSR00000395;2595.00;;;<p>Dry Clean Preferred, Wash Inside Out Separately, Use Mild Detergent, Do Not Bleach, Drip Dry in Shade, Warm Iron, Do Not Iron on Decoration</p>;;;;;zerotype;;Winter;;No
2062263;S52W153003-Black-2062263;S52WHC085FJNBKBlackXXL/36;Draft;Trousers;FIFTY TWO;Adults-Men;Men;Black;;;Core;;2017;30,FTTOTRSR00000388,32,FTTOTRSR00000389,34,FTTOTRSR00000390,36,FTTOTRSR00000391;2595.00;;;<p>Dry Clean Preferred, Wash Inside Out Separately, Use Mild Detergent, Do Not Bleach, Drip Dry in Shade, Warm Iron, Do Not Iron on Decoration</p>;;;;;zerotype;;Winter;;No
2062262;S52W152999-Beige-2062262;S52WHC085FJNBKBeigeXXL/36;Draft;Trousers;FIFTY TWO;Adults-Men;Men;Beige;;;Core;;2017;30,FTTOTRSR00000384,32,FTTOTRSR00000385,34,FTTOTRSR00000386,36,FTTOTRSR00000387;2595.00;;;<p>Dry Clean Preferred, Wash Inside Out Separately, Use Mild Detergent, Do Not Bleach, Drip Dry in Shade, Warm Iron, Do Not Iron on Decoration</p>;;;;;zerotype;;Winter;;No
2062261;S52W152995-Olive Green-2062261;S52WHC085FNBKOlive GreenXXL/36;Draft;Trousers;FIFTY TWO;Adults-Men;Men;Green;;;Core;;2017;30,FTTOTRSR00000380,32,FTTOTRSR00000381,34,FTTOTRSR00000382,36,FTTOTRSR00000383;2495.00;;;<p>Dry Clean Preferred, Wash Inside Out Separately, Use Mild Detergent, Do Not Bleach, Drip Dry in Shade, Warm Iron, Do Not Iron on Decoration</p>;;;;;zerotype;;Winter;;No
2062260;S52W152991-Navy-2062260;S52WHC085FNBKNavyXXL/36;Draft;Trousers;FIFTY TWO;Adults-Men;Men;Navy Blue;;;Core;;2017;30,FTTOTRSR00000376,32,FTTOTRSR00000377,34,FTTOTRSR00000378,36,FTTOTRSR00000379;2495.00;;;<p>Dry Clean Preferred, Wash Inside Out Separately, Use Mild Detergent, Do Not Bleach, Drip Dry in Shade, Warm Iron, Do Not Iron on Decoration</p>;;;;;zerotype;;Winter;;No
2062259;S52W152987-Khaki-2062259;S52WHC085FNBKKhakiXXL/36;Draft;Trousers;FIFTY TWO;Adults-Men;Men;Khaki;;;Core;;2017;30,FTTOTRSR00000372,32,FTTOTRSR00000373,34,FTTOTRSR00000374,36,FTTOTRSR00000375;2495.00;;;<p>Dry Clean Preferred, Wash Inside Out Separately, Use Mild Detergent, Do Not Bleach, Drip Dry in Shade, Warm Iron, Do Not Iron on Decoration</p>;;;;;zerotype;;Winter;;No
2062257;S52W152983-Grey-2062257;S52WHC085FNBKGreyXXL/36;Draft;Trousers;FIFTY TWO;Adults-Men;Men;Grey;;;Core;;2017;30,FTTOTRSR00000368,32,FTTOTRSR00000369,34,FTTOTRSR00000370,36,FTTOTRSR00000371;2495.00;;;<p>Dry Clean Preferred, Wash Inside Out Separately, Use Mild Detergent, Do Not Bleach, Drip Dry in Shade, Warm Iron, Do Not Iron on Decoration</p>;;;;;zerotype;;Winter;;No
2062255;S52W152979-Dark Beige-2062255;S52WHC085FNBKDark BeigeXXL/36;Draft;Trousers;FIFTY TWO;Adults-Men;Men;Beige;;;Core;;2017;30,FTTOTRSR00000364,32,FTTOTRSR00000365,34,FTTOTRSR00000366,36,FTTOTRSR00000367;2495.00;;;<p>Dry Clean Preferred, Wash Inside Out Separately, Use Mild Detergent, Do Not Bleach, Drip Dry in Shade, Warm Iron, Do Not Iron on Decoration</p>;;;;;zerotype;;Winter;;No
2062254;S52W152975-Coffee Brown-2062254;S52WHC085FNBKCoffee BrownXXL/36;Draft;Trousers;FIFTY TWO;Adults-Men;Men;Brown;;;Core;;2017;30,FTTOTRSR00000360,32,FTTOTRSR00000361,34,FTTOTRSR00000362,36,FTTOTRSR00000363;2495.00;;;<p>Dry Clean Preferred, Wash Inside Out Separately, Use Mild Detergent, Do Not Bleach, Drip Dry in Shade, Warm Iron, Do Not Iron on Decoration</p>;;;;;zerotype;;Winter;;No
2062253;S52W152971-Black-2062253;S52WHC085FNBKBlackXXL/36;Draft;Trousers;FIFTY TWO;Adults-Men;Men;Black;;;Core;;2017;30,FTTOTRSR00000356,32,FTTOTRSR00000357,34,FTTOTRSR00000358,36,FTTOTRSR00000359;2495.00;;;<p>Dry Clean Preferred, Wash Inside Out Separately, Use Mild Detergent, Do Not Bleach, Drip Dry in Shade, Warm Iron, Do Not Iron on Decoration</p>;;;;;zerotype;;Winter;;No
2062250;S52W152967-Beige-2062250;S52WHC085FNBKBeigeXXL/36;Draft;Trousers;FIFTY TWO;Adults-Men;Men;Beige;;;Core;;2017;30,FTTOTRSR00000352,32,FTTOTRSR00000353,34,FTTOTRSR00000354,36,FTTOTRSR00000355;2495.00;;;<p>Dry Clean Preferred, Wash Inside Out Separately, Use Mild Detergent, Do Not Bleach, Drip Dry in Shade, Warm Iron, Do Not Iron on Decoration</p>;;;;;zerotype;;Winter;;No
2062248;S52W153897-GREY-2062248;S52WSKTP034FGREYXXL/36;Draft;Track Pants;FIFTY TWO;Adults-Men;Men;Grey;;;Core;;2016;32,FTTOTRPT00000966,34,FTTOTRPT00000967,36,FTTOTRPT00000968;1695.00;;;<p>Dry Clean Preferred, Wash Inside Out Separately, Use Mild Detergent, Do Not Bleach, Drip Dry in Shade, Warm Iron, Do Not Iron on Decoration</p>;;;;;zerotype;;Winter;;No
2062246;S52W153894-NAVY-2062246;S52WSKTP034FNAVYXXL/36;Draft;Track Pants;FIFTY TWO;Adults-Men;Men;Navy Blue;;;Core;;2016;32,FTTOTRPT00000963,34,FTTOTRPT00000964,36,FTTOTRPT00000965;1695.00;;;<p>Dry Clean Preferred, Wash Inside Out Separately, Use Mild Detergent, Do Not Bleach, Drip Dry in Shade, Warm Iron, Do Not Iron on Decoration</p>;;;;;zerotype;;Winter;;No
2062245;S52W153891-BLACK-2062245;S52WSKTP034FBLACKXXL/36;Draft;Track Pants;FIFTY TWO;Adults-Men;Men;Black;;;Core;;2016;32,FTTOTRPT00000960,34,FTTOTRPT00000961,36,FTTOTRPT00000962;1695.00;;;<p>Dry Clean Preferred, Wash Inside Out Separately, Use Mild Detergent, Do Not Bleach, Drip Dry in Shade, Warm Iron, Do Not Iron on Decoration</p>;;;;;zerotype;;Winter;;No
2062243;S52W153888-GREY-2062243;S52WSKTP033FGREYXXL/36;Draft;Track Pants;FIFTY TWO;Adults-Men;Men;Grey;;;Core;;2016;32,FTTOTRPT00000957,34,FTTOTRPT00000958,36,FTTOTRPT00000959;1695.00;;;<p>Dry Clean Preferred, Wash Inside Out Separately, Use Mild Detergent, Do Not Bleach, Drip Dry in Shade, Warm Iron, Do Not Iron on Decoration</p>;;;;;zerotype;;Winter;;No
2062240;S52W153885-NAVY-2062240;S52WSKTP033FNAVYXXL/36;Draft;Track Pants;FIFTY TWO;Adults-Men;Men;Navy Blue;;;Core;;2016;32,FTTOTRPT00000954,34,FTTOTRPT00000955,36,FTTOTRPT00000956;1695.00;;;<p>Dry Clean Preferred, Wash Inside Out Separately, Use Mild Detergent, Do Not Bleach, Drip Dry in Shade, Warm Iron, Do Not Iron on Decoration</p>;;;;;zerotype;;Winter;;No
2062238;S52W153882-BLACK-2062238;S52WSKTP033FBLACKXXL/36;Draft;Track Pants;FIFTY TWO;Adults-Men;Men;Black;;;Core;;2016;32,FTTOTRPT00000951,34,FTTOTRPT00000952,36,FTTOTRPT00000953;1695.00;;;<p>Dry Clean Preferred, Wash Inside Out Separately, Use Mild Detergent, Do Not Bleach, Drip Dry in Shade, Warm Iron, Do Not Iron on Decoration</p>;;;;;zerotype;;Winter;;No
2062236;S52W153879-NAVY-2062236;S52WSKTP032FNAVYXXL/36;Draft;Track Pants;FIFTY TWO;Adults-Men;Men;Navy Blue;;;Core;;2016;32,FTTOTRPT00000948,34,FTTOTRPT00000949,36,FTTOTRPT00000950;1695.00;;;<p>Dry Clean Preferred, Wash Inside Out Separately, Use Mild Detergent, Do Not Bleach, Drip Dry in Shade, Warm Iron, Do Not Iron on Decoration</p>;;;;;zerotype;;Winter;;No
2062235;S52W153876-BLACK-2062235;S52WSKTP032FBLACKXXL/36;Draft;Track Pants;FIFTY TWO;Adults-Men;Men;Black;;;Core;;2016;32,FTTOTRPT00000945,34,FTTOTRPT00000946,36,FTTOTRPT00000947;1695.00;;;<p>Dry Clean Preferred, Wash Inside Out Separately, Use Mild Detergent, Do Not Bleach, Drip Dry in Shade, Warm Iron, Do Not Iron on Decoration</p>;;;;;zerotype;;Winter;;No
2062233;S52W153873-NAVY-2062233;S52WSKTP031FNAVYXXL/36;Draft;Track Pants;FIFTY TWO;Adults-Men;Men;Navy Blue;;;Core;;2016;32,FTTOTRPT00000942,34,FTTOTRPT00000943,36,FTTOTRPT00000944;1695.00;;;<p>Dry Clean Preferred, Wash Inside Out Separately, Use Mild Detergent, Do Not Bleach, Drip Dry in Shade, Warm Iron, Do Not Iron on Decoration</p>;;;;;zerotype;;Winter;;No
2062231;S52W153870-BLACK-2062231;S52WSKTP031FBLACKXXL/36;Draft;Track Pants;FIFTY TWO;Adults-Men;Men;Black;;;Core;;2016;32,FTTOTRPT00000939,34,FTTOTRPT00000940,36,FTTOTRPT00000941;1695.00;;;<p>Dry Clean Preferred, Wash Inside Out Separately, Use Mild Detergent, Do Not Bleach, Drip Dry in Shade, Warm Iron, Do Not Iron on Decoration</p>;;;;;zerotype;;Winter;;No
2062229;S52W153867-GREY-2062229;S52WSKTP030FGREYXXL/36;Draft;Track Pants;FIFTY TWO;Adults-Men;Men;Grey;;;Core;;2016;32,FTTOTRPT00000936,34,FTTOTRPT00000937,36,FTTOTRPT00000938;1595.00;;;<p>Dry Clean Preferred, Wash Inside Out Separately, Use Mild Detergent, Do Not Bleach, Drip Dry in Shade, Warm Iron, Do Not Iron on Decoration</p>;;;;;zerotype;;Winter;;No
2062227;S52W153864-NAVY-2062227;S52WSKTP030FNAVYXXL/36;Draft;Track Pants;FIFTY TWO;Adults-Men;Men;Navy Blue;;;Core;;2016;32,FTTOTRPT00000933,34,FTTOTRPT00000934,36,FTTOTRPT00000935;1595.00;;;<p>Dry Clean Preferred, Wash Inside Out Separately, Use Mild Detergent, Do Not Bleach, Drip Dry in Shade, Warm Iron, Do Not Iron on Decoration</p>;;;;;zerotype;;Winter;;No
2062225;S52W153861-BLACK-2062225;S52WSKTP030FBLACKXXL/36;Draft;Track Pants;FIFTY TWO;Adults-Men;Men;Black;;;Core;;2016;32,FTTOTRPT00000930,34,FTTOTRPT00000931,36,FTTOTRPT00000932;1595.00;;;<p>Dry Clean Preferred, Wash Inside Out Separately, Use Mild Detergent, Do Not Bleach, Drip Dry in Shade, Warm Iron, Do Not Iron on Decoration</p>;;;;;zerotype;;Winter;;No
2062223;S52W153275-D.MEL-2062223;S52WSKTP029FD.MELXL/34;Draft;Track Pants;FIFTY TWO;Adults-Men;Men;Grey;;;Core;;2016;28,FTTOTRPT00000926,30,FTTOTRPT00000927,32,FTTOTRPT00000928,34,FTTOTRPT00000929;1595.00;;;<p>Dry Clean Preferred, Wash Inside Out Separately, Use Mild Detergent, Do Not Bleach, Drip Dry in Shade, Warm Iron, Do Not Iron on Decoration</p>;;;;;zerotype;;Winter;;No
2062220;S52W153271-M.MEL-2062220;S52WSKTP029FM.MELXL/34;Draft;Track Pants;FIFTY TWO;Adults-Men;Men;Grey;;;Core;;2016;28,FTTOTRPT00000922,30,FTTOTRPT00000923,32,FTTOTRPT00000924,34,FTTOTRPT00000925;1595.00;;;<p>Dry Clean Preferred, Wash Inside Out Separately, Use Mild Detergent, Do Not Bleach, Drip Dry in Shade, Warm Iron, Do Not Iron on Decoration</p>;;;;;zerotype;;Winter;;No
2062218;S52W153267-L.MEL-2062218;S52WSKTP029FL.MELXL/34;Draft;Track Pants;FIFTY TWO;Adults-Men;Men;Grey;;;Core;;2016;28,FTTOTRPT00000918,30,FTTOTRPT00000919,32,FTTOTRPT00000920,34,FTTOTRPT00000921;1595.00;;;<p>Dry Clean Preferred, Wash Inside Out Separately, Use Mild Detergent, Do Not Bleach, Drip Dry in Shade, Warm Iron, Do Not Iron on Decoration</p>;;;;;zerotype;;Winter;;No
2062216;S52W153263-NAVY-2062216;S52WSKTP029FNAVYXL/34;Draft;Track Pants;FIFTY TWO;Adults-Men;Men;Navy Blue;;;Core;;2016;28,FTTOTRPT00000914,30,FTTOTRPT00000915,32,FTTOTRPT00000916,34,FTTOTRPT00000917;1595.00;;;<p>Dry Clean Preferred, Wash Inside Out Separately, Use Mild Detergent, Do Not Bleach, Drip Dry in Shade, Warm Iron, Do Not Iron on Decoration</p>;;;;;zerotype;;Winter;;No
2062212;S52W153255-D.MEL-2062212;S52WSKTP028FD.MELXL/34;Draft;Track Pants;FIFTY TWO;Adults-Men;Men;Grey;;;Core;;2016;28,FTTOTRPT00000906,30,FTTOTRPT00000907,32,FTTOTRPT00000908,34,FTTOTRPT00000909;1595.00;;;<p>Dry Clean Preferred, Wash Inside Out Separately, Use Mild Detergent, Do Not Bleach, Drip Dry in Shade, Warm Iron, Do Not Iron on Decoration</p>;;;;;zerotype;;Winter;;No
2062210;S52W153251-M.MEL-2062210;S52WSKTP028FM.MELXL/34;Draft;Track Pants;FIFTY TWO;Adults-Men;Men;Grey;;;Core;;2016;28,FTTOTRPT00000902,30,FTTOTRPT00000903,32,FTTOTRPT00000904,34,FTTOTRPT00000905;1595.00;;;<p>Dry Clean Preferred, Wash Inside Out Separately, Use Mild Detergent, Do Not Bleach, Drip Dry in Shade, Warm Iron, Do Not Iron on Decoration</p>;;;;;zerotype;;Winter;;No
2062208;S52W153247-L.MEL-2062208;S52WSKTP028FL.MELXL/34;Draft;Track Pants;FIFTY TWO;Adults-Men;Men;Grey;;;Core;;2016;28,FTTOTRPT00000898,30,FTTOTRPT00000899,32,FTTOTRPT00000900,34,FTTOTRPT00000901;1595.00;;;<p>Dry Clean Preferred, Wash Inside Out Separately, Use Mild Detergent, Do Not Bleach, Drip Dry in Shade, Warm Iron, Do Not Iron on Decoration</p>;;;;;zerotype;;Winter;;No
2062205;S52W153243-NAVY-2062205;S52WSKTP028FNAVYXL/34;Draft;Track Pants;FIFTY TWO;Adults-Men;Men;Navy Blue;;;Core;;2016;28,FTTOTRPT00000894,30,FTTOTRPT00000895,32,FTTOTRPT00000896,34,FTTOTRPT00000897;1595.00;;;<p>Dry Clean Preferred, Wash Inside Out Separately, Use Mild Detergent, Do Not Bleach, Drip Dry in Shade, Warm Iron, Do Not Iron on Decoration</p>;;;;;zerotype;;Winter;;No
2062203;S52W153239-BLACK-2062203;S52WSKTP028FBLACKXL/34;Draft;Track Pants;FIFTY TWO;Adults-Men;Men;Black;;;Core;;2016;28,FTTOTRPT00000890,30,FTTOTRPT00000891,32,FTTOTRPT00000892,34,FTTOTRPT00000893;1595.00;;;<p>Dry Clean Preferred, Wash Inside Out Separately, Use Mild Detergent, Do Not Bleach, Drip Dry in Shade, Warm Iron, Do Not Iron on Decoration</p>;;;;;zerotype;;Winter;;No
2062201;S52W153235-D.MEL-2062201;S52WSKTP027FD.MELXL/34;Draft;Track Pants;FIFTY TWO;Adults-Men;Men;Grey;;;Core;;2016;28,FTTOTRPT00000886,30,FTTOTRPT00000887,32,FTTOTRPT00000888,34,FTTOTRPT00000889;1595.00;;;<p>Dry Clean Preferred, Wash Inside Out Separately, Use Mild Detergent, Do Not Bleach, Drip Dry in Shade, Warm Iron, Do Not Iron on Decoration</p>;;;;;zerotype;;Winter;;No
2062198;S52W153231-M.MEL-2062198;S52WSKTP027FM.MELXL/34;Draft;Track Pants;FIFTY TWO;Adults-Men;Men;Grey;;;Core;;2016;28,FTTOTRPT00000882,30,FTTOTRPT00000883,32,FTTOTRPT00000884,34,FTTOTRPT00000885;1595.00;;;<p>Dry Clean Preferred, Wash Inside Out Separately, Use Mild Detergent, Do Not Bleach, Drip Dry in Shade, Warm Iron, Do Not Iron on Decoration</p>;;;;;zerotype;;Winter;;No
2062196;S52W153227-L.MEL-2062196;S52WSKTP027FL.MELXL/34;Draft;Track Pants;FIFTY TWO;Adults-Men;Men;Grey;;;Core;;2016;28,FTTOTRPT00000878,30,FTTOTRPT00000879,32,FTTOTRPT00000880,34,FTTOTRPT00000881;1595.00;;;<p>Dry Clean Preferred, Wash Inside Out Separately, Use Mild Detergent, Do Not Bleach, Drip Dry in Shade, Warm Iron, Do Not Iron on Decoration</p>;;;;;zerotype;;Winter;;No
2062193;S52W153223-NAVY-2062193;S52WSKTP027FNAVYXL/34;Draft;Track Pants;FIFTY TWO;Adults-Men;Men;Navy Blue;;;Core;;2016;28,FTTOTRPT00000874,30,FTTOTRPT00000875,32,FTTOTRPT00000876,34,FTTOTRPT00000877;1595.00;;;<p>Dry Clean Preferred, Wash Inside Out Separately, Use Mild Detergent, Do Not Bleach, Drip Dry in Shade, Warm Iron, Do Not Iron on Decoration</p>;;;;;zerotype;;Winter;;No
2062189;S52W153219-BLACK-2062189;S52WSKTP027FBLACKXL/34;Draft;Track Pants;FIFTY TWO;Adults-Men;Men;Black;;;Core;;2016;28,FTTOTRPT00000870,30,FTTOTRPT00000871,32,FTTOTRPT00000872,34,FTTOTRPT00000873;1595.00;;;<p>Dry Clean Preferred, Wash Inside Out Separately, Use Mild Detergent, Do Not Bleach, Drip Dry in Shade, Warm Iron, Do Not Iron on Decoration</p>;;;;;zerotype;;Winter;;No
1923321;S52W152023-NAVY-1923321;S52WSKTP026FNAVY36;Draft;Track Pants;FIFTY TWO;Adults-Men;Men;Blue;;;Fashion;;2017;30,FTTOTRPT00000866,32,FTTOTRPT00000867,34,FTTOTRPT00000868,36,FTTOTRPT00000869;1595.00;;;<p>Dry Clean Preferred, Wash Inside Out Separately, Use Mild Detergent, Do Not Bleach, Drip Dry in Shade, Warm Iron, Do Not Iron on Decoration</p>;;;;never-settle;zerotype;;Summer;never-settle;No
1923320;S52W152007-NAVY-1923320;S52WSKTP025FNAVY36;Draft;Track Pants;FIFTY TWO;Adults-Men;Men;Blue;;;Fashion;;2017;30,FTTOTRPT00000862,32,FTTOTRPT00000863,34,FTTOTRPT00000864,36,FTTOTRPT00000865;1595.00;;;<p>Dry Clean Preferred, Wash Inside Out Separately, Use Mild Detergent, Do Not Bleach, Drip Dry in Shade, Warm Iron, Do Not Iron on Decoration</p>;;;;never-settle;zerotype;;Summer;never-settle;No
1923316;S52W152003-D.MEL-1923316;S52WSKTP025FD.MEL36;Draft;Track Pants;FIFTY TWO;Adults-Men;Men;Grey;;;Fashion;;2017;30,FTTOTRPT00000850,32,FTTOTRPT00000851,34,FTTOTRPT00000852,36,FTTOTRPT00000853;1595.00;;;<p>Dry Clean Preferred, Wash Inside Out Separately, Use Mild Detergent, Do Not Bleach, Drip Dry in Shade, Warm Iron, Do Not Iron on Decoration</p>;;;;never-settle;zerotype;;Summer;never-settle;No
1923314;S52W152027-AIRFORCE-1923314;S52WSKTP026FAIRFORCE36;Draft;Track Pants;FIFTY TWO;Adults-Men;Men;Blue;;;Fashion;;2017;30,FTTOTRPT00000846,32,FTTOTRPT00000847,34,FTTOTRPT00000848,36,FTTOTRPT00000849;1595.00;;;<p>Dry Clean Preferred, Wash Inside Out Separately, Use Mild Detergent, Do Not Bleach, Drip Dry in Shade, Warm Iron, Do Not Iron on Decoration</p>;;;;never-settle;zerotype;;Summer;never-settle;No
1923313;S52W152011-AIRFORCE-1923313;S52WSKTP025FAIRFORCE36;Draft;Track Pants;FIFTY TWO;Adults-Men;Men;Blue;;;Fashion;;2017;30,FTTOTRPT00000842,32,FTTOTRPT00000843,34,FTTOTRPT00000844,36,FTTOTRPT00000845;1595.00;;;<p>Dry Clean Preferred, Wash Inside Out Separately, Use Mild Detergent, Do Not Bleach, Drip Dry in Shade, Warm Iron, Do Not Iron on Decoration</p>;;;;never-settle;zerotype;;Summer;never-settle;No
1923311;S52W151975-NAVY-1923311;S52WSKTP023FNAVY36;Draft;Track Pants;FIFTY TWO;Adults-Men;Men;Blue;;;Fashion;;2017;30,FTTOTRPT00000834,32,FTTOTRPT00000835,34,FTTOTRPT00000836,36,FTTOTRPT00000837;1595.00;;;<p>Dry Clean Preferred, Wash Inside Out Separately, Use Mild Detergent, Do Not Bleach, Drip Dry in Shade, Warm Iron, Do Not Iron on Decoration</p>;;;;never-settle;zerotype;;Summer;never-settle;No
1923308;S52W151967-L.MEL-1923308;S52WSKTP023FL.MEL36;Draft;Track Pants;FIFTY TWO;Adults-Men;Men;Grey;;;Fashion;;2017;30,FTTOTRPT00000822,32,FTTOTRPT00000823,34,FTTOTRPT00000824,36,FTTOTRPT00000825;1595.00;;;<p>Dry Clean Preferred, Wash Inside Out Separately, Use Mild Detergent, Do Not Bleach, Drip Dry in Shade, Warm Iron, Do Not Iron on Decoration</p>;;;;never-settle;zerotype;;Summer;never-settle;No
1923307;S52W151987-D.MEL-1923307;S52WSKTP024FD.MEL36;Draft;Track Pants;FIFTY TWO;Adults-Men;Men;Grey;;;Fashion;;2017;30,FTTOTRPT00000818,32,FTTOTRPT00000819,34,FTTOTRPT00000820,36,FTTOTRPT00000821;1595.00;;;<p>Dry Clean Preferred, Wash Inside Out Separately, Use Mild Detergent, Do Not Bleach, Drip Dry in Shade, Warm Iron, Do Not Iron on Decoration</p>;;;;never-settle;zerotype;;Summer;never-settle;No
1923305;S52W151995-AIRFORCE-1923305;S52WSKTP024FAIRFORCE36;Draft;Track Pants;FIFTY TWO;Adults-Men;Men;Blue;;;Fashion;;2017;30,FTTOTRPT00000810,32,FTTOTRPT00000811,34,FTTOTRPT00000812,36,FTTOTRPT00000813;1595.00;;;<p>Dry Clean Preferred, Wash Inside Out Separately, Use Mild Detergent, Do Not Bleach, Drip Dry in Shade, Warm Iron, Do Not Iron on Decoration</p>;;;;never-settle;zerotype;;Summer;never-settle;No
1923304;S52W151979-AIRFORCE-1923304;S52WSKTP023FAIRFORCE36;Draft;Track Pants;FIFTY TWO;Adults-Men;Men;Blue;;;Fashion;;2017;30,FTTOTRPT00000806,32,FTTOTRPT00000807,34,FTTOTRPT00000808,36,FTTOTRPT00000809;1595.00;;;<p>Dry Clean Preferred, Wash Inside Out Separately, Use Mild Detergent, Do Not Bleach, Drip Dry in Shade, Warm Iron, Do Not Iron on Decoration</p>;;;;never-settle;zerotype;;Summer;never-settle;No
1923302;S52W151819-L.MEL-1923302;S52WSKTP022FL.MEL36;Draft;Track Pants;FIFTY TWO;Adults-Men;Men;Grey;;;Fashion;;2017;30,FTTOTRPT00000798,32,FTTOTRPT00000799,34,FTTOTRPT00000800,36,FTTOTRPT00000801;1595.00;;;<p>Dry Clean Preferred, Wash Inside Out Separately, Use Mild Detergent, Do Not Bleach, Drip Dry in Shade, Warm Iron, Do Not Iron on Decoration</p>;;;;never-settle;zerotype;;Summer;never-settle;No
1923301;S52W151823-D.MEL-1923301;S52WSKTP022FD.MEL36;Draft;Track Pants;FIFTY TWO;Adults-Men;Men;Grey;;;Fashion;;2017;30,FTTOTRPT00000794,32,FTTOTRPT00000795,34,FTTOTRPT00000796,36,FTTOTRPT00000797;1595.00;;;<p>Dry Clean Preferred, Wash Inside Out Separately, Use Mild Detergent, Do Not Bleach, Drip Dry in Shade, Warm Iron, Do Not Iron on Decoration</p>;;;;never-settle;zerotype;;Summer;never-settle;No
1855274;S52W149065-NAVY BLUE-1855274;S52WHC088FBMNAVY BLUE42;Draft;Shorts;FIFTY TWO;Adults-Men;Men;Navy Blue;;;Core;;2017;32,FTTOSHOR00000666,34,FTTOSHOR00000667,40,FTTOSHOR00000668,42,FTTOSHOR00000669;1995.00;;;<p>Dry Clean Preferred, Wash Inside Out Separately, Use Mild Detergent, Do Not Bleach, Drip Dry in Shade, Warm Iron, Do Not Iron on Decoration</p>;;;;;zerotype;;Summer;;No
1855255;S52W148953-NAVY BLUE-1855255;S52WHC087FBMNAVY BLUE42;Draft;Shorts;FIFTY TWO;Adults-Men;Men;Navy Blue;;;Core;;2017;32,FTTOSHOR00000624,40,FTTOSHOR00000625,42,FTTOSHOR00000626;1995.00;;;<p>Dry Clean Preferred, Wash Inside Out Separately, Use Mild Detergent, Do Not Bleach, Drip Dry in Shade, Warm Iron, Do Not Iron on Decoration</p>;;;;;zerotype;;Summer;;No
1855250;S52W148932-CAMEL-1855250;S52WHC087FBMCAMEL42;Draft;Shorts;FIFTY TWO;Adults-Men;Men;Beige;;;Core;;2017;32,FTTOSHOR00000614,34,FTTOSHOR00000615,40,FTTOSHOR00000616,42,FTTOSHOR00000617;1995.00;;;<p>Dry Clean Preferred, Wash Inside Out Separately, Use Mild Detergent, Do Not Bleach, Drip Dry in Shade, Warm Iron, Do Not Iron on Decoration</p>;;;;;zerotype;;Summer;;No
1855246;S52W148918-BLACK-1855246;S52WHC087FBMBLACK42;Draft;Shorts;FIFTY TWO;Adults-Men;Men;Black;;;Core;;2017;32,FTTOSHOR00000606,34,FTTOSHOR00000607,40,FTTOSHOR00000608,42,FTTOSHOR00000609;1995.00;;;<p>Dry Clean Preferred, Wash Inside Out Separately, Use Mild Detergent, Do Not Bleach, Drip Dry in Shade, Warm Iron, Do Not Iron on Decoration</p>;;;;;zerotype;;Summer;;No
1855231;S52W148809-BROWN-1855231;S52WHC086FBMBROWN34;Draft;Shorts;FIFTY TWO;Adults-Men;Men;Brown;;;Core;;2017;30,FTTOSHOR00000573,32,FTTOSHOR00000574,34,FTTOSHOR00000575;1995.00;;;<p>Dry Clean Preferred, Wash Inside Out Separately, Use Mild Detergent, Do Not Bleach, Drip Dry in Shade, Warm Iron, Do Not Iron on Decoration</p>;;;;;zerotype;;Summer;;No
1802657;S52W151212-NAVY-1802657;S52WSKTP021FNAVY36;Draft;Track Pants;FIFTY TWO;Adults-Men;Men;;;;Core;;2017;30,FTTOTRPT00000597,32,FTTOTRPT00000598,34,FTTOTRPT00000599,36,FTTOTRPT00000600;1595.00;<p>Blended</p>;;;;;;never-settle;zerotype;;Summer;never-settle;No
1802656;S52W151208-D.MEL-1802656;S52WSKTP021FD.MEL36;Draft;Track Pants;FIFTY TWO;Adults-Men;Men;;;;Core;;2017;30,FTTOTRPT00000593,32,FTTOTRPT00000594,34,FTTOTRPT00000595,36,FTTOTRPT00000596;1595.00;<p>Blended</p>;;;;;;never-settle;zerotype;;Summer;never-settle;No
1802655;S52W151204-L.MEL-1802655;S52WSKTP021FL.MEL36;Draft;Track Pants;FIFTY TWO;Adults-Men;Men;;;;Core;;2017;30,FTTOTRPT00000589,32,FTTOTRPT00000590,34,FTTOTRPT00000591,36,FTTOTRPT00000592;1595.00;<p>Blended</p>;;;;;;never-settle;zerotype;;Summer;never-settle;No
1736984;S52W150252-NAVY-1736984;S52WSKTP001FNAVYXXL;Draft;Track Pants;FIFTY TWO;Adults-Men;Men;;;;Core;;2017;L,FTTOTRPT00000306,M,FTTOTRPT00000307,XL,FTTOTRPT00000308,XXL,FTTOTRPT00000309;1595.00;<p>Blended</p>;;;;;;never-settle;zerotype;;Summer;never-settle;No
1736983;S52W150244-L.MEL-1736983;S52WSKTP001FL.MELXXL;Draft;Track Pants;FIFTY TWO;Adults-Men;Men;;;;Core;;2017;L,FTTOTRPT00000302,M,FTTOTRPT00000303,XL,FTTOTRPT00000304,XXL,FTTOTRPT00000305;1595.00;<p>Blended</p>;;;;;;never-settle;zerotype;;Summer;never-settle;No
