Style ID;Vendor Article Number;Vendor Article Name;Active Status;Article type;Brand;Age Group;Gender;Base Colour;Colour1;Colour2;Fashion Type;Usage;Year;Size - SKU code pair;MRP;Style Description;Style Note;Materials and Care Description;Size and Fit Description;Size Chart Path;Product Display Name;Tags;Product Type;Classification Brand;Season;Comments;Upload Images
1909432;MN-28244508001-CRYSTAL-1909432;Sparkle Anchor Penda;Draft;Necklace and Chains;Accessorize;Adults-Women;Women;Off White;;;Fashion;;2017;Onesize,ACZENECK00001256;1545.00;;;;;;;;zerotype;;Summer;;No
1909431;MN-28243381001-GOLD-1909431;Heart and arrow Lari;Draft;Necklace and Chains;Accessorize;Adults-Women;Women;Gold;;;Fashion;;2017;Onesize,ACZENECK00001255;1545.00;;;;;;;;zerotype;;Summer;;No
1909428;MN-28234281001-GOLD-1909428;Bird Spirit Animal;Draft;Necklace and Chains;Accessorize;Adults-Women;Women;Gold;;;Fashion;;2017;Onesize,ACZENECK00001252;795.00;;;;;;;;zerotype;;Summer;;No
1909424;MN-28233896001-METALLICS-1909424;Celestial Custom Pk;Draft;Necklace and Chains;Accessorize;Adults-Women;Women;Turquoise Blue;Metallic;;Fashion;;2017;Onesize,ACZENECK00001248;1545.00;;;;;;;;zerotype;;Summer;;No
1909420;MN-28233481001-GOLD-1909420;Spiritual Custom Pk;Draft;Necklace and Chains;Accessorize;Adults-Women;Women;Gold;;;Fashion;;2017;Onesize,ACZENECK00001244;1545.00;;;;;;;;zerotype;;Summer;;No
1901504;MN-29399141001-NAVY-1901504;Handbags;Draft;Handbags;Accessorize;Adults-Women;Women;;;;Fashion;;2017;Onesize,ACZEHDBG00000837;3445.00;;;;;;;;zerotype;;Summer;;No
1901500;MN-29375741001-NAVY-1901500;Handbags;Draft;Handbags;Accessorize;Adults-Women;Women;;;;Fashion;;2017;Onesize,ACZEHDBG00000833;3145.00;;;;;;;;zerotype;;Summer;;No
1901490;MN-29062799001-BRIGHTS-MULTI-1901490;Handbags;Draft;Handbags;Accessorize;Adults-Women;Women;;;;Fashion;;2017;Onesize,ACZEHDBG00000823;4045.00;;;;;;;;zerotype;;Summer;;No
1843448;EMC-R1341-Brown-1843448;EMC-R1341 Brown;Draft;Casual Shoes;Roadster;Adults-Men;Men;;;;Fashion;;2017;UK 6,RDSTCASH00019316,UK 7,RDSTCASH00019317,UK 8,RDSTCASH00019318,UK 9,RDSTCASH00019319,UK 10,RDSTCASH00019320,UK 11,RDSTCASH00019321;2299.00;;;;;;;;zerotype;;Spring;;No
1821927;6775-Beige-1821927;6775 Beige;Draft;Flats;Roadster;Adults-Women;Women;;;;Fashion;;2017;Euro 36,RDSTFlats00000877,Euro 37,RDSTFlats00000878,Euro 38,RDSTFlats00000879,Euro 39,RDSTFlats00000880,Euro 40,RDSTFlats00000881,Euro 41,RDSTFlats00000882;1499.00;;;;;;;;zerotype;;Spring;;No
1800801;EZSS17-D0009-Beige-1800801;EZSS17-D0009 Beige;Draft;Flats;DressBerry;Adults-Women;Women;;;;Fashion;;2017;Euro 36,DSBYFlats00012991,Euro 37,DSBYFlats00012992,Euro 38,DSBYFlats00012993,Euro 39,DSBYFlats00012994,Euro 40,DSBYFlats00012995,Euro 41,DSBYFlats00012996;1499.00;;;;;;;;zerotype;;Spring;;No
