Style ID;Vendor Article Number;Vendor Article Name;Active Status;Article type;Brand;Age Group;Gender;Base Colour;Colour1;Colour2;Fashion Type;Usage;Year;Size - SKU code pair;MRP;Style Description;Style Note;Materials and Care Description;Size and Fit Description;Size Chart Path;Product Display Name;Tags;Product Type;Classification Brand;Season;Comments;Upload Images
4609092;92IEBSL706 MULTI-MULTI-4609092;PO2 SLEEPSUIT;Draft;Sleepsuit;MINI KLUB;Kids-Boys;Boys;Yellow;;;Fashion;;2018;0-3M,MIKBSPST00000196,3-6M,MIKBSPST00000197,6-9M,MIKBSPST00000198,9-12M,MIKBSPST00000199,NB,MIKBSPST00000200;1499.00;;;<p>Gentle Machin wash</p>;;;;;zerotype;;Summer;;No
4609091;92IEGST177 MULTI-MULTI-4609091;PO3 SHORTS;Draft;Shorts;MINI KLUB;Kids-Girls;Girls;Multi;;;Fashion;;2018;0-3M,MIKBSHOR00000309,3-6M,MIKBSHOR00000310,6-9M,MIKBSHOR00000311,9-12M,MIKBSHOR00000312;699.00;;;<p>Gentle Machin wash</p>;;;;;zerotype;;Summer;;No
4609090;92IFBDS1197 MW-MID WASH-4609090;WOVEN DENIM DUNGAREE SET;Draft;Clothing Set;MINI KLUB;Kids-Boys;Boys;Blue;;;Fashion;;2018;12-18M,MIKBCLST00000861,18-24M,MIKBCLST00000862,2-3Y,MIKBCLST00000863,6-12M,MIKBCLST00000864;1549.00;;;<p>Gentle Machin wash</p>;;;;;zerotype;;Summer;;No
4609089;92IEBVP450 MULTI-MULTI-4609089;SS,TEE,SHORTS;Draft;Clothing Set;MINI KLUB;Kids-Boys;Boys;Blue;;;Fashion;;2018;0-3M,MIKBCLST00000857,3-6M,MIKBCLST00000858,6-9M,MIKBCLST00000859,9-12M,MIKBCLST00000860;1399.00;;;<p>Gentle Machin wash</p>;;;;;zerotype;;Summer;;No
4609088;92IEBVP436 MULTI-MULTI-4609088;SLEEP SUIT/T-SHIRT/BOTTOM;Draft;Clothing Set;MINI KLUB;Kids-Boys;Boys;Blue;;;Fashion;;2018;0-3M,MIKBCLST00000853,3-6M,MIKBCLST00000854,6-9M,MIKBCLST00000855,9-12M,MIKBCLST00000856;1399.00;;;<p>Gentle Machin wash</p>;;;;;zerotype;;Summer;;No
