Style ID;Vendor Article Number;Vendor Article Name;Active Status;Article type;Brand;Age Group;Gender;Base Colour;Colour1;Colour2;Fashion Type;Usage;Year;Size - SKU code pair;MRP;Style Description;Style Note;Materials and Care Description;Size and Fit Description;Size Chart Path;Product Display Name;Tags;Product Type;Classification Brand;Season;Comments;Upload Images
2262210;532009P-34-Pink-2262210;Ladies Jeggings;Draft;Jeggings;Rider Republic;Adults-Women;Women;Pink;;;Fashion;Casual;2017;26,RDRPJGNG00000331,28,RDRPJGNG00000332,30,RDRPJGNG00000333,32,RDRPJGNG00000334,34,RDRPJGNG00000335;1695.00;;;<p>Cold wash separately,Do not Bleach,Tumble dry low , Dry in shade.</p>;;;na;;zerotype;;Fall;;No
2262206;531009P-34-Turquoise Blue-2262206;Ladies Jeggings;Draft;Jeggings;Rider Republic;Adults-Women;Women;Turquoise Blue;;;Fashion;Casual;2017;26,RDRPJGNG00000326,28,RDRPJGNG00000327,30,RDRPJGNG00000328,32,RDRPJGNG00000329,34,RDRPJGNG00000330;1695.00;;;<p>Cold wash separately,Do not Bleach,Tumble dry low , Dry in shade.</p>;;;na;;zerotype;;Fall;;No
2262202;502114-34-Navy Blue-2262202;Ladies Jeggings;Draft;Jeggings;Rider Republic;Adults-Women;Women;Navy Blue;;;Fashion;Casual;2017;26,RDRPJGNG00000321,28,RDRPJGNG00000322,30,RDRPJGNG00000323,32,RDRPJGNG00000324,34,RDRPJGNG00000325;1695.00;;;<p>Cold wash separately,Do not Bleach,Tumble dry low , Dry in shade.</p>;;;na;;zerotype;;Fall;;No
2262200;501123-34-Black-2262200;Ladies Jeggings;Draft;Jeggings;Rider Republic;Adults-Women;Women;Black;;;Fashion;Casual;2017;26,RDRPJGNG00000316,28,RDRPJGNG00000317,30,RDRPJGNG00000318,32,RDRPJGNG00000319,34,RDRPJGNG00000320;1695.00;;;<p>Cold wash separately,Do not Bleach,Tumble dry low , Dry in shade.</p>;;;na;;zerotype;;Fall;;No
2262197;501114K-34-Black-2262197;Ladies Jeggings;Draft;Jeggings;Rider Republic;Adults-Women;Women;Black;;;Fashion;Casual;2017;26,RDRPJGNG00000311,28,RDRPJGNG00000312,30,RDRPJGNG00000313,32,RDRPJGNG00000314,34,RDRPJGNG00000315;1695.00;;;<p>Cold wash separately,Do not Bleach,Tumble dry low , Dry in shade.</p>;;;na;;zerotype;;Fall;;No
2262194;501114-34-Black-2262194;Ladies Jeggings;Draft;Jeggings;Rider Republic;Adults-Women;Women;Black;;;Fashion;Casual;2017;26,RDRPJGNG00000306,28,RDRPJGNG00000307,30,RDRPJGNG00000308,32,RDRPJGNG00000309,34,RDRPJGNG00000310;1695.00;;;<p>Cold wash separately,Do not Bleach,Tumble dry low , Dry in shade.</p>;;;na;;zerotype;;Fall;;No
2262192;616118P-34-Orange Black-2262192;Ladies Skirt;Draft;Skirts;Rider Republic;Adults-Women;Women;Orange;Black;;Fashion;Casual;2017;26,RDRPSKRT00000801,28,RDRPSKRT00000802,30,RDRPSKRT00000803,32,RDRPSKRT00000804,34,RDRPSKRT00000805;1495.00;;;<p>Cold wash separately,Do not Bleach,Tumble dry low , Dry in shade.</p>;;;na;;zerotype;;Fall;;No
2262189;607118P-34-Red-2262189;Ladies Skirt;Draft;Skirts;Rider Republic;Adults-Women;Women;Red;;;Fashion;Casual;2017;26,RDRPSKRT00000796,28,RDRPSKRT00000797,30,RDRPSKRT00000798,32,RDRPSKRT00000799,34,RDRPSKRT00000800;1495.00;;;<p>Cold wash separately,Do not Bleach,Tumble dry low , Dry in shade.</p>;;;na;;zerotype;;Fall;;No
2262187;532119-34-Pink-2262187;Ladies Skirt;Draft;Skirts;Rider Republic;Adults-Women;Women;Pink;;;Fashion;Casual;2017;26,RDRPSKRT00000791,28,RDRPSKRT00000792,30,RDRPSKRT00000793,32,RDRPSKRT00000794,34,RDRPSKRT00000795;1495.00;;;<p>Cold wash separately,Do not Bleach,Tumble dry low , Dry in shade.</p>;;;na;;zerotype;;Fall;;No
2262184;532118B-34-Pink Black-2262184;Ladies Skirt;Draft;Skirts;Rider Republic;Adults-Women;Women;Pink;Black;;Fashion;Casual;2017;26,RDRPSKRT00000786,28,RDRPSKRT00000787,30,RDRPSKRT00000788,32,RDRPSKRT00000789,34,RDRPSKRT00000790;1495.00;;;<p>Cold wash separately,Do not Bleach,Tumble dry low , Dry in shade.</p>;;;na;;zerotype;;Fall;;No
2262182;532091-34-Pink-2262182;Ladies Skirt;Draft;Skirts;Rider Republic;Adults-Women;Women;Pink;;;Fashion;Casual;2017;26,RDRPSKRT00000781,28,RDRPSKRT00000782,30,RDRPSKRT00000783,32,RDRPSKRT00000784,34,RDRPSKRT00000785;1495.00;;;<p>Cold wash separately,Do not Bleach,Tumble dry low , Dry in shade.</p>;;;na;;zerotype;;Fall;;No
2262180;532070-34-Pink-2262180;Ladies Skirt;Draft;Skirts;Rider Republic;Adults-Women;Women;Pink;;;Fashion;Casual;2017;26,RDRPSKRT00000776,28,RDRPSKRT00000777,30,RDRPSKRT00000778,32,RDRPSKRT00000779,34,RDRPSKRT00000780;1495.00;;;<p>Cold wash separately,Do not Bleach,Tumble dry low , Dry in shade.</p>;;;na;;zerotype;;Fall;;No
2262177;531118B-34-Turquoise Blue Black-2262177;Ladies Skirt;Draft;Skirts;Rider Republic;Adults-Women;Women;Turquoise Blue;Black;;Fashion;Casual;2017;26,RDRPSKRT00000771,28,RDRPSKRT00000772,30,RDRPSKRT00000773,32,RDRPSKRT00000774,34,RDRPSKRT00000775;1495.00;;;<p>Cold wash separately,Do not Bleach,Tumble dry low , Dry in shade.</p>;;;na;;zerotype;;Fall;;No
2262175;511119-34-Tan-2262175;Ladies Skirt;Draft;Skirts;Rider Republic;Adults-Women;Women;Tan;;;Fashion;Casual;2017;26,RDRPSKRT00000766,28,RDRPSKRT00000767,30,RDRPSKRT00000768,32,RDRPSKRT00000769,34,RDRPSKRT00000770;1495.00;;;<p>Cold wash separately,Do not Bleach,Tumble dry low , Dry in shade.</p>;;;na;;zerotype;;Fall;;No
2262172;511117-34-Tan-2262172;Ladies Skirt;Draft;Skirts;Rider Republic;Adults-Women;Women;Tan;;;Fashion;Casual;2017;26,RDRPSKRT00000761,28,RDRPSKRT00000762,30,RDRPSKRT00000763,32,RDRPSKRT00000764,34,RDRPSKRT00000765;1495.00;;;<p>Cold wash separately,Do not Bleach,Tumble dry low , Dry in shade.</p>;;;na;;zerotype;;Fall;;No
2262156;504119-34-Beige-2262156;Ladies Skirt;Draft;Skirts;Rider Republic;Adults-Women;Women;Beige;;;Fashion;Casual;2017;26,RDRPSKRT00000756,28,RDRPSKRT00000757,30,RDRPSKRT00000758,32,RDRPSKRT00000759,34,RDRPSKRT00000760;1495.00;;;<p>Cold wash separately,Do not Bleach,Tumble dry low , Dry in shade.</p>;;;na;;zerotype;;Fall;;No
2262137;502119-34-Navy Blue-2262137;Ladies Skirt;Draft;Skirts;Rider Republic;Adults-Women;Women;Navy Blue;;;Fashion;Casual;2017;26,RDRPSKRT00000751,28,RDRPSKRT00000752,30,RDRPSKRT00000753,32,RDRPSKRT00000754,34,RDRPSKRT00000755;1495.00;;;<p>Cold wash separately,Do not Bleach,Tumble dry low , Dry in shade.</p>;;;na;;zerotype;;Fall;;No
2262121;502115Y-34-Navy Blue-2262121;Ladies Skirt;Draft;Skirts;Rider Republic;Adults-Women;Women;Navy Blue;;;Fashion;Casual;2017;26,RDRPSKRT00000746,28,RDRPSKRT00000747,30,RDRPSKRT00000748,32,RDRPSKRT00000749,34,RDRPSKRT00000750;1495.00;;;<p>Cold wash separately,Do not Bleach,Tumble dry low , Dry in shade.</p>;;;na;;zerotype;;Fall;;No
2262104;501120-34-Black White-2262104;Ladies Skirt;Draft;Skirts;Rider Republic;Adults-Women;Women;Black;White;;Fashion;Casual;2017;26,RDRPSKRT00000741,28,RDRPSKRT00000742,30,RDRPSKRT00000743,32,RDRPSKRT00000744,34,RDRPSKRT00000745;1495.00;;;<p>Cold wash separately,Do not Bleach,Tumble dry low , Dry in shade.</p>;;;na;;zerotype;;Fall;;No
2262101;501119-34-Black-2262101;Ladies Skirt;Draft;Skirts;Rider Republic;Adults-Women;Women;Black;;;Fashion;Casual;2017;26,RDRPSKRT00000736,28,RDRPSKRT00000737,30,RDRPSKRT00000738,32,RDRPSKRT00000739,34,RDRPSKRT00000740;1495.00;;;<p>Cold wash separately,Do not Bleach,Tumble dry low , Dry in shade.</p>;;;naa;;zerotype;;Fall;;No
2262100;501115W-34-Black-2262100;Ladies Skirt;Draft;Skirts;Rider Republic;Adults-Women;Women;Black;;;Fashion;Casual;2017;26,RDRPSKRT00000731,28,RDRPSKRT00000732,30,RDRPSKRT00000733,32,RDRPSKRT00000734,34,RDRPSKRT00000735;1495.00;;;<p>Cold wash separately,Do not Bleach,Tumble dry low , Dry in shade.</p>;;;na;;zerotype;;Fall;;No
2262099;501092B-34-Black-2262099;Ladies Skirt;Draft;Skirts;Rider Republic;Adults-Women;Women;Black;;;Fashion;Casual;2017;26,RDRPSKRT00000726,28,RDRPSKRT00000727,30,RDRPSKRT00000728,32,RDRPSKRT00000729,34,RDRPSKRT00000730;1495.00;;;<p>Cold wash separately,Do not Bleach,Tumble dry low , Dry in shade.</p>;;;na;;zerotype;;Fall;;No
2262098;305119-34-Blue-2262098;Ladies Skirt;Draft;Skirts;Rider Republic;Adults-Women;Women;Blue;;;Fashion;Casual;2017;26,RDRPSKRT00000721,28,RDRPSKRT00000722,30,RDRPSKRT00000723,32,RDRPSKRT00000724,34,RDRPSKRT00000725;1495.00;;;<p>Cold wash separately,Do not Bleach,Tumble dry low , Dry in shade.</p>;;;na;;zerotype;;Fall;;No
2262097;101085-34-Black-2262097;Ladies Joggers;Draft;Trousers;Rider Republic;Adults-Women;Women;Black;;;Fashion;Casual;2017;30,RDRPTRSR00000360,28,RDRPTRSR00000361,26,RDRPTRSR00000362,32,RDRPTRSR00000363,34,RDRPTRSR00000364;1695.00;;;<p>Cold wash separately,Do not Bleach,Tumble dry low , Dry in shade.</p>;;;na;;zerotype;;Fall;;No
2262096;202085-34-Blue-2262096;Ladies Joggers;Draft;Trousers;Rider Republic;Adults-Women;Women;Blue;;;Fashion;Casual;2017;32,RDRPTRSR00000355,30,RDRPTRSR00000356,28,RDRPTRSR00000357,26,RDRPTRSR00000358,34,RDRPTRSR00000359;1695.00;;;<p>Cold wash separately,Do not Bleach,Tumble dry low , Dry in shade.</p>;;;na;;zerotype;;Fall;;No
2262095;305122-26-Blue-2262095;Ladies Jeans;Draft;Jeans;Rider Republic;Adults-Women;Women;Blue;;;Fashion;Casual;2017;34,RDRPJENS00000136,32,RDRPJENS00000137,30,RDRPJENS00000138,28,RDRPJENS00000139,26,RDRPJENS00000140;1695.00;;;<p>Cold wash separately,Do not Bleach,Tumble dry low , Dry in shade, Machine Wash</p>;;;na;;zerotype;;Fall;;No
2262094;305010-26-Blue-2262094;Ladies Jeans;Draft;Jeans;Rider Republic;Adults-Women;Women;Blue;;;Fashion;Casual;2017;34,RDRPJENS00000131,32,RDRPJENS00000132,30,RDRPJENS00000133,28,RDRPJENS00000134,26,RDRPJENS00000135;1695.00;;;<p>Cold wash separately,Do not Bleach,Tumble dry low , Dry in shade, Machine Wash</p>;;;na;;zerotype;;Fall;;No
2262093;312122-26-Blue-2262093;Ladies Jeans;Draft;Jeans;Rider Republic;Adults-Women;Women;Blue;;;Fashion;Casual;2017;34,RDRPJENS00000126,32,RDRPJENS00000127,30,RDRPJENS00000128,28,RDRPJENS00000129,26,RDRPJENS00000130;1695.00;;;<p>Cold wash separately,Do not Bleach,Tumble dry low , Dry in shade, Machine Wash</p>;;;na;;zerotype;;Fall;;No
2262092;312010-30-Blue-2262092;Ladies Jeans;Draft;Jeans;Rider Republic;Adults-Women;Women;Blue;;;Fashion;Casual;2017;28,RDRPJENS00000121,26,RDRPJENS00000122,34,RDRPJENS00000123,32,RDRPJENS00000124,30,RDRPJENS00000125;1695.00;;;<p>Cold wash separately,Do not Bleach,Tumble dry low , Dry in shade, Machine Wash</p>;;;na;;zerotype;;Fall;;No
