Style ID;Vendor Article Number;Vendor Article Name;Active Status;Article type;Brand;Age Group;Gender;Base Colour;Colour1;Colour2;Fashion Type;Usage;Year;Size - SKU code pair;MRP;Style Description;Style Note;Materials and Care Description;Size and Fit Description;Size Chart Path;Product Display Name;Tags;Product Type;Classification Brand;Season;Comments;Upload Images
2484647;275260442-TEAL-2484647;Anahi Solid Teal XL TF;Draft;Kurtas;Anahi;Adults-Women;Women;Teal;;;Fashion;;2018;L,ANHIKRTA00001272,M,ANHIKRTA00001273,S,ANHIKRTA00001274,XL,ANHIKRTA00001275;1199.00;;;<p>Hand Wash</p>;;;;;zerotype;;Spring;;No
2484645;275260434-OFF-WHITE-2484645;Anahi Solid Off White XXL TF;Draft;Kurtas;Anahi;Adults-Women;Women;Off White;;;Fashion;;2018;L,ANHIKRTA00001266,M,ANHIKRTA00001267,S,ANHIKRTA00001268,XL,ANHIKRTA00001269,XS,ANHIKRTA00001270,XXL,ANHIKRTA00001271;1099.00;;;<p>Hand Wash</p>;;;;;zerotype;;Spring;;No
2484643;275260434-CORAL-2484643;Anahi Solid Coral XXL TF;Draft;Kurtas;Anahi;Adults-Women;Women;Coral;;;Fashion;;2018;L,ANHIKRTA00001260,M,ANHIKRTA00001261,S,ANHIKRTA00001262,XL,ANHIKRTA00001263,XS,ANHIKRTA00001264,XXL,ANHIKRTA00001265;1099.00;;;<p>Hand Wash</p>;;;;;zerotype;;Spring;;No
2484641;275227811-BLUE-2484641;Anahi Printed Blue XXL TF;Draft;Kurtas;Anahi;Adults-Women;Women;Blue;;;Fashion;;2018;L,ANHIKRTA00001254,M,ANHIKRTA00001255,S,ANHIKRTA00001256,XL,ANHIKRTA00001257,XS,ANHIKRTA00001258,XXL,ANHIKRTA00001259;1199.00;;;<p>Hand Wash</p>;;;;;zerotype;;Spring;;No
2484639;275227802-YELLOW-2484639;Anahi Printed Yellow XXL TF;Draft;Kurtas;Anahi;Adults-Women;Women;Yellow;;;Fashion;;2018;L,ANHIKRTA00001248,M,ANHIKRTA00001249,S,ANHIKRTA00001250,XL,ANHIKRTA00001251,XS,ANHIKRTA00001252,XXL,ANHIKRTA00001253;1199.00;;;<p>Hand Wash</p>;;;;;zerotype;;Spring;;No
2484637;275227790-PINK-2484637;Anahi Printed Pink XXL TF;Draft;Kurtas;Anahi;Adults-Women;Women;Pink;;;Fashion;;2018;L,ANHIKRTA00001242,M,ANHIKRTA00001243,S,ANHIKRTA00001244,XL,ANHIKRTA00001245,XS,ANHIKRTA00001246,XXL,ANHIKRTA00001247;899.00;;;<p>Hand Wash</p>;;;;;zerotype;;Spring;;No
2484636;275227781-YELLOW-2484636;Anahi Printed Yellow XXL TF;Draft;Kurtas;Anahi;Adults-Women;Women;Yellow;;;Fashion;;2018;L,ANHIKRTA00001236,M,ANHIKRTA00001237,S,ANHIKRTA00001238,XL,ANHIKRTA00001239,XS,ANHIKRTA00001240,XXL,ANHIKRTA00001241;999.00;;;<p>Hand Wash</p>;;;;;zerotype;;Spring;;No
2484634;275227781-BLUE-2484634;Anahi Printed Blue XXL TF;Draft;Kurtas;Anahi;Adults-Women;Women;Blue;;;Fashion;;2018;L,ANHIKRTA00001230,M,ANHIKRTA00001231,S,ANHIKRTA00001232,XL,ANHIKRTA00001233,XS,ANHIKRTA00001234,XXL,ANHIKRTA00001235;999.00;;;<p>Hand Wash</p>;;;;;zerotype;;Spring;;No
2484632;275227765-FUCHIA-2484632;Anahi Solid Fuchsia XXL TF;Draft;Kurtas;Anahi;Adults-Women;Women;Maroon;;;Fashion;;2018;L,ANHIKRTA00001224,M,ANHIKRTA00001225,S,ANHIKRTA00001226,XL,ANHIKRTA00001227,XS,ANHIKRTA00001228,XXL,ANHIKRTA00001229;899.00;;;<p>Hand Wash</p>;;;;;zerotype;;Spring;;No
2484630;275227757-TEAL-2484630;Anahi Solid Teal XXL TF;Draft;Kurtas;Anahi;Adults-Women;Women;Teal;;;Fashion;;2018;L,ANHIKRTA00001218,M,ANHIKRTA00001219,S,ANHIKRTA00001220,XL,ANHIKRTA00001221,XS,ANHIKRTA00001222,XXL,ANHIKRTA00001223;899.00;;;<p>Hand Wash</p>;;;;;zerotype;;Spring;;No
2484628;275227749-OFF-WHITE-2484628;Anahi Solid Off White XXL TF;Draft;Kurtas;Anahi;Adults-Women;Women;Off White;;;Fashion;;2018;L,ANHIKRTA00001212,M,ANHIKRTA00001213,S,ANHIKRTA00001214,XL,ANHIKRTA00001215,XS,ANHIKRTA00001216,XXL,ANHIKRTA00001217;899.00;;;<p>Hand Wash</p>;;;;;zerotype;;Spring;;No
2484626;275227731-NAVY-2484626;Anahi Solid Navy XXL TF;Draft;Kurtas;Anahi;Adults-Women;Women;Navy Blue;;;Fashion;;2018;L,ANHIKRTA00001206,M,ANHIKRTA00001207,S,ANHIKRTA00001208,XL,ANHIKRTA00001209,XS,ANHIKRTA00001210,XXL,ANHIKRTA00001211;899.00;;;<p>Hand Wash</p>;;;;;zerotype;;Spring;;No
2484624;275227722-MUSTARD-2484624;Anahi Solid Mustard XXL TF;Draft;Kurtas;Anahi;Adults-Women;Women;Mustard;;;Fashion;;2018;L,ANHIKRTA00001200,M,ANHIKRTA00001201,S,ANHIKRTA00001202,XL,ANHIKRTA00001203,XS,ANHIKRTA00001204,XXL,ANHIKRTA00001205;899.00;;;<p>Hand Wash</p>;;;;;zerotype;;Spring;;No
2484623;275227714-MAROON-2484623;Anahi Solid Maroon XXL TF;Draft;Kurtas;Anahi;Adults-Women;Women;Maroon;;;Fashion;;2018;L,ANHIKRTA00001194,M,ANHIKRTA00001195,S,ANHIKRTA00001196,XL,ANHIKRTA00001197,XS,ANHIKRTA00001198,XXL,ANHIKRTA00001199;899.00;;;<p>Hand Wash</p>;;;;;zerotype;;Spring;;No
2484621;275227706-BLACK-2484621;Anahi Solid Black XXL TF;Draft;Kurtas;Anahi;Adults-Women;Women;Black;;;Fashion;;2018;L,ANHIKRTA00001188,M,ANHIKRTA00001189,S,ANHIKRTA00001190,XL,ANHIKRTA00001191,XS,ANHIKRTA00001192,XXL,ANHIKRTA00001193;899.00;;;<p>Hand Wash</p>;;;;;zerotype;;Spring;;No
2484619;275098123-BLUE-2484619;Anahi Printed Blue XXL TF;Draft;Kurtas;Anahi;Adults-Women;Women;Blue;;;Fashion;;2018;L,ANHIKRTA00001182,M,ANHIKRTA00001183,S,ANHIKRTA00001184,XL,ANHIKRTA00001185,XS,ANHIKRTA00001186,XXL,ANHIKRTA00001187;1199.00;;;<p>Hand Wash</p>;;;;;zerotype;;Spring;;No
2484610;274672189-OFF-WHITE-2484610;Anahi Printed Off White XXL TF;Draft;Kurtas;Anahi;Adults-Women;Women;Off White;;;Fashion;;2018;L,ANHIKRTA00001176,M,ANHIKRTA00001177,S,ANHIKRTA00001178,XL,ANHIKRTA00001179,XS,ANHIKRTA00001180,XXL,ANHIKRTA00001181;1099.00;;;<p>Hand Wash</p>;;;;;zerotype;;Spring;;No
2484609;274672162-PEACH-2484609;Anahi Printed Peach XXL FS;Draft;Kurtas;Anahi;Adults-Women;Women;Peach;;;Fashion;;2018;L,ANHIKRTA00001171,M,ANHIKRTA00001172,S,ANHIKRTA00001173,XL,ANHIKRTA00001174,XXL,ANHIKRTA00001175;1499.00;;;<p>Hand Wash</p>;;;;;zerotype;;Spring;;No
2484608;274672162-OFF-WHITE-2484608;Anahi Printed Off White XXL FS;Draft;Kurtas;Anahi;Adults-Women;Women;Off White;;;Fashion;;2018;L,ANHIKRTA00001165,M,ANHIKRTA00001166,S,ANHIKRTA00001167,XL,ANHIKRTA00001168,XS,ANHIKRTA00001169,XXL,ANHIKRTA00001170;1499.00;;;<p>Hand Wash</p>;;;;;zerotype;;Spring;;No
2484607;274672154-PEACH-2484607;Anahi Printed Peach XXL TF;Draft;Kurtas;Anahi;Adults-Women;Women;Peach;;;Fashion;;2018;L,ANHIKRTA00001159,M,ANHIKRTA00001160,S,ANHIKRTA00001161,XL,ANHIKRTA00001162,XS,ANHIKRTA00001163,XXL,ANHIKRTA00001164;1099.00;;;<p>Hand Wash</p>;;;;;zerotype;;Spring;;No
2484606;274672154-OFF-WHITE-2484606;Anahi Printed Off White XXL TF;Draft;Kurtas;Anahi;Adults-Women;Women;Off White;;;Fashion;;2018;L,ANHIKRTA00001153,M,ANHIKRTA00001154,S,ANHIKRTA00001155,XL,ANHIKRTA00001156,XS,ANHIKRTA00001157,XXL,ANHIKRTA00001158;1099.00;;;<p>Hand Wash</p>;;;;;zerotype;;Spring;;No
2484605;274672146-WHITE-2484605;Anahi Printed White XXL CS;Draft;Kurtas;Anahi;Adults-Women;Women;White;;;Fashion;;2018;L,ANHIKRTA00001147,M,ANHIKRTA00001148,S,ANHIKRTA00001149,XL,ANHIKRTA00001150,XS,ANHIKRTA00001151,XXL,ANHIKRTA00001152;1399.00;;;<p>Hand Wash</p>;;;;;zerotype;;Spring;;No
2484604;274671071-OFF-WHITE-2484604;Anahi Printed Off White XXL TF;Draft;Kurtas;Anahi;Adults-Women;Women;Off White;;;Fashion;;2018;L,ANHIKRTA00001141,M,ANHIKRTA00001142,S,ANHIKRTA00001143,XL,ANHIKRTA00001144,XS,ANHIKRTA00001145,XXL,ANHIKRTA00001146;999.00;;;<p>Hand Wash</p>;;;;;zerotype;;Spring;;No
2484603;274671071-BLUE-2484603;Anahi Printed Blue XXL TF;Draft;Kurtas;Anahi;Adults-Women;Women;Blue;;;Fashion;;2018;L,ANHIKRTA00001135,M,ANHIKRTA00001136,S,ANHIKRTA00001137,XL,ANHIKRTA00001138,XS,ANHIKRTA00001139,XXL,ANHIKRTA00001140;999.00;;;<p>Hand Wash</p>;;;;;zerotype;;Spring;;No
2484602;274671039-OFF-WHITE-2484602;Anahi Printed Off White XXL SL;Draft;Kurtas;Anahi;Adults-Women;Women;Off White;;;Fashion;;2018;L,ANHIKRTA00001129,M,ANHIKRTA00001130,S,ANHIKRTA00001131,XL,ANHIKRTA00001132,XS,ANHIKRTA00001133,XXL,ANHIKRTA00001134;1099.00;;;<p>Hand Wash</p>;;;;;zerotype;;Spring;;No
2484601;274671039-MAROON-2484601;Anahi Printed Maroon XXL SL;Draft;Kurtas;Anahi;Adults-Women;Women;Maroon;;;Fashion;;2018;L,ANHIKRTA00001123,M,ANHIKRTA00001124,S,ANHIKRTA00001125,XL,ANHIKRTA00001126,XS,ANHIKRTA00001127,XXL,ANHIKRTA00001128;1099.00;;;<p>Hand Wash</p>;;;;;zerotype;;Spring;;No
2484600;274671012-PINK-2484600;Anahi Embroidered Pink XXL TF;Draft;Kurtas;Anahi;Adults-Women;Women;Pink;;;Fashion;;2018;L,ANHIKRTA00001117,M,ANHIKRTA00001118,S,ANHIKRTA00001119,XL,ANHIKRTA00001120,XS,ANHIKRTA00001121,XXL,ANHIKRTA00001122;999.00;;;<p>Hand Wash</p>;;;;;zerotype;;Spring;;No
2484599;274671004-BLACK-2484599;Anahi Embroidered Black XXL TF;Draft;Kurtas;Anahi;Adults-Women;Women;Black;;;Fashion;;2018;L,ANHIKRTA00001111,M,ANHIKRTA00001112,S,ANHIKRTA00001113,XL,ANHIKRTA00001114,XS,ANHIKRTA00001115,XXL,ANHIKRTA00001116;999.00;;;<p>Hand Wash</p>;;;;;zerotype;;Spring;;No
2484598;274667718-BLACK-2484598;Anahi Embroidered Black XXL TF;Draft;Kurtas;Anahi;Adults-Women;Women;Black;;;Fashion;;2018;L,ANHIKRTA00001105,M,ANHIKRTA00001106,S,ANHIKRTA00001107,XL,ANHIKRTA00001108,XS,ANHIKRTA00001109,XXL,ANHIKRTA00001110;999.00;;;<p>Hand Wash</p>;;;;;zerotype;;Spring;;No
2484597;274667697-PINK-2484597;Anahi Embroidered Pink XXL TF;Draft;Kurtas;Anahi;Adults-Women;Women;Pink;;;Fashion;;2018;L,ANHIKRTA00001099,M,ANHIKRTA00001100,S,ANHIKRTA00001101,XL,ANHIKRTA00001102,XS,ANHIKRTA00001103,XXL,ANHIKRTA00001104;999.00;;;<p>Hand Wash</p>;;;;;zerotype;;Spring;;No
2484594;274658820-RED-2484594;Anahi Printed Red XXL TF;Draft;Kurtas;Anahi;Adults-Women;Women;Red;;;Fashion;;2018;L,ANHIKRTA00001093,M,ANHIKRTA00001094,S,ANHIKRTA00001095,XL,ANHIKRTA00001096,XS,ANHIKRTA00001097,XXL,ANHIKRTA00001098;1399.00;;;<p>Hand Wash</p>;;;;;zerotype;;Spring;;No
2484593;274658782-YELLOW-2484593;Anahi Printed Yellow XXL TF;Draft;Kurtas;Anahi;Adults-Women;Women;Yellow;;;Fashion;;2018;L,ANHIKRTA00001087,M,ANHIKRTA00001088,S,ANHIKRTA00001089,XL,ANHIKRTA00001090,XS,ANHIKRTA00001091,XXL,ANHIKRTA00001092;1599.00;;;<p>Hand Wash</p>;;;;;zerotype;;Spring;;No
2484592;274658782-BLUE-2484592;Anahi Printed Blue XXL TF;Draft;Kurtas;Anahi;Adults-Women;Women;Blue;;;Fashion;;2018;L,ANHIKRTA00001081,M,ANHIKRTA00001082,S,ANHIKRTA00001083,XL,ANHIKRTA00001084,XS,ANHIKRTA00001085,XXL,ANHIKRTA00001086;1599.00;;;<p>Hand Wash</p>;;;;;zerotype;;Spring;;No
2484591;274658774-WHITE-2484591;Anahi Printed White XXL CS;Draft;Kurtas;Anahi;Adults-Women;Women;White;;;Fashion;;2018;L,ANHIKRTA00001075,M,ANHIKRTA00001076,S,ANHIKRTA00001077,XL,ANHIKRTA00001078,XS,ANHIKRTA00001079,XXL,ANHIKRTA00001080;1399.00;;;<p>Hand Wash</p>;;;;;zerotype;;Spring;;No
2484590;274658774-GREEN-2484590;Anahi Printed Green XXL CS;Draft;Kurtas;Anahi;Adults-Women;Women;Green;;;Fashion;;2018;L,ANHIKRTA00001069,M,ANHIKRTA00001070,S,ANHIKRTA00001071,XL,ANHIKRTA00001072,XS,ANHIKRTA00001073,XXL,ANHIKRTA00001074;1399.00;;;<p>Hand Wash</p>;;;;;zerotype;;Spring;;No
2484589;274658766-RED-2484589;Anahi Printed Red XXL CS;Draft;Kurtas;Anahi;Adults-Women;Women;Red;;;Fashion;;2018;L,ANHIKRTA00001063,M,ANHIKRTA00001064,S,ANHIKRTA00001065,XL,ANHIKRTA00001066,XS,ANHIKRTA00001067,XXL,ANHIKRTA00001068;1599.00;;;<p>Hand Wash</p>;;;;;zerotype;;Spring;;No
2484588;274658740-YELLOW-2484588;Anahi Printed Yellow XXL TF;Draft;Kurtas;Anahi;Adults-Women;Women;Yellow;;;Fashion;;2018;L,ANHIKRTA00001057,M,ANHIKRTA00001058,S,ANHIKRTA00001059,XL,ANHIKRTA00001060,XS,ANHIKRTA00001061,XXL,ANHIKRTA00001062;1299.00;;;<p>Hand Wash</p>;;;;;zerotype;;Spring;;No
2484587;274658740-BLUE-2484587;Anahi Printed Blue XXL TF;Draft;Kurtas;Anahi;Adults-Women;Women;Blue;;;Fashion;;2018;L,ANHIKRTA00001051,M,ANHIKRTA00001052,S,ANHIKRTA00001053,XL,ANHIKRTA00001054,XS,ANHIKRTA00001055,XXL,ANHIKRTA00001056;1299.00;;;<p>Hand Wash</p>;;;;;zerotype;;Spring;;No
2484586;274658731-OFF-WHITE-2484586;Anahi Embroidered Off White XXL TF;Draft;Kurtas;Anahi;Adults-Women;Women;Off White;;;Fashion;;2018;L,ANHIKRTA00001045,M,ANHIKRTA00001046,S,ANHIKRTA00001047,XL,ANHIKRTA00001048,XS,ANHIKRTA00001049,XXL,ANHIKRTA00001050;1199.00;;;<p>Hand Wash</p>;;;;;zerotype;;Spring;;No
2484585;274658731-BLUE-2484585;Anahi Embroidered Blue XXL TF;Draft;Kurtas;Anahi;Adults-Women;Women;Blue;;;Fashion;;2018;L,ANHIKRTA00001039,M,ANHIKRTA00001040,S,ANHIKRTA00001041,XL,ANHIKRTA00001042,XS,ANHIKRTA00001043,XXL,ANHIKRTA00001044;1199.00;;;<p>Hand Wash</p>;;;;;zerotype;;Spring;;No
2484584;274658723-MAROON-2484584;Anahi Printed Maroon XXL TF;Draft;Kurtas;Anahi;Adults-Women;Women;Maroon;;;Fashion;;2018;L,ANHIKRTA00001033,M,ANHIKRTA00001034,S,ANHIKRTA00001035,XL,ANHIKRTA00001036,XS,ANHIKRTA00001037,XXL,ANHIKRTA00001038;999.00;;;<p>Hand Wash</p>;;;;;zerotype;;Spring;;No
2484487;274550691-YELLOW-2484487;Anahi Printed Yellow XXL TF;Draft;Kurtas;Anahi;Adults-Women;Women;Yellow;;;Fashion;;2018;L,ANHIKRTA00001027,M,ANHIKRTA00001028,S,ANHIKRTA00001029,XL,ANHIKRTA00001030,XS,ANHIKRTA00001031,XXL,ANHIKRTA00001032;1299.00;;;<p>Hand Wash</p>;;;;;zerotype;;Spring;;No
2484486;274550683-OFF-WHITE-2484486;Anahi Printed Off White XXL TF;Draft;Kurtas;Anahi;Adults-Women;Women;Off White;;;Fashion;;2018;L,ANHIKRTA00001021,M,ANHIKRTA00001022,S,ANHIKRTA00001023,XL,ANHIKRTA00001024,XS,ANHIKRTA00001025,XXL,ANHIKRTA00001026;1299.00;;;<p>Hand Wash</p>;;;;;zerotype;;Spring;;No
2484485;274550659-BLACK-2484485;Anahi Printed Black XXL TF;Draft;Kurtas;Anahi;Adults-Women;Women;Black;;;Fashion;;2018;L,ANHIKRTA00001015,M,ANHIKRTA00001016,S,ANHIKRTA00001017,XL,ANHIKRTA00001018,XS,ANHIKRTA00001019,XXL,ANHIKRTA00001020;1499.00;;;<p>Hand Wash</p>;;;;;zerotype;;Spring;;No
2484484;274550641-WHITE-2484484;Anahi Printed White XXL FS;Draft;Kurtas;Anahi;Adults-Women;Women;White;;;Fashion;;2018;L,ANHIKRTA00001009,M,ANHIKRTA00001010,S,ANHIKRTA00001011,XL,ANHIKRTA00001012,XS,ANHIKRTA00001013,XXL,ANHIKRTA00001014;1299.00;;;<p>Hand Wash</p>;;;;;zerotype;;Spring;;No
2484483;274550632-MAROON-2484483;Anahi Printed Maroon XXL TF;Draft;Kurtas;Anahi;Adults-Women;Women;Maroon;;;Fashion;;2018;L,ANHIKRTA00001003,M,ANHIKRTA00001004,S,ANHIKRTA00001005,XL,ANHIKRTA00001006,XS,ANHIKRTA00001007,XXL,ANHIKRTA00001008;999.00;;;<p>Hand Wash</p>;;;;;zerotype;;Spring;;No
2484482;274550632-BLACK-2484482;Anahi Printed Black XXL TF;Draft;Kurtas;Anahi;Adults-Women;Women;Black;;;Fashion;;2018;L,ANHIKRTA00000997,M,ANHIKRTA00000998,S,ANHIKRTA00000999,XL,ANHIKRTA00001000,XS,ANHIKRTA00001001,XXL,ANHIKRTA00001002;999.00;;;<p>Hand Wash</p>;;;;;zerotype;;Spring;;No
2484481;274550624-BLACK-2484481;Anahi Printed Black XXL TF;Draft;Kurtas;Anahi;Adults-Women;Women;Black;;;Fashion;;2018;L,ANHIKRTA00000991,M,ANHIKRTA00000992,S,ANHIKRTA00000993,XL,ANHIKRTA00000994,XS,ANHIKRTA00000995,XXL,ANHIKRTA00000996;1099.00;;;<p>Hand Wash</p>;;;;;zerotype;;Spring;;No
2461681;SS18GP032PLRL_BLUE_XXL-BLUE-2461681;SS18GP032PLRL;Draft;Clothing Set;Global Desi;Adults-Women;Women;Blue;Blue;Blue;Fashion;;2018;XS,GBDCLST00000079,S,GBDCLST00000080,M,GBDCLST00000081,L,GBDCLST00000082,XL,GBDCLST00000083,XXL,GBDCLST00000084;1899.00;;;<p>Wash dark colors separately, do not iron directly on decoration, wash/dry inside out, machine wash cold, do not bleach, tumble dry low, medium iron, no dry clean.</p>;;;;global-desi-ss18;zerotype;;Summer;global-desi-ss18;No
2432429;P20402066135401-Black-2432429;Skirts;Draft;Skirts;People;Adults-Women;Women;Black;;;Fashion;;2017;L,PEPLSKRT00000392,M,PEPLSKRT00000393,S,PEPLSKRT00000394,XL,PEPLSKRT00000395,XS,PEPLSKRT00000396,XXL,PEPLSKRT00000397;1299.00;;;<p>80% COTTON 18% POLYESTER 2 % LYCRA</p>;;;;ethnic-bottoms-ss18;zerotype;;Summer;ethnic-bottoms-ss18;No
2426925;17124-BLACK-2426925;17124 BLACK;QC Reject;Jeans;Deal Jeans;Adults-Women;Women;Black;;;Fashion;Casual;2018;S,DLJNJENS00004210,M,DLJNJENS00004211,L,DLJNJENS00004212,XL,DLJNJENS00004213,XXL,DLJNJENS00004214;2395.00;<a href='/black?src=pd' class='seolink'>Black</a> dark wash 5-pocket mid-rise <a href='/jeans?src=pd' class='seolink'>jeans</a>, clean look with no fade, has a button and zip closure, waistband with belt loops;Look and feel your absolute best in these stunning jeans from Deal Jeans.  Sport them with your favourite top and leather jacket for an edgy dinner-and-drinks ensemble.;Cotton, polyester and elastane <br> Dry-clean;Regular Fit<br>  Stretchable<br> The model (height 5'8") is wearing a size 28;;Deal Jeans Women Black Regular Fit Mid-Rise Clean Look Stretchable Jeans;Deal Jeans;zerotype;;Spring;87% COTTON 11% POLYESTER 2% SPANDEX;No
2424785;1359-0105-BUTML-Blue Tint Melange-2424785;V NECK TEE;BIS + Content Complete;Tshirts;Jockey;Adults-Women;Women;Blue;;;Core;Casual;2018;S,JOCKTSHT00001281,M,JOCKTSHT00001282,L,JOCKTSHT00001283,XL,JOCKTSHT00001284,XXL,JOCKTSHT00001285;399.00;Blue solid T-shirt, has a V-neck, short sleeves;Liven up your warm-weather wardrobe with this high-fashion tee designed by Jockey.  Pair this blue piece with slim jeans and canvas shoes when you're going out for ice cream with your friends.;Cotton and elastane <br> Machine-wash;The model (height 5'8") is wearing a size S;;Jockey Women Blue Solid V-Neck T-shirt;Jockey;zerotype;;Summer;;No
2424769;RX15-0103-00001-Classic Navy Check01-2424769;Woven Knee Length Shorts;Draft;Shorts;Jockey;Adults-Women;Women;Blue;;;Core;;2018;S,JOCKSHOR00000311,M,JOCKSHOR00000312,L,JOCKSHOR00000313,XL,JOCKSHOR00000314;449.00;;;<p>100% Super Combed Cotton woven fabric with lurex highlight.Modern and relaxed fit.Elasticated 'easy fit' waistband with contrast twill tape drawstring.Authentic Jockey swirl embroidery.To be worn as sleepwear and loungewear.</p>;;;;;zerotype;;Summer;;No
2424764;UL07-0103-CRMML-Cream Melange-2424764;Slim Fit Long Pant;Draft;Track Pants;Jockey;Adults-Women;Women;Yellow;;;Core;;2018;S,JOCKTRPT00000260,M,JOCKTRPT00000261,L,JOCKTRPT00000262,XL,JOCKTRPT00000263;999.00;;;<p>Super Combed Cotton stretch soft terry fabricTrendy fit for all day comfortConvenient front pocketsAuthentic USA Originals brandingFor all purpose wear</p>;;;;;zerotype;;Spring;;No
2414149;RW_PY_CAPRI 15-PURPLE-2414149;PURPLE CREEPERS BEACHWEAR  KAFTAN;Draft;Swimwear;The Kaftan Company;Adults-Women;Women;Purple;;;Fashion;;2018;S,TKCYSWMW00000817,M,TKCYSWMW00000818,L,TKCYSWMW00000819,XL,TKCYSWMW00000820,2XL,TKCYSWMW00000821,3XL,TKCYSWMW00000822;1699.00;;;<p>100% Polyester</p>;;;;;zerotype;;Spring;;No
2279398;PIL0001572BLUE34-BLUE-2279398;PIL0001572;Draft;Shorts;Pepe Jeans;Adults-Women;Women;Blue;;;Fashion;;2016;26,PEJESHOR00001006,28,PEJESHOR00001007,30,PEJESHOR00001008,32,PEJESHOR00001009,34,PEJESHOR00001010;1599.00;<p>AW16</p>;;<p>COTTON 80% POLYESTER 18% ELASTANE 2%</p>;;;;;zerotype;;Winter;;No
2229793;1975948005-Green Gables-2229793;VMMADISON L/S  SHORT DR, Green Gables, S;Inactive - PMM - Catalog;Dresses;Vero Moda;Adults-Women;Women;Green;;;Fashion;Casual;2017;XS,VEMODRSS00007105,M,VEMODRSS00007106,L,VEMODRSS00007107,XL,VEMODRSS00007108,S,VEMODRSS00007109;4699.00;<a href='/green?src=pd' class='seolink'>Green</a> sequinned woven <a href='/sheath-dress?src=pd' class='seolink'>sheath dress</a>, has a V-neck, long sleeves, straight hem;Maintain a chic appearance all year long with this trendy Vero Moda dress.  The embellished green piece can be matched with patent pumps and a pretty purse when you have a semi-formal event to attend.;Polyester<br> Hand-wash;Fitted<br> The model (height 5'8") is wearing a size S;;Vero Moda Women Green Sequinned Sheath Dress;Vero Moda,welcome-to-myntra-oct17,party-store-2017-bling-sheen,party-store-2017-category-dresses-tops,JIT,coupon-offer-oct2017,eorsdec17-ftod,coupon-eorsdec17,combo-deals-dec27,blockbuster-cocktail-558605,scantastic-jan12,express-delivery-jan18,coupon-offer-rtf18,bestseller-jan30,founding18-ltod,trending-bangalore,trending-delhi,trending-kolkatta,trending-pune;zerotype;;Winter;trending-pune;No
2189448;8902789780475-Jet Black-2189448;MARTHA TUNIC, XS;Inactive - PMM - Catalog;Tunics;Wills Lifestyle;Adults-Women;Women;Black;;;Fashion;Party;2017;L,WILITOPS00004436,M,WILITOPS00004437,S,WILITOPS00004438,XL,WILITOPS00004439,XS,WILITOPS00004440;2499.00;<a href='/black?src=pd' class='seolink'>Black</a> <a href='/solid?src=pd' class='seolink'>solid</a> tunic with embellished detail, has a round neck, three-quarter extended sleeves, button closure, attached lining;For year-round comfort and style, go with this tunic from Wills Lifestyle. Grab a casual bite to eat outside in this piece with worn jeans and comfortable shoes.;Polyester <br> Dry-clean;The model (height 5'8'') is wearing a size S;;Wills Lifestyle Black Solid Tunic;Wills Lifestyle,bfg17-non-disc,welcome-to-myntra-oct17,express-delivery-jan18;zerotype;;Summer;image mismatch;No
2094880;S7S25601 076-HOT PINK-2094880;Capris;Inactive - PMM - Catalog;Capris;MADAME M SECRET;Adults-Women;Women;Pink;;;Fashion;Casual;2017;M,MDSCCPRI00000021,L,MDSCCPRI00000022,XL,MDSCCPRI00000023,2XL,MDSCCPRI00000024;699.00;A pair of pink knitted printed mid-rise sleep capris, has an elasticated waistband with a drawstring fastening and two insert pockets;Crafted from soft and breathable fabric, this pair of sleep capris is an ideal pick for you. Team it with a pair of flip-flops and relax in style when at home.;51% cotton, 46% polyester and 3% spandex<br />Machine-wash;Mid-rise<br />The model (height 5'8") is wearing a size M;;MADAME M SECRET Pink Printed Sleep Capris S7S25601 076;MADAME M SECRET,coh-exp-aug,coupon-offer-diwali17,ds17-buy2-1999,buy2-ds17,buy2-oct15,express-delivery-17,try-and-buy-17,welcome-to-myntra-oct17,newarrivals-women-nov2017,bfg17-extra20,new-brands-wi,coupon-eorsdec17,Women-Inside-Story,express-delivery-jan18;zerotype;;Summer;Image mismatch;No
2094877;S7S25601 031-PINK-2094877;Capris;Inactive - PMM - Catalog;Capris;MADAME M SECRET;Adults-Women;Women;Magenta;;;Fashion;Casual;2017;M,MDSCCPRI00000009,L,MDSCCPRI00000010,XL,MDSCCPRI00000011,2XL,MDSCCPRI00000012;699.00;A pair of magenta knitted printed mid-rise sleep capris, has an elasticated waistband with a drawstring fastening and two insert pockets;Crafted from soft and breathable fabric, this pair of sleep capris is an ideal pick for you. Team it with a pair of flip-flops and relax in style when at home.;51% cotton, 46% polyester and 3% spandex<br />Machine-wash;Mid-rise<br />The model (height 5'8") is wearing a size M;;MADAME M SECRET Magenta Printed Sleep Capris S7S25601 031;MADAME M SECRET,coh-exp-aug,coupon-offer-diwali17,ds17-buy2-1999,buy2-ds17,buy2-oct15,express-delivery-17,try-and-buy-17,welcome-to-myntra-oct17,newarrivals-women-nov2017,bfg17-non-disc,bfg17-extra20,new-brands-wi,coupon-eorsdec17,combo-buy3-jan1,buy2-1999-jan4,Women-Inside-Story,buy3-jan15,coupon-offer-dec2017,buy3-jan20,express-delivery-jan18,RTF,RTF-IW;zerotype;;Summer;image mismatch;No
2073741;PWTZ00579-O5-Brown-2073741;TWO BOTTON TROUSER;On Hold - Sample;Trousers;Park Avenue;Adults-Women;Women;Brown;;;Fashion;;2016;71,PKAVTRSR00005636,76,PKAVTRSR00005637,81,PKAVTRSR00005638,86,PKAVTRSR00005639;2199.00;;;<p>Wash dark color Separately</p>;;;;;zerotype;;Winter;Broken size;No
2073739;PWTZ00579-B5-Blue-2073739;TWO BOTTON TROUSER;On Hold - Sample;Trousers;Park Avenue;Adults-Women;Women;Blue;;;Fashion;;2016;71,PKAVTRSR00005628,76,PKAVTRSR00005629,81,PKAVTRSR00005630,86,PKAVTRSR00005631;2199.00;;;<p>Wash dark color Separately</p>;;;;;zerotype;;Winter;Broken size;No
2052713;PWTF00550-F2-Beige-2052713;AUTO FIT COTTON TROUSER;On Hold - Sample;Trousers;Park Avenue Woman;Adults-Women;Women;Beige;;;Fashion;Formal;2016;66,PKAVTRSR00005360,71,PKAVTRSR00005361,76,PKAVTRSR00005362,81,PKAVTRSR00005363,86,PKAVTRSR00005364,91,PKAVTRSR00005365;1699.00;Beige solid mid-rise formal trousers, has a zip closure, 4 pockets;These breathable Park Avenue Woman trousers will keep you comfortable all day long.  Match this solid beige pair with a classic leather jacket and some ballerinas when you're going to a concert or comedy show.;Cotton and polyester <br /> Machine-wash;Tapered Fit <br /> The model (height 5'8") is wearing a size 28;;Park Avenue Woman Women Beige Tapered Fit Solid Formal Trousers;Park Avenue;zerotype;;Winter;Broken size;No
2052711;PWTF00544-F7-Beige-2052711;AUTO FIT WAISTBAND TROUSER;On Hold - Sample;Trousers;Park Avenue Woman;Adults-Women;Women;Olive;;;Fashion;Formal;2016;71,PKAVTRSR00005350,76,PKAVTRSR00005351,81,PKAVTRSR00005352,86,PKAVTRSR00005353,91,PKAVTRSR00005354;1999.00;Olive Green checked mid-rise formal trousers, has a zip closure, 4 pockets;These breathable Park Avenue Woman trousers will keep you comfortable all day long.  When you have plans to go bowling with your friends, wear this checked olive pair with sneakers and a comfortable tee.;Polyester and viscose rayon <br /> Machine-wash;Regular Fit <br /> The model (height 5'8") is wearing a size 28;;Park Avenue Woman Women Olive Green Regular Fit Checked Formal Trousers;Park Avenue Woman;zerotype;;Winter;Broken size;No
2037090;BQ2504-CONAVY-2037090;F CLASSIC TEE;Active;Tshirts;Reebok Classic;Adults-Women;Women;Navy Blue;;;Fashion;Sports;2017;XL,RBCLTSHT00000878,L,RBCLTSHT00000879,S,RBCLTSHT00000880,M,RBCLTSHT00000881,XS,RBCLTSHT00000882;1299.00;Navy printed T-shirt, has a round neck, <a href='/short?src=pd' class='seolink'>short</a> sleeves<br />Warranty: <a href='/3?src=pd' class='seolink'>3</a> months against manufacturing defects;This easy-going tee from Reebok Classic is a great addition to any woman's closet.  When you're having the ladies over for drinks and appetizers, style this navy blue piece with your favourite pair of dark wash jeans.;Cotton <br /> Machine-wash;The model (height 5'8") is wearing a size S;;Reebok Classic Women Navy Printed Round Neck T-shirt;Reebok Classic,all-sports-styles-2017,fw-17-sports-new,CYNT037,welcome-to-myntra-sep2017,aw17-new-season,all-sports-sept,sportsallstyles-2017,FW17-SPORTS-NEW,ftod-sep30,express-delivery-17,try-and-buy-17,reebok-classic,bfg17-non-disc,aw-2017,styles-aw-17,eorsdec17-ftod,coupon-eorsdec17,combo-buy3-jan1,welcome-to-myntra-oct17,jerseys-2017,sneaker-apparel,express-delivery-jan18,coupon-offer-rtf18,buy3-jan25,uber-offer-feb18;zerotype;;Fall;uber-offer-feb18;No
2026086;17617-TEAL-2026086;Shree Women Teal Rayon Floral Printed Kurta;Active;Kurtas;Shree;Adults-Women;Women;Sea Green;;;Fashion;Ethnic;2017;S,ShriKRTA00019778,M,ShriKRTA00019779,L,ShriKRTA00019780,XL,ShriKRTA00019781,XXL,ShriKRTA00019782;999.00;<a href='/sea-green?src=pd' class='seolink'>Sea green</a> printed straight <a href='/kurta?src=pd' class='seolink'>kurta</a>, has a notched round neck, three-quarter sleeves, a pocket, straight hem, side slits;Look and feel beautiful in this uniquely designed kurta from Shree. Look chic for the day with this kurta and leggings.;Viscose rayon <br />Hand-wash;The model (height 5'8") is wearing a size S;;Shree Women Sea Green Printed Straight Kurta;Shree,welcome-to-myntra-aug-v2,fw17-kurtas-rtw,welcome-to-myntra-sep2017,aw17-new-season,JIT,Kurta-and-suits-store-pastels,bbd17-extra20,welcome-to-myntra-oct17,buy2-buy3-deals-sept2017,ethnic-deal-oct,ftod-sep30,coupon-offer-diwali17,ds17-buy2-1999,coh-exp-aug,combo-ds17,combo-oct15,express-delivery-17,try-and-buy-17,get-back-200,bfg17-extra20,rtw-kurtas-fw17,coupon-eorsdec17,express-delivery-jan18,trending-bangalore,trending-delhi,trending-kolkatta,trending-pune,trending-mumbai;zerotype;;Winter;trending-mumbai;No
1941218;SKD4769-BLACK-1941218;SKD4769;Active;Kurta Sets;Biba;Adults-Women;Women;Black;Charcoal;;Fashion;Ethnic;2017;32,BIBAKASS00002086,34,BIBAKASS00002087,36,BIBAKASS00002088,38,BIBAKASS00002089,42,BIBAKASS00002090;5995.00;Black and charcoal grey embroidered kurta with palazzos<br />Black embroidered straight knee length kurta, has a V-neck, three-quarter sleeves, straight hem, side slits<br />Charcoal grey solid palazzos partially elasticated with drawstring closure<br />Black and charcoal grey printed dupatta;Showcase your unique style in this lively decorated black kurta set from Biba.  Pair this kurta set with leggings and flats by day, switching to pumps and gold accessories at night.;Kurta fabric: pure cotton<br />Bottom fabric: pure cotton<br />Dupatta fabric: pure cotton<br />Dry-clean;The model (height 5'8") is wearing a size S;;Biba Women Black Embroidered Kurta with Palazzos & Dupatta;Biba,KRIS081,express-delivery-17,bfg17-non-disc,workwear-v2-women-kurtasets-viewall,workwear-v2-women-ethnicwear-viewall,workwear-store-v2-kurtas-sets-view-all,Kurtaset-Topbrands,express-delivery-jan18,trending-bangalore,trending-delhi,trending-kolkatta,trending-pune,trending-mumbai;zerotype;;Summer;trending-mumbai;No
1919106;PWEX00573-E6-Orange-1919106;SCALLOP PATCH SLV DRESS;Delisted;Dresses;Park Avenue Woman;Adults-Women;Women;Yellow;;;Fashion;Casual;2017;76,PAWNDRSS00000096,81,PAWNDRSS00000097,86,PAWNDRSS00000098,91,PAWNDRSS00000099,96,PAWNDRSS00000100;2999.00;Yellow solid woven sheath dress, has a stylised round neck, long sleeves with mesh detailing, concealed zip closure, straight hem;Show off your great sense of fashion when you opt for this Park Avenue Woman dress.  Show up to your work event in style by pairing this solid yellow piece with caged heels and a cute blazer.;100% polyester<br />Machine-wash;The model (height 5'8") is wearing a size S;;Park Avenue Woman Yellow Solid Sheath Dress;Park Avenue Woman,eorsjun17-uber-offer,wishlist-eors,flat40-extra30-jul1,fashion-for-monsoon-bright-colours,ladies-night-jul18,bss-uber-offer,uber-offer-new-aug,uber-offer-aug-rtf,extra500-16aug,uber-offer-16aug,buy2-1999-23aug,coh-exp-aug,welcome-to-myntra-aug-v2,extra20-sports,extra20-aug31,welcome-to-myntra-sep2017,welcome-to-mynt-v2sep2017,JIT,uber-offer-sept25,bbd17-extra20,welcome-to-myntra-oct17,coupon-offer-sep30,coupon-offer-diwali17,flash-sale-oct17,extra35-oct19,flash-sale-oct21,coupon-offer-oct2017,express-delivery-17,try-and-buy-17,combo-deals-oct28,get-back-200,workwear-v2-dresses-sheath-aline,workwear-v2-dresses-solid,Must-Haves,dresses-casual-inv-pos,bfg17-coupon-offer,bfg17-non-disc,workwear-v2-women-dresses-viewall,workwear-v2-women-westernwear-view-all-554047,coupon-eorsdec17,combo-deals-dec27,extra300-dec28,scantastic-jan12,coupon-offer-dec2017,express-delivery-jan18,coupon-offer-rtf18,flash-sale-29thjan;zerotype;;Summer;Delisting_12Feb18_Amit Srivastava;No
1853945;LW_COZYFT033-White-1853945;Floral Secret Maxi Kaftan;QC Reject;Nightdress;The Kaftan Company;Adults-Women;Women;Off White;Beige;;Fashion;Casual;2017;S,TKCYNIDR00000251;1699.00;Off-white and <a href='/yellow?src=pd' class='seolink'>yellow</a> <a href='/printed-nightdress?src=pd' class='seolink'>printed nightdress</a>, has a <a href='/tie?src=pd' class='seolink'>tie</a>-up neckline, short sleeves, and an asymmetric flared hemline;;100% viscose<br />Hand-wash cold;The model (height 5'8'') is wearing a size S;;The Kaftan Company Off-White & Yellow Printed Nightdress LW_COZYFT033;The Kaftan Company,coupon-offer-dec2017,combo-buy2-dec27,welcome-to-myntra-oct17,express-delivery-jan18,coupon-offer-rtf18,RTF,RTF-IW;zerotype;;Spring;Incorrect styling;No
1201500;EP1076A-Green-1201500;EP1076A;Active;Tops;RARE;Adults-Women;Women;Green;;;Fashion;Casual;2016;S,RARETOPS00000388,M,RARETOPS00000389,L,RARETOPS00000390,XL,RARETOPS00000391;1299.00;Green solid woven top, has a high neck, short sleeves, concealed zip closure;Make a fashion statement with help from this stunning RARE shirt. For a chic poolside outfit, match this piece with tonal shorts and a pair of cute sandals.;Polyester <br> Machine-wash;The model (height 5'8") is wearing a size S;;RARE Women Green Solid Top;RARE,JIT,ASHA013,ss16launch-women-allnewtopsandtees,new-season-on-discount-18mar,first-login-offer,new-arrivals-offer-10apr,make-heads-turn-at-work,new-styles-offer-14apr,new-arrival-offer-apr16,new-season-18apr,new-styles-offer-22apr,new-styles-offer-24par,new-styles-offer-26apr,new-styles-offer-28apr,topsandtees-top1000styles,grand-premium-30-to-50-off,rs-500-off-22may,new-arrivals-offer-22may,fff-casualwear,fff-most-wanted,rs-500-off-28may,500rs-1jun,rs-500-off-5jun,rs-500-off-june-pn,500-rs-off-10aug,rs500-off-17aug,rs-500-24aug,off-1000-500-8sep,500-13sep,women-ethnic-casual-everyday-classic-tops,women-western-casual-everyday-classic-tops,topsdeal21,topsandteesprebbdsale,bbd-pre-sale-2016,diwali-women-western-oct,myntra-open-coupon-offer,westernwearfest-topsellers2016,trendnowtopsellers,mfh-topsellers,welcome-to-mynt-jan,eors-coupon-4jan,welcome-to-myntra-jan,welcome-to-myntra-new-jan,HH12JAN17,vday-coupon-offer,welcome-to-myntra-feb-new,bday-offer,wishlisters-wish10,wishlisters-wish10-feb25,MFH-women-top1000,MFH-chart-topstees,MFH-most-wishlisted,holi30-extra30,superhour-feb26,super-hour-ccmay,crush24-ccmay,super-hour-may9,welcome-to-myntra-may-big,may21-hh,ladies-night-coupon1,ladies-night-coupon2,price-surge-may25,may27-price-surge,gratification-jun2,hh-jun2,coupon-crush-jun6,jun8-offer999,min30-jun12,top-seller-jun-eors,wonder-hour-jun25,welcome-to-myntra-july,duty-offer-new,signup-july-2017,ladies-night-jul18,bss-uber-offer,womenpage-hotsellers-533621,uber-offer-aug-rtf,buy3-rs2499-rtf,welcome-to-myntra-sep2017,welcome-to-mynt-v2sep2017,coh-exp-aug,coupon-offer-sep30,combo-deals,combo-tops-sep30,coupon-offer-diwali17,ds17-buy2-1999,combo-ds17,ndd17-ggn,buy2-oct15,coupon-offer-oct2017,buy3-oct25,try-and-buy-17,welcome-to-myntra-oct17,combo-deals-oct28,deal-oct-buy3,nov-buy3-2499,buy3-nov9,buy3-nov13,Wardrobe-must-haves,Must-Haves,Must-haves-www,buy3-nov17,bfg17-coupon-offer,bfg17-non-disc,bfg17-extra20,Combo-buy3-Nov30,buy3-2499-dec14,express-delivery-jan18,trending-bangalore,trending-delhi,trending-kolkatta,trending-pune,trending-mumbai;Tops;RARE;Summer;trending-mumbai;No
834964;1715945006-Tropical Peach-834964;WP - VMPIQUE LS TOP;Inactive - PMM - Catalog;Tops;Vero Moda;Adults-Women;Women;;;;Fashion;;2015;L,VEMOTOPS00005981,M,VEMOTOPS00005982,S,VEMOTOPS00005983,XL,VEMOTOPS00005984,XS,VEMOTOPS00005985,XXL,VEMOTOPS00005986,XXS,VEMOTOPS00005987;2895.00;;;;;;;ndd-gurgaon,myntra-store-01,ndd17-ggn,bestseller-jan30;zerotype;;Summer;No comment entered;No
