Style ID;Vendor Article Number;Vendor Article Name;Active Status;Article type;Brand;Age Group;Gender;Base Colour;Colour1;Colour2;Fashion Type;Usage;Year;Size - SKU code pair;MRP;Style Description;Style Note;Materials and Care Description;Size and Fit Description;Size Chart Path;Product Display Name;Tags;Product Type;Classification Brand;Season;Comments;Upload Images
2412456;AKBTS317174-White-2412456;Tshirts;Draft;Tshirts;Allen Solly Junior;Kids-Boys;Boys;White;;;Fashion;Casual;2017;6-7Y,ALSJTSHT00001939,15-16Y,ALSJTSHT00001940,5-6Y,ALSJTSHT00001941,13-14Y,ALSJTSHT00001942,11-12Y,ALSJTSHT00001943,9-10Y,ALSJTSHT00001944,3-4Y,ALSJTSHT00001945,2-3Y,ALSJTSHT00001946,7-8Y,ALSJTSHT00001947;499.00;;;<p>100% Cotton</p>;;;na;;zerotype;;Summer;;No
2412455;AKBTS317201-Blue-2412455;Tshirts;Draft;Tshirts;Allen Solly Junior;Kids-Boys;Boys;Blue;;;Fashion;Casual;2017;6-7Y,ALSJTSHT00001930,5-6Y,ALSJTSHT00001931,3-4Y,ALSJTSHT00001932,2-3Y,ALSJTSHT00001933,15-16Y,ALSJTSHT00001934,13-14Y,ALSJTSHT00001935,11-12Y,ALSJTSHT00001936,9-10Y,ALSJTSHT00001937,7-8Y,ALSJTSHT00001938;999.00;;;<p>100% Cotton</p>;;;na;;zerotype;;Summer;;No
2412454;AKBTS317226-White-2412454;Tshirts;Draft;Tshirts;Allen Solly Junior;Kids-Boys;Boys;White;;;Fashion;Casual;2017;7-8Y,ALSJTSHT00001921,6-7Y,ALSJTSHT00001922,5-6Y,ALSJTSHT00001923,15-16Y,ALSJTSHT00001924,13-14Y,ALSJTSHT00001925,11-12Y,ALSJTSHT00001926,3-4Y,ALSJTSHT00001927,2-3Y,ALSJTSHT00001928,9-10Y,ALSJTSHT00001929;1099.00;;;<p>100% Cotton</p>;;;na;;zerotype;;Summer;;No
2412453;AKBTS317131-Blue White-2412453;Tshirts;Draft;Tshirts;Allen Solly Junior;Kids-Boys;Boys;Blue;White;;Fashion;Casual;2017;15-16Y,ALSJTSHT00001912,13-14Y,ALSJTSHT00001913,7-8Y,ALSJTSHT00001914,6-7Y,ALSJTSHT00001915,5-6Y,ALSJTSHT00001916,3-4Y,ALSJTSHT00001917,2-3Y,ALSJTSHT00001918,11-12Y,ALSJTSHT00001919,9-10Y,ALSJTSHT00001920;1199.00;;;<p>100% Cotton</p>;;;na;;zerotype;;Summer;;No
2412452;AKBBD5171252-Maroon-2412452;Shorts;Draft;Shorts;Allen Solly Junior;Kids-Boys;Boys;Maroon;;;Fashion;;2017;5-6Y,ALSJSHOR00001094,3-4Y,ALSJSHOR00001095,7-8Y,ALSJSHOR00001096,2-3Y,ALSJSHOR00001097,11-12Y,ALSJSHOR00001098,6-7Y,ALSJSHOR00001099,13-14Y,ALSJSHOR00001100,15-16Y,ALSJSHOR00001101,9-10Y,ALSJSHOR00001102;1049.00;;<p>Comes With Suspenders</p>;<p>98% Cotton and 2% Elastane</p>;;;na;;zerotype;;Winter;;No
2412451;AKBSF317009-Blue-2412451;Shirts;Draft;Shirts;Allen Solly Junior;Kids-Boys;Boys;Blue;;;Fashion;Casual;2017;13-14Y,ALSJSHRT00001082,11-12Y,ALSJSHRT00001083,9-10Y,ALSJSHRT00001084,7-8Y,ALSJSHRT00001085,6-7Y,ALSJSHRT00001086,5-6Y,ALSJSHRT00001087,15-16Y,ALSJSHRT00001088,3-4Y,ALSJSHRT00001089,2-3Y,ALSJSHRT00001090;1099.00;;;<p>100% Cotton</p>;;;na;;zerotype;;Summer;;No
