Style ID;Vendor Article Number;Vendor Article Name;Active Status;Article type;Brand;Age Group;Gender;Base Colour;Colour1;Colour2;Fashion Type;Usage;Year;Size - SKU code pair;MRP;Style Description;Style Note;Materials and Care Description;Size and Fit Description;Size Chart Path;Product Display Name;Tags;Product Type;Classification Brand;Season;Comments;Upload Images
1868578;LQSH6281_CORAL-Coral-1868578;SLUB CORAL KNT SHRG W/ BUTN;Draft;Shrug;Latin Quarters;Adults-Women;Women;Coral;;;Fashion;Casual;2017;XS,LTQRSHRG00000234,S,LTQRSHRG00000235,M,LTQRSHRG00000236,L,LTQRSHRG00000237,XL,LTQRSHRG00000238,XXL,LTQRSHRG00000239;1490.00;;;;;;;;zerotype;;Spring;;No
1868577;LQB6286_Black-Black-1868577;SLUB PRNT BLS W/ GGT & ZIP;Draft;Tops;Latin Quarters;Adults-Women;Women;Black;;;Fashion;Casual;2017;XS,LTQRTOPS00003196,S,LTQRTOPS00003197,M,LTQRTOPS00003198,L,LTQRTOPS00003199,XL,LTQRTOPS00003200,XXL,LTQRTOPS00003201;1390.00;;;;;;;;zerotype;;Spring;;No
1868576;LQB6282_Black-Black-1868576;BLCK CHFON BLS W/ POM LACE;Draft;Tops;Latin Quarters;Adults-Women;Women;Black;;;Fashion;Casual;2017;XS,LTQRTOPS00003190,S,LTQRTOPS00003191,M,LTQRTOPS00003192,L,LTQRTOPS00003193,XL,LTQRTOPS00003194,XXL,LTQRTOPS00003195;990.00;;;;;;;;zerotype;;Spring;;No
1868575;LQB6275_Green-Green-1868575;GREEN RAYON BLS TITCH BTN;Draft;Tops;Latin Quarters;Adults-Women;Women;Green;;;Fashion;Casual;2017;XS,LTQRTOPS00003184,S,LTQRTOPS00003185,M,LTQRTOPS00003186,L,LTQRTOPS00003187,XL,LTQRTOPS00003188,XXL,LTQRTOPS00003189;1100.00;;;;;;;;zerotype;;Spring;;No
1868574;LQB6259_Yellow-Yellow-1868574;PRNT YELOW BLS W/ WIDE SLV;Draft;Tops;Latin Quarters;Adults-Women;Women;Yellow;;;Fashion;Casual;2017;XS,LTQRTOPS00003178,S,LTQRTOPS00003179,M,LTQRTOPS00003180,L,LTQRTOPS00003181,XL,LTQRTOPS00003182,XXL,LTQRTOPS00003183;1590.00;;;;;;;;zerotype;;Spring;;No
1868573;LQB6257_Pink Hot-Pink-1868573;PINK CHIFON BLS W/ OPEN SLV;Draft;Tops;Latin Quarters;Adults-Women;Women;Pink;;;Fashion;Casual;2017;XS,LTQRTOPS00003172,S,LTQRTOPS00003173,M,LTQRTOPS00003174,L,LTQRTOPS00003175,XL,LTQRTOPS00003176,XXL,LTQRTOPS00003177;1490.00;;;;;;;;zerotype;;Spring;;No
1868572;LQB6212_Blue Navy-Navy Blue-1868572;BLU PEACH GGT BLS W/ PLEAT;Draft;Tops;Latin Quarters;Adults-Women;Women;Navy Blue;;;Fashion;Casual;2017;XS,LTQRTOPS00003165,S,LTQRTOPS00003166,M,LTQRTOPS00003167,L,LTQRTOPS00003168,XL,LTQRTOPS00003169,XXL,LTQRTOPS00003170;1290.00;;;;;;;;zerotype;;Spring;;No
1868571;LQB6106_Yellow-Yellow-1868571;SKIN PRNT BLS W/ 1 BTN;Draft;Tops;Latin Quarters;Adults-Women;Women;Yellow;;;Fashion;Casual;2017;XS,LTQRTOPS00003159,S,LTQRTOPS00003160,M,LTQRTOPS00003161,L,LTQRTOPS00003162,XL,LTQRTOPS00003163,XXL,LTQRTOPS00003164;1150.00;;;;;;;;zerotype;;Spring;;No
1868570;LQB6098_Black-Black-1868570;BLK GGT BLS W/ LACE INSERT;Draft;Tops;Latin Quarters;Adults-Women;Women;Black;;;Fashion;Casual;2017;XS,LTQRTOPS00003153,S,LTQRTOPS00003154,M,LTQRTOPS00003155,L,LTQRTOPS00003156,XL,LTQRTOPS00003157,XXL,LTQRTOPS00003158;1350.00;;;;;;;;zerotype;;Spring;;No
1868569;LQB6088_Black-Black-1868569;BLK GGT BLS W/ EMB AT NECK;Draft;Tops;Latin Quarters;Adults-Women;Women;Black;;;Fashion;Casual;2017;XS,LTQRTOPS00003147,S,LTQRTOPS00003148,M,LTQRTOPS00003149,L,LTQRTOPS00003150,XL,LTQRTOPS00003151,XXL,LTQRTOPS00003152;1390.00;;;;;;;;zerotype;;Spring;;No
1868568;LQD6544_Blue Royal-Blue-1868568;BLU SLUB DRS W/ SNAP @ HEM;Draft;Dresses;Latin Quarters;Adults-Women;Women;Blue;;;Fashion;Party;2017;XS,LTQRDRSS00002821,S,LTQRDRSS00002822,M,LTQRDRSS00002823,L,LTQRDRSS00002824,XL,LTQRDRSS00002825,XXL,LTQRDRSS00002826;1990.00;;;;;;;;zerotype;;Spring;;No
1868567;LQD6507_Green-Green-1868567;GREN SLUB PRNT DRS W/ D-RING;Draft;Dresses;Latin Quarters;Adults-Women;Women;Green;;;Fashion;Party;2017;XS,LTQRDRSS00002815,S,LTQRDRSS00002816,M,LTQRDRSS00002817,L,LTQRDRSS00002818,XL,LTQRDRSS00002819,XXL,LTQRDRSS00002820;1990.00;;;;;;;;zerotype;;Spring;;No
1868566;LQD6369_Black-Black-1868566;LACE GODED DRESS W/ SLV;Draft;Dresses;Latin Quarters;Adults-Women;Women;Black;;;Fashion;Party;2017;XS,LTQRDRSS00002809,S,LTQRDRSS00002810,M,LTQRDRSS00002811,L,LTQRDRSS00002812,XL,LTQRDRSS00002813,XXL,LTQRDRSS00002814;2490.00;;;;;;;;zerotype;;Spring;;No
1868565;LQD6365_Blue-Blue-1868565;BLCK BRDR PRNT SHIRT DRESS;Draft;Dresses;Latin Quarters;Adults-Women;Women;Blue;;;Fashion;Party;2017;XS,LTQRDRSS00002803,S,LTQRDRSS00002804,M,LTQRDRSS00002805,L,LTQRDRSS00002806,XL,LTQRDRSS00002807,XXL,LTQRDRSS00002808;1950.00;;;;;;;;zerotype;;Spring;;No
1868564;LQD6348_Blue-Blue-1868564;KNIT 2F1 W/ BLACK SEQ @ TOP;Draft;Dresses;Latin Quarters;Adults-Women;Women;Blue;;;Fashion;Party;2017;XS,LTQRDRSS00002797,S,LTQRDRSS00002798,M,LTQRDRSS00002799,L,LTQRDRSS00002800,XL,LTQRDRSS00002801,XXL,LTQRDRSS00002802;2490.00;;;;;;;;zerotype;;Spring;;No
1868563;LQD6324_Red-Red-1868563;CHN ACRYC DRS W/ NEK KEYHOLE;Draft;Dresses;Latin Quarters;Adults-Women;Women;Red;;;Fashion;Party;2017;XS,LTQRDRSS00002791,S,LTQRDRSS00002792,M,LTQRDRSS00002793,L,LTQRDRSS00002794,XL,LTQRDRSS00002795,XXL,LTQRDRSS00002796;2650.00;;;;;;;;zerotype;;Spring;;No
1868562;LQD6289_Blue-Blue-1868562;LT BLU BONDING DRS W/ PLEAT;Draft;Dresses;Latin Quarters;Adults-Women;Women;Blue;;;Fashion;Party;2017;XS,LTQRDRSS00002785,S,LTQRDRSS00002786,M,LTQRDRSS00002787,L,LTQRDRSS00002788,XL,LTQRDRSS00002789,XXL,LTQRDRSS00002790;2390.00;;;;;;;;zerotype;;Spring;;No
1868561;LQD6278_Black-Black-1868561;B/W PRNT MAXI W/ KNIT TOP;Draft;Dresses;Latin Quarters;Adults-Women;Women;Black;;;Fashion;Party;2017;XS,LTQRDRSS00002779,S,LTQRDRSS00002780,M,LTQRDRSS00002781,L,LTQRDRSS00002782,XL,LTQRDRSS00002783,XXL,LTQRDRSS00002784;2290.00;;;;;;;;zerotype;;Spring;;No
1868560;LQD6272_Blue-Blue-1868560;BRD MAXI PLEATED DRESS;Draft;Dresses;Latin Quarters;Adults-Women;Women;Blue;;;Fashion;Party;2017;XS,LTQRDRSS00002773,S,LTQRDRSS00002774,M,LTQRDRSS00002775,L,LTQRDRSS00002776,XL,LTQRDRSS00002777,XXL,LTQRDRSS00002778;2450.00;;;;;;;;zerotype;;Spring;;No
1868559;LQD6270_Red-Red-1868559;LACE DRESS W/ OVERLAP;Draft;Dresses;Latin Quarters;Adults-Women;Women;Red;;;Fashion;Party;2017;XS,LTQRDRSS00002767,S,LTQRDRSS00002768,M,LTQRDRSS00002769,L,LTQRDRSS00002770,XL,LTQRDRSS00002771,XXL,LTQRDRSS00002772;2350.00;;;;;;;;zerotype;;Spring;;No
1868558;LQD6270_Blue-Blue-1868558;LACE DRESS W/ OVERLAP;Draft;Dresses;Latin Quarters;Adults-Women;Women;Blue;;;Fashion;Party;2017;XS,LTQRDRSS00002761,S,LTQRDRSS00002762,M,LTQRDRSS00002763,L,LTQRDRSS00002764,XL,LTQRDRSS00002765,XXL,LTQRDRSS00002766;2350.00;;;;;;;;zerotype;;Spring;;No
1868557;LQD6269_Black-Black-1868557;BLK BONDING LACE W/ GGT TRIM;Draft;Dresses;Latin Quarters;Adults-Women;Women;Black;;;Fashion;Party;2017;XS,LTQRDRSS00002755,S,LTQRDRSS00002756,M,LTQRDRSS00002757,L,LTQRDRSS00002758,XL,LTQRDRSS00002759,XXL,LTQRDRSS00002760;1990.00;;;;;;;;zerotype;;Spring;;No
1868556;LQD6268_Peach-Peach-1868556;PECH OF SHLDR DRES W/ ELASTC;Draft;Dresses;Latin Quarters;Adults-Women;Women;Peach;;;Fashion;Party;2017;XS,LTQRDRSS00002749,S,LTQRDRSS00002750,M,LTQRDRSS00002751,L,LTQRDRSS00002752,XL,LTQRDRSS00002753,XXL,LTQRDRSS00002754;1990.00;;;;;;;;zerotype;;Spring;;No
1868555;LQD6263_Blue Royal-Blue-1868555;BLU LACE DRS ASYMETRIC HEM;Draft;Dresses;Latin Quarters;Adults-Women;Women;Blue;;;Fashion;Party;2017;XS,LTQRDRSS00002743,S,LTQRDRSS00002744,M,LTQRDRSS00002745,L,LTQRDRSS00002746,XL,LTQRDRSS00002747,XXL,LTQRDRSS00002748;2490.00;;;;;;;;zerotype;;Spring;;No
1868554;LQD6262_Blue Royal-Blue-1868554;BLUE LACE CUT SHLD DRESS;Draft;Dresses;Latin Quarters;Adults-Women;Women;Blue;;;Fashion;Party;2017;XS,LTQRDRSS00002737,S,LTQRDRSS00002738,M,LTQRDRSS00002739,L,LTQRDRSS00002740,XL,LTQRDRSS00002741,XXL,LTQRDRSS00002742;2190.00;;;;;;;;zerotype;;Spring;;No
1868553;LQD6249_Black-Black-1868553;BLCK BRDR PRNT SHIRT DRESS;Draft;Dresses;Latin Quarters;Adults-Women;Women;Black;;;Fashion;Party;2017;XS,LTQRDRSS00002731,S,LTQRDRSS00002732,M,LTQRDRSS00002733,L,LTQRDRSS00002734,XL,LTQRDRSS00002735,XXL,LTQRDRSS00002736;1950.00;;;;;;;;zerotype;;Spring;;No
1868552;LQD6248_Black-Black-1868552;DOT PRNT LONG CIRLCE DRESS;Draft;Dresses;Latin Quarters;Adults-Women;Women;Black;;;Fashion;Party;2017;XS,LTQRDRSS00002725,S,LTQRDRSS00002726,M,LTQRDRSS00002727,L,LTQRDRSS00002728,XL,LTQRDRSS00002729,XXL,LTQRDRSS00002730;2490.00;;;;;;;;zerotype;;Spring;;No
1868551;LQD6244_Blue-Blue-1868551;GGT OVERLAP DRES W/ SEQ;Draft;Dresses;Latin Quarters;Adults-Women;Women;Blue;;;Fashion;Party;2017;XS,LTQRDRSS00002719,S,LTQRDRSS00002720,M,LTQRDRSS00002721,L,LTQRDRSS00002722,XL,LTQRDRSS00002723,XXL,LTQRDRSS00002724;2150.00;;;;;;;;zerotype;;Spring;;No
1868550;LQD6226_Yellow-Yellow-1868550;CHN GREN LNG DRS W/ PIIPNG;Draft;Dresses;Latin Quarters;Adults-Women;Women;Yellow;;;Fashion;Party;2017;XS,LTQRDRSS00002713,S,LTQRDRSS00002714,M,LTQRDRSS00002715,L,LTQRDRSS00002716,XL,LTQRDRSS00002717,XXL,LTQRDRSS00002718;2350.00;;;;;;;;zerotype;;Spring;;No
1868549;LQD6219_Black-Black-1868549;BLK LACE DRES W/ NET;Draft;Dresses;Latin Quarters;Adults-Women;Women;Black;;;Fashion;Party;2017;XS,LTQRDRSS00002707,S,LTQRDRSS00002708,M,LTQRDRSS00002709,L,LTQRDRSS00002710,XL,LTQRDRSS00002711,XXL,LTQRDRSS00002712;1990.00;;;;;;;;zerotype;;Spring;;No
1868548;LQD6121_Blue-Blue-1868548;ANIML PRNT BLUE DRES;Draft;Dresses;Latin Quarters;Adults-Women;Women;Blue;;;Fashion;Party;2017;XS,LTQRDRSS00002701,S,LTQRDRSS00002702,M,LTQRDRSS00002703,L,LTQRDRSS00002704,XL,LTQRDRSS00002705,XXL,LTQRDRSS00002706;2190.00;;;;;;;;zerotype;;Spring;;No
1868547;LQCR6345_RED-Red-1868547;POLO NECK Tshirt;Draft;Tshirts;Latin Quarters;Adults-Women;Women;Red;;;Fashion;Casual;2017;XS,LTQRTSHT00000062,S,LTQRTSHT00000063,M,LTQRTSHT00000064,L,LTQRTSHT00000065,XL,LTQRTSHT00000066,XXL,LTQRTSHT00000067;990.00;;;;;;;;zerotype;;Spring;;No
1868546;LQCR6345_BLACK-Black-1868546;POLO NECK Tshirt;Draft;Tshirts;Latin Quarters;Adults-Women;Women;Black;;;Fashion;Casual;2017;XS,LTQRTSHT00000056,S,LTQRTSHT00000057,M,LTQRTSHT00000058,L,LTQRTSHT00000059,XL,LTQRTSHT00000060,XXL,LTQRTSHT00000061;990.00;;;;;;;;zerotype;;Spring;;No
1868545;LQTS6358_GREY-Grey-1868545;KNT STIP TP W/ LACE @ SLV;Draft;Tshirts;Latin Quarters;Adults-Women;Women;Grey;;;Fashion;Casual;2017;XS,LTQRTSHT00000050,S,LTQRTSHT00000051,M,LTQRTSHT00000052,L,LTQRTSHT00000053,XL,LTQRTSHT00000054,XXL,LTQRTSHT00000055;1390.00;;;;;;;;zerotype;;Spring;;No
1868544;LQTS6353_TOMATO-Red-1868544;CORL KNIT JAQRD OFF SHLDR;Draft;Tshirts;Latin Quarters;Adults-Women;Women;Red;;;Fashion;Casual;2017;XS,LTQRTSHT00000044,S,LTQRTSHT00000045,M,LTQRTSHT00000046,L,LTQRTSHT00000047,XL,LTQRTSHT00000048,XXL,LTQRTSHT00000049;1350.00;;;;;;;;zerotype;;Spring;;No
1868543;LQTS6347_BLACK-Black-1868543;BLK KNIT TP W/ BLK SEQ @ TOP;Draft;Tshirts;Latin Quarters;Adults-Women;Women;Black;;;Fashion;Casual;2017;XS,LTQRTSHT00000037,S,LTQRTSHT00000038,M,LTQRTSHT00000039,L,LTQRTSHT00000040,XL,LTQRTSHT00000041,XXL,LTQRTSHT00000042;1590.00;;;;;;;;zerotype;;Spring;;No
1868542;LQTS6332_BLACK-Black-1868542;B/W CHN PRNT W/ BCK KNIT;Draft;Tshirts;Latin Quarters;Adults-Women;Women;Black;;;Fashion;Casual;2017;XS,LTQRTSHT00000031,S,LTQRTSHT00000032,M,LTQRTSHT00000033,L,LTQRTSHT00000034,XL,LTQRTSHT00000035,XXL,LTQRTSHT00000036;1300.00;;;;;;;;zerotype;;Spring;;No
1868541;LQTS6329_BLACK-Black-1868541;TEX KNIT CROP TOP W/ TASSEL;Draft;Tshirts;Latin Quarters;Adults-Women;Women;Black;;;Fashion;Casual;2017;XS,LTQRTSHT00000025,S,LTQRTSHT00000026,M,LTQRTSHT00000027,L,LTQRTSHT00000028,XL,LTQRTSHT00000029,XXL,LTQRTSHT00000030;1350.00;;;;;;;;zerotype;;Spring;;No
1868540;LQTS6246_CORAL-Coral-1868540;CHN RIB TP W/ BRT AT NEK;Draft;Tshirts;Latin Quarters;Adults-Women;Women;Coral;;;Fashion;Casual;2017;XS,LTQRTSHT00000019,S,LTQRTSHT00000020,M,LTQRTSHT00000021,L,LTQRTSHT00000022,XL,LTQRTSHT00000023,XXL,LTQRTSHT00000024;990.00;;;;;;;;zerotype;;Spring;;No
1566185;LQB6225_Black-Black-1566185;BLU STRIPE GGT BLS W/ PLEAT;Active;Tops;Latin Quarters;Adults-Women;Women;Black;White;;Fashion;Casual;2017;S,LTQRTOPS00002408,M,LTQRTOPS00002409,L,LTQRTOPS00002410,XL,LTQRTOPS00002411,XXL,LTQRTOPS00002412,XS,LTQRTOPS00003171;1390.00;Black, white and pink striped top floral print detail, has a round neck, a full button-and-loop placket, three-quarter sleeves, a <a href='/tie?src=pd' class='seolink'>tie</a>-up detail along the hem;Get a carefree look with this trendy top from Latin Quarters. Team it with a pair of jeans and casual shoes to complete the look.;Poly georgette<br>Machine-wash;<span>The model (height 5'8" and chest 33") is wearing a size S<br></span>;;Latin Quarters Black & White Striped Georgette Top;Latin Quarters,JIT,first-time-on-discount-diwali-sale,welcome-to-myntra-sept,happyhour-rs-off,ftdwwweors,happy-hour-mar,happy-hour-mar19;zerotype;;Spring;happy-hour-mar19;No
