Style ID;Vendor Article Number;Vendor Article Name;Active Status;Article type;Brand;Age Group;Gender;Base Colour;Colour1;Colour2;Fashion Type;Usage;Year;Size - SKU code pair;MRP;Style Description;Style Note;Materials and Care Description;Size and Fit Description;Size Chart Path;Product Display Name;Tags;Product Type;Classification Brand;Season;Comments;Upload Images
2007246;NLR-256-Yellow-2007246;NLR-256-Yellow-6;Draft;Flats;Nell;Adults-Women;Women;Yellow;;;Fashion;;2017;EURO 36,NELLFlats00009051,EURO 37,NELLFlats00009052,EURO 38,NELLFlats00009053,EURO 39,NELLFlats00009054,EURO 40,NELLFlats00009055,EURO 41,NELLFlats00009056;1685.00;;;<p>wipe with dry cloth</p>;;;;;zerotype;;Fall;;No
2007240;NLR-060-Green-2007240;NLR-060-Green-6;Draft;Flats;Nell;Adults-Women;Women;Green;;;Fashion;;2017;EURO 36,NELLFlats00009045,EURO 37,NELLFlats00009046,EURO 38,NELLFlats00009047,EURO 39,NELLFlats00009048,EURO 40,NELLFlats00009049,EURO 41,NELLFlats00009050;1585.00;;;<p>wipe with dry cloth</p>;;;;;zerotype;;Fall;;No
2007237;NLR-060-Brown-2007237;NLR-060-Brown-6;Draft;Flats;Nell;Adults-Women;Women;Brown;;;Fashion;;2017;EURO 36,NELLFlats00009039,EURO 37,NELLFlats00009040,EURO 38,NELLFlats00009041,EURO 39,NELLFlats00009042,EURO 40,NELLFlats00009043,EURO 41,NELLFlats00009044;1585.00;;;<p>wipe with dry cloth</p>;;;;;zerotype;;Fall;;No
2007235;NLH-225-Blue-2007235;NLH-225-Blue-6;Draft;Casual Shoes;Nell;Adults-Women;Women;Blue;;;Fashion;;2017;EURO 36,NELLCASH00002965,EURO 37,NELLCASH00002966,EURO 38,NELLCASH00002967,EURO 39,NELLCASH00002968,EURO 40,NELLCASH00002969,EURO 41,NELLCASH00002970;1585.00;;;<p>wipe with dry cloth</p>;;;;;zerotype;;Fall;;No
2007234;NLH-221-Green-2007234;NLH-221-Green-6;Draft;Casual Shoes;Nell;Adults-Women;Women;Green;;;Fashion;;2017;EURO 36,NELLCASH00002959,EURO 37,NELLCASH00002960,EURO 38,NELLCASH00002961,EURO 39,NELLCASH00002962,EURO 40,NELLCASH00002963,EURO 41,NELLCASH00002964;1585.00;;;<p>wipe with dry cloth</p>;;;;;zerotype;;Fall;;No
2007233;HP2016-233-Brown-2007233;HP2016-233-Brown-6;Draft;Casual Shoes;Nell;Adults-Women;Women;Brown;;;Fashion;;2017;EURO 36,NELLCASH00002953,EURO 37,NELLCASH00002954,EURO 38,NELLCASH00002955,EURO 39,NELLCASH00002956,EURO 40,NELLCASH00002957,EURO 41,NELLCASH00002958;1585.00;;;<p>wipe with dry cloth</p>;;;;;zerotype;;Fall;;No
2007232;HP2016-232-Blue-2007232;HP2016-232-Blue-6;Draft;Casual Shoes;Nell;Adults-Women;Women;Blue;;;Fashion;;2017;EURO 36,NELLCASH00002947,EURO 37,NELLCASH00002948,EURO 38,NELLCASH00002949,EURO 39,NELLCASH00002950,EURO 40,NELLCASH00002951,EURO 41,NELLCASH00002952;1585.00;;;<p>wipe with dry cloth</p>;;;;;zerotype;;Fall;;No
2007231;NLL-161-Multi-2007231;NLL-161-Multi-6;Draft;Heels;Nell;Adults-Women;Women;Multi;;;Fashion;;2017;EURO 36,NELLHeels00011505,EURO 37,NELLHeels00011506,EURO 38,NELLHeels00011507,EURO 39,NELLHeels00011508,EURO 40,NELLHeels00011509,EURO 41,NELLHeels00011510;1585.00;;;<p>wipe with dry cloth</p>;;;;;zerotype;;Fall;;No
2007230;NLL-158-Multi-2007230;NLL-158-Multi-6;Draft;Heels;Nell;Adults-Women;Women;Multi;;;Fashion;;2017;EURO 36,NELLHeels00011499,EURO 37,NELLHeels00011500,EURO 38,NELLHeels00011501,EURO 39,NELLHeels00011502,EURO 40,NELLHeels00011503,EURO 41,NELLHeels00011504;1585.00;;;<p>wipe with dry cloth</p>;;;;;zerotype;;Fall;;No
2007229;NLB-183-Blue-2007229;NLB-183-Blue-6;Draft;Heels;Nell;Adults-Women;Women;Blue;;;Fashion;;2017;EURO 36,NELLHeels00011493,EURO 37,NELLHeels00011494,EURO 38,NELLHeels00011495,EURO 39,NELLHeels00011496,EURO 40,NELLHeels00011497,EURO 41,NELLHeels00011498;1985.00;;;<p>wipe with dry cloth</p>;;;;;zerotype;;Fall;;No
2007186;NLR-256-Yellow-2007186;NLR-256-Yellow-6;Draft;Flats;Nell;Adults-Women;Women;Yellow;;;Fashion;;2017;EURO 36,NELLFlats00009027,EURO 37,NELLFlats00009028,EURO 38,NELLFlats00009029,EURO 39,NELLFlats00009030,EURO 40,NELLFlats00009031,EURO 41,NELLFlats00009032;1685.00;;;<p>wipe with dry cloth</p>;;;;;zerotype;;Fall;;No
2007185;NLR-060-Green-2007185;NLR-060-Green-6;Draft;Flats;Nell;Adults-Women;Women;Green;;;Fashion;;2017;EURO 36,NELLFlats00009021,EURO 37,NELLFlats00009022,EURO 38,NELLFlats00009023,EURO 39,NELLFlats00009024,EURO 40,NELLFlats00009025,EURO 41,NELLFlats00009026;1585.00;;;<p>wipe with dry cloth</p>;;;;;zerotype;;Fall;;No
2007184;NLR-060-Brown-2007184;NLR-060-Brown-6;Draft;Flats;Nell;Adults-Women;Women;Brown;;;Fashion;;2017;EURO 36,NELLFlats00009015,EURO 37,NELLFlats00009016,EURO 38,NELLFlats00009017,EURO 39,NELLFlats00009018,EURO 40,NELLFlats00009019,EURO 41,NELLFlats00009020;1585.00;;;<p>wipe with dry cloth</p>;;;;;zerotype;;Fall;;No
2007183;NLK-012-Green-2007183;NLK-012-Green-6;Draft;Casual Shoes;Nell;Adults-Women;Women;Green;;;Fashion;;2017;EURO 36,NELLCASH00002941,EURO 37,NELLCASH00002942,EURO 38,NELLCASH00002943,EURO 39,NELLCASH00002944,EURO 40,NELLCASH00002945,EURO 41,NELLCASH00002946;1585.00;;;<p>wipe with dry cloth</p>;;;;;zerotype;;Fall;;No
2007181;NLH-231-Grey-2007181;NLH-231-Grey-6;Draft;Casual Shoes;Nell;Adults-Women;Women;Grey;;;Fashion;;2017;EURO 36,NELLCASH00002935,EURO 37,NELLCASH00002936,EURO 38,NELLCASH00002937,EURO 39,NELLCASH00002938,EURO 40,NELLCASH00002939,EURO 41,NELLCASH00002940;1585.00;;;<p>wipe with dry cloth</p>;;;;;zerotype;;Fall;;No
2007180;NLH-230-White-2007180;NLH-230-White-6;Draft;Casual Shoes;Nell;Adults-Women;Women;White;;;Fashion;;2017;EURO 36,NELLCASH00002929,EURO 37,NELLCASH00002930,EURO 38,NELLCASH00002931,EURO 39,NELLCASH00002932,EURO 40,NELLCASH00002933,EURO 41,NELLCASH00002934;1585.00;;;<p>wipe with dry cloth</p>;;;;;zerotype;;Fall;;No
2007178;NLH-226-Black-2007178;NLH-226-Black-6;Draft;Casual Shoes;Nell;Adults-Women;Women;Black;;;Fashion;;2017;EURO 36,NELLCASH00002923,EURO 37,NELLCASH00002924,EURO 38,NELLCASH00002925,EURO 39,NELLCASH00002926,EURO 40,NELLCASH00002927,EURO 41,NELLCASH00002928;1585.00;;;<p>wipe with dry cloth</p>;;;;;zerotype;;Fall;;No
2007152;NLH-225-Blue-2007152;NLH-225-Blue-6;Draft;Casual Shoes;Nell;Adults-Women;Women;Blue;;;Fashion;;2017;EURO 36,NELLCASH00002917,EURO 37,NELLCASH00002918,EURO 38,NELLCASH00002919,EURO 39,NELLCASH00002920,EURO 40,NELLCASH00002921,EURO 41,NELLCASH00002922;1585.00;;;<p>wipe with dry cloth</p>;;;;;zerotype;;Fall;;No
2007126;NLH-221-Green-2007126;NLH-221-Green-6;Draft;Casual Shoes;Nell;Adults-Women;Women;Green;;;Fashion;;2017;EURO 36,NELLCASH00002911,EURO 37,NELLCASH00002912,EURO 38,NELLCASH00002913,EURO 39,NELLCASH00002914,EURO 40,NELLCASH00002915,EURO 41,NELLCASH00002916;1585.00;;;<p>wipe with dry cloth</p>;;;;;zerotype;;Fall;;No
2007092;HP2016-233-Brown-2007092;HP2016-233-Brown-6;Draft;Casual Shoes;Nell;Adults-Women;Women;Brown;;;Fashion;;2017;EURO 36,NELLCASH00002905,EURO 37,NELLCASH00002906,EURO 38,NELLCASH00002907,EURO 39,NELLCASH00002908,EURO 40,NELLCASH00002909,EURO 41,NELLCASH00002910;1585.00;;;<p>wipe with dry cloth</p>;;;;;zerotype;;Fall;;No
2007071;HP2016-232-Blue-2007071;HP2016-232-Blue-6;Draft;Casual Shoes;Nell;Adults-Women;Women;Blue;;;Fashion;;2017;EURO 36,NELLCASH00002899,EURO 37,NELLCASH00002900,EURO 38,NELLCASH00002901,EURO 39,NELLCASH00002902,EURO 40,NELLCASH00002903,EURO 41,NELLCASH00002904;1585.00;;;<p>wipe with dry cloth</p>;;;;;zerotype;;Fall;;No
2007030;VK2016-45-Pink-2007030;VK2016-45-Pink-6;Draft;Heels;Nell;Adults-Women;Women;Pink;;;Fashion;;2017;EURO 36,NELLHeels00011487,EURO 37,NELLHeels00011488,EURO 38,NELLHeels00011489,EURO 39,NELLHeels00011490,EURO 40,NELLHeels00011491,EURO 41,NELLHeels00011492;1785.00;;;<p>wipe with dry cloth</p>;;;;;zerotype;;Fall;;No
2007023;VK2016-45-Blue-2007023;VK2016-45-Blue-6;Draft;Heels;Nell;Adults-Women;Women;Blue;;;Fashion;;2017;EURO 36,NELLHeels00011481,EURO 37,NELLHeels00011482,EURO 38,NELLHeels00011483,EURO 39,NELLHeels00011484,EURO 40,NELLHeels00011485,EURO 41,NELLHeels00011486;1785.00;;;<p>wipe with dry cloth</p>;;;;;zerotype;;Fall;;No
2007015;NLV-239-Silver-2007015;NLV-239-Silver-6;Draft;Heels;Nell;Adults-Women;Women;Silver;;;Fashion;;2017;EURO 36,NELLHeels00011475,EURO 37,NELLHeels00011476,EURO 38,NELLHeels00011477,EURO 39,NELLHeels00011478,EURO 40,NELLHeels00011479,EURO 41,NELLHeels00011480;1985.00;;;<p>wipe with dry cloth</p>;;;;;zerotype;;Fall;;No
2007007;NLM-264-Beige-2007007;NLM-264-Beige-6;Draft;Heels;Nell;Adults-Women;Women;Beige;;;Fashion;;2017;EURO 36,NELLHeels00011469,EURO 37,NELLHeels00011470,EURO 38,NELLHeels00011471,EURO 39,NELLHeels00011472,EURO 40,NELLHeels00011473,EURO 41,NELLHeels00011474;1985.00;;;<p>wipe with dry cloth</p>;;;;;zerotype;;Fall;;No
2007000;NLL-161-Multi-2007000;NLL-161-Multi-6;Draft;Heels;Nell;Adults-Women;Women;Multi;;;Fashion;;2017;EURO 36,NELLHeels00011463,EURO 37,NELLHeels00011464,EURO 38,NELLHeels00011465,EURO 39,NELLHeels00011466,EURO 40,NELLHeels00011467,EURO 41,NELLHeels00011468;1585.00;;;<p>wipe with dry cloth</p>;;;;;zerotype;;Fall;;No
2006995;NLL-158-Multi-2006995;NLL-158-Multi-6;Draft;Heels;Nell;Adults-Women;Women;Multi;;;Fashion;;2017;EURO 36,NELLHeels00011457,EURO 37,NELLHeels00011458,EURO 38,NELLHeels00011459,EURO 39,NELLHeels00011460,EURO 40,NELLHeels00011461,EURO 41,NELLHeels00011462;1585.00;;;<p>wipe with dry cloth</p>;;;;;zerotype;;Fall;;No
2006990;NLB-263-Multi-2006990;NLB-263-Multi-6;Draft;Heels;Nell;Adults-Women;Women;Multi;;;Fashion;;2017;EURO 36,NELLHeels00011451,EURO 37,NELLHeels00011452,EURO 38,NELLHeels00011453,EURO 39,NELLHeels00011454,EURO 40,NELLHeels00011455,EURO 41,NELLHeels00011456;1985.00;;;<p>wipe with dry cloth</p>;;;;;zerotype;;Fall;;No
2006986;NLB-183-Blue-2006986;NLB-183-Blue-6;Draft;Heels;Nell;Adults-Women;Women;Blue;;;Fashion;;2017;EURO 36,NELLHeels00011445,EURO 37,NELLHeels00011446,EURO 38,NELLHeels00011447,EURO 39,NELLHeels00011448,EURO 40,NELLHeels00011449,EURO 41,NELLHeels00011450;1985.00;;;<p>wipe with dry cloth</p>;;;;;zerotype;;Fall;;No
2006978;NLV-246-Red-2006978;NLV-246-Red-6;Draft;Flats;Nell;Adults-Women;Women;Red;;;Fashion;;2017;EURO 36,NELLFlats00009009,EURO 37,NELLFlats00009010,EURO 38,NELLFlats00009011,EURO 39,NELLFlats00009012,EURO 40,NELLFlats00009013,EURO 41,NELLFlats00009014;1685.00;;;<p>wipe with dry cloth</p>;;;;;zerotype;;Fall;;No
2006974;NLR-256-Yellow-2006974;NLR-256-Yellow-6;Draft;Flats;Nell;Adults-Women;Women;Yellow;;;Fashion;;2017;EURO 36,NELLFlats00009003,EURO 37,NELLFlats00009004,EURO 38,NELLFlats00009005,EURO 39,NELLFlats00009006,EURO 40,NELLFlats00009007,EURO 41,NELLFlats00009008;1685.00;;;<p>wipe with dry cloth</p>;;;;;zerotype;;Fall;;No
2006965;NLR-060-Green-2006965;NLR-060-Green-6;Draft;Flats;Nell;Adults-Women;Women;Green;;;Fashion;;2017;EURO 36,NELLFlats00008997,EURO 37,NELLFlats00008998,EURO 38,NELLFlats00008999,EURO 39,NELLFlats00009000,EURO 40,NELLFlats00009001,EURO 41,NELLFlats00009002;1585.00;;;<p>wipe with dry cloth</p>;;;;;zerotype;;Fall;;No
2006958;NLR-060-Brown-2006958;NLR-060-Brown-6;Draft;Flats;Nell;Adults-Women;Women;Brown;;;Fashion;;2017;EURO 36,NELLFlats00008991,EURO 37,NELLFlats00008992,EURO 38,NELLFlats00008993,EURO 39,NELLFlats00008994,EURO 40,NELLFlats00008995,EURO 41,NELLFlats00008996;1585.00;;;<p>wipe with dry cloth</p>;;;;;zerotype;;Fall;;No
2006951;NLK-012-Green-2006951;NLK-012-Green-6;Draft;Casual Shoes;Nell;Adults-Women;Women;Green;;;Fashion;;2017;EURO 36,NELLCASH00002893,EURO 37,NELLCASH00002894,EURO 38,NELLCASH00002895,EURO 39,NELLCASH00002896,EURO 40,NELLCASH00002897,EURO 41,NELLCASH00002898;1585.00;;;<p>wipe with dry cloth</p>;;;;;zerotype;;Fall;;No
2006939;NLH-231-Grey-2006939;NLH-231-Grey-6;Draft;Casual Shoes;Nell;Adults-Women;Women;Grey;;;Fashion;;2017;EURO 36,NELLCASH00002887,EURO 37,NELLCASH00002888,EURO 38,NELLCASH00002889,EURO 39,NELLCASH00002890,EURO 40,NELLCASH00002891,EURO 41,NELLCASH00002892;1585.00;;;<p>wipe with dry cloth</p>;;;;;zerotype;;Fall;;No
2006936;NLH-230-White-2006936;NLH-230-White-6;Draft;Casual Shoes;Nell;Adults-Women;Women;White;;;Fashion;;2017;EURO 36,NELLCASH00002881,EURO 37,NELLCASH00002882,EURO 38,NELLCASH00002883,EURO 39,NELLCASH00002884,EURO 40,NELLCASH00002885,EURO 41,NELLCASH00002886;1585.00;;;<p>wipe with dry cloth</p>;;;;;zerotype;;Fall;;No
2006935;NLH-226-Black-2006935;NLH-226-Black-6;Draft;Casual Shoes;Nell;Adults-Women;Women;Black;;;Fashion;;2017;EURO 36,NELLCASH00002875,EURO 37,NELLCASH00002876,EURO 38,NELLCASH00002877,EURO 39,NELLCASH00002878,EURO 40,NELLCASH00002879,EURO 41,NELLCASH00002880;1585.00;;;<p>wipe with dry cloth</p>;;;;;zerotype;;Fall;;No
2006934;NLH-225-Blue-2006934;NLH-225-Blue-6;Draft;Casual Shoes;Nell;Adults-Women;Women;Blue;;;Fashion;;2017;EURO 36,NELLCASH00002869,EURO 37,NELLCASH00002870,EURO 38,NELLCASH00002871,EURO 39,NELLCASH00002872,EURO 40,NELLCASH00002873,EURO 41,NELLCASH00002874;1585.00;;;<p>wipe with dry cloth</p>;;;;;zerotype;;Fall;;No
2006933;NLH-221-Green-2006933;NLH-221-Green-6;Draft;Casual Shoes;Nell;Adults-Women;Women;Green;;;Fashion;;2017;EURO 36,NELLCASH00002863,EURO 37,NELLCASH00002864,EURO 38,NELLCASH00002865,EURO 39,NELLCASH00002866,EURO 40,NELLCASH00002867,EURO 41,NELLCASH00002868;1585.00;;;<p>wipe with dry cloth</p>;;;;;zerotype;;Fall;;No
2006932;HP2016-233-Brown-2006932;HP2016-233-Brown-6;Draft;Casual Shoes;Nell;Adults-Women;Women;Brown;;;Fashion;;2017;EURO 36,NELLCASH00002857,EURO 37,NELLCASH00002858,EURO 38,NELLCASH00002859,EURO 39,NELLCASH00002860,EURO 40,NELLCASH00002861,EURO 41,NELLCASH00002862;1585.00;;;<p>wipe with dry cloth</p>;;;;;zerotype;;Fall;;No
2006931;HP2016-232-Blue-2006931;HP2016-232-Blue-6;Draft;Casual Shoes;Nell;Adults-Women;Women;Blue;;;Fashion;;2017;EURO 36,NELLCASH00002851,EURO 37,NELLCASH00002852,EURO 38,NELLCASH00002853,EURO 39,NELLCASH00002854,EURO 40,NELLCASH00002855,EURO 41,NELLCASH00002856;1585.00;;;<p>wipe with dry cloth</p>;;;;;zerotype;;Fall;;No
2006930;VK2016-45-Pink-2006930;VK2016-45-Pink-6;Draft;Heels;Nell;Adults-Women;Women;Pink;;;Fashion;;2017;EURO 36,NELLHeels00011433,EURO 37,NELLHeels00011434,EURO 38,NELLHeels00011435,EURO 39,NELLHeels00011436,EURO 40,NELLHeels00011437,EURO 41,NELLHeels00011438;1785.00;;;<p>wipe with dry cloth</p>;;;;;zerotype;;Fall;;No
2006924;VK2016-45-Blue-2006924;VK2016-45-Blue-6;Draft;Heels;Nell;Adults-Women;Women;Blue;;;Fashion;;2017;EURO 36,NELLHeels00011427,EURO 37,NELLHeels00011428,EURO 38,NELLHeels00011429,EURO 39,NELLHeels00011430,EURO 40,NELLHeels00011431,EURO 41,NELLHeels00011432;1785.00;;;<p>wipe with dry cloth</p>;;;;;zerotype;;Fall;;No
2006903;NLV-239-Silver-2006903;NLV-239-Silver-6;Draft;Heels;Nell;Adults-Women;Women;Silver;;;Fashion;;2017;EURO 36,NELLHeels00011421,EURO 37,NELLHeels00011422,EURO 38,NELLHeels00011423,EURO 39,NELLHeels00011424,EURO 40,NELLHeels00011425,EURO 41,NELLHeels00011426;1985.00;;;<p>wipe with dry cloth</p>;;;;;zerotype;;Fall;;No
2006888;NLM-264-Beige-2006888;NLM-264-Beige-6;Draft;Heels;Nell;Adults-Women;Women;Beige;;;Fashion;;2017;EURO 36,NELLHeels00011415,EURO 37,NELLHeels00011416,EURO 38,NELLHeels00011417,EURO 39,NELLHeels00011418,EURO 40,NELLHeels00011419,EURO 41,NELLHeels00011420;1985.00;;;<p>wipe with dry cloth</p>;;;;;zerotype;;Fall;;No
2006868;NLL-161-Multi-2006868;NLL-161-Multi-6;Draft;Heels;Nell;Adults-Women;Women;Multi;;;Fashion;;2017;EURO 36,NELLHeels00011409,EURO 37,NELLHeels00011410,EURO 38,NELLHeels00011411,EURO 39,NELLHeels00011412,EURO 40,NELLHeels00011413,EURO 41,NELLHeels00011414;1585.00;;;<p>wipe with dry cloth</p>;;;;;zerotype;;Fall;;No
2006867;NLL-158-Multi-2006867;NLL-158-Multi-6;Draft;Heels;Nell;Adults-Women;Women;Multi;;;Fashion;;2017;EURO 36,NELLHeels00011403,EURO 37,NELLHeels00011404,EURO 38,NELLHeels00011405,EURO 39,NELLHeels00011406,EURO 40,NELLHeels00011407,EURO 41,NELLHeels00011408;1585.00;;;<p>wipe with dry cloth</p>;;;;;zerotype;;Fall;;No
2006866;NLB-263-Multi-2006866;NLB-263-Multi-6;Draft;Heels;Nell;Adults-Women;Women;Multi;;;Fashion;;2017;EURO 36,NELLHeels00011397,EURO 37,NELLHeels00011398,EURO 38,NELLHeels00011399,EURO 39,NELLHeels00011400,EURO 40,NELLHeels00011401,EURO 41,NELLHeels00011402;1985.00;;;<p>wipe with dry cloth</p>;;;;;zerotype;;Fall;;No
2006862;NLB-183-Blue-2006862;NLB-183-Blue-6;Draft;Heels;Nell;Adults-Women;Women;Blue;;;Fashion;;2017;EURO 36,NELLHeels00011391,EURO 37,NELLHeels00011392,EURO 38,NELLHeels00011393,EURO 39,NELLHeels00011394,EURO 40,NELLHeels00011395,EURO 41,NELLHeels00011396;1985.00;;;<p>wipe with dry cloth</p>;;;;;zerotype;;Fall;;No
