Style ID;Vendor Article Number;Vendor Article Name;Active Status;Article type;Brand;Age Group;Gender;Base Colour;Colour1;Colour2;Fashion Type;Usage;Year;Size - SKU code pair;MRP;Style Description;Style Note;Materials and Care Description;Size and Fit Description;Size Chart Path;Product Display Name;Tags;Product Type;Classification Brand;Season;Comments;Upload Images
2346631;GENX GUSTO IE-HI-Navy Blue Blue-2346631;GENX GUSTO IE-HI;Draft;Briefs;Genx;Adults-Men;Men;Navy Blue;Blue;;Fashion;Smart Casual;2017;75,GENXBREF00000475,80,GENXBREF00000476,85,GENXBREF00000477,90,GENXBREF00000478,95,GENXBREF00000479,100,GENXBREF00000480;366.00;;;;;;;;zerotype;;Summer;;No
2346630;GENX GUSTO IE-GH-Maroon Navy Blue-2346630;GENX GUSTO IE-GH;Draft;Briefs;Genx;Adults-Men;Men;Maroon;Navy Blue;;Fashion;Smart Casual;2017;75,GENXBREF00000469,80,GENXBREF00000470,85,GENXBREF00000471,90,GENXBREF00000472,95,GENXBREF00000473,100,GENXBREF00000474;366.00;;;;;;;;zerotype;;Summer;;No
2346629;GENX GUSTO IE-FI-Grey Blue-2346629;GENX GUSTO IE-FI;Draft;Briefs;Genx;Adults-Men;Men;Grey;Blue;;Fashion;Smart Casual;2017;75,GENXBREF00000463,80,GENXBREF00000464,85,GENXBREF00000465,90,GENXBREF00000466,95,GENXBREF00000467,100,GENXBREF00000468;366.00;;;;;;;;zerotype;;Summer;;No
2346628;GENX GUSTO IE-FH-Grey Navy Blue-2346628;GENX GUSTO IE-FH;Draft;Briefs;Genx;Adults-Men;Men;Grey;Navy Blue;;Fashion;Smart Casual;2017;75,GENXBREF00000457,80,GENXBREF00000458,85,GENXBREF00000459,90,GENXBREF00000460,95,GENXBREF00000461,100,GENXBREF00000462;366.00;;;;;;;;zerotype;;Summer;;No
2346627;GENX GUSTO IE-FG-Grey Maroon-2346627;GENX GUSTO IE-FG;Draft;Briefs;Genx;Adults-Men;Men;Grey;Maroon;;Fashion;Smart Casual;2017;75,GENXBREF00000451,80,GENXBREF00000452,85,GENXBREF00000453,90,GENXBREF00000454,95,GENXBREF00000455,100,GENXBREF00000456;366.00;;;;;;;;zerotype;;Summer;;No
2346626;GENX GUSTO IE-EI-Blue-2346626;GENX GUSTO IE-EI;Draft;Briefs;Genx;Adults-Men;Men;Blue;;;Fashion;Smart Casual;2017;75,GENXBREF00000445,80,GENXBREF00000446,85,GENXBREF00000447,90,GENXBREF00000448,95,GENXBREF00000449,100,GENXBREF00000450;366.00;;;;;;;;zerotype;;Summer;;No
2346625;GENX GUSTO IE-EH-Blue Navy Blue-2346625;GENX GUSTO IE-EH;Draft;Briefs;Genx;Adults-Men;Men;Blue;Navy Blue;;Fashion;Smart Casual;2017;75,GENXBREF00000439,80,GENXBREF00000440,85,GENXBREF00000441,90,GENXBREF00000442,95,GENXBREF00000443,100,GENXBREF00000444;366.00;;;;;;;;zerotype;;Summer;;No
2346624;GENX GUSTO IE-EG-Blue Maroon-2346624;GENX GUSTO IE-EG;Draft;Briefs;Genx;Adults-Men;Men;Blue;Maroon;;Fashion;Smart Casual;2017;75,GENXBREF00000433,80,GENXBREF00000434,85,GENXBREF00000435,90,GENXBREF00000436,95,GENXBREF00000437,100,GENXBREF00000438;366.00;;;;;;;;zerotype;;Summer;;No
2346623;GENX GUSTO IE-DI-Coffee Brown Blue-2346623;GENX GUSTO IE-DI;Draft;Briefs;Genx;Adults-Men;Men;Coffee Brown;Blue;;Fashion;Smart Casual;2017;75,GENXBREF00000427,80,GENXBREF00000428,85,GENXBREF00000429,90,GENXBREF00000430,95,GENXBREF00000431,100,GENXBREF00000432;366.00;;;;;;;;zerotype;;Summer;;No
2346622;GENX GUSTO IE-DH-Coffee Brown Navy Blue-2346622;GENX GUSTO IE-DH;Draft;Briefs;Genx;Adults-Men;Men;Coffee Brown;Navy Blue;;Fashion;Smart Casual;2017;75,GENXBREF00000421,80,GENXBREF00000422,85,GENXBREF00000423,90,GENXBREF00000424,95,GENXBREF00000425,100,GENXBREF00000426;366.00;;;;;;;;zerotype;;Summer;;No
2346621;GENX GUSTO IE-DG-Coffee Brown Maroon-2346621;GENX GUSTO IE-DG;Draft;Briefs;Genx;Adults-Men;Men;Coffee Brown;Maroon;;Fashion;Smart Casual;2017;75,GENXBREF00000415,80,GENXBREF00000416,85,GENXBREF00000417,90,GENXBREF00000418,95,GENXBREF00000419,100,GENXBREF00000420;366.00;;;;;;;;zerotype;;Summer;;No
2346620;GENX GUSTO IE-DF-Coffee Brown Grey-2346620;GENX GUSTO IE-DF;Draft;Briefs;Genx;Adults-Men;Men;Coffee Brown;Grey;;Fashion;Smart Casual;2017;75,GENXBREF00000409,80,GENXBREF00000410,85,GENXBREF00000411,90,GENXBREF00000412,95,GENXBREF00000413,100,GENXBREF00000414;366.00;;;;;;;;zerotype;;Summer;;No
2346619;GENX GUSTO IE-DE-Coffee Brown Blue-2346619;GENX GUSTO IE-DE;Draft;Briefs;Genx;Adults-Men;Men;Coffee Brown;Blue;;Fashion;Smart Casual;2017;75,GENXBREF00000403,80,GENXBREF00000404,85,GENXBREF00000405,90,GENXBREF00000406,95,GENXBREF00000407,100,GENXBREF00000408;366.00;;;;;;;;zerotype;;Summer;;No
2346618;GENX GUSTO IE-CI-Brown Blue-2346618;GENX GUSTO IE-CI;Draft;Briefs;Genx;Adults-Men;Men;Brown;Blue;;Fashion;Smart Casual;2017;75,GENXBREF00000397,80,GENXBREF00000398,85,GENXBREF00000399,90,GENXBREF00000400,95,GENXBREF00000401,100,GENXBREF00000402;366.00;;;;;;;;zerotype;;Summer;;No
2346617;GENX GUSTO IE-CH-Brown Navy Blue-2346617;GENX GUSTO IE-CH;Draft;Briefs;Genx;Adults-Men;Men;Brown;Navy Blue;;Fashion;Smart Casual;2017;75,GENXBREF00000391,80,GENXBREF00000392,85,GENXBREF00000393,90,GENXBREF00000394,95,GENXBREF00000395,100,GENXBREF00000396;366.00;;;;;;;;zerotype;;Summer;;No
2346616;GENX GUSTO IE-CG-Brown Maroon-2346616;GENX GUSTO IE-CG;Draft;Briefs;Genx;Adults-Men;Men;Brown;Maroon;;Fashion;Smart Casual;2017;75,GENXBREF00000385,80,GENXBREF00000386,85,GENXBREF00000387,90,GENXBREF00000388,95,GENXBREF00000389,100,GENXBREF00000390;366.00;;;;;;;;zerotype;;Summer;;No
2346615;GENX GUSTO IE-CF-Brown Grey-2346615;GENX GUSTO IE-CF;Draft;Briefs;Genx;Adults-Men;Men;Brown;Grey;;Fashion;Smart Casual;2017;75,GENXBREF00000379,80,GENXBREF00000380,85,GENXBREF00000381,90,GENXBREF00000382,95,GENXBREF00000383,100,GENXBREF00000384;366.00;;;;;;;;zerotype;;Summer;;No
2346614;GENX GUSTO IE-CE-Brown Blue-2346614;GENX GUSTO IE-CE;Draft;Briefs;Genx;Adults-Men;Men;Brown;Blue;;Fashion;Smart Casual;2017;75,GENXBREF00000373,80,GENXBREF00000374,85,GENXBREF00000375,90,GENXBREF00000376,95,GENXBREF00000377,100,GENXBREF00000378;366.00;;;;;;;;zerotype;;Summer;;No
2346613;GENX GUSTO IE-CD-Brown Coffee Brown-2346613;GENX GUSTO IE-CD;Draft;Briefs;Genx;Adults-Men;Men;Brown;Coffee Brown;;Fashion;Smart Casual;2017;75,GENXBREF00000367,80,GENXBREF00000368,85,GENXBREF00000369,90,GENXBREF00000370,95,GENXBREF00000371,100,GENXBREF00000372;366.00;;;;;;;;zerotype;;Summer;;No
2346612;GENX GUSTO IE-BI-Blue-2346612;GENX GUSTO IE-BI;Draft;Briefs;Genx;Adults-Men;Men;Blue;;;Fashion;Smart Casual;2017;75,GENXBREF00000361,80,GENXBREF00000362,85,GENXBREF00000363,90,GENXBREF00000364,95,GENXBREF00000365,100,GENXBREF00000366;366.00;;;;;;;;zerotype;;Summer;;No
2346611;GENX GUSTO IE-BH-Blue Navy Blue-2346611;GENX GUSTO IE-BH;Draft;Briefs;Genx;Adults-Men;Men;Blue;Navy Blue;;Fashion;Smart Casual;2017;75,GENXBREF00000355,80,GENXBREF00000356,85,GENXBREF00000357,90,GENXBREF00000358,95,GENXBREF00000359,100,GENXBREF00000360;366.00;;;;;;;;zerotype;;Summer;;No
2346610;GENX GUSTO IE-BG-Blue Maroon-2346610;GENX GUSTO IE-BG;Draft;Briefs;Genx;Adults-Men;Men;Blue;Maroon;;Fashion;Smart Casual;2017;75,GENXBREF00000349,80,GENXBREF00000350,85,GENXBREF00000351,90,GENXBREF00000352,95,GENXBREF00000353,100,GENXBREF00000354;366.00;;;;;;;;zerotype;;Summer;;No
2346609;GENX GUSTO IE-BF-Blue Grey-2346609;GENX GUSTO IE-BF;Draft;Briefs;Genx;Adults-Men;Men;Blue;Grey;;Fashion;Smart Casual;2017;75,GENXBREF00000343,80,GENXBREF00000344,85,GENXBREF00000345,90,GENXBREF00000346,95,GENXBREF00000347,100,GENXBREF00000348;366.00;;;;;;;;zerotype;;Summer;;No
2346608;GENX GUSTO IE-BE-Blue-2346608;GENX GUSTO IE-BE;Draft;Briefs;Genx;Adults-Men;Men;Blue;;;Fashion;Smart Casual;2017;75,GENXBREF00000337,80,GENXBREF00000338,85,GENXBREF00000339,90,GENXBREF00000340,95,GENXBREF00000341,100,GENXBREF00000342;366.00;;;;;;;;zerotype;;Summer;;No
2346607;GENX GUSTO IE-BD-Blue Coffee Brown-2346607;GENX GUSTO IE-BD;Draft;Briefs;Genx;Adults-Men;Men;Blue;Coffee Brown;;Fashion;Smart Casual;2017;75,GENXBREF00000331,80,GENXBREF00000332,85,GENXBREF00000333,90,GENXBREF00000334,95,GENXBREF00000335,100,GENXBREF00000336;366.00;;;;;;;;zerotype;;Summer;;No
2346606;GENX GUSTO IE-BC-Blue Brown-2346606;GENX GUSTO IE-BC;Draft;Briefs;Genx;Adults-Men;Men;Blue;Brown;;Fashion;Smart Casual;2017;75,GENXBREF00000325,80,GENXBREF00000326,85,GENXBREF00000327,90,GENXBREF00000328,95,GENXBREF00000329,100,GENXBREF00000330;366.00;;;;;;;;zerotype;;Summer;;No
2346605;GENX GUSTO IE-AI-Black Blue-2346605;GENX GUSTO IE-AI;Draft;Briefs;Genx;Adults-Men;Men;Black;Blue;;Fashion;Smart Casual;2017;75,GENXBREF00000319,80,GENXBREF00000320,85,GENXBREF00000321,90,GENXBREF00000322,95,GENXBREF00000323,100,GENXBREF00000324;366.00;;;;;;;;zerotype;;Summer;;No
2346604;GENX GUSTO IE-AH-Black Navy Blue-2346604;GENX GUSTO IE-AH;Draft;Briefs;Genx;Adults-Men;Men;Black;Navy Blue;;Fashion;Smart Casual;2017;75,GENXBREF00000313,80,GENXBREF00000314,85,GENXBREF00000315,90,GENXBREF00000316,95,GENXBREF00000317,100,GENXBREF00000318;366.00;;;;;;;;zerotype;;Summer;;No
2346603;GENX GUSTO IE-AG-Black Maroon-2346603;GENX GUSTO IE-AG;Draft;Briefs;Genx;Adults-Men;Men;Black;Maroon;;Fashion;Smart Casual;2017;75,GENXBREF00000307,80,GENXBREF00000308,85,GENXBREF00000309,90,GENXBREF00000310,95,GENXBREF00000311,100,GENXBREF00000312;366.00;;;;;;;;zerotype;;Summer;;No
2346602;GENX GUSTO IE-AF-Black Grey-2346602;GENX GUSTO IE-AF;Draft;Briefs;Genx;Adults-Men;Men;Black;Grey;;Fashion;Smart Casual;2017;75,GENXBREF00000301,80,GENXBREF00000302,85,GENXBREF00000303,90,GENXBREF00000304,95,GENXBREF00000305,100,GENXBREF00000306;366.00;;;;;;;;zerotype;;Summer;;No
2346601;GENX GUSTO IE-AE-Black Blue-2346601;GENX GUSTO IE-AE;Draft;Briefs;Genx;Adults-Men;Men;Black;Blue;;Fashion;Smart Casual;2017;75,GENXBREF00000295,80,GENXBREF00000296,85,GENXBREF00000297,90,GENXBREF00000298,95,GENXBREF00000299,100,GENXBREF00000300;366.00;;;;;;;;zerotype;;Summer;;No
2346600;GENX GUSTO IE-AD-Black Coffee Brown-2346600;GENX GUSTO IE-AD;Draft;Briefs;Genx;Adults-Men;Men;Black;Coffee Brown;;Fashion;Smart Casual;2017;75,GENXBREF00000289,80,GENXBREF00000290,85,GENXBREF00000291,90,GENXBREF00000292,95,GENXBREF00000293,100,GENXBREF00000294;366.00;;;;;;;;zerotype;;Summer;;No
2346599;GENX GUSTO IE-AC-Black Brown-2346599;GENX GUSTO IE-AC;Draft;Briefs;Genx;Adults-Men;Men;Black;Brown;;Fashion;Smart Casual;2017;75,GENXBREF00000283,80,GENXBREF00000284,85,GENXBREF00000285,90,GENXBREF00000286,95,GENXBREF00000287,100,GENXBREF00000288;366.00;;;;;;;;zerotype;;Summer;;No
2346598;GENX GUSTO IE-AB-Black Blue-2346598;GENX GUSTO IE-AB;Draft;Briefs;Genx;Adults-Men;Men;Black;Blue;;Fashion;Smart Casual;2017;75,GENXBREF00000277,80,GENXBREF00000278,85,GENXBREF00000279,90,GENXBREF00000280,95,GENXBREF00000281,100,GENXBREF00000282;366.00;;;;;;;;zerotype;;Summer;;No
