Style ID;Vendor Article Number;Vendor Article Name;Active Status;Article type;Brand;Age Group;Gender;Base Colour;Colour1;Colour2;Fashion Type;Usage;Year;Size - SKU code pair;MRP;Style Description;Style Note;Materials and Care Description;Size and Fit Description;Size Chart Path;Product Display Name;Tags;Product Type;Classification Brand;Season;Comments;Upload Images
1975256;B1S17MNP0180-Black-1975256;KT 101 - CRANBOOK RD;Draft;Tshirts;Blue Saint;Adults-Men;Men;Black;;;Fashion;;2017;S,BESTTSHT00001594,M,BESTTSHT00001595,L,BESTTSHT00001596,XL,BESTTSHT00001597;699.00;;;<p>Machine-wash</p>;;;;;zerotype;;Summer;;No
1975251;B1S16MNP0067-Black-1975251;KT-101-CRANBOOK RD;Draft;Tshirts;Blue Saint;Adults-Men;Men;Black;;;Fashion;;2017;S,BESTTSHT00001590,M,BESTTSHT00001591,L,BESTTSHT00001592,XL,BESTTSHT00001593;699.00;;;<p>Machine-wash</p>;;;;;zerotype;;Summer;;No
1975246;B1S16MHK0018-White-1975246;SIRIUS;Draft;Tshirts;Blue Saint;Adults-Men;Men;White;;;Fashion;;2017;M,BESTTSHT00001587,L,BESTTSHT00001588,XL,BESTTSHT00001589;699.00;;;<p>Machine-wash</p>;;;;;zerotype;;Summer;;No
1975242;B1S16MHK0017-Grey-1975242;SIRIUS;Draft;Tshirts;Blue Saint;Adults-Men;Men;Grey;;;Fashion;;2017;M,BESTTSHT00001584,L,BESTTSHT00001585,XL,BESTTSHT00001586;699.00;;;<p>Machine-wash</p>;;;;;zerotype;;Summer;;No
1975237;B1S16MHK0019-Blue-1975237;SIRIUS;Draft;Tshirts;Blue Saint;Adults-Men;Men;Blue;;;Fashion;;2017;S,BESTTSHT00001580,M,BESTTSHT00001581,L,BESTTSHT00001582,XL,BESTTSHT00001583;699.00;;;<p>Machine-wash</p>;;;;;zerotype;;Summer;;No
1975232;B1S16MHK0015-Black-1975232;SIRIUS;Draft;Tshirts;Blue Saint;Adults-Men;Men;Black;;;Fashion;;2017;S,BESTTSHT00001576,M,BESTTSHT00001577,L,BESTTSHT00001578,XL,BESTTSHT00001579;699.00;;;<p>Machine-wash</p>;;;;;zerotype;;Summer;;No
1975229;B1S17MHK0198-White Yellow-1975229;EDINBURGH;Draft;Tshirts;Blue Saint;Adults-Men;Men;White;Yellow;;Fashion;;2017;S,BESTTSHT00001572,M,BESTTSHT00001573,L,BESTTSHT00001574,XL,BESTTSHT00001575;799.00;;;<p>Machine-wash</p>;;;;;zerotype;;Summer;;No
1975228;B1S17MHK0197-Beige-1975228;EMBO;Draft;Tshirts;Blue Saint;Adults-Men;Men;Beige;;;Fashion;;2017;S,BESTTSHT00001568,M,BESTTSHT00001569,L,BESTTSHT00001570,XL,BESTTSHT00001571;799.00;;;<p>Machine-wash</p>;;;;;zerotype;;Summer;;No
1975227;B1S17MHK0196-White-1975227;ELLARY;Draft;Tshirts;Blue Saint;Adults-Men;Men;White;;;Fashion;;2017;S,BESTTSHT00001564,M,BESTTSHT00001565,L,BESTTSHT00001566,XL,BESTTSHT00001567;699.00;;;<p>Machine-wash</p>;;;;;zerotype;;Summer;;No
1975226;B1S17MHK0184-Black-1975226;ETHEL;Draft;Tshirts;Blue Saint;Adults-Men;Men;Black;;;Fashion;;2017;S,BESTTSHT00001560,M,BESTTSHT00001561,L,BESTTSHT00001562,XL,BESTTSHT00001563;699.00;;;<p>Machine-wash</p>;;;;;zerotype;;Summer;;No
1975225;B1S17MHK0183-Black-1975225;EGTON;Draft;Tshirts;Blue Saint;Adults-Men;Men;Black;;;Fashion;;2017;S,BESTTSHT00001556,M,BESTTSHT00001557,L,BESTTSHT00001558,XL,BESTTSHT00001559;599.00;;;<p>Machine-wash</p>;;;;;zerotype;;Summer;;No
1975224;B1S17MHK0182-White Black-1975224;EHEN;Draft;Tshirts;Blue Saint;Adults-Men;Men;White;Black;;Fashion;;2017;S,BESTTSHT00001552,M,BESTTSHT00001553,L,BESTTSHT00001554,XL,BESTTSHT00001555;599.00;;;<p>Machine-wash</p>;;;;;zerotype;;Summer;;No
1975223;B1S17MFS0058-Navy Blue-1975223;XUDO;Draft;Shirts;Blue Saint;Adults-Men;Men;Navy Blue;;;Fashion;;2017;S,BESTSHRT00001106,M,BESTSHRT00001107,L,BESTSHRT00001108,XL,BESTSHRT00001109,XXL,BESTSHRT00001110;1499.00;;;<p>Machine-wash</p>;;;;;zerotype;;Summer;;No
1975222;B1S17MFS0063-Blue-1975222;XUNIL;Draft;Shirts;Blue Saint;Adults-Men;Men;Blue;;;Fashion;;2017;S,BESTSHRT00001101,M,BESTSHRT00001102,L,BESTSHRT00001103,XL,BESTSHRT00001104,XXL,BESTSHRT00001105;1499.00;;;<p>Machine-wash</p>;;;;;zerotype;;Summer;;No
