Style ID;Vendor Article Number;Vendor Article Name;Active Status;Article type;Brand;Age Group;Gender;Base Colour;Colour1;Colour2;Fashion Type;Usage;Year;Size - SKU code pair;MRP;Style Description;Style Note;Materials and Care Description;Size and Fit Description;Size Chart Path;Product Display Name;Tags;Product Type;Classification Brand;Season;Comments;Upload Images
2035132;SJKN000991B-Green-2035132;Slub Junior Knit Top KNT Green;Draft;Tshirts;Slub Juniors;Kids-Boys;Boys;Green;;;Fashion;;2017;7-8 Y,SBJNTSHT00001289,8-9 Y,SBJNTSHT00001290,10-11 Y,SBJNTSHT00001291,11-12 Y,SBJNTSHT00001292,13-14 Y,SBJNTSHT00001293;399.00;;;<p>Machine Wash</p>;;;;;zerotype;;Winter;;No
2035130;SJKN000985B-Blue-2035130;Slub Junior Knit Top KNT Blue;Draft;Tshirts;Slub Juniors;Kids-Boys;Boys;Blue;;;Fashion;;2017;7-8 Y,SBJNTSHT00001284,8-9 Y,SBJNTSHT00001285,10-11 Y,SBJNTSHT00001286,11-12 Y,SBJNTSHT00001287,13-14 Y,SBJNTSHT00001288;399.00;;;<p>Machine Wash</p>;;;;;zerotype;;Winter;;No
2035119;SJKN000977B-Green-2035119;Slub Junior Knit Top KNT Green;Draft;Tshirts;Slub Juniors;Kids-Boys;Boys;Green;;;Fashion;;2017;7-8 Y,SBJNTSHT00001277,8-9 Y,SBJNTSHT00001278,10-11 Y,SBJNTSHT00001279,11-12 Y,SBJNTSHT00001280,13-14 Y,SBJNTSHT00001281;399.00;;;<p>Machine Wash</p>;;;;;zerotype;;Winter;;No
2035118;SJKN000990A-Beige-2035118;Slub Junior Knit Top KNT Beige;Draft;Tshirts;Slub Juniors;Kids-Boys;Boys;Beige;;;Fashion;;2017;7-8 Y,SBJNTSHT00001272,8-9 Y,SBJNTSHT00001273,10-11 Y,SBJNTSHT00001274,11-12 Y,SBJNTSHT00001275,13-14 Y,SBJNTSHT00001276;399.00;;;<p>Machine Wash</p>;;;;;zerotype;;Winter;;No
2035116;SJKN000986A-Red-2035116;Slub Junior Knit Top KNT Red;Draft;Tshirts;Slub Juniors;Kids-Boys;Boys;Red;;;Fashion;;2017;7-8 Y,SBJNTSHT00001267,8-9 Y,SBJNTSHT00001268,10-11 Y,SBJNTSHT00001269,11-12 Y,SBJNTSHT00001270,13-14 Y,SBJNTSHT00001271;399.00;;;<p>Machine Wash</p>;;;;;zerotype;;Winter;;No
2035114;SJKN000984A-Black-2035114;Slub Junior Knit Top KNT Black;Draft;Tshirts;Slub Juniors;Kids-Boys;Boys;Black;;;Fashion;;2017;7-8 Y,SBJNTSHT00001262,8-9 Y,SBJNTSHT00001263,10-11 Y,SBJNTSHT00001264,11-12 Y,SBJNTSHT00001265,13-14 Y,SBJNTSHT00001266;399.00;;;<p>Machine Wash</p>;;;;;zerotype;;Winter;;No
2035113;SJKN000981A-Black-2035113;Slub Junior Knit Top KNT Black;Draft;Tshirts;Slub Juniors;Kids-Boys;Boys;Black;;;Fashion;;2017;7-8 Y,SBJNTSHT00001257,8-9 Y,SBJNTSHT00001258,10-11 Y,SBJNTSHT00001259,11-12 Y,SBJNTSHT00001260,13-14 Y,SBJNTSHT00001261;399.00;;;<p>Machine Wash</p>;;;;;zerotype;;Winter;;No
2035110;SJKN000979A-White-2035110;Slub Junior Knit Top KNT White;Draft;Tshirts;Slub Juniors;Kids-Boys;Boys;White;;;Fashion;;2017;7-8 Y,SBJNTSHT00001252,8-9 Y,SBJNTSHT00001253,10-11 Y,SBJNTSHT00001254,11-12 Y,SBJNTSHT00001255,13-14 Y,SBJNTSHT00001256;399.00;;;<p>Machine Wash</p>;;;;;zerotype;;Winter;;No
2035109;SJKN000976A-Yellow-2035109;Slub Junior Knit Top KNT Yello;Draft;Tshirts;Slub Juniors;Kids-Boys;Boys;Yellow;;;Fashion;;2017;7-8 Y,SBJNTSHT00001247,8-9 Y,SBJNTSHT00001248,10-11 Y,SBJNTSHT00001249,11-12 Y,SBJNTSHT00001250,13-14 Y,SBJNTSHT00001251;399.00;;;<p>Machine Wash</p>;;;;;zerotype;;Winter;;No
2035106;SJKN000975A-Green-2035106;Slub Junior Knit Top KNT Green;Draft;Tshirts;Slub Juniors;Kids-Boys;Boys;Green;;;Fashion;;2017;7-8 Y,SBJNTSHT00001242,8-9 Y,SBJNTSHT00001243,10-11 Y,SBJNTSHT00001244,11-12 Y,SBJNTSHT00001245,13-14 Y,SBJNTSHT00001246;399.00;;;<p>Machine Wash</p>;;;;;zerotype;;Winter;;No
2035101;SJKN000970A-Grey Melange-2035101;Slub Junior Knit Top KNT Ecru;Draft;Tshirts;Slub Juniors;Kids-Boys;Boys;Grey Melange;;;Fashion;;2017;7-8 Y,SBJNTSHT00001237,8-9 Y,SBJNTSHT00001238,10-11 Y,SBJNTSHT00001239,11-12 Y,SBJNTSHT00001240,13-14 Y,SBJNTSHT00001241;399.00;;;<p>Machine Wash</p>;;;;;zerotype;;Winter;;No
2035091;SJKN000909A-Blue-2035091;Slub Junior Knit Top cotton Bl;Draft;Tshirts;Slub Juniors;Kids-Boys;Boys;Blue;;;Fashion;;2017;7-8 Y,SBJNTSHT00001232,8-9 Y,SBJNTSHT00001233,10-11 Y,SBJNTSHT00001234,11-12 Y,SBJNTSHT00001235,13-14 Y,SBJNTSHT00001236;399.00;;;<p>Machine Wash</p>;;;;;zerotype;;Winter;;No
2035088;SJKN000906A-Navy Blue-2035088;Slub Junior Knit Top cotton Na;Draft;Tshirts;Slub Juniors;Kids-Boys;Boys;Navy Blue;;;Fashion;;2017;7-8 Y,SBJNTSHT00001227,8-9 Y,SBJNTSHT00001228,10-11 Y,SBJNTSHT00001229,11-12 Y,SBJNTSHT00001230,13-14 Y,SBJNTSHT00001231;399.00;;;<p>Machine Wash</p>;;;;;zerotype;;Winter;;No
2035086;SJKN000904A-Red-2035086;Slub Junior Knit Top cotton Re;Draft;Tshirts;Slub Juniors;Kids-Boys;Boys;Red;;;Fashion;;2017;7-8 Y,SBJNTSHT00001222,8-9 Y,SBJNTSHT00001223,10-11 Y,SBJNTSHT00001224,11-12 Y,SBJNTSHT00001225,13-14 Y,SBJNTSHT00001226;399.00;;;<p>Machine Wash</p>;;;;;zerotype;;Winter;;No
2035084;SJKN000882A-Yellow-2035084;Slub Junior Knit Top cotton Ye;Draft;Tshirts;Slub Juniors;Kids-Boys;Boys;Yellow;;;Fashion;;2017;7-8 Y,SBJNTSHT00001217,8-9 Y,SBJNTSHT00001218,10-11 Y,SBJNTSHT00001219,11-12 Y,SBJNTSHT00001220,13-14 Y,SBJNTSHT00001221;399.00;;;<p>Machine Wash</p>;;;;;zerotype;;Winter;;No
2035082;SJKN000877A-Yellow-2035082;Slub Junior Knit Top cotton Ye;Draft;Tshirts;Slub Juniors;Kids-Boys;Boys;Yellow;;;Fashion;;2017;7-8 Y,SBJNTSHT00001212,8-9 Y,SBJNTSHT00001213,10-11 Y,SBJNTSHT00001214,11-12 Y,SBJNTSHT00001215,13-14 Y,SBJNTSHT00001216;399.00;;;<p>Machine Wash</p>;;;;;zerotype;;Winter;;No
2035081;SJSH000402A-Blue-2035081;Slub Junior Shirt Solid P Drk;Draft;Shirts;Slub Juniors;Kids-Boys;Boys;Blue;;;Fashion;;2017;7-8 Y,SBJNSHRT00000406,8-9 Y,SBJNSHRT00000407,10-11 Y,SBJNSHRT00000408,11-12 Y,SBJNSHRT00000409,13-14 Y,SBJNSHRT00000410;999.00;;;<p>Machine Wash</p>;;;;;zerotype;;Winter;;No
2035080;SJSH000401A-Green-2035080;Slub Junior Shirt Solid P Dark;Draft;Shirts;Slub Juniors;Kids-Boys;Boys;Green;;;Fashion;;2017;7-8 Y,SBJNSHRT00000401,8-9 Y,SBJNSHRT00000402,10-11 Y,SBJNSHRT00000403,11-12 Y,SBJNSHRT00000404,13-14 Y,SBJNSHRT00000405;999.00;;;<p>Machine Wash</p>;;;;;zerotype;;Winter;;No
2035079;SJSH000400A-White-2035079;Slub Junior Shirt Solid P Whit;Draft;Shirts;Slub Juniors;Kids-Boys;Boys;White;;;Fashion;;2017;7-8 Y,SBJNSHRT00000396,8-9 Y,SBJNSHRT00000397,10-11 Y,SBJNSHRT00000398,11-12 Y,SBJNSHRT00000399,13-14 Y,SBJNSHRT00000400;999.00;;;<p>Machine Wash</p>;;;;;zerotype;;Winter;;No
2035078;SJSH000399A-Blue-2035078;Slub Junior Shirt Solid P Sky;Draft;Shirts;Slub Juniors;Kids-Boys;Boys;Blue;;;Fashion;;2017;7-8 Y,SBJNSHRT00000391,8-9 Y,SBJNSHRT00000392,10-11 Y,SBJNSHRT00000393,11-12 Y,SBJNSHRT00000394,13-14 Y,SBJNSHRT00000395;999.00;;;<p>Machine Wash</p>;;;;;zerotype;;Winter;;No
2035077;SJSH000395A-White-2035077;Slub Junior Shirt Solid P Whit;Draft;Shirts;Slub Juniors;Kids-Boys;Boys;White;;;Fashion;;2017;7-8 Y,SBJNSHRT00000386,10-11 Y,SBJNSHRT00000387,11-12 Y,SBJNSHRT00000388,13-14 Y,SBJNSHRT00000389,8-9 Y,SBJNSHRT00000390;999.00;;;<p>Machine Wash</p>;;;;;zerotype;;Winter;;No
2035076;SJSH000374A-Red-2035076;Slub Junior Shirt WOV Red;Draft;Shirts;Slub Juniors;Kids-Boys;Boys;Red;;;Fashion;;2017;7-8 Y,SBJNSHRT00000381,8-9 Y,SBJNSHRT00000382,10-11 Y,SBJNSHRT00000383,11-12 Y,SBJNSHRT00000384,13-14 Y,SBJNSHRT00000385;1199.00;;;<p>Machine Wash</p>;;;;;zerotype;;Winter;;No
