Style ID;Vendor Article Number;Vendor Article Name;Active Status;Article type;Brand;Age Group;Gender;Base Colour;Colour1;Colour2;Fashion Type;Usage;Year;Size - SKU code pair;MRP;Style Description;Style Note;Materials and Care Description;Size and Fit Description;Size Chart Path;Product Display Name;Tags;Product Type;Classification Brand;Season;Comments;Upload Images
1860746;DS-2578569-1558-BLK-Black-1860746;Black Oversized Jersey Tee;Draft;Tshirts;Femella;Adults-Women;Women;;;;Fashion;;2017;XS,FEMLTSHT00000586,S,FEMLTSHT00000587,M,FEMLTSHT00000588,L,FEMLTSHT00000589,XL,FEMLTSHT00000590,XXL,FEMLTSHT00000591;790.00;;;;;;;;zerotype;;Spring;;No
1860745;DS-2578578-0013-NAV-Navy-1860745;Navy Embroidered Midi Dress;Draft;Dresses;Femella;Adults-Women;Women;;;;Fashion;;2017;XS,FEMLDRSS00003416,S,FEMLDRSS00003417,M,FEMLDRSS00003418,L,FEMLDRSS00003419,XL,FEMLDRSS00003420,XXL,FEMLDRSS00003421;1690.00;;;;;;;;zerotype;;Spring;;No
1860744;DS-2626577-1670-GRN-Green-1860744;Green Wiggle Midi Dress;Draft;Dresses;Femella;Adults-Women;Women;;;;Fashion;;2017;XS,FEMLDRSS00003410,S,FEMLDRSS00003411,M,FEMLDRSS00003412,L,FEMLDRSS00003413,XL,FEMLDRSS00003414,XXL,FEMLDRSS00003415;1650.00;;;;;;;;zerotype;;Spring;;No
1860743;DS-2050028-1526-MAR-Maroon-1860743;Maroon Off Shoulder Midi Dress;Draft;Dresses;Femella;Adults-Women;Women;;;;Fashion;;2017;XS,FEMLDRSS00003404,S,FEMLDRSS00003405,M,FEMLDRSS00003406,L,FEMLDRSS00003407,XL,FEMLDRSS00003408,XXL,FEMLDRSS00003409;1490.00;;;;;;;;zerotype;;Spring;;No
1860742;DS-2018018-1349-NAV-Navy-1860742;Navy Wrap Maxi Dress;Draft;Dresses;Femella;Adults-Women;Women;;;;Fashion;;2017;XS,FEMLDRSS00003398,S,FEMLDRSS00003399,M,FEMLDRSS00003400,L,FEMLDRSS00003401,XL,FEMLDRSS00003402,XXL,FEMLDRSS00003403;1890.00;;;;;;;;zerotype;;Spring;;No
1860739;DS-2601561-1594-WHT-White-1860739;White Printed Tier Shirt Dress;Draft;Dresses;Femella;Adults-Women;Women;;;;Fashion;;2017;XS,FEMLDRSS00003392,S,FEMLDRSS00003393,M,FEMLDRSS00003394,L,FEMLDRSS00003395,XL,FEMLDRSS00003396,XXL,FEMLDRSS00003397;1690.00;;;;;;;;zerotype;;Spring;;No
1860737;DS-1916915-1217-NAV-Navy-1860737;Navy Halter Neck Ruffle Maxi Dress;Draft;Dresses;Femella;Adults-Women;Women;;;;Fashion;;2017;XS,FEMLDRSS00003386,S,FEMLDRSS00003387,M,FEMLDRSS00003388,L,FEMLDRSS00003389,XL,FEMLDRSS00003390,XXL,FEMLDRSS00003391;1750.00;;;;;;;;zerotype;;Spring;;No
1860734;DS-1599584-1653-NAV-Navy-1860734;Navy Off Shoulder Maxi Dress;Draft;Dresses;Femella;Adults-Women;Women;;;;Fashion;;2017;XS,FEMLDRSS00003380,S,FEMLDRSS00003381,M,FEMLDRSS00003382,L,FEMLDRSS00003383,XL,FEMLDRSS00003384,XXL,FEMLDRSS00003385;1850.00;;;;;;;;zerotype;;Spring;;No
1860732;DS-2422391-1627-ECR-Ecru-1860732;Ecru Ruffle layered Midi Dress;Draft;Dresses;Femella;Adults-Women;Women;;;;Fashion;;2017;XS,FEMLDRSS00003374,S,FEMLDRSS00003375,M,FEMLDRSS00003376,L,FEMLDRSS00003377,XL,FEMLDRSS00003378,XXL,FEMLDRSS00003379;1550.00;;;;;;;;zerotype;;Spring;;No
1860730;DS-2445398-1631-BLK-Black-1860730;Black Asymmetric Midi Dress;Draft;Dresses;Femella;Adults-Women;Women;;;;Fashion;;2017;XS,FEMLDRSS00003368,S,FEMLDRSS00003369,M,FEMLDRSS00003370,L,FEMLDRSS00003371,XL,FEMLDRSS00003372,XXL,FEMLDRSS00003373;1490.00;;;;;;;;zerotype;;Spring;;No
1860727;DS-2601566-1611-BLK-Black-1860727;Black Fit And Flare Midi Dress;Draft;Dresses;Femella;Adults-Women;Women;;;;Fashion;;2017;XS,FEMLDRSS00003362,S,FEMLDRSS00003363,M,FEMLDRSS00003364,L,FEMLDRSS00003365,XL,FEMLDRSS00003366,XXL,FEMLDRSS00003367;1690.00;;;;;;;;zerotype;;Spring;;No
1860724;DS-2578573-1564-PEA-Peach-1860724;Peach Sequins Top;Draft;Tops;Femella;Adults-Women;Women;;;;Fashion;;2017;XS,FEMLTOPS00002822,S,FEMLTOPS00002823,M,FEMLTOPS00002824,L,FEMLTOPS00002825,XL,FEMLTOPS00002826,XXL,FEMLTOPS00002827;1590.00;;;;;;;;zerotype;;Spring;;No
1860722;DS-2626578-1678-PEA-Peach-1860722;Peach Ruffle Tier Sleeveless Top;Draft;Tops;Femella;Adults-Women;Women;;;;Fashion;;2017;XS,FEMLTOPS00002816,S,FEMLTOPS00002817,M,FEMLTOPS00002818,L,FEMLTOPS00002819,XL,FEMLTOPS00002820,XXL,FEMLTOPS00002821;1090.00;;;;;;;;zerotype;;Spring;;No
1860719;DS-350322-1675-WHT-White-1860719;White Cold Shoulder Top;Draft;Tops;Femella;Adults-Women;Women;;;;Fashion;;2017;XS,FEMLTOPS00002810,S,FEMLTOPS00002811,M,FEMLTOPS00002812,L,FEMLTOPS00002813,XL,FEMLTOPS00002814,XXL,FEMLTOPS00002815;790.00;;;;;;;;zerotype;;Spring;;No
1860717;DS-2304258-1676-WHT-White-1860717;White Double layered Top;Draft;Tops;Femella;Adults-Women;Women;;;;Fashion;;2017;XS,FEMLTOPS00002804,S,FEMLTOPS00002805,M,FEMLTOPS00002806,L,FEMLTOPS00002807,XL,FEMLTOPS00002808,XXL,FEMLTOPS00002809;1250.00;;;;;;;;zerotype;;Spring;;No
1860716;DS-1880831-1673-ORG-Orange-1860716;Orange Side Knot Jersey Top;Draft;Tops;Femella;Adults-Women;Women;;;;Fashion;;2017;XS,FEMLTOPS00002798,S,FEMLTOPS00002799,M,FEMLTOPS00002800,L,FEMLTOPS00002801,XL,FEMLTOPS00002802,XXL,FEMLTOPS00002803;890.00;;;;;;;;zerotype;;Spring;;No
1860715;DS-1854809-1637-BLK-Black-1860715;Black Embroidered Lace Detail Top;Draft;Tops;Femella;Adults-Women;Women;;;;Fashion;;2017;XS,FEMLTOPS00002792,S,FEMLTOPS00002793,M,FEMLTOPS00002794,L,FEMLTOPS00002795,XL,FEMLTOPS00002796,XXL,FEMLTOPS00002797;990.00;;;;;;;;zerotype;;Spring;;No
1860714;DS-2422403-1551-ROP-Rose-1860714;Rose Pink Ruffle Jersey Top;Draft;Tops;Femella;Adults-Women;Women;;;;Fashion;;2017;XS,FEMLTOPS00002786,S,FEMLTOPS00002787,M,FEMLTOPS00002788,L,FEMLTOPS00002789,XL,FEMLTOPS00002790,XXL,FEMLTOPS00002791;850.00;;;;;;;;zerotype;;Spring;;No
1860713;DS-628628-1596-MST-Mustard-1860713;Mustard Shoulder Tie Up Top;Draft;Tops;Femella;Adults-Women;Women;;;;Fashion;;2017;XS,FEMLTOPS00002780,S,FEMLTOPS00002781,M,FEMLTOPS00002782,L,FEMLTOPS00002783,XL,FEMLTOPS00002784,XXL,FEMLTOPS00002785;850.00;;;;;;;;zerotype;;Spring;;No
1811852;DS-2543493-1530-WHT-White-1811852;White Off Shoulder Tier Dress;Draft;Dresses;Femella;Adults-Women;Women;;;;Fashion;Casual;2017;XS,FEMLDRSS00003266,S,FEMLDRSS00003267,M,FEMLDRSS00003268,L,FEMLDRSS00003269,XL,FEMLDRSS00003270,XXL,FEMLDRSS00003271;1190.00;;;;;;;;zerotype;;Spring;;No
