Style ID;Vendor Article Number;Vendor Article Name;Active Status;Article type;Brand;Age Group;Gender;Base Colour;Colour1;Colour2;Fashion Type;Usage;Year;Size - SKU code pair;MRP;Style Description;Style Note;Materials and Care Description;Size and Fit Description;Size Chart Path;Product Display Name;Tags;Product Type;Classification Brand;Season;Comments;Upload Images
2216119;PTF51708872-Khaki-2216119;PTF51708872;Draft;Trousers;Peter England;Adults-Men;Men;Khaki;;;Fashion;;2017;32,PTENTRSR00008285,38,PTENTRSR00008286,36,PTENTRSR00008287,30,PTENTRSR00008288,42,PTENTRSR00008289,34,PTENTRSR00008290,28,PTENTRSR00008291,40,PTENTRSR00008292;1399.00;;;<p>100% Cotton</p>;;;NA;;zerotype;;Winter;;No
2216118;PTF51708861-Navy Blue-2216118;PTF51708861;Draft;Trousers;Peter England;Adults-Men;Men;Navy Blue;;;Fashion;;2017;28,PTENTRSR00008276,42,PTENTRSR00008277,32,PTENTRSR00008278,36,PTENTRSR00008279,38,PTENTRSR00008280,40,PTENTRSR00008281,44,PTENTRSR00008282,30,PTENTRSR00008283,34,PTENTRSR00008284;1199.00;;;<p>Poly Viscose Blend</p>;;;NA;;zerotype;;Winter;;No
2216117;PSF51706282-Blue-2216117;PSF51706282;Draft;Shirts;Peter England;Adults-Men;Men;Blue;;;Fashion;;2017;44,PTENSHRT00024257,39,PTENSHRT00024258,40,PTENSHRT00024259,38,PTENSHRT00024260,42,PTENSHRT00024261,46,PTENSHRT00024262,36,PTENSHRT00024263;1399.00;;;<p>100% Cotton</p>;;;NA;;zerotype;;Winter;;No
2216116;PSF51706466-Maroon-2216116;PSF51706466;Draft;Shirts;Peter England;Adults-Men;Men;Maroon;;;Fashion;;2017;40,PTENSHRT00024250,44,PTENSHRT00024251,46,PTENSHRT00024252,39,PTENSHRT00024253,36,PTENSHRT00024254,42,PTENSHRT00024255,38,PTENSHRT00024256;1499.00;;;<p>100% Premium Cotton</p>;;;NA;;zerotype;;Winter;;No
2216115;PSF51706452-Blue-2216115;PSF51706452;Draft;Shirts;Peter England;Adults-Men;Men;Blue;;;Fashion;;2017;36,PTENSHRT00024243,46,PTENSHRT00024244,44,PTENSHRT00024245,42,PTENSHRT00024246,38,PTENSHRT00024247,40,PTENSHRT00024248,39,PTENSHRT00024249;1549.00;;;<p>100% Cotton</p>;;;NA;;zerotype;;Winter;;No
2216114;PSF51705848-Blue-2216114;PSF51705848;Draft;Shirts;Peter England;Adults-Men;Men;Blue;;;Fashion;;2017;40,PTENSHRT00024236,38,PTENSHRT00024237,42,PTENSHRT00024238,46,PTENSHRT00024239,44,PTENSHRT00024240,36,PTENSHRT00024241,39,PTENSHRT00024242;999.00;;;<p>100% Cotton</p>;;;NA;;zerotype;;Winter;;No
2216113;PSF51706324-White-2216113;PSF51706324;Draft;Shirts;Peter England;Adults-Men;Men;White;;;Fashion;;2017;46,PTENSHRT00024229,44,PTENSHRT00024230,42,PTENSHRT00024231,40,PTENSHRT00024232,38,PTENSHRT00024233,36,PTENSHRT00024234,39,PTENSHRT00024235;1499.00;;;<p>100% Cotton</p>;;;NA;;zerotype;;Winter;;No
2216112;PSF51706469-Purple-2216112;PSF51706469;Draft;Shirts;Peter England;Adults-Men;Men;Purple;;;Fashion;;2017;40,PTENSHRT00024222,38,PTENSHRT00024223,39,PTENSHRT00024224,36,PTENSHRT00024225,46,PTENSHRT00024226,44,PTENSHRT00024227,42,PTENSHRT00024228;1499.00;;;<p>100% Premium Cotton</p>;;;NA;;zerotype;;Winter;;No
2216111;PSF51704756-Green-2216111;PSF51704756;Draft;Shirts;Peter England;Adults-Men;Men;Green;;;Fashion;;2017;36,PTENSHRT00024215,46,PTENSHRT00024216,39,PTENSHRT00024217,44,PTENSHRT00024218,38,PTENSHRT00024219,42,PTENSHRT00024220,40,PTENSHRT00024221;999.00;;;<p>55% Polyester and 45% Cotton</p>;;;NA;;zerotype;;Winter;;No
2216110;PSH51706645-Blue-2216110;PSH51706645;Draft;Shirts;Peter England;Adults-Men;Men;Blue;;;Fashion;;2017;44,PTENSHRT00024208,40,PTENSHRT00024209,38,PTENSHRT00024210,46,PTENSHRT00024211,42,PTENSHRT00024212,36,PTENSHRT00024213,39,PTENSHRT00024214;999.00;;;<p>50% Cotton and 50% Polyester</p>;;;NA;;zerotype;;Winter;;No
2216109;PSF51705694-Blue-2216109;PSF51705694;Draft;Shirts;Peter England;Adults-Men;Men;Blue;;;Fashion;;2017;36,PTENSHRT00024201,46,PTENSHRT00024202,44,PTENSHRT00024203,42,PTENSHRT00024204,40,PTENSHRT00024205,39,PTENSHRT00024206,38,PTENSHRT00024207;799.00;;;<p>55% Polyester and 45% Cotton</p>;;;NA;;zerotype;;Winter;;No
2216108;PSF51704767-Blue-2216108;PSF51704767;Draft;Shirts;Peter England;Adults-Men;Men;Blue;;;Fashion;;2017;44,PTENSHRT00024194,46,PTENSHRT00024195,40,PTENSHRT00024196,38,PTENSHRT00024197,42,PTENSHRT00024198,36,PTENSHRT00024199,39,PTENSHRT00024200;999.00;;;<p>55% Polyester and 45% Cotton</p>;;;NA;;zerotype;;Winter;;No
2216107;PSH51706207-Green-2216107;PSH51706207;Draft;Shirts;Peter England;Adults-Men;Men;Green;;;Fashion;;2017;40,PTENSHRT00024187,46,PTENSHRT00024188,38,PTENSHRT00024189,42,PTENSHRT00024190,44,PTENSHRT00024191,36,PTENSHRT00024192,39,PTENSHRT00024193;1499.00;;;<p>100% Premium Cotton</p>;;;NA;;zerotype;;Winter;;No
2216104;PSF51706351-Blue-2216104;PSF51706351;Draft;Shirts;Peter England;Adults-Men;Men;Blue;;;Fashion;;2017;39,PTENSHRT00024180,44,PTENSHRT00024181,38,PTENSHRT00024182,40,PTENSHRT00024183,42,PTENSHRT00024184,46,PTENSHRT00024185,36,PTENSHRT00024186;1499.00;;;<p>100% Cotton</p>;;;NA;;zerotype;;Winter;;No
2216100;PSF51704691-Blue-2216100;PSF51704691;Draft;Shirts;Peter England;Adults-Men;Men;Blue;;;Fashion;;2017;40,PTENSHRT00024173,39,PTENSHRT00024174,36,PTENSHRT00024175,46,PTENSHRT00024176,44,PTENSHRT00024177,42,PTENSHRT00024178,38,PTENSHRT00024179;1249.00;;;<p>50% Cotton and 50% Polyester</p>;;;NA;;zerotype;;Winter;;No
2216095;PSF51704604-Blue-2216095;PSF51704604;Draft;Shirts;Peter England;Adults-Men;Men;Blue;;;Fashion;;2017;39,PTENSHRT00024166,36,PTENSHRT00024167,42,PTENSHRT00024168,38,PTENSHRT00024169,40,PTENSHRT00024170,44,PTENSHRT00024171,46,PTENSHRT00024172;999.00;;;<p>100% Premium Cotton</p>;;;NA;;zerotype;;Winter;;No
2216091;PSF51706329-Maroon-2216091;PSF51706329;Draft;Shirts;Peter England;Adults-Men;Men;Maroon;;;Fashion;;2017;44,PTENSHRT00024159,42,PTENSHRT00024160,39,PTENSHRT00024161,36,PTENSHRT00024162,46,PTENSHRT00024163,40,PTENSHRT00024164,38,PTENSHRT00024165;1349.00;;;<p>55% Polyester and 45% Cotton</p>;;;NA;;zerotype;;Winter;;No
2216087;PSF51705858-Blue-2216087;PSF51705858;Draft;Shirts;Peter England;Adults-Men;Men;Blue;;;Fashion;;2017;38,PTENSHRT00024152,46,PTENSHRT00024153,44,PTENSHRT00024154,42,PTENSHRT00024155,40,PTENSHRT00024156,39,PTENSHRT00024157,36,PTENSHRT00024158;999.00;;;<p>100% Cotton</p>;;;NA;;zerotype;;Winter;;No
2216083;PSF51706319-Blue-2216083;PSF51706319;Draft;Shirts;Peter England;Adults-Men;Men;Blue;;;Fashion;;2017;46,PTENSHRT00024145,39,PTENSHRT00024146,42,PTENSHRT00024147,38,PTENSHRT00024148,36,PTENSHRT00024149,44,PTENSHRT00024150,40,PTENSHRT00024151;1599.00;;;<p>100% Cotton</p>;;;NA;;zerotype;;Winter;;No
2216079;PSF51706344-Blue-2216079;PSF51706344;Draft;Shirts;Peter England;Adults-Men;Men;Blue;;;Fashion;;2017;40,PTENSHRT00024138,38,PTENSHRT00024139,39,PTENSHRT00024140,36,PTENSHRT00024141,46,PTENSHRT00024142,44,PTENSHRT00024143,42,PTENSHRT00024144;1399.00;;;<p>100% Cotton</p>;;;NA;;zerotype;;Winter;;No
2216075;PSF51704695-Blue-2216075;PSF51704695;Draft;Shirts;Peter England;Adults-Men;Men;Blue;;;Fashion;;2017;39,PTENSHRT00024131,36,PTENSHRT00024132,46,PTENSHRT00024133,44,PTENSHRT00024134,42,PTENSHRT00024135,40,PTENSHRT00024136,38,PTENSHRT00024137;1249.00;;;<p>55% Polyester and 45% Cotton</p>;;;NA;;zerotype;;Winter;;No
2216072;PSF51706820-Khaki-2216072;PSF51706820;Draft;Shirts;Peter England;Adults-Men;Men;Khaki;;;Fashion;;2017;39,PTENSHRT00024124,46,PTENSHRT00024125,40,PTENSHRT00024126,38,PTENSHRT00024127,44,PTENSHRT00024128,36,PTENSHRT00024129,42,PTENSHRT00024130;1499.00;;;<p>100% Cotton</p>;;;NA;;zerotype;;Winter;;No
2216071;PSF51706652-White-2216071;PSF51706652;Draft;Shirts;Peter England;Adults-Men;Men;White;;;Fashion;;2017;44,PTENSHRT00024117,38,PTENSHRT00024118,36,PTENSHRT00024119,40,PTENSHRT00024120,42,PTENSHRT00024121,46,PTENSHRT00024122,39,PTENSHRT00024123;999.00;;;<p>50% Cotton and 50% Polyester</p>;;;NA;;zerotype;;Winter;;No
2216070;PSF51704699-Blue-2216070;PSF51704699;Draft;Shirts;Peter England;Adults-Men;Men;Blue;;;Fashion;;2017;36,PTENSHRT00024110,38,PTENSHRT00024111,40,PTENSHRT00024112,42,PTENSHRT00024113,46,PTENSHRT00024114,39,PTENSHRT00024115,44,PTENSHRT00024116;1199.00;;;<p>55% Polyester and 45% Cotton</p>;;;NA;;zerotype;;Winter;;No
2216069;PSF51706580-Blue-2216069;PSF51706580;Draft;Shirts;Peter England;Adults-Men;Men;Blue;;;Fashion;;2017;44,PTENSHRT00024103,42,PTENSHRT00024104,40,PTENSHRT00024105,38,PTENSHRT00024106,39,PTENSHRT00024107,36,PTENSHRT00024108,46,PTENSHRT00024109;1549.00;;;<p>65% Cotton, 30% Polyester and 5% Spandex</p>;;;NA;;zerotype;;Winter;;No
2216068;PSF51704701-Blue-2216068;PSF51704701;Draft;Shirts;Peter England;Adults-Men;Men;Blue;;;Fashion;;2017;42,PTENSHRT00024096,38,PTENSHRT00024097,36,PTENSHRT00024098,39,PTENSHRT00024099,46,PTENSHRT00024100,44,PTENSHRT00024101,40,PTENSHRT00024102;1449.00;;;<p>100% Cotton</p>;;;NA;;zerotype;;Winter;;No
2216067;PSF51704481-Red-2216067;PSF51704481;Draft;Shirts;Peter England;Adults-Men;Men;Red;;;Fashion;;2017;36,PTENSHRT00024089,44,PTENSHRT00024090,40,PTENSHRT00024091,39,PTENSHRT00024092,46,PTENSHRT00024093,42,PTENSHRT00024094,38,PTENSHRT00024095;1549.00;;;<p>100% Cotton</p>;;;NA;;zerotype;;Winter;;No
2216066;PSF51704591-Green-2216066;PSF51704591;Draft;Shirts;Peter England;Adults-Men;Men;Green;;;Fashion;;2017;36,PTENSHRT00024082,46,PTENSHRT00024083,44,PTENSHRT00024084,42,PTENSHRT00024085,40,PTENSHRT00024086,38,PTENSHRT00024087,39,PTENSHRT00024088;899.00;;;<p>70% Polyester and 30% Cotton</p>;;;NA;;zerotype;;Winter;;No
2216065;PSH51706204-White-2216065;PSH51706204;Draft;Shirts;Peter England;Adults-Men;Men;White;;;Fashion;;2017;46,PTENSHRT00024075,44,PTENSHRT00024076,39,PTENSHRT00024077,36,PTENSHRT00024078,42,PTENSHRT00024079,40,PTENSHRT00024080,38,PTENSHRT00024081;1599.00;;;<p>100% Premium Cotton</p>;;;NA;;zerotype;;Winter;;No
2216064;PSH51706212-Green-2216064;PSH51706212;Draft;Shirts;Peter England;Adults-Men;Men;Green;;;Fashion;;2017;39,PTENSHRT00024068,46,PTENSHRT00024069,42,PTENSHRT00024070,36,PTENSHRT00024071,44,PTENSHRT00024072,40,PTENSHRT00024073,38,PTENSHRT00024074;1499.00;;;<p>100% Premium Cotton</p>;;;NA;;zerotype;;Winter;;No
2216063;PSH51704510-Blue-2216063;PSH51704510;Draft;Shirts;Peter England;Adults-Men;Men;Blue;;;Fashion;;2017;39,PTENSHRT00024061,46,PTENSHRT00024062,44,PTENSHRT00024063,38,PTENSHRT00024064,36,PTENSHRT00024065,40,PTENSHRT00024066,42,PTENSHRT00024067;1399.00;;;<p>100% Cotton</p>;;;NA;;zerotype;;Winter;;No
2216062;PSF51704642-Purple-2216062;PSF51704642;Draft;Shirts;Peter England;Adults-Men;Men;Purple;;;Fashion;;2017;40,PTENSHRT00024054,38,PTENSHRT00024055,39,PTENSHRT00024056,36,PTENSHRT00024057,46,PTENSHRT00024058,44,PTENSHRT00024059,42,PTENSHRT00024060;1349.00;;;<p>55% Polyester and 45% Cotton</p>;;;NA;;zerotype;;Winter;;No
2216061;PSH31701654-Navy Blue-2216061;PSH31701654;Draft;Shirts;Peter England;Adults-Men;Men;Navy Blue;;;Fashion;;2017;42,PTENSHRT00024047,40,PTENSHRT00024048,38,PTENSHRT00024049,39,PTENSHRT00024050,36,PTENSHRT00024051,46,PTENSHRT00024052,44,PTENSHRT00024053;999.00;;;<p>55% Polyester and 45% Cotton</p>;;;NA;;zerotype;;Winter;;No
2216060;PSF51706283-Blue-2216060;PSF51706283;Draft;Shirts;Peter England;Adults-Men;Men;Blue;;;Fashion;;2017;42,PTENSHRT00024040,40,PTENSHRT00024041,38,PTENSHRT00024042,39,PTENSHRT00024043,36,PTENSHRT00024044,46,PTENSHRT00024045,44,PTENSHRT00024046;1249.00;;;<p>55% Polyester and 45% Cotton</p>;;;NA;;zerotype;;Winter;;No
2216059;PSF51705876-Blue-2216059;PSF51705876;Draft;Shirts;Peter England;Adults-Men;Men;Blue;;;Fashion;;2017;39,PTENSHRT00024033,36,PTENSHRT00024034,46,PTENSHRT00024035,38,PTENSHRT00024036,40,PTENSHRT00024037,42,PTENSHRT00024038,44,PTENSHRT00024039;899.00;;;<p>55% Polyester and 45% Cotton</p>;;;NA;;zerotype;;Winter;;No
2216058;PSF51704711-Blue-2216058;PSF51704711;Draft;Shirts;Peter England;Adults-Men;Men;Blue;;;Fashion;;2017;36,PTENSHRT00024026,46,PTENSHRT00024027,44,PTENSHRT00024028,38,PTENSHRT00024029,39,PTENSHRT00024030,42,PTENSHRT00024031,40,PTENSHRT00024032;999.00;;;<p>55% Polyester and 45% Cotton</p>;;;NA;;zerotype;;Winter;;No
2216057;PSF51706305-Blue-2216057;PSF51706305;Draft;Shirts;Peter England;Adults-Men;Men;Blue;;;Fashion;;2017;36,PTENSHRT00024019,39,PTENSHRT00024020,40,PTENSHRT00024021,46,PTENSHRT00024022,38,PTENSHRT00024023,44,PTENSHRT00024024,42,PTENSHRT00024025;1349.00;;;<p>55% Polyester and 45% Cotton</p>;;;NA;;zerotype;;Winter;;No
2216056;PSF51704698-Blue-2216056;PSF51704698;Draft;Shirts;Peter England;Adults-Men;Men;Blue;;;Fashion;;2017;40,PTENSHRT00024012,36,PTENSHRT00024013,42,PTENSHRT00024014,44,PTENSHRT00024015,39,PTENSHRT00024016,46,PTENSHRT00024017,38,PTENSHRT00024018;1249.00;;;<p>55% Polyester and 45% Cotton</p>;;;NA;;zerotype;;Winter;;No
2216055;PSF51704399-Blue-2216055;PSF51704399;Draft;Shirts;Peter England;Adults-Men;Men;Blue;;;Fashion;;2017;39,PTENSHRT00024005,36,PTENSHRT00024006,46,PTENSHRT00024007,44,PTENSHRT00024008,42,PTENSHRT00024009,38,PTENSHRT00024010,40,PTENSHRT00024011;999.00;;;<p>50% Cotton and 50% Polyester</p>;;;NA;;zerotype;;Winter;;No
2216054;PSF31701965-White-2216054;PSF31701965;Draft;Shirts;Peter England;Adults-Men;Men;White;;;Fashion;;2017;38,PTENSHRT00023998,40,PTENSHRT00023999,36,PTENSHRT00024000,44,PTENSHRT00024001,42,PTENSHRT00024002,46,PTENSHRT00024003,39,PTENSHRT00024004;1299.00;;;<p>100% Cotton</p>;;;NA;;zerotype;;Winter;;No
2216053;PSF51706327-Maroon-2216053;PSF51706327;Draft;Shirts;Peter England;Adults-Men;Men;Maroon;;;Fashion;;2017;46,PTENSHRT00023991,44,PTENSHRT00023992,39,PTENSHRT00023993,36,PTENSHRT00023994,42,PTENSHRT00023995,40,PTENSHRT00023996,38,PTENSHRT00023997;1599.00;;;<p>100% Cotton</p>;;;NA;;zerotype;;Winter;;No
2216052;PSF51704710-White-2216052;PSF51704710;Draft;Shirts;Peter England;Adults-Men;Men;White;;;Fashion;;2017;42,PTENSHRT00023984,40,PTENSHRT00023985,38,PTENSHRT00023986,39,PTENSHRT00023987,36,PTENSHRT00023988,46,PTENSHRT00023989,44,PTENSHRT00023990;999.00;;;<p>55% Polyester and 45% Cotton</p>;;;NA;;zerotype;;Winter;;No
2216051;PSH51706644-Navy Blue-2216051;PSH51706644;Draft;Shirts;Peter England;Adults-Men;Men;Navy Blue;;;Fashion;;2017;44,PTENSHRT00023977,46,PTENSHRT00023978,36,PTENSHRT00023979,39,PTENSHRT00023980,40,PTENSHRT00023981,42,PTENSHRT00023982,38,PTENSHRT00023983;999.00;;;<p>50% Cotton and 50% Polyester</p>;;;NA;;zerotype;;Winter;;No
2216050;PSF51704707-Blue-2216050;PSF51704707;Draft;Shirts;Peter England;Adults-Men;Men;Blue;;;Fashion;;2017;42,PTENSHRT00023970,39,PTENSHRT00023971,36,PTENSHRT00023972,40,PTENSHRT00023973,38,PTENSHRT00023974,46,PTENSHRT00023975,44,PTENSHRT00023976;1349.00;;;<p>55% Polyester and 45% Cotton</p>;;;NA;;zerotype;;Winter;;No
2216049;PSH51706640-Blue-2216049;PSH51706640;Draft;Shirts;Peter England;Adults-Men;Men;Blue;;;Fashion;;2017;38,PTENSHRT00023963,46,PTENSHRT00023964,39,PTENSHRT00023965,42,PTENSHRT00023966,40,PTENSHRT00023967,44,PTENSHRT00023968,36,PTENSHRT00023969;999.00;;;<p>60% Polyester and 40% Cotton</p>;;;NA;;zerotype;;Winter;;No
2216048;PSF51704709-Blue-2216048;PSF51704709;Draft;Shirts;Peter England;Adults-Men;Men;Blue;;;Fashion;;2017;46,PTENSHRT00023960,36,PTENSHRT00023961,38,PTENSHRT00023962;1499.00;;;<p>100% Cotton</p>;;;NA;;zerotype;;Winter;;No
2216047;PSF51704712-Purple-2216047;PSF51704712;Draft;Shirts;Peter England;Adults-Men;Men;Purple;;;Fashion;;2017;39,PTENSHRT00023953,44,PTENSHRT00023954,40,PTENSHRT00023955,36,PTENSHRT00023956,46,PTENSHRT00023957,42,PTENSHRT00023958,38,PTENSHRT00023959;999.00;;;<p>55% Polyester and 45% Cotton</p>;;;NA;;zerotype;;Winter;;No
2216046;PSF51704377-Navy Blue-2216046;PSF51704377;Draft;Shirts;Peter England;Adults-Men;Men;Navy Blue;;;Fashion;;2017;42,PTENSHRT00023946,39,PTENSHRT00023947,38,PTENSHRT00023948,36,PTENSHRT00023949,46,PTENSHRT00023950,44,PTENSHRT00023951,40,PTENSHRT00023952;1199.00;;;<p>100% Cotton</p>;;;NA;;zerotype;;Winter;;No
2216045;PSF51706348-Blue-2216045;PSF51706348;Draft;Shirts;Peter England;Adults-Men;Men;Blue;;;Fashion;;2017;36,PTENSHRT00023939,42,PTENSHRT00023940,38,PTENSHRT00023941,40,PTENSHRT00023942,44,PTENSHRT00023943,46,PTENSHRT00023944,39,PTENSHRT00023945;1349.00;;;<p>55% Polyester and 45% Cotton</p>;;;NA;;zerotype;;Winter;;No
2216044;PSF51704766-Blue-2216044;PSF51704766;Draft;Shirts;Peter England;Adults-Men;Men;Blue;;;Fashion;;2017;39,PTENSHRT00023932,36,PTENSHRT00023933,46,PTENSHRT00023934,44,PTENSHRT00023935,42,PTENSHRT00023936,38,PTENSHRT00023937,40,PTENSHRT00023938;999.00;;;<p>55% Polyester and 45% Cotton</p>;;;NA;;zerotype;;Winter;;No
2216043;PSH51706122-Maroon-2216043;PSH51706122;Draft;Shirts;Peter England;Adults-Men;Men;Maroon;;;Fashion;;2017;42,PTENSHRT00023925,38,PTENSHRT00023926,39,PTENSHRT00023927,36,PTENSHRT00023928,46,PTENSHRT00023929,44,PTENSHRT00023930,40,PTENSHRT00023931;1499.00;;;<p>100% Cotton</p>;;;NA;;zerotype;;Winter;;No
2216042;PSF51706331-Maroon-2216042;PSF51706331;Draft;Shirts;Peter England;Adults-Men;Men;Maroon;;;Fashion;;2017;39,PTENSHRT00023918,36,PTENSHRT00023919,46,PTENSHRT00023920,40,PTENSHRT00023921,38,PTENSHRT00023922,44,PTENSHRT00023923,42,PTENSHRT00023924;1449.00;;;<p>55% Polyester and 45% Cotton</p>;;;NA;;zerotype;;Winter;;No
2216041;PSF51704759-Blue-2216041;PSF51704759;Draft;Shirts;Peter England;Adults-Men;Men;Blue;;;Fashion;;2017;42,PTENSHRT00023911,44,PTENSHRT00023912,46,PTENSHRT00023913,39,PTENSHRT00023914,36,PTENSHRT00023915,38,PTENSHRT00023916,40,PTENSHRT00023917;999.00;;;<p>55% Polyester and 45% Cotton</p>;;;NA;;zerotype;;Winter;;No
2216040;PSF51706583-White-2216040;PSF51706583;Draft;Shirts;Peter England;Adults-Men;Men;White;;;Fashion;;2017;39,PTENSHRT00023904,42,PTENSHRT00023905,40,PTENSHRT00023906,38,PTENSHRT00023907,36,PTENSHRT00023908,46,PTENSHRT00023909,44,PTENSHRT00023910;1549.00;;;<p>65% Cotton, 30% Polyester and 5% Spandex</p>;;;NA;;zerotype;;Winter;;No
2216039;PSF51704826-Navy Blue-2216039;PSF51704826;Draft;Shirts;Peter England;Adults-Men;Men;Navy Blue;;;Fashion;;2017;46,PTENSHRT00023897,39,PTENSHRT00023898,36,PTENSHRT00023899,44,PTENSHRT00023900,38,PTENSHRT00023901,40,PTENSHRT00023902,42,PTENSHRT00023903;1599.00;;;<p>100% Cotton</p>;;;NA;;zerotype;;Winter;;No
2216038;PSF51704741-Blue-2216038;PSF51704741;Draft;Shirts;Peter England;Adults-Men;Men;Blue;;;Fashion;;2017;39,PTENSHRT00023890,38,PTENSHRT00023891,40,PTENSHRT00023892,42,PTENSHRT00023893,44,PTENSHRT00023894,46,PTENSHRT00023895,36,PTENSHRT00023896;999.00;;;<p>55% Polyester and 45% Cotton</p>;;;NA;;zerotype;;Winter;;No
2216037;PSF51705692-Blue-2216037;PSF51705692;Draft;Shirts;Peter England;Adults-Men;Men;Blue;;;Fashion;;2017;38,PTENSHRT00023883,39,PTENSHRT00023884,36,PTENSHRT00023885,46,PTENSHRT00023886,44,PTENSHRT00023887,42,PTENSHRT00023888,40,PTENSHRT00023889;799.00;;;<p>55% Polyester and 45% Cotton</p>;;;NA;;zerotype;;Winter;;No
2216036;PSH51706652-White-2216036;PSH51706652;Draft;Shirts;Peter England;Adults-Men;Men;White;;;Fashion;;2017;40,PTENSHRT00023876,42,PTENSHRT00023877,46,PTENSHRT00023878,36,PTENSHRT00023879,44,PTENSHRT00023880,38,PTENSHRT00023881,39,PTENSHRT00023882;999.00;;;<p>50% Cotton and 50% Polyester</p>;;;NA;;zerotype;;Winter;;No
2216035;PSF31701790-Black-2216035;PSF31701790;Draft;Shirts;Peter England;Adults-Men;Men;Black;;;Fashion;;2017;46,PTENSHRT00023869,42,PTENSHRT00023870,38,PTENSHRT00023871,44,PTENSHRT00023872,40,PTENSHRT00023873,39,PTENSHRT00023874,36,PTENSHRT00023875;1299.00;;;<p>50% Cotton and 50% Polyester</p>;;;NA;;zerotype;;Winter;;No
2216034;PSF51705868-Peach-2216034;PSF51705868;Draft;Shirts;Peter England;Adults-Men;Men;Peach;;;Fashion;;2017;42,PTENSHRT00023862,40,PTENSHRT00023863,38,PTENSHRT00023864,44,PTENSHRT00023865,39,PTENSHRT00023866,36,PTENSHRT00023867,46,PTENSHRT00023868;799.00;;;<p>65% Polyester and 35% Cotton</p>;;;NA;;zerotype;;Winter;;No
2216033;PSF51706263-Purple-2216033;PSF51706263;Draft;Shirts;Peter England;Adults-Men;Men;Purple;;;Fashion;;2017;46,PTENSHRT00023855,39,PTENSHRT00023856,36,PTENSHRT00023857,44,PTENSHRT00023858,42,PTENSHRT00023859,40,PTENSHRT00023860,38,PTENSHRT00023861;1449.00;;;<p>55% Polyester and 45% Cotton</p>;;;NA;;zerotype;;Winter;;No
2216032;PSF51704657-Blue-2216032;PSF51704657;Draft;Shirts;Peter England;Adults-Men;Men;Blue;;;Fashion;;2017;39,PTENSHRT00023848,36,PTENSHRT00023849,42,PTENSHRT00023850,40,PTENSHRT00023851,38,PTENSHRT00023852,46,PTENSHRT00023853,44,PTENSHRT00023854;1199.00;;;<p>55% Polyester and 45% Cotton</p>;;;NA;;zerotype;;Winter;;No
2216031;PSF51705864-Blue-2216031;PSF51705864;Draft;Shirts;Peter England;Adults-Men;Men;Blue;;;Fashion;;2017;44,PTENSHRT00023841,46,PTENSHRT00023842,36,PTENSHRT00023843,39,PTENSHRT00023844,42,PTENSHRT00023845,40,PTENSHRT00023846,38,PTENSHRT00023847;1199.00;;;<p>100% Cotton</p>;;;NA;;zerotype;;Winter;;No
2216030;PSF51704706-Blue-2216030;PSF51704706;Draft;Shirts;Peter England;Adults-Men;Men;Blue;;;Fashion;;2017;46,PTENSHRT00023828,44,PTENSHRT00023829,42,PTENSHRT00023830,39,PTENSHRT00023831,36,PTENSHRT00023832,38,PTENSHRT00023833,40,PTENSHRT00023834;1449.00;;;<p>55% Polyester and 45% Cotton</p>;;;NA;;zerotype;;Winter;;No
2216029;PSH51704617-Blue-2216029;PSH51704617;Draft;Shirts;Peter England;Adults-Men;Men;Blue;;;Fashion;;2017;39,PTENSHRT00023821,36,PTENSHRT00023822,46,PTENSHRT00023823,44,PTENSHRT00023824,42,PTENSHRT00023825,40,PTENSHRT00023826,38,PTENSHRT00023827;799.00;;;<p>55% Polyester and 45% Cotton</p>;;;NA;;zerotype;;Winter;;No
2216028;PSF51705685-White-2216028;PSF51705685;Draft;Shirts;Peter England;Adults-Men;Men;White;;;Fashion;;2017;39,PTENSHRT00023814,36,PTENSHRT00023815,46,PTENSHRT00023816,44,PTENSHRT00023817,42,PTENSHRT00023818,40,PTENSHRT00023819,38,PTENSHRT00023820;799.00;;;<p>55% Polyester and 45% Cotton</p>;;;NA;;zerotype;;Winter;;No
2216027;PSH51704471-Blue-2216027;PSH51704471;Draft;Shirts;Peter England;Adults-Men;Men;Blue;;;Fashion;;2017;39,PTENSHRT00023807,36,PTENSHRT00023808,46,PTENSHRT00023809,42,PTENSHRT00023810,38,PTENSHRT00023811,44,PTENSHRT00023812,40,PTENSHRT00023813;1499.00;;;<p>100% Cotton</p>;;;NA;;zerotype;;Winter;;No
2216026;PSF51705661-Black-2216026;PSF51705661;Draft;Shirts;Peter England;Adults-Men;Men;Black;;;Fashion;;2017;39,PTENSHRT00023800,36,PTENSHRT00023801,46,PTENSHRT00023802,44,PTENSHRT00023803,42,PTENSHRT00023804,40,PTENSHRT00023805,38,PTENSHRT00023806;1399.00;;;<p>100% Premium Cotton</p>;;;NA;;zerotype;;Winter;;No
2216025;PSF51704717-Green-2216025;PSF51704717;Draft;Shirts;Peter England;Adults-Men;Men;Green;;;Fashion;;2017;36,PTENSHRT00023793,46,PTENSHRT00023794,39,PTENSHRT00023795,44,PTENSHRT00023796,42,PTENSHRT00023797,38,PTENSHRT00023798,40,PTENSHRT00023799;999.00;;;<p>60% Polyester and 40% Cotton</p>;;;NA;;zerotype;;Winter;;No
2216024;PSF51706503-Black-2216024;PSF51706503;Draft;Shirts;Peter England;Adults-Men;Men;Black;;;Fashion;;2017;36,PTENSHRT00023786,39,PTENSHRT00023787,46,PTENSHRT00023788,44,PTENSHRT00023789,42,PTENSHRT00023790,40,PTENSHRT00023791,38,PTENSHRT00023792;1499.00;;;<p>100% Cotton</p>;;;NA;;zerotype;;Winter;;No
2216023;PSF51704729-Blue-2216023;PSF51704729;Draft;Shirts;Peter England;Adults-Men;Men;Blue;;;Fashion;;2017;46,PTENSHRT00023779,44,PTENSHRT00023780,42,PTENSHRT00023781,40,PTENSHRT00023782,38,PTENSHRT00023783,39,PTENSHRT00023784,36,PTENSHRT00023785;1099.00;;;<p>55% Polyester and 45% Cotton</p>;;;NA;;zerotype;;Winter;;No
2216022;PSH51704509-Blue-2216022;PSH51704509;Draft;Shirts;Peter England;Adults-Men;Men;Blue;;;Fashion;;2017;38,PTENSHRT00023772,39,PTENSHRT00023773,44,PTENSHRT00023774,42,PTENSHRT00023775,40,PTENSHRT00023776,36,PTENSHRT00023777,46,PTENSHRT00023778;1399.00;;;<p>100% Cotton</p>;;;NA;;zerotype;;Winter;;No
2216021;PSF51704811-Pink-2216021;PSF51704811;Draft;Shirts;Peter England;Adults-Men;Men;Pink;;;Fashion;;2017;46,PTENSHRT00023765,44,PTENSHRT00023766,39,PTENSHRT00023767,42,PTENSHRT00023768,40,PTENSHRT00023769,38,PTENSHRT00023770,36,PTENSHRT00023771;1649.00;;;<p>100% Cotton</p>;;;NA;;zerotype;;Winter;;No
2216020;PSF51704367-Blue-2216020;PSF51704367;Draft;Shirts;Peter England;Adults-Men;Men;Blue;;;Fashion;;2017;39,PTENSHRT00023758,36,PTENSHRT00023759,46,PTENSHRT00023760,44,PTENSHRT00023761,42,PTENSHRT00023762,40,PTENSHRT00023763,38,PTENSHRT00023764;1249.00;;;<p>55% Polyester and 45% Cotton</p>;;;NA;;zerotype;;Winter;;No
2216019;PSF51704697-Blue-2216019;PSF51704697;Draft;Shirts;Peter England;Adults-Men;Men;Blue;;;Fashion;;2017;40,PTENSHRT00023751,42,PTENSHRT00023752,46,PTENSHRT00023753,36,PTENSHRT00023754,44,PTENSHRT00023755,38,PTENSHRT00023756,39,PTENSHRT00023757;1349.00;;;<p>55% Polyester and 45% Cotton</p>;;;NA;;zerotype;;Winter;;No
2216018;PSF51704719-Red-2216018;PSF51704719;Draft;Shirts;Peter England;Adults-Men;Men;Red;;;Fashion;;2017;42,PTENSHRT00023744,39,PTENSHRT00023745,40,PTENSHRT00023746,36,PTENSHRT00023747,46,PTENSHRT00023748,38,PTENSHRT00023749,44,PTENSHRT00023750;999.00;;;<p>60% Polyester and 40% Cotton</p>;;;NA;;zerotype;;Winter;;No
2216017;PSF31701796-Navy Blue-2216017;PSF31701796;Draft;Shirts;Peter England;Adults-Men;Men;Navy Blue;;;Fashion;;2017;36,PTENSHRT00023737,38,PTENSHRT00023738,40,PTENSHRT00023739,42,PTENSHRT00023740,46,PTENSHRT00023741,39,PTENSHRT00023742,44,PTENSHRT00023743;1199.00;;;<p>55% Cotton and 45% Polyester</p>;;;NA;;zerotype;;Winter;;No
2216016;PSF51704667-Blue-2216016;PSF51704667;Draft;Shirts;Peter England;Adults-Men;Men;Blue;;;Fashion;;2017;38,PTENSHRT00023730,39,PTENSHRT00023731,36,PTENSHRT00023732,46,PTENSHRT00023733,44,PTENSHRT00023734,42,PTENSHRT00023735,40,PTENSHRT00023736;1249.00;;;<p>55% Polyester and 45% Cotton</p>;;;NA;;zerotype;;Winter;;No
2216015;PSF51706502-Navy Blue-2216015;PSF51706502;Draft;Shirts;Peter England;Adults-Men;Men;Navy Blue;;;Fashion;;2017;36,PTENSHRT00023723,46,PTENSHRT00023724,40,PTENSHRT00023725,44,PTENSHRT00023726,39,PTENSHRT00023727,42,PTENSHRT00023728,38,PTENSHRT00023729;1499.00;;;<p>100% Cotton</p>;;;NA;;zerotype;;Winter;;No
2216014;PSF51704740-Blue-2216014;PSF51704740;Draft;Shirts;Peter England;Adults-Men;Men;Blue;;;Fashion;;2017;40,PTENSHRT00023716,39,PTENSHRT00023717,38,PTENSHRT00023718,36,PTENSHRT00023719,46,PTENSHRT00023720,44,PTENSHRT00023721,42,PTENSHRT00023722;999.00;;;<p>55% Polyester and 45% Cotton</p>;;;NA;;zerotype;;Winter;;No
2216013;PSF51706281-Blue-2216013;PSF51706281;Draft;Shirts;Peter England;Adults-Men;Men;Blue;;;Fashion;;2017;46,PTENSHRT00023709,39,PTENSHRT00023710,44,PTENSHRT00023711,42,PTENSHRT00023712,40,PTENSHRT00023713,38,PTENSHRT00023714,36,PTENSHRT00023715;1349.00;;;<p>55% Polyester and 45% Cotton</p>;;;NA;;zerotype;;Winter;;No
2216012;PSF51706253-Purple-2216012;PSF51706253;Draft;Shirts;Peter England;Adults-Men;Men;Purple;;;Fashion;;2017;36,PTENSHRT00023702,46,PTENSHRT00023703,42,PTENSHRT00023704,38,PTENSHRT00023705,39,PTENSHRT00023706,44,PTENSHRT00023707,40,PTENSHRT00023708;1349.00;;;<p>55% Polyester and 45% Cotton</p>;;;NA;;zerotype;;Winter;;No
2216011;PSF51704718-Purple-2216011;PSF51704718;Draft;Shirts;Peter England;Adults-Men;Men;Purple;;;Fashion;;2017;40,PTENSHRT00023695,36,PTENSHRT00023696,44,PTENSHRT00023697,42,PTENSHRT00023698,38,PTENSHRT00023699,39,PTENSHRT00023700,46,PTENSHRT00023701;999.00;;;<p>60% Polyester and 40% Cotton</p>;;;NA;;zerotype;;Winter;;No
2216010;PSF51705850-Blue-2216010;PSF51705850;Draft;Shirts;Peter England;Adults-Men;Men;Blue;;;Fashion;;2017;44,PTENSHRT00023688,36,PTENSHRT00023689,46,PTENSHRT00023690,42,PTENSHRT00023691,40,PTENSHRT00023692,39,PTENSHRT00023693,38,PTENSHRT00023694;999.00;;;<p>100% Cotton</p>;;;NA;;zerotype;;Winter;;No
2216009;PSF51706306-Maroon-2216009;PSF51706306;Draft;Shirts;Peter England;Adults-Men;Men;Maroon;;;Fashion;;2017;39,PTENSHRT00023681,46,PTENSHRT00023682,44,PTENSHRT00023683,40,PTENSHRT00023684,38,PTENSHRT00023685,42,PTENSHRT00023686,36,PTENSHRT00023687;1349.00;;;<p>55% Polyester and 45% Cotton</p>;;;NA;;zerotype;;Winter;;No
2216008;PSF51704638-Purple-2216008;PSF51704638;Draft;Shirts;Peter England;Adults-Men;Men;Purple;;;Fashion;;2017;36,PTENSHRT00023674,40,PTENSHRT00023675,39,PTENSHRT00023676,38,PTENSHRT00023677,46,PTENSHRT00023678,44,PTENSHRT00023679,42,PTENSHRT00023680;1349.00;;;<p>55% Polyester and 45% Cotton</p>;;;NA;;zerotype;;Winter;;No
2216007;PSF51704431-Blue-2216007;PSF51704431;Draft;Shirts;Peter England;Adults-Men;Men;Blue;;;Fashion;;2017;44,PTENSHRT00023667,36,PTENSHRT00023668,46,PTENSHRT00023669,42,PTENSHRT00023670,40,PTENSHRT00023671,38,PTENSHRT00023672,39,PTENSHRT00023673;999.00;;;<p>50% Cotton and 50% Polyester</p>;;;NA;;zerotype;;Winter;;No
2216006;PSF51708257-Navy Blue-2216006;PSF51708257;Draft;Shirts;Peter England;Adults-Men;Men;Navy Blue;;;Fashion;;2017;36,PTENSHRT00023660,39,PTENSHRT00023661,44,PTENSHRT00023662,40,PTENSHRT00023663,46,PTENSHRT00023664,42,PTENSHRT00023665,38,PTENSHRT00023666;1499.00;;;<p>100% Cotton</p>;;;NA;;zerotype;;Winter;;No
2216004;PSF51705834-White-2216004;PSF51705834;Draft;Shirts;Peter England;Adults-Men;Men;White;;;Fashion;;2017;46,PTENSHRT00023653,39,PTENSHRT00023654,44,PTENSHRT00023655,42,PTENSHRT00023656,40,PTENSHRT00023657,38,PTENSHRT00023658,36,PTENSHRT00023659;1299.00;;;<p>100% Cotton</p>;;;NA;;zerotype;;Winter;;No
2216003;PSF51706310-Maroon-2216003;PSF51706310;Draft;Shirts;Peter England;Adults-Men;Men;Maroon;;;Fashion;;2017;44,PTENSHRT00023646,38,PTENSHRT00023647,46,PTENSHRT00023648,36,PTENSHRT00023649,42,PTENSHRT00023650,39,PTENSHRT00023651,40,PTENSHRT00023652;1499.00;;;<p>100% Cotton</p>;;;NA;;zerotype;;Winter;;No
2216002;PSF51704716-Peach-2216002;PSF51704716;Draft;Shirts;Peter England;Adults-Men;Men;Peach;;;Fashion;;2017;44,PTENSHRT00023639,36,PTENSHRT00023640,38,PTENSHRT00023641,42,PTENSHRT00023642,40,PTENSHRT00023643,46,PTENSHRT00023644,39,PTENSHRT00023645;999.00;;;<p>60% Polyester and 40% Cotton</p>;;;NA;;zerotype;;Winter;;No
2216001;PSF51706261-Purple-2216001;PSF51706261;Draft;Shirts;Peter England;Adults-Men;Men;Purple;;;Fashion;;2017;36,PTENSHRT00023632,46,PTENSHRT00023633,39,PTENSHRT00023634,44,PTENSHRT00023635,42,PTENSHRT00023636,40,PTENSHRT00023637,38,PTENSHRT00023638;1549.00;;;<p>100% Cotton</p>;;;NA;;zerotype;;Winter;;No
2216000;PSF51704615-Brown-2216000;PSF51704615;Draft;Shirts;Peter England;Adults-Men;Men;Brown;;;Fashion;;2017;39,PTENSHRT00023625,36,PTENSHRT00023626,46,PTENSHRT00023627,44,PTENSHRT00023628,42,PTENSHRT00023629,40,PTENSHRT00023630,38,PTENSHRT00023631;799.00;;;<p>55% Polyester and 45% Cotton</p>;;;NA;;zerotype;;Winter;;No
2215999;PSF51706391-Blue-2215999;PSF51706391;Draft;Shirts;Peter England;Adults-Men;Men;Blue;;;Fashion;;2017;39,PTENSHRT00023618,44,PTENSHRT00023619,40,PTENSHRT00023620,38,PTENSHRT00023621,42,PTENSHRT00023622,46,PTENSHRT00023623,36,PTENSHRT00023624;1799.00;;;<p>100% Lyocell</p>;;;NA;;zerotype;;Winter;;No
2215998;PSF51704689-White-2215998;PSF51704689;Draft;Shirts;Peter England;Adults-Men;Men;White;;;Fashion;;2017;44,PTENSHRT00023611,42,PTENSHRT00023612,40,PTENSHRT00023613,38,PTENSHRT00023614,39,PTENSHRT00023615,36,PTENSHRT00023616,46,PTENSHRT00023617;1199.00;;;<p>55% Polyester and 45% Cotton</p>;;;NA;;zerotype;;Winter;;No
2215997;PSF51704656-White-2215997;PSF51704656;Draft;Shirts;Peter England;Adults-Men;Men;White;;;Fashion;;2017;46,PTENSHRT00023604,44,PTENSHRT00023605,42,PTENSHRT00023606,40,PTENSHRT00023607,38,PTENSHRT00023608,39,PTENSHRT00023609,36,PTENSHRT00023610;1299.00;;;<p>55% Polyester and 45% Cotton</p>;;;NA;;zerotype;;Winter;;No
2215996;PSF51704708-Navy Blue-2215996;PSF51704708;Draft;Shirts;Peter England;Adults-Men;Men;Navy Blue;;;Fashion;;2017;44,PTENSHRT00023597,38,PTENSHRT00023598,39,PTENSHRT00023599,36,PTENSHRT00023600,46,PTENSHRT00023601,42,PTENSHRT00023602,40,PTENSHRT00023603;1199.00;;;<p>55% Polyester and 45% Cotton</p>;;;NA;;zerotype;;Winter;;No
2215995;PSH51704508-Blue-2215995;PSH51704508;Draft;Shirts;Peter England;Adults-Men;Men;Blue;;;Fashion;;2017;39,PTENSHRT00023590,36,PTENSHRT00023591,46,PTENSHRT00023592,44,PTENSHRT00023593,42,PTENSHRT00023594,40,PTENSHRT00023595,38,PTENSHRT00023596;1399.00;;;<p>100% Premium Cotton</p>;;;NA;;zerotype;;Winter;;No
2215994;PSF51704738-Blue-2215994;PSF51704738;Draft;Shirts;Peter England;Adults-Men;Men;Blue;;;Fashion;;2017;38,PTENSHRT00023583,44,PTENSHRT00023584,42,PTENSHRT00023585,40,PTENSHRT00023586,39,PTENSHRT00023587,36,PTENSHRT00023588,46,PTENSHRT00023589;999.00;;;<p>55% Polyester and 45% Cotton</p>;;;NA;;zerotype;;Winter;;No
2215993;PSF51704639-Purple-2215993;PSF51704639;Draft;Shirts;Peter England;Adults-Men;Men;Purple;;;Fashion;;2017;44,PTENSHRT00023576,42,PTENSHRT00023577,40,PTENSHRT00023578,39,PTENSHRT00023579,36,PTENSHRT00023580,38,PTENSHRT00023581,46,PTENSHRT00023582;1349.00;;;<p>55% Polyester and 45% Cotton</p>;;;NA;;zerotype;;Winter;;No
2215992;PSF51704419-Blue-2215992;PSF51704419;Draft;Shirts;Peter England;Adults-Men;Men;Blue;;;Fashion;;2017;39,PTENSHRT00023569,36,PTENSHRT00023570,46,PTENSHRT00023571,44,PTENSHRT00023572,42,PTENSHRT00023573,40,PTENSHRT00023574,38,PTENSHRT00023575;999.00;;;<p>55% Polyester and 45% Cotton</p>;;;NA;;zerotype;;Winter;;No
2215990;PSF51706277-Blue-2215990;PSF51706277;Draft;Shirts;Peter England;Adults-Men;Men;Blue;;;Fashion;;2017;38,PTENSHRT00023562,40,PTENSHRT00023563,42,PTENSHRT00023564,39,PTENSHRT00023565,44,PTENSHRT00023566,46,PTENSHRT00023567,36,PTENSHRT00023568;1249.00;;;<p>55% Polyester and 45% Cotton</p>;;;NA;;zerotype;;Winter;;No
2215988;PSF51704838-Purple-2215988;PSF51704838;Draft;Shirts;Peter England;Adults-Men;Men;Purple;;;Fashion;;2017;46,PTENSHRT00023555,39,PTENSHRT00023556,44,PTENSHRT00023557,36,PTENSHRT00023558,38,PTENSHRT00023559,40,PTENSHRT00023560,42,PTENSHRT00023561;1499.00;;;<p>100% Premium Cotton</p>;;;NA;;zerotype;;Winter;;No
2215987;PSF51705955-Blue-2215987;PSF51705955;Draft;Shirts;Peter England;Adults-Men;Men;Blue;;;Fashion;;2017;39,PTENSHRT00023548,36,PTENSHRT00023549,42,PTENSHRT00023550,40,PTENSHRT00023551,38,PTENSHRT00023552,46,PTENSHRT00023553,44,PTENSHRT00023554;1899.00;;;<p>100% Cotton</p>;;;NA;;zerotype;;Winter;;No
2145070;PSF51706312-Maroon-2145070;PSF51706312;Active;Shirts;Peter England;Adults-Men;Men;Maroon;Blue;;Fashion;Smart Casual;2017;40.0,PTENSHRT00023089,42.0,PTENSHRT00023090,44.0,PTENSHRT00023091,39.0,PTENSHRT00023092,36,PTENSHRT00023835,38,PTENSHRT00023836,46,PTENSHRT00023837;1499.00;<a href='/red?src=pd' class='seolink'>Red</a> and <a href='/blue?src=pd' class='seolink'>blue</a> checked smart <a href='/casual?src=pd' class='seolink'>casual</a> shirt, has a <a href='/spread?src=pd' class='seolink'>spread</a> collar, button placket, 1 pocket, long sleeves, straight hem;You'll love the design of this high-fashion Peter England shirt.  This red piece can be worn with dark wash jeans and Chelsea boots when you're going to an after-work happy hour.;100% cotton<br />Machine-wash;Slim fit<br />The model (height 6') is wearing a size 40;;Peter England Men Maroon & Blue Slim Fit Checked Smart Casual Shirt;Peter England,menscasualfest-nov,express-delivery-17,try-and-buy-17;zerotype;;Winter;try-and-buy-17;No
2104335;PSF51704617-Blue-2104335;PSF51704617;Active;Shirts;Peter England;Adults-Men;Men;Blue;Mustard;;Fashion;Formal;2017;39.0,PTENSHRT00022936,40.0,PTENSHRT00022937,42.0,PTENSHRT00022938,44.0,PTENSHRT00022939,36,PTENSHRT00023838,46,PTENSHRT00023839,38,PTENSHRT00023840;799.00;Navy and mustard yellow checked formal shirt, has a cutaway collar, button placket, 1 pocket, long sleeves, curved hem;Add this trendy shirt from Peter England to your formal staples.  Wear this navy blue shirt with a pair of tailored trousers and Derby shoes for the perfect work look.;55% polyester, 45% cotton<br />Machine-wash cold;Nuvo regular fit<br />The model (height 6') is wearing a size 40;;Peter England Men Navy Blue & Mustard Yellow Nuvo Fit Checked Formal Shirt;Peter England,mitm-formals-oct,menscasualfest-nov,express-delivery-17,try-and-buy-17;zerotype;;Winter;try-and-buy-17;No
1990787;PKW51709681-Maroon-1990787;PKW51709681;Active;Tshirts;Peter England;Adults-Men;Men;Maroon;;;Fashion;Casual;2017;XXL,PTENTSHT00007506,XL,PTENTSHT00007507,L,PTENTSHT00007508,M,PTENTSHT00007509,S,PTENTSHT00007510,3XL,PTENTSHT00008105;749.00;Burgundy striped polo T-shirt, has a polo collar, short sleeves, 1 pocket;This tee made by Peter England will definitely become a go-to item in your wardrobe.  You can pair this burgundy piece with slick black jeans and Chelsea boots for a fashionable weekend outfit.;100% cotton <br />Machine-wash;The model (height 6') is wearing a size M;;Peter England Men Burgundy Striped Polo Collar T-shirt;Peter England,PE-AW17,PE-AW-17,new-arrivals-formal-23082017,mitm-formals-aug,Mitm-aw-aug,mantastic-styles-august1,aw17-formal-men,aw17-new-season,mitm-new-season,formalwear-min30sale,menscasualfest-oct,ftod-sep30,mitm-formals-oct,menscasualfest-nov,express-delivery-17,try-and-buy-17;zerotype;;Winter;try-and-buy-17;No
1990785;PKW51709670-Green-1990785;PKW51709670;Active;Tshirts;Peter England;Adults-Men;Men;Green;;;Fashion;Casual;2017;XXL,PTENTSHT00007496,XL,PTENTSHT00007497,L,PTENTSHT00007498,M,PTENTSHT00007499,S,PTENTSHT00007500,3XL,PTENTSHT00008106;799.00;Sea green striped  T-shirt, has a polo collar, short sleeves;Make a name for yourself this season with this cool T-shirt from Peter England.  When you're attending a concert, rock this blue piece with dark denims, leather boots, and a classic leather jacket.;52% polyester, 48% cotton <br /> Machine-wash;The model (height 6') is wearing a size M;;Peter England Men Sea Green Striped Polo T-shirt;MARC0413,Peter England,PE-AW17,PE-AW-17,new-arrivals-formal-23082017,mitm-formals-aug,Mitm-aw-aug,mantastic-styles-august1,aw17-formal-men,aw17-say-yes-high-tops,aw17-new-season,mitm-new-season,mitm-formal-sep,mitm-college-sep,formalwear-min30sale,menscasualfest-oct,ftod-sep30,mitm-formals-oct,menscasualfest-nov,express-delivery-17,try-and-buy-17;zerotype;;Winter;try-and-buy-17;No
1990774;PKP51707720-White-1990774;PKP51707720;Active;Tshirts;Peter England;Adults-Men;Men;White;Pink;;Fashion;Casual;2017;XXL,PTENTSHT00007443,XL,PTENTSHT00007444,L,PTENTSHT00007445,M,PTENTSHT00007446,S,PTENTSHT00007447,3XL,PTENTSHT00008103;799.00;Grey and pink striped T-shirt, has a polo collar, short sleeves;Stand out this season when you go with the sleek style of a Peter England T-shirt. When you're out running errands, you'll look your best when you combine this grey piece with your favourite pair of sunglasses and trainer shoes.;Cotton and polyester blend <br />Machine-wash;The model (height 6') is wearing a size M;;Peter England Men Grey & Pink Striped Polo T-Shirt;Peter England,PE-AW17,PE-AW-17,new-arrivals-formal-23082017,mitm-formals-aug,Mitm-aw-aug,mantastic-styles-august1,aw17-formal-men,aw17-new-season,mitm-new-season,mitm-formal-sep,mitm-college-sep,formalwear-min30sale,menscasualfest-oct,ftod-sep30,mitm-formals-oct,menscasualfest-nov,express-delivery-17,try-and-buy-17;zerotype;;Winter;try-and-buy-17;No
1990766;PKP51707698-Blue-1990766;PKP51707698;Active;Tshirts;Peter England;Adults-Men;Men;Blue;Pink;;Fashion;Casual;2017;XXL,PTENTSHT00007409,XL,PTENTSHT00007410,L,PTENTSHT00007411,M,PTENTSHT00007412,S,PTENTSHT00007413,3XL,PTENTSHT00008104;899.00;Blue and pink striped T-shirt, has a polo collar, short sleeves;Elevate the look of your wardrobe with a few more basic tees like this high-end cotton one from Peter England. When you're going for a stroll in the park, put this blue piece with a pair of chinos and sneakers to feel both comfortable and stylish outside.;Cotton and polyester blend <br /> Machine-wash;The model (height 6') is wearing a size M;;Peter England Men Blue & Pink Striped Polo T-Shirt;Peter England,PE-AW17,PE-AW-17,new-arrivals-formal-23082017,mitm-formals-aug,Mitm-aw-aug,mantastic-styles-august1,welcome-to-myntra-sep2017,aw17-formal-men,aw17-new-season,mitm-new-season,mitm-formal-sep,mitm-college-sep,formalwear-min30sale,menscasualfest-oct,ftod-sep30,mitm-formals-oct,menscasualfest-nov,express-delivery-17,try-and-buy-17;zerotype;;Winter;try-and-buy-17;No
