Style ID;Vendor Article Number;Vendor Article Name;Active Status;Article type;Brand;Age Group;Gender;Base Colour;Colour1;Colour2;Fashion Type;Usage;Year;Size - SKU code pair;MRP;Style Description;Style Note;Materials and Care Description;Size and Fit Description;Size Chart Path;Product Display Name;Tags;Product Type;Classification Brand;Season;Comments;Upload Images
3081586;HGLPFIMSTBLK00121-Black-3081586;PHOTO FRAME SO3 KEY TO LIFE BLK;Draft;Photo Frames;Athome by Nilkamal;Adults-Unisex;Unisex;Black;Grey;Blue;Fashion;;2018;Frame 1 : Height : 33 cm x Width : 16 x Length : 2.3 cm,AHBNPTFM00000060;1995.00;;;<p>Plastic</p>;<p>Frame 1 : Height : 33 cm x Width : 16 x Length : 2.3 cm  Frame 2 : Height : 33 cm x Width : 16 x Length : 2.3 cm</p>;;NA;;zerotype;;Spring;;No
3081581;HGLPFIMSTBLK00122-Black-3081581;PHOTO FRAME SO3 ME & YOU BLK;Draft;Photo Frames;Athome by Nilkamal;Adults-Unisex;Unisex;Black;Grey;Red;Fashion;;2018;Frame 1 : Height : 33 cm x Width : 16 x Length : 2.3 cm,AHBNPTFM00000059;1995.00;;;<p>Plastic</p>;<p>Frame 1 : Height : 33 cm x Width : 16 x Length : 2.3 cm  Frame 2 : Height : 33 cm x Width : 16 x Length : 2.3 cm</p>;;NA;;zerotype;;Spring;;No
3081573;HGLPGIMSTGRY00346-Green-3081573;PIC FRM SO3 TROPICAL COLLAGE GRN;Draft;Wall Art;Athome by Nilkamal;Adults-Unisex;Unisex;Green;Cream;;Fashion;;2018;Frame 1 : Height : 30 cm x Width : 30 cm x Length : 25 cm,AHBNATWK00000072;1599.00;;;<p>MDF & Canvas</p>;;;NA;;zerotype;;Spring;;No
3081570;HGLPGIMSTBRZ00319-Brown-3081570;ALUMINIUM PNTG SO2 AUTUMN FALL;Draft;Wall Art;Athome by Nilkamal;Adults-Unisex;Unisex;Brown;Multi;;Fashion;;2018;Frame 1 : Height : 93.5 cm x Width : 33 cm x Length : 3.5 cm,AHBNATWK00000071;3999.00;;;<p>MDF & Canvas</p>;<p>Frame 1 : Height : 93.5 cm x Width : 33 cm x Length : 3.5 cm   Frame 2 : Height : 93.5 cm x Width : 33 cm x Length : 3.5 cm</p>;;NA;;zerotype;;Spring;;No
3081566;HGLPGIMSTSGR00313-Blue-3081566;PNTG SO2 VILLAGERS SGRN FRM;Draft;Wall Art;Athome by Nilkamal;Adults-Unisex;Unisex;Blue;Sea Green;;Fashion;;2018;Frame 1 : Height : 75 cm x Width : 55 cm x Length : 3.7 cm,AHBNATWK00000070;3999.00;;;<p>MDF & Canvas</p>;<p>Frame 1 : Height : 75 cm x Width : 55 cm x Length : 3.7 cm   Frame 2 : Height : 75 cm x Width : 55 cm x Length : 3.7 cm</p>;;NA;;zerotype;;Spring;;No
3081564;HGLPGIMSTGRY00338-Grey-3081564;PIC FRM SO2 BUDDHA METAL GRY;Draft;Wall Art;Athome by Nilkamal;Adults-Unisex;Unisex;Grey;;;Fashion;;2018;Frame 1 : Height : 40 cm x Width : 40 cm x Length : 2.5 cm,AHBNATWK00000069;2499.00;;;<p>MDF & Canvas</p>;<p>Frame 1 : Height : 40 cm x Width : 40 cm x Length : 2.5 cm   Frame 2 : Height : 40 cm x Width : 40 cm x Length : 2.5 cm</p>;;NA;;zerotype;;Spring;;No
3081561;HGLPGIMSTORG00344-Orange-3081561;PIC FRM SO3 BUDDHA COLLAGE ORG;Draft;Wall Art;Athome by Nilkamal;Adults-Unisex;Unisex;Orange;;;Fashion;;2018;Frame 1 : Height : 30 cm x Width : 30 cm x Length : 25 cm,AHBNATWK00000068;1599.00;;;<p>MDF & Canvas</p>;;;NA;;zerotype;;Spring;;No
3081557;HGLPGIMSTGRN00310-Green-3081557;PNTG SO2 BUTTERFLY GRN;Draft;Wall Art;Athome by Nilkamal;Adults-Unisex;Unisex;Green;Blue;;Fashion;;2018;Frame 1 : Height : 75 cm x Width : 55 cm x Length : 3.7 cm,AHBNATWK00000067;3999.00;;;<p>MDF & Canvas</p>;<p>Frame 1 : Height : 75 cm x Width : 55 cm x Length : 3.7 cm   Frame 2 : Height : 75 cm x Width : 55 cm x Length : 3.7 cm</p>;;NA;;zerotype;;Spring;;No
3081552;HGLPGIMSTRYL00347-Black-3081552;PIC FRM SO3 MOON COLLAGE RED;Draft;Wall Art;Athome by Nilkamal;Adults-Unisex;Unisex;Black;Yellow;Red;Fashion;;2018;Frame 1 : Height : 30 cm x Width : 30 cm x Length : 25 cm,AHBNATWK00000066;999.00;;;<p>MDF & Canvas</p>;;;NA;;zerotype;;Spring;;No
