Style ID;Vendor Article Number;Vendor Article Name;Active Status;Article type;Brand;Age Group;Gender;Base Colour;Colour1;Colour2;Fashion Type;Usage;Year;Size - SKU code pair;MRP;Style Description;Style Note;Materials and Care Description;Size and Fit Description;Size Chart Path;Product Display Name;Tags;Product Type;Classification Brand;Season;Comments;Upload Images
2235439;2916-Grey-2235439;Hubberholme Shorts;Draft;Shorts;Hubberholme;Adults-Men;Men;Grey;;;Fashion;;2017;30,HBHMSHOR00000557,32,HBHMSHOR00000558,34,HBHMSHOR00000559,36,HBHMSHOR00000560,38,HBHMSHOR00000561,40,HBHMSHOR00000562,42,HBHMSHOR00000563;2499.00;;;<p>100% Cotton</p>;;;;;zerotype;;Fall;;No
2235438;2915-Grey-2235438;Hubberholme Shorts;Draft;Shorts;Hubberholme;Adults-Men;Men;Grey;;;Fashion;;2017;30,HBHMSHOR00000550,32,HBHMSHOR00000551,34,HBHMSHOR00000552,36,HBHMSHOR00000553,38,HBHMSHOR00000554,40,HBHMSHOR00000555,42,HBHMSHOR00000556;2499.00;;;<p>100% Cotton</p>;;;;;zerotype;;Fall;;No
2235437;2914-Grey-2235437;Hubberholme Shorts;Draft;Shorts;Hubberholme;Adults-Men;Men;Grey;;;Fashion;;2017;30,HBHMSHOR00000543,32,HBHMSHOR00000544,34,HBHMSHOR00000545,36,HBHMSHOR00000546,38,HBHMSHOR00000547,40,HBHMSHOR00000548,42,HBHMSHOR00000549;2499.00;;;<p>100% Cotton</p>;;;;;zerotype;;Fall;;No
2235435;2913-Grey-2235435;Hubberholme Shorts;Draft;Shorts;Hubberholme;Adults-Men;Men;Grey;;;Fashion;;2017;30,HBHMSHOR00000536,32,HBHMSHOR00000537,34,HBHMSHOR00000538,36,HBHMSHOR00000539,38,HBHMSHOR00000540,40,HBHMSHOR00000541,42,HBHMSHOR00000542;2499.00;;;<p>100% Cotton</p>;;;;;zerotype;;Fall;;No
2235434;2912-Black-2235434;Hubberholme Shorts;Draft;Shorts;Hubberholme;Adults-Men;Men;Black;;;Fashion;;2017;30,HBHMSHOR00000529,32,HBHMSHOR00000530,34,HBHMSHOR00000531,36,HBHMSHOR00000532,38,HBHMSHOR00000533,40,HBHMSHOR00000534,42,HBHMSHOR00000535;2499.00;;;<p>100% Cotton</p>;;;;;zerotype;;Fall;;No
2235432;2911-Black-2235432;Hubberholme Shorts;Draft;Shorts;Hubberholme;Adults-Men;Men;Black;;;Fashion;;2017;30,HBHMSHOR00000522,32,HBHMSHOR00000523,34,HBHMSHOR00000524,36,HBHMSHOR00000525,38,HBHMSHOR00000526,40,HBHMSHOR00000527,42,HBHMSHOR00000528;2499.00;;;<p>100% Cotton</p>;;;;;zerotype;;Fall;;No
2235430;2910-Black-2235430;Hubberholme Shorts;Draft;Shorts;Hubberholme;Adults-Men;Men;Black;;;Fashion;;2017;30,HBHMSHOR00000515,32,HBHMSHOR00000516,34,HBHMSHOR00000517,36,HBHMSHOR00000518,38,HBHMSHOR00000519,40,HBHMSHOR00000520,42,HBHMSHOR00000521;2499.00;;;<p>100% Cotton</p>;;;;;zerotype;;Fall;;No
2235428;2909-Black-2235428;Hubberholme Shorts;Draft;Shorts;Hubberholme;Adults-Men;Men;Black;;;Fashion;;2017;30,HBHMSHOR00000508,32,HBHMSHOR00000509,34,HBHMSHOR00000510,36,HBHMSHOR00000511,38,HBHMSHOR00000512,40,HBHMSHOR00000513,42,HBHMSHOR00000514;2499.00;;;<p>100% Cotton</p>;;;;;zerotype;;Fall;;No
2235426;2908-Charcoal-2235426;Hubberholme Shorts;Draft;Shorts;Hubberholme;Adults-Men;Men;Charcoal;;;Fashion;;2017;30,HBHMSHOR00000501,32,HBHMSHOR00000502,34,HBHMSHOR00000503,36,HBHMSHOR00000504,38,HBHMSHOR00000505,40,HBHMSHOR00000506,42,HBHMSHOR00000507;2499.00;;;<p>100% Cotton</p>;;;;;zerotype;;Fall;;No
2235425;2907-Charcoal-2235425;Hubberholme Shorts;Draft;Shorts;Hubberholme;Adults-Men;Men;Charcoal;;;Fashion;;2017;30,HBHMSHOR00000494,32,HBHMSHOR00000495,34,HBHMSHOR00000496,36,HBHMSHOR00000497,38,HBHMSHOR00000498,40,HBHMSHOR00000499,42,HBHMSHOR00000500;2499.00;;;<p>100% Cotton</p>;;;;;zerotype;;Fall;;No
2235424;2906-Charcoal-2235424;Hubberholme Shorts;Draft;Shorts;Hubberholme;Adults-Men;Men;Charcoal;;;Fashion;;2017;30,HBHMSHOR00000487,32,HBHMSHOR00000488,34,HBHMSHOR00000489,36,HBHMSHOR00000490,38,HBHMSHOR00000491,40,HBHMSHOR00000492,42,HBHMSHOR00000493;2499.00;;;<p>100% Cotton</p>;;;;;zerotype;;Fall;;No
2235423;2905-Charcoal-2235423;Hubberholme Shorts;Draft;Shorts;Hubberholme;Adults-Men;Men;Charcoal;;;Fashion;;2017;30,HBHMSHOR00000480,32,HBHMSHOR00000481,34,HBHMSHOR00000482,36,HBHMSHOR00000483,38,HBHMSHOR00000484,40,HBHMSHOR00000485,42,HBHMSHOR00000486;2499.00;;;<p>100% Cotton</p>;;;;;zerotype;;Fall;;No
2235422;2904-Navy Blue-2235422;Hubberholme Shorts;Draft;Shorts;Hubberholme;Adults-Men;Men;Navy Blue;;;Fashion;;2017;30,HBHMSHOR00000473,32,HBHMSHOR00000474,34,HBHMSHOR00000475,36,HBHMSHOR00000476,38,HBHMSHOR00000477,40,HBHMSHOR00000478,42,HBHMSHOR00000479;2499.00;;;<p>100% Cotton</p>;;;;;zerotype;;Fall;;No
2235421;2903-Navy Blue-2235421;Hubberholme Shorts;Draft;Shorts;Hubberholme;Adults-Men;Men;Navy Blue;;;Fashion;;2017;30,HBHMSHOR00000466,32,HBHMSHOR00000467,34,HBHMSHOR00000468,36,HBHMSHOR00000469,38,HBHMSHOR00000470,40,HBHMSHOR00000471,42,HBHMSHOR00000472;2499.00;;;<p>100% Cotton</p>;;;;;zerotype;;Fall;;No
2235420;2902-Navy Blue-2235420;Hubberholme Shorts;Draft;Shorts;Hubberholme;Adults-Men;Men;Navy Blue;;;Fashion;;2017;30,HBHMSHOR00000459,32,HBHMSHOR00000460,34,HBHMSHOR00000461,36,HBHMSHOR00000462,38,HBHMSHOR00000463,40,HBHMSHOR00000464,42,HBHMSHOR00000465;2499.00;;;<p>100% Cotton</p>;;;;;zerotype;;Fall;;No
2235419;2901-Navy Blue-2235419;Hubberholme Shorts;Draft;Shorts;Hubberholme;Adults-Men;Men;Navy Blue;;;Fashion;;2017;30,HBHMSHOR00000452,32,HBHMSHOR00000453,34,HBHMSHOR00000454,36,HBHMSHOR00000455,38,HBHMSHOR00000456,40,HBHMSHOR00000457,42,HBHMSHOR00000458;2499.00;;;<p>100% Cotton</p>;;;;;zerotype;;Fall;;No
2235418;2821-White-2235418;Hubberholme Slim Fit Chinos;Draft;Trousers;Hubberholme;Adults-Men;Men;White;;;Fashion;;2017;30,HBHMTRSR00002211,32,HBHMTRSR00002212,34,HBHMTRSR00002213,36,HBHMTRSR00002214,38,HBHMTRSR00002215,40,HBHMTRSR00002216,42,HBHMTRSR00002217;2499.00;;;<p>100% Cotton</p>;;;;;zerotype;;Winter;;No
2235417;2811-Brown-2235417;Hubberholme Slim Fit Chinos;Draft;Trousers;Hubberholme;Adults-Men;Men;Brown;;;Fashion;;2017;30,HBHMTRSR00002204,32,HBHMTRSR00002205,34,HBHMTRSR00002206,36,HBHMTRSR00002207,38,HBHMTRSR00002208,40,HBHMTRSR00002209,42,HBHMTRSR00002210;2499.00;;;<p>100% Cotton</p>;;;;;zerotype;;Winter;;No
2235416;2810-Navy Blue-2235416;Hubberholme Slim Fit Chinos;Draft;Trousers;Hubberholme;Adults-Men;Men;Navy Blue;;;Fashion;;2017;30,HBHMTRSR00002197,32,HBHMTRSR00002198,34,HBHMTRSR00002199,36,HBHMTRSR00002200,38,HBHMTRSR00002201,40,HBHMTRSR00002202,42,HBHMTRSR00002203;2499.00;;;<p>100% Cotton</p>;;;;;zerotype;;Winter;;No
2235415;2809-Black-2235415;Hubberholme Slim Fit Chinos;Draft;Trousers;Hubberholme;Adults-Men;Men;Black;;;Fashion;;2017;30,HBHMTRSR00002190,32,HBHMTRSR00002191,34,HBHMTRSR00002192,36,HBHMTRSR00002193,38,HBHMTRSR00002194,40,HBHMTRSR00002195,42,HBHMTRSR00002196;2499.00;;;<p>100% Cotton</p>;;;;;zerotype;;Winter;;No
2235414;2808-Cream-2235414;Hubberholme Slim Fit Chinos;Draft;Trousers;Hubberholme;Adults-Men;Men;Cream;;;Fashion;;2017;30,HBHMTRSR00002183,32,HBHMTRSR00002184,34,HBHMTRSR00002185,36,HBHMTRSR00002186,38,HBHMTRSR00002187,40,HBHMTRSR00002188,42,HBHMTRSR00002189;2499.00;;;<p>100% Cotton</p>;;;;;zerotype;;Winter;;No
2235413;2807-Grey-2235413;Hubberholme Slim Fit Chinos;Draft;Trousers;Hubberholme;Adults-Men;Men;Grey;;;Fashion;;2017;30,HBHMTRSR00002176,32,HBHMTRSR00002177,34,HBHMTRSR00002178,36,HBHMTRSR00002179,38,HBHMTRSR00002180,40,HBHMTRSR00002181,42,HBHMTRSR00002182;2499.00;;;<p>100% Cotton</p>;;;;;zerotype;;Winter;;No
2235412;2806-Blue-2235412;Hubberholme Slim Fit Chinos;Draft;Trousers;Hubberholme;Adults-Men;Men;Blue;;;Fashion;;2017;30,HBHMTRSR00002169,32,HBHMTRSR00002170,34,HBHMTRSR00002171,36,HBHMTRSR00002172,38,HBHMTRSR00002173,40,HBHMTRSR00002174,42,HBHMTRSR00002175;2499.00;;;<p>100% Cotton</p>;;;;;zerotype;;Winter;;No
2235411;2804-Green-2235411;Hubberholme Slim Fit Chinos;Draft;Trousers;Hubberholme;Adults-Men;Men;Green;;;Fashion;;2017;30,HBHMTRSR00002162,32,HBHMTRSR00002163,34,HBHMTRSR00002164,36,HBHMTRSR00002165,38,HBHMTRSR00002166,40,HBHMTRSR00002167,42,HBHMTRSR00002168;2499.00;;;<p>100% Cotton</p>;;;;;zerotype;;Winter;;No
2235410;2802-Khaki-2235410;Hubberholme Slim Fit Chinos;Draft;Trousers;Hubberholme;Adults-Men;Men;Khaki;;;Fashion;;2017;30,HBHMTRSR00002155,32,HBHMTRSR00002156,34,HBHMTRSR00002157,36,HBHMTRSR00002158,38,HBHMTRSR00002159,40,HBHMTRSR00002160,42,HBHMTRSR00002161;2499.00;;;<p>100% Cotton</p>;;;;;zerotype;;Winter;;No
2235409;2801-Mustard-2235409;Hubberholme Slim Fit Chinos;Draft;Trousers;Hubberholme;Adults-Men;Men;Mustard;;;Fashion;;2017;30,HBHMTRSR00002148,32,HBHMTRSR00002149,34,HBHMTRSR00002150,36,HBHMTRSR00002151,38,HBHMTRSR00002152,40,HBHMTRSR00002153,42,HBHMTRSR00002154;2499.00;;;<p>100% Cotton</p>;;;;;zerotype;;Winter;;No
2235408;7068-Black-2235408;Hubberholme Slim Fit Trackpants;Draft;Track Pants;Hubberholme;Adults-Men;Men;Black;;;Fashion;;2017;30,HBHMTRPT00001177,32,HBHMTRPT00001178,34,HBHMTRPT00001179,36,HBHMTRPT00001180,38,HBHMTRPT00001181,40,HBHMTRPT00001182,42,HBHMTRPT00001183;2499.00;;;<p>100% Cotton</p>;;;;;zerotype;;Winter;;No
2235407;7067-Black-2235407;Hubberholme Slim Fit Trackpants;Draft;Track Pants;Hubberholme;Adults-Men;Men;Black;;;Fashion;;2017;30,HBHMTRPT00001170,32,HBHMTRPT00001171,34,HBHMTRPT00001172,36,HBHMTRPT00001173,38,HBHMTRPT00001174,40,HBHMTRPT00001175,42,HBHMTRPT00001176;2499.00;;;<p>100% Cotton</p>;;;;;zerotype;;Winter;;No
2235406;7066-Black-2235406;Hubberholme Slim Fit Trackpants;Draft;Track Pants;Hubberholme;Adults-Men;Men;Black;;;Fashion;;2017;30,HBHMTRPT00001163,32,HBHMTRPT00001164,34,HBHMTRPT00001165,36,HBHMTRPT00001166,38,HBHMTRPT00001167,40,HBHMTRPT00001168,42,HBHMTRPT00001169;2499.00;;;<p>100% Cotton</p>;;;;;zerotype;;Winter;;No
2235405;7065-Grey-2235405;Hubberholme Slim Fit Trackpants;Draft;Track Pants;Hubberholme;Adults-Men;Men;Grey;;;Fashion;;2017;30,HBHMTRPT00001156,32,HBHMTRPT00001157,34,HBHMTRPT00001158,36,HBHMTRPT00001159,38,HBHMTRPT00001160,40,HBHMTRPT00001161,42,HBHMTRPT00001162;2499.00;;;<p>100% Cotton</p>;;;;;zerotype;;Winter;;No
2235404;7064-Grey-2235404;Hubberholme Slim Fit Trackpants;Draft;Track Pants;Hubberholme;Adults-Men;Men;Grey;;;Fashion;;2017;30,HBHMTRPT00001149,32,HBHMTRPT00001150,34,HBHMTRPT00001151,36,HBHMTRPT00001152,38,HBHMTRPT00001153,40,HBHMTRPT00001154,42,HBHMTRPT00001155;2499.00;;;<p>100% Cotton</p>;;;;;zerotype;;Winter;;No
2235403;7063-Grey-2235403;Hubberholme Slim Fit Trackpants;Draft;Track Pants;Hubberholme;Adults-Men;Men;Grey;;;Fashion;;2017;30,HBHMTRPT00001142,32,HBHMTRPT00001143,34,HBHMTRPT00001144,36,HBHMTRPT00001145,38,HBHMTRPT00001146,40,HBHMTRPT00001147,42,HBHMTRPT00001148;2499.00;;;<p>100% Cotton</p>;;;;;zerotype;;Winter;;No
2235402;7062-Charcoal-2235402;Hubberholme Slim Fit Trackpants;Draft;Track Pants;Hubberholme;Adults-Men;Men;Charcoal;;;Fashion;;2017;30,HBHMTRPT00001135,32,HBHMTRPT00001136,34,HBHMTRPT00001137,36,HBHMTRPT00001138,38,HBHMTRPT00001139,40,HBHMTRPT00001140,42,HBHMTRPT00001141;2499.00;;;<p>100% Cotton</p>;;;;;zerotype;;Winter;;No
2235401;7061-Charcoal-2235401;Hubberholme Slim Fit Trackpants;Draft;Track Pants;Hubberholme;Adults-Men;Men;Charcoal;;;Fashion;;2017;30,HBHMTRPT00001128,32,HBHMTRPT00001129,34,HBHMTRPT00001130,36,HBHMTRPT00001131,38,HBHMTRPT00001132,40,HBHMTRPT00001133,42,HBHMTRPT00001134;2499.00;;;<p>100% Cotton</p>;;;;;zerotype;;Winter;;No
2235400;7060-Charcoal-2235400;Hubberholme Slim Fit Trackpants;Draft;Track Pants;Hubberholme;Adults-Men;Men;Charcoal;;;Fashion;;2017;30,HBHMTRPT00001121,32,HBHMTRPT00001122,34,HBHMTRPT00001123,36,HBHMTRPT00001124,38,HBHMTRPT00001125,40,HBHMTRPT00001126,42,HBHMTRPT00001127;2499.00;;;<p>100% Cotton</p>;;;;;zerotype;;Winter;;No
2235399;7059-Navy Blue-2235399;Hubberholme Slim Fit Trackpants;Draft;Track Pants;Hubberholme;Adults-Men;Men;Navy Blue;;;Fashion;;2017;30,HBHMTRPT00001114,32,HBHMTRPT00001115,34,HBHMTRPT00001116,36,HBHMTRPT00001117,38,HBHMTRPT00001118,40,HBHMTRPT00001119,42,HBHMTRPT00001120;2499.00;;;<p>100% Cotton</p>;;;;;zerotype;;Winter;;No
2235398;7058-Navy Blue-2235398;Hubberholme Slim Fit Trackpants;Draft;Track Pants;Hubberholme;Adults-Men;Men;Navy Blue;;;Fashion;;2017;30,HBHMTRPT00001107,32,HBHMTRPT00001108,34,HBHMTRPT00001109,36,HBHMTRPT00001110,38,HBHMTRPT00001111,40,HBHMTRPT00001112,42,HBHMTRPT00001113;2499.00;;;<p>100% Cotton</p>;;;;;zerotype;;Winter;;No
2235397;7057-Navy Blue-2235397;Hubberholme Slim Fit Trackpants;Draft;Track Pants;Hubberholme;Adults-Men;Men;Navy Blue;;;Fashion;;2017;30,HBHMTRPT00001100,32,HBHMTRPT00001101,34,HBHMTRPT00001102,36,HBHMTRPT00001103,38,HBHMTRPT00001104,40,HBHMTRPT00001105,42,HBHMTRPT00001106;2499.00;;;<p>100% Cotton</p>;;;;;zerotype;;Winter;;No
