Style ID;Vendor Article Number;Vendor Article Name;Active Status;Article type;Brand;Age Group;Gender;Base Colour;Colour1;Colour2;Fashion Type;Usage;Year;Size - SKU code pair;MRP;Style Description;Style Note;Materials and Care Description;Size and Fit Description;Size Chart Path;Product Display Name;Tags;Product Type;Classification Brand;Season;Comments;Upload Images
3077514;99016-Navy Blue-3077514;99016;Draft;Clutches;HEATWAVE;Adults-Women;Women;Navy Blue;;;Fashion;Smart Casual;2017;NS,HTWVCLTH00000002;6499.00;;;;;;;;zerotype;;Fall;;No
3077513;99015-Black-3077513;99015;Draft;Clutches;HEATWAVE;Adults-Women;Women;Black;;;Fashion;Smart Casual;2017;NS,HTWVCLTH00000001;5499.00;;;;;;;;zerotype;;Fall;;No
3077512;68673-Khaki-3077512;68673;Draft;Heels;HEATWAVE;Adults-Women;Women;Khaki;;;Fashion;Formal;2017;5,HTWVHeels00001381,6,HTWVHeels00001382,7,HTWVHeels00001383,8,HTWVHeels00001384,9,HTWVHeels00001385,10,HTWVHeels00001386;4499.00;;;;;;;;zerotype;;Fall;;No
3077511;68673-Black-3077511;68673;Draft;Heels;HEATWAVE;Adults-Women;Women;Black;;;Fashion;Formal;2017;5,HTWVHeels00001375,6,HTWVHeels00001376,7,HTWVHeels00001377,8,HTWVHeels00001378,9,HTWVHeels00001379,10,HTWVHeels00001380;4499.00;;;;;;;;zerotype;;Fall;;No
3077510;29661-Brown-3077510;29661;Draft;Heels;HEATWAVE;Adults-Women;Women;Brown;;;Fashion;Formal;2017;5,HTWVHeels00001369,6,HTWVHeels00001370,7,HTWVHeels00001371,8,HTWVHeels00001372,9,HTWVHeels00001373,10,HTWVHeels00001374;3999.00;;;;;;;;zerotype;;Fall;;No
3077509;29661-Black-3077509;29661;Draft;Heels;HEATWAVE;Adults-Women;Women;Black;;;Fashion;Formal;2017;5,HTWVHeels00001363,6,HTWVHeels00001364,7,HTWVHeels00001365,8,HTWVHeels00001366,9,HTWVHeels00001367,10,HTWVHeels00001368;3999.00;;;;;;;;zerotype;;Fall;;No
3077508;29656-Camel Brown-3077508;29656;Draft;Heels;HEATWAVE;Adults-Women;Women;Camel Brown;;;Fashion;Formal;2017;5,HTWVHeels00001357,6,HTWVHeels00001358,7,HTWVHeels00001359,8,HTWVHeels00001360,9,HTWVHeels00001361,10,HTWVHeels00001362;3999.00;;;;;;;;zerotype;;Fall;;No
3077506;29656-Black-3077506;29656;Draft;Heels;HEATWAVE;Adults-Women;Women;Black;;;Fashion;Formal;2017;5,HTWVHeels00001351,6,HTWVHeels00001352,7,HTWVHeels00001353,8,HTWVHeels00001354,9,HTWVHeels00001355,10,HTWVHeels00001356;3999.00;;;;;;;;zerotype;;Fall;;No
3077502;29656-Beige-3077502;29656;Draft;Heels;HEATWAVE;Adults-Women;Women;Beige;;;Fashion;Formal;2017;5,HTWVHeels00001345,6,HTWVHeels00001346,7,HTWVHeels00001347,8,HTWVHeels00001348,9,HTWVHeels00001349,10,HTWVHeels00001350;3999.00;;;;;;;;zerotype;;Fall;;No
3077499;29541-Red-3077499;29541;Draft;Heels;HEATWAVE;Adults-Women;Women;Red;;;Fashion;Formal;2017;5,HTWVHeels00001339,6,HTWVHeels00001340,7,HTWVHeels00001341,8,HTWVHeels00001342,9,HTWVHeels00001343,10,HTWVHeels00001344;3999.00;;;;;;;;zerotype;;Fall;;No
3077495;29541-Blue-3077495;29541;Draft;Heels;HEATWAVE;Adults-Women;Women;Blue;;;Fashion;Formal;2017;5,HTWVHeels00001333,6,HTWVHeels00001334,7,HTWVHeels00001335,8,HTWVHeels00001336,9,HTWVHeels00001337,10,HTWVHeels00001338;3999.00;;;;;;;;zerotype;;Fall;;No
3077492;29541-Black-3077492;29541;Draft;Heels;HEATWAVE;Adults-Women;Women;Black;;;Fashion;Formal;2017;5,HTWVHeels00001327,6,HTWVHeels00001328,7,HTWVHeels00001329,8,HTWVHeels00001330,9,HTWVHeels00001331,10,HTWVHeels00001332;3999.00;;;;;;;;zerotype;;Fall;;No
3077488;6997-Peach-3077488;6997;Draft;Heels;HEATWAVE;Adults-Women;Women;Peach;;;Fashion;Formal;2017;5,HTWVHeels00001321,6,HTWVHeels00001322,7,HTWVHeels00001323,8,HTWVHeels00001324,9,HTWVHeels00001325,10,HTWVHeels00001326;4999.00;;;;;;;;zerotype;;Fall;;No
3077484;6997-Black-3077484;6997;Draft;Heels;HEATWAVE;Adults-Women;Women;Black;;;Fashion;Formal;2017;5,HTWVHeels00001315,6,HTWVHeels00001316,7,HTWVHeels00001317,8,HTWVHeels00001318,9,HTWVHeels00001319,10,HTWVHeels00001320;4999.00;;;;;;;;zerotype;;Fall;;No
3077481;6996-Taupe-3077481;6996;Draft;Heels;HEATWAVE;Adults-Women;Women;Taupe;;;Fashion;Formal;2017;5,HTWVHeels00001309,6,HTWVHeels00001310,7,HTWVHeels00001311,8,HTWVHeels00001312,9,HTWVHeels00001313,10,HTWVHeels00001314;4999.00;;;;;;;;zerotype;;Fall;;No
3077478;6996-Black-3077478;6996;Draft;Heels;HEATWAVE;Adults-Women;Women;Black;;;Fashion;Formal;2017;5,HTWVHeels00001303,6,HTWVHeels00001304,7,HTWVHeels00001305,8,HTWVHeels00001306,9,HTWVHeels00001307,10,HTWVHeels00001308;4999.00;;;;;;;;zerotype;;Fall;;No
3077472;6953-Red-3077472;6953;Draft;Heels;HEATWAVE;Adults-Women;Women;Red;;;Fashion;Formal;2017;5,HTWVHeels00001297,6,HTWVHeels00001298,7,HTWVHeels00001299,8,HTWVHeels00001300,9,HTWVHeels00001301,10,HTWVHeels00001302;3999.00;;;;;;;;zerotype;;Fall;;No
3077469;6953-Black-3077469;6953;Draft;Heels;HEATWAVE;Adults-Women;Women;Black;;;Fashion;Formal;2017;5,HTWVHeels00001291,6,HTWVHeels00001292,7,HTWVHeels00001293,8,HTWVHeels00001294,9,HTWVHeels00001295,10,HTWVHeels00001296;3999.00;;;;;;;;zerotype;;Fall;;No
3077464;1032-Peach-3077464;1032;Draft;Heels;HEATWAVE;Adults-Women;Women;Peach;;;Fashion;Formal;2017;5,HTWVHeels00001285,6,HTWVHeels00001286,7,HTWVHeels00001287,8,HTWVHeels00001288,9,HTWVHeels00001289,10,HTWVHeels00001290;4499.00;;;;;;;;zerotype;;Fall;;No
3077460;1032-Camel Brown-3077460;1032;Draft;Heels;HEATWAVE;Adults-Women;Women;Camel Brown;;;Fashion;Formal;2017;5,HTWVHeels00001279,6,HTWVHeels00001280,7,HTWVHeels00001281,8,HTWVHeels00001282,9,HTWVHeels00001283,10,HTWVHeels00001284;4499.00;;;;;;;;zerotype;;Fall;;No
3077457;1032-Black-3077457;1032;Draft;Heels;HEATWAVE;Adults-Women;Women;Black;;;Fashion;Formal;2017;5,HTWVHeels00001273,6,HTWVHeels00001274,7,HTWVHeels00001275,8,HTWVHeels00001276,9,HTWVHeels00001277,10,HTWVHeels00001278;4499.00;;;;;;;;zerotype;;Fall;;No
3077453;1028-Black-3077453;1028;Draft;Heels;HEATWAVE;Adults-Women;Women;Black;;;Fashion;Formal;2017;5,HTWVHeels00001267,6,HTWVHeels00001268,7,HTWVHeels00001269,8,HTWVHeels00001270,9,HTWVHeels00001271,10,HTWVHeels00001272;4499.00;;;;;;;;zerotype;;Fall;;No
3077449;1028-Beige-3077449;1028;Draft;Heels;HEATWAVE;Adults-Women;Women;Beige;;;Fashion;Formal;2017;5,HTWVHeels00001261,6,HTWVHeels00001262,7,HTWVHeels00001263,8,HTWVHeels00001264,9,HTWVHeels00001265,10,HTWVHeels00001266;4499.00;;;;;;;;zerotype;;Fall;;No
3077443;1025-Silver-3077443;1025;Draft;Heels;HEATWAVE;Adults-Women;Women;Silver;;;Fashion;Formal;2017;5,HTWVHeels00001255,6,HTWVHeels00001256,7,HTWVHeels00001257,8,HTWVHeels00001258,9,HTWVHeels00001259,10,HTWVHeels00001260;3999.00;;;;;;;;zerotype;;Fall;;No
3077438;15063-Camel Brown-3077438;15063;Draft;Casual Shoes;HEATWAVE;Adults-Women;Women;Camel Brown;;;Fashion;Casual;2017;5,HTWVCASH00000086,6,HTWVCASH00000087,7,HTWVCASH00000088,8,HTWVCASH00000089,9,HTWVCASH00000090,10,HTWVCASH00000091;4999.00;;;;;;;;zerotype;;Fall;;No
3077432;15063-Black-3077432;15063;Draft;Casual Shoes;HEATWAVE;Adults-Women;Women;Black;;;Fashion;Casual;2017;5,HTWVCASH00000080,6,HTWVCASH00000081,7,HTWVCASH00000082,8,HTWVCASH00000083,9,HTWVCASH00000084,10,HTWVCASH00000085;4999.00;;;;;;;;zerotype;;Fall;;No
3077429;7604-Red-3077429;7604;Draft;Flats;HEATWAVE;Adults-Women;Women;Red;;;Fashion;Formal;2017;5,HTWVFlats00000691,6,HTWVFlats00000692,7,HTWVFlats00000693,8,HTWVFlats00000694,9,HTWVFlats00000695,10,HTWVFlats00000696;2999.00;;;;;;;;zerotype;;Fall;;No
3077427;7604-Black-3077427;7604;Draft;Flats;HEATWAVE;Adults-Women;Women;Black;;;Fashion;Formal;2017;5,HTWVFlats00000685,6,HTWVFlats00000686,7,HTWVFlats00000687,8,HTWVFlats00000688,9,HTWVFlats00000689,10,HTWVFlats00000690;2999.00;;;;;;;;zerotype;;Fall;;No
3077425;1037-Camel Brown-3077425;1037;Draft;Flats;HEATWAVE;Adults-Women;Women;Camel Brown;;;Fashion;Formal;2017;5,HTWVFlats00000679,6,HTWVFlats00000680,7,HTWVFlats00000681,8,HTWVFlats00000682,9,HTWVFlats00000683,10,HTWVFlats00000684;2999.00;;;;;;;;zerotype;;Fall;;No
3077423;1037-Black-3077423;1037;Draft;Flats;HEATWAVE;Adults-Women;Women;Black;;;Fashion;Formal;2017;5,HTWVFlats00000673,6,HTWVFlats00000674,7,HTWVFlats00000675,8,HTWVFlats00000676,9,HTWVFlats00000677,10,HTWVFlats00000678;2999.00;;;;;;;;zerotype;;Fall;;No
3077421;1033-Camel Brown-3077421;1033;Draft;Flats;HEATWAVE;Adults-Women;Women;Camel Brown;;;Fashion;Formal;2017;5,HTWVFlats00000667,6,HTWVFlats00000668,7,HTWVFlats00000669,8,HTWVFlats00000670,9,HTWVFlats00000671,10,HTWVFlats00000672;3999.00;;;;;;;;zerotype;;Fall;;No
3077419;1033-Black-3077419;1033;Draft;Flats;HEATWAVE;Adults-Women;Women;Black;;;Fashion;Formal;2017;5,HTWVFlats00000661,6,HTWVFlats00000662,7,HTWVFlats00000663,8,HTWVFlats00000664,9,HTWVFlats00000665,10,HTWVFlats00000666;3999.00;;;;;;;;zerotype;;Fall;;No
3077417;1031-Taupe-3077417;1031;Draft;Flats;HEATWAVE;Adults-Women;Women;Taupe;;;Fashion;Formal;2017;5,HTWVFlats00000655,6,HTWVFlats00000656,7,HTWVFlats00000657,8,HTWVFlats00000658,9,HTWVFlats00000659,10,HTWVFlats00000660;4499.00;;;;;;;;zerotype;;Fall;;No
3077415;1031-Beige-3077415;1031;Draft;Flats;HEATWAVE;Adults-Women;Women;Beige;;;Fashion;Formal;2017;5,HTWVFlats00000649,6,HTWVFlats00000650,7,HTWVFlats00000651,8,HTWVFlats00000652,9,HTWVFlats00000653,10,HTWVFlats00000654;4499.00;;;;;;;;zerotype;;Fall;;No
3077413;1030-Grey-3077413;1030;Draft;Flats;HEATWAVE;Adults-Women;Women;Grey;;;Fashion;Formal;2017;5,HTWVFlats00000643,6,HTWVFlats00000644,7,HTWVFlats00000645,8,HTWVFlats00000646,9,HTWVFlats00000647,10,HTWVFlats00000648;4999.00;;;;;;;;zerotype;;Fall;;No
3077411;1030-Camel Brown-3077411;1030;Draft;Flats;HEATWAVE;Adults-Women;Women;Camel Brown;;;Fashion;Formal;2017;5,HTWVFlats00000637,6,HTWVFlats00000638,7,HTWVFlats00000639,8,HTWVFlats00000640,9,HTWVFlats00000641,10,HTWVFlats00000642;4999.00;;;;;;;;zerotype;;Fall;;No
3077409;1030-Black-3077409;1030;Draft;Flats;HEATWAVE;Adults-Women;Women;Black;;;Fashion;Formal;2017;5,HTWVFlats00000631,6,HTWVFlats00000632,7,HTWVFlats00000633,8,HTWVFlats00000634,9,HTWVFlats00000635,10,HTWVFlats00000636;4999.00;;;;;;;;zerotype;;Fall;;No
