Style ID;Vendor Article Number;Vendor Article Name;Active Status;Article type;Brand;Age Group;Gender;Base Colour;Colour1;Colour2;Fashion Type;Usage;Year;Size - SKU code pair;MRP;Style Description;Style Note;Materials and Care Description;Size and Fit Description;Size Chart Path;Product Display Name;Tags;Product Type;Classification Brand;Season;Comments;Upload Images
1913215;CL2013-combo-30-4Pc-Navy BlueBlueBlack-1913215;CLASSIC BRIEF- 4 Pack;Draft;Briefs;Claesens;Adults-Men;Men;;;;Fashion;;2017;L,CLNSBREF00000296,XL,CLNSBREF00000297,M,CLNSBREF00000298;798.00;;;;;;;;zerotype;;Summer;;No
1913214;CL2004-combo-5-3Pc-Grey MelangeNavy BlueBlack-1913214;CLASSIC BRIEF-3 pack;Draft;Briefs;Claesens;Adults-Men;Men;;;;Fashion;;2017;L,CLNSBREF00000292,XL,CLNSBREF00000293,S,CLNSBREF00000294,M,CLNSBREF00000295;687.00;;;;;;;;zerotype;;Summer;;No
1913213;CL2004-combo-4-3Pc-BlueNavy BlueBlack-1913213;CLASSIC BRIEF-3 pack;Draft;Briefs;Claesens;Adults-Men;Men;;;;Fashion;;2017;L,CLNSBREF00000288,XL,CLNSBREF00000289,S,CLNSBREF00000290,M,CLNSBREF00000291;687.00;;;;;;;;zerotype;;Summer;;No
1913212;CL2004-combo-3-3Pc-RedNavy BlueBlack-1913212;CLASSIC BRIEF-3 pack;Draft;Briefs;Claesens;Adults-Men;Men;;;;Fashion;;2017;L,CLNSBREF00000284,XL,CLNSBREF00000285,S,CLNSBREF00000286,M,CLNSBREF00000287;687.00;;;;;;;;zerotype;;Summer;;No
1913211;CL2004-combo-25-2Pc-Navy BlueBlack-1913211;CLASSIC BRIEF-2 pack;Draft;Briefs;Claesens;Adults-Men;Men;;;;Fashion;;2017;S,CLNSBREF00000280,M,CLNSBREF00000281,L,CLNSBREF00000282,XL,CLNSBREF00000283;458.00;;;;;;;;zerotype;;Summer;;No
1913210;CL2004-combo-24-2Pc-BlackRed-1913210;CLASSIC BRIEF-2 pack;Draft;Briefs;Claesens;Adults-Men;Men;;;;Fashion;;2017;S,CLNSBREF00000276,M,CLNSBREF00000277,L,CLNSBREF00000278,XL,CLNSBREF00000279;458.00;;;;;;;;zerotype;;Summer;;No
1913209;CL2004-combo-23-2Pc-Navy BlueGrey Melange-1913209;CLASSIC BRIEF-2 pack;Draft;Briefs;Claesens;Adults-Men;Men;;;;Fashion;;2017;S,CLNSBREF00000272,M,CLNSBREF00000273,L,CLNSBREF00000274,XL,CLNSBREF00000275;458.00;;;;;;;;zerotype;;Summer;;No
1913208;CL2004-combo-22-2Pc-BlackNavy Blue-1913208;CLASSIC BRIEF-2 pack;Draft;Briefs;Claesens;Adults-Men;Men;;;;Fashion;;2017;S,CLNSBREF00000268,M,CLNSBREF00000269,L,CLNSBREF00000270,XL,CLNSBREF00000271;458.00;;;;;;;;zerotype;;Summer;;No
1913207;CL2004-combo-21-2Pc-BlueRed-1913207;CLASSIC BRIEF-2 pack;Draft;Briefs;Claesens;Adults-Men;Men;;;;Fashion;;2017;S,CLNSBREF00000264,M,CLNSBREF00000265,L,CLNSBREF00000266,XL,CLNSBREF00000267;458.00;;;;;;;;zerotype;;Summer;;No
1913206;CL2004-combo-20-2Pc-Grey MelangeBlue-1913206;CLASSIC BRIEF-2 pack;Draft;Briefs;Claesens;Adults-Men;Men;;;;Fashion;;2017;S,CLNSBREF00000260,M,CLNSBREF00000261,L,CLNSBREF00000262,XL,CLNSBREF00000263;458.00;;;;;;;;zerotype;;Summer;;No
1913205;CL2004-combo-19-2Pc-Grey MelangeBlack-1913205;CLASSIC BRIEF-2 pack;Draft;Briefs;Claesens;Adults-Men;Men;;;;Fashion;;2017;S,CLNSBREF00000256,M,CLNSBREF00000257,L,CLNSBREF00000258,XL,CLNSBREF00000259;458.00;;;;;;;;zerotype;;Summer;;No
1913204;CL2004-combo-18-2Pc-RedGrey Melange-1913204;CLASSIC BRIEF-2 pack;Draft;Briefs;Claesens;Adults-Men;Men;;;;Fashion;;2017;S,CLNSBREF00000252,M,CLNSBREF00000253,L,CLNSBREF00000254,XL,CLNSBREF00000255;458.00;;;;;;;;zerotype;;Summer;;No
1913203;CL2004-combo-17-2Pc-Navy BlueBlue-1913203;CLASSIC BRIEF-2 pack;Draft;Briefs;Claesens;Adults-Men;Men;;;;Fashion;;2017;S,CLNSBREF00000248,M,CLNSBREF00000249,L,CLNSBREF00000250,XL,CLNSBREF00000251;458.00;;;;;;;;zerotype;;Summer;;No
1913202;CL2004-combo-16-2Pc-BlueBlack-1913202;CLASSIC BRIEF-2 pack;Draft;Briefs;Claesens;Adults-Men;Men;;;;Fashion;;2017;S,CLNSBREF00000244,M,CLNSBREF00000245,L,CLNSBREF00000246,XL,CLNSBREF00000247;458.00;;;;;;;;zerotype;;Summer;;No
1913201;CL2004-combo-1-3Pc-RedGrey MelangeBlue-1913201;CLASSIC BRIEF-3 pack;Draft;Briefs;Claesens;Adults-Men;Men;;;;Fashion;;2017;M,CLNSBREF00000240,L,CLNSBREF00000241,XL,CLNSBREF00000242,S,CLNSBREF00000243;687.00;;;;;;;;zerotype;;Summer;;No
1913200;CL2001-combo-24-2Pc-Navy BlueGrey Melange-1913200;STRETCH BRIEF -2 Pack;Draft;Briefs;Claesens;Adults-Men;Men;;;;Fashion;;2017;M,CLNSBREF00000236,L,CLNSBREF00000237,XL,CLNSBREF00000238,S,CLNSBREF00000239;598.00;;;;;;;;zerotype;;Summer;;No
1913199;CL2001-combo-23-2Pc-Navy BlueGreen-1913199;STRETCH BRIEF -2 Pack;Draft;Briefs;Claesens;Adults-Men;Men;;;;Fashion;;2017;M,CLNSBREF00000232,L,CLNSBREF00000233,XL,CLNSBREF00000234,S,CLNSBREF00000235;598.00;;;;;;;;zerotype;;Summer;;No
