Style ID;Vendor Article Number;Vendor Article Name;Active Status;Article type;Brand;Age Group;Gender;Base Colour;Colour1;Colour2;Fashion Type;Usage;Year;Size - SKU code pair;MRP;Style Description;Style Note;Materials and Care Description;Size and Fit Description;Size Chart Path;Product Display Name;Tags;Product Type;Classification Brand;Season;Comments;Upload Images
2278348;NMW-063-Black-2278348;Miway Women Full Lenght Black Printed  Pyjama;Draft;Trousers;MIWAY;Adults-Women;Women;Black;;;Fashion;Casual;2017;28,MIWYTRSR00000092,38,MIWYTRSR00000093,36,MIWYTRSR00000094,34,MIWYTRSR00000095,32,MIWYTRSR00000096,30,MIWYTRSR00000097;2499.00;;;<p>Machine Wash</p>;;;na;;zerotype;;Summer;;No
2278347;NMW-065-White-2278347;Miway Women Full Length White Solid Pyjama;Draft;Trousers;MIWAY;Adults-Women;Women;White;;;Fashion;Casual;2017;38,MIWYTRSR00000086,36,MIWYTRSR00000087,34,MIWYTRSR00000088,32,MIWYTRSR00000089,30,MIWYTRSR00000090,28,MIWYTRSR00000091;2049.00;;;<p>Machine Wash</p>;;;na;;zerotype;;Summer;;No
2278346;NMW-026-Khaki-2278346;Miway Women Cotton Embroide Cream  Shorts;Draft;Trousers;MIWAY;Adults-Women;Women;Khaki;;;Fashion;Casual;2017;34,MIWYTRSR00000081,32,MIWYTRSR00000082,30,MIWYTRSR00000083,28,MIWYTRSR00000084,26,MIWYTRSR00000085;2699.00;;;<p>Machine Wash</p>;;;na;;zerotype;;Summer;;No
2278345;NMW-054-White-2278345;Miway Viscose Embroidered Off Showlder  White;Draft;Tops;MIWAY;Adults-Women;Women;White;;;Fashion;;2017;XXL,MIWYTOPS00000656,XL,MIWYTOPS00000657,L,MIWYTOPS00000658,M,MIWYTOPS00000659,S,MIWYTOPS00000660,XS,MIWYTOPS00000661;2929.00;;;<p>Machine Wash</p>;;;na;;zerotype;;Summer;;No
2278344;NMW-159-Off White-2278344;Miway Rayon  off white solid top;Draft;Tops;MIWAY;Adults-Women;Women;Off White;;;Fashion;Casual;2017;XL,MIWYTOPS00000651,L,MIWYTOPS00000652,M,MIWYTOPS00000653,S,MIWYTOPS00000654,XS,MIWYTOPS00000655;2479.00;;;<p>Machine Wash</p>;;;na;;zerotype;;Summer;;No
2278343;NMW-011-White-2278343;Miway White Embroidered Strappy Top;Draft;Tops;MIWAY;Adults-Women;Women;White;;;Fashion;Casual;2017;XL,MIWYTOPS00000646,L,MIWYTOPS00000647,M,MIWYTOPS00000648,S,MIWYTOPS00000649,XS,MIWYTOPS00000650;2929.00;;;<p>Machine Wash</p>;;;na;;zerotype;;Summer;;No
2278342;NMW-013-White-2278342;Miway White Embroidered Strappy Viscose Top;Draft;Tops;MIWAY;Adults-Women;Women;White;;;Fashion;Casual;2017;XS,MIWYTOPS00000641,XL,MIWYTOPS00000642,L,MIWYTOPS00000643,M,MIWYTOPS00000644,S,MIWYTOPS00000645;2029.00;;;<p>Machine Wash</p>;;;na;;zerotype;;Summer;;No
2278341;NMW-034-White-2278341;Miway Women Cotton  White Lace Tops;Draft;Tops;MIWAY;Adults-Women;Women;White;;;Fashion;Casual;2017;XS,MIWYTOPS00000636,XL,MIWYTOPS00000637,L,MIWYTOPS00000638,M,MIWYTOPS00000639,S,MIWYTOPS00000640;2249.00;;;<p>Machine Wash</p>;;;na;;zerotype;;Summer;;No
2278340;NC16776XL-Turquoise Blue-2278340;Kurtas;Draft;Kurtas;Nikhaar;Adults-Women;Women;Turquoise Blue;;;Fashion;Ethnic;2017;M,NKHRKRTA00002001,5XL,NKHRKRTA00002002,S,NKHRKRTA00002003,4XL,NKHRKRTA00002004,3XL,NKHRKRTA00002005,XXL,NKHRKRTA00002006,XL,NKHRKRTA00002007,L,NKHRKRTA00002008,XS,NKHRKRTA00002009,XXS,NKHRKRTA00002010,8XL,NKHRKRTA00002011,7XL,NKHRKRTA00002012,6XL,NKHRKRTA00002013;2999.00;;;<p>100% Polyster / Dry Clean Only</p>;;;na;;zerotype;;Winter;;No
2278339;NC16793XL-Red-2278339;Kurtas;Draft;Kurtas;Nikhaar;Adults-Women;Women;Red;;;Fashion;Ethnic;2017;8XL,NKHRKRTA00001988,XS,NKHRKRTA00001989,XXL,NKHRKRTA00001990,XL,NKHRKRTA00001991,7XL,NKHRKRTA00001992,L,NKHRKRTA00001993,XXS,NKHRKRTA00001994,6XL,NKHRKRTA00001995,5XL,NKHRKRTA00001996,M,NKHRKRTA00001997,S,NKHRKRTA00001998,4XL,NKHRKRTA00001999,3XL,NKHRKRTA00002000;2999.00;;;<p>100% Polyster / Dry Clean Only</p>;;;na;;zerotype;;Winter;;No
2278338;NC1683M-Maroon-2278338;Kurtas;Draft;Kurtas;Nikhaar;Adults-Women;Women;Maroon;Pink;;Fashion;Ethnic;2017;4XL,NKHRKRTA00001975,S,NKHRKRTA00001976,XS,NKHRKRTA00001977,8XL,NKHRKRTA00001978,7XL,NKHRKRTA00001979,XXS,NKHRKRTA00001980,6XL,NKHRKRTA00001981,5XL,NKHRKRTA00001982,3XL,NKHRKRTA00001983,XXL,NKHRKRTA00001984,XL,NKHRKRTA00001985,L,NKHRKRTA00001986,M,NKHRKRTA00001987;2999.00;;;<p>100% Polyster / Dry Clean Only</p>;;;na;;zerotype;;Winter;;No
2278337;NC1680XXS-Black-2278337;Kurtas;Draft;Kurtas;Nikhaar;Adults-Women;Women;Black;;;Fashion;Ethnic;2017;XXL,NKHRKRTA00001962,XL,NKHRKRTA00001963,L,NKHRKRTA00001964,8XL,NKHRKRTA00001965,7XL,NKHRKRTA00001966,6XL,NKHRKRTA00001967,M,NKHRKRTA00001968,5XL,NKHRKRTA00001969,4XL,NKHRKRTA00001970,3XL,NKHRKRTA00001971,S,NKHRKRTA00001972,XS,NKHRKRTA00001973,XXS,NKHRKRTA00001974;2999.00;;;<p>100% Polyster / Dry Clean Only</p>;;;na;;zerotype;;Winter;;No
2278336;NC1675L-Purple-2278336;Kurtas;Draft;Kurtas;Nikhaar;Adults-Women;Women;Purple;;;Fashion;Ethnic;2017;XXS,NKHRKRTA00001949,XL,NKHRKRTA00001950,XXL,NKHRKRTA00001951,3XL,NKHRKRTA00001952,4XL,NKHRKRTA00001953,5XL,NKHRKRTA00001954,6XL,NKHRKRTA00001955,7XL,NKHRKRTA00001956,8XL,NKHRKRTA00001957,S,NKHRKRTA00001958,M,NKHRKRTA00001959,XS,NKHRKRTA00001960,L,NKHRKRTA00001961;2999.00;;;<p>100% Polyster / Dry Clean Only</p>;;;na;;zerotype;;Winter;;No
2278335;NC1684S-Blue-2278335;Kurtas;Draft;Kurtas;Nikhaar;Adults-Women;Women;Blue;;;Fashion;Ethnic;2017;XS,NKHRKRTA00001936,3XL,NKHRKRTA00001937,XXS,NKHRKRTA00001938,8XL,NKHRKRTA00001939,7XL,NKHRKRTA00001940,6XL,NKHRKRTA00001941,5XL,NKHRKRTA00001942,XXL,NKHRKRTA00001943,XL,NKHRKRTA00001944,L,NKHRKRTA00001945,4XL,NKHRKRTA00001946,M,NKHRKRTA00001947,S,NKHRKRTA00001948;2999.00;;;<p>100% Polyster / Dry Clean Only</p>;;;na;;zerotype;;Winter;;No
2278334;NC16785XL-Teal-2278334;Kurtas;Draft;Kurtas;Nikhaar;Adults-Women;Women;Teal;;;Fashion;Ethnic;2017;4XL,NKHRKRTA00001923,S,NKHRKRTA00001924,3XL,NKHRKRTA00001925,XS,NKHRKRTA00001926,XXL,NKHRKRTA00001927,XL,NKHRKRTA00001928,XXS,NKHRKRTA00001929,8XL,NKHRKRTA00001930,L,NKHRKRTA00001931,M,NKHRKRTA00001932,7XL,NKHRKRTA00001933,6XL,NKHRKRTA00001934,5XL,NKHRKRTA00001935;2999.00;;;<p>100% Polyster / Dry Clean Only</p>;;;na;;zerotype;;Winter;;No
2278333;NC1681XXL-Teal-2278333;Kurtas;Draft;Kurtas;Nikhaar;Adults-Women;Women;Teal;;;Fashion;Ethnic;2017;XL,NKHRKRTA00001910,L,NKHRKRTA00001911,M,NKHRKRTA00001912,S,NKHRKRTA00001913,8XL,NKHRKRTA00001914,7XL,NKHRKRTA00001915,6XL,NKHRKRTA00001916,XS,NKHRKRTA00001917,5XL,NKHRKRTA00001918,4XL,NKHRKRTA00001919,3XL,NKHRKRTA00001920,XXS,NKHRKRTA00001921,XXL,NKHRKRTA00001922;2999.00;;;<p>100% Polyster / Dry Clean Only</p>;;;na;;zerotype;;Winter;;No
2278332;NC16768XL-Black-2278332;Kurtas;Draft;Kurtas;Nikhaar;Adults-Women;Women;Black;;;Fashion;Ethnic;2017;M,NKHRKRTA00001897,L,NKHRKRTA00001898,XXL,NKHRKRTA00001899,7XL,NKHRKRTA00001900,6XL,NKHRKRTA00001901,XXS,NKHRKRTA00001902,XS,NKHRKRTA00001903,S,NKHRKRTA00001904,XL,NKHRKRTA00001905,5XL,NKHRKRTA00001906,4XL,NKHRKRTA00001907,3XL,NKHRKRTA00001908,8XL,NKHRKRTA00001909;2999.00;;;<p>100% Polyster / Dry Clean Only</p>;;;na;;zerotype;;Winter;;No
2278331;CC884A-PINK-38-Pink-2278331;Girls Partywear Top;Draft;Tops;CUTECUMBER;Kids-Girls;Girls;Pink;;;Fashion;Party;2017;38,CTMRTOPS00010303,36,CTMRTOPS00010304,34,CTMRTOPS00010305,32,CTMRTOPS00010306,30,CTMRTOPS00010307,28,CTMRTOPS00010308,26,CTMRTOPS00010309,24,CTMRTOPS00010310,40,CTMRTOPS00010311,22,CTMRTOPS00010312,20,CTMRTOPS00010313,18,CTMRTOPS00010314,16,CTMRTOPS00010315;1035.00;<p>Partywear Top Embellished with Flowers on neck & Rhinestones on shoulder, Comes with button closure on back</p>;<p>Georgette Top with Floer Detail</p>;<p>Gentle Hand Wash</p>;;;Girls Partywear Top;;zerotype;;Winter;;No
2278330;CC882A-PINK-26-Pink-2278330;Girls Partywear Top;Draft;Tops;CUTECUMBER;Kids-Girls;Girls;Pink;;;Fashion;Party;2017;26,CTMRTOPS00010295,38,CTMRTOPS00010296,36,CTMRTOPS00010297,34,CTMRTOPS00010298,32,CTMRTOPS00010299,30,CTMRTOPS00010300,40,CTMRTOPS00010301,28,CTMRTOPS00010302;1095.00;<p>Partywear Lace Top Embellished with Flowers on neck & Rhinestones on front, Comes with Button Closure on back</p>;<p>Lace Fabric Top for girls</p>;<p>Gentle Hand Wash</p>;;;Girls Partywear Top;;zerotype;;Winter;;No
2278329;CC881A-CREAMMAROON-40-Cream Maroon-2278329;Girls Partywear Top;Draft;Tops;CUTECUMBER;Kids-Girls;Girls;Cream;Maroon;;Fashion;Party;2017;40,CTMRTOPS00010282,20,CTMRTOPS00010283,28,CTMRTOPS00010284,16,CTMRTOPS00010285,26,CTMRTOPS00010286,38,CTMRTOPS00010287,36,CTMRTOPS00010288,24,CTMRTOPS00010289,22,CTMRTOPS00010290,18,CTMRTOPS00010291,34,CTMRTOPS00010292,32,CTMRTOPS00010293,30,CTMRTOPS00010294;1115.00;<p>Floral Printed Lace Top Embellished with Flowers on neck & Rhinestones on front, has fabric bow on waist, Comes with Button closure on back</p>;<p>Lace Fabric Top for girls</p>;<p>Gentle Hand Wash</p>;;;Girls Partywear Top;;zerotype;;Winter;;No
2278328;CC880A-CREAM-30-Cream Pink-2278328;Girls Partywear Winter Top;Draft;Tops;CUTECUMBER;Kids-Girls;Girls;Cream;Pink;;Fashion;Party;2017;30,CTMRTOPS00010269,18,CTMRTOPS00010270,40,CTMRTOPS00010271,38,CTMRTOPS00010272,36,CTMRTOPS00010273,34,CTMRTOPS00010274,32,CTMRTOPS00010275,16,CTMRTOPS00010276,28,CTMRTOPS00010277,26,CTMRTOPS00010278,24,CTMRTOPS00010279,22,CTMRTOPS00010280,20,CTMRTOPS00010281;1395.00;<p>Floral Printed Partywear Winter Top made up of Sweater Knit, has Cowl Neck, Velvet tape trim on front & Gathering on Hem, Comes with Zip Closure on back</p>;<p>Winter color blocked Top</p>;<p>Gentle Hand Wash</p>;;;Girls Partywear Winter Top;;zerotype;;Winter;;No
2278327;CC870A-PEACH-16-Peach-2278327;Girls Partywear Top;Draft;Tops;CUTECUMBER;Kids-Girls;Girls;Peach;;;Fashion;Party;2017;16,CTMRTOPS00010256,18,CTMRTOPS00010257,20,CTMRTOPS00010258,22,CTMRTOPS00010259,24,CTMRTOPS00010260,26,CTMRTOPS00010261,28,CTMRTOPS00010262,30,CTMRTOPS00010263,32,CTMRTOPS00010264,34,CTMRTOPS00010265,36,CTMRTOPS00010266,38,CTMRTOPS00010267,40,CTMRTOPS00010268;1335.00;<p>Floral Printed Partywear Top Embellished with Fabric bow on neck, has Ruffles on neck, Comes with Button closure on back. Lined with cotton for your kids comfort</p>;<p>Georgette Top with Full Sleeves</p>;<p>Gentle Hand Wash</p>;;;Girls Partywear Top;;zerotype;;Winter;;No
2278324;SILKPSQ13-Purple-2278324;Tossido Printed Silk Pocket Square;Draft;Pocket Squares;Tossido;Adults-Men;Men;Purple;;;Fashion;Formal;2017;Onesize,TSDOPKSQ00000217;799.00;;;<p>Dry Clean Only</p>;<p>13inch x 13inch</p>;;NA;;zerotype;;Winter;;No
2278323;TDPS165-Red-2278323;Tossido Woven Micro Pocket Square;Draft;Pocket Squares;Tossido;Adults-Men;Men;Blue;;;Fashion;Formal;2017;Onesize,TSDOPKSQ00000216;599.00;;;<p>Dry Clean Only</p>;<p>10inch x 10inch</p>;;NA;;zerotype;;Winter;;No
2278322;SILKPSQ11-Black-2278322;Tossido Printed Silk Pocket Square;Draft;Pocket Squares;Tossido;Adults-Men;Men;Black;;;Fashion;Formal;2017;Onesize,TSDOPKSQ00000215;799.00;;;<p>Dry Clean Only</p>;<p>13inch x 13inch</p>;;NA;;zerotype;;Winter;;No
2278321;SILKPSQ02-Blue-2278321;Tossido Printed Silk Pocket Square;Draft;Pocket Squares;Tossido;Adults-Men;Men;Blue;;;Fashion;Casual;2017;Onesize,TSDOPKSQ00000214;799.00;;;<p>Dry Clean Only</p>;<p>13inch x 13inch</p>;;Na;;zerotype;;Winter;;No
2278320;SILKPSQ10-Purple-2278320;Tossido Printed Silk Pocket Square;Draft;Pocket Squares;Tossido;Adults-Men;Men;Purple;;;Fashion;Formal;2017;Onesize,TSDOPKSQ00000213;799.00;;;<p>Dry Clean Only</p>;<p>13inch x 13inch</p>;;NA;;zerotype;;Winter;;No
2278319;SILKPSQ01-Blue-2278319;Tossido Printed Silk Pocket Square;Draft;Pocket Squares;Tossido;Adults-Men;Men;Blue;;;Fashion;Casual;2017;Onesize,TSDOPKSQ00000212;799.00;;;<p>Dry Clean Only</p>;<p>13inch x 13inch</p>;;NA;;zerotype;;Winter;;No
2278318;SILKPSQ04-Blue-2278318;Tossido Printed Silk Pocket Square;Draft;Pocket Squares;Tossido;Adults-Men;Men;Blue;;;Fashion;Casual;2017;Onesize,TSDOPKSQ00000211;799.00;;;<p>Dry Clean Only</p>;<p>13inch x 13inch</p>;;NA;;zerotype;;Winter;;No
2278317;SILKPSQ15-Blue-2278317;Tossido Printed Silk Pocket Square;Draft;Pocket Squares;Tossido;Adults-Men;Men;Blue;;;Fashion;Formal;2017;Onesize,TSDOPKSQ00000210;799.00;;;<p>Dry Clean Only</p>;<p>13inch x 13inch</p>;;NA;;zerotype;;Winter;;No
2278316;SILKPSQ08-Grey-2278316;Tossido Printed Silk Pocket Square;Draft;Pocket Squares;Tossido;Adults-Men;Men;Black;;;Fashion;Formal;2017;Onesize,TSDOPKSQ00000209;799.00;;;<p>Dry Clean Only</p>;<p>13inch x 13inch</p>;;NA;;zerotype;;Winter;;No
2278315;SILKPSQ16-Blue-2278315;Tossido Printed Silk Pocket Square;Draft;Pocket Squares;Tossido;Adults-Men;Men;Blue;;;Fashion;Formal;2017;Onesize,TSDOPKSQ00000208;799.00;;;<p>Dry Clean Only</p>;<p>13inch x 13inch</p>;;Na;;zerotype;;Winter;;No
2278314;SILKPSQ17-Red-2278314;Tossido Printed Silk Pocket Square;Draft;Pocket Squares;Tossido;Adults-Men;Men;Blue;;;Fashion;Formal;2017;Onesize,TSDOPKSQ00000207;799.00;;;<p>Dry Clean Only</p>;<p>13inch x 13inch</p>;;NA;;zerotype;;Winter;;No
2278313;SILKPSQ07-Pink-2278313;Tossido Printed Silk Pocket Square;Draft;Pocket Squares;Tossido;Adults-Men;Men;Blue;;;Fashion;Formal;2017;Onesize,TSDOPKSQ00000206;799.00;;;<p>Dry Clean Only</p>;<p>13inch x 13inch</p>;;NA;;zerotype;;Winter;;No
2278312;TDPS166-Grey-2278312;Tossido Printed Micro Pocket Square;Draft;Pocket Squares;Tossido;Adults-Men;Men;Grey;;;Fashion;Formal;2017;Onesize,TSDOPKSQ00000205;599.00;;;<p>Dry Clean Only</p>;<p>10inch x 10inch</p>;;Na;;zerotype;;Winter;;No
2278311;SILKPSQ03-Multi-2278311;Tossido Printed Silk Pocket Square;Draft;Pocket Squares;Tossido;Adults-Men;Men;Red;;;Fashion;Casual;2017;Onesize,TSDOPKSQ00000204;799.00;;;<p>Dry Clean Only</p>;<p>13inch x 13inch</p>;;NA;;zerotype;;Winter;;No
2278310;SILKPSQ12-Purple-2278310;Tossido Printed Silk Pocket Square;Draft;Pocket Squares;Tossido;Adults-Men;Men;Purple;;;Fashion;Formal;2017;Onesize,TSDOPKSQ00000203;799.00;;;<p>Dry Clean Only</p>;<p>13inch x 13inch</p>;;NA;;zerotype;;Winter;;No
2278309;SILKPSQ05-Purple-2278309;Tossido Printed Silk Pocket Square;Draft;Pocket Squares;Tossido;Adults-Men;Men;Blue;;;Fashion;Casual;2017;Onesize,TSDOPKSQ00000202;799.00;;;<p>Dry Clean Only</p>;<p>13inch x 13inch</p>;;NA;;zerotype;;Winter;;No
2278308;SILKPSQ19-Blue-2278308;Tossido Printed Silk Pocket Square;Draft;Pocket Squares;Tossido;Adults-Men;Men;Blue;;;Fashion;Formal;2017;Onesize,TSDOPKSQ00000201;799.00;;;<p>Dry Clean Only</p>;<p>13inch x 13inch</p>;;NA;;zerotype;;Winter;;No
2278307;SILKPSQ09-Pink-2278307;Tossido Printed Silk Pocket Square;Draft;Pocket Squares;Tossido;Adults-Men;Men;Purple;;;Fashion;Formal;2017;Onesize,TSDOPKSQ00000200;799.00;;;<p>Dry Clean Only</p>;<p>13inch x 13inch</p>;;NA;;zerotype;;Winter;;No
2278306;SILKPSQ18-Pink-2278306;Tossido Printed Silk Pocket Square;Draft;Pocket Squares;Tossido;Adults-Men;Men;Pink;;;Fashion;Formal;2017;Onesize,TSDOPKSQ00000199;799.00;;;<p>Dry Clean Only</p>;<p>13inch x 13inch</p>;;NA;;zerotype;;Winter;;No
2278305;MNFL-65-R1-po5-Multi-2278305;Force NXT Men's Pack of 5 Trunks;Draft;Trunk;Force NXT;Adults-Men;Men;Multi;;;Fashion;Smart Casual;2017;S,FENTTRNK00000427,M,FENTTRNK00000428,L,FENTTRNK00000429,XL,FENTTRNK00000430;1635.00;;;;;;;;zerotype;;Summer;;No
2278304;MNFL-65-R1-po2-colmbia-blue-Sea Green Blue-2278304;Force NXT Men's Pack of 2 Trunks;Draft;Trunk;Force NXT;Adults-Men;Men;Sea Green;Blue;;Fashion;Smart Casual;2017;S,FENTTRNK00000423,M,FENTTRNK00000424,L,FENTTRNK00000425,XL,FENTTRNK00000426;654.00;;;;;;;;zerotype;;Summer;;No
2278303;MNFL-65-R1-po2-chlppr-bluatoll-Red Turquoise Blue-2278303;Force NXT Men's Pack of 2 Trunks;Draft;Trunk;Force NXT;Adults-Men;Men;Red;Turquoise Blue;;Fashion;Smart Casual;2017;S,FENTTRNK00000419,M,FENTTRNK00000420,L,FENTTRNK00000421,XL,FENTTRNK00000422;654.00;;;;;;;;zerotype;;Summer;;No
2278302;SILKPSQ06-Pink-2278302;Tossido Printed Silk Pocket Square;Draft;Pocket Squares;Tossido;Adults-Men;Men;Blue;;;Fashion;Formal;2017;Onesize,TSDOPKSQ00000198;799.00;;;<p>Dry Clean Only</p>;<p>13inch x 13inch</p>;;NA;;zerotype;;Winter;;No
2278301;SILKPSQ14-Magenta-2278301;Tossido Printed Silk Pocket Square;Draft;Pocket Squares;Tossido;Adults-Men;Men;Magenta;;;Fashion;Formal;2017;Onesize,TSDOPKSQ00000197;799.00;;;<p>Dry Clean Only</p>;<p>13inch x 13inch</p>;;NA;;zerotype;;Winter;;No
2278208;Raveena-XXL-Grey Pink Purple-2278208;Raveena-XXL;Draft;Briefs;Leading Lady;Adults-Women;Women;Grey;Pink;Purple;Fashion;Smart Casual;2017;S,LDLDBREF00000669,M,LDLDBREF00000670,L,LDLDBREF00000671,XL,LDLDBREF00000672,XXL,LDLDBREF00000673;499.00;;;;;;;;zerotype;;Summer;;No
2278207;Dare-XXL-Green Blue Red-2278207;Dare-XXL;Draft;Briefs;Leading Lady;Adults-Women;Women;Green;Blue;Red;Fashion;Smart Casual;2017;S,LDLDBREF00000664,M,LDLDBREF00000665,L,LDLDBREF00000666,XL,LDLDBREF00000667,XXL,LDLDBREF00000668;499.00;;;;;;;;zerotype;;Summer;;No
2278196;BBAPLDK47561_XXL-Blue-2278196;Duke Stardust Baltic Blue Cotton Blend T-Shir;Draft;Tshirts;Duke;Adults-Men;Men;Blue;;;Fashion;;2017;S,DUKETSHT00013337,M,DUKETSHT00013338,L,DUKETSHT00013339,XL,DUKETSHT00013340,XXL,DUKETSHT00013341;845.00;;;<p>Machine Cold Wash, Cotton Blend</p>;<p>The model is (Height 6'2", Shoulder 16") is wearing size M )</p>;;;;zerotype;;Winter;;No
2278195;BBAPLDK47560_XXL-Coffee Brown-2278195;Duke Stardust Red Cotton Blend T-Shirt;Draft;Tshirts;Duke;Adults-Men;Men;Coffee Brown;;;Fashion;;2017;S,DUKETSHT00013332,M,DUKETSHT00013333,L,DUKETSHT00013334,XL,DUKETSHT00013335,XXL,DUKETSHT00013336;845.00;;;<p>Machine Cold Wash, Cotton Blend</p>;<p>The model is (Height 6'2", Shoulder 16") is wearing size M )</p>;;;;zerotype;;Winter;;No
2278194;BBAPLDK47555_XXL-Off White Grey Green-2278194;Duke Stardust Black Grindal Cotton Blend T-Sh;Draft;Tshirts;Duke;Adults-Men;Men;Off White;Grey;Green;Fashion;;2017;S,DUKETSHT00013327,M,DUKETSHT00013328,L,DUKETSHT00013329,XL,DUKETSHT00013330,XXL,DUKETSHT00013331;845.00;;;<p>Machine Cold Wash, Cotton Blend</p>;<p>The model is (Height 6'2", Shoulder 16") is wearing size M )</p>;;;;zerotype;;Winter;;No
2278193;BBAPLDK47554_XXL-Off White Grey Blue-2278193;Duke Stardust Sky Cotton Blend T-Shirt;Draft;Tshirts;Duke;Adults-Men;Men;Off White;Grey;Blue;Fashion;;2017;S,DUKETSHT00013322,M,DUKETSHT00013323,L,DUKETSHT00013324,XL,DUKETSHT00013325,XXL,DUKETSHT00013326;845.00;;;<p>Machine Cold Wash, Cotton Blend</p>;<p>The model is (Height 6'2", Shoulder 16") is wearing size M )</p>;;;;zerotype;;Winter;;No
2278141;AW17-DRSPRT-242-Black Blue-2278141;Girls Hi Fashion Dress;Draft;Dresses;Soul Fairy;Kids-Girls;Girls;Black;Blue;;Fashion;Casual;2017;12-18M,SLRYDRSS00001050,18-24M,SLRYDRSS00001051,2-3Y,SLRYDRSS00001052,3-4Y,SLRYDRSS00001053,5-6Y,SLRYDRSS00001054,7-8Y,SLRYDRSS00001055,9-10Y,SLRYDRSS00001056;1599.00;<p>Soul Fairy trendy girls printed cold shoulder  party dress with cap sleeves.</p>;;<p>Body Fabric : Georgette, Body fabric content : 100% Polyester,Lining fabric : Polyknit Lining fabric content   100% Polyester</p>;<p>Regular Size</p>;;Girls Hi Fashion dress;;zerotype;;Winter;;No
2278140;AW17-DRSPRT-241-Magenta-2278140;Girls Hi Fashion Dress;Draft;Dresses;Soul Fairy;Kids-Girls;Girls;Magenta;;;Fashion;Casual;2017;12-18M,SLRYDRSS00001043,18-24M,SLRYDRSS00001044,2-3Y,SLRYDRSS00001045,3-4Y,SLRYDRSS00001046,5-6Y,SLRYDRSS00001047,7-8Y,SLRYDRSS00001048,9-10Y,SLRYDRSS00001049;1599.00;<p>Soul Fairy trendy girls printed cold shoulder  party dress with cap sleeves.</p>;;<p>Body Fabric : Georgette, Body fabric content : 100% Polyester,Lining fabric : Polyknit Lining fabric content   100% Polyester</p>;<p>Regular Size</p>;;Girls Hi Fashion dress;;zerotype;;Winter;;No
2278139;AW17-BLSPRT-245-Red-2278139;Girls Fashion Top;Draft;Tops;Soul Fairy;Kids-Girls;Girls;Red;;;Fashion;Casual;2017;0-6M,SLRYTOPS00000512,6-12M,SLRYTOPS00000513,12-18M,SLRYTOPS00000514,18-24M,SLRYTOPS00000515,2-3Y,SLRYTOPS00000516,3-4Y,SLRYTOPS00000517,5-6Y,SLRYTOPS00000518,7-8Y,SLRYTOPS00000519,9-10Y,SLRYTOPS00000520;799.00;<p>Soul Fairy Hi Fashion & trendy sleeveless printed layered top cut in bias for a great fall.</p>;;<p>Top Fabric : Georgette , Top Fabric content : 100% Polyester</p>;<p>Regular fit & size.</p>;;Girls Fashion top;;zerotype;;Winter;;No
2278138;AW17-BLSPRT-208-Lavender-2278138;Girls Fashion Top;Draft;Tops;Soul Fairy;Kids-Girls;Girls;Lavender;;;Fashion;Casual;2017;0-6M,SLRYTOPS00000504,6-12M,SLRYTOPS00000505,12-18M,SLRYTOPS00000506,18-24M,SLRYTOPS00000507,2-3Y,SLRYTOPS00000508,3-4Y,SLRYTOPS00000509,5-6Y,SLRYTOPS00000510,7-8Y,SLRYTOPS00000511;699.00;<p>Soul Fairy Hi Fashion & Trendy Printed Ruffle  Peter pan Collar Blouse</p>;;<p>Top Fabric : Georgette , Top Fabric content : 100% Polyester</p>;<p>Regular fit & size.</p>;;Girls Fashion top;;zerotype;;Winter;;No
2278137;AW17-BLSPRT-243-Blue Orange-2278137;Girls Fashion Top;Draft;Tops;Soul Fairy;Kids-Girls;Girls;Blue;Orange;;Fashion;Casual;2017;0-6M,SLRYTOPS00000495,6-12M,SLRYTOPS00000496,12-18M,SLRYTOPS00000497,18-24M,SLRYTOPS00000498,2-3Y,SLRYTOPS00000499,3-4Y,SLRYTOPS00000500,5-6Y,SLRYTOPS00000501,7-8Y,SLRYTOPS00000502,9-10Y,SLRYTOPS00000503;799.00;<p>Soul Fairy Hi Fashion & trendy sleeveless printed layered top cut in bias for a great fall.</p>;;<p>Top Fabric : Georgette , Top Fabric content : 100% Polyester</p>;<p>Regular fit & size.</p>;;Girls Fashion top;;zerotype;;Winter;;No
2278136;AW17-BLSPRT-244-Magenta-2278136;Girls Fashion Top;Draft;Tops;Soul Fairy;Kids-Girls;Girls;Magenta;;;Fashion;Casual;2017;0-6M,SLRYTOPS00000486,6-12M,SLRYTOPS00000487,12-18M,SLRYTOPS00000488,18-24M,SLRYTOPS00000489,2-3Y,SLRYTOPS00000490,3-4Y,SLRYTOPS00000491,5-6Y,SLRYTOPS00000492,7-8Y,SLRYTOPS00000493,9-10Y,SLRYTOPS00000494;799.00;<p>Soul Fairy Hi Fashion & trendy sleeveless printed layered top cut in bias for a great fall.</p>;;<p>Top Fabric : Georgette , Top Fabric content : 100% Polyester</p>;<p>Regular fit & size.</p>;;Girls Fashion top;;zerotype;;Winter;;No
2110131;MNFL-42-63-po2-red-dnvm-Red Navy Blue-2110131;Force NXT Men Pack of 2 Printed Trunks;Active;Trunk;Force NXT;Adults-Men;Men;Red;Navy Blue;;Fashion;Smart Casual;2017;S,FENTTRNK00000383,M,FENTTRNK00000384,L,FENTTRNK00000385,XL,FENTTRNK00000386;568.00;<a href='/pack?src=pd' class='seolink'>Pack</a> of two mid-rise trunks <a href='/in-red?src=pd' class='seolink'>in red</a> and <a href='/navy-blue?src=pd' class='seolink'>navy blue</a>, each with an elasticated waistband and a double-layered contoured front pouch;These trunks offer essential comfort and ensure good fit and feel. They provide optimal support and keep you at ease all day long.;Cotton blend<br />Machine-wash;;;Force NXT Pack of 2 Trunks MNFL-42-63;Force NXT,JIT,bbd17-coupon-offer,coh-exp-aug,bbd17-combo-buy3,uber-offer-sept25,bbd17-extra20,welcome-to-myntra-oct17,coupon-offer-diwali17,ds17-buy2-1999,buy2-ds17,buy2-oct15,menscasualfest-nov;zerotype;;Summer;menscasualfest-nov;No
2110128;MNFL-42-62-po2-blue-mrn-Blue Maroon-2110128;Force NXT Men Pack of 2 Printed Trunks;Active;Trunk;Force NXT;Adults-Men;Men;Blue;Maroon;;Fashion;Smart Casual;2017;S,FENTTRNK00000371,M,FENTTRNK00000372,L,FENTTRNK00000373,XL,FENTTRNK00000374;568.00;<a href='/pack?src=pd' class='seolink'>Pack</a> of two printed mid-rise trunks in <a href='/blue?src=pd' class='seolink'>blue</a> and <a href='/maroon?src=pd' class='seolink'>maroon</a>, each with an elasticated waistband and a double-layered contoured front pouch;These trunks offer essential comfort and ensure good fit and feel. They provide optimal support and keep you at ease all day long.;Cotton blend<br />Machine-wash;;;Force NXT Pack of 2 Printed Trunks MNFL-42;Force NXT,JIT,bbd17-coupon-offer,coh-exp-aug,bbd17-combo-buy3,uber-offer-sept25,bbd17-extra20,welcome-to-myntra-oct17,coupon-offer-diwali17,ds17-buy2-1999,buy2-ds17,buy2-oct15,menscasualfest-nov,bfg17-non-disc;zerotype;;Summer;bfg17-non-disc;No
1985674;MNFL-11-51-53-po3-red-yellow-dnvm-Red Yellow Navy Blue-1985674;Force NXT Men Pack of 3 Printed Briefs;Active;Briefs;Force NXT;Adults-Men;Men;Yellow;Navy Blue;Red;Fashion;Casual;2017;S,FENTBREF00000412,M,FENTBREF00000413,L,FENTBREF00000414,XL,FENTBREF00000415;805.00;Pack of three mid-rise printed briefs in <a href='/yellow?src=pd' class='seolink'>yellow</a>, <a href='/navy-blue?src=pd' class='seolink'>navy blue</a> and <a href='/red?src=pd' class='seolink'>red</a>, each with an elasticated waistband and a panelled front with a double-layered contoured pouch;Be comfortable all day long in these briefs. The snug fit and stylish design will definitely make them your favourite.;Cotton<br />Machine-wash;;;Force NXT Men Pack of 3 Printed Briefs MNFL-11-51-53;Force NXT,JIT,duty-offer-august,welcome-to-myntra-august17,extra500-jul24,min500-jul29,uber-offer-jul31,buy3-2499-3107,uber-offer-aug-rtf,coupon-offer-aug19,coupon-offer-23aug,coh-exp-aug,extra20-sports,sw-buy3-2499,aug31-buy3,welcome-to-mynt-v2sep2017,welcome-to-myntra-sep2017,dutyfree-sept17,buy3-sept13,uber-offer-sept25,bbd17-extra20,welcome-to-myntra-oct17,flash-sale-oct21,menscasualfest-nov,bfg17-non-disc;zerotype;;Summer;bfg17-non-disc;No
