Style ID;Vendor Article Number;Vendor Article Name;Active Status;Article type;Brand;Age Group;Gender;Base Colour;Colour1;Colour2;Fashion Type;Usage;Year;Size - SKU code pair;MRP;Style Description;Style Note;Materials and Care Description;Size and Fit Description;Size Chart Path;Product Display Name;Tags;Product Type;Classification Brand;Season;Comments;Upload Images
2056573;91524F G-Green-2056573;SET-TOP & DUNGAREE;Draft;Clothing Set;FS Mini Klub;Kids-Boys;Boys;Green;;;Fashion;;2017;12-18M,FSMKCLST00000824,18-24M,FSMKCLST00000825,2-3Y,FSMKCLST00000826,6-12M,FSMKCLST00000827;1399.00;;;<p>Machine wash with Similar Color</p>;;;;;zerotype;;Fall;;No
2056572;91507F GY MARL-Grey-2056572;SET-TOP & DUNGAREE;Draft;Clothing Set;FS Mini Klub;Kids-Boys;Boys;Grey;;;Fashion;;2017;12-18M,FSMKCLST00000820,18-24M,FSMKCLST00000821,2-3Y,FSMKCLST00000822,6-12M,FSMKCLST00000823;1349.00;;;<p>Machine wash with Similar Color</p>;;;;;zerotype;;Fall;;No
2056571;91104E TURQ-Blue-2056571;SET-TOP & LEGGING;Draft;Clothing Set;FS Mini Klub;Kids-Girls;Girls;Blue;;;Fashion;;2017;0-3M,FSMKCLST00000815,12-18M,FSMKCLST00000816,3-6M,FSMKCLST00000817,6-9M,FSMKCLST00000818,9-12M,FSMKCLST00000819;799.00;;;<p>Machine wash with Similar Color</p>;;;;;zerotype;;Fall;;No
2056569;91085E PI-Pink-2056569;SET-TEE & PINNY;Draft;Clothing Set;FS Mini Klub;Kids-Girls;Girls;Pink;;;Fashion;;2017;0-3M,FSMKCLST00000810,12-18M,FSMKCLST00000811,3-6M,FSMKCLST00000812,6-9M,FSMKCLST00000813,9-12M,FSMKCLST00000814;999.00;;;<p>Machine wash with Similar Color</p>;;;;;zerotype;;Fall;;No
2056568;91027E MULTI-Multi-2056568;SET-TEE & DUNGAREE;Draft;Clothing Set;FS Mini Klub;Kids-Boys;Boys;Multi;;;Fashion;;2017;0-3M,FSMKCLST00000805,12-18M,FSMKCLST00000806,3-6M,FSMKCLST00000807,6-9M,FSMKCLST00000808,9-12M,FSMKCLST00000809;1099.00;;;<p>Machine wash with Similar Color</p>;;;;;zerotype;;Fall;;No
2056567;910039E MULTI-Multi-2056567;SET-TOP & BOTTOM;Draft;Clothing Set;FS Mini Klub;Kids-Girls;Girls;Multi;;;Fashion;;2017;0-3M,FSMKCLST00000801,3-6M,FSMKCLST00000802,6-9M,FSMKCLST00000803,9-12M,FSMKCLST00000804;799.00;;;<p>Machine wash with Similar Color</p>;;;;;zerotype;;Fall;;No
2056566;90997ER LT BLU-Blue-2056566;PLAYSET;Draft;Clothing Set;FS Mini Klub;Kids-Girls;Girls;Blue;;;Fashion;;2017;0-3M,FSMKCLST00000798,3-6M,FSMKCLST00000799,6-9M,FSMKCLST00000800;599.00;;;<p>Machine wash with Similar Color</p>;;;;;zerotype;;Fall;;No
2056565;90996ER Y-Yellow-2056565;TOP AND CAPRI SET;Draft;Clothing Set;FS Mini Klub;Kids-Girls;Girls;Yellow;;;Fashion;;2017;0-3M,FSMKCLST00000794,3-6M,FSMKCLST00000795,6-9M,FSMKCLST00000796,9-12M,FSMKCLST00000797;499.00;;;<p>Machine wash with Similar Color</p>;;;;;zerotype;;Fall;;No
2056564;90994ER LT BLU-Blue-2056564;TOP AND SKIRT SET;Draft;Clothing Set;FS Mini Klub;Kids-Girls;Girls;Blue;;;Fashion;;2017;0-3M,FSMKCLST00000790,3-6M,FSMKCLST00000791,6-9M,FSMKCLST00000792,9-12M,FSMKCLST00000793;399.00;;;<p>Machine wash with Similar Color</p>;;;;;zerotype;;Fall;;No
2056563;90904ER CITRUS GREEN-Green-2056563;TOP AND  BTM SET;Draft;Clothing Set;FS Mini Klub;Kids-Boys;Boys;Green;;;Fashion;;2017;0-3M,FSMKCLST00000787,3-6M,FSMKCLST00000788,6-9M,FSMKCLST00000789;399.00;;;<p>Machine wash with Similar Color</p>;;;;;zerotype;;Fall;;No
2056562;90903ER CIG-Green-2056562;TOP AND  BTM SET;Draft;Clothing Set;FS Mini Klub;Kids-Boys;Boys;Green;;;Fashion;;2017;0-3M,FSMKCLST00000783,3-6M,FSMKCLST00000784,6-9M,FSMKCLST00000785,9-12M,FSMKCLST00000786;399.00;;;<p>Machine wash with Similar Color</p>;;;;;zerotype;;Fall;;No
2056561;90871ER AQUA-Blue-2056561;TOP AND SKIRT SET;Draft;Clothing Set;FS Mini Klub;Kids-Girls;Girls;Blue;;;Fashion;;2017;0-3M,FSMKCLST00000780,3-6M,FSMKCLST00000781,6-9M,FSMKCLST00000782;699.00;;;<p>Machine wash with Similar Color</p>;;;;;zerotype;;Fall;;No
2056560;90845E PI-Pink-2056560;DUNGAREE SET;Draft;Clothing Set;FS Mini Klub;Kids-Girls;Girls;Pink;;;Fashion;;2017;0-3M,FSMKCLST00000775,12-18M,FSMKCLST00000776,3-6M,FSMKCLST00000777,6-9M,FSMKCLST00000778,9-12M,FSMKCLST00000779;1399.00;;;<p>Machine wash with Similar Color</p>;;;;;zerotype;;Fall;;No
2056559;90842E MULTI-Multi-2056559;TOP AND BOTTOM SET;Draft;Clothing Set;FS Mini Klub;Kids-Girls;Girls;Multi;;;Fashion;;2017;0-3M,FSMKCLST00000770,12-18M,FSMKCLST00000771,3-6M,FSMKCLST00000772,6-9M,FSMKCLST00000773,9-12M,FSMKCLST00000774;899.00;;;<p>Machine wash with Similar Color</p>;;;;;zerotype;;Fall;;No
2056558;90719ER W-White-2056558;NIGHTWEAR SET;Draft;Clothing Set;FS Mini Klub;Kids-Girls;Girls;White;;;Fashion;;2017;0-3M,FSMKCLST00000766,3-6M,FSMKCLST00000767,6-9M,FSMKCLST00000768,9-12M,FSMKCLST00000769;499.00;;;<p>Machine wash with Similar Color</p>;;;;;zerotype;;Fall;;No
2056556;90711ER AQUA-Blue-2056556;NIGHTWEAR SET;Draft;Clothing Set;FS Mini Klub;Kids-Girls;Girls;Blue;;;Fashion;;2017;0-3M,FSMKCLST00000762,3-6M,FSMKCLST00000763,6-9M,FSMKCLST00000764,9-12M,FSMKCLST00000765;499.00;;;<p>Machine wash with Similar Color</p>;;;;;zerotype;;Fall;;No
2056555;90708ER MULTI-Multi-2056555;NIGHTWEAR SET;Draft;Clothing Set;FS Mini Klub;Kids-Girls;Girls;Multi;;;Fashion;;2017;0-3M,FSMKCLST00000758,3-6M,FSMKCLST00000759,6-9M,FSMKCLST00000760,9-12M,FSMKCLST00000761;599.00;;;<p>Machine wash with Similar Color</p>;;;;;zerotype;;Fall;;No
2056554;90639FR RD-Red-2056554;PJ SET;Draft;Clothing Set;FS Mini Klub;Kids-Girls;Girls;Red;;;Fashion;;2017;12-18M,FSMKCLST00000754,18-24M,FSMKCLST00000755,2-3Y,FSMKCLST00000756,3-4Y,FSMKCLST00000757;599.00;;;<p>Machine wash with Similar Color</p>;;;;;zerotype;;Fall;;No
2056553;90638FR GREY MARL-Grey-2056553;PJ SET;Draft;Clothing Set;FS Mini Klub;Kids-Girls;Girls;Grey;;;Fashion;;2017;12-18M,FSMKCLST00000750,18-24M,FSMKCLST00000751,2-3Y,FSMKCLST00000752,3-4Y,FSMKCLST00000753;599.00;;;<p>Machine wash with Similar Color</p>;;;;;zerotype;;Fall;;No
2056552;90636EB MULTI-Multi-2056552;TOP AND BOTTOM SET;Draft;Clothing Set;FS Mini Klub;Kids-Boys;Boys;Multi;;;Fashion;;2017;0-3M,FSMKCLST00000745,12-18M,FSMKCLST00000746,3-6M,FSMKCLST00000747,6-9M,FSMKCLST00000748,9-12M,FSMKCLST00000749;999.00;;;<p>Machine wash with Similar Color</p>;;;;;zerotype;;Fall;;No
2056551;90621FR W-White-2056551;PJ SET;Draft;Clothing Set;FS Mini Klub;Kids-Girls;Girls;White;;;Fashion;;2017;12-18M,FSMKCLST00000741,18-24M,FSMKCLST00000742,2-3Y,FSMKCLST00000743,3-4Y,FSMKCLST00000744;599.00;;;<p>Machine wash with Similar Color</p>;;;;;zerotype;;Fall;;No
2056550;90299E OR-Orange-2056550;DUNGAREE SET;Draft;Clothing Set;FS Mini Klub;Kids-Girls;Girls;Orange;;;Fashion;;2017;12-18M,FSMKCLST00000736,18-24M,FSMKCLST00000737,3-6M,FSMKCLST00000738,6-9M,FSMKCLST00000739,9-12M,FSMKCLST00000740;999.00;;;<p>Machine wash with Similar Color</p>;;;;;zerotype;;Fall;;No
2056549;90144FR LILAC PINK-Pink-2056549;NIGHTWEAR SET - S/L;Draft;Clothing Set;FS Mini Klub;Kids-Girls;Girls;Pink;;;Fashion;;2017;12-18M,FSMKCLST00000732,18-24M,FSMKCLST00000733,2-3Y,FSMKCLST00000734,3-4Y,FSMKCLST00000735;599.00;;;<p>Machine wash with Similar Color</p>;;;;;zerotype;;Fall;;No
2056548;901239ER Y-Yellow-2056548;POPLIN TOP & BOTTOM SET;Draft;Clothing Set;FS Mini Klub;Kids-Girls;Girls;Yellow;;;Fashion;;2017;12-18M,FSMKCLST00000727,18-24M,FSMKCLST00000728,3-6M,FSMKCLST00000729,6-9M,FSMKCLST00000730,9-12M,FSMKCLST00000731;899.00;;;<p>Machine wash with Similar Color</p>;;;;;zerotype;;Fall;;No
2056547;90076F W-White-2056547;TOP AND BOTTOM SET;Draft;Clothing Set;FS Mini Klub;Kids-Girls;Girls;White;;;Fashion;;2017;12-18M,FSMKCLST00000723,18-24M,FSMKCLST00000724,2-3Y,FSMKCLST00000725,6-12M,FSMKCLST00000726;1699.00;;;<p>Machine wash with Similar Color</p>;;;;;zerotype;;Fall;;No
2056546;90063F SUGAR CORAL-Coral-2056546;TOP AND BOTTOM SET;Draft;Clothing Set;FS Mini Klub;Kids-Girls;Girls;Coral;;;Fashion;;2017;12-18M,FSMKCLST00000719,18-24M,FSMKCLST00000720,2-3Y,FSMKCLST00000721,6-12M,FSMKCLST00000722;1499.00;;;<p>Machine wash with Similar Color</p>;;;;;zerotype;;Fall;;No
2056545;89310EB AQUA COMBO-Blue-2056545;TOP AND BOTTOM SET;Draft;Clothing Set;FS Mini Klub;Kids-Girls;Girls;Blue;;;Fashion;;2017;0-3M,FSMKCLST00000713,12-18M,FSMKCLST00000714,18-24M,FSMKCLST00000715,3-6M,FSMKCLST00000716,6-9M,FSMKCLST00000717,9-12M,FSMKCLST00000718;999.00;;;<p>Machine wash with Similar Color</p>;;;;;zerotype;;Fall;;No
2056544;89297EA NAVY COMBO-Navy Blue-2056544;TOP AND BOTTOM SET;Draft;Clothing Set;FS Mini Klub;Kids-Girls;Girls;Navy Blue;;;Fashion;;2017;0-3M,FSMKCLST00000707,12-18M,FSMKCLST00000708,18-24M,FSMKCLST00000709,3-6M,FSMKCLST00000710,6-9M,FSMKCLST00000711,9-12M,FSMKCLST00000712;999.00;;;<p>Machine wash with Similar Color</p>;;;;;zerotype;;Fall;;No
2056543;89296EA HOT PINK-Pink-2056543;TOP AND BOTTOM SET;Draft;Clothing Set;FS Mini Klub;Kids-Girls;Girls;Pink;;;Fashion;;2017;0-3M,FSMKCLST00000701,12-18M,FSMKCLST00000702,18-24M,FSMKCLST00000703,3-6M,FSMKCLST00000704,6-9M,FSMKCLST00000705,9-12M,FSMKCLST00000706;999.00;;;<p>Machine wash with Similar Color</p>;;;;;zerotype;;Fall;;No
2056542;89243EA GREY-Grey-2056542;DUNGAREE SET;Draft;Clothing Set;FS Mini Klub;Kids-Boys;Boys;Grey;;;Fashion;;2017;0-3M,FSMKCLST00000697,3-6M,FSMKCLST00000698,6-9M,FSMKCLST00000699,9-12M,FSMKCLST00000700;1299.00;;;<p>Machine wash with Similar Color</p>;;;;;zerotype;;Fall;;No
2056541;89242EBW N-Navy Blue-2056541;WADDED DUNGAREE SET;Draft;Clothing Set;FS Mini Klub;Kids-Boys;Boys;Navy Blue;;;Fashion;;2017;0-3M,FSMKCLST00000693,3-6M,FSMKCLST00000694,6-9M,FSMKCLST00000695,9-12M,FSMKCLST00000696;1399.00;;;<p>Machine wash with Similar Color</p>;;;;;zerotype;;Fall;;No
2056540;89240EA N-Navy Blue-2056540;TOP & BOTTOM SET;Draft;Clothing Set;FS Mini Klub;Kids-Boys;Boys;Navy Blue;;;Fashion;;2017;0-3M,FSMKCLST00000687,12-18M,FSMKCLST00000688,18-24M,FSMKCLST00000689,3-6M,FSMKCLST00000690,6-9M,FSMKCLST00000691,9-12M,FSMKCLST00000692;999.00;;;<p>Machine wash with Similar Color</p>;;;;;zerotype;;Fall;;No
2056539;89238EB BL-Blue-2056539;TOP & BOTTOM SET;Draft;Clothing Set;FS Mini Klub;Kids-Boys;Boys;Blue;;;Fashion;;2017;0-3M,FSMKCLST00000681,12-18M,FSMKCLST00000682,18-24M,FSMKCLST00000683,3-6M,FSMKCLST00000684,6-9M,FSMKCLST00000685,9-12M,FSMKCLST00000686;999.00;;;<p>Machine wash with Similar Color</p>;;;;;zerotype;;Fall;;No
2056538;892246E MULTI-Multi-2056538;PLAY SET;Draft;Clothing Set;FS Mini Klub;Kids-Girls;Girls;Multi;;;Fashion;;2017;0-3M,FSMKCLST00000677,3-6M,FSMKCLST00000678,6-9M,FSMKCLST00000679,9-12M,FSMKCLST00000680;999.00;;;<p>Machine wash with Similar Color</p>;;;;;zerotype;;Fall;;No
2056537;892225E MULTI-Multi-2056537;NIGHTWEAR SET;Draft;Clothing Set;FS Mini Klub;Kids-Girls;Girls;Multi;;;Fashion;;2017;0-3M,FSMKCLST00000673,3-6M,FSMKCLST00000674,6-9M,FSMKCLST00000675,9-12M,FSMKCLST00000676;599.00;;;<p>Machine wash with Similar Color</p>;;;;;zerotype;;Fall;;No
2056536;892189E MULTI-Multi-2056536;QUILTED PINNY SET;Draft;Clothing Set;FS Mini Klub;Kids-Girls;Girls;Multi;;;Fashion;;2017;0-3M,FSMKCLST00000667,12-18M,FSMKCLST00000668,18-24M,FSMKCLST00000669,3-6M,FSMKCLST00000670,6-9M,FSMKCLST00000671,9-12M,FSMKCLST00000672;1099.00;;;<p>Machine wash with Similar Color</p>;;;;;zerotype;;Fall;;No
2056535;892157E MULTI-Multi-2056535;WADDED DUNGAREE SET;Draft;Clothing Set;FS Mini Klub;Kids-Boys;Boys;Multi;;;Fashion;;2017;0-3M,FSMKCLST00000663,3-6M,FSMKCLST00000664,6-9M,FSMKCLST00000665,9-12M,FSMKCLST00000666;1499.00;;;<p>Machine wash with Similar Color</p>;;;;;zerotype;;Fall;;No
2056534;892040E HPI COM-Pink-2056534;PLAY SET;Draft;Clothing Set;FS Mini Klub;Kids-Girls;Girls;Pink;;;Fashion;;2017;0-3M,FSMKCLST00000657,12-18M,FSMKCLST00000658,18-24M,FSMKCLST00000659,3-6M,FSMKCLST00000660,6-9M,FSMKCLST00000661,9-12M,FSMKCLST00000662;999.00;;;<p>Machine wash with Similar Color</p>;;;;;zerotype;;Fall;;No
2056533;892014E GY MARL-Grey-2056533;THERMAL SET;Draft;Clothing Set;FS Mini Klub;Kids-Boys;Boys;Grey;;;Fashion;;2017;0-6M,FSMKCLST00000652,12-18M,FSMKCLST00000653,18-24M,FSMKCLST00000654,2-3Y,FSMKCLST00000655,6-12M,FSMKCLST00000656;699.00;;;<p>Machine wash with Similar Color</p>;;;;;zerotype;;Fall;;No
2056532;892012E W-White-2056532;THERMAL SET;Draft;Clothing Set;FS Mini Klub;Kids-Boys;Boys;White;;;Fashion;;2017;0-6M,FSMKCLST00000647,12-18M,FSMKCLST00000648,18-24M,FSMKCLST00000649,2-3Y,FSMKCLST00000650,6-12M,FSMKCLST00000651;699.00;;;<p>Machine wash with Similar Color</p>;;;;;zerotype;;Fall;;No
2056531;88EGSTB0096 W-White-2056531;PLAY SET;Draft;Clothing Set;FS Mini Klub;Kids-Girls;Girls;White;;;Fashion;;2017;0-3M,FSMKCLST00000641,12-18M,FSMKCLST00000642,18-24M,FSMKCLST00000643,3-6M,FSMKCLST00000644,6-9M,FSMKCLST00000645,9-12M,FSMKCLST00000646;599.00;;;<p>Machine wash with Similar Color</p>;;;;;zerotype;;Fall;;No
2056530;88EBSTB0053 W-White-2056530;PLAY SET;Draft;Clothing Set;FS Mini Klub;Kids-Boys;Boys;White;;;Fashion;;2017;0-3M,FSMKCLST00000635,12-18M,FSMKCLST00000636,18-24M,FSMKCLST00000637,3-6M,FSMKCLST00000638,6-9M,FSMKCLST00000639,9-12M,FSMKCLST00000640;649.00;;;<p>Machine wash with Similar Color</p>;;;;;zerotype;;Fall;;No
2056529;85FG06W PI-Pink-2056529;WADDED DUNGAREE SET;Draft;Clothing Set;FS Mini Klub;Kids-Girls;Girls;Pink;;;Fashion;;2017;0-3M,FSMKCLST00000631,3-6M,FSMKCLST00000632,6-9M,FSMKCLST00000633,9-12M,FSMKCLST00000634;1499.00;;;<p>Machine wash with Similar Color</p>;;;;;zerotype;;Fall;;No
2056528;85FG05 CO-Coral-2056528;TEE AND DENIM SET;Draft;Clothing Set;FS Mini Klub;Kids-Girls;Girls;Coral;;;Fashion;;2017;0-3M,FSMKCLST00000627,3-6M,FSMKCLST00000628,6-9M,FSMKCLST00000629,9-12M,FSMKCLST00000630;1299.00;;;<p>Machine wash with Similar Color</p>;;;;;zerotype;;Fall;;No
2056527;85FG04 DK DENIM-Blue-2056527;PINNY SET;Draft;Clothing Set;FS Mini Klub;Kids-Girls;Girls;Blue;;;Fashion;;2017;0-3M,FSMKCLST00000623,3-6M,FSMKCLST00000624,6-9M,FSMKCLST00000625,9-12M,FSMKCLST00000626;1299.00;;;<p>Machine wash with Similar Color</p>;;;;;zerotype;;Fall;;No
2056526;85051E R-Red-2056526;PINNY SET;Draft;Clothing Set;FS Mini Klub;Kids-Girls;Girls;Red;;;Fashion;;2017;0-3M,FSMKCLST00000617,12-18M,FSMKCLST00000618,18-24M,FSMKCLST00000619,3-6M,FSMKCLST00000620,6-9M,FSMKCLST00000621,9-12M,FSMKCLST00000622;999.00;;;<p>Machine wash with Similar Color</p>;;;;;zerotype;;Fall;;No
2056525;85022E PI-Pink-2056525;SINGLE NIGHTWEAR PJ SET;Draft;Clothing Set;FS Mini Klub;Kids-Girls;Girls;Pink;;;Fashion;;2017;0-3M,FSMKCLST00000613,3-6M,FSMKCLST00000614,6-9M,FSMKCLST00000615,9-12M,FSMKCLST00000616;699.00;;;<p>Machine wash with Similar Color</p>;;;;;zerotype;;Fall;;No
2056524;85013E BLU-Blue-2056524;SINGLE NIGHTWEAR PJ SET;Draft;Clothing Set;FS Mini Klub;Kids-Boys;Boys;Blue;;;Fashion;;2017;0-3M,FSMKCLST00000609,3-6M,FSMKCLST00000610,6-9M,FSMKCLST00000611,9-12M,FSMKCLST00000612;699.00;;;<p>Machine wash with Similar Color</p>;;;;;zerotype;;Fall;;No
2056523;84711K R-Red-2056523;PJ SET;Draft;Clothing Set;FS Mini Klub;Kids-Boys;Boys;Red;;;Fashion;;2017;10Y,FSMKCLST00000605,4Y,FSMKCLST00000606,6Y,FSMKCLST00000607,8Y,FSMKCLST00000608;999.00;;;<p>Machine wash with Similar Color</p>;;;;;zerotype;;Fall;;No
2056522;84704K GREYMARL-Grey-2056522;PJ SET;Draft;Clothing Set;FS Mini Klub;Kids-Boys;Boys;Grey;;;Fashion;;2017;10Y,FSMKCLST00000601,4Y,FSMKCLST00000602,6Y,FSMKCLST00000603,8Y,FSMKCLST00000604;999.00;;;<p>Machine wash with Similar Color</p>;;;;;zerotype;;Fall;;No
2056521;84610T BLU-Blue-2056521;PJ SET;Draft;Clothing Set;FS Mini Klub;Kids-Girls;Girls;Blue;;;Fashion;;2017;12-18M,FSMKCLST00000597,18-24M,FSMKCLST00000598,2-3Y,FSMKCLST00000599,3-4Y,FSMKCLST00000600;899.00;;;<p>Machine wash with Similar Color</p>;;;;;zerotype;;Fall;;No
2056520;84351EW LT PINK COMBO-Pink-2056520;WADDED DUNGAREE SET;Draft;Clothing Set;FS Mini Klub;Kids-Girls;Girls;Pink;;;Fashion;;2017;0-3M,FSMKCLST00000593,3-6M,FSMKCLST00000594,6-9M,FSMKCLST00000595,9-12M,FSMKCLST00000596;1299.00;;;<p>Machine wash with Similar Color</p>;;;;;zerotype;;Fall;;No
1831165;892060E BLUE COMBO-Multi-1831165;Co-ordinate set;Draft;Clothing Set;FS Mini Klub;Kids-Boys;Boys;Multi;;;Fashion;;2016;0-3M,FSMKCLST00000513,3-6M,FSMKCLST00000514,6-9M,FSMKCLST00000515,9-12M,FSMKCLST00000516,12-18M,FSMKCLST00000517,18-24M,FSMKCLST00000518;999.00;;;;;;;;zerotype;;Winter;;No
770942;83168E YELLOW-YELLOW-770942;TOP AND  BTM SET;Inactive - Stock Correction;Clothing Set;FS Mini Klub;Kids-Boys;Boys;Yellow;White;;Fashion;Casual;2015;0-3M,FSMKCLST00000253,3-6M,FSMKCLST00000254,6-9M,FSMKCLST00000255,9-12M,FSMKCLST00000256,12-18M,FSMKCLST00000257,18-24M,FSMKCLST00000258;599.00;<p>This clothing set consists of a T-shirt and a pair of shorts<br />Yellow T-shirt, has a round neck, short sleeves, print on the front<br />A pair of white and orange printed shorts, has an elasticated waistband</p>;<p>Give your little one a fashion head start with the latest range of clothing set from FS Mini Klub. Team it with a pair of flip-flops for a relaxed and cool look.</p>;<p>100% cotton<br />Machine-wash warm</p>;;;FS Mini Klub Boys Yellow & White Printed Clothing Set;FS Mini Klub,,,HH20AUG2915,HH17SEP2015,dailyopenoffer30,dailyopenoffer20,HH21OCT2015,HH19NOV2015,MINIHH23NOV,ios-promotion-25nov,santactkids4,santactkids3;Clothing Set;FS Mini Klub;Summer;santactkids3;No
770932;83107E CO-Coral-770932;TOP AND SKIRT SET;Inactive - Stock Correction;Clothing Set;FS Mini Klub;Kids-Girls;Girls;Orange;White;;Fashion;Casual;2015;0-3M,FSMKCLST00000199,3-6M,FSMKCLST00000200,6-9M,FSMKCLST00000201,9-12M,FSMKCLST00000202,12-18M,FSMKCLST00000591,18-24M,FSMKCLST00000592;649.00;<p>This <a href='/clothing-set?src=pd' class='seolink'>clothing set</a> consists of a top and a skirt<br />Coral orange knitted top, has a round neck, short press-button placket on one shoulder, short sleeves, print and bow details on the front<br />White heart-print knitted flared skirt with orange and pink accents, has a an elasticated waistband with gathers below, lace trim along the hem</p>;<p>Let your little darling look her casual best as you dress her in this clothing set from FS Mini Klub. Let her wear it with a pair of sneakers for an adorable look.</p>;<p>100% cotton<br />Machine-wash</p>;;;FS Mini Klub Infant Girls Coral Orange & White Clothing Set;FS Mini Klub,,,HH20AUG2915,HH17SEP2015,dailyopenoffer30,dailyopenoffer20,santactkids4,santactkids3;Clothing Set;FS Mini Klub;Summer;santactkids3;No
