Style ID;Vendor Article Number;Vendor Article Name;Active Status;Article type;Brand;Age Group;Gender;Base Colour;Colour1;Colour2;Fashion Type;Usage;Year;Size - SKU code pair;MRP;Style Description;Style Note;Materials and Care Description;Size and Fit Description;Size Chart Path;Product Display Name;Tags;Product Type;Classification Brand;Season;Comments;Upload Images
2406520;VG306A-Black-2406520;VG306BLACK40;Draft;Sandals;Ferraiolo;Adults-Men;Men;Black;;;Core;Casual;2018;6,FRLOSNDL00000176,8,FRLOSNDL00000177,7,FRLOSNDL00000178,9,FRLOSNDL00000179,10,FRLOSNDL00000180;1799.00;;;<p>Leather</p>;;;Ferraiolo Leather Slippers;;zerotype;;Summer;;No
2406519;VG305A-Tan-2406519;VG305TAN43;Draft;Sandals;Ferraiolo;Adults-Men;Men;Tan;;;Core;Casual;2018;9,FRLOSNDL00000171,10,FRLOSNDL00000172,6,FRLOSNDL00000173,7,FRLOSNDL00000174,8,FRLOSNDL00000175;1799.00;;;<p>Leather</p>;;;Ferraiolo Leather Slippers;;zerotype;;Summer;;No
2406518;VG304A-Black-2406518;VG304BLACK40;Draft;Sandals;Ferraiolo;Adults-Men;Men;Black;;;Core;Casual;2018;6,FRLOSNDL00000166,8,FRLOSNDL00000167,10,FRLOSNDL00000168,7,FRLOSNDL00000169,9,FRLOSNDL00000170;1799.00;;;<p>Leather</p>;;;Ferraiolo Leather Slippers;;zerotype;;Summer;;No
2406517;VG303A-Tan-2406517;VG303TAN43;Draft;Sandals;Ferraiolo;Adults-Men;Men;Tan;;;Core;Casual;2018;9,FRLOSNDL00000161,8,FRLOSNDL00000162,7,FRLOSNDL00000163,6,FRLOSNDL00000164,10,FRLOSNDL00000165;1799.00;;;<p>Leather</p>;;;Ferraiolo Leather Slippers;;zerotype;;Summer;;No
2406516;VG302A-Beige-2406516;VG302BEIGE43;Draft;Sandals;Ferraiolo;Adults-Men;Men;Beige;;;Core;Casual;2018;9,FRLOSNDL00000156,10,FRLOSNDL00000157,6,FRLOSNDL00000158,7,FRLOSNDL00000159,8,FRLOSNDL00000160;1699.00;;;<p>Leather</p>;;;Ferraiolo Leather Slippers;;zerotype;;Summer;;No
2406515;VG301A-Tan-2406515;VG301TAN43;Draft;Sandals;Ferraiolo;Adults-Men;Men;Tan;;;Core;Casual;2018;9,FRLOSNDL00000151,10,FRLOSNDL00000152,6,FRLOSNDL00000153,7,FRLOSNDL00000154,8,FRLOSNDL00000155;1699.00;;;<p>Leather</p>;;;Ferraiolo Leather Slippers;;zerotype;;Summer;;No
2406514;VG206A-Black-2406514;VG206BLACK41;Draft;Sandals;Ferraiolo;Adults-Men;Men;Black;;;Core;Casual;2018;7,FRLOSNDL00000146,6,FRLOSNDL00000147,8,FRLOSNDL00000148,9,FRLOSNDL00000149,10,FRLOSNDL00000150;1999.00;;;<p>Leather</p>;;;Ferraiolo Leather Romans;;zerotype;;Summer;;No
2406513;VG205A-Tan-2406513;VG205TAN41;Draft;Sandals;Ferraiolo;Adults-Men;Men;Tan;;;Core;Casual;2018;7,FRLOSNDL00000141,9,FRLOSNDL00000142,8,FRLOSNDL00000143,6,FRLOSNDL00000144,10,FRLOSNDL00000145;1999.00;;;<p>Leather</p>;;;Ferraiolo Leather Romans;;zerotype;;Summer;;No
2406512;VG204A-Black-2406512;VG204BLACK42;Draft;Sandals;Ferraiolo;Adults-Men;Men;Black;;;Core;Casual;2018;8,FRLOSNDL00000136,6,FRLOSNDL00000137,9,FRLOSNDL00000138,10,FRLOSNDL00000139,7,FRLOSNDL00000140;1999.00;;;<p>Leather</p>;;;Ferraiolo Leather Romans;;zerotype;;Summer;;No
2406511;VG203A-Tan-2406511;VG203TAN44;Draft;Sandals;Ferraiolo;Adults-Men;Men;Tan;;;Core;Casual;2018;10,FRLOSNDL00000131,9,FRLOSNDL00000132,8,FRLOSNDL00000133,7,FRLOSNDL00000134,6,FRLOSNDL00000135;1999.00;;;<p>Leather</p>;;;Ferraiolo Leather Romans;;zerotype;;Summer;;No
2406510;VG202A-Tan-2406510;VG202TAN41;Draft;Sandals;Ferraiolo;Adults-Men;Men;Tan;;;Core;Casual;2018;7,FRLOSNDL00000126,6,FRLOSNDL00000127,8,FRLOSNDL00000128,10,FRLOSNDL00000129,9,FRLOSNDL00000130;1999.00;;;<p>Leather</p>;;;Ferraiolo Leather Romans;;zerotype;;Summer;;No
2406509;VG201A-Tan-2406509;VG201TAN44;Draft;Sandals;Ferraiolo;Adults-Men;Men;Tan;;;Core;Casual;2018;10,FRLOSNDL00000121,6,FRLOSNDL00000122,9,FRLOSNDL00000123,8,FRLOSNDL00000124,7,FRLOSNDL00000125;1999.00;;;<p>Leather</p>;;;Ferraiolo Leather Romans;;zerotype;;Summer;;No
