Style ID;Vendor Article Number;Vendor Article Name;Active Status;Article type;Brand;Age Group;Gender;Base Colour;Colour1;Colour2;Fashion Type;Usage;Year;Size - SKU code pair;MRP;Style Description;Style Note;Materials and Care Description;Size and Fit Description;Size Chart Path;Product Display Name;Tags;Product Type;Classification Brand;Season;Comments;Upload Images
1947276;W1813-BeigeYellowCheck-Beige-1947276;Rhodes Mandaraian collar 5 button waist coat;Draft;Waistcoat;Rhodes;Adults-Men;Men;;;;Fashion;;2017;36,RHDSWACO00000189,38,RHDSWACO00000190,40,RHDSWACO00000191,42,RHDSWACO00000192,44,RHDSWACO00000193,46,RHDSWACO00000194;2695.00;;;;;;;;zerotype;;Summer;;No
1947275;W173-Grey-Grey-1947275;Rhodes Mandaraian collar 5 button waist coat;Draft;Waistcoat;Rhodes;Adults-Men;Men;;;;Fashion;;2017;36,RHDSWACO00000183,38,RHDSWACO00000184,40,RHDSWACO00000185,42,RHDSWACO00000186,44,RHDSWACO00000187,46,RHDSWACO00000188;1895.00;;;;;;;;zerotype;;Summer;;No
1947274;W171-RedCheck-Red-1947274;Rhodes Mandaraian collar 5 button waist coat;Draft;Waistcoat;Rhodes;Adults-Men;Men;;;;Fashion;;2017;36,RHDSWACO00000177,38,RHDSWACO00000178,40,RHDSWACO00000179,42,RHDSWACO00000180,44,RHDSWACO00000181,46,RHDSWACO00000182;2195.00;;;;;;;;zerotype;;Summer;;No
1947273;W170-Black-Black-1947273;Rhodes Mandaraian collar 5 button waist coat;Draft;Waistcoat;Rhodes;Adults-Men;Men;;;;Fashion;;2017;36,RHDSWACO00000171,38,RHDSWACO00000172,40,RHDSWACO00000173,42,RHDSWACO00000174,44,RHDSWACO00000175,46,RHDSWACO00000176;2295.00;;;;;;;;zerotype;;Summer;;No
1947272;W168-YellowPrint-Yellow-1947272;Rhodes Mandaraian collar 5 button waist coat;Draft;Waistcoat;Rhodes;Adults-Men;Men;;;;Fashion;;2017;36,RHDSWACO00000165,38,RHDSWACO00000166,40,RHDSWACO00000167,42,RHDSWACO00000168,44,RHDSWACO00000169,46,RHDSWACO00000170;2495.00;;;;;;;;zerotype;;Summer;;No
1947271;W166-ChromeYellow-Yellow-1947271;Rhodes Mandaraian collar 5 button waist coat;Draft;Waistcoat;Rhodes;Adults-Men;Men;;;;Fashion;;2017;36,RHDSWACO00000159,38,RHDSWACO00000160,40,RHDSWACO00000161,42,RHDSWACO00000162,44,RHDSWACO00000163,46,RHDSWACO00000164;1995.00;;;;;;;;zerotype;;Summer;;No
1947270;W166-Black-Black-1947270;Rhodes Mandaraian collar 5 button waist coat;Draft;Waistcoat;Rhodes;Adults-Men;Men;;;;Fashion;;2017;36,RHDSWACO00000153,38,RHDSWACO00000154,40,RHDSWACO00000155,42,RHDSWACO00000156,44,RHDSWACO00000157,46,RHDSWACO00000158;1995.00;;;;;;;;zerotype;;Summer;;No
1947269;W1620-NavyBlueCheck-Blue-1947269;Rhodes Mandaraian collar 5 button waist coat;Draft;Waistcoat;Rhodes;Adults-Men;Men;;;;Fashion;;2017;36,RHDSWACO00000147,38,RHDSWACO00000148,40,RHDSWACO00000149,42,RHDSWACO00000150,44,RHDSWACO00000151,46,RHDSWACO00000152;2495.00;;;;;;;;zerotype;;Summer;;No
1947268;W161-LemonYellow-Yellow-1947268;Rhodes Mandaraian collar 5 button waist coat;Draft;Waistcoat;Rhodes;Adults-Men;Men;;;;Fashion;;2017;36,RHDSWACO00000141,38,RHDSWACO00000142,40,RHDSWACO00000143,42,RHDSWACO00000144,44,RHDSWACO00000145,46,RHDSWACO00000146;1895.00;;;;;;;;zerotype;;Summer;;No
1947267;W119-PinkPrint-Pink-1947267;Rhodes Mandaraian collar 5 button waist coat;Draft;Waistcoat;Rhodes;Adults-Men;Men;;;;Fashion;;2017;36,RHDSWACO00000135,38,RHDSWACO00000136,40,RHDSWACO00000137,42,RHDSWACO00000138,44,RHDSWACO00000139,46,RHDSWACO00000140;2495.00;;;;;;;;zerotype;;Summer;;No
1947266;W116-BeigePrint-Beige-1947266;Rhodes Mandaraian collar 5 button waist coat;Draft;Waistcoat;Rhodes;Adults-Men;Men;;;;Fashion;;2017;36,RHDSWACO00000129,38,RHDSWACO00000130,40,RHDSWACO00000131,42,RHDSWACO00000132,44,RHDSWACO00000133,46,RHDSWACO00000134;2295.00;;;;;;;;zerotype;;Summer;;No
