Style ID;Vendor Article Number;Vendor Article Name;Active Status;Article type;Brand;Age Group;Gender;Base Colour;Colour1;Colour2;Fashion Type;Usage;Year;Size - SKU code pair;MRP;Style Description;Style Note;Materials and Care Description;Size and Fit Description;Size Chart Path;Product Display Name;Tags;Product Type;Classification Brand;Season;Comments;Upload Images
2288178;CLL-4042-GOLDSNK-2288178;CLL-4042;Draft;Flats;Carlton London;Adults-Women;Women;;;;Fashion;;2017;UK3,CTLNFlats00008245,UK4,CTLNFlats00008246,UK5,CTLNFlats00008247,UK6,CTLNFlats00008248,UK7,CTLNFlats00008249,UK8,CTLNFlats00008250;1995.00;;;<p>Dry Cloth</p>;;;;;zerotype;;Winter;;No
2288177;CLL-4041-ROSEGOLD-2288177;CLL-4041;Draft;Flats;Carlton London;Adults-Women;Women;;;;Fashion;;2017;UK3,CTLNFlats00008239,UK4,CTLNFlats00008240,UK5,CTLNFlats00008241,UK6,CTLNFlats00008242,UK7,CTLNFlats00008243,UK8,CTLNFlats00008244;1995.00;;;<p>Dry Cloth</p>;;;;;zerotype;;Winter;;No
2288176;CLL-4041-BLACK-2288176;CLL-4041;Draft;Flats;Carlton London;Adults-Women;Women;;;;Fashion;;2017;UK3,CTLNFlats00008233,UK4,CTLNFlats00008234,UK5,CTLNFlats00008235,UK6,CTLNFlats00008236,UK7,CTLNFlats00008237,UK8,CTLNFlats00008238;1995.00;;;<p>Dry Cloth</p>;;;;;zerotype;;Winter;;No
2288175;CLL-4100-TAN-2288175;CLL-4100;Draft;Flats;Carlton London;Adults-Women;Women;;;;Fashion;;2017;UK3,CTLNFlats00008227,UK4,CTLNFlats00008228,UK5,CTLNFlats00008229,UK6,CTLNFlats00008230,UK7,CTLNFlats00008231,UK8,CTLNFlats00008232;1995.00;;;<p>Dry Cloth</p>;;;;;zerotype;;Winter;;No
2288174;CLL-4100-NAVY-2288174;CLL-4100;Draft;Flats;Carlton London;Adults-Women;Women;;;;Fashion;;2017;UK3,CTLNFlats00008221,UK4,CTLNFlats00008222,UK5,CTLNFlats00008223,UK6,CTLNFlats00008224,UK7,CTLNFlats00008225,UK8,CTLNFlats00008226;1995.00;;;<p>Dry Cloth</p>;;;;;zerotype;;Winter;;No
2288173;CLL-4099-BLKSNKPU-2288173;CLL-4099;Draft;Flats;Carlton London;Adults-Women;Women;;;;Fashion;;2017;UK3,CTLNFlats00008215,UK4,CTLNFlats00008216,UK5,CTLNFlats00008217,UK6,CTLNFlats00008218,UK7,CTLNFlats00008219,UK8,CTLNFlats00008220;1995.00;;;<p>Dry Cloth</p>;;;;;zerotype;;Winter;;No
2284998;1000814680007-INDIGO-2284998;LCJKT-3171-004-FS-RG-AT, 13-14Y, INDIGO;Draft;Jackets;Lee Cooper;Kids-Girls;Girls;NA;;;Fashion;;2017;7-8,LEECJCKT00000076,9-10,LEECJCKT00000077,11-12,LEECJCKT00000078,13-14,LEECJCKT00000079;1999.00;;;<p>Machine Wash Cold, Wash Dark Colors Separately,Do Not Bleach, Tumble Dry Low, Do Not Dry In Direct Sunlight, Flat Dry,Do not wring reshape, Warm Iron(Do Not Iron On Decoration)</p>;;;;;zerotype;;Winter;;No
2284997;1000814680003-INDIGO-2284997;LCJKT-3171-004-FS-RG-AT, 6-7Y, INDIGO;Draft;Jackets;Lee Cooper;Kids-Girls;Girls;NA;;;Fashion;;2017;3-4,LEECJCKT00000073,5-6,LEECJCKT00000074,6-7,LEECJCKT00000075;1799.00;;;<p>Machine Wash Cold, Wash Dark Colors Separately,Do Not Bleach, Tumble Dry Low, Do Not Dry In Direct Sunlight, Flat Dry,Do not wring reshape, Warm Iron(Do Not Iron On Decoration)</p>;;;;;zerotype;;Winter;;No
2284996;1000814670007-INDIGO-2284996;LCJKT-3171-001-SL-RG-AT, 13-14Y, INDIGO;Draft;Jackets;Lee Cooper;Kids-Girls;Girls;NA;;;Fashion;;2017;7-8,LEECJCKT00000069,9-10,LEECJCKT00000070,11-12,LEECJCKT00000071,13-14,LEECJCKT00000072;1799.00;;;<p>Machine Wash Cold, Wash Dark Colors Separately,Do Not Bleach, Tumble Dry Low, Do Not Dry In Direct Sunlight, Flat Dry,Do not wring reshape, Warm Iron(Do Not Iron On Decoration)</p>;;;;;zerotype;;Winter;;No
2284995;1000814670003-INDIGO-2284995;LCJKT-3171-001-SL-RG-AT, 6-7Y, INDIGO;Draft;Jackets;Lee Cooper;Kids-Girls;Girls;NA;;;Fashion;;2017;3-4,LEECJCKT00000066,5-6,LEECJCKT00000067,6-7,LEECJCKT00000068;1599.00;;;<p>Machine Wash Cold, Wash Dark Colors Separately,Do Not Bleach, Tumble Dry Low, Do Not Dry In Direct Sunlight, Flat Dry,Do not wring reshape, Warm Iron(Do Not Iron On Decoration)</p>;;;;;zerotype;;Winter;;No
2284993;1000814636004-INDIGO-2284993;LCJKT-3171-002-FS-RG-AT, 7-8Y, INDIGO;Draft;Jackets;Lee Cooper;Kids-Girls;Girls;NA;;;Fashion;;2017;7-8,LEECJCKT00000062;1999.00;;;<p>Machine Wash Cold, Wash Dark Colors Separately,Do Not Bleach, Tumble Dry Low, Do Not Dry In Direct Sunlight, Flat Dry,Do not wring reshape, Warm Iron(Do Not Iron On Decoration)</p>;;;;;zerotype;;Winter;;No
2284992;1000814636003-INDIGO-2284992;LCJKT-3171-002-FS-RG-AT, 6-7Y, INDIGO;Draft;Jackets;Lee Cooper;Kids-Girls;Girls;NA;;;Fashion;;2017;3-4,LEECJCKT00000059,5-6,LEECJCKT00000060,6-7,LEECJCKT00000061;1799.00;;;<p>Machine Wash Cold, Wash Dark Colors Separately,Do Not Bleach, Tumble Dry Low, Do Not Dry In Direct Sunlight, Flat Dry,Do not wring reshape, Warm Iron(Do Not Iron On Decoration)</p>;;;;;zerotype;;Winter;;No
2284991;1000750693007-NAVY-2284991;LCBSS-3172-SST02-A-FS-FO-HM, 13-14, NAVY;Draft;Sweatshirts;Lee Cooper;Kids-Boys;Boys;NA;;;Fashion;;2017;7-8,LEECSWSH00000490,9-10,LEECSWSH00000491,11-12,LEECSWSH00000492,13-14,LEECSWSH00000493;1799.00;;;<p>Machine Wash Cold, Wash Dark Colors Separately,Do Not Bleach, Tumble Dry Low, Do Not Dry In Direct Sunlight, Flat Dry,Do not wring reshape, Warm Iron(Do Not Iron On Decoration)</p>;;;;;zerotype;;Winter;;No
2284989;1000750669003-BLUE-2284989;LCBSS-3172-133-A-FS-SS-EV, 6-7, BLUE;Draft;Sweatshirts;Lee Cooper;Kids-Boys;Boys;NA;;;Fashion;;2017;3-4,LEECSWSH00000483,5-6,LEECSWSH00000484,6-7,LEECSWSH00000485;1099.00;;;<p>Machine Wash Cold, Wash Dark Colors Separately,Do Not Bleach, Tumble Dry Low, Do Not Dry In Direct Sunlight, Flat Dry,Do not wring reshape, Warm Iron(Do Not Iron On Decoration)</p>;;;;;zerotype;;Winter;;No
2284988;1000743422003-DARKINDIGO-2284988;LCBB-3171-3008LS-FL-, 13-14, DARK INDIGO;Draft;Jeans;Lee Cooper;Kids-Boys;Boys;NA;;;Fashion;;2017;9-10,LEECJENS00003199,11-12,LEECJENS00003200,13-14,LEECJENS00003201;1899.00;;;<p>Machine Wash Cold, Wash Dark Colors Separately,Do Not Bleach, Tumble Dry Low, Do Not Dry In Direct Sunlight, Flat Dry,Do not wring reshape, Warm Iron(Do Not Iron On Decoration)</p>;;;;;zerotype;;Winter;;No
2284987;1000743422005-DARKINDIGO-2284987;LCBB-3171-3008LS-FL-SL, 7-8, DARK INDIGO;Draft;Jeans;Lee Cooper;Kids-Boys;Boys;NA;;;Fashion;;2017;6-7,LEECJENS00003197,7-8,LEECJENS00003198;1699.00;;;<p>Machine Wash Cold, Wash Dark Colors Separately,Do Not Bleach, Tumble Dry Low, Do Not Dry In Direct Sunlight, Flat Dry,Do not wring reshape, Warm Iron(Do Not Iron On Decoration)</p>;;;;;zerotype;;Winter;;No
2284986;1000743422004-DARKINDIGO-2284986;LCBB-3171-3008LS-FL-SL, 5-6, DARK INDIGO;Draft;Jeans;Lee Cooper;Kids-Boys;Boys;NA;;;Fashion;;2017;3-4,LEECJENS00003195,5-6,LEECJENS00003196;1499.00;;;<p>Machine Wash Cold, Wash Dark Colors Separately,Do Not Bleach, Tumble Dry Low, Do Not Dry In Direct Sunlight, Flat Dry,Do not wring reshape, Warm Iron(Do Not Iron On Decoration)</p>;;;;;zerotype;;Winter;;No
2284985;1000743373003-MSTONE-2284985;LCBB-3171-3009-FL-SK, 13-14, M STONE;Draft;Jeans;Lee Cooper;Kids-Boys;Boys;NA;;;Fashion;;2017;9-10,LEECJENS00003192,11-12,LEECJENS00003193,13-14,LEECJENS00003194;1899.00;;;<p>Machine Wash Cold, Wash Dark Colors Separately,Do Not Bleach, Tumble Dry Low, Do Not Dry In Direct Sunlight, Flat Dry,Do not wring reshape, Warm Iron(Do Not Iron On Decoration)</p>;;;;;zerotype;;Winter;;No
2284984;1000743373005-MSTONE-2284984;LCBB-3171-3009-FL-SK, 7-8, M STONE;Draft;Jeans;Lee Cooper;Kids-Boys;Boys;NA;;;Fashion;;2017;6-7,LEECJENS00003190,7-8,LEECJENS00003191;1699.00;;;<p>Machine Wash Cold, Wash Dark Colors Separately,Do Not Bleach, Tumble Dry Low, Do Not Dry In Direct Sunlight, Flat Dry,Do not wring reshape, Warm Iron(Do Not Iron On Decoration)</p>;;;;;zerotype;;Winter;;No
2284983;1000743373004-MSTONE-2284983;LCBB-3171-3009-FL-SK, 5-6, M STONE;Draft;Jeans;Lee Cooper;Kids-Boys;Boys;NA;;;Fashion;;2017;3-4,LEECJENS00003188,5-6,LEECJENS00003189;1499.00;;;<p>Machine Wash Cold, Wash Dark Colors Separately,Do Not Bleach, Tumble Dry Low, Do Not Dry In Direct Sunlight, Flat Dry,Do not wring reshape, Warm Iron(Do Not Iron On Decoration)</p>;;;;;zerotype;;Winter;;No
2284982;1000759972006-BLUE-2284982;LCWT-3171-5013-FS-RG-BS, 11-12, BLUE;Draft;Shirts;Lee Cooper;Kids-Girls;Girls;NA;;;Fashion;;2017;7-8,LEECSHRT00003155,9-10,LEECSHRT00003156,11-12,LEECSHRT00003157;999.00;;;<p>Machine Wash Cold, Wash Dark Colors Separately,Do Not Bleach, Tumble Dry Low, Do Not Dry In Direct Sunlight, Flat Dry,Do not wring reshape, Warm Iron(Do Not Iron On Decoration)</p>;;;TOP;;zerotype;;Winter;;No
2284980;1000744766007-INDIGO-2284980;LCBSH-3172-424-B-FS-CH-DR, 13-14, INDIGO;Draft;Shirts;Lee Cooper;Kids-Boys;Boys;NA;;;Fashion;;2017;7-8,LEECSHRT00003148,9-10,LEECSHRT00003149,11-12,LEECSHRT00003150,13-14,LEECSHRT00003151;1399.00;;;<p>Machine Wash Cold, Wash Dark Colors Separately,Do Not Bleach, Tumble Dry Low, Do Not Dry In Direct Sunlight, Flat Dry,Do not wring reshape, Warm Iron(Do Not Iron On Decoration)</p>;;;;;zerotype;;Winter;;No
2284979;1000744766003-INDIGO-2284979;LCBSH-3172-424-B-FS-CH-DR, 6-7, INDIGO;Draft;Shirts;Lee Cooper;Kids-Boys;Boys;NA;;;Fashion;;2017;3-4,LEECSHRT00003145,5-6,LEECSHRT00003146,6-7,LEECSHRT00003147;1299.00;;;<p>Machine Wash Cold, Wash Dark Colors Separately,Do Not Bleach, Tumble Dry Low, Do Not Dry In Direct Sunlight, Flat Dry,Do not wring reshape, Warm Iron(Do Not Iron On Decoration)</p>;;;;;zerotype;;Winter;;No
2284977;1000744758003-ROYALBLUE-2284977;LCBSH-3172-455-A-FS-CH-, 6-7, ROYAL BLUE;Draft;Shirts;Lee Cooper;Kids-Boys;Boys;NA;;;Fashion;;2017;3-4,LEECSHRT00003138,5-6,LEECSHRT00003139,6-7,LEECSHRT00003140;1199.00;;;<p>Machine Wash Cold, Wash Dark Colors Separately,Do Not Bleach, Tumble Dry Low, Do Not Dry In Direct Sunlight, Flat Dry,Do not wring reshape, Warm Iron(Do Not Iron On Decoration)</p>;;;;;zerotype;;Winter;;No
2284975;1000743863003-MAROON-2284975;LCWT-3171-5012-FS-RG-AB, 6-7, MAROON;Draft;Shirts;Lee Cooper;Kids-Girls;Girls;NA;;;Fashion;;2017;5-6,LEECSHRT00003132,6-7,LEECSHRT00003133;1199.00;;;<p>Machine Wash Cold, Wash Dark Colors Separately,Do Not Bleach, Tumble Dry Low, Do Not Dry In Direct Sunlight, Flat Dry,Do not wring reshape, Warm Iron(Do Not Iron On Decoration)</p>;;;DRESS;;zerotype;;Winter;;No
2284974;1000743808014-NAVY-2284974;LCWT-3171-5035-FS-RG-SD, 13-14, NAVY;Draft;Shirts;Lee Cooper;Kids-Girls;Girls;NA;;;Fashion;;2017;7-8,LEECSHRT00003128,9-10,LEECSHRT00003129,11-12,LEECSHRT00003130,13-14,LEECSHRT00003131;899.00;;;<p>Machine Wash Cold, Wash Dark Colors Separately,Do Not Bleach, Tumble Dry Low, Do Not Dry In Direct Sunlight, Flat Dry,Do not wring reshape, Warm Iron(Do Not Iron On Decoration)</p>;;;TOP;;zerotype;;Winter;;No
2284973;1000743808010-NAVY-2284973;LCWT-3171-5035-FS-RG-SD, 6-7, NAVY;Draft;Shirts;Lee Cooper;Kids-Girls;Girls;NA;;;Fashion;;2017;3-4,LEECSHRT00003125,5-6,LEECSHRT00003126,6-7,LEECSHRT00003127;799.00;;;<p>Machine Wash Cold, Wash Dark Colors Separately,Do Not Bleach, Tumble Dry Low, Do Not Dry In Direct Sunlight, Flat Dry,Do not wring reshape, Warm Iron(Do Not Iron On Decoration)</p>;;;TOP;;zerotype;;Winter;;No
2284972;1000750780007-NAVY-2284972;LCBSW-3171-112-A-FS-SW-SR, 13-14, NAVY;Draft;Sweaters;Lee Cooper;Kids-Boys;Boys;NA;;;Fashion;;2017;7-8,LEECSWTR00000304,9-10,LEECSWTR00000305,11-12,LEECSWTR00000306,13-14,LEECSWTR00000307;1399.00;;;<p>Machine Wash Cold, Wash Dark Colors Separately,Do Not Bleach, Tumble Dry Low, Do Not Dry In Direct Sunlight, Flat Dry,Do not wring reshape, Warm Iron(Do Not Iron On Decoration)</p>;;;;;zerotype;;Winter;;No
2284971;1000750780003-NAVY-2284971;LCBSW-3171-112-A-FS-SW-SR, 6-7, NAVY;Draft;Sweaters;Lee Cooper;Kids-Boys;Boys;NA;;;Fashion;;2017;3-4,LEECSWTR00000301,5-6,LEECSWTR00000302,6-7,LEECSWTR00000303;1299.00;;;<p>Machine Wash Cold, Wash Dark Colors Separately,Do Not Bleach, Tumble Dry Low, Do Not Dry In Direct Sunlight, Flat Dry,Do not wring reshape, Warm Iron(Do Not Iron On Decoration)</p>;;;;;zerotype;;Winter;;No
2284970;1000750771003-INDIGO-2284970;LCBSW-3171-111-A-FS-SW-HM, 6-7, INDIGO;Draft;Sweaters;Lee Cooper;Kids-Boys;Boys;NA;;;Fashion;;2017;3-4,LEECSWTR00000298,5-6,LEECSWTR00000299,6-7,LEECSWTR00000300;1299.00;;;<p>Machine Wash Cold, Wash Dark Colors Separately,Do Not Bleach, Tumble Dry Low, Do Not Dry In Direct Sunlight, Flat Dry,Do not wring reshape, Warm Iron(Do Not Iron On Decoration)</p>;;;;;zerotype;;Winter;;No
2284968;1000750770003-GREY-2284968;LCBSW-3171-104-A-FS-SW-MD, 6-7, GREY;Draft;Sweaters;Lee Cooper;Kids-Boys;Boys;NA;;;Fashion;;2017;3-4,LEECSWTR00000291,5-6,LEECSWTR00000292,6-7,LEECSWTR00000293;1099.00;;;<p>Machine Wash Cold, Wash Dark Colors Separately,Do Not Bleach, Tumble Dry Low, Do Not Dry In Direct Sunlight, Flat Dry,Do not wring reshape, Warm Iron(Do Not Iron On Decoration)</p>;;;;;zerotype;;Winter;;No
2284966;1000750733003-NAVY-2284966;LCBSW-3172-115-A-FS-SW-MD, 6-7, NAVY;Draft;Sweaters;Lee Cooper;Kids-Boys;Boys;NA;;;Fashion;;2017;3-4,LEECSWTR00000284,5-6,LEECSWTR00000285,6-7,LEECSWTR00000286;1299.00;;;<p>Machine Wash Cold, Wash Dark Colors Separately,Do Not Bleach, Tumble Dry Low, Do Not Dry In Direct Sunlight, Flat Dry,Do not wring reshape, Warm Iron(Do Not Iron On Decoration)</p>;;;;;zerotype;;Winter;;No
2284965;1000747405014-OATMEAL-2284965;LCGSW-3172-505-A-FS-SW-R, 13-14, OATMEAL;Draft;Sweaters;Lee Cooper;Kids-Girls;Girls;NA;;;Fashion;;2017;7-8,LEECSWTR00000280,9-10,LEECSWTR00000281,11-12,LEECSWTR00000282,13-14,LEECSWTR00000283;1599.00;;;<p>Machine Wash Cold, Wash Dark Colors Separately,Do Not Bleach, Tumble Dry Low, Do Not Dry In Direct Sunlight, Flat Dry,Do not wring reshape, Warm Iron(Do Not Iron On Decoration)</p>;;;;;zerotype;;Winter;;No
2284964;1000747405010-OATMEAL-2284964;LCGSW-3172-505-A-FS-SW-RB, 6-7, OATMEAL;Draft;Sweaters;Lee Cooper;Kids-Girls;Girls;NA;;;Fashion;;2017;3-4,LEECSWTR00000277,5-6,LEECSWTR00000278,6-7,LEECSWTR00000279;1499.00;;;<p>Machine Wash Cold, Wash Dark Colors Separately,Do Not Bleach, Tumble Dry Low, Do Not Dry In Direct Sunlight, Flat Dry,Do not wring reshape, Warm Iron(Do Not Iron On Decoration)</p>;;;;;zerotype;;Winter;;No
2284963;1000747405007-NAVY-2284963;LCGSW-3172-505-A-FS-SW-RB, 13-14, NAVY;Draft;Sweaters;Lee Cooper;Kids-Girls;Girls;NA;;;Fashion;;2017;7-8,LEECSWTR00000273,9-10,LEECSWTR00000274,11-12,LEECSWTR00000275,13-14,LEECSWTR00000276;1599.00;;;<p>Machine Wash Cold, Wash Dark Colors Separately,Do Not Bleach, Tumble Dry Low, Do Not Dry In Direct Sunlight, Flat Dry,Do not wring reshape, Warm Iron(Do Not Iron On Decoration)</p>;;;;;zerotype;;Winter;;No
2284962;1000747405003-NAVY-2284962;LCGSW-3172-505-A-FS-SW-RB, 6-7, NAVY;Draft;Sweaters;Lee Cooper;Kids-Girls;Girls;NA;;;Fashion;;2017;3-4,LEECSWTR00000270,5-6,LEECSWTR00000271,6-7,LEECSWTR00000272;1499.00;;;<p>Machine Wash Cold, Wash Dark Colors Separately,Do Not Bleach, Tumble Dry Low, Do Not Dry In Direct Sunlight, Flat Dry,Do not wring reshape, Warm Iron(Do Not Iron On Decoration)</p>;;;;;zerotype;;Winter;;No
