Style ID;Vendor Article Number;Vendor Article Name;Active Status;Article type;Brand;Age Group;Gender;Base Colour;Colour1;Colour2;Fashion Type;Usage;Year;Size - SKU code pair;MRP;Style Description;Style Note;Materials and Care Description;Size and Fit Description;Size Chart Path;Product Display Name;Tags;Product Type;Classification Brand;Season;Comments;Upload Images
1809056;S99240-BLACK/BLACK-1809056;RUN CROP TOP;Draft;Tops;Adidas;Adults-Women;Women;;;;Fashion;;2017;40,ADDSTOPS00089638,36,ADDSTOPS00089639,32,ADDSTOPS00089640,38,ADDSTOPS00089641,34,ADDSTOPS00089642;5299.00;<p>Polyester</p>;;;;;;;zerotype;;Summer;;No
1809055;S99239-ASHGRN/BLAEME-1809055;RUN CROP TOP;Draft;Tops;Adidas;Adults-Women;Women;;;;Fashion;;2017;36,ADDSTOPS00089633,40,ADDSTOPS00089634,32,ADDSTOPS00089635,38,ADDSTOPS00089636,34,ADDSTOPS00089637;5299.00;<p>Polyester</p>;;;;;;;zerotype;;Summer;;No
1809053;S97953-LINEN-1809053;SN TNK W;Draft;Tops;Adidas;Adults-Women;Women;;;;Fashion;;2017;XS,ADDSTOPS00089624,XL,ADDSTOPS00089625,L,ADDSTOPS00089626,M,ADDSTOPS00089627,S,ADDSTOPS00089628;2299.00;<p>Polyester</p>;;;;;;;zerotype;;Summer;;No
1809049;BP8150-WHITE/BLACK-1809049;SPEED CROP MARB;Draft;Tops;Adidas;Adults-Women;Women;;;;Fashion;;2017;XS,ADDSTOPS00089610,M,ADDSTOPS00089611,L,ADDSTOPS00089612,XL,ADDSTOPS00089613,S,ADDSTOPS00089614;2999.00;<p>Polyester</p>;;;;;;;zerotype;;Summer;;No
1809045;AZ7800-POP-1809045;EASY PERF TANK;Draft;Tops;Adidas;Adults-Women;Women;;;;Fashion;;2017;M,ADDSTOPS00089597,L,ADDSTOPS00089598,XS,ADDSTOPS00089599,S,ADDSTOPS00089600;2999.00;<p>Polyester</p>;;;;;;;zerotype;;Summer;;No
1809033;BJ8961-MGREYH/BLUE-1809033;J TRF HOODIE;Draft;Sweatshirts;Adidas Originals;Kids-Boys;Boys;;;;Fashion;;2017;128,ADORSWSH00000559,164,ADORSWSH00000560,152,ADORSWSH00000561,176,ADORSWSH00000562,140,ADORSWSH00000563;3299.00;<p>Cotton</p>;;;;;;;zerotype;;Summer;;No
1809030;S99222-ASHGRN/ASHGRN-1809030;RUN 2IN1 SHORT;Draft;Shorts;Adidas;Adults-Women;Women;;;;Fashion;;2017;S,ADDSSHOR00101413,XS,ADDSSHOR00101414,L,ADDSSHOR00101415,M,ADDSSHOR00101416;4999.00;<p>Polyester</p>;;;;;;;zerotype;;Summer;;No
1809026;CE6565-CONAVY-1809026;SPEEDBR SH PRIM;Draft;Shorts;Adidas;Adults-Men;Men;;;;Fashion;;2017;XXL,ADDSSHOR00101393,S,ADDSSHOR00101394,L,ADDSSHOR00101395,XL,ADDSSHOR00101396,M,ADDSSHOR00101397;1599.00;<p>Polyester</p>;;;;;;;zerotype;;Summer;;No
1809025;CE6564-MYSGRN-1809025;SPEEDBR SH PRIM;Draft;Shorts;Adidas;Adults-Men;Men;;;;Fashion;;2017;S,ADDSSHOR00101388,XXL,ADDSSHOR00101389,XL,ADDSSHOR00101390,L,ADDSSHOR00101391,M,ADDSSHOR00101392;1599.00;<p>Polyester</p>;;;;;;;zerotype;;Summer;;No
1809024;CE6560-BLACK-1809024;SPEEDBR SH LITE;Draft;Shorts;Adidas;Adults-Men;Men;;;;Fashion;;2017;S,ADDSSHOR00101383,XL,ADDSSHOR00101384,L,ADDSSHOR00101385,XXL,ADDSSHOR00101386,M,ADDSSHOR00101387;1799.00;<p>Polyester</p>;;;;;;;zerotype;;Summer;;No
1809021;BR8635-MGREYH/CONAVY-1809021;ESS 3S COFT SHO;Draft;Shorts;Adidas;Adults-Men;Men;;;;Fashion;;2017;S,ADDSSHOR00101368,XL,ADDSSHOR00101369,XXL,ADDSSHOR00101370,L,ADDSSHOR00101371,M,ADDSSHOR00101372;1699.00;<p>Cotton</p>;;;;;;;zerotype;;Summer;;No
1809019;BR8365-BLUE-1809019;YB LOGO SHORT;Draft;Shorts;Adidas;Kids-Boys;Boys;;;;Fashion;;2017;164,ADDSSHOR00101358,176,ADDSSHOR00101359,128,ADDSSHOR00101360,152,ADDSSHOR00101361,140,ADDSSHOR00101362;1199.00;<p>Cotton</p>;;;;;;;zerotype;;Summer;;No
1809018;BR8351-UTIBLK-1809018;YB BASE CHELSEA;Draft;Shorts;Adidas;Kids-Boys;Boys;;;;Fashion;;2017;128,ADDSSHOR00101353,176,ADDSSHOR00101354,164,ADDSSHOR00101355,152,ADDSSHOR00101356,140,ADDSSHOR00101357;999.00;<p>Polyester</p>;;;;;;;zerotype;;Summer;;No
1809016;BQ2906-CHBLME-1809016;YG CHILL SHORT;Draft;Shorts;Adidas;Kids-Girls;Girls;;;;Fashion;;2017;164,ADDSSHOR00101344,128,ADDSSHOR00101345,152,ADDSSHOR00101346,140,ADDSSHOR00101347;1999.00;<p>Polyester</p>;;;;;;;zerotype;;Summer;;No
1809007;BP8105-MYSGRN-1809007;D2M WVN SHOR;Draft;Shorts;Adidas;Adults-Men;Men;;;;Fashion;;2017;XXL,ADDSSHOR00101335,XL,ADDSSHOR00101336,S,ADDSSHOR00101337,L,ADDSSHOR00101338,M,ADDSSHOR00101339;1599.00;<p>Polyester</p>;;;;;;;zerotype;;Summer;;No
1809000;BK2226-LEGINK/LGREYH/WHITE-1809000;TKO SHORTS;Draft;Shorts;Adidas Originals;Adults-Men;Men;;;;Fashion;;2017;XXL,ADORSHOR00000266,S,ADORSHOR00000267,XL,ADORSHOR00000268,L,ADORSHOR00000269,M,ADORSHOR00000270;4999.00;<p>Polyester</p>;;;;;;;zerotype;;Summer;;No
1808997;BK0006-BLACK-1808997;CLFN FT SHORTS;Draft;Shorts;Adidas Originals;Adults-Men;Men;;;;Fashion;;2017;XXL,ADORSHOR00000261,XL,ADORSHOR00000262,S,ADORSHOR00000263,L,ADORSHOR00000264,M,ADORSHOR00000265;2599.00;<p>Cotton</p>;;;;;;;zerotype;;Summer;;No
1808995;BJ8765-WHITE/BLACK-1808995;ADVANTAGE SHORT;Draft;Shorts;Adidas;Adults-Men;Men;;;;Fashion;;2017;S,ADDSSHOR00101305,L,ADDSSHOR00101306,XXL,ADDSSHOR00101307,XL,ADDSSHOR00101308,M,ADDSSHOR00101309;2799.00;<p>Polyester</p>;;;;;;;zerotype;;Summer;;No
1808991;B45800-BLACK/WHITE-1808991;ADVANTAGE SHORT;Draft;Shorts;Adidas;Adults-Men;Men;;;;Fashion;;2017;S,ADDSSHOR00101287,XL,ADDSSHOR00101288,L,ADDSSHOR00101289,XXL,ADDSSHOR00101290,M,ADDSSHOR00101291;2799.00;<p>Polyester</p>;;;;;;;zerotype;;Summer;;No
1808990;B45797-BLACK/WHITE-1808990;ESSEX TR BER.;Draft;Shorts;Adidas;Adults-Men;Men;;;;Fashion;;2017;S,ADDSSHOR00101282,XXL,ADDSSHOR00101283,XL,ADDSSHOR00101284,L,ADDSSHOR00101285,M,ADDSSHOR00101286;2999.00;<p>Polyester</p>;;;;;;;zerotype;;Summer;;No
1808988;B20147-CONAVY/WHITE-1808988;ESS 3S CHELSEA;Draft;Shorts;Adidas;Adults-Men;Men;;;;Fashion;;2017;S,ADDSSHOR00101273,XXL,ADDSSHOR00101274,L,ADDSSHOR00101275,XL,ADDSSHOR00101276,M,ADDSSHOR00101277;1199.00;<p>Polyester</p>;;;;;;;zerotype;;Summer;;No
1808987;B20143-CHSOGR/BLACK-1808987;ESS 3S CHELSEA;Draft;Shorts;Adidas;Adults-Men;Men;;;;Fashion;;2017;XXL,ADDSSHOR00101268,S,ADDSSHOR00101269,XL,ADDSSHOR00101270,L,ADDSSHOR00101271,M,ADDSSHOR00101272;1199.00;<p>Polyester</p>;;;;;;;zerotype;;Summer;;No
1808986;AZ8734-SMCOGR-1808986;YO SHORT;Draft;Shorts;Adidas;Adults-Women;Women;;;;Fashion;;2017;S,ADDSSHOR00101264,XS,ADDSSHOR00101265,L,ADDSSHOR00101266,M,ADDSSHOR00101267;4999.00;<p>Cotton</p>;;;;;;;zerotype;;Summer;;No
1808944;S99713-UTIIVY-1808944;AZ SW 3/4 TI W;Draft;Tights;Adidas;Adults-Women;Women;;;;Fashion;;2017;XS,ADDSTIGH00001097,S,ADDSTIGH00001098,L,ADDSTIGH00001099,XL,ADDSTIGH00001100,M,ADDSTIGH00001101;4499.00;<p>Polyester</p>;;;;;;;zerotype;;Summer;;No
1808943;S97938-MAROON-1808943;SN LNG TGT Q1 W;Draft;Tights;Adidas;Adults-Women;Women;;;;Fashion;;2017;XS,ADDSTIGH00001092,XL,ADDSTIGH00001093,L,ADDSTIGH00001094,S,ADDSTIGH00001095,M,ADDSTIGH00001096;3599.00;<p>Polyester</p>;;;;;;;zerotype;;Summer;;No
1808933;BK2925-ENEORA-1808933;YG TF 3/4 TIGHT;Draft;Tights;Adidas;Kids-Girls;Girls;;;;Fashion;;2017;128,ADDSTIGH00001060,152,ADDSTIGH00001061,164,ADDSTIGH00001062,140,ADDSTIGH00001063;2599.00;<p>Polyester</p>;;;;;;;zerotype;;Summer;;No
1808932;BJ8998-CORRED/WHITE-1808932;J LEGGINS;Draft;Tights;Adidas Originals;Kids-Girls;Girls;;;;Fashion;;2017;152,ADORTIGH00000202,128,ADORTIGH00000203,164,ADORTIGH00000204,140,ADORTIGH00000205;1799.00;<p>Cotton</p>;;;;;;;zerotype;;Summer;;No
1808931;AZ2930-MYSRED-1808931;CHILL 3/4 TGT W;Draft;Tights;Adidas;Adults-Women;Women;;;;Fashion;;2017;L,ADDSTIGH00001055,XL,ADDSTIGH00001056,XS,ADDSTIGH00001057,S,ADDSTIGH00001058,M,ADDSTIGH00001059;3999.00;<p>Polyester</p>;;;;;;;zerotype;;Summer;;No
1808814;CE6463-MYSBLU-1808814;COOL PANT KN;Draft;Track Pants;Adidas;Adults-Men;Men;;;;Fashion;;2017;XXL,ADDSTRPT00102595,S,ADDSTRPT00102596,L,ADDSTRPT00102597,XL,ADDSTRPT00102598,M,ADDSTRPT00102599;2799.00;<p>Polyester</p>;;;;;;;zerotype;;Summer;;No
1808813;BR9848-BLACK/WHITE-1808813;D2M CUFF PT 3S;Draft;Track Pants;Adidas;Adults-Women;Women;;;;Fashion;;2017;44,ADDSTRPT00102590,40,ADDSTRPT00102591,36,ADDSTRPT00102592,48,ADDSTRPT00102593,32,ADDSTRPT00102594;2499.00;<p>Polyester</p>;;;;;;;zerotype;;Summer;;No
1808812;BR8580-BLACK/BLACK-1808812;ESS LIN TRICOT;Draft;Track Pants;Adidas;Adults-Men;Men;;;;Fashion;;2017;L,ADDSTRPT00102585,XL,ADDSTRPT00102586,S,ADDSTRPT00102587,XXL,ADDSTRPT00102588,M,ADDSTRPT00102589;2299.00;<p>Polyester</p>;;;;;;;zerotype;;Summer;;No
1808811;BR8577-CONAVY/CONAVY-1808811;ESS LIN TRICOT;Draft;Track Pants;Adidas;Adults-Men;Men;;;;Fashion;;2017;XL,ADDSTRPT00102580,XXL,ADDSTRPT00102581,L,ADDSTRPT00102582,S,ADDSTRPT00102583,M,ADDSTRPT00102584;2299.00;<p>Polyester</p>;;;;;;;zerotype;;Summer;;No
1808796;BK6754-BLACK/WHITE-1808796;PREMIERE PANTS;Draft;Track Pants;Adidas Originals;Adults-Men;Men;;;;Fashion;;2017;L,ADORTRPT00000952,XL,ADORTRPT00000953,S,ADORTRPT00000954,XXL,ADORTRPT00000955,M,ADORTRPT00000956;4599.00;<p>Polyester</p>;;;;;;;zerotype;;Summer;;No
1808795;BK5932-BLUE-1808795;SST CUFFED TP;Draft;Track Pants;Adidas Originals;Adults-Men;Men;;;;Fashion;;2017;S,ADORTRPT00000947,XL,ADORTRPT00000948,XXL,ADORTRPT00000949,L,ADORTRPT00000950,M,ADORTRPT00000951;2999.00;<p>Polyester</p>;;;;;;;zerotype;;Summer;;No
1808794;BK5929-BLACK/WHITE-1808794;CLR84 TRACKPANT;Draft;Track Pants;Adidas Originals;Adults-Men;Men;;;;Fashion;;2017;S,ADORTRPT00000942,XL,ADORTRPT00000943,L,ADORTRPT00000944,XXL,ADORTRPT00000945,M,ADORTRPT00000946;3599.00;<p>Cotton</p>;;;;;;;zerotype;;Summer;;No
1808792;BK5903-MGSOGR-1808792;CLFN FT PANTS;Draft;Track Pants;Adidas Originals;Adults-Men;Men;;;;Fashion;;2017;XXL,ADORTRPT00000932,L,ADORTRPT00000933,XL,ADORTRPT00000934,S,ADORTRPT00000935,M,ADORTRPT00000936;3599.00;<p>Cotton</p>;;;;;;;zerotype;;Summer;;No
1808789;BK2237-LEGINK-1808789;TKO 7/8 INDIGO;Draft;Track Pants;Adidas Originals;Adults-Men;Men;;;;Fashion;;2017;L,ADORTRPT00000917,XL,ADORTRPT00000918,S,ADORTRPT00000919,XXL,ADORTRPT00000920,M,ADORTRPT00000921;4599.00;<p>Polyester</p>;;;;;;;zerotype;;Summer;;No
1808788;BK2225-LEGINK/WHITE-1808788;TKO CLR84 WOVEN;Draft;Track Pants;Adidas Originals;Adults-Men;Men;;;;Fashion;;2017;XXL,ADORTRPT00000912,S,ADORTRPT00000913,XL,ADORTRPT00000914,L,ADORTRPT00000915,M,ADORTRPT00000916;6999.00;<p>Polyester</p>;;;;;;;zerotype;;Summer;;No
1808787;BK2210-LEGINK-1808787;NMD TRACKPANTS;Draft;Track Pants;Adidas Originals;Adults-Men;Men;;;;Fashion;;2017;XXL,ADORTRPT00000907,L,ADORTRPT00000908,S,ADORTRPT00000909,XL,ADORTRPT00000910,M,ADORTRPT00000911;6999.00;<p>Cotton</p>;;;;;;;zerotype;;Summer;;No
1808768;BJ9672-MYSBLU/SCARLE-1808768;YB LIN BX 3S KB;Draft;Swimwear;Adidas;Kids-Boys;Boys;;;;Fashion;;2017;164,ADDSSWMW00000097,176,ADDSSWMW00000098,128,ADDSSWMW00000099,152,ADDSSWMW00000100,140,ADDSSWMW00000101;1799.00;<p>Polyester</p>;;;;;;;zerotype;;Summer;;No
1808730;S98931-GLOORA-1808730;M CLUB POLO1;Draft;Tshirts;Adidas;Adults-Men;Men;;;;Fashion;;2017;L,ADDSTSHT00115583,XL,ADDSTSHT00115584,XXL,ADDSTSHT00115585,S,ADDSTSHT00115586,M,ADDSTSHT00115587;3299.00;<p>Polyester</p>;;;;;;;zerotype;;Summer;;No
1808729;S98930-MYSBLU-1808729;M CLUB POLO1;Draft;Tshirts;Adidas;Adults-Men;Men;;;;Fashion;;2017;XXL,ADDSTSHT00115578,XL,ADDSTSHT00115579,L,ADDSTSHT00115580,S,ADDSTSHT00115581,M,ADDSTSHT00115582;3299.00;<p>Polyester</p>;;;;;;;zerotype;;Summer;;No
1808727;S97947-ENEBLU-1808727;SN SS TEE M;Draft;Tshirts;Adidas;Adults-Men;Men;;;;Fashion;;2017;XL,ADDSTSHT00115568,L,ADDSTSHT00115569,S,ADDSTSHT00115570,XXL,ADDSTSHT00115571,M,ADDSTSHT00115572;2999.00;<p>Polyester</p>;;;;;;;zerotype;;Summer;;No
1808726;S97501-MGREYH-1808726;DAME BLOCK TEE;Draft;Tshirts;Adidas;Adults-Men;Men;;;;Fashion;;2017;S,ADDSTSHT00115563,L,ADDSTSHT00115564,XL,ADDSTSHT00115565,XXL,ADDSTSHT00115566,M,ADDSTSHT00115567;1899.00;<p>Cotton</p>;;;;;;;zerotype;;Summer;;No
1808725;S97197-NONDYE-1808725;SQUARE TEE;Draft;Tshirts;Adidas;Adults-Women;Women;;;;Fashion;;2017;M,ADDSTSHT00115559,L,ADDSTSHT00115560,XS,ADDSTSHT00115561,S,ADDSTSHT00115562;2799.00;<p>Cotton</p>;;;;;;;zerotype;;Summer;;No
1808718;CE6563-WHITE/BLACK/ENERGY/LABGRN-1808718;TP POLO AOP SM;Draft;Tshirts;Adidas;Adults-Men;Men;;;;Fashion;;2017;XL,ADDSTSHT00115524,XXL,ADDSTSHT00115525,L,ADDSTSHT00115526,S,ADDSTSHT00115527,M,ADDSTSHT00115528;1599.00;<p>Cotton</p>;;;;;;;zerotype;;Summer;;No
1808715;CE6557-CROYAL/MYSRED-1808715;SID SEASONAL T;Draft;Tshirts;Adidas;Adults-Men;Men;;;;Fashion;;2017;XXL,ADDSTSHT00115509,S,ADDSTSHT00115510,XL,ADDSTSHT00115511,L,ADDSTSHT00115512,M,ADDSTSHT00115513;1499.00;<p>Cotton</p>;;;;;;;zerotype;;Summer;;No
1808712;CE6455-MGREYH/ENERGY/CONAVY-1808712;TP POLO YD ST 2;Draft;Tshirts;Adidas;Adults-Men;Men;;;;Fashion;;2017;XL,ADDSTSHT00115494,L,ADDSTSHT00115495,XXL,ADDSTSHT00115496,S,ADDSTSHT00115497,M,ADDSTSHT00115498;1599.00;<p>Cotton</p>;;;;;;;zerotype;;Summer;;No
1808711;CE6447-WHITE/MGREYH/CONAVY-1808711;TP POLO YD ST 2;Draft;Tshirts;Adidas;Adults-Men;Men;;;;Fashion;;2017;XL,ADDSTSHT00115489,L,ADDSTSHT00115490,S,ADDSTSHT00115491,XXL,ADDSTSHT00115492,M,ADDSTSHT00115493;1599.00;<p>Cotton</p>;;;;;;;zerotype;;Summer;;No
1808696;BS3602-BLACK-1808696;AKTIV SS TEE M;Draft;Tshirts;Adidas;Adults-Men;Men;;;;Fashion;;2017;L,ADDSTSHT00115418,XL,ADDSTSHT00115419,S,ADDSTSHT00115420,XXL,ADDSTSHT00115421,M,ADDSTSHT00115422;2999.00;<p>Polyester</p>;;;;;;;zerotype;;Summer;;No
1808694;BS3342-WHITE/MYSBLU-1808694;M TC POLO1;Draft;Tshirts;Adidas;Adults-Men;Men;;;;Fashion;;2017;XL,ADDSTSHT00115408,XXL,ADDSTSHT00115409,L,ADDSTSHT00115410,S,ADDSTSHT00115411,M,ADDSTSHT00115412;2099.00;<p>Cotton</p>;;;;;;;zerotype;;Summer;;No
1808692;BR9664-CORRED-1808692;YB LIN TEE;Draft;Tshirts;Adidas;Kids-Boys;Boys;;;;Fashion;;2017;128,ADDSTSHT00115398,176,ADDSTSHT00115399,152,ADDSTSHT00115400,164,ADDSTSHT00115401,140,ADDSTSHT00115402;999.00;<p>Cotton</p>;;;;;;;zerotype;;Summer;;No
1808691;BR9661-BLACK-1808691;YB LIN TEE;Draft;Tshirts;Adidas;Kids-Boys;Boys;;;;Fashion;;2017;164,ADDSTSHT00115393,176,ADDSTSHT00115394,152,ADDSTSHT00115395,128,ADDSTSHT00115396,140,ADDSTSHT00115397;999.00;<p>Cotton</p>;;;;;;;zerotype;;Summer;;No
1808680;BQ3074-BLACK-1808680;CHROMATIC TREFO;Draft;Tshirts;Adidas Originals;Adults-Men;Men;;;;Fashion;;2017;XXL,ADORTSHT00002536,L,ADORTSHT00002537,S,ADORTSHT00002538,XL,ADORTSHT00002539,M,ADORTSHT00002540;1799.00;<p>Cotton</p>;;;;;;;zerotype;;Summer;;No
1808679;BQ3063-WHITE-1808679;ARTIST NEW YORK;Draft;Tshirts;Adidas Originals;Adults-Men;Men;;;;Fashion;;2017;XL,ADORTSHT00002531,L,ADORTSHT00002532,XXL,ADORTSHT00002533,S,ADORTSHT00002534,M,ADORTSHT00002535;1999.00;<p>Cotton</p>;;;;;;;zerotype;;Summer;;No
1808678;BQ3058-BLACK-1808678;X BY O LS TEE;Draft;Tshirts;Adidas Originals;Adults-Men;Men;;;;Fashion;;2017;L,ADORTSHT00002526,XXL,ADORTSHT00002527,XL,ADORTSHT00002528,S,ADORTSHT00002529,M,ADORTSHT00002530;3599.00;<p>Polyester</p>;;;;;;;zerotype;;Summer;;No
1808677;BQ3043-WHITE-1808677;ARCHIVE LABEL;Draft;Tshirts;Adidas Originals;Adults-Men;Men;;;;Fashion;;2017;S,ADORTSHT00002521,XL,ADORTSHT00002522,L,ADORTSHT00002523,XXL,ADORTSHT00002524,M,ADORTSHT00002525;1999.00;<p>Cotton</p>;;;;;;;zerotype;;Summer;;No
1808676;BQ3042-MYSBLU-1808676;ARCHIVE LABEL;Draft;Tshirts;Adidas Originals;Adults-Men;Men;;;;Fashion;;2017;XXL,ADORTSHT00002516,S,ADORTSHT00002517,XL,ADORTSHT00002518,L,ADORTSHT00002519,M,ADORTSHT00002520;1999.00;<p>Cotton</p>;;;;;;;zerotype;;Summer;;No
1808675;BQ3038-WHITE-1808675;GIRL TEE;Draft;Tshirts;Adidas Originals;Adults-Men;Men;;;;Fashion;;2017;S,ADORTSHT00002511,XL,ADORTSHT00002512,XXL,ADORTSHT00002513,L,ADORTSHT00002514,M,ADORTSHT00002515;1999.00;<p>Cotton</p>;;;;;;;zerotype;;Summer;;No
1808674;BQ3036-WHITE-1808674;OFF PLACEMENT T;Draft;Tshirts;Adidas Originals;Adults-Men;Men;;;;Fashion;;2017;XXL,ADORTSHT00002506,S,ADORTSHT00002507,L,ADORTSHT00002508,XL,ADORTSHT00002509,M,ADORTSHT00002510;1999.00;<p>Cotton</p>;;;;;;;zerotype;;Summer;;No
1808673;BQ3034-BLACK-1808673;OFF PLACEMENT T;Draft;Tshirts;Adidas Originals;Adults-Men;Men;;;;Fashion;;2017;XXL,ADORTSHT00002501,L,ADORTSHT00002502,XL,ADORTSHT00002503,S,ADORTSHT00002504,M,ADORTSHT00002505;1999.00;<p>Cotton</p>;;;;;;;zerotype;;Summer;;No
1808672;BQ2887-ENEBLU/MYSBLU/IRONMT-1808672;YG TR SLOG TEE;Draft;Tshirts;Adidas;Kids-Girls;Girls;;;;Fashion;;2017;152,ADDSTSHT00115354,128,ADDSTSHT00115355,164,ADDSTSHT00115356,140,ADDSTSHT00115357;1399.00;<p>Polyester</p>;;;;;;;zerotype;;Summer;;No
1808671;BQ2886-MYSBLU/EASBLU/IRONMT-1808671;YG TR SLOG TEE;Draft;Tshirts;Adidas;Kids-Girls;Girls;;;;Fashion;;2017;128,ADDSTSHT00115350,152,ADDSTSHT00115351,164,ADDSTSHT00115352,140,ADDSTSHT00115353;1399.00;<p>Polyester</p>;;;;;;;zerotype;;Summer;;No
1808670;BQ2885-CORPNK/IRONMT-1808670;YG TR COOL TEE;Draft;Tshirts;Adidas;Kids-Girls;Girls;;;;Fashion;;2017;164,ADDSTSHT00115346,128,ADDSTSHT00115347,140,ADDSTSHT00115348,152,ADDSTSHT00115349;1599.00;<p>Polyester</p>;;;;;;;zerotype;;Summer;;No
1808669;BQ2639-CONAVY/BLUE/WHITE-1808669;TIRO17 POLO Y;Draft;Tshirts;Adidas;Kids-Boys;Boys;;;;Fashion;;2017;176,ADDSTSHT00115341,164,ADDSTSHT00115342,128,ADDSTSHT00115343,152,ADDSTSHT00115344,140,ADDSTSHT00115345;1399.00;<p>Polyester</p>;;;;;;;zerotype;;Summer;;No
1808668;BQ2638-SCARLE/BLACK/WHITE-1808668;TIRO17 POLO Y;Draft;Tshirts;Adidas;Kids-Boys;Boys;;;;Fashion;;2017;176,ADDSTSHT00115336,128,ADDSTSHT00115337,164,ADDSTSHT00115338,152,ADDSTSHT00115339,140,ADDSTSHT00115340;1399.00;<p>Polyester</p>;;;;;;;zerotype;;Summer;;No
1808650;BP7942-BLACK-1808650;ID ALL CAPS;Draft;Tshirts;Adidas;Adults-Women;Women;;;;Fashion;;2017;XS,ADDSTSHT00115332,M,ADDSTSHT00115333,L,ADDSTSHT00115334,S,ADDSTSHT00115335;2599.00;<p>Cotton</p>;;;;;;;zerotype;;Summer;;No
1808649;BP7745-CHEBTG/BLACK-1808649;UNCTL CLMCH TEE;Draft;Tshirts;Adidas;Adults-Men;Men;;;;Fashion;;2017;XL,ADDSTSHT00115327,L,ADDSTSHT00115328,XXL,ADDSTSHT00115329,S,ADDSTSHT00115330,M,ADDSTSHT00115331;2999.00;<p>Polyester</p>;;;;;;;zerotype;;Summer;;No
1808647;BP7734-CHBLME/BLACK-1808647;UNCTL CLMCH TEE;Draft;Tshirts;Adidas;Adults-Men;Men;;;;Fashion;;2017;L,ADDSTSHT00115317,XL,ADDSTSHT00115318,S,ADDSTSHT00115319,XXL,ADDSTSHT00115320,M,ADDSTSHT00115321;2999.00;<p>Polyester</p>;;;;;;;zerotype;;Summer;;No
1808645;BP7482-BLACK-1808645;RS LS TEE M;Draft;Tshirts;Adidas;Adults-Men;Men;;;;Fashion;;2017;XXL,ADDSTSHT00115307,L,ADDSTSHT00115308,S,ADDSTSHT00115309,XL,ADDSTSHT00115310,M,ADDSTSHT00115311;1999.00;<p>Polyester</p>;;;;;;;zerotype;;Summer;;No
1808644;BP7480-ENEBLU-1808644;RS SINGLET M;Draft;Tshirts;Adidas;Adults-Men;Men;;;;Fashion;;2017;XL,ADDSTSHT00115302,L,ADDSTSHT00115303,S,ADDSTSHT00115304,XXL,ADDSTSHT00115305,M,ADDSTSHT00115306;1699.00;<p>Polyester</p>;;;;;;;zerotype;;Summer;;No
1808643;BP7476-SYELLO/BLACK-1808643;RS SINGLET M;Draft;Tshirts;Adidas;Adults-Men;Men;;;;Fashion;;2017;L,ADDSTSHT00115297,XL,ADDSTSHT00115298,XXL,ADDSTSHT00115299,S,ADDSTSHT00115300,M,ADDSTSHT00115301;1699.00;<p>Polyester</p>;;;;;;;zerotype;;Summer;;No
1808642;BP7474-BLACK-1808642;RS SINGLET M;Draft;Tshirts;Adidas;Adults-Men;Men;;;;Fashion;;2017;L,ADDSTSHT00115292,XL,ADDSTSHT00115293,XXL,ADDSTSHT00115294,S,ADDSTSHT00115295,M,ADDSTSHT00115296;1699.00;<p>Polyester</p>;;;;;;;zerotype;;Summer;;No
1808639;BP7416-CORBLU-1808639;RS SS TEE M;Draft;Tshirts;Adidas;Adults-Men;Men;;;;Fashion;;2017;XXL,ADDSTSHT00115277,XL,ADDSTSHT00115278,L,ADDSTSHT00115279,S,ADDSTSHT00115280,M,ADDSTSHT00115281;1899.00;<p>Polyester</p>;;;;;;;zerotype;;Summer;;No
1808637;BP7405-CONAVY-1808637;RS SLV TEE M;Draft;Tshirts;Adidas;Adults-Men;Men;;;;Fashion;;2017;XL,ADDSTSHT00115267,L,ADDSTSHT00115268,XXL,ADDSTSHT00115269,S,ADDSTSHT00115270,M,ADDSTSHT00115271;1699.00;<p>Polyester</p>;;;;;;;zerotype;;Summer;;No
1808617;BK6758-WHITE/ENEBLU/ENERGY/BLACK-1808617;JERSEY COURTSID;Draft;Tshirts;Adidas Originals;Adults-Men;Men;;;;Fashion;;2017;XXL,ADORTSHT00002461,XL,ADORTSHT00002462,S,ADORTSHT00002463,L,ADORTSHT00002464,M,ADORTSHT00002465;3999.00;<p>Polyester</p>;;;;;;;zerotype;;Summer;;No
1808616;BK6264-MULTCO-1808616;FLORAL JERSEY;Draft;Tshirts;Adidas Originals;Adults-Men;Men;;;;Fashion;;2017;L,ADORTSHT00002456,S,ADORTSHT00002457,XXL,ADORTSHT00002458,XL,ADORTSHT00002459,M,ADORTSHT00002460;2999.00;<p>Polyester</p>;;;;;;;zerotype;;Summer;;No
1808615;BK6147-ENEORA/WHITE-1808615;YB MESSI ICON T;Draft;Tshirts;Adidas;Kids-Boys;Boys;;;;Fashion;;2017;152,ADDSTSHT00115242,164,ADDSTSHT00115243,176,ADDSTSHT00115244,128,ADDSTSHT00115245,140,ADDSTSHT00115246;2199.00;<p>Polyester</p>;;;;;;;zerotype;;Summer;;No
1808613;BK6102-TACBLU/MIDGRE-1808613;FREELIFT AK;Draft;Tshirts;Adidas;Adults-Men;Men;;;;Fashion;;2017;XXL,ADDSTSHT00115237,XL,ADDSTSHT00115238,L,ADDSTSHT00115239,S,ADDSTSHT00115240,M,ADDSTSHT00115241;1699.00;<p>Polyester</p>;;;;;;;zerotype;;Summer;;No
1808612;BK6100-SCARLE/UTIBLK-1808612;FREELIFT AK;Draft;Tshirts;Adidas;Adults-Men;Men;;;;Fashion;;2017;XL,ADDSTSHT00115232,L,ADDSTSHT00115233,XXL,ADDSTSHT00115234,S,ADDSTSHT00115235,M,ADDSTSHT00115236;1699.00;<p>Polyester</p>;;;;;;;zerotype;;Summer;;No
1808609;BK6025-WHITE-1808609;T-SHIRT;Draft;Tshirts;Adidas Originals;Adults-Women;Women;;;;Fashion;;2017;36,ADORTSHT00002446,38,ADORTSHT00002447,40,ADORTSHT00002448,32,ADORTSHT00002449,34,ADORTSHT00002450;2999.00;<p>Cotton</p>;;;;;;;zerotype;;Summer;;No
1808601;BK2934-CHLIGO-1808601;YG CHILL TEE;Draft;Tshirts;Adidas;Kids-Girls;Girls;;;;Fashion;;2017;164,ADDSTSHT00115208,128,ADDSTSHT00115209,152,ADDSTSHT00115210,140,ADDSTSHT00115211;1999.00;<p>Polyester</p>;;;;;;;zerotype;;Summer;;No
1808599;BK2360-WHITE-1808599;GRAPHIC TEE;Draft;Tshirts;Adidas Originals;Adults-Women;Women;;;;Fashion;;2017;32,ADORTSHT00002416,38,ADORTSHT00002417,40,ADORTSHT00002418,36,ADORTSHT00002419,34,ADORTSHT00002420;1999.00;<p>Cotton</p>;;;;;;;zerotype;;Summer;;No
1808598;BK2348-WHITE-1808598;TONGUE L TEE;Draft;Tshirts;Adidas Originals;Adults-Women;Women;;;;Fashion;;2017;32,ADORTSHT00002411,36,ADORTSHT00002412,38,ADORTSHT00002413,40,ADORTSHT00002414,34,ADORTSHT00002415;1999.00;<p>Cotton</p>;;;;;;;zerotype;;Summer;;No
1808597;BK2232-WHITE-1808597;TKO PS TEE;Draft;Tshirts;Adidas Originals;Adults-Men;Men;;;;Fashion;;2017;S,ADORTSHT00002406,XL,ADORTSHT00002407,L,ADORTSHT00002408,XXL,ADORTSHT00002409,M,ADORTSHT00002410;2999.00;<p>Cotton</p>;;;;;;;zerotype;;Summer;;No
1808596;BK2220-WASHBL-1808596;TKO TEE INDIGO;Draft;Tshirts;Adidas Originals;Adults-Men;Men;;;;Fashion;;2017;XL,ADORTSHT00002401,S,ADORTSHT00002402,XXL,ADORTSHT00002403,L,ADORTSHT00002404,M,ADORTSHT00002405;2999.00;<p>Cotton</p>;;;;;;;zerotype;;Summer;;No
1808595;BK2091-MGREYH/EASBLU-1808595;TREFOIL TEE;Draft;Tshirts;Adidas Originals;Adults-Women;Women;;;;Fashion;;2017;38,ADORTSHT00002396,36,ADORTSHT00002397,40,ADORTSHT00002398,32,ADORTSHT00002399,34,ADORTSHT00002400;2599.00;<p>Polyester</p>;;;;;;;zerotype;;Summer;;No
1808586;BK0651-GLOORA/BLACK-1808586;ESSEX 3/4 TEE;Draft;Tshirts;Adidas;Adults-Women;Women;;;;Fashion;;2017;XL,ADDSTSHT00115163,M,ADDSTSHT00115164,XS,ADDSTSHT00115165,L,ADDSTSHT00115166,S,ADDSTSHT00115167;2799.00;<p>Polyester</p>;;;;;;;zerotype;;Summer;;No
1808581;BJ9914-BLACK-1808581;HRGBONE BLOCK T;Draft;Tshirts;Adidas Originals;Adults-Men;Men;;;;Fashion;;2017;S,ADORTSHT00002386,XXL,ADORTSHT00002387,L,ADORTSHT00002388,XL,ADORTSHT00002389,M,ADORTSHT00002390;1999.00;<p>Cotton</p>;;;;;;;zerotype;;Summer;;No
1808580;BJ9566-CHLAEB-1808580;UNCTL CLMCHPOLO;Draft;Tshirts;Adidas;Adults-Women;Women;;;;Fashion;;2017;M,ADDSTSHT00115158,XL,ADDSTSHT00115159,L,ADDSTSHT00115160,XS,ADDSTSHT00115161,S,ADDSTSHT00115162;2999.00;<p>Polyester</p>;;;;;;;zerotype;;Summer;;No
1808579;BJ9563-CHBLME-1808579;UNCTL CLMCHPOLO;Draft;Tshirts;Adidas;Adults-Women;Women;;;;Fashion;;2017;XS,ADDSTSHT00115153,L,ADDSTSHT00115154,XL,ADDSTSHT00115155,M,ADDSTSHT00115156,S,ADDSTSHT00115157;2999.00;<p>Polyester</p>;;;;;;;zerotype;;Summer;;No
1808578;BJ8993-CORRED/WHITE-1808578;J TREFOIL TEE G;Draft;Tshirts;Adidas Originals;Kids-Girls;Girls;;;;Fashion;;2017;152,ADORTSHT00002382,164,ADORTSHT00002383,128,ADORTSHT00002384,140,ADORTSHT00002385;1599.00;<p>Cotton</p>;;;;;;;zerotype;;Summer;;No
1808577;BJ8724-CORBLU/MYSBLU/WHITE-1808577;CYSTL TLKIT TEE;Draft;Tshirts;Adidas Originals;Adults-Men;Men;;;;Fashion;;2017;XL,ADORTSHT00002377,L,ADORTSHT00002378,XXL,ADORTSHT00002379,S,ADORTSHT00002380,M,ADORTSHT00002381;2999.00;<p>Cotton</p>;;;;;;;zerotype;;Summer;;No
1808576;BJ8723-CORHTR/MYSBLU/MULTCO-1808576;SWT LF LNG TEE;Draft;Tshirts;Adidas Originals;Adults-Men;Men;;;;Fashion;;2017;XXL,ADORTSHT00002372,L,ADORTSHT00002373,XL,ADORTSHT00002374,S,ADORTSHT00002375,M,ADORTSHT00002376;2599.00;<p>Cotton</p>;;;;;;;zerotype;;Summer;;No
1808575;BJ8703-BLACK-1808575;ARI TEE 1;Draft;Tshirts;Adidas Originals;Adults-Men;Men;;;;Fashion;;2017;XXL,ADORTSHT00002367,L,ADORTSHT00002368,S,ADORTSHT00002369,XL,ADORTSHT00002370,M,ADORTSHT00002371;2599.00;<p>Cotton</p>;;;;;;;zerotype;;Summer;;No
1808574;BJ8702-WHITE-1808574;ARI TEE 2;Draft;Tshirts;Adidas Originals;Adults-Men;Men;;;;Fashion;;2017;S,ADORTSHT00002362,XL,ADORTSHT00002363,XXL,ADORTSHT00002364,L,ADORTSHT00002365,M,ADORTSHT00002366;2599.00;<p>Cotton</p>;;;;;;;zerotype;;Summer;;No
1808572;BJ8478-EFEASY/EASCOR-1808572;YG ID MIX TEE;Draft;Tshirts;Adidas;Kids-Girls;Girls;;;;Fashion;;2017;128,ADDSTSHT00115149,152,ADDSTSHT00115150,164,ADDSTSHT00115151,140,ADDSTSHT00115152;1999.00;<p>Cotton</p>;;;;;;;zerotype;;Summer;;No
1808565;B28210-SCARLE-1808565;AKTIV SS TEE M;Draft;Tshirts;Adidas;Adults-Men;Men;;;;Fashion;;2017;XXL,ADDSTSHT00115115,S,ADDSTSHT00115116,L,ADDSTSHT00115117,XL,ADDSTSHT00115118,M,ADDSTSHT00115119;2999.00;<p>Polyester</p>;;;;;;;zerotype;;Summer;;No
1808564;AZ9845-BLACK-1808564;MUFC GR TEE BET;Draft;Tshirts;Adidas;Adults-Men;Men;;;;Fashion;;2017;XL,ADDSTSHT00115110,S,ADDSTSHT00115111,XXL,ADDSTSHT00115112,L,ADDSTSHT00115113,M,ADDSTSHT00115114;1599.00;<p>Cotton</p>;;;;;;;zerotype;;Summer;;No
1808559;AZ7804-MGREYH/WHITE-1808559;SPORT TEE;Draft;Tshirts;Adidas;Adults-Women;Women;;;;Fashion;;2017;L,ADDSTSHT00115102,M,ADDSTSHT00115103,XS,ADDSTSHT00115104,S,ADDSTSHT00115105;2699.00;<p>Cotton</p>;;;;;;;zerotype;;Summer;;No
1808557;AZ3798-MGREYH-1808557;REAL CO TEE;Draft;Tshirts;Adidas;Adults-Men;Men;;;;Fashion;;2017;S,ADDSTSHT00115097,XL,ADDSTSHT00115098,L,ADDSTSHT00115099,XXL,ADDSTSHT00115100,M,ADDSTSHT00115101;1599.00;<p>Cotton</p>;;;;;;;zerotype;;Summer;;No
