Style ID;Vendor Article Number;Vendor Article Name;Active Status;Article type;Brand;Age Group;Gender;Base Colour;Colour1;Colour2;Fashion Type;Usage;Year;Size - SKU code pair;MRP;Style Description;Style Note;Materials and Care Description;Size and Fit Description;Size Chart Path;Product Display Name;Tags;Product Type;Classification Brand;Season;Comments;Upload Images
2477935;RWJ-339-Indigo-2477935;Womens Denim Bottom;Draft;Jeans;HERE&NOW;Adults-Women;Women;NA;;;Fashion;;2018;26,HENWJENS00007403,28,HENWJENS00007404,30,HENWJENS00007405,32,HENWJENS00007406,34,HENWJENS00007407;1999.00;;;<p>98%Cotton,2%Spandex</p>;;;;;zerotype;;Summer;;No
2477934;RWJ-338-Indigo-2477934;Womens Denim Bottom;Draft;Jeans;HERE&NOW;Adults-Women;Women;NA;;;Fashion;;2018;26,HENWJENS00007398,28,HENWJENS00007399,30,HENWJENS00007400,32,HENWJENS00007401,34,HENWJENS00007402;1999.00;;;<p>98%Cotton,2%Spandex</p>;;;;;zerotype;;Summer;;No
2477933;RWJ-337-Indigo-2477933;Womens Denim Bottom;Draft;Jeans;HERE&NOW;Adults-Women;Women;NA;;;Fashion;;2018;26,HENWJENS00007393,28,HENWJENS00007394,30,HENWJENS00007395,32,HENWJENS00007396,34,HENWJENS00007397;2199.00;;;<p>98%Cotton,2%Spandex</p>;;;;;zerotype;;Summer;;No
2477925;RMJ-279-Indigo-2477925;Men Denim Bottom;Draft;Jeans;HERE&NOW;Adults-Men;Men;NA;;;Fashion;;2018;28,HENWJENS00007353,30,HENWJENS00007354,32,HENWJENS00007355,34,HENWJENS00007356,36,HENWJENS00007357;2199.00;;;<p>98%Cotton,2%Spandex</p>;;;;;zerotype;;Summer;;No
2477915;RMJ-269-Indigo-2477915;Men Denim Bottom;Draft;Jeans;HERE&NOW;Adults-Men;Men;NA;;;Fashion;;2018;28,HENWJENS00007303,30,HENWJENS00007304,32,HENWJENS00007305,34,HENWJENS00007306,36,HENWJENS00007307;2199.00;;;<p>98%Cotton,2%Spandex</p>;;;;;zerotype;;Summer;;No
2477914;RMJ-268-Indigo-2477914;Men Denim Bottom;Draft;Jeans;HERE&NOW;Adults-Men;Men;NA;;;Fashion;;2018;28,HENWJENS00007298,30,HENWJENS00007299,32,HENWJENS00007300,34,HENWJENS00007301,36,HENWJENS00007302;2299.00;;;<p>98%Cotton,2%Spandex</p>;;;;;zerotype;;Summer;;No
