Style ID;Vendor Article Number;Vendor Article Name;Active Status;Article type;Brand;Age Group;Gender;Base Colour;Colour1;Colour2;Fashion Type;Usage;Year;Size - SKU code pair;MRP;Style Description;Style Note;Materials and Care Description;Size and Fit Description;Size Chart Path;Product Display Name;Tags;Product Type;Classification Brand;Season;Comments;Upload Images
1884314;Rees Dark Purple-Purple-1884314;Rees;Draft;Tshirts;Breakbounce;Adults-Men;Men;;;;Fashion;;2017;S,BKBNTSHT00003384,M,BKBNTSHT00003385,L,BKBNTSHT00003386,XL,BKBNTSHT00003387,XXL,BKBNTSHT00003388;799.00;;;;;;;;zerotype;;Spring;;No
1884313;Hermit Black-Black-1884313;Hermit;Draft;Tshirts;Breakbounce;Adults-Men;Men;;;;Fashion;;2017;S,BKBNTSHT00003379,M,BKBNTSHT00003380,L,BKBNTSHT00003381,XL,BKBNTSHT00003382,XXL,BKBNTSHT00003383;899.00;;;;;;;;zerotype;;Spring;;No
1884311;Dorset Royal Blue-Blue-1884311;Dorset;Draft;Tshirts;Breakbounce;Adults-Men;Men;;;;Fashion;;2017;S,BKBNTSHT00003374,M,BKBNTSHT00003375,L,BKBNTSHT00003376,XL,BKBNTSHT00003377,XXL,BKBNTSHT00003378;599.00;;;;;;;;zerotype;;Spring;;No
1884310;Dorset Black-Black-1884310;Dorset;Draft;Tshirts;Breakbounce;Adults-Men;Men;;;;Fashion;;2017;S,BKBNTSHT00003369,M,BKBNTSHT00003370,L,BKBNTSHT00003371,XL,BKBNTSHT00003372,XXL,BKBNTSHT00003373;599.00;;;;;;;;zerotype;;Spring;;No
1884309;Walmer Grey-Grey-1884309;Walmer;Draft;Track Pants;Breakbounce;Adults-Men;Men;;;;Fashion;;2017;28,BKBNTRPT00000277,30,BKBNTRPT00000278,32,BKBNTRPT00000279,34,BKBNTRPT00000280,36,BKBNTRPT00000281,38,BKBNTRPT00000282;1499.00;;;;;;;;zerotype;;Spring;;No
1884308;Hillyard LightIndigo-Navy Blue-1884308;Hillyard;Draft;Track Pants;Breakbounce;Adults-Men;Men;;;;Fashion;;2017;28,BKBNTRPT00000271,30,BKBNTRPT00000272,32,BKBNTRPT00000273,34,BKBNTRPT00000274,36,BKBNTRPT00000275,38,BKBNTRPT00000276;1499.00;;;;;;;;zerotype;;Spring;;No
