Style ID;Vendor Article Number;Vendor Article Name;Active Status;Article type;Brand;Age Group;Gender;Base Colour;Colour1;Colour2;Fashion Type;Usage;Year;Size - SKU code pair;MRP;Style Description;Style Note;Materials and Care Description;Size and Fit Description;Size Chart Path;Product Display Name;Tags;Product Type;Classification Brand;Season;Comments;Upload Images
1946651;129010225-Blue-1946651;CMBLU0225;Draft;Kurta Sets;Chitwan Mohan;Adults-Men;Men;;;;Fashion;;2017;38,CTMNKASS00000117,40,CTMNKASS00000118,42,CTMNKASS00000119,44,CTMNKASS00000120;2699.00;;;;;;;;zerotype;;Fall;;No
1946648;128010225-Pink-1946648;CMPUR0225;Draft;Kurta Sets;Chitwan Mohan;Adults-Men;Men;;;;Fashion;;2017;38,CTMNKASS00000113,40,CTMNKASS00000114,42,CTMNKASS00000115,44,CTMNKASS00000116;2699.00;;;;;;;;zerotype;;Fall;;No
1946647;127010218-Beige-1946647;CMGOLD218;Draft;Kurta Sets;Chitwan Mohan;Adults-Men;Men;;;;Fashion;;2017;38,CTMNKASS00000109,40,CTMNKASS00000110,42,CTMNKASS00000111,44,CTMNKASS00000112;3999.00;;;;;;;;zerotype;;Fall;;No
1946646;126010218-Maroon-1946646;CMMAROON0218;Draft;Kurta Sets;Chitwan Mohan;Adults-Men;Men;;;;Fashion;;2017;38,CTMNKASS00000105,40,CTMNKASS00000106,42,CTMNKASS00000107,44,CTMNKASS00000108;3999.00;;;;;;;;zerotype;;Fall;;No
1946642;125010216-Beige-1946642;CMGOLD0216;Draft;Kurta Sets;Chitwan Mohan;Adults-Men;Men;;;;Fashion;;2017;38,CTMNKASS00000101,40,CTMNKASS00000102,42,CTMNKASS00000103,44,CTMNKASS00000104;3999.00;;;;;;;;zerotype;;Fall;;No
1946641;124011100-Blue-1946641;CMRB1100;Draft;Kurta Sets;Chitwan Mohan;Adults-Men;Men;;;;Fashion;;2017;38,CTMNKASS00000097,40,CTMNKASS00000098,42,CTMNKASS00000099,44,CTMNKASS00000100;2799.00;;;;;;;;zerotype;;Fall;;No
1946638;123011100-Red-1946638;CMRED1100;Draft;Kurta Sets;Chitwan Mohan;Adults-Men;Men;;;;Fashion;;2017;38,CTMNKASS00000093,40,CTMNKASS00000094,42,CTMNKASS00000095,44,CTMNKASS00000096;2799.00;;;;;;;;zerotype;;Fall;;No
1946636;122011100-Orange-1946636;CMORG1100;Draft;Kurta Sets;Chitwan Mohan;Adults-Men;Men;;;;Fashion;;2017;38,CTMNKASS00000089,40,CTMNKASS00000090,42,CTMNKASS00000091,44,CTMNKASS00000092;2799.00;;;;;;;;zerotype;;Fall;;No
1946635;121011100-Navy Blue-1946635;CMNVBL1100;Draft;Kurta Sets;Chitwan Mohan;Adults-Men;Men;;;;Fashion;;2017;38,CTMNKASS00000085,40,CTMNKASS00000086,42,CTMNKASS00000087,44,CTMNKASS00000088;2799.00;;;;;;;;zerotype;;Fall;;No
1946632;120011102-Blue-1946632;CMBLU1102;Draft;Kurta Sets;Chitwan Mohan;Adults-Men;Men;;;;Fashion;;2017;38,CTMNKASS00000081,40,CTMNKASS00000082,42,CTMNKASS00000083,44,CTMNKASS00000084;3299.00;;;;;;;;zerotype;;Fall;;No
1946630;119011102-Brown-1946630;CMBRWN1102;Draft;Kurta Sets;Chitwan Mohan;Adults-Men;Men;;;;Fashion;;2017;38,CTMNKASS00000077,40,CTMNKASS00000078,42,CTMNKASS00000079,44,CTMNKASS00000080;3299.00;;;;;;;;zerotype;;Fall;;No
1946628;118011102-Maroon-1946628;CMMAROON1102;Draft;Kurta Sets;Chitwan Mohan;Adults-Men;Men;;;;Fashion;;2017;38,CTMNKASS00000073,40,CTMNKASS00000074,42,CTMNKASS00000075,44,CTMNKASS00000076;3299.00;;;;;;;;zerotype;;Fall;;No
1946625;117011102-Orange-1946625;CMORG1102;Draft;Kurta Sets;Chitwan Mohan;Adults-Men;Men;;;;Fashion;;2017;38,CTMNKASS00000069,40,CTMNKASS00000070,42,CTMNKASS00000071,44,CTMNKASS00000072;3299.00;;;;;;;;zerotype;;Fall;;No
1946623;116011102-Blue-1946623;CMSKBLU1102;Draft;Kurta Sets;Chitwan Mohan;Adults-Men;Men;;;;Fashion;;2017;38,CTMNKASS00000065,40,CTMNKASS00000066,42,CTMNKASS00000067,44,CTMNKASS00000068;3299.00;;;;;;;;zerotype;;Fall;;No
1946621;115011106-Purple-1946621;CMPUR1106;Draft;Kurta Sets;Chitwan Mohan;Adults-Men;Men;;;;Fashion;;2017;38,CTMNKASS00000061,40,CTMNKASS00000062,42,CTMNKASS00000063,44,CTMNKASS00000064;3499.00;;;;;;;;zerotype;;Fall;;No
1946619;114011106-Blue-1946619;CMRB1106;Draft;Kurta Sets;Chitwan Mohan;Adults-Men;Men;;;;Fashion;;2017;38,CTMNKASS00000057,40,CTMNKASS00000058,42,CTMNKASS00000059,44,CTMNKASS00000060;3499.00;;;;;;;;zerotype;;Fall;;No
1946616;113011106-Pink-1946616;CMPINK1106;Draft;Kurta Sets;Chitwan Mohan;Adults-Men;Men;;;;Fashion;;2017;38,CTMNKASS00000053,40,CTMNKASS00000054,42,CTMNKASS00000055,44,CTMNKASS00000056;3499.00;;;;;;;;zerotype;;Fall;;No
1946615;112011106-Maroon-1946615;CMMAROON1106;Draft;Kurta Sets;Chitwan Mohan;Adults-Men;Men;;;;Fashion;;2017;38,CTMNKASS00000049,40,CTMNKASS00000050,42,CTMNKASS00000051,44,CTMNKASS00000052;3499.00;;;;;;;;zerotype;;Fall;;No
1946614;111011106-Red-1946614;CMRED1106;Draft;Kurta Sets;Chitwan Mohan;Adults-Men;Men;;;;Fashion;;2017;38,CTMNKASS00000045,40,CTMNKASS00000046,42,CTMNKASS00000047,44,CTMNKASS00000048;3499.00;;;;;;;;zerotype;;Fall;;No
1946611;110011107-Orange-1946611;CMORG1107;Draft;Kurta Sets;Chitwan Mohan;Adults-Men;Men;;;;Fashion;;2017;38,CTMNKASS00000041,40,CTMNKASS00000042,42,CTMNKASS00000043,44,CTMNKASS00000044;3299.00;;;;;;;;zerotype;;Fall;;No
1946607;19011108-Rust-1946607;CMRUST1108;Draft;Kurta Sets;Chitwan Mohan;Adults-Men;Men;;;;Fashion;;2017;38,CTMNKASS00000037,40,CTMNKASS00000038,42,CTMNKASS00000039,44,CTMNKASS00000040;3499.00;;;;;;;;zerotype;;Fall;;No
1946603;18011108-Brown-1946603;CMCOPR1108;Draft;Kurta Sets;Chitwan Mohan;Adults-Men;Men;;;;Fashion;;2017;38,CTMNKASS00000033,40,CTMNKASS00000034,42,CTMNKASS00000035,44,CTMNKASS00000036;3499.00;;;;;;;;zerotype;;Fall;;No
1946600;17011108-Beige-1946600;CMGOLD1108;Draft;Kurta Sets;Chitwan Mohan;Adults-Men;Men;;;;Fashion;;2017;38,CTMNKASS00000029,40,CTMNKASS00000030,42,CTMNKASS00000031,44,CTMNKASS00000032;3499.00;;;;;;;;zerotype;;Fall;;No
1946597;16011108-Orange-1946597;CMORG1108;Draft;Kurta Sets;Chitwan Mohan;Adults-Men;Men;;;;Fashion;;2017;38,CTMNKASS00000025,40,CTMNKASS00000026,42,CTMNKASS00000027,44,CTMNKASS00000028;3499.00;;;;;;;;zerotype;;Fall;;No
1946593;15011108-Mustard-1946593;CMMUS1108;Draft;Kurta Sets;Chitwan Mohan;Adults-Men;Men;;;;Fashion;;2017;38,CTMNKASS00000021,40,CTMNKASS00000022,42,CTMNKASS00000023,44,CTMNKASS00000024;3499.00;;;;;;;;zerotype;;Fall;;No
1946590;14011108-Blue-1946590;CMNVBL1108;Draft;Kurta Sets;Chitwan Mohan;Adults-Men;Men;;;;Fashion;;2017;38,CTMNKASS00000017,40,CTMNKASS00000018,42,CTMNKASS00000019,44,CTMNKASS00000020;3499.00;;;;;;;;zerotype;;Fall;;No
1946587;13011108-Brown-1946587;CMBRWN1108;Draft;Kurta Sets;Chitwan Mohan;Adults-Men;Men;;;;Fashion;;2017;38,CTMNKASS00000013,40,CTMNKASS00000014,42,CTMNKASS00000015,44,CTMNKASS00000016;3499.00;;;;;;;;zerotype;;Fall;;No
1946583;12011108-Blue-1946583;CMRB1108;Draft;Kurta Sets;Chitwan Mohan;Adults-Men;Men;;;;Fashion;;2017;38,CTMNKASS00000009,40,CTMNKASS00000010,42,CTMNKASS00000011,44,CTMNKASS00000012;3499.00;;;;;;;;zerotype;;Fall;;No
1946581;11011108-Cream-1946581;CMFAW1108;Draft;Kurta Sets;Chitwan Mohan;Adults-Men;Men;;;;Fashion;;2017;38,CTMNKASS00000005,40,CTMNKASS00000006,42,CTMNKASS00000007,44,CTMNKASS00000008;3499.00;;;;;;;;zerotype;;Fall;;No
1946575;10011108-Black-1946575;CMBL1108;Draft;Kurta Sets;Chitwan Mohan;Adults-Men;Men;;;;Fashion;;2017;38,CTMNKASS00000001,40,CTMNKASS00000002,42,CTMNKASS00000003,44,CTMNKASS00000004;3499.00;;;;;;;;zerotype;;Fall;;No
