Style ID;Vendor Article Number;Vendor Article Name;Active Status;Article type;Brand;Age Group;Gender;Base Colour;Colour1;Colour2;Fashion Type;Usage;Year;Size - SKU code pair;MRP;Style Description;Style Note;Materials and Care Description;Size and Fit Description;Size Chart Path;Product Display Name;Tags;Product Type;Classification Brand;Season;Comments;Upload Images
2337003;XBJ-17-N0080 D. Bata-Blue-2337003;D. Bata JEANS;Draft;Jeans;Xblues;Adults-Women;Women;Blue;;;Fashion;Casual;2017;28,XBLSJENS00001454,36,XBLSJENS00001455,34,XBLSJENS00001456,32,XBLSJENS00001457,30,XBLSJENS00001458;2099.00;;;<p>Machine Wash</p>;;;Xblues Jeans;;zerotype;;Fall;;No
2337002;XBJ-17-N0062 Ice Blast-Blue-2337002;Ice Blast JEANS;Draft;Jeans;Xblues;Adults-Women;Women;Blue;;;Fashion;Casual;2017;36,XBLSJENS00001449,34,XBLSJENS00001450,32,XBLSJENS00001451,30,XBLSJENS00001452,28,XBLSJENS00001453;2099.00;;;<p>Machine Wash</p>;;;Xblues Jeans;;zerotype;;Fall;;No
2337001;XBJ-17-N0062 H. Blue-Blue-2337001;H. Blue JEANS;Draft;Jeans;Xblues;Adults-Women;Women;Blue;;;Fashion;Casual;2017;32,XBLSJENS00001444,30,XBLSJENS00001445,28,XBLSJENS00001446,36,XBLSJENS00001447,34,XBLSJENS00001448;2099.00;;;<p>Machine Wash</p>;;;Xblues Jeans;;zerotype;;Fall;;No
2337000;XBJ-17-N0062 Black-Black-2337000;Black JEANS;Draft;Jeans;Xblues;Adults-Women;Women;Black;;;Fashion;Casual;2017;36,XBLSJENS00001439,34,XBLSJENS00001440,32,XBLSJENS00001441,30,XBLSJENS00001442,28,XBLSJENS00001443;2099.00;;;<p>Machine Wash</p>;;;Xblues Jeans;;zerotype;;Fall;;No
2336999;XBJ-17-N0060 D. Tint-Blue-2336999;D. Tint JEANS;Draft;Jeans;Xblues;Adults-Women;Women;Blue;;;Fashion;Casual;2017;36,XBLSJENS00001434,34,XBLSJENS00001435,32,XBLSJENS00001436,30,XBLSJENS00001437,28,XBLSJENS00001438;1999.00;;;<p>Machine Wash</p>;;;Xblues Jeans;;zerotype;;Fall;;No
2336998;XBJ-17-N0060 Black-Black-2336998;Black JEANS;Draft;Jeans;Xblues;Adults-Women;Women;Black;;;Fashion;Casual;2017;30,XBLSJENS00001429,28,XBLSJENS00001430,36,XBLSJENS00001431,34,XBLSJENS00001432,32,XBLSJENS00001433;1999.00;;;<p>Machine Wash</p>;;;Xblues Jeans;;zerotype;;Fall;;No
2336997;XBJ-17-N0058 Black-Black-2336997;Black JEANS;Draft;Jeans;Xblues;Adults-Women;Women;Black;;;Fashion;Casual;2017;38,XBLSJENS00001423,36,XBLSJENS00001424,34,XBLSJENS00001425,32,XBLSJENS00001426,30,XBLSJENS00001427,28,XBLSJENS00001428;1999.00;;;<p>Machine Wash</p>;;;Xblues Jeans;;zerotype;;Fall;;No
2336996;XBJ-17-N0021 Ice Blue-Blue-2336996;Ice Blue JEANS;Draft;Jeans;Xblues;Adults-Women;Women;Blue;;;Fashion;Casual;2017;40,XBLSJENS00001416,38,XBLSJENS00001417,36,XBLSJENS00001418,34,XBLSJENS00001419,32,XBLSJENS00001420,30,XBLSJENS00001421,28,XBLSJENS00001422;1599.00;;;<p>Machine Wash</p>;;;Xblues Jeans;;zerotype;;Fall;;No
2336995;XBJ-17-N0021 Carbon-Black-2336995;Carbon JEANS;Draft;Jeans;Xblues;Adults-Women;Women;Black;;;Fashion;Casual;2017;38,XBLSJENS00001409,36,XBLSJENS00001410,34,XBLSJENS00001411,32,XBLSJENS00001412,30,XBLSJENS00001413,28,XBLSJENS00001414,40,XBLSJENS00001415;1599.00;;;<p>Machine Wash</p>;;;na;;zerotype;;Fall;;No
2336993;XBJ-17-N0021 Black-Black-2336993;Black JEANS;Draft;Jeans;Xblues;Adults-Women;Women;Black;;;Fashion;Casual;2017;32,XBLSJENS00001402,30,XBLSJENS00001403,28,XBLSJENS00001404,40,XBLSJENS00001405,38,XBLSJENS00001406,36,XBLSJENS00001407,34,XBLSJENS00001408;1599.00;;;<p>Machine Wash</p>;;;Xblues Jeans;;zerotype;;Fall;;No
2336991;XBA-17-N1777 S. Blue-Blue-2336991;S. Blue ANKLE/JEANS;Draft;Jeans;Xblues;Adults-Women;Women;Blue;;;Fashion;Casual;2017;36,XBLSJENS00001397,34,XBLSJENS00001398,32,XBLSJENS00001399,28,XBLSJENS00001400,30,XBLSJENS00001401;1899.00;;;<p>Machine Wash</p>;;;Xblues Jeans;;zerotype;;Fall;;No
2336990;XBA-17-N1777 Carbon-Black-2336990;Carbon ANKLE/JEANS;Draft;Jeans;Xblues;Adults-Women;Women;Black;;;Fashion;Casual;2017;32,XBLSJENS00001392,30,XBLSJENS00001393,28,XBLSJENS00001394,36,XBLSJENS00001395,34,XBLSJENS00001396;1899.00;;;<p>Machine Wash</p>;;;Xblues Jeans;;zerotype;;Fall;;No
2336987;XBA-17-N1776 Black-Black-2336987;Black ANKLE/JEANS;Draft;Jeans;Xblues;Adults-Women;Women;Black;;;Fashion;Casual;2017;38,XBLSJENS00001386,36,XBLSJENS00001387,34,XBLSJENS00001388,32,XBLSJENS00001389,30,XBLSJENS00001390,28,XBLSJENS00001391;2199.00;;;<p>Machine Wash</p>;;;Xblues Jeans;;zerotype;;Fall;;No
2336985;XBA-17-N1162 Grey-Grey-2336985;Grey ANKLE/JEANS;Draft;Jeans;Xblues;Adults-Women;Women;Grey;;;Fashion;Casual;2017;34,XBLSJENS00001381,32,XBLSJENS00001382,30,XBLSJENS00001383,28,XBLSJENS00001384,36,XBLSJENS00001385;1699.00;;;<p>Machine Wash</p>;;;Xblues Jeans;;zerotype;;Fall;;No
2336983;XBA-17-N1137 H. Blue-Blue-2336983;H. Blue ANKLE/JEANS;Draft;Jeans;Xblues;Adults-Women;Women;Blue;;;Fashion;Casual;2017;36,XBLSJENS00001376,34,XBLSJENS00001377,32,XBLSJENS00001378,30,XBLSJENS00001379,28,XBLSJENS00001380;1899.00;;;<p>Machine Wash</p>;;;Xblues Jeans;;zerotype;;Fall;;No
