Style ID;Vendor Article Number;Vendor Article Name;Active Status;Article type;Brand;Age Group;Gender;Base Colour;Colour1;Colour2;Fashion Type;Usage;Year;Size - SKU code pair;MRP;Style Description;Style Note;Materials and Care Description;Size and Fit Description;Size Chart Path;Product Display Name;Tags;Product Type;Classification Brand;Season;Comments;Upload Images
2309490;RNSH-17-Indigo-2309490;Men Denim Shirts;Draft;Shirts;HERE&NOW;Adults-Men;Men;;;;Fashion;;2017;S,HENWSHRT00002051,M,HENWSHRT00002052,L,HENWSHRT00002053,XL,HENWSHRT00002054,XXL,HENWSHRT00002055;1599.00;;;<p>78% cotton 22% poly</p>;;;;;zerotype;;Fall;;No
2309489;RNSH-08-Indigo-2309489;Men Denim Shirts;Draft;Shirts;HERE&NOW;Adults-Men;Men;;;;Fashion;;2017;S,HENWSHRT00002046,M,HENWSHRT00002047,L,HENWSHRT00002048,XL,HENWSHRT00002049,XXL,HENWSHRT00002050;1399.00;;;<p>78% cotton 22% poly</p>;;;;;zerotype;;Fall;;No
2309488;RNSH-07-Indigo-2309488;Men Denim Shirts;Draft;Shirts;HERE&NOW;Adults-Men;Men;;;;Fashion;;2017;S,HENWSHRT00002041,M,HENWSHRT00002042,L,HENWSHRT00002043,XL,HENWSHRT00002044,XXL,HENWSHRT00002045;1599.00;;;<p>78% cotton 22% poly</p>;;;;;zerotype;;Fall;;No
2309487;RNSH-06-Indigo-2309487;Men Denim Shirts;Draft;Shirts;HERE&NOW;Adults-Men;Men;;;;Fashion;;2017;S,HENWSHRT00002036,M,HENWSHRT00002037,L,HENWSHRT00002038,XL,HENWSHRT00002039,XXL,HENWSHRT00002040;1499.00;;;<p>78% cotton 22% poly</p>;;;;;zerotype;;Fall;;No
2309486;RNSH-05-Indigo-2309486;Men Denim Shirts;Draft;Shirts;HERE&NOW;Adults-Men;Men;;;;Fashion;;2017;S,HENWSHRT00002031,M,HENWSHRT00002032,L,HENWSHRT00002033,XL,HENWSHRT00002034,XXL,HENWSHRT00002035;1499.00;;;<p>78% cotton 22% poly</p>;;;;;zerotype;;Fall;;No
2309485;RNSH-04-Indigo-2309485;Men Denim Shirts;Draft;Shirts;HERE&NOW;Adults-Men;Men;;;;Fashion;;2017;S,HENWSHRT00002026,M,HENWSHRT00002027,L,HENWSHRT00002028,XL,HENWSHRT00002029,XXL,HENWSHRT00002030;1499.00;;;<p>78% cotton 22% poly</p>;;;;;zerotype;;Fall;;No
2309484;RNSH-03-Indigo-2309484;Men Denim Shirts;Draft;Shirts;HERE&NOW;Adults-Men;Men;;;;Fashion;;2017;S,HENWSHRT00002021,M,HENWSHRT00002022,L,HENWSHRT00002023,XL,HENWSHRT00002024,XXL,HENWSHRT00002025;1499.00;;;<p>78% cotton 22% poly</p>;;;;;zerotype;;Fall;;No
2309483;RNSH-02-Indigo-2309483;Men Denim Shirts;Draft;Shirts;HERE&NOW;Adults-Men;Men;;;;Fashion;;2017;S,HENWSHRT00002016,M,HENWSHRT00002017,L,HENWSHRT00002018,XL,HENWSHRT00002019,XXL,HENWSHRT00002020;1399.00;;;<p>78% cotton 22% poly</p>;;;;;zerotype;;Fall;;No
2309482;RNSH-01-Indigo-2309482;Men Denim Shirts;Draft;Shirts;HERE&NOW;Adults-Men;Men;;;;Fashion;;2017;S,HENWSHRT00002011,M,HENWSHRT00002012,L,HENWSHRT00002013,XL,HENWSHRT00002014,XXL,HENWSHRT00002015;1399.00;;;<p>78% cotton 22% poly</p>;;;;;zerotype;;Fall;;No
2308161;54ICD-MARINE BLUE-2308161;IND SPORT JOG-7;Draft;Track Pants;French Connection;Adults-Men;Men;Blue;;;Fashion;;2017;30,FCONTRPT00000046,32,FCONTRPT00000047,34,FCONTRPT00000048,36,FCONTRPT00000049,38,FCONTRPT00000050;2599.00;;;<p>Machine wash</p>;;;;;zerotype;;Winter;;No
2308160;54ICD-CHARCOAL MEL-2308160;IND SPORT JOG-7;Active;Track Pants;French Connection;Adults-Men;Men;Charcoal;;;Fashion;Sports;2017;30,FCONTRPT00000041,32,FCONTRPT00000042,34,FCONTRPT00000043,36,FCONTRPT00000044,38,FCONTRPT00000045;2599.00;Charcoal grey mid-rise joggers, with printed detailing, has an elasticated waistband with a drawstring fastening, 3 pockets, cuffed hem;Look good in these comfortable joggers. Team them with a T-shirt and a pair of sports shoes for workout at the gym.;60% cotton, 40% polyester<br />Machine wash;The model (height 6') is wearing a size M;;French Connection Charcoal Grey Solid Joggers;French Connection,welcome-to-myntra-oct17;zerotype;;Winter;welcome-to-myntra-oct17;No
2308159;54ICC-Grey Mel-2308159;IND SPORT JOG-6-DESIGN 2;Draft;Track Pants;French Connection;Adults-Men;Men;Grey;;;Fashion;;2017;30,FCONTRPT00000036,32,FCONTRPT00000037,34,FCONTRPT00000038,36,FCONTRPT00000039,38,FCONTRPT00000040;2699.00;;;<p>Machine wash</p>;;;;;zerotype;;Winter;;No
2308158;54ICC-CHARCOAL MEL-2308158;IND SPORT JOG-6-DESIGN 2;Active;Track Pants;French Connection;Adults-Men;Men;Charcoal;;;Fashion;Sports;2017;30,FCONTRPT00000031,32,FCONTRPT00000032,34,FCONTRPT00000033,36,FCONTRPT00000034,38,FCONTRPT00000035;2699.00;Charcoal grey mid-rise joggers, has an elasticated waistband with a drawstring fastening, 3 pockets, cuffed hem;Look good in these comfortable joggers. Team them with a T-shirt and a pair of sports shoes for workout at the gym.;60% cotton, 40% polyester<br />Machine wash;The model (height 6') is wearing a size M;;French Connection Charcoal Grey Solid Joggers;French Connection,welcome-to-myntra-oct17;zerotype;;Winter;welcome-to-myntra-oct17;No
2308157;54ICB-MARINE BLUE-2308157;IND FC CUT AND SEW JOG;Active;Track Pants;French Connection;Adults-Men;Men;Blue;Grey;;Fashion;Sports;2017;30,FCONTRPT00000026,32,FCONTRPT00000027,34,FCONTRPT00000028,36,FCONTRPT00000029,38,FCONTRPT00000030;2599.00;Navy blue and grey mid-rise colourblocked joggers, has an elasticated waistband with a drawstring fastening, 3 pockets, cuffed hem;Look good in these comfortable joggers. Team them with a T-shirt and a pair of sports shoes for workout at the gym.;60% cotton, 40% polyester<br />Machine wash;The model (height 6') is wearing a size M;;French Connection Navy & Grey Colourblocked Joggers;French Connection,welcome-to-myntra-oct17;zerotype;;Winter;welcome-to-myntra-oct17;No
2308156;54ICA-GREY MEL/MARINE BLUE-2308156;IND SPORT JOG-4;Draft;Track Pants;French Connection;Adults-Men;Men;Grey;;;Fashion;;2017;30,FCONTRPT00000021,32,FCONTRPT00000022,34,FCONTRPT00000023,36,FCONTRPT00000024,38,FCONTRPT00000025;2699.00;;;<p>Machine wash</p>;;;;;zerotype;;Winter;;No
2308155;54ICA-Grey Mel-2308155;IND SPORT JOG-4;Draft;Track Pants;French Connection;Adults-Men;Men;Grey;;;Fashion;;2017;30,FCONTRPT00000016,32,FCONTRPT00000017,34,FCONTRPT00000018,36,FCONTRPT00000019,38,FCONTRPT00000020;2699.00;;;<p>Machine wash</p>;;;;;zerotype;;Winter;;No
2308154;54IBZ-MARINE BLUE-2308154;IND JOGGER;Draft;Track Pants;French Connection;Adults-Men;Men;Blue;;;Fashion;;2017;30,FCONTRPT00000011,32,FCONTRPT00000012,34,FCONTRPT00000013,36,FCONTRPT00000014,38,FCONTRPT00000015;2299.00;;;<p>Machine wash</p>;;;;;zerotype;;Winter;;No
2308153;54IBZ-Grey Mel-2308153;IND JOGGER;Active;Track Pants;French Connection;Adults-Men;Men;Grey Melange;;;Fashion;Sports;2017;30,FCONTRPT00000006,32,FCONTRPT00000007,34,FCONTRPT00000008,36,FCONTRPT00000009,38,FCONTRPT00000010;2299.00;Grey melange printed mid-rise joggers, has an elasticated waistband with a drawstring fastening, 3 pockets, cuffed hem;Look good in these comfortable joggers. Team them with a T-shirt and a pair of sports shoes for workout at the gym.;60% cotton, 40% polyester<br />Machine wash;The model (height 6') is wearing a size M;;French Connection Grey Melange Printed Joggers;French Connection,welcome-to-myntra-oct17;zerotype;;Winter;welcome-to-myntra-oct17;No
2308152;54IBZ-BLACK-2308152;IND JOGGER;Active;Track Pants;French Connection;Adults-Men;Men;Black;;;Fashion;Sports;2017;30,FCONTRPT00000001,32,FCONTRPT00000002,34,FCONTRPT00000003,36,FCONTRPT00000004,38,FCONTRPT00000005;2299.00;Black mid-rise joggers, with printed detailing, has an elasticated waistband with a drawstring fastening, 3 pockets;Look good in these comfortable joggers. Team them with a T-shirt and a pair of sports shoes for workout at the gym.;60% cotton, 40% polyester<br />Machine wash;The model (height 6') is wearing a size M;;French Connection Black Solid Joggers;French Connection,welcome-to-myntra-oct17;zerotype;;Winter;welcome-to-myntra-oct17;No
2306969;RAMJ-34-Indigo-2306969;Men Denim Jacket;Active;Jackets;Moda Rapido;Adults-Men;Men;Blue;;;Fashion;Casual;2017;S,MAROJCKT00000175,M,MAROJCKT00000176,L,MAROJCKT00000177,XL,MAROJCKT00000178,XXL,MAROJCKT00000179;2499.00;<a href='/blue?src=pd' class='seolink'>Blue</a> <a href='/solid?src=pd' class='seolink'>solid</a> <a href='/denim-jacket?src=pd' class='seolink'>denim jacket</a>, has a <a href='/spread?src=pd' class='seolink'>spread</a> collar, <a href='/6?src=pd' class='seolink'>6</a> pockets, button closure closure, long sleeves, straight hem;Make a name for yourself this season when you rock this handsome blue jacket.  This jacket from Moda Rapido is perfect with trousers and loafers for a day out around town.;Cotton <br> Machine-wash;The model (height 6') is wearing a size M;;Moda Rapido Men Blue Solid Denim Jacket;Moda Rapido;zerotype;;Fall;;No
2306964;RAMJ-19-Indigo-2306964;Men Denim Jacket;Active;Jackets;HERE&NOW;Adults-Men;Men;Blue;;;Fashion;Casual;2017;S,HENWJCKT00000314,M,HENWJCKT00000315,L,HENWJCKT00000316,XL,HENWJCKT00000317,XXL,HENWJCKT00000318;2899.00;<a href='/blue?src=pd' class='seolink'>Blue</a> <a href='/solid?src=pd' class='seolink'>solid</a> <a href='/denim-jacket?src=pd' class='seolink'>denim jacket</a>, has a <a href='/spread?src=pd' class='seolink'>spread</a> collar, <a href='/4?src=pd' class='seolink'>4</a> pockets, button closure, long sleeves, straight hem;Show off your handsome side with this trendy blue jacket.  This HERE&NOW jacket can be styled with your favourite shirt and a pair of slim jeans for a casual date night.;Cotton <br> Machine-wash;The model (height 6') is wearing a size M;;HERE&NOW Men Blue Solid Denim Jacket;HERE&NOW;zerotype;;Fall;;No
2306962;RAMJ-18-Indigo-2306962;Men Denim Jacket;Active;Jackets;HERE&NOW;Adults-Men;Men;Blue;;;Fashion;Casual;2017;S,HENWJCKT00000309,M,HENWJCKT00000310,L,HENWJCKT00000311,XL,HENWJCKT00000312,XXL,HENWJCKT00000313;2899.00;Blue solid denim jacket, has a spread collar, 4 pockets, button closure, long sleeves, straight hem;This handsome jacket in blue will be the talk of the town.  Pair this HERE&NOW jacket with a cool T-shirt and trim denims when you're going out for drinks with the boys.;Cotton <br> Machine-wash;The model (height 6') is wearing a size M;;HERE&NOW Men Blue Solid Denim Jacket;HERE&NOW;zerotype;;Fall;;No
2306960;RAMJ-17-Indigo-2306960;Men Denim Jacket;Active;Jackets;HERE&NOW;Adults-Men;Men;Blue;;;Fashion;Casual;2017;S,HENWJCKT00000304,M,HENWJCKT00000305,L,HENWJCKT00000306,XL,HENWJCKT00000307,XXL,HENWJCKT00000308;2899.00;<a href='/blue?src=pd' class='seolink'>Blue</a> <a href='/solid?src=pd' class='seolink'>solid</a> <a href='/denim-jacket?src=pd' class='seolink'>denim jacket</a>, has a <a href='/spread?src=pd' class='seolink'>spread</a> collar, <a href='/4?src=pd' class='seolink'>4</a> pockets, button closure, long sleeves, straight hem;Make your wardrobe more trendy with this handsome blue jacket.  This jacket from HERE&NOW is perfect with trousers and loafers for a day out around town.;Cotton <br> Machine-wash;The model (height 6') is wearing a size M;;HERE&NOW Men Blue Solid Denim Jacket;HERE&NOW;zerotype;;Fall;;No
2306955;RAMJ-14-Indigo-2306955;Men Denim Jacket;Active;Jackets;Moda Rapido;Adults-Men;Men;Blue;;;Fashion;Casual;2017;S,MAROJCKT00000165,M,MAROJCKT00000166,L,MAROJCKT00000167,XL,MAROJCKT00000168,XXL,MAROJCKT00000169;2499.00;<a href='/blue?src=pd' class='seolink'>Blue</a> <a href='/solid?src=pd' class='seolink'>solid</a> <a href='/denim-jacket?src=pd' class='seolink'>denim jacket</a>, has a <a href='/spread?src=pd' class='seolink'>spread</a> collar, <a href='/6?src=pd' class='seolink'>6</a> pockets, button closure closure, long sleeves, straight hem;This handsome jacket in blue will be the talk of the town.  This jacket from Moda Rapido can be worn with distressed denims and a modern tee for a laid-back brunch outfit.;Cotton <br> Machine-wash;The model (height 6') is wearing a size M;;Moda Rapido Men Blue Solid Denim Jacket;Moda Rapido;zerotype;;Fall;;No
2306954;RAMJ-13-Indigo-2306954;Men Denim Jacket;Active;Jackets;Moda Rapido;Adults-Men;Men;Blue;;;Fashion;Casual;2017;S,MAROJCKT00000160,M,MAROJCKT00000161,L,MAROJCKT00000162,XL,MAROJCKT00000163,XXL,MAROJCKT00000164;2499.00;<a href='/blue?src=pd' class='seolink'>Blue</a> <a href='/solid?src=pd' class='seolink'>solid</a> <a href='/denim-jacket?src=pd' class='seolink'>denim jacket</a>, has a <a href='/spread?src=pd' class='seolink'>spread</a> collar, <a href='/4?src=pd' class='seolink'>4</a> pockets, button closure closure, long sleeves, straight hem, unlined lining;With this blue jacket, you'll take your personal style up a few notches.  Pair this Moda Rapido jacket with a cool T-shirt and trim denims when you're going out for drinks with the boys.;Cotton<br> Machine-wash;The model (height 6') is wearing a size M;;Moda Rapido Men Blue Solid Denim Jacket;Moda Rapido;zerotype;;Fall;;No
2306953;RAMJ-12-Indigo-2306953;Men Denim Jacket;Active;Jackets;Moda Rapido;Adults-Men;Men;Blue;;;Fashion;Casual;2017;S,MAROJCKT00000155,M,MAROJCKT00000156,L,MAROJCKT00000157,XL,MAROJCKT00000158,XXL,MAROJCKT00000159;2499.00;<a href='/blue?src=pd' class='seolink'>Blue</a> <a href='/solid?src=pd' class='seolink'>solid</a> <a href='/denim-jacket?src=pd' class='seolink'>denim jacket</a>, has a <a href='/spread?src=pd' class='seolink'>spread</a> collar, <a href='/6?src=pd' class='seolink'>6</a> pockets, button closure closure, long sleeves, straight hem;With this blue jacket, you'll take your personal style up a few notches.  This Moda Rapido jacket can be styled with your favourite shirt and a pair of slim jeans for a casual date night.;Cotton <br> Machine-wash;The model (height 6') is wearing a size M;;Moda Rapido Men Blue Solid Denim Jacket;Moda Rapido;zerotype;;Fall;;No
2306863;KNK501C-NAVY-2306863;mens chino pant;Draft;Trousers;Kook N Keech;Adults-Men;Men;;;;Fashion;;2017;30,KNKHTRSR00000572,32,KNKHTRSR00000573,34,KNKHTRSR00000574,36,KNKHTRSR00000575;1999.00;;;;;;;;zerotype;;Fall;;No
2306862;KNK501B-Grey-2306862;mens chino pant;Draft;Trousers;Kook N Keech;Adults-Men;Men;;;;Fashion;;2017;30,KNKHTRSR00000568,32,KNKHTRSR00000569,34,KNKHTRSR00000570,36,KNKHTRSR00000571;1999.00;;;;;;;;zerotype;;Fall;;No
2306861;KNK501A-Olive-2306861;mens chino pant;Draft;Trousers;Kook N Keech;Adults-Men;Men;;;;Fashion;;2017;30,KNKHTRSR00000564,32,KNKHTRSR00000565,34,KNKHTRSR00000566,36,KNKHTRSR00000567;1999.00;;;;;;;;zerotype;;Fall;;No
2306860;KNK504-KHAKHI-2306860;mens chino pant;Draft;Trousers;Kook N Keech;Adults-Men;Men;;;;Fashion;;2017;30,KNKHTRSR00000559,32,KNKHTRSR00000560,34,KNKHTRSR00000561,36,KNKHTRSR00000562,38,KNKHTRSR00000563;1999.00;;;;;;;;zerotype;;Fall;;No
2306859;KNK502-NAVY-2306859;mens chino pant;Draft;Trousers;Kook N Keech;Adults-Men;Men;;;;Fashion;;2017;30,KNKHTRSR00000554,32,KNKHTRSR00000555,34,KNKHTRSR00000556,36,KNKHTRSR00000557,38,KNKHTRSR00000558;1999.00;;;;;;;;zerotype;;Fall;;No
2304382;RNSH-62-Indigo-2304382;Men Denim Shirts;Draft;Shirts;HERE&NOW;Adults-Men;Men;;;;Fashion;;2017;S,HENWSHRT00001876,M,HENWSHRT00001877,L,HENWSHRT00001878,XL,HENWSHRT00001879,XXL,HENWSHRT00001880;1599.00;;;<p>68.75% Cotton + 31.25%Polyester</p>;;;;;zerotype;;Fall;;No
2304381;RNSH-61-Indigo-2304381;Men Denim Shirts;Draft;Shirts;HERE&NOW;Adults-Men;Men;;;;Fashion;;2017;S,HENWSHRT00001871,M,HENWSHRT00001872,L,HENWSHRT00001873,XL,HENWSHRT00001874,XXL,HENWSHRT00001875;1599.00;;;<p>68.75% Cotton + 31.25%Polyester</p>;;;;;zerotype;;Fall;;No
2304370;RNSH-54-Indigo-2304370;Men Denim Shirts;Draft;Shirts;HERE&NOW;Adults-Men;Men;;;;Fashion;;2017;S,HENWSHRT00001836,M,HENWSHRT00001837,L,HENWSHRT00001838,XL,HENWSHRT00001839,XXL,HENWSHRT00001840;1399.00;;;<p>68.75% Cotton + 31.25%Polyester</p>;;;;;zerotype;;Fall;;No
2304362;RNSH-51-Indigo-2304362;Men Denim Shirts;Draft;Shirts;HERE&NOW;Adults-Men;Men;;;;Fashion;;2017;S,HENWSHRT00001821,M,HENWSHRT00001822,L,HENWSHRT00001823,XL,HENWSHRT00001824,XXL,HENWSHRT00001825;1499.00;;;<p>68.75% Cotton + 31.25%Polyester</p>;;;;;zerotype;;Fall;;No
2304360;RNSH-50-Indigo-2304360;Men Denim Shirts;Draft;Shirts;HERE&NOW;Adults-Men;Men;;;;Fashion;;2017;S,HENWSHRT00001816,M,HENWSHRT00001817,L,HENWSHRT00001818,XL,HENWSHRT00001819,XXL,HENWSHRT00001820;1599.00;;;<p>68.75% Cotton + 31.25%Polyester</p>;;;;;zerotype;;Fall;;No
2297038;321937-KHAKI-2297038;FOREVER 21KHAKITrousers;Draft;Trousers;FOREVER 21;Adults-Men;Men;NA;;;Fashion;;2017;1/XS,FRTOTRSR00005925,2/S,FRTOTRSR00005926,3/M,FRTOTRSR00005927,4/L,FRTOTRSR00005928,5/XL,FRTOTRSR00005929;1699.00;;;<p>Contents:98% COTTON, 2% SPANDEX / ELASTANE, Lining:, Other:</p>;;;;;zerotype;;Winter;;No
2297037;239220-HEATHER GREY-2297037;FOREVER 21HEATHER GREYTrousers;Draft;Trousers;FOREVER 21;Adults-Men;Men;NA;;;Fashion;;2017;1/XS,FRTOTRSR00005920,2/S,FRTOTRSR00005921,3/M,FRTOTRSR00005922,4/L,FRTOTRSR00005923,5/XL,FRTOTRSR00005924;1599.00;;;<p>Contents:60% COTTON, 40% POLYESTER, Lining:, Other:</p>;;;;;zerotype;;Winter;;No
2297034;188261-KHAKI-2297034;FOREVER 21KHAKITrousers;Draft;Trousers;FOREVER 21;Adults-Men;Men;NA;;;Fashion;;2017;2/S,FRTOTRSR00005909,3/M,FRTOTRSR00005910,4/L,FRTOTRSR00005911,5/XL,FRTOTRSR00005912;1699.00;;;<p>Contents:100% COTTON, Lining:, Other:</p>;;;;;zerotype;;Winter;;No
2297031;175203-BURGUNDY-2297031;FOREVER 21BURGUNDYTrousers;Draft;Trousers;FOREVER 21;Adults-Men;Men;NA;;;Fashion;;2017;2/S,FRTOTRSR00005897,3/M,FRTOTRSR00005898,4/L,FRTOTRSR00005899,5/XL,FRTOTRSR00005900;1599.00;;;<p>Contents:97% COTTON, 3% SPANDEX / ELASTANE, Lining:, Other:</p>;;;;;zerotype;;Winter;;No
2297030;166409-HEATHER GREY/BLACK-2297030;FOREVER 21HEATHER GREY/BLACKTrousers;Draft;Trousers;FOREVER 21;Adults-Men;Men;NA;;;Fashion;;2017;2/S,FRTOTRSR00005893,3/M,FRTOTRSR00005894,4/L,FRTOTRSR00005895,5/XL,FRTOTRSR00005896;1399.00;;;<p>Contents:75% COTTON, 25% POLYESTER, Lining:, Other:</p>;;;;;zerotype;;Winter;;No
2297029;165687-BURGUNDY-2297029;FOREVER 21BURGUNDYTrousers;Draft;Trousers;FOREVER 21;Adults-Women;Women;NA;;;Fashion;;2017;1/XS,FRTOTRSR00005889,2/S,FRTOTRSR00005890,3/M,FRTOTRSR00005891,4/L,FRTOTRSR00005892;999.00;;;<p>Contents:90% POLYESTER, 10% SPANDEX / ELASTANE, Lining:, Oth</p>;;;;;zerotype;;Winter;;No
2297028;165687-BLACK-2297028;FOREVER 21BLACKTrousers;Draft;Trousers;FOREVER 21;Adults-Women;Women;NA;;;Fashion;;2017;1/XS,FRTOTRSR00005885,2/S,FRTOTRSR00005886,3/M,FRTOTRSR00005887,4/L,FRTOTRSR00005888;999.00;;;<p>Contents:90% POLYESTER, 10% SPANDEX / ELASTANE, Lining:, Oth</p>;;;;;zerotype;;Winter;;No
2297027;159184-GREEN-2297027;FOREVER 21GREENTrousers;Draft;Trousers;FOREVER 21;Adults-Women;Women;NA;;;Fashion;;2017;1/XS,FRTOTRSR00005881,2/S,FRTOTRSR00005882,3/M,FRTOTRSR00005883,4/L,FRTOTRSR00005884;1049.00;;;<p>Contents:75% POLYESTER, 21% RAYON, 4% SPANDEX / ELASTANE, Li</p>;;;;;zerotype;;Winter;;No
2297026;159184-BLACK-2297026;FOREVER 21BLACKTrousers;Draft;Trousers;FOREVER 21;Adults-Women;Women;NA;;;Fashion;;2017;1/XS,FRTOTRSR00005877,2/S,FRTOTRSR00005878,3/M,FRTOTRSR00005879,4/L,FRTOTRSR00005880;1049.00;;;<p>Contents:75% POLYESTER, 21% RAYON, 4% SPANDEX / ELASTANE, Li</p>;;;;;zerotype;;Winter;;No
2297023;143816-OLIVE/BROWN-2297023;FOREVER 21OLIVE/BROWNTrousers;Draft;Trousers;FOREVER 21;Adults-Women;Women;NA;;;Fashion;;2017;1/XS,FRTOTRSR00005865,2/S,FRTOTRSR00005866,3/M,FRTOTRSR00005867,4/L,FRTOTRSR00005868;1299.00;;;<p>Contents:62% COTTON, 36% POLY, 2% RAYON, Lining:, Other:</p>;;;;;zerotype;;Winter;;No
2297020;139725-CHARCOAL-2297020;FOREVER 21CHARCOALTrousers;Draft;Trousers;FOREVER 21;Adults-Women;Women;NA;;;Fashion;;2017;1/XS,FRTOTRSR00005853,2/S,FRTOTRSR00005854,3/M,FRTOTRSR00005855,4/L,FRTOTRSR00005856;999.00;;;<p>Contents:60% COTTON, 40% POLYESTER, Lining:, Other:</p>;;;;;zerotype;;Winter;;No
2296428;NK6149SM03_BBD-Silver-2296428;Fastrack Watches;Draft;Watches;Fastrack;Adults-Women;Women;;;;Fashion;;2017;Onesize,FSTKWTCH00102770;1795.00;;;;;;;;zerotype;;Winter;;No
2296427;NK6149SM02_BBD-Green-2296427;Fastrack Watches;Draft;Watches;Fastrack;Adults-Women;Women;;;;Fashion;;2017;Onesize,FSTKWTCH00102769;1795.00;;;;;;;;zerotype;;Winter;;No
2296426;NK6149SL01_BBD-Purple-2296426;Fastrack Watches;Draft;Watches;Fastrack;Adults-Women;Women;;;;Fashion;;2017;Onesize,FSTKWTCH00102768;1495.00;;;;;;;;zerotype;;Winter;;No
2296419;NK6122SM03_BBD-Black-2296419;Fastrack Watches;Draft;Watches;Fastrack;Adults-Women;Women;;;;Fashion;;2017;Onesize,FSTKWTCH00102761;2150.00;;;;;;;;zerotype;;Winter;;No
2296412;NK6093SL01_BBD-Silver-2296412;Fastrack Watches;Draft;Watches;Fastrack;Adults-Women;Women;;;;Fashion;;2017;Onesize,FSTKWTCH00102754;2295.00;;;;;;;;zerotype;;Winter;;No
2296410;NK6078SM06_BBD-Black-2296410;Fastrack Watches;Draft;Watches;Fastrack;Adults-Women;Women;;;;Fashion;;2017;Onesize,FSTKWTCH00102752;2550.00;;;;;;;;zerotype;;Winter;;No
2296407;NK6078SM03_BBD-Blue-2296407;Fastrack Watches;Draft;Watches;Fastrack;Adults-Women;Women;;;;Fashion;;2017;Onesize,FSTKWTCH00102750;2550.00;;;;;;;;zerotype;;Winter;;No
2296405;NK6078SL01_BBD-White-2296405;Fastrack Watches;Draft;Watches;Fastrack;Adults-Women;Women;;;;Fashion;;2017;Onesize,FSTKWTCH00102748;2250.00;;;;;;;;zerotype;;Winter;;No
2296393;NK38015PP01_BBD-Grey-2296393;Fastrack Watches;Draft;Watches;Fastrack;Adults-Men;Men;;;;Fashion;;2017;Onesize,FSTKWTCH00102736;2750.00;;;;;;;;zerotype;;Winter;;No
2296386;NK3139SL01_BBD-Black-2296386;Fastrack Watches;Draft;Watches;Fastrack;Adults-Men;Men;;;;Fashion;;2017;Onesize,FSTKWTCH00102729;2650.00;;;;;;;;zerotype;;Winter;;No
2296385;NK3133SL01_BBD-Black-2296385;Fastrack Watches;Draft;Watches;Fastrack;Adults-Men;Men;;;;Fashion;;2017;Onesize,FSTKWTCH00102728;3650.00;;;;;;;;zerotype;;Winter;;No
2296375;NK3120SM03_BBD-Silver-2296375;Fastrack Watches;Draft;Watches;Fastrack;Adults-Men;Men;;;;Fashion;;2017;Onesize,FSTKWTCH00102719;1795.00;;;;;;;;zerotype;;Winter;;No
2296372;NK3117SM01_BBD-White-2296372;Fastrack Watches;Draft;Watches;Fastrack;Adults-Men;Men;;;;Fashion;;2017;Onesize,FSTKWTCH00102716;1795.00;;;;;;;;zerotype;;Winter;;No
2296363;NK3072SM02_BBD-Blue-2296363;Fastrack Watches;Draft;Watches;Fastrack;Adults-Men;Men;;;;Fashion;;2017;Onesize,FSTKWTCH00102707;5295.00;;;;;;;;zerotype;;Winter;;No
2296362;NK3072SM01_BBD-Black-2296362;Fastrack Watches;Draft;Watches;Fastrack;Adults-Men;Men;;;;Fashion;;2017;Onesize,FSTKWTCH00102706;5295.00;;;;;;;;zerotype;;Winter;;No
2293705;2187G7-NIGHT BLACK-2293705;FULL SLEEVES TOP + PYJAMA (ROUND NECK) -HIP;PreActive;Night suits;Sweet Dreams;Adults-Women;Women;Black;Off White;;Fashion;Casual;2017;S,STDMNTST00002623,M,STDMNTST00002624,L,STDMNTST00002625,XL,STDMNTST00002626;2599.00;Black and off-white night suit consists of top and pyjamas<br />Black and off-white printed top, has a notched round neck, long sleeves<br />A pair of black and off-white solid pyjamas, has slip-on closure;Slip into this nightsuit for a relaxing day at home. Team it with a pair of slippers for a complete look.;Top fabric: 94% polyester, 6% spandex<br />Bottom fabric: Polyester;The model (height 5'8') is wearing a size S;;Sweet Dreams Women Black & Off-White Printed Night suit;Made of Velour Fabric for winterwear,this pair of pants has tapered-leg design;zerotype;;Winter;;No
2293700;2170G7-LIGHT ORANGE MEL-2293700;FULL SLEEVES TOP+PYJAMA(ROUND NECK)-REG BOTTOM;PreActive;Night suits;Sweet Dreams;Adults-Women;Women;Navy Blue;Orange;;Fashion;Casual;2017;S,STDMNTST00002612,M,STDMNTST00002613,L,STDMNTST00002614,XL,STDMNTST00002615;2299.00;Navy Blue and orange night suit consists of t-shirt and pyjamas<br>Navy Blue and orange printed  t-shirt, has a round neck, long sleeves<br>A pair of navy blue and orange solid pyjamas, has slip-on closure;Slip into this nightsuit for a relaxing day at home. Team it with a pair of slippers for a complete look.;Top fabric: 60% cotton, 40% polyester<br />Bottom fabric: Cotton Blend;The model (height 5'8') is wearing a size S;;Sweet Dreams Women Navy Blue & Orange Printed Night suit;Sweet Dreams,Made of Fleece Fabric for winterwear,This set comprises a orange coloured sweatshirt and blue pyjamas. While the sweatshirt features text print,;zerotype;;Winter;;No
2293688;2143G7-PRINT-26 NIGHT BLACK-2293688;FULL SLEEVES TOP+PYJAMA(FRONT OPEN)-REG BOTTOM;Active;Night suits;Sweet Dreams;Adults-Women;Women;Black;Off White;;Fashion;Casual;2017;S,STDMNTST00002588,M,STDMNTST00002589,L,STDMNTST00002590,XL,STDMNTST00002591;2999.00;Black and off-white night suit consists of t-shirt and pyjamas<br />Black and off-white checked shirt, has a round neck, long sleeves<br />A pair of black and off-white solid pyjamas, has slip-on closure;Slip into this nightsuit for a relaxing day at home. Team it with a pair of slippers for a complete look.;Top fabric: 94% polyester, 6% spandex<br />Bottom fabric: Polyester;The model (height 5'8') is wearing a size S;;Sweet Dreams Women Black & Off-White Checked Night suit;Sweet Dreams,Made of Velour Fabric for winterwear,this set comprises a jacket and pyjamas. While the jacket features high neck,twin side pockets,ribbed edges and a broad check pattern,the pyjamas display twin side pockets and an elasticated waist.,welcome-to-myntra-oct17;zerotype;;Winter;welcome-to-myntra-oct17;No
2293672;2104G7-CORAL BLUSH-2293672;FULL SLEEVES TOP+PYJAMA(FRONT OPEN)-REG BOTTOM;Active;Night suits;Sweet Dreams;Adults-Women;Women;Coral;Purple;;Fashion;Casual;2017;S,STDMNTST00002559,M,STDMNTST00002560;2299.00;Coral pink and purple night suit consists of shirt and pyjamas<br />Coral pink solid sweatshirt, has a mock collar, long sleeves<br />Purple solid pyjamas, has drawstring closure, 2 pockets;<br />Relax in style by wearing this comfortable night suit. The soft fabric will ensure that you sleep in peace all night long.;60% cotton, 40% polyester<br />Machine-wash;The model (height 5'8') is wearing a size S;;Sweet Dreams Women Coral Pink & Purple Solid Night suit 2104G7;Sweet Dreams,welcome-to-myntra-oct17;zerotype;;Winter;welcome-to-myntra-oct17;No
2293640;LSS-3402G7-GREY MEL-2293640;SWEAT SHIRT;Active;Sweatshirts;Sweet Dreams;Adults-Women;Women;Grey;;;Core;Casual;2017;S,STDMSWSH00000159,M,STDMSWSH00000160,L,STDMSWSH00000161,XL,STDMSWSH00000162;1049.00;Grey printed sweatshirt, has a round neck, long sleeves, straight hem;You'll love this warm and fashionable sweatshirt from Sweet Dreams.  This grey piece can be matched with slick black jeans and a solid tee for a relaxed look for the weekend.;Cotton<br> Machine-wash;The model (height 5'8") is wearing a size S;;Sweet Dreams Women Grey Printed Sweatshirt;Sweet Dreams,welcome-to-myntra-oct17;zerotype;;Winter;welcome-to-myntra-oct17;No
2293637;LSS-3401G7-CHARCOAL MEL-2293637;SWEAT SHIRT;Active;Sweatshirts;Sweet Dreams;Adults-Women;Women;Charcoal;;;Core;Casual;2017;S,STDMSWSH00000153,M,STDMSWSH00000154,L,STDMSWSH00000155,XL,STDMSWSH00000156;1049.00;Charcoal solid sweatshirt, has a round neck, long sleeves, straight hem;Get snuggled up in this amazing sweatshirt from Sweet Dreams.  This charcoal piece can be teamed with a casual T-shirt and a pair of slim jeans when you're going to a low-key dinner with your friends.;Cotton <br> Machine-wash;The model (height 5'8") is wearing a size S;;Sweet Dreams Women Charcoal Grey Solid Sweatshirt;Sweet Dreams, Made of 3Thread Fleece  fabric for winterwear,Pocket with Slash Style,Neck with Round Neck Style,welcome-to-myntra-oct17;zerotype;;Winter;welcome-to-myntra-oct17;No
2293619;LP-3327G7-JET BLACK-2293619;PYJAMA;QC Reject;Pyjamas;Sweet Dreams;Adults-Women;Women;Black;;;Core;Casual;2017;S,STDMPJPJ00001194,M,STDMPJPJ00001195,L,STDMPJPJ00001196,XL,STDMPJPJ00001197;1199.00;Black solid knitted mid-rise pyjamas with velvet finish, has two pockets, an elasticated waistband with an inner drawstring fastening;Compromise on style no more while relaxing at home with this pair of stylish pyjamas. Team it with a top and flip-flops for a chic yet comfortable ensemble.;94% polyester, 6% elastane <br />Machine-wash;The model (height 5'8'') is wearing a size S;;Sweet Dreams Black Pyjamas LP-3326G7;Sweet Dreams, Made of Velour fabric for winterwear,Clouser with Elasticated Waistband. These Pyjama are comfortable and stylish;zerotype;;Winter;styling issue;No
2293616;LP-3327G7-FALSA-2293616;PYJAMA;QC Reject;Pyjamas;Sweet Dreams;Adults-Women;Women;Maroon;;;Core;Casual;2017;S,STDMPJPJ00001188,M,STDMPJPJ00001189,L,STDMPJPJ00001190,XL,STDMPJPJ00001191;1199.00;<a href='/maroon?src=pd' class='seolink'>Maroon</a> <a href='/velvet?src=pd' class='seolink'>velvet</a>-style <a href='/pyjamas?src=pd' class='seolink'>pyjamas</a>, has a drawstring closure;Slip into these pyjamas when you are relaxing at home. Team them with a pair of slippers and a tee for a complete look.;94% polyester, 6% spandex<br />Machine-wash;The model (height 5'8") is wearing a size 28<br />;;Sweet Dreams Maroon Velvet-Style Pyjamas;Sweet Dreams;zerotype;;Winter;wrong styling;No
2289220;766-PINK-2289220;Satchel;Draft;Handbags;E2O;Adults-Women;Women;;;;Fashion;;2017;Onesize,EE2OHDBG00000929;2995.00;;;;;;;;zerotype;;Winter;;No
2287951;VAPOUR-ELPP-WASH 4-2287951;VAPOUR.3;Draft;Jeans;Pepe Jeans;Adults-Men;Men;Blue;;;Core;;2017;28,PEJEJENS00010593,32,PEJEJENS00010594,34,PEJEJENS00010595;1999.00;;;<p>Cotton 98.2%, Spandex 1.8%</p>;;;;;zerotype;;Winter;;No
2282256;205172-6NP-J6-Pink-2282256;Genna II Sprkl Bnd Slng K;Draft;Flats;Crocs;Kids-Girls;Girls;NA;;;Fashion;;2017;J1,CROCFlats00003956,J2,CROCFlats00003957,J3,CROCFlats00003958,J4,CROCFlats00003959,J5,CROCFlats00003960,J6,CROCFlats00003961;1995.00;;;;;;;kidseorsdec;zerotype;;Fall;kidseorsdec;No
2282255;205172-6NP-C9-Pink-2282255;Genna II Sprkl Bnd Slng K;Draft;Flats;Crocs;Kids-Girls;Girls;NA;;;Fashion;;2017;C10,CROCFlats00003951,C11,CROCFlats00003952,C12,CROCFlats00003953,C13,CROCFlats00003954,C9,CROCFlats00003955;1995.00;;;;;;;kidseorsdec;zerotype;;Fall;kidseorsdec;No
2282252;14852-6U9-C9-Pink-2282252;Keeley Petal Charm Sandal PS;Draft;Flats;Crocs;Kids-Girls;Girls;NA;;;Fashion;;2017;C10,CROCFlats00003932,C11,CROCFlats00003933,C12,CROCFlats00003934,C13,CROCFlats00003935,C6,CROCFlats00003936,C7,CROCFlats00003937,C8,CROCFlats00003938,C9,CROCFlats00003939;1995.00;;;;;;;kidseorsdec;zerotype;;Fall;kidseorsdec;No
2282248;12856-6AI-J3-Pink-2282248;Crocband Sandal Kids;Draft;Flats;Crocs;Kids-Unisex;Unisex;NA;;;Fashion;;2017;J1,CROCFlats00003910,J2,CROCFlats00003911,J3,CROCFlats00003912;1995.00;;;;;;;kidseorsdec;zerotype;;Fall;kidseorsdec;No
2282247;12856-6AI-C9-Pink-2282247;Crocband Sandal Kids;Draft;Flats;Crocs;Kids-Unisex;Unisex;NA;;;Fashion;;2017;C10,CROCFlats00003902,C11,CROCFlats00003903,C12,CROCFlats00003904,C13,CROCFlats00003905,C6,CROCFlats00003906,C7,CROCFlats00003907,C8,CROCFlats00003908,C9,CROCFlats00003909;1995.00;;;;;;;kidseorsdec;zerotype;;Fall;kidseorsdec;No
2282246;12856-4FV-J3-Blue-2282246;Crocband Sandal Kids;Draft;Flats;Crocs;Kids-Unisex;Unisex;NA;;;Fashion;;2017;J1,CROCFlats00003899,J2,CROCFlats00003900,J3,CROCFlats00003901;1995.00;;;;;;;kidseorsdec;zerotype;;Fall;kidseorsdec;No
2282245;12856-4FV-C9-Blue-2282245;Crocband Sandal Kids;Draft;Flats;Crocs;Kids-Unisex;Unisex;NA;;;Fashion;;2017;C10,CROCFlats00003891,C11,CROCFlats00003892,C12,CROCFlats00003893,C13,CROCFlats00003894,C6,CROCFlats00003895,C7,CROCFlats00003896,C8,CROCFlats00003897,C9,CROCFlats00003898;1995.00;;;;;;;kidseorsdec;zerotype;;Fall;kidseorsdec;No
2282244;12856-4BX-J3-Blue-2282244;Crocband Sandal Kids;Draft;Flats;Crocs;Kids-Unisex;Unisex;NA;;;Fashion;;2017;J1,CROCFlats00003888,J2,CROCFlats00003889,J3,CROCFlats00003890;1995.00;;;;;;;kidseorsdec;zerotype;;Fall;kidseorsdec;No
2282243;12856-4BX-C9-Blue-2282243;Crocband Sandal Kids;Draft;Flats;Crocs;Kids-Unisex;Unisex;NA;;;Fashion;;2017;C10,CROCFlats00003880,C11,CROCFlats00003881,C12,CROCFlats00003882,C13,CROCFlats00003883,C6,CROCFlats00003884,C7,CROCFlats00003885,C8,CROCFlats00003886,C9,CROCFlats00003887;1995.00;;;;;;;kidseorsdec;zerotype;;Fall;kidseorsdec;No
2282242;12856-485-J3-Navy-2282242;Crocband Sandal Kids;Draft;Flats;Crocs;Kids-Unisex;Unisex;NA;;;Fashion;;2017;J1,CROCFlats00003877,J2,CROCFlats00003878,J3,CROCFlats00003879;1995.00;;;;;;;kidseorsdec;zerotype;;Fall;kidseorsdec;No
2282241;12856-485-C9-Navy-2282241;Crocband Sandal Kids;Draft;Flats;Crocs;Kids-Unisex;Unisex;NA;;;Fashion;;2017;C10,CROCFlats00003868,C11,CROCFlats00003869,C12,CROCFlats00003870,C13,CROCFlats00003871,C5,CROCFlats00003872,C6,CROCFlats00003873,C7,CROCFlats00003874,C8,CROCFlats00003875,C9,CROCFlats00003876;1995.00;;;;;;;kidseorsdec;zerotype;;Fall;kidseorsdec;No
2282240;12856-3K9-J3-Green-2282240;Crocband Sandal Kids;Draft;Flats;Crocs;Kids-Unisex;Unisex;NA;;;Fashion;;2017;J1,CROCFlats00003865,J2,CROCFlats00003866,J3,CROCFlats00003867;1995.00;;;;;;;kidseorsdec;zerotype;;Fall;kidseorsdec;No
2282239;12856-3K9-C9-Green-2282239;Crocband Sandal Kids;Draft;Flats;Crocs;Kids-Unisex;Unisex;NA;;;Fashion;;2017;C10,CROCFlats00003857,C11,CROCFlats00003858,C12,CROCFlats00003859,C13,CROCFlats00003860,C6,CROCFlats00003861,C7,CROCFlats00003862,C8,CROCFlats00003863,C9,CROCFlats00003864;1995.00;;;;;;;kidseorsdec;zerotype;;Fall;kidseorsdec;No
2280237;VSST517S010938-Grey-2280237;VSST517S010938;Draft;Sweatshirts;Van Heusen Sport;Adults-Men;Men;;;;Fashion;;2017;XXL,VHSPSWSH00000246,XL,VHSPSWSH00000247,S,VHSPSWSH00000248,M,VHSPSWSH00000249,L,VHSPSWSH00000250;1799.00;;;<p>100%Cotton</p>;;;;;zerotype;;Winter;;No
2280232;VSST517S010922-Grey-2280232;VSST517S010922;Draft;Sweatshirts;Van Heusen Sport;Adults-Men;Men;;;;Fashion;;2017;3XL,VHSPSWSH00000217,XXL,VHSPSWSH00000218,XL,VHSPSWSH00000219,S,VHSPSWSH00000220,M,VHSPSWSH00000221,L,VHSPSWSH00000222;1899.00;;;<p>100%Cotton</p>;;;;;zerotype;;Winter;;No
2280229;VSST517S010919-Grey-2280229;VSST517S010919;Draft;Sweatshirts;Van Heusen Sport;Adults-Men;Men;;;;Fashion;;2017;3XL,VHSPSWSH00000200,XXL,VHSPSWSH00000201,XL,VHSPSWSH00000202,S,VHSPSWSH00000203,M,VHSPSWSH00000204,L,VHSPSWSH00000205;1899.00;;;<p>100%Cotton</p>;;;;;zerotype;;Winter;;No
2280228;VSST517S010907-Grey-2280228;VSST517S010907;Draft;Sweatshirts;Van Heusen Sport;Adults-Men;Men;;;;Fashion;;2017;XXL,VHSPSWSH00000195,XL,VHSPSWSH00000196,S,VHSPSWSH00000197,M,VHSPSWSH00000198,L,VHSPSWSH00000199;1699.00;;;<p>100%Cotton</p>;;;;;zerotype;;Winter;;No
2280226;VSST517S010904-Grey-2280226;VSST517S010904;Draft;Sweatshirts;Van Heusen Sport;Adults-Men;Men;;;;Fashion;;2017;XXL,VHSPSWSH00000185,XL,VHSPSWSH00000186,S,VHSPSWSH00000187,M,VHSPSWSH00000188,L,VHSPSWSH00000189;1599.00;;;<p>100%Cotton</p>;;;;;zerotype;;Winter;;No
2280224;VSST517S010902-Grey-2280224;VSST517S010902;Draft;Sweatshirts;Van Heusen Sport;Adults-Men;Men;;;;Fashion;;2017;XXL,VHSPSWSH00000175,XL,VHSPSWSH00000176,S,VHSPSWSH00000177,M,VHSPSWSH00000178,L,VHSPSWSH00000179;1599.00;;;<p>100%Cotton</p>;;;;;zerotype;;Winter;;No
2280223;VSST517S010901-Grey-2280223;VSST517S010901;Draft;Sweatshirts;Van Heusen Sport;Adults-Men;Men;;;;Fashion;;2017;XXL,VHSPSWSH00000170,XL,VHSPSWSH00000171,S,VHSPSWSH00000172,M,VHSPSWSH00000173,L,VHSPSWSH00000174;1599.00;;;<p>100%Cotton</p>;;;;;zerotype;;Winter;;No
2277504;T-5311-BLACK-2277504;T-5311 NAVY XXL;Draft;Tshirts;Okane;Adults-Men;Men;Blue;;;Fashion;;2017;M,OKNETSHT00000125,L,OKNETSHT00000126,XL,OKNETSHT00000127,XXL,OKNETSHT00000128;749.00;;;<p>Hand Wash</p>;;;;;zerotype;;Summer;;No
2277491;T-5301-GREY MIX-2277491;T-5301 GREY MIX  XXL;Active;Tshirts;Okane;Adults-Men;Men;Grey Melange;;;Fashion;Casual;2017;M,OKNETSHT00000097,L,OKNETSHT00000098,XL,OKNETSHT00000099,XXL,OKNETSHT00000100;499.00;Grey melange T-shirt with printed detail, has a round neck, long sleeves;Designed by the team at Okane, you're definitely in for a style treat with this cotton T-shirt.  A quick drink with the gang is as easy as putting this grey melange piece in league with some slim black jeans and a sturdy overshirt.;Cotton <br> Machine-wash;The model (height 6') is wearing a size M;;Okane Men Grey Melange Solid Round Neck T-shirt;Okane,BLAZ024,welcome-to-myntra-oct17;zerotype;;Summer;welcome-to-myntra-oct17;No
2277476;T-5304-B-NAVY-2277476;T-5304-B NAVY XXL;Active;Tshirts;Okane;Adults-Men;Men;Navy Blue;;;Fashion;Casual;2017;M,OKNETSHT00000061,L,OKNETSHT00000062,XL,OKNETSHT00000063,XXL,OKNETSHT00000064;599.00;Navy blue solid T-shirt, has a round neck, long sleeves;Elevate the look of your wardrobe with a few more basic tees like this high-end cotton one from Okane. This navy blue tee is the perfect note to strike with a pair of skinny jeans when you're looking for a simple night out at the bars.;Cotton blend<br />Machine-wash;The model (height 6') is wearing a size M;;Okane Men Navy Blue Solid Round Neck T-shirt;Okane,BLAZ024,welcome-to-myntra-oct17;zerotype;;Summer;welcome-to-myntra-oct17;No
2277451;5214-BLACK-2277451;5214 BLACK XXL;BIS + Content Complete;Jackets;Okane;Adults-Men;Men;Charcoal;;;Fashion;Casual;2017;M,OKNEJCKT00001821,L,OKNEJCKT00001822,XL,OKNEJCKT00001823,XXL,OKNEJCKT00001824;2149.00;Charcoal solid padded jacket, has a hooded, 3 pockets, button closure closure, long sleeves, straight hem, faux fur lining;Switch up your everyday style with this trendy charcoal jacket.  Pair this Okane jacket with a cool T-shirt and trim denims when you're going out for drinks with the boys.;Nylon<br> Machine-wash;The model (height 6') is wearing a size M;;Okane Men Charcoal Solid Padded Jacket;Okane;zerotype;;Winter;;No
2270473;AMTF517G01863-Khaki-2270473;Trouser;Draft;Trousers;Allen Solly;Adults-Men;Men;;;;Fashion;Casual;2017;30,ALSLTRSR00006066,32,ALSLTRSR00006067,36,ALSLTRSR00006068,38,ALSLTRSR00006069,40,ALSLTRSR00006070;2299.00;;;<p>Wash with mild detergent. Do not bleach. Dry in shade</p>;;;;workwear-styles;zerotype;;Winter;workwear-styles;No
2270369;AMTF517G005095-Black-2270369;Trouser;Draft;Trousers;Allen Solly;Adults-Men;Men;;;;Fashion;Casual;2017;30,ALSLTRSR00005608,32,ALSLTRSR00005609,36,ALSLTRSR00005610,38,ALSLTRSR00005611,40,ALSLTRSR00005612;2299.00;;;<p>Wash with mild detergent. Do not bleach. Dry in shade</p>;;;;workwear-styles;zerotype;;Winter;workwear-styles;No
2269285;KTG399PINK-PINK-2269285;KTG399PINK36;Draft;Casual Shoes;Kittens;Kids-Girls;Girls;NA;Pink;Pink;Core;Casual;2017;31,KTNSCASH00002233,32,KTNSCASH00002234,33,KTNSCASH00002235,34,KTNSCASH00002236,35,KTNSCASH00002237,36,KTNSCASH00002238;499.00;;;<p>clean with wet cloth</p>;;;;kidseorsdec;zerotype;;Winter;kidseorsdec;No
2266309;1121163810-Black-2266309;AW17 LFS DROOG 3B;Draft;Formal Shoes;Ruosh;Adults-Men;Men;Black;;;Core;Formal;2017;EURO40,RUSHFOSH00002908,EURO41,RUSHFOSH00002909,EURO42,RUSHFOSH00002910,EURO43,RUSHFOSH00002911,EURO44,RUSHFOSH00002912,EURO45,RUSHFOSH00002913;4990.00;;;<p>Printed Leather</p>;;;;mcfallstyles;zerotype;;Winter;mcfallstyles;No
2256735;A7ACV132-Super Lemon-2256735;BG SMOCKED CHIFFON DRESS L/S;Draft;Dresses;Tommy Hilfiger;Kids-Girls;Girls;Yellow;;;Fashion;Casual;2017;6,TOMHDRSS00002010,8,TOMHDRSS00002011,10,TOMHDRSS00002012,12,TOMHDRSS00002013,14,TOMHDRSS00002014,16,TOMHDRSS00002015;3599.00;<p>100% Polyester</p>;;<p>Gentle wash, colors to be washed seperately</p>;;;;kidseorsdec;zerotype;;Fall;kidseorsdec;No
2251008;ATTS2492-OFF WHITE-2251008;TRAS FFF LSR OWT REGU SOL S17ASSPTR031A1;Draft;Trousers;Arrow Sport;Adults-Men;Men;;;;Fashion;Casual;2016;32,ARSPTRSR00002967,34,ARSPTRSR00002968,38,ARSPTRSR00002969;2499.00;;;;;;;;zerotype;;Spring;;No
2250993;ARGT5136B-Brown-2250993;TR AR CPL REG DBR AR SOL ARGT5136A-PL;Draft;Trousers;Arrow Sport;Adults-Men;Men;;;;Fashion;Casual;2016;32,ARSPTRSR00002938,34,ARSPTRSR00002939,36,ARSPTRSR00002940;2499.00;;;;;;;;zerotype;;Spring;;No
2239221;921344-431-GYM BLUE/METALLIC GOLD-2239221;B NSW TEE BORN WINNER;Draft;Tshirts;Nike;Kids-Boys;Boys;;;;Fashion;;2017;L,NIKETSHT00115107,M,NIKETSHT00115108,S,NIKETSHT00115109,XL,NIKETSHT00115110;1495.00;;;<p>50.0% POLYESTER/25.0% RAYON/25.0% COTTON</p>;;;;sportsallstyles-2017;zerotype;;Winter;sportsallstyles-2017;No
2239219;878407-410-MIDNIGHT NAVY/UNIVERSITY BLUE-2239219;M JSW TEE SPECKLE AOP;Draft;Tshirts;Nike;Adults-Men;Men;;;;Fashion;;2017;2XL,NIKETSHT00115099,L,NIKETSHT00115100,M,NIKETSHT00115101,S,NIKETSHT00115102,XL,NIKETSHT00115103;2095.00;;;<p>100% COTTON</p>;;;;sportsallstyles-2017;zerotype;;Winter;sportsallstyles-2017;No
2239203;859204-435-LT PHOTO BLUE/LT PHOTO BLUE-2239203;AS M NK FLX SHORT 7IN DSTNCE P;Draft;Shorts;Nike;Adults-Men;Men;;;;Fashion;;2017;S,NIKESHOR00103178,M,NIKESHOR00103179,L,NIKESHOR00103180,XL,NIKESHOR00103181,2XL,NIKESHOR00103182;2795.00;;;<p>100% POLYESTER</p>;;;;sportsallstyles-2017;zerotype;;Winter;sportsallstyles-2017;No
2239200;860200-609-BORDEAUX/BLACK-2239200;WINGS FLEECE PO;Draft;Sweatshirts;Nike;Adults-Men;Men;;;;Fashion;;2017;2XL,NIKESWSH00001105,L,NIKESWSH00001106,M,NIKESWSH00001107,S,NIKESWSH00001108,XL,NIKESWSH00001109;4095.00;;;<p>72.0% COTTON /19.0% RAYON/9.0% POLYESTER</p>;;;;sportsallstyles-2017;zerotype;;Winter;sportsallstyles-2017;No
2239199;889282-617-RACER PINK/PURE PLATINUM-2239199;G NK DRY TEE V WILDER SWSH;Draft;Tops;Nike;Adults-Women;Women;;;;Fashion;;2017;XS,NIKETOPS00002563,S,NIKETOPS00002564,M,NIKETOPS00002565,L,NIKETOPS00002566,XL,NIKETOPS00002567;1195.00;;;<p>100% POLYESTER</p>;;;;sportsallstyles-2017;zerotype;;Winter;sportsallstyles-2017;No
2239197;885419-429-BINARY BLUE/HTR/WHITE-2239197;AS W NK THRMA TOP CWL NCK LS P;Active;Sweatshirts;Nike;Adults-Women;Women;Blue;;;Fashion;Sports;2017;L,NIKETOPS00002554,M,NIKETOPS00002555,S,NIKETOPS00002556,XL,NIKETOPS00002557,XS,NIKETOPS00002558;3295.00;Blue solid sweatshirt, has a turtle neck, long sleeves, straight hem;Get snuggled up in this amazing sweatshirt from Nike.  Head to the mall in comfort and style with this blue piece, a T-shirt and your favourite summer shorts.;100% polyester<br />Machine-wash;The model (height 5'8") is wearing a size S;;Nike Women Blue Solid Sweatshirt;Nike,sportsallstyles-2017;zerotype;;Winter;;No
2239194;862796-100-WHITE/BLACK-2239194;AS W NK TOP LS;Active;Tops;Nike;Adults-Women;Women;White;;;Fashion;Sports;2017;XS,NIKETOPS00002539,S,NIKETOPS00002540,M,NIKETOPS00002541,L,NIKETOPS00002542,XL,NIKETOPS00002543;2895.00;White solid knitted regular top, has a round neck, long sleeves,;Flaunt your eye for fashion in the latest top from Nike.  A fabulous girls night out starts with the right outfit. Achieve one achieve when you pair this white piece with a flowing cardigan and tonal shorts.;85% polyester, 15% lyocell<br />Machine-wash;The model (height 5'8") is wearing a size S;;Nike Women White AS W NK Solid Top;Nike,sportsallstyles-2017;zerotype;;Winter;;No
2239190;856292-021-DARK GREY/WHITE-2239190;AS W NP HPRWM TOP NEW ENG NRDC;Draft;Tops;Nike;Adults-Women;Women;;;;Fashion;;2017;XS,NIKETOPS00002519,S,NIKETOPS00002520,M,NIKETOPS00002521,L,NIKETOPS00002522,XL,NIKETOPS00002523;4495.00;;;<p>81.0% POLYESTER/19.0% SPANDEX</p>;;;;sportsallstyles-2017;zerotype;;Winter;sportsallstyles-2017;No
2233688;MNH AW-17 -1018-INDIGO-2233688;DENIM JEANS;Draft;Jeans;Mast & Harbour;Adults-Men;Men;;;;Fashion;;2017;28,MTHBJENS00006289,30,MTHBJENS00006290,32,MTHBJENS00006291,34,MTHBJENS00006292,36,MTHBJENS00006293;2499.00;;;;;;;;zerotype;;Fall;;No
2233687;MNH AW-17 -1017-INDIGO-2233687;DENIM JEANS;Draft;Jeans;Mast & Harbour;Adults-Men;Men;;;;Fashion;;2017;28,MTHBJENS00006284,30,MTHBJENS00006285,32,MTHBJENS00006286,34,MTHBJENS00006287,36,MTHBJENS00006288;2499.00;;;;;;;;zerotype;;Fall;;No
2233683;MNH AW-17 -1014-INDIGO-2233683;DENIM JEANS;Draft;Jeans;Mast & Harbour;Adults-Men;Men;;;;Fashion;;2017;28,MTHBJENS00006269,30,MTHBJENS00006270,32,MTHBJENS00006271,34,MTHBJENS00006272,36,MTHBJENS00006273;1899.00;;;;;;;;zerotype;;Fall;;No
2198690;M&H-boxer-013-PEACH-2198690;BOXERS;Draft;Boxers;Mast & Harbour;Adults-Men;Men;;;;Fashion;;2017;S,MTHBBOXR00000254,M,MTHBBOXR00000255,L,MTHBBOXR00000256,XL,MTHBBOXR00000257;599.00;;;;;;;;zerotype;;Fall;;No
2198689;M&H-boxer-012-BLUE-2198689;BOXERS;Draft;Boxers;Mast & Harbour;Adults-Men;Men;;;;Fashion;;2017;S,MTHBBOXR00000250,M,MTHBBOXR00000251,L,MTHBBOXR00000252,XL,MTHBBOXR00000253;599.00;;;;;;;;zerotype;;Fall;;No
2198688;M&H-boxer-011-BLACK-2198688;BOXERS;Draft;Boxers;Mast & Harbour;Adults-Men;Men;;;;Fashion;;2017;S,MTHBBOXR00000246,M,MTHBBOXR00000247,L,MTHBBOXR00000248,XL,MTHBBOXR00000249;599.00;;;;;;;;zerotype;;Fall;;No
2198687;M&H-boxer-010-NAVY-2198687;BOXERS;Draft;Boxers;Mast & Harbour;Adults-Men;Men;;;;Fashion;;2017;S,MTHBBOXR00000242,M,MTHBBOXR00000243,L,MTHBBOXR00000244,XL,MTHBBOXR00000245;599.00;;;;;;;;zerotype;;Fall;;No
2198686;M&H-boxer-009-BLUE-2198686;BOXERS;Draft;Boxers;Mast & Harbour;Adults-Men;Men;;;;Fashion;;2017;S,MTHBBOXR00000238,M,MTHBBOXR00000239,L,MTHBBOXR00000240,XL,MTHBBOXR00000241;599.00;;;;;;;;zerotype;;Fall;;No
2198685;M&H-boxer-008-RED-2198685;BOXERS;Draft;Boxers;Mast & Harbour;Adults-Men;Men;;;;Fashion;;2017;S,MTHBBOXR00000234,M,MTHBBOXR00000235,L,MTHBBOXR00000236,XL,MTHBBOXR00000237;599.00;;;;;;;;zerotype;;Fall;;No
2198684;M&H-boxer-007-BLUE-2198684;BOXERS;Draft;Boxers;Mast & Harbour;Adults-Men;Men;;;;Fashion;;2017;S,MTHBBOXR00000230,M,MTHBBOXR00000231,L,MTHBBOXR00000232,XL,MTHBBOXR00000233;599.00;;;;;;;;zerotype;;Fall;;No
2198683;M&H-boxer-006-RED-2198683;BOXERS;Draft;Boxers;Mast & Harbour;Adults-Men;Men;;;;Fashion;;2017;S,MTHBBOXR00000226,M,MTHBBOXR00000227,L,MTHBBOXR00000228,XL,MTHBBOXR00000229;599.00;;;;;;;;zerotype;;Fall;;No
2198682;M&H-boxer-005-NAVY-2198682;BOXERS;Draft;Boxers;Mast & Harbour;Adults-Men;Men;;;;Fashion;;2017;S,MTHBBOXR00000222,M,MTHBBOXR00000223,L,MTHBBOXR00000224,XL,MTHBBOXR00000225;599.00;;;;;;;;zerotype;;Fall;;No
2198681;M&H-boxer-004-WHITE-2198681;BOXERS;Draft;Boxers;Mast & Harbour;Adults-Men;Men;;;;Fashion;;2017;S,MTHBBOXR00000218,M,MTHBBOXR00000219,L,MTHBBOXR00000220,XL,MTHBBOXR00000221;599.00;;;;;;;;zerotype;;Fall;;No
2198680;M&H-boxer-003-BLACK-2198680;BOXERS;Draft;Boxers;Mast & Harbour;Adults-Men;Men;;;;Fashion;;2017;S,MTHBBOXR00000214,M,MTHBBOXR00000215,L,MTHBBOXR00000216,XL,MTHBBOXR00000217;599.00;;;;;;;;zerotype;;Fall;;No
2198679;M&H-boxer-002-BLUE-2198679;BOXERS;Draft;Boxers;Mast & Harbour;Adults-Men;Men;;;;Fashion;;2017;S,MTHBBOXR00000210,M,MTHBBOXR00000211,L,MTHBBOXR00000212,XL,MTHBBOXR00000213;599.00;;;;;;;;zerotype;;Fall;;No
2198678;M&H-boxer-001-RED-2198678;BOXERS;Draft;Boxers;Mast & Harbour;Adults-Men;Men;;;;Fashion;;2017;S,MTHBBOXR00000206,M,MTHBBOXR00000207,L,MTHBBOXR00000208,XL,MTHBBOXR00000209;599.00;;;;;;;;zerotype;;Fall;;No
2189811;1720006359834-Bordeaux red print-2189811;Dresses;Draft;Dresses;promod;Adults-Women;Women;Maroon;;;Fashion;;2017;XS,PRMDDRSS00000384,S,PRMDDRSS00000385,M,PRMDDRSS00000386,L,PRMDDRSS00000387,XL,PRMDDRSS00000388;3690.00;;;<p>N/A</p>;;;;;zerotype;;Fall;;No
2189054;RMDX01280-K9-Black-2189054;5 btn bandgala contp ft;Draft;Suits;Raymond;Adults-Men;Men;Black;;;Fashion;;2017;96,RYMDSUIT00001128,100,RYMDSUIT00001129,104,RYMDSUIT00001130,112,RYMDSUIT00001131;14999.00;;;<p>DRY CLEAN ONLY,59% Wool/39% Polyester/2% Lycr</p>;;;;;zerotype;;Winter;;No
2189053;RMDX01278-K9-Black-2189053;SB 2 BTN PEAK LAPEL TUXEDO- CONT FT;Draft;Suits;Raymond;Adults-Men;Men;Black;;;Fashion;;2017;96,RYMDSUIT00001125,100,RYMDSUIT00001126,104,RYMDSUIT00001127;14999.00;;;<p>DRY CLEAN ONLY,59% Wool/39% Polyester/2% Lycr</p>;;;;;zerotype;;Winter;;No
2189049;RIDX00150-K6-Black-2189049;5 BTN BANDGALA WTH ATT. PKT SQUR-CNT FIT;Draft;Suits;Raymond;Adults-Men;Men;Black;;;Fashion;;2017;96,RYMDSUIT00001105,100,RYMDSUIT00001106,104,RYMDSUIT00001107,108,RYMDSUIT00001108,112,RYMDSUIT00001156;13999.00;;;<p>DRY CLEAN ONLY,TERRY 80%/RAYON 20%</p>;;;;;zerotype;;Winter;;No
2189047;RIDB00246-B6-Blue-2189047;SB 5 BTN BANDHGALA - CONTP FT;Draft;Suits;Raymond;Adults-Men;Men;Blue;;;Fashion;;2017;96,RYMDSUIT00001096,100,RYMDSUIT00001097,104,RYMDSUIT00001098,108,RYMDSUIT00001099,112,RYMDSUIT00001100;13999.00;;;<p>DRY CLEAN ONLY,Terry 90%/ Rayon 10%</p>;;;;;zerotype;;Summer;;No
2188113;FMJN3930-Blue-2188113;FMJN3930;Draft;Jeans;Flying Machine;Adults-Men;Men;;;;Fashion;;2017;30,FLYMJENS00006702,32,FLYMJENS00006703,34,FLYMJENS00006704,36,FLYMJENS00006705,38,FLYMJENS00006706,40,FLYMJENS00006707;3399.00;;;;;;;fm-aw17-all,FM-NOV-NEW,fm-nov-new,jeans-streetwear;zerotype;;Winter;jeans-streetwear;No
2188072;FMJN3877-Blue-2188072;FMJN3877;Draft;Jeans;Flying Machine;Adults-Men;Men;;;;Fashion;;2017;30,FLYMJENS00006445,32,FLYMJENS00006446,34,FLYMJENS00006447,36,FLYMJENS00006448,38,FLYMJENS00006449,40,FLYMJENS00006450;2799.00;;;;;;;fm-aw17-all,FM-NOV-NEW,fm-nov-new,jeans-streetwear;zerotype;;Winter;jeans-streetwear;No
2187741;805553-655-SUNBLUSH/BLACK/BLACK-2187741;NIKE RIVAL BRA;Draft;Bra;Nike;Adults-Women;Women;;;;Fashion;;2017;32B,NIKEBRAA00000139,30D,NIKEBRAA00000182,30DD,NIKEBRAA00000183,30E,NIKEBRAA00000184,32A,NIKEBRAA00000185;3495.00;;;<p>70.0% NYLON 6/30.0% SPANDEX</p>;;;;nike-new-FW17,sportsallstyles-2017;zerotype;;Winter;sportsallstyles-2017;No
2187601;865871-010-BLACK/BLACK-2187601;AS W NSW LGGNG BND;Active;Tights;Nike;Adults-Women;Women;Black;;;Fashion;Sports;2017;L,NIKETIGH00001073,M,NIKETIGH00001074,S,NIKETIGH00001075,XL,NIKETIGH00001076,XS,NIKETIGH00001077;4895.00;Black mid-rise tights, has an elasticated waistband<br />Warranty: 6 months against manufacturing defects (not valid on products with more than 20% discount);This pair of training tights from Nike is a must-have for your workout closet. Club it with a sports bra and training shoes for an early morning jog session.;82% polyester, 18% spandex<br />Machine-wash;<br />The model (height 5'8") is wearing a size S;;Nike Black AS W NSW LGGNG BND Tights;Nike ,nike-new-FW17,sportsallstyles-2017;zerotype;;Winter;;No
2176885;2190G7-NAVY-2176885;FULL SLEEVES TOP + PYJAMA (ROUND NECK) -HIP;Draft;Night suits;Sweet Dreams;Adults-Women;Women;Navy Blue;;;Fashion;Casual;2017;S,STDMNTST00002298,M,STDMNTST00002299,L,STDMNTST00002300,XL,STDMNTST00002301;2599.00;;;<p>POLYESTER SPANDEX</p>;;;;;zerotype;;Winter;;No
2176694;1846G7-NAVY STRIPE-2176693;Half Sleeve T-Shirt and Pyjama;On Hold - Sample;Lounge Set;Sweet Dreams;Adults-Men;Men;Navy Blue;;;Fashion;Casual;2017;XXL,STDMLGST00000210;1849.00;Navy striped <a href='/lounge-set?src=pd' class='seolink'>lounge set</a><br />Navy striped lounge T-shirt with knitted pattern, has a polo collar with a <a href='/short?src=pd' class='seolink'>short</a> button placket, short sleeves<br />A pair of navy <a href='/solid?src=pd' class='seolink'>solid</a> mid-rise knitted <a href='/pyjamas?src=pd' class='seolink'>pyjamas</a>, has two pockets, an elasticated waistband with an inner drawstring fastening;You can feel free and be comfortable in this lounge set from Sweet Dreams. You can team this set with a pair of flip-flops to complete the look.;Top fabric: Pure cotton<br />Bottom fabric: Pure cotton<br />Machine-wash cold;The model (height 6') is wearing a size M;;Sweet Dreams Navy Striped Lounge Set 1846G7;Sweet Dreams,bfg17-non-disc,lounge-wear-dec11,innerwr20;zerotype;;Winter;Broken size;No
2176690;1845G7-NAVY STRIPE-2176688;Half Sleeve T-Shirt and Pyjama;On Hold - Sample;Lounge Set;Sweet Dreams;Adults-Men;Men;Navy Blue;White;;Fashion;Casual;2017;3XL,STDMLGST00000202;1899.00;Navy and white striped <a href='/lounge-set?src=pd' class='seolink'>lounge set</a><br />Navy and white striped lounge T-shirt, has a polo collar with a <a href='/short?src=pd' class='seolink'>short</a> button placket, short sleeves, patch pocket<br />A pair of navy mid-rise <a href='/lounge-pants?src=pd' class='seolink'>lounge pants</a>, has an elasticated waistband with a drawstring fastening, 2 pockets;This lounge set is a perfect pick for your closet. Wear this and stay relaxed at home all day long.;Cotton<br />Machine-wash warm;Mid-rise<br />The model (height 6') is wearing a size M;;Sweet Dreams Navy & White Striped Lounge Set 1845G7;Sweet Dreams,bfg17-non-disc,groovy-gang-dec,lounge-wear-dec11,innerwr10;zerotype;;Winter;Broken size;No
2176648;1393G7-NAVY-2176647;Full Sleeve T-Shirt and Pyjama;On Hold - Sample;Tracksuits;Sweet Dreams;Adults-Men;Men;Navy Blue;;;Fashion;Sports;2017;XXL,STDMLGST00000131;2599.00;Navy tracksuit<br />Navy <a href='/solid?src=pd' class='seolink'>solid</a> sweatshirt, has an attached hood with a drawstring fastening, a full zip closure, long sleeves, two insert pockets<br />A pair of navy solid mid-rise knitted <a href='/track-pants?src=pd' class='seolink'>track pants</a>, has two pockets, an elasticated waistband with an inner drawstring fastening;You can feel free and be comfortable in this tracksuit from Sweet Dreams. You can team this tracksuit with a pair of sports shoes to complete the look.;Top fabric: Pure cotton<br />Bottom fabric: Pure cotton<br />Machine-wash cold;The model (height 6') is wearing a size M;;Sweet Dreams Navy Hooded Tracksuit;Sweet Dreams,bfg17-non-disc;zerotype;;Winter;Broken size;No
2176635;1122G7-ECRU MEL STRIPE-2176633;Full Sleeve T-Shirt and Pyjama;On Hold - Sample;Lounge Set;Sweet Dreams;Adults-Men;Men;Navy Blue;Olive;;Fashion;Casual;2017;3XL,STDMLGST00000108;1699.00;Navy striped <a href='/lounge-set?src=pd' class='seolink'>lounge set</a><br />Navy and <a href='/olive-green?src=pd' class='seolink'>olive green</a> striped lounge T-shirt, has a polo collar, a short button placket, long sleeves, a patch pocket<br />A pair of navy mid-rise <a href='/lounge-pants?src=pd' class='seolink'>lounge pants</a>, has an elasticated waistband with a drawstring fastening, two pockets;This lounge set is a perfect pick for your closet. Wear this and stay relaxed at home all day long.;Cotton rich<br />Machine-wash cold;The model (height 6') is wearing a size M;;Sweet Dreams Navy & Olive Green Striped Lounge Set 1122G7;Sweet Dreams,bfg17-non-disc,lounge-wear-dec11;zerotype;;Winter;Broken size;No
2176616;1081G7-GREEN STRIPE-2176616;Full Sleeve T-Shirt and Pyjama;On Hold - Sample;Lounge Set;Sweet Dreams;Adults-Men;Men;;;;Fashion;;2017;3XL,STDMLGST00000077;1599.00;<p>Full Sleeve Stripe Round T-Shirt with Polo Neck and Pyjama</p>;;<p>Cotton Blend</p>;<p>Regular Fit</p>;;Full Sleeve Stripe Round T-Shirt with Polo Neck and Pyjama;;zerotype;;Winter;Broken size;No
2176615;1081G7-GREEN STRIPE-2176614;Full Sleeve T-Shirt and Pyjama;On Hold - Sample;Lounge Set;Sweet Dreams;Adults-Men;Men;Green;Navy Blue;;Fashion;Casual;2017;XXL,STDMLGST00000076;1549.00;Green and navy blue lounge set consists of t-shirt and pants<br>Green and navy blue striped lounge set, has a round neck, long sleeves, has slip-on closure<br>A pair of green and navy blue solid pants, has a slip-on closure<br>;You can feel free and be comfortable in this lounge set from Sweet Dreams. You can team this set with a pair of flip-flops to complete the look.;Top fabric: Pure Cotton<br>Bottom fabric: Pure Cotton<br>Machine-wash;The model (height 6') is wearing a size M;;Sweet Dreams Green & Navy Blue Striped Lounge Set;Sweet Dreams;zerotype;;Winter;Broken size;No
2176600;1054G7-NAVY STRIPE-2176600;Full Sleeve T-Shirt and Pyjama;On Hold - Sample;Lounge Set;Sweet Dreams;Adults-Men;Men;;;;Fashion;;2017;5XL,STDMLGST00000054;2249.00;<p>Full Sleeve Stripe T-Shirt with Polo Neck and Pyjama</p>;;<p>Cotton Blend</p>;<p>Regular Fit</p>;;Full Sleeve Stripe T-Shirt with Polo Neck and Pyjama;;zerotype;;Winter;Broken size;No
2176382;MB-1920G7-RED-2176380;BOXER;On Hold - Sample;Shorts;Sweet Dreams;Adults-Men;Men;Red;;;Core;Sports;2017;3XL,STDMBOXR00000056;774.00;Red solid mid-rise <a href='/sports-shorts?src=pd' class='seolink'>sports shorts</a>, has 2 pockets, an inner drawstring closure;When you need to upgrade your summer wardrobe, opt for these casual red solid shorts. This red pair can be teamed with a cool shirt and canvas shoes when you're going out.;Polyester <br> Machine-wash;Regular fit<br />The model (height 6') is wearing a size 32;;Sweet Dreams Men Red Solid Regular Fit Sports Shorts;Sweet Dreams,BLAZ024,groovy-gang-dec,lounge-wear-dec11,innerwr20;zerotype;;Winter;Broken size;No
2176285;130276-CHARCOAL MEL-2176283;TRACK SUIT;On Hold - Sample;Tracksuits;Sweet Dreams;Adults-Men;Men;Charcoal;;;Fashion;Casual;2017;XXL,STDMTRST00000032;2399.00;Charcoal grey tracksuit<br />Charcoal grey jacket, has a mock collar, a full zip closure, long sleeves, two insert pockets<br />Charcoal grey track pants, has two pockets, an elasticated waistband with inner drawstrings<br />;Your fitness routine will be stylish and comfortable at the same time with this tracksuit from Nike. Team it with a pair of running shoes for a complete look.;Cotton rich<br />Machine-wash;The model (height 6',) is wearing a size M;;Sweet Dreams Charcoal Grey Tracksuit;Sweet Dreams,innerwr10;zerotype;;Winter;Broken size;No
2176267;130176-CHARCOAL MEL-2176264;TRACK SUIT;On Hold - Sample;Tracksuits;Sweet Dreams;Adults-Men;Men;Charcoal;;;Fashion;Sports;2017;4XL,STDMTRST00000006,5XL,STDMTRST00000007;2249.00;<a href='/charcoal?src=pd' class='seolink'>Charcoal</a> <a href='/grey?src=pd' class='seolink'>grey</a> tracksuit<br />Charcoal grey track jacket, has a mock collar, a full zip closure, long sleeves, two insert pockets<br />A pair of charcoal grey mid-rise knitted <a href='/track-pants?src=pd' class='seolink'>track pants</a>, has two pockets, an elasticated waistband with a drawstring fastening;Sweet Dreams brings to you a wide range of tracksuits, designed to provide maximum comfort without compromising on style. Encourage yourself to lead a healthy lifestyle and pair this tracksuit with sports shoes when going for a morning run.;Jacket: 48% cotton, 52% polyester<br />Track pants: Cotton<br />Machine-wash;Mid-rise<br />The model (height 6') is wearing a size M;;Sweet Dreams Charcoal Grey Tracksuit;Sweet Dreams,welcome-to-myntra-oct17,innerwr-ftod;zerotype;;Winter;Broken size;No
2164979;PMDL03205-B5-Blue-2164979;2 BTN-NOTCH-STRAIGHT FLAP-FLAT FRNT-SLIM;Draft;Suits;Park Avenue;Adults-Men;Men;Blue;;;Fashion;;2016;96,PKAVSUIT00000761,100,PKAVSUIT00000762,104,PKAVSUIT00000763;9999.00;;;<p>DRY CLEAN ONLY,TERRY 80%/RAYON 20%</p>;;;;;zerotype;;Winter;;No
2154530;M-7-Black-2154530;M-7;Draft;Flats;Melange by Lifestyle;Adults-Women;Women;;;;Fashion;;2017;EURO36,MBLSFlats00000478,EURO37,MBLSFlats00000479,EURO38,MBLSFlats00000480,EURO39,MBLSFlats00000481,EURO40,MBLSFlats00000482,EURO41,MBLSFlats00000483;1399.00;;;<p>Clean with Dry Cloth</p>;;;;;zerotype;;Fall;;No
2151023;36376003-Olive Night-Puma Black-Puma White-2151023;TSUGI Shinsei Nocturnal;Draft;Casual Shoes;Puma;Adults-Unisex;Unisex;Olive;;;Fashion;;2017;UK7,PUMACASH00128027,UK8,PUMACASH00128028,UK9,PUMACASH00128029,UK10,PUMACASH00128030,UK11,PUMACASH00128031;9499.00;;;<p>Knit</p>;;;;sportsallstyles-2017,fw-17-sports-new;zerotype;;Fall;sportsallstyles-2017;No
2136885;703-PLAIN WHITE-2136885;TOTE;Draft;Handbags;E2O;Adults-Women;Women;;;;Fashion;;2017;Onesize,EE2OHDBG00000886;3795.00;;;;;;;;zerotype;;Fall;;No
2136845;719-WHITE-2136845;SATCHEL;Draft;Handbags;E2O;Adults-Women;Women;;;;Fashion;;2017;Onesize,EE2OHDBG00000848;3795.00;;;;;;;;zerotype;;Fall;;No
2126562;217YK8PPF-006-A-BLUE-2126562;GIRLS TEE;Draft;Tshirts;YK Powerpuff Girls;Kids-Girls;Girls;;;;Fashion;;2017;2-3Y,YKPGTSHT00000026,3-4Y,YKPGTSHT00000027,4-5Y,YKPGTSHT00000028,5-6Y,YKPGTSHT00000029,6-7Y,YKPGTSHT00000030;699.00;;;;;;;kidseorsdec;zerotype;;Fall;kidseorsdec;No
2126558;217YK8PPF-002-A-PEACH-2126558;GIRLS TEE;Draft;Tshirts;YK Powerpuff Girls;Kids-Girls;Girls;;;;Fashion;;2017;2-3Y,YKPGTSHT00000006,3-4Y,YKPGTSHT00000007,4-5Y,YKPGTSHT00000008,5-6Y,YKPGTSHT00000009,6-7Y,YKPGTSHT00000010;699.00;;;;;;;kidseorsdec;zerotype;;Fall;kidseorsdec;No
2117331;A7ACK153-Navy Blazer-2117331;BB AME TH CN TEE S/S;Draft;Tshirts;Tommy Hilfiger;Kids-Boys;Boys;Blue;;;Fashion;Casual;2017;6,TOMHTSHT00016692,8,TOMHTSHT00016693,10,TOMHTSHT00016694,12,TOMHTSHT00016695,14,TOMHTSHT00016696,16,TOMHTSHT00016697;1799.00;<p>100% COTTON</p>;;<p>Gentle wash, colors to be washed seperately</p>;;;;kidseorsdec;zerotype;;Fall;kidseorsdec;No
2117312;A7ACH145-Estate Blue-2117312;LB AME TOMMY TRACK CN HWK L/S;Draft;Sweatshirts;Tommy Hilfiger;Kids-Boys;Boys;Blue;;;Fashion;Casual;2017;1T,TOMHSWSH00001381,2T,TOMHSWSH00001382,3T,TOMHSWSH00001383,4T,TOMHSWSH00001384;2799.00;<p>100% COTTON</p>;;<p>Gentle wash, colors to be washed seperately</p>;;;;kidseorsdec;zerotype;;Fall;kidseorsdec;No
2117305;A7ACW134-DARK INDIGO / MULTI-2117305;LB THKB SLN PRT SHIRT L/S 40;Draft;Shirts;Tommy Hilfiger;Kids-Boys;Boys;Blue;;;Fashion;Casual;2017;1T,TOMHSHRT00009560,2T,TOMHSHRT00009561,3T,TOMHSHRT00009562,4T,TOMHSHRT00009563;2399.00;<p>100% COTTON</p>;;<p>Gentle wash, colors to be washed seperately</p>;;;;kidseorsdec;zerotype;;Fall;kidseorsdec;No
2117304;A7ACW131-DARK INDIGO / MULTI-2117304;BB THKB SLN PRT SHIRT L/S 40;Draft;Shirts;Tommy Hilfiger;Kids-Boys;Boys;Blue;;;Fashion;Casual;2017;6,TOMHSHRT00009554,8,TOMHSHRT00009555,10,TOMHSHRT00009556,12,TOMHSHRT00009557,14,TOMHSHRT00009558,16,TOMHSHRT00009559;2699.00;<p>100% COTTON</p>;;<p>Gentle wash, colors to be washed seperately</p>;;;;kidseorsdec;zerotype;;Fall;kidseorsdec;No
2087954;51503609-Blue Depths Heather-2087954;Core-Run L/S HZ Top W;Draft;Tops;Puma;Adults-Women;Women;Blue;;;Fashion;;2017;S,PUMATOPS00103621,M,PUMATOPS00103622,L,PUMATOPS00103623,XL,PUMATOPS00103624;3499.00;;;;;;;puma-aw17-season-launch,FW17-SPORTS-NEW,fw-17-sports-new,sportsallstyles-2017;zerotype;;Fall;sportsallstyles-2017;No
2087902;655338501-Puma New Navy-Blue Depths-Atomic Blue-2087902;evoTRG Training Tee Jr;Draft;Tshirts;Puma;Kids-Boys;Boys;Blue;;;Fashion;;2017;164,PUMATSHT00127639;1499.00;;;;;;;puma-aw17-season-launch,FW17-SPORTS-NEW,fw-17-sports-new,sportsallstyles-2017;zerotype;;Fall;sportsallstyles-2017;No
2087881;592655281-Love Potion-2087881;Softsport Graphic Layer Tee;Draft;Tshirts;Puma;Kids-Girls;Girls;Pink;;;Fashion;;2017;128,PUMATSHT00127602,140,PUMATSHT00127603,152,PUMATSHT00127604,164,PUMATSHT00127605;1299.00;;;;;;;puma-aw17-season-launch,FW17-SPORTS-NEW,fw-17-sports-new,sportsallstyles-2017;zerotype;;Fall;sportsallstyles-2017;No
2087878;592655161-Blue Depths-2087878;Softsport Graphic Layer Tee;Draft;Tshirts;Puma;Kids-Girls;Girls;Blue;;;Fashion;;2017;128,PUMATSHT00127598,140,PUMATSHT00127599,152,PUMATSHT00127600,164,PUMATSHT00127601;1299.00;;;;;;;puma-aw17-season-launch,FW17-SPORTS-NEW,fw-17-sports-new,sportsallstyles-2017;zerotype;;Fall;sportsallstyles-2017;No
2087872;592655011-Puma Black-2087872;Softsport Graphic Layer Tee;Draft;Tshirts;Puma;Kids-Girls;Girls;Black;;;Fashion;;2017;128,PUMATSHT00127590,140,PUMATSHT00127591,152,PUMATSHT00127592,164,PUMATSHT00127593;1299.00;;;;;;;puma-aw17-season-launch,FW17-SPORTS-NEW,fw-17-sports-new,sportsallstyles-2017;zerotype;;Fall;sportsallstyles-2017;No
2087868;592633301-Nrgy Peach Heather-2087868;Training Graphic Tee;Draft;Tshirts;Puma;Kids-Girls;Girls;Peach;;;Fashion;;2017;128,PUMATSHT00127586,140,PUMATSHT00127587,152,PUMATSHT00127588,164,PUMATSHT00127589;1299.00;;;;;;;puma-aw17-season-launch,FW17-SPORTS-NEW,fw-17-sports-new,sportsallstyles-2017;zerotype;;Fall;sportsallstyles-2017;No
2084510;59265301--Puma Black-2084510;Training AOP Tights;Draft;Tights;Puma;Kids-Girls;Girls;Black;;;Fashion;;2017;104,PUMATIGH00000955,116,PUMATIGH00000956;2299.00;;;;;;;puma-aw17-season-launch,FW17-SPORTS-NEW,fw-17-sports-new,sportsallstyles-2017;zerotype;;Fall;sportsallstyles-2017;No
2084500;57414001-Cotton Black-2084500;Winterized ArchiveT7 Legging;On Hold - Sample;Tights;Puma;Adults-Women;Women;Black;;;Fashion;;2017;S,PUMATIGH00000920,M,PUMATIGH00000921,L,PUMATIGH00000922,XL,PUMATIGH00000923;2799.00;;;;;;;puma-aw17-season-launch,FW17-SPORTS-NEW,fw-17-sports-new,sportsallstyles-2017;zerotype;;Fall;sportsallstyles-2017;No
2084464;51449128--Blue Depths Oxidized prt-2084464;ALL EYES ON ME Tight;On Hold - Sample;Tights;Puma;Adults-Women;Women;Blue;;;Fashion;;2017;XS,PUMATIGH00000760,S,PUMATIGH00000761,M,PUMATIGH00000762,L,PUMATIGH00000763,XL,PUMATIGH00000764;3499.00;;;;;;;puma-aw17-season-launch,sportsallstyles-2017;zerotype;;Fall;sportsallstyles-2017;No
2082587;57358146-Puma Black-2082587;AOP Archive Logo Dress;Draft;Dresses;Puma;Adults-Women;Women;Black;;;Fashion;;2017;S,PUMADRSS00000054,M,PUMADRSS00000055,L,PUMADRSS00000056,XL,PUMADRSS00000057;4999.00;;;<p>Poly Cotton</p>;;;;puma-aw17-season-launch,FW17-SPORTS-NEW,fw-17-sports-new,sportsallstyles-2017;zerotype;;Fall;sportsallstyles-2017;No
2073165;MJ-11502C-Brown-2073165;MJ-11502C Brown;Draft;Casual Shoes;Roadster;Adults-Men;Men;;;;Fashion;;2017;UK 6,RDSTCASH00021055,UK 7,RDSTCASH00021056,UK 8,RDSTCASH00021057,UK 9,RDSTCASH00021058,UK 10,RDSTCASH00021059,UK 11,RDSTCASH00021060;2099.00;;;;;;;mcfallstyles,mcf-aw2017,mfb-footwear-new,men-casual-formal,men-newarrivals;zerotype;;Fall;add;No
2045246;US81-0103-NY005-Navy print 005-2045246;CREW NECK GRAPHIC TEE;Active;Tshirts;Jockey;Adults-Men;Men;Navy Blue;;;Core;Casual;2017;S,JOCKTSHT00001198,M,JOCKTSHT00001199,L,JOCKTSHT00001200;599.00;<a href='/navy-blue?src=pd' class='seolink'>Navy Blue</a> printed T-shirt, has a round neck, <a href='/short?src=pd' class='seolink'>short</a> sleeves;Stand out this season when you go with the sleek style of a Jockey T-shirt.  When you're attending a concert, rock this navy blue piece with dark denims, leather boots, and a classic leather jacket.;Cotton <br> Machine-wash;The model (height 6') is wearing a size M;;Jockey Men Navy Blue Printed Round Neck T-shirt;Jockey;zerotype;;Fall;Broken size;No
2045235;3912-0103-BLACK-Black-2045235;Sport polo;Active;Tshirts;Jockey;Adults-Men;Men;Black;;;Core;Casual;2017;XL,JOCKTSHT00001176;809.00;<a href='/black?src=pd' class='seolink'>Black</a> <a href='/solid?src=pd' class='seolink'>solid</a> T-shirt, has a polo collar, <a href='/short?src=pd' class='seolink'>short</a> sleeves;This tee made by Jockey will definitely become a go-to item in your wardrobe.  Throw on your favourite pair of chinos and loafers with this black number for a stroll around the block or casual hangout with friends.;Cotton <br> Machine-wash;The model (height 6') is wearing a size XL;;Jockey Men Black Solid Polo Collar T-shirt;Jockey,ndd17-mum;zerotype;;Fall;ndd17-mum;No
2045233;2728-0105-NYC04-Navy/Charcoal Melange-2045233;T-shirt;On Hold - Sample;Tshirts;Jockey;Adults-Men;Men;;;;Core;Casual;2017;XL,JOCKTSHT00001172;509.00;<p>Super Combed Cotton Rich fabricContrast raglan sleeveTonal sporty graphic printRibbed crew-neck prevents saggingAuthentic Jockey logo labelTo be worn as sportswear, loungewear and leisurewear.</p>;;<p>Don't bleachTumble dry lowDo not dry cleanMedium ironGentle washLine dry in the shadeWash inside outWash with like coloursDo not iron on label</p>;;;;ndd17-mum;zerotype;;Fall;ndd17-mum;No
2045220;2714-0105-SHRED-Shanghai Red-2045220;CREWE-NECK T-SHIRT;Active;Lounge Tshirts;Jockey;Adults-Men;Men;Red;;;Core;Casual;2017;S,JOCKTSHT00001142,M,JOCKTSHT00001143,L,JOCKTSHT00001144;399.00;<a href='/red?src=pd' class='seolink'>Red</a> <a href='/solid?src=pd' class='seolink'>solid</a> T-shirt, has a round neck, <a href='/short?src=pd' class='seolink'>short</a> sleeves;Upgrade your style when you take a page out of Jockey's book with this tee.  A fashionable weekend outfit starts with this red top matched with chinos and your favourite pair of sunglasses to cast an effortlessly cool image.;Cotton <br> Machine-wash;The model (height 6') is wearing a size M;;Jockey Men Red Solid Round Neck T-shirt;Jockey,mmb-tshirts;zerotype;;Fall;mmb-tshirts;No
2045215;2714-0105-GRYML-Grey Melange-2045215;CREWE-NECK T-SHIRT;Warehouse Investigation;Tshirts;Jockey;Adults-Men;Men;Green;;;Core;Casual;2017;XL,JOCKTSHT00001130,XXL,JOCKTSHT00001131;409.00;Green solid T-shirt, has a round neck, short sleeves;This tee made by Jockey will definitely become a go-to item in your wardrobe.  When you're going for a stroll in the park, put this green piece with a pair of chinos and sneakers to feel both comfortable and stylish outside.;Cotton <br> Machine-wash;The model (height 6') is wearing a size M;;Jockey Men Green Solid Round Neck T-shirt;Jockey;zerotype;;Fall;PRODUCT MISMATCH;No
2038499;MJ-11478A-BLACK-2038499;MJ-11478A BLACK;Draft;Casual Shoes;Roadster;Adults-Men;Men;;;;Fashion;;2017;UK 6,RDSTCASH00020407,UK 7,RDSTCASH00020408,UK 8,RDSTCASH00020409,UK 9,RDSTCASH00020410,UK 10,RDSTCASH00020411,UK 11,RDSTCASH00020412;2099.00;;;;;;;mcfallstyles,mcf-aw2017,mfb-footwear-new,men-casual-formal,men-newarrivals;zerotype;;Fall;add;No
2038497;MJ-11509B-Navy-2038497;MJ-11509B Navy;Draft;Casual Shoes;Roadster;Adults-Men;Men;;;;Fashion;;2017;UK 6,RDSTCASH00020395,UK 7,RDSTCASH00020396,UK 8,RDSTCASH00020397,UK 9,RDSTCASH00020398,UK 10,RDSTCASH00020399,UK 11,RDSTCASH00020400;1899.00;;;;;;;mcfallstyles,mcf-aw2017,mfb-footwear-new,men-casual-formal,men-newarrivals;zerotype;;Fall;add;No
2038496;MJ-11509A-Black-2038496;MJ-11509A Black;Draft;Casual Shoes;Roadster;Adults-Men;Men;;;;Fashion;;2017;UK 6,RDSTCASH00020389,UK 7,RDSTCASH00020390,UK 8,RDSTCASH00020391,UK 9,RDSTCASH00020392,UK 10,RDSTCASH00020393,UK 11,RDSTCASH00020394;1899.00;;;;;;;mcfallstyles,mcf-aw2017,mfb-footwear-new,men-casual-formal,men-newarrivals;zerotype;;Fall;add;No
2038489;MJ-11504B-WHITE-2038489;MJ-11504B WHITE;Draft;Casual Shoes;Roadster;Adults-Men;Men;;;;Fashion;;2017;UK 6,RDSTCASH00020347,UK 7,RDSTCASH00020348,UK 8,RDSTCASH00020349,UK 9,RDSTCASH00020350,UK 10,RDSTCASH00020351,UK 11,RDSTCASH00020352;2099.00;;;;;;;mcfallstyles,mcf-aw2017,mfb-footwear-new,men-casual-formal,men-newarrivals;zerotype;;Fall;add;No
2038487;MJ-11502B-Navy-2038487;MJ-11502B Navy;Draft;Casual Shoes;Roadster;Adults-Men;Men;;;;Fashion;;2017;UK 6,RDSTCASH00020335,UK 7,RDSTCASH00020336,UK 8,RDSTCASH00020337,UK 9,RDSTCASH00020338,UK 10,RDSTCASH00020339,UK 11,RDSTCASH00020340;2099.00;;;;;;;mcfallstyles,mcf-aw2017,mfb-footwear-new,men-casual-formal,men-newarrivals;zerotype;;Fall;add;No
1999225;2621-0105-WINWH-White-1999225;LONG JOHN;Active;Thermal Bottoms;Jockey;Adults-Men;Men;White;;;Core;Casual;2017;XL,JOCKTMBT00000016;909.00;A pair of off-white knitted mid-rise self-striped <a href='/thermal-bottoms?src=pd' class='seolink'>thermal bottoms</a>, has an elasticated waistband, cuffed hems;Jockey presents this pair of thermal long johns that will keep you warm and toasty this winter. You can also layer it under your casual clothes when you're off on a hill station adventure.;65% miyabi acrylic, 28% viscose, 7% spandex<br />Machine-wash warm;Mid-rise<br />The model (height 6') is wearing a size M;;Jockey Men Off-White Thermal Bottoms 2621-0105;Jockey;zerotype;;Winter;;No
1999223;2621-0105-BLACK-Black-1999223;LONG JOHN;On Hold - Sample;Thermal Bottoms;Jockey;Adults-Men;Men;Black;;;Core;Casual;2017;XL,JOCKTMBT00000012;909.00;A pair of black knitted mid-rise self-striped thermal bottoms, has an elasticated waistband, cuffed hems;Jockey presents this pair of thermal long johns that will keep you warm and toasty this winter. You can also layer it under your casual clothes when you're off on a hill station adventure.;65% miyabi acrylic, 28% viscose, 7% spandex<br />Machine-wash warm;Mid-rise<br />The model (height 6') is wearing a size M;;Jockey Men Black Thermal Bottoms 2621-0105;Jockey;zerotype;;Winter;Broken size;No
1999196;US88-0103-C0144-Checks-1999196;WOVEN BERMUDA;On Hold - Sample;Shorts;Jockey;Adults-Men;Men;;;;Core;;2017;XL,JOCKSHOR00000242;769.00;;<p>100% Super Combed Cotton twill fabricRegular FitSoft elasticated inner waist band for extra comfortCross side pockets for added functionalityBottom hem with twill tape reinforcement for extra durabilityAuthentic Jockey USA Originals patch label on back pocketTo be worn as casual or loungewear bottom</p>;<p>100% cotton</p>;;;;ndd17-mum;zerotype;;Summer;ndd17-mum;No
1999194;US88-0103-C0143-Checks-1999194;WOVEN BERMUDA;On Hold - Sample;Shorts;Jockey;Adults-Men;Men;;;;Core;;2017;XL,JOCKSHOR00000238;769.00;;<p>100% Super Combed Cotton twill fabricRegular FitSoft elasticated inner waist band for extra comfortCross side pockets for added functionalityBottom hem with twill tape reinforcement for extra durabilityAuthentic Jockey USA Originals patch label on back pocketTo be worn as casual or loungewear bottom</p>;<p>100% cotton</p>;;;;ndd17-mum;zerotype;;Summer;ndd17-mum;No
1999192;US88-0103-C0142-Checks-1999192;WOVEN BERMUDA;On Hold - Sample;Shorts;Jockey;Adults-Men;Men;;;;Core;;2017;XL,JOCKSHOR00000234;769.00;;<p>100% Super Combed Cotton twill fabricRegular FitSoft elasticated inner waist band for extra comfortCross side pockets for added functionalityBottom hem with twill tape reinforcement for extra durabilityAuthentic Jockey USA Originals patch label on back pocketTo be worn as casual or loungewear bottom</p>;<p>100% cotton</p>;;;;ndd17-mum;zerotype;;Summer;ndd17-mum;No
1999191;US88-0103-C0142-Checks-1999191;WOVEN BERMUDA;On Hold - Sample;Shorts;Jockey;Adults-Men;Men;;;;Core;;2017;S,JOCKSHOR00000231,M,JOCKSHOR00000232,L,JOCKSHOR00000233;759.00;;<p>100% Super Combed Cotton twill fabricRegular FitSoft elasticated inner waist band for extra comfortCross side pockets for added functionalityBottom hem with twill tape reinforcement for extra durabilityAuthentic Jockey USA Originals patch label on back pocketTo be worn as casual or loungewear bottom</p>;<p>100% cotton</p>;;;;ndd17-mum;zerotype;;Summer;ndd17-mum;No
1999105;HG06-0105-ASSTD-Assorted-1999105;PRINTED TRUNK;Active;Trunk;Jockey;Adults-Men;Men;Multi;;;Core;Casual;2017;XL,JOCKTRNK00000707;404.00;A pair of assorted printed <a href='/trunks?src=pd' class='seolink'>trunks</a>, has an UltraSoft elasticated waistband, double-layered and contoured front pouch with original jockey Y-front, soft seams, lable-free comfort<br />The final product delivered might vary in colour and prints from the display here;Give a style update to your innerwear collection with these trunks from Jockey. Crafted from innovative high quality, they are comfortable and offer the perfect fit.;57% Tencel, 38% cotton, 5% spandex<br />Machine-wash;;;Jockey 1876 Men Assorted Y-Front Printed Trunk;Jockey;zerotype;;Summer;;No
1999082;SP28-0105-NAVY-Navy Blue-1999082;Racer back vest;On Hold - Sample;Innerwear Vests;Jockey;Adults-Men;Men;;;;Core;;2017;XL,JOCKVEST00000613;379.00;;<p>Cool Max" fabric with plated performance & moisture managementBody FitRacer back stylingLabel free for all day comfortAuthentic Jockey branding with reflective sport print</p>;<p>60% Cotton  & 40% Polyester</p>;;;;ndd17-mum;zerotype;;Summer;ndd17-mum;No
1999073;FP04-0105-GRYML-Grey Melange-1999073;VEST;Active;Innerwear Vests;Jockey;Adults-Men;Men;Grey Melange;;;Core;Casual;2017;XL,JOCKVEST00000596;259.00;<a href='/grey-melange-innerwear?src=pd' class='seolink'>Grey Melange innerwear</a> vest, has a round neck, sleeveless;Feel good in this innerwear vest from Jockey. Team one of them with a pair of shorts for a chilled out look.;100% cotton<br />Machine-wash;The model (height 6') is wearing a size XL;;Jockey Grey Melange Innerwear Vest FP04-0105;Jockey;zerotype;;Summer;;No
1999056;8822-0205-ECWHT-White-1999056;CLASSIC UNDERSHIRT;Active;Innerwear Vests;Jockey;Adults-Men;Men;White;;;Core;Casual;2017;XL,JOCKVEST00000563;409.00;<a href='/pack?src=pd' class='seolink'>Pack</a> of two <a href='/innerwear-vests?src=pd' class='seolink'>innerwear vests</a> in white, each has a round neck, sleeveless;Feel good in this innerwear vest from Jockey. Team one of them with a pair of shorts for a chilled out look.;100% cotton<br />Machine-wash;The model (height 6') is wearing a size XL;;Jockey Pack of 2 Innerwear Vest 8822-0205;Jockey;zerotype;;Summer;;No
1999051;8820-0205-ECWHT-White-1999051;BASIC UNDERSHIRT;Active;Innerwear Vests;Jockey;Adults-Men;Men;White;;;Core;Casual;2017;XXL,JOCKVEST00000554;340.00;<a href='/pack?src=pd' class='seolink'>Pack</a> of two <a href='/innerwear-vests?src=pd' class='seolink'>innerwear vests</a> in white, each has a round neck, sleeveless;Feel good in this innerwear vest from Jockey. Team one of them with a pair of shorts for a chilled out look.;100% cotton<br />Machine-wash;The model (height 6') is wearing a size XXL;;Jockey Pack of 2 Innerwear Vests 8820-0205;Jockey;zerotype;;Summer;;No
1999048;8816-0205-ECWHT-White-1999048;MODERN VEST;Active;Innerwear Vests;Jockey;Adults-Men;Men;White;;;Core;Casual;2017;110,JOCKVEST00000549;368.00;White <a href='/innerwear?src=pd' class='seolink'>innerwear</a> vest, has a round neck, sleeveless;Feel good in this innerwear vest from Jockey. Team one of them with a pair of shorts for a chilled out look.;100% cotton<br />Machine-wash;The model (height 6') is wearing a size 3XL;;Jockey White Innerwear Vest 8816-0205;Jockey;zerotype;;Summer;;No
1953869;217YKKSLD69508-WHITE-1953869;F/SLV SWEATSHIRT;Draft;Sweatshirts;YK;Kids-Boys;Boys;;;;Fashion;;2017;7-8Y,YKYKSWSH00000306,8-9Y,YKYKSWSH00000307,10-11Y,YKYKSWSH00000308,11-12Y,YKYKSWSH00000309,13-14Y,YKYKSWSH00000310;1499.00;;;;;;;kidseorsdec;zerotype;;Fall;kidseorsdec;No
1898626;2726-0105-EDGRN-Eden Green-1898626;BU-V- Neck T Shirt -1's Eden Green;Active;Lounge Tshirts;Jockey;Adults-Men;Men;Green;;;Core;Casual;2017;XL,JOCKTSHT00001019;399.00;<a href='/green?src=pd' class='seolink'>Green</a> <a href='/solid?src=pd' class='seolink'>solid</a> lounge T-shirt, has a round neck, <a href='/short?src=pd' class='seolink'>short</a> sleeves;This tee made by Jockey will definitely become a go-to item in your wardrobe.  Wear this green piece many ways, with dark wash jeans, cuffed chinos and more.;Cotton<br />Machine-wash;The model (height 6') is wearing a size XL;;Jockey Men Green Solid Round Neck Lounge T-shirt;Jockey,ndd17-mum;zerotype;;Summer;ndd17-mum;No
1898616;2714-0105-WHITE-White-1898616;BU-Crew Neck T shirt 1s White;Active;Tshirts;Jockey;Adults-Men;Men;White;;;Core;Casual;2017;XL,JOCKTSHT00000996,XXL,JOCKTSHT00000997;409.00;White <a href='/solid?src=pd' class='seolink'>solid</a> T-shirt, has a round neck, <a href='/short?src=pd' class='seolink'>short</a> sleeves;Elevate the look of your wardrobe with a few more basic tees like this high-end cotton one from Jockey.  When you're going for a stroll in the park, put this white piece with a pair of chinos and sneakers to feel both comfortable and stylish outside.;Cotton <br> Machine-wash;The model (height 6') is wearing a size XL;;Jockey Men White Solid Round Neck T-shirt;Jockey,mmb-tshirts;zerotype;;Summer;mmb-tshirts;No
1898612;2714-0105-CHAML-Charcoal melange-1898612;BU-Crew Neck T shirt 1s Charcoal Mel;Active;Tshirts;Jockey;Adults-Men;Men;Charcoal;;;Core;Casual;2017;XL,JOCKTSHT00000986,XXL,JOCKTSHT00000987;409.00;<a href='/charcoal?src=pd' class='seolink'>Charcoal</a> <a href='/solid?src=pd' class='seolink'>solid</a> T-shirt, has a round neck, <a href='/short?src=pd' class='seolink'>short</a> sleeves;Amp up your casual style with a well-structured T-shirt from Jockey.  This charcoal item can be teamed with fitted jeans for a clean look or lounge shorts for casual weekend wear.;Cotton<br> Machine-wash;The model (height 6') is wearing a size XL;;Jockey Men Charcoal Solid Round Neck T-shirt;Jockey,mmb-tshirts;zerotype;;Summer;mmb-tshirts;No
1898588;9928-0105-BLACK-Black-1898588;BU-Tank top 1s Black;Active;Innerwear Vests;Jockey;Adults-Men;Men;Black;;;Core;Casual;2017;XL,JOCKVEST00000522;379.00;<a href='/black?src=pd' class='seolink'>Black</a> printed <a href='/knitted-innerwear?src=pd' class='seolink'>knitted innerwear</a> vest, has a round neck, sleeveless<br />This vest can be worn as a <a href='/sportswear?src=pd' class='seolink'>sportswear</a>;Crafted from the soft cotton fabric, we're sure you'll love the cosy fit and style of this piece. Team it with a pair of shorts and sports shoes for a complete look.;cotton<br />Machine-wash;The model (height 6') is wearing a size XL;;Jockey Black Printed Innerwear Vest 9928-0105;Jockey,ndd17-mum;zerotype;;Summer;ndd17-mum;No
1898586;8817-0205-ECWHT-White-1898586;BU-SLEEVE VEST-2's-E-Com WHITE;Active;Innerwear Vests;Jockey;Adults-Men;Men;White;;;Core;Casual;2017;XL,JOCKVEST00000518;459.00;<a href='/pack?src=pd' class='seolink'>Pack</a> of two <a href='/innerwear-vests?src=pd' class='seolink'>innerwear vests</a> in white, each has a round neck, <a href='/short?src=pd' class='seolink'>short</a> sleeves;Feel good in this innerwear vest from Jockey. Team one of them with a pair of shorts for a chilled out look.;100% cotton<br />Machine-wash;The model (height 6') is wearing a size XL;;Jockey Pack of 2 Innerwear Vest 8817-0205;Jockey;zerotype;;Summer;;No
1898577;9427-0103-NV-GM-Navy & Grey Melange-1898577;BU-Leisure Shorts-1's Navy/Grey Melange;On Hold - Sample;Shorts;Jockey;Adults-Men;Men;;;;Core;;2017;XL,JOCKSHOR00000196;509.00;<p>20% Polyester,80% Cotton</p>;;<p>Do not bleachTumble dry lowDo not dry cleanMedium ironGentle washLine dry in the shadeWash inside outWash with like coloursDo not iron on label/embroidery</p>;;;;;zerotype;;Summer;Broken Size;No
1480618;PIL0001435TINT-WOR34-TINT-WOR-1480618;PIL0001435;Draft;Jeans;Pepe Jeans;Adults-Women;Women;;;;Fashion;;2016;26,PEJEJENS00006274,28,PEJEJENS00006275,30,PEJEJENS00006276,32,PEJEJENS00006277,34,PEJEJENS00006278;2899.00;<p><a href='/cotton?src=pd' class='seolink'>COTTON</a> 98% ELASTANE 2%</p>;;;;;;;zerotype;;Winter;;No
1067158;FL8070-Sage-1067158;Aruba  Roll Up Pant;On Hold - Sample;Track Pants;Columbia;Adults-Women;Women;Taupe;;;Core;Casual;2015;2,CLMBTRSR00000012,4,CLMBTRSR00000013,6,CLMBTRSR00000014,8,CLMBTRSR00000015,10,CLMBTRSR00000016,12,CLMBTRSR00000017,14,CLMBTRSR00000018;2499.00;A pair of taupe woven mid-rise track pants, has a waistband with belt loops, button closure and zip fly,two zip pockets, roll-up hems <br />Omni-ShadeÃ¢?Â¢ blocks Ultraviolet A and Ultraviolet B rays (UVA and UVB), helping to prevent sunburn and long-term skin damage.<br /><br />Omni-WickÃ¢?Â¢ pulls moisture away from the body and enables perspiration to evaporate quickly, keeping you dry and comfortable.;Look your best while training when you don these track pants from Columbia. It features OMNI-SHADE and OMNI-WICK which saves your skin from harmful UV rays and also absorbs moisture. Team them with a basic tee and sports shoes to complete a modish look.;100% nylon<br />Machine-wash warm;The model (height 5'8'') is wearing a size M;;Columbia Taupe Modern Classic Fit Outdoor Track Pants;sportssis,rs-500-off-03aug,fk-lenovo-offer,fk-tv-offer,welcome-to-myn-log-off,sportsfw16,allsportsnew1,sportsactive,bbd-pre-sale-sports-2016,bbd-sports-allstyles,choose-your-track-pants,sports-bbd-allstyles,sports-outdoor-property,sports-running,sports-campaign-dec,provisioning-jan17,b2-35-b3-40-crazy40-feb19,b1-30-b2-35-feb22,ltod-feb24,most-wanted-styles-mar,b40-big40,holi-offer-sale,holi-top-women,b2-extra50-mar12,flash-sale-launch,super-hour-mar17,bfg-wanderlust-tosh-women-519375,tbfg-fitfabulous-sports,tbfg-sportsfanatic,tbfg-sportsfashion-athleisurelyyours-viewall,tbfg-sportsfashion-athleisurelyyours-joggers,bfg-wanderlust-women-destinationall,tbfg-sports-fitfabulous-day2-apparel,bfg-wanderlust-ladakh-women-518913,apr12-super-hour,ftod-bb-apr20,SportsAllStyles-2017,sportsathleisure,apr15-hh,super-hour-may9,ndd-mumbai,sportsallstyles-2017,welcome-to-myntra-may-big,big10-350off,may27-price-surge,myntra-store-03,eors-rtf-allstyles,eors-rtf-bottomwear,eors17-perc-coupon,wishlist-eors,welcome-to-myntra-july,duty-offer-new,signup-july-2017,eors-half-price-store,ftod-bbsjul17,outdoor-sports-25july,COLUMBIAGAME500,SPORTSGAME15,extra20-sports,bbd17-coupon-offer,ndd17-mum;zerotype;;Fall;Broken size;No
