Style ID;Vendor Article Number;Vendor Article Name;Active Status;Article type;Brand;Age Group;Gender;Base Colour;Colour1;Colour2;Fashion Type;Usage;Year;Size - SKU code pair;MRP;Style Description;Style Note;Materials and Care Description;Size and Fit Description;Size Chart Path;Product Display Name;Tags;Product Type;Classification Brand;Season;Comments;Upload Images
4424106;3055172.00.71_4689_XS-Coral-4424106;Tom Tailor Women Stripes Sweater;Draft;Sweaters;Tom Tailor;Adults-Women;Women;Coral;;;Fashion;;2018;L,TMLRSWTR00001632,M,TMLRSWTR00001633,S,TMLRSWTR00001634,XL,TMLRSWTR00001635,XS,TMLRSWTR00001636;4199.00;;;<p>Do Not Bleach, Regular Machine Wash</p>;;;NA;;zerotype;;Spring;;No
4424105;3055179.00.71_2999_XS-Black-4424105;Tom Tailor Women Casual Sweater;Draft;Sweaters;Tom Tailor;Adults-Women;Women;Black;;;Fashion;;2018;L,TMLRSWTR00001627,M,TMLRSWTR00001628,S,TMLRSWTR00001629,XL,TMLRSWTR00001630,XS,TMLRSWTR00001631;5999.00;;;<p>Do Not Bleach, Regular Machine Wash</p>;;;NA;;zerotype;;Spring;;No
4424104;3055334.00.71_1002_XS-White-4424104;Tom Tailor Women Stripes Sweater;Draft;Sweaters;Tom Tailor;Adults-Women;Women;White;Blue;;Fashion;;2018;L,TMLRSWTR00001622,M,TMLRSWTR00001623,S,TMLRSWTR00001624,XL,TMLRSWTR00001625,XS,TMLRSWTR00001626;4499.00;;;<p>Do Not Bleach, Regular Machine Wash</p>;;;NA;;zerotype;;Spring;;No
4424103;3055334.00.71_2220_XS-Cream-4424103;Tom Tailor Women Printed Sweater;Draft;Sweaters;Tom Tailor;Adults-Women;Women;Cream;;;Fashion;;2018;L,TMLRSWTR00001617,M,TMLRSWTR00001618,S,TMLRSWTR00001619,XL,TMLRSWTR00001620,XS,TMLRSWTR00001621;4499.00;;;<p>Do Not Bleach, Regular Machine Wash</p>;;;NA;;zerotype;;Spring;;No
4424101;3055178.00.71_2999_XS-Black-4424101;Tom Tailor Women Solid Sweater;Draft;Sweaters;Tom Tailor;Adults-Women;Women;Black;;;Fashion;;2018;L,TMLRSWTR00001612,M,TMLRSWTR00001613,S,TMLRSWTR00001614,XL,TMLRSWTR00001615,XS,TMLRSWTR00001616;4199.00;;;<p>Do Not Bleach, Regular Machine Wash</p>;;;NA;;zerotype;;Spring;;No
4424098;3023062.00.10_4657_XXL-Maroon-4424098;Tom Tailor Men Solid Pullover;Draft;Jackets;Tom Tailor;Adults-Men;Men;Maroon;;;Fashion;;2018;S,TMLRJCKT00000913,M,TMLRJCKT00000914,L,TMLRJCKT00000915,XL,TMLRJCKT00000916,XXL,TMLRJCKT00000917;5999.00;;;<p>Do Not Bleach, Regular Machine Wash</p>;;;NA;;zerotype;;Summer;;No
4424097;6206005.00.30_1200_152-Black-4424097;Tom Tailor Boys Casual Jeans;Draft;Jeans;Tom Tailor;Kids-Boys;Boys;Black;;;Fashion;;2018;176,TMLRJENS00002132,164,TMLRJENS00002133,140,TMLRJENS00002134,128,TMLRJENS00002135,152,TMLRJENS00002136;3499.00;<p>Boys casual jeans</p>;;<p>Do Not Bleach, Regular Machine wash</p>;;;NA;;zerotype;;Spring;;No
4424096;3023061.00.10_2572_XXL-Grey-4424096;Tom Tailor Men Solid pullover;Draft;Sweatshirts;Tom Tailor;Adults-Men;Men;Grey;;;Fashion;;2018;L,TMLRSWSH00001108,M,TMLRSWSH00001109,S,TMLRSWSH00001110,XL,TMLRSWSH00001111,XXL,TMLRSWSH00001112;4199.00;;;<p>Do Not Bleach, Regular Machine Wash</p>;;;NA;;zerotype;;Summer;;No
4424095;3023061.00.10_8729_XXL-Black-4424095;Tom Tailor Men Solid pullover;Draft;Sweatshirts;Tom Tailor;Adults-Men;Men;Black;;;Fashion;;2018;L,TMLRSWSH00001103,M,TMLRSWSH00001104,S,TMLRSWSH00001105,XL,TMLRSWSH00001106,XXL,TMLRSWSH00001107;4199.00;;;<p>Do Not Bleach, Regular Machine Wash</p>;;;NA;;zerotype;;Summer;;No
4424094;3023061.00.10_6465_XXL-Blue-4424094;Tom Tailor Men Solid pullover;Draft;Sweatshirts;Tom Tailor;Adults-Men;Men;Blue;;;Fashion;;2018;L,TMLRSWSH00001098,M,TMLRSWSH00001099,S,TMLRSWSH00001100,XL,TMLRSWSH00001101,XXL,TMLRSWSH00001102;4199.00;;;<p>Do Not Bleach, Regular Machine Wash</p>;;;NA;;zerotype;;Summer;;No
4424093;3023295.00.10_2591_XXL-Black-4424093;Tom Tailor Men Solid pullover;Draft;Sweatshirts;Tom Tailor;Adults-Men;Men;Black;Grey;;Fashion;;2018;L,TMLRSWSH00001093,M,TMLRSWSH00001094,S,TMLRSWSH00001095,Xl,TMLRSWSH00001096,XXL,TMLRSWSH00001097;3499.00;;;<p>Do Not Bleach, Regular Machine Wash</p>;;;NA;;zerotype;;Summer;;No
4424092;3023284.00.10_2310_XXL-Grey-4424092;Tom Tailor Men Solid pullover;Draft;Sweatshirts;Tom Tailor;Adults-Men;Men;Grey;;;Fashion;;2018;L,TMLRSWSH00001088,M,TMLRSWSH00001089,S,TMLRSWSH00001090,XL,TMLRSWSH00001091,XXL,TMLRSWSH00001092;3499.00;;;<p>Do Not Bleach, Regular Machine Wash</p>;;;NA;;zerotype;;Summer;;No
4424091;3023152.00.10_6800_XL-Blue-4424091;Tom Tailor Men Solid pullover;Draft;Sweatshirts;Tom Tailor;Adults-Men;Men;Blue;;;Fashion;;2018;L,TMLRSWSH00001084,M,TMLRSWSH00001085,S,TMLRSWSH00001086,XL,TMLRSWSH00001087;4499.00;;;<p>Do Not Bleach, Regular Machine Wash</p>;;;NA;;zerotype;;Summer;;No
4424090;3023284.00.10_4797_XXL-Orange-4424090;Tom Tailor Men Solid pullover;Draft;Sweatshirts;Tom Tailor;Adults-Men;Men;Orange;;;Fashion;;2018;L,TMLRSWSH00001079,M,TMLRSWSH00001080,S,TMLRSWSH00001081,XL,TMLRSWSH00001082,XXL,TMLRSWSH00001083;3499.00;;;<p>Do Not Bleach, Regular Machine Wash</p>;;;NA;;zerotype;;Summer;;No
4424089;3023295.00.10_6800_XXL-Navy Blue-4424089;Tom Tailor Men Solid pullover;Draft;Sweatshirts;Tom Tailor;Adults-Men;Men;Navy Blue;;;Fashion;;2018;L,TMLRSWSH00001074,M,TMLRSWSH00001075,S,TMLRSWSH00001076,Xl,TMLRSWSH00001077,XXL,TMLRSWSH00001078;3499.00;;;<p>Do Not Bleach, Regular Machine Wash</p>;;;NA;;zerotype;;Summer;;No
4424088;3023061.00.10_2307_XXL-Brown-4424088;Tom Tailor Men Solid pullover;Draft;Sweatshirts;Tom Tailor;Adults-Men;Men;Brown;;;Fashion;;2018;L,TMLRSWSH00001069,M,TMLRSWSH00001070,S,TMLRSWSH00001071,XL,TMLRSWSH00001072,XXL,TMLRSWSH00001073;4199.00;;;<p>Do Not Bleach, Regular Machine Wash</p>;;;NA;;zerotype;;Summer;;No
4424087;1038819.00.10_7533_XL-Grey-4424087;Tom Tailor Mens Casual Pullover;Draft;Sweatshirts;Tom Tailor;Adults-Men;Men;Grey;;;Fashion;;2018;L,TMLRSWSH00001065,M,TMLRSWSH00001066,S,TMLRSWSH00001067,XL,TMLRSWSH00001068;1199.00;;;<p>Do Not Bleach, Regular Machine Wash</p>;;;NA;;zerotype;;Summer;;No
4424086;3023061.00.10_6047_XXL-Teal-4424086;Tom Tailor Men Solid pullover;Draft;Sweatshirts;Tom Tailor;Adults-Men;Men;Teal;;;Fashion;;2018;L,TMLRSWSH00001060,M,TMLRSWSH00001061,S,TMLRSWSH00001062,XL,TMLRSWSH00001063,XXL,TMLRSWSH00001064;4199.00;;;<p>Do Not Bleach, Regular Machine Wash</p>;;;NA;;zerotype;;Summer;;No
4424085;3023061.00.10_4657_XXL-Maroon-4424085;Tom Tailor Men Solid pullover;Draft;Sweatshirts;Tom Tailor;Adults-Men;Men;Maroon;;;Fashion;;2018;L,TMLRSWSH00001055,M,TMLRSWSH00001056,S,TMLRSWSH00001057,XL,TMLRSWSH00001058,XXL,TMLRSWSH00001059;4199.00;;;<p>Do Not Bleach, Regular Machine Wash</p>;;;NA;;zerotype;;Summer;;No
4424084;3023284.00.10_6726_XXL-Blue-4424084;Tom Tailor Men Solid pullover;Draft;Sweatshirts;Tom Tailor;Adults-Men;Men;Blue;;;Fashion;;2018;L,TMLRSWSH00001050,M,TMLRSWSH00001051,S,TMLRSWSH00001052,XL,TMLRSWSH00001053,XXL,TMLRSWSH00001054;3499.00;;;<p>Do Not Bleach, Regular Machine Wash</p>;;;NA;;zerotype;;Summer;;No
4424083;1038899.00.30_8353_140-Off White-4424083;Tom Tailor Boys Printed Casual T Shirt;Draft;Tshirts;Tom Tailor;Kids-Boys;Boys;Off White;;;Fashion;;2018;176,TMLRTSHT00015285,164,TMLRTSHT00015286,152,TMLRTSHT00015287,140,TMLRTSHT00015288;1499.00;<p>Regular Length, Round Neck, Print On Front Side, Slim Fit, 100 % Cotton</p>;;<p>Do Not Bleach, Regular Machine wash,</p>;;;NA;;zerotype;;Spring;;No
4424082;1531160.00.10_6811_XL-Blue-4424082;Tom Tailor Mens Solid Polo T Shirt;Draft;Tshirts;Tom Tailor;Adults-Men;Men;Blue;;;Fashion;;2018;L,TMLRTSHT00015281,M,TMLRTSHT00015282,S,TMLRTSHT00015283,XL,TMLRTSHT00015284;1999.00;<p>Regular Length, Band Neck, Stripes On Front Side, Slim Fit, 80 % Cotton 20% Polyester, Model Is Wearing M</p>;;<p>Do Not Bleach, Regular Machine wash, 80% Cotton 20% Polyster</p>;;;NA;;zerotype;;Spring;;No
4424081;1039073.00.40_6593_164-White Black-4424081;Tom Tailor Women Printed Casual T Shirt;Draft;Tshirts;Tom Tailor;Kids-Girls;Girls;White;Black;;Fashion;;2018;152,TMLRTSHT00015276,140,TMLRTSHT00015277,176,TMLRTSHT00015278,128,TMLRTSHT00015279,164,TMLRTSHT00015280;1299.00;<p>Women Printed Casual T Shirt</p>;;<p>Do Not Bleach, Regular Machine wash,</p>;;;NA;;zerotype;;Spring;;No
4424080;1038898.00.30_8353_152-Off White-4424080;Tom Tailor Boys Printed Casual T Shirt;Draft;Tshirts;Tom Tailor;Kids-Boys;Boys;Off White;;;Fashion;;2018;176,TMLRTSHT00015272,140,TMLRTSHT00015273,164,TMLRTSHT00015274,152,TMLRTSHT00015275;999.00;<p>Regular Length, Round Neck, Print On Front Side, Slim Fit, 100 % Cotton</p>;;<p>Do Not Bleach, Regular Machine wash,</p>;;;NA;;zerotype;;Spring;;No
4424079;1039099.00.30_6732_140-Navy Blue-4424079;Tom Tailor Boys Solid Casual T Shirt;Draft;Tshirts;Tom Tailor;Kids-Boys;Boys;Navy Blue;;;Fashion;;2018;176,TMLRTSHT00015267,164,TMLRTSHT00015268,152,TMLRTSHT00015269,128,TMLRTSHT00015270,140,TMLRTSHT00015271;899.00;<p>Boys Solid Casual T Shirt</p>;;<p>Do Not Bleach, Regular Machine wash,</p>;;;NA;;zerotype;;Spring;;No
4424078;1038819.00.10_4245_XL-Red-4424078;Tom Tailor Mens Printed Casual T Shirt;Draft;Tshirts;Tom Tailor;Adults-Men;Men;Red;;;Fashion;;2018;L,TMLRTSHT00015263,M,TMLRTSHT00015264,S,TMLRTSHT00015265,XL,TMLRTSHT00015266;1199.00;<p>Regular Length, Round Neck, Print On Front Side, Slim Fit, 60 % Cotton 40% Polyester , Model Is Wearing M</p>;;<p>Do Not Bleach, Regular Machine wash, 60% Cotton 40% Polyster</p>;;;NA;;zerotype;;Spring;;No
4424077;1039146.00.30_6944_152-Black-4424077;Tom Tailor Boys Solid Casual T Shirt;Draft;Tshirts;Tom Tailor;Kids-Boys;Boys;Black;;;Fashion;;2018;140,TMLRTSHT00015258,128,TMLRTSHT00015259,176,TMLRTSHT00015260,164,TMLRTSHT00015261,152,TMLRTSHT00015262;999.00;<p>Boys Solid Casual T Shirt</p>;;<p>Do Not Bleach, Regular Machine wash,</p>;;;NA;;zerotype;;Spring;;No
4424076;1038895.00.82_6999_128-Teal-4424076;Tom Tailor Boys Printed Casual T Shirt;Draft;Tshirts;Tom Tailor;Kids-Boys;Boys;Teal;;;Fashion;;2018;104,TMLRTSHT00015254,92,TMLRTSHT00015255,116,TMLRTSHT00015256,128,TMLRTSHT00015257;799.00;<p>Regular Length, Round Neck, Print On Front Side, Slim Fit, 100 % Cotton</p>;;<p>Do Not Bleach, Regular Machine wash,</p>;;;NA;;zerotype;;Spring;;No
4424075;1038820.00.10_2661_XL-Grey-4424075;Tom Tailor Mens Solid Casual T Shirt;Draft;Tshirts;Tom Tailor;Adults-Men;Men;Grey;;;Fashion;;2018;L,TMLRTSHT00015250,M,TMLRTSHT00015251,S,TMLRTSHT00015252,XL,TMLRTSHT00015253;1199.00;<p>Regular Length, Round Neck, Solid On Front Side, Slim Fit, 80 % Cotton 20% Polyester , Model Is Wearing M</p>;;<p>Do Not Bleach, Regular Machine wash, 80% Cotton 20% Polyster</p>;;;NA;;zerotype;;Spring;;No
4424074;1039102.00.30_6944_128-Black-4424074;Tom Tailor Boys Solid Casual Hood;Draft;Tshirts;Tom Tailor;Kids-Boys;Boys;Black;;;Fashion;;2018;164,TMLRTSHT00015245,152,TMLRTSHT00015246,176,TMLRTSHT00015247,140,TMLRTSHT00015248,128,TMLRTSHT00015249;1799.00;<p>Boys Solid Casual Hood</p>;;<p>Do Not Bleach, Regular Machine wash,</p>;;;NA;;zerotype;;Spring;;No
4424073;1038819.00.10_6811_XL-Navy Blue-4424073;Tom Tailor Mens Printed Casual T Shirt;Draft;Tshirts;Tom Tailor;Adults-Men;Men;Navy Blue;;;Fashion;;2018;L,TMLRTSHT00015241,M,TMLRTSHT00015242,S,TMLRTSHT00015243,XL,TMLRTSHT00015244;1199.00;<p>Regular Length, Round Neck, Print On Front Side, Slim Fit, 60 % Cotton 40% Polyester , Model Is Wearing M</p>;;<p>Do Not Bleach, Regular Machine wash, 60% Cotton 40% Polyster</p>;;;NA;;zerotype;;Spring;;No
4424072;1039118.00.30_8005_128-White-4424072;Tom Tailor Boys Solid Casual T Shirt;Draft;Tshirts;Tom Tailor;Kids-Boys;Boys;White;;;Fashion;;2018;164,TMLRTSHT00015236,152,TMLRTSHT00015237,140,TMLRTSHT00015238,176,TMLRTSHT00015239,128,TMLRTSHT00015240;1099.00;<p>Boys Solid Casual T Shirt</p>;;<p>Do Not Bleach, Regular Machine wash,</p>;;;NA;;zerotype;;Spring;;No
4424071;1039146.00.30_8353_140-Cream-4424071;Tom Tailor Boys Solid Casual T Shirt;Draft;Tshirts;Tom Tailor;Kids-Boys;Boys;Cream;;;Fashion;;2018;176,TMLRTSHT00015231,128,TMLRTSHT00015232,164,TMLRTSHT00015233,152,TMLRTSHT00015234,140,TMLRTSHT00015235;999.00;<p>Regular Length, Round Neck, Solid, Slim Fit</p>;;<p>Do Not Bleach, Regular Machine wash,</p>;;;NA;;zerotype;;Spring;;No
4424070;1038820.00.10_6811_XL-Blue-4424070;Tom Tailor Mens Solid Casual T Shirt;Draft;Tshirts;Tom Tailor;Adults-Men;Men;Blue;;;Fashion;;2018;L,TMLRTSHT00015227,M,TMLRTSHT00015228,S,TMLRTSHT00015229,XL,TMLRTSHT00015230;1199.00;<p>Regular Length, Round Neck, Solid On Front Side, Slim Fit, 80 % Cotton 20% Polyester , Model Is Wearing M</p>;;<p>Do Not Bleach, Regular Machine wash, 80% Cotton 20% Polyster</p>;;;NA;;zerotype;;Spring;;No
4424069;1039091.00.40_6593_152-White Blue-4424069;Tom Tailor Women Printed Casual T Shirt;Draft;Tshirts;Tom Tailor;Kids-Girls;Girls;White;Blue;;Fashion;;2018;140,TMLRTSHT00015222,128,TMLRTSHT00015223,176,TMLRTSHT00015224,164,TMLRTSHT00015225,152,TMLRTSHT00015226;1299.00;<p>Women Printed Casual T Shirt</p>;;<p>Do Not Bleach, Regular Machine wash,</p>;;;NA;;zerotype;;Spring;;No
4424068;1531158.00.10_7813_XL-Olive-4424068;Tom Tailor Mens Printed Polo T Shirt;Draft;Tshirts;Tom Tailor;Adults-Men;Men;Olive;;;Fashion;;2018;L,TMLRTSHT00015218,M,TMLRTSHT00015219,S,TMLRTSHT00015220,XL,TMLRTSHT00015221;1999.00;<p>Regular Length, Collar Neck, Stripes On Front Side, Slim Fit, 100 % Cotton, Model Is Wearing M</p>;;<p>Do Not Bleach, Regular Machine wash,</p>;;;NA;;zerotype;;Spring;;No
4424067;1039118.00.30_2482_164-Grey-4424067;Tom Tailor Boys Solid Casual T Shirt;Draft;Tshirts;Tom Tailor;Kids-Boys;Boys;Grey;;;Fashion;;2018;152,TMLRTSHT00015213,140,TMLRTSHT00015214,128,TMLRTSHT00015215,176,TMLRTSHT00015216,164,TMLRTSHT00015217;1099.00;<p>Boys Solid Casual T Shirt</p>;;<p>Do Not Bleach, Regular Machine wash,</p>;;;NA;;zerotype;;Spring;;No
4424066;1038391.00.30_1000_164-Off White-4424066;Tom Tailor Boys Printed Casual T Shirt;Draft;Tshirts;Tom Tailor;Kids-Boys;Boys;Off White;;;Fashion;;2018;140,TMLRTSHT00015210,152,TMLRTSHT00015211,164,TMLRTSHT00015212;999.00;<p>Regular Length, Round Neck, Print On Front Side, Slim Fit, 60 % Cotton 40% Polyester , Model Is Wearing M</p>;;<p>Do Not Bleach, Regular Machine wash,</p>;;;NA;;zerotype;;Spring;;No
4424065;1038086.03.12_6621_XXL-White-4424065;Tom Tailor Mens Printed Casual T Shirt;Draft;Tshirts;Tom Tailor;Adults-Men;Men;White;;;Fashion;;2018;L,TMLRTSHT00015205,M,TMLRTSHT00015206,S,TMLRTSHT00015207,XL,TMLRTSHT00015208,XXL,TMLRTSHT00015209;1499.00;<p>Regular Length, Round Neck, Print On Front Side, Slim Fit, 93 % Cotton 7% Polyester, Model Is Wearing M</p>;;<p>Do Not Bleach, Regular Machine wash, 93% Cotton 7% Polyster</p>;;;NA;;zerotype;;Spring;;No
4424064;1055168.00.12_6576_XL-Navy Blue-4424064;Tom Tailor Mens Printed Casual T Shirt;Draft;Tshirts;Tom Tailor;Adults-Men;Men;Navy Blue;;;Fashion;;2018;L,TMLRTSHT00015201,M,TMLRTSHT00015202,S,TMLRTSHT00015203,XL,TMLRTSHT00015204;999.00;<p>Regular Length, Round Neck, Print On Front Side, Slim Fit, 100 % Cotton, Model Is Wearing M</p>;;<p>Do Not Bleach, Regular Machine wash,</p>;;;NA;;zerotype;;Spring;;No
4424063;1038819.00.10_7813_XL-Olive-4424063;Tom Tailor Mens Printed Casual T Shirt;Draft;Tshirts;Tom Tailor;Adults-Men;Men;Olive;;;Fashion;;2018;L,TMLRTSHT00015197,M,TMLRTSHT00015198,S,TMLRTSHT00015199,XL,TMLRTSHT00015200;1199.00;<p>Regular Length, Round Neck, Solid On Front Side, Slim Fit, 60 % Cotton 40% Polyester , Model Is Wearing M</p>;;<p>Do Not Bleach, Regular Machine wash, 60% Cotton 40% Polyster</p>;;;NA;;zerotype;;Spring;;No
4424062;1038245.09.12_7807_XXL-Olive-4424062;Tom Tailor Mens Printed Casual T Shirt;Draft;Tshirts;Tom Tailor;Adults-Men;Men;Olive;;;Fashion;;2018;L,TMLRTSHT00015192,M,TMLRTSHT00015193,S,TMLRTSHT00015194,XL,TMLRTSHT00015195,XXL,TMLRTSHT00015196;1299.00;<p>Regular Length, Round Neck, Print On Front Side, Slim Fit, 60 % Cotton 40% Polyester , Model Is Wearing M</p>;;<p>Do Not Bleach, Regular Machine wash, 60% Cotton 40% Polyster</p>;;;NA;;zerotype;;Spring;;No
4424061;1039118.00.30_7498_140-Yellow-4424061;Tom Tailor Boys Solid Casual T Shirt;Draft;Tshirts;Tom Tailor;Kids-Boys;Boys;Yellow;;;Fashion;;2018;176,TMLRTSHT00015187,164,TMLRTSHT00015188,128,TMLRTSHT00015189,152,TMLRTSHT00015190,140,TMLRTSHT00015191;1099.00;<p>Boys Solid Casual T Shirt</p>;;<p>Do Not Bleach, Regular Machine wash,</p>;;;NA;;zerotype;;Spring;;No
4424060;1037807.00.71_6718_XS-Blue White-4424060;Tom Tailor Women Stripes T - Shirts;Draft;Tshirts;Tom Tailor;Adults-Women;Women;Blue;White;;Fashion;;2018;L,TMLRTSHT00015182,M,TMLRTSHT00015183,S,TMLRTSHT00015184,XL,TMLRTSHT00015185,XS,TMLRTSHT00015186;1799.00;<p>Regular Length, Crew - Neck, Regular Fit, 8 % Elastic,92% Viscose</p>;;<p>Do Not Bleach, Regular Machine wash, 92% Viscose 8% Elastic</p>;;;NA;;zerotype;;Spring;;No
4424059;1055173.00.12_2752_XL-Grey-4424059;Tom Tailor Mens Printed Casual T Shirt;Draft;Tshirts;Tom Tailor;Adults-Men;Men;Grey;;;Fashion;;2018;L,TMLRTSHT00015178,M,TMLRTSHT00015179,S,TMLRTSHT00015180,XL,TMLRTSHT00015181;999.00;<p>Regular Length, Round Neck, Print On Front Side, Slim Fit, 100 % Cotton, Model Is Wearing M</p>;;<p>Do Not Bleach, Regular Machine wash,</p>;;;NA;;zerotype;;Spring;;No
4424058;1039070.00.40_6593_128-White Blue-4424058;Tom Tailor Girls Printed Casual T Shirt;Draft;Tshirts;Tom Tailor;Kids-Girls;Girls;White;Blue;;Fashion;;2018;164,TMLRTSHT00015173,152,TMLRTSHT00015174,140,TMLRTSHT00015175,176,TMLRTSHT00015176,128,TMLRTSHT00015177;1299.00;<p>Girls Printed Casual T Shirt</p>;;<p>Do Not Bleach, Regular Machine wash,</p>;;;NA;;zerotype;;Spring;;No
4424057;1038831.00.30_4520_164-Peach-4424057;Tom Tailor Boys Printed Casual T Shirt;Draft;Tshirts;Tom Tailor;Kids-Boys;Boys;Peach;;;Fashion;;2018;176,TMLRTSHT00015169,152,TMLRTSHT00015170,140,TMLRTSHT00015171,164,TMLRTSHT00015172;999.00;<p>Regular Length, Round Neck, Print On Front Side, Slim Fit, 100 % Cotton</p>;;<p>Do Not Bleach, Regular Machine wash,</p>;;;NA;;zerotype;;Spring;;No
4424056;1039091.00.40_4798_152-White Pink-4424056;Tom Tailor Women Printed Casual T Shirt;Draft;Tshirts;Tom Tailor;Kids-Girls;Girls;White;Pink;;Fashion;;2018;140,TMLRTSHT00015165,128,TMLRTSHT00015166,164,TMLRTSHT00015167,152,TMLRTSHT00015168;1299.00;<p>Women Printed Casual T Shirt</p>;;<p>Do Not Bleach, Regular Machine wash,</p>;;;NA;;zerotype;;Spring;;No
4424055;1039146.00.30_6680_164-Purple-4424055;Tom Tailor Boys Solid Casual T Shirt;Draft;Tshirts;Tom Tailor;Kids-Boys;Boys;Purple;;;Fashion;;2018;152,TMLRTSHT00015160,176,TMLRTSHT00015161,140,TMLRTSHT00015162,128,TMLRTSHT00015163,164,TMLRTSHT00015164;999.00;<p>Boys Solid Casual T Shirt</p>;;<p>Do Not Bleach, Regular Machine wash,</p>;;;NA;;zerotype;;Spring;;No
4424054;1055300.00.71_1008_XS-Green White-4424054;Tom Tailor Women Stripes Casual T Shirt;Draft;Tshirts;Tom Tailor;Adults-Women;Women;Green;White;;Fashion;;2018;L,TMLRTSHT00015155,M,TMLRTSHT00015156,S,TMLRTSHT00015157,XL,TMLRTSHT00015158,XS,TMLRTSHT00015159;1199.00;<p>Regular Length, V - Neck, Print On Front Side, Slim Fit, 63 % Polyester 3% Elastic</p>;;<p>Do Not Bleach, Regular Machine wash, 65%Polyester Viscose 3% Elastic</p>;;;NA;;zerotype;;Spring;;No
4424053;1039118.00.30_6680_152-Blue-4424053;Tom Tailor Boys Solid Casual T Shirt;Draft;Tshirts;Tom Tailor;Kids-Boys;Boys;Blue;;;Fashion;;2018;140,TMLRTSHT00015150,128,TMLRTSHT00015151,176,TMLRTSHT00015152,164,TMLRTSHT00015153,152,TMLRTSHT00015154;1099.00;<p>Boys Solid Casual T Shirt</p>;;<p>Do Not Bleach, Regular Machine wash,</p>;;;NA;;zerotype;;Spring;;No
4424052;1038899.00.30_2808_140-Black-4424052;Tom Tailor Boys Printed Casual T Shirt;Draft;Tshirts;Tom Tailor;Kids-Boys;Boys;Black;;;Fashion;;2018;176,TMLRTSHT00015146,164,TMLRTSHT00015147,152,TMLRTSHT00015148,140,TMLRTSHT00015149;1499.00;<p>Regular Length, Round Neck, Print On Front Side, Slim Fit, 100 % Cotton</p>;;<p>Do Not Bleach, Regular Machine wash,</p>;;;NA;;zerotype;;Spring;;No
4424051;2033972.00.40_4798_164-White-4424051;Tom Tailor Girls Casual Shirt;Draft;Shirts;Tom Tailor;Kids-Girls;Girls;White;;;Fashion;;2018;152,TMLRSHRT00004451,140,TMLRSHRT00004452,128,TMLRSHRT00004453,176,TMLRSHRT00004454,164,TMLRSHRT00004455;1499.00;<p>Girls Casual Shirt</p>;;<p>Do Not Bleach, Regular Machine Wash</p>;;;NA;;zerotype;;Summer;;No
4424050;2033972.00.40_6593_128-White-4424050;Tom Tailor Girls Casual Shirt;Draft;Shirts;Tom Tailor;Kids-Girls;Girls;White;;;Fashion;;2018;176,TMLRSHRT00004446,164,TMLRSHRT00004447,152,TMLRSHRT00004448,140,TMLRSHRT00004449,128,TMLRSHRT00004450;1499.00;<p>Girls Casual Shirt</p>;;<p>Do Not Bleach, Regular Machine Wash</p>;;;NA;;zerotype;;Summer;;No
