Style ID;Vendor Article Number;Vendor Article Name;Active Status;Article type;Brand;Age Group;Gender;Base Colour;Colour1;Colour2;Fashion Type;Usage;Year;Size - SKU code pair;MRP;Style Description;Style Note;Materials and Care Description;Size and Fit Description;Size Chart Path;Product Display Name;Tags;Product Type;Classification Brand;Season;Comments;Upload Images
2080883;C531-Peach-2080883;3 Pcs Set;Draft;Lounge Set;Clt.s;Adults-Women;Women;;;;Fashion;;2017;S,CLTSLGST00000614,M,CLTSLGST00000615,L,CLTSLGST00000616,XL,CLTSLGST00000617;1299.00;;;;;;;;zerotype;;Summer;;No
2080864;C453-Pink-2080864;3 Pcs Set;Draft;Lounge Set;Clt.s;Adults-Women;Women;;;;Fashion;;2017;S,CLTSLGST00000563,M,CLTSLGST00000564,L,CLTSLGST00000565,XL,CLTSLGST00000566;1299.00;;;;;;;;zerotype;;Summer;;No
2080863;C452-Blue-2080863;3 Pcs Set;Draft;Lounge Set;Clt.s;Adults-Women;Women;;;;Fashion;;2017;S,CLTSLGST00000560,M,CLTSLGST00000561,L,CLTSLGST00000562;1199.00;;;;;;;;zerotype;;Summer;;No
2080861;C449-Red-2080861;3 Pcs Set;Draft;Lounge Set;Clt.s;Adults-Women;Women;;;;Fashion;;2017;S,CLTSLGST00000556,M,CLTSLGST00000557,L,CLTSLGST00000558,XL,CLTSLGST00000559;1249.00;;;;;;;;zerotype;;Summer;;No
2080860;C447-Orange-2080860;3 Pcs Set;Draft;Lounge Set;Clt.s;Adults-Women;Women;;;;Fashion;;2017;S,CLTSLGST00000552,M,CLTSLGST00000553,L,CLTSLGST00000554,XL,CLTSLGST00000555;1299.00;;;;;;;;zerotype;;Summer;;No
2080843;C407-Multi-2080843;3 Pcs Set;Draft;Lounge Set;Clt.s;Adults-Women;Women;;;;Fashion;;2017;S,CLTSLGST00000508,M,CLTSLGST00000509,L,CLTSLGST00000510,XL,CLTSLGST00000511;1399.00;;;;;;;;zerotype;;Summer;;No
2080842;C406-Multi-2080842;3 Pcs Set;Draft;Lounge Set;Clt.s;Adults-Women;Women;;;;Fashion;;2017;S,CLTSLGST00000504,M,CLTSLGST00000505,L,CLTSLGST00000506,XL,CLTSLGST00000507;1399.00;;;;;;;;zerotype;;Summer;;No
2080828;C329-Peach-2080828;3 Pcs Set;Draft;Lounge Set;Clt.s;Adults-Women;Women;;;;Fashion;;2017;S,CLTSLGST00000466,M,CLTSLGST00000467,L,CLTSLGST00000468,XL,CLTSLGST00000469;1499.00;;;;;;;;zerotype;;Summer;;No
2080826;C328-Blue-2080826;3 Pcs Set;Draft;Lounge Set;Clt.s;Adults-Women;Women;;;;Fashion;;2017;S,CLTSLGST00000462,M,CLTSLGST00000463,L,CLTSLGST00000464,XL,CLTSLGST00000465;1399.00;;;;;;;;zerotype;;Summer;;No
2080820;C247-Multi-2080820;3 Pcs Set;Draft;Lounge Set;Clt.s;Adults-Women;Women;;;;Fashion;;2017;S,CLTSLGST00000446,M,CLTSLGST00000447,L,CLTSLGST00000448,XL,CLTSLGST00000449;1299.00;;;;;;;;zerotype;;Summer;;No
2080805;L132-Black-2080805;3 Pcs Set;Draft;Night suits;Clt.s;Adults-Women;Women;;;;Fashion;;2017;S,CLTSNTST00000084,M,CLTSNTST00000085,L,CLTSNTST00000086;1699.00;;;;;;;;zerotype;;Summer;;No
1437727;L103-Black-1437727;Night Suit;Draft;Night suits;Clt.s;Adults-Women;Women;;;;Fashion;Casual;2017;S,CLTSNTST00000025,M,CLTSNTST00000026,L,CLTSNTST00000027,XL,CLTSNTST00000028;1399.00;;;;;;;;zerotype;;Summer;season_Update_25Apr;No
