Style ID;Vendor Article Number;Vendor Article Name;Active Status;Article type;Brand;Age Group;Gender;Base Colour;Colour1;Colour2;Fashion Type;Usage;Year;Size - SKU code pair;MRP;Style Description;Style Note;Materials and Care Description;Size and Fit Description;Size Chart Path;Product Display Name;Tags;Product Type;Classification Brand;Season;Comments;Upload Images
4261704;P1C217318HSS219-Black-4261704;Shorts;Draft;Shorts;People;Adults-Men;Men;Black;;;Core;Casual;2017;28,PEPLSHOR00001823,38,PEPLSHOR00001824,36,PEPLSHOR00001825,34,PEPLSHOR00001826,32,PEPLSHOR00001827,30,PEPLSHOR00001828;799.00;;;<p>100% Cotton</p>;;;na;;zerotype;;Winter;;No
4261703;P1C216318CPS213-Blue-4261703;Shirts;Draft;Shirts;People;Adults-Men;Men;Blue;;;Core;;2017;46,PEPLSHRT00009371,44,PEPLSHRT00009372,42,PEPLSHRT00009373,40,PEPLSHRT00009374,39,PEPLSHRT00009375,38,PEPLSHRT00009376;999.00;;;<p>100% Cotton</p>;;;na;;zerotype;;Winter;;No
4261702;P1C216318OX2213-Blue-4261702;Shirts;Draft;Shirts;People;Adults-Men;Men;Blue;;;Core;;2017;46,PEPLSHRT00009365,44,PEPLSHRT00009366,42,PEPLSHRT00009367,40,PEPLSHRT00009368,39,PEPLSHRT00009369,38,PEPLSHRT00009370;1199.00;;;<p>100% Cotton</p>;;;na;;zerotype;;Winter;;No
4261701;P1C216318OBC100-Grey Black-4261701;Shirts;Draft;Shirts;People;Adults-Men;Men;Grey;Black;;Core;Casual;2017;46,PEPLSHRT00009359,44,PEPLSHRT00009360,42,PEPLSHRT00009361,40,PEPLSHRT00009362,39,PEPLSHRT00009363,38,PEPLSHRT00009364;1199.00;;;<p>100% Cotton</p>;;;na;;zerotype;;Winter;;No
