Style ID;Vendor Article Number;Vendor Article Name;Active Status;Article type;Brand;Age Group;Gender;Base Colour;Colour1;Colour2;Fashion Type;Usage;Year;Size - SKU code pair;MRP;Style Description;Style Note;Materials and Care Description;Size and Fit Description;Size Chart Path;Product Display Name;Tags;Product Type;Classification Brand;Season;Comments;Upload Images
1885385;NN00242DRS-Navy-1885385;Naughty Ninos Navy Printed Jumpsuit;Draft;Jumpsuit;naughty ninos;Kids-Girls;Girls;;;;Fashion;;2017;2-3Y,NYNSJMST00000275,3-4Y,NYNSJMST00000276,4-5Y,NYNSJMST00000277,5-6Y,NYNSJMST00000278,6-7Y,NYNSJMST00000279,7-8Y,NYNSJMST00000280,9-10Y,NYNSJMST00000281,11-12Y,NYNSJMST00000282;1499.00;;;;;;;;zerotype;;Summer;;No
1885384;NN00235DRS-Black-1885384;Naughty Ninos Black Printed Rayon Jumpsuit;Draft;Jumpsuit;naughty ninos;Kids-Girls;Girls;;;;Fashion;;2017;2-3Y,NYNSJMST00000267,3-4Y,NYNSJMST00000268,4-5Y,NYNSJMST00000269,5-6Y,NYNSJMST00000270,6-7Y,NYNSJMST00000271,7-8Y,NYNSJMST00000272,9-10Y,NYNSJMST00000273,11-12Y,NYNSJMST00000274;1499.00;;;;;;;;zerotype;;Summer;;No
1885382;NEW0108DRS-Navy-1885382;Naughty Ninos Girls Navy Printed Jumpsuit;Draft;Jumpsuit;naughty ninos;Kids-Girls;Girls;;;;Fashion;;2017;2-3Y,NYNSJMST00000259,3-4Y,NYNSJMST00000260,4-5Y,NYNSJMST00000261,5-6Y,NYNSJMST00000262,6-7Y,NYNSJMST00000263,7-8Y,NYNSJMST00000264,9-10Y,NYNSJMST00000265,11-12Y,NYNSJMST00000266;1299.00;;;;;;;;zerotype;;Summer;;No
1885381;NN00244DRS-Red-1885381;Naughty Ninos Red Rose printed Party Dress;Draft;Dresses;naughty ninos;Kids-Girls;Girls;;;;Fashion;;2017;2-3Y,NYNSDRSS00001075,3-4Y,NYNSDRSS00001076,4-5Y,NYNSDRSS00001077,5-6Y,NYNSDRSS00001078,6-7Y,NYNSDRSS00001079,7-8Y,NYNSDRSS00001080,9-10Y,NYNSDRSS00001081,11-12Y,NYNSDRSS00001082;1499.00;;;;;;;;zerotype;;Summer;;No
1885380;NN00243DRS-Multi-1885380;Naughty Ninos Floral Printed Party Dress;Draft;Dresses;naughty ninos;Kids-Girls;Girls;;;;Fashion;;2017;2-3Y,NYNSDRSS00001067,3-4Y,NYNSDRSS00001068,4-5Y,NYNSDRSS00001069,5-6Y,NYNSDRSS00001070,6-7Y,NYNSDRSS00001071,7-8Y,NYNSDRSS00001072,9-10Y,NYNSDRSS00001073,11-12Y,NYNSDRSS00001074;1499.00;;;;;;;;zerotype;;Summer;;No
