Style ID;Vendor Article Number;Vendor Article Name;Active Status;Article type;Brand;Age Group;Gender;Base Colour;Colour1;Colour2;Fashion Type;Usage;Year;Size - SKU code pair;MRP;Style Description;Style Note;Materials and Care Description;Size and Fit Description;Size Chart Path;Product Display Name;Tags;Product Type;Classification Brand;Season;Comments;Upload Images
1944708;7613113522548-Green-1944708;T-Shirt Bra 98 WDP;Draft;Bra;Triumph;Adults-Women;Women;Green;;;Core;;2017;32B,TRIHBRAA00005668,34B,TRIHBRAA00005669,36B,TRIHBRAA00005670,32C,TRIHBRAA00005671,34C,TRIHBRAA00005672,36C,TRIHBRAA00005673,38C,TRIHBRAA00005674,32D,TRIHBRAA00005675,34D,TRIHBRAA00005676,36D,TRIHBRAA00005677,38D,TRIHBRAA00005678;1299.00;;;;;;;;zerotype;;Spring;;No
1944706;7613113522432-Blue-1944706;T-Shirt Bra 98 WDP;Draft;Bra;Triumph;Adults-Women;Women;Blue;;;Core;;2017;32B,TRIHBRAA00005657,34B,TRIHBRAA00005658,36B,TRIHBRAA00005659,32C,TRIHBRAA00005660,34C,TRIHBRAA00005661,36C,TRIHBRAA00005662,38C,TRIHBRAA00005663,32D,TRIHBRAA00005664,34D,TRIHBRAA00005665,36D,TRIHBRAA00005666,38D,TRIHBRAA00005667;1299.00;;;;;;;;zerotype;;Spring;;No
1944705;7613113522760-Green-1944705;T-Shirt Bra 98 WP;Draft;Bra;Triumph;Adults-Women;Women;Green;;;Core;;2017;32B,TRIHBRAA00005646,34B,TRIHBRAA00005647,36B,TRIHBRAA00005648,32C,TRIHBRAA00005649,34C,TRIHBRAA00005650,36C,TRIHBRAA00005651,38C,TRIHBRAA00005652,32D,TRIHBRAA00005653,34D,TRIHBRAA00005654,36D,TRIHBRAA00005655,38D,TRIHBRAA00005656;1199.00;;;;;;;;zerotype;;Spring;;No
1944704;7613113522654-Blue-1944704;T-Shirt Bra 98 WP;Draft;Bra;Triumph;Adults-Women;Women;Blue;;;Core;;2017;32B,TRIHBRAA00005635,34B,TRIHBRAA00005636,36B,TRIHBRAA00005637,32C,TRIHBRAA00005638,34C,TRIHBRAA00005639,36C,TRIHBRAA00005640,38C,TRIHBRAA00005641,32D,TRIHBRAA00005642,34D,TRIHBRAA00005643,36D,TRIHBRAA00005644,38D,TRIHBRAA00005645;1199.00;;;;;;;;zerotype;;Spring;;No
1944702;7613113521619-Blue-1944702;T-Shirt Bra 98 P;Draft;Bra;Triumph;Adults-Women;Women;Blue;;;Core;;2017;32B,TRIHBRAA00005628,34B,TRIHBRAA00005629,36B,TRIHBRAA00005630,32C,TRIHBRAA00005631,34C,TRIHBRAA00005632,36C,TRIHBRAA00005633,38C,TRIHBRAA00005634;1199.00;;;;;;;;zerotype;;Spring;;No
1944701;7613113523439-Blue-1944701;Triaction 103 Top;Draft;Bra;Triumph;Adults-Women;Women;Blue;;;Fashion;;2017;L,TRIHBRAA00005623,M,TRIHBRAA00005624,S,TRIHBRAA00005625,XL,TRIHBRAA00005626,XXL,TRIHBRAA00005627;1799.00;;;;;;;;zerotype;;Spring;;No
1944700;7613113522982-Purple-1944700;Minimizer 21 W;Draft;Bra;Triumph;Adults-Women;Women;Purple;;;Core;;2017;34C,TRIHBRAA00005608,36C,TRIHBRAA00005609,38C,TRIHBRAA00005610,34D,TRIHBRAA00005611,36D,TRIHBRAA00005612,38D,TRIHBRAA00005613,40D,TRIHBRAA00005614,34E,TRIHBRAA00005615,36E,TRIHBRAA00005616,38E,TRIHBRAA00005617,40E,TRIHBRAA00005618,34F,TRIHBRAA00005619,36F,TRIHBRAA00005620,38F,TRIHBRAA00005621,40F,TRIHBRAA00005622;1399.00;;;;;;;;zerotype;;Spring;;No
1944698;7613113514185-Grey-1944698;Minimizer 112 W;Draft;Bra;Triumph;Adults-Women;Women;Grey;;;Fashion;;2017;34C,TRIHBRAA00005593,36C,TRIHBRAA00005594,38C,TRIHBRAA00005595,34D,TRIHBRAA00005596,36D,TRIHBRAA00005597,38D,TRIHBRAA00005598,40D,TRIHBRAA00005599,34E,TRIHBRAA00005600,36E,TRIHBRAA00005601,38E,TRIHBRAA00005602,40E,TRIHBRAA00005603,34F,TRIHBRAA00005604,36F,TRIHBRAA00005605,38F,TRIHBRAA00005606,40F,TRIHBRAA00005607;1599.00;;;;;;;;zerotype;;Spring;;No
1944696;7613113513980-Black-1944696;Minimizer 112 W;Draft;Bra;Triumph;Adults-Women;Women;Black;;;Fashion;;2017;34C,TRIHBRAA00005578,36C,TRIHBRAA00005579,38C,TRIHBRAA00005580,34D,TRIHBRAA00005581,36D,TRIHBRAA00005582,38D,TRIHBRAA00005583,40D,TRIHBRAA00005584,34E,TRIHBRAA00005585,36E,TRIHBRAA00005586,38E,TRIHBRAA00005587,40E,TRIHBRAA00005588,34F,TRIHBRAA00005589,36F,TRIHBRAA00005590,38F,TRIHBRAA00005591,40F,TRIHBRAA00005592;1599.00;;;;;;;;zerotype;;Spring;;No
1944695;7613113513621-Grey-1944695;Minimizer 112 N;Draft;Bra;Triumph;Adults-Women;Women;Grey;;;Fashion;;2017;34C,TRIHBRAA00005561,36C,TRIHBRAA00005562,38C,TRIHBRAA00005563,34D,TRIHBRAA00005564,36D,TRIHBRAA00005565,38D,TRIHBRAA00005566,40D,TRIHBRAA00005567,34E,TRIHBRAA00005568,36E,TRIHBRAA00005569,38E,TRIHBRAA00005570,40E,TRIHBRAA00005571,34F,TRIHBRAA00005572,36F,TRIHBRAA00005573,38F,TRIHBRAA00005574,40F,TRIHBRAA00005575,38G,TRIHBRAA00005576,40G,TRIHBRAA00005577;1599.00;;;;;;;;zerotype;;Spring;;No
1944694;7613113513423-Black-1944694;Minimizer 112 N;Draft;Bra;Triumph;Adults-Women;Women;Black;;;Fashion;;2017;34C,TRIHBRAA00005544,36C,TRIHBRAA00005545,38C,TRIHBRAA00005546,34D,TRIHBRAA00005547,36D,TRIHBRAA00005548,38D,TRIHBRAA00005549,40D,TRIHBRAA00005550,34E,TRIHBRAA00005551,36E,TRIHBRAA00005552,38E,TRIHBRAA00005553,40E,TRIHBRAA00005554,34F,TRIHBRAA00005555,36F,TRIHBRAA00005556,38F,TRIHBRAA00005557,40F,TRIHBRAA00005558,38G,TRIHBRAA00005559,40G,TRIHBRAA00005560;1599.00;;;;;;;;zerotype;;Spring;;No
1944691;7613113519050-Skin-1944691;Form & Beauty 115 F;Draft;Bra;Triumph;Adults-Women;Women;Skin;;;Fashion;;2017;34C,TRIHBRAA00005525,36C,TRIHBRAA00005526,38C,TRIHBRAA00005527,40C,TRIHBRAA00005528,34D,TRIHBRAA00005529,36D,TRIHBRAA00005530,38D,TRIHBRAA00005531,40D,TRIHBRAA00005532,42D,TRIHBRAA00005533,34E,TRIHBRAA00005534,36E,TRIHBRAA00005535,38E,TRIHBRAA00005536,40E,TRIHBRAA00005537,42E,TRIHBRAA00005538,34F,TRIHBRAA00005539,36F,TRIHBRAA00005540,38F,TRIHBRAA00005541,40F,TRIHBRAA00005542,42F,TRIHBRAA00005543;1099.00;;;;;;;;zerotype;;Spring;;No
1944690;7613113523330-Blue-1944690;Comfort 67 W;Draft;Bra;Triumph;Adults-Women;Women;Blue;;;Fashion;;2017;32B,TRIHBRAA00005514,34B,TRIHBRAA00005515,36B,TRIHBRAA00005516,32C,TRIHBRAA00005517,34C,TRIHBRAA00005518,36C,TRIHBRAA00005519,38C,TRIHBRAA00005520,32D,TRIHBRAA00005521,34D,TRIHBRAA00005522,36D,TRIHBRAA00005523,38D,TRIHBRAA00005524;899.00;;;;;;;;zerotype;;Spring;;No
1944689;7613113523217-Red-1944689;Comfort 67 W;Draft;Bra;Triumph;Adults-Women;Women;Red;;;Fashion;;2017;32B,TRIHBRAA00005503,34B,TRIHBRAA00005504,36B,TRIHBRAA00005505,32C,TRIHBRAA00005506,34C,TRIHBRAA00005507,36C,TRIHBRAA00005508,38C,TRIHBRAA00005509,32D,TRIHBRAA00005510,34D,TRIHBRAA00005511,36D,TRIHBRAA00005512,38D,TRIHBRAA00005513;899.00;;;;;;;;zerotype;;Spring;;No
1944688;7613113521312-Blue-1944688;Comfort 67 N;Draft;Bra;Triumph;Adults-Women;Women;Blue;;;Fashion;;2017;32B,TRIHBRAA00005496,34B,TRIHBRAA00005497,36B,TRIHBRAA00005498,32C,TRIHBRAA00005499,34C,TRIHBRAA00005500,36C,TRIHBRAA00005501,38C,TRIHBRAA00005502;899.00;;;;;;;;zerotype;;Spring;;No
1944686;7613113521206-Red-1944686;Comfort 67 N;Draft;Bra;Triumph;Adults-Women;Women;Red;;;Fashion;;2017;32B,TRIHBRAA00005489,34B,TRIHBRAA00005490,36B,TRIHBRAA00005491,32C,TRIHBRAA00005492,34C,TRIHBRAA00005493,36C,TRIHBRAA00005494,38C,TRIHBRAA00005495;899.00;;;;;;;;zerotype;;Spring;;No
1944685;7613113519623-White-1944685;Beauty-Full 114 WHP;Draft;Bra;Triumph;Adults-Women;Women;White;;;Fashion;;2017;34B,TRIHBRAA00005478,36B,TRIHBRAA00005479,34C,TRIHBRAA00005480,36C,TRIHBRAA00005481,38C,TRIHBRAA00005482,34D,TRIHBRAA00005483,36D,TRIHBRAA00005484,38D,TRIHBRAA00005485,34E,TRIHBRAA00005486,36E,TRIHBRAA00005487,38E,TRIHBRAA00005488;1599.00;;;;;;;;zerotype;;Spring;;No
1944683;7613113519494-Blue-1944683;Beauty-Full 114 WHP;Draft;Bra;Triumph;Adults-Women;Women;Blue;;;Fashion;;2017;34B,TRIHBRAA00005467,36B,TRIHBRAA00005468,34C,TRIHBRAA00005469,36C,TRIHBRAA00005470,38C,TRIHBRAA00005471,34D,TRIHBRAA00005472,36D,TRIHBRAA00005473,38D,TRIHBRAA00005474,34E,TRIHBRAA00005475,36E,TRIHBRAA00005476,38E,TRIHBRAA00005477;1599.00;;;;;;;;zerotype;;Spring;;No
1944682;7613113520018-White-1944682;Beauty-Full 114 W;Draft;Bra;Triumph;Adults-Women;Women;White;;;Fashion;;2017;34B,TRIHBRAA00005456,36B,TRIHBRAA00005457,34C,TRIHBRAA00005458,36C,TRIHBRAA00005459,38C,TRIHBRAA00005460,34D,TRIHBRAA00005461,36D,TRIHBRAA00005462,38D,TRIHBRAA00005463,34E,TRIHBRAA00005464,36E,TRIHBRAA00005465,38E,TRIHBRAA00005466;1599.00;;;;;;;;zerotype;;Spring;;No
1944681;7613113519883-Blue-1944681;Beauty-Full 114 W;Draft;Bra;Triumph;Adults-Women;Women;Blue;;;Fashion;;2017;34B,TRIHBRAA00005445,36B,TRIHBRAA00005446,34C,TRIHBRAA00005447,36C,TRIHBRAA00005448,38C,TRIHBRAA00005449,34D,TRIHBRAA00005450,36D,TRIHBRAA00005451,38D,TRIHBRAA00005452,34E,TRIHBRAA00005453,36E,TRIHBRAA00005454,38E,TRIHBRAA00005455;1599.00;;;;;;;;zerotype;;Spring;;No
