Style ID;Vendor Article Number;Vendor Article Name;Active Status;Article type;Brand;Age Group;Gender;Base Colour;Colour1;Colour2;Fashion Type;Usage;Year;Size - SKU code pair;MRP;Style Description;Style Note;Materials and Care Description;Size and Fit Description;Size Chart Path;Product Display Name;Tags;Product Type;Classification Brand;Season;Comments;Upload Images
1861672;XYBOX09-BLUE-1861672;XYXX Men's Boxer Electric Stripe;Draft;Boxers;XYXX;Adults-Men;Men;;;;Core;;2017;S,XYXXBOXR00000265,M,XYXXBOXR00000266,L,XYXXBOXR00000267,XL,XYXXBOXR00000268;600.00;;;;;;;;zerotype;;Summer;;No
1861671;XYBOX08-BLUE-1861671;XYXX Men's Boxer Yoga Pets;Draft;Boxers;XYXX;Adults-Men;Men;;;;Core;;2017;S,XYXXBOXR00000261,M,XYXXBOXR00000262,L,XYXXBOXR00000263,XL,XYXXBOXR00000264;600.00;;;;;;;;zerotype;;Summer;;No
1861670;XYBOX2PCK58-RED-1861670;XYXX Pack of 2 Combed Cotton Boxers;Draft;Boxers;XYXX;Adults-Men;Men;;;;Core;;2017;S,XYXXBOXR00000257,M,XYXXBOXR00000258,L,XYXXBOXR00000259,XL,XYXXBOXR00000260;1200.00;;;;;;;;zerotype;;Summer;;No
1861669;XYBOX2PCK56-RED-1861669;XYXX Pack of 2 Combed Cotton Boxers;Draft;Boxers;XYXX;Adults-Men;Men;;;;Core;;2017;S,XYXXBOXR00000253,M,XYXXBOXR00000254,L,XYXXBOXR00000255,XL,XYXXBOXR00000256;1200.00;;;;;;;;zerotype;;Summer;;No
1861668;XYBOX2PCK55-BLUE-1861668;XYXX Pack of 2 Combed Cotton Boxers;Draft;Boxers;XYXX;Adults-Men;Men;;;;Core;;2017;S,XYXXBOXR00000249,M,XYXXBOXR00000250,L,XYXXBOXR00000251,XL,XYXXBOXR00000252;1200.00;;;;;;;;zerotype;;Summer;;No
1861667;XYBOX2PCK54-BLUE-1861667;XYXX Pack of 2 Combed Cotton Boxers;Draft;Boxers;XYXX;Adults-Men;Men;;;;Core;;2017;S,XYXXBOXR00000245,M,XYXXBOXR00000246,L,XYXXBOXR00000247,XL,XYXXBOXR00000248;1200.00;;;;;;;;zerotype;;Summer;;No
1861666;XYBOX2PCK53-BLUE-1861666;XYXX Pack of 2 Combed Cotton Boxers;Draft;Boxers;XYXX;Adults-Men;Men;;;;Core;;2017;S,XYXXBOXR00000241,M,XYXXBOXR00000242,L,XYXXBOXR00000243,XL,XYXXBOXR00000244;1200.00;;;;;;;;zerotype;;Summer;;No
1861665;XYBOX2PCK52-BLUE-1861665;XYXX Pack of 2 Combed Cotton Boxers;Draft;Boxers;XYXX;Adults-Men;Men;;;;Core;;2017;S,XYXXBOXR00000237,M,XYXXBOXR00000238,L,XYXXBOXR00000239,XL,XYXXBOXR00000240;1200.00;;;;;;;;zerotype;;Summer;;No
1861664;XYBOX2PCK51-BLUE-1861664;XYXX Pack of 2 Combed Cotton Boxers;Draft;Boxers;XYXX;Adults-Men;Men;;;;Core;;2017;S,XYXXBOXR00000233,M,XYXXBOXR00000234,L,XYXXBOXR00000235,XL,XYXXBOXR00000236;1200.00;;;;;;;;zerotype;;Summer;;No
1861663;XYBOX2PCK50-BLUE-1861663;XYXX Pack of 2 Combed Cotton Boxers;Draft;Boxers;XYXX;Adults-Men;Men;;;;Core;;2017;S,XYXXBOXR00000229,M,XYXXBOXR00000230,L,XYXXBOXR00000231,XL,XYXXBOXR00000232;1200.00;;;;;;;;zerotype;;Summer;;No
1861662;XYBOX2PCK48-BLUE-1861662;XYXX Pack of 2 Combed Cotton Boxers;Draft;Boxers;XYXX;Adults-Men;Men;;;;Core;;2017;S,XYXXBOXR00000225,M,XYXXBOXR00000226,L,XYXXBOXR00000227,XL,XYXXBOXR00000228;1200.00;;;;;;;;zerotype;;Summer;;No
1861660;XYBOX2PCK47-BLUE-1861660;XYXX Pack of 2 Combed Cotton Boxers;Draft;Boxers;XYXX;Adults-Men;Men;;;;Core;;2017;S,XYXXBOXR00000221,M,XYXXBOXR00000222,L,XYXXBOXR00000223,XL,XYXXBOXR00000224;1200.00;;;;;;;;zerotype;;Summer;;No
1861659;XYBOX2PCK46-BLUE-1861659;XYXX Pack of 2 Combed Cotton Boxers;Draft;Boxers;XYXX;Adults-Men;Men;;;;Core;;2017;S,XYXXBOXR00000217,M,XYXXBOXR00000218,L,XYXXBOXR00000219,XL,XYXXBOXR00000220;1200.00;;;;;;;;zerotype;;Summer;;No
1861657;XYBOX2PCK45-BLUE-1861657;XYXX Pack of 2 Combed Cotton Boxers;Draft;Boxers;XYXX;Adults-Men;Men;;;;Core;;2017;S,XYXXBOXR00000213,M,XYXXBOXR00000214,L,XYXXBOXR00000215,XL,XYXXBOXR00000216;1200.00;;;;;;;;zerotype;;Summer;;No
1861654;XYBOX2PCK44-BLUE-1861654;XYXX Pack of 2 Combed Cotton Boxers;Draft;Boxers;XYXX;Adults-Men;Men;;;;Core;;2017;S,XYXXBOXR00000209,M,XYXXBOXR00000210,L,XYXXBOXR00000211,XL,XYXXBOXR00000212;1200.00;;;;;;;;zerotype;;Summer;;No
1861653;XYBOX2PCK43-BLUE-1861653;XYXX Pack of 2 Combed Cotton Boxers;Draft;Boxers;XYXX;Adults-Men;Men;;;;Core;;2017;S,XYXXBOXR00000205,M,XYXXBOXR00000206,L,XYXXBOXR00000207,XL,XYXXBOXR00000208;1200.00;;;;;;;;zerotype;;Summer;;No
1861649;XYBOX2PCK42-BLUE-1861649;XYXX Pack of 2 Combed Cotton Boxers;Draft;Boxers;XYXX;Adults-Men;Men;;;;Core;;2017;S,XYXXBOXR00000201,M,XYXXBOXR00000202,L,XYXXBOXR00000203,XL,XYXXBOXR00000204;1200.00;;;;;;;;zerotype;;Summer;;No
1861646;XYBOX2PCK41-BLUE-1861646;XYXX Pack of 2 Combed Cotton Boxers;Draft;Boxers;XYXX;Adults-Men;Men;;;;Core;;2017;S,XYXXBOXR00000197,M,XYXXBOXR00000198,L,XYXXBOXR00000199,XL,XYXXBOXR00000200;1200.00;;;;;;;;zerotype;;Summer;;No
1861643;XYBOX2PCK40-BLUE-1861643;XYXX Pack of 2 Combed Cotton Boxers;Draft;Boxers;XYXX;Adults-Men;Men;;;;Core;;2017;S,XYXXBOXR00000193,M,XYXXBOXR00000194,L,XYXXBOXR00000195,XL,XYXXBOXR00000196;1200.00;;;;;;;;zerotype;;Summer;;No
1861640;XYBOX2PCK39-BLUE-1861640;XYXX Pack of 2 Combed Cotton Boxers;Draft;Boxers;XYXX;Adults-Men;Men;;;;Core;;2017;S,XYXXBOXR00000189,M,XYXXBOXR00000190,L,XYXXBOXR00000191,XL,XYXXBOXR00000192;1200.00;;;;;;;;zerotype;;Summer;;No
1861638;XYBOX2PCK38-BLUE-1861638;XYXX Pack of 2 Combed Cotton Boxers;Draft;Boxers;XYXX;Adults-Men;Men;;;;Core;;2017;S,XYXXBOXR00000185,M,XYXXBOXR00000186,L,XYXXBOXR00000187,XL,XYXXBOXR00000188;1200.00;;;;;;;;zerotype;;Summer;;No
1861634;XYBOX2PCK37-BLUE-1861634;XYXX Pack of 2 Combed Cotton Boxers;Draft;Boxers;XYXX;Adults-Men;Men;;;;Core;;2017;S,XYXXBOXR00000181,M,XYXXBOXR00000182,L,XYXXBOXR00000183,XL,XYXXBOXR00000184;1200.00;;;;;;;;zerotype;;Summer;;No
1861631;XYBOX2PCK35-BLUE-1861631;XYXX Pack of 2 Combed Cotton Boxers;Draft;Boxers;XYXX;Adults-Men;Men;;;;Core;;2017;S,XYXXBOXR00000177,M,XYXXBOXR00000178,L,XYXXBOXR00000179,XL,XYXXBOXR00000180;1200.00;;;;;;;;zerotype;;Summer;;No
1861628;XYBOX2PCK34-BLUE-1861628;XYXX Pack of 2 Combed Cotton Boxers;Draft;Boxers;XYXX;Adults-Men;Men;;;;Core;;2017;S,XYXXBOXR00000173,M,XYXXBOXR00000174,L,XYXXBOXR00000175,XL,XYXXBOXR00000176;1200.00;;;;;;;;zerotype;;Summer;;No
1861624;XYBOX2PCK33-BLUE-1861624;XYXX Pack of 2 Combed Cotton Boxers;Draft;Boxers;XYXX;Adults-Men;Men;;;;Core;;2017;S,XYXXBOXR00000169,M,XYXXBOXR00000170,L,XYXXBOXR00000171,XL,XYXXBOXR00000172;1200.00;;;;;;;;zerotype;;Summer;;No
1861622;XYBOX2PCK32-BLUE-1861622;XYXX Pack of 2 Combed Cotton Boxers;Draft;Boxers;XYXX;Adults-Men;Men;;;;Core;;2017;S,XYXXBOXR00000165,M,XYXXBOXR00000166,L,XYXXBOXR00000167,XL,XYXXBOXR00000168;1200.00;;;;;;;;zerotype;;Summer;;No
1861620;XYBOX2PCK31-BLUE-1861620;XYXX Pack of 2 Combed Cotton Boxers;Draft;Boxers;XYXX;Adults-Men;Men;;;;Core;;2017;S,XYXXBOXR00000161,M,XYXXBOXR00000162,L,XYXXBOXR00000163,XL,XYXXBOXR00000164;1200.00;;;;;;;;zerotype;;Summer;;No
1861617;XYBOX2PCK30-BLUE-1861617;XYXX Pack of 2 Combed Cotton Boxers;Draft;Boxers;XYXX;Adults-Men;Men;;;;Core;;2017;S,XYXXBOXR00000157,M,XYXXBOXR00000158,L,XYXXBOXR00000159,XL,XYXXBOXR00000160;1200.00;;;;;;;;zerotype;;Summer;;No
1861614;XYBOX2PCK29-BLUE-1861614;XYXX Pack of 2 Combed Cotton Boxers;Draft;Boxers;XYXX;Adults-Men;Men;;;;Core;;2017;S,XYXXBOXR00000153,M,XYXXBOXR00000154,L,XYXXBOXR00000155,XL,XYXXBOXR00000156;1200.00;;;;;;;;zerotype;;Summer;;No
1861612;XYBOX2PCK28-BLUE-1861612;XYXX Pack of 2 Combed Cotton Boxers;Draft;Boxers;XYXX;Adults-Men;Men;;;;Core;;2017;S,XYXXBOXR00000149,M,XYXXBOXR00000150,L,XYXXBOXR00000151,XL,XYXXBOXR00000152;1200.00;;;;;;;;zerotype;;Summer;;No
1861609;XYBOX2PCK27-BLUE-1861609;XYXX Pack of 2 Combed Cotton Boxers;Draft;Boxers;XYXX;Adults-Men;Men;;;;Core;;2017;S,XYXXBOXR00000145,M,XYXXBOXR00000146,L,XYXXBOXR00000147,XL,XYXXBOXR00000148;1200.00;;;;;;;;zerotype;;Summer;;No
1861605;XYBOX2PCK26-BLUE-1861605;XYXX Pack of 2 Combed Cotton Boxers;Draft;Boxers;XYXX;Adults-Men;Men;;;;Core;;2017;S,XYXXBOXR00000141,M,XYXXBOXR00000142,L,XYXXBOXR00000143,XL,XYXXBOXR00000144;1200.00;;;;;;;;zerotype;;Summer;;No
1861602;XYBOX2PCK25-BLUE-1861602;XYXX Pack of 2 Combed Cotton Boxers;Draft;Boxers;XYXX;Adults-Men;Men;;;;Core;;2017;S,XYXXBOXR00000137,M,XYXXBOXR00000138,L,XYXXBOXR00000139,XL,XYXXBOXR00000140;1200.00;;;;;;;;zerotype;;Summer;;No
1861600;XYBOX2PCK24-BLUE-1861600;XYXX Pack of 2 Combed Cotton Boxers;Draft;Boxers;XYXX;Adults-Men;Men;;;;Core;;2017;S,XYXXBOXR00000133,M,XYXXBOXR00000134,L,XYXXBOXR00000135,XL,XYXXBOXR00000136;1200.00;;;;;;;;zerotype;;Summer;;No
1861597;XYBOX2PCK23-BLUE-1861597;XYXX Pack of 2 Combed Cotton Boxers;Draft;Boxers;XYXX;Adults-Men;Men;;;;Core;;2017;S,XYXXBOXR00000129,M,XYXXBOXR00000130,L,XYXXBOXR00000131,XL,XYXXBOXR00000132;1200.00;;;;;;;;zerotype;;Summer;;No
1861594;XYBOX2PCK22-BLUE-1861594;XYXX Pack of 2 Combed Cotton Boxers;Draft;Boxers;XYXX;Adults-Men;Men;;;;Core;;2017;S,XYXXBOXR00000125,M,XYXXBOXR00000126,L,XYXXBOXR00000127,XL,XYXXBOXR00000128;1200.00;;;;;;;;zerotype;;Summer;;No
1861592;XYBOX2PCK21-BLUE-1861592;XYXX Pack of 2 Combed Cotton Boxers;Draft;Boxers;XYXX;Adults-Men;Men;;;;Core;;2017;S,XYXXBOXR00000121,M,XYXXBOXR00000122,L,XYXXBOXR00000123,XL,XYXXBOXR00000124;1200.00;;;;;;;;zerotype;;Summer;;No
1861589;XYBOX2PCK20-BLUE-1861589;XYXX Pack of 2 Combed Cotton Boxers;Draft;Boxers;XYXX;Adults-Men;Men;;;;Core;;2017;S,XYXXBOXR00000117,M,XYXXBOXR00000118,L,XYXXBOXR00000119,XL,XYXXBOXR00000120;1200.00;;;;;;;;zerotype;;Summer;;No
1861586;XYBOX2PCK19-BLUE-1861586;XYXX Pack of 2 Combed Cotton Boxers;Draft;Boxers;XYXX;Adults-Men;Men;;;;Core;;2017;S,XYXXBOXR00000113,M,XYXXBOXR00000114,L,XYXXBOXR00000115,XL,XYXXBOXR00000116;1200.00;;;;;;;;zerotype;;Summer;;No
1861583;XYBOX2PCK18-BLUE-1861583;XYXX Pack of 2 Combed Cotton Boxers;Draft;Boxers;XYXX;Adults-Men;Men;;;;Core;;2017;S,XYXXBOXR00000109,M,XYXXBOXR00000110,L,XYXXBOXR00000111,XL,XYXXBOXR00000112;1200.00;;;;;;;;zerotype;;Summer;;No
1861581;XYBOX2PCK17-BLUE-1861581;XYXX Pack of 2 Combed Cotton Boxers;Draft;Boxers;XYXX;Adults-Men;Men;;;;Core;;2017;S,XYXXBOXR00000105,M,XYXXBOXR00000106,L,XYXXBOXR00000107,XL,XYXXBOXR00000108;1200.00;;;;;;;;zerotype;;Summer;;No
1861579;XYBOX2PCK16-BLUE-1861579;XYXX Pack of 2 Combed Cotton Boxers;Draft;Boxers;XYXX;Adults-Men;Men;;;;Core;;2017;S,XYXXBOXR00000101,M,XYXXBOXR00000102,L,XYXXBOXR00000103,XL,XYXXBOXR00000104;1200.00;;;;;;;;zerotype;;Summer;;No
1861577;XYBOX2PCK15-BLUE-1861577;XYXX Pack of 2 Combed Cotton Boxers;Draft;Boxers;XYXX;Adults-Men;Men;;;;Core;;2017;S,XYXXBOXR00000097,M,XYXXBOXR00000098,L,XYXXBOXR00000099,XL,XYXXBOXR00000100;1200.00;;;;;;;;zerotype;;Summer;;No
1861575;XYBOX2PCK14-BLUE-1861575;XYXX Pack of 2 Combed Cotton Boxers;Draft;Boxers;XYXX;Adults-Men;Men;;;;Core;;2017;S,XYXXBOXR00000093,M,XYXXBOXR00000094,L,XYXXBOXR00000095,XL,XYXXBOXR00000096;1200.00;;;;;;;;zerotype;;Summer;;No
1861573;XYBOX2PCK13-BLUE-1861573;XYXX Pack of 2 Combed Cotton Boxers;Draft;Boxers;XYXX;Adults-Men;Men;;;;Core;;2017;S,XYXXBOXR00000089,M,XYXXBOXR00000090,L,XYXXBOXR00000091,XL,XYXXBOXR00000092;1200.00;;;;;;;;zerotype;;Summer;;No
1861571;XYBOX2PCK12-BLUE-1861571;XYXX Pack of 2 Combed Cotton Boxers;Draft;Boxers;XYXX;Adults-Men;Men;;;;Core;;2017;S,XYXXBOXR00000085,M,XYXXBOXR00000086,L,XYXXBOXR00000087,XL,XYXXBOXR00000088;1200.00;;;;;;;;zerotype;;Summer;;No
1861569;XYBOX2PCK11-BLUE-1861569;XYXX Pack of 2 Combed Cotton Boxers;Draft;Boxers;XYXX;Adults-Men;Men;;;;Core;;2017;S,XYXXBOXR00000081,M,XYXXBOXR00000082,L,XYXXBOXR00000083,XL,XYXXBOXR00000084;1200.00;;;;;;;;zerotype;;Summer;;No
1861567;XYBOX2PCK10-BLUE-1861567;XYXX Pack of 2 Combed Cotton Boxers;Draft;Boxers;XYXX;Adults-Men;Men;;;;Core;;2017;S,XYXXBOXR00000077,M,XYXXBOXR00000078,L,XYXXBOXR00000079,XL,XYXXBOXR00000080;1200.00;;;;;;;;zerotype;;Summer;;No
1861565;XYBOX2PCK09-BLUE-1861565;XYXX Pack of 2 Combed Cotton Boxers;Draft;Boxers;XYXX;Adults-Men;Men;;;;Core;;2017;S,XYXXBOXR00000073,M,XYXXBOXR00000074,L,XYXXBOXR00000075,XL,XYXXBOXR00000076;1200.00;;;;;;;;zerotype;;Summer;;No
1861563;XYBOX2PCK08-BLUE-1861563;XYXX Pack of 2 Combed Cotton Boxers;Draft;Boxers;XYXX;Adults-Men;Men;;;;Core;;2017;S,XYXXBOXR00000069,M,XYXXBOXR00000070,L,XYXXBOXR00000071,XL,XYXXBOXR00000072;1200.00;;;;;;;;zerotype;;Summer;;No
1861561;XYBOX2PCK07-BLUE-1861561;XYXX Pack of 2 Combed Cotton Boxers;Draft;Boxers;XYXX;Adults-Men;Men;;;;Core;;2017;S,XYXXBOXR00000065,M,XYXXBOXR00000066,L,XYXXBOXR00000067,XL,XYXXBOXR00000068;1200.00;;;;;;;;zerotype;;Summer;;No
1861559;XYBOX2PCK06-BLUE-1861559;XYXX Pack of 2 Combed Cotton Boxers;Draft;Boxers;XYXX;Adults-Men;Men;;;;Core;;2017;S,XYXXBOXR00000061,M,XYXXBOXR00000062,L,XYXXBOXR00000063,XL,XYXXBOXR00000064;1200.00;;;;;;;;zerotype;;Summer;;No
