Style ID;Vendor Article Number;Vendor Article Name;Active Status;Article type;Brand;Age Group;Gender;Base Colour;Colour1;Colour2;Fashion Type;Usage;Year;Size - SKU code pair;MRP;Style Description;Style Note;Materials and Care Description;Size and Fit Description;Size Chart Path;Product Display Name;Tags;Product Type;Classification Brand;Season;Comments;Upload Images
1872702;161350-CREAM/BERRY/GREY-1872702;Forever 21CREAM/BERRY/GREYShirts;Draft;Shirts;FOREVER 21;Adults-Women;Women;;;;Fashion;;2017;2/S,FRTOSHRT00003617,3/M,FRTOSHRT00003618,4/L,FRTOSHRT00003619;1549.00;<p>Contents:100% COTTON, Lining:, Other:</p>;;;;;;;zerotype;;Summer;;No
1872701;158323-GREEN/MULTI-1872701;Forever 21GREEN/MULTIShirts;Draft;Shirts;FOREVER 21;Adults-Women;Women;;;;Fashion;;2017;2/S,FRTOSHRT00003614,3/M,FRTOSHRT00003615,4/L,FRTOSHRT00003616;1499.00;<p>Contents:100% RAYON, Lining:, Other:</p>;;;;;;;zerotype;;Summer;;No
1872700;158121-BLACK/WHITE-1872700;Forever 21BLACK/WHITEShirts;Draft;Shirts;FOREVER 21;Adults-Women;Women;;;;Fashion;;2017;2/S,FRTOSHRT00003611,3/M,FRTOSHRT00003612,4/L,FRTOSHRT00003613;1599.00;<p>Contents:100% RAYON, Lining:, Other:</p>;;;;;;;zerotype;;Summer;;No
1872697;157743-BURGUNDY/BLACK-1872697;Forever 21BURGUNDY/BLACKShirts;Draft;Shirts;FOREVER 21;Adults-Women;Women;;;;Fashion;;2017;2/S,FRTOSHRT00003602,3/M,FRTOSHRT00003603,4/L,FRTOSHRT00003604;1549.00;<p>Contents:100% COTTON, Lining:, Other:</p>;;;;;;;zerotype;;Summer;;No
1872696;157729-CHARCOAL HEATHER-1872696;Forever 21CHARCOAL HEATHERShirts;Draft;Shirts;FOREVER 21;Adults-Men;Men;;;;Fashion;;2017;1/XS,FRTOSHRT00003597,2/S,FRTOSHRT00003598,3/M,FRTOSHRT00003599,4/L,FRTOSHRT00003600,5/XL,FRTOSHRT00003601;1699.00;<p>Contents:60% COTTON, 40% POLYESTER, Lining:, Other:</p>;;;;;;;zerotype;;Summer;;No
1872694;157139-NAVY/CREAM-1872694;Forever 21NAVY/CREAMShirts;Draft;Shirts;FOREVER 21;Adults-Women;Women;;;;Fashion;;2017;3/M,FRTOSHRT00003590,4/L,FRTOSHRT00003591;1399.00;<p>Contents:100% RAYON, Lining:, Other:</p>;;;;;;;zerotype;;Summer;;No
1872692;155767-LIGHT GREY-1872692;Forever 21LIGHT GREYShirts;Draft;Shirts;FOREVER 21;Adults-Women;Women;;;;Fashion;;2017;2/S,FRTOSHRT00003582,3/M,FRTOSHRT00003583,4/L,FRTOSHRT00003584;1299.00;<p>Contents:100% POLYESTER, Lining:, Other:</p>;;;;;;;zerotype;;Summer;;No
1872690;145718-CHARCOAL HEATHER-1872690;Forever 21CHARCOAL HEATHERShirts;Draft;Shirts;FOREVER 21;Adults-Men;Men;;;;Fashion;;2017;1/XS,FRTOSHRT00003572,2/S,FRTOSHRT00003573,3/M,FRTOSHRT00003574,4/L,FRTOSHRT00003575,5/XL,FRTOSHRT00003576;1499.00;<p>Contents:100% COTTON, Lining:, Other:</p>;;;;;;;zerotype;;Summer;;No
1872689;142437-OLIVE-1872689;Forever 21OLIVEShirts;Draft;Shirts;FOREVER 21;Adults-Men;Men;;;;Fashion;;2017;1/XS,FRTOSHRT00003568,2/S,FRTOSHRT00003569,3/M,FRTOSHRT00003570,5/XL,FRTOSHRT00003571;1399.00;<p>Contents:100% COTTON, Lining:, Other:</p>;;;;;;;zerotype;;Summer;;No
1872688;142099-NAVY/BURGUNDY-1872688;Forever 21NAVY/BURGUNDYShirts;Draft;Shirts;FOREVER 21;Adults-Women;Women;;;;Fashion;;2017;2/S,FRTOSHRT00003565,3/M,FRTOSHRT00003566,4/L,FRTOSHRT00003567;1549.00;<p>Contents:100% COTTON, Lining:, Other:</p>;;;;;;;zerotype;;Summer;;No
1872687;125299-BLUSH-1872687;Forever 21BLUSHShirts;Draft;Shirts;FOREVER 21;Adults-Women;Women;;;;Fashion;;2017;2/S,FRTOSHRT00003562,3/M,FRTOSHRT00003563,4/L,FRTOSHRT00003564;1149.00;<p>Contents:100% POLYESTER, Lining:, Other:</p>;;;;;;;zerotype;;Summer;;No
1872686;99023-PINK/RED/BLACK-1872686;Forever 21PINK/RED/BLACKShirts;Draft;Shirts;FOREVER 21;Adults-Women;Women;;;;Fashion;;2017;2/S,FRTOSHRT00003559,3/M,FRTOSHRT00003560,4/L,FRTOSHRT00003561;1499.00;<p>Contents:100% COTTON,67% POLYESTER, 33% COTTON Lining:, Othe</p>;;;;;;;zerotype;;Summer;;No
1872682;53550-INDIGO-1872682;Forever 21INDIGOShirts;Draft;Shirts;FOREVER 21;Adults-Men;Men;;;;Fashion;;2017;1/XS,FRTOSHRT00003539,2/S,FRTOSHRT00003540,3/M,FRTOSHRT00003541,4/L,FRTOSHRT00003542,5/XL,FRTOSHRT00003543;1379.00;<p>Contents:100% COTTON, Lining:, Other:</p>;;;;;;;zerotype;;Summer;;No
1872658;161639-CHAMPAGNE/MULTI-1872658;Forever 21CHAMPAGNE/MULTISkirts;Draft;Skirts;FOREVER 21;Adults-Women;Women;;;;Fashion;;2017;2/S,FRTOSKRT00006105,3/M,FRTOSKRT00006106,4/L,FRTOSKRT00006107;2449.00;<p>Contents:100% POLYESTER, Lining:100% POLYESTER, Other:</p>;;;;;;;zerotype;;Summer;;No
1872657;146103-NAVY-1872657;Forever 21NAVYSkirts;Draft;Skirts;FOREVER 21;Adults-Women;Women;;;;Fashion;;2017;1/XS,FRTOSKRT00006101,2/S,FRTOSKRT00006102,3/M,FRTOSKRT00006103,4/L,FRTOSKRT00006104;949.00;<p>Contents:100% RAYON, Lining:, Other:</p>;;;;;;;zerotype;;Summer;;No
1872545;161480-BLACK/MULTI-1872545;Forever 21BLACK/MULTITshirts;Draft;Tshirts;FOREVER 21;Adults-Women;Women;;;;Fashion;;2017;2/S,FRTOTSHT00002972,3/M,FRTOTSHT00002973,4/L,FRTOTSHT00002974;1399.00;<p>Contents:70% COTTON, 30% POLYESTER, Lining:, Other:100% ACRY</p>;;;;;;;zerotype;;Summer;;No
1872542;157955-WHITE/MULTI-1872542;Forever 21WHITE/MULTITshirts;Draft;Tshirts;FOREVER 21;Adults-Women;Women;;;;Fashion;;2017;2/S,FRTOTSHT00002961,3/M,FRTOTSHT00002962,4/L,FRTOTSHT00002963;1699.00;<p>Contents:60% COTTON, 40% POLYESTER, Lining:, Other:</p>;;;;;;;zerotype;;Summer;;No
1872541;157721-BLACK/WHITE-1872541;Forever 21BLACK/WHITETshirts;Draft;Tshirts;FOREVER 21;Adults-Men;Men;;;;Fashion;;2017;1/XS,FRTOTSHT00002956,2/S,FRTOTSHT00002957,3/M,FRTOTSHT00002958,4/L,FRTOTSHT00002959,5/XL,FRTOTSHT00002960;949.00;<p>Contents:60% COTTON, 40% POLYESTER, Lining:, Other:</p>;;;;;;;zerotype;;Summer;;No
1872540;157125-WHITE/BLACK-1872540;Forever 21WHITE/BLACKTshirts;Draft;Tshirts;FOREVER 21;Adults-Women;Women;;;;Fashion;;2017;2/S,FRTOTSHT00002953,3/M,FRTOTSHT00002954,4/L,FRTOTSHT00002955;1049.00;<p>Contents:65% COTTON, 35% POLYESTER, Lining:, Other:</p>;;;;;;;zerotype;;Summer;;No
1872539;157106-BLACK/MULTI-1872539;Forever 21BLACK/MULTITshirts;Draft;Tshirts;FOREVER 21;Adults-Women;Women;;;;Fashion;;2017;2/S,FRTOTSHT00002950,3/M,FRTOTSHT00002951,4/L,FRTOTSHT00002952;1699.00;<p>Contents:71% COTTON, 29% POLYESTER, Lining:, Other:</p>;;;;;;;zerotype;;Summer;;No
1872538;157068-HEATHER GREY/BLACK-1872538;Forever 21HEATHER GREY/BLACKTshirts;Draft;Tshirts;FOREVER 21;Adults-Women;Women;;;;Fashion;;2017;2/S,FRTOTSHT00002948,4/L,FRTOTSHT00002949;1699.00;<p>Contents:60% COTTON, 40% POLYESTER, Lining:, Other:</p>;;;;;;;zerotype;;Summer;;No
1872535;156348-BLACK/RED-1872535;Forever 21BLACK/REDTshirts;Draft;Tshirts;FOREVER 21;Adults-Men;Men;;;;Fashion;;2017;1/XS,FRTOTSHT00002934,2/S,FRTOTSHT00002935,3/M,FRTOTSHT00002936,4/L,FRTOTSHT00002937;949.00;<p>Contents:59% COTTON, 41% POLYESTER,100% POLYESTER Lining:, O</p>;;;;;;;zerotype;;Summer;;No
1872532;146880-HEATHER GREY/BLUE-1872532;Forever 21HEATHER GREY/BLUETshirts;Draft;Tshirts;FOREVER 21;Adults-Women;Women;;;;Fashion;;2017;2/S,FRTOTSHT00002923,3/M,FRTOTSHT00002924,4/L,FRTOTSHT00002925;1149.00;<p>Contents:100% COTTON, Lining:, Other:</p>;;;;;;;zerotype;;Summer;;No
1872531;146871-HEATHER GREY/BLACK-1872531;Forever 21HEATHER GREY/BLACKTshirts;Draft;Tshirts;FOREVER 21;Adults-Women;Women;;;;Fashion;;2017;2/S,FRTOTSHT00002920,3/M,FRTOTSHT00002921,4/L,FRTOTSHT00002922;799.00;<p>Contents:100% COTTON, Lining:, Other:</p>;;;;;;;zerotype;;Summer;;No
1872530;146829-BURGUNDY/WHITE-1872530;Forever 21BURGUNDY/WHITETshirts;Draft;Tshirts;FOREVER 21;Adults-Women;Women;;;;Fashion;;2017;2/S,FRTOTSHT00002917,3/M,FRTOTSHT00002918,4/L,FRTOTSHT00002919;1149.00;<p>Contents:100% COTTON, Lining:, Other:</p>;;;;;;;zerotype;;Summer;;No
1872529;146825-CHARCOAL/WHITE-1872529;Forever 21CHARCOAL/WHITETshirts;Draft;Tshirts;FOREVER 21;Adults-Women;Women;;;;Fashion;;2017;2/S,FRTOTSHT00002914,3/M,FRTOTSHT00002915,4/L,FRTOTSHT00002916;1149.00;<p>Contents:100% COTTON, Lining:, Other:</p>;;;;;;;zerotype;;Summer;;No
1872526;146335-BLACK/RED-1872526;Forever 21BLACK/REDTshirts;Draft;Tshirts;FOREVER 21;Adults-Men;Men;;;;Fashion;;2017;1/XS,FRTOTSHT00002899,2/S,FRTOTSHT00002900,3/M,FRTOTSHT00002901,4/L,FRTOTSHT00002902,5/XL,FRTOTSHT00002903;749.00;<p>Contents:100% COTTON,93% COTTON, 7% VISCOSE Lining:, Other:</p>;;;;;;;zerotype;;Summer;;No
1872525;146105-BLACK/WHITE-1872525;Forever 21BLACK/WHITETshirts;Draft;Tshirts;FOREVER 21;Adults-Women;Women;;;;Fashion;;2017;2/S,FRTOTSHT00002896,3/M,FRTOTSHT00002897,4/L,FRTOTSHT00002898;899.00;<p>Contents:100% POLYESTER, Lining:, Other:</p>;;;;;;;zerotype;;Summer;;No
1872524;145982-BLACK-1872524;Forever 21BLACKTshirts;Draft;Tshirts;FOREVER 21;Adults-Men;Men;;;;Fashion;;2017;1/XS,FRTOTSHT00002891,2/S,FRTOTSHT00002892,3/M,FRTOTSHT00002893,4/L,FRTOTSHT00002894,5/XL,FRTOTSHT00002895;2049.00;<p>Garment:93% POLYESTER, 7% SPANDEX / ELASTANE, Lining:, Other</p>;;;;;;;zerotype;;Summer;;No
1872523;145406-CHARCOAL HEATHER-1872523;Forever 21CHARCOAL HEATHERTshirts;Draft;Tshirts;FOREVER 21;Adults-Men;Men;;;;Fashion;;2017;1/XS,FRTOTSHT00002886,2/S,FRTOTSHT00002887,3/M,FRTOTSHT00002888,4/L,FRTOTSHT00002889,5/XL,FRTOTSHT00002890;1049.00;<p>Contents:56% COTTON, 44% POLYESTER, Lining:, Other:</p>;;;;;;;zerotype;;Summer;;No
1872522;145406-BURGUNDY-1872522;Forever 21BURGUNDYTshirts;Draft;Tshirts;FOREVER 21;Adults-Men;Men;;;;Fashion;;2017;1/XS,FRTOTSHT00002881,2/S,FRTOTSHT00002882,3/M,FRTOTSHT00002883,4/L,FRTOTSHT00002884,5/XL,FRTOTSHT00002885;1049.00;<p>Contents:56% COTTON, 44% POLYESTER, Lining:, Other:</p>;;;;;;;zerotype;;Summer;;No
1872521;145386-HEATHER GREY/BLACK-1872521;Forever 21HEATHER GREY/BLACKTshirts;Draft;Tshirts;FOREVER 21;Adults-Men;Men;;;;Fashion;;2017;1/XS,FRTOTSHT00002876,2/S,FRTOTSHT00002877,3/M,FRTOTSHT00002878,4/L,FRTOTSHT00002879,5/XL,FRTOTSHT00002880;1299.00;<p>Garment:100% COTTON, Lining:, Other:</p>;;;;;;;zerotype;;Summer;;No
1872520;141983-WHITE/BLACK-1872520;Forever 21WHITE/BLACKTshirts;Draft;Tshirts;FOREVER 21;Adults-Men;Men;;;;Fashion;;2017;1/XS,FRTOTSHT00002871,2/S,FRTOTSHT00002872,3/M,FRTOTSHT00002873,4/L,FRTOTSHT00002874,5/XL,FRTOTSHT00002875;1699.00;<p>Garment:100% COTTON,60% COTTON, 40% POLYESTER Lining:100% CO</p>;;;;;;;zerotype;;Summer;;No
1872519;141974-RED/BLACK-1872519;Forever 21RED/BLACKTshirts;Draft;Tshirts;FOREVER 21;Adults-Men;Men;;;;Fashion;;2017;1/XS,FRTOTSHT00002866,2/S,FRTOTSHT00002867,3/M,FRTOTSHT00002868,4/L,FRTOTSHT00002869,5/XL,FRTOTSHT00002870;1549.00;<p>Contents:100% COTTON,82% COTTON, 18% POLYESTER Lining:100% C</p>;;;;;;;zerotype;;Summer;;No
1872518;141031-BURGUNDY/GREY-1872518;Forever 21BURGUNDY/GREYTshirts;Draft;Tshirts;FOREVER 21;Adults-Men;Men;;;;Fashion;;2017;1/XS,FRTOTSHT00002861,2/S,FRTOTSHT00002862,3/M,FRTOTSHT00002863,4/L,FRTOTSHT00002864,5/XL,FRTOTSHT00002865;799.00;<p>Contents:100% COTTON,90% COTTON, 10% VISCOSE RAYON Lining:,</p>;;;;;;;zerotype;;Summer;;No
1872517;135692-BLACK/CAMEL-1872517;Forever 21BLACK/CAMELTshirts;Draft;Tshirts;FOREVER 21;Adults-Men;Men;;;;Fashion;;2017;1/XS,FRTOTSHT00002856,2/S,FRTOTSHT00002857,3/M,FRTOTSHT00002858,4/L,FRTOTSHT00002859,5/XL,FRTOTSHT00002860;1099.00;<p>Contents:100% LINEN (FLA, Lining:100% LINEN (FLA, Other:</p>;;;;;;;zerotype;;Summer;;No
1872516;134905-OATMEAL-1872516;Forever 21OATMEALTshirts;Draft;Tshirts;FOREVER 21;Adults-Men;Men;;;;Fashion;;2017;1/XS,FRTOTSHT00002851,2/S,FRTOTSHT00002852,3/M,FRTOTSHT00002853,4/L,FRTOTSHT00002854,5/XL,FRTOTSHT00002855;899.00;<p>Contents:60% COTTON, 40% POLYESTER, Lining:, Other:</p>;;;;;;;zerotype;;Summer;;No
1872515;134905-NAVY-1872515;Forever 21NAVYTshirts;Draft;Tshirts;FOREVER 21;Adults-Men;Men;;;;Fashion;;2017;1/XS,FRTOTSHT00002846,2/S,FRTOTSHT00002847,3/M,FRTOTSHT00002848,4/L,FRTOTSHT00002849,5/XL,FRTOTSHT00002850;899.00;<p>Contents:60% COTTON, 40% POLYESTER, Lining:, Other:</p>;;;;;;;zerotype;;Summer;;No
1872514;134905-BURGUNDY-1872514;Forever 21BURGUNDYTshirts;Draft;Tshirts;FOREVER 21;Adults-Men;Men;;;;Fashion;;2017;1/XS,FRTOTSHT00002841,2/S,FRTOTSHT00002842,3/M,FRTOTSHT00002843,4/L,FRTOTSHT00002844,5/XL,FRTOTSHT00002845;899.00;<p>Contents:60% COTTON, 40% POLYESTER, Lining:, Other:</p>;;;;;;;zerotype;;Summer;;No
1872509;117452-BLACK/MULTI-1872509;Forever 21BLACK/MULTITshirts;Draft;Tshirts;FOREVER 21;Adults-Men;Men;;;;Fashion;;2017;1/XS,FRTOTSHT00002816,2/S,FRTOTSHT00002817,3/M,FRTOTSHT00002818,4/L,FRTOTSHT00002819,5/XL,FRTOTSHT00002820;1699.00;<p>Contents:63% COTTON, 37% POLYESTER, Lining:, Other:</p>;;;;;;;zerotype;;Summer;;No
1872490;157671-HEATHER GREY-1872490;Forever 21HEATHER GREYScarves;Draft;Scarves;FOREVER 21;Adults-Women;Women;;;;Fashion;;2017;ONE SIZE,FRTOSCRF00000130;599.00;<p>Contents:100% ACRYLIC, Lining:, Other:</p>;;;;;;;zerotype;;Summer;;No
1872489;157671-BEIGE-1872489;Forever 21BEIGEScarves;Draft;Scarves;FOREVER 21;Adults-Women;Women;;;;Fashion;;2017;ONE SIZE,FRTOSCRF00000129;599.00;<p>Contents:100% ACRYLIC, Lining:, Other:</p>;;;;;;;zerotype;;Summer;;No
1872488;156852-BLACK/GREY/CAMEL-1872488;Forever 21BLACK/GREY/CAMELScarves;Draft;Scarves;FOREVER 21;Adults-Women;Women;;;;Fashion;;2017;ONE SIZE,FRTOSCRF00000128;1349.00;<p>Contents:70% ACRYLIC, 30% POLYESTER, Lining:, Other:</p>;;;;;;;zerotype;;Summer;;No
1872487;156424-BLUE/RED/WHITE-1872487;Forever 21BLUE/RED/WHITEScarves;Draft;Scarves;FOREVER 21;Adults-Men;Men;;;;Fashion;;2017;ONE SIZE,FRTOSCRF00000127;899.00;<p>Contents:100% ACRYLIC, Lining:, Other:</p>;;;;;;;zerotype;;Summer;;No
1872486;150060-CHARCOAL-1872486;Forever 21CHARCOALScarves;Draft;Scarves;FOREVER 21;Adults-Men;Men;;;;Fashion;;2017;ONE SIZE,FRTOSCRF00000126;899.00;<p>Contents:66% ACRYLIC, 34% WOOL, Lining:, Other:</p>;;;;;;;zerotype;;Summer;;No
1872485;150060-BLACK-1872485;Forever 21BLACKScarves;Draft;Scarves;FOREVER 21;Adults-Men;Men;;;;Fashion;;2017;ONE SIZE,FRTOSCRF00000125;899.00;<p>Contents:66% ACRYLIC, 34% WOOL, Lining:, Other:</p>;;;;;;;zerotype;;Summer;;No
1872484;145673-BLACK/CREAM-1872484;Forever 21BLACK/CREAMScarves;Draft;Scarves;FOREVER 21;Adults-Men;Men;;;;Fashion;;2017;ONE SIZE,FRTOSCRF00000124;999.00;<p>Garment:100% ACRYLIC, Lining:, Other:</p>;;;;;;;zerotype;;Summer;;No
1872483;145238-LIGHT GREY-1872483;Forever 21LIGHT GREYScarves;Draft;Scarves;FOREVER 21;Adults-Women;Women;;;;Fashion;;2017;ONE SIZE,FRTOSCRF00000123;899.00;<p>Contents:100% ACRYLIC, Lining:, Other:</p>;;;;;;;zerotype;;Summer;;No
1872482;145238-BURGUNDY-1872482;Forever 21BURGUNDYScarves;Draft;Scarves;FOREVER 21;Adults-Women;Women;;;;Fashion;;2017;ONE SIZE,FRTOSCRF00000122;899.00;<p>Contents:100% ACRYLIC, Lining:, Other:</p>;;;;;;;zerotype;;Summer;;No
1872481;145238-BLACK-1872481;Forever 21BLACKScarves;Draft;Scarves;FOREVER 21;Adults-Women;Women;;;;Fashion;;2017;ONE SIZE,FRTOSCRF00000121;899.00;<p>Contents:100% ACRYLIC, Lining:, Other:</p>;;;;;;;zerotype;;Summer;;No
1872480;145238-BEIGE-1872480;Forever 21BEIGEScarves;Draft;Scarves;FOREVER 21;Adults-Women;Women;;;;Fashion;;2017;ONE SIZE,FRTOSCRF00000120;899.00;<p>Contents:100% ACRYLIC, Lining:, Other:</p>;;;;;;;zerotype;;Summer;;No
1872423;161514-RED/NAVY/CREAM-1872423;Forever 21RED/NAVY/CREAMDresses;Draft;Dresses;FOREVER 21;Adults-Women;Women;;;;Fashion;;2017;2/S,FRTODRSS00014450,3/M,FRTODRSS00014451,4/L,FRTODRSS00014452;1499.00;<p>Contents:100% COTTON, Lining:, Other:</p>;;;;;;;zerotype;;Summer;;No
1872422;158122-OATMEAL-1872422;Forever 21OATMEALDresses;Draft;Dresses;FOREVER 21;Adults-Women;Women;;;;Fashion;;2017;1/XS,FRTODRSS00014446,2/S,FRTODRSS00014447,3/M,FRTODRSS00014448,4/L,FRTODRSS00014449;1599.00;<p>Contents:100% COTTON, Lining:, Other:</p>;;;;;;;zerotype;;Summer;;No
1872421;157819-BLACK/MAUVE-1872421;Forever 21BLACK/MAUVEDresses;Draft;Dresses;FOREVER 21;Adults-Women;Women;;;;Fashion;;2017;1/XS,FRTODRSS00014442,2/S,FRTODRSS00014443,3/M,FRTODRSS00014444,4/L,FRTODRSS00014445;1199.00;<p>Contents:100% POLYESTER, Lining:, Other:</p>;;;;;;;zerotype;;Summer;;No
1872419;157220-BLACK/CREAM-1872419;Forever 21BLACK/CREAMDresses;Draft;Dresses;FOREVER 21;Adults-Women;Women;;;;Fashion;;2017;1/XS,FRTODRSS00014435,2/S,FRTODRSS00014436,3/M,FRTODRSS00014437,4/L,FRTODRSS00014438;1199.00;<p>Contents:95% POLYESTER, 5% SPANDEX / ELASTANE, Lining:, Othe</p>;;;;;;;zerotype;;Summer;;No
1872418;157220-BLACK/BURGUNDY-1872418;Forever 21BLACK/BURGUNDYDresses;Draft;Dresses;FOREVER 21;Adults-Women;Women;;;;Fashion;;2017;1/XS,FRTODRSS00014431,2/S,FRTODRSS00014432,3/M,FRTODRSS00014433,4/L,FRTODRSS00014434;1199.00;<p>Contents:95% POLYESTER, 5% SPANDEX / ELASTANE, Lining:, Othe</p>;;;;;;;zerotype;;Summer;;No
1872417;156914-RED/BLACK-1872417;Forever 21RED/BLACKDresses;Draft;Dresses;FOREVER 21;Adults-Women;Women;;;;Fashion;;2017;2/S,FRTODRSS00014428,3/M,FRTODRSS00014429,4/L,FRTODRSS00014430;1599.00;<p>Contents:56% COTTON, 42% POLYESTER, 2% SPANDEX / ELASTANE, L</p>;;;;;;;zerotype;;Summer;;No
1872416;156772-TAUPE-1872416;Forever 21TAUPEDresses;Draft;Dresses;FOREVER 21;Adults-Women;Women;;;;Fashion;;2017;1/XS,FRTODRSS00014423,2/S,FRTODRSS00014424,3/M,FRTODRSS00014425,4/L,FRTODRSS00014426,5/XL,FRTODRSS00014427;1049.00;<p>Contents:72% ACRYLIC, 25% POLYESTER, 3% SPANDEX / ELASTANE,</p>;;;;;;;zerotype;;Summer;;No
1872415;156772-OLIVE-1872415;Forever 21OLIVEDresses;Draft;Dresses;FOREVER 21;Adults-Women;Women;;;;Fashion;;2017;1/XS,FRTODRSS00014418,2/S,FRTODRSS00014419,3/M,FRTODRSS00014420,4/L,FRTODRSS00014421,5/XL,FRTODRSS00014422;1049.00;<p>Contents:72% ACRYLIC, 25% POLYESTER, 3% SPANDEX / ELASTANE,</p>;;;;;;;zerotype;;Summer;;No
1872414;156772-HEATHER GREY-1872414;Forever 21HEATHER GREYDresses;Draft;Dresses;FOREVER 21;Adults-Women;Women;;;;Fashion;;2017;1/XS,FRTODRSS00014413,2/S,FRTODRSS00014414,3/M,FRTODRSS00014415,4/L,FRTODRSS00014416,5/XL,FRTODRSS00014417;1049.00;<p>Contents:72% ACRYLIC, 25% POLYESTER, 3% SPANDEX / ELASTANE,</p>;;;;;;;zerotype;;Summer;;No
1872412;156353-BLACK-1872412;Forever 21BLACKDresses;Draft;Dresses;FOREVER 21;Adults-Women;Women;;;;Fashion;;2017;2/S,FRTODRSS00014407,3/M,FRTODRSS00014408,4/L,FRTODRSS00014409;1549.00;<p>Contents:62% POLYESTER, 36% RAYON, 2% SPANDEX / ELASTANE, Li</p>;;;;;;;zerotype;;Summer;;No
1872407;147233-BURGUNDY-1872407;Forever 21BURGUNDYDresses;Draft;Dresses;FOREVER 21;Adults-Women;Women;;;;Fashion;;2017;2/S,FRTODRSS00014392,3/M,FRTODRSS00014393,4/L,FRTODRSS00014394;1499.00;<p>Contents:91% POLYESTER, 9% SPANDEX / ELASTANE, Lining:, Othe</p>;;;;;;;zerotype;;Summer;;No
1872406;147209-RED-1872406;Forever 21REDDresses;Draft;Dresses;FOREVER 21;Adults-Women;Women;;;;Fashion;;2017;2/S,FRTODRSS00014389,3/M,FRTODRSS00014390,4/L,FRTODRSS00014391;1599.00;<p>Contents:95% ACETATE, 5% SPANDEX / ELASTANE, Lining:100% POL</p>;;;;;;;zerotype;;Summer;;No
1872405;147180-RED-1872405;Forever 21REDDresses;Draft;Dresses;FOREVER 21;Adults-Women;Women;;;;Fashion;;2017;2/S,FRTODRSS00014386,3/M,FRTODRSS00014387,4/L,FRTODRSS00014388;1899.00;<p>Contents:100% POLYESTER, Lining:100% POLYESTER, Other:</p>;;;;;;;zerotype;;Summer;;No
1872404;147007-BLACK-1872404;Forever 21BLACKDresses;Draft;Dresses;FOREVER 21;Adults-Women;Women;;;;Fashion;;2017;2/S,FRTODRSS00014383,3/M,FRTODRSS00014384,4/L,FRTODRSS00014385;1549.00;<p>Contents:100% POLYESTER, Lining:, Other:</p>;;;;;;;zerotype;;Summer;;No
1872403;146987-NAVY-1872403;Forever 21NAVYDresses;Draft;Dresses;FOREVER 21;Adults-Women;Women;;;;Fashion;;2017;2/S,FRTODRSS00014380,3/M,FRTODRSS00014381,4/L,FRTODRSS00014382;2749.00;<p>Contents:87% POLYESTER, 13% SPANDEX / ELASTANE, Lining:, Oth</p>;;;;;;;zerotype;;Summer;;No
1872401;146344-PURPLE/BLACK-1872401;Forever 21PURPLE/BLACKDresses;Draft;Dresses;FOREVER 21;Adults-Women;Women;;;;Fashion;;2017;2/S,FRTODRSS00014374,3/M,FRTODRSS00014375,4/L,FRTODRSS00014376;1399.00;<p>Contents:54% COTTON, 46% RAYON, Lining:, Other:</p>;;;;;;;zerotype;;Summer;;No
1872398;146219-TAN-1872398;Forever 21TANDresses;Draft;Dresses;FOREVER 21;Adults-Women;Women;;;;Fashion;;2017;2/S,FRTODRSS00014365,3/M,FRTODRSS00014366,4/L,FRTODRSS00014367;1699.00;<p>Contents:91% POLYESTER, 9% SPANDEX / ELASTANE, Lining:, Othe</p>;;;;;;;zerotype;;Summer;;No
1872397;145861-TAN-1872397;Forever 21TANDresses;Draft;Dresses;FOREVER 21;Adults-Women;Women;;;;Fashion;;2017;2/S,FRTODRSS00014362,3/M,FRTODRSS00014363,4/L,FRTODRSS00014364;1899.00;<p>Contents:91% POLYESTER, 9% SPANDEX / ELASTANE, Lining:, Othe</p>;;;;;;;zerotype;;Summer;;No
1872395;145773-RED-1872395;Forever 21REDDresses;Draft;Dresses;FOREVER 21;Adults-Women;Women;;;;Fashion;;2017;1/XS,FRTODRSS00014355,2/S,FRTODRSS00014356,3/M,FRTODRSS00014357,4/L,FRTODRSS00014358;2099.00;<p>Garment:100% POLYESTER, Lining:100% POLYESTER, Other:</p>;;;;;;;zerotype;;Summer;;No
1872394;145639-RUST-1872394;Forever 21RUSTDresses;Draft;Dresses;FOREVER 21;Adults-Women;Women;;;;Fashion;;2017;1/XS,FRTODRSS00014351,2/S,FRTODRSS00014352,3/M,FRTODRSS00014353,4/L,FRTODRSS00014354;2039.00;<p>Contents:100% POLYESTER, Lining:96% POLYESTER, 4% SPANDEX/EL</p>;;;;;;;zerotype;;Summer;;No
1872389;141204-BLACK/CREAM-1872389;Forever 21BLACK/CREAMDresses;Draft;Dresses;FOREVER 21;Adults-Women;Women;;;;Fashion;;2017;2/S,FRTODRSS00014332,3/M,FRTODRSS00014333,4/L,FRTODRSS00014334;1299.00;<p>Garment:100% RAYON, Lining:, Other:</p>;;;;;;;zerotype;;Summer;;No
1872388;141034-BLACK/IVORY-1872388;Forever 21BLACK/IVORYDresses;Draft;Dresses;FOREVER 21;Adults-Women;Women;;;;Fashion;;2017;2/S,FRTODRSS00014329,3/M,FRTODRSS00014330,4/L,FRTODRSS00014331;1199.00;<p>Contents:100% COTTON, Lining:, Other:</p>;;;;;;;zerotype;;Summer;;No
1872386;119753-BLACK-1872386;Forever 21BLACKDresses;Draft;Dresses;FOREVER 21;Adults-Women;Women;;;;Fashion;;2017;2/S,FRTODRSS00014323,3/M,FRTODRSS00014324,4/L,FRTODRSS00014325;1199.00;<p>Contents:93% NYLON/POLY, 7% SPANDEX / ,93% NYLON/POLY, 7% SP</p>;;;;;;;zerotype;;Summer;;No
1872385;119316-DARK PURPLE-1872385;Forever 21DARK PURPLEDresses;Draft;Dresses;FOREVER 21;Adults-Women;Women;;;;Fashion;;2017;1/XS,FRTODRSS00014319,2/S,FRTODRSS00014320,3/M,FRTODRSS00014321,4/L,FRTODRSS00014322;1599.00;<p>Contents:96% POLYESTER, 4% SPANDEX / , Lining:, Other:</p>;;;;;;;zerotype;;Summer;;No
1872383;102999-RED-1872383;Forever 21REDDresses;Draft;Dresses;FOREVER 21;Adults-Women;Women;;;;Fashion;;2017;2/S,FRTODRSS00014312,3/M,FRTODRSS00014313,4/L,FRTODRSS00014314;1399.00;<p>Garment:97% POLYESTER, 3% SPANDEX / ,100% POLYESTER Lining:,</p>;;;;;;;zerotype;;Summer;;No
1872382;98587-CREAM-1872382;Forever 21CREAMDresses;Draft;Dresses;FOREVER 21;Adults-Women;Women;;;;Fashion;;2017;1/XS,FRTODRSS00014308,2/S,FRTODRSS00014309,3/M,FRTODRSS00014310,4/L,FRTODRSS00014311;1899.00;<p>Contents:69% COTTON, 31% NYLON/POLY, Lining:100% POLYESTER,</p>;;;;;;;zerotype;;Summer;;No
1872379;78840-BLACK-1872379;Forever 21BLACKDresses;Draft;Dresses;FOREVER 21;Adults-Women;Women;;;;Fashion;;2017;2/S,FRTODRSS00014299,3/M,FRTODRSS00014300,4/L,FRTODRSS00014301;999.00;<p>Contents:94% COTTON, 6% SPANDEX / , Lining:, Other:</p>;;;;;;;zerotype;;Summer;;No
1872378;78672-ROYAL-1872378;Forever 21ROYALDresses;Draft;Dresses;FOREVER 21;Adults-Women;Women;;;;Fashion;;2017;1/XS,FRTODRSS00014294,2/S,FRTODRSS00014295,3/M,FRTODRSS00014296,4/L,FRTODRSS00014297,5/XL,FRTODRSS00014298;1399.00;<p>Contents:95% RAYON, 5% SPANDEX / , Lining:, Other:</p>;;;;;;;zerotype;;Summer;;No
1872377;78672-BLACK-1872377;Forever 21BLACKDresses;Draft;Dresses;FOREVER 21;Adults-Women;Women;;;;Fashion;;2017;1/XS,FRTODRSS00014289,2/S,FRTODRSS00014290,3/M,FRTODRSS00014291,4/L,FRTODRSS00014292,5/XL,FRTODRSS00014293;1399.00;<p>Contents:95% RAYON, 5% SPANDEX / , Lining:, Other:</p>;;;;;;;zerotype;;Summer;;No
1872376;57634-BLACK/ORANGE-1872376;Forever 21BLACK/ORANGEDresses;Draft;Dresses;FOREVER 21;Adults-Women;Women;;;;Fashion;;2017;1/XS,FRTODRSS00014285,2/S,FRTODRSS00014286,3/M,FRTODRSS00014287,4/L,FRTODRSS00014288;2599.00;<p>Contents:100% POLYESTER,100% POLYESTER Lining:, Other:</p>;;;;;;;zerotype;;Summer;;No
1872375;56733-BURGUNDY-1872375;Forever 21BURGUNDYDresses;Draft;Dresses;FOREVER 21;Adults-Women;Women;;;;Fashion;;2017;2/S,FRTODRSS00014282,3/M,FRTODRSS00014283,4/L,FRTODRSS00014284;1299.00;<p>Contents:90% POLYESTER, 10% SPANDEX / , Lining:, Other:</p>;;;;;;;zerotype;;Summer;;No
1872374;55834-YELLOW-1872374;Forever 21YELLOWDresses;Draft;Dresses;FOREVER 21;Adults-Women;Women;;;;Fashion;;2017;1/XS,FRTODRSS00014277,2/S,FRTODRSS00014278,3/M,FRTODRSS00014279,4/L,FRTODRSS00014280,5/XL,FRTODRSS00014281;1199.00;<p>Contents:100% POLYESTER, Lining:100% POLYESTER, Other:</p>;;;;;;;zerotype;;Summer;;No
1872370;147136-BLACK/FIERY RED-1872370;Forever 21BLACK/FIERY REDShorts;Draft;Shorts;FOREVER 21;Adults-Women;Women;;;;Fashion;;2017;1/XS,FRTOSHOR00005023,2/S,FRTOSHOR00005024,3/M,FRTOSHOR00005025,4/L,FRTOSHOR00005026;1149.00;<p>Contents:86% NYLON/POLYAMIDE, 14% SPANDEX / ELASTANE,91% NYL</p>;;;;;;;zerotype;;Summer;;No
1872369;146908-COCOA-1872369;Forever 21COCOAShorts;Draft;Shorts;FOREVER 21;Adults-Women;Women;;;;Fashion;;2017;1/XS,FRTOSHOR00005019,2/S,FRTOSHOR00005020,3/M,FRTOSHOR00005021,4/L,FRTOSHOR00005022;1299.00;<p>Contents:66% MODAL RAYON, 34% POLYESTER, Lining:, Other:</p>;;;;;;;zerotype;;Summer;;No
1872365;98631-BLUE/NATURAL-1872365;Forever 21BLUE/NATURALShorts;Draft;Shorts;FOREVER 21;Adults-Women;Women;;;;Fashion;;2017;1/XS,FRTOSHOR00004997,2/S,FRTOSHOR00004998,3/M,FRTOSHOR00004999,4/L,FRTOSHOR00005000;1049.00;<p>Contents:64% COTTON, 30% POLYESTER, 6% RAYON, Lining:, Other</p>;;;;;;;zerotype;;Summer;;No
1872363;78572-CHARCOAL HEATHER-1872363;Forever 21CHARCOAL HEATHERShorts;Draft;Shorts;FOREVER 21;Adults-Men;Men;;;;Fashion;;2017;1/XS,FRTOSHOR00004990,4/L,FRTOSHOR00004991;999.00;<p>Garment:80% COTTON, 20% POLYESTER, Lining:, Other:</p>;;;;;;;zerotype;;Summer;;No
1872362;54120-BLACK/CREAM-1872362;Forever 21BLACK/CREAMShorts;Draft;Shorts;FOREVER 21;Adults-Women;Women;;;;Fashion;;2017;1/XS,FRTOSHOR00004986,2/S,FRTOSHOR00004987,3/M,FRTOSHOR00004988,4/L,FRTOSHOR00004989;1349.00;<p>Contents:100% POLYESTER,100% RAYON Lining:100% POLYESTER, Ot</p>;;;;;;;zerotype;;Summer;;No
1872356;145754-BLACK-1872356;Forever 21BLACKCapri;Draft;Capris;FOREVER 21;Adults-Women;Women;;;;Fashion;;2017;XS,FRTOCPRI00000142,S,FRTOCPRI00000143,M,FRTOCPRI00000144,L,FRTOCPRI00000145;1899.00;<p>Contents:62% POLYESTER, 36% RAYON, 2% SPANDEX / ELASTANE, Li</p>;;;;;;;zerotype;;Summer;;No
1872355;53764-CHARCOAL/CHARCOAL-1872355;Forever 21CHARCOAL/CHARCOALCapri;Draft;Capris;FOREVER 21;Adults-Women;Women;;;;Fashion;;2017;XS,FRTOCPRI00000138,S,FRTOCPRI00000139,M,FRTOCPRI00000140,L,FRTOCPRI00000141;1259.00;<p>Contents:46% NYLON/POLYAMIDE, 42% POLYESTER, 12% SPANDEX / E</p>;;;;;;;zerotype;;Summer;;No
1872346;157522-PINK/NAVY-1872346;Forever 21PINK/NAVYSleepsuit;Draft;Sleepsuit;FOREVER 21;Adults-Women;Women;;;;Fashion;;2017;S,FRTOSPST00000548,M,FRTOSPST00000549,L,FRTOSPST00000550;1349.00;<p>Contents:98% COTTON, 1% OTHER FIBERS, 1% METALLIC YARN, Lini</p>;;;;;;;zerotype;;Summer;;No
1872344;154527-BLACK-1872344;Forever 21BLACKSleepsuit;Draft;Sleepsuit;FOREVER 21;Adults-Women;Women;;;;Fashion;;2017;S,FRTOSPST00000542,M,FRTOSPST00000543,L,FRTOSPST00000544;1189.00;<p>Contents:95% MODAL RAYON, 5% SPANDEX / ELASTANE, Lining:, Ot</p>;;;;;;;zerotype;;Summer;;No
1872343;141594-PINK/WHITE-1872343;Forever 21PINK/WHITESleepsuit;Draft;Sleepsuit;FOREVER 21;Adults-Women;Women;;;;Fashion;;2017;M,FRTOSPST00000540,L,FRTOSPST00000541;1799.00;<p>Garment:100% POLYESTER, Lining:, Other:</p>;;;;;;;zerotype;;Summer;;No
1872342;141586-PINK/WHITE-1872342;Forever 21PINK/WHITESleepsuit;Draft;Sleepsuit;FOREVER 21;Adults-Women;Women;;;;Fashion;;2017;S,FRTOSPST00000537,M,FRTOSPST00000538,L,FRTOSPST00000539;1949.00;<p>Contents:100% POLYESTER, Lining:, Other:</p>;;;;;;;zerotype;;Summer;;No
1872341;141579-BLACK/WHITE-1872341;Forever 21BLACK/WHITESleepsuit;Draft;Sleepsuit;FOREVER 21;Adults-Women;Women;;;;Fashion;;2017;S,FRTOSPST00000534,M,FRTOSPST00000535,L,FRTOSPST00000536;1949.00;<p>Contents:100% POLYESTER,100% POLYESTER Lining:, Other:</p>;;;;;;;zerotype;;Summer;;No
1872340;141551-BROWN/MULTI-1872340;Forever 21BROWN/MULTISleepsuit;Draft;Sleepsuit;FOREVER 21;Adults-Women;Women;;;;Fashion;;2017;S,FRTOSPST00000531,M,FRTOSPST00000532,L,FRTOSPST00000533;1949.00;<p>Contents:100% POLYESTER,100% POLYESTER Lining:, Other:</p>;;;;;;;zerotype;;Summer;;No
1872338;134269-CREAM-1872338;Forever 21CREAMSleepsuit;Draft;Sleepsuit;FOREVER 21;Adults-Women;Women;;;;Fashion;;2017;S,FRTOSPST00000525,M,FRTOSPST00000526,L,FRTOSPST00000527;2099.00;<p>Contents:100% NYLON/POLY, Lining:, Other:</p>;;;;;;;zerotype;;Summer;;No
1872337;77583-PINK/BLUE-1872337;Forever 21PINK/BLUESleepsuit;Draft;Sleepsuit;FOREVER 21;Adults-Women;Women;;;;Fashion;;2017;S,FRTOSPST00000522,M,FRTOSPST00000523,L,FRTOSPST00000524;1099.00;<p>Contents:100% POLYESTER, Lining:, Other:</p>;;;;;;;zerotype;;Summer;;No
1872336;52204-WHITE/MINT/MULTI-1872336;Forever 21WHITE/MINT/MULTISleepsuit;Draft;Sleepsuit;FOREVER 21;Adults-Women;Women;;;;Fashion;;2017;S,FRTOSPST00000519,M,FRTOSPST00000520,L,FRTOSPST00000521;899.00;<p>Contents:57% COTTON, 38% RAYON, 5% SPANDEX / , Lining:, Othe</p>;;;;;;;zerotype;;Summer;;No
1872329;161655-BLACK/GREY-1872329;Forever 21BLACK/GREYLeggings;Draft;Leggings;FOREVER 21;Adults-Women;Women;;;;Fashion;;2017;XS,FRTOLEGG00001752,M,FRTOLEGG00001753,L,FRTOLEGG00001754;1499.00;<p>Contents:86% NYLON/POLYAMIDE, 14% SPANDEX / ELASTANE,86% NYL</p>;;;;;;;zerotype;;Summer;;No
1872328;157443-BLACK/CHARCOAL-1872328;Forever 21BLACK/CHARCOALLeggings;Draft;Leggings;FOREVER 21;Adults-Women;Women;;;;Fashion;;2017;XS,FRTOLEGG00001748,S,FRTOLEGG00001749,M,FRTOLEGG00001750,L,FRTOLEGG00001751;949.00;<p>Contents:90% COTTON, 10% SPANDEX / ELASTANE,72% COTTON, 18%</p>;;;;;;;zerotype;;Summer;;No
1872327;146184-RUST/TAUPE-1872327;Forever 21RUST/TAUPELeggings;Draft;Leggings;FOREVER 21;Adults-Women;Women;;;;Fashion;;2017;S,FRTOLEGG00001746,L,FRTOLEGG00001747;1099.00;<p>Contents:54% COTTON, 26% ACRYLIC, 18% NYLON/POLYAMIDE, 2% SP</p>;;;;;;;zerotype;;Summer;;No
1872313;161580-BLACK-1872313;Forever 21BLACKBra;Draft;Bra;FOREVER 21;Adults-Women;Women;;;;Fashion;;2017;0/36D,FRTOBRAA00002688,1/32A,FRTOBRAA00002689,2/32B,FRTOBRAA00002690,3/32C,FRTOBRAA00002691,4/34A,FRTOBRAA00002692,5/34B,FRTOBRAA00002693,6/34C,FRTOBRAA00002694,7/34D,FRTOBRAA00002695,8/36B,FRTOBRAA00002696,9/36C,FRTOBRAA00002697;899.00;<p>Contents:84% NYLON/POLYAMIDE, 16% SPANDEX / ELASTANE,88% NYL</p>;;;;;;;zerotype;;Summer;;No
1872311;146074-BLACK-1872311;Forever 21BLACKBra;Draft;Bra;FOREVER 21;Adults-Women;Women;;;;Fashion;;2017;0/36D,FRTOBRAA00002674,1/32A,FRTOBRAA00002675,2/32B,FRTOBRAA00002676,3/32C,FRTOBRAA00002677,4/34A,FRTOBRAA00002678,5/34B,FRTOBRAA00002679,6/34C,FRTOBRAA00002680,7/34D,FRTOBRAA00002681,8/36B,FRTOBRAA00002683,9/36C,FRTOBRAA00002684;999.00;<p>Contents:95% NYLON/POLYAMIDE, 5% SPANDEX / ELASTANE,92% NYLO</p>;;;;;;;zerotype;;Summer;;No
1872310;133539-BLUE/LIGHT BLUE-1872310;Forever 21BLUE/LIGHT BLUEBra;Draft;Bra;FOREVER 21;Adults-Women;Women;;;;Fashion;;2017;0/36D,FRTOBRAA00002664,1/32A,FRTOBRAA00002665,2/32B,FRTOBRAA00002666,3/32C,FRTOBRAA00002667,4/34A,FRTOBRAA00002668,5/34B,FRTOBRAA00002669,6/34C,FRTOBRAA00002670,7/34D,FRTOBRAA00002671,8/36B,FRTOBRAA00002672,9/36C,FRTOBRAA00002673;799.00;<p>Contents:81% NYLON/POLYAMIDE, 10% SPANDEX / ELASTANE, 9% RAY</p>;;;;;;;zerotype;;Summer;;No
1872309;133539-BLACK/TAUPE-1872309;Forever 21BLACK/TAUPEBra;Draft;Bra;FOREVER 21;Adults-Women;Women;;;;Fashion;;2017;0/36D,FRTOBRAA00002654,1/32A,FRTOBRAA00002655,2/32B,FRTOBRAA00002656,3/32C,FRTOBRAA00002657,4/34A,FRTOBRAA00002658,5/34B,FRTOBRAA00002659,6/34C,FRTOBRAA00002660,7/34D,FRTOBRAA00002661,8/36B,FRTOBRAA00002662,9/36C,FRTOBRAA00002663;799.00;<p>Contents:81% NYLON/POLYAMIDE, 10% SPANDEX / ELASTANE, 9% RAY</p>;;;;;;;zerotype;;Summer;;No
1872308;81936-NAVY/MULTI/RED-1872308;Forever 21NAVY/MULTI/REDBra;Draft;Bra;FOREVER 21;Adults-Women;Women;;;;Fashion;;2017;0/36D,FRTOBRAA00002644,1/32A,FRTOBRAA00002645,2/32B,FRTOBRAA00002646,3/32C,FRTOBRAA00002647,4/34A,FRTOBRAA00002648,5/34B,FRTOBRAA00002649,6/34C,FRTOBRAA00002650,7/34D,FRTOBRAA00002651,8/36B,FRTOBRAA00002652,9/36C,FRTOBRAA00002653;999.00;<p>Contents:92% POLYESTER, 8% SPANDEX / , Lining:100% POLYESTER</p>;;;;;;;zerotype;;Summer;;No
1872300;115478-BLACK-1872300;Forever 21BLACKJeans;Draft;Jeans;FOREVER 21;Adults-Men;Men;;;;Fashion;;2017;0/36/32,FRTOJENS00003501,2/29/30,FRTOJENS00003502,3/30/30,FRTOJENS00003503,4/30/32,FRTOJENS00003504,5/31/32,FRTOJENS00003505,6/32/30,FRTOJENS00003506,7/32/32,FRTOJENS00003507,8/33/32,FRTOJENS00003508,9/34/32,FRTOJENS00003509;1399.00;<p>Contents:79% COTTON, 20% POLYESTER, 1% SPANDEX / , Lining:,</p>;;;;;;;zerotype;;Summer;;No
1872299;83500-MEDIUM DENIM-1872299;Forever 21MEDIUM DENIMJeans;Draft;Jeans;FOREVER 21;Adults-Men;Men;;;;Fashion;;2017;0/36/32,FRTOJENS00003492,2/29/30,FRTOJENS00003493,3/30/30,FRTOJENS00003494,4/30/32,FRTOJENS00003495,5/31/32,FRTOJENS00003496,6/32/30,FRTOJENS00003497,7/32/32,FRTOJENS00003498,8/33/32,FRTOJENS00003499,9/34/32,FRTOJENS00003500;1549.00;<p>Contents:76% COTTON, 18% POLYESTER, 6% RAYON, Lining:, Other</p>;;;;;;;zerotype;;Summer;;No
1872297;146341-WHITE-1872297;Forever 21WHITESweatshirts;Draft;Sweatshirts;FOREVER 21;Adults-Men;Men;;;;Fashion;;2017;1/XS,FRTOSWSH00000199,2/S,FRTOSWSH00000200,3/M,FRTOSWSH00000201,4/L,FRTOSWSH00000202,5/XL,FRTOSWSH00000203;949.00;<p>Contents:100% COTTON, Lining:, Other:</p>;;;;;;;zerotype;;Summer;;No
1872288;154337-CHARCOAL-1872288;Forever 21CHARCOALJumpsuit;Draft;Jumpsuit;FOREVER 21;Adults-Women;Women;;;;Fashion;;2017;2/S,FRTOJMST00002439,3/M,FRTOJMST00002440,4/L,FRTOJMST00002441;1549.00;<p>Contents:62% COTTON, 38% POLYESTER, Lining:, Other:</p>;;;;;;;zerotype;;Summer;;No
1872287;147542-OLIVE-1872287;Forever 21OLIVEJumpsuit;Draft;Jumpsuit;FOREVER 21;Adults-Women;Women;;;;Fashion;;2017;1/XS,FRTOJMST00002435,2/S,FRTOJMST00002436,3/M,FRTOJMST00002437,4/L,FRTOJMST00002438;2799.00;<p>Contents:87% MODAL RAYON, 13% POLYESTER, Lining:, Other:</p>;;;;;;;zerotype;;Summer;;No
1872286;146796-RED-1872286;Forever 21REDJumpsuit;Draft;Jumpsuit;FOREVER 21;Adults-Women;Women;;;;Fashion;;2017;1/XS,FRTOJMST00002431,2/S,FRTOJMST00002432,3/M,FRTOJMST00002433,4/L,FRTOJMST00002434;2149.00;<p>Contents:100% LYOCELL, Lining:100% POLYESTER, Other:</p>;;;;;;;zerotype;;Summer;;No
1872285;115195-MEDIUM DENIM-1872285;Forever 21MEDIUM DENIMJumpsuit;Draft;Jumpsuit;FOREVER 21;Adults-Women;Women;;;;Fashion;;2017;2/S,FRTOJMST00002428,3/M,FRTOJMST00002429,4/L,FRTOJMST00002430;2399.00;<p>Contents:100% COTTON, Lining:, Other:</p>;;;;;;;zerotype;;Summer;;No
1872284;114864-DUSTY BLUE-1872284;Forever 21DUSTY BLUEJumpsuit;Draft;Jumpsuit;FOREVER 21;Adults-Women;Women;;;;Fashion;;2017;2/S,FRTOJMST00002425,3/M,FRTOJMST00002426,4/L,FRTOJMST00002427;1349.00;<p>Contents:100% RAYON, Lining:, Other:</p>;;;;;;;zerotype;;Summer;;No
1872283;97737-OLIVE-1872283;Forever 21OLIVEJumpsuit;Draft;Jumpsuit;FOREVER 21;Adults-Women;Women;;;;Fashion;;2017;2/S,FRTOJMST00002422,3/M,FRTOJMST00002423,4/L,FRTOJMST00002424;1199.00;<p>Contents:94% RAYON, 6% SPANDEX / , Lining:, Other:</p>;;;;;;;zerotype;;Summer;;No
1872282;80554-WHITE-1872282;Forever 21WHITEJumpsuit;Draft;Jumpsuit;FOREVER 21;Adults-Women;Women;;;;Fashion;;2017;1/XS,FRTOJMST00002418,2/S,FRTOJMST00002419,3/M,FRTOJMST00002420,4/L,FRTOJMST00002421;2299.00;<p>Contents:100% COTTON, Lining:, Other:</p>;;;;;;;zerotype;;Summer;;No
1872281;80156-BLACK-1872281;Forever 21BLACKJumpsuit;Draft;Jumpsuit;FOREVER 21;Adults-Women;Women;;;;Fashion;;2017;2/S,FRTOJMST00002415,3/M,FRTOJMST00002416,4/L,FRTOJMST00002417;2399.00;<p>Contents:100% POLYESTER, Lining:, Other:</p>;;;;;;;zerotype;;Summer;;No
1872280;79102-TAUPE/BLACK-1872280;Forever 21TAUPE/BLACKJumpsuit;Draft;Jumpsuit;FOREVER 21;Adults-Women;Women;;;;Fashion;;2017;2/S,FRTOJMST00002412,3/M,FRTOJMST00002413,4/L,FRTOJMST00002414;1099.00;<p>Contents:100% RAYON, Lining:, Other:</p>;;;;;;;zerotype;;Summer;;No
1872278;156902-HEATHER GREY-1872278;Forever 21HEATHER GREYTunics;Draft;Tunics;FOREVER 21;Adults-Women;Women;;;;Fashion;;2017;2/S,FRTOTNIC00000223,3/M,FRTOTNIC00000224,4/L,FRTOTNIC00000225;1599.00;<p>Contents:100% RAYON, Lining:, Other:</p>;;;;;;;zerotype;;Summer;;No
1872277;157690-CHARCOAL-1872277;Forever 21CHARCOALTights;Draft;Tights;FOREVER 21;Adults-Women;Women;;;;Fashion;;2017;S/M,FRTOTIGH00000034,M/L,FRTOTIGH00000035;699.00;<p>Contents:40% ACRYLIC, 37% RAYON, 21% POLYESTER, 2% SPANDEX /</p>;;;;;;;zerotype;;Summer;;No
1872276;157690-BLACK-1872276;Forever 21BLACKTights;Draft;Tights;FOREVER 21;Adults-Women;Women;;;;Fashion;;2017;S/M,FRTOTIGH00000032,M/L,FRTOTIGH00000033;699.00;<p>Contents:40% ACRYLIC, 37% RAYON, 21% POLYESTER, 2% SPANDEX /</p>;;;;;;;zerotype;;Summer;;No
1872269;161346-CHARCOAL/BLACK-1872269;Forever 21CHARCOAL/BLACKJackets;Draft;Jackets;FOREVER 21;Adults-Women;Women;;;;Fashion;;2017;1/XS,FRTOJCKT00002587,2/S,FRTOJCKT00002588,3/M,FRTOJCKT00002589,4/L,FRTOJCKT00002590;1399.00;<p>Garment:47% POLYESTER, 47% NYLON/POLYAMIDE, 6% SPANDEX / ELA</p>;;;;;;;zerotype;;Summer;;No
1872268;142495-LIME-1872268;Forever 21LIMEJackets;Draft;Jackets;FOREVER 21;Adults-Women;Women;;;;Fashion;;2017;1/XS,FRTOJCKT00002583,2/S,FRTOJCKT00002584,3/M,FRTOJCKT00002585,4/L,FRTOJCKT00002586;1749.00;<p>Contents:88% POLYESTER, 12% SPANDEX / ELASTANE, Lining:, Oth</p>;;;;;;;zerotype;;Summer;;No
1872267;98382-BLACK/BLACK-1872267;Forever 21BLACK/BLACKJackets;Draft;Jackets;FOREVER 21;Adults-Women;Women;;;;Fashion;;2017;1/XS,FRTOJCKT00002579,2/S,FRTOJCKT00002580,3/M,FRTOJCKT00002581,4/L,FRTOJCKT00002582;1999.00;<p>Contents:64% POLYESTER, 36% NYLON/POLY,90% NYLON/POLY, 10% S</p>;;;;;;;zerotype;;Summer;;No
1872237;157085-BLACK/WHITE-1872237;Forever 21BLACKTrousers;Draft;Trousers;FOREVER 21;Adults-Women;Women;;;;Fashion;;2017;1/XS,FRTOTRSR00003754,2/S,FRTOTRSR00003755,3/M,FRTOTRSR00003756,4/L,FRTOTRSR00003757;1549.00;<p>Contents:60% COTTON, 40% POLYESTER, Lining:, Other:</p>;;;;;;;zerotype;;Summer;;No
1872236;157040-HEATHER GREY/WHITE-1872236;Forever 21BLACKTrousers;Draft;Trousers;FOREVER 21;Adults-Women;Women;;;;Fashion;;2017;1/XS,FRTOTRSR00003750,2/S,FRTOTRSR00003751,3/M,FRTOTRSR00003752,4/L,FRTOTRSR00003753;1299.00;<p>Contents:62% COTTON, 38% POLYESTER, Lining:, Other:</p>;;;;;;;zerotype;;Summer;;No
1872235;156708-HEATHER BURGUNDY-1872235;Forever 21BLACKTrousers;Draft;Trousers;FOREVER 21;Adults-Men;Men;;;;Fashion;;2017;1/XS,FRTOTRSR00003745,2/S,FRTOTRSR00003746,3/M,FRTOTRSR00003747,4/L,FRTOTRSR00003748,5/XL,FRTOTRSR00003749;1199.00;<p>Contents:74% POLYESTER, 26% COTTON, Lining:, Other:</p>;;;;;;;zerotype;;Summer;;No
1872234;156708-CHARCOAL HEATHER-1872234;Forever 21BLACKTrousers;Draft;Trousers;FOREVER 21;Adults-Men;Men;;;;Fashion;;2017;1/XS,FRTOTRSR00003740,2/S,FRTOTRSR00003741,3/M,FRTOTRSR00003742,4/L,FRTOTRSR00003743,5/XL,FRTOTRSR00003744;1199.00;<p>Contents:74% POLYESTER, 26% COTTON, Lining:, Other:</p>;;;;;;;zerotype;;Summer;;No
1872233;156677-OLIVE-1872233;Forever 21BLACKTrousers;Draft;Trousers;FOREVER 21;Adults-Women;Women;;;;Fashion;;2017;1/XS,FRTOTRSR00003739;1299.00;<p>Contents:98% COTTON, 2% SPANDEX / ELASTANE, Lining:, Other:</p>;;;;;;;zerotype;;Summer;;No
1872232;156677-NAVY-1872232;Forever 21BLACKTrousers;Draft;Trousers;FOREVER 21;Adults-Women;Women;;;;Fashion;;2017;1/XS,FRTOTRSR00003735,2/S,FRTOTRSR00003736,3/M,FRTOTRSR00003737,4/L,FRTOTRSR00003738;1299.00;<p>Contents:98% COTTON, 2% SPANDEX / ELASTANE, Lining:, Other:</p>;;;;;;;zerotype;;Summer;;No
1872228;142433-OLIVE-1872228;Forever 21BLACKTrousers;Draft;Trousers;FOREVER 21;Adults-Men;Men;;;;Fashion;;2017;0/36,FRTOTRSR00003713,3/29,FRTOTRSR00003714,4/30,FRTOTRSR00003715,5/31,FRTOTRSR00003716,6/32,FRTOTRSR00003717,7/33,FRTOTRSR00003718,8/34,FRTOTRSR00003719;2049.00;<p>Contents:71% COTTON, 27% POLYESTER, 2% SPANDEX / ELASTANE, L</p>;;;;;;;zerotype;;Summer;;No
1872227;142433-BURGUNDY-1872227;Forever 21BLACKTrousers;Draft;Trousers;FOREVER 21;Adults-Men;Men;;;;Fashion;;2017;0/36,FRTOTRSR00003706,3/29,FRTOTRSR00003707,4/30,FRTOTRSR00003708,5/31,FRTOTRSR00003709,6/32,FRTOTRSR00003710,7/33,FRTOTRSR00003711,8/34,FRTOTRSR00003712;2049.00;<p>Contents:71% COTTON, 27% POLYESTER, 2% SPANDEX / ELASTANE, L</p>;;;;;;;zerotype;;Summer;;No
1872222;131719-CHARCOAL/HEATHER GREY-1872222;Forever 21BLACKTrousers;Draft;Trousers;FOREVER 21;Adults-Men;Men;;;;Fashion;;2017;1/XS,FRTOTRSR00003677,2/S,FRTOTRSR00003678,3/M,FRTOTRSR00003679,4/L,FRTOTRSR00003680,5/XL,FRTOTRSR00003681;1199.00;<p>Contents:60% COTTON, 40% POLYESTER, Lining:, Other:</p>;;;;;;;zerotype;;Summer;;No
1872221;115412-OLIVE/NAVY-1872221;Forever 21BLACKTrousers;Draft;Trousers;FOREVER 21;Adults-Men;Men;;;;Fashion;;2017;0/36,FRTOTRSR00003670,3/29,FRTOTRSR00003671,4/30,FRTOTRSR00003672,5/31,FRTOTRSR00003673,6/32,FRTOTRSR00003674,7/33,FRTOTRSR00003675,8/34,FRTOTRSR00003676;1999.00;<p>Contents:99% COTTON, 1% SPANDEX / , Lining:, Other:</p>;;;;;;;zerotype;;Summer;;No
1872220;115412-KHAKI/NAVY-1872220;Forever 21BLACKTrousers;Draft;Trousers;FOREVER 21;Adults-Men;Men;;;;Fashion;;2017;0/36,FRTOTRSR00003663,3/29,FRTOTRSR00003664,4/30,FRTOTRSR00003665,5/31,FRTOTRSR00003666,6/32,FRTOTRSR00003667,7/33,FRTOTRSR00003668,8/34,FRTOTRSR00003669;1999.00;<p>Contents:99% COTTON, 1% SPANDEX / , Lining:, Other:</p>;;;;;;;zerotype;;Summer;;No
1872219;99110-KHAKI-1872219;Forever 21BLACKTrousers;Draft;Trousers;FOREVER 21;Adults-Women;Women;;;;Fashion;;2017;1/XS,FRTOTRSR00003659,2/S,FRTOTRSR00003660,3/M,FRTOTRSR00003661,4/L,FRTOTRSR00003662;999.00;<p>Contents:95% POLYESTER, 5% SPANDEX / , Lining:, Other:</p>;;;;;;;zerotype;;Summer;;No
1872218;82341-BLACK-1872218;Forever 21BLACKTrousers;Draft;Trousers;FOREVER 21;Adults-Women;Women;;;;Fashion;;2017;1/XS,FRTOTRSR00003655,2/S,FRTOTRSR00003656,3/M,FRTOTRSR00003657,4/L,FRTOTRSR00003658;1499.00;<p>Contents:95% POLYESTER, 5% SPANDEX / , Lining:, Other:</p>;;;;;;;zerotype;;Summer;;No
1872217;78557-NAVY/HEATHER GREY-1872217;Forever 21BLACKTrousers;Draft;Trousers;FOREVER 21;Adults-Men;Men;;;;Fashion;;2017;1/XS,FRTOTRSR00003650,2/S,FRTOTRSR00003651,3/M,FRTOTRSR00003652,4/L,FRTOTRSR00003653,5/XL,FRTOTRSR00003654;1249.00;<p>Contents:60% COTTON, 40% POLYESTER, Lining:, Other:</p>;;;;;;;zerotype;;Summer;;No
1872216;78312-HEATHER GREY-1872216;Forever 21BLACKTrousers;Draft;Trousers;FOREVER 21;Adults-Men;Men;;;;Fashion;;2017;1/XS,FRTOTRSR00003645,2/S,FRTOTRSR00003646,3/M,FRTOTRSR00003647,4/L,FRTOTRSR00003648,5/XL,FRTOTRSR00003649;1199.00;<p>Contents:90% COTTON, 10% VISCOSE RA, Lining:, Other:</p>;;;;;;;zerotype;;Summer;;No
1872215;55571-BLACK-1872215;Forever 21BLACKTrousers;Draft;Trousers;FOREVER 21;Adults-Women;Women;;;;Fashion;;2017;1/XS,FRTOTRSR00003641,2/S,FRTOTRSR00003642,3/M,FRTOTRSR00003643,4/L,FRTOTRSR00003644;899.00;<p>Contents:100% RAYON, Lining:, Other:</p>;;;;;;;zerotype;;Summer;;No
1872121;158303-IVORY-1872121;Forever 21IVORYTops;Draft;Tops;FOREVER 21;Adults-Women;Women;;;;Fashion;;2017;1/XS,FRTOTOPS00027900,2/S,FRTOTOPS00027901,3/M,FRTOTOPS00027902,4/L,FRTOTOPS00027903,5/XL,FRTOTOPS00027904;949.00;<p>Contents:74% POLYESTER, 22% RAYON, 4% SPANDEX / ELASTANE, Li</p>;;;;;;;zerotype;;Summer;;No
1872120;158303-BURGUNDY-1872120;Forever 21BURGUNDYTops;Draft;Tops;FOREVER 21;Adults-Women;Women;;;;Fashion;;2017;1/XS,FRTOTOPS00027895,2/S,FRTOTOPS00027896,3/M,FRTOTOPS00027897,4/L,FRTOTOPS00027898,5/XL,FRTOTOPS00027899;949.00;<p>Contents:74% POLYESTER, 22% RAYON, 4% SPANDEX / ELASTANE, Li</p>;;;;;;;zerotype;;Summer;;No
1872119;158266-BLUSH-1872119;Forever 21BLUSHTops;Draft;Tops;FOREVER 21;Adults-Women;Women;;;;Fashion;;2017;2/S,FRTOTOPS00027892,3/M,FRTOTOPS00027893,4/L,FRTOTOPS00027894;909.00;<p>Contents:100% POLYESTER, Lining:100% POLYESTER, Other:</p>;;;;;;;zerotype;;Summer;;No
1872118;157631-WHITE/BLUE-1872118;Forever 21WHITE/BLUETops;Draft;Tops;FOREVER 21;Adults-Women;Women;;;;Fashion;;2017;2/S,FRTOTOPS00027889,3/M,FRTOTOPS00027890,4/L,FRTOTOPS00027891;1699.00;<p>Contents:100% RAYON, Lining:, Other:</p>;;;;;;;zerotype;;Summer;;No
1872116;156664-OLIVE-1872116;Forever 21OLIVETops;Draft;Tops;FOREVER 21;Adults-Women;Women;;;;Fashion;;2017;1/XS,FRTOTOPS00027882,2/S,FRTOTOPS00027883,3/M,FRTOTOPS00027884,4/L,FRTOTOPS00027885;599.00;<p>Contents:58% COTTON, 38% MODAL RAYON, 4% SPANDEX / ELASTANE,</p>;;;;;;;zerotype;;Summer;;No
1872114;156468-TAUPE/CREAM-1872114;Forever 21TAUPE/CREAMTops;Draft;Tops;FOREVER 21;Adults-Women;Women;;;;Fashion;;2017;1/XS,FRTOTOPS00027875,2/S,FRTOTOPS00027876,3/M,FRTOTOPS00027877,4/L,FRTOTOPS00027878;949.00;<p>Contents:53% POLYESTER, 45% RAYON, 2% SPANDEX / ELASTANE, Li</p>;;;;;;;zerotype;;Summer;;No
1872109;147347-BURGUNDY-1872109;Forever 21BURGUNDYTops;Draft;Tops;FOREVER 21;Adults-Women;Women;;;;Fashion;;2017;1/XS,FRTOTOPS00027857,2/S,FRTOTOPS00027858,3/M,FRTOTOPS00027859,4/L,FRTOTOPS00027860;1199.00;<p>Contents:54% RAYON, 45% NYLON/POLYAMIDE, 1% SPANDEX / ELASTA</p>;;;;;;;zerotype;;Summer;;No
1872108;147347-BLACK-1872108;Forever 21BLACKTops;Draft;Tops;FOREVER 21;Adults-Women;Women;;;;Fashion;;2017;1/XS,FRTOTOPS00027853,2/S,FRTOTOPS00027854,3/M,FRTOTOPS00027855,4/L,FRTOTOPS00027856;1199.00;<p>Contents:54% RAYON, 45% NYLON/POLYAMIDE, 1% SPANDEX / ELASTA</p>;;;;;;;zerotype;;Summer;;No
1872107;147280-BLACK-1872107;Forever 21BLACKTops;Draft;Tops;FOREVER 21;Adults-Women;Women;;;;Fashion;;2017;1/XS,FRTOTOPS00027849,2/S,FRTOTOPS00027850,3/M,FRTOTOPS00027851,4/L,FRTOTOPS00027852;1049.00;<p>Contents:95% RAYON, 5% SPANDEX / ELASTANE, Lining:, Other:</p>;;;;;;;zerotype;;Summer;;No
1872104;146726-TAUPE/BLACK-1872104;Forever 21TAUPE/BLACKTops;Draft;Tops;FOREVER 21;Adults-Women;Women;;;;Fashion;;2017;2/S,FRTOTOPS00027840,3/M,FRTOTOPS00027841,4/L,FRTOTOPS00027842;799.00;<p>Contents:100% POLYESTER, Lining:, Other:</p>;;;;;;;zerotype;;Summer;;No
1872100;146521-OLIVE-1872100;Forever 21OLIVETops;Draft;Tops;FOREVER 21;Adults-Women;Women;;;;Fashion;;2017;2/S,FRTOTOPS00027828,3/M,FRTOTOPS00027829,4/L,FRTOTOPS00027830;799.00;<p>Contents:71% VISCOSE RAYON, 25% POLYESTER, 4% SPANDEX / ELAS</p>;;;;;;;zerotype;;Summer;;No
1872099;146521-BLACK-1872099;Forever 21BLACKTops;Draft;Tops;FOREVER 21;Adults-Women;Women;;;;Fashion;;2017;2/S,FRTOTOPS00027825,3/M,FRTOTOPS00027826,4/L,FRTOTOPS00027827;799.00;<p>Contents:71% VISCOSE RAYON, 25% POLYESTER, 4% SPANDEX / ELAS</p>;;;;;;;zerotype;;Summer;;No
1872098;146520-HEATHER GREY-1872098;Forever 21HEATHER GREYTops;Draft;Tops;FOREVER 21;Adults-Women;Women;;;;Fashion;;2017;1/XS,FRTOTOPS00027821,2/S,FRTOTOPS00027822,3/M,FRTOTOPS00027823,4/L,FRTOTOPS00027824;1399.00;<p>Contents:100% COTTON, Lining:, Other:</p>;;;;;;;zerotype;;Summer;;No
1872096;145828-TAN/CHARCOAL-1872096;Forever 21TAN/CHARCOALTops;Draft;Tops;FOREVER 21;Adults-Women;Women;;;;Fashion;;2017;1/XS,FRTOTOPS00027814,2/S,FRTOTOPS00027815,3/M,FRTOTOPS00027816,4/L,FRTOTOPS00027817;949.00;<p>Contents:75% RAYON, 21% POLYESTER, 4% SPANDEX / ELASTANE, Li</p>;;;;;;;zerotype;;Summer;;No
1872095;145253-HEATHER GREY-1872095;Forever 21HEATHER GREYTops;Draft;Tops;FOREVER 21;Adults-Women;Women;;;;Fashion;;2017;2/S,FRTOTOPS00027811,3/M,FRTOTOPS00027812,4/L,FRTOTOPS00027813;1549.00;<p>Contents:69% POLYESTER, 31% COTTON, Lining:, Other:</p>;;;;;;;zerotype;;Summer;;No
1872092;142936-WHITE-1872092;Forever 21WHITETops;Draft;Tops;FOREVER 21;Adults-Women;Women;;;;Fashion;;2017;2/S,FRTOTOPS00027802,3/M,FRTOTOPS00027803,4/L,FRTOTOPS00027804;1449.00;<p>Contents:60% COTTON, 40% MODAL RAYON, Lining:, Other:</p>;;;;;;;zerotype;;Summer;;No
1872091;142936-BLACK-1872091;Forever 21BLACKTops;Draft;Tops;FOREVER 21;Adults-Women;Women;;;;Fashion;;2017;2/S,FRTOTOPS00027799,3/M,FRTOTOPS00027800,4/L,FRTOTOPS00027801;1449.00;<p>Contents:60% COTTON, 40% MODAL RAYON, Lining:, Other:</p>;;;;;;;zerotype;;Summer;;No
1872090;142936-BEIGE-1872090;Forever 21BEIGETops;Draft;Tops;FOREVER 21;Adults-Women;Women;;;;Fashion;;2017;2/S,FRTOTOPS00027796,3/M,FRTOTOPS00027797,4/L,FRTOTOPS00027798;1449.00;<p>Contents:60% COTTON, 40% MODAL RAYON, Lining:, Other:</p>;;;;;;;zerotype;;Summer;;No
1872089;142900-IVORY-1872089;Forever 21IVORYTops;Draft;Tops;FOREVER 21;Adults-Women;Women;;;;Fashion;;2017;2/S,FRTOTOPS00027793,3/M,FRTOTOPS00027794,4/L,FRTOTOPS00027795;949.00;<p>Contents:55% POLYESTER, 43% RAYON, 2% SPANDEX / ELASTANE, Li</p>;;;;;;;zerotype;;Summer;;No
1872088;142900-GREY-1872088;Forever 21GREYTops;Draft;Tops;FOREVER 21;Adults-Women;Women;;;;Fashion;;2017;2/S,FRTOTOPS00027790,3/M,FRTOTOPS00027791,4/L,FRTOTOPS00027792;949.00;<p>Contents:55% POLYESTER, 43% RAYON, 2% SPANDEX / ELASTANE, Li</p>;;;;;;;zerotype;;Summer;;No
1872086;142656-MUSTARD-1872086;Forever 21MUSTARDTops;Draft;Tops;FOREVER 21;Adults-Women;Women;;;;Fashion;;2017;2/S,FRTOTOPS00027785,3/M,FRTOTOPS00027786;1149.00;<p>Garment:91% POLYESTER, 9% SPANDEX / ELASTANE, Lining:, Other</p>;;;;;;;zerotype;;Summer;;No
1872085;142484-BLACK/BLACK-1872085;Forever 21BLACK/BLACKTops;Draft;Tops;FOREVER 21;Adults-Women;Women;;;;Fashion;;2017;2/S,FRTOTOPS00027782,3/M,FRTOTOPS00027783,4/L,FRTOTOPS00027784;1549.00;<p>Garment:37% COTTON, 35% RAYON, 28% NYLON/POLYAMIDE,89% POLYE</p>;;;;;;;zerotype;;Summer;;No
1872084;141896-NAVY/MULTI-1872084;Forever 21NAVY/MULTITops;Draft;Tops;FOREVER 21;Adults-Women;Women;;;;Fashion;;2017;2/S,FRTOTOPS00027779,3/M,FRTOTOPS00027780,4/L,FRTOTOPS00027781;1249.00;<p>Contents:100% COTTON, Lining:, Other:</p>;;;;;;;zerotype;;Summer;;No
1872083;141892-RED/NAVY/CREAM-1872083;Forever 21RED/NAVY/CREAMTops;Draft;Tops;FOREVER 21;Adults-Women;Women;;;;Fashion;;2017;2/S,FRTOTOPS00027776,3/M,FRTOTOPS00027777,4/L,FRTOTOPS00027778;1549.00;<p>Contents:100% COTTON, Lining:, Other:</p>;;;;;;;zerotype;;Summer;;No
1872082;141418-CHARCOAL-1872082;Forever 21CHARCOALTops;Draft;Tops;FOREVER 21;Adults-Women;Women;;;;Fashion;;2017;2/S,FRTOTOPS00027773,3/M,FRTOTOPS00027774,4/L,FRTOTOPS00027775;1549.00;<p>Garment:100% VISCOSE,100% COTTON Lining:, Other:</p>;;;;;;;zerotype;;Summer;;No
1872081;140780-BLACK/WHITE-1872081;Forever 21BLACK/WHITETops;Draft;Tops;FOREVER 21;Adults-Women;Women;;;;Fashion;;2017;2/S,FRTOTOPS00027770,3/M,FRTOTOPS00027771,4/L,FRTOTOPS00027772;1299.00;<p>Contents:100% POLYESTER, Lining:, Other:</p>;;;;;;;zerotype;;Summer;;No
1872080;140523-BLACK-1872080;Forever 21BLACKTops;Draft;Tops;FOREVER 21;Adults-Women;Women;;;;Fashion;;2017;2/S,FRTOTOPS00027767,3/M,FRTOTOPS00027768,4/L,FRTOTOPS00027769;1549.00;<p>Garment:60% COTTON, 40% POLYESTER, Lining:, Other:</p>;;;;;;;zerotype;;Summer;;No
1872079;135485-BLUSH/SAGE-1872079;Forever 21BLUSH/SAGETops;Draft;Tops;FOREVER 21;Adults-Women;Women;;;;Fashion;;2017;2/S,FRTOTOPS00027764,3/M,FRTOTOPS00027765,4/L,FRTOTOPS00027766;799.00;<p>Garment:100% POLYESTER, Lining:, Other:</p>;;;;;;;zerotype;;Summer;;No
1872078;135418-PEACH-1872078;Forever 21PEACHTops;Draft;Tops;FOREVER 21;Adults-Women;Women;;;;Fashion;;2017;2/S,FRTOTOPS00027761,3/M,FRTOTOPS00027762,4/L,FRTOTOPS00027763;799.00;<p>Contents:100% POLYESTER, Lining:, Other:</p>;;;;;;;zerotype;;Summer;;No
1872077;116328-SALMON-1872077;Forever 21SALMONTops;Draft;Tops;FOREVER 21;Adults-Women;Women;;;;Fashion;;2017;2/S,FRTOTOPS00027758,3/M,FRTOTOPS00027759,4/L,FRTOTOPS00027760;1399.00;<p>Contents:79% POLYESTER, 21% RAYON,62% POLYESTER, 37% COTTON,</p>;;;;;;;zerotype;;Summer;;No
1872076;115096-BLACK-1872076;Forever 21BLACKTops;Draft;Tops;FOREVER 21;Adults-Women;Women;;;;Fashion;;2017;2/S,FRTOTOPS00027755,3/M,FRTOTOPS00027756,4/L,FRTOTOPS00027757;899.00;<p>Contents:84% POLYESTER, 16% RAYON, Lining:, Other:</p>;;;;;;;zerotype;;Summer;;No
1872075;100814-BLACK-1872075;Forever 21BLACKTops;Draft;Tops;FOREVER 21;Adults-Women;Women;;;;Fashion;;2017;2/S,FRTOTOPS00027752,3/M,FRTOTOPS00027753,4/L,FRTOTOPS00027754;699.00;<p>Contents:95% COTTON, 5% SPANDEX / , Lining:, Other:</p>;;;;;;;zerotype;;Summer;;No
1872074;97507-CREAM/BLACK-1872074;Forever 21CREAM/BLACKTops;Draft;Tops;FOREVER 21;Adults-Women;Women;;;;Fashion;;2017;2/S,FRTOTOPS00027749,3/M,FRTOTOPS00027750,4/L,FRTOTOPS00027751;1199.00;<p>Contents:96% POLYESTER, 4% SPANDEX / , Lining:, Other:</p>;;;;;;;zerotype;;Summer;;No
1872073;79968-NAVY/WHITE-1872073;Forever 21NAVY/WHITETops;Draft;Tops;FOREVER 21;Adults-Women;Women;;;;Fashion;;2017;2/S,FRTOTOPS00027746,3/M,FRTOTOPS00027747,4/L,FRTOTOPS00027748;1049.00;<p>Contents:100% LINEN (FLA, Lining:, Other:</p>;;;;;;;zerotype;;Summer;;No
1872072;79210-NAVY/CREAM/RED-1872072;Forever 21NAVY/CREAM/REDTops;Draft;Tops;FOREVER 21;Adults-Women;Women;;;;Fashion;;2017;2/S,FRTOTOPS00027743,3/M,FRTOTOPS00027744,4/L,FRTOTOPS00027745;1299.00;<p>Contents:100% RAYON, Lining:, Other:100% POLYESTER</p>;;;;;;;zerotype;;Summer;;No
1872071;78704-HEATHER GREY-1872071;Forever 21HEATHER GREYTops;Draft;Tops;FOREVER 21;Adults-Women;Women;;;;Fashion;;2017;2/S,FRTOTOPS00027740,3/M,FRTOTOPS00027741,4/L,FRTOTOPS00027742;699.00;<p>Contents:100% COTTON, Lining:, Other:</p>;;;;;;;zerotype;;Summer;;No
1872070;78137-TAUPE/BLACK-1872070;Forever 21TAUPE/BLACKTops;Draft;Tops;FOREVER 21;Adults-Women;Women;;;;Fashion;;2017;1/XS,FRTOTOPS00027735,2/S,FRTOTOPS00027736,3/M,FRTOTOPS00027737,4/L,FRTOTOPS00027738,5/XL,FRTOTOPS00027739;599.00;<p>Contents:95% COTTON, 5% SPANDEX / , Lining:, Other:</p>;;;;;;;zerotype;;Summer;;No
1872069;76587-BLACK-1872069;Forever 21BLACKTops;Draft;Tops;FOREVER 21;Adults-Women;Women;;;;Fashion;;2017;2/S,FRTOTOPS00027732,3/M,FRTOTOPS00027733,4/L,FRTOTOPS00027734;2249.00;<p>Contents:100% NYLON/POLY,100% COTTON Lining:, Other:100% COT</p>;;;;;;;zerotype;;Summer;;No
1872068;58567-FUCHSIA-1872068;Forever 21FUCHSIATops;Draft;Tops;FOREVER 21;Adults-Women;Women;;;;Fashion;;2017;2/S,FRTOTOPS00027729,3/M,FRTOTOPS00027730,4/L,FRTOTOPS00027731;1249.00;<p>Contents:100% POLYESTER, Lining:, Other:</p>;;;;;;;zerotype;;Summer;;No
1872067;56568-TEAL-1872067;Forever 21TEALTops;Draft;Tops;FOREVER 21;Adults-Women;Women;;;;Fashion;;2017;1/XS,FRTOTOPS00027725,2/S,FRTOTOPS00027726,3/M,FRTOTOPS00027727,4/L,FRTOTOPS00027728;1399.00;<p>Contents:100% POLYESTER, Lining:, Other:</p>;;;;;;;zerotype;;Summer;;No
1872066;55990-CREAM-1872066;Forever 21CREAMTops;Draft;Tops;FOREVER 21;Adults-Women;Women;;;;Fashion;;2017;2/S,FRTOTOPS00027722,3/M,FRTOTOPS00027723,4/L,FRTOTOPS00027724;799.00;<p>Contents:51% NYLON/POLY, 45% COTTON, 4% SPANDEX / , Lining:6</p>;;;;;;;zerotype;;Summer;;No
1872045;146100-BLACK-1872045;Forever 21BLACKHat;Draft;Hat;FOREVER 21;Adults-Women;Women;;;;Fashion;;2017;1/ONE SIZE,FRTOHATT00000196;1599.00;<p>Contents:100% WOOL, Lining:, Other:</p>;;;;;;;zerotype;;Summer;;No
1872044;141967-NAVY/BURGUNDY-1872044;Forever 21NAVY/BURGUNDYHat;Draft;Hat;FOREVER 21;Adults-Women;Women;;;;Fashion;;2017;2/S/M,FRTOHATT00000194,3/M/L,FRTOHATT00000195;1599.00;<p>Contents:100% WOOL, Lining:, Other:</p>;;;;;;;zerotype;;Summer;;No
1872043;133453-BLACK/GOLD-1872043;Forever 21BLACK/GOLDHat;Draft;Hat;FOREVER 21;Adults-Women;Women;;;;Fashion;;2017;1/ONE SIZE,FRTOHATT00000193;1099.00;<p>Contents:100% WOOL, Lining:, Other:</p>;;;;;;;zerotype;;Summer;;No
1872042;115139-CAMEL/BLACK-1872042;Forever 21CAMEL/BLACKHat;Draft;Hat;FOREVER 21;Adults-Women;Women;;;;Fashion;;2017;1/ONE SIZE,FRTOHATT00000192;599.00;<p>Contents:89% PAPER YARN, 11% POLYESTER, Lining:, Other:</p>;;;;;;;zerotype;;Summer;;No
1872041;78528-BLACK/BLACK-1872041;Forever 21BLACK/BLACKHat;Draft;Hat;FOREVER 21;Adults-Women;Women;;;;Fashion;;2017;2/S/M,FRTOHATT00000190,3/M/L,FRTOHATT00000191;889.00;<p>Contents:100% PAPER YARN, Lining:, Other:</p>;;;;;;;zerotype;;Summer;;No
1872040;54188-BLACK-1872040;Forever 21BLACKHat;Draft;Hat;FOREVER 21;Adults-Women;Women;;;;Fashion;;2017;1/ONE SIZE,FRTOHATT00000189;599.00;<p>Contents:100% PAPER YARN, Lining:, Other:</p>;;;;;;;zerotype;;Summer;;No
1872039;53582-BLACK-1872039;Forever 21BLACKHat;Draft;Hat;FOREVER 21;Adults-Women;Women;;;;Fashion;;2017;1/ONE SIZE,FRTOHATT00000188;799.00;<p>Contents:100% POLYESTER, Lining:, Other:</p>;;;;;;;zerotype;;Summer;;No
1872037;147037-CREAM-1872037;Forever 21CREAMBodysuit;Draft;Bodysuit;FOREVER 21;Adults-Women;Women;;;;Fashion;;2017;S,FRTOBYST00000626,M,FRTOBYST00000627,L,FRTOBYST00000628;749.00;<p>Contents:93% RAYON, 7% SPANDEX / ELASTANE, Lining:, Other:</p>;;;;;;;zerotype;;Summer;;No
1872036;147037-CAMEL-1872036;Forever 21CAMELBodysuit;Draft;Bodysuit;FOREVER 21;Adults-Women;Women;;;;Fashion;;2017;S,FRTOBYST00000623,M,FRTOBYST00000624,L,FRTOBYST00000625;749.00;<p>Contents:93% RAYON, 7% SPANDEX / ELASTANE, Lining:, Other:</p>;;;;;;;zerotype;;Summer;;No
1872035;147037-BLACK-1872035;Forever 21BLACKBodysuit;Draft;Bodysuit;FOREVER 21;Adults-Women;Women;;;;Fashion;;2017;S,FRTOBYST00000620,M,FRTOBYST00000621,L,FRTOBYST00000622;749.00;<p>Contents:93% RAYON, 7% SPANDEX / ELASTANE, Lining:, Other:</p>;;;;;;;zerotype;;Summer;;No
1846439;78528-NATURAL/BLACK-1846439;Forever 21 NATURAL/BLACKHat;Draft;Hat;FOREVER 21;Adults-Women;Women;;;;Fashion;;2017;S/M,FRTOHATT00000170;889.00;<p>Contents:100% PAPER YARN, Lining:, Other:</p>;;;;;;;zerotype;;Summer;;No
1395535;15713902-NAVY/CREAM-1395535;Forever21Shirts;Draft;Shirts;FOREVER 21;Adults-Women;Women;;;;Fashion;;2016;S,FRTOSHRT00001442;1399.00;<p>Contents:100% RAYON, Lining:, Other:</p>;;;;;;;zerotype;;Summer;;No
1395389;16165502-BLACK/GREY-1395389;Forever21Leggings;Draft;Leggings;FOREVER 21;Adults-Women;Women;;;;Fashion;;2016;S,FRTOLEGG00000994;1499.00;<p>Contents:86% NYLON/POLYAMIDE, 14% SPANDEX / ELASTANE,86% NYL</p>;;;;;;;zerotype;;Summer;;No
1153825;115195-LIGHT DENIM-1153825;Forever 21LIGHT DENIMJumpsuit;Draft;Jumpsuit;FOREVER 21;Adults-Women;Women;;;;Fashion;;2016;L,FRTOJMST00000193,2/S,FRTOJMST00002468,3/M,FRTOJMST00002469;2399.00;<p>100% COTTON,</p>;;;;;;,forever-21-ss16;zerotype;;Spring;;No
1130716;156902-BLACK-1130716;Forever 21BLACKTunics;Draft;Tunics;FOREVER 21;Adults-Women;Women;;;;Fashion;;2016;L,FRTOTNIC00000038,S,FRTOTNIC00000039,3/M,FRTOTNIC00000230;1599.00;;;;;;;,forever-21-ss16;zerotype;;Winter;;No
1130254;156961-WHITE/BLACK-1130254;Forever 21WHITE/BLACKTshirts;Active;Tshirts;FOREVER 21;Adults-Women;Women;White;Black;;Fashion;Casual;2016;S,FRTOTOPS00001933,3/M,FRTOTOPS00028178,4/L,FRTOTOPS00028179;1259.00;White and black printed T-shirt, has a round neck, long sleeves;Boast a laid-back look with this in-season tee from FOREVER 21.  Pair this piece with your favourite skinny-fit jeans and leather jacket for a look that will take you from day to night.;Shell: 60% cotton, 40% polyester<br />Sleeve: 50% polyester, 37% cotton and 13% rayon <br /> Machine-wash cold;The model (height 5'8") is wearing a size S;;FOREVER 21 Women White & Black Printed Round Neck T-shirt;FOREVER 21,forever-21-ss16,ALEX031;zerotype;;Winter;big10-super-hour25;No
1130217;145294-CORAL-1130217;Forever21 CORALTops;Draft;Tops;FOREVER 21;Adults-Women;Women;;;;Fashion;;2016;L,FRTOTOPS00001832,M,FRTOTOPS00001833,S,FRTOTOPS00001834;1299.00;;;;;;;,forever-21-ss16;zerotype;;Winter;;No
