Style ID;Vendor Article Number;Vendor Article Name;Active Status;Article type;Brand;Age Group;Gender;Base Colour;Colour1;Colour2;Fashion Type;Usage;Year;Size - SKU code pair;MRP;Style Description;Style Note;Materials and Care Description;Size and Fit Description;Size Chart Path;Product Display Name;Tags;Product Type;Classification Brand;Season;Comments;Upload Images
2359681;MHW-SS18-DNM-1010-Indigo Stripe-2359681;Women Denim Shorts;Draft;Shorts;Mast & Harbour;Adults-Women;Women;;;;Fashion;;2017;26,MTHBSHOR00001273,28,MTHBSHOR00001274,30,MTHBSHOR00001275,32,MTHBSHOR00001276,34,MTHBSHOR00001277,36,MTHBSHOR00001278;1499.00;;;;;;;;zerotype;;Fall;;No
2359680;MHW-SS18-DNM-1009-White-2359680;Women Denim Shorts;Draft;Shorts;Mast & Harbour;Adults-Women;Women;;;;Fashion;;2017;26,MTHBSHOR00001267,28,MTHBSHOR00001268,30,MTHBSHOR00001269,32,MTHBSHOR00001270,34,MTHBSHOR00001271,36,MTHBSHOR00001272;1499.00;;;;;;;;zerotype;;Fall;;No
2359679;MHW-SS18-DNM-1008-Indigo-2359679;Women Denim Shorts;Draft;Shorts;Mast & Harbour;Adults-Women;Women;;;;Fashion;;2017;26,MTHBSHOR00001261,28,MTHBSHOR00001262,30,MTHBSHOR00001263,32,MTHBSHOR00001264,34,MTHBSHOR00001265,36,MTHBSHOR00001266;1499.00;;;;;;;;zerotype;;Fall;;No
2359678;MHW-SS18-DNM-1007-Indigo-2359678;Women Denim Shorts;Draft;Shorts;Mast & Harbour;Adults-Women;Women;;;;Fashion;;2017;26,MTHBSHOR00001255,28,MTHBSHOR00001256,30,MTHBSHOR00001257,32,MTHBSHOR00001258,34,MTHBSHOR00001259,36,MTHBSHOR00001260;1499.00;;;;;;;;zerotype;;Fall;;No
2359563;MHW-SS18-DNM-1006-White-2359563;Mens Denim Jeans;Draft;Jeans;Mast & Harbour;Adults-Women;Women;;;;Fashion;;2017;26,MTHBJENS00006673,28,MTHBJENS00006674,30,MTHBJENS00006675,32,MTHBJENS00006676,34,MTHBJENS00006677,36,MTHBJENS00006678;1999.00;;;;;;;;zerotype;;Fall;;No
2359562;MHW-SS18-DNM-1005-Black-2359562;Mens Denim Jeans;Draft;Jeans;Mast & Harbour;Adults-Women;Women;;;;Fashion;;2017;26,MTHBJENS00006667,28,MTHBJENS00006668,30,MTHBJENS00006669,32,MTHBJENS00006670,34,MTHBJENS00006671,36,MTHBJENS00006672;2199.00;;;;;;;;zerotype;;Fall;;No
2359561;MHW-SS18-DNM-1004-Indigo-2359561;Mens Denim Jeans;Draft;Jeans;Mast & Harbour;Adults-Women;Women;;;;Fashion;;2017;26,MTHBJENS00006661,28,MTHBJENS00006662,30,MTHBJENS00006663,32,MTHBJENS00006664,34,MTHBJENS00006665,36,MTHBJENS00006666;2199.00;;;;;;;;zerotype;;Fall;;No
2359560;MHW-SS18-DNM-1003-Indigo-2359560;Mens Denim Jeans;Draft;Jeans;Mast & Harbour;Adults-Women;Women;;;;Fashion;;2017;26,MTHBJENS00006655,28,MTHBJENS00006656,30,MTHBJENS00006657,32,MTHBJENS00006658,34,MTHBJENS00006659,36,MTHBJENS00006660;2199.00;;;;;;;;zerotype;;Fall;;No
2359559;MHW-SS18-DNM-1002-Indigo-2359559;Mens Denim Jeans;Draft;Jeans;Mast & Harbour;Adults-Women;Women;;;;Fashion;;2017;26,MTHBJENS00006649,28,MTHBJENS00006650,30,MTHBJENS00006651,32,MTHBJENS00006652,34,MTHBJENS00006653,36,MTHBJENS00006654;2199.00;;;;;;;;zerotype;;Fall;;No
2359558;MHW-SS18-DNM-1001-Indigo-2359558;Mens Denim Jeans;Draft;Jeans;Mast & Harbour;Adults-Women;Women;;;;Fashion;;2017;26,MTHBJENS00006643,28,MTHBJENS00006644,30,MTHBJENS00006645,32,MTHBJENS00006646,34,MTHBJENS00006647,36,MTHBJENS00006648;1999.00;;;;;;;;zerotype;;Fall;;No
2344452;DNM-1010-Indigo Stripe-2344452;Mens Denim Shorts;Draft;Shorts;Mast & Harbour;Adults-Men;Men;;;;Fashion;;2017;28,MTHBSHOR00001220,30,MTHBSHOR00001221,32,MTHBSHOR00001222,34,MTHBSHOR00001223,36,MTHBSHOR00001224;1499.00;;;;;;;;zerotype;;Fall;;No
2344451;DNM-1009-White-2344451;Mens Denim Shorts;Draft;Shorts;Mast & Harbour;Adults-Men;Men;;;;Fashion;;2017;28,MTHBSHOR00001215,30,MTHBSHOR00001216,32,MTHBSHOR00001217,34,MTHBSHOR00001218,36,MTHBSHOR00001219;1499.00;;;;;;;;zerotype;;Fall;;No
2344450;DNM-1008-Indigo-2344450;Mens Denim Shorts;Draft;Shorts;Mast & Harbour;Adults-Men;Men;;;;Fashion;;2017;28,MTHBSHOR00001210,30,MTHBSHOR00001211,32,MTHBSHOR00001212,34,MTHBSHOR00001213,36,MTHBSHOR00001214;1499.00;;;;;;;;zerotype;;Fall;;No
2344449;DNM-1007-Indigo-2344449;Mens Denim Shorts;Draft;Shorts;Mast & Harbour;Adults-Men;Men;;;;Fashion;;2017;28,MTHBSHOR00001205,30,MTHBSHOR00001206,32,MTHBSHOR00001207,34,MTHBSHOR00001208,36,MTHBSHOR00001209;1499.00;;;;;;;;zerotype;;Fall;;No
2344448;DNM-1006-White-2344448;Mens Denim Jeans;Draft;Jeans;Mast & Harbour;Adults-Men;Men;;;;Fashion;;2017;28,MTHBJENS00006563,30,MTHBJENS00006564,32,MTHBJENS00006565,34,MTHBJENS00006566,36,MTHBJENS00006567;1999.00;;;;;;;;zerotype;;Fall;;No
2344447;DNM-1005-Black-2344447;Mens Denim Jeans;Draft;Jeans;Mast & Harbour;Adults-Men;Men;;;;Fashion;;2017;28,MTHBJENS00006558,30,MTHBJENS00006559,32,MTHBJENS00006560,34,MTHBJENS00006561,36,MTHBJENS00006562;2199.00;;;;;;;;zerotype;;Fall;;No
2344446;DNM-1004-Indigo-2344446;Mens Denim Jeans;Draft;Jeans;Mast & Harbour;Adults-Men;Men;;;;Fashion;;2017;28,MTHBJENS00006553,30,MTHBJENS00006554,32,MTHBJENS00006555,34,MTHBJENS00006556,36,MTHBJENS00006557;2199.00;;;;;;;;zerotype;;Fall;;No
2344445;DNM-1003-Indigo-2344445;Mens Denim Jeans;Draft;Jeans;Mast & Harbour;Adults-Men;Men;;;;Fashion;;2017;28,MTHBJENS00006548,30,MTHBJENS00006549,32,MTHBJENS00006550,34,MTHBJENS00006551,36,MTHBJENS00006552;2199.00;;;;;;;;zerotype;;Fall;;No
2344444;DNM-1002-Indigo-2344444;Mens Denim Jeans;Draft;Jeans;Mast & Harbour;Adults-Men;Men;;;;Fashion;;2017;28,MTHBJENS00006543,30,MTHBJENS00006544,32,MTHBJENS00006545,34,MTHBJENS00006546,36,MTHBJENS00006547;1999.00;;;;;;;;zerotype;;Fall;;No
2344443;DNM-1001-Indigo-2344443;Mens Denim Jeans;Draft;Jeans;Mast & Harbour;Adults-Men;Men;;;;Fashion;;2017;28,MTHBJENS00006538,30,MTHBJENS00006539,32,MTHBJENS00006540,34,MTHBJENS00006541,36,MTHBJENS00006542;2199.00;;;;;;;;zerotype;;Fall;;No
2225288;MH-WOMAN-SS18-LTWINDRESS 007-RED/NAVY-2225288;DRESSES;Draft;Dresses;Mast & Harbour;Adults-Women;Women;;;;Fashion;;2017;XS,MTHBDRSS00003689,S,MTHBDRSS00003690,M,MTHBDRSS00003691,L,MTHBDRSS00003692,XL,MTHBDRSS00003693;1499.00;;;;;;;;zerotype;;Fall;;No
2225287;MH-WOMAN-SS18-LTWINDRESS 005 A-PINK-2225287;DRESSES;Draft;Dresses;Mast & Harbour;Adults-Women;Women;;;;Fashion;;2017;XS,MTHBDRSS00003684,S,MTHBDRSS00003685,M,MTHBDRSS00003686,L,MTHBDRSS00003687,XL,MTHBDRSS00003688;1699.00;;;;;;;;zerotype;;Fall;;No
2225286;MH-WOMAN-SS18-LTWINDRESS 005-BLACK-2225286;DRESSES;Draft;Dresses;Mast & Harbour;Adults-Women;Women;;;;Fashion;;2017;XS,MTHBDRSS00003679,S,MTHBDRSS00003680,M,MTHBDRSS00003681,L,MTHBDRSS00003682,XL,MTHBDRSS00003683;1699.00;;;;;;;;zerotype;;Fall;;No
2225285;MH-WOMAN-SS18-LTWINDRESS 003-WHITE / PINK-2225285;DRESSES;Draft;Dresses;Mast & Harbour;Adults-Women;Women;;;;Fashion;;2017;XS,MTHBDRSS00003674,S,MTHBDRSS00003675,M,MTHBDRSS00003676,L,MTHBDRSS00003677,XL,MTHBDRSS00003678;1499.00;;;;;;;;zerotype;;Fall;;No
2225284;MH-WOMAN-SS18-LTWINDRESS 001 Q-WHITE / BLUE-2225284;DRESSES;Draft;Dresses;Mast & Harbour;Adults-Women;Women;;;;Fashion;;2017;XS,MTHBDRSS00003669,S,MTHBDRSS00003670,M,MTHBDRSS00003671,L,MTHBDRSS00003672,XL,MTHBDRSS00003673;1499.00;;;;;;;;zerotype;;Fall;;No
2225283;MH-WOMAN-SS18-LTWINDRESS 001-WHITE / RED-2225283;DRESSES;Draft;Dresses;Mast & Harbour;Adults-Women;Women;;;;Fashion;;2017;XS,MTHBDRSS00003664,S,MTHBDRSS00003665,M,MTHBDRSS00003666,L,MTHBDRSS00003667,XL,MTHBDRSS00003668;1499.00;;;;;;;;zerotype;;Fall;;No
2225282;MH-WOMAN-SS18-LTWINDRESS 006-WHITE/RED/BLACK-2225282;DRESSES;Draft;Dresses;Mast & Harbour;Adults-Women;Women;;;;Fashion;;2017;XS,MTHBDRSS00003659,S,MTHBDRSS00003660,M,MTHBDRSS00003661,L,MTHBDRSS00003662,XL,MTHBDRSS00003663;1699.00;;;;;;;;zerotype;;Fall;;No
2225281;MH-WOMAN-SS18-LTWINDRESS 004-WHITE / RED-2225281;DRESSES;Draft;Dresses;Mast & Harbour;Adults-Women;Women;;;;Fashion;;2017;XS,MTHBDRSS00003654,S,MTHBDRSS00003655,M,MTHBDRSS00003656,L,MTHBDRSS00003657,XL,MTHBDRSS00003658;1999.00;;;;;;;;zerotype;;Fall;;No
2225280;MH-WOMAN-SS18-LTWINTOP 003-WHITE / BLUE-2225280;TOPS;Draft;Tops;Mast & Harbour;Adults-Women;Women;;;;Fashion;;2017;XS,MTHBTOPS00005195,S,MTHBTOPS00005196,M,MTHBTOPS00005197,L,MTHBTOPS00005198,XL,MTHBTOPS00005199;1499.00;;;;;;;;zerotype;;Fall;;No
2225278;MH-WOMAN-SS18-LTWINTOP 002 A-WHITE / BLACK-2225278;TOPS;Draft;Tops;Mast & Harbour;Adults-Women;Women;;;;Fashion;;2017;XS,MTHBTOPS00005190,S,MTHBTOPS00005191,M,MTHBTOPS00005192,L,MTHBTOPS00005193,XL,MTHBTOPS00005194;1499.00;;;;;;;;zerotype;;Fall;;No
2225277;MH-WOMAN-SS18-LTWINTOP 002-WHITE / RED-2225277;TOPS;Draft;Tops;Mast & Harbour;Adults-Women;Women;;;;Fashion;;2017;XS,MTHBTOPS00005185,S,MTHBTOPS00005186,M,MTHBTOPS00005187,L,MTHBTOPS00005188,XL,MTHBTOPS00005189;1499.00;;;;;;;;zerotype;;Fall;;No
2225276;MH-WOMAN-SS18-LTWINDRESS 002 B-WHITE / BLACK-2225276;ROMPER;Draft;Rompers;Mast & Harbour;Adults-Women;Women;;;;Fashion;;2016;XS,MTHBRMPR00000045,S,MTHBRMPR00000046,M,MTHBRMPR00000047,L,MTHBRMPR00000048,XL,MTHBRMPR00000049;1699.00;;;;;;;;zerotype;;Fall;;No
2225274;MH-WOMAN-SS18-LTWINDRESS 002-WHITE / BLUE-2225274;ROMPER;Draft;Rompers;Mast & Harbour;Adults-Women;Women;;;;Fashion;;2016;XS,MTHBRMPR00000040,S,MTHBRMPR00000041,M,MTHBRMPR00000042,L,MTHBRMPR00000043,XL,MTHBRMPR00000044;1699.00;;;;;;;;zerotype;;Fall;;No
2206846;MH-WOMAN-SS18-LTWINTEE 026-CRYSTAL BLUE-2206846;WOMENS T-SHIRT;BIS + Content Complete;Tshirts;Mast & Harbour;Adults-Women;Women;Blue;;;Fashion;Casual;2017;S,MTHBTSHT00010568,M,MTHBTSHT00010569,L,MTHBTSHT00010570,XL,MTHBTSHT00010571;899.00;<a href='/blue?src=pd' class='seolink'>Blue</a> printed T-shirt, has a round neck, <a href='/short?src=pd' class='seolink'>short</a> sleeves;Show off your casual side with this comfortable and chic Mast & Harbour tee.  When you're having the ladies over for drinks and appetizers, style this blue piece with your favourite pair of dark wash jeans.;Cotton<br> Machine-wash;The model (height 5'8") is wearing a size S;;Mast & Harbour Women Blue Printed Round Neck T-shirt;Mast & Harbour;zerotype;;Fall;;No
2206845;MH-WOMAN-SS18-LTWINTEE 025-BLACK-2206845;WOMENS T-SHIRT;BIS + Content Complete;Tshirts;Mast & Harbour;Adults-Women;Women;Black;;;Fashion;Casual;2017;S,MTHBTSHT00010564,M,MTHBTSHT00010565,L,MTHBTSHT00010566,XL,MTHBTSHT00010567;999.00;Black solid T-shirt, has a round neck, short sleeves;Make sure your wardrobe is equipped with this basic cotton tee from Mast & Harbour.  You can match this black piece with distressed jeans and ballerinas when you're going to lunch with your friends.;Cotton <br> Machine-wash;The model (height 5'8") is wearing a size S;;Mast & Harbour Women Black Solid Round Neck T-shirt;Mast & Harbour;zerotype;;Fall;;No
2206844;MH-WOMAN-SS18-LTWINTEE 024-PINK-2206844;WOMENS T-SHIRT;Draft;Tshirts;Mast & Harbour;Adults-Women;Women;;;;Fashion;;2017;S,MTHBTSHT00010560,M,MTHBTSHT00010561,L,MTHBTSHT00010562,XL,MTHBTSHT00010563;999.00;;;;;;;;zerotype;;Fall;;No
2206843;MH-WOMAN-SS18-LTWINTEE 023-SHELL PINK-2206843;WOMENS T-SHIRT;BIS + Content Complete;Tshirts;Mast & Harbour;Adults-Women;Women;Pink;;;Fashion;Casual;2017;S,MTHBTSHT00010556,M,MTHBTSHT00010557,L,MTHBTSHT00010558,XL,MTHBTSHT00010559;699.00;<a href='/pink?src=pd' class='seolink'>Pink</a> printed T-shirt, has a round neck, <a href='/short?src=pd' class='seolink'>short</a> sleeves;Boast a laid-back look with this in-season tee from Mast & Harbour.  Pair this pink piece with your favourite skinny-fit jeans and leather jacket for a look that will take you from day to night.;Cotton <br> Machine-wash;The model (height 5'8") is wearing a size S;;Mast & Harbour Women Pink Printed Round Neck T-shirt;Mast & Harbour;zerotype;;Fall;;No
2206842;MH-WOMAN-SS18-LTWINTEE 022-WHITE-2206842;WOMENS T-SHIRT;Draft;Tshirts;Mast & Harbour;Adults-Women;Women;;;;Fashion;;2017;S,MTHBTSHT00010552,M,MTHBTSHT00010553,L,MTHBTSHT00010554,XL,MTHBTSHT00010555;999.00;;;;;;;;zerotype;;Fall;;No
2206841;MH-WOMAN-SS18-LTWINTEE 021-DRESS BLUE-2206841;WOMENS T-SHIRT;QC Reject;Tshirts;Mast & Harbour;Adults-Women;Women;Navy Blue;;;Fashion;Casual;2017;S,MTHBTSHT00010548,M,MTHBTSHT00010549,L,MTHBTSHT00010550,XL,MTHBTSHT00010551;799.00;Navy Blue printed T-shirt, has a round neck, short sleeves;This easy-going tee from Mast & Harbour is a great addition to any woman's closet.  You can match this navy blue piece with distressed jeans and ballerinas when you're going to lunch with your friends.;Cotton <br> Machine-wash;The model (height 5'8") is wearing a size S;;Mast & Harbour Women Navy Blue Printed Round Neck T-shirt;Mast & Harbour;zerotype;;Fall;;No
2206840;MH-WOMAN-SS18-LTWINTEE 020-CRYSTAL BLUE-2206840;WOMENS T-SHIRT;Draft;Tshirts;Mast & Harbour;Adults-Women;Women;;;;Fashion;;2017;S,MTHBTSHT00010544,M,MTHBTSHT00010545,L,MTHBTSHT00010546,XL,MTHBTSHT00010547;799.00;;;;;;;;zerotype;;Fall;;No
2206839;MH-WOMAN-SS18-LTWINTEE 019-DRESS BLUE-2206839;WOMENS T-SHIRT;BIS + Content Complete;Tshirts;Mast & Harbour;Adults-Women;Women;Navy Blue;;;Fashion;Casual;2017;S,MTHBTSHT00010540,M,MTHBTSHT00010541,L,MTHBTSHT00010542,XL,MTHBTSHT00010543;699.00;<a href='/navy-blue?src=pd' class='seolink'>Navy Blue</a> printed T-shirt, has a round neck, <a href='/short?src=pd' class='seolink'>short</a> sleeves;This breathable tee from Mast & Harbour is a must-have item for any fashionista.  Express your inner style maven when you combine this navy blue piece with slim black jeans and trendy ballerinas.;Cotton <br> Machine-wash;The model (height 5'8") is wearing a size S;;Mast & Harbour Women Navy Blue Printed Round Neck T-shirt;Mast & Harbour;zerotype;;Fall;;No
2206838;MH-WOMAN-SS18-LTWINTEE 018-CRYSTAL BLUE-2206838;WOMENS T-SHIRT;BIS + Content Complete;Tshirts;Mast & Harbour;Adults-Women;Women;Blue;;;Fashion;Casual;2017;S,MTHBTSHT00010536,M,MTHBTSHT00010537,L,MTHBTSHT00010538,XL,MTHBTSHT00010539;799.00;Blue printed T-shirt, has a round neck, short sleeves;Liven up your warm-weather wardrobe with this high-fashion tee designed by Mast & Harbour.  Dress up this blue piece with a fitted jacket and dark-wash jeans for a cool and contemporary look.;Cotton <br> Machine-wash;The model (height 5'8") is wearing a size S;;Mast & Harbour Women Blue Printed Round Neck T-shirt;Mast & Harbour;zerotype;;Fall;;No
2206837;MH-WOMAN-SS18-LTWINTEE 017-PEACH MELBA-2206837;WOMENS T-SHIRT;BIS + Content Complete;Tshirts;Mast & Harbour;Adults-Women;Women;Peach;;;Fashion;Casual;2017;S,MTHBTSHT00010532,M,MTHBTSHT00010533,L,MTHBTSHT00010534,XL,MTHBTSHT00010535;799.00;Peach-Coloured printed T-shirt, has a round neck, short sleeves;A classic peach tee is a staple for any closet, you'll love this one from Mast & Harbour.  Style this peach piece with tonal shorts and chic sandals when you're going on a picnic date.;Cotton <br> Machine-wash;The model (height 5'8") is wearing a size S;;Mast & Harbour Women Peach-Coloured Printed Round Neck T-shirt;Mast & Harbour;zerotype;;Fall;;No
2206836;MH-WOMAN-SS18-LTWINTEE 016-DRESS BLUE-2206836;WOMENS T-SHIRT;Draft;Tshirts;Mast & Harbour;Adults-Women;Women;;;;Fashion;;2017;S,MTHBTSHT00010528,M,MTHBTSHT00010529,L,MTHBTSHT00010530,XL,MTHBTSHT00010531;699.00;;;;;;;;zerotype;;Fall;;No
2206835;MH-WOMAN-SS18-LTWINTEE 015-WHITE-2206835;WOMENS T-SHIRT;Draft;Tshirts;Mast & Harbour;Adults-Women;Women;;;;Fashion;;2017;S,MTHBTSHT00010524,M,MTHBTSHT00010525,L,MTHBTSHT00010526,XL,MTHBTSHT00010527;699.00;;;;;;;;zerotype;;Fall;;No
2206834;MH-WOMAN-SS18-LTWINTEE 014-CRYSTAL BLUE-2206834;WOMENS T-SHIRT;BIS + Content Complete;Tshirts;Mast & Harbour;Adults-Women;Women;Blue;;;Fashion;Casual;2017;S,MTHBTSHT00010520,M,MTHBTSHT00010521,L,MTHBTSHT00010522,XL,MTHBTSHT00010523;699.00;Blue solid T-shirt, has a round neck, short sleeves;Liven up your warm-weather wardrobe with this high-fashion tee designed by Mast & Harbour.  Express your inner style maven when you combine this blue piece with slim black jeans and trendy ballerinas.;Cotton <br> Machine-wash;The model (height 5'8") is wearing a size S;;Mast & Harbour Women Blue Solid Round Neck T-shirt;Mast & Harbour;zerotype;;Fall;;No
2206833;MH-WOMAN-SS18-LTWINTEE 013-WHITE-2206833;WOMENS T-SHIRT;BIS + Content Complete;Tshirts;Mast & Harbour;Adults-Women;Women;White;;;Fashion;Casual;2017;S,MTHBTSHT00010516,M,MTHBTSHT00010517,L,MTHBTSHT00010518,XL,MTHBTSHT00010519;699.00;White printed T-shirt, has a round neck, <a href='/short?src=pd' class='seolink'>short</a> sleeves;This breathable tee from Mast & Harbour is a must-have item for any fashionista.  When you're having the ladies over for drinks and appetizers, style this white piece with your favourite pair of dark wash jeans.;Cotton <br> Machine-wash;The model (height 5'8") is wearing a size S;;Mast & Harbour Women White Printed Round Neck T-shirt;Mast & Harbour;zerotype;;Fall;;No
2206832;MH-WOMAN-SS18-LTWINTEE 012B-BACKED APPLE-2206832;WOMENS T-SHIRT;BIS + Content Complete;Tshirts;Mast & Harbour;Adults-Women;Women;Red;;;Fashion;Casual;2017;S,MTHBTSHT00010512,M,MTHBTSHT00010513,L,MTHBTSHT00010514,XL,MTHBTSHT00010515;799.00;<a href='/red?src=pd' class='seolink'>Red</a> printed T-shirt, has a round neck, <a href='/short?src=pd' class='seolink'>short</a> sleeves;Make sure your wardrobe is equipped with this basic cotton tee from Mast & Harbour.  Dress up this red piece with a fitted jacket and dark-wash jeans for a cool and contemporary look.;Cotton <br> Machine-wash;The model (height 5'8") is wearing a size S;;Mast & Harbour Women Red Printed Round Neck T-shirt;Mast & Harbour;zerotype;;Fall;;No
2206831;MH-WOMAN-SS18-LTWINTEE 012A-DRESS BLUE-2206831;WOMENS T-SHIRT;BIS + Content Complete;Tshirts;Mast & Harbour;Adults-Women;Women;Navy Blue;;;Fashion;Casual;2017;S,MTHBTSHT00010508,M,MTHBTSHT00010509,L,MTHBTSHT00010510,XL,MTHBTSHT00010511;799.00;<a href='/navy-blue?src=pd' class='seolink'>Navy Blue</a> printed T-shirt, has a round neck, <a href='/short?src=pd' class='seolink'>short</a> sleeves;Boast a laid-back look with this in-season tee from Mast & Harbour.  Pair this navy blue piece with slim jeans and canvas shoes when you're going out for ice cream with your friends.;Cotton <br> Machine-wash;The model (height 5'8") is wearing a size S;;Mast & Harbour Women Navy Blue Printed Round Neck T-shirt;Mast & Harbour;zerotype;;Fall;;No
2206830;MH-WOMAN-SS18-LTWINTEE 011-BLACK-2206830;WOMENS T-SHIRT;Draft;Tshirts;Mast & Harbour;Adults-Women;Women;;;;Fashion;;2017;S,MTHBTSHT00010504,M,MTHBTSHT00010505,L,MTHBTSHT00010506,XL,MTHBTSHT00010507;699.00;;;;;;;;zerotype;;Fall;;No
2206828;MH-WOMAN-SS18-LTWINTEE 010-SHELL PINK-2206828;WOMENS T-SHIRT;BIS + Content Complete;Tshirts;Mast & Harbour;Adults-Women;Women;Pink;;;Fashion;Casual;2017;S,MTHBTSHT00010500,M,MTHBTSHT00010501,L,MTHBTSHT00010502,XL,MTHBTSHT00010503;699.00;<a href='/pink?src=pd' class='seolink'>Pink</a> printed T-shirt, has a round neck, <a href='/short?src=pd' class='seolink'>short</a> sleeves;Show off your casual side with this comfortable and chic Mast & Harbour tee.  Style this pink piece with tonal shorts and chic sandals when you're going on a picnic date.;Cotton<br> Machine-wash;The model (height 5'8") is wearing a size S;;Mast & Harbour Women Pink Printed Round Neck T-shirt;Mast & Harbour;zerotype;;Fall;;No
2206827;MH-WOMAN-SS18-LTWINTEE 009-PEACH MELBA-2206827;WOMENS T-SHIRT;BIS + Content Complete;Tshirts;Mast & Harbour;Adults-Women;Women;Peach;;;Fashion;Casual;2017;S,MTHBTSHT00010496,M,MTHBTSHT00010497,L,MTHBTSHT00010498,XL,MTHBTSHT00010499;699.00;Peach-Coloured printed T-shirt, has a round neck, short sleeves, 1 pocket;A classic peach tee is a staple for any closet, you'll love this one from Mast & Harbour.  Transform this casual peach piece into appropriate evening attire when you pair it with slim denim jeans and your favourite pumps.;Cotton <br> Machine-wash;The model (height 5'8") is wearing a size S;;Mast & Harbour Women Peach-Coloured Printed Round Neck T-shirt;Mast & Harbour;zerotype;;Fall;;No
2206826;MH-WOMAN-SS18-LTWINTEE 008-MILLENIAL PINK-2206826;WOMENS T-SHIRT;BIS + Content Complete;Tshirts;Mast & Harbour;Adults-Women;Women;Pink;;;Fashion;Casual;2017;S,MTHBTSHT00010492,M,MTHBTSHT00010493,L,MTHBTSHT00010494,XL,MTHBTSHT00010495;799.00;<a href='/pink?src=pd' class='seolink'>Pink</a> printed T-shirt, has a round neck, <a href='/short?src=pd' class='seolink'>short</a> sleeves;This breathable tee from Mast & Harbour is a must-have item for any fashionista.  You can team this pink piece with trim denims and sneakers when you have some errands to run.;Cotton<br> Machine-wash;The model (height 5'8") is wearing a size S;;Mast & Harbour Women Pink Printed Round Neck T-shirt;Mast & Harbour;zerotype;;Fall;;No
2206825;MH-WOMAN-SS18-LTWINTEE 007-MULTIP-2206825;WOMENS T-SHIRT;Draft;Tshirts;Mast & Harbour;Adults-Women;Women;;;;Fashion;;2017;S,MTHBTSHT00010488,M,MTHBTSHT00010489,L,MTHBTSHT00010490,XL,MTHBTSHT00010491;899.00;;;;;;;;zerotype;;Fall;;No
2206824;MH-WOMAN-SS18-LTWINTEE 006-MILLENIAL PINK-2206824;WOMENS T-SHIRT;Draft;Tshirts;Mast & Harbour;Adults-Women;Women;;;;Fashion;;2017;S,MTHBTSHT00010484,M,MTHBTSHT00010485,L,MTHBTSHT00010486,XL,MTHBTSHT00010487;799.00;;;;;;;;zerotype;;Fall;;No
2206823;MH-WOMAN-SS18-LTWINTEE 005-WHITE-2206823;WOMENS T-SHIRT;Draft;Tshirts;Mast & Harbour;Adults-Women;Women;;;;Fashion;;2017;S,MTHBTSHT00010480,M,MTHBTSHT00010481,L,MTHBTSHT00010482,XL,MTHBTSHT00010483;899.00;;;;;;;;zerotype;;Fall;;No
2206822;MH-WOMAN-SS18-LTWINTEE 004 A-BLACK/RED-2206822;WOMENS T-SHIRT;Draft;Tshirts;Mast & Harbour;Adults-Women;Women;;;;Fashion;;2017;S,MTHBTSHT00010476,M,MTHBTSHT00010477,L,MTHBTSHT00010478,XL,MTHBTSHT00010479;899.00;;;;;;;;zerotype;;Fall;;No
2206821;MH-WOMAN-SS18-LTWINTEE 004-DRESS BLUE/CRYSTAL BLUE-2206821;WOMENS T-SHIRT;Draft;Tshirts;Mast & Harbour;Adults-Women;Women;;;;Fashion;;2017;S,MTHBTSHT00010472,M,MTHBTSHT00010473,L,MTHBTSHT00010474,XL,MTHBTSHT00010475;899.00;;;;;;;;zerotype;;Fall;;No
2206820;MH-WOMAN-SS18-LTWINTEE 003-BLACK-2206820;WOMENS T-SHIRT;Draft;Tshirts;Mast & Harbour;Adults-Women;Women;;;;Fashion;;2017;S,MTHBTSHT00010468,M,MTHBTSHT00010469,L,MTHBTSHT00010470,XL,MTHBTSHT00010471;699.00;;;;;;;;zerotype;;Fall;;No
2206819;MH-WOMAN-SS18-LTWINTEE 002-BAKED APPLE-2206819;WOMENS T-SHIRT;BIS + Content Complete;Tshirts;Mast & Harbour;Adults-Women;Women;Coral;;;Fashion;Casual;2017;S,MTHBTSHT00010464,M,MTHBTSHT00010465,L,MTHBTSHT00010466,XL,MTHBTSHT00010467;899.00;Coral solid T-shirt, has a round neck, short sleeves;Make sure your wardrobe is equipped with this basic cotton tee from Mast & Harbour.  Style this coral piece with tonal shorts and chic sandals when you're going on a picnic date.;Cotton<br> Machine-wash;The model (height 5'8") is wearing a size S;;Mast & Harbour Women Coral Solid Round Neck T-shirt;Mast & Harbour;zerotype;;Fall;;No
2206818;MH-WOMAN-SS18-LTWINTEE 001-WHITE-2206818;WOMENS T-SHIRT;BIS + Content Complete;Tshirts;Mast & Harbour;Adults-Women;Women;White;;;Fashion;Casual;2017;S,MTHBTSHT00010460,M,MTHBTSHT00010461,L,MTHBTSHT00010462,XL,MTHBTSHT00010463;699.00;White printed T-shirt, has a round neck, short sleeves;Have this Mast & Harbour tee on hand whenever you're looking for classic comfort in a pinch.  Transform this casual white piece into appropriate evening attire when you pair it with slim denim jeans and your favourite pumps.;Cotton <br> Machine-wash;The model (height 5'8") is wearing a size S;;Mast & Harbour Women White Printed Round Neck T-shirt;Mast & Harbour;zerotype;;Fall;;No
2206817;MH-MAN-SS18-LTWINTEE 031-GREY MEL-2206817;TEE WITH GRAPHICS;Draft;Tshirts;Mast & Harbour;Adults-Men;Men;;;;Fashion;;2017;S,MTHBTSHT00010456,M,MTHBTSHT00010457,L,MTHBTSHT00010458,XL,MTHBTSHT00010459;899.00;;;;;;;;zerotype;;Fall;;No
2206816;MH-MAN-SS18-LTWINTEE 030-WHITE-2206816;LONG LINE TEE WITH GRAPHICS;Draft;Tshirts;Mast & Harbour;Adults-Men;Men;;;;Fashion;;2017;S,MTHBTSHT00010452,M,MTHBTSHT00010453,L,MTHBTSHT00010454,XL,MTHBTSHT00010455;899.00;;;;;;;;zerotype;;Fall;;No
2206815;MH-MAN-SS18-LTWINTEE 029-WHITE-2206815;CREW NECK GRAPHIC TEE;Draft;Tshirts;Mast & Harbour;Adults-Men;Men;;;;Fashion;;2017;S,MTHBTSHT00010448,M,MTHBTSHT00010449,L,MTHBTSHT00010450,XL,MTHBTSHT00010451;899.00;;;;;;;;zerotype;;Fall;;No
2206814;MH-MAN-SS18-LTWINTEE 028-DRESS BLUE-2206814;LONG LENGTH MESH OVERLAY GRAPHIC TEE;Draft;Tshirts;Mast & Harbour;Adults-Men;Men;;;;Fashion;;2017;S,MTHBTSHT00010444,M,MTHBTSHT00010445,L,MTHBTSHT00010446,XL,MTHBTSHT00010447;999.00;;;;;;;;zerotype;;Fall;;No
2206813;MH-MAN-SS18-LTWINTEE 027-CHARCOAL MELANGE-2206813;CHEST PRINT HENLEY NECK TEE;Draft;Tshirts;Mast & Harbour;Adults-Men;Men;;;;Fashion;;2017;S,MTHBTSHT00010440,M,MTHBTSHT00010441,L,MTHBTSHT00010442,XL,MTHBTSHT00010443;699.00;;;;;;;;zerotype;;Fall;;No
2206812;MH-MAN-SS18-LTWINTEE 026-PEACH PINK-2206812;CHEST PRINT CREW NECK TEE;QC Reject;Tshirts;Mast & Harbour;Adults-Men;Men;Pink;;;Fashion;Casual;2017;S,MTHBTSHT00010436,M,MTHBTSHT00010437,L,MTHBTSHT00010438,XL,MTHBTSHT00010439;699.00;Pink printed T-shirt, has a round neck, short sleeves;This tee made by Mast & Harbour will definitely become a go-to item in your wardrobe.  You'll feel entirely at ease in this pink piece on top of a relaxed-fit chino and slip-on tennis shoe when you're going out shopping or catching a movie.;Cotton <br> Machine-wash;The model (height 6') is wearing a size M;;Mast & Harbour Men Pink Printed Round Neck T-shirt;Mast & Harbour;zerotype;;Fall;u card reject;No
2206811;MH-MAN-SS18-LTWINTEE 025-PEACH PINK-2206811;CHEST PRINT CREW NECK TEE;QC Reject;Tshirts;Mast & Harbour;Adults-Men;Men;Pink;;;Fashion;Casual;2017;S,MTHBTSHT00010432,M,MTHBTSHT00010433,L,MTHBTSHT00010434,XL,MTHBTSHT00010435;699.00;Pink printed T-shirt, has a round neck, short sleeves;Keep it modish and casual this season with this high-quality Mast & Harbour tee.  This pink piece is incredibly versatile and can be matched with dark or light denim for an evening out with the guys.;Cotton <br> Machine-wash;The model (height 6') is wearing a size M;;Mast & Harbour Men Pink Printed Round Neck T-shirt;Mast & Harbour;zerotype;;Fall;u card reject;No
2206810;MH-MAN-SS18-LTWINTEE 024-DRESS BLUE-2206810;CHEST PRINT CREW NECK TEE;Draft;Tshirts;Mast & Harbour;Adults-Men;Men;;;;Fashion;;2017;S,MTHBTSHT00010428,M,MTHBTSHT00010429,L,MTHBTSHT00010430,XL,MTHBTSHT00010431;699.00;;;;;;;;zerotype;;Fall;;No
2206809;MH-MAN-SS18-LTWINTEE 023-CRYSTAL BLUE-2206809;FRONT PRINT CREW NECK TEE;QC Reject;Tshirts;Mast & Harbour;Adults-Men;Men;Blue;;;Fashion;Casual;2017;S,MTHBTSHT00010424,M,MTHBTSHT00010425,L,MTHBTSHT00010426,XL,MTHBTSHT00010427;699.00;Blue printed T-shirt, has a round neck, short sleeves;Amp up your casual style with a well-structured T-shirt from Mast & Harbour.  This blue piece is incredibly versatile and can be matched with dark or light denim for an evening out with the guys.;Cotton<br> Machine-wash;The model (height 6') is wearing a size M;;Mast & Harbour Men Blue Printed Round Neck T-shirt;Mast & Harbour;zerotype;;Fall;;No
2206807;MH-MAN-SS18-LTWINTEE 022-CRYSTAL BLUE-2206807;FRONT & BACK PRINT CREW NECK TEE;Draft;Tshirts;Mast & Harbour;Adults-Men;Men;;;;Fashion;;2017;S,MTHBTSHT00010420,M,MTHBTSHT00010421,L,MTHBTSHT00010422,XL,MTHBTSHT00010423;699.00;;;;;;;;zerotype;;Fall;;No
2206806;MH-MAN-SS18-LTWINTEE 021-WHITE-2206806;BACK PRINT CREW NECK TEE;Draft;Tshirts;Mast & Harbour;Adults-Men;Men;;;;Fashion;;2017;S,MTHBTSHT00010416,M,MTHBTSHT00010417,L,MTHBTSHT00010418,XL,MTHBTSHT00010419;699.00;;;;;;;;zerotype;;Fall;;No
2206805;MH-MAN-SS18-LTWINTEE 020-DRESS BLUE-2206805;CHEST PRINT CREW NECK TEE;Draft;Tshirts;Mast & Harbour;Adults-Men;Men;;;;Fashion;;2017;S,MTHBTSHT00010412,M,MTHBTSHT00010413,L,MTHBTSHT00010414,XL,MTHBTSHT00010415;699.00;;;;;;;;zerotype;;Fall;;No
2206804;MH-MAN-SS18-LTWINTEE 019-CRYSTAL BLUE-2206804;CHEST PRINT CREW NECK TEE;Draft;Tshirts;Mast & Harbour;Adults-Men;Men;;;;Fashion;;2017;S,MTHBTSHT00010408,M,MTHBTSHT00010409,L,MTHBTSHT00010410,XL,MTHBTSHT00010411;699.00;;;;;;;;zerotype;;Fall;;No
2206803;MH-MAN-SS18-LTWINTEE 018 A-WHITE-2206803;CHEST PRINT CREW NECK TEE;QC Reject;Tshirts;Mast & Harbour;Adults-Men;Men;White;;;Fashion;Casual;2017;S,MTHBTSHT00010404,M,MTHBTSHT00010405,L,MTHBTSHT00010406,XL,MTHBTSHT00010407;699.00;White printed T-shirt, has a round neck, short sleeves;Stand out this season when you go with the sleek style of a Mast & Harbour T-shirt.  This white piece can be teamed with cuffed chinos and canvas shoes when you're meeting the guys for drinks.;Cotton<br> Machine-wash;The model (height 6') is wearing a size M;;Mast & Harbour Men White Printed Round Neck T-shirt;Mast & Harbour;zerotype;;Fall;u card reject;No
2206802;MH-MAN-SS18-LTWINTEE 018-WHITE-2206802;CHEST PRINT CREW NECK TEE;Draft;Tshirts;Mast & Harbour;Adults-Men;Men;;;;Fashion;;2017;S,MTHBTSHT00010400,M,MTHBTSHT00010401,L,MTHBTSHT00010402,XL,MTHBTSHT00010403;699.00;;;;;;;;zerotype;;Fall;;No
2206801;MH-MAN-SS18-LTWINTEE 017-BLACK-2206801;CHEST PRINT CREW NECK TEE;Draft;Tshirts;Mast & Harbour;Adults-Men;Men;;;;Fashion;;2017;S,MTHBTSHT00010396,M,MTHBTSHT00010397,L,MTHBTSHT00010398,XL,MTHBTSHT00010399;699.00;;;;;;;;zerotype;;Fall;;No
2206800;MH-MAN-SS18-LTWINTEE 016-DRESS BLUE-2206800;CHEST PRINT CREW NECK TEE;Draft;Tshirts;Mast & Harbour;Adults-Men;Men;;;;Fashion;;2017;S,MTHBTSHT00010392,M,MTHBTSHT00010393,L,MTHBTSHT00010394,XL,MTHBTSHT00010395;699.00;;;;;;;;zerotype;;Fall;;No
2206799;MH-MAN-SS18-LTWINTEE 014-DRESS BLUE-2206799;ALL OVER PRINTED CREW TEE;Draft;Tshirts;Mast & Harbour;Adults-Men;Men;;;;Fashion;;2017;S,MTHBTSHT00010388,M,MTHBTSHT00010389,L,MTHBTSHT00010390,XL,MTHBTSHT00010391;699.00;;;;;;;;zerotype;;Fall;;No
2206798;MH-MAN-SS18-LTWINTEE 013-DRESS BLUE-2206798;ALL OVER PRINTED TEE;Draft;Tshirts;Mast & Harbour;Adults-Men;Men;;;;Fashion;;2017;S,MTHBTSHT00010384,M,MTHBTSHT00010385,L,MTHBTSHT00010386,XL,MTHBTSHT00010387;799.00;;;;;;;;zerotype;;Fall;;No
2206797;MH-MAN-SS18-LTWINTEE 012-CRYSTAL BLUE-2206797;TIE & DIE PRINT TEE;Draft;Tshirts;Mast & Harbour;Adults-Men;Men;;;;Fashion;;2017;S,MTHBTSHT00010380,M,MTHBTSHT00010381,L,MTHBTSHT00010382,XL,MTHBTSHT00010383;799.00;;;;;;;;zerotype;;Fall;;No
2206796;MH-MAN-SS18-LTWINTEE 011-MULTIP-2206796;COLOR BLOCK STRIPER OVERSIZED TEE;Draft;Tshirts;Mast & Harbour;Adults-Men;Men;;;;Fashion;;2017;S,MTHBTSHT00010376,M,MTHBTSHT00010377,L,MTHBTSHT00010378,XL,MTHBTSHT00010379;899.00;;;;;;;;zerotype;;Fall;;No
2206795;MH-MAN-SS18-LTWINTEE 009-PINK/BLUE/GREY MELANGE-2206795;COLOR BLOCK REGLAN F/S TEE;Draft;Tshirts;Mast & Harbour;Adults-Men;Men;;;;Fashion;;2017;S,MTHBTSHT00010372,M,MTHBTSHT00010373,L,MTHBTSHT00010374,XL,MTHBTSHT00010375;999.00;;;;;;;;zerotype;;Fall;;No
2206794;MH-MAN-SS18-LTWINTEE 008-WHITE/BLUE/PINK-2206794;STRIPER COLOR BLOCK TEE;Draft;Tshirts;Mast & Harbour;Adults-Men;Men;;;;Fashion;;2017;S,MTHBTSHT00010368,M,MTHBTSHT00010369,L,MTHBTSHT00010370,XL,MTHBTSHT00010371;699.00;;;;;;;;zerotype;;Fall;;No
2206793;MH-MAN-SS18-LTWINTEE 007 A-BLACK/RED-2206793;COLOR BLOCK CUT & SEW TEE;Draft;Tshirts;Mast & Harbour;Adults-Men;Men;;;;Fashion;;2017;S,MTHBTSHT00010364,M,MTHBTSHT00010365,L,MTHBTSHT00010366,XL,MTHBTSHT00010367;799.00;;;;;;;;zerotype;;Fall;;No
2206791;MH-MAN-SS18-LTWINTEE 007-DRESS BLUE/CRYSTAL BLUE-2206791;COLOR BLOCK CUT & SEW TEE;Draft;Tshirts;Mast & Harbour;Adults-Men;Men;;;;Fashion;;2017;S,MTHBTSHT00010360,M,MTHBTSHT00010361,L,MTHBTSHT00010362,XL,MTHBTSHT00010363;799.00;;;;;;;;zerotype;;Fall;;No
2206790;MH-MAN-SS18-LTWINTEE 006-WHITE/PINK/BLACK-2206790;STRIPER POLO T-SHIRT;Draft;Tshirts;Mast & Harbour;Adults-Men;Men;;;;Fashion;;2017;S,MTHBTSHT00010356,M,MTHBTSHT00010357,L,MTHBTSHT00010358,XL,MTHBTSHT00010359;999.00;;;;;;;;zerotype;;Fall;;No
2206788;MH-MAN-SS18-LTWINTEE 005 B-WHITE/BLUE-2206788;STRIPER TEE;QC Reject;Tshirts;Mast & Harbour;Adults-Men;Men;White;Navy Blue;;Fashion;Casual;2017;S,MTHBTSHT00010352,M,MTHBTSHT00010353,L,MTHBTSHT00010354,XL,MTHBTSHT00010355;699.00;White and navy blue striped T-shirt, has a round neck, short sleeves, 1 pocket;The feel of this Mast & Harbour tee is absolutely amazing thanks to the designer's use of cotton.  This white piece can be styled with dark denims and canvas shoes when you're going out to eat with your friends.;Cotton<br> Machine-wash;The model (height 6') is wearing a size M;;Mast & Harbour Men White Striped Round Neck T-shirt;Mast & Harbour;zerotype;;Fall;;No
2206787;MH-MAN-SS18-LTWINTEE 005 A-WHITE/PINK-2206787;STRIPER TEE;Draft;Tshirts;Mast & Harbour;Adults-Men;Men;;;;Fashion;;2017;S,MTHBTSHT00010348,M,MTHBTSHT00010349,L,MTHBTSHT00010350,XL,MTHBTSHT00010351;699.00;;;;;;;;zerotype;;Fall;;No
2206785;MH-MAN-SS18-LTWINTEE 004 B-WHITE/GREY-2206785;SPLICED STRIPE BLOCK CREW TEE;Draft;Tshirts;Mast & Harbour;Adults-Men;Men;;;;Fashion;;2017;S,MTHBTSHT00010344,M,MTHBTSHT00010345,L,MTHBTSHT00010346,XL,MTHBTSHT00010347;899.00;;;;;;;;zerotype;;Fall;;No
2206784;MH-MAN-SS18-LTWINTEE 004 A-WHITE/DRESS BLUE-2206784;SPLICED STRIPE BLOCK CREW TEE;Draft;Tshirts;Mast & Harbour;Adults-Men;Men;;;;Fashion;;2017;S,MTHBTSHT00010340,M,MTHBTSHT00010341,L,MTHBTSHT00010342,XL,MTHBTSHT00010343;899.00;;;;;;;;zerotype;;Fall;;No
2206782;MH-MAN-SS18-LTWINTEE 003-BLACK-2206782;FOIL CHEST PRINT CREW NECK TEE;Draft;Tshirts;Mast & Harbour;Adults-Men;Men;;;;Fashion;;2017;S,MTHBTSHT00010336,M,MTHBTSHT00010337,L,MTHBTSHT00010338,XL,MTHBTSHT00010339;699.00;;;;;;;;zerotype;;Fall;;No
2206780;MH-MAN-SS18-LTWINTEE 002-DRESS BLUE-2206780;CHEST PRINT FULL SLEEVE CREW NECK TEE;Draft;Tshirts;Mast & Harbour;Adults-Men;Men;;;;Fashion;;2017;S,MTHBTSHT00010332,M,MTHBTSHT00010333,L,MTHBTSHT00010334,XL,MTHBTSHT00010335;899.00;;;;;;;;zerotype;;Fall;;No
2206779;MH-MAN-SS18-LTWINTEE 001-BRIGHT WHITE-2206779;CHEST PRINT LONG BACK CREW NECK TEE;Draft;Tshirts;Mast & Harbour;Adults-Men;Men;;;;Fashion;;2017;S,MTHBTSHT00010328,M,MTHBTSHT00010329,L,MTHBTSHT00010330,XL,MTHBTSHT00010331;699.00;;;;;;;;zerotype;;Fall;;No
2206777;MH-WOMAN-SS18-LTWINTOP 004-BLACK-2206777;WOMENS TOP;Draft;Tops;Mast & Harbour;Adults-Women;Women;;;;Fashion;;2017;S,MTHBTOPS00004809,M,MTHBTOPS00004810,L,MTHBTOPS00004811,XL,MTHBTOPS00004812;999.00;;;;;;;;zerotype;;Fall;;No
2206775;MH-WOMAN-SS18-LTWINTOP 001 B-WHITE/GREY-2206775;WOMENS TOP;Draft;Tops;Mast & Harbour;Adults-Women;Women;;;;Fashion;;2017;S,MTHBTOPS00004805,M,MTHBTOPS00004806,L,MTHBTOPS00004807,XL,MTHBTOPS00004808;799.00;;;;;;;;zerotype;;Fall;;No
2206773;MH-WOMAN-SS18-LTWINTOP 001 A-WHITE/BLUE-2206773;WOMENS TOP;Draft;Tops;Mast & Harbour;Adults-Women;Women;;;;Fashion;;2017;S,MTHBTOPS00004801,M,MTHBTOPS00004802,L,MTHBTOPS00004803,XL,MTHBTOPS00004804;799.00;;;;;;;;zerotype;;Fall;;No
