Style ID;Vendor Article Number;Vendor Article Name;Active Status;Article type;Brand;Age Group;Gender;Base Colour;Colour1;Colour2;Fashion Type;Usage;Year;Size - SKU code pair;MRP;Style Description;Style Note;Materials and Care Description;Size and Fit Description;Size Chart Path;Product Display Name;Tags;Product Type;Classification Brand;Season;Comments;Upload Images
3010756;RMTX02555-K8-Black-3010756;FF FLAP PKT TROUSER BIAS FINISH-CONT FIT;Draft;Trousers;Raymond;Adults-Men;Men;Black;;;Fashion;;2017;76,RYMDTRSR00004890,82,RYMDTRSR00004891,86,RYMDTRSR00004892,92,RYMDTRSR00004893,96,RYMDTRSR00004894,100,RYMDTRSR00004895,104,RYMDTRSR00004896,108,RYMDTRSR00004897,112,RYMDTRSR00004898,116,RYMDTRSR00004899;2499.00;<p>FF FLAP PKT TROUSER BIAS FINISH-CONT FIT</p>;;<p>Dry Clean Only,Poly 78%/Viscose 22%</p>;;;na;;zerotype;;Winter;;No
3010755;RMTS02318-G6-Charcoal-3010755;BASIC FLAT FRNT - SLIM FIT;Draft;Trousers;Raymond;Adults-Men;Men;Charcoal;;;Fashion;;2017;76,RYMDTRSR00004880,82,RYMDTRSR00004881,86,RYMDTRSR00004882,92,RYMDTRSR00004883,96,RYMDTRSR00004884,100,RYMDTRSR00004885,104,RYMDTRSR00004886,108,RYMDTRSR00004887,112,RYMDTRSR00004888,116,RYMDTRSR00004889;1799.00;<p>BASIC FLAT FRNT - SLIM FIT</p>;;<p>Dry Clean Only,Poly 75%/Viscsoe 23%/Lycra02%</p>;;;na;;zerotype;;Winter;;No
3010754;RMTX02373-B6-Blue-3010754;FF-DBL WLT PCKT WITH SLEEK FLAP-CNTP FT;Draft;Trousers;Raymond;Adults-Men;Men;Blue;;;Fashion;;2017;76,RYMDTRSR00004870,82,RYMDTRSR00004871,86,RYMDTRSR00004872,92,RYMDTRSR00004873,96,RYMDTRSR00004874,100,RYMDTRSR00004875,104,RYMDTRSR00004876,108,RYMDTRSR00004877,112,RYMDTRSR00004878,116,RYMDTRSR00004879;2299.00;<p>FF-DBL WLT PCKT WITH SLEEK FLAP-CNTP FT</p>;;<p>Dry Clean Only,Poly56%/Wool27%/Vsc17%</p>;;;na;;zerotype;;Winter;;No
3010751;RMTS02349-K7-Black-3010751;BASIC FLAT FRNT - SLIM FIT;Draft;Trousers;Raymond;Adults-Men;Men;Black;;;Fashion;;2017;82,RYMDTRSR00004860,86,RYMDTRSR00004861,92,RYMDTRSR00004862,96,RYMDTRSR00004863,100,RYMDTRSR00004864,104,RYMDTRSR00004865,76,RYMDTRSR00004866,108,RYMDTRSR00004867,112,RYMDTRSR00004868,116,RYMDTRSR00004869;2899.00;<p>BASIC FLAT FRNT - SLIM FIT</p>;;<p>Dry Clean Only,54%Polyster/ 44%Wool/2%Elastan</p>;;;na;;zerotype;;Winter;;No
3010750;RMTS02349-B6-Blue-3010750;BASIC FLAT FRNT - SLIM FIT;Draft;Trousers;Raymond;Adults-Men;Men;Blue;;;Fashion;;2017;76,RYMDTRSR00004850,82,RYMDTRSR00004851,86,RYMDTRSR00004852,92,RYMDTRSR00004853,96,RYMDTRSR00004854,100,RYMDTRSR00004855,104,RYMDTRSR00004856,108,RYMDTRSR00004857,112,RYMDTRSR00004858,116,RYMDTRSR00004859;2899.00;<p>BASIC FLAT FRNT - SLIM FIT</p>;;<p>Dry Clean Only,54%Polyster/ 44%Wool/2%Elastan</p>;;;na;;zerotype;;Winter;;No
3010749;RMTX02300-K6-Black-3010749;FF- SUPER CREASE, SLANT POCKET- CNTP FT;Draft;Trousers;Raymond;Adults-Men;Men;Black;;;Fashion;;2017;76,RYMDTRSR00004840,82,RYMDTRSR00004841,86,RYMDTRSR00004842,92,RYMDTRSR00004843,96,RYMDTRSR00004844,100,RYMDTRSR00004845,104,RYMDTRSR00004846,108,RYMDTRSR00004847,112,RYMDTRSR00004848,116,RYMDTRSR00004849;2299.00;<p>FF- SUPER CREASE, SLANT POCKET- CNTP FT</p>;;<p>Dry Clean Only,Poly60%/Viscose20%/Wool20%</p>;;;na;;zerotype;;Winter;;No
3010746;RCKX00509-K7-Black Grey-3010746;HALF SLEEVE JACQUARD SELF STRUCTURE;Draft;Tshirts;Raymond;Adults-Men;Men;Black;Grey;;Fashion;;2017;39,RYMDTSHT00001188,40,RYMDTSHT00001189,42,RYMDTSHT00001190,44,RYMDTSHT00001191,46,RYMDTSHT00001192;2749.00;<p>Dark grey in colour, this polo T-shirt from Raymond offers a textured self-pattern all over and a basic hue making it the perfect versatile garment for you to give your casual look a stylish update. Made from American Supima Cotton, widely referred to as cashmere of cottons, Supima surpasses other cottons on softness, strength and brilliance of colour. This polo T-shirt has a three-button placket and full sleeves that give a snug fit, while the brand logo on the front lends an aesthetic look. This polo T-shirt can be teamed with a pair of beige chinos and white sneakers to look your best.  Three-button placket  Full sleeves  Textured self-pattern all over  Brand logo on the front  Pique collar</p>;;<p>Machine Wash Cold,Supima Cotton 100%</p>;;;NA;;zerotype;;Winter;;No
3010744;RCKY00431-K8-Black-3010744;Half sleeve polo honeycomb wp;Draft;Tshirts;Raymond;Adults-Men;Men;Black;;;Fashion;Casual;2017;39,RYMDTSHT00001183,40,RYMDTSHT00001184,42,RYMDTSHT00001185,44,RYMDTSHT00001186,46,RYMDTSHT00001187;2299.00;<p>Half sleeve polo honeycomb wp</p>;;<p>Machine Wash Cold,Supima Cotton 100%</p>;;;na;;zerotype;;Winter;;No
3010741;RCSX00795-P3-Blue-3010741;F/S SPRED CLR INER CNTRAST DTAIL CON FIT;Draft;Shirts;Raymond;Adults-Men;Men;Blue;;;Fashion;;2017;38,RYMDSHRT00016905,39,RYMDSHRT00016906,40,RYMDSHRT00016907,42,RYMDSHRT00016908,44,RYMDSHRT00016909,46,RYMDSHRT00016910;2999.00;<p>F/S SPRED CLR INER CNTRAST DTAIL CON FIT</p>;;<p>M/C Wash Gentle,Linen 100%</p>;;;na;;zerotype;;Winter;;No
3010738;RMSX06831-R5-Maroon-3010738;F/S SEMI CUTAWY WTH STYLSD CLR BND-CNTP;Draft;Shirts;Raymond;Adults-Men;Men;Maroon;;;Fashion;;2017;38,RYMDSHRT00016899,46,RYMDSHRT00016900,39,RYMDSHRT00016901,40,RYMDSHRT00016902,42,RYMDSHRT00016903,44,RYMDSHRT00016904;2799.00;<p>Showcasing attractive pin dots all over and a slim silhouette, this red shirt from Raymond is designed for the fashion savvy man who love to differ from the rest. Crafted from 100% cotton, this shirt has a semi cutaway collar and full sleeves that lend a classic look, while the patch pocket and curved hem give a distinct edge. This shirt can be teamed with a pair of dark blue trousers and black shoes to look your best.</p>;;<p>Machine Wash Warm Gentle Cycle,Cotton 100%</p>;;;NA;;zerotype;;Winter;;No
3010735;RESX00630-P6-Blue-3010735;F/S SPREAD COLLAR- CONTP  FT;Draft;Shirts;Raymond;Adults-Men;Men;Blue;;;Fashion;;2017;38,RYMDSHRT00016893,39,RYMDSHRT00016894,40,RYMDSHRT00016895,42,RYMDSHRT00016896,44,RYMDSHRT00016897,46,RYMDSHRT00016898;1399.00;<p>Blue in colour, this classy formal shirt from Raymond is a must-have in the wardrobe of all the urbane men. Fashioned from 100% cotton, this contemporary-fit shirt is extremely comfortable to wear. Complement this shirt with black trousers and dress shoes while heading to work.</p>;;<p>Machine Wash Warm Gentle Cycle,Cotton 100%</p>;;;NA;;zerotype;;Winter;;No
3010733;RMSY06300-F1-Off White Beige-3010733;H/S SEMI CUTAWY CLR STNDRD PLKT-CONT FIT;Draft;Shirts;Raymond;Adults-Men;Men;Off White;Beige;;Fashion;;2017;38,RYMDSHRT00016887,39,RYMDSHRT00016888,40,RYMDSHRT00016889,42,RYMDSHRT00016890,44,RYMDSHRT00016891,46,RYMDSHRT00016892;2999.00;<p>H/S SEMI CUTAWY CLR STNDRD PLKT-CONT FIT</p>;;<p>M/C Wash Gentle,Linen 100%</p>;;;na;;zerotype;;Winter;;No
3010730;RMSY05678-N3-Green-3010730;H/S SEMI CUTAWY CLR STNDRD PLKT-CONT FIT;Draft;Shirts;Raymond;Adults-Men;Men;Green;;;Fashion;;2017;38,RYMDSHRT00016881,39,RYMDSHRT00016882,40,RYMDSHRT00016883,42,RYMDSHRT00016884,44,RYMDSHRT00016885,46,RYMDSHRT00016886;3399.00;<p>H/S SEMI CUTAWY CLR STNDRD PLKT-CONT FIT</p>;;<p>M/C Wash Gentle,Linen 100%</p>;;;NA;;zerotype;;Winter;;No
3010726;RESX00642-V4-Lavender-3010726;F/S CONCEALED BTN DWN CNTP FIT;Draft;Shirts;Raymond;Adults-Men;Men;Lavender;;;Fashion;;2017;38,RYMDSHRT00016875,39,RYMDSHRT00016876,40,RYMDSHRT00016877,42,RYMDSHRT00016878,44,RYMDSHRT00016879,46,RYMDSHRT00016880;1199.00;<p>If you are looking for a classy shirt, then this violet formal shirt from Raymond will certainly put an end to your search. This full-sleeved shirt is extremely comfortable to wear and exhibits subtle sheen, courtesy its 100% cotton fabric. Complement this shirt with black trousers and dress shoes to complete your duty style.</p>;;<p>Machine Wash Warm Gentle Cycle,Cotton 100%</p>;;;na;;zerotype;;Winter;;No
3010722;RCSH00791-B4-Blue-3010722;F/S BTNDWN CLR CNTRST INR DTAIL SLIM FIT;Draft;Shirts;Raymond;Adults-Men;Men;Blue;;;Fashion;;2017;38,RYMDSHRT00016869,39,RYMDSHRT00016870,40,RYMDSHRT00016871,42,RYMDSHRT00016872,44,RYMDSHRT00016873,46,RYMDSHRT00016874;3299.00;<p>F/S BTNDWN CLR CNTRST INR DTAIL SLIM FIT</p>;;<p>Wash Dark Color Separately,Supima Cotton 100%</p>;;;NA;;zerotype;;Winter;;No
3010719;RMSX06197-W1-White-3010719;F/S SEMI CUTAWY CLR FRENCH CUFF-CONT FIT;Draft;Shirts;Raymond;Adults-Men;Men;White;;;Fashion;;2017;38,RYMDSHRT00016863,39,RYMDSHRT00016864,40,RYMDSHRT00016865,42,RYMDSHRT00016866,44,RYMDSHRT00016867,46,RYMDSHRT00016868;2199.00;<p>Take your corporate dressing to a whole new level with this crisp white formal shirt from Raymond. Featuring French cuffs and a semi-cutaway collar for a sophisticated expression, this shirt is best worn with dark-tone trousers and Derbies.</p>;;<p>Machine Wash Warm Gentle Cycle,Cotton 100%</p>;;;na;;zerotype;;Winter;;No
3010716;RMSX06939-R4-Coral-3010716;F/S SEMICTAWY WT INR CLRBND TRM-CONT FT;Draft;Shirts;Raymond;Adults-Men;Men;Coral;;;Fashion;;2017;38,RYMDSHRT00016857,39,RYMDSHRT00016858,40,RYMDSHRT00016859,42,RYMDSHRT00016860,44,RYMDSHRT00016861,46,RYMDSHRT00016862;2999.00;<p>Shirts with pin or chain collars are always preferred by influential corporate men. Collar pins or chains not only provide an edgy look to the shirt, but also keep the tie bow in place. Created for fashion A-listers, this pink formal shirt by Raymond exudes timeless elegance and sophistication. Featuring a solid design with spread collar and placket front, it also exemplifies plush softness, courtesy the cotton fabric. Team it with flat-front trousers and dress shoes.  Solid design Placket front Semi cutaway collar Patch pocket on the left Full sleeves with mitered cuffs</p>;;<p>Machine Wash Warm Gentle Cycle,Cotton 100%</p>;;;NA;;zerotype;;Winter;;No
3010712;RCSY00659-N5-Khaki-3010712;H/S RESORT CLR ROLLUP SLV GUSET CNTP FIT;Draft;Shirts;Raymond;Adults-Men;Men;Khaki;;;Fashion;;2017;38,RYMDSHRT00016851,39,RYMDSHRT00016852,40,RYMDSHRT00016853,42,RYMDSHRT00016854,44,RYMDSHRT00016855,46,RYMDSHRT00016856;2999.00;<p>H/S RESORT CLR ROLLUP SLV GUSET CNTP FIT</p>;;<p>M/C Wash Gentle,Linen 100%</p>;;;na;;zerotype;;Winter;;No
3010708;RMSH06358-R1-White Blue Red-3010708;F/S SPRD CLR,FRCH PLKT  SLIM FIT;Draft;Shirts;Raymond;Adults-Men;Men;White;Blue;Red;Fashion;;2017;38,RYMDSHRT00016845,39,RYMDSHRT00016846,40,RYMDSHRT00016847,42,RYMDSHRT00016848,44,RYMDSHRT00016849,46,RYMDSHRT00016850;2199.00;<p>F/S SPRD CLR,FRCH PLKT  SLIM FIT</p>;;<p>Machine Wash Warm Gentle Cycle,Cotton 100%</p>;;;na;;zerotype;;Winter;;No
3010706;RCSX00795-R3-Coral-3010706;F/S SPRED CLR INER CNTRAST DTAIL CON FIT;Draft;Shirts;Raymond;Adults-Men;Men;Coral;;;Fashion;;2017;38,RYMDSHRT00016839,39,RYMDSHRT00016840,40,RYMDSHRT00016841,42,RYMDSHRT00016842,44,RYMDSHRT00016843,46,RYMDSHRT00016844;2999.00;<p>F/S SPRED CLR INER CNTRAST DTAIL CON FIT</p>;;<p>M/C Wash Gentle,Linen 100%</p>;;;NA;;zerotype;;Winter;;No
3010703;RMSX06228-F3-Beige-3010703;F/S SEMI CTAWY WT INR CLRBND TRM-CONT FT;Draft;Shirts;Raymond;Adults-Men;Men;Beige;;;Fashion;;2017;38,RYMDSHRT00016833,39,RYMDSHRT00016834,40,RYMDSHRT00016835,42,RYMDSHRT00016836,44,RYMDSHRT00016837,46,RYMDSHRT00016838;3299.00;<p>F/S SEMI CTAWY WT INR CLRBND TRM-CONT FT</p>;;<p>M/C Wash Gentle,Linen 100%</p>;;;na;;zerotype;;Winter;;No
3010701;RMSH06428-V4-Purple White-3010701;F/S FULL CUTAWAY CLR BARL CUFF SLIM  FT;Draft;Shirts;Raymond;Adults-Men;Men;Purple;White;;Fashion;;2017;38,RYMDSHRT00016827,39,RYMDSHRT00016828,40,RYMDSHRT00016829,42,RYMDSHRT00016830,44,RYMDSHRT00016831,46,RYMDSHRT00016832;1999.00;<p>F/S FULL CUTAWAY CLR BARL CUFF SLIM  FT</p>;;<p>Machine Wash Warm Gentle Cycle,Cotton 100%</p>;;;NA;;zerotype;;Winter;;No
3010698;RMSY06221-B9-Blue-3010698;H/S SEMI CUTAWY CLR STNDRD PLKT-CONT FIT;Draft;Shirts;Raymond;Adults-Men;Men;Blue;;;Fashion;;2017;38,RYMDSHRT00016821,39,RYMDSHRT00016822,40,RYMDSHRT00016823,42,RYMDSHRT00016824,44,RYMDSHRT00016825,46,RYMDSHRT00016826;2999.00;<p>H/S SEMI CUTAWY CLR STNDRD PLKT-CONT FIT</p>;;<p>M/C Wash Gentle,Linen 100%</p>;;;na;;zerotype;;Winter;;No
3010695;RMSX06032-N3-Green-3010695;F/S SEMI CUTAWY CLR CHSL PKT&CUF-CONT FT;Draft;Shirts;Raymond;Adults-Men;Men;Green;;;Fashion;;2017;38,RYMDSHRT00016815,39,RYMDSHRT00016816,40,RYMDSHRT00016817,42,RYMDSHRT00016818,44,RYMDSHRT00016819,46,RYMDSHRT00016820;2699.00;<p>F/S SEMI CUTAWY CLR CHSL PKT&CUF-CONT FT</p>;;<p>Machine Wash Warm Gentle Cycle,Cotton 100%</p>;;;na;;zerotype;;Winter;;No
3010692;RMSY06080-Y5-Yellow Khaki-3010692;H/S SEMI CUTAWY CLR STNDRD PLKT-CONT FIT;Draft;Shirts;Raymond;Adults-Men;Men;Yellow;Khaki;;Fashion;;2017;38,RYMDSHRT00016809,39,RYMDSHRT00016810,40,RYMDSHRT00016811,42,RYMDSHRT00016812,44,RYMDSHRT00016813,46,RYMDSHRT00016814;1799.00;<p>With its two-tone affect highlighting its groovy modern look, this yellow shirt from Raymond give your formal outfit a fresh spring look. Embroidered with the brand logo on the right sleeve that showcases its unique identity, this shirt can be clubbed with grey tapered-leg trousers and glossy Derbies to complete your smart look.</p>;;<p>Machine Wash Warm Gentle Cycle,Cotton 100%</p>;;;NA;;zerotype;;Winter;;No
3010690;RMSY05226-K8-Black-3010690;H/S SEMI CUTAWY CLR STNDRD PLKT-CONT FIT;Draft;Shirts;Raymond;Adults-Men;Men;Black;;;Fashion;;2017;38,RYMDSHRT00016803,39,RYMDSHRT00016804,40,RYMDSHRT00016805,42,RYMDSHRT00016806,44,RYMDSHRT00016807,46,RYMDSHRT00016808;1999.00;<p>H/S SEMI CUTAWY CLR STNDRD PLKT-CONT FIT</p>;;<p>Machine Wash Warm Gentle Cycle,Cotton 100%</p>;;;na;;zerotype;;Winter;;No
3010685;RESX00626-P6-Blue-3010685;F/S SPREAD COLLAR- CONTP  FT;Draft;Shirts;Raymond;Adults-Men;Men;Blue;;;Fashion;;2017;38,RYMDSHRT00016797,39,RYMDSHRT00016798,40,RYMDSHRT00016799,42,RYMDSHRT00016800,44,RYMDSHRT00016801,46,RYMDSHRT00016802;1499.00;<p>Raymond presents this blue formal shirt that spells comfort and style. This 100% cotton shirt will keep you at ease all day long. Finished with a check pattern, this contemporary-fit shirt will look best when teamed with black trousers and dress shoes.</p>;;<p>Machine Wash Warm Gentle Cycle,Cotton 100%</p>;;;NA;;zerotype;;Winter;;No
3010683;RMSY05639-G3-Grey-3010683;H/S SEMI CUTAWY CLR STNDRD PLKT-CONT FIT;Draft;Shirts;Raymond;Adults-Men;Men;Grey;;;Fashion;Formal;2017;38,RYMDSHRT00016791,39,RYMDSHRT00016792,40,RYMDSHRT00016793,42,RYMDSHRT00016794,44,RYMDSHRT00016795,46,RYMDSHRT00016796;3099.00;<p>H/S SEMI CUTAWY CLR STNDRD PLKT-CONT FIT</p>;;<p>M/C Wash Gentle,Linen 100%</p>;;;na;;zerotype;;Winter;;No
3010680;RMSX06226-R7-Red-3010680;F/S SEMI CUTAWY CLR FRENCH PLKT-CONT FIT;Draft;Shirts;Raymond;Adults-Men;Men;Red;;;Fashion;;2017;38,RYMDSHRT00016785,39,RYMDSHRT00016786,40,RYMDSHRT00016787,42,RYMDSHRT00016788,44,RYMDSHRT00016789,46,RYMDSHRT00016790;2999.00;<p>F/S SEMI CUTAWY CLR FRENCH PLKT-CONT FIT</p>;;<p>M/C Wash Gentle,Linen 100%</p>;;;na;;zerotype;;Winter;;No
3010673;RMSJ06754-W0-White-3010673;F/S MICRO PLACKET MANDARIN CLR-CNTP;Draft;Shirts;Raymond;Adults-Men;Men;White;;;Fashion;;2017;38,RYMDSHRT00016779,39,RYMDSHRT00016780,40,RYMDSHRT00016781,42,RYMDSHRT00016782,44,RYMDSHRT00016783,46,RYMDSHRT00016784;3199.00;<p>F/S MICRO PLACKET MANDARIN CLR-CNTP</p>;;<p>M/C Wash Gentle,Linen 100%</p>;;;NA;;zerotype;;Winter;;No
3010669;RMSY05758-R4-Red White-3010669;H/S SEMI CUTAWY CLR STNDRD PLKT-CONT FIT;Draft;Shirts;Raymond;Adults-Men;Men;Red;White;Pink;Fashion;;2017;38,RYMDSHRT00016773,40,RYMDSHRT00016774,44,RYMDSHRT00016775,39,RYMDSHRT00016776,42,RYMDSHRT00016777,46,RYMDSHRT00016778;1999.00;<p>The structured design of this red formal shirt from Raymond will impress urbane men at a single glance. Decked with a semi cutaway collar and a patch pocket on the left chest, this half-sleeved shirt is worth investing in. Team it smartly with contrast coloured trousers and lace-ups.</p>;;<p>Machine Wash Warm Gentle Cycle,Cotton 100%</p>;;;na;;zerotype;;Winter;;No
3010667;RMSY06455-R5-White Red-3010667;H/S SEMI CUTAWY CLR STNDRD PLKT-CONT FIT;Draft;Shirts;Raymond;Adults-Men;Men;White;Red;Green;Fashion;;2017;38,RYMDSHRT00016767,39,RYMDSHRT00016768,40,RYMDSHRT00016769,42,RYMDSHRT00016770,44,RYMDSHRT00016771,46,RYMDSHRT00016772;1799.00;<p>H/S SEMI CUTAWY CLR STNDRD PLKT-CONT FIT</p>;;<p>M/C Wash Gentle,Cotton 45%/Linen55%</p>;;;na;;zerotype;;Winter;;No
3010662;RMSY06030-R3-Coral-3010662;H/S SEMI CUTAWY CLR STNDRD PLKT-CONT FIT;Draft;Shirts;Raymond;Adults-Men;Men;Coral;;;Fashion;;2017;40,RYMDSHRT00016761,38,RYMDSHRT00016762,39,RYMDSHRT00016763,42,RYMDSHRT00016764,44,RYMDSHRT00016765,46,RYMDSHRT00016766;2199.00;<p>Available in a charming red hue, this formal shirt by Raymond is a real head turner. The chic chevron pattern allover further amplifies its aesthetic appeal. Team this cotton shirt with formal trousers and dress shoes before heading out for a boardroom presentation.</p>;;<p>Machine Wash Warm Gentle Cycle,Cotton 100%</p>;;;na;;zerotype;;Winter;;No
1915682;RMTX02411-B6-Blue-1915682;BASIC FLAT FRNT -CONTEMPORARY FIT;Draft;Trousers;Raymond;Adults-Men;Men;Blue;;;Fashion;;2016;76,RYMDTRSR00002249,82,RYMDTRSR00002250,86,RYMDTRSR00002251,92,RYMDTRSR00002252,96,RYMDTRSR00002253,100,RYMDTRSR00002254;2899.00;;;<p>MACHINE WASH COLD</p>;;;;never-settle,workwear-styles,formal-aug-mb;zerotype;;Winter;formal;No
1915669;RMTX02410-F6-Fawn-1915669;BASIC FLAT FRNT -CONTEMPORARY FIT;Draft;Trousers;Raymond;Adults-Men;Men;Beige;;;Fashion;;2016;76,RYMDTRSR00002243,82,RYMDTRSR00002244,86,RYMDTRSR00002245,92,RYMDTRSR00002246,96,RYMDTRSR00002247,100,RYMDTRSR00002248;2899.00;;;<p>MACHINE WASH COLD</p>;;;;never-settle,workwear-styles,formal-aug-mb;zerotype;;Winter;formal;No
1915571;RMTS02322-B7-Blue-1915571;BASIC FLAT FRNT - SLIM FIT;Draft;Trousers;Raymond;Adults-Men;Men;Blue;;;Fashion;;2017;82,RYMDTRSR00002119,86,RYMDTRSR00002120,92,RYMDTRSR00002121,96,RYMDTRSR00002122;2299.00;;;<p>MACHINE WASH COLD</p>;;;;never-settle,workwear-styles,formal-aug-mb;zerotype;;Summer;formal;No
