Style ID;Vendor Article Number;Vendor Article Name;Active Status;Article type;Brand;Age Group;Gender;Base Colour;Colour1;Colour2;Fashion Type;Usage;Year;Size - SKU code pair;MRP;Style Description;Style Note;Materials and Care Description;Size and Fit Description;Size Chart Path;Product Display Name;Tags;Product Type;Classification Brand;Season;Comments;Upload Images
2185084;D-W-Coral Blue-8-Coral-2185084;D-W-Coral Blue-8;Draft;Dresses;pspeaches;Kids-Girls;Girls;Coral;;;Fashion;;2017;1-2Y,PSPHDRSS00002067,2-3Y,PSPHDRSS00002068,3-4Y,PSPHDRSS00002069,4-5Y,PSPHDRSS00002070,5-6Y,PSPHDRSS00002071,6-7Y,PSPHDRSS00002072,7-8Y,PSPHDRSS00002073,8-9Y,PSPHDRSS00002074;1999.00;;;<p>Dryclean only</p>;;;;;zerotype;;Winter;;No
2185083;D-W-Peach dress-8-Peach-2185083;D-W-Peach dress-8;Draft;Dresses;pspeaches;Kids-Girls;Girls;Peach;;;Fashion;;2017;1-2Y,PSPHDRSS00002059,2-3Y,PSPHDRSS00002060,3-4Y,PSPHDRSS00002061,4-5Y,PSPHDRSS00002062,5-6Y,PSPHDRSS00002063,6-7Y,PSPHDRSS00002064,7-8Y,PSPHDRSS00002065,8-9Y,PSPHDRSS00002066;1999.00;;;<p>Dryclean only</p>;;;;;zerotype;;Winter;;No
2185081;D-W-Wine shimmer-8-Magenta-2185081;D-W-Wine shimmer-8;Draft;Dresses;pspeaches;Kids-Girls;Girls;Magenta;;;Fashion;;2017;1-2Y,PSPHDRSS00002051,2-3Y,PSPHDRSS00002052,3-4Y,PSPHDRSS00002053,4-5Y,PSPHDRSS00002054,5-6Y,PSPHDRSS00002055,6-7Y,PSPHDRSS00002056,7-8Y,PSPHDRSS00002057,8-9Y,PSPHDRSS00002058;1999.00;;;<p>Dryclean only</p>;;;;;zerotype;;Winter;;No
2185080;D-W-Ivory jacard-8-Off White-2185080;D-W-Ivory jacard-8;Draft;Dresses;pspeaches;Kids-Girls;Girls;Off White;;;Fashion;;2017;2-3Y,PSPHDRSS00002044,3-4Y,PSPHDRSS00002045,4-5Y,PSPHDRSS00002046,5-6Y,PSPHDRSS00002047,6-7Y,PSPHDRSS00002048,7-8Y,PSPHDRSS00002049,8-9Y,PSPHDRSS00002050;1999.00;;;<p>Dryclean only</p>;;;;;zerotype;;Winter;;No
