Style ID;Vendor Article Number;Vendor Article Name;Active Status;Article type;Brand;Age Group;Gender;Base Colour;Colour1;Colour2;Fashion Type;Usage;Year;Size - SKU code pair;MRP;Style Description;Style Note;Materials and Care Description;Size and Fit Description;Size Chart Path;Product Display Name;Tags;Product Type;Classification Brand;Season;Comments;Upload Images
2517815;WTS194_Grey_M-Grey-2517815;WTS194_Grey;Draft;Tshirts;WITH;Adults-Men;Men;Brown;;;Fashion;Casual;2018;XXL,WITHTSHT00000758,L,WITHTSHT00000759,XL,WITHTSHT00000760,M,WITHTSHT00000761;1350.00;;;<p>Dry Clean Only</p>;;;NA;;zerotype;;Summer;;No
2517814;WTS80_Olive-Grey-2517814;WTS80_Olive;Draft;Tshirts;WITH;Adults-Men;Men;Grey;;;Fashion;;2018;XL,WITHTSHT00000755,L,WITHTSHT00000756,M,WITHTSHT00000757;1199.00;;;<p>Dry Clean Only</p>;;;NA;;zerotype;;Summer;;No
2517813;WTS66_Grey-Brown-2517813;WTS66_Grey;Draft;Tshirts;WITH;Adults-Men;Men;Brown;;;Fashion;;2018;XL,WITHTSHT00000752,L,WITHTSHT00000753,M,WITHTSHT00000754;1199.00;;;<p>Dry Clean Only</p>;;;NA;;zerotype;;Summer;;No
2517812;WTS78_Navyblue-Grey-2517812;WTS78_Navyblue;Draft;Tshirts;WITH;Adults-Men;Men;Grey;;;Fashion;;2018;L,WITHTSHT00000749,XL,WITHTSHT00000750,M,WITHTSHT00000751;1199.00;;;<p>Dry Clean Only</p>;;;NA;;zerotype;;Summer;;No
2517811;WTS138_Maroon-Maroon-2517811;WTS138_Maroon;Draft;Tshirts;WITH;Adults-Men;Men;Maroon;;;Fashion;;2018;XL,WITHTSHT00000745,L,WITHTSHT00000746,M,WITHTSHT00000747,XXL,WITHTSHT00000748;1260.00;;;<p>Dry Clean Only</p>;;;NA;;zerotype;;Summer;;No
2517810;WTS96_Navyblue-Black-2517810;WTS96_Navyblue;Draft;Tshirts;WITH;Adults-Men;Men;Black;;;Fashion;;2018;XL,WITHTSHT00000742,L,WITHTSHT00000743,M,WITHTSHT00000744;1199.00;;;<p>Dry Clean Only</p>;;;NA;;zerotype;;Summer;;No
2517809;WTS5_Black-Grey-2517809;WTS5_Black;Draft;Tshirts;WITH;Adults-Men;Men;Grey;;;Fashion;;2018;S,WITHTSHT00000738,XL,WITHTSHT00000739,L,WITHTSHT00000740,M,WITHTSHT00000741;1529.00;;;<p>Dry Clean Only</p>;;;NA;;zerotype;;Summer;;No
2517808;WTS79_Black-Black-2517808;WTS79_Black;Draft;Tshirts;WITH;Adults-Men;Men;Black;;;Fashion;;2018;L,WITHTSHT00000735,M,WITHTSHT00000736,XL,WITHTSHT00000737;1199.00;;;<p>Dry Clean Only</p>;;;NA;;zerotype;;Summer;;No
2517807;WTS137_Beige-Beige-2517807;WTS137_Beige;Draft;Tshirts;WITH;Adults-Men;Men;Beige;;;Fashion;;2018;L,WITHTSHT00000731,M,WITHTSHT00000732,XXL,WITHTSHT00000733,XL,WITHTSHT00000734;1260.00;;;<p>Dry Clean Only</p>;;;NA;;zerotype;;Summer;;No
2517806;WTS142_Maroon-Maroon-2517806;WTS142_Maroon;Draft;Tshirts;WITH;Adults-Men;Men;Maroon;;;Fashion;;2018;M,WITHTSHT00000727,L,WITHTSHT00000728,XL,WITHTSHT00000729,XXL,WITHTSHT00000730;1198.00;;;<p>Dry Clean Only</p>;;;NA;;zerotype;;Summer;;No
2517805;WTS122_Grey-Grey-2517805;WTS122_Grey;Draft;Tshirts;WITH;Adults-Men;Men;Grey;;;Fashion;Casual;2018;XXL,WITHTSHT00000723,XL,WITHTSHT00000724,L,WITHTSHT00000725,M,WITHTSHT00000726;1260.00;;;<p>Dry Clean Only</p>;;;NA;;zerotype;;Summer;;No
2517804;WTS91_Navyblue-Black-2517804;WTS91_Navyblue;Draft;Tshirts;WITH;Adults-Men;Men;Black;;;Fashion;;2018;L,WITHTSHT00000720,M,WITHTSHT00000721,XL,WITHTSHT00000722;1199.00;;;<p>Dry Clean Only</p>;;;NA;;zerotype;;Summer;;No
2517803;WTS59_Green-Green-2517803;WTS59_Green;Draft;Tshirts;WITH;Adults-Men;Men;Green;;;Fashion;Casual;2018;M,WITHTSHT00000717,L,WITHTSHT00000718,XL,WITHTSHT00000719;1199.00;;;<p>Dry Clean Only</p>;;;na;;zerotype;;Summer;;No
