Style ID;Vendor Article Number;Vendor Article Name;Active Status;Article type;Brand;Age Group;Gender;Base Colour;Colour1;Colour2;Fashion Type;Usage;Year;Size - SKU code pair;MRP;Style Description;Style Note;Materials and Care Description;Size and Fit Description;Size Chart Path;Product Display Name;Tags;Product Type;Classification Brand;Season;Comments;Upload Images
2587809;B1W17MAJ0035-Khaki-2587809;FOWEY;Draft;Trousers;Blue Saint;Adults-Men;Men;Khaki;;;Fashion;;2018;28,BESTTRSR00000783,36,BESTTRSR00000784,34,BESTTRSR00000785,32,BESTTRSR00000786,30,BESTTRSR00000787;1699.00;;;<p>Machine Wash</p>;;;na;;zerotype;;Spring;;No
2587808;B1W17MAJ0036-Brown-2587808;FATTAN;Draft;Trousers;Blue Saint;Adults-Men;Men;Brown;;;Fashion;;2018;28,BESTTRSR00000778,36,BESTTRSR00000779,34,BESTTRSR00000780,32,BESTTRSR00000781,30,BESTTRSR00000782;1699.00;;;<p>Machine Wash</p>;;;na;;zerotype;;Spring;;No
2587807;B1S18MFC0094-White-2587807;HARPING;Draft;Jackets;Blue Saint;Adults-Men;Men;White;;;Fashion;;2018;XL,BESTJCKT00000090,L,BESTJCKT00000091,M,BESTJCKT00000092,S,BESTJCKT00000093;1899.00;;;<p>Machine Wash</p>;;;na;;zerotype;;Spring;;No
2587806;B1S18MFC0179-Blue-2587806;ASAU;Draft;Jackets;Blue Saint;Adults-Men;Men;Blue;;;Fashion;;2018;L,BESTJCKT00000086,M,BESTJCKT00000087,S,BESTJCKT00000088,XL,BESTJCKT00000089;1899.00;;;<p>Machine Wash</p>;;;na;;zerotype;;Spring;;No
2587805;B1S18MFC0095-Beige-2587805;HARPTREE;Draft;Jackets;Blue Saint;Adults-Men;Men;Beige;;;Fashion;;2018;XL,BESTJCKT00000082,L,BESTJCKT00000083,M,BESTJCKT00000084,S,BESTJCKT00000085;1899.00;;;<p>Machine Wash</p>;;;na;;zerotype;;Spring;;No
2587804;B1S18MAJ0201-Blue-2587804;DEARBORN;Draft;Jeans;Blue Saint;Adults-Men;Men;Blue;;;Fashion;;2018;30,BESTJENS00001917,28,BESTJENS00001918,36,BESTJENS00001919,34,BESTJENS00001920,32,BESTJENS00001921;1699.00;;;<p>Machine Wash</p>;;;na;;zerotype;;Spring;;No
2587803;B1S18MAJ0214-Blue-2587803;CABEL;Draft;Jeans;Blue Saint;Adults-Men;Men;Blue;;;Fashion;;2018;36,BESTJENS00001912,34,BESTJENS00001913,32,BESTJENS00001914,30,BESTJENS00001915,28,BESTJENS00001916;1599.00;;;<p>Machine Wash</p>;;;na;;zerotype;;Spring;;No
2587802;B1S18MAJ0077-Blue-2587802;HAGG;Draft;Jeans;Blue Saint;Adults-Men;Men;Blue;;;Fashion;;2018;32,BESTJENS00001907,30,BESTJENS00001908,36,BESTJENS00001909,28,BESTJENS00001910,34,BESTJENS00001911;1899.00;;;<p>Machine Wash</p>;;;na;;zerotype;;Spring;;No
2587801;B1S18MAJ0116-Olive-2587801;HAMBLEDON;Draft;Jeans;Blue Saint;Adults-Men;Men;Olive;;;Fashion;;2018;30,BESTJENS00001902,28,BESTJENS00001903,36,BESTJENS00001904,34,BESTJENS00001905,32,BESTJENS00001906;1799.00;;;<p>Machine Wash</p>;;;na;;zerotype;;Spring;;No
2587800;B1S18MAJ0205-Black-2587800;FENTRE;Draft;Jeans;Blue Saint;Adults-Men;Men;Black;;;Fashion;;2018;36,BESTJENS00001897,30,BESTJENS00001898,28,BESTJENS00001899,32,BESTJENS00001900,34,BESTJENS00001901;1799.00;;;<p>Machine Wash</p>;;;na;;zerotype;;Spring;;No
2587799;B1S18MAJ0109-Blue-2587799;HAGGIS;Draft;Jeans;Blue Saint;Adults-Men;Men;Blue;;;Fashion;;2018;32,BESTJENS00001892,30,BESTJENS00001893,28,BESTJENS00001894,36,BESTJENS00001895,34,BESTJENS00001896;1699.00;;;<p>Machine Wash</p>;;;na;;zerotype;;Spring;;No
2587798;B1S18MAJ0112-Black-2587798;HALAMAR1;Draft;Jeans;Blue Saint;Adults-Men;Men;Black;;;Fashion;;2018;36,BESTJENS00001887,30,BESTJENS00001888,28,BESTJENS00001889,34,BESTJENS00001890,32,BESTJENS00001891;1699.00;;;<p>Machine Wash</p>;;;na;;zerotype;;Spring;;No
2587797;B1S18MAJ0209-Blue-2587797;GENT;Draft;Jeans;Blue Saint;Adults-Men;Men;Blue;;;Fashion;;2018;28,BESTJENS00001882,36,BESTJENS00001883,34,BESTJENS00001884,32,BESTJENS00001885,30,BESTJENS00001886;1999.00;;;<p>Machine Wash</p>;;;na;;zerotype;;Spring;;No
2587796;B1S18MAJ0114-Beige-2587796;HALTON;Draft;Jeans;Blue Saint;Adults-Men;Men;Beige;;;Fashion;;2018;34,BESTJENS00001877,30,BESTJENS00001878,28,BESTJENS00001879,32,BESTJENS00001880,36,BESTJENS00001881;1799.00;;;<p>Machine Wash</p>;;;na;;zerotype;;Spring;;No
2587795;B1S18MAJ0211-Blue-2587795;DALIBOR;Draft;Jeans;Blue Saint;Adults-Men;Men;Blue;;;Fashion;;2018;28,BESTJENS00001872,36,BESTJENS00001873,34,BESTJENS00001874,32,BESTJENS00001875,30,BESTJENS00001876;1699.00;;;<p>Machine Wash</p>;;;na;;zerotype;;Spring;;No
2587794;B1S18MAJ0073-Brown-2587794;HALSTON1;Draft;Jeans;Blue Saint;Adults-Men;Men;Brown;;;Fashion;;2018;36,BESTJENS00001867,34,BESTJENS00001868,30,BESTJENS00001869,32,BESTJENS00001870,28,BESTJENS00001871;1899.00;;;<p>Machine Wash</p>;;;na;;zerotype;;Spring;;No
2587793;B1S18MAJ0215-Black-2587793;CACCONE;Draft;Jeans;Blue Saint;Adults-Men;Men;Black;;;Fashion;;2018;36,BESTJENS00001862,34,BESTJENS00001863,32,BESTJENS00001864,30,BESTJENS00001865,28,BESTJENS00001866;1599.00;;;<p>Machine Wash</p>;;;na;;zerotype;;Spring;;No
2587792;B1S18MAJ0204-Grey-2587792;FREMON;Draft;Jeans;Blue Saint;Adults-Men;Men;Grey;;;Fashion;;2018;32,BESTJENS00001857,30,BESTJENS00001858,36,BESTJENS00001859,28,BESTJENS00001860,34,BESTJENS00001861;1699.00;;;<p>Machine Wash</p>;;;na;;zerotype;;Spring;;No
2587791;B1S18MAJ0213-Black-2587791;CAJUN;Draft;Jeans;Blue Saint;Adults-Men;Men;Black;;;Fashion;;2018;28,BESTJENS00001852,36,BESTJENS00001853,34,BESTJENS00001854,32,BESTJENS00001855,30,BESTJENS00001856;1699.00;;;<p>Machine Wash</p>;;;na;;zerotype;;Spring;;No
2587790;B1S18MAJ0206-Black-2587790;FINLY;Draft;Jeans;Blue Saint;Adults-Men;Men;Black;;;Fashion;;2018;36,BESTJENS00001847,34,BESTJENS00001848,30,BESTJENS00001849,28,BESTJENS00001850,32,BESTJENS00001851;1799.00;;;<p>Machine Wash</p>;;;na;;zerotype;;Spring;;No
2587789;B1S18MAJ0200-Blue-2587789;FIRAT;Draft;Jeans;Blue Saint;Adults-Men;Men;Blue;;;Fashion;;2018;30,BESTJENS00001842,28,BESTJENS00001843,36,BESTJENS00001844,34,BESTJENS00001845,32,BESTJENS00001846;1999.00;;;<p>Machine Wash</p>;;;na;;zerotype;;Spring;;No
2587788;B1S18MAJ0115-Peach-2587788;HALYARD;Draft;Jeans;Blue Saint;Adults-Men;Men;Peach;;;Fashion;;2018;28,BESTJENS00001837,36,BESTJENS00001838,34,BESTJENS00001839,32,BESTJENS00001840,30,BESTJENS00001841;1799.00;;;<p>Machine Wash</p>;;;na;;zerotype;;Spring;;No
2587787;B1S18MAJ0108-Black-2587787;HADFIELD;Draft;Jeans;Blue Saint;Adults-Men;Men;Black;;;Fashion;;2018;34,BESTJENS00001832,32,BESTJENS00001833,28,BESTJENS00001834,30,BESTJENS00001835,36,BESTJENS00001836;1599.00;;;<p>Machine Wash</p>;;;na;;zerotype;;Spring;;No
2587786;B1S18MAJ0208-Blue-2587786;GENK;Draft;Jeans;Blue Saint;Adults-Men;Men;Blue;;;Fashion;;2018;34,BESTJENS00001827,32,BESTJENS00001828,30,BESTJENS00001829,28,BESTJENS00001830,36,BESTJENS00001831;1899.00;;;<p>Machine Wash</p>;;;na;;zerotype;;Spring;;No
1977799;B1S17MAJ0012-Navy Blue-1977799;Dalaney;Active;Jeans;Blue Saint;Adults-Men;Men;Navy Blue;;;Fashion;Casual;2017;28,BESTJENS00001304;1799.00;Navy dark wash 5-pocket mid-rise <a href='/jeans?src=pd' class='seolink'>jeans</a>, clean look with light fade, has a button and zip closure, waistband with belt loops;You're sure to love the long-lasting comfort and style of these Blue Saint slim jeans.  Team yours with Chelsea boots and a fitted T-shirt for a handsome look for both work and play.;Cotton <br /> Machine-wash;Lean slim fit <br /> The model (height 6') is wearing a size 28;;Blue Saint Men Navy Lean Slim Fit Mid-Rise Clean Look Jeans;Blue Saint,JIT,eorsdec2017-emeocc;zerotype;;Summer;eorsdec2017-emeocc;No
