Style ID;Vendor Article Number;Vendor Article Name;Active Status;Article type;Brand;Age Group;Gender;Base Colour;Colour1;Colour2;Fashion Type;Usage;Year;Size - SKU code pair;MRP;Style Description;Style Note;Materials and Care Description;Size and Fit Description;Size Chart Path;Product Display Name;Tags;Product Type;Classification Brand;Season;Comments;Upload Images
4287950;PM204216G71-DEEP INDIGO-4287950;MERLIN IP;Draft;Jeans;Pepe Jeans;Adults-Men;Men;Blue;;;Fashion;Casual;2018;28,PEJEJENS00019315,30,PEJEJENS00019316,32,PEJEJENS00019317,34,PEJEJENS00019318,36,PEJEJENS00019319,38,PEJEJENS00019320,40,PEJEJENS00019321;3199.00;<p>VAPOUR</p>;;<p>65% COTTON, 34% POLYESTER, 1% ELASTANE</p>;;;;;zerotype;;Summer;;No
4287949;PM204207J29-DK BASIC WORN-4287949;LOGAIN IP;Draft;Jeans;Pepe Jeans;Adults-Men;Men;Blue;;;Fashion;Casual;2018;28,PEJEJENS00019308,30,PEJEJENS00019309,32,PEJEJENS00019310,34,PEJEJENS00019311,36,PEJEJENS00019312,38,PEJEJENS00019313,40,PEJEJENS00019314;3199.00;<p>VAPOUR</p>;;<p>98% COTTON, 2% SPANDEX</p>;;;;;zerotype;;Summer;;No
4287948;PM204201V67-TINTED WORN BLUE-4287948;JOSHUA IP;Draft;Jeans;Pepe Jeans;Adults-Men;Men;Blue;;;Fashion;Casual;2018;28,PEJEJENS00019301,30,PEJEJENS00019302,32,PEJEJENS00019303,34,PEJEJENS00019304,36,PEJEJENS00019305,38,PEJEJENS00019306,40,PEJEJENS00019307;2999.00;<p>VAPOUR</p>;;<p>80% COTTON, 18% POLYESTER, 2% ELASTANE</p>;;;;;zerotype;;Summer;;No
4287947;PM204175F47-ICE BLASTED-4287947;FRANK IP;Draft;Jeans;Pepe Jeans;Adults-Men;Men;Blue;;;Fashion;Casual;2018;28,PEJEJENS00019294,30,PEJEJENS00019295,32,PEJEJENS00019296,34,PEJEJENS00019297,36,PEJEJENS00019298,38,PEJEJENS00019299,40,PEJEJENS00019300;2999.00;<p>VAPOUR</p>;;<p>98% COTTON, 2% SPANDEX</p>;;;;;zerotype;;Summer;;No
4287942;PM204141G17-KLASSIC BLUE-4287942;BURT IP;Draft;Jeans;Pepe Jeans;Adults-Men;Men;Blue;;;Fashion;Casual;2018;28,PEJEJENS00019262,30,PEJEJENS00019263,32,PEJEJENS00019264,34,PEJEJENS00019265,36,PEJEJENS00019266,38,PEJEJENS00019267,40,PEJEJENS00019268;3399.00;<p>VAPOUR</p>;;<p>80% COTTON, 18% POLYESTER, 2% ELASTANE</p>;;;;;zerotype;;Summer;;No
4287941;PM204140G17-KLASSIC BLUE-4287941;BURT CN IP;Draft;Jeans;Pepe Jeans;Adults-Men;Men;Blue;;;Fashion;Casual;2018;28,PEJEJENS00019257,30,PEJEJENS00019258,32,PEJEJENS00019259,34,PEJEJENS00019260,36,PEJEJENS00019261;3399.00;<p>CANE</p>;;<p>80% COTTON, 18% POLYESTER, 2% ELASTANE</p>;;;;;zerotype;;Summer;;No
3410450;ITBTS00031-Indigo-3410450;Boy's T-Shirt;Draft;Tshirts;Indian Terrain;Kids-Boys;Boys;Blue;;;Fashion;;2018;L,INTRTSHT00109462,EL,INTRTSHT00109463;1149.00;;;<p>Cold Wash</p>;;;;;zerotype;;Summer;;No
3410289;ITBSH00008-White-3410289;Boy's Shirt;Draft;Shirts;Indian Terrain;Kids-Boys;Boys;White;;;Fashion;;2018;L,INTRSHRT00113040,EL,INTRSHRT00113041;1799.00;;;<p>Cold Wash</p>;;;;;zerotype;;Summer;;No
2889061;UGTO5217-BLUE-2889061;TOP BLUE;Draft;Tops;U.S. Polo Assn. Kids;Kids-Girls;Girls;;;;Fashion;;2017;EES,USPKTOPS00000533,ES,USPKTOPS00000534,EXS,USPKTOPS00000535,S,USPKTOPS00000536;1399.00;;;;;;;;zerotype;;Summer;;No
2574594;PB540424-GREEN-2574594;ERIK IP;Draft;Tshirts;Pepe Jeans;Kids-Boys;Boys;Green;;;Fashion;Casual;2018;4,PEJETSHT00019114,6,PEJETSHT00019115,8,PEJETSHT00019116,10,PEJETSHT00019117,12,PEJETSHT00019118,14,PEJETSHT00019119,16,PEJETSHT00019120;1199.00;;;<p>100% COTTON</p>;;;;;zerotype;;Summer;;No
2510577;PCHA00027-N4-Green-2510577;SHORTS WITH WAISTBAND DETAILING SLIM FIT;Draft;Shorts;Park Avenue;Adults-Men;Men;Green;;;Fashion;;2017;30,PKAVSHOR00000069,32,PKAVSHOR00000070,34,PKAVSHOR00000071,36,PKAVSHOR00000072;1799.00;;;<p>M/C Wash Gentle,Cotton 99%/ Lycra 1%</p>;;;;;zerotype;;Summer;;No
2510576;PCHA00027-G6-Grey-2510576;SHORTS WITH WAISTBAND DETAILING SLIM FIT;Draft;Shorts;Park Avenue;Adults-Men;Men;Grey;;;Fashion;;2017;30,PKAVSHOR00000064,32,PKAVSHOR00000065,34,PKAVSHOR00000066,36,PKAVSHOR00000067,38,PKAVSHOR00000068;1799.00;;;<p>M/C Wash Gentle,Cotton 99%/ Lycra 1%</p>;;;;;zerotype;;Summer;;No
2372459;UTDR5253-NAVY-2372459;S/LPRINTEDDRESS-SLEEVELESS-NAVY;Draft;Dresses;U.S. Polo Assn. Kids;Kids-Girls;Girls;;;;Fashion;;2017;EL,USPKDRSS00000503,L,USPKDRSS00000504,M,USPKDRSS00000505;2099.00;;;;;;;;zerotype;;Summer;;No
2368765;MFB-PN-BX-711134-Purple-2368765;Mast & Harbour Clutches;Draft;Clutches;Mast & Harbour;Adults-Women;Women;;;;Fashion;;2018;Onesize,MTHBCLTH00000160;1599.00;;;;;;;;zerotype;;Fall;;No
2187289;ILS00S580164D-DARK FUSCHIA-2187289;612 GIRLS;Draft;Tops;612 league;Kids-Girls;Girls;;;;Fashion;;2017;3Y,LAGETOPS00002955,4Y,LAGETOPS00002956,5-6Y,LAGETOPS00002957,7-8Y,LAGETOPS00002958;545.00;;;<p>Normal Wash</p>;;;;;zerotype;;Winter;;No
2187155;ILW00S350050E-GREEN-2187155;GRAPHIC TEE NICE GUY;Draft;Tshirts;612 league;Kids-Boys;Boys;;;;Fashion;;2017;3-6M,LAGETSHT00004303,6-12M,LAGETSHT00004304,12-18M,LAGETSHT00004305,18-24M,LAGETSHT00004306;395.00;;;<p>Normal Wash</p>;;;;;zerotype;;Winter;;No
2186998;ILS00S160054D-RED-2186998;EMBLEM EMBROIDERY;Draft;Tshirts;612 league;Kids-Boys;Boys;;;;Fashion;;2017;3Y,LAGETSHT00003908,4Y,LAGETSHT00003909,5-6Y,LAGETSHT00003910,7-8Y,LAGETSHT00003911,11-12Y,LAGETSHT00003912,13-14Y,LAGETSHT00003913,9-10Y,LAGETSHT00003914;695.00;;;<p>Normal Wash</p>;;;;;zerotype;;Winter;;No
2186859;ILS17I53012-LT. BLUE-2186859;DENIM WITH GEOMETRIC EMB;Draft;Shorts;612 league;Kids-Girls;Girls;;;;Fashion;;2017;9-10Y,LAGESHOR00002272,11-12Y,LAGESHOR00002273,13-14Y,LAGESHOR00002274;1195.00;;;<p>Normal Wash</p>;;;;;zerotype;;Winter;;No
2186378;ILW17I80001-BLACK-2186378;TIGHTS SOLID;Draft;Tights;612 league;Kids-Girls;Girls;;;;Fashion;;2017;3-6M,LAGETIGH00000498,6-12M,LAGETIGH00000499;345.00;;;<p>Normal Wash</p>;;;;;zerotype;;Winter;;No
1296866;RMSX05512-W0-White-1296866;Shirts;Draft;Shirts;Raymond;Adults-Men;Men;;;;Core;;2016;39,RYMDSHRT00003040,40,RYMDSHRT00003041,42,RYMDSHRT00003042,44,RYMDSHRT00003043;3799.00;<p>Cotton</p>;;;;;;never-settle,workwear-styles,formal-aug-mb;zerotype;;Summer;formal;No
