Style ID;Vendor Article Number;Vendor Article Name;Active Status;Article type;Brand;Age Group;Gender;Base Colour;Colour1;Colour2;Fashion Type;Usage;Year;Size - SKU code pair;MRP;Style Description;Style Note;Materials and Care Description;Size and Fit Description;Size Chart Path;Product Display Name;Tags;Product Type;Classification Brand;Season;Comments;Upload Images
2468625;LTP2984-OFFWHITE-XL-OffWhite-2468625;plusS Ladies Tops;Draft;Tops;plusS;Adults-Women;Women;Off White;;;Fashion;Casual;2018;L,PLUSTOPS00004601,M,PLUSTOPS00004602,S,PLUSTOPS00004603,4XL,PLUSTOPS00004604,3XL,PLUSTOPS00004605,XXL,PLUSTOPS00004606,XL,PLUSTOPS00004607;1999.00;<p>plusS Ladies Printed Tops</p>;;<p>100% Polyester (Machine Wash)</p>;;;NA;;zerotype;;Spring;;No
2468623;LTP3023-OFFWHITE-L-OffWhite-2468623;plusS Ladies Tops;Draft;Tops;plusS;Adults-Women;Women;Off White;;;Fashion;Casual;2018;M,PLUSTOPS00004594,S,PLUSTOPS00004595,4XL,PLUSTOPS00004596,3XL,PLUSTOPS00004597,XXL,PLUSTOPS00004598,XL,PLUSTOPS00004599,L,PLUSTOPS00004600;1999.00;<p>plusS Ladies Solid Tops</p>;;<p>100% Polyester (Machine Wash)</p>;;;NA;;zerotype;;Spring;;No
2468621;LTP3113-MAUVE-M-Mauve-2468621;plusS Ladies Tops;Draft;Tops;plusS;Adults-Women;Women;Mauve;;;Fashion;Casual;2018;S,PLUSTOPS00004587,4XL,PLUSTOPS00004588,3XL,PLUSTOPS00004589,XXL,PLUSTOPS00004590,XL,PLUSTOPS00004591,L,PLUSTOPS00004592,M,PLUSTOPS00004593;1899.00;<p>plusS Ladies Solid Tops</p>;;<p>100% Polyester (Machine Wash)</p>;;;NA;;zerotype;;Spring;;No
2468619;LTP3063-BLACK-M-Black-2468619;plusS Ladies Tops;Draft;Tops;plusS;Adults-Women;Women;Black;;;Fashion;Casual;2018;S,PLUSTOPS00004580,4XL,PLUSTOPS00004581,3XL,PLUSTOPS00004582,XXL,PLUSTOPS00004583,XL,PLUSTOPS00004584,L,PLUSTOPS00004585,M,PLUSTOPS00004586;1499.00;<p>plusS Ladies Solid Tops</p>;;<p>100% Cotton (Machine Wash)</p>;;;NA;;zerotype;;Spring;;No
2468617;LTP3127-FORESTGREEN-M-ForestGreen-2468617;plusS Ladies Tops;Draft;Tops;plusS;Adults-Women;Women;Green;;;Fashion;Casual;2018;S,PLUSTOPS00004573,4XL,PLUSTOPS00004574,3XL,PLUSTOPS00004575,XXL,PLUSTOPS00004576,XL,PLUSTOPS00004577,L,PLUSTOPS00004578,M,PLUSTOPS00004579;1899.00;<p>plusS Ladies Solid Tops</p>;;<p>100% Polyester (Machine Wash)</p>;;;NA;;zerotype;;Spring;;No
2468615;LTP3135-MUSTARD-M-Mustard-2468615;plusS Ladies Tops;Draft;Tops;plusS;Adults-Women;Women;Mustard;;;Fashion;Casual;2018;S,PLUSTOPS00004566,4XL,PLUSTOPS00004567,3XL,PLUSTOPS00004568,XXL,PLUSTOPS00004569,XL,PLUSTOPS00004570,L,PLUSTOPS00004571,M,PLUSTOPS00004572;1999.00;<p>plusS Ladies Solid Tops</p>;;<p>100% Polyester (Machine Wash)</p>;;;NA;;zerotype;;Spring;;No
2468613;LTP3112-CAMEL-M-Camel-2468613;plusS Ladies Tops;Draft;Tops;plusS;Adults-Women;Women;Mustard;;;Fashion;Casual;2018;S,PLUSTOPS00004559,4XL,PLUSTOPS00004560,3XL,PLUSTOPS00004561,XXL,PLUSTOPS00004562,XL,PLUSTOPS00004563,L,PLUSTOPS00004564,M,PLUSTOPS00004565;1799.00;<p>plusS Ladies Solid Tops</p>;;<p>100% Polyester (Machine Wash)</p>;;;NA;;zerotype;;Spring;;No
2468611;LTP2725-LEMONYELLOW-L-LemonYellow-2468611;plusS Ladies Tops;Draft;Tops;plusS;Adults-Women;Women;Yellow;;;Fashion;Casual;2018;M,PLUSTOPS00004552,S,PLUSTOPS00004553,4XL,PLUSTOPS00004554,3XL,PLUSTOPS00004555,XXL,PLUSTOPS00004556,XL,PLUSTOPS00004557,L,PLUSTOPS00004558;1899.00;<p>plusS Ladies Solid Tops</p>;;<p>100% Polyester (Machine Wash)</p>;;;NA;;zerotype;;Spring;;No
2468610;LTP3133-ECRU-XL-Ecru-2468610;plusS Ladies Tops;Draft;Tops;plusS;Adults-Women;Women;Off White;;;Fashion;Casual;2018;L,PLUSTOPS00004545,M,PLUSTOPS00004546,4XL,PLUSTOPS00004547,3XL,PLUSTOPS00004548,XXL,PLUSTOPS00004549,S,PLUSTOPS00004550,XL,PLUSTOPS00004551;1799.00;<p>plusS Ladies Solid Tops</p>;;<p>100% Polyester (Machine Wash)</p>;;;NA;;zerotype;;Spring;;No
2468609;LTP3085-RUST-M-Rust-2468609;plusS Ladies Tops;Draft;Tops;plusS;Adults-Women;Women;Rust;;;Fashion;Casual;2018;S,PLUSTOPS00004538,4XL,PLUSTOPS00004539,3XL,PLUSTOPS00004540,XXL,PLUSTOPS00004541,XL,PLUSTOPS00004542,L,PLUSTOPS00004543,M,PLUSTOPS00004544;1499.00;<p>plusS Ladies Solid Tops</p>;;<p>100% Polyester (Machine Wash)</p>;;;NA;;zerotype;;Spring;;No
2468608;LTP3133-ONIONPINK-L-OnionPink-2468608;plusS Ladies Tops;Draft;Tops;plusS;Adults-Women;Women;Pink;;;Fashion;Casual;2018;4XL,PLUSTOPS00004531,3XL,PLUSTOPS00004532,M,PLUSTOPS00004533,XXL,PLUSTOPS00004534,S,PLUSTOPS00004535,XL,PLUSTOPS00004536,L,PLUSTOPS00004537;1799.00;<p>plusS Ladies Solid Tops</p>;;<p>100% Polyester (Machine Wash)</p>;;;NA;;zerotype;;Spring;;No
2468607;LTP3127-CAMEL-M-Camel-2468607;plusS Ladies Tops;Draft;Tops;plusS;Adults-Women;Women;Mustard;;;Fashion;Casual;2018;4XL,PLUSTOPS00004524,3XL,PLUSTOPS00004525,XXL,PLUSTOPS00004526,XL,PLUSTOPS00004527,S,PLUSTOPS00004528,L,PLUSTOPS00004529,M,PLUSTOPS00004530;1899.00;<p>plusS Ladies Solid Tops</p>;;<p>100% Polyester (Machine Wash)</p>;;;NA;;zerotype;;Spring;;No
2468606;LTP3113-LEMONYELLOW-M-LemonYellow-2468606;plusS Ladies Tops;Draft;Tops;plusS;Adults-Women;Women;Yellow;;;Fashion;Casual;2018;S,PLUSTOPS00004517,4XL,PLUSTOPS00004518,3XL,PLUSTOPS00004519,XXL,PLUSTOPS00004520,XL,PLUSTOPS00004521,L,PLUSTOPS00004522,M,PLUSTOPS00004523;1899.00;<p>plusS Ladies Solid Tops</p>;;<p>100% Polyester (Machine Wash)</p>;;;NA;;zerotype;;Spring;;No
2468605;LTP2788-MUSTARD-L-Mustard-2468605;plusS Ladies Tops;Draft;Tops;plusS;Adults-Women;Women;Mustard;;;Fashion;Casual;2018;4XL,PLUSTOPS00004510,3XL,PLUSTOPS00004511,XXL,PLUSTOPS00004512,M,PLUSTOPS00004513,S,PLUSTOPS00004514,XL,PLUSTOPS00004515,L,PLUSTOPS00004516;2199.00;<p>plusS Ladies Solid Tops</p>;;<p>100% Polyester (Machine Wash)</p>;;;NA;;zerotype;;Spring;;No
2468604;LTNC3126-TROPICANA-XL-Tropicana-2468604;plusS Ladies Tops;Draft;Tops;plusS;Adults-Women;Women;Coral;;;Fashion;Casual;2018;L,PLUSTOPS00004503,M,PLUSTOPS00004504,S,PLUSTOPS00004505,4XL,PLUSTOPS00004506,3XL,PLUSTOPS00004507,XXL,PLUSTOPS00004508,XL,PLUSTOPS00004509;2199.00;<p>plusS Ladies Solid Tops</p>;;<p>100% Polyester (Machine Wash)</p>;;;NA;;zerotype;;Spring;;No
2468602;LTP3017-FORESTGREEN-L-ForestGreen-2468602;plusS Ladies Tops;Draft;Tops;plusS;Adults-Women;Women;Green;;;Fashion;Casual;2018;M,PLUSTOPS00004496,S,PLUSTOPS00004497,4XL,PLUSTOPS00004498,3XL,PLUSTOPS00004499,XXL,PLUSTOPS00004500,XL,PLUSTOPS00004501,L,PLUSTOPS00004502;1899.00;<p>plusS Ladies Solid Tops</p>;;<p>100% Polyester (Machine Wash)</p>;;;NA;;zerotype;;Spring;;No
2468600;LTNC3126-EMBRALDGREY-L-Embraldgrey-2468600;plusS Ladies Tops;Draft;Tops;plusS;Adults-Women;Women;Sea Green;;;Fashion;Casual;2018;M,PLUSTOPS00004489,S,PLUSTOPS00004490,4XL,PLUSTOPS00004491,3XL,PLUSTOPS00004492,XXL,PLUSTOPS00004493,XL,PLUSTOPS00004494,L,PLUSTOPS00004495;2199.00;<p>plusS Ladies Solid Tops</p>;;<p>100% Polyester (Machine Wash)</p>;;;NA;;zerotype;;Spring;;No
2468598;LTP3085-OLIVE-M-Olive-2468598;plusS Ladies Tops;Draft;Tops;plusS;Adults-Women;Women;Olive;;;Fashion;Casual;2018;S,PLUSTOPS00004482,4XL,PLUSTOPS00004483,3XL,PLUSTOPS00004484,XXL,PLUSTOPS00004485,XL,PLUSTOPS00004486,L,PLUSTOPS00004487,M,PLUSTOPS00004488;1499.00;<p>plusS Ladies Solid Tops</p>;;<p>100% Polyester (Machine Wash)</p>;;;NA;;zerotype;;Spring;;No
2468597;LTP3075-BLACK-M-Black-2468597;plusS Ladies Tops;Draft;Tops;plusS;Adults-Women;Women;Black;;;Fashion;Casual;2018;4XL,PLUSTOPS00004475,3XL,PLUSTOPS00004476,S,PLUSTOPS00004477,XXL,PLUSTOPS00004478,XL,PLUSTOPS00004479,L,PLUSTOPS00004480,M,PLUSTOPS00004481;1899.00;<p>plusS Ladies Solid Tops</p>;;<p>100% Cotton (Machine Wash)</p>;;;NA;;zerotype;;Spring;;No
2468596;LDR3129-NAVYSTRIPE-XL-Navy Blue-2468596;plusS Womens Dress;Draft;Dresses;plusS;Adults-Women;Women;Navy Blue;White;;Fashion;Casual;2018;4XL,PLUSDRSS00000257,S,PLUSDRSS00000258,M,PLUSDRSS00000259,L,PLUSDRSS00000260,3XL,PLUSDRSS00000261,XXL,PLUSDRSS00000262,XL,PLUSDRSS00000263;2899.00;<p>PlusS Ladies Stried Dress</p>;;<p>Viscose Rayon (Machine Wash)</p>;;;NA;;zerotype;;Spring;;No
2468595;LDR2930-BLACKPRINT-L-Black-2468595;plusS Womens Dress;Draft;Dresses;plusS;Adults-Women;Women;Black;;;Fashion;Casual;2018;XXL,PLUSDRSS00000250,4XL,PLUSDRSS00000251,XL,PLUSDRSS00000252,3XL,PLUSDRSS00000253,S,PLUSDRSS00000254,M,PLUSDRSS00000255,L,PLUSDRSS00000256;3099.00;<p>PlusS Ladies Printed Dress</p>;;<p>Viscose Rayon (Machine Wash)</p>;;;NA;;zerotype;;Spring;;No
2468594;LDR2930-REDFLOWER-L-Red-2468594;plusS Womens Dress;Draft;Dresses;plusS;Adults-Women;Women;Red;;;Fashion;Casual;2018;XL,PLUSDRSS00000243,XXL,PLUSDRSS00000244,3XL,PLUSDRSS00000245,4XL,PLUSDRSS00000246,S,PLUSDRSS00000247,M,PLUSDRSS00000248,L,PLUSDRSS00000249;3099.00;<p>plusS Ladies floral Dress</p>;;<p>Viscose Rayon (Machine Wash)</p>;;;NA;;zerotype;;Spring;;No
2468593;LDR2930-MUSTARDFLOWER-L-Mustard-2468593;plusS Womens Dress;Draft;Dresses;plusS;Adults-Women;Women;Mustard;;;Fashion;Casual;2018;XL,PLUSDRSS00000236,S,PLUSDRSS00000237,XXL,PLUSDRSS00000238,3XL,PLUSDRSS00000239,M,PLUSDRSS00000240,4XL,PLUSDRSS00000241,L,PLUSDRSS00000242;3099.00;<p>plusS Ladies floral Dress</p>;;<p>Viscose Rayon (Machine Wash)</p>;;;NA;;zerotype;;Spring;;No
2468592;LDR2930-BLACK-S-Black-2468592;plusS Womens Dress;Draft;Dresses;plusS;Adults-Women;Women;Black;;;Fashion;Casual;2018;XL,PLUSDRSS00000229,XXL,PLUSDRSS00000230,3XL,PLUSDRSS00000231,4XL,PLUSDRSS00000232,M,PLUSDRSS00000233,L,PLUSDRSS00000234,S,PLUSDRSS00000235;3099.00;<p>PlusS Ladies Solid Dress</p>;;<p>Viscose Rayon (Machine Wash)</p>;;;NA;;zerotype;;Spring;;No
2468591;LDR3131-MAUVE-L-Mauve-2468591;plusS Womens Dress;Draft;Dresses;plusS;Adults-Women;Women;Mauve;;;Fashion;Casual;2018;XL,PLUSDRSS00000222,XXL,PLUSDRSS00000223,3XL,PLUSDRSS00000224,4XL,PLUSDRSS00000225,S,PLUSDRSS00000226,M,PLUSDRSS00000227,L,PLUSDRSS00000228;2499.00;<p>PlusS Ladies Solid Dress</p>;;<p>Polyester (Machine Wash)</p>;;;NA;;zerotype;;Spring;;No
2468590;LDR3130-EMBRALDGREY-L-Sea Green-2468590;plusS Womens Dress;Draft;Dresses;plusS;Adults-Women;Women;Sea Green;;;Fashion;Casual;2018;XL,PLUSDRSS00000215,S,PLUSDRSS00000216,XXL,PLUSDRSS00000217,M,PLUSDRSS00000218,3XL,PLUSDRSS00000219,4XL,PLUSDRSS00000220,L,PLUSDRSS00000221;2499.00;<p>PlusS Ladies Solid Dress</p>;;<p>Polyester (Machine Wash)</p>;;;NA;;zerotype;;Spring;;No
2468589;LDR3129-REDSTRIPE-XL-Red-2468589;plusS Womens Dress;Draft;Dresses;plusS;Adults-Women;Women;Red;White;;Fashion;Casual;2018;L,PLUSDRSS00000208,M,PLUSDRSS00000209,S,PLUSDRSS00000210,4XL,PLUSDRSS00000211,3XL,PLUSDRSS00000212,XXL,PLUSDRSS00000213,XL,PLUSDRSS00000214;2899.00;<p>PlusS Ladies Stried Dress</p>;;<p>Viscose Rayon (Machine Wash)</p>;;;NA;;zerotype;;Spring;;No
2468588;LDR3131-ELECTRICBLUE-S-Blue-2468588;plusS Womens Dress;Draft;Dresses;plusS;Adults-Women;Women;Blue;;;Fashion;Casual;2018;XL,PLUSDRSS00000201,M,PLUSDRSS00000202,XXL,PLUSDRSS00000203,3XL,PLUSDRSS00000204,4XL,PLUSDRSS00000205,L,PLUSDRSS00000206,S,PLUSDRSS00000207;2499.00;<p>PlusS Ladies Solid Dress</p>;;<p>Polyester (Machine Wash)</p>;;;NA;;zerotype;;Spring;;No
