Style ID;Vendor Article Number;Vendor Article Name;Active Status;Article type;Brand;Age Group;Gender;Base Colour;Colour1;Colour2;Fashion Type;Usage;Year;Size - SKU code pair;MRP;Style Description;Style Note;Materials and Care Description;Size and Fit Description;Size Chart Path;Product Display Name;Tags;Product Type;Classification Brand;Season;Comments;Upload Images
1947700;LQD6602_BLUE.N-Navy Blue-1947700;LACE GODED DRESS W/ SLV;Draft;Dresses;Latin Quarters;Adults-Women;Women;;;;Fashion;;2017;XS,LTQRDRSS00003286,S,LTQRDRSS00003287,M,LTQRDRSS00003288,L,LTQRDRSS00003289,XL,LTQRDRSS00003290,XXL,LTQRDRSS00003291;2490.00;;;;;;;;zerotype;;Summer;;No
1947699;LQD6585_ORANGE-Orange-1947699;ORGN GGT STRAP DRES W/ RUFL;Draft;Dresses;Latin Quarters;Adults-Women;Women;;;;Fashion;;2017;XS,LTQRDRSS00003280,S,LTQRDRSS00003281,M,LTQRDRSS00003282,L,LTQRDRSS00003283,XL,LTQRDRSS00003284,XXL,LTQRDRSS00003285;2290.00;;;;;;;;zerotype;;Summer;;No
1947698;LQD6582_BLACK-Black-1947698;BURN OUT HIGH LOW DRESS;Draft;Dresses;Latin Quarters;Adults-Women;Women;;;;Fashion;;2017;XS,LTQRDRSS00003274,S,LTQRDRSS00003275,M,LTQRDRSS00003276,L,LTQRDRSS00003277,XL,LTQRDRSS00003278,XXL,LTQRDRSS00003279;1990.00;;;;;;;;zerotype;;Summer;;No
1947697;LQD6579_PEACH-Peach-1947697;2 TONE LAC LACE DRS W/ RUFL;Draft;Dresses;Latin Quarters;Adults-Women;Women;;;;Fashion;;2017;XS,LTQRDRSS00003268,S,LTQRDRSS00003269,M,LTQRDRSS00003270,L,LTQRDRSS00003271,XL,LTQRDRSS00003272,XXL,LTQRDRSS00003273;2490.00;;;;;;;;zerotype;;Summer;;No
1947696;LQD6575_IVORY-Off White-1947696;BSY MAXI DRS W/ FRNT WRAP;Draft;Dresses;Latin Quarters;Adults-Women;Women;;;;Fashion;;2017;XS,LTQRDRSS00003262,S,LTQRDRSS00003263,M,LTQRDRSS00003264,L,LTQRDRSS00003265,XL,LTQRDRSS00003266,XXL,LTQRDRSS00003267;2690.00;;;;;;;;zerotype;;Summer;;No
1947695;LQD5478_BLACK-Black-1947695;GGT LONG DRS W/GOLD SEQ YOKE;Draft;Dresses;Latin Quarters;Adults-Women;Women;;;;Fashion;;2017;XS,LTQRDRSS00003257,S,LTQRDRSS00003258,M,LTQRDRSS00003259,L,LTQRDRSS00003260,XL,LTQRDRSS00003261;2690.00;;;;;;;;zerotype;;Summer;;No
1947694;LQD5466_YELLOW-Yellow-1947694;CHN HALF LACE DRS  BOAT NECK;Draft;Dresses;Latin Quarters;Adults-Women;Women;;;;Fashion;;2017;XS,LTQRDRSS00003252,S,LTQRDRSS00003253,M,LTQRDRSS00003254,L,LTQRDRSS00003255,XL,LTQRDRSS00003256;2290.00;;;;;;;;zerotype;;Summer;;No
1947693;LQD5458_IVORY-Off White-1947693;IVR GGT DRS W/SEQ @HEM;Draft;Dresses;Latin Quarters;Adults-Women;Women;;;;Fashion;;2017;XS,LTQRDRSS00003247,S,LTQRDRSS00003248,M,LTQRDRSS00003249,L,LTQRDRSS00003250,XL,LTQRDRSS00003251;3250.00;;;;;;;;zerotype;;Summer;;No
1947692;LQD5437_BLACK-Black-1947692;CHN B/W PRNT LACE W/ZIP;Draft;Dresses;Latin Quarters;Adults-Women;Women;;;;Fashion;;2017;XS,LTQRDRSS00003241,S,LTQRDRSS00003242,M,LTQRDRSS00003243,L,LTQRDRSS00003244,XL,LTQRDRSS00003245,XXL,LTQRDRSS00003246;2390.00;;;;;;;;zerotype;;Summer;;No
1947691;LQD5359_IVORY-Off White-1947691;CHN LAC DRS W/PLET WAIST;Draft;Dresses;Latin Quarters;Adults-Women;Women;;;;Fashion;;2017;XS,LTQRDRSS00003236,S,LTQRDRSS00003237,M,LTQRDRSS00003238,L,LTQRDRSS00003239,XL,LTQRDRSS00003240;2190.00;;;;;;;;zerotype;;Summer;;No
1947690;LQD5340_BLACK-Black-1947690;PGLY 2 SIZE CHECK DRESS;Draft;Dresses;Latin Quarters;Adults-Women;Women;;;;Fashion;;2017;XS,LTQRDRSS00003230,S,LTQRDRSS00003231,M,LTQRDRSS00003232,L,LTQRDRSS00003233,XL,LTQRDRSS00003234,XXL,LTQRDRSS00003235;2290.00;;;;;;;;zerotype;;Summer;;No
1947689;LQD5337_BLUE-Blue-1947689;2F1 BLU ROMA DRS W/LACE TOP;Draft;Dresses;Latin Quarters;Adults-Women;Women;;;;Fashion;;2017;XS,LTQRDRSS00003225,S,LTQRDRSS00003226,M,LTQRDRSS00003227,L,LTQRDRSS00003228,XL,LTQRDRSS00003229;2290.00;;;;;;;;zerotype;;Summer;;No
1947688;LQD5300_YELLOW-Yellow-1947688;LACE DRS W/LADER LACE INSERT;Draft;Dresses;Latin Quarters;Adults-Women;Women;;;;Fashion;;2017;XS,LTQRDRSS00003220,S,LTQRDRSS00003221,M,LTQRDRSS00003222,L,LTQRDRSS00003223,XL,LTQRDRSS00003224;1990.00;;;;;;;;zerotype;;Summer;;No
1947687;LQJ6595_BLUE NAVY-Navy Blue-1947687;KNIT TEX STRIPE JACKT W/ ZIP;Draft;Jackets;Latin Quarters;Adults-Women;Women;;;;Fashion;;2017;XS,LTQRJCKT00000435,S,LTQRJCKT00000436,M,LTQRJCKT00000437,L,LTQRJCKT00000438,XL,LTQRJCKT00000439,XXL,LTQRJCKT00000440;2490.00;;;;;;;;zerotype;;Summer;;No
1947686;LQJ5408_Blue-Blue-1947686;PRNT CHMBRY JACKET W/BN;Draft;Jackets;Latin Quarters;Adults-Women;Women;;;;Fashion;;2017;XS,LTQRJCKT00000430,S,LTQRJCKT00000431,M,LTQRJCKT00000432,L,LTQRJCKT00000433,XL,LTQRJCKT00000434;1690.00;;;;;;;;zerotype;;Summer;;No
1947685;LQB6597_PEACH-Peach-1947685;PEACH LINEN SHRT W/ BUTONS;Draft;Shirts;Latin Quarters;Adults-Women;Women;;;;Fashion;;2017;XS,LTQRSHRT00000098,S,LTQRSHRT00000099,M,LTQRSHRT00000100,L,LTQRSHRT00000101,XL,LTQRSHRT00000102,XXL,LTQRSHRT00000103;1590.00;;;;;;;;zerotype;;Summer;;No
1947684;LQB6572_IVORY-Off White-1947684;NET EMB BLS W/ RAGLAN SLV;Draft;Tops;Latin Quarters;Adults-Women;Women;;;;Fashion;;2017;XS,LTQRTOPS00003798,S,LTQRTOPS00003799,M,LTQRTOPS00003800,L,LTQRTOPS00003801,XL,LTQRTOPS00003802,XXL,LTQRTOPS00003803;1650.00;;;;;;;;zerotype;;Summer;;No
1947683;LQB6593_BLUE-Blue-1947683;BLU PRNT BLS W/ VJ & ZIP;Draft;Tops;Latin Quarters;Adults-Women;Women;;;;Fashion;;2017;XS,LTQRTOPS00003792,S,LTQRTOPS00003793,M,LTQRTOPS00003794,L,LTQRTOPS00003795,XL,LTQRTOPS00003796,XXL,LTQRTOPS00003797;1390.00;;;;;;;;zerotype;;Summer;;No
1947682;LQB6577_PEACH-Peach-1947682;BUBL GGT BLS W/ BTNS;Draft;Tops;Latin Quarters;Adults-Women;Women;;;;Fashion;;2017;XS,LTQRTOPS00003786,S,LTQRTOPS00003787,M,LTQRTOPS00003788,L,LTQRTOPS00003789,XL,LTQRTOPS00003790,XXL,LTQRTOPS00003791;1590.00;;;;;;;;zerotype;;Summer;;No
1947681;LQB6572_BEIGE-Off White-1947681;NET EMB BLS W/ RAGLAN SLV;Draft;Tops;Latin Quarters;Adults-Women;Women;;;;Fashion;;2017;XS,LTQRTOPS00003780,S,LTQRTOPS00003781,M,LTQRTOPS00003782,L,LTQRTOPS00003783,XL,LTQRTOPS00003784,XXL,LTQRTOPS00003785;1650.00;;;;;;;;zerotype;;Summer;;No
1947680;LQB6549_CREAM-Cream-1947680;PRNT SMOCK GYPSY BLS;Draft;Tops;Latin Quarters;Adults-Women;Women;;;;Fashion;;2017;XS,LTQRTOPS00003774,S,LTQRTOPS00003775,M,LTQRTOPS00003776,L,LTQRTOPS00003777,XL,LTQRTOPS00003778,XXL,LTQRTOPS00003779;1390.00;;;;;;;;zerotype;;Summer;;No
1947679;LQSH5585_BLACK-Black-1947679;SUEDE WAIST COAT W/ZIP;Draft;Waistcoat;Latin Quarters;Adults-Women;Women;;;;Fashion;;2017;XS,LTQRWACO00000004,S,LTQRWACO00000005,M,LTQRWACO00000006,L,LTQRWACO00000007,XL,LTQRWACO00000008;1950.00;;;;;;;;zerotype;;Spring;;No
1901022;LQB6167_Peach-Peach-1901022;RAYN PRNT KAFTAN W/ TASEL;Active;Tops;Latin Quarters;Adults-Women;Women;Peach;Brown;;Fashion;Casual;2017;XS,LTQRTOPS00003555,S,LTQRTOPS00003556,M,LTQRTOPS00003557,L,LTQRTOPS00003558,XL,LTQRTOPS00003559,XXL,LTQRTOPS00003560;1290.00;<a href='/peach?src=pd' class='seolink'>Peach</a>-Coloured and <a href='/brown?src=pd' class='seolink'>brown</a> printed woven <a href='/kaftan?src=pd' class='seolink'>kaftan</a>  top, has a round neck, three-quarter sleeves,;This classy three-quarter sleeve top made by Latin Quarters will quickly become your new favourite item.  This peach piece goes well with darker slim-fit pants and caged heel for a breezy but stylish look for running errands.;Viscose Rayon <br> Machine-wash;The model (height 5'8") is wearing a size S;;Latin Quarters Women Peach-Coloured Printed Kaftan Top;Latin Quarters,JIT;zerotype;;Spring;Active;No
1901021;LQB6167_Blue-Blue-1901021;RAYN PRNT KAFTAN W/ TASEL;Active;Tops;Latin Quarters;Adults-Women;Women;Blue;;;Fashion;Casual;2017;XS,LTQRTOPS00003549,S,LTQRTOPS00003550,M,LTQRTOPS00003551,L,LTQRTOPS00003552,XL,LTQRTOPS00003553,XXL,LTQRTOPS00003554;1290.00;<a href='/blue?src=pd' class='seolink'>Blue</a> printed woven <a href='/kaftan?src=pd' class='seolink'>kaftan</a>  top, has a round neck, three-quarter sleeves,;Treat yourself to a chic Latin Quarters three-quarter sleeve top and reap its endless style and comfort benefits.  For a casual work outfit, all you need to do is pair this blue piece with a bright blazer and neutral-toned pants.;Viscose Rayon <br> Machine-wash;The model (height 5'8") is wearing a size S;;Latin Quarters Women Blue Printed Kaftan Top;Latin Quarters,JIT;zerotype;;Spring;Active;No
1370623;LQD5568-Black-1370623;LACE BOAT NK DRS W/BAND;Delisted;Dresses;Latin Quarters;Adults-Women;Women;Black;;;Fashion;Casual;2016;S,LTQRDRSS00001987,M,LTQRDRSS00001988,L,LTQRDRSS00001989,XL,LTQRDRSS00001990,XXL,LTQRDRSS00001991;1990.00;Black woven lace fit and flare <a href='/dress?src=pd' class='seolink'>dress</a> with gathers, has a stylised round neck, sleeveless, a concealed zip closure on the left side, a curved hem, and has an attached lining;Mesmerise the world around you in this dress from Latin Quarters. Team it up with a pair of pumps or flats to hit the streets in style.;Nylon blend<br>Machine-wash cold;The model (height 5'8", chest 33" and waist 28") is wearing a size S which measures 91 cm from shoulder to the hem;;Latin Quarters Black Lace Fit & Flare Dress;Latin Quarters,ALIS1231,rs-500-off-26june,eors-16-woman-apparel-large-sizes,eors-16-woman-apparel-small-sizes,500rs-5jul,rs-500-off-10jul,1000-12jul,eoss-best-collection,brands-you-love-july-16,first-login-offer,1000-off-26jul,rs-1000-off-31jul,rs-500-off-03aug,rs-1000-off-03aug,dressesladiesdeal,rs1000-off-20aug,wedding-bride-bachelorette-dresses,HH12JAN17;zerotype;;Summer;superhour-feb26;No
1370622;LQD5368-Blue-1370622;CHN POP LEAF LNG DRS;Active;Dresses;Latin Quarters;Adults-Women;Women;Multi;;;Fashion;Casual;2013;XS,LTQRDRSS00001981,S,LTQRDRSS00001982,M,LTQRDRSS00001983,L,LTQRDRSS00001984,XL,LTQRDRSS00001985,XXL,LTQRDRSS00001986;1990.00;Multicoloured knitted tropical print&nbsp <a href='/sheath-dress?src=pd' class='seolink'>sheath dress</a>, has a&nbsp square neck, sleeveless, a&nbsp concealed zip closure on one side and&nbsp a slit on the back hem;<b></b>Stay ahead of the fashion game with this chic dress from Latin Quarters. Style it with a pair of&nbsp pumps and&nbsp an oversized clutch to turn heads.;<span>100% cotton<br>Machine-wash cold</span>;The model (height 5'6'''.5'5'') is wearing a size S which measures 92 cm from shoulder to hem;;Latin Quarters Multicoloured Tropical Print Sheath Dress;Latin Quarters,LANA9898,rs-500-off-26june,eors-16-woman-apparel-large-sizes,eors-16-woman-apparel-small-sizes,extra30-3jul,extra40-3jul,min40-extra40-4jul,500rs-5jul,rs-500-off-10jul,1000-12jul,eoss-best-collection,rs1000-off-17july,first-login-offer,1000-off-26jul,dresses-deal-ln,rs-1000-off-31jul,rs-500-off-03aug,rs-1000-off-03aug,500-rs-off-10aug,dressesladiesdeal,rs1000-off-20aug,rs-500-24aug,rs-1000-24aug,rs1000-aug27,1000rs-off-31aug,off-1000-4sept,min-3000-off-4sep-2016,off-1000-500-8sep,off-1000-500-8sep2016,wedding-bride-honeymoon-dresses,wedding-bride-honeymoon-pack-list-all,wedding-all,eors-coupon-4jan,HH12JAN17,HH20JAN17,stylesforextra5-jan17,rushhour-extra20-jan,wishlisters-wish10-feb25,extra500-apr1,extra50-apr1,hh-0104,chill-summer-apr,bfg-event-apr,gno-secretcloset-dresses,bfg-extra10,bfg-extra20,bfg-extra30,bfg-secret-closet-dresses,gno-secretcloset-dresses-519992,bfg-secretcloset-partydresses,bfg-campus-offer-girl2,apr12-super-hour,indus-apr13,bnb-styles-apr,summer-style-apr,after-match-apr,take20-apr17,min40-extra500-apr27,coupon-crush02,coupon-crush03,coupon-crush04,coupon-crush05,coupon-crush08,coupon-crush10,coupon-crush11,extra15-0305,extra500-ccmay,extra15-ccmay,super-hour-ccmay,women-offer-may05,price-surge,extra30-may9,flat50-extra20-may9,b3-60-may9,super-hour-may9,extra30-10may,welcome-to-myntra-may-big,big10-mse-all,big10-extra20,big10-super-hour25,ladies-night-coupon1,ladies-night-coupon2,crush20-may25,crush350-may25,price-surge-may25,flat50-crush15-may25,welcome-to-myntra-june17;zerotype;;Summer;welcome-to-myntra-june17;No
1370618;LQD5655-Black-1370618;HONDTOTH ACRYLIC DRES W/ZIP;Active;Dresses;Latin Quarters;Adults-Women;Women;Black;Off White;;Fashion;Casual;2016;XS,LTQRDRSS00001963,S,LTQRDRSS00001964,M,LTQRDRSS00001965,L,LTQRDRSS00001966,XL,LTQRDRSS00001967;2150.00;Black and off-white&nbsp woven&nbsp houndstooth pattern sheath&nbsp <a href='/dress?src=pd' class='seolink'>dress</a>, has a round neck, short sleeves, a zip closure on the back and a slit on the back hem;Perk up your style quotient and dazzle others with this amazing dress from Latin Quarters. Make your own style statement by teaming it up with minimal accessories and a pair of heels.;<span>100% acrylic<br>Dry-clean</span>;The model (height 5'7", chest 35" and waist 28")&nbsp is wearing a size S which measures 99 cm from shoulder to hem;;Latin Quarters Black & Off-White Houndstooth Pattern Sheath Dress;Latin Quarters,STEL1111,rs-500-off-26june,college-store-formals-women,eors-16-woman-apparel-small-sizes,500rs-5jul,1000-12jul,eoss-best-collection,rs1000-off-17july,first-login-offer,1000-off-26jul,dresses-deal-ln,rs-1000-off-31jul,rs-500-off-03aug,rs-1000-off-03aug,1000rs-off-7aug,rs-1000-off-08aug,1000-rs-off-10aug,1000-off-14aug,1000-14aug,aug-14-deal-1000,rs1000-off-17aug,dressesladiesdeal,rs1000-off-20aug,rs-1000-off-18sep,1000-19sep,eors-coupon-4jan,welcome-to-mynt-jan,welcome-to-myntra-jan,HH12JAN17,welcome-to-myntra-new-jan,HH20JAN17,stylesforextra5-jan17,rushhour-extra20-jan;zerotype;;Summer;happy-hour-mar;No
1370603;LQD5481-Red-1370603;STRIPE KNT DRS RE /BLCK;Active;Dresses;Latin Quarters;Adults-Women;Women;Red;Black;;Fashion;Casual;2013;S,LTQRDRSS00001896,M,LTQRDRSS00001897,L,LTQRDRSS00001898,XL,LTQRDRSS00001899;1990.00;Red and black knitted striped <a href='/midi-dress?src=pd' class='seolink'>midi dress</a>, has a round neck, sleeveless, and a slit on the back hem;Stay ahead of the fashion game with this chic dress from Latin Quarters. Style it with a pair of&nbsp pumps and&nbsp an oversized clutch to turn heads.;<span>Viscose<br>Dry-clean</span>;The model (height 5'6", chest 31.5" and waist 26.5")&nbsp is wearing a size S&nbsp which measures 123 cm from shoulder to hem;;Latin Quarters Red & Black Striped Midi Dress;Latin Quarters,LANA9898,rs-500-off-26june,extra30-3jul,extra40-3jul,min40-extra40-4jul,1000rs-5jul,500rs-5jul,rs-1000-off-10jul,1000-12jul,eoss-best-collection,rs1000-off-17july,eoss-best-collection-2,first-login-offer,rs-1000-off-31jul,1000-off-14aug,1000-14aug,aug-14-deal-1000,rs-1000-off-18sep,1000-19sep,HH20JAN17,HH12JAN17,happy-hour-mar,happy-hour-mar19,mar29-super-hour,welcome-to-myntra-april,31mar-extra15,extra500-apr1,hh-0104,chill-summer-apr,bfg-event-apr,gno-secretcloset-dresses,bfg-extra10,bfg-extra20,bfg-extra30,bfg-secret-closet-dresses,gno-secretcloset-dresses-519992,bfg-secretcloset-partydresses,bfg-campus-offer-girl2,apr12-super-hour,indus-apr13,bnb-styles-apr,welcome-to-myntra-may-big,big10-mse-all,big10-extra20,welcome-to-myntra-june17;zerotype;;Summer;welcome-to-myntra-june17;No
1370596;LQD5550-Blue Navy-1370596;STRIP KNT DRS BLUE / GREY;Active;Dresses;Latin Quarters;Adults-Women;Women;Navy Blue;Grey Melange;;Fashion;Casual;2016;XS,LTQRDRSS00001863,S,LTQRDRSS00001864,M,LTQRDRSS00001865,L,LTQRDRSS00001866,XL,LTQRDRSS00001867;1990.00;<div><div><div><div><div>Navy and grey melange&nbsp knitted striped midi&nbsp <a href='/dress?src=pd' class='seolink'>dress</a>, has a round neck,&nbsp sleeveless, and slits on the back</div></div></div></div></div>;<p><span>Add a gorgeous spin to your look with this trendy dress from Latin Quarters. Team it up with a pair of heels and hoop earrings for a chic look.</span><br><br></p>;<p>Viscose and elastane blend<br>Dry-clean</p>;<p><div>The model (height 5'6", chest 32" and waist 25") is wearing a size S which measures 101 cm from shoulder to hem<br></div><br></p>;;Latin Quarters Navy & Grey Melange Striped Midi Dress;Latin Quarters,ALIN9831,rs-500-off-26june,eors-16-woman-apparel-small-sizes,1000rs-5jul,500rs-5jul,rs-1000-off-10jul,rs-1000-off-18sep,1000-19sep,si-varsity-dress,aw16eors-exclusive-tall,eors-coupon-4jan,HH20JAN17,happy-hour-mar,happy-hour-mar19,mar29-super-hour,welcome-to-myntra-april,31mar-extra15,welcome-to-myntra-june17;zerotype;;Summer;welcome-to-myntra-june17;No
