Style ID;Vendor Article Number;Vendor Article Name;Active Status;Article type;Brand;Age Group;Gender;Base Colour;Colour1;Colour2;Fashion Type;Usage;Year;Size - SKU code pair;MRP;Style Description;Style Note;Materials and Care Description;Size and Fit Description;Size Chart Path;Product Display Name;Tags;Product Type;Classification Brand;Season;Comments;Upload Images
1825761;BBAPLDK31623-MultiPinkblue-1825761;Duke Pastel Cotton Value Pack;Draft;Tshirts;Duke;Adults-Men;Men;;;;Fashion;;2017;S,DUKETSHT00008599,M,DUKETSHT00008600,L,DUKETSHT00008601,XL,DUKETSHT00008602,XXL,DUKETSHT00008603;875.00;;;;;;;;zerotype;;Spring;;No
1825758;BBAPLDK31622-MultiBlackwhite-1825758;Duke Lunar Cotton Value Pack;Draft;Tshirts;Duke;Adults-Men;Men;;;;Fashion;;2017;S,DUKETSHT00008594,M,DUKETSHT00008595,L,DUKETSHT00008596,XL,DUKETSHT00008597,XXL,DUKETSHT00008598;745.00;;;;;;;;zerotype;;Spring;;No
1825756;BBAPLDK31620-MultiYellowBlue-1825756;Duke Spring Cotton Value Pack;Draft;Tshirts;Duke;Adults-Men;Men;;;;Fashion;;2017;S,DUKETSHT00008589,M,DUKETSHT00008590,L,DUKETSHT00008591,XL,DUKETSHT00008592,XXL,DUKETSHT00008593;825.00;;;;;;;;zerotype;;Spring;;No
1825754;BBAPLDK31619-MultiBlackGrey-1825754;Duke Pale Cotton Value Pack;Draft;Tshirts;Duke;Adults-Men;Men;;;;Fashion;;2017;S,DUKETSHT00008584,M,DUKETSHT00008585,L,DUKETSHT00008586,XL,DUKETSHT00008587,XXL,DUKETSHT00008588;875.00;;;;;;;;zerotype;;Spring;;No
1825752;BBAPLDK31618-MultiRedBlue-1825752;Duke Spunk Cotton Value Pack;Draft;Tshirts;Duke;Adults-Men;Men;;;;Fashion;;2017;S,DUKETSHT00008579,M,DUKETSHT00008580,L,DUKETSHT00008581,XL,DUKETSHT00008582,XXL,DUKETSHT00008583;775.00;;;;;;;;zerotype;;Spring;;No
1825750;BBAPLDK31617-MultiGreyWhite-1825750;Duke Zing Cotton Value Pack;Draft;Tshirts;Duke;Adults-Men;Men;;;;Fashion;;2017;S,DUKETSHT00008574,M,DUKETSHT00008575,L,DUKETSHT00008576,XL,DUKETSHT00008577,XXL,DUKETSHT00008578;775.00;;;;;;;;zerotype;;Spring;;No
1825748;BBAPLDK31616-MultiOrangeBlue-1825748;Duke Tramp Cotton Value Pack;Draft;Tshirts;Duke;Adults-Men;Men;;;;Fashion;;2017;S,DUKETSHT00008569,M,DUKETSHT00008570,L,DUKETSHT00008571,XL,DUKETSHT00008572,XXL,DUKETSHT00008573;795.00;;;;;;;;zerotype;;Spring;;No
1825746;BBAPLDK31615-MultiOrangeOff White-1825746;Duke Sunset Cotton Value Pack;Draft;Tshirts;Duke;Adults-Men;Men;;;;Fashion;;2017;S,DUKETSHT00008564,M,DUKETSHT00008565,L,DUKETSHT00008566,XL,DUKETSHT00008567,XXL,DUKETSHT00008568;795.00;;;;;;;;zerotype;;Spring;;No
1825744;BBAPLDK31611-MultiRedBeige-1825744;Duke Caper Cotton Value Pack;Draft;Tshirts;Duke;Adults-Men;Men;;;;Fashion;;2017;S,DUKETSHT00008559,M,DUKETSHT00008560,L,DUKETSHT00008561,XL,DUKETSHT00008562,XXL,DUKETSHT00008563;999.00;;;;;;;;zerotype;;Spring;;No
1825742;BBAPLDK31610-MultiBlueGrey-1825742;Duke Trick Cotton Value Pack;Draft;Tshirts;Duke;Adults-Men;Men;;;;Fashion;;2017;S,DUKETSHT00008554,M,DUKETSHT00008555,L,DUKETSHT00008556,XL,DUKETSHT00008557,XXL,DUKETSHT00008558;999.00;;;;;;;;zerotype;;Spring;;No
