Style ID;Vendor Article Number;Vendor Article Name;Active Status;Article type;Brand;Age Group;Gender;Base Colour;Colour1;Colour2;Fashion Type;Usage;Year;Size - SKU code pair;MRP;Style Description;Style Note;Materials and Care Description;Size and Fit Description;Size Chart Path;Product Display Name;Tags;Product Type;Classification Brand;Season;Comments;Upload Images
1966638;W6CMW006-ALASKAN BLUE HEATHER-1966638;M VAUGHAN STRIPE L/S NY FIT SHIRT;Draft;Shirts;Tommy Hilfiger;Adults-Men;Men;Blue;;;Fashion;Casual;2016;2XL,TOMHSHRT00008839,L,TOMHSHRT00008840,M,TOMHSHRT00008841;3999.00;;;<p>Gentle wash, colors to be washed seperately</p>;;;;;zerotype;;Fall;;No
1966636;A6BMW022-CHARCOAL GREY HEATHER-1966636;HOLMES PLAID SHIRT - CF;Draft;Shirts;Tommy Hilfiger;Adults-Men;Men;Grey;;;Fashion;Casual;2016;2XL,TOMHSHRT00008830,L,TOMHSHRT00008831,M,TOMHSHRT00008832,S,TOMHSHRT00008833,XL,TOMHSHRT00008834;4599.00;;;<p>Gentle wash, colors to be washed seperately</p>;;;;;zerotype;;Fall;;No
1966633;A6AMW065-SHIRT BLUE - EUR-1966633;AI MICRO DOBBY NF2;Draft;Shirts;Tommy Hilfiger;Adults-Men;Men;Blue;;;Fashion;Casual;2016;2XL,TOMHSHRT00008817,L,TOMHSHRT00008818,M,TOMHSHRT00008819,S,TOMHSHRT00008820,XL,TOMHSHRT00008821;3999.00;;;<p>Gentle wash, colors to be washed seperately</p>;;;;;zerotype;;Fall;;No
1966632;A6AMW064-CLASSIC WHITE-1966632;AI MICRO DOBBY NF2;Draft;Shirts;Tommy Hilfiger;Adults-Men;Men;White;;;Fashion;Casual;2016;2XL,TOMHSHRT00008813,L,TOMHSHRT00008814,M,TOMHSHRT00008815,XL,TOMHSHRT00008816;3999.00;;;<p>Gentle wash, colors to be washed seperately</p>;;;;;zerotype;;Fall;;No
1966002;222329-RED-1966002;Forever 21 REDShorts;Draft;Shorts;FOREVER 21;Adults-Men;Men;;;;Fashion;;2017;3/ M,FRTOSHOR00005286,4/ L,FRTOSHOR00005287,5/ XL,FRTOSHOR00005288;1119.00;<p>Contents:100% COTTON, Lining:, Other:</p>;;;;;;;zerotype;;Summer;;No
1966001;228970-BLACK-1966001;Forever 21BLACKTrousers;Draft;Trousers;FOREVER 21;Adults-Men;Men;;;;Fashion;;2017;1/XS,FRTOTRSR00004315,2/S,FRTOTRSR00004316,3/M,FRTOTRSR00004317,4/L,FRTOTRSR00004318;1599.00;<p>Contents:59% COTTON, 41% POLYESTER, Lining:, Other:</p>;;;;;;;zerotype;;Summer;;No
1965998;130657-KHAKI-1965998;Forever 21 KHAKITrousers;On Hold - Sample;Trousers;FOREVER 21;Adults-Men;Men;;;;Fashion;;2017;1/ XS,FRTOTRSR00004298,2/ S,FRTOTRSR00004299,3/ M,FRTOTRSR00004300,4/ L,FRTOTRSR00004301;1299.00;<p>Contents:98% COTTON, 2% SPANDEX / ELASTANE, Lining:, Other:</p>;;;;;;;zerotype;;Summer;Broken Size;No
1961467;LYKP317S04818-MediumgreyWithWhite-1961467;LYKP317S04818;Draft;Tshirts;Louis Philippe Sport;Adults-Men;Men;Grey;;;Fashion;;2017;S,LSPSTSHT00001157,M,LSPSTSHT00001158,L,LSPSTSHT00001159,XL,LSPSTSHT00001160;1799.00;;;<p>Gentle Wash</p>;;;;;zerotype;;Summer;;No
1961466;LYKP317S04802-DarkGreySolid-1961466;LYKP317S04802;Draft;Tshirts;Louis Philippe Sport;Adults-Men;Men;Grey;;;Fashion;;2017;S,LSPSTSHT00001152,M,LSPSTSHT00001153,L,LSPSTSHT00001154,XL,LSPSTSHT00001155,XXL,LSPSTSHT00001156;1699.00;;;<p>Gentle Wash</p>;;;;;zerotype;;Summer;;No
1961461;LYKP317S04746-MediumGreenWithGreen-1961461;LYKP317S04746;Draft;Tshirts;Louis Philippe Sport;Adults-Men;Men;Green;;;Fashion;;2017;S,LSPSTSHT00001139,M,LSPSTSHT00001140,L,LSPSTSHT00001141,XL,LSPSTSHT00001142;1799.00;;;<p>Gentle Wash</p>;;;;;zerotype;;Summer;;No
1961459;LYKP317S04732-White-1961459;LYKP317S04732;Draft;Tshirts;Louis Philippe Sport;Adults-Men;Men;White;;;Fashion;;2017;S,LSPSTSHT00001136,M,LSPSTSHT00001137,L,LSPSTSHT00001138;1799.00;;;<p>Gentle Wash</p>;;;;;zerotype;;Summer;;No
1961445;LRKC317R04624-White-1961445;LRKC317R04624;Draft;Tshirts;Louis Philippe Jeans;Adults-Men;Men;White;;;Fashion;;2017;S,LPJSTSHT00001270,M,LPJSTSHT00001271,L,LPJSTSHT00001272,XL,LPJSTSHT00001273,XXL,LPJSTSHT00001274;1299.00;;;<p>Gentle Wash</p>;;;;;zerotype;;Summer;;No
1961441;LRKC317R04622-MediumgreySolid-1961441;LRKC317R04622;Draft;Tshirts;Louis Philippe Jeans;Adults-Men;Men;Grey;;;Fashion;;2017;S,LPJSTSHT00001260,M,LPJSTSHT00001261,L,LPJSTSHT00001262,XL,LPJSTSHT00001263,XXL,LPJSTSHT00001264;1299.00;;;<p>Gentle Wash</p>;;;;;zerotype;;Summer;;No
1961437;LRKC317R04620-DarkblueWithblue-1961437;LRKC317R04620;Draft;Tshirts;Louis Philippe Jeans;Adults-Men;Men;Blue;;;Fashion;;2017;S,LPJSTSHT00001250,M,LPJSTSHT00001251,L,LPJSTSHT00001252,XL,LPJSTSHT00001253,XXL,LPJSTSHT00001254;1299.00;;;<p>Gentle Wash</p>;;;;;zerotype;;Summer;;No
1961431;LRKC317R04612-BlackSolid-1961431;LRKC317R04612;Draft;Tshirts;Louis Philippe Jeans;Adults-Men;Men;Black;;;Fashion;;2017;S,LPJSTSHT00001236,M,LPJSTSHT00001237,L,LPJSTSHT00001238,XL,LPJSTSHT00001239;1299.00;;;<p>Gentle Wash</p>;;;;;zerotype;;Summer;;No
1961407;LPKP317M05015-WhiteWithblue-1961407;LPKP317M05015;Draft;Tshirts;Louis Philippe;Adults-Men;Men;White;;;Fashion;;2017;S,LSPLTSHT00001621,M,LSPLTSHT00001622,L,LSPLTSHT00001623,XL,LSPLTSHT00001624;1799.00;;;<p>Gentle Wash</p>;;;;;zerotype;;Summer;;No
1961397;LPKP317M05004-WhiteWithblue-1961397;LPKP317M05004;Draft;Tshirts;Louis Philippe;Adults-Men;Men;White;;;Fashion;;2017;S,LSPLTSHT00001616,M,LSPLTSHT00001617,L,LSPLTSHT00001618,XL,LSPLTSHT00001619,XXL,LSPLTSHT00001620;1799.00;;;<p>Gentle Wash</p>;;;;;zerotype;;Summer;;No
1958685;BK4184-FIRSPA-1958685;WOR TRI BACK BRA;Draft;Bra;Reebok;Adults-Women;Women;;;;Fashion;;2017;M,RBOKBRAA00000138,XL,RBOKBRAA00000139,S,RBOKBRAA00000140,L,RBOKBRAA00000141,XS,RBOKBRAA00000142;1699.00;;;<p>Use only mild detergent. Wash dark colors separately. Iron on reverse. Wash with like colors only. Do not Iron print</p>;;;;;zerotype;;Summer;eors-sports-under999;No
1958683;BK1165-BLACK-1958683;OSR BRA;Draft;Bra;Reebok;Adults-Women;Women;;;;Fashion;;2017;XL,RBOKBRAA00000128,M,RBOKBRAA00000129,L,RBOKBRAA00000130,S,RBOKBRAA00000131,XS,RBOKBRAA00000132;3299.00;;;<p>Use only mild detergent. Wash dark colors separately. Iron on reverse. Wash with like colors only. Do not Iron print</p>;;;;;zerotype;;Summer;eors-sports-under999;No
1958675;BJ9005-CHALK-1958675;C STRAPPY BRA P;On Hold - Sample;Bra;Reebok;Adults-Women;Women;Off White;Black;Orange;Fashion;Sports;2017;M,RBOKBRAA00000088,S,RBOKBRAA00000089,L,RBOKBRAA00000090,XL,RBOKBRAA00000091,XS,RBOKBRAA00000092;3999.00;Off-White <a href='/solid?src=pd' class='seolink'>solid</a> full-coverage <a href='/sports-bra?src=pd' class='seolink'>Sports bra</a><br>Lightly Padded and Non-Wired seamless cups<br>Regular straps and slip-on<br>Back style: Styled Back<br>Feature: Moisture Wicking;Spruce up your collection of workout attire with this highly comfortable and fashion-forward Reebok sports bra.  Wear it under your workout tank tops for a stylish and comfortable outfit for your yoga class.;Polyester and elastane <br /> Machine-wash;;;Reebok Off-White & Black Solid Non-Wired Lightly Padded Sports Bra;Reebok;zerotype;;Summer;eors-sports-under999;No
1955464;36637303-Toreador-Puma Black-Limepunch-1955464;Shore IDP;Draft;Sports Sandals;Puma;Adults-Unisex;Unisex;;;;Core;;2017;UK9,PUMASPSD00000811,UK8,PUMASPSD00000812,UK4,PUMASPSD00000813,UK5,PUMASPSD00000814,UK3,PUMASPSD00000815,UK6,PUMASPSD00000816,UK7,PUMASPSD00000817,UK11,PUMASPSD00000818;899.00;<p>Synthetic</p>;;<p>Synthetic</p>;;;;bss-uber-offer;zerotype;;Summer;bss-uber-offer;No
1954349;8901030550294-8901030550294-1954349;TRESemme Ionic Strength Shampoo 580 ml;QC Reject;Shampoo and Conditioner;TRESemme;Adults-Unisex;Unisex;Beige;Beige;Beige;Core;Casual;2017;580ml,TRSMSPCR00000005;431.00;TRESemme Ionic Strength Shampoo 580 ml<br />Salon style starts with strong hair. Get 100 percent stronger hair. Ready for salon styles. Hair can lose its strength and nourishment if damaged. TRESemmé Ionic Strength contains salon grade ionic complex, which when used with Ionic Strength conditioner helps restores and nourish your hair, reinforcing its natural protection to damage. Gentle enough for daily use, your hair is strong and healthy like you have just stepped out of a salon. After shampooing, apply an adequate amount from the mid lengths to the ends. Leave for 2-3 minutes and rinse thoroughly. Store in cool and dry place.;Use after cleansing your hair with TRESemme Spa Rejuvenation Shampoo for nourished scalp and give your hair the benefit of spa at home.;;580 ml;;TRESemme Ionic Strength Shampoo 580 ml;TRESemme;zerotype;;Summer;MRP Mismatch - Vendor tag - 431 wms - 440  website 431;No
1953500;VSKP317S00056-WhiteWithRed-1953500;VSKP317S00056;Inactive - PMM - Catalog;Tshirts;Van Heusen Sport;Adults-Men;Men;White;;;Fashion;Casual;2017;XL,VHSPTSHT00000817,S,VHSPTSHT00000818,XXL,VHSPTSHT00000819,M,VHSPTSHT00000820,L,VHSPTSHT00000821;1499.00;White printed  T-shirt, has a polo collar, <a href='/short?src=pd' class='seolink'>short</a> sleeves;Amp up your casual style with a well-structured T-shirt from Van Heusen Sport.  This white piece can be styled with dark denims and canvas shoes when you're going out to eat with your friends.;Cotton <br /> Machine-wash;The model (height 6') is wearing a size M;;Van Heusen Sport Men White & Red Printed Polo Collar T-shirt;Van Heusen Sport,flat40-extra30-jul1;zerotype;;Summer;Re-Shoot;No
1953467;VSSF317S06228-White-1953467;VSSF317S06228;On Hold - Sample;Shirts;Van Heusen Sport;Adults-Men;Men;White;;;Fashion;;2017;40,VHSPSHRT00004515,39,VHSPSHRT00004516,38,VHSPSHRT00004517,42,VHSPSHRT00004518,44,VHSPSHRT00004519;2299.00;;;<p>60%Cotton40%Linen</p>;;;;;zerotype;;Summer;Broken Size;No
1953460;VSSF317S05052-LightkhakiWithkhaki-1953460;VSSF317S05052;QC Reject;Shirts;Van Heusen Sport;Adults-Men;Men;Khaki;;;Fashion;Formal;2017;38,VHSPSHRT00004495,39,VHSPSHRT00004496,42,VHSPSHRT00004497,40,VHSPSHRT00004498,44,VHSPSHRT00004499,46,VHSPSHRT00004500;1899.00;<a href='/khaki?src=pd' class='seolink'>Khaki</a> printed <a href='/formal?src=pd' class='seolink'>formal</a> shirt, has a <a href='/spread?src=pd' class='seolink'>spread</a> collar, button placket, <a href='/1?src=pd' class='seolink'>1</a> pocket, long sleeves, straight hem;Add class to your year-round style with this formal shirt from Van Heusen Sport.  This khaki piece can be matched with professional trousers and a sleek blazer when you're heading to work.;Cotton <br /> Machine-wash;The model (height 6') is wearing a size M;;Van Heusen Sport Men Khaki Regular Fit Printed Formal Shirt;Van Heusen Sport;zerotype;;Summer;Product mismatch;No
1948041;HEAVY PADDED MIX JACKET-NAVY-1948041;Jackets;On Hold - Sample;Jackets;Forca;Adults-Men;Men;Navy Blue;;;Fashion;;2017;L,FRCAJCKT00000041,M,FRCAJCKT00000042,S,FRCAJCKT00000043,XL,FRCAJCKT00000044;4999.00;;;<p>Machine wash at 40'C,do not bleach, warm iron, donot dryclean, Tumble dry low,Wash dark colors seperately.</p>;;;;never-settle,lifestyle-brands;zerotype;;Summer;lifestyle-brands;No
1948033;BOS-PLATED-KNITTED-SHORTS-BLUE-1948033;Shorts;Draft;Shorts;Bossini;Adults-Men;Men;Blue;;;Fashion;;2017;L,BILESHOR00000513,M,BILESHOR00000514,S,BILESHOR00000515,XL,BILESHOR00000516;1099.00;;;<p>Machine wash at 40'C, Donot bleach , Warm iron , Donot dry clean , Tumble dry low, Wash dark colors separately.</p>;;;;never-settle,lifestyle-brands;zerotype;;Summer;lifestyle-brands;No
1946841;177810-NAVY-1946841;Forever 21 NAVYShorts;On Hold - Sample;Shorts;FOREVER 21;Adults-Men;Men;;;;Fashion;;2017;1/XS,FRTOSHOR00005225,2/S,FRTOSHOR00005226,3/M,FRTOSHOR00005227,4/L,FRTOSHOR00005228,5/XL,FRTOSHOR00005229;1119.00;<p>Contents:59% COTTON, 41% POLYESTER, Lining:, Other:</p>;;;;;;high-street-brands,forever-21-bestsellers;zerotype;;Spring;Tag;No
1946332;140999-BLACK-1946332;Forever 21 BLACKBra;On Hold - Sample;Bra;FOREVER 21;Adults-Women;Women;;;;Fashion;;2017;1/32A,FRTOBRAA00002825,2/32B,FRTOBRAA00002826,3/32C,FRTOBRAA00002827,4/34A,FRTOBRAA00002828,5/34B,FRTOBRAA00002829,6/34C,FRTOBRAA00002830,7/34D,FRTOBRAA00002831,8/36B,FRTOBRAA00002832,9/36C,FRTOBRAA00002833;859.00;<p>Contents:87% NYLON/POLYAMIDE, 13% SPANDEX/ELASTANE, Lining:1</p>;;;;;;high-street-brands;zerotype;;Spring;Broken Size;No
1940385;RT-XA12-1784-K-REDRODIUMCORALAOR-1940385;SM-Children-Girls;Draft;Casual Shoes;Juniors by Lifestyle;Kids-Girls;Girls;;;;Fashion;;2016;EURO29,JSLECASH00000755,EURO30,JSLECASH00000756,EURO31,JSLECASH00000757,EURO34,JSLECASH00000758,EURO35,JSLECASH00000759;499.00;;;;;;;kideorsjunecasfoot,kidseorsjunepartyfoot;zerotype;;Fall;kidseorsjunepartyfoot;No
1940381;MR-N86681L-1-PINKRANI PINKFUSCHIAMINK-1940381;SM-Children-Girls;Draft;Casual Shoes;Juniors by Lifestyle;Kids-Girls;Girls;;;;Fashion;;2016;EURO32,JSLECASH00000737;1399.00;;;;;;;;zerotype;;Fall;;No
1940379;HX-9303-ROYAL BLUE  E BLUE-1940379;SM-Children-Boys;Draft;Casual Shoes;Juniors by Lifestyle;Kids-Boys;Boys;;;;Fashion;;2016;EURO22,JSLECASH00000732,EURO24,JSLECASH00000733,EURO29,JSLECASH00000734,EURO30,JSLECASH00000735;1299.00;;;;;;;;zerotype;;Fall;;No
1939636;PIM0002287-RED-1939636;PIM0002287RED3XL;Draft;Shirts;Pepe Jeans;Adults-Men;Men;;;;Fashion;;2016;S,PEJESHRT00009974,M,PEJESHRT00009975,L,PEJESHRT00009976,XL,PEJESHRT00009977,XXL,PEJESHRT00009978,3XL,PEJESHRT00009979;2099.00;;;;;;;;zerotype;;Winter;;No
1937191;LYTF317S02521-LightkhakiWithWhite-1937191;LYTF317S02521;On Hold - Sample;Trousers;Louis Philippe Sport;Adults-Men;Men;Khaki;;;Fashion;;2017;30,LSPSTRSR00001044,32,LSPSTRSR00001045,34,LSPSTRSR00001046,36,LSPSTRSR00001047;2299.00;;;<p>Cotton</p>;;;;;zerotype;;Summer;Broken Size;No
1936064;LPSF317Y08028-MediumgreyWithgrey-1936064;LPSF317Y08028;Draft;Shirts;Louis Philippe;Adults-Men;Men;Grey;;;Fashion;;2017;38,LSPLSHRT00003865,39,LSPLSHRT00003866,40,LSPLSHRT00003867,42,LSPLSHRT00003868;2299.00;;;<p>Cotton</p>;;;;myntra-store-02;zerotype;;Summer;myntra-store-02;No
1933888;KJ12KE029-Silver-1933888;Jhumka Earrings;Draft;Earrings;Infuzze;Adults-Women;Women;Silver;;;Fashion;;2017;Onesize,IFZEEARR00000868;720.00;;;<p>Clean with a dry cotton swab.</p>;;;;;zerotype;;Spring;;No
1933882;KJ22KE023-Multi-1933882;Tribal Earrings;Draft;Earrings;Infuzze;Adults-Women;Women;Multi;;;Fashion;;2017;Onesize,IFZEEARR00000862;1320.00;;;<p>Clean with a dry cotton swab.</p>;;;;;zerotype;;Spring;;No
1933873;KJ14KE014-Pink-1933873;Tribal Earrings;Draft;Earrings;Infuzze;Adults-Women;Women;Pink;;;Fashion;;2017;Onesize,IFZEEARR00000853;840.00;;;<p>Clean with a dry cotton swab.</p>;;;;;zerotype;;Spring;;No
1933872;KJ14KE013-Multi-1933872;Tribal Earrings;Draft;Earrings;Infuzze;Adults-Women;Women;Multi;;;Fashion;;2017;Onesize,IFZEEARR00000852;840.00;;;<p>Clean with a dry cotton swab.</p>;;;;;zerotype;;Spring;;No
1933871;KJ14KE012-Orange-1933871;Tribal Earrings;Draft;Earrings;Infuzze;Adults-Women;Women;Orange;;;Fashion;;2017;Onesize,IFZEEARR00000851;840.00;;;<p>Clean with a dry cotton swab.</p>;;;;;zerotype;;Spring;;No
1933870;KJ15KE011-Blue-1933870;Tribal Earrings;Draft;Earrings;Infuzze;Adults-Women;Women;Blue;;;Fashion;;2017;Onesize,IFZEEARR00000850;900.00;;;<p>Clean with a dry cotton swab.</p>;;;;;zerotype;;Spring;;No
1933868;KJ15KE009-Pink-1933868;Tribal Earrings;Draft;Earrings;Infuzze;Adults-Women;Women;Pink;;;Fashion;;2017;Onesize,IFZEEARR00000848;900.00;;;<p>Clean with a dry cotton swab.</p>;;;;;zerotype;;Spring;;No
1933858;UT15KE086-Silver-1933858;Tribal Necklace;Draft;Necklace and Chains;Infuzze;Adults-Women;Women;Silver;;;Fashion;;2017;Onesize,IFZENECK00000273;999.00;;;<p>Clean with a dry cotton swab.</p>;;;;;zerotype;;Spring;;No
1929827;SS04-0105-RUBY-Ruby-1929827;BU-LOW RISE BOYLEG -1s Ruby;On Hold - Sample;Briefs;Jockey;Adults-Women;Women;Multi;;;Fashion;;2017;XL,JOCKBREF00003326;190.00;;;<p>GENTLE WASH COLDDO NOT BLEACH WASH INSIDE OUTWASH WITH LIKE COLORSDO NOT IRONTUMBLE DRY LOWDO NOT DRY CLEANLINE DRY IN SHADE</p>;;;;;zerotype;;Summer;Broken Size;No
1929825;SS04-0105-PBLOS-Peach Blossom-1929825;BU-LOW RISE BOYLEG -1s -Peach Blossom;On Hold - Sample;Briefs;Jockey;Adults-Women;Women;Multi;;;Fashion;;2017;XL,JOCKBREF00003322;190.00;;;<p>GENTLE WASH COLDDO NOT BLEACH WASH INSIDE OUTWASH WITH LIKE COLORSDO NOT IRONTUMBLE DRY LOWDO NOT DRY CLEANLINE DRY IN SHADE</p>;;;;;zerotype;;Summer;Broken Size;No
1929823;SS04-0105-LTGML-Lt.Grey Melange-1929823;BU-LOW RISE BOYLEG -1s Lt.Grey Melange;On Hold - Sample;Briefs;Jockey;Adults-Women;Women;Multi;;;Fashion;;2017;XL,JOCKBREF00003318;190.00;;;<p>GENTLE WASH COLDDO NOT BLEACH WASH INSIDE OUTWASH WITH LIKE COLORSDO NOT IRONTUMBLE DRY LOWDO NOT DRY CLEANLINE DRY IN SHADE</p>;;;;;zerotype;;Summer;Broken Size;No
1929821;SS04-0105-JTEAL-Jteal-1929821;BU-LOW RISE BOYLEG -1s  -  JTeal;On Hold - Sample;Briefs;Jockey;Adults-Women;Women;Multi;;;Fashion;;2017;XL,JOCKBREF00003314;190.00;;;<p>GENTLE WASH COLDDO NOT BLEACH WASH INSIDE OUTWASH WITH LIKE COLORSDO NOT IRONTUMBLE DRY LOWDO NOT DRY CLEANLINE DRY IN SHADE</p>;;;;;zerotype;;Summer;Broken Size;No
1929819;SS04-0105-IRSBU-Iris Blue-1929819;BU-LOW RISE BOYLEG -1s-Iris Blue;On Hold - Sample;Briefs;Jockey;Adults-Women;Women;Multi;;;Fashion;;2017;XL,JOCKBREF00003310;190.00;;;<p>GENTLE WASH COLDDO NOT BLEACH WASH INSIDE OUTWASH WITH LIKE COLORSDO NOT IRONTUMBLE DRY LOWDO NOT DRY CLEANLINE DRY IN SHADE</p>;;;;;zerotype;;Summer;Broken Size;No
1929817;SS02-0105-SKIN-Skin-1929817;BU-Bikini-1's Skin;On Hold - Sample;Briefs;Jockey;Adults-Women;Women;Multi;;;Fashion;;2017;XL,JOCKBREF00003306;170.00;;;<p>GENTLE WASH COLDDO NOT BLEACH WASH INSIDE OUTWASH WITH LIKE COLORSDO NOT IRONTUMBLE DRY LOWDO NOT DRY CLEANLINE DRY IN SHADE</p>;;;;;zerotype;;Summer;Broken Size;No
1929813;SS02-0105-PBLOS-Peach Blossom-1929813;BU-Bikini-1's -Peach Blossom;On Hold - Sample;Briefs;Jockey;Adults-Women;Women;Multi;;;Fashion;;2017;XL,JOCKBREF00003298;154.00;;;<p>GENTLE WASH COLDDO NOT BLEACH WASH INSIDE OUTWASH WITH LIKE COLORSDO NOT IRONTUMBLE DRY LOWDO NOT DRY CLEANLINE DRY IN SHADE</p>;;;;;zerotype;;Summer;Broken Size;No
1929811;SS02-0105-LTGML-Lt.Grey Melange-1929811;BU-Bikini-1's Lt.Grey Melange;On Hold - Sample;Briefs;Jockey;Adults-Women;Women;Multi;;;Fashion;;2017;XL,JOCKBREF00003294;170.00;;;<p>GENTLE WASH COLDDO NOT BLEACH WASH INSIDE OUTWASH WITH LIKE COLORSDO NOT IRONTUMBLE DRY LOWDO NOT DRY CLEANLINE DRY IN SHADE</p>;;;;;zerotype;;Summer;Broken Size;No
1929809;SS02-0105-JTEAL-Jteal-1929809;BU-Bikini-1's  -  JTeal;On Hold - Sample;Briefs;Jockey;Adults-Women;Women;Multi;;;Fashion;;2017;XL,JOCKBREF00003290;170.00;;;<p>GENTLE WASH COLDDO NOT BLEACH WASH INSIDE OUTWASH WITH LIKE COLORSDO NOT IRONTUMBLE DRY LOWDO NOT DRY CLEANLINE DRY IN SHADE</p>;;;;;zerotype;;Summer;Broken Size;No
1929400;ITA16SHK040-Amber-1929400;MEN'S SHIRT;Draft;Shirts;Indian Terrain;Adults-Men;Men;;;;Fashion;;2017;M,INTRSHRT00106993,S,INTRSHRT00106994,XXL,INTRSHRT00106995;1999.00;;;<p>Cold Wash</p>;;;;;zerotype;;Summer;;No
1927884;EKP31700105-LightgreyWithblue-1927884;EKP31700105;Draft;Tshirts;Peter England Casuals;Adults-Men;Men;Blue;;;Fashion;;2017;S,PEDCTSHT00001003,XXL,PEDCTSHT00001004,XL,PEDCTSHT00001005,M,PEDCTSHT00001006,L,PEDCTSHT00001007;999.00;;;<p>80%Cotton20%Viscose</p>;;;;;zerotype;;Spring;;No
1916639;RMDX01193-M8-Maroon-1916639;SB2 btn notch lapel contp fit;On Hold - Sample;Suits;Raymond;Adults-Men;Men;Maroon;;;Fashion;;2016;92,RYMDSUIT00000765,96,RYMDSUIT00000766,100,RYMDSUIT00000767,104,RYMDSUIT00000768,108,RYMDSUIT00000769,112,RYMDSUIT00000770;7999.00;;;<p>DRY CLEAN ONLY</p>;<p>CONTEMPORARY FIT</p>;;;never-settle;zerotype;;Summer;never-settle;No
1916159;PMDX03119-G6-Grey-1916159;2BTN NOTCH F.F.TROUSER SUPER SLIM FIT;On Hold - Sample;Suits;Park Avenue;Adults-Men;Men;Grey;;;Fashion;;2017;XS,PKAVSUIT00000613,S,PKAVSUIT00000614,M,PKAVSUIT00000615,L,PKAVSUIT00000616,XL,PKAVSUIT00000617;9999.00;;;<p>DRY CLEAN ONLY</p>;<p>Poly65%/Viscose18%/Wool17%</p>;;;never-settle;zerotype;;Summer;never-settle;No
1909510;MN-38407940001-BLUE-1909510;Toluca Friendshp Brc;Draft;Bracelet;Accessorize;Adults-Women;Women;Blue;;;Fashion;Casual;2017;Onesize,ACZEBRCT00000789;695.00;;;;;;;;zerotype;;Winter;;No
1908487;AAD-1776-C-BEIGE-1908487;Women Backpack;Draft;Backpacks;Mast & Harbour;Adults-Women;Women;;;;Fashion;;2017;One Size,MTHBBAPK00000024;1999.00;;;;;;;;zerotype;;Summer;;No
1908486;AAD-1776-B-NAVY-1908486;Women Backpack;Draft;Backpacks;Mast & Harbour;Adults-Women;Women;;;;Fashion;;2017;One Size,MTHBBAPK00000023;1999.00;;;;;;;;zerotype;;Summer;;No
1908485;AAD-1776-A-WHITE-1908485;Women Backpack;Draft;Backpacks;Mast & Harbour;Adults-Women;Women;;;;Fashion;;2017;One Size,MTHBBAPK00000022;1999.00;;;;;;;;zerotype;;Summer;;No
1907935;6436-ORANGE-1907935;Knot Front Vest Dress;Draft;Dresses;Marks & Spencer;Adults-Women;Women;;;;Fashion;;2017;UK6,MKSPDRSS00000865,UK8,MKSPDRSS00000866,UK10,MKSPDRSS00000867,UK12,MKSPDRSS00000868,UK14,MKSPDRSS00000869,UK16,MKSPDRSS00000870,UK18,MKSPDRSS00000871;1699.00;<p>Care and composition#Composition#95% viscose, 5% elastane   Care instructions#Machine washable</p>;;;;;;high-street-brands;zerotype;;Summer;add tag;No
1905016;590671101-TRUE BLUE-1905016;ACTIVE CELL Graphic Tee;BIS + Content Complete;Tshirts;Puma;Kids-Boys;Boys;Blue;;;Fashion;Sports;2017;128,PUMATSHT00120522,140,PUMATSHT00120523,152,PUMATSHT00120524,164,PUMATSHT00120525;1299.00;Blue printed  T-shirt, has a round neck, short sleeves;Your little explorer will love the ease of this versatile  Puma T-shirt.  Team this blue piece with slim jeans and canvas shoes when he's going to a friend's birthday party.;Polyester <br> Machine-wash;Regular fit;;Puma Boys Blue Printed Round Neck T-shirt;Puma,coupon-crush-jun6,jun08-wonder-hour,sportsallstyles-2017,offer-11jun,eors-half-price-store,eors-sports-under999,eors-tshirts-tops,eors-atheleisure;zerotype;;Summer;bss-uber-offer;No
1898591;9928-0105-TMRED-Team red-1898591;BU-Tank top 1s Team Red;Draft;Innerwear Vests;Jockey;Adults-Men;Men;;;;Core;;2017;S,JOCKVEST00000527,M,JOCKVEST00000528,L,JOCKVEST00000529;369.00;<p>20% Polyester,80% Cotton</p>;;<p>Gentle washDo not bleachTumble dry lowDo not dry cleanLine dry in shadeMedium ironWash with like coloursDo not iron on labelWash inside outIron on reverseDry immediately after wash</p>;;;;;zerotype;;Summer;;No
1895306;RNJJ010000-887167297913-1895306;Estee Lauder Doble Wear Long Wear Makeup;Draft;Makeup Remover;Estee Lauder;Adults-Women;Women;;;;Core;;2017;One size,ESTLMKRM00000004;2100.00;;;<p>Luxuriously soft and gentle wipes instantly remove long-wear and waterproof makeup. Conditioning formula hydrates skin, leaving it feeling fresh and clean. Resealable packette contains 45 disposable wipes. If you liked our Take It Away LongWear Makeup Remover Towelettes, you’ll love these.</p>;;;;eors-wishlist05;zerotype;;Summer;eors-wishlist05;No
1881325;CK2149S 609-Gold-1881325;CK2149S 609;Draft;Sunglasses;Calvin Klein;Adults-Unisex;Unisex;;;;Fashion;;2017;50,CLKNSGLS00000527;10500.00;;;;;;;myntra-store-01;zerotype;;Summer;myntra-store-01;No
1872507;164128-BLACK/BLUE/SILVER-1872507;Forever 21BLACK/BLUE/SILVERCamisoles;QC Reject;Camisoles;FOREVER 21;Adults-Women;Women;;;;Fashion;;2017;S,FRTOCMSL00004263,M,FRTOCMSL00004264,L,FRTOCMSL00004265;1149.00;<p>Garment:90% POLYESTER, 10% SPANDEX / ELASTANE, Lining:100% P</p>;;;;;;high-street-brands;zerotype;;Summer;add tag;No
1824308;LM91I-901-1824308;T-shirt;Draft;Tshirts;United Colors of Benetton;Adults-Men;Men;;;;Core;;2017;XL,UCFBTSHT00128800,S,UCFBTSHT00128801,M,UCFBTSHT00128802,L,UCFBTSHT00128803,EL,UCFBTSHT00128804;599.00;;;;;;;;zerotype;;Summer;Re-inwarded for Catalog 8th June 2017;No
1823241;MCSS17D07-54-143-Maroon-1823241;Twirl And Flare Skater Dress;Draft;Dresses;Miss Chase;Adults-Women;Women;;;;Fashion;;2017;XS,MSCSDRSS00003253,S,MSCSDRSS00003254,M,MSCSDRSS00003255,L,MSCSDRSS00003256,XL,MSCSDRSS00003257;1049.00;;;;;;;;zerotype;;Spring;;No
1823238;MCSS17D07-76-162-Red-1823238;Peace Of Mind Striped Shift Dress;Draft;Dresses;Miss Chase;Adults-Women;Women;;;;Fashion;;2017;XS,MSCSDRSS00003238,S,MSCSDRSS00003239,M,MSCSDRSS00003240,L,MSCSDRSS00003241,XL,MSCSDRSS00003242;1799.00;;;;;;;;zerotype;;Spring;;No
1823231;MCSS16D05-57-48-Green-1823231;Forever Yours Bodycon Dress;Draft;Dresses;Miss Chase;Adults-Women;Women;;;;Fashion;;2017;XS,MSCSDRSS00003203,S,MSCSDRSS00003204,M,MSCSDRSS00003205,L,MSCSDRSS00003206,XL,MSCSDRSS00003207;1599.00;;;;;;;;zerotype;;Spring;;No
1823223;MCSS16TP06-37-143-Maroon-1823223;Oh So Fine Crop Top;Draft;Tops;Miss Chase;Adults-Women;Women;;;;Fashion;;2017;XS,MSCSTOPS00002703,S,MSCSTOPS00002704,M,MSCSTOPS00002705,L,MSCSTOPS00002706,XL,MSCSTOPS00002707;1349.00;;;;;;;;zerotype;;Spring;;No
1823222;MCSS16TP06-41-143-Maroon-1823222;Never Say Never Fringe Top;Draft;Tops;Miss Chase;Adults-Women;Women;;;;Fashion;;2017;XS,MSCSTOPS00002698,S,MSCSTOPS00002699,M,MSCSTOPS00002700,L,MSCSTOPS00002701,XL,MSCSTOPS00002702;1049.00;;;;;;;;zerotype;;Spring;;No
1805329;231846-BLACK/CREAM-1805329;Forever 21BLACK/CREAMBodysuit;On Hold - Sample;Bodysuit;FOREVER 21;Adults-Women;Women;;;;Fashion;;2017;3/M,FRTOBYST00000451;759.00;<p>Contents:75% POLYESTER, 21% RAYON, 4% SPANDEX/ELASTANE, Lini</p>;;;;;;big10-ftod,high-street-brands;zerotype;;Summer;add tag;No
1795681;RIDY00194-B6-Blue-1795681;Suits;On Hold - Sample;Suits;Raymond;Adults-Men;Men;Blue;;;Fashion;;2017;96,RYMDSUIT00000541,100,RYMDSUIT00000542,104,RYMDSUIT00000543,108,RYMDSUIT00000544,112,RYMDSUIT00000545;13999.00;<p>TERRY 70%/RAYON 30%</p>;;<p>DRY CLEAN ONLY</p>;<p>TERRY 70%/RAYON 30%</p>;;;never-settle;zerotype;;Summer;never-settle;No
1781260;R2TB_XL-Black-1781260;Liberty Black color pack of 2 mens Trunk;On Hold - Sample;Trunk;Liberty;Adults-Men;Men;;;;Core;;2017;XL,LBRTTRNK00000085;680.00;<p>Cotton</p>;;;;;;;zerotype;;Summer;Broken Size;No
1781255;MT06_110-Blue-1781255;Liberty Light Blue color pack of 2 mens Trunk;On Hold - Sample;Trunk;Liberty;Adults-Men;Men;;;;Core;;2017;105,LBRTTRNK00000071,110,LBRTTRNK00000072;500.00;<p>Cotton</p>;;;;;;;zerotype;;Summer;Broken Size;No
1781252;MT05_95-Stone Grey-1781252;Liberty Grey color pack of 2 mens Trunk;On Hold - Sample;Trunk;Liberty;Adults-Men;Men;;;;Core;;2017;100,LBRTTRNK00000059,80,LBRTTRNK00000060,85,LBRTTRNK00000061,90,LBRTTRNK00000062,95,LBRTTRNK00000063;485.00;<p>Cotton</p>;;;;;;;zerotype;;Summer;Broken Size;No
1781239;RB05_110-Stone Grey-1781239;Liberty Greycolor pack of 4 mens Brief (RB05);On Hold - Sample;Briefs;Liberty;Adults-Men;Men;;;;Core;;2017;105,LBRTBREF00000123,110,LBRTBREF00000124;840.00;<p>Cotton</p>;;;;;;;zerotype;;Summer;Broken Size;No
1781233;RB02_110-Black-1781233;Liberty pack of 4 mens Brief (RB02);On Hold - Sample;Briefs;Liberty;Adults-Men;Men;;;;Core;;2017;105,LBRTBREF00000102,110,LBRTBREF00000103;840.00;<p>Cotton</p>;;;;;;;zerotype;;Summer;Broken Size;No
1781231;RB01_110-White-1781231;Liberty pack of 4 mens Brief (RB01);On Hold - Sample;Briefs;Liberty;Adults-Men;Men;;;;Core;;2017;105,LBRTBREF00000095,110,LBRTBREF00000096;840.00;<p>Cotton</p>;;;;;;;zerotype;;Summer;Broken Size;No
1738199;190231017882-WHITE-1738199;FF655106;Draft;Handbags;GUESS;Adults-Women;Women;;;;Fashion;;2017;Onesize,GUESHDBG00001270;7999.00;;;;;;;;zerotype;;Spring;;No
1686542;PM302417BEIGE-BEIGE-1686542;PM302417BEIGE3XL;On Hold - Sample;Shirts;Pepe Jeans;Adults-Men;Men;;;;Fashion;;2016;L,PEJESHRT00008391,S,PEJESHRT00008392,XXL,PEJESHRT00008393,XL,PEJESHRT00008394,M,PEJESHRT00008395,3XL,PEJESHRT00008396;1799.00;<p>COTTON SLUB CHAMBRY</p>;;;;;;;zerotype;;Fall;Broken Size;No
1685377;82422245-85715087003-1685377;ANNA SUI Fairy Dance EDT;Draft;Perfume and Body Mist;ANNA SUI;Adults-Women;Women;;;;Core;;2017;75ml,ANSUPFBM00000007;4300.00;;;;;;;eors-wishlist05;zerotype;;Spring;eors-wishlist05;No
1677387;2535962-3607347879367-1677387;Guess Dare EDT;Draft;Perfume and Body Mist;GUESS;Adults-Women;Women;;;;Core;;2017;100ml,GUESPFBM00000017;3050.00;;;;;;;;zerotype;;Spring;Season Tagging PC TO SS17-Jainesh;No
1644967;4058333108968-WHITE-1644967;CURVY-D;On Hold - Sample;Bra;Little Lacy;Adults-Women;Women;;;;Fashion;;2017;34D,LTLYBRAA00000166,36D,LTLYBRAA00000167,38D,LTLYBRAA00000168,40D,LTLYBRAA00000169;595.00;<p>Nylon</p>;;;;;;lfb1500g20,myntra-store-01;zerotype;;Summer;myntra-store-01;No
1556738;SND-400-Black-Black-1556738;SND-400-Black;Draft;Heels;Shoetopia;Adults-Women;Women;;;;Fashion;;2016;EURO36,SHPAHeels00002333,EURO37,SHPAHeels00002334,EURO38,SHPAHeels00002335,EURO39,SHPAHeels00002336,EURO40,SHPAHeels00002337,EURO41,SHPAHeels00002338;499.00;;;;;;;;zerotype;;Winter;;No
1553001;DR606-XL-Multi Color-1553001;Multi Color Printed Bodycon Dress;Draft;Dresses;Magnetic Designs;Adults-Women;Women;;;;Fashion;;2016;L,MGDSDRSS00000912,M,MGDSDRSS00000913,S,MGDSDRSS00000914,XL,MGDSDRSS00000915;1199.00;;;;;;;;zerotype;;Fall;;No
1537376;NT-E31-308-Maroon-1537376;Secret Wish Women's Cotton Maroon Robe (;BIS + Content Complete;Nightdress;Secret Wish;Adults-Women;Women;Burgundy;;;Fashion;Casual;2017;ONESIZE,SCWHNIDR00000280;999.00;Burgundy woven printed maxi nightdress with bow and lace trim detail, has a stylised square neck, short sleeves, and a tie-up detail on the back;This maxi nightdress from Secret Wish is the ultimate blend of comfort and style. Its soft fabric will ensure that you stay relaxed in bed.;Cotton<br />Machine-wash cold;The model (height 5'8") is wearing a free size;;Secret Wish Burgundy Printed Maxi Nightdress NT-E31-308;Secret Wish,JIT,lfb1500g20,bday-happy-hour,welcome-to-march,happy-hour-mar,happy-hour-mar19,apr12-super-hour,summer-style-apr,after-match-apr,take20-apr17,coupon-crush-bb,flat40-extra30-bb,min30-extra1000,gold22-bb,power500-bb,b3-20-power20,flat50-extra15-bb,flash-sale-bb21,extra30-10may,may20-flash-sale,may21-hh,jun08-wonder-hour;zerotype;;Summer;wrong image update on portal;No
1498402;74972103-spectra yellow-ebony-1498402;AFC Kids Away Replica Shirt;BIS + Content Complete;Tshirts;Puma;Kids-Boys;Boys;Yellow;;;Fashion;Sports;2016;116,PUMATSHT00115910,128,PUMATSHT00115911,140,PUMATSHT00115912,152,PUMATSHT00115913,164,PUMATSHT00115914,176,PUMATSHT00115915;3499.00;Yellow printed  T-shirt, has a V-neck, short sleeves;Your little boy will love this soft and fashionable T-shirt designed by Puma.  For a perfect school outfit, he can wear this yellow piece with classic trousers and Oxfords.;Polyester <br> Machine-wash;;;Puma Boys Yellow Printed V-Neck T-shirt;PUMA,rs-1000-off-18sep,allsportsnew1,sports-aw16,bbd-pre-sale-sports-2016,bbd-sports-allstyles,bbd-pre-register,first-time-on-discount-10oct,diwali-sports-oct,sports-bbd-allstyles,puma-kids-new-brandday,puma-create-world-record,extra-500-off-nov,sports-campaign-dec,happyhour-rs-off,welcome-to-eors,eors-coupon-4jan,welcome-to-mynt-jan,welcome-to-myntra-jan,welcome-to-myntra-jan-new,welcome-to-myntra-new-jan,stylesforextra5-jan17,HH12JAN17,myntra-wishlisters-jan,extra15-wishlisters-2017,welcome-to-myntra-feb,welcome-to-myntra-feb-new,vday-coupon-offer,pumabrandday-virat-banner,coupon-crush-5,coupon-crush-8,coupon-crush-9,coupon-crush-10,coupon-crush-11,weekend-coupon-offer,ltod-feb24,brandrush-5,superhour-feb26,first1000-lastday300,coupon-offer-monday,welcome-to-march,b40-big40,holi-basket-mar,balloon-blast,balloon-blast-500,min-1000-puma,happy-hour-mar19,spring15-mar20,super-hour-mar17,rs500off-crush500,crush20-mar28,cc-articles-2803,welcome-to-march-new,spring20-mar28,welcome-to-mar17-new,rs300-off-mar17,mar29-super-hour,welcome-to-myntra-april,hh-0104,chill-summer-apr,tbfg-fitfabulous-sports,tbfg-sportsfanatic,bfg-event-apr,bfg-extra10,bfg-extra20,bfg-extra30,tbfg-sports-fitfabulous-day1-topwear,tbfg-sports-fitfabulous-brands-puma,tbfg-sportsfashion-athleisurelyyours-viewall,tbfg-sportsfashion-athleisurelyyours-tshirts,tbfg-sports-fitfabulous-day3-topwear,summer-style-apr,after-match-apr,apr15-hh,ftod-bb-apr20,upto40-extra20-bb,gold22-bb,b3-20-power20,SportsAllStyles-2017,sportsathleisure,coupon-crush04,coupon-crush05,myntra-rupay,coupon-crush08,coupon-crush11,mse-all,puma-running-collection,price-surge,extra20-ccmay,crush24-ccmay,rs300off-ccmay,super-hour-ccmay,bestsellers-may6,welcome-to-myntra-may,flash-sale-may6,high-street-tops-tees,extra400-may9,super-hour-may9,coupon-offer-may,rs300off-1105,ndd-gurgaon,big10-extra40,big10-lucky10,big10-rs501off,big10-super-hour25,sportsallstyles-2017,myntra-icici-offer,welcome-to-myntra-may-big,big10-mse-all,big10-350off,flash-sale-may17,puma-run-collection,best-seller-1905,may21-hh,big10-price-surge,big10-gratification,crush350-may25,price-surge-may25,may27-price-surge,extra500-may29,gratification-jun2,weekend-sports-football,hh-jun2,offer999-jun4,welcome-to-myntra-june17,myntra-store-01,coupon-crush-jun6,jun8-offer999,jun08-wonder-hour,offer-11jun,min30-jun12,extra25-jun15,eors-sports-min2000off,eors-tshirts-tops,eors-atheleisure,eors-sports-football,bss-uber-offer;zerotype;;Fall;bss-uber-offer;No
1470962;LC3579-Blue-1470962;LC3579 Blue;Draft;Casual Shoes;Lee Cooper;Adults-Men;Men;;;;Fashion;;2016;UK6,LEECCASH00002685,UK7,LEECCASH00002686,UK8,LEECCASH00002687,UK9,LEECCASH00002688,UK10,LEECCASH00002689,UK11,LEECCASH00002690;2499.00;<p>Fabric</p>;;;;;;;zerotype;;Fall;;No
1470173;ISB002A_ISB012B-36C-Multi-1470173;Organic Antimicrobial Soft Bra ( Pack of 2;On Hold - Sample;Bra;Inner Sense;Adults-Women;Women;;;;Core;;2016;30B,IRSNBRAA00000323,34B,IRSNBRAA00000324,36B,IRSNBRAA00000325,36C,IRSNBRAA00000326;819.00;<p>Cotton</p>;;;;;;lfb1500g20,myntra-store-01;zerotype;;Fall;myntra-store-01;No
1455918;TOUCHE-WHITE / BLACK-1455918;COLLEGE STYLE;On Hold - Sample;Bra;Daisy Dee;Adults-Women;Women;;;;Core;;2016;30B,DSDEBRAA00001904,32B,DSDEBRAA00001905,34B,DSDEBRAA00001906,36B,DSDEBRAA00001907,38B,DSDEBRAA00001908;640.00;<p>Cotton</p>;;;;;;tat-styles-31aug,lfb1500g20,myntra-store-01;zerotype;;Fall;myntra-store-01;No
1455887;MOMENTS-BLACK / SKIN-1455887;COLLEGE STYLE;On Hold - Sample;Bra;Daisy Dee;Adults-Women;Women;;;;Core;;2016;30B,DSDEBRAA00001776,32B,DSDEBRAA00001777,34B,DSDEBRAA00001778,36B,DSDEBRAA00001779,38B,DSDEBRAA00001780;700.00;<p>Cotton</p>;;;;;;tat-styles-31aug,lfb1500g20,ndd-bangalore;zerotype;;Fall;ndd-bangalore;No
1417459;CURT-1657-CURD-PRT-COTN-Purple-1417459;Swayam Purple Colour Floral Printed Eyelet Cu;Draft;Curtains and Sheers;SWAYAM;Adults-Unisex;Unisex;;;;Core;Home;2016;Door,SWYMCRTN00000499;1399.00;;;;;;;;zerotype;;Summer;;No
1392994;PM2018444-DK-DUST-1392994;PM2018444DK-DUST32;On Hold - Sample;Jeans;Pepe Jeans;Adults-Men;Men;Blue;;;Fashion;Casual;2016;28,PEJEJENS00005899,30,PEJEJENS00005900,36,PEJEJENS00005901,38,PEJEJENS00005902,32,PEJEJENS00005903;3999.00;Blue dark wash 5-pocket low-rise jeans, clean look with light fade, has a button and zip closure, waistband with belt loops;Round out your collection of denims with the latest pair of cool jeans by Pepe Jeans.  When you're meeting your boss for a casual lunch, team these with a formal shirt and derby shoes.;Cotton and elastane <br> Machine-wash;Holborne Regular Fit <br> The model (height 6') is wearing a size 32;;Pepe Jeans Men Blue Regular Fit Low-Rise Clean Look Jeans;Pepe Jeans, tat-styles-31aug,pepe-biker,pepe-indigo-essentials;zerotype;;Summer;Broken Size;No
1368942;1016N_BURGUNDYPURPLE-MAROON,PURPLE-1368942;1016N_BURGUNDYPURPLE_40C;On Hold - Sample;Bra;Prestitia;Adults-Women;Women;;;;Core;;2016;34B,PSTABRAA00000659,34C,PSTABRAA00000660,36B,PSTABRAA00000661,36C,PSTABRAA00000662,38B,PSTABRAA00000663,38C,PSTABRAA00000664,40B,PSTABRAA00000665,40C,PSTABRAA00000666;992.00;<p>92 % Cotton 8% Elastane</p>;;;;;;tat-styles-31aug,lfb1500g20;zerotype;;Summer;Broken Size;No
1367189;18701102-NAVY/CORAL-1367189;Forever21NAVY/CORALSwimsuit;On Hold - Sample;Swimwear;FOREVER 21;Adults-Women;Women;;;;Fashion;;2016;XXL,FRTOSWMW00000354,XXXL,FRTOSWMW00000355,XXXXL,FRTOSWMW00000356,XXXXXL,FRTOSWMW00000357;1449.00;<p>Contents:100% RAYON, Lining:, Other:100% POLYESTER</p>;;;;;;ndd-gurgaon,ladies-night-coupon1,ladies-night-coupon2,myntra-store-01,high-street-brands;zerotype;;Summer;add tag;No
1344675;8087209186-Blk/Violet/Turquoise-1344675;Af Esential Focusdve Knesut;On Hold - Sample;Swimwear;Speedo;Adults-Women;Women;;;;Fashion;;2016;34,SPEESWMW00000103,36,SPEESWMW00000104;2299.00;<p>Nylon Lycra</p>;;;;;;tbfg-fitfabulous-sports,tbfg-sportsfanatic,tbfg-sports-fitfabulous-day5-speedo,tbfg-sports-fitfabulous-categories-swimwear,tbfg-sportsfashion-athleisurelyyours-viewall,ndd-gurgaon,myntra-store-01;zerotype;;Summer;eors-sports-under999;No
1344674;8087199342-Navy/Violet/Ignite-1344674;Af Esential Focussspeed Legsuit;On Hold - Sample;Swimwear;Speedo;Adults-Women;Women;;;;Fashion;;2016;36,SPEESWMW00000101,34,SPEESWMW00000102;1899.00;<p>Nylon Lycra</p>;;;;;;tat-styles-31aug,tbfg-fitfabulous-sports,tbfg-sportsfanatic,tbfg-sports-fitfabulous-day5-speedo,tbfg-sports-fitfabulous-categories-swimwear,tbfg-sportsfashion-athleisurelyyours-viewall,ndd-gurgaon,myntra-store-01;zerotype;;Summer;eors-sports-under999;No
1325577;3613371265007-VINTAGE INDIGO-1325577;RIPCURRENT 20 M BDSH;On Hold - Other;Swimwear;DC;Adults-Men;Men;Blue;White;;Fashion;Casual;2016;28,DCDCSHOR00000049,30,DCDCSHOR00000050,32,DCDCSHOR00000051,34,DCDCSHOR00000052,36,DCDCSHOR00000053,38,DCDCSHOR00000054;3495.00;A pair of blue and white colourblocked mid-rise woven printed surfing shorts, has a waistband with drawstring fastening and Velcro closure, one pocket;Dive into the sea with these amazing shorts from DC. Team this pair with a tee and slippers for the perfect beach look.;92% polyester, 8% elastane <br /> Machine-wash cold;;;DC Blue Colourblocked Surfing Shorts 3613371265007;tat-styles-31aug,tbfg-fitfabulous-sports,tbfg-sportsfanatic,tbfg-sportsfashion-athleisurelyyours-dc,tbfg-sports-fitfabulous-day1-tracksandshorts,tbfg-sportsfashion-athleisurelyyours-viewall,tbfg-sports-fitfabulous-day2-apparel,tbfg-sports-fitfabulous-day3-tightsandtracks,ndd-gurgaon,myntra-store-01,DC;zerotype;;Summer;Reshoot required;No
1325571;3613371234041-VINTAGE INDIGO-1325571;LANAI 18 M BDSH;On Hold - Sample;Swimwear;DC;Adults-Men;Men;Navy Blue;;;Fashion;Casual;2016;28,DCDCSHOR00000013,30,DCDCSHOR00000014,32,DCDCSHOR00000015,34,DCDCSHOR00000016,36,DCDCSHOR00000017,38,DCDCSHOR00000018;2995.00;A pair of navy printed mid-rise woven printed surfing shorts, has a waistband with drawstring fastening and Velcro closure, one pocket;Dive into the sea with these amazing shorts from DC. Team this pair with a tee and slippers for the perfect beach look.;100% polyester<br /> Machine-wash cold;;;DC Navy Printed Surfing Shorts 3613371234041;tat-styles-31aug,tbfg-fitfabulous-sports,tbfg-sportsfanatic,tbfg-sportsfashion-athleisurelyyours-dc,tbfg-sports-fitfabulous-day1-tracksandshorts,tbfg-sportsfashion-athleisurelyyours-viewall,tbfg-sports-fitfabulous-day2-apparel,tbfg-sports-fitfabulous-day3-tightsandtracks,ndd-gurgaon,myntra-store-01;zerotype;;Summer;Broken Size;No
1325570;3613371300906-SYRAH-1325570;LANAI 18 M BDSH;On Hold - Sample;Swimwear;DC;Adults-Men;Men;Maroon;;;Fashion;Casual;2016;30,DCDCSHOR00000007,32,DCDCSHOR00000008,28,DCDCSHOR00000009,34,DCDCSHOR00000010,36,DCDCSHOR00000011,38,DCDCSHOR00000012;2995.00;A pair of maroon printed mid-rise woven printed surfing shorts, has a waistband with drawstring fastening and Velcro closure, one pocket;Dive into the sea with these amazing shorts from DC. Team this pair with a tee and slippers for the perfect beach look.;100% polyester<br />Machine-wash cold;;;DC Maroon Printed Surfing Shorts 3613371300906;tat-styles-31aug,tbfg-fitfabulous-sports,tbfg-sportsfanatic,tbfg-sportsfashion-athleisurelyyours-dc,tbfg-sports-fitfabulous-day1-tracksandshorts,tbfg-sportsfashion-athleisurelyyours-viewall,tbfg-sports-fitfabulous-day2-apparel,tbfg-sports-fitfabulous-day3-tightsandtracks,ndd-gurgaon,myntra-store-01;zerotype;;Summer;Broken Size;No
1272031;RMTX02009-K4-Black-1272031;BASIC FLAT FRNT -CONTEMPORARY FIT;On Hold - Sample;Trousers;Raymond;Adults-Men;Men;;;;Core;;2016;100,RYMDTRSR00000923,76,RYMDTRSR00000924,82,RYMDTRSR00000925,92,RYMDTRSR00000926,96,RYMDTRSR00000927,86,RYMDTRSR00002161;2899.00;<p>Poly 40%/Wool 60%</p>;;;;;;look4-mitm-formals,mitm17,never-settle;Trousers;Raymond;Summer;never-settle;No
1057829;U8516D-001-XL-BLACK-1057829;U8516D;On Hold - Sample;Trunk;Calvin Klein Innerwear;Adults-Men;Men;NA;;;Fashion;NA;2016;XL,CKIWTRNK00000149;1399.00;<p>91% NYLON, 9% ELASTANE</p>;<p>NA</p>;<p>NA</p>;<p>NA</p>;NA;NA;NA,ndd-gurgaon,myntra-store-01;Trunk;Calvin Klein Innerwear;Winter;myntra-store-01;No
768501;F-LLT-019-JET BLACK-768501;T SHIRT;Draft;Lounge Tshirts;SDL by Sweet Dreams;Adults-Women;Women;;;;Fashion;Casual;2016;S,SWDMTSHT00001187,M,SWDMTSHT00001188,L,SWDMTSHT00001189,XL,SWDMTSHT00001190,XXL,SWDMTSHT00001191;409.00;<p>100% Cotton S J</p>;;;;;;;Lounge Top;SDL by Sweet Dreams;Summer;Season Chanes;No
718185;200122-422-J3-Nautical Navy-718185;Classic Star Wars R2D2 C3PO;Inactive - PMM - Catalog;Flip Flops;Crocs;Kids-Unisex;Unisex;Navy Blue;;;Fashion;Casual;2015;C10C11,CROCFLFP00097839,C12C13,CROCFLFP00097840,C4C5,CROCFLFP00097841,C6C7,CROCFLFP00097842,C8C9,CROCFLFP00097843,J1,CROCFLFP00097844,J2,CROCFLFP00097845,J3,CROCFLFP00097846;1995.00;A pair of navy printed Star Wars clogs<br />Croslite printed upper with cut-out detail on the forefoot<br />Croslite cushioned footbed<br />Textured outsole with patterned grooves<br />Warranty: 3 months against manufacturing defects from the date of purchase;Ensuring all-day comfort, this pair of clogs from Crocs is extremely light-weight. Let your little one team it with a pair of jeans and a tee when going out.;Croslite<br />Wipe with a clean, dry cloth when needed;;;Crocs Boys Navy Printed Star Wars Clogs;Crocs,tbfg-sportsfanatic,tbfg-sportsfashion-athleisurelyyours-viewall,big10-super-hour25,gratification-jun2,CASUAL-JUNE-17,sportsallstyles-2017,eors-half-price-store,wishlist-eors,wonder-hour-jun25,flat40-extra30-jul1;zerotype;;Summer;image mismatch;No
678417;Dido-Assorted-678417;Dido;On Hold - Sample;Briefs;Red Rose;Adults-Women;Women;NA;;;Core;NA;2015;M,RDRSBREF00000253,L,RDRSBREF00000254,XL,RDRSBREF00000255,XXL,RDRSBREF00000256;429.00;<p>Cotton</p>;<p>NA</p>;<p>NA</p>;<p>NA</p>;;NA;NA,lfb1500g20,ndd-gurgaon,myntra-store-01;Briefs;Red Rose;Winter;myntra-store-01;No
650895;F007-Rose-650895;Full Figure;On Hold - Sample;Bra;Enamor;Adults-Women;Women;NA;;;Fashion;NA;2017;38DD,ENAMBRAA00003428,40C,ENAMBRAA00003429,40D,ENAMBRAA00003430,44C,ENAMBRAA00003431,44DD,ENAMBRAA00003432;850.00;<p>Nylon</p> <br>Owing to intimate nature of this product it is eligible for self-ship return only (no pick-up facility)</p>;;;;;;,bridallingerie,ndd-gurgaon,myntra-store-01;Bra;Enamor;Summer;myntra-store-01;No
573470;51102002-black-573470;Women Essential Bra;On Hold - Sample;Bra;Puma;Adults-Women;Women;;;;Fashion;;2013;L,PUMASPBR00000009,M,PUMASPBR00000010,S,PUMASPBR00000011,XL,PUMASPBR00000012;1599.00;<p>cotton</p>;;;;;;dailyopenoffer30,dailyopenoffer20,Running-Apparel-Sports,Running-Apparel-Sports,runningstorewomensportsbras,puma-all-styles,running-store,pumabrandday-all,puma-brand-day-14June-bra,puma-brand-day-14June-main,puma-brand-day-14June-rihannatrainer,puma-brand-day-14June-speed600ignite,puma-brandstore-running,puma-brand-day-14June-contest,Puma-Training-PBD-26Aug,bbd-sports-allstyles,puma-train-for-power-new,puma-create-world-record,tbfg-fitfabulous-sports,tbfg-sportsfanatic,tbfg-sports-fitfabulous-brands-puma,tbfg-sportsfashion-athleisurelyyours-viewall,tbfg-sports-fitfabulous-day2-apparel,ndd-gurgaon,myntra-store-01,eors-tshirts-tops,eors-atheleisure,bss-uber-offer;zerotype;;Summer;bss-uber-offer;No
393744;B005-0206-WHITE-WHITE-393744;BU-MIDI BRIEF-2'S WHITE;On Hold - Sample;Briefs;Jockey;Adults-Women;Women;NA;;;Core;NA;2015;6,JOCKBREF01628,8,JOCKBREF01629,10,JOCKBREF01630,12,JOCKBREF01631;199.00;<p>NA</p>;<p>NA</p>;<p>NA</p>;<p>NA</p>;;NA;NA,next-day-delivery,ndd-gurgaon,myntra-store-01;Briefs;Jockey;Winter;myntra-store-01;No
393600;1615-Ice Pink-pink-393600;Jockey Essence Pink Bra;On Hold - Sample;Bra;Jockey;Adults-Women;Women;Sea Green;;;Core;Ethnic;2015;40B,JOCKBRAA00463,40C,JOCKBRAA00464;425.00;<p></p> <br>Owing to intimate nature of this product it is eligible for self-ship return only (no pick-up facility)</p>;<p></p>;<p></p>;<p></p>;;NA;k,next-day-delivery,ndd-gurgaon,myntra-store-01;Bra;;Winter;myntra-store-01;No
393586;1242-Skin-Skin-393586;Jockey Essence Beige Bra;On Hold - Sample;Bra;Jockey;Adults-Women;Women;Beige;;;Core;Ethnic;2015;40B,JOCKBRAA00423,40C,JOCKBRAA00424;465.00;<p></p> <br>Owing to intimate nature of this product it is eligible for self-ship return only (no pick-up facility)</p>;<p></p>;<p></p>;<p></p>;;NA;k,ndd-mumbai;Bra;;Winter;ndd-mumbai;No
363056;226I669-MUD GRAY-363056;7613125394102;On Hold - Sample;Bra;Triumph;Adults-Women;Women;NA;;;Fashion;NA;2017;34C,TRIHBRAA01928,36C,TRIHBRAA01929,38C,TRIHBRAA01930,40C,TRIHBRAA01931,34D,TRIHBRAA01932,36D,TRIHBRAA01933,38D,TRIHBRAA01934,40D,TRIHBRAA01935,34E,TRIHBRAA01936,36E,TRIHBRAA01937,38E,TRIHBRAA01938,40E,TRIHBRAA01939;1299.00;<p>60% Polyamide 35% Polyester 5% Elastane</p> <br>Owing to the intimate nature of this product it is eligible for self-ship return only (no pick-up facility)</p>;<p>NA</p>;<p>NA</p>;<p>NA</p>;;NA;,Lingeriefeb06,vdaym,lfb1500g20;Bra;Triumph;Summer;Season_Update_25Apr;No
335495;BW091-0012-Pink-335495;Allure;On Hold - Sample;Briefs;Bwitch;Adults-Women;Women;Bronze;;;Fashion;NA;2016;L/XL,BWCHBREF00047;299.00;<p>BlendedHILEBRIE</p>;;;;;;n,Lingeriefeb06,vdaym,tat-styles-31aug,ndd-gurgaon,myntra-store-01;Sipper;;Summer;myntra-store-01;No
335484;BW238-0030-Black*White-335484;Pearl;On Hold - Sample;Bra;Bwitch;Adults-Women;Women;Charcoal;;;Fashion;Party;2016;40E,BWCHBRAA01288,42C,BWCHBRAA01289,42D,BWCHBRAA01290,42E,BWCHBRAA01291;1495.00;<p>Brassiere Mic.Fibr/lace NonPaddedUnderWired [BW]</p> <br>Owing to the intimate nature of this product it is eligible for self-ship return only (no pick-up facility)</p>;<p>NA</p>;<p>NA</p>;<p>NA</p>;;NA;,HH-19aug,,,CITIOMG20AUG,,,Lingeriefeb06,vdaym,ndd-gurgaon,myntra-store-01;Bra;;Summer;myntra-store-01;No
335477;BW238-0059-Mushroom-335477;Isabelle;On Hold - Sample;Bra;Bwitch;Adults-Women;Women;Brown;;;Fashion;Travel;2016;42C,BWCHBRAA01242,42D,BWCHBRAA01243;999.00;<p>Brassiere Mic.Fibr/lace NonPaddedUnderWired [BW]</p> <br>Owing to the intimate nature of this product it is eligible for self-ship return only (no pick-up facility)</p>;;;;;;h,Lingeriefeb06,vdaym,ndd-gurgaon,myntra-store-01;Bra;;Summer;myntra-store-01;No
335476;BW239-0014-Ivory-335476;Fleur;On Hold - Sample;Bra;Bwitch;Adults-Women;Women;Cream;;;Fashion;Travel;2016;40E,BWCHBRAA01239,42C,BWCHBRAA01240,42D,BWCHBRAA01241;999.00;<p>Brassiere Stmesh*lace NonPaddedUnderWired [BW]</p> <br>Owing to intimate nature of this product it is eligible for self-ship return only (no pick-up facility)</p>;;;;;;h,Lingeriefeb06,vdaym,ndd-gurgaon,myntra-store-01;Bra;;Summer;myntra-store-01;No
255601;0RB3515-006/71-255601;006/71;Inactive - PMM - Catalog;Sunglasses;Ray-Ban;Adults-Men;Men;Grey;;;Fashion;Casual;2016;61,RYBNSGLS00399;7290.00;Lens colour: grey <br /> Lens feature: UV-protected lens <br /> Frame material: metal <br /> Frame style: full rim <br />Best suited for: oval face shape <br /> Comes in a signature Ray-Ban soft case<br /> Warranty: 12 months;These hip oval sunglasses from Ray-Ban will make a great addition to your stylish wardrobe. This grey pair can be matched with slim jeans and a button-down shirt for a laid-back lunch date.;Metal<br /> Remove dust and grime by gently wiping the lens with a cloth;;http://assets.myntassets.com/assets/images/sizechart/2016/4/25/11461584543399-Sunglasses_and_frames_size_chart.jpg;Ray-Ban Men Oval Sunglasses 0RB3515-006/71;Ray-Ban,holi-basket-mar,balloon-blast,balloon-blast-500,superhour-feb26,bfg-m2-wmn-sunglasses-acc,bfg-sunglasses,bfg-wanderlust-men-luxuryessentials,sunglass20-bfg,ndd-gurgaon,big10-mse-rayban,big10-350off,big10-coupon-offer,big10-super-hour25,sunglasses-frames-menu-rayban-lifestyle,gratification-jun2,hh-jun2,myntra-store-01,june-crush06,coupon-crush-jun6,wishlist-eors33,eors-wishlist14,eors-wishlist15,eors17-rsoff-coupon,eors17-perc-coupon,eorsjun17-uber-offer,wonder-hour-jun25,bss-uber-offer;Sunglasses;Ray-Ban;Winter;Image Mismatch;No
222665;81941101-puma silver-222665;Style Cats Halterneck Bikini;On Hold - Sample;Swimwear;Puma;Adults-Women;Women;;;;Fashion;;2013;M,PUMASWMW00037,L,PUMASWMW00038,XL,PUMASWMW00039;2499.00;<p>Main Material 1: 80% Nylon 20% Xtra Life Lycra, Tricot, 190 g/m² Main Material 2: 82% Polyester 18% Elastane, Tricot, 210 g/m² Lining 1: 100% Polyester, Jersey: Lining, 110 g/m²</p>;;;;;;brandd,,,,,,dailyopenoffer30,dailyopenoffer20,sportsstyle-puma,puma-all-styles,pumabrandday-all,,puma-brand-day-14June-apparel,puma-brand-day-14June-discsleeve,puma-brand-day-14June-main,puma-brand-day-14June-women,puma-brand-day-14June-contest,Puma-Sportstyle-PBD-26Aug,puma-forever-fearless,puma-collection-suede-new,puma-create-world-record,tbfg-fitfabulous-sports,tbfg-sportsfanatic,tbfg-sports-fitfabulous-brands-puma,tbfg-sports-fitfabulous-categories-swimwear,tbfg-sportsfashion-athleisurelyyours-viewall,ndd-gurgaon,myntra-store-01,bss-uber-offer;zerotype;;Winter;bss-uber-offer;No
