Style ID;Vendor Article Number;Vendor Article Name;Active Status;Article type;Brand;Age Group;Gender;Base Colour;Colour1;Colour2;Fashion Type;Usage;Year;Size - SKU code pair;MRP;Style Description;Style Note;Materials and Care Description;Size and Fit Description;Size Chart Path;Product Display Name;Tags;Product Type;Classification Brand;Season;Comments;Upload Images
1837670;AE1009617871-Coral-1837670;AERO GUYS GRAPHICS;Draft;Tshirts;Aeropostale;Adults-Men;Men;;;;Fashion;;2017;L,ARPETSHT00001158,M,ARPETSHT00001159,S,ARPETSHT00001160,XL,ARPETSHT00001161,XS,ARPETSHT00001162;1199.00;<p>Sailboat</p>;;<p>100% COTTON</p>;;;;;zerotype;;Summer;;No
1837668;AE1009614352-Green-1837668;AERO GUYS GRAPHICS;Draft;Tshirts;Aeropostale;Adults-Men;Men;;;;Fashion;;2017;L,ARPETSHT00001153,M,ARPETSHT00001154,S,ARPETSHT00001155,XL,ARPETSHT00001156,XS,ARPETSHT00001157;1599.00;<p>Cali bear dip dye</p>;;<p>100% COTTON</p>;;;;;zerotype;;Summer;;No
1837665;AE1009607047-Cream-1837665;AERO GUYS GRAPHICS;Draft;Tshirts;Aeropostale;Adults-Men;Men;;;;Fashion;;2017;L,ARPETSHT00001148,M,ARPETSHT00001149,S,ARPETSHT00001150,XL,ARPETSHT00001151,XS,ARPETSHT00001152;1599.00;<p>LA CA Photo Image</p>;;<p>100% COTTON</p>;;;;;zerotype;;Summer;;No
1837663;AE1009593415-Blue-1837663;AERO GUYS GRAPHICS;Draft;Tshirts;Aeropostale;Adults-Men;Men;;;;Fashion;;2017;L,ARPETSHT00001143,M,ARPETSHT00001144,S,ARPETSHT00001145,XL,ARPETSHT00001146,XS,ARPETSHT00001147;1599.00;<p>19 Aero 87</p>;;<p>100% COTTON</p>;;;;;zerotype;;Summer;;No
1837661;AE1009583771-Yellow-1837661;AERO GUYS GRAPHICS;Draft;Tshirts;Aeropostale;Adults-Men;Men;;;;Fashion;;2017;L,ARPETSHT00001138,M,ARPETSHT00001139,S,ARPETSHT00001140,XL,ARPETSHT00001141,XS,ARPETSHT00001142;799.00;<p>Cactus Image</p>;;<p>100% COTTON</p>;;;;;zerotype;;Summer;;No
1837659;AE1009506606-Red-1837659;AERO GUYS SS KNIT TOPS;Draft;Tshirts;Aeropostale;Adults-Men;Men;;;;Fashion;;2017;L,ARPETSHT00001133,M,ARPETSHT00001134,S,ARPETSHT00001135,XL,ARPETSHT00001136,XS,ARPETSHT00001137;1299.00;<p>PF Mall Henley</p>;;<p>100% COTTON</p>;;;;;zerotype;;Summer;;No
1837657;AE1009506415-Blue-1837657;AERO GUYS SS KNIT TOPS;Draft;Tshirts;Aeropostale;Adults-Men;Men;;;;Fashion;;2017;L,ARPETSHT00001128,M,ARPETSHT00001129,S,ARPETSHT00001130,XL,ARPETSHT00001131,XS,ARPETSHT00001132;1299.00;<p>PF Mall Henley</p>;;<p>100% COTTON</p>;;;;;zerotype;;Summer;;No
1837656;AE1009346768-Golden-1837656;AERO GUYS GRAPHICS;Draft;Tshirts;Aeropostale;Adults-Men;Men;;;;Fashion;;2017;L,ARPETSHT00001123,M,ARPETSHT00001124,S,ARPETSHT00001125,XL,ARPETSHT00001126,XS,ARPETSHT00001127;1399.00;<p>Aeropostale NYC</p>;;<p>100% COTTON</p>;;;;;zerotype;;Summer;;No
1837653;AE1009230487-Blue-1837653;AERO GUYS SS KNIT TOPS;Draft;Tshirts;Aeropostale;Adults-Men;Men;;;;Fashion;;2017;L,ARPETSHT00001112,M,ARPETSHT00001113,S,ARPETSHT00001114;1499.00;<p>Ombre striper</p>;;<p>100% COTTON</p>;;;;;zerotype;;Summer;;No
1837651;AE1009214047-Cream-1837651;AERO GUYS SS KNIT TOPS;Draft;Tshirts;Aeropostale;Adults-Men;Men;;;;Fashion;;2017;L,ARPETSHT00001103,M,ARPETSHT00001104,S,ARPETSHT00001105,XL,ARPETSHT00001106,XS,ARPETSHT00001107;1299.00;<p>SCAP Palm Strp</p>;;<p>100% COTTON</p>;;;;;zerotype;;Summer;;No
1837648;AE1009198138-Navy-1837648;AERO GUYS GRAPHICS;Draft;Tshirts;Aeropostale;Adults-Men;Men;;;;Fashion;;2017;L,ARPETSHT00001090,M,ARPETSHT00001091,S,ARPETSHT00001092,XL,ARPETSHT00001093,XS,ARPETSHT00001094;1199.00;<p>INTl NY Crest</p>;;<p>100% COTTON</p>;;;;;zerotype;;Summer;;No
1837647;AE1009198102-White-1837647;AERO GUYS GRAPHICS;Draft;Tshirts;Aeropostale;Adults-Men;Men;;;;Fashion;;2017;L,ARPETSHT00001086,M,ARPETSHT00001087,S,ARPETSHT00001088,XS,ARPETSHT00001089;1199.00;<p>NY with Crest</p>;;<p>100% COTTON</p>;;;;;zerotype;;Summer;;No
1837646;AE1009196030-Brown-1837646;AERO GUYS GRAPHICS;Draft;Tshirts;Aeropostale;Adults-Men;Men;;;;Fashion;;2017;L,ARPETSHT00001083,M,ARPETSHT00001084,S,ARPETSHT00001085;1599.00;<p>New York A</p>;;<p>100% COTTON</p>;;;;;zerotype;;Summer;;No
1837639;AE1009167468-Navy-1837639;AERO GUYS SS KNIT TOPS;Draft;Tshirts;Aeropostale;Adults-Men;Men;;;;Fashion;;2017;L,ARPETSHT00001053,M,ARPETSHT00001054,S,ARPETSHT00001055,XL,ARPETSHT00001056,XS,ARPETSHT00001057;1499.00;<p>SP1 Fctry Nep Henely</p>;;<p>100% COTTON</p>;;;;;zerotype;;Summer;;No
1837638;AE1009167041-Grey-1837638;AERO GUYS SS KNIT TOPS;Draft;Tshirts;Aeropostale;Adults-Men;Men;;;;Fashion;;2017;L,ARPETSHT00001048,M,ARPETSHT00001049,S,ARPETSHT00001050,XL,ARPETSHT00001051,XS,ARPETSHT00001052;1499.00;<p>SP1 Fctry Nep Henely</p>;;<p>100% COTTON</p>;;;;;zerotype;;Summer;;No
1837636;AE1009163041-Grey-1837636;AERO GUYS GRAPHICS;Draft;Tshirts;Aeropostale;Adults-Men;Men;;;;Fashion;;2017;L,ARPETSHT00001038,M,ARPETSHT00001039,S,ARPETSHT00001040,XL,ARPETSHT00001041,XS,ARPETSHT00001042;1599.00;<p>NYC crest</p>;;<p>100% COTTON</p>;;;;;zerotype;;Summer;;No
1837635;AE1009124404-NAVY-1837635;AERO GUYS GRAPHICS;Draft;Tshirts;Aeropostale;Adults-Men;Men;;;;Fashion;;2017;L,ARPETSHT00001033,M,ARPETSHT00001034,S,ARPETSHT00001035,XL,ARPETSHT00001036,XS,ARPETSHT00001037;999.00;<p>Sailboat Image</p>;;<p>100% COTTON</p>;;;;;zerotype;;Summer;;No
1837631;AE1009118404-Navy-1837631;AERO GUYS SS KNIT TOPS;Draft;Tshirts;Aeropostale;Adults-Men;Men;;;;Fashion;;2017;L,ARPETSHT00001015,M,ARPETSHT00001016,S,ARPETSHT00001017,XL,ARPETSHT00001018,XS,ARPETSHT00001019;1299.00;<p>SP1 Wide Strp</p>;;<p>100% COTTON</p>;;;;;zerotype;;Summer;;No
1837628;AE1009114413-Navy-1837628;AERO GUYS SS KNIT TOPS;Draft;Tshirts;Aeropostale;Adults-Men;Men;;;;Fashion;;2017;L,ARPETSHT00001001,M,ARPETSHT00001002,S,ARPETSHT00001003,XL,ARPETSHT00001004,XS,ARPETSHT00001005;1299.00;<p>SP2 Indig Pop Pckt</p>;;<p>100% COTTON</p>;;;;;zerotype;;Summer;;No
1837620;AE1009094459-Blue-1837620;AERO GUYS POLOS;Draft;Tshirts;Aeropostale;Adults-Men;Men;;;;Fashion;;2017;L,ARPETSHT00000962,M,ARPETSHT00000963,S,ARPETSHT00000964,XL,ARPETSHT00000965,XS,ARPETSHT00000966;1599.00;<p>SP1 Fctry Vrtcl Grphc</p>;;<p>100% COTTON</p>;;;;;zerotype;;Summer;;No
1837618;AE1009092001-Black-1837618;AERO GUYS POLOS;Draft;Tshirts;Aeropostale;Adults-Men;Men;;;;Fashion;;2017;L,ARPETSHT00000953,M,ARPETSHT00000954,XL,ARPETSHT00000955,XS,ARPETSHT00000956;1599.00;<p>SP1 Fctry Prt Dye Jrs</p>;;<p>100% COTTON</p>;;;;;zerotype;;Summer;;No
1837615;AE1009082620-Red-1837615;AERO GUYS GRAPHICS;Draft;Tshirts;Aeropostale;Adults-Men;Men;;;;Fashion;;2017;L,ARPETSHT00000939,M,ARPETSHT00000940,S,ARPETSHT00000941,XS,ARPETSHT00000942;1599.00;<p>Terry Aero</p>;;<p>100% COTTON</p>;;;;;zerotype;;Summer;;No
1837610;AE1008598620-Red-1837610;AERO GUYS SS KNIT TOPS;Draft;Tshirts;Aeropostale;Adults-Men;Men;;;;Fashion;;2017;L,ARPETSHT00000917,M,ARPETSHT00000918,S,ARPETSHT00000919,XL,ARPETSHT00000920,XS,ARPETSHT00000921;799.00;<p>V NECK TEE</p>;;<p>100% COTTON</p>;;;;;zerotype;;Summer;;No
1837609;AE1008598404-NAVY-1837609;AERO GUYS SS KNIT TOPS;Draft;Tshirts;Aeropostale;Adults-Men;Men;;;;Fashion;;2017;L,ARPETSHT00000912,M,ARPETSHT00000913,S,ARPETSHT00000914,XL,ARPETSHT00000915,XS,ARPETSHT00000916;799.00;<p>V NECK TEE</p>;;<p>100% COTTON</p>;;;;;zerotype;;Summer;;No
1837608;AE1008598115-Blue-1837608;AERO GUYS SS KNIT TOPS;Draft;Tshirts;Aeropostale;Adults-Men;Men;;;;Fashion;;2017;L,ARPETSHT00000907,M,ARPETSHT00000908,S,ARPETSHT00000909,XL,ARPETSHT00000910,XS,ARPETSHT00000911;799.00;<p>V NECK TEE</p>;;<p>100% COTTON</p>;;;;;zerotype;;Summer;;No
1837607;AE1008598053-Grey-1837607;AERO GUYS SS KNIT TOPS;Draft;Tshirts;Aeropostale;Adults-Men;Men;;;;Fashion;;2017;L,ARPETSHT00000902,M,ARPETSHT00000903,S,ARPETSHT00000904,XL,ARPETSHT00000905,XS,ARPETSHT00000906;799.00;<p>V NECK TEE</p>;;<p>100% COTTON</p>;;;;;zerotype;;Summer;;No
1837606;AE1008598047-Cream-1837606;AERO GUYS SS KNIT TOPS;Draft;Tshirts;Aeropostale;Adults-Men;Men;;;;Fashion;;2017;L,ARPETSHT00000897,M,ARPETSHT00000898,S,ARPETSHT00000899,XL,ARPETSHT00000900,XS,ARPETSHT00000901;799.00;<p>V NECK TEE</p>;;<p>100% COTTON</p>;;;;;zerotype;;Summer;;No
1837583;AE1006962480-Blue-1837583;AERO GUYS GRAPHICS;Draft;Tshirts;Aeropostale;Adults-Men;Men;;;;Fashion;;2017;L,ARPETSHT00000847,M,ARPETSHT00000848,S,ARPETSHT00000849,XL,ARPETSHT00000850,XS,ARPETSHT00000851;1599.00;<p>TSQ Veritcal</p>;;<p>100% COTTON</p>;;;;;zerotype;;Summer;;No
1837536;AE9006962102-Grey-1837536;AERO GUYS GRAPHICS;Draft;Tshirts;Aeropostale;Adults-Men;Men;;;;Fashion;;2017;L,ARPETSHT00000812,M,ARPETSHT00000813,S,ARPETSHT00000814,XL,ARPETSHT00000815,XS,ARPETSHT00000816;1599.00;<p>TSQ Veritcal</p>;;<p>100% COTTON</p>;;;;;zerotype;;Summer;;No
1837533;AE7445464-Blue-1837533;AERO GUYS POLOS;Draft;Tshirts;Aeropostale;Adults-Men;Men;;;;Fashion;;2017;L,ARPETSHT00000798,M,ARPETSHT00000799,S,ARPETSHT00000800,XS,ARPETSHT00000801;1999.00;<p>TSQ Polo</p>;;<p>100% COTTON</p>;;;;;zerotype;;Summer;;No
1837532;AE6453001-Black-1837532;AERO GUYS POLOS;Draft;Tshirts;Aeropostale;Adults-Men;Men;;;;Fashion;;2017;L,ARPETSHT00000795,M,ARPETSHT00000796,XL,ARPETSHT00000797;1499.00;<p>BTS THICK STRIPE</p>;;<p>100% COTTON</p>;;;;;zerotype;;Summer;;No
1837531;AE1010035620-Red-1837531;AERO GUYS POLOS;Draft;Tshirts;Aeropostale;Adults-Men;Men;;;;Fashion;;2017;L,ARPETSHT00000790,M,ARPETSHT00000791,S,ARPETSHT00000792,XL,ARPETSHT00000793,XS,ARPETSHT00000794;999.00;<p>COTTON POLY POLO</p>;;<p>100% COTTON</p>;;;;;zerotype;;Summer;;No
1837530;AE1010035404-NAVY-1837530;AERO GUYS POLOS;Draft;Tshirts;Aeropostale;Adults-Men;Men;;;;Fashion;;2017;L,ARPETSHT00000785,M,ARPETSHT00000786,S,ARPETSHT00000787,XL,ARPETSHT00000788,XS,ARPETSHT00000789;999.00;<p>COTTON POLY POLO</p>;;<p>100% COTTON</p>;;;;;zerotype;;Summer;;No
1837529;AE1010035001-Black-1837529;AERO GUYS POLOS;Draft;Tshirts;Aeropostale;Adults-Men;Men;;;;Fashion;;2017;L,ARPETSHT00000780,M,ARPETSHT00000781,S,ARPETSHT00000782,XL,ARPETSHT00000783,XS,ARPETSHT00000784;999.00;<p>COTTON POLY POLO</p>;;<p>100% COTTON</p>;;;;;zerotype;;Summer;;No
1837527;AE1010016842-Orange-1837527;AERO GUYS POLOS;Draft;Tshirts;Aeropostale;Adults-Men;Men;;;;Fashion;;2017;L,ARPETSHT00000770,M,ARPETSHT00000771,S,ARPETSHT00000772,XL,ARPETSHT00000773,XS,ARPETSHT00000774;1299.00;<p>SOLID POLO</p>;;<p>100% COTTON</p>;;;;;zerotype;;Summer;;No
1837525;AE1010016745-Yellow-1837525;AERO GUYS POLOS;Draft;Tshirts;Aeropostale;Adults-Men;Men;;;;Fashion;;2017;L,ARPETSHT00000762,M,ARPETSHT00000763,S,ARPETSHT00000764,XL,ARPETSHT00000765,XS,ARPETSHT00000766;1299.00;<p>SOLID POLO</p>;;<p>100% COTTON</p>;;;;;zerotype;;Summer;;No
1837523;AE1010016699-Pink-1837523;AERO GUYS POLOS;Draft;Tshirts;Aeropostale;Adults-Men;Men;;;;Fashion;;2017;L,ARPETSHT00000754,M,ARPETSHT00000755,S,ARPETSHT00000756,XL,ARPETSHT00000757,XS,ARPETSHT00000758;1299.00;<p>SOLID POLO</p>;;<p>100% COTTON</p>;;;;;zerotype;;Summer;;No
1837522;AE1010016683-Brown-1837522;AERO GUYS POLOS;Draft;Tshirts;Aeropostale;Adults-Men;Men;;;;Fashion;;2017;L,ARPETSHT00000749,M,ARPETSHT00000750,S,ARPETSHT00000751,XL,ARPETSHT00000752,XS,ARPETSHT00000753;1299.00;<p>SOLID POLO</p>;;<p>100% COTTON</p>;;;;;zerotype;;Summer;;No
1837518;AE1010016425-Blue-1837518;AERO GUYS POLOS;Draft;Tshirts;Aeropostale;Adults-Men;Men;;;;Fashion;;2017;L,ARPETSHT00000731,M,ARPETSHT00000732,S,ARPETSHT00000733,XL,ARPETSHT00000734,XS,ARPETSHT00000735;1299.00;<p>SOLID POLO</p>;;<p>100% COTTON</p>;;;;;zerotype;;Summer;;No
1837515;AE1010016368-Green-1837515;AERO GUYS POLOS;Draft;Tshirts;Aeropostale;Adults-Men;Men;;;;Fashion;;2017;L,ARPETSHT00000716,M,ARPETSHT00000717,S,ARPETSHT00000718,XL,ARPETSHT00000719,XS,ARPETSHT00000720;1299.00;<p>SOLID POLO</p>;;<p>100% COTTON</p>;;;;;zerotype;;Summer;;No
1837513;AE1010016162-Blue-1837513;AERO GUYS POLOS;Draft;Tshirts;Aeropostale;Adults-Men;Men;;;;Fashion;;2017;L,ARPETSHT00000708,M,ARPETSHT00000709,S,ARPETSHT00000710,XL,ARPETSHT00000711,XS,ARPETSHT00000712;1299.00;<p>SOLID POLO</p>;;<p>100% COTTON</p>;;;;;zerotype;;Summer;;No
1837511;AE1010016052-Grey-1837511;AERO GUYS POLOS;Draft;Tshirts;Aeropostale;Adults-Men;Men;;;;Fashion;;2017;L,ARPETSHT00000698,M,ARPETSHT00000699,S,ARPETSHT00000700,XL,ARPETSHT00000701,XS,ARPETSHT00000702;1299.00;<p>T-SHIRT</p>;;<p>100% COTTON</p>;;;;;zerotype;;Summer;;No
1837508;AE1010009969-Blue-1837508;AERO GUYS SS KNIT TOPS;Draft;Tshirts;Aeropostale;Adults-Men;Men;;;;Fashion;;2017;L,ARPETSHT00000684,M,ARPETSHT00000685,S,ARPETSHT00000686,XS,ARPETSHT00000687;599.00;<p>SOLID CREW NECK TEE</p>;;<p>100% COTTON</p>;;;;;zerotype;;Summer;;No
1837507;AE1010009745-Yellow-1837507;AERO GUYS SS KNIT TOPS;Draft;Tshirts;Aeropostale;Adults-Men;Men;;;;Fashion;;2017;L,ARPETSHT00000679,M,ARPETSHT00000680,S,ARPETSHT00000681,XL,ARPETSHT00000682,XS,ARPETSHT00000683;599.00;<p>SOLID CREW NECK TEE</p>;;<p>100% COTTON</p>;;;;;zerotype;;Summer;;No
1837506;AE1010009390-Multicolor-1837506;AERO GUYS SS KNIT TOPS;Draft;Tshirts;Aeropostale;Adults-Men;Men;;;;Fashion;;2017;L,ARPETSHT00000674,M,ARPETSHT00000675,S,ARPETSHT00000676,XL,ARPETSHT00000677,XS,ARPETSHT00000678;599.00;<p>SOLID CREW NECK TEE</p>;;<p>100% COTTON</p>;;;;;zerotype;;Summer;;No
1837505;AE1010009115-Blue-1837505;AERO GUYS SS KNIT TOPS;Draft;Tshirts;Aeropostale;Adults-Men;Men;;;;Fashion;;2017;L,ARPETSHT00000669,M,ARPETSHT00000670,S,ARPETSHT00000671,XL,ARPETSHT00000672,XS,ARPETSHT00000673;599.00;<p>SOLID CREW NECK TEE</p>;;<p>100% COTTON</p>;;;;;zerotype;;Summer;;No
1837504;AE1010009047-Cream-1837504;AERO GUYS SS KNIT TOPS;Draft;Tshirts;Aeropostale;Adults-Men;Men;;;;Fashion;;2017;L,ARPETSHT00000664,M,ARPETSHT00000665,S,ARPETSHT00000666,XL,ARPETSHT00000667,XS,ARPETSHT00000668;599.00;<p>SOLID CREW NECK TEE</p>;;<p>100% COTTON</p>;;;;;zerotype;;Summer;;No
1837503;AE1010009001-Black-1837503;AERO GUYS SS KNIT TOPS;Draft;Tshirts;Aeropostale;Adults-Men;Men;;;;Fashion;;2017;L,ARPETSHT00000659,M,ARPETSHT00000660,S,ARPETSHT00000661,XL,ARPETSHT00000662,XS,ARPETSHT00000663;599.00;<p>SOLID CREW NECK TEE</p>;;<p>100% COTTON</p>;;;;;zerotype;;Summer;;No
1837502;AE1009932047-Cream-1837502;AERO GUYS SS KNIT TOPS;Draft;Tshirts;Aeropostale;Adults-Men;Men;;;;Fashion;;2017;L,ARPETSHT00000654,M,ARPETSHT00000655,S,ARPETSHT00000656,XL,ARPETSHT00000657,XS,ARPETSHT00000658;1299.00;<p>Flag Tossed Print</p>;;<p>100% COTTON</p>;;;;;zerotype;;Summer;;No
1837501;AE1009931102-Grey-1837501;AERO GUYS SS KNIT TOPS;Draft;Tshirts;Aeropostale;Adults-Men;Men;;;;Fashion;;2017;L,ARPETSHT00000649,M,ARPETSHT00000650,S,ARPETSHT00000651,XL,ARPETSHT00000652,XS,ARPETSHT00000653;1299.00;<p>SM3 Fctry Colorblock</p>;;<p>100% COTTON</p>;;;;;zerotype;;Summer;;No
1837500;AE1009900871-Coral-1837500;AERO GUYS GRAPHICS;Draft;Tshirts;Aeropostale;Adults-Men;Men;;;;Fashion;;2017;L,ARPETSHT00000644,M,ARPETSHT00000645,S,ARPETSHT00000646,XL,ARPETSHT00000647,XS,ARPETSHT00000648;1199.00;<p>Est Aeropostale 1987</p>;;<p>100% COTTON</p>;;;;;zerotype;;Summer;;No
1837499;AE1009900147-Blue-1837499;AERO GUYS GRAPHICS;Draft;Tshirts;Aeropostale;Adults-Men;Men;;;;Fashion;;2017;L,ARPETSHT00000639,M,ARPETSHT00000640,S,ARPETSHT00000641,XL,ARPETSHT00000642,XS,ARPETSHT00000643;1199.00;<p>Est Aeropostale 1987</p>;;<p>100% COTTON</p>;;;;;zerotype;;Summer;;No
1837498;AE1009899001-Black-1837498;AERO GUYS GRAPHICS;Draft;Tshirts;Aeropostale;Adults-Men;Men;;;;Fashion;;2017;L,ARPETSHT00000634,M,ARPETSHT00000635,S,ARPETSHT00000636,XL,ARPETSHT00000637,XS,ARPETSHT00000638;999.00;<p>Aero Color Flag</p>;;<p>100% COTTON</p>;;;;;zerotype;;Summer;;No
1837497;AE1009895147-Blue-1837497;AERO GUYS GRAPHICS;Draft;Tshirts;Aeropostale;Adults-Men;Men;;;;Fashion;;2017;L,ARPETSHT00000629,M,ARPETSHT00000630,S,ARPETSHT00000631,XL,ARPETSHT00000632,XS,ARPETSHT00000633;1199.00;<p>Aero 5</p>;;<p>100% COTTON</p>;;;;;zerotype;;Summer;;No
1837496;AE1009893415-Blue-1837496;AERO GUYS GRAPHICS;Draft;Tshirts;Aeropostale;Adults-Men;Men;;;;Fashion;;2017;L,ARPETSHT00000624,M,ARPETSHT00000625,S,ARPETSHT00000626,XL,ARPETSHT00000627,XS,ARPETSHT00000628;999.00;<p>Aero NYC Scene</p>;;<p>100% COTTON</p>;;;;;zerotype;;Summer;;No
1837495;AE1009893102-Grey-1837495;AERO GUYS GRAPHICS;Draft;Tshirts;Aeropostale;Adults-Men;Men;;;;Fashion;;2017;L,ARPETSHT00000619,M,ARPETSHT00000620,S,ARPETSHT00000621,XL,ARPETSHT00000622,XS,ARPETSHT00000623;999.00;<p>Aero NYC Scene</p>;;<p>100% COTTON</p>;;;;;zerotype;;Summer;;No
1837494;AE1009890871-Coral-1837494;AERO GUYS GRAPHICS;Draft;Tshirts;Aeropostale;Adults-Men;Men;;;;Fashion;;2017;L,ARPETSHT00000614,M,ARPETSHT00000615,S,ARPETSHT00000616,XL,ARPETSHT00000617,XS,ARPETSHT00000618;1199.00;<p>Aeropostale A</p>;;<p>100% COTTON</p>;;;;;zerotype;;Summer;;No
1837493;AE1009890821-NA-1837493;AERO GUYS GRAPHICS;Draft;Tshirts;Aeropostale;Adults-Men;Men;;;;Fashion;;2017;L,ARPETSHT00000609,M,ARPETSHT00000610,S,ARPETSHT00000611,XL,ARPETSHT00000612,XS,ARPETSHT00000613;1199.00;<p>Aeropostale A</p>;;<p>100% COTTON</p>;;;;;zerotype;;Summer;;No
1837492;AE1009878842-Orange-1837492;AERO GUYS GRAPHICS;Draft;Tshirts;Aeropostale;Adults-Men;Men;;;;Fashion;;2017;L,ARPETSHT00000604,M,ARPETSHT00000605,S,ARPETSHT00000606,XL,ARPETSHT00000607,XS,ARPETSHT00000608;1199.00;<p>Aero Block NYC</p>;;<p>100% COTTON</p>;;;;;zerotype;;Summer;;No
1837491;AE1009878102-Grey-1837491;AERO GUYS GRAPHICS;Draft;Tshirts;Aeropostale;Adults-Men;Men;;;;Fashion;;2017;L,ARPETSHT00000599,M,ARPETSHT00000600,S,ARPETSHT00000601,XL,ARPETSHT00000602,XS,ARPETSHT00000603;1199.00;<p>Aero Block NYC</p>;;<p>100% COTTON</p>;;;;;zerotype;;Summer;;No
1837482;AE1009746871-Coral-1837482;AERO GUYS GRAPHICS;Draft;Tshirts;Aeropostale;Adults-Men;Men;;;;Fashion;;2017;L,ARPETSHT00000571,M,ARPETSHT00000572,S,ARPETSHT00000573,XL,ARPETSHT00000574,XS,ARPETSHT00000575;1399.00;<p>INTL AERO NYC</p>;;<p>100% COTTON</p>;;;;;zerotype;;Summer;;No
1837480;AE1009746487-Blue-1837480;AERO GUYS GRAPHICS;Draft;Tshirts;Aeropostale;Adults-Men;Men;;;;Fashion;;2017;L,ARPETSHT00000566,M,ARPETSHT00000567,S,ARPETSHT00000568,XL,ARPETSHT00000569,XS,ARPETSHT00000570;1399.00;<p>INTL AERO NYC</p>;;<p>100% COTTON</p>;;;;;zerotype;;Summer;;No
1837473;AE1009719052-Grey-1837473;AERO GUYS GRAPHICS;Draft;Tshirts;Aeropostale;Adults-Men;Men;;;;Fashion;;2017;L,ARPETSHT00000550,M,ARPETSHT00000551,S,ARPETSHT00000552;999.00;<p>NY Stars Flag</p>;;<p>100% COTTON</p>;;;;;zerotype;;Summer;;No
1837471;AE1009717487-Blue-1837471;AERO GUYS GRAPHICS;Draft;Tshirts;Aeropostale;Adults-Men;Men;;;;Fashion;;2017;L,ARPETSHT00000545,M,ARPETSHT00000546,S,ARPETSHT00000547,XL,ARPETSHT00000548,XS,ARPETSHT00000549;799.00;<p>Oversized NY</p>;;<p>100% COTTON</p>;;;;;zerotype;;Summer;;No
1837465;AE1009707001-Black-1837465;AERO GUYS GRAPHICS;Draft;Tshirts;Aeropostale;Adults-Men;Men;;;;Fashion;;2017;L,ARPETSHT00000532,M,ARPETSHT00000533,S,ARPETSHT00000534;1399.00;<p>Aero 1987 Diamond</p>;;<p>100% COTTON</p>;;;;;zerotype;;Summer;;No
1837459;AE1009700488-Blue-1837459;AERO GUYS SS KNIT TOPS;Draft;Tshirts;Aeropostale;Adults-Men;Men;;;;Fashion;;2017;L,ARPETSHT00000518,M,ARPETSHT00000519,S,ARPETSHT00000520,XL,ARPETSHT00000521,XS,ARPETSHT00000522;1499.00;<p>SP2 Mall Faux Indigo</p>;;<p>100% COTTON</p>;;;;;zerotype;;Summer;;No
1837457;AE1009690052-Grey-1837457;AERO GUYS GRAPHICS;Draft;Tshirts;Aeropostale;Adults-Men;Men;;;;Fashion;;2017;L,ARPETSHT00000514,M,ARPETSHT00000515,S,ARPETSHT00000516,XS,ARPETSHT00000517;799.00;<p>Aero NYC</p>;;<p>100% COTTON</p>;;;;;zerotype;;Summer;;No
1837455;AE1009687449-Blue-1837455;AERO GUYS GRAPHICS;Draft;Tshirts;Aeropostale;Adults-Men;Men;;;;Fashion;;2017;L,ARPETSHT00000509,M,ARPETSHT00000510,S,ARPETSHT00000511,XL,ARPETSHT00000512,XS,ARPETSHT00000513;799.00;<p>Aeropostale NYC</p>;;<p>100% COTTON</p>;;;;;zerotype;;Summer;;No
1836401;AE1010000425-Blue-1836401;AERO GUYS WOVEN TOPS;Draft;Shirts;Aeropostale;Adults-Men;Men;;;;Fashion;;2017;L,ARPESHRT00000143,M,ARPESHRT00000144,S,ARPESHRT00000145,XL,ARPESHRT00000146,XS,ARPESHRT00000147;1999.00;<p>COTTON LINEN</p>;;<p>60% COTTON / 40% Linnen</p>;;;;;zerotype;;Summer;;No
1836400;AE1010000102-Grey-1836400;AERO GUYS WOVEN TOPS;Draft;Shirts;Aeropostale;Adults-Men;Men;;;;Fashion;;2017;L,ARPESHRT00000138,M,ARPESHRT00000139,S,ARPESHRT00000140,XL,ARPESHRT00000141,XS,ARPESHRT00000142;1999.00;<p>COTTON LINEN</p>;;<p>60% COTTON / 40% Linnen</p>;;;;;zerotype;;Summer;;No
1836398;AE1009750683-Brown-1836398;AERO GUYS WOVEN TOPS;Draft;Shirts;Aeropostale;Adults-Men;Men;;;;Fashion;;2017;L,ARPESHRT00000128,M,ARPESHRT00000129,S,ARPESHRT00000130,XL,ARPESHRT00000131,XS,ARPESHRT00000132;1999.00;<p>INTL LS OXFORD SOLID</p>;;<p>100% COTTON</p>;;;;;zerotype;;Summer;;No
1836394;AE1009187415-Blue-1836394;AERO GUYS WOVEN TOPS;Draft;Shirts;Aeropostale;Adults-Men;Men;;;;Fashion;;2017;L,ARPESHRT00000110,M,ARPESHRT00000111,S,ARPESHRT00000112,XL,ARPESHRT00000113,XS,ARPESHRT00000114;2399.00;<p>LS MID SCALE MULTI G</p>;;<p>100% COTTON</p>;;;;;zerotype;;Summer;;No
1836389;AE1009175891-Blue-1836389;AERO GUYS WOVEN TOPS;Draft;Shirts;Aeropostale;Adults-Men;Men;;;;Fashion;;2017;L,ARPESHRT00000089,M,ARPESHRT00000090,S,ARPESHRT00000091;2399.00;<p>LS CTTN LINEN PLAID</p>;;<p>100% COTTON</p>;;;;;zerotype;;Summer;;No
1836388;AE1009175459-Blue-1836388;AERO GUYS WOVEN TOPS;Draft;Shirts;Aeropostale;Adults-Men;Men;;;;Fashion;;2017;L,ARPESHRT00000085,M,ARPESHRT00000086,S,ARPESHRT00000087,XS,ARPESHRT00000088;2399.00;<p>LS CTTN LINEN PLAID</p>;;<p>100% COTTON</p>;;;;;zerotype;;Summer;;No
1836385;AE1009161762-Blue-1836385;AERO GUYS WOVEN TOPS;Draft;Shirts;Aeropostale;Adults-Men;Men;;;;Fashion;;2017;L,ARPESHRT00000074,M,ARPESHRT00000075,S,ARPESHRT00000076;1999.00;<p>MICRO CHECKS</p>;;<p>100% COTTON</p>;;;;;zerotype;;Summer;;No
1836384;AE1009160102-Grey-1836384;AERO GUYS WOVEN TOPS;Draft;Shirts;Aeropostale;Adults-Men;Men;;;;Fashion;;2017;L,ARPESHRT00000070,M,ARPESHRT00000071,S,ARPESHRT00000072,XS,ARPESHRT00000073;2399.00;<p>LS BOAT PRINT</p>;;<p>100% COTTON</p>;;;;;zerotype;;Summer;;No
1836383;AE1009158415-Blue-1836383;AERO GUYS WOVEN TOPS;Draft;Shirts;Aeropostale;Adults-Men;Men;;;;Fashion;;2017;L,ARPESHRT00000065,M,ARPESHRT00000066,S,ARPESHRT00000067,XL,ARPESHRT00000068,XS,ARPESHRT00000069;2399.00;<p>LS GEO NAUTICAL PRIN</p>;;<p>100% COTTON</p>;;;;;zerotype;;Summer;;No
1836381;AE1009151487-Blue-1836381;AERO GUYS WOVEN TOPS;Draft;Shirts;Aeropostale;Adults-Men;Men;;;;Fashion;;2017;L,ARPESHRT00000055,M,ARPESHRT00000056,S,ARPESHRT00000057,XL,ARPESHRT00000058,XS,ARPESHRT00000059;2399.00;<p>LS FLOWER PRINTED OX</p>;;<p>100% COTTON</p>;;;;;zerotype;;Summer;;No
1836370;AE1010018404-Navy Blue-1836370;AERO GUYS SHORTS;Draft;Shorts;Aeropostale;Adults-Men;Men;;;;Fashion;;2017;28,ARPESHOR00000077,30,ARPESHOR00000078,32,ARPESHOR00000079,34,ARPESHOR00000080,38,ARPESHOR00000081;1599.00;<p>SOLID SHORTS MED WEIGHT</p>;;<p>100% Cotton</p>;;;;;zerotype;;Summer;;No
1836369;AE1010018192-Green-1836369;AERO GUYS SHORTS;Draft;Shorts;Aeropostale;Adults-Men;Men;;;;Fashion;;2017;28,ARPESHOR00000071,30,ARPESHOR00000072,32,ARPESHOR00000073,34,ARPESHOR00000074,36,ARPESHOR00000075,38,ARPESHOR00000076;1599.00;<p>SOLID SHORTS MED WEIGHT</p>;;<p>100% Cotton</p>;;;;;zerotype;;Summer;;No
1836368;AE1009141871-Coral-1836368;AERO GUYS ACTIVE SHORTS;Draft;Shorts;Aeropostale;Adults-Men;Men;;;;Fashion;;2017;L,ARPESHOR00000066,M,ARPESHOR00000067,S,ARPESHOR00000068,XL,ARPESHOR00000069,XS,ARPESHOR00000070;1499.00;<p>SCAP FCTY ARCH JOG</p>;;<p>100% Cotton</p>;;;;;zerotype;;Summer;;No
1836367;AE1009141415-Blue-1836367;AERO GUYS ACTIVE SHORTS;Draft;Shorts;Aeropostale;Adults-Men;Men;;;;Fashion;;2017;L,ARPESHOR00000061,M,ARPESHOR00000062,S,ARPESHOR00000063,XL,ARPESHOR00000064,XS,ARPESHOR00000065;1499.00;<p>SCAP FCTY ARCH JOG</p>;;<p>100% Cotton</p>;;;;;zerotype;;Summer;;No
1836366;AE1008970745-Yellow-1836366;AERO GUYS SHORTS;Draft;Shorts;Aeropostale;Adults-Men;Men;;;;Fashion;;2017;28,ARPESHOR00000055,30,ARPESHOR00000056,32,ARPESHOR00000057,34,ARPESHOR00000058,36,ARPESHOR00000059,38,ARPESHOR00000060;1799.00;<p>75 CLASSIC LENGTH</p>;;<p>100% Cotton</p>;;;;;zerotype;;Summer;;No
1836365;AE1008970629-Red-1836365;AERO GUYS SHORTS;Draft;Shorts;Aeropostale;Adults-Men;Men;;;;Fashion;;2017;28,ARPESHOR00000049,30,ARPESHOR00000050,32,ARPESHOR00000051,34,ARPESHOR00000052,36,ARPESHOR00000053,38,ARPESHOR00000054;1799.00;<p>75 CLASSIC LENGTH</p>;;<p>100% Cotton</p>;;;;;zerotype;;Summer;;No
1836364;AE1008970289-Brown-1836364;AERO GUYS SHORTS;Draft;Shorts;Aeropostale;Adults-Men;Men;;;;Fashion;;2017;28,ARPESHOR00000043,30,ARPESHOR00000044,32,ARPESHOR00000045,34,ARPESHOR00000046,36,ARPESHOR00000047,38,ARPESHOR00000048;1799.00;<p>75 CLASSIC LENGTH</p>;;<p>100% Cotton</p>;;;;;zerotype;;Summer;;No
1836363;AE1008970134-Blue-1836363;AERO GUYS SHORTS;Draft;Shorts;Aeropostale;Adults-Men;Men;;;;Fashion;;2017;28,ARPESHOR00000037,30,ARPESHOR00000038,32,ARPESHOR00000039,34,ARPESHOR00000040,36,ARPESHOR00000041,38,ARPESHOR00000042;1799.00;<p>75 CLASSIC LENGTH</p>;;<p>100% Cotton</p>;;;;;zerotype;;Summer;;No
1836362;AE1008970102-Brown-1836362;AERO GUYS SHORTS;Draft;Shorts;Aeropostale;Adults-Men;Men;;;;Fashion;;2017;28,ARPESHOR00000031,30,ARPESHOR00000032,32,ARPESHOR00000033,34,ARPESHOR00000034,36,ARPESHOR00000035,38,ARPESHOR00000036;1799.00;<p>75 CLASSIC LENGTH</p>;;<p>100% Cotton</p>;;;;;zerotype;;Summer;;No
1836350;AE9008507395-Green-1836350;AERO GUYS PANTS;Draft;Trousers;Aeropostale;Adults-Men;Men;;;;Fashion;;2017;L,ARPETRSR00000024,M,ARPETRSR00000025,S,ARPETRSR00000026,XL,ARPETRSR00000027;2499.00;<p>CAMO SPLATTER JOGGER</p>;;<p>100% COTTON</p>;<p>Slim Fit</p>;;;;zerotype;;Summer;;No
1836338;AE1010005060-Red-1836338;AERO GUYS PANTS;Draft;Trousers;Aeropostale;Adults-Men;Men;;;;Fashion;;2017;28,ARPETRSR00000001,30,ARPETRSR00000002,32,ARPETRSR00000003,36,ARPETRSR00000004,38,ARPETRSR00000005;2299.00;<p>SUPER SKINNY CHINO</p>;;<p>100% COTTON</p>;<p>Slim Fit</p>;;;;zerotype;;Summer;;No
1836333;AE6459469-Blue-1836333;AERO A GUYS UNDERWEAR;Draft;Boxers;Aeropostale;Adults-Men;Men;;;;Fashion;;2017;L,ARPEBOXR00000057,M,ARPEBOXR00000058,S,ARPEBOXR00000059,XL,ARPEBOXR00000060;799.00;<p>AERO PLAID WOVEN</p>;;<p>100% Cotton</p>;;;;;zerotype;;Summer;;No
1836332;AE6458469-Blue-1836332;AERO A GUYS UNDERWEAR;Draft;Boxers;Aeropostale;Adults-Men;Men;;;;Fashion;;2017;L,ARPEBOXR00000053,M,ARPEBOXR00000054,S,ARPEBOXR00000055,XL,ARPEBOXR00000056;799.00;<p>AERO STRP DOT WOVEN</p>;;<p>100% Cotton</p>;;;;;zerotype;;Summer;;No
1836331;AE6457653-Pink-1836331;AERO A GUYS UNDERWEAR;Draft;Boxers;Aeropostale;Adults-Men;Men;;;;Fashion;;2017;L,ARPEBOXR00000049,M,ARPEBOXR00000050,S,ARPEBOXR00000051,XL,ARPEBOXR00000052;799.00;<p>AERO CHECK WOVEN</p>;;<p>100% Cotton</p>;;;;;zerotype;;Summer;;No
1836330;AE6457469-Blue-1836330;AERO A GUYS UNDERWEAR;Draft;Boxers;Aeropostale;Adults-Men;Men;;;;Fashion;;2017;L,ARPEBOXR00000045,M,ARPEBOXR00000046,S,ARPEBOXR00000047,XL,ARPEBOXR00000048;799.00;<p>AERO CHECK WOVEN</p>;;<p>100% Cotton</p>;;;;;zerotype;;Summer;;No
1836329;AE6456600-Red-1836329;AERO A GUYS UNDERWEAR;Draft;Boxers;Aeropostale;Adults-Men;Men;;;;Fashion;;2017;L,ARPEBOXR00000041,M,ARPEBOXR00000042,S,ARPEBOXR00000043,XL,ARPEBOXR00000044;799.00;<p>AERO OFXORD WOVEN</p>;;<p>100% Cotton</p>;;;;;zerotype;;Summer;;No
1836328;AE6456469-Blue-1836328;AERO A GUYS UNDERWEAR;Draft;Boxers;Aeropostale;Adults-Men;Men;;;;Fashion;;2017;L,ARPEBOXR00000037,M,ARPEBOXR00000038,S,ARPEBOXR00000039,XL,ARPEBOXR00000040;799.00;<p>AERO OFXORD WOVEN</p>;;<p>100% Cotton</p>;;;;;zerotype;;Summer;;No
1836327;AE6285862-Black-1836327;AERO A GUYS UNDERWEAR;Draft;Boxers;Aeropostale;Adults-Men;Men;;;;Fashion;;2017;L,ARPEBOXR00000033,M,ARPEBOXR00000034,S,ARPEBOXR00000035,XL,ARPEBOXR00000036;799.00;<p>CLASSIC STRIPE TRUNK</p>;;<p>100% Cotton</p>;;;;;zerotype;;Summer;;No
1836326;AE6285419-Green-1836326;AERO A GUYS UNDERWEAR;Draft;Boxers;Aeropostale;Adults-Men;Men;;;;Fashion;;2017;L,ARPEBOXR00000029,M,ARPEBOXR00000030,S,ARPEBOXR00000031,XL,ARPEBOXR00000032;799.00;<p>CLASSIC STRIPE TRUNK</p>;;<p>100% Cotton</p>;;;;;zerotype;;Summer;;No
1836325;AE6285380-Multicolor-1836325;AERO A GUYS UNDERWEAR;Draft;Boxers;Aeropostale;Adults-Men;Men;;;;Fashion;;2017;L,ARPEBOXR00000025,M,ARPEBOXR00000026,S,ARPEBOXR00000027,XL,ARPEBOXR00000028;799.00;<p>CLASSIC STRIPE TRUNK</p>;;<p>100% Cotton</p>;;;;;zerotype;;Summer;;No
1836324;AE6283020-Grey-1836324;AERO A GUYS UNDERWEAR;Draft;Boxers;Aeropostale;Adults-Men;Men;;;;Fashion;;2017;L,ARPEBOXR00000021,M,ARPEBOXR00000022,S,ARPEBOXR00000023,XL,ARPEBOXR00000024;599.00;<p>AERO GLBL PRINT BRIEF</p>;;<p>100% Cotton</p>;;;;;zerotype;;Summer;;No
1836323;AE6278591-Multicolor-1836323;AERO A GUYS UNDERWEAR;Draft;Boxers;Aeropostale;Adults-Men;Men;;;;Fashion;;2017;L,ARPEBOXR00000017,M,ARPEBOXR00000018,S,ARPEBOXR00000019,XL,ARPEBOXR00000020;799.00;<p>CLASSIC STRIPE BRIEF</p>;;<p>100% Cotton</p>;;;;;zerotype;;Summer;;No
1836322;AE6278404-Navy Blue-1836322;AERO A GUYS UNDERWEAR;Draft;Boxers;Aeropostale;Adults-Men;Men;;;;Fashion;;2017;L,ARPEBOXR00000013,M,ARPEBOXR00000014,S,ARPEBOXR00000015,XL,ARPEBOXR00000016;799.00;<p>CLASSIC STRIPE BRIEF</p>;;<p>100% Cotton</p>;;;;;zerotype;;Summer;;No
1836321;AE6278380-Multicolor-1836321;AERO A GUYS UNDERWEAR;Draft;Boxers;Aeropostale;Adults-Men;Men;;;;Fashion;;2017;L,ARPEBOXR00000009,M,ARPEBOXR00000010,S,ARPEBOXR00000011,XL,ARPEBOXR00000012;799.00;<p>CLASSIC STRIPE BRIEF</p>;;<p>100% Cotton</p>;;;;;zerotype;;Summer;;No
1836320;AE5190620-Red-1836320;AERO A GUYS UNDERWEAR;Draft;Boxers;Aeropostale;Adults-Men;Men;;;;Fashion;;2017;L,ARPEBOXR00000005,M,ARPEBOXR00000006,S,ARPEBOXR00000007,XL,ARPEBOXR00000008;599.00;<p>AERO THCK STRP BRIEF</p>;;<p>100% Cotton</p>;;;;;zerotype;;Summer;;No
1836319;AE5181464-Blue-1836319;AERO A GUYS UNDERWEAR;Draft;Boxers;Aeropostale;Adults-Men;Men;;;;Fashion;;2017;L,ARPEBOXR00000001,M,ARPEBOXR00000002,S,ARPEBOXR00000003,XL,ARPEBOXR00000004;699.00;<p>AERO CORE TRUNK</p>;;<p>100% Cotton</p>;;;;;zerotype;;Summer;;No
1836312;AE1006890591-Burgundy-1836312;AERO GUYS ACTIVE PNT;Draft;Track Pants;Aeropostale;Adults-Men;Men;;;;Fashion;;2017;L,ARPETRPT00000010,M,ARPETRPT00000011,S,ARPETRPT00000012,XL,ARPETRPT00000013,XS,ARPETRPT00000014;2299.00;<p>SLIM PANT</p>;;<p>86% NYLON/14% Spandex</p>;<p>Slim Fit</p>;;;;zerotype;;Summer;;No
1836311;AE1006890052-Grey-1836311;AERO GUYS ACTIVE PNT;Draft;Track Pants;Aeropostale;Adults-Men;Men;;;;Fashion;;2017;L,ARPETRPT00000006,M,ARPETRPT00000007,S,ARPETRPT00000008,XS,ARPETRPT00000009;2299.00;<p>SLIM PANT</p>;;<p>86% NYLON/14% Spandex</p>;<p>Slim Fit</p>;;;;zerotype;;Summer;;No
1836310;AE6201001-Black-1836310;AERO GUYS ACTIVE PNT;Draft;Track Pants;Aeropostale;Adults-Men;Men;;;;Fashion;;2017;L,ARPETRPT00000001,M,ARPETRPT00000002,S,ARPETRPT00000003,XL,ARPETRPT00000004,XS,ARPETRPT00000005;699.00;<p>CAMISOLE</p>;;<p>86% NYLON/14% Spandex</p>;<p>Slim Fit</p>;;;;zerotype;;Summer;;No
