Style ID;Vendor Article Number;Vendor Article Name;Active Status;Article type;Brand;Age Group;Gender;Base Colour;Colour1;Colour2;Fashion Type;Usage;Year;Size - SKU code pair;MRP;Style Description;Style Note;Materials and Care Description;Size and Fit Description;Size Chart Path;Product Display Name;Tags;Product Type;Classification Brand;Season;Comments;Upload Images
2043170;BT-T1Z-KUDOS-BLACK-2043170;NKKUDOSBLAI28BTE;Draft;Trousers;Blackberrys;Adults-Men;Men;;;;Core;;2017;30,BKBRTRSR00007399,32,BKBRTRSR00007400,38,BKBRTRSR00007401,34,BKBRTRSR00007402,36,BKBRTRSR00007403;1695.00;<p>100%Cotton</p>;;<p>Machine Wash, Do not Bleach</p>;;;;;zerotype;;Winter;;No
2043169;BP-KEN91-JET BLACK-2043169;NKKEN91BLAI29BPM;Draft;Trousers;Blackberrys;Adults-Men;Men;;;;Core;;2017;30,BKBRTRSR00007394,32,BKBRTRSR00007395,38,BKBRTRSR00007396,34,BKBRTRSR00007397,36,BKBRTRSR00007398;1995.00;<p>98%Cotton2%Spandex</p>;;<p>Machine Wash, Do not Bleach</p>;;;;;zerotype;;Winter;;No
2043168;BP-KEN-DARK NAVY-2043168;NKKEN00NYAI22BPD;Draft;Trousers;Blackberrys;Adults-Men;Men;;;;Core;;2017;30,BKBRTRSR00007389,32,BKBRTRSR00007390,38,BKBRTRSR00007391,34,BKBRTRSR00007392,36,BKBRTRSR00007393;1995.00;<p>98%Cotton2%Spandex</p>;;<p>Machine Wash, Do not Bleach</p>;;;;;zerotype;;Winter;;No
2043167;NL-C8Z-TROY-TUSCON BROWN-2043167;NDTROOYBRBI25NLE;Draft;Trousers;Blackberrys;Adults-Men;Men;;;;Core;;2017;30,BKBRTRSR00007384,32,BKBRTRSR00007385,38,BKBRTRSR00007386,34,BKBRTRSR00007387,36,BKBRTRSR00007388;2195.00;<p>73%Terylene25%Rayon2%Spandex</p>;;<p>Machine Wash, Do not Bleach</p>;;;;;zerotype;;Winter;;No
2043165;BP-THRONE-CHARCOAL BLACK-2043165;NDTHRNEBLAI25BPM;Draft;Trousers;Blackberrys;Adults-Men;Men;;;;Core;;2017;30,BKBRTRSR00007376,32,BKBRTRSR00007377,34,BKBRTRSR00007378,36,BKBRTRSR00007379;1995.00;<p>76%Poly21%Viscose3%Lycra</p>;;<p>Machine Wash, Do not Bleach</p>;;;;;zerotype;;Winter;;No
2043164;BP-THRONE-FOSSIL BEIGE-2043164;NDTHRNEBGAI15BPM;Draft;Trousers;Blackberrys;Adults-Men;Men;;;;Core;;2017;30,BKBRTRSR00007372,32,BKBRTRSR00007373,34,BKBRTRSR00007374,36,BKBRTRSR00007375;1995.00;<p>76%Poly21%Viscose3%Lycra</p>;;<p>Machine Wash, Do not Bleach</p>;;;;;zerotype;;Winter;;No
2043163;BT-SUFFOLK-ALOE OLIVE-2043163;KHTM0188V2IA17FM;Draft;Trousers;Blackberrys;Adults-Men;Men;;;;Fashion;;2017;30,BKBRTRSR00007367,32,BKBRTRSR00007368,38,BKBRTRSR00007369,34,BKBRTRSR00007370,36,BKBRTRSR00007371;1995.00;<p>COTTON/STRETCH</p>;;<p>Machine Wash, Do not Bleach</p>;;;;;zerotype;;Summer;;No
2043162;BT-SUFFOLK-SAND KHAKI-2043162;KHTM0188K2IA17FM;Draft;Trousers;Blackberrys;Adults-Men;Men;;;;Fashion;;2017;30,BKBRTRSR00007362,32,BKBRTRSR00007363,38,BKBRTRSR00007364,34,BKBRTRSR00007365,36,BKBRTRSR00007366;1995.00;<p>COTTON/STRETCH</p>;;<p>Machine Wash, Do not Bleach</p>;;;;;zerotype;;Summer;;No
2043161;BT-SUFFOLK-DEW BEIGE-2043161;KHTM0188A2IA17FM;Draft;Trousers;Blackberrys;Adults-Men;Men;;;;Fashion;;2017;30,BKBRTRSR00007357,32,BKBRTRSR00007358,38,BKBRTRSR00007359,34,BKBRTRSR00007360,36,BKBRTRSR00007361;1995.00;<p>COTTON/STRETCH</p>;;<p>Machine Wash, Do not Bleach</p>;;;;;zerotype;;Summer;;No
2043160;BT-TONBRIDGE-MIDNIGHT NAVY-2043160;KHTM0184N1IA17FE;Draft;Trousers;Blackberrys;Adults-Men;Men;;;;Fashion;;2017;30,BKBRTRSR00007352,32,BKBRTRSR00007353,38,BKBRTRSR00007354,34,BKBRTRSR00007355,36,BKBRTRSR00007356;2195.00;<p>COTTON/STRETCH</p>;;<p>Machine Wash, Do not Bleach</p>;;;;;zerotype;;Summer;;No
2043159;BT-TONBRIDGE-CHOCOLATE BROWN-2043159;KHTM0184C3IA17FE;Draft;Trousers;Blackberrys;Adults-Men;Men;;;;Fashion;;2017;30,BKBRTRSR00007347,32,BKBRTRSR00007348,38,BKBRTRSR00007349,34,BKBRTRSR00007350,36,BKBRTRSR00007351;2195.00;<p>COTTON/STRETCH</p>;;<p>Machine Wash, Do not Bleach</p>;;;;;zerotype;;Summer;;No
2043158;BT-VICTOR-JET BLACK-2043158;KHTM0176Z2IA17FM;Draft;Trousers;Blackberrys;Adults-Men;Men;;;;Fashion;;2017;30,BKBRTRSR00007342,32,BKBRTRSR00007343,38,BKBRTRSR00007344,34,BKBRTRSR00007345,36,BKBRTRSR00007346;2195.00;<p>COTTON/STRETCH</p>;;<p>Machine Wash, Do not Bleach</p>;;;;;zerotype;;Summer;;No
2043157;BT-VICTOR-TWILIGHT NAVY-2043157;KHTM0176B3IA17FM;Draft;Trousers;Blackberrys;Adults-Men;Men;;;;Fashion;;2017;30,BKBRTRSR00007337,32,BKBRTRSR00007338,38,BKBRTRSR00007339,34,BKBRTRSR00007340,36,BKBRTRSR00007341;2195.00;<p>COTTON/STRETCH</p>;;<p>Machine Wash, Do not Bleach</p>;;;;;zerotype;;Summer;;No
2043155;BT-DESTO-Tan-2043155;KHTM0175A3IA17FM;Draft;Trousers;Blackberrys;Adults-Men;Men;;;;Fashion;;2017;30,BKBRTRSR00007327,32,BKBRTRSR00007328,38,BKBRTRSR00007329,34,BKBRTRSR00007330,36,BKBRTRSR00007331;2195.00;<p>COTTON/STRETCH</p>;;<p>Machine Wash, Do not Bleach</p>;;;;;zerotype;;Summer;;No
2043154;BT-DESTO-PEARL WHITE-2043154;KHTM0175A1IA17FM;Draft;Trousers;Blackberrys;Adults-Men;Men;;;;Fashion;;2017;30,BKBRTRSR00007322,32,BKBRTRSR00007323,38,BKBRTRSR00007324,34,BKBRTRSR00007325,36,BKBRTRSR00007326;2195.00;<p>COTTON/STRETCH</p>;;<p>Machine Wash, Do not Bleach</p>;;;;;zerotype;;Summer;;No
2043153;BT-HUNT-JET BLACK-2043153;KHTM0171Z2IA17FE;Draft;Trousers;Blackberrys;Adults-Men;Men;;;;Fashion;;2017;30,BKBRTRSR00007317,32,BKBRTRSR00007318,38,BKBRTRSR00007319,34,BKBRTRSR00007320,36,BKBRTRSR00007321;2195.00;<p>COTTON/STRETCH</p>;;<p>Machine Wash, Do not Bleach</p>;;;;;zerotype;;Summer;;No
2043152;BT-HUNT-STEEL GREY-2043152;KHTM0171G2IA17FE;Draft;Trousers;Blackberrys;Adults-Men;Men;;;;Fashion;;2017;30,BKBRTRSR00007312,32,BKBRTRSR00007313,38,BKBRTRSR00007314,34,BKBRTRSR00007315,36,BKBRTRSR00007316;2195.00;<p>COTTON/STRETCH</p>;;<p>Machine Wash, Do not Bleach</p>;;;;;zerotype;;Summer;;No
2043151;BT-HUNT-Tan-2043151;KHTM0171A3IA17FE;Draft;Trousers;Blackberrys;Adults-Men;Men;;;;Fashion;;2017;30,BKBRTRSR00007307,32,BKBRTRSR00007308,38,BKBRTRSR00007309,34,BKBRTRSR00007310,36,BKBRTRSR00007311;2195.00;<p>COTTON/STRETCH</p>;;<p>Machine Wash, Do not Bleach</p>;;;;;zerotype;;Summer;;No
2043150;BT-HUNT-STONE BEIGE-2043150;KHTM0171A2IA17FE;Draft;Trousers;Blackberrys;Adults-Men;Men;;;;Fashion;;2017;30,BKBRTRSR00007302,32,BKBRTRSR00007303,38,BKBRTRSR00007304,34,BKBRTRSR00007305,36,BKBRTRSR00007306;2195.00;<p>COTTON/STRETCH</p>;;<p>Machine Wash, Do not Bleach</p>;;;;;zerotype;;Summer;;No
2043148;BT-BRIAN-OYESTER KHAKI-2043148;KHTM0170K2IA17FE;Draft;Trousers;Blackberrys;Adults-Men;Men;;;;Fashion;;2017;30,BKBRTRSR00007297,32,BKBRTRSR00007298,38,BKBRTRSR00007299,34,BKBRTRSR00007300,36,BKBRTRSR00007301;2395.00;<p>COTTON/STRETCH</p>;;<p>Machine Wash, Do not Bleach</p>;;;;;zerotype;;Summer;;No
2043147;BT-BRIAN-ANTIQUE BROWN-2043147;KHTM0170C1IA17FE;Draft;Trousers;Blackberrys;Adults-Men;Men;;;;Fashion;;2017;32,BKBRTRSR00007293,38,BKBRTRSR00007294,34,BKBRTRSR00007295,36,BKBRTRSR00007296;2395.00;<p>COTTON/STRETCH</p>;;<p>Machine Wash, Do not Bleach</p>;;;;;zerotype;;Summer;;No
2043146;BT-BRIAN-TWILIGHT NAVY-2043146;KHTM0170B3IA17FE;Draft;Trousers;Blackberrys;Adults-Men;Men;;;;Fashion;;2017;32,BKBRTRSR00007289,38,BKBRTRSR00007290,34,BKBRTRSR00007291,36,BKBRTRSR00007292;2395.00;<p>COTTON/STRETCH</p>;;<p>Machine Wash, Do not Bleach</p>;;;;;zerotype;;Summer;;No
2043145;BT-TOBY-WOOD BROWN-2043145;KHTM0169C2IA17FM;Draft;Trousers;Blackberrys;Adults-Men;Men;;;;Fashion;;2017;30,BKBRTRSR00007284,32,BKBRTRSR00007285,38,BKBRTRSR00007286,34,BKBRTRSR00007287,36,BKBRTRSR00007288;1995.00;<p>COTTON/STRETCH</p>;;<p>Machine Wash, Do not Bleach</p>;;;;;zerotype;;Summer;;No
2043144;BT-TOBY-Tan-2043144;KHTM0169A3IA17FM;Draft;Trousers;Blackberrys;Adults-Men;Men;;;;Fashion;;2017;30,BKBRTRSR00007279,32,BKBRTRSR00007280,38,BKBRTRSR00007281,34,BKBRTRSR00007282,36,BKBRTRSR00007283;1995.00;<p>COTTON/STRETCH</p>;;<p>Machine Wash, Do not Bleach</p>;;;;;zerotype;;Summer;;No
2043143;BT-FORLAN-OYESTER KHAKI-2043143;KHTM0148K2IA17FE;Draft;Trousers;Blackberrys;Adults-Men;Men;;;;Fashion;;2017;30,BKBRTRSR00007274,32,BKBRTRSR00007275,38,BKBRTRSR00007276,34,BKBRTRSR00007277,36,BKBRTRSR00007278;2395.00;<p>COTTON/STRETCH</p>;;<p>Machine Wash, Do not Bleach</p>;;;;;zerotype;;Summer;;No
2043142;BT-FORLAN-TWILIGHT NAVY-2043142;KHTM0148B3IA17FE;Draft;Trousers;Blackberrys;Adults-Men;Men;;;;Fashion;;2017;30,BKBRTRSR00007269,32,BKBRTRSR00007270,38,BKBRTRSR00007271,34,BKBRTRSR00007272,36,BKBRTRSR00007273;2395.00;<p>COTTON/STRETCH</p>;;<p>Machine Wash, Do not Bleach</p>;;;;;zerotype;;Summer;;No
2043141;BT-FORLAN-PEARL WHITE-2043141;KHTM0148A1IA17FE;Draft;Trousers;Blackberrys;Adults-Men;Men;;;;Fashion;;2017;30,BKBRTRSR00007264,32,BKBRTRSR00007265,38,BKBRTRSR00007266,34,BKBRTRSR00007267,36,BKBRTRSR00007268;2395.00;<p>COTTON/STRETCH</p>;;<p>Machine Wash, Do not Bleach</p>;;;;;zerotype;;Summer;;No
2043140;BT-ESCOBAR-JET BLACK-2043140;KHTM0147Z2IA17FE;Draft;Trousers;Blackberrys;Adults-Men;Men;;;;Fashion;;2017;30,BKBRTRSR00007259,32,BKBRTRSR00007260,38,BKBRTRSR00007261,34,BKBRTRSR00007262,36,BKBRTRSR00007263;2395.00;<p>COTTON/STRETCH</p>;;<p>Machine Wash, Do not Bleach</p>;;;;;zerotype;;Summer;;No
2043139;BT-ESCOBAR-DEEP NAVY-2043139;KHTM0147N2IA17FE;Draft;Trousers;Blackberrys;Adults-Men;Men;;;;Fashion;;2017;30,BKBRTRSR00007254,32,BKBRTRSR00007255,38,BKBRTRSR00007256,34,BKBRTRSR00007257,36,BKBRTRSR00007258;2395.00;<p>COTTON/STRETCH</p>;;<p>Machine Wash, Do not Bleach</p>;;;;;zerotype;;Summer;;No
2043138;BT-ESCOBAR-SAND KHAKI-2043138;KHTM0147K2IA17FE;Draft;Trousers;Blackberrys;Adults-Men;Men;;;;Fashion;;2017;30,BKBRTRSR00007249,32,BKBRTRSR00007250,38,BKBRTRSR00007251,34,BKBRTRSR00007252,36,BKBRTRSR00007253;2395.00;<p>COTTON/STRETCH</p>;;<p>Machine Wash, Do not Bleach</p>;;;;;zerotype;;Summer;;No
2043137;BT-ESCOBAR-ASH GREY-2043137;KHTM0147G1IA17FE;Draft;Trousers;Blackberrys;Adults-Men;Men;;;;Fashion;;2017;30,BKBRTRSR00007244,32,BKBRTRSR00007245,38,BKBRTRSR00007246,34,BKBRTRSR00007247,36,BKBRTRSR00007248;2395.00;<p>COTTON/STRETCH</p>;;<p>Machine Wash, Do not Bleach</p>;;;;;zerotype;;Summer;;No
2043136;BP-WAYNES-B95-SAND KHAKI-2043136;KHPM0140K2IA17FE;Draft;Trousers;Blackberrys;Adults-Men;Men;;;;Fashion;;2017;30,BKBRTRSR00007239,32,BKBRTRSR00007240,38,BKBRTRSR00007241,34,BKBRTRSR00007242,36,BKBRTRSR00007243;2195.00;<p>COTTON/STRETCH</p>;;<p>Machine Wash, Do not Bleach</p>;;;;;zerotype;;Summer;;No
2043135;BP-CREDEN-FLINT BLUE-2043135;DLPM0375B2IA17FE;Draft;Trousers;Blackberrys;Adults-Men;Men;;;;Fashion;;2017;30,BKBRTRSR00007234,32,BKBRTRSR00007235,38,BKBRTRSR00007236,34,BKBRTRSR00007237,36,BKBRTRSR00007238;2195.00;<p>Polyester 63% Rayon 35 % Lycra 2%</p>;;<p>Machine Wash, Do not Bleach</p>;;;;;zerotype;;Summer;;No
2043133;BP-WALSKI-EMERY BLACK-2043133;DLPM0355Z1IA17FE;Draft;Trousers;Blackberrys;Adults-Men;Men;;;;Fashion;;2017;30,BKBRTRSR00007229,32,BKBRTRSR00007230,38,BKBRTRSR00007231,34,BKBRTRSR00007232,36,BKBRTRSR00007233;1995.00;<p>Polyester 79% Rayon 21%</p>;;<p>Machine Wash, Do not Bleach</p>;;;;;zerotype;;Summer;;No
2043132;BP-WALSKI-MAGNA NAVY-2043132;DLPM0355N1IA17FE;Draft;Trousers;Blackberrys;Adults-Men;Men;;;;Fashion;;2017;30,BKBRTRSR00007224,32,BKBRTRSR00007225,38,BKBRTRSR00007226,34,BKBRTRSR00007227,36,BKBRTRSR00007228;1995.00;<p>Polyester 79% Rayon 21%</p>;;<p>Machine Wash, Do not Bleach</p>;;;;;zerotype;;Summer;;No
2043131;BP-WALSKI-DARK GREY-2043131;DLPM0355G3IA17FE;Draft;Trousers;Blackberrys;Adults-Men;Men;;;;Fashion;;2017;30,BKBRTRSR00007219,32,BKBRTRSR00007220,38,BKBRTRSR00007221,34,BKBRTRSR00007222,36,BKBRTRSR00007223;1995.00;<p>Polyester 79% Rayon 21%</p>;;<p>Machine Wash, Do not Bleach</p>;;;;;zerotype;;Summer;;No
2043130;BP-RHYME-MAGNA NAVY-2043130;DLPM0351N1IA17FE;Draft;Trousers;Blackberrys;Adults-Men;Men;;;;Fashion;;2017;32,BKBRTRSR00007215,38,BKBRTRSR00007216,34,BKBRTRSR00007217,36,BKBRTRSR00007218;1795.00;<p>Polyester 80% viscose 20%</p>;;<p>Machine Wash, Do not Bleach</p>;;;;;zerotype;;Summer;;No
2043129;BP-RHYME-SLATE GREY-2043129;DLPM0351G6IA17FE;Draft;Trousers;Blackberrys;Adults-Men;Men;;;;Fashion;;2017;30,BKBRTRSR00007210,32,BKBRTRSR00007211,38,BKBRTRSR00007212,34,BKBRTRSR00007213,36,BKBRTRSR00007214;1795.00;<p>Polyester 80% viscose 20%</p>;;<p>Machine Wash, Do not Bleach</p>;;;;;zerotype;;Summer;;No
2043127;BP-MAGNON-NAVY-2043127;DLPM0347N2IA17FE;Draft;Trousers;Blackberrys;Adults-Men;Men;;;;Fashion;;2017;30,BKBRTRSR00007200,32,BKBRTRSR00007201,38,BKBRTRSR00007202,34,BKBRTRSR00007203,36,BKBRTRSR00007204;2195.00;<p>TERYLENE 65 % RAYON 35 %</p>;;<p>Machine Wash, Do not Bleach</p>;;;;;zerotype;;Summer;;No
2043125;BP-GELLERT-MAGNA NAVY-2043125;DLPM0329N1IA17FE;Draft;Trousers;Blackberrys;Adults-Men;Men;;;;Fashion;;2017;32,BKBRTRSR00007196,38,BKBRTRSR00007197,34,BKBRTRSR00007198,36,BKBRTRSR00007199;1995.00;<p>Polyester 66% Vicose 32% Elastane 02%</p>;;<p>Machine Wash, Do not Bleach</p>;;;;;zerotype;;Summer;;No
2043124;BP-GELLERT-SLATE GREY-2043124;DLPM0329G6IA17FE;Draft;Trousers;Blackberrys;Adults-Men;Men;;;;Fashion;;2017;32,BKBRTRSR00007192,38,BKBRTRSR00007193,34,BKBRTRSR00007194,36,BKBRTRSR00007195;1995.00;<p>Polyester 66% Vicose 32% Elastane 02%</p>;;<p>Machine Wash, Do not Bleach</p>;;;;;zerotype;;Summer;;No
2043121;BP-ROVEN-FROST BLACK-2043121;DLPM0294Z1IA17FE;Draft;Trousers;Blackberrys;Adults-Men;Men;;;;Fashion;;2017;30,BKBRTRSR00007177,32,BKBRTRSR00007178,38,BKBRTRSR00007179,34,BKBRTRSR00007180,36,BKBRTRSR00007181;2195.00;<p>Polyester 65% Rayon 35%</p>;;<p>Machine Wash, Do not Bleach</p>;;;;;zerotype;;Summer;;No
2043120;BP-ROVEN-DEEP NAVY-2043120;DLPM0294N2IA17FE;Draft;Trousers;Blackberrys;Adults-Men;Men;;;;Fashion;;2017;30,BKBRTRSR00007172,32,BKBRTRSR00007173,38,BKBRTRSR00007174,34,BKBRTRSR00007175,36,BKBRTRSR00007176;2195.00;<p>Polyester 65% Rayon 35%</p>;;<p>Machine Wash, Do not Bleach</p>;;;;;zerotype;;Summer;;No
2043119;BP-ROVEN-DENIM GREY-2043119;DLPM0294G3IA17FE;Draft;Trousers;Blackberrys;Adults-Men;Men;;;;Fashion;;2017;30,BKBRTRSR00007167,32,BKBRTRSR00007168,38,BKBRTRSR00007169,34,BKBRTRSR00007170,36,BKBRTRSR00007171;2195.00;<p>Polyester 65% Rayon 35%</p>;;<p>Machine Wash, Do not Bleach</p>;;;;;zerotype;;Summer;;No
2043118;BP-KIERO-BLACK-2043118;DLPM0164Z1IA17FE;Draft;Trousers;Blackberrys;Adults-Men;Men;;;;Fashion;;2017;30,BKBRTRSR00007162,32,BKBRTRSR00007163,38,BKBRTRSR00007164,34,BKBRTRSR00007165,36,BKBRTRSR00007166;1995.00;<p>Polyester 65% Rayon 35%</p>;;<p>Machine Wash, Do not Bleach</p>;;;;;zerotype;;Summer;;No
2043117;BP-KIERO-ASH GREY-2043117;DLPM0164G1IA17FE;Draft;Trousers;Blackberrys;Adults-Men;Men;;;;Fashion;;2017;30,BKBRTRSR00007157,32,BKBRTRSR00007158,38,BKBRTRSR00007159,34,BKBRTRSR00007160,36,BKBRTRSR00007161;1995.00;<p>Polyester 65% Rayon 35%</p>;;<p>Machine Wash, Do not Bleach</p>;;;;;zerotype;;Summer;;No
2043116;BP-KIERO-BEIGE-2043116;DLPM0164A2IA17FE;Draft;Trousers;Blackberrys;Adults-Men;Men;;;;Fashion;;2017;30,BKBRTRSR00007152,32,BKBRTRSR00007153,38,BKBRTRSR00007154,34,BKBRTRSR00007155,36,BKBRTRSR00007156;1995.00;<p>Polyester 65% Rayon 35%</p>;;<p>Machine Wash, Do not Bleach</p>;;;;;zerotype;;Summer;;No
2043114;BL-BLACK-119-SATURN BLACK-2043114;DLNM0308Z2IA17FE;Draft;Trousers;Blackberrys;Adults-Men;Men;;;;Fashion;;2017;30,BKBRTRSR00007147,32,BKBRTRSR00007148;2195.00;<p>TERYLENE 76% RAYON 22 % SPANDEX 02%</p>;;<p>Machine Wash, Do not Bleach</p>;;;;;zerotype;;Summer;;No
2043113;NL-GRAVES-EMERY BLACK-2043113;DLNM0307Z1IA17FE;Draft;Trousers;Blackberrys;Adults-Men;Men;;;;Fashion;;2017;30,BKBRTRSR00007142,32,BKBRTRSR00007143,38,BKBRTRSR00007144,34,BKBRTRSR00007145,36,BKBRTRSR00007146;1995.00;<p>Polyester 65% Rayon 35%</p>;;<p>Machine Wash, Do not Bleach</p>;;;;;zerotype;;Summer;;No
2043111;NL-GRAVES-DARK GREY-2043111;DLNM0307G3IA17FE;Draft;Trousers;Blackberrys;Adults-Men;Men;;;;Fashion;;2017;30,BKBRTRSR00007137,32,BKBRTRSR00007138,38,BKBRTRSR00007139,34,BKBRTRSR00007140,36,BKBRTRSR00007141;1995.00;<p>Polyester 65% Rayon 35%</p>;;<p>Machine Wash, Do not Bleach</p>;;;;;zerotype;;Summer;;No
2043110;NL-GRAVES-FOSSILE BEIGE-2043110;DLNM0307A1IA17FE;Draft;Trousers;Blackberrys;Adults-Men;Men;;;;Fashion;;2017;30,BKBRTRSR00007132,32,BKBRTRSR00007133,38,BKBRTRSR00007134,34,BKBRTRSR00007135,36,BKBRTRSR00007136;1995.00;<p>Polyester 65% Rayon 35%</p>;;<p>Machine Wash, Do not Bleach</p>;;;;;zerotype;;Summer;;No
2043109;NL-NEWT-MAGNA NAVY-2043109;DLNM0306N1IA17FE;Draft;Trousers;Blackberrys;Adults-Men;Men;;;;Fashion;;2017;30,BKBRTRSR00007127,32,BKBRTRSR00007128,38,BKBRTRSR00007129,34,BKBRTRSR00007130,36,BKBRTRSR00007131;2395.00;<p>Catonic 75% Rayon 25%</p>;;<p>Machine Wash, Do not Bleach</p>;;;;;zerotype;;Summer;;No
2043108;NL-NEWT-DARK GREY-2043108;DLNM0306G3IA17FE;Draft;Trousers;Blackberrys;Adults-Men;Men;;;;Fashion;;2017;30,BKBRTRSR00007122,32,BKBRTRSR00007123,38,BKBRTRSR00007124,34,BKBRTRSR00007125,36,BKBRTRSR00007126;2395.00;<p>Catonic 75% Rayon 25%</p>;;<p>Machine Wash, Do not Bleach</p>;;;;;zerotype;;Summer;;No
2043107;NL-NEWT-CHOCO BROWN-2043107;DLNM0306C3IA17FE;Draft;Trousers;Blackberrys;Adults-Men;Men;;;;Fashion;;2017;30,BKBRTRSR00007117,32,BKBRTRSR00007118,38,BKBRTRSR00007119,34,BKBRTRSR00007120,36,BKBRTRSR00007121;2395.00;<p>Catonic 75% Rayon 25%</p>;;<p>Machine Wash, Do not Bleach</p>;;;;;zerotype;;Summer;;No
2043106;NL-STRAIGHT-DARK NAVY-2043106;DLNM0304N2IA17FE;Draft;Trousers;Blackberrys;Adults-Men;Men;;;;Fashion;;2017;30,BKBRTRSR00007113,32,BKBRTRSR00007114,38,BKBRTRSR00007115,34,BKBRTRSR00007116;2395.00;<p>TERYLENE 85% RAYON 15%</p>;;<p>Machine Wash, Do not Bleach</p>;;;;;zerotype;;Summer;;No
2043105;NL-STRAIGHT-CHARCOAL GREY-2043105;DLNM0304G3IA17FE;Draft;Trousers;Blackberrys;Adults-Men;Men;;;;Fashion;;2017;32,BKBRTRSR00007109,38,BKBRTRSR00007110,34,BKBRTRSR00007111,36,BKBRTRSR00007112;2395.00;<p>TERYLENE 85% RAYON 15%</p>;;<p>Machine Wash, Do not Bleach</p>;;;;;zerotype;;Summer;;No
2043103;NL-STRAIGHT-FOSSILE BEIGE-2043103;DLNM0304A1IA17FE;Draft;Trousers;Blackberrys;Adults-Men;Men;;;;Fashion;;2017;32,BKBRTRSR00007106,34,BKBRTRSR00007107,36,BKBRTRSR00007108;2395.00;<p>TERYLENE 85% RAYON 15%</p>;;<p>Machine Wash, Do not Bleach</p>;;;;;zerotype;;Summer;;No
2043102;NL-TURBO-CHARCOAL BLACK-2043102;DLNM0157Z1IA17FE;Draft;Trousers;Blackberrys;Adults-Men;Men;;;;Fashion;;2017;30,BKBRTRSR00007101,32,BKBRTRSR00007102,38,BKBRTRSR00007103,34,BKBRTRSR00007104,36,BKBRTRSR00007105;2195.00;<p>Polyester 72% Rayon 28%</p>;;<p>Machine Wash, Do not Bleach</p>;;;;;zerotype;;Summer;;No
2043098;8907196966436-BLACK-2043098;NJJAYONNYAQ26BPL;Draft;Jackets;Blackberrys;Adults-Men;Men;;;;Core;;2017;44,BKBRJCKT00000905,38,BKBRJCKT00000906,46,BKBRJCKT00000907,40,BKBRJCKT00000908,42,BKBRJCKT00000909;4995.00;<p>75%Poly25%Viscose</p>;;<p>Dry Clean Only</p>;;;;;zerotype;;Winter;;No
2043097;8907196966375-BLACK-2043097;NJJAYONBRAQ26BPL;Draft;Jackets;Blackberrys;Adults-Men;Men;;;;Core;;2017;44,BKBRJCKT00000900,38,BKBRJCKT00000901,46,BKBRJCKT00000902,40,BKBRJCKT00000903,42,BKBRJCKT00000904;4995.00;<p>75%Poly25%Viscose</p>;;<p>Dry Clean Only</p>;;;;;zerotype;;Winter;;No
2043096;8907196966313-BLACK-2043096;NJJAYONBLAQ29BPL;Draft;Jackets;Blackberrys;Adults-Men;Men;;;;Core;;2017;44,BKBRJCKT00000895,38,BKBRJCKT00000896,46,BKBRJCKT00000897,40,BKBRJCKT00000898,42,BKBRJCKT00000899;4995.00;<p>75%Poly25%Viscose</p>;;<p>Dry Clean Only</p>;;;;;zerotype;;Winter;;No
2043095;BP-KATE2 # BLACK-BLACK-2043095;CJPM0281Z1BA17FL;Draft;Jackets;Blackberrys;Adults-Men;Men;;;;Fashion;;2017;44,BKBRJCKT00000891,38,BKBRJCKT00000892,40,BKBRJCKT00000893,42,BKBRJCKT00000894;5995.00;<p>Terry/Rayon</p>;;<p>Dry Clean Only</p>;;;;;zerotype;;Winter;;No
2043094;BP-KATE2-BLACK-2043094;CJPM0281N2BA17FL;Draft;Jackets;Blackberrys;Adults-Men;Men;;;;Fashion;;2017;44,BKBRJCKT00000887,38,BKBRJCKT00000888,40,BKBRJCKT00000889,42,BKBRJCKT00000890;5995.00;<p>Terry/Rayon</p>;;<p>Dry Clean Only</p>;;;;;zerotype;;Winter;;No
2043092;UD-GILMORE-INDIGO BLUE-2043092;UDBU0048B3IA17FC;Draft;Jeans;Blackberrys;Adults-Men;Men;;;;Core;;2017;30,BKBRJENS00000095,32,BKBRJENS00000096,34,BKBRJENS00000097,36,BKBRJENS00000098;2599.00;<p>cotton84.5%Polyster14%Elastane1.5%</p>;;<p>Machine Wash, Do not Bleach</p>;;;;;zerotype;;Winter;;No
2043091;US PR 449-BLACK-2043091;USMU1456Z1NA17FO;Draft;Shirts;Blackberrys;Adults-Men;Men;;;;Core;;2017;44,BKBRSHRT00007154,39,BKBRSHRT00007155,40,BKBRSHRT00007156,42,BKBRSHRT00007157;2199.00;<p>100%Cotton</p>;;<p>Machine Wash Cold</p>;;;;;zerotype;;Winter;;No
2043089;US PR 449-WHITE-2043089;USMU1456W1NA17FO;Draft;Shirts;Blackberrys;Adults-Men;Men;;;;Core;;2017;44,BKBRSHRT00007150,39,BKBRSHRT00007151,40,BKBRSHRT00007152,42,BKBRSHRT00007153;2199.00;<p>100%Cotton</p>;;<p>Machine Wash Cold</p>;;;;;zerotype;;Winter;;No
2043088;US PR 420-Azul Blue-2043088;USMU1383B1NA17FO;Draft;Shirts;Blackberrys;Adults-Men;Men;;;;Core;;2017;44,BKBRSHRT00007146,39,BKBRSHRT00007147,40,BKBRSHRT00007148,42,BKBRSHRT00007149;1999.00;<p>100%Cotton</p>;;<p>Machine Wash Cold</p>;;;;;zerotype;;Winter;;No
2043087;US WST 401-WHITE-2043087;USMU1373W1NA17FO;Draft;Shirts;Blackberrys;Adults-Men;Men;;;;Core;;2017;44,BKBRSHRT00007142,39,BKBRSHRT00007143,40,BKBRSHRT00007144,42,BKBRSHRT00007145;2399.00;<p>100%Cotton</p>;;<p>Machine Wash Cold</p>;;;;;zerotype;;Winter;;No
2043086;US FB 402-TRUE BLUE-2043086;USMU1371B3NA17FO;Draft;Shirts;Blackberrys;Adults-Men;Men;;;;Core;;2017;44,BKBRSHRT00007138,39,BKBRSHRT00007139,40,BKBRSHRT00007140,42,BKBRSHRT00007141;2399.00;<p>100%Cotton</p>;;<p>Machine Wash Cold</p>;;;;;zerotype;;Winter;;No
2043084;US WH 401-WHITE-2043084;USMU1334W1NA17FO;Draft;Shirts;Blackberrys;Adults-Men;Men;;;;Core;;2017;44,BKBRSHRT00007134,39,BKBRSHRT00007135,40,BKBRSHRT00007136,42,BKBRSHRT00007137;2599.00;<p>100%Cotton</p>;;<p>Machine Wash Cold</p>;;;;;zerotype;;Winter;;No
2043083;US FB 408-TRUE BLUE-2043083;USMU1222B3NA17FL;Draft;Shirts;Blackberrys;Adults-Men;Men;;;;Core;;2017;44,BKBRSHRT00007130,39,BKBRSHRT00007131,40,BKBRSHRT00007132,42,BKBRSHRT00007133;2599.00;<p>100%Cotton</p>;;<p>Machine Wash Cold</p>;;;;;zerotype;;Winter;;No
2043082;US BL 401-BLACKK-2043082;USMU0865Z1NA17FL;Draft;Shirts;Blackberrys;Adults-Men;Men;;;;Core;;2017;44,BKBRSHRT00007126,39,BKBRSHRT00007127,40,BKBRSHRT00007128,42,BKBRSHRT00007129;2599.00;<p>100%Cotton</p>;;<p>Machine Wash Cold</p>;;;;;zerotype;;Winter;;No
2043079;US SO 407-Emerald Green-2043079;USBU1324D2NA17FL;Draft;Shirts;Blackberrys;Adults-Men;Men;;;;Core;;2017;44,BKBRSHRT00007118,39,BKBRSHRT00007119,40,BKBRSHRT00007120,42,BKBRSHRT00007121;1999.00;<p>100%Cotton</p>;;<p>Machine Wash Cold</p>;;;;;zerotype;;Winter;;No
2043078;US PR 437-TRUE BLUE-2043078;USBU1285B3NA17FL;Draft;Shirts;Blackberrys;Adults-Men;Men;;;;Core;;2017;44,BKBRSHRT00007114,39,BKBRSHRT00007115,40,BKBRSHRT00007116,42,BKBRSHRT00007117;1999.00;<p>100%Cotton</p>;;<p>Machine Wash Cold</p>;;;;;zerotype;;Winter;;No
2043073;US IDG 407-INDIGO-2043073;USBU0885N2NA17FL;Draft;Shirts;Blackberrys;Adults-Men;Men;;;;Core;;2017;44,BKBRSHRT00007095,39,BKBRSHRT00007096,40,BKBRSHRT00007097,42,BKBRSHRT00007098;2399.00;<p>100%Cotton</p>;;<p>Machine Wash Cold</p>;;;;;zerotype;;Winter;;No
2043072;US IDG 403-INDIGO BLUE-2043072;USBU0838B3NA17FL;Draft;Shirts;Blackberrys;Adults-Men;Men;;;;Core;;2017;44,BKBRSHRT00007091,39,BKBRSHRT00007092,40,BKBRSHRT00007093,42,BKBRSHRT00007094;2199.00;<p>100%Cotton</p>;;<p>Machine Wash Cold</p>;;;;;zerotype;;Winter;;No
2043071;BP-C5Z-SIGMUND-NYAN14Q/DARK BLUE-2043071;NSSIGNDNYAN14BPQ;Draft;Shirts;Blackberrys;Adults-Men;Men;;;;Core;;2017;44,BKBRSHRT00007088,40,BKBRSHRT00007089,42,BKBRSHRT00007090;1995.00;<p>100%Cotton</p>;;<p>Machine Wash Cold</p>;;;;;zerotype;;Winter;;No
2043069;BP-P1-P1-SANGUINE-WHAN09Q/WHITE-2043069;NSSANNEWHAN09BPQ;Draft;Shirts;Blackberrys;Adults-Men;Men;;;;Core;;2017;44,BKBRSHRT00007080,39,BKBRSHRT00007081,40,BKBRSHRT00007082,42,BKBRSHRT00007083;1995.00;<p>100%Cotton</p>;;<p>Machine Wash Cold</p>;;;;;zerotype;;Winter;;No
2043068;BP-P1-SANGUINE-PKAN09Q/PINK-2043068;NSSANNEPKAN09BPQ;Draft;Shirts;Blackberrys;Adults-Men;Men;;;;Core;;2017;44,BKBRSHRT00007076,39,BKBRSHRT00007077,40,BKBRSHRT00007078,42,BKBRSHRT00007079;1995.00;<p>100%Cotton</p>;;<p>Machine Wash Cold</p>;;;;;zerotype;;Winter;;No
2043067;BP-P1-SANGUINE-NYAN09Q/SKY BLUE-2043067;NSSANNENYAN09BPQ;Draft;Shirts;Blackberrys;Adults-Men;Men;;;;Core;;2017;44,BKBRSHRT00007072,39,BKBRSHRT00007073,40,BKBRSHRT00007074,42,BKBRSHRT00007075;1995.00;<p>100%Cotton</p>;;<p>Machine Wash Cold</p>;;;;;zerotype;;Winter;;No
2043066;BP-P1-SANGUINE-CRAN08Q/OFF WHITE-2043066;NSSANNECRAN08BPQ;Draft;Shirts;Blackberrys;Adults-Men;Men;;;;Core;;2017;44,BKBRSHRT00007068,39,BKBRSHRT00007069,40,BKBRSHRT00007070,42,BKBRSHRT00007071;1995.00;<p>100%Cotton</p>;;<p>Machine Wash Cold</p>;;;;;zerotype;;Winter;;No
2043064;BT-SOFK09-Wine Red-2043064;MSTM1433E1NA17FL;Draft;Shirts;Blackberrys;Adults-Men;Men;;;;Fashion;;2017;44,BKBRSHRT00007060,39,BKBRSHRT00007061,40,BKBRSHRT00007062,42,BKBRSHRT00007063;1795.00;<p>100% COTTON</p>;;<p>Machine Wash Cold</p>;;;;;zerotype;;Winter;;No
2043062;BT-SOFK07-DIESEL BLACK-2043062;MSTM1351Z1NA17FY;Draft;Shirts;Blackberrys;Adults-Men;Men;;;;Fashion;;2017;44,BKBRSHRT00007056,39,BKBRSHRT00007057,40,BKBRSHRT00007058,42,BKBRSHRT00007059;1995.00;<p>COTTON/LINEN</p>;;<p>Machine Wash Cold</p>;;;;;zerotype;;Winter;;No
2043061;BT-SOFK07-CEDAR OLIVE-2043061;MSTM1351V2NA17FY;Draft;Shirts;Blackberrys;Adults-Men;Men;;;;Fashion;;2017;44,BKBRSHRT00007052,39,BKBRSHRT00007053,40,BKBRSHRT00007054,42,BKBRSHRT00007055;1995.00;<p>COTTON/LINEN</p>;;<p>Machine Wash Cold</p>;;;;;zerotype;;Winter;;No
2043059;BT-SOFK07-CHOCOLATE BROWN-2043059;MSTM1351C3NA17FY;Draft;Shirts;Blackberrys;Adults-Men;Men;;;;Fashion;;2017;44,BKBRSHRT00007048,39,BKBRSHRT00007049,40,BKBRSHRT00007050,42,BKBRSHRT00007051;1995.00;<p>COTTON/LINEN</p>;;<p>Machine Wash Cold</p>;;;;;zerotype;;Winter;;No
2043058;BT-CHFK58-MUSTARD YELLOW-2043058;MSTM0861Y3NA17FL;Draft;Shirts;Blackberrys;Adults-Men;Men;;;;Fashion;;2017;44,BKBRSHRT00007044,39,BKBRSHRT00007045,40,BKBRSHRT00007046,42,BKBRSHRT00007047;2195.00;<p>100% COTTON</p>;;<p>Machine Wash Cold</p>;;;;;zerotype;;Winter;;No
2043057;BT-CHFK58-Wine Red-2043057;MSTM0861E1NA17FL;Draft;Shirts;Blackberrys;Adults-Men;Men;;;;Fashion;;2017;44,BKBRSHRT00007040,39,BKBRSHRT00007041,40,BKBRSHRT00007042,42,BKBRSHRT00007043;2195.00;<p>100% COTTON</p>;;<p>Machine Wash Cold</p>;;;;;zerotype;;Winter;;No
2043056;BT-DOFK19-DIESEL BLACK-2043056;MSTM0843Z1NA17FL;Draft;Shirts;Blackberrys;Adults-Men;Men;;;;Fashion;;2017;44,BKBRSHRT00007036,39,BKBRSHRT00007037,40,BKBRSHRT00007038,42,BKBRSHRT00007039;1895.00;<p>100% COTTON</p>;;<p>Machine Wash Cold</p>;;;;;zerotype;;Winter;;No
2043055;BT-DOFK19-Deep Navy-2043055;MSTM0843N2NA17FL;Draft;Shirts;Blackberrys;Adults-Men;Men;;;;Fashion;;2017;44,BKBRSHRT00007032,39,BKBRSHRT00007033,40,BKBRSHRT00007034,42,BKBRSHRT00007035;1895.00;<p>100% COTTON</p>;;<p>Machine Wash Cold</p>;;;;;zerotype;;Winter;;No
2043054;BP-SOF0i59-BLACKK-2043054;MSPM1457Z1NA17FL;Draft;Shirts;Blackberrys;Adults-Men;Men;;;;Fashion;;2017;44,BKBRSHRT00007029,40,BKBRSHRT00007030,42,BKBRSHRT00007031;1595.00;<p>100%Cotton</p>;;<p>Machine Wash Cold</p>;;;;;zerotype;;Winter;;No
2043052;BP-DOFJ61-PINK-2043052;MSPM1442P2NA17FL;Draft;Shirts;Blackberrys;Adults-Men;Men;;;;Fashion;;2017;44,BKBRSHRT00007025,39,BKBRSHRT00007026,40,BKBRSHRT00007027,42,BKBRSHRT00007028;1795.00;<p>100%Cotton</p>;;<p>Machine Wash Cold</p>;;;;;zerotype;;Winter;;No
2043051;BP-DOFJ61-BLUE-2043051;MSPM1442B2NA17FL;Draft;Shirts;Blackberrys;Adults-Men;Men;;;;Fashion;;2017;44,BKBRSHRT00007021,39,BKBRSHRT00007022,40,BKBRSHRT00007023,42,BKBRSHRT00007024;1795.00;<p>100%Cotton</p>;;<p>Machine Wash Cold</p>;;;;;zerotype;;Winter;;No
2043050;BP-PTFi72-RED-2043050;MSPM1061R2NA17FY;Draft;Shirts;Blackberrys;Adults-Men;Men;;;;Fashion;;2017;44,BKBRSHRT00007017,39,BKBRSHRT00007018,40,BKBRSHRT00007019,42,BKBRSHRT00007020;2195.00;<p>100%Cotton</p>;;<p>Machine Wash Cold</p>;;;;;zerotype;;Winter;;No
2043049;BP-PTFi72-DARK BLUE-2043049;MSPM1061B3NA17FY;Draft;Shirts;Blackberrys;Adults-Men;Men;;;;Fashion;;2017;44,BKBRSHRT00007013,39,BKBRSHRT00007014,40,BKBRSHRT00007015,42,BKBRSHRT00007016;2195.00;<p>100%Cotton</p>;;<p>Machine Wash Cold</p>;;;;;zerotype;;Winter;;No
2043048;BP-CHFi88-GREY-2043048;MSPM1035G1MA17FL;Draft;Shirts;Blackberrys;Adults-Men;Men;;;;Fashion;;2017;44,BKBRSHRT00007009,39,BKBRSHRT00007010,40,BKBRSHRT00007011,42,BKBRSHRT00007012;2195.00;<p>100%Cotton</p>;;<p>Machine Wash Cold</p>;;;;;zerotype;;Winter;;No
2043047;BP-CHFi88-LIGHT BLUE-2043047;MSPM1035B1MA17FL;Draft;Shirts;Blackberrys;Adults-Men;Men;;;;Fashion;;2017;44,BKBRSHRT00007005,39,BKBRSHRT00007006,40,BKBRSHRT00007007,42,BKBRSHRT00007008;2195.00;<p>100%Cotton</p>;;<p>Machine Wash Cold</p>;;;;;zerotype;;Winter;;No
2043046;BP-PTFi46-MUSTARD-2043046;MSPM1017Y3NA17FL;Draft;Shirts;Blackberrys;Adults-Men;Men;;;;Fashion;;2017;44,BKBRSHRT00007001,39,BKBRSHRT00007002,40,BKBRSHRT00007003,42,BKBRSHRT00007004;1895.00;<p>100%Cotton</p>;;<p>Machine Wash Cold</p>;;;;;zerotype;;Winter;;No
2043045;BP-PTFi46-LIGHT BLUE-2043045;MSPM1017B1NA17FL;Draft;Shirts;Blackberrys;Adults-Men;Men;;;;Fashion;;2017;44,BKBRSHRT00006997,39,BKBRSHRT00006998,40,BKBRSHRT00006999,42,BKBRSHRT00007000;1895.00;<p>100%Cotton</p>;;<p>Machine Wash Cold</p>;;;;;zerotype;;Winter;;No
2043044;BP-DOFi18-PURPLE-2043044;MSPM1014U2NA17FL;Draft;Shirts;Blackberrys;Adults-Men;Men;;;;Fashion;;2017;44,BKBRSHRT00006993,39,BKBRSHRT00006994,40,BKBRSHRT00006995,42,BKBRSHRT00006996;2195.00;<p>100%Cotton</p>;;<p>Machine Wash Cold</p>;;;;;zerotype;;Winter;;No
2043042;BP-PTFi62-DARK BLUE-2043042;MSPM1002B3NA17FL;Draft;Shirts;Blackberrys;Adults-Men;Men;;;;Fashion;;2017;44,BKBRSHRT00006985,39,BKBRSHRT00006986,40,BKBRSHRT00006987,42,BKBRSHRT00006988;2195.00;<p>100%Cotton</p>;;<p>Machine Wash Cold</p>;;;;;zerotype;;Winter;;No
2043041;BP-DOFi13-DARK BLUE-2043041;MSPM0994B3NA17FL;Draft;Shirts;Blackberrys;Adults-Men;Men;;;;Fashion;;2017;44,BKBRSHRT00006981,39,BKBRSHRT00006982,40,BKBRSHRT00006983,42,BKBRSHRT00006984;1995.00;<p>100% Cotton</p>;;<p>Machine Wash Cold</p>;;;;;zerotype;;Winter;;No
2043040;BP-CHFi25-MIDNIGHT BLUE-2043040;MSPM0991B2NA17FL;Draft;Shirts;Blackberrys;Adults-Men;Men;;;;Fashion;;2017;44,BKBRSHRT00006977,39,BKBRSHRT00006978,40,BKBRSHRT00006979,42,BKBRSHRT00006980;2395.00;<p>100%Cotton</p>;;<p>Machine Wash Cold</p>;;;;;zerotype;;Winter;;No
2043039;BP-PTFi73-DARK BLUE-2043039;MSPM0977B3NA17FL;Draft;Shirts;Blackberrys;Adults-Men;Men;;;;Fashion;;2017;44,BKBRSHRT00006973,39,BKBRSHRT00006974,40,BKBRSHRT00006975,42,BKBRSHRT00006976;1995.00;<p>100%Cotton</p>;;<p>Machine Wash Cold</p>;;;;;zerotype;;Winter;;No
2043037;BP-PTFi73-MIDNIGHT BLUE-2043037;MSPM0977B2NA17FL;Draft;Shirts;Blackberrys;Adults-Men;Men;;;;Fashion;;2017;44,BKBRSHRT00006969,39,BKBRSHRT00006970,40,BKBRSHRT00006971,42,BKBRSHRT00006972;1995.00;<p>100%Cotton</p>;;<p>Machine Wash Cold</p>;;;;;zerotype;;Winter;;No
2043035;BP-DOFi49-RED-2043035;MSPM0960R2NA17FL;Draft;Shirts;Blackberrys;Adults-Men;Men;;;;Fashion;;2017;44,BKBRSHRT00006965,39,BKBRSHRT00006966,40,BKBRSHRT00006967,42,BKBRSHRT00006968;1995.00;<p>100%Cotton</p>;;<p>Machine Wash Cold</p>;;;;;zerotype;;Winter;;No
2043034;BP-PTFi75-GREY-2043034;MSPM0946G1NA17FL;Draft;Shirts;Blackberrys;Adults-Men;Men;;;;Fashion;;2017;44,BKBRSHRT00006961,39,BKBRSHRT00006962,40,BKBRSHRT00006963,42,BKBRSHRT00006964;1895.00;<p>100% Cotton</p>;;<p>Machine Wash Cold</p>;;;;;zerotype;;Winter;;No
2043033;BP-PTFi75-LIGHT BLUE-2043033;MSPM0946B1NA17FL;Draft;Shirts;Blackberrys;Adults-Men;Men;;;;Fashion;;2017;44,BKBRSHRT00006957,39,BKBRSHRT00006958,40,BKBRSHRT00006959,42,BKBRSHRT00006960;1895.00;<p>100% Cotton</p>;;<p>Machine Wash Cold</p>;;;;;zerotype;;Winter;;No
2043032;BP-PTFi78-MUSTARD-2043032;MSPM0917Y3NA17FL;Draft;Shirts;Blackberrys;Adults-Men;Men;;;;Fashion;;2017;44,BKBRSHRT00006953,39,BKBRSHRT00006954,40,BKBRSHRT00006955,42,BKBRSHRT00006956;1895.00;<p>100%Cotton</p>;;<p>Machine Wash Cold</p>;;;;;zerotype;;Winter;;No
2043031;BP-PTFi78-MIDNIGHT BLUE-2043031;MSPM0917B2NA17FL;Draft;Shirts;Blackberrys;Adults-Men;Men;;;;Fashion;;2017;44,BKBRSHRT00006949,39,BKBRSHRT00006950,40,BKBRSHRT00006951,42,BKBRSHRT00006952;1895.00;<p>100%Cotton</p>;;<p>Machine Wash Cold</p>;;;;;zerotype;;Winter;;No
2043030;NL-SOFM78-PURPLE-2043030;MSNM1604U2NA17FL;Draft;Shirts;Blackberrys;Adults-Men;Men;;;;Fashion;;2017;44,BKBRSHRT00006945,39,BKBRSHRT00006946,40,BKBRSHRT00006947,42,BKBRSHRT00006948;1995.00;<p>Poly Stain Stretch</p>;;<p>Machine Wash Cold</p>;;;;;zerotype;;Winter;;No
2043029;NL-PTFO49-DARK BLUE-2043029;MSNM1136B3NA17FL;Draft;Shirts;Blackberrys;Adults-Men;Men;;;;Fashion;;2017;44,BKBRSHRT00006941,39,BKBRSHRT00006942,40,BKBRSHRT00006943,42,BKBRSHRT00006944;2195.00;<p>100%Cotton</p>;;<p>Machine Wash Cold</p>;;;;;zerotype;;Winter;;No
2043028;NL-DOFO03-BLACKK-2043028;MSNM1128Z1NA17FL;Draft;Shirts;Blackberrys;Adults-Men;Men;;;;Fashion;;2017;44,BKBRSHRT00006937,39,BKBRSHRT00006938,40,BKBRSHRT00006939,42,BKBRSHRT00006940;2195.00;<p>100% Cotton</p>;;<p>Machine Wash Cold</p>;;;;;zerotype;;Winter;;No
2043027;NL-DOFO03-NAVY-2043027;MSNM1128N2NA17FL;Draft;Shirts;Blackberrys;Adults-Men;Men;;;;Fashion;;2017;44,BKBRSHRT00006933,39,BKBRSHRT00006934,40,BKBRSHRT00006935,42,BKBRSHRT00006936;2195.00;<p>100% Cotton</p>;;<p>Machine Wash Cold</p>;;;;;zerotype;;Winter;;No
2043025;NL-PTFO62-WHITE-2043025;MSNM1127W1NA17FL;Draft;Shirts;Blackberrys;Adults-Men;Men;;;;Fashion;;2017;44,BKBRSHRT00006929,39,BKBRSHRT00006930,40,BKBRSHRT00006931,42,BKBRSHRT00006932;2195.00;<p>100%Cotton</p>;;<p>Machine Wash Cold</p>;;;;;zerotype;;Winter;;No
2043024;NL-PTFO62-MIDNIGHT BLUE-2043024;MSNM1127B2NA17FL;Draft;Shirts;Blackberrys;Adults-Men;Men;;;;Fashion;;2017;44,BKBRSHRT00006925,39,BKBRSHRT00006926,40,BKBRSHRT00006927,42,BKBRSHRT00006928;2195.00;<p>100%Cotton</p>;;<p>Machine Wash Cold</p>;;;;;zerotype;;Winter;;No
2043023;NL-PTFO50-GREY-2043023;MSNM1080G1NA17FL;Draft;Shirts;Blackberrys;Adults-Men;Men;;;;Fashion;;2017;44,BKBRSHRT00006921,39,BKBRSHRT00006922,40,BKBRSHRT00006923,42,BKBRSHRT00006924;1995.00;<p>100%Cotton</p>;;<p>Machine Wash Cold</p>;;;;;zerotype;;Winter;;No
2043021;NL-PTFO74-BLACKK-2043021;MSNM1076Z1NA17FL;Draft;Shirts;Blackberrys;Adults-Men;Men;;;;Fashion;;2017;44,BKBRSHRT00006917,39,BKBRSHRT00006918,40,BKBRSHRT00006919,42,BKBRSHRT00006920;2195.00;<p>100%Cotton</p>;;<p>Machine Wash Cold</p>;;;;;zerotype;;Winter;;No
2043020;CP9764-ICEBLU/ICEBLU/TACBLU-2043020;PW TENNIS HU;Active;Sports Shoes;Adidas Originals;Adults-Men;Men;Blue;;;Fashion;Sports;2017;UK11,ADORCASH00004674,UK9,ADORCASH00004675,UK7,ADORCASH00004676,UK10,ADORCASH00004677,UK8,ADORCASH00004678;8999.00;A pair of blue <a href='/tennis-sports-shoes?src=pd' class='seolink'>tennis sports shoes</a>, has <a href='/regular?src=pd' class='seolink'>regular</a> styling, lace-up detail<br />Primeknit upper<br />Cushioned footbed<br />Textured and patterned outsole<br />Warranty: 3 months;You'll look and feel super stylish in these trendsetting tennis shoes by Adidas Originals. This blue pair can be teamed with sports shorts and a casual tee when you're going for a game on the court.;Primeknit<br /> Wipe with a clean, dry cloth to remove dust;;;Adidas Originals Men Blue PW HU Tennis Shoes;Adidas Originals;zerotype;;Fall;;No
2043019;NL-PTFO74-NAVY-2043019;MSNM1076N2NA17FL;Draft;Shirts;Blackberrys;Adults-Men;Men;;;;Fashion;;2017;44,BKBRSHRT00006913,39,BKBRSHRT00006914,40,BKBRSHRT00006915,42,BKBRSHRT00006916;2195.00;<p>100%Cotton</p>;;<p>Machine Wash Cold</p>;;;;;zerotype;;Winter;;No
2043018;CP9763-FTWWHT/FTWWHT/RAWPIN-2043018;PW TENNIS HU;Active;Sports Shoes;Adidas Originals;Adults-Men;Men;White;;;Fashion;Sports;2017;UK8,ADORCASH00004669,UK10,ADORCASH00004670,UK9,ADORCASH00004671,UK7,ADORCASH00004672,UK11,ADORCASH00004673;8999.00;A pair of white <a href='/tennis-sports-shoes?src=pd' class='seolink'>tennis sports shoes</a>, has <a href='/regular?src=pd' class='seolink'>regular</a> styling, lace-up detail<br />Primeknit upper<br />Cushioned footbed<br />Textured and patterned outsole<br />Warranty: 3 months;You'll look and feel super stylish in these trendsetting tennis shoes by Adidas Originals. This blue pair can be teamed with sports shorts and a casual tee when you're going for a game on the court.;Textile <br /> Wipe with a clean, dry cloth to remove dust;;;Adidas Originals Men White PW HU Tennis Shoes;Adidas Originals;zerotype;;Fall;;No
2043017;NL-DOFO07-MAROON-2043017;MSNM0799R3NA17FL;Draft;Shirts;Blackberrys;Adults-Men;Men;;;;Fashion;;2017;44,BKBRSHRT00006909,39,BKBRSHRT00006910,40,BKBRSHRT00006911,42,BKBRSHRT00006912;1995.00;<p>100% Cotton</p>;;<p>Machine Wash Cold</p>;;;;;zerotype;;Winter;;No
2043016;NL-PTFO73-BLACK-2043016;MSNM0798Z1NA17FL;Draft;Shirts;Blackberrys;Adults-Men;Men;;;;Fashion;;2017;44,BKBRSHRT00006905,39,BKBRSHRT00006906,40,BKBRSHRT00006907,42,BKBRSHRT00006908;2195.00;<p>100%Cotton</p>;;<p>Machine Wash Cold</p>;;;;;zerotype;;Winter;;No
2043014;NL-PTFO73-WHITE-2043014;MSNM0798W1NA17FL;Draft;Shirts;Blackberrys;Adults-Men;Men;;;;Fashion;;2017;44,BKBRSHRT00006901,39,BKBRSHRT00006902,40,BKBRSHRT00006903,42,BKBRSHRT00006904;2195.00;<p>100%Cotton</p>;;<p>Machine Wash Cold</p>;;;;;zerotype;;Winter;;No
2043010;NL-PTFO68-CHOCOLATE-2043010;MSNM0796C3NA17FL;Draft;Shirts;Blackberrys;Adults-Men;Men;;;;Fashion;;2017;44,BKBRSHRT00006893,39,BKBRSHRT00006894,40,BKBRSHRT00006895,42,BKBRSHRT00006896;1895.00;<p>100%Cotton</p>;;<p>Machine Wash Cold</p>;;;;;zerotype;;Winter;;No
2043005;8907599130762-BLACK-2043005;CVNM0053N1EA17FL;Draft;Waistcoat;Blackberrys;Adults-Men;Men;;;;Fashion;;2017;44,BKBRWACO00000608,38,BKBRWACO00000609,40,BKBRWACO00000610,42,BKBRWACO00000611;3995.00;<p>65%Poly35%Viscose</p>;;<p>Dry Clean Only</p>;;;;;zerotype;;Winter;;No
2043004;BY8714-FTWWHT/FTWWHT/SESOPK-2043004;PW TENNIS HU;Active;Sports Shoes;Adidas Originals;Adults-Men;Men;White;;;Fashion;Sports;2017;UK9,ADORCASH00004639,UK8,ADORCASH00004640,UK11,ADORCASH00004641,UK10,ADORCASH00004642,UK7,ADORCASH00004643;8999.00;A pair of white <a href='/tennis-sports-shoes?src=pd' class='seolink'>tennis sports shoes</a>, has <a href='/regular?src=pd' class='seolink'>regular</a> styling, lace-up detail<br />Primeknit upper<br />Cushioned footbed<br />Textured and patterned outsole<br />Warranty: 3 months;Treat your feet to these comfortable and super-supportive tennis shoes from Adidas Originals.  Team this white pair with sports shorts and a classic tee before going to the court for a game worth remembering.;Primeknit<br /> Wipe with a clean, dry cloth to remove dust;;;Adidas Originals Men White PW HU Tennis Shoes;Adidas Originals;zerotype;;Fall;;No
2015793;92274 OL-Khaki-2015793;92274 OL;Draft;Jackets;Fort Collins;Adults-Women;Women;Khaki;;;Fashion;;2017;M,FRCLJCKT00019873,L,FRCLJCKT00019874,XL,FRCLJCKT00019875,XXL,FRCLJCKT00019876;2999.00;<p>Metal zip</p>;;<p>Easy Hand Wash</p>;;;;;zerotype;;Winter;;No
2015792;92274 OL-black-2015792;92274 OL;Draft;Jackets;Fort Collins;Adults-Women;Women;Black;;;Fashion;;2017;M,FRCLJCKT00019869,L,FRCLJCKT00019870,XL,FRCLJCKT00019871,XXL,FRCLJCKT00019872;2999.00;<p>Metal zip</p>;;<p>Easy Hand Wash</p>;;;;;zerotype;;Winter;;No
2015791;89286 OL-maroon-2015791;89286 OL;Draft;Jackets;Fort Collins;Adults-Women;Women;Red;;;Fashion;;2017;M,FRCLJCKT00019865,L,FRCLJCKT00019866,XL,FRCLJCKT00019867,XXL,FRCLJCKT00019868;1865.00;<p>reversable jacket</p>;;<p>Easy Hand Wash</p>;;;;;zerotype;;Winter;;No
2015790;89286 OL-black-2015790;89286 OL;Draft;Jackets;Fort Collins;Adults-Women;Women;Black;;;Fashion;;2017;M,FRCLJCKT00019861,L,FRCLJCKT00019862,XL,FRCLJCKT00019863,XXL,FRCLJCKT00019864;1865.00;<p>reversable jacket</p>;;<p>Easy Hand Wash</p>;;;;;zerotype;;Winter;;No
2015789;89282 OL-maroon-2015789;89282 OL;Draft;Jackets;Fort Collins;Adults-Women;Women;Red;;;Fashion;;2017;M,FRCLJCKT00019857,L,FRCLJCKT00019858,XL,FRCLJCKT00019859,XXL,FRCLJCKT00019860;2250.00;<p>fur at hood</p>;;<p>Easy Hand Wash</p>;;;;;zerotype;;Winter;;No
2015788;89282 OL-fawn-2015788;89282 OL;Draft;Jackets;Fort Collins;Adults-Women;Women;Beige;;;Fashion;;2017;M,FRCLJCKT00019853,L,FRCLJCKT00019854,XL,FRCLJCKT00019855,XXL,FRCLJCKT00019856;2250.00;<p>fur at hood</p>;;<p>Easy Hand Wash</p>;;;;;zerotype;;Winter;;No
2015786;89280 OL-Khaki-2015786;89280 OL;Draft;Jackets;Fort Collins;Adults-Women;Women;Khaki;;;Fashion;;2017;M,FRCLJCKT00019849,L,FRCLJCKT00019850,XL,FRCLJCKT00019851,XXL,FRCLJCKT00019852;2135.00;<p>fur at hood</p>;;<p>Easy Hand Wash</p>;;;;;zerotype;;Winter;;No
2015785;89280 OL-blue-2015785;89280 OL;Draft;Jackets;Fort Collins;Adults-Women;Women;Blue;;;Fashion;;2017;M,FRCLJCKT00019845,L,FRCLJCKT00019846,XL,FRCLJCKT00019847,XXL,FRCLJCKT00019848;2135.00;<p>fur at hood</p>;;<p>Easy Hand Wash</p>;;;;;zerotype;;Winter;;No
2015784;89274 OL-navy-2015784;89274 OL;Draft;Jackets;Fort Collins;Adults-Women;Women;Navy Blue;;;Fashion;;2017;M,FRCLJCKT00019841,L,FRCLJCKT00019842,XL,FRCLJCKT00019843,XXL,FRCLJCKT00019844;1680.00;<p>reversable jacket</p>;;<p>Easy Hand Wash</p>;;;;;zerotype;;Winter;;No
2015782;6633 OL-navy-2015782;6633 OL;Draft;Jackets;Fort Collins;Adults-Women;Women;Navy Blue;;;Fashion;;2017;M,FRCLJCKT00019837,L,FRCLJCKT00019838,XL,FRCLJCKT00019839,XXL,FRCLJCKT00019840;2090.00;<p>fur at hood</p>;;<p>Easy Hand Wash</p>;;;;;zerotype;;Winter;;No
2015781;6633 OL-Khaki-2015781;6633 OL;Draft;Jackets;Fort Collins;Adults-Women;Women;Khaki;;;Fashion;;2017;M,FRCLJCKT00019833,L,FRCLJCKT00019834,XL,FRCLJCKT00019835,XXL,FRCLJCKT00019836;2090.00;<p>fur at hood</p>;;<p>Easy Hand Wash</p>;;;;;zerotype;;Winter;;No
2015779;6632 OL-airforce-2015779;6632 OL;Draft;Jackets;Fort Collins;Adults-Women;Women;Blue;;;Fashion;;2017;M,FRCLJCKT00019825,L,FRCLJCKT00019826,XL,FRCLJCKT00019827,XXL,FRCLJCKT00019828;2415.00;<p>fur at hood</p>;;<p>Easy Hand Wash</p>;;;;;zerotype;;Winter;;No
2015778;6628 OL-navy-2015778;6628 OL;Draft;Jackets;Fort Collins;Adults-Women;Women;Navy Blue;;;Fashion;;2017;M,FRCLJCKT00019821,L,FRCLJCKT00019822,XL,FRCLJCKT00019823,XXL,FRCLJCKT00019824;2270.00;<p>fur at hood</p>;;<p>Easy Hand Wash</p>;;;;;zerotype;;Winter;;No
2015777;6628 OL-airforce-2015777;6628 OL;Draft;Jackets;Fort Collins;Adults-Women;Women;Blue;;;Fashion;;2017;M,FRCLJCKT00019817,L,FRCLJCKT00019818,XL,FRCLJCKT00019819,XXL,FRCLJCKT00019820;2270.00;<p>fur at hood</p>;;<p>Easy Hand Wash</p>;;;;;zerotype;;Winter;;No
2015775;6627 OL-red-2015775;6627 OL;Draft;Jackets;Fort Collins;Adults-Women;Women;Red;;;Fashion;;2017;M,FRCLJCKT00019813,L,FRCLJCKT00019814,XL,FRCLJCKT00019815,XXL,FRCLJCKT00019816;2210.00;<p>PU coated Zip</p>;;<p>Easy Hand Wash</p>;;;;;zerotype;;Winter;;No
2015774;6627 OL-black-2015774;6627 OL;Draft;Jackets;Fort Collins;Adults-Women;Women;Black;;;Fashion;;2017;M,FRCLJCKT00019809,L,FRCLJCKT00019810,XL,FRCLJCKT00019811,XXL,FRCLJCKT00019812;2210.00;<p>PU coated Zip</p>;;<p>Easy Hand Wash</p>;;;;;zerotype;;Winter;;No
2015772;6625 OL-navy-2015772;6625 OL;Draft;Jackets;Fort Collins;Adults-Women;Women;Navy Blue;;;Fashion;;2017;M,FRCLJCKT00019805,L,FRCLJCKT00019806,XL,FRCLJCKT00019807,XXL,FRCLJCKT00019808;2225.00;<p>fur at hood</p>;;<p>Easy Hand Wash</p>;;;;;zerotype;;Winter;;No
2015771;6625 OL-Khaki-2015771;6625 OL;Draft;Jackets;Fort Collins;Adults-Women;Women;Khaki;;;Fashion;;2017;M,FRCLJCKT00019801,L,FRCLJCKT00019802,XL,FRCLJCKT00019803,XXL,FRCLJCKT00019804;2225.00;<p>fur at hood</p>;;<p>Easy Hand Wash</p>;;;;;zerotype;;Winter;;No
2015767;48092 OL-navy-2015767;48092 OL;Draft;Jackets;Fort Collins;Adults-Women;Women;Navy Blue;;;Fashion;;2017;M,FRCLJCKT00019797,L,FRCLJCKT00019798,XL,FRCLJCKT00019799,XXL,FRCLJCKT00019800;2340.00;<p>leather matching</p>;;<p>Easy Hand Wash</p>;;;;;zerotype;;Winter;;No
2015759;48092 OL-Khaki-2015759;48092 OL;Draft;Jackets;Fort Collins;Adults-Women;Women;Khaki;;;Fashion;;2017;M,FRCLJCKT00019793,L,FRCLJCKT00019794,XL,FRCLJCKT00019795,XXL,FRCLJCKT00019796;2340.00;<p>leather matching</p>;;<p>Easy Hand Wash</p>;;;;;zerotype;;Winter;;No
2015755;48092 OL-fawn-2015755;48092 OL;Draft;Jackets;Fort Collins;Adults-Women;Women;Beige;;;Fashion;;2017;M,FRCLJCKT00019789,L,FRCLJCKT00019790,XL,FRCLJCKT00019791,XXL,FRCLJCKT00019792;2340.00;<p>leather matching</p>;;<p>Easy Hand Wash</p>;;;;;zerotype;;Winter;;No
2015752;17908 OL-maroon-2015752;17908 OL;Draft;Jackets;Fort Collins;Adults-Women;Women;Red;;;Fashion;;2017;M,FRCLJCKT00019785,L,FRCLJCKT00019786,XL,FRCLJCKT00019787,XXL,FRCLJCKT00019788;2335.00;<p>pu coated zip</p>;;<p>Easy Hand Wash</p>;;;;;zerotype;;Winter;;No
2015751;17908 OL-black-2015751;17908 OL;Draft;Jackets;Fort Collins;Adults-Women;Women;Black;;;Fashion;;2017;M,FRCLJCKT00019781,L,FRCLJCKT00019782,XL,FRCLJCKT00019783,XXL,FRCLJCKT00019784;2335.00;<p>pu coated zip</p>;;<p>Easy Hand Wash</p>;;;;;zerotype;;Winter;;No
2015750;17905 OL-navy-2015750;17905 OL;Draft;Jackets;Fort Collins;Adults-Women;Women;Navy Blue;;;Fashion;;2017;M,FRCLJCKT00019777,L,FRCLJCKT00019778,XL,FRCLJCKT00019779,XXL,FRCLJCKT00019780;2590.00;<p>side zipper</p>;;<p>Easy Hand Wash</p>;;;;;zerotype;;Winter;;No
2015748;17905 OL-Khaki-2015748;17905 OL;Draft;Jackets;Fort Collins;Adults-Women;Women;Khaki;;;Fashion;;2017;M,FRCLJCKT00019773,L,FRCLJCKT00019774,XL,FRCLJCKT00019775,XXL,FRCLJCKT00019776;2590.00;<p>side zipper</p>;;<p>Easy Hand Wash</p>;;;;;zerotype;;Winter;;No
2015745;17902 OL-Khaki-2015745;17902 OL;Draft;Jackets;Fort Collins;Adults-Women;Women;Khaki;;;Fashion;;2017;M,FRCLJCKT00019765,L,FRCLJCKT00019766,XL,FRCLJCKT00019767,XXL,FRCLJCKT00019768;2370.00;<p>fur at hood</p>;;<p>Easy Hand Wash</p>;;;;;zerotype;;Winter;;No
2015742;11345 OL-red-2015742;11345 OL;Draft;Jackets;Fort Collins;Adults-Women;Women;Red;;;Fashion;;2017;M,FRCLJCKT00019753,L,FRCLJCKT00019754,XL,FRCLJCKT00019755,XXL,FRCLJCKT00019756;2360.00;<p>fur at hood</p>;;<p>Easy Hand Wash</p>;;;;;zerotype;;Winter;;No
2015741;11345 OL-blue-2015741;11345 OL;Draft;Jackets;Fort Collins;Adults-Women;Women;Blue;;;Fashion;;2017;M,FRCLJCKT00019749,L,FRCLJCKT00019750,XL,FRCLJCKT00019751,XXL,FRCLJCKT00019752;2360.00;<p>fur at hood</p>;;<p>Easy Hand Wash</p>;;;;;zerotype;;Winter;;No
2011635;C/S-52462-Navy-2011635;C/S-52462 NAVY 24;Draft;Jackets;Okane;Kids-Boys;Boys;NA;;;Fashion;;2017;20,OKNEJCKT00001221,22,OKNEJCKT00001222,24,OKNEJCKT00001223;915.00;;;<p>Gentle Wash with Good detergent. Do Not Brush. Wash Inside Out. Dry In Shade. Do Not Iron on Print.</p>;;;;;zerotype;;Winter;;No
2011634;C/S-52462-Mustard-2011634;C/S-52462 MUSTARD 30;Draft;Jackets;Okane;Kids-Boys;Boys;NA;;;Fashion;;2017;26,OKNEJCKT00001218,28,OKNEJCKT00001219,30,OKNEJCKT00001220;1000.00;;;<p>Gentle Wash with Good detergent. Do Not Brush. Wash Inside Out. Dry In Shade. Do Not Iron on Print.</p>;;;;;zerotype;;Winter;;No
2011633;C/S-52462-Mustard-2011633;C/S-52462 MUSTARD 24;Draft;Jackets;Okane;Kids-Boys;Boys;NA;;;Fashion;;2017;20,OKNEJCKT00001215,22,OKNEJCKT00001216,24,OKNEJCKT00001217;915.00;;;<p>Gentle Wash with Good detergent. Do Not Brush. Wash Inside Out. Dry In Shade. Do Not Iron on Print.</p>;;;;;zerotype;;Winter;;No
2011632;C/S-52461-Blue-2011632;C/S-52461 BLUE 30;Draft;Jackets;Okane;Kids-Boys;Boys;NA;;;Fashion;;2017;26,OKNEJCKT00001212,28,OKNEJCKT00001213,30,OKNEJCKT00001214;1000.00;;;<p>Gentle Wash with Good detergent. Do Not Brush. Wash Inside Out. Dry In Shade. Do Not Iron on Print.</p>;;;;;zerotype;;Winter;;No
2011631;C/S-52461-Blue-2011631;C/S-52461 BLUE 24;Draft;Jackets;Okane;Kids-Boys;Boys;NA;;;Fashion;;2017;20,OKNEJCKT00001209,22,OKNEJCKT00001210,24,OKNEJCKT00001211;915.00;;;<p>Gentle Wash with Good detergent. Do Not Brush. Wash Inside Out. Dry In Shade. Do Not Iron on Print.</p>;;;;;zerotype;;Winter;;No
2011627;C/S-52457-Green-2011627;C/S-52457 GREEN 22;Draft;Jackets;Okane;Kids-Boys;Boys;NA;;;Fashion;;2017;18,OKNEJCKT00001197,20,OKNEJCKT00001198,22,OKNEJCKT00001199;790.00;;;<p>Gentle Wash with Good detergent. Do Not Brush. Wash Inside Out. Dry In Shade. Do Not Iron on Print.</p>;;;;;zerotype;;Winter;;No
2011623;52482-B-Red-2011623;52482-B RED 24;Draft;Jackets;Okane;Kids-Boys;Boys;NA;;;Fashion;;2017;20,OKNEJCKT00001185,22,OKNEJCKT00001186,24,OKNEJCKT00001187;1710.00;;;<p>Gentle Wash with Good detergent. Do Not Brush. Wash Inside Out. Dry In Shade. Do Not Iron on Print.</p>;;;;;zerotype;;Winter;;No
2011622;52482-B-Mustard-2011622;52482-B MUSTARD 24;Draft;Jackets;Okane;Kids-Boys;Boys;NA;;;Fashion;;2017;20,OKNEJCKT00001182,22,OKNEJCKT00001183,24,OKNEJCKT00001184;1710.00;;;<p>Gentle Wash with Good detergent. Do Not Brush. Wash Inside Out. Dry In Shade. Do Not Iron on Print.</p>;;;;;zerotype;;Winter;;No
2011617;51527-B-Red-2011617;51527-B RED 36;Draft;Jackets;Okane;Kids-Boys;Boys;NA;;;Fashion;;2017;32,OKNEJCKT00001170,34,OKNEJCKT00001171,36,OKNEJCKT00001172;1985.00;;;<p>Gentle Wash with Good detergent. Do Not Brush. Wash Inside Out. Dry In Shade. Do Not Iron on Print.</p>;;;;;zerotype;;Winter;;No
2011616;51527-B-Mustard-2011616;51527-B MUSTARD 36;Draft;Jackets;Okane;Kids-Boys;Boys;NA;;;Fashion;;2017;32,OKNEJCKT00001167,34,OKNEJCKT00001168,36,OKNEJCKT00001169;1985.00;;;<p>Gentle Wash with Good detergent. Do Not Brush. Wash Inside Out. Dry In Shade. Do Not Iron on Print.</p>;;;;;zerotype;;Winter;;No
2011615;51527-B-Airforce-2011615;51527-B AIR FORCE 36;Draft;Jackets;Okane;Kids-Boys;Boys;NA;;;Fashion;;2017;32,OKNEJCKT00001164,34,OKNEJCKT00001165,36,OKNEJCKT00001166;1985.00;;;<p>Gentle Wash with Good detergent. Do Not Brush. Wash Inside Out. Dry In Shade. Do Not Iron on Print.</p>;;;;;zerotype;;Winter;;No
2011614;52523-Tan-2011614;52523 TAN 36;Draft;Jackets;Okane;Kids-Girls;Girls;NA;;;Fashion;;2017;32,OKNEJCKT00001161,34,OKNEJCKT00001162,36,OKNEJCKT00001163;2285.00;;;<p>Gentle Wash with Good detergent. Do Not Brush. Wash Inside Out. Dry In Shade. Do Not Iron on Print.</p>;;;;;zerotype;;Winter;;No
2011612;52523-Coffee-2011612;52523 COFFEE 36;Draft;Jackets;Okane;Kids-Girls;Girls;NA;;;Fashion;;2017;32,OKNEJCKT00001154,34,OKNEJCKT00001155,36,OKNEJCKT00001156;2285.00;;;<p>Gentle Wash with Good detergent. Do Not Brush. Wash Inside Out. Dry In Shade. Do Not Iron on Print.</p>;;;;;zerotype;;Winter;;No
2011610;52523-Black-2011610;52523 BLACK 36;Draft;Jackets;Okane;Kids-Girls;Girls;NA;;;Fashion;;2017;32,OKNEJCKT00001147,34,OKNEJCKT00001148,36,OKNEJCKT00001149;2285.00;;;<p>Gentle Wash with Good detergent. Do Not Brush. Wash Inside Out. Dry In Shade. Do Not Iron on Print.</p>;;;;;zerotype;;Winter;;No
2011609;52522-Tan-2011609;52522 TAN 36;Draft;Jackets;Okane;Kids-Girls;Girls;NA;;;Fashion;;2017;32,OKNEJCKT00001144,34,OKNEJCKT00001145,36,OKNEJCKT00001146;2185.00;;;<p>Gentle Wash with Good detergent. Do Not Brush. Wash Inside Out. Dry In Shade. Do Not Iron on Print.</p>;;;;;zerotype;;Winter;;No
2011608;52522-Brown-2011608;52522 BROWN 36;Draft;Jackets;Okane;Kids-Girls;Girls;NA;;;Fashion;;2017;32,OKNEJCKT00001141,34,OKNEJCKT00001142,36,OKNEJCKT00001143;2185.00;;;<p>Gentle Wash with Good detergent. Do Not Brush. Wash Inside Out. Dry In Shade. Do Not Iron on Print.</p>;;;;;zerotype;;Winter;;No
2011607;52522-Black-2011607;52522 BLACK 36;Draft;Jackets;Okane;Kids-Girls;Girls;NA;;;Fashion;;2017;32,OKNEJCKT00001138,34,OKNEJCKT00001139,36,OKNEJCKT00001140;2185.00;;;<p>Gentle Wash with Good detergent. Do Not Brush. Wash Inside Out. Dry In Shade. Do Not Iron on Print.</p>;;;;;zerotype;;Winter;;No
2011601;52502-Black-2011601;52502 BLACK 36;Draft;Jackets;Okane;Kids-Girls;Girls;NA;;;Fashion;;2017;32,OKNEJCKT00001122,34,OKNEJCKT00001123,36,OKNEJCKT00001124;1625.00;;;<p>Gentle Wash with Good detergent. Do Not Brush. Wash Inside Out. Dry In Shade. Do Not Iron on Print.</p>;;;;;zerotype;;Winter;;No
2011600;52502-Black-2011600;52502 BLACK 30;Draft;Jackets;Okane;Kids-Girls;Girls;NA;;;Fashion;;2017;24,OKNEJCKT00001118,26,OKNEJCKT00001119,28,OKNEJCKT00001120,30,OKNEJCKT00001121;1485.00;;;<p>Gentle Wash with Good detergent. Do Not Brush. Wash Inside Out. Dry In Shade. Do Not Iron on Print.</p>;;;;;zerotype;;Winter;;No
2011597;52492-Grey-2011597;52492 GREY 28;Draft;Jackets;Okane;Kids-Boys;Boys;NA;;;Fashion;;2017;26,OKNEJCKT00001110,28,OKNEJCKT00001111;1165.00;;;<p>Gentle Wash with Good detergent. Do Not Brush. Wash Inside Out. Dry In Shade. Do Not Iron on Print.</p>;;;;;zerotype;;Winter;;No
2011595;52482-Red-2011595;52482 RED 24;Draft;Jackets;Okane;Kids-Boys;Boys;NA;;;Fashion;;2017;20,OKNEJCKT00001103,22,OKNEJCKT00001104,24,OKNEJCKT00001105;1585.00;;;<p>Gentle Wash with Good detergent. Do Not Brush. Wash Inside Out. Dry In Shade. Do Not Iron on Print.</p>;;;;;zerotype;;Winter;;No
2011594;52482-Mustard-2011594;52482 MUSTARD 24;Draft;Jackets;Okane;Kids-Boys;Boys;NA;;;Fashion;;2017;20,OKNEJCKT00001100,22,OKNEJCKT00001101,24,OKNEJCKT00001102;1585.00;;;<p>Gentle Wash with Good detergent. Do Not Brush. Wash Inside Out. Dry In Shade. Do Not Iron on Print.</p>;;;;;zerotype;;Winter;;No
2011592;52482-Gold-2011592;52482 GOLD 30;Draft;Jackets;Okane;Kids-Boys;Boys;NA;;;Fashion;;2017;26,OKNEJCKT00001094,28,OKNEJCKT00001095,30,OKNEJCKT00001096;1710.00;;;<p>Gentle Wash with Good detergent. Do Not Brush. Wash Inside Out. Dry In Shade. Do Not Iron on Print.</p>;;;;;zerotype;;Winter;;No
2011591;52481-Tan-2011591;52481 TAN 30;Draft;Jackets;Okane;Kids-Boys;Boys;NA;;;Fashion;;2017;26,OKNEJCKT00001091,28,OKNEJCKT00001092,30,OKNEJCKT00001093;1835.00;;;<p>Gentle Wash with Good detergent. Do Not Brush. Wash Inside Out. Dry In Shade. Do Not Iron on Print.</p>;;;;;zerotype;;Winter;;No
2011590;52481-Rust-2011590;52481 RUST 24;Draft;Jackets;Okane;Kids-Boys;Boys;NA;;;Fashion;;2017;20,OKNEJCKT00001088,22,OKNEJCKT00001089,24,OKNEJCKT00001090;1710.00;;;<p>Gentle Wash with Good detergent. Do Not Brush. Wash Inside Out. Dry In Shade. Do Not Iron on Print.</p>;;;;;zerotype;;Winter;;No
2011589;52481-Green-2011589;52481 GREEN 24;Draft;Jackets;Okane;Kids-Boys;Boys;NA;;;Fashion;;2017;20,OKNEJCKT00001085,22,OKNEJCKT00001086,24,OKNEJCKT00001087;1710.00;;;<p>Gentle Wash with Good detergent. Do Not Brush. Wash Inside Out. Dry In Shade. Do Not Iron on Print.</p>;;;;;zerotype;;Winter;;No
2011588;52481-Black-2011588;52481 BLACK 36;Draft;Jackets;Okane;Kids-Boys;Boys;NA;;;Fashion;;2017;32,OKNEJCKT00001082,34,OKNEJCKT00001083,36,OKNEJCKT00001084;1995.00;;;<p>Gentle Wash with Good detergent. Do Not Brush. Wash Inside Out. Dry In Shade. Do Not Iron on Print.</p>;;;;;zerotype;;Winter;;No
2011586;52481-Black-2011586;52481 BLACK 24;Draft;Jackets;Okane;Kids-Boys;Boys;NA;;;Fashion;;2017;20,OKNEJCKT00001079,22,OKNEJCKT00001080,24,OKNEJCKT00001081;1710.00;;;<p>Gentle Wash with Good detergent. Do Not Brush. Wash Inside Out. Dry In Shade. Do Not Iron on Print.</p>;;;;;zerotype;;Winter;;No
2011574;52477-D.Orange-2011574;52477 D.ORANGE 30;Draft;Jackets;Okane;Kids-Boys;Boys;NA;;;Fashion;;2017;26,OKNEJCKT00001043,28,OKNEJCKT00001044,30,OKNEJCKT00001045;2085.00;;;<p>Gentle Wash with Good detergent. Do Not Brush. Wash Inside Out. Dry In Shade. Do Not Iron on Print.</p>;;;;;zerotype;;Winter;;No
2011569;52428-Navy-2011569;52428 NAVY 36;Draft;Jackets;Okane;Kids-Boys;Boys;NA;;;Fashion;;2017;32,OKNEJCKT00001031,34,OKNEJCKT00001032,36,OKNEJCKT00001033;2660.00;;;<p>Gentle Wash with Good detergent. Do Not Brush. Wash Inside Out. Dry In Shade. Do Not Iron on Print.</p>;;;;;zerotype;;Winter;;No
2011568;52412-Fawn-2011568;52412 FAWN 24;Draft;Jackets;Okane;Kids-Boys;Boys;NA;;;Fashion;;2017;20,OKNEJCKT00001028,22,OKNEJCKT00001029,24,OKNEJCKT00001030;990.00;;;<p>Gentle Wash with Good detergent. Do Not Brush. Wash Inside Out. Dry In Shade. Do Not Iron on Print.</p>;;;;;zerotype;;Winter;;No
2011567;51526-Sea Green-2011567;51526 SEA GREEN 24;Draft;Jackets;Okane;Kids-Boys;Boys;NA;;;Fashion;;2017;20,OKNEJCKT00001025,22,OKNEJCKT00001026,24,OKNEJCKT00001027;1540.00;;;<p>Gentle Wash with Good detergent. Do Not Brush. Wash Inside Out. Dry In Shade. Do Not Iron on Print.</p>;;;;;zerotype;;Winter;;No
2011565;51526-Red-2011565;51526 RED 24;Draft;Jackets;Okane;Kids-Boys;Boys;NA;;;Fashion;;2017;20,OKNEJCKT00001019,22,OKNEJCKT00001020,24,OKNEJCKT00001021;1540.00;;;<p>Gentle Wash with Good detergent. Do Not Brush. Wash Inside Out. Dry In Shade. Do Not Iron on Print.</p>;;;;;zerotype;;Winter;;No
2011564;51526-Mustard-2011564;51526 MUSTARD 24;Draft;Jackets;Okane;Kids-Boys;Boys;NA;;;Fashion;;2017;20,OKNEJCKT00001016,22,OKNEJCKT00001017,24,OKNEJCKT00001018;1540.00;;;<p>Gentle Wash with Good detergent. Do Not Brush. Wash Inside Out. Dry In Shade. Do Not Iron on Print.</p>;;;;;zerotype;;Winter;;No
2011553;32043-Green-2011553;32043 GREEN 24;Draft;Jackets;Okane;Kids-Boys;Boys;NA;;;Fashion;;2017;20,OKNEJCKT00000989,22,OKNEJCKT00000990,24,OKNEJCKT00000991;1920.00;;;<p>Gentle Wash with Good detergent. Do Not Brush. Wash Inside Out. Dry In Shade. Do Not Iron on Print.</p>;;;;;zerotype;;Winter;;No
2011552;32043-Black-2011552;32043 BLACK 30;Draft;Jackets;Okane;Kids-Boys;Boys;NA;;;Fashion;;2017;26,OKNEJCKT00000986,28,OKNEJCKT00000987,30,OKNEJCKT00000988;2045.00;;;<p>Gentle Wash with Good detergent. Do Not Brush. Wash Inside Out. Dry In Shade. Do Not Iron on Print.</p>;;;;;zerotype;;Winter;;No
2011548;22127-Airforce-2011548;22127 AIR FORCE 36;Draft;Jackets;Okane;Kids-Boys;Boys;NA;;;Fashion;;2017;32,OKNEJCKT00000977,34,OKNEJCKT00000978,36,OKNEJCKT00000979;2000.00;;;<p>Gentle Wash with Good detergent. Do Not Brush. Wash Inside Out. Dry In Shade. Do Not Iron on Print.</p>;;;;;zerotype;;Winter;;No
1990055;CP9703-LINGRN/LINGRN/TACGRN-1990055;STAN SMITH;Delisted;Casual Shoes;Adidas Originals;Adults-Men;Men;Green;;;Fashion;Casual;2017;UK11,ADORCASH00004595,UK10,ADORCASH00004596,UK7,ADORCASH00004597,UK9,ADORCASH00004598,UK8,ADORCASH00004599;8999.00;A pair of round-toe mint <a href='/green?src=pd' class='seolink'>green</a> <a href='/sneakers?src=pd' class='seolink'>sneakers</a>, has lace-up detail<br /><a href='/leather?src=pd' class='seolink'>Leather</a> upper<br />Cushioned footbed<br />Textured and patterned outsole<br />Warranty: <a href='/3?src=pd' class='seolink'>3</a> months from the date of purchase against manufacturing defects;Touch up your wardrobe with a brand new pair of Adidas Originals casual shoes. When you're grabbing drinks with the guys, pair these shoes with chinos and a casual blazer.;Leather <br />Use a branded leather conditioner to clean the product;;;Adidas Originals Men Mint Green Stan Smith Sneakers;Adidas Originals,adidas-new-arrivals;zerotype;;Fall;delist for sports weekender sale;No
1990054;CP9702-FTWWHT/FTWWHT/RAWPIN-1990054;STAN SMITH;Delisted;Casual Shoes;Adidas Originals;Adults-Men;Men;White;;;Fashion;Casual;2017;UK10,ADORCASH00004590,UK11,ADORCASH00004591,UK8,ADORCASH00004592,UK9,ADORCASH00004593,UK7,ADORCASH00004594;8999.00;A pair of round-toe white <a href='/sneakers?src=pd' class='seolink'>sneakers</a>, has <a href='/regular?src=pd' class='seolink'>regular</a> styling, lace-up detail<br /><a href='/leather?src=pd' class='seolink'>Leather</a> upper<br />Cushioned footbed<br />Textured and patterned outsole<br />Engineered with Ortholite technology<br />Warranty: <a href='/3?src=pd' class='seolink'>3</a> months from the date of purchase against manufacturing defects;Expand your modish shoe collection with these comfy Adidas Originals casual shoes.  Great for a lunch date, team this white pair with distressed jeans and a simple tee.;Leather <br /> Wipe with a clean, dry cloth to remove dust;;;Adidas Originals Men White Stan Smith Sneakers;Adidas Originals,adidas-new-arrivals;zerotype;;Fall;delist for sports weekender sale;No
1990053;CP9701-FTWWHT/FTWWHT/TACBLU-1990053;STAN SMITH;Delisted;Casual Shoes;Adidas Originals;Adults-Men;Men;White;;;Fashion;Casual;2017;UK8,ADORCASH00004585,UK10,ADORCASH00004586,UK9,ADORCASH00004587,UK7,ADORCASH00004588,UK11,ADORCASH00004589;8999.00;A pair of round-toe white <a href='/sneakers?src=pd' class='seolink'>sneakers</a>, has <a href='/regular?src=pd' class='seolink'>regular</a> styling, lace-up detail<br /><a href='/leather?src=pd' class='seolink'>Leather</a> upper<br />Cushioned footbed<br />Textured and patterned outsole<br />Engineered with Ortholite technology<br />Warranty: <a href='/3?src=pd' class='seolink'>3</a> months from the date of purchase against manufacturing defects;Expand your hip shoe collection with these comfy Adidas Originals casual shoes.  When you're grabbing drinks with the guys, pair these white shoes with chinos and a casual blazer.;Leather <br /> Wipe with a clean, dry cloth to remove dust;;;Adidas Originals Men White Stan Smith Sneakers;Adidas Originals,adidas-new-arrivals;zerotype;;Fall;delist for sports weekender sale;No
1990033;BZ0472-ICEBLU/ICEBLU/TACBLU-1990033;STAN SMITH;Delisted;Casual Shoes;Adidas Originals;Adults-Men;Men;Blue;;;Fashion;Casual;2017;UK11,ADORCASH00004521,UK7,ADORCASH00004522,UK9,ADORCASH00004523,UK8,ADORCASH00004524,UK10,ADORCASH00004525;8999.00;A pair of round-toe <a href='/blue-sneakers?src=pd' class='seolink'>blue sneakers</a>, has <a href='/regular?src=pd' class='seolink'>regular</a> styling, lace-up detail<br /><a href='/leather?src=pd' class='seolink'>Leather</a> upper<br />Cushioned footbed<br />Textured and patterned outsole<br />Warranty: 3 months from the date of purchase against manufacturing defects;Take on a whole new style with these one-of-a-kind Adidas Originals casual shoes.  These blue shoes can be teamed with slim jeans and a trendy button-down shirt when you're meeting the guys for dinner and drinks.;Leather <br />Use a branded leather conditioner to clean the product<br />Avoid washing;;;Adidas Originals Men Blue STAN SMITH Leather Sneakers;Adidas Originals,adidas-new-arrivals;zerotype;;Fall;delist for sports weekender sale;No
1990032;BZ0470-FTWWHT/FTWWHT/TACGRN-1990032;STAN SMITH;Delisted;Casual Shoes;Adidas Originals;Adults-Men;Men;White;;;Fashion;Casual;2017;UK11,ADORCASH00004516,UK9,ADORCASH00004517,UK10,ADORCASH00004518,UK7,ADORCASH00004519,UK8,ADORCASH00004520;8999.00;A pair of round-toe white <a href='/sneakers?src=pd' class='seolink'>sneakers</a>, has lace-up detail<br /><a href='/leather?src=pd' class='seolink'>Leather</a> upper with perforations<br />Cushioned footbed<br />Textured and patterned rubber outsole<br />Warranty: <a href='/3?src=pd' class='seolink'>3</a> months;Try on these trendy Adidas Originals casual shoes and embrace your comfortable new kicks. These white shoes can be teamed with slim jeans and a trendy button-down shirt when you're meeting the guys for dinner and drinks.;Leather <br />Use a branded leather conditioner to clean the product<br />Avoid washing;;;Adidas Originals Men White Stan Smith Sneakers;Adidas Originals,adidas-new-arrivals;zerotype;;Fall;delist for sports weekender sale;No
1990031;BZ0469-TACROS/TACROS/RAWPIN-1990031;STAN SMITH;Delisted;Casual Shoes;Adidas Originals;Adults-Men;Men;Coral;;;Fashion;Casual;2017;UK8,ADORCASH00004511,UK11,ADORCASH00004512,UK10,ADORCASH00004513,UK7,ADORCASH00004514,UK9,ADORCASH00004515;8999.00;A pair of round-toe <a href='/coral?src=pd' class='seolink'>coral</a> <a href='/pink?src=pd' class='seolink'>pink</a> <a href='/sneakers?src=pd' class='seolink'>sneakers</a>, has <a href='/regular?src=pd' class='seolink'>regular</a> styling, lace-up detail<br /><a href='/leather?src=pd' class='seolink'>Leather</a> upper<br />Cushioned footbed<br />Textured and patterned outsole<br />Engineered with Ortholite technology<br />Warranty: 3 months from the date of purchase against manufacturing defects;Take on a whole new style with these one-of-a-kind Adidas Originals casual shoes.  Style this coral pair with dark denims and a graphic tee for a chill look for the weekend.;Leather <br /> Wipe with a clean, dry cloth to remove dust;;;Adidas Originals Men Coral Pink Stan Smith Sneakers;Adidas Originals,adidas-new-arrivals;zerotype;;Fall;delist for sports weekender sale;No
1990028;BZ0402-FTWWHT/FTWWHT/TRABLU-1990028;STAN SMITH W;Delisted;Casual Shoes;Adidas Originals;Adults-Women;Women;White;;;Fashion;Casual;2017;UK4,ADORCASH00004496,UK6,ADORCASH00004497,UK5,ADORCASH00004498,UK8,ADORCASH00004499,UK7,ADORCASH00004500;7999.00;A pair of white <a href='/sneakers?src=pd' class='seolink'>sneakers</a>, has central lace-ups<br /><a href='/leather?src=pd' class='seolink'>Leather</a> and <a href='/synthetic?src=pd' class='seolink'>synthetic</a> upper<br />Cushioned footbed engineered with Ortholite technology<br />Textured and patterned rubber outsole<br />Warranty: <a href='/3?src=pd' class='seolink'>3</a> months;Expand your shoe collection with a brand new pair of casual shoes made by Adidas Originals.  This white pair can be styled with a casual T-shirt and some slim jeans for a cute date look.;Leather and synthetic<br />Use a branded leather conditioner to clean the product<br />Avoid washing;;;Adidas Originals Women White Stan Smith Leather Sneakers;Adidas Originals,adidas-new-arrivals;zerotype;;Fall;delist for sports weekender sale;No
1990027;BZ0401-FTWWHT/FTWWHT/WONPNK-1990027;STAN SMITH W;Delisted;Casual Shoes;Adidas Originals;Adults-Women;Women;White;;;Fashion;Casual;2017;UK6,ADORCASH00004491,UK4,ADORCASH00004492,UK7,ADORCASH00004493,UK8,ADORCASH00004494,UK5,ADORCASH00004495;7999.00;A pair of white <a href='/sneakers?src=pd' class='seolink'>sneakers</a>, has central lace-ups<br /><a href='/leather?src=pd' class='seolink'>Leather</a> and <a href='/synthetic?src=pd' class='seolink'>synthetic</a> upper<br />Cushioned footbed engineered Ortholite technology<br />Textured and patterned rubber outsole<br />Warranty: <a href='/3?src=pd' class='seolink'>3</a> months;A pair of casual shoes from Adidas Originals are a must-have for anyone on-the-go.  This white pair can be styled with a casual T-shirt and some slim jeans for a cute date look.;Leather and synthetic<br />Use a branded leather conditioner to clean the product<br />Avoid washing;;;Adidas Originals Women White Stan Smith Leather Sneakers;Adidas Originals,adidas-new-arrivals;zerotype;;Fall;delist for sports weekender sale;No
1990009;BY9623-CBLACK/CARBON/FTWWHT-1990009;EQT SUPPORT RF;Active;Casual Shoes;Adidas Originals;Adults-Men;Men;Black;;;Fashion;Casual;2017;UK8,ADORCASH00004415,UK11,ADORCASH00004416,UK7,ADORCASH00004417,UK9,ADORCASH00004418,UK10,ADORCASH00004419;12999.00;A pair of round-toe black sneakers, has lace-up detail<br />Leather and mesh upper<br />Cushioned ortholite footbed<br />Textured and patterned outsole<br />Warranty: 3 months from the date of purchase against manufacturing defects;Express yourself with some new and trendy Adidas Originals casual shoes. These shoes can be teamed with slim jeans and a trendy button-down shirt when you're meeting the guys for dinner and drinks.;Leather and mesh<br />Use a branded leather conditioner to clean the product;;;Adidas Originals Men Black EQT Support RF Sneakers;Adidas Originals,adidas-new-arrivals;zerotype;;Fall;adidas-new-arrivals;No
