Style ID;Vendor Article Number;Vendor Article Name;Active Status;Article type;Brand;Age Group;Gender;Base Colour;Colour1;Colour2;Fashion Type;Usage;Year;Size - SKU code pair;MRP;Style Description;Style Note;Materials and Care Description;Size and Fit Description;Size Chart Path;Product Display Name;Tags;Product Type;Classification Brand;Season;Comments;Upload Images
1829236;B1S16MAN0025-Grey-1829236;ENGLEWOOD ST;Draft;Shorts;Blue Saint;Adults-Men;Men;;;;Fashion;;2017;28,BESTSHOR00000381,30,BESTSHOR00000382,32,BESTSHOR00000383,34,BESTSHOR00000384,36,BESTSHOR00000385;1099.00;;;;;;;;zerotype;;Winter;;No
1829235;B1S16MAN0021-Blue-1829235;FORDHAM ROAD;Draft;Shorts;Blue Saint;Adults-Men;Men;;;;Fashion;;2017;28,BESTSHOR00000376,30,BESTSHOR00000377,32,BESTSHOR00000378,34,BESTSHOR00000379,36,BESTSHOR00000380;1099.00;;;;;;;;zerotype;;Winter;;No
1829234;B1W16MHS0059-Navy Blue-1829234;CAMBERLEY;Draft;Shirts;Blue Saint;Adults-Men;Men;;;;Fashion;;2017;XXL,BESTSHRT00000940,XL,BESTSHRT00000941,S,BESTSHRT00000942,M,BESTSHRT00000943,L,BESTSHRT00000944;1099.00;;;;;;;;zerotype;;Winter;;No
1829233;B1W16MFS0070-Navy Blue-1829233;BOUNTI;Draft;Shirts;Blue Saint;Adults-Men;Men;;;;Fashion;;2017;S,BESTSHRT00000936,M,BESTSHRT00000937,L,BESTSHRT00000938,XL,BESTSHRT00000939;1599.00;;;;;;;;zerotype;;Winter;;No
1829232;B1W16MFS0063-Grey-1829232;CAMERON;Draft;Shirts;Blue Saint;Adults-Men;Men;;;;Fashion;;2017;S,BESTSHRT00000931,M,BESTSHRT00000932,L,BESTSHRT00000933,XL,BESTSHRT00000934,XXL,BESTSHRT00000935;1299.00;;;;;;;;zerotype;;Winter;;No
1829231;B1W16MFS0048-Khaki-1829231;CUMNOR;Draft;Shirts;Blue Saint;Adults-Men;Men;;;;Fashion;;2017;S,BESTSHRT00000926,M,BESTSHRT00000927,L,BESTSHRT00000928,XL,BESTSHRT00000929,XXL,BESTSHRT00000930;1299.00;;;;;;;;zerotype;;Winter;;No
1829230;B1W16MFS0044-Navy Blue-1829230;CUSBAY;Draft;Shirts;Blue Saint;Adults-Men;Men;;;;Fashion;;2017;S,BESTSHRT00000921,M,BESTSHRT00000922,L,BESTSHRT00000923,XL,BESTSHRT00000924,XXL,BESTSHRT00000925;1399.00;;;;;;;;zerotype;;Winter;;No
1829229;B1W16MFS0031-White-1829229;BRACE;Draft;Shirts;Blue Saint;Adults-Men;Men;;;;Fashion;;2017;M,BESTSHRT00000918,L,BESTSHRT00000919,XL,BESTSHRT00000920;1299.00;;;;;;;;zerotype;;Winter;;No
1829228;B1W16MFS0030-Grey-1829228;BOYCE;Draft;Shirts;Blue Saint;Adults-Men;Men;;;;Fashion;;2017;M,BESTSHRT00000915,L,BESTSHRT00000916,XL,BESTSHRT00000917;1199.00;;;;;;;;zerotype;;Winter;;No
1829227;B1W16MFS0022-Blue-1829227;BOND;Draft;Shirts;Blue Saint;Adults-Men;Men;;;;Fashion;;2017;XL,BESTSHRT00000912,M,BESTSHRT00000913,L,BESTSHRT00000914;1299.00;;;;;;;;zerotype;;Winter;;No
1829226;B1W16MFS0014-White-1829226;BLISS;Draft;Shirts;Blue Saint;Adults-Men;Men;;;;Fashion;;2017;S,BESTSHRT00000908,L,BESTSHRT00000909,M,BESTSHRT00000910,XL,BESTSHRT00000911;1299.00;;;;;;;;zerotype;;Winter;;No
1829225;B1S16MFS0211-Grey-1829225;BOTHELL;Draft;Shirts;Blue Saint;Adults-Men;Men;;;;Fashion;;2017;M,BESTSHRT00000905,L,BESTSHRT00000906,XL,BESTSHRT00000907;1099.00;;;;;;;;zerotype;;Winter;;No
1829224;B1S16MFS0209-Blue-1829224;WEMATCHEE;Draft;Shirts;Blue Saint;Adults-Men;Men;;;;Fashion;;2017;M,BESTSHRT00000902,L,BESTSHRT00000903,XL,BESTSHRT00000904;1099.00;;;;;;;;zerotype;;Winter;;No
1829223;B1MP16JKT0003-Blue-1829223;CLARKE;Draft;Jackets;Blue Saint;Adults-Men;Men;;;;Fashion;;2017;S,BESTJCKT00000014,M,BESTJCKT00000015,L,BESTJCKT00000016,XL,BESTJCKT00000017,XXL,BESTJCKT00000018;1599.00;;;;;;;;zerotype;;Winter;;No
1829222;B1MP16JKT0002-Blue-1829222;CAIRN;Draft;Jackets;Blue Saint;Adults-Men;Men;;;;Fashion;;2017;S,BESTJCKT00000010,M,BESTJCKT00000011,L,BESTJCKT00000012,XL,BESTJCKT00000013;1899.00;;;;;;;;zerotype;;Winter;;No
1829221;B1S17MLK0027-Burgundy-1829221;XERON;Draft;Tshirts;Blue Saint;Adults-Men;Men;;;;Fashion;;2017;M,BESTTSHT00001382,L,BESTTSHT00001383,XL,BESTTSHT00001384,S,BESTTSHT00001385;699.00;;;;;;;;zerotype;;Summer;;No
1829220;B1S17MHK0088-Multi-1829220;XANTHOS;Draft;Tshirts;Blue Saint;Adults-Men;Men;;;;Fashion;;2017;S,BESTTSHT00001378,M,BESTTSHT00001379,L,BESTTSHT00001380,XL,BESTTSHT00001381;699.00;;;;;;;;zerotype;;Summer;;No
1829219;B1S17MHK0036-Navy BlueBurgundyGrey-1829219;XANDE;Draft;Tshirts;Blue Saint;Adults-Men;Men;;;;Fashion;;2017;S,BESTTSHT00001374,M,BESTTSHT00001375,L,BESTTSHT00001376,XL,BESTTSHT00001377;599.00;;;;;;;;zerotype;;Summer;;No
1829218;B1S17MHK0021-White-1829218;XOSE;Draft;Tshirts;Blue Saint;Adults-Men;Men;;;;Fashion;;2017;M,BESTTSHT00001370,XL,BESTTSHT00001371,L,BESTTSHT00001372,S,BESTTSHT00001373;899.00;;;;;;;;zerotype;;Summer;;No
1829217;B1S17MHK0014-Black-1829217;XONCHE;Draft;Tshirts;Blue Saint;Adults-Men;Men;;;;Fashion;;2017;XL,BESTTSHT00001366,S,BESTTSHT00001367,L,BESTTSHT00001368,M,BESTTSHT00001369;699.00;;;;;;;;zerotype;;Summer;;No
1829216;B1S17MFK0083-Pink-1829216;XYST;Draft;Tshirts;Blue Saint;Adults-Men;Men;;;;Fashion;;2017;S,BESTTSHT00001362,M,BESTTSHT00001363,L,BESTTSHT00001364,XL,BESTTSHT00001365;699.00;;;;;;;;zerotype;;Summer;;No
1829215;B1S17MFW0139-Navy Blue-1829215;XYKE;Draft;Sweatshirts;Blue Saint;Adults-Men;Men;;;;Fashion;;2017;S,BESTSWSH00000749,M,BESTSWSH00000750,L,BESTSWSH00000751,XL,BESTSWSH00000752;1399.00;;;;;;;;zerotype;;Summer;;No
1829214;B1S17MFW0138-White-1829214;XETA;Draft;Sweatshirts;Blue Saint;Adults-Men;Men;;;;Fashion;;2017;S,BESTSWSH00000745,L,BESTSWSH00000746,XL,BESTSWSH00000747,M,BESTSWSH00000748;1299.00;;;;;;;;zerotype;;Summer;;No
1829213;B1S17MAA0170-BlackGrey Melange-1829213;XUCTUL;Draft;Track Pants;Blue Saint;Adults-Men;Men;;;;Fashion;;2017;32,BESTTRPT00000021,30,BESTTRPT00000022,28,BESTTRPT00000023,34,BESTTRPT00000024,36,BESTTRPT00000025;1399.00;;;;;;;;zerotype;;Summer;;No
1829212;B1S17MAA0166-Black-1829212;XAYA;Draft;Track Pants;Blue Saint;Adults-Men;Men;;;;Fashion;;2017;32,BESTTRPT00000016,30,BESTTRPT00000017,34,BESTTRPT00000018,36,BESTTRPT00000019,28,BESTTRPT00000020;1299.00;;;;;;;;zerotype;;Summer;;No
1829210;B1S17MAA0158-Black-1829210;XAP;Draft;Track Pants;Blue Saint;Adults-Men;Men;;;;Fashion;;2017;36,BESTTRPT00000011,28,BESTTRPT00000012,34,BESTTRPT00000013,32,BESTTRPT00000014,30,BESTTRPT00000015;1399.00;;;;;;;;zerotype;;Summer;;No
1829209;B1S17MAA0155-Grey Melange-1829209;XILOT;Draft;Track Pants;Blue Saint;Adults-Men;Men;;;;Fashion;;2017;28,BESTTRPT00000006,32,BESTTRPT00000007,30,BESTTRPT00000008,34,BESTTRPT00000009,36,BESTTRPT00000010;1199.00;;;;;;;;zerotype;;Summer;;No
1829207;B1S17MAA0154-Blue-1829207;XILI;Draft;Track Pants;Blue Saint;Adults-Men;Men;;;;Fashion;;2017;30,BESTTRPT00000001,34,BESTTRPT00000002,36,BESTTRPT00000003,28,BESTTRPT00000004,32,BESTTRPT00000005;1199.00;;;;;;;;zerotype;;Summer;;No
1271027;B1S16MFS0078-WHITE-1271027;CHARLESTONE;Active;Shirts;Blue Saint;Adults-Men;Men;White;;;Fashion;Casual;2016;S,BESTSHRT00000485,M,BESTSHRT00000486,L,BESTSHRT00000487,XL,BESTSHRT00000488;1299.00;White printed casual shirt, has a button-down collar, a full button placket, long sleeves, curved hem;<p>This shirt from Blue Saint&nbsp is just what you need to make a style statement. Team it with a pair of denims and casual&nbsp shoes to complete the look.</p>;<p>100% cotton<br>Machine-wash cold</p>;<p>The model (height 6'1" and shoulders 18") is wearing a size 40</p>;;Blue Saint White Printed Casual Shirt;Blue Saint,ALDN3940,new-styles-offer-28apr,ss16-on-discount,Casualwear-fathers-day,Casualwear-fathers-day,micro-prints,min40-extra40-4jul,500rs-5jul,500-12jul,brands-you-love-july-16,eoss-collection,eoss-best-collection,rs500-off-17july,eoss-best-collection-2,500-rs-off-10aug,rs500-off-17aug,style-theory,inb-august,rs-500-24aug,fk-lenovo-offer,fk-tv-offer,welcome-to-myn-log-off,tat-styles-31aug,off-1000-500-8sep,casual-shirts-ernakulam,500-13sep,men-work-casual-shirts-polos,men-work-casual-topwear-after-hours,printed-shirt-navaratri,men-work-casual-all,diwali-flat-70-offer,flat50-extra30-extra10-22oct,first999-extra55-22oct,welcome-to-myntra-sept,wedding-groom-bachelor-party-casual,wedding-groom-bachelor-party-casual-chilled-out,wedding-groom-bachelor-party-casual-chilledout,prepaid-purchase-extra30,new-customer-Offer,bankoffer-nov-10,ola-offer-nov16,welcome-to-mmt,happyhour-rs-off,welcome-to-eors,eors-coupon-4jan,welcome-to-mynt-jan,welcome-to-myntra-jan,HH12JAN17,HH20JAN17,stylesforextra5-jan17,rushhour-extra20-jan,budget-deal,cohort-customers,Extra-302728,HH07FEB17,v-day-styles,welcome-to-myntra-feb,welcome-to-myntra-feb-new,vday-coupon-offer,bday-offer,bday-happy-hour,weekend-coupon-offer,last-time-on-discount-feb,wishlisters-wish10,superhour-feb26,welcome-to-march,coupon-15-mar14,happy-hour-mar19,spring15-mar20,cc-articles-2803;zerotype;;Spring;cc-articles-2803;No
1271018;B1S16MFS0026-WHITE-1271018;BRANDON ROAD;Delisted;Shirts;Blue Saint;Adults-Men;Men;White;;;Fashion;Casual;2016;S,BESTSHRT00000449,M,BESTSHRT00000450,L,BESTSHRT00000451,XL,BESTSHRT00000452;1199.00;White casual shirt in a patterned weave, has a spread collar, a full button placket, long sleeves, a patch pocket, curved hem;Look great and feel amazing in this shirt. Team it with a pair of chinos and casual shoes for the best look.;100% cotton<br>Machine-wash cold;The model (height 6' and shoulders 18") is wearing a size 40;;Blue Saint London by Design White Casual Shirt;Blue Saint,ANDR1001,new-styles-offer-28apr,ss16-on-discount,Casualwear-fathers-day,Casualwear-fathers-day,min40-extra40-4jul,eoss-best-collection,rs-500-off-17july,eoss-best-collection-2,500-rs-off-10aug,rs500-off-17aug,style-theory,inb-august,rs-500-24aug,fk-lenovo-offer,fk-tv-offer,welcome-to-myn-log-off,off-1000-500-8sep,casual-shirts-ernakulam,500-13sep,500-19sep,diwali-flat-70-offer,flat50-extra30-extra10-22oct,first999-extra55-22oct,welcome-to-myntra-sept,wedding-groom-honeymoon-list-tshirts-shirts,wedding-groom-honeymoon-list-shirts-tshirts,prepaid-purchase-extra30,new-customer-Offer,bankoffer-nov-10,wedding-groom-honeymoon-list-all;zerotype;;Spring;DEL_Aseem_Shandilya_High_Returns_20161111;No
1270972;B1S16MAJ0023-Blue-1270972;Brockman;Active;Jeans;Blue Saint;Adults-Men;Men;Navy Blue;;;Fashion;Casual;2016;28,BESTJENS00000580,30,BESTJENS00000581,32,BESTJENS00000582,34,BESTJENS00000583,36,BESTJENS00000584;1499.00;A pair of navy blue&nbsp 5-pocket mid-rise <a target="" rel="">jeans</a>, has a zip fly with a button closure, a waistband with belt loops;This pair of jeans is perfect when you head out with friends. Try it with a slim tee and patterned loafers.;98% cotton, 2% spandex<br>Machine-wash cold;Eddie slim fit<br>The model (height 6' and waist 32") is wearing a size 32;;Blue Saint Navy Eddie Slim Fit Jeans;Blue Saint, ANDR1001,salemsdupto70,new-styles-offer-28apr,first-time-discounts-jeans-trousers,ss16-on-discount,Dark-Blue-denim,slim-denim,mid-waist-denim,ripped-denim,clean-denim,college-store-jeans-men,Dark-Blue-denim,slim-denim,clean-denim,dark-denims,mens-apparel-small-size,min40-extra40-4jul,500rs-5jul,college-store-view-all,eoss-best-collection,rs500-off-17july,eoss-best-collection-2,500-off-26jul,500-rs-off-10aug,rs500-off-17aug,inb-august,men-work-casual-chinos-denims,men-work-casual-bottomwear-after-hours,men-work-casual-all;zerotype;;Spring;Active;No
