Style ID;Vendor Article Number;Vendor Article Name;Active Status;Article type;Brand;Age Group;Gender;Base Colour;Colour1;Colour2;Fashion Type;Usage;Year;Size - SKU code pair;MRP;Style Description;Style Note;Materials and Care Description;Size and Fit Description;Size Chart Path;Product Display Name;Tags;Product Type;Classification Brand;Season;Comments;Upload Images
1977904;NJW-LN464-OW0L-Off White-1977904;WAISTCOAT;Draft;Waistcoat;even;Adults-Men;Men;;;;Fashion;;2017;XS,EVENWACO00000857,S,EVENWACO00000858,M,EVENWACO00000859,L,EVENWACO00000860,XL,EVENWACO00000861;1399.00;;;;;;;;zerotype;;Summer;;No
1977903;NJ-WL9123-BR0W-Brown-1977903;WAISTCOAT;Draft;Waistcoat;even;Adults-Men;Men;;;;Fashion;;2017;XS,EVENWACO00000852,S,EVENWACO00000853,M,EVENWACO00000854,L,EVENWACO00000855,XL,EVENWACO00000856;1499.00;;;;;;;;zerotype;;Summer;;No
1977902;NJW-BF457-GY0B-Grey-1977902;WAISTCOAT;Draft;Waistcoat;even;Adults-Men;Men;;;;Fashion;;2017;XS,EVENWACO00000847,S,EVENWACO00000848,M,EVENWACO00000849,L,EVENWACO00000850,XL,EVENWACO00000851;1299.00;;;;;;;;zerotype;;Summer;;No
1977901;NJW-BF463-BK0B-Black-1977901;WAISTCOAT;Draft;Waistcoat;even;Adults-Men;Men;;;;Fashion;;2017;XS,EVENWACO00000842,S,EVENWACO00000843,M,EVENWACO00000844,L,EVENWACO00000845,XL,EVENWACO00000846;1399.00;;;;;;;;zerotype;;Summer;;No
1977900;NJW-BF462-BK0B-Beige-1977900;WAISTCOAT;Draft;Waistcoat;even;Adults-Men;Men;;;;Fashion;;2017;XS,EVENWACO00000837,S,EVENWACO00000838,M,EVENWACO00000839,L,EVENWACO00000840,XL,EVENWACO00000841;1399.00;;;;;;;;zerotype;;Summer;;No
1977899;NJW-BF461-BK0B-Black-1977899;WAISTCOAT;Draft;Waistcoat;even;Adults-Men;Men;;;;Fashion;;2017;XS,EVENWACO00000832,S,EVENWACO00000833,M,EVENWACO00000834,L,EVENWACO00000835,XL,EVENWACO00000836;1399.00;;;;;;;;zerotype;;Summer;;No
1977898;NJW-BF460-WH0C-White-1977898;WAISTCOAT;Draft;Waistcoat;even;Adults-Men;Men;;;;Fashion;;2017;XS,EVENWACO00000827,S,EVENWACO00000828,M,EVENWACO00000829,L,EVENWACO00000830,XL,EVENWACO00000831;1299.00;;;;;;;;zerotype;;Summer;;No
1977897;NJW-BF459-BG0B-Beige-1977897;WAISTCOAT;Draft;Waistcoat;even;Adults-Men;Men;;;;Fashion;;2017;XS,EVENWACO00000822,S,EVENWACO00000823,M,EVENWACO00000824,L,EVENWACO00000825,XL,EVENWACO00000826;1399.00;;;;;;;;zerotype;;Summer;;No
1977896;NJW-BF456-OW0B-Off White-1977896;WAISTCOAT;Draft;Waistcoat;even;Adults-Men;Men;;;;Fashion;;2017;XS,EVENWACO00000817,S,EVENWACO00000818,M,EVENWACO00000819,L,EVENWACO00000820,XL,EVENWACO00000821;1299.00;;;;;;;;zerotype;;Summer;;No
1977895;NJW-BF455-BK0B-Black-1977895;WAISTCOAT;Draft;Waistcoat;even;Adults-Men;Men;;;;Fashion;;2017;XS,EVENWACO00000812,S,EVENWACO00000813,M,EVENWACO00000814,L,EVENWACO00000815,XL,EVENWACO00000816;1299.00;;;;;;;;zerotype;;Summer;;No
1977894;NJW-BF454-BK0B-Black-1977894;WAISTCOAT;Draft;Waistcoat;even;Adults-Men;Men;;;;Fashion;;2017;XS,EVENWACO00000807,S,EVENWACO00000808,M,EVENWACO00000809,L,EVENWACO00000810,XL,EVENWACO00000811;1299.00;;;;;;;;zerotype;;Summer;;No
1977893;NJW-BF453-GY0B-Grey-1977893;WAISTCOAT;Draft;Waistcoat;even;Adults-Men;Men;;;;Fashion;;2017;XS,EVENWACO00000802,S,EVENWACO00000803,M,EVENWACO00000804,L,EVENWACO00000805,XL,EVENWACO00000806;1299.00;;;;;;;;zerotype;;Summer;;No
1977892;NJW-BF452-MR0B-Maroon-1977892;WAISTCOAT;Draft;Waistcoat;even;Adults-Men;Men;;;;Fashion;;2017;XS,EVENWACO00000797,S,EVENWACO00000798,M,EVENWACO00000799,L,EVENWACO00000800,XL,EVENWACO00000801;1399.00;;;;;;;;zerotype;;Summer;;No
1977891;NJW-BF451-RD0B-Red-1977891;WAISTCOAT;Draft;Waistcoat;even;Adults-Men;Men;;;;Fashion;;2017;XS,EVENWACO00000792,S,EVENWACO00000793,M,EVENWACO00000794,L,EVENWACO00000795,XL,EVENWACO00000796;1499.00;;;;;;;;zerotype;;Summer;;No
1977890;NJW-BF450-PH0B-Peach-1977890;WAISTCOAT;Draft;Waistcoat;even;Adults-Men;Men;;;;Fashion;;2017;XS,EVENWACO00000787,S,EVENWACO00000788,M,EVENWACO00000789,L,EVENWACO00000790,XL,EVENWACO00000791;1299.00;;;;;;;;zerotype;;Summer;;No
1977888;NJR-BF448-BK0B-Black-1977888;WAISTCOAT;Draft;Waistcoat;even;Adults-Men;Men;;;;Fashion;;2017;XS,EVENWACO00000782,S,EVENWACO00000783,M,EVENWACO00000784,L,EVENWACO00000785,XL,EVENWACO00000786;1299.00;;;;;;;;zerotype;;Summer;;No
1977887;NJR-BF311-BK0B-Black-1977887;WAISTCOAT;Draft;Waistcoat;even;Adults-Men;Men;;;;Fashion;;2017;XS,EVENWACO00000777,S,EVENWACO00000778,M,EVENWACO00000779,L,EVENWACO00000780,XL,EVENWACO00000781;1299.00;;;;;;;;zerotype;;Summer;;No
1977886;NJR-BF303-GY0B-Grey-1977886;WAISTCOAT;Draft;Waistcoat;even;Adults-Men;Men;;;;Fashion;;2017;XS,EVENWACO00000772,S,EVENWACO00000773,M,EVENWACO00000774,L,EVENWACO00000775,XL,EVENWACO00000776;1299.00;;;;;;;;zerotype;;Summer;;No
1977885;NJ-MMS449-BR0C-Red-1977885;WAISTCOAT;Draft;Waistcoat;even;Adults-Men;Men;;;;Fashion;;2017;XS,EVENWACO00000767,S,EVENWACO00000768,M,EVENWACO00000769,L,EVENWACO00000770,XL,EVENWACO00000771;1499.00;;;;;;;;zerotype;;Summer;;No
1977884;NJ-LN325-BK0L-Black-1977884;WAISTCOAT;Draft;Waistcoat;even;Adults-Men;Men;;;;Fashion;;2017;XS,EVENWACO00000762,S,EVENWACO00000763,M,EVENWACO00000764,L,EVENWACO00000765,XL,EVENWACO00000766;1299.00;;;;;;;;zerotype;;Summer;;No
1977882;NJ-BF458-WH0B-White-1977882;WAISTCOAT;Draft;Waistcoat;even;Adults-Men;Men;;;;Fashion;;2017;XS,EVENWACO00000757,S,EVENWACO00000758,M,EVENWACO00000759,L,EVENWACO00000760,XL,EVENWACO00000761;1099.00;;;;;;;;zerotype;;Summer;;No
1977881;NJ-BF408-GY0B-Grey-1977881;WAISTCOAT;Draft;Waistcoat;even;Adults-Men;Men;;;;Fashion;;2017;XS,EVENWACO00000752,S,EVENWACO00000753,M,EVENWACO00000754,L,EVENWACO00000755,XL,EVENWACO00000756;1299.00;;;;;;;;zerotype;;Summer;;No
1973803;NJR-BF402-RD0B-Red-1973803;WAISTCOAT;Active;Waistcoat;even;Adults-Men;Men;Red;;;Fashion;Smart Casual;2017;XS,EVENWACO00000747,S,EVENWACO00000748,M,EVENWACO00000749,L,EVENWACO00000750,XL,EVENWACO00000751;1399.00;<a href='/red?src=pd' class='seolink'>Red</a> <a href='/nehru-jacket?src=pd' class='seolink'>Nehru jacket</a>, has a mandarin collar, sleeveless, a full button placket, three pockets, attached lining with a welt pocket;Boost your style quotient with this stylish and classy Nehru jacket by even. Wear it over a shirt with long sleeves and trousers for a handsome look.;60% polyester, 40% cotton<br />Dry-clean;The model (height 6') is wearing a size 42;;even Men Red Striped Nehru Jacket;even,JIT;zerotype;;Spring;;No
1973802;NJR-BF444-MR0B-Maroon-1973802;WAISTCOAT;Active;Waistcoat;even;Adults-Men;Men;Maroon;;;Fashion;Smart Casual;2017;XS,EVENWACO00000742,S,EVENWACO00000743,M,EVENWACO00000744,L,EVENWACO00000745,XL,EVENWACO00000746;1299.00;<a href='/maroon?src=pd' class='seolink'>Maroon</a> <a href='/nehru-jacket?src=pd' class='seolink'>Nehru jacket</a>, has a mandarin collar, sleeveless, a full button placket, three pockets, attached lining with a welt pocket;Boost your style quotient with this stylish and classy Nehru jacket by even. Wear it over a shirt with long sleeves and trousers for a handsome look.;60% polyester, 40% cotton<br />Dry-clean;The model (height 6') is wearing a size 40;;even Men Maroon Nehru Jacket;even,JIT;zerotype;;Spring;;No
1973800;NJ-LN53-GB0L-Taupe-1973800;WAISTCOAT;Inactive - Marketplace - Reject;Waistcoat;even;Adults-Men;Men;Taupe;;;Fashion;Smart Casual;2017;XS,EVENWACO00000732,S,EVENWACO00000733,M,EVENWACO00000734,L,EVENWACO00000735,XL,EVENWACO00000736;1299.00;Taupe <a href='/nehru-jacket?src=pd' class='seolink'>Nehru jacket</a>, has a mandarin collar, sleeveless, a full button placket, three pockets, attached lining with a welt pocket;Boost your style quotient with this stylish and classy Nehru jacket by even. Wear it over a shirt with long sleeves and trousers for a handsome look.;Linen<br />Dry-clean;The model (height 6') is wearing a size 42;;even Men Taupe Striped Nehru Jacket;even,JIT;zerotype;;Spring;Colour mismatch- not taupe;No
