Style ID;Vendor Article Number;Vendor Article Name;Active Status;Article type;Brand;Age Group;Gender;Base Colour;Colour1;Colour2;Fashion Type;Usage;Year;Size - SKU code pair;MRP;Style Description;Style Note;Materials and Care Description;Size and Fit Description;Size Chart Path;Product Display Name;Tags;Product Type;Classification Brand;Season;Comments;Upload Images
2528087;ITMTR00106Tan-Tan-2528087;Men's Trousers;Draft;Trousers;Indian Terrain;Adults-Men;Men;Brown;;;Fashion;;2018;32,INTRTRSR00108896,34,INTRTRSR00108897,36,INTRTRSR00108898,38,INTRTRSR00108899,40,INTRTRSR00108900,30,INTRTRSR00108901;2399.00;;;<p>Cold Wash</p>;;;;mcw-ss18-all;zerotype;;Summer;mcw-ss18-all;No
2528086;ITMTR00106Navy-Navy-2528086;Men's Trousers;Draft;Trousers;Indian Terrain;Adults-Men;Men;Navy Blue;;;Fashion;;2018;32,INTRTRSR00108890,34,INTRTRSR00108891,36,INTRTRSR00108892,38,INTRTRSR00108893,40,INTRTRSR00108894,30,INTRTRSR00108895;2399.00;;;<p>Cold Wash</p>;;;;mcw-ss18-all;zerotype;;Summer;mcw-ss18-all;No
2528085;ITMTR00099Stone-Stone-2528085;Men's Trousers;Draft;Trousers;Indian Terrain;Adults-Men;Men;Beige;;;Fashion;;2018;32,INTRTRSR00108884,34,INTRTRSR00108885,36,INTRTRSR00108886,38,INTRTRSR00108887,40,INTRTRSR00108888,30,INTRTRSR00108889;2199.00;;;<p>Cold Wash</p>;;;;mcw-ss18-all;zerotype;;Summer;mcw-ss18-all;No
2528083;ITMTR00066Sap-Sap-2528083;Men's Trousers;Draft;Trousers;Indian Terrain;Adults-Men;Men;Green;;;Fashion;;2018;32,INTRTRSR00108878,34,INTRTRSR00108879,36,INTRTRSR00108880,38,INTRTRSR00108881,40,INTRTRSR00108882,30,INTRTRSR00108883;2199.00;;;<p>Cold Wash</p>;;;;mcw-ss18-all;zerotype;;Summer;mcw-ss18-all;No
2528081;ITMTR00057Mud-Mud-2528081;Men's Trousers;Draft;Trousers;Indian Terrain;Adults-Men;Men;Brown;;;Fashion;;2018;32,INTRTRSR00108869,34,INTRTRSR00108870,36,INTRTRSR00108871,38,INTRTRSR00108872,40,INTRTRSR00108873,42,INTRTRSR00108874,28,INTRTRSR00108875,30,INTRTRSR00108876;2399.00;;;<p>Cold Wash</p>;;;;mcw-ss18-all;zerotype;;Summer;mcw-ss18-all;No
2528078;ITMTR00053Lt Khaki-Lt Khaki-2528078;Men's Trousers;Draft;Trousers;Indian Terrain;Adults-Men;Men;Khaki;;;Core;;2018;32,INTRTRSR00108857,34,INTRTRSR00108858,36,INTRTRSR00108859,38,INTRTRSR00108860,40,INTRTRSR00108861,30,INTRTRSR00108862;1999.00;;;<p>Cold Wash</p>;;;;mcw-ss18-all;zerotype;;Summer;mcw-ss18-all;No
2528077;ITMTR00053Khaki-Khaki-2528077;Men's Trousers;Draft;Trousers;Indian Terrain;Adults-Men;Men;Khaki;;;Core;;2018;32,INTRTRSR00108851,34,INTRTRSR00108852,36,INTRTRSR00108853,38,INTRTRSR00108854,40,INTRTRSR00108855,30,INTRTRSR00108856;1999.00;;;<p>Cold Wash</p>;;;;mcw-ss18-all;zerotype;;Summer;mcw-ss18-all;No
2528076;ITMTR00053Dark Khaki-Dark Khaki-2528076;Men's Trousers;Draft;Trousers;Indian Terrain;Adults-Men;Men;Khaki;;;Core;;2018;32,INTRTRSR00108845,34,INTRTRSR00108846,36,INTRTRSR00108847,38,INTRTRSR00108848,40,INTRTRSR00108849,30,INTRTRSR00108850;1999.00;;;<p>Cold Wash</p>;;;;mcw-ss18-all;zerotype;;Summer;mcw-ss18-all;No
2528074;ITMTR00053Cement-Cement-2528074;Men's Trousers;Draft;Trousers;Indian Terrain;Adults-Men;Men;Grey;;;Core;;2018;32,INTRTRSR00108836,34,INTRTRSR00108837,36,INTRTRSR00108838,38,INTRTRSR00108839,40,INTRTRSR00108840,42,INTRTRSR00108841,28,INTRTRSR00108842,30,INTRTRSR00108843;1999.00;;;<p>Cold Wash</p>;;;;mcw-ss18-all;zerotype;;Summer;mcw-ss18-all;No
2528072;ITMTR00052Lt Khaki-Lt Khaki-2528072;Men's Trousers;Draft;Trousers;Indian Terrain;Adults-Men;Men;Khaki;;;Core;;2018;32,INTRTRSR00108827,34,INTRTRSR00108828,36,INTRTRSR00108829,38,INTRTRSR00108830,40,INTRTRSR00108831,42,INTRTRSR00108832,28,INTRTRSR00108833,30,INTRTRSR00108834;1999.00;;;<p>Cold Wash</p>;;;;mcw-ss18-all;zerotype;;Summer;mcw-ss18-all;No
2528071;ITMTR00050Sap-Sap-2528071;Men's Trousers;Draft;Trousers;Indian Terrain;Adults-Men;Men;Green;;;Core;;2018;32,INTRTRSR00108821,34,INTRTRSR00108822,36,INTRTRSR00108823,38,INTRTRSR00108824,40,INTRTRSR00108825,30,INTRTRSR00108826;2199.00;;;<p>Cold Wash</p>;;;;mcw-ss18-all;zerotype;;Summer;mcw-ss18-all;No
2528070;ITMTR00050Dark Khaki-Dark Khaki-2528070;Men's Trousers;Draft;Trousers;Indian Terrain;Adults-Men;Men;Khaki;;;Core;;2018;32,INTRTRSR00108815,34,INTRTRSR00108816,36,INTRTRSR00108817,38,INTRTRSR00108818,40,INTRTRSR00108819,30,INTRTRSR00108820;2199.00;;;<p>Cold Wash</p>;;;;mcw-ss18-all;zerotype;;Summer;mcw-ss18-all;No
2528068;ITMTR00050Black-Black-2528068;Men's Trousers;Draft;Trousers;Indian Terrain;Adults-Men;Men;Black;;;Core;;2018;32,INTRTRSR00108806,34,INTRTRSR00108807,36,INTRTRSR00108808,38,INTRTRSR00108809,40,INTRTRSR00108810,42,INTRTRSR00108811,28,INTRTRSR00108812,30,INTRTRSR00108813;2199.00;;;<p>Cold Wash</p>;;;;mcw-ss18-all;zerotype;;Summer;mcw-ss18-all;No
2528067;ITMTR00044Lt Khaki-Lt Khaki-2528067;Men's Trousers;Draft;Trousers;Indian Terrain;Adults-Men;Men;Khaki;;;Core;;2018;32,INTRTRSR00108800,34,INTRTRSR00108801,36,INTRTRSR00108802,38,INTRTRSR00108803,40,INTRTRSR00108804,30,INTRTRSR00108805;2399.00;;;<p>Cold Wash</p>;;;;mcw-ss18-all;zerotype;;Summer;mcw-ss18-all;No
2528066;ITMTR00044Dark Olive-Dark Olive-2528066;Men's Trousers;Draft;Trousers;Indian Terrain;Adults-Men;Men;Green;;;Core;;2018;32,INTRTRSR00108794,34,INTRTRSR00108795,36,INTRTRSR00108796,38,INTRTRSR00108797,40,INTRTRSR00108798,30,INTRTRSR00108799;2399.00;;;<p>Cold Wash</p>;;;;mcw-ss18-all;zerotype;;Summer;mcw-ss18-all;No
2528065;ITMTR00044Dark Khaki-Dark Khaki-2528065;Men's Trousers;Draft;Trousers;Indian Terrain;Adults-Men;Men;Khaki;;;Core;;2018;32,INTRTRSR00108788,34,INTRTRSR00108789,36,INTRTRSR00108790,38,INTRTRSR00108791,40,INTRTRSR00108792,30,INTRTRSR00108793;2399.00;;;<p>Cold Wash</p>;;;;mcw-ss18-all;zerotype;;Summer;mcw-ss18-all;No
2528064;ITMTR00044Dark Grey-Dark Grey-2528064;Men's Trousers;Draft;Trousers;Indian Terrain;Adults-Men;Men;Grey;;;Core;;2018;32,INTRTRSR00108782,34,INTRTRSR00108783,36,INTRTRSR00108784,38,INTRTRSR00108785,40,INTRTRSR00108786,30,INTRTRSR00108787;2399.00;;;<p>Cold Wash</p>;;;;mcw-ss18-all;zerotype;;Summer;mcw-ss18-all;No
2528063;ITMTR00044Cement-Cement-2528063;Men's Trousers;Draft;Trousers;Indian Terrain;Adults-Men;Men;Grey;;;Core;;2018;32,INTRTRSR00108776,34,INTRTRSR00108777,36,INTRTRSR00108778,38,INTRTRSR00108779,40,INTRTRSR00108780,30,INTRTRSR00108781;2399.00;;;<p>Cold Wash</p>;;;;mcw-ss18-all;zerotype;;Summer;mcw-ss18-all;No
2528062;ITMTR00044Brown-Brown-2528062;Men's Trousers;Draft;Trousers;Indian Terrain;Adults-Men;Men;Brown;;;Core;;2018;32,INTRTRSR00108770,34,INTRTRSR00108771,36,INTRTRSR00108772,38,INTRTRSR00108773,40,INTRTRSR00108774,30,INTRTRSR00108775;2399.00;;;<p>Cold Wash</p>;;;;mcw-ss18-all;zerotype;;Summer;mcw-ss18-all;No
2528061;ITMTR00044Black-Black-2528061;Men's Trousers;Draft;Trousers;Indian Terrain;Adults-Men;Men;Black;;;Core;;2018;32,INTRTRSR00108764,34,INTRTRSR00108765,36,INTRTRSR00108766,38,INTRTRSR00108767,40,INTRTRSR00108768,30,INTRTRSR00108769;2399.00;;;<p>Cold Wash</p>;;;;mcw-ss18-all;zerotype;;Summer;mcw-ss18-all;No
2528059;ITMTR00043Tan-Tan-2528059;Men's Trousers;Draft;Trousers;Indian Terrain;Adults-Men;Men;Brown;;;Core;;2018;32,INTRTRSR00108755,34,INTRTRSR00108756,36,INTRTRSR00108757,38,INTRTRSR00108758,40,INTRTRSR00108759,42,INTRTRSR00108760,28,INTRTRSR00108761,30,INTRTRSR00108762;2099.00;;;<p>Cold Wash</p>;;;;mcw-ss18-all;zerotype;;Summer;mcw-ss18-all;No
2528057;ITMTR00043Navy-Navy-2528057;Men's Trousers;Draft;Trousers;Indian Terrain;Adults-Men;Men;Navy Blue;;;Core;;2018;32,INTRTRSR00108746,34,INTRTRSR00108747,36,INTRTRSR00108748,38,INTRTRSR00108749,40,INTRTRSR00108750,42,INTRTRSR00108751,28,INTRTRSR00108752,30,INTRTRSR00108753;2099.00;;;<p>Cold Wash</p>;;;;mcw-ss18-all;zerotype;;Summer;mcw-ss18-all;No
2528055;ITMTR00043Moss-Moss-2528055;Men's Trousers;Draft;Trousers;Indian Terrain;Adults-Men;Men;Green;;;Core;;2018;32,INTRTRSR00108737,34,INTRTRSR00108738,36,INTRTRSR00108739,38,INTRTRSR00108740,40,INTRTRSR00108741,42,INTRTRSR00108742,28,INTRTRSR00108743,30,INTRTRSR00108744;2099.00;;;<p>Cold Wash</p>;;;;mcw-ss18-all;zerotype;;Summer;mcw-ss18-all;No
2528053;ITMTR00043Khaki-Khaki-2528053;Men's Trousers;Draft;Trousers;Indian Terrain;Adults-Men;Men;Khaki;;;Core;;2018;32,INTRTRSR00108728,34,INTRTRSR00108729,36,INTRTRSR00108730,38,INTRTRSR00108731,40,INTRTRSR00108732,42,INTRTRSR00108733,28,INTRTRSR00108734,30,INTRTRSR00108735;2099.00;;;<p>Cold Wash</p>;;;;mcw-ss18-all;zerotype;;Summer;mcw-ss18-all;No
2528051;ITMTR00043Dark Grey-Dark Grey-2528051;Men's Trousers;Draft;Trousers;Indian Terrain;Adults-Men;Men;Grey;;;Core;;2018;32,INTRTRSR00108719,34,INTRTRSR00108720,36,INTRTRSR00108721,38,INTRTRSR00108722,40,INTRTRSR00108723,42,INTRTRSR00108724,28,INTRTRSR00108725,30,INTRTRSR00108726;2099.00;;;<p>Cold Wash</p>;;;;mcw-ss18-all;zerotype;;Summer;mcw-ss18-all;No
2528049;ITMTR00043Cement-Cement-2528049;Men's Trousers;Draft;Trousers;Indian Terrain;Adults-Men;Men;Grey;;;Core;;2018;32,INTRTRSR00108710,34,INTRTRSR00108711,36,INTRTRSR00108712,38,INTRTRSR00108713,40,INTRTRSR00108714,42,INTRTRSR00108715,28,INTRTRSR00108716,30,INTRTRSR00108717;2099.00;;;<p>Cold Wash</p>;;;;mcw-ss18-all;zerotype;;Summer;mcw-ss18-all;No
2528047;ITMTR00043Black-Black-2528047;Men's Trousers;Draft;Trousers;Indian Terrain;Adults-Men;Men;Black;;;Core;;2018;32,INTRTRSR00108701,34,INTRTRSR00108702,36,INTRTRSR00108703,38,INTRTRSR00108704,40,INTRTRSR00108705,42,INTRTRSR00108706,28,INTRTRSR00108707,30,INTRTRSR00108708;2099.00;;;<p>Cold Wash</p>;;;;mcw-ss18-all;zerotype;;Summer;mcw-ss18-all;No
2528045;ITMTR00041Dark Navy-Dark Navy-2528045;Men's Trousers;Draft;Trousers;Indian Terrain;Adults-Men;Men;Navy Blue;;;Fashion;;2018;32,INTRTRSR00108692,34,INTRTRSR00108693,36,INTRTRSR00108694,38,INTRTRSR00108695,40,INTRTRSR00108696,42,INTRTRSR00108697,28,INTRTRSR00108698,30,INTRTRSR00108699;2399.00;;;<p>Cold Wash</p>;;;;mcw-ss18-all;zerotype;;Summer;mcw-ss18-all;No
2528043;ITMTR00038Dark Grey-Dark Grey-2528043;Men's Trousers;Draft;Trousers;Indian Terrain;Adults-Men;Men;Grey;;;Fashion;;2018;32,INTRTRSR00108683,34,INTRTRSR00108684,36,INTRTRSR00108685,38,INTRTRSR00108686,40,INTRTRSR00108687,42,INTRTRSR00108688,28,INTRTRSR00108689,30,INTRTRSR00108690;2399.00;;;<p>Cold Wash</p>;;;;mcw-ss18-all;zerotype;;Summer;mcw-ss18-all;No
2528041;ITMTR00032Olive-Olive-2528041;Men's Trousers;Draft;Trousers;Indian Terrain;Adults-Men;Men;Green;;;Fashion;;2018;32,INTRTRSR00108674,34,INTRTRSR00108675,36,INTRTRSR00108676,38,INTRTRSR00108677,40,INTRTRSR00108678,42,INTRTRSR00108679,28,INTRTRSR00108680,30,INTRTRSR00108681;2199.00;;;<p>Cold Wash</p>;;;;mcw-ss18-all;zerotype;;Summer;mcw-ss18-all;No
2528039;ITMTR00032Navy-Navy-2528039;Men's Trousers;Draft;Trousers;Indian Terrain;Adults-Men;Men;Navy Blue;;;Fashion;;2018;32,INTRTRSR00108665,34,INTRTRSR00108666,36,INTRTRSR00108667,38,INTRTRSR00108668,40,INTRTRSR00108669,42,INTRTRSR00108670,28,INTRTRSR00108671,30,INTRTRSR00108672;2199.00;;;<p>Cold Wash</p>;;;;mcw-ss18-all;zerotype;;Summer;mcw-ss18-all;No
2528038;ITMTR00021Navy-Navy-2528038;Men's Trousers;Draft;Trousers;Indian Terrain;Adults-Men;Men;Navy Blue;;;Fashion;;2018;32,INTRTRSR00108659,34,INTRTRSR00108660,36,INTRTRSR00108661,38,INTRTRSR00108662,40,INTRTRSR00108663,30,INTRTRSR00108664;2499.00;;;<p>Cold Wash</p>;;;;mcw-ss18-all;zerotype;;Summer;mcw-ss18-all;No
2528037;ITMTR00021Khaki-Khaki-2528037;Men's Trousers;Draft;Trousers;Indian Terrain;Adults-Men;Men;Khaki;;;Fashion;;2018;32,INTRTRSR00108653,34,INTRTRSR00108654,36,INTRTRSR00108655,38,INTRTRSR00108656,40,INTRTRSR00108657,30,INTRTRSR00108658;2499.00;;;<p>Cold Wash</p>;;;;mcw-ss18-all;zerotype;;Summer;mcw-ss18-all;No
2528036;ITMTR00021Dark Grey-Dark Grey-2528036;Men's Trousers;Draft;Trousers;Indian Terrain;Adults-Men;Men;Grey;;;Fashion;;2018;32,INTRTRSR00108648,34,INTRTRSR00108649,36,INTRTRSR00108650,40,INTRTRSR00108651,30,INTRTRSR00108652;2499.00;;;<p>Cold Wash</p>;;;;mcw-ss18-all;zerotype;;Summer;mcw-ss18-all;No
2528035;ITMTR00020Olive-Olive-2528035;Men's Trousers;Draft;Trousers;Indian Terrain;Adults-Men;Men;Green;;;Fashion;;2018;32,INTRTRSR00108642,34,INTRTRSR00108643,36,INTRTRSR00108644,38,INTRTRSR00108645,40,INTRTRSR00108646,30,INTRTRSR00108647;2399.00;;;<p>Cold Wash</p>;;;;mcw-ss18-all;zerotype;;Summer;mcw-ss18-all;No
2528034;ITMTR00020Grey-Grey-2528034;Men's Trousers;Draft;Trousers;Indian Terrain;Adults-Men;Men;Grey;;;Fashion;;2018;32,INTRTRSR00108636,34,INTRTRSR00108637,36,INTRTRSR00108638,38,INTRTRSR00108639,40,INTRTRSR00108640,30,INTRTRSR00108641;2399.00;;;<p>Cold Wash</p>;;;;mcw-ss18-all;zerotype;;Summer;mcw-ss18-all;No
2528032;ITMTR00016Olive-Olive-2528032;Men's Trousers;Draft;Trousers;Indian Terrain;Adults-Men;Men;Green;;;Fashion;;2018;32,INTRTRSR00108627,34,INTRTRSR00108628,36,INTRTRSR00108629,38,INTRTRSR00108630,40,INTRTRSR00108631,42,INTRTRSR00108632,28,INTRTRSR00108633,30,INTRTRSR00108634;2199.00;;;<p>Cold Wash</p>;;;;mcw-ss18-all;zerotype;;Summer;mcw-ss18-all;No
2528030;ITMTR00016Khaki-Khaki-2528030;Men's Trousers;Draft;Trousers;Indian Terrain;Adults-Men;Men;Khaki;;;Fashion;;2018;32,INTRTRSR00108619,34,INTRTRSR00108620,36,INTRTRSR00108621,38,INTRTRSR00108622,40,INTRTRSR00108623,42,INTRTRSR00108624,30,INTRTRSR00108625;2199.00;;;<p>Cold Wash</p>;;;;mcw-ss18-all;zerotype;;Summer;mcw-ss18-all;No
2528028;ITMTR00016Cement-Cement-2528028;Men's Trousers;Draft;Trousers;Indian Terrain;Adults-Men;Men;Grey;;;Fashion;;2018;32,INTRTRSR00108611,34,INTRTRSR00108612,36,INTRTRSR00108613,40,INTRTRSR00108614,42,INTRTRSR00108615,28,INTRTRSR00108616,30,INTRTRSR00108617;2199.00;;;<p>Cold Wash</p>;;;;mcw-ss18-all;zerotype;;Summer;mcw-ss18-all;No
2528027;ITMTR00001Black-Black-2528027;Men's Trousers;Draft;Trousers;Indian Terrain;Adults-Men;Men;Black;;;Fashion;;2018;32,INTRTRSR00108605,34,INTRTRSR00108606,36,INTRTRSR00108607,38,INTRTRSR00108608,40,INTRTRSR00108609,30,INTRTRSR00108610;2199.00;;;<p>Cold Wash</p>;;;;mcw-ss18-all;zerotype;;Summer;mcw-ss18-all;No
2528024;ITMDN00012Rinse-Rinse-2528024;Men's Jeans;Draft;Jeans;Indian Terrain;Adults-Men;Men;Blue;;;Fashion;;2018;32,INTRJENS00001072,34,INTRJENS00001073,36,INTRJENS00001074,38,INTRJENS00001075,30,INTRJENS00001076;2499.00;;;<p>Cold Wash</p>;;;;mcw-ss18-all;zerotype;;Summer;mcw-ss18-all;No
2528023;ITMDN00005Black-Black-2528023;Men's Jeans;Draft;Jeans;Indian Terrain;Adults-Men;Men;Black;;;Fashion;;2018;32,INTRJENS00001065,34,INTRJENS00001066,36,INTRJENS00001067,38,INTRJENS00001068,40,INTRJENS00001069,42,INTRJENS00001070,30,INTRJENS00001071;2199.00;;;<p>Cold Wash</p>;;;;mcw-ss18-all;zerotype;;Summer;mcw-ss18-all;No
2528021;ITMSO00019Navy-Navy-2528021;Jasper;Draft;Shorts;Indian Terrain;Adults-Men;Men;Navy Blue;;;Fashion;;2018;32,INTRSHOR00100208,34,INTRSHOR00100209,36,INTRSHOR00100210,38,INTRSHOR00100211,40,INTRSHOR00100212,30,INTRSHOR00100213;1699.00;;;<p>Garment Wash</p>;;;;mcw-ss18-all;zerotype;;Summer;mcw-ss18-all;No
2528020;ITMSO00012Navy-Navy-2528020;Randall;Draft;Shorts;Indian Terrain;Adults-Men;Men;Navy Blue;;;Fashion;;2018;32,INTRSHOR00100202,34,INTRSHOR00100203,36,INTRSHOR00100204,38,INTRSHOR00100205,40,INTRSHOR00100206,30,INTRSHOR00100207;1699.00;;;<p>Garment overdyed</p>;;;;mcw-ss18-all;zerotype;;Summer;mcw-ss18-all;No
2528017;ITMTS00114-WhiteSS-White-2528017;Men's T-Shirt - Jeanswear;Draft;Tshirts;Indian Terrain;Adults-Men;Men;White;;;Fashion;;2018;S,INTRTSHT00108762,M,INTRTSHT00108763,L,INTRTSHT00108764,XL,INTRTSHT00108765;799.00;;;<p>Cold Wash</p>;;;;mcw-ss18-all;zerotype;;Summer;mcw-ss18-all;No
2528014;ITMTS00114-BlackSS-Black-2528014;Men's T-Shirt - Jeanswear;Draft;Tshirts;Indian Terrain;Adults-Men;Men;Black;;;Fashion;;2018;S,INTRTSHT00108756,M,INTRTSHT00108757,L,INTRTSHT00108758,XL,INTRTSHT00108759;799.00;;;<p>Cold Wash</p>;;;;mcw-ss18-all;zerotype;;Summer;mcw-ss18-all;No
2528012;ITMTS00113-LG M.SS-LG M.-2528012;Men's T-Shirt - Sportswear;Draft;Tshirts;Indian Terrain;Adults-Men;Men;Grey;;;Fashion;;2018;S,INTRTSHT00108751,M,INTRTSHT00108752,L,INTRTSHT00108753,XL,INTRTSHT00108754;999.00;;;<p>Cold Wash</p>;;;;mcw-ss18-all;zerotype;;Summer;mcw-ss18-all;No
2528009;ITMTS00108-Dark GreySS-Dark Grey-2528009;Men's T-Shirt - Jeanswear;Draft;Tshirts;Indian Terrain;Adults-Men;Men;Grey;;;Fashion;;2018;S,INTRTSHT00108745,M,INTRTSHT00108746,L,INTRTSHT00108747,XL,INTRTSHT00108748;1099.00;;;<p>Cold Wash</p>;;;;mcw-ss18-all;zerotype;;Summer;mcw-ss18-all;No
2528006;ITMTS00106-INKSS-INK-2528006;Men's T-Shirt - Jeanswear;Draft;Tshirts;Indian Terrain;Adults-Men;Men;Blue;;;Fashion;;2018;S,INTRTSHT00108739,M,INTRTSHT00108740,L,INTRTSHT00108741,XL,INTRTSHT00108742;1299.00;;;<p>Cold Wash</p>;;;;mcw-ss18-all;zerotype;;Summer;mcw-ss18-all;No
2528003;ITMTS00105-NavySS-Navy-2528003;Men's T-Shirt - Sportswear;Draft;Tshirts;Indian Terrain;Adults-Men;Men;Navy Blue;;;Fashion;;2018;S,INTRTSHT00108733,M,INTRTSHT00108734,L,INTRTSHT00108735,XL,INTRTSHT00108736;899.00;;;<p>Cold Wash</p>;;;;mcw-ss18-all;zerotype;;Summer;mcw-ss18-all;No
2528001;ITMTS00105-Dk Grey M.SS-Dk Grey M.-2528001;Men's T-Shirt - Sportswear;Draft;Tshirts;Indian Terrain;Adults-Men;Men;Grey;;;Fashion;;2018;S,INTRTSHT00108728,M,INTRTSHT00108729,L,INTRTSHT00108730,XL,INTRTSHT00108731;899.00;;;<p>Cold Wash</p>;;;;mcw-ss18-all;zerotype;;Summer;mcw-ss18-all;No
2527998;ITMTS00105-CobaltSS-Cobalt-2527998;Men's T-Shirt - Sportswear;Draft;Tshirts;Indian Terrain;Adults-Men;Men;Blue;;;Fashion;;2018;S,INTRTSHT00108722,M,INTRTSHT00108723,L,INTRTSHT00108724,XL,INTRTSHT00108725;899.00;;;<p>Cold Wash</p>;;;;mcw-ss18-all;zerotype;;Summer;mcw-ss18-all;No
2527995;ITMTS00101-Sky melLS-Sky mel-2527995;Men's T-Shirt - Sportswear;Draft;Tshirts;Indian Terrain;Adults-Men;Men;Blue;;;Fashion;;2018;S,INTRTSHT00108716,M,INTRTSHT00108717,L,INTRTSHT00108718,XL,INTRTSHT00108719;1299.00;;;<p>Cold Wash</p>;;;;mcw-ss18-all;zerotype;;Summer;mcw-ss18-all;No
2527993;ITMTS00086-CobaltSS-Cobalt-2527993;Men's T-Shirt - Sportswear;Draft;Tshirts;Indian Terrain;Adults-Men;Men;Blue;;;Fashion;;2018;S,INTRTSHT00108711,M,INTRTSHT00108712,L,INTRTSHT00108713,XL,INTRTSHT00108714;1599.00;;;<p>Cold Wash</p>;;;;mcw-ss18-all;zerotype;;Summer;mcw-ss18-all;No
2527991;ITMTS00074-RedSS-Red-2527991;Men's T-Shirt - Jeanswear;Draft;Tshirts;Indian Terrain;Adults-Men;Men;Red;;;Fashion;;2018;S,INTRTSHT00108706,M,INTRTSHT00108707,L,INTRTSHT00108708,XL,INTRTSHT00108709;1499.00;;;<p>Cold Wash</p>;;;;mcw-ss18-all;zerotype;;Summer;mcw-ss18-all;No
2527989;ITMTS00061-TealSS-Teal-2527989;Men's T-Shirt - Sportswear;Draft;Tshirts;Indian Terrain;Adults-Men;Men;Blue;;;Fashion;;2018;S,INTRTSHT00108701,M,INTRTSHT00108702,L,INTRTSHT00108703,XL,INTRTSHT00108704;1299.00;;;<p>Cold Wash</p>;;;;mcw-ss18-all;zerotype;;Summer;mcw-ss18-all;No
2527987;ITMTS00061-NavySS-Navy-2527987;Men's T-Shirt - Sportswear;Draft;Tshirts;Indian Terrain;Adults-Men;Men;Navy Blue;;;Fashion;;2018;S,INTRTSHT00108696,M,INTRTSHT00108697,L,INTRTSHT00108698,XL,INTRTSHT00108699;1299.00;;;<p>Cold Wash</p>;;;;mcw-ss18-all;zerotype;;Summer;mcw-ss18-all;No
2527984;ITMTS00061-GreySS-Grey-2527984;Men's T-Shirt - Sportswear;Draft;Tshirts;Indian Terrain;Adults-Men;Men;Grey;;;Fashion;;2018;S,INTRTSHT00108690,M,INTRTSHT00108691,L,INTRTSHT00108692,XL,INTRTSHT00108693;1299.00;;;<p>Cold Wash</p>;;;;mcw-ss18-all;zerotype;;Summer;mcw-ss18-all;No
2527981;ITMTS00053-WineSS-Wine-2527981;Men's T-Shirt - Sportswear;Draft;Tshirts;Indian Terrain;Adults-Men;Men;Purple;;;Fashion;;2018;S,INTRTSHT00108684,M,INTRTSHT00108685,L,INTRTSHT00108686,XL,INTRTSHT00108687;1799.00;;;<p>Cold Wash</p>;;;;mcw-ss18-all;zerotype;;Summer;mcw-ss18-all;No
2527978;ITMTS00053-NavySS-Navy-2527978;Men's T-Shirt - Sportswear;Draft;Tshirts;Indian Terrain;Adults-Men;Men;Navy Blue;;;Fashion;;2018;S,INTRTSHT00108678,M,INTRTSHT00108679,L,INTRTSHT00108680,XL,INTRTSHT00108681;1799.00;;;<p>Cold Wash</p>;;;;mcw-ss18-all;zerotype;;Summer;mcw-ss18-all;No
2527975;ITMTS00053-BlackSS-Black-2527975;Men's T-Shirt - Sportswear;Draft;Tshirts;Indian Terrain;Adults-Men;Men;Black;;;Fashion;;2018;S,INTRTSHT00108672,M,INTRTSHT00108673,L,INTRTSHT00108674,XL,INTRTSHT00108675;1799.00;;;<p>Cold Wash</p>;;;;mcw-ss18-all;zerotype;;Summer;mcw-ss18-all;No
2527969;ITMTS00044-IndigoSS-Indigo-2527969;Men's T-Shirt - Jeanswear;Draft;Tshirts;Indian Terrain;Adults-Men;Men;Blue;;;Fashion;;2018;S,INTRTSHT00108660,M,INTRTSHT00108661,L,INTRTSHT00108662,XL,INTRTSHT00108663;1899.00;;;<p>Cold Wash</p>;;;;mcw-ss18-all;zerotype;;Summer;mcw-ss18-all;No
2527966;ITMTS00043-RedSS-Red-2527966;Men's T-Shirt - Jeanswear;Draft;Tshirts;Indian Terrain;Adults-Men;Men;Red;;;Fashion;;2018;S,INTRTSHT00108654,M,INTRTSHT00108655,L,INTRTSHT00108656,XL,INTRTSHT00108657;1799.00;;;<p>Cold Wash</p>;;;;mcw-ss18-all;zerotype;;Summer;mcw-ss18-all;No
2527963;ITMTS00043-OrangeSS-Orange-2527963;Men's T-Shirt - Jeanswear;Draft;Tshirts;Indian Terrain;Adults-Men;Men;Orange;;;Fashion;;2018;S,INTRTSHT00108648,M,INTRTSHT00108649,L,INTRTSHT00108650,XL,INTRTSHT00108651;1799.00;;;<p>Cold Wash</p>;;;;mcw-ss18-all;zerotype;;Summer;mcw-ss18-all;No
2527960;ITMTS00041-Dk IndigoSS-Dk Indigo-2527960;Men's T-Shirt - Sportswear;Draft;Tshirts;Indian Terrain;Adults-Men;Men;Blue;;;Fashion;;2018;S,INTRTSHT00108642,M,INTRTSHT00108643,L,INTRTSHT00108644,XL,INTRTSHT00108645;1799.00;;;<p>Cold Wash</p>;;;;mcw-ss18-all;zerotype;;Summer;mcw-ss18-all;No
2527958;ITMSH00452-NavySS-Navy-2527958;Men's Shirt - Sportswear;Draft;Shirts;Indian Terrain;Adults-Men;Men;Navy Blue;;;Fashion;;2018;S,INTRSHRT00111038,M,INTRSHRT00111039,L,INTRSHRT00111040,XL,INTRSHRT00111041;2049.00;;;<p>Cold Wash</p>;;;;mcw-ss18-all;zerotype;;Summer;mcw-ss18-all;No
2527957;ITMSH00452-NavyLS-Navy-2527957;Men's Shirt - Sportswear;Draft;Shirts;Indian Terrain;Adults-Men;Men;Navy Blue;;;Fashion;;2018;S,INTRSHRT00111034,M,INTRSHRT00111035,L,INTRSHRT00111036,XL,INTRSHRT00111037;2049.00;;;<p>Cold Wash</p>;;;;mcw-ss18-all;zerotype;;Summer;mcw-ss18-all;No
2527955;ITMSH00441-Pale BlueSS-Pale Blue-2527955;Men's Shirt - Sportswear;Draft;Shirts;Indian Terrain;Adults-Men;Men;Blue;;;Fashion;;2018;S,INTRSHRT00111029,M,INTRSHRT00111030,L,INTRSHRT00111031,XL,INTRSHRT00111032;2599.00;;;<p>Cold Wash</p>;;;;mcw-ss18-all;zerotype;;Summer;mcw-ss18-all;No
2527954;ITMSH00435-RedSS-Red-2527954;Men's Shirt - Sportswear;Draft;Shirts;Indian Terrain;Adults-Men;Men;Red;;;Fashion;;2018;S,INTRSHRT00111025,M,INTRSHRT00111026,L,INTRSHRT00111027,XL,INTRSHRT00111028;2399.00;;;<p>Cold Wash</p>;;;;mcw-ss18-all;zerotype;;Summer;mcw-ss18-all;No
2527951;ITMSH00435-KhakiSS-Khaki-2527951;Men's Shirt - Sportswear;Draft;Shirts;Indian Terrain;Adults-Men;Men;Khaki;;;Fashion;;2018;S,INTRSHRT00111019,M,INTRSHRT00111020,L,INTRSHRT00111021,XL,INTRSHRT00111022;2399.00;;;<p>Cold Wash</p>;;;;mcw-ss18-all;zerotype;;Summer;mcw-ss18-all;No
2527947;ITMSH00426-WhiteLS-White-2527947;Men's Shirt - Sportswear;Draft;Shirts;Indian Terrain;Adults-Men;Men;White;;;Fashion;;2018;S,INTRSHRT00111010,M,INTRSHRT00111011,L,INTRSHRT00111012,XL,INTRSHRT00111013;1999.00;;;<p>Cold Wash</p>;;;;mcw-ss18-all;zerotype;;Summer;mcw-ss18-all;No
2527946;ITMSH00424-EcruSS-Ecru-2527946;Men's Shirt - Sportswear;Draft;Shirts;Indian Terrain;Adults-Men;Men;Beige;;;Fashion;;2018;S,INTRSHRT00111006,M,INTRSHRT00111007,L,INTRSHRT00111008,XL,INTRSHRT00111009;2049.00;;;<p>Cold Wash</p>;;;;mcw-ss18-all;zerotype;;Summer;mcw-ss18-all;No
2527944;ITMSH00417-PrussianSS-Prussian-2527944;Men's Shirt - Sportswear;Draft;Shirts;Indian Terrain;Adults-Men;Men;Blue;;;Fashion;;2018;S,INTRSHRT00111001,M,INTRSHRT00111002,L,INTRSHRT00111003,XL,INTRSHRT00111004;2299.00;;;<p>Cold Wash</p>;;;;mcw-ss18-all;zerotype;;Summer;mcw-ss18-all;No
2527940;ITMSH00413-AmberSS-Amber-2527940;Men's Shirt - Sportswear;Draft;Shirts;Indian Terrain;Adults-Men;Men;Orange;;;Fashion;;2018;S,INTRSHRT00110991,M,INTRSHRT00110992,L,INTRSHRT00110993,XL,INTRSHRT00110994;2049.00;;;<p>Cold Wash</p>;;;;mcw-ss18-all;zerotype;;Summer;mcw-ss18-all;No
2527936;ITMSH00406-Dk OrangeSS-Dk Orange-2527936;Men's Shirt - Sportswear;Draft;Shirts;Indian Terrain;Adults-Men;Men;Orange;;;Fashion;;2018;S,INTRSHRT00110984,M,INTRSHRT00110985,L,INTRSHRT00110986,XL,INTRSHRT00110987;2049.00;;;<p>Cold Wash</p>;;;;mcw-ss18-all;zerotype;;Summer;mcw-ss18-all;No
2527934;ITMSH00404-Dk OrangeSS-Dk Orange-2527934;Men's Shirt - Sportswear;Draft;Shirts;Indian Terrain;Adults-Men;Men;Orange;;;Fashion;;2018;S,INTRSHRT00110979,M,INTRSHRT00110980,L,INTRSHRT00110981,XL,INTRSHRT00110982;2049.00;;;<p>Cold Wash</p>;;;;mcw-ss18-all;zerotype;;Summer;mcw-ss18-all;No
2527931;ITMSH00400-IndigoSS-Indigo-2527931;Men's Shirt - Sportswear;Draft;Shirts;Indian Terrain;Adults-Men;Men;Blue;;;Fashion;;2018;S,INTRSHRT00110973,M,INTRSHRT00110974,L,INTRSHRT00110975,XL,INTRSHRT00110976;2049.00;;;<p>Cold Wash</p>;;;;mcw-ss18-all;zerotype;;Summer;mcw-ss18-all;No
2527930;ITMSH00397-BlueSS-Blue-2527930;Men's Shirt - Sportswear;Draft;Shirts;Indian Terrain;Adults-Men;Men;Blue;;;Fashion;;2018;S,INTRSHRT00110969,M,INTRSHRT00110970,L,INTRSHRT00110971,XL,INTRSHRT00110972;2049.00;;;<p>Cold Wash</p>;;;;mcw-ss18-all;zerotype;;Summer;mcw-ss18-all;No
2527927;ITMSH00391-IndigoLS-Indigo-2527927;Men's Shirt - Sportswear;Draft;Shirts;Indian Terrain;Adults-Men;Men;Blue;;;Fashion;;2018;S,INTRSHRT00110964,M,INTRSHRT00110965,L,INTRSHRT00110966;2299.00;;;<p>Cold Wash</p>;;;;mcw-ss18-all;zerotype;;Summer;mcw-ss18-all;No
2527925;ITMSH00388-SkySS-Sky-2527925;Men's Shirt - Sportswear;Draft;Shirts;Indian Terrain;Adults-Men;Men;Blue;;;Fashion;;2018;S,INTRSHRT00110959,M,INTRSHRT00110960,L,INTRSHRT00110961,XL,INTRSHRT00110962;2299.00;;;<p>Cold Wash</p>;;;;mcw-ss18-all;zerotype;;Summer;mcw-ss18-all;No
2527923;ITMSH00384-OrangeLS-Orange-2527923;Men's Shirt - Sportswear;Draft;Shirts;Indian Terrain;Adults-Men;Men;Orange;;;Fashion;;2018;S,INTRSHRT00110954,M,INTRSHRT00110955,L,INTRSHRT00110956,XL,INTRSHRT00110957;2399.00;;;<p>Cold Wash</p>;;;;mcw-ss18-all;zerotype;;Summer;mcw-ss18-all;No
2527918;ITMSH00306-NavySS-Navy-2527918;Men's Shirt - Sportswear;Draft;Shirts;Indian Terrain;Adults-Men;Men;Navy Blue;;;Fashion;;2018;S,INTRSHRT00110946,M,INTRSHRT00110947,L,INTRSHRT00110948,XL,INTRSHRT00110949;2099.00;;;<p>Cold Wash</p>;;;;mcw-ss18-all;zerotype;;Summer;mcw-ss18-all;No
2527915;ITMSH00298-OliveSS-Olive-2527915;Men's Shirt - Sportswear;Draft;Shirts;Indian Terrain;Adults-Men;Men;Green;;;Fashion;;2018;S,INTRSHRT00110940,M,INTRSHRT00110941,L,INTRSHRT00110942,XL,INTRSHRT00110943;1999.00;;;<p>Cold Wash</p>;;;;mcw-ss18-all;zerotype;;Summer;mcw-ss18-all;No
2527913;ITMSH00293-Light GreyLS-Light Grey-2527913;Men's Shirt - Sportswear;Draft;Shirts;Indian Terrain;Adults-Men;Men;Grey;;;Fashion;;2018;S,INTRSHRT00110935,M,INTRSHRT00110936,L,INTRSHRT00110937,XL,INTRSHRT00110938;1999.00;;;<p>Cold Wash</p>;;;;mcw-ss18-all;zerotype;;Summer;mcw-ss18-all;No
2527909;ITMSH00292-Light GreyLS-Light Grey-2527909;Men's Shirt - Sportswear;Draft;Shirts;Indian Terrain;Adults-Men;Men;Grey;;;Fashion;;2018;S,INTRSHRT00110929,M,INTRSHRT00110930,L,INTRSHRT00110931,XL,INTRSHRT00110932;1999.00;;;<p>Cold Wash</p>;;;;mcw-ss18-all;zerotype;;Summer;mcw-ss18-all;No
2527905;ITMSH00290-RustLS-Rust-2527905;Men's Shirt - Sportswear;Draft;Shirts;Indian Terrain;Adults-Men;Men;Rust;;;Fashion;;2018;S,INTRSHRT00110923,M,INTRSHRT00110924,L,INTRSHRT00110925,XL,INTRSHRT00110926;2199.00;;;<p>Cold Wash</p>;;;;mcw-ss18-all;zerotype;;Summer;mcw-ss18-all;No
2527901;ITMSH00280-WhiteLS-White-2527901;Men's Shirt - Sportswear;Draft;Shirts;Indian Terrain;Adults-Men;Men;White;;;Fashion;;2018;S,INTRSHRT00110917,M,INTRSHRT00110918,L,INTRSHRT00110919,XL,INTRSHRT00110920;1899.00;;;<p>Cold Wash</p>;;;;mcw-ss18-all;zerotype;;Summer;mcw-ss18-all;No
2527897;ITMSH00256-NavySS-Navy-2527897;Men's Shirt - Sportswear;Draft;Shirts;Indian Terrain;Adults-Men;Men;Navy Blue;;;Fashion;;2018;S,INTRSHRT00110911,M,INTRSHRT00110912,L,INTRSHRT00110913,XL,INTRSHRT00110914;1899.00;;;<p>Cold Wash</p>;;;;mcw-ss18-all;zerotype;;Summer;mcw-ss18-all;No
2527893;ITMSH00238-GasolineLS-Gasoline-2527893;Men's Shirt - Sportswear;Draft;Shirts;Indian Terrain;Adults-Men;Men;Blue;;;Fashion;;2018;S,INTRSHRT00110905,M,INTRSHRT00110906,L,INTRSHRT00110907,XL,INTRSHRT00110908;2199.00;;;<p>Cold Wash</p>;;;;mcw-ss18-all;zerotype;;Summer;mcw-ss18-all;No
2527888;ITMSH00237-MintLS-Mint-2527888;Men's Shirt - Jeanswear;Draft;Shirts;Indian Terrain;Adults-Men;Men;Green;;;Fashion;;2018;S,INTRSHRT00110899,M,INTRSHRT00110900,L,INTRSHRT00110901,XL,INTRSHRT00110902;2099.00;;;<p>Cold Wash</p>;;;;mcw-ss18-all;zerotype;;Summer;mcw-ss18-all;No
2527884;ITMSH00230-CobaltLS-Cobalt-2527884;Men's Shirt - Sportswear;Draft;Shirts;Indian Terrain;Adults-Men;Men;Blue;;;Fashion;;2018;S,INTRSHRT00110893,M,INTRSHRT00110894,L,INTRSHRT00110895,XL,INTRSHRT00110896;2099.00;;;<p>Cold Wash</p>;;;;mcw-ss18-all;zerotype;;Summer;mcw-ss18-all;No
2527880;ITMSH00216-GasolineLS-Gasoline-2527880;Men's Shirt - Sportswear;Draft;Shirts;Indian Terrain;Adults-Men;Men;Blue;;;Fashion;;2018;S,INTRSHRT00110887,M,INTRSHRT00110888,L,INTRSHRT00110889,XL,INTRSHRT00110890;1999.00;;;<p>Cold Wash</p>;;;;mcw-ss18-all;zerotype;;Summer;mcw-ss18-all;No
2527877;ITMSH00208-SkyLS-Sky-2527877;Men's Shirt - Sportswear;Draft;Shirts;Indian Terrain;Adults-Men;Men;Blue;;;Fashion;;2018;S,INTRSHRT00110882,M,INTRSHRT00110883,L,INTRSHRT00110884,XL,INTRSHRT00110885;1999.00;;;<p>Cold Wash</p>;;;;mcw-ss18-all;zerotype;;Summer;mcw-ss18-all;No
2527873;ITMSH00203-WhiteSS-White-2527873;Men's Shirt - Jeanswear;Draft;Shirts;Indian Terrain;Adults-Men;Men;White;;;Fashion;;2018;S,INTRSHRT00110876,M,INTRSHRT00110877,L,INTRSHRT00110878,XL,INTRSHRT00110879;1899.00;;;<p>Cold Wash</p>;;;;mcw-ss18-all;zerotype;;Summer;mcw-ss18-all;No
2527869;ITMSH00200-OliveLS-Olive-2527869;Men's Shirt - Sportswear;Draft;Shirts;Indian Terrain;Adults-Men;Men;Green;;;Fashion;;2018;S,INTRSHRT00110870,M,INTRSHRT00110871,L,INTRSHRT00110872,XL,INTRSHRT00110873;2199.00;;;<p>Cold Wash</p>;;;;mcw-ss18-all;zerotype;;Summer;mcw-ss18-all;No
2527866;ITMSH00187-Light GreyLS-Light Grey-2527866;Men's Shirt - Sportswear;Draft;Shirts;Indian Terrain;Adults-Men;Men;Grey;;;Fashion;;2018;S,INTRSHRT00110865,M,INTRSHRT00110866,L,INTRSHRT00110867,XL,INTRSHRT00110868;2199.00;;;<p>Cold Wash</p>;;;;mcw-ss18-all;zerotype;;Summer;mcw-ss18-all;No
2527862;ITMSH00186-Light GreySS-Light Grey-2527862;Men's Shirt - Sportswear;Draft;Shirts;Indian Terrain;Adults-Men;Men;Grey;;;Fashion;;2018;S,INTRSHRT00110859,M,INTRSHRT00110860,L,INTRSHRT00110861,XL,INTRSHRT00110862;2199.00;;;<p>Cold Wash</p>;;;;mcw-ss18-all;zerotype;;Summer;mcw-ss18-all;No
2527859;ITMSH00182-RedLS-Red-2527859;Men's Shirt - Sportswear;Draft;Shirts;Indian Terrain;Adults-Men;Men;Red;;;Fashion;;2018;S,INTRSHRT00110854,M,INTRSHRT00110855,L,INTRSHRT00110856,XL,INTRSHRT00110857;2199.00;;;<p>Cold Wash</p>;;;;mcw-ss18-all;zerotype;;Summer;mcw-ss18-all;No
2527856;ITMSH00182-NavyLS-Navy-2527856;Men's Shirt - Sportswear;Draft;Shirts;Indian Terrain;Adults-Men;Men;Navy Blue;;;Fashion;;2018;S,INTRSHRT00110849,M,INTRSHRT00110850,L,INTRSHRT00110851,XL,INTRSHRT00110852;2199.00;;;<p>Cold Wash</p>;;;;mcw-ss18-all;zerotype;;Summer;mcw-ss18-all;No
2527853;ITMSH00182-KhakiLS-Khaki-2527853;Men's Shirt - Sportswear;Draft;Shirts;Indian Terrain;Adults-Men;Men;Khaki;;;Fashion;;2018;S,INTRSHRT00110844,M,INTRSHRT00110845,L,INTRSHRT00110846,XL,INTRSHRT00110847;2199.00;;;<p>Cold Wash</p>;;;;mcw-ss18-all;zerotype;;Summer;mcw-ss18-all;No
2527849;ITMSH00181-NavySS-Navy-2527849;Men's Shirt - Sportswear;Draft;Shirts;Indian Terrain;Adults-Men;Men;Navy Blue;;;Fashion;;2018;S,INTRSHRT00110838,M,INTRSHRT00110839,L,INTRSHRT00110840,XL,INTRSHRT00110841;2199.00;;;<p>Cold Wash</p>;;;;mcw-ss18-all;zerotype;;Summer;mcw-ss18-all;No
2527845;ITMSH00179-Denim BlueLS-Denim Blue-2527845;Men's Shirt - Sportswear;Draft;Shirts;Indian Terrain;Adults-Men;Men;Blue;;;Fashion;;2018;S,INTRSHRT00110832,M,INTRSHRT00110833,L,INTRSHRT00110834,XL,INTRSHRT00110835;1999.00;;;<p>Cold Wash</p>;;;;mcw-ss18-all;zerotype;;Summer;mcw-ss18-all;No
2527841;ITMSH00167-OliveLS-Olive-2527841;Men's Shirt - Sportswear;Draft;Shirts;Indian Terrain;Adults-Men;Men;Green;;;Fashion;;2018;S,INTRSHRT00110826,M,INTRSHRT00110827,L,INTRSHRT00110828,XL,INTRSHRT00110829;1999.00;;;<p>Cold Wash</p>;;;;mcw-ss18-all;zerotype;;Summer;mcw-ss18-all;No
2527837;ITMSH00167-BlueLS-Blue-2527837;Men's Shirt - Sportswear;Draft;Shirts;Indian Terrain;Adults-Men;Men;Blue;;;Fashion;;2018;S,INTRSHRT00110820,M,INTRSHRT00110821,L,INTRSHRT00110822,XL,INTRSHRT00110823;1999.00;;;<p>Cold Wash</p>;;;;mcw-ss18-all;zerotype;;Summer;mcw-ss18-all;No
2527834;ITMSH00121-BurgundyLS-Burgundy-2527834;Men's Shirt - Jeanswear;Draft;Shirts;Indian Terrain;Adults-Men;Men;Burgundy;;;Fashion;;2018;S,INTRSHRT00110815,M,INTRSHRT00110816,L,INTRSHRT00110817,XL,INTRSHRT00110818;2099.00;;;<p>Cold Wash</p>;;;;mcw-ss18-all;zerotype;;Summer;mcw-ss18-all;No
2527831;ITMSH00121-BlackLS-Black-2527831;Men's Shirt - Jeanswear;Draft;Shirts;Indian Terrain;Adults-Men;Men;Black;;;Fashion;;2018;S,INTRSHRT00110810,M,INTRSHRT00110811,L,INTRSHRT00110812,XL,INTRSHRT00110813;2099.00;;;<p>Cold Wash</p>;;;;mcw-ss18-all;zerotype;;Summer;mcw-ss18-all;No
2527827;ITMSH00100-Dark GreyLS-Dark Grey-2527827;Men's Shirt - Jeanswear;Draft;Shirts;Indian Terrain;Adults-Men;Men;Grey;;;Fashion;;2018;S,INTRSHRT00110804,M,INTRSHRT00110805,L,INTRSHRT00110806,XL,INTRSHRT00110807;2199.00;;;<p>Cold Wash</p>;;;;mcw-ss18-all;zerotype;;Summer;mcw-ss18-all;No
2527824;ITMSH00099-NavyLS-Navy-2527824;Men's Shirt - Jeanswear;Draft;Shirts;Indian Terrain;Adults-Men;Men;Navy Blue;;;Fashion;;2018;S,INTRSHRT00110799,M,INTRSHRT00110800,L,INTRSHRT00110801,XL,INTRSHRT00110802;2199.00;;;<p>Cold Wash</p>;;;;mcw-ss18-all;zerotype;;Summer;mcw-ss18-all;No
2527821;ITMSH00099-Dark GreyLS-Dark Grey-2527821;Men's Shirt - Jeanswear;Draft;Shirts;Indian Terrain;Adults-Men;Men;Grey;;;Fashion;;2018;S,INTRSHRT00110794,M,INTRSHRT00110795,L,INTRSHRT00110796,XL,INTRSHRT00110797;2199.00;;;<p>Cold Wash</p>;;;;mcw-ss18-all;zerotype;;Summer;mcw-ss18-all;No
2527817;ITMSH00076-YellowSS-Yellow-2527817;Men's Shirt - Jeanswear;Draft;Shirts;Indian Terrain;Adults-Men;Men;Yellow;;;Fashion;;2018;S,INTRSHRT00110788,M,INTRSHRT00110789,L,INTRSHRT00110790,XL,INTRSHRT00110791;1899.00;;;<p>Cold Wash</p>;;;;mcw-ss18-all;zerotype;;Summer;mcw-ss18-all;No
2527813;ITMSH00076-MintSS-Mint-2527813;Men's Shirt - Jeanswear;Draft;Shirts;Indian Terrain;Adults-Men;Men;Green;;;Fashion;;2018;S,INTRSHRT00110782,M,INTRSHRT00110783,L,INTRSHRT00110784,XL,INTRSHRT00110785;1899.00;;;<p>Cold Wash</p>;;;;mcw-ss18-all;zerotype;;Summer;mcw-ss18-all;No
2527810;ITMSH00056-Sky BlueLS-Sky Blue-2527810;Men's Shirt - Jeanswear;Draft;Shirts;Indian Terrain;Adults-Men;Men;Blue;;;Fashion;;2018;S,INTRSHRT00110777,M,INTRSHRT00110778,L,INTRSHRT00110779,XL,INTRSHRT00110780;2099.00;;;<p>Cold Wash</p>;;;;mcw-ss18-all;zerotype;;Summer;mcw-ss18-all;No
2527807;ITMSH00056-NavyLS-Navy-2527807;Men's Shirt - Jeanswear;Draft;Shirts;Indian Terrain;Adults-Men;Men;Navy Blue;;;Fashion;;2018;S,INTRSHRT00110772,M,INTRSHRT00110773,L,INTRSHRT00110774,XL,INTRSHRT00110775;2099.00;;;<p>Cold Wash</p>;;;;mcw-ss18-all;zerotype;;Summer;mcw-ss18-all;No
2527803;ITMSH00055-NavyLS-Navy-2527803;Men's Shirt - Jeanswear;Draft;Shirts;Indian Terrain;Adults-Men;Men;Navy Blue;;;Fashion;;2018;S,INTRSHRT00110766,M,INTRSHRT00110767,L,INTRSHRT00110768,XL,INTRSHRT00110769;2099.00;;;<p>Cold Wash</p>;;;;mcw-ss18-all;zerotype;;Summer;mcw-ss18-all;No
2527799;ITMSH00054-IndigoLS-Indigo-2527799;Men's Shirt - Jeanswear;Draft;Shirts;Indian Terrain;Adults-Men;Men;Blue;;;Fashion;;2018;S,INTRSHRT00110760,M,INTRSHRT00110761,L,INTRSHRT00110762,XL,INTRSHRT00110763;1999.00;;;<p>Cold Wash</p>;;;;mcw-ss18-all;zerotype;;Summer;mcw-ss18-all;No
2527796;ITMSH00053-IndigoLS-Indigo-2527796;Men's Shirt - Jeanswear;Draft;Shirts;Indian Terrain;Adults-Men;Men;Blue;;;Fashion;;2018;S,INTRSHRT00110755,M,INTRSHRT00110756,L,INTRSHRT00110757,XL,INTRSHRT00110758;1999.00;;;<p>Cold Wash</p>;;;;mcw-ss18-all;zerotype;;Summer;mcw-ss18-all;No
2527793;ITMSH00052-WhiteLS-White-2527793;Men's Shirt - Sportswear;Draft;Shirts;Indian Terrain;Adults-Men;Men;White;;;Fashion;;2018;S,INTRSHRT00110750,M,INTRSHRT00110751,L,INTRSHRT00110752,XL,INTRSHRT00110753;2699.00;;;<p>Cold Wash</p>;;;;mcw-ss18-all;zerotype;;Summer;mcw-ss18-all;No
2527789;ITMSH00052-OliveLS-Olive-2527789;Men's Shirt - Sportswear;Draft;Shirts;Indian Terrain;Adults-Men;Men;Green;;;Fashion;;2018;S,INTRSHRT00110744,M,INTRSHRT00110745,L,INTRSHRT00110746,XL,INTRSHRT00110747;2699.00;;;<p>Cold Wash</p>;;;;mcw-ss18-all;zerotype;;Summer;mcw-ss18-all;No
2527786;ITMSH00052-ChocoLS-Choco-2527786;Men's Shirt - Sportswear;Draft;Shirts;Indian Terrain;Adults-Men;Men;Brown;;;Fashion;;2018;S,INTRSHRT00110739,M,INTRSHRT00110740,L,INTRSHRT00110741,XL,INTRSHRT00110742;2699.00;;;<p>Cold Wash</p>;;;;mcw-ss18-all;zerotype;;Summer;mcw-ss18-all;No
2527782;ITMSH00052-BlackLS-Black-2527782;Men's Shirt - Sportswear;Draft;Shirts;Indian Terrain;Adults-Men;Men;Black;;;Fashion;;2018;S,INTRSHRT00110733,M,INTRSHRT00110734,L,INTRSHRT00110735,XL,INTRSHRT00110736;2699.00;;;<p>Cold Wash</p>;;;;mcw-ss18-all;zerotype;;Summer;mcw-ss18-all;No
2527779;ITMSH00043-Dark NavyLS-Dark Navy-2527779;Men's Shirt - Sportswear;Draft;Shirts;Indian Terrain;Adults-Men;Men;Navy Blue;;;Fashion;;2018;S,INTRSHRT00110728,M,INTRSHRT00110729,L,INTRSHRT00110730,XL,INTRSHRT00110731;2299.00;;;<p>Cold Wash</p>;;;;mcw-ss18-all;zerotype;;Summer;mcw-ss18-all;No
2527775;ITMSH00033-Sky BlueLS-Sky Blue-2527775;Men's Shirt - Jeanswear;Draft;Shirts;Indian Terrain;Adults-Men;Men;Blue;;;Fashion;;2018;S,INTRSHRT00110722,M,INTRSHRT00110723,L,INTRSHRT00110724,XL,INTRSHRT00110725;2499.00;;;<p>Cold Wash</p>;;;;mcw-ss18-all;zerotype;;Summer;mcw-ss18-all;No
2085033;110030639012-Mustard-2085033;110030639Mustard;Active;Kurtas;indus route by Pantaloons;Adults-Men;Men;Mustard;;;Fashion;Ethnic;2017;XS,IRPSKRTA00001141,S,IRPSKRTA00001142,M,IRPSKRTA00001143,L,IRPSKRTA00001144,XL,IRPSKRTA00001145,XXL,IRPSKRTA00001146;799.00;Mustard <a href='/brown?src=pd' class='seolink'>brown</a> <a href='/solid?src=pd' class='seolink'>solid</a> straight <a href='/kurta?src=pd' class='seolink'>kurta</a>, has a mandarin collar, long sleeves, curved hem, no slits;Complete your look with this kurta from indus route by Pantaloons.  This mustard piece is a great option for any evening event when combined with your favourite trousers or jeans.;Polyester <br> Hand-wash;The model (height 6') is wearing a size M;;indus route by Pantaloons Men Brown Solid Straight Kurta;indus route by Pantaloons,big10-ethnic-men,menscasualfest-oct,ethnicfest-men-poojaceremony,ftod-sep30,coh-exp-aug,menscasualfest-nov,express-delivery-17,try-and-buy-17,mantastic-nov-aw17,mantastic-styles-nov19,mantastic-styles-dec2,mantastic-styles-dec5,groovy-gang-dec,men-occasion-wear,mantastic-styles-dec9,eorsdec17-ftod,eorsdec2017-emeocc,coupon-eorsdec17,fusion-wear,combo-buy3-jan1,buy2-1999-jan4,ltod-bbs,welcome-to-myntra-oct17,pongal-styles,buy2-jan15,buy3-jan20,mitm-jan-18,express-delivery-jan18,coupon-offer-rtf18,ltod-rtf,buy3-jan25,menscasualfest-feb,founding18-ltod;zerotype;;Winter;founding18-ltod;No
2079313;EHSH0532-blue-2079313;BLUE SOLID FULL SLEEVES;Active;Shirts;Ed Hardy;Adults-Men;Men;Navy Blue;;;Fashion;Casual;2016;S,EDHRSHRT00001624,M,EDHRSHRT00001625,L,EDHRSHRT00001626,XL,EDHRSHRT00001627,XXL,EDHRSHRT00001628;2699.00;Navy self-design casual shirt, has a button-down collar, button placket, 1 pocket, long sleeves, curved hem;This shirt from Ed Hardy will give you the perfect amount of comfort and durability.  A pair of sneakers and slim denims are the perfect additions to this navy blue piece when you're going outside for a day in the park.;Cotton <br /> Machine-wash;Regular Fit<br /> The model (height 6') is wearing a size 40;;Ed Hardy Men Navy Self-Design Casual Shirt;Ed Hardy,coh-exp-aug,welcome-to-myntra-oct17,menscasualfest-oct,coupon-offer-sep30,coupon-offer-diwali17,menscasualfest-nov,menscasualfestoct2,express-delivery-17,try-and-buy-17,combo-deals-oct28,youngistan-mainbanner,bfg17-non-disc,mmb-casualshirts,menscasualfest-dec,coupon-eorsdec17,coupon-offer-dec2017,combo-deals-dec27,scantastic-jan12,mitm-jan-18,streetstyle-ready,express-delivery-jan18,coupon-offer-rtf18,buy2-jan25,flash-sale-29thjan,menscasualfest-feb;zerotype;;Winter;extra300-dec28;No
2079022;ARGT5708-Khaki-2079022;TRAS C FF CRY KKI REGU SOL STN;Active;Trousers;Arrow Sport;Adults-Men;Men;Brown;;;Fashion;Casual;2017;30,ARSPTRSR00002438,32,ARSPTRSR00002439,34,ARSPTRSR00002440,36,ARSPTRSR00002441,38,ARSPTRSR00002442,40,ARSPTRSR00002443;2499.00;<a href='/brown?src=pd' class='seolink'>Brown</a> <a href='/solid?src=pd' class='seolink'>solid</a> mid-rise <a href='/chinos?src=pd' class='seolink'>chinos</a>, has a button closure, 5 pockets;Elevate your style quotient with this pair of chinos from Arrow Sport. When you're going to brunch with your family, style this pair with a printed tee and canvas shoes.;Cotton and elastane blend<br />Machine-wash;Chrysler fit <br />The model (height 6') is wearing a size 32;;Arrow Sport Men Brown Chrysler Fit Solid Chinos;Arrow Sport,mitm-new-season,ftod-bbd17,bbd17-new-season,menscasualfest-oct,ftod-sep30,mantastic-styles2-fw17,arrow-aw17-all,menscasualfest-nov,menscasualfestoct2,express-delivery-17,try-and-buy-17,mantastic-styles-nov9,bfg17-coupon-offer,bfg17-non-disc,bfg17-extra20,coupon-offer-oct2017,party-store-2017-men-jeans-chinos,party-store-2017-view-all,mensworkwear-eors,eorsdec17-ftod,coupon-offer-dec2017,combo-buy2-dec27,ltod-bbs,welcome-to-myntra-oct17,scantastic-jan12,mitm-jan-18,effortless-casual,express-delivery-jan18,menscasualfest-feb,founding18-ltod,trending-bangalore,trending-delhi,trending-kolkatta,trending-pune,youngistan-mainbanner,casual-fest-feb23;zerotype;;Fall;casual-fest-feb23;No
2078895;ARES0866A-Lt. Blue-2078895;SH FS SLM POI SOL S15ASSPSH024B1;Active;Shirts;Arrow Sport;Adults-Men;Men;Pink;;;Fashion;Casual;2017;38.0,ARSPSHRT00005119,39.0,ARSPSHRT00005120,40.0,ARSPSHRT00005121,42.0,ARSPSHRT00005122,44.0,ARSPSHRT00005123,46.0,ARSPSHRT00005124,48.0,ARSPSHRT00005125;1899.00;Pink solid casual shirt, has a spread collar, button placket, 1 pocket, long sleeves, curved hem;This solid shirt from Arrow Sport will make you look your casual best. This pink piece can be styled with dark jeans, Chelsea boots, and a classic leather jacket for your next concert.;100% cotton<br />Machine-wash;Slim fit<br /> The model (height 6') is wearing a size 40;;Arrow Sport Men Pink Slim Fit Solid Casual Shirt;Arrow Sport,mitm-new-season,ftod-bbd17,bbd17-combo-buy2,bbd17-new-season,arrow-aw17-all,menscasualfest-nov,menscasualfestoct2,express-delivery-17,try-and-buy-17,bfg17-coupon-offer,bfg17-non-disc,coupon-offer-oct2017,mmb-casualshirts,menscasualwear-eors,eorsdec17-ftod,coupon-offer-dec2017,combo-deals-dec27,ltod-bbs,welcome-to-myntra-oct17,scantastic-jan12,mitm-jan-18,effortless-casual,express-delivery-jan18,flash-sale-29thjan,combo-buy2-jan31,buy2-feb09,menscasualfest-feb,founding18-ltod,youngistan-mainbanner,casual-fest-feb23,bat1999-23feb;zerotype;;Fall;extra300-dec28;No
2078894;ARES0865A-Me. Red-2078894;SH FS SLM POI SOL S15ASSPSH024R2;Active;Shirts;Arrow Sport;Adults-Men;Men;Red;;;Fashion;Casual;2017;38,ARSPSHRT00005113,39,ARSPSHRT00005114,40,ARSPSHRT00005115,42,ARSPSHRT00005116,44,ARSPSHRT00005117,46,ARSPSHRT00005118;1899.00;<a href='/red?src=pd' class='seolink'>Red</a> <a href='/solid?src=pd' class='seolink'>solid</a> <a href='/casual?src=pd' class='seolink'>casual</a> shirt, has a <a href='/spread?src=pd' class='seolink'>spread</a> collar, button placket, 1 pocket, long sleeves, curved hem;This shirt from Arrow Sport will give you the perfect amount of comfort and durability.  A dinner out after work is as simple as teaming this red piece with a cardigan and a pair of stylish glasses.;Cotton <br /> Machine-wash;Slim fit<br /> The model (height 6') is wearing a size 40;;Arrow Sport Men Red Slim Fit Solid Casual Shirt;Arrow Sport,ftod-bbd17,bbd17-combo-buy2,bbd17-new-season,menscasualfest-oct,ftod-sep30,mantastic-styles2-fw17,arrow-aw17-all,menscasualfest-nov,menscasualfestoct2,express-delivery-17,try-and-buy-17,mantastic-styles-nov9,bfg17-coupon-offer,coupon-offer-oct2017,mmb-casualshirts,menscasualwear-eors,eorsdec17-ftod,coupon-offer-dec2017,combo-deals-dec27,ltod-bbs,welcome-to-myntra-oct17,scantastic-jan12,mitm-jan-18,effortless-casual,express-delivery-jan18,menscasualfest-feb,founding18-ltod,youngistan-mainbanner,casual-fest-feb23;zerotype;;Fall;casual-fest-feb23;No
2078884;ARES0451B-Grey-2078884;SH FS REG SEM SOL 2/100 PRES - GREY;Active;Shirts;Arrow;Adults-Men;Men;Grey;;;Fashion;Formal;2017;38,ARRWSHRT00006516,39,ARRWSHRT00006517,40,ARRWSHRT00006518,42,ARRWSHRT00006519,44,ARRWSHRT00006520,46,ARRWSHRT00006521;2599.00;<a href='/grey?src=pd' class='seolink'>Grey</a> <a href='/solid?src=pd' class='seolink'>solid</a> <a href='/formal?src=pd' class='seolink'>formal</a> shirt, has a <a href='/spread?src=pd' class='seolink'>spread</a> collar, button placket, <a href='/1?src=pd' class='seolink'>1</a> pocket, long sleeves, curved hem;Add class to your year-round style with this formal shirt from Arrow.  You can wear this grey piece with trim denims and easy loafers when you're going to a nice restaurant.;Cotton <br /> Machine-wash;Regular Fit<br /> The model (height 6') is wearing a size 40;;Arrow Men Grey Regular Fit Solid Formal Shirt;Arrow,new-arrivals-formal-23082017,ftod-bbd17,bbd17-new-season,formalwear-min30sale,menscasualfest-oct,ftod-sep30,shubh-vivah-perfectionist-vibes,arrow-aw17-all,menscasualfest-nov,express-delivery-17,try-and-buy-17,bfg17-coupon-offer,bfg17-non-disc,mmb-formalshirts,workwear-styles,men-eors17-formal-classics-557602,mensworkwear-eors,eorsdec17-ftod,men-eors17-formal-business-557601,combo-deals-dec27,ltod-bbs,welcome-to-myntra-oct17,scantastic-jan12,mitm-jan-18,corporate-jetsetter,express-delivery-jan18,menscasualfest-feb,founding18-ltod,youngistan-mainbanner;zerotype;;Fall;youngistan-mainbanner;No
2043088;8907599220326-Azul Blue-2043088;USMU1383B1NA17FO;Active;Shirts;Blackberrys;Adults-Men;Men;Blue;Black;;Core;Casual;2017;44,BKBRSHRT00007146,39,BKBRSHRT00007147,40,BKBRSHRT00007148,42,BKBRSHRT00007149;1999.00;<a href='/blue?src=pd' class='seolink'>Blue</a> and <a href='/black?src=pd' class='seolink'>black</a> printed <a href='/casual?src=pd' class='seolink'>casual</a> shirt, has a <a href='/spread?src=pd' class='seolink'>spread</a> collar, button placket, long sleeves, curved hem;This shirt from Blackberrys will give you the perfect amount of comfort and durability.  When you need a laid-back weekend ensemble, rock this blue piece with trim denims and sneakers.;Cotton <br /> Machine-wash;Trim fit<br /> The model (height 6') is wearing a size 40;;Blackberrys Men Blue & Black Trim Fit Printed Casual Shirt;Blackberrys,bb-aw17-all,welcome-to-myntra-sep2017,aw17-new-season,formal-aug-mb,bbd17-coupon-offer,formalwear-min30sale,menscasualfest-oct,ftod-sep30,menscasualfest-nov,express-delivery-17,try-and-buy-17,formal-men-nov10,bfg17-non-disc,welcome-to-myntra-oct17,mmb-formalshirts,workwear-styles,mensworkwear-eors,eorsdec17-ftod,coupon-eorsdec17,coupon-offer-dec2017,combo-deals-dec27,combo-buy2-Jan1,ltod-bbs,buy2-jan20,mitm-jan-18,corporate-jetsetter,express-delivery-jan18,bat1999-jan23,menscasualfest-feb,trending-bangalore,trending-delhi,trending-pune,trending-mumbai;zerotype;;Winter;relist;No
2026584;BS-CROWLEY:DGAN09Q-DK GREY-2026584;MSCROEYDGAN09BSQ;Active;Shirts;Blackberrys;Adults-Men;Men;Charcoal;Black;;Fashion;Party;2017;42,BKBRSHRT00006817,44,BKBRSHRT00006818,40,BKBRSHRT00006819,39,BKBRSHRT00006820;2595.00;<a href='/charcoal?src=pd' class='seolink'>Charcoal</a> <a href='/grey?src=pd' class='seolink'>grey</a> and <a href='/black?src=pd' class='seolink'>black</a> colourblocked party shirt, has a <a href='/spread?src=pd' class='seolink'>spread</a> collar, button placket, long sleeves, curved hem;This cotton shirt from Blackberrys offers stylish and warm fabric. Rock this charcoal shirt with a bomber jacket and some slim jeans for a casual night out with the guys.;100% cotton<br />Machine-wash cold;Slim fit<br />The model (height 6') is wearing a size 40;;Blackberrys Men Charcoal Grey & Black Slim Fit Colourblocked Party Shirt;Blackberrys,aw17-do-stripes-casually,coupon-offer-aug19,welcome-to-mynt-v2sep2017,welcome-to-myntra-sep2017,dutyfree-sept17,bbd17-coupon-offer,bigxtra500,formal-aug-mb,ftod-bbd17,bbd17-new-season,uber-offer-sept25,bbd17-extra20,welcome-to-myntra-oct17,try-and-buy-17,combo-deals-oct28,mantastic-nov-aw17,bfg17-coupon-offer,bfg17-non-disc,mmb-formalshirts,workwear-styles,mensworkwear-eors,eorsdec17-ftod,coupon-eorsdec17,coupon-offer-dec2017,combo-deals-dec27,JIT,ltod-bbs,scantastic-jan12,mitm-jan-18,corporate-jetsetter,express-delivery-jan18,menscasualfest-feb,founding18-ltod,youngistan-mainbanner;zerotype;;Winter;youngistan-mainbanner;No
2025743;VDTF516D07509-Brown-2025743;VDTF516D07509;Active;Trousers;V Dot;Adults-Men;Men;Brown;;;Fashion;Casual;2017;38,VDOTTRSR00001923,34,VDOTTRSR00001924,30,VDOTTRSR00001925,36,VDOTTRSR00001926,32,VDOTTRSR00001927;2499.00;<a href='/brown?src=pd' class='seolink'>Brown</a> printed mid-rise <a href='/chinos?src=pd' class='seolink'>chinos</a>, has a button closure, 5 pockets;Upgrade your overall style with these dapper trousers designed by V Dot.  Style this brown pair with a solid tee and easy loafers when you're attending a relaxed work meeting.;Cotton <br /> Machine-wash;Comfort Tapered Fit <br /> The model (height 6') is wearing a size 32;;V Dot by Van Heusen Men Brown Comfort Tapered Fit Printed Chinos;V Dot,Mitm-college-aug,welcome-to-myntra-sep2017,aw17-formal-men,mitm-formal-sep,mitm-college-sep,mitm-hues-sep,formalwear-min30sale,menscasualfest-oct,ftod-sep30,mitm-formals-oct,menscasualfest-nov,express-delivery-17,try-and-buy-17,mantastic-nov-aw17,formal-men-nov10,bfg17-non-disc,groovy-gang-dec,party-store-2017-men-jeans-chinos,welcome-to-myntra-oct17,party-store-2017-view-all,workwear-styles,mensworkwear-eors,eorsdec17-ftod,ltod-bbs,mitm-jan-18,corporate-jetsetter,express-delivery-jan18,menscasualfest-feb,trending-bangalore,trending-delhi,trending-kolkatta,trending-pune,trending-mumbai,youngistan-mainbanner;zerotype;;Fall;youngistan-mainbanner;No
2021244;ARGT5548A-Khaki-2021244;TRAS C FF SLM KKI REG SOL BEDFORD;Active;Trousers;Arrow Sport;Adults-Men;Men;Beige;;;Fashion;Casual;2017;30,ARSPTRSR00002357,32,ARSPTRSR00002358,34,ARSPTRSR00002359,36,ARSPTRSR00002360,38,ARSPTRSR00002361,40,ARSPTRSR00002362,42,ARSPTRSR00002363;2099.00;<a href='/beige?src=pd' class='seolink'>Beige</a> <a href='/solid?src=pd' class='seolink'>solid</a> mid-rise <a href='/chinos?src=pd' class='seolink'>chinos</a>, has a button closure, <a href='/4?src=pd' class='seolink'>4</a> pockets;Designed by Arrow Sport, these top-notch chinos are ready to amp up your style game. When you're going to an art gallery, team this beige pair with canvas shoes and a formal shirt.;100% cotton <br /> Machine-wash;Slim fit<br /> The model (height 6') is wearing a size 32;;Arrow Sport Men Beige Slim Fit Solid Corduroy Chinos;Arrow Sport,coh-exp-aug,aw17-new-season,welcome-to-mynt-v2sep2017,welcome-to-myntra-sep2017,bbd17-coupon-offer,bbd17-combo-buy2,welcome-to-myntra-oct17,menscasualfest-oct,coupon-offer-diwali17,buy2-ds17,buy2-oct15,mitm-mainbanner-oct,coupon-offer-oct2017,menscasualfest-nov,menscasualfestoct2,express-delivery-17,try-and-buy-17,combo-buy3-oct28,youngistan-mainbanner,extra20-oct31,nov-buy2-1999,buy2-nov9,buy2-nov13,buy2-nov17,mantastic-styles-nov19,bfg17-coupon-offer,bfg17-non-disc,bfg17-extra20,Combo-buy2-Nov30,menscasualfest-dec,popularstyles-2017,buy2-1999-dec14,men-eors17-casual-holiday-edit-557598,men-eors17-formal-party-edit-557600,men-eors17-formal-classics-557602,menscasualwear-eors,mensworkwear-eors,coupon-eorsdec17,coupon-offer-dec2017,combo-buy2-Jan1,bestsellers-styles,buy2-1999-jan4,scantastic-jan12,mitm-jan-18,effortless-casual,express-delivery-jan18,flash-sale-29thjan,bluemoon-jan31,combo-buy2-jan31,buy2-feb09,menscasualfest-feb,ss18-men2-fridaydressing-633192,trending-bangalore,trending-delhi,trending-kolkatta,trending-pune,casual-fest-feb23,bat2499-23feb;zerotype;;Summer;uber-offer-feb18;No
2010550;BHMLS7562-NAVY-2010550;SHIRTS;Active;Shirts;Being Human;Adults-Men;Men;Navy Blue;;;Fashion;Casual;2017;40CM/S,BGHMSHRT00004203,41CM/M,BGHMSHRT00004204,42CM/L,BGHMSHRT00004205,43CM/XL,BGHMSHRT00004206,44CM/2XL,BGHMSHRT00004207;2299.00;<a href='/navy-blue?src=pd' class='seolink'>Navy blue</a> printed <a href='/casual?src=pd' class='seolink'>casual</a> shirt, has a <a href='/spread?src=pd' class='seolink'>spread</a> collar, button placket, long sleeves, curved hem;This printed shirt from Being Human will make you look your casual best. Rock this navy blue shirt with dark jeans and comfortable shoes next time you're looking for a casual weekend outfit.;100% cotton <br /> Machine-wash;Slim fit<br /> The model (height 6') is wearing a size M;;Being Human Clothing Men Navy Slim Fit Printed Casual Shirt;Being Human Clothing,bh-aw-17,Mitm-aw-aug,aw17-men,aw17-new-season,bh-aw17-urban,mens-casual-fest-aw17styles,b2get10-bh,mitm-new-season,bbd17-extra20,menscasualfest-oct,ftod-sep30,menscasualfest-nov,menscasualfestoct2,express-delivery-17,try-and-buy-17,denim-streetwear,celeb-mens-dec2,mantastic-styles-dec6,party-store-2017-men-printed-shirts,mmb-casualshirts,men-apparel-being-human-aw17,menscasualwear-eors,eorsdec17-ftod,brand-coupon-eors17,bh-bday-50,being-human-extra10,ltod-bbs,mitm-jan-18,express-delivery-jan18,coupon-offer-rtf18,menscasualfest-feb,founding18-ltod,youngistan-mainbanner;zerotype;;Winter;youngistan-mainbanner;No
1968479;BP-NI-DOFE92:PPEN16U/DK PURPLE-Purple-1968479;MSNI-92PPEN16BPU;Active;Shirts;Blackberrys;Adults-Men;Men;Purple;;;Fashion;Formal;2017;39,BKBRSHRT00006657,40,BKBRSHRT00006658,42,BKBRSHRT00006659;3995.00;<a href='/purple?src=pd' class='seolink'>Purple</a> checked <a href='/formal?src=pd' class='seolink'>formal</a> shirt, has a semi-cutaway collar, button placket, <a href='/1?src=pd' class='seolink'>1</a> pocket, long sleeves, curved hem;Pull off a formal look any day of the year with this Blackberrys shirt.  Head to your next business lunch in this purple shirt with fitted trousers and Oxford shoes.;Cotton <br /> Machine-wash cold;Smart fit<br /> The model (height 6') is wearing a size 40;;Blackberrys Men Purple Smart Fit Checked Formal Shirt;Blackberrys,ALAD040,bss-uber-offer,duty-offer-august,welcome-to-myntra-august17,extra500-jul24,uber-offer-jul31,mcf-aug-2238,uber-offer-new-aug,uber-offer-aug-rtf,uber-offer-16aug,coupon-offer-aug19,formal-aug-mb,coh-exp-aug,welcome-to-myntra-aug-v2,extra20-sports,extra20-aug31,welcome-to-myntra-sep2017,welcome-to-mynt-v2sep2017,dutyfree-sept17,bbd17-coupon-offer,bigxtra500,uber-offer-sept25,bbd17-extra20,welcome-to-myntra-oct17,formalwear-min30sale,menscasualfest-oct,coupon-offer-sep30,coupon-offer-diwali17,mitm-mainbanner-oct,menscasualfest-nov,express-delivery-17,try-and-buy-17,combo-deals-oct28,bfg17-coupon-offer,bfg17-non-disc,JIT,mmb-formalshirts,workwear-styles,mensworkwear-eors,coupon-eorsdec17,men-eors17-formal-business-557601,coupon-offer-dec2017,combo-deals-dec27,scantastic-jan12,mitm-jan-18,corporate-jetsetter,express-delivery-jan18,menscasualfest-feb,trending-bangalore,trending-delhi,trending-kolkatta,trending-pune,trending-mumbai,youngistan-mainbanner;zerotype;;Summer;youngistan-mainbanner;No
1938439;ATRF6020-Me. Grey-1938439;TRAR FFF TPD DGY AFX STR S16ARWLTR003C3;Active;Trousers;Arrow;Adults-Men;Men;Grey;;;Fashion;Formal;2017;30,ARRWTRSR00001893,32,ARRWTRSR00001894,34,ARRWTRSR00001895,36,ARRWTRSR00001896,38,ARRWTRSR00001897,40,ARRWTRSR00001898,42,ARRWTRSR00001899;2499.00;Grey solid mid-rise formal trousers, has a hook-and-bar closure, 4 pockets<br />Our stylist has paired these trousers with a belt<br />This pair of trousers does not come with a belt;You'll love the comfort and style of these Arrow trousers.  When you're celebrating your anniversary, match this grey pair with your favourite shirt and a trendy tie.;75% polyester, 25% viscose<br />Machine-wash;Tapered fit<br />The model (height 6') is wearing a size 32;;Arrow Men Grey Tapered Fit Solid Formal Trousers;Arrow,ALEA5555,best-discount-on-eors,eorsjun17-uber-offer,flat40-extra30-jul1,ftod-eoss-bbsjul17,formals-2238-men,menscasual-eoss,bestsellers-mcf-2238,mcf-aug-2238,mantastic-styles-august,formal-aug-mb,coh-exp-aug,welcome-to-mynt-v2sep2017,welcome-to-myntra-sep2017,bbd17-coupon-offer,bbd17-combo-buy2,welcome-to-myntra-oct17,formalwear-min30sale,menscasualfest-oct,coupon-offer-sep30,combo-deals,combo-buy2-sep30,diwali17-ftod,coupon-offer-diwali17,buy2-ds17,mitm-mainbanner-oct,menscasualfest-nov,buy40-oct25,express-delivery-17,try-and-buy-17,combo-buy2-oct28,get-back-200,extra20-oct31,formal-men-nov10,mantastic-styles-nov19,bfg17-coupon-offer,bfg17-extra20,workwear-styles,men-eors17-formal-classics-557602,mensworkwear-eors,combo-buy3-dec27,combo-buy2-Jan1,scantastic-jan12,mitm-jan-18,corporate-jetsetter,express-delivery-jan18,menscasualfest-feb;zerotype;;Spring;menscasualfest-feb;No
1889747;50010873384005-KHAKHI-1889747;PINNA-M-IT81831-4171, 38, KHAKHI;Active;Trousers;Indigo Nation;Adults-Men;Men;Olive;;;Fashion;Casual;2017;30,INNATRSR00100446,32,INNATRSR00100447,34,INNATRSR00100448,36,INNATRSR00100449,38,INNATRSR00100450;1999.00;<a href='/olive-green?src=pd' class='seolink'>Olive green</a> printed mid-rise <a href='/chinos?src=pd' class='seolink'>chinos</a>, has four pockets, a zip fly with button closure, a waistband with belt loops;A versatile addition like these chinos from Indigo Nation are perfect to transform your wardrobe. When you're attending a networking event, rock this beige pair with a high-fashion tee, a sleek tie, and easy loafers.;98% cotton and 2% elastane <br />Machine-wash;Ultra slim fit <br />The model (height 6') is wearing a size 32;;Indigo Nation Men Olive Green Ultra Slim Fit Printed Chinos;Indigo Nation,hh-jun2,offer999-jun4,coupon-crush-jun6,never-settle,jun08-wonder-hour,brand-day-indigo-nation,jun8-offer999,offer-11jun,mumbai-airport-duty,ftod-eorsj17-30,wonder-hour-jun25,ola-offer-jul17,welcome-to-myntra-july,duty-offer-new,signup-july-2017,bss-uber-offer,flfl-brands-men,mitm-collegejuly,welcome-to-myntra-august17,extra500-jul24,uber-offer-jul31,buy2-1999-3107,uber-offer-aug,mcf-aug-2238,casualfest-june17,rakhi-deals,rakhi-buy3-2499,dutyfree-august17,uber-offer-aug-rtf,coupon-offer-aug19,groovy-aug-mb,buy2-1999-23aug,coh-exp-aug,welcome-to-myntra-aug-v2,mitm-college-aug,extra20-sports,extra20-aug31,welcome-to-myntra-sep2017,welcome-to-mynt-v2sep2017,dutyfree-sept17,uber-offer-sept25,bbd17-extra20,welcome-to-myntra-oct17,menscasualfest-oct,coupon-offer-sep30,diwali17-ftod,groovy-gang-october,mitm-mainbanner-oct,coupon-offer-oct2017,menscasualfest-nov,menscasualfestoct2,express-delivery-17,try-and-buy-17,combo-buy2-oct28,get-back-200,extra20-oct31,buy2-nov9,bfg17-coupon-offer,bfg17-non-disc,bfg17-extra20,groovy-gang-dec,menscasualfest-dec,buy2-1999-dec14,mensworkwear-eors,coupon-eorsdec17,express-delivery-jan18,menscasualfest-feb,ebd-feb13,trending-bangalore,trending-kolkatta,trending-pune,trending-mumbai,youngistan-mainbanner,casual-fest-feb23;zerotype;;Summer;casual-fest-feb23;No
1801237;1856375005-Surf the Web-1801237;JJCO REFLECTOR SHIRT L/S IN;Active;Shirts;Jack & Jones;Adults-Men;Men;Blue;;;Fashion;Casual;2017;XXL,JAJOSHRT00007601,M,JAJOSHRT00007602,L,JAJOSHRT00007603,XL,JAJOSHRT00007604,S,JAJOSHRT00007605;2499.00;<a href='/blue?src=pd' class='seolink'>Blue</a> <a href='/solid?src=pd' class='seolink'>solid</a> <a href='/casual?src=pd' class='seolink'>casual</a> shirt, has a <a href='/spread?src=pd' class='seolink'>spread</a> collar, a full button placket, long sleeves, curved hem, printed detail on the chest;Cozy up with this in-style Jack & Jones shirt this season.  When you're going out on a dinner date, match this blue piece with chinos and a pair of easy loafers.;75% viscose, 25% nylon<br /> Machine-wash;The model (height 6') is wearing a size M;;Jack & Jones Men Blue Slim Fit Casual Shirt;Jack & Jones,NIKO0457,myntra-rupay,price-surge,apr15-hh,extra20-ccmay,crush24-ccmay,rs300off-ccmay,new-season30-ccmay,super-hour-ccmay,coupon-offer-may,super-hour-may9,JIT,rs300off-1105,big10-lucky30,big10-rs501off,myntra-icici-offer,big10-350off,big10-super-hour25,jack-and-jones-ss17-40,may21-hh,big10-gratification,look1-mitm-casual,mitm17,may27-price-surge,hh-jun2,offer999-jun4,welcome-to-myntra-june17,jun08-wonder-hour,jj-flat-40,offer-11jun,min30-jun12,tops-tees-june17,mumbai-duty-free,mumbai-airport-duty,eors17-rsoff-coupon,eors17-perc-coupon,eorsjun17-uber-offer,wishlist-eors,welcome-to-myntra-july,duty-offer-new,signup-july-2017,bss-uber-offer,flat40-extra30-jul19,mitm-july,mitm-collegejuly,duty-offer-august,welcome-to-myntra-august17,bestsellers-mcf-2238,mcf-aug-2238,casualfest-june17,welcome-to-myntra-aug-v2,coupon-offer-aug19,mitm-college-aug,buy2-1999-23aug,coh-exp-aug,plus-size-styles,flash-sale-sept02,rock-solids,welcome-to-mynt-v2sep2017,welcome-to-myntra-sep2017,dutyfree-sept17,mitm-college-sep,uber-offer-sept25,bbd17-extra20,welcome-to-myntra-oct17,menscasualfest-oct,mens-40-70-offer,newseason40,mitm-mainbanner-oct,menscasualfest-nov,menscasualfestoct2,buy2-oct25,express-delivery-17,try-and-buy-17,combo-deals-oct28,youngistan-mainbanner,deal-oct-buy2,bfg17-coupon-offer,bfg17-non-disc,bfg17-extra20,jj-nov-60,bs-nov-60,mantastic-styles-dec6,jeans-streetwear,mmb-casualshirts,menscasualfest-dec,menscasualwear-eors,coupon-eorsdec17,besu-min50,combo-deals-dec27,buy2-jan15,buy2-jan20,mitm-jan-18,streetstyle-ready,express-delivery-jan18,coupon-offer-rtf18,rtf18-brand-coupons,bestseller-jj,menscasualfest-feb,Brand-Coupon-400,bat2499-23feb;zerotype;;Spring;uber-offer-feb18;No
1603536;ITA16JKK103-Navy-1603536;MEN'S JACKET;Active;Waistcoat;Indian Terrain;Adults-Men;Men;Navy Blue;;;Fashion;Casual;2016;S,INTRJCKT00000794,L,INTRJCKT00000795,XL,INTRJCKT00000796,M,INTRJCKT00000797;3299.00;<div>Navy blue woven Nehru jacket, has a mandarin collar, a full button placket, sleeveless, four pockets, vented hem<div><br></div></div><div></div>;Give your casual looks an ethnic twist by layering with this Nehru jacket from Indian Terrain. Team it best with a short kurta, jeans and slippers.<div></div>;100% linen<br>Dry-clean;<div>The model (height 6' and shoulders 18") is wearing a size M</div><div></div>;;Indian Terrain Navy Linen Sleeveless Nehru Jacket;Indian Terrain,mitm-raveller,mitm-reveller,hot-picks,styles-for-flash-10,extra20-flash20-dec2,new-mens-casual,mens-new-style,budget-deal,cohort-customers,vd-men-jackets,valentines-day,Gifting-V-day,Dress-up-V-day,HH12JAN17,v-day-deals-11feb,vday-coupon-offer,mensworkwear-eors,coupon-eorsdec17,welcome-to-myntra-oct17,mitm-jan-18,corporate-jetsetter,express-delivery-jan18,coupon-offer-rtf18,men-occasion-wear,menscasualfest-feb,trending-bangalore,trending-delhi,trending-kolkatta,trending-pune,trending-mumbai,youngistan-mainbanner;zerotype;;Fall;youngistan-mainbanner;No
