Style ID;Vendor Article Number;Vendor Article Name;Active Status;Article type;Brand;Age Group;Gender;Base Colour;Colour1;Colour2;Fashion Type;Usage;Year;Size - SKU code pair;MRP;Style Description;Style Note;Materials and Care Description;Size and Fit Description;Size Chart Path;Product Display Name;Tags;Product Type;Classification Brand;Season;Comments;Upload Images
2051376;1701MSMPL06-Blue-2051376;MENS POLO;Draft;Tshirts;Jn Joy;Adults-Men;Men;Blue;;;Fashion;;2017;S,JNJYTSHT00001662,M,JNJYTSHT00001663,L,JNJYTSHT00001664,XL,JNJYTSHT00001665,XXL,JNJYTSHT00001666;2499.00;<p>SS17</p>;;<p>As per tag</p>;;;;;zerotype;;Summer;;No
2051372;1701MSMPL02-White-2051372;MENS POLO;Draft;Tshirts;Jn Joy;Adults-Men;Men;White;;;Fashion;;2017;S,JNJYTSHT00001657,M,JNJYTSHT00001658,L,JNJYTSHT00001659,XL,JNJYTSHT00001660,XXL,JNJYTSHT00001661;2499.00;<p>SS17</p>;;<p>As per tag</p>;;;;;zerotype;;Summer;;No
2051355;1701MSMPL01-Red-2051355;MENS POLO;Draft;Tshirts;Jn Joy;Adults-Men;Men;Red;;;Fashion;;2017;S,JNJYTSHT00001652,M,JNJYTSHT00001653,L,JNJYTSHT00001654,XL,JNJYTSHT00001655,XXL,JNJYTSHT00001656;2499.00;<p>SS17</p>;;<p>As per tag</p>;;;;;zerotype;;Summer;;No
2051323;1701MPL23-Blue-2051323;MENS POLO;Draft;Tshirts;Jn Joy;Adults-Men;Men;Blue;;;Fashion;;2017;S,JNJYTSHT00001647,M,JNJYTSHT00001648,L,JNJYTSHT00001649,XL,JNJYTSHT00001650,XXL,JNJYTSHT00001651;2499.00;<p>SS17</p>;;<p>As per tag</p>;;;;;zerotype;;Summer;;No
2051293;1701MPL22-Orange-2051293;MENS POLO;Draft;Tshirts;Jn Joy;Adults-Men;Men;Orange;;;Fashion;;2017;S,JNJYTSHT00001642,M,JNJYTSHT00001643,L,JNJYTSHT00001644,XL,JNJYTSHT00001645,XXL,JNJYTSHT00001646;2499.00;<p>SS17</p>;;<p>As per tag</p>;;;;;zerotype;;Summer;;No
2051269;1701MPL21-Green-2051269;MENS POLO;Draft;Tshirts;Jn Joy;Adults-Men;Men;Green;;;Fashion;;2017;S,JNJYTSHT00001637,M,JNJYTSHT00001638,L,JNJYTSHT00001639,XL,JNJYTSHT00001640,XXL,JNJYTSHT00001641;2499.00;<p>SS17</p>;;<p>As per tag</p>;;;;;zerotype;;Summer;;No
2051246;1701MPL14-Blue-2051246;MENS POLO;Draft;Tshirts;Jn Joy;Adults-Men;Men;Blue;;;Fashion;;2017;S,JNJYTSHT00001632,M,JNJYTSHT00001633,L,JNJYTSHT00001634,XL,JNJYTSHT00001635,XXL,JNJYTSHT00001636;2499.00;<p>SS17</p>;;<p>As per tag</p>;;;;;zerotype;;Summer;;No
2051231;1701MPL12-Green-2051231;MENS POLO;Draft;Tshirts;Jn Joy;Adults-Men;Men;Green;;;Fashion;;2017;S,JNJYTSHT00001627,M,JNJYTSHT00001628,L,JNJYTSHT00001629,XL,JNJYTSHT00001630,XXL,JNJYTSHT00001631;2499.00;<p>SS17</p>;;<p>As per tag</p>;;;;;zerotype;;Summer;;No
2051219;1701MPL10-Grey-2051219;MENS POLO;Draft;Tshirts;Jn Joy;Adults-Men;Men;Grey;;;Fashion;;2017;S,JNJYTSHT00001622,M,JNJYTSHT00001623,L,JNJYTSHT00001624,XL,JNJYTSHT00001625,XXL,JNJYTSHT00001626;2499.00;<p>SS17</p>;;<p>As per tag</p>;;;;;zerotype;;Summer;;No
2051210;1701MPL09-Grey-2051210;MENS POLO;Draft;Tshirts;Jn Joy;Adults-Men;Men;Grey;;;Fashion;;2017;S,JNJYTSHT00001617,M,JNJYTSHT00001618,L,JNJYTSHT00001619,XL,JNJYTSHT00001620,XXL,JNJYTSHT00001621;2499.00;<p>SS17</p>;;<p>As per tag</p>;;;;;zerotype;;Summer;;No
2051202;1701MPL06-Blue-2051202;MENS POLO;Draft;Tshirts;Jn Joy;Adults-Men;Men;Blue;;;Fashion;;2017;S,JNJYTSHT00001612,M,JNJYTSHT00001613,L,JNJYTSHT00001614,XL,JNJYTSHT00001615,XXL,JNJYTSHT00001616;2499.00;<p>SS17</p>;;<p>As per tag</p>;;;;;zerotype;;Summer;;No
2051191;1701MPL01-Blue-2051191;MENS POLO;Draft;Tshirts;Jn Joy;Adults-Men;Men;Blue;;;Fashion;;2017;S,JNJYTSHT00001607,M,JNJYTSHT00001608,L,JNJYTSHT00001609,XL,JNJYTSHT00001610,XXL,JNJYTSHT00001611;2499.00;<p>SS17</p>;;<p>As per tag</p>;;;;;zerotype;;Summer;;No
2051179;1602MPL28LS-Blue-2051179;MENS POLO;Draft;Tshirts;Jn Joy;Adults-Men;Men;Blue;;;Fashion;;2016;S,JNJYTSHT00001602,M,JNJYTSHT00001603,L,JNJYTSHT00001604,XL,JNJYTSHT00001605,XXL,JNJYTSHT00001606;2799.00;<p>AW16</p>;;<p>As per tag</p>;;;;;zerotype;;Winter;;No
2051166;1602MPL27LS-Navy Blue-2051166;MENS POLO;Draft;Tshirts;Jn Joy;Adults-Men;Men;Navy Blue;;;Fashion;;2016;S,JNJYTSHT00001597,M,JNJYTSHT00001598,L,JNJYTSHT00001599,XL,JNJYTSHT00001600,XXL,JNJYTSHT00001601;2799.00;<p>AW16</p>;;<p>As per tag</p>;;;;;zerotype;;Winter;;No
2051155;1602MPL22LS-Blue-2051155;MENS POLO;Draft;Tshirts;Jn Joy;Adults-Men;Men;Blue;;;Fashion;;2016;S,JNJYTSHT00001592,M,JNJYTSHT00001593,L,JNJYTSHT00001594,XL,JNJYTSHT00001595,XXL,JNJYTSHT00001596;2999.00;<p>AW16</p>;;<p>As per tag</p>;;;;;zerotype;;Winter;;No
2051126;1602MPL17LS-Blue-2051126;MENS POLO;Draft;Tshirts;Jn Joy;Adults-Men;Men;Blue;;;Fashion;;2016;S,JNJYTSHT00001587,M,JNJYTSHT00001588,L,JNJYTSHT00001589,XL,JNJYTSHT00001590,XXL,JNJYTSHT00001591;2799.00;<p>AW16</p>;;<p>As per tag</p>;;;;;zerotype;;Winter;;No
2051098;1602MPL15LS-Green-2051098;MENS POLO;Draft;Tshirts;Jn Joy;Adults-Men;Men;Green;;;Fashion;;2016;S,JNJYTSHT00001582,M,JNJYTSHT00001583,L,JNJYTSHT00001584,XL,JNJYTSHT00001585,XXL,JNJYTSHT00001586;2799.00;<p>AW16</p>;;<p>As per tag</p>;;;;;zerotype;;Winter;;No
2051073;1602MPL14LS-Red-2051073;MENS POLO;Draft;Tshirts;Jn Joy;Adults-Men;Men;Red;;;Fashion;;2016;S,JNJYTSHT00001577,M,JNJYTSHT00001578,L,JNJYTSHT00001579,XL,JNJYTSHT00001580,XXL,JNJYTSHT00001581;2799.00;<p>AW16</p>;;<p>As per tag</p>;;;;;zerotype;;Winter;;No
2051048;1602MSMTEE03-Blue-2051048;T-SHIRT MENS;Draft;Tshirts;Jn Joy;Adults-Men;Men;Blue;;;Fashion;;2016;S,JNJYTSHT00001572,M,JNJYTSHT00001573,L,JNJYTSHT00001574,XL,JNJYTSHT00001575,XXL,JNJYTSHT00001576;1699.00;<p>AW16</p>;;<p>As per tag</p>;;;;;zerotype;;Winter;;No
2051025;1701MSMTEE06-Red-2051025;T-SHIRT MENS;Draft;Tshirts;Jn Joy;Adults-Men;Men;Red;;;Core;;2017;S,JNJYTSHT00001567,M,JNJYTSHT00001568,L,JNJYTSHT00001569,XL,JNJYTSHT00001570,XXL,JNJYTSHT00001571;1699.00;<p>SS17</p>;;<p>As per tag</p>;;;;;zerotype;;Summer;;No
2051015;1701MSMTEE04-Grey-2051015;T-SHIRT MENS;Draft;Tshirts;Jn Joy;Adults-Men;Men;Grey;;;Core;;2017;S,JNJYTSHT00001562,M,JNJYTSHT00001563,L,JNJYTSHT00001564,XL,JNJYTSHT00001565,XXL,JNJYTSHT00001566;1499.00;<p>SS17</p>;;<p>As per tag</p>;;;;;zerotype;;Summer;;No
2051007;1701MSMTEE02-Grey-2051007;T-SHIRT MENS;Draft;Tshirts;Jn Joy;Adults-Men;Men;Grey;;;Core;;2017;S,JNJYTSHT00001557,M,JNJYTSHT00001558,L,JNJYTSHT00001559,XL,JNJYTSHT00001560,XXL,JNJYTSHT00001561;2199.00;<p>SS17</p>;;<p>As per tag</p>;;;;;zerotype;;Summer;;No
2051003;1701MTEE16-Grey-2051003;T-SHIRT MENS;Draft;Tshirts;Jn Joy;Adults-Men;Men;Grey;;;Core;;2017;S,JNJYTSHT00001552,M,JNJYTSHT00001553,L,JNJYTSHT00001554,XL,JNJYTSHT00001555,XXL,JNJYTSHT00001556;1699.00;<p>SS17</p>;;<p>As per tag</p>;;;;;zerotype;;Summer;;No
2051000;1701MTEE11-Pink-2051000;T-SHIRT MENS;Draft;Tshirts;Jn Joy;Adults-Men;Men;Pink;;;Core;;2017;S,JNJYTSHT00001547,M,JNJYTSHT00001548,L,JNJYTSHT00001549,XL,JNJYTSHT00001550,XXL,JNJYTSHT00001551;1699.00;<p>SS17</p>;;<p>As per tag</p>;;;;;zerotype;;Summer;;No
2050996;1701MTEE09-Blue-2050996;T-SHIRT MENS;Draft;Tshirts;Jn Joy;Adults-Men;Men;Blue;;;Core;;2017;S,JNJYTSHT00001542,M,JNJYTSHT00001543,L,JNJYTSHT00001544,XL,JNJYTSHT00001545,XXL,JNJYTSHT00001546;1699.00;<p>SS17</p>;;<p>As per tag</p>;;;;;zerotype;;Summer;;No
2050993;1701MTEE05-Blue-2050993;T-SHIRT MENS;Draft;Tshirts;Jn Joy;Adults-Men;Men;Blue;;;Core;;2017;S,JNJYTSHT00001537,M,JNJYTSHT00001538,L,JNJYTSHT00001539,XL,JNJYTSHT00001540,XXL,JNJYTSHT00001541;1699.00;<p>SS17</p>;;<p>As per tag</p>;;;;;zerotype;;Summer;;No
2050991;1701MTEE04-Coral-2050991;T-SHIRT MENS;Draft;Tshirts;Jn Joy;Adults-Men;Men;Coral;;;Core;;2017;S,JNJYTSHT00001532,M,JNJYTSHT00001533,L,JNJYTSHT00001534,XL,JNJYTSHT00001535,XXL,JNJYTSHT00001536;1699.00;<p>SS17</p>;;<p>As per tag</p>;;;;;zerotype;;Summer;;No
2050987;1602MTEE04-Red-2050987;T-SHIRT MENS;Draft;Tshirts;Jn Joy;Adults-Men;Men;Red;;;Core;;2016;S,JNJYTSHT00001527,M,JNJYTSHT00001528,L,JNJYTSHT00001529,XL,JNJYTSHT00001530,XXL,JNJYTSHT00001531;1999.00;<p>AW16</p>;;<p>As per tag</p>;;;;;zerotype;;Winter;;No
2050985;1601MNTEE01-Grey-2050985;T-SHIRT MENS;Draft;Tshirts;Jn Joy;Adults-Men;Men;Grey;;;Core;;2016;S,JNJYTSHT00001522,M,JNJYTSHT00001523,L,JNJYTSHT00001524,XL,JNJYTSHT00001525,XXL,JNJYTSHT00001526;1599.00;<p>SS16</p>;;<p>As per tag</p>;;;;;zerotype;;Summer;;No
2050982;1602MSMJACK02-Grey-2050982;JACKET MEN;Draft;Jackets;Jn Joy;Adults-Men;Men;Grey;;;Fashion;;2016;S,JNJYJCKT00000027,M,JNJYJCKT00000028,L,JNJYJCKT00000029,XL,JNJYJCKT00000030,XXL,JNJYJCKT00000031;7499.00;<p>AW16</p>;;<p>As per tag</p>;;;;;zerotype;;Winter;;No
2050979;1701MSMSWT03-Blue-2050979;SWEAT SHIRT MEN;Draft;Sweatshirts;Jn Joy;Adults-Men;Men;Blue;;;Fashion;;2017;S,JNJYSWSH00000146,M,JNJYSWSH00000147,L,JNJYSWSH00000148,XL,JNJYSWSH00000149,XXL,JNJYSWSH00000150;3499.00;<p>SS17</p>;;<p>As per tag</p>;;;;;zerotype;;Summer;;No
2050976;1701MSMSWT01-Navy Blue-2050976;SWEAT SHIRT MEN;Draft;Sweatshirts;Jn Joy;Adults-Men;Men;Navy Blue;;;Fashion;;2017;S,JNJYSWSH00000141,M,JNJYSWSH00000142,L,JNJYSWSH00000143,XL,JNJYSWSH00000144,XXL,JNJYSWSH00000145;2999.00;<p>SS17</p>;;<p>As per tag</p>;;;;;zerotype;;Summer;;No
2050966;1701MSWT06-Blue-2050966;SWEAT SHIRT MEN;Draft;Sweatshirts;Jn Joy;Adults-Men;Men;Blue;;;Fashion;;2017;S,JNJYSWSH00000136,M,JNJYSWSH00000137,L,JNJYSWSH00000138,XL,JNJYSWSH00000139,XXL,JNJYSWSH00000140;3499.00;<p>SS17</p>;;<p>As per tag</p>;;;;;zerotype;;Summer;;No
2050958;1602MSMKNIT04-Blue-2050958;SWEAT SHIRT MEN;Draft;Sweatshirts;Jn Joy;Adults-Men;Men;Blue;;;Fashion;;2016;S,JNJYSWSH00000131,M,JNJYSWSH00000132,L,JNJYSWSH00000133,XL,JNJYSWSH00000134,XXL,JNJYSWSH00000135;3999.00;<p>AW16</p>;;<p>As per tag</p>;;;;;zerotype;;Winter;;No
2050955;1602MSMKNIT01-Blue-2050955;SWEAT SHIRT MEN;Draft;Sweatshirts;Jn Joy;Adults-Men;Men;Blue;;;Fashion;;2016;S,JNJYSWSH00000126,M,JNJYSWSH00000127,L,JNJYSWSH00000128,XL,JNJYSWSH00000129,XXL,JNJYSWSH00000130;4499.00;<p>AW16</p>;;<p>As per tag</p>;;;;;zerotype;;Winter;;No
2050953;1602MSMSWT01-Navy Blue-2050953;SWEAT SHIRT MEN;Draft;Sweatshirts;Jn Joy;Adults-Men;Men;Navy Blue;;;Fashion;;2016;S,JNJYSWSH00000121,M,JNJYSWSH00000122,L,JNJYSWSH00000123,XL,JNJYSWSH00000124,XXL,JNJYSWSH00000125;3499.00;<p>AW16</p>;;<p>As per tag</p>;;;;;zerotype;;Winter;;No
2050949;1602MSWT15-Grey-2050949;SWEAT SHIRT MEN;Draft;Sweatshirts;Jn Joy;Adults-Men;Men;Grey;;;Fashion;;2016;S,JNJYSWSH00000116,M,JNJYSWSH00000117,L,JNJYSWSH00000118,XL,JNJYSWSH00000119,XXL,JNJYSWSH00000120;3499.00;<p>AW16</p>;;<p>As per tag</p>;;;;;zerotype;;Winter;;No
2050948;1602MSWT14-Grey-2050948;SWEAT SHIRT MEN;Draft;Sweatshirts;Jn Joy;Adults-Men;Men;Grey;;;Fashion;;2016;S,JNJYSWSH00000111,M,JNJYSWSH00000112,L,JNJYSWSH00000113,XL,JNJYSWSH00000114,XXL,JNJYSWSH00000115;3499.00;<p>AW16</p>;;<p>As per tag</p>;;;;;zerotype;;Winter;;No
2050945;1602MSWT10-Grey-2050945;SWEAT SHIRT MEN;Draft;Sweatshirts;Jn Joy;Adults-Men;Men;Grey;;;Fashion;;2016;S,JNJYSWSH00000106,M,JNJYSWSH00000107,L,JNJYSWSH00000108,XL,JNJYSWSH00000109,XXL,JNJYSWSH00000110;3499.00;<p>AW16</p>;;<p>As per tag</p>;;;;;zerotype;;Winter;;No
2050943;1602MSWT08-Orange-2050943;SWEAT SHIRT MEN;Draft;Sweatshirts;Jn Joy;Adults-Men;Men;Orange;;;Fashion;;2016;S,JNJYSWSH00000101,M,JNJYSWSH00000102,L,JNJYSWSH00000103,XL,JNJYSWSH00000104,XXL,JNJYSWSH00000105;3499.00;<p>AW16</p>;;<p>As per tag</p>;;;;;zerotype;;Winter;;No
2050940;1602MSWT04-Grey-2050940;SWEAT SHIRT MEN;Draft;Sweatshirts;Jn Joy;Adults-Men;Men;Grey;;;Fashion;;2016;S,JNJYSWSH00000096,M,JNJYSWSH00000097,L,JNJYSWSH00000098,XL,JNJYSWSH00000099,XXL,JNJYSWSH00000100;3499.00;<p>AW16</p>;;<p>As per tag</p>;;;;;zerotype;;Winter;;No
2050934;1602MSWT03-Blue-2050934;SWEAT SHIRT MEN;Draft;Sweatshirts;Jn Joy;Adults-Men;Men;Blue;;;Fashion;;2016;S,JNJYSWSH00000091,M,JNJYSWSH00000092,L,JNJYSWSH00000093,XL,JNJYSWSH00000094,XXL,JNJYSWSH00000095;3499.00;<p>AW16</p>;;<p>As per tag</p>;;;;;zerotype;;Winter;;No
2050932;1601MSMKNIT09-Blue-2050932;SWEAT SHIRT MEN;Draft;Sweatshirts;Jn Joy;Adults-Men;Men;Blue;;;Fashion;;2016;S,JNJYSWSH00000086,M,JNJYSWSH00000087,L,JNJYSWSH00000088,XL,JNJYSWSH00000089,XXL,JNJYSWSH00000090;3499.00;<p>SS16</p>;;<p>As per tag</p>;;;;;zerotype;;Summer;;No
2050931;1701MSMPANT01-Blue-2050931;MEN JOGGER;Draft;Trousers;Jn Joy;Adults-Men;Men;Blue;;;Fashion;;2017;30,JNJYTRSR00000001,32,JNJYTRSR00000002,34,JNJYTRSR00000003,38,JNJYTRSR00000004;2999.00;<p>SS17</p>;;<p>As per tag</p>;;;;;zerotype;;Summer;;No
2050930;1701MSMSHIRT09-Blue-2050930;SHIRT MENS;Draft;Shirts;Jn Joy;Adults-Men;Men;Blue;;;Fashion;;2017;S,JNJYSHRT00000076,M,JNJYSHRT00000077,L,JNJYSHRT00000078,XL,JNJYSHRT00000079,XXL,JNJYSHRT00000080;3499.00;;;<p>As per tag</p>;;;;;zerotype;;Summer;;No
2050929;1701MSMSHIRT06-Blue-2050929;SHIRT MENS;Draft;Shirts;Jn Joy;Adults-Men;Men;Blue;;;Fashion;;2017;S,JNJYSHRT00000071,M,JNJYSHRT00000072,L,JNJYSHRT00000073,XL,JNJYSHRT00000074,XXL,JNJYSHRT00000075;2999.00;;;<p>As per tag</p>;;;;;zerotype;;Summer;;No
2050928;1701MSMSHIRT02-White-2050928;SHIRT MENS;Draft;Shirts;Jn Joy;Adults-Men;Men;White;;;Fashion;;2017;S,JNJYSHRT00000066,M,JNJYSHRT00000067,L,JNJYSHRT00000068,XL,JNJYSHRT00000069,XXL,JNJYSHRT00000070;2999.00;;;<p>As per tag</p>;;;;;zerotype;;Summer;;No
2050926;1701MSMSHIRT01-Off White-2050926;SHIRT MENS;Draft;Shirts;Jn Joy;Adults-Men;Men;Off White;;;Fashion;;2017;S,JNJYSHRT00000061,M,JNJYSHRT00000062,L,JNJYSHRT00000063,XL,JNJYSHRT00000064,XXL,JNJYSHRT00000065;2999.00;;;<p>As per tag</p>;;;;;zerotype;;Summer;;No
2050925;1701MSHIRT08-Green-2050925;SHIRT MENS;Draft;Shirts;Jn Joy;Adults-Men;Men;Green;;;Fashion;;2017;S,JNJYSHRT00000056,M,JNJYSHRT00000057,L,JNJYSHRT00000058,XL,JNJYSHRT00000059,XXL,JNJYSHRT00000060;3299.00;;;<p>As per tag</p>;;;;;zerotype;;Summer;;No
2050924;1701MSHIRT04-Blue-2050924;SHIRT MENS;Draft;Shirts;Jn Joy;Adults-Men;Men;Blue;;;Fashion;;2017;S,JNJYSHRT00000051,M,JNJYSHRT00000052,L,JNJYSHRT00000053,XL,JNJYSHRT00000054,XXL,JNJYSHRT00000055;2499.00;;;<p>As per tag</p>;;;;;zerotype;;Summer;;No
2050908;1701MSHIRT01-Blue-2050908;SHIRT MENS;Draft;Shirts;Jn Joy;Adults-Men;Men;Blue;;;Fashion;;2017;S,JNJYSHRT00000046,M,JNJYSHRT00000047,L,JNJYSHRT00000048,XL,JNJYSHRT00000049,XXL,JNJYSHRT00000050;2499.00;;;<p>As per tag</p>;;;;;zerotype;;Summer;;No
2050894;1602MSMSHIRT03-Blue-2050894;SHIRT MENS;Draft;Shirts;Jn Joy;Adults-Men;Men;Blue;;;Fashion;;2016;S,JNJYSHRT00000041,M,JNJYSHRT00000042,L,JNJYSHRT00000043,XL,JNJYSHRT00000044,XXL,JNJYSHRT00000045;3499.00;;;<p>As per tag</p>;;;;;zerotype;;Winter;;No
2050893;1602MSMSHIRT01-Grey-2050893;SHIRT MENS;Draft;Shirts;Jn Joy;Adults-Men;Men;Grey;;;Fashion;;2016;S,JNJYSHRT00000036,M,JNJYSHRT00000037,L,JNJYSHRT00000038,XL,JNJYSHRT00000039,XXL,JNJYSHRT00000040;3999.00;;;<p>As per tag</p>;;;;;zerotype;;Winter;;No
2050891;1602MSHIRT02-Navy Blue-2050891;SHIRT MENS;Draft;Shirts;Jn Joy;Adults-Men;Men;Navy Blue;;;Fashion;;2016;S,JNJYSHRT00000031,M,JNJYSHRT00000032,L,JNJYSHRT00000033,XL,JNJYSHRT00000034,XXL,JNJYSHRT00000035;3499.00;;;<p>As per tag</p>;;;;;zerotype;;Winter;;No
2050890;1602MSHIRT01-Navy Blue-2050890;SHIRT MENS;Draft;Shirts;Jn Joy;Adults-Men;Men;Navy Blue;;;Fashion;;2016;S,JNJYSHRT00000026,M,JNJYSHRT00000027,L,JNJYSHRT00000028,XL,JNJYSHRT00000029,XXL,JNJYSHRT00000030;3499.00;;;<p>As per tag</p>;;;;;zerotype;;Winter;;No
2050889;1601MSMSHRT06-Blue-2050889;SHIRT MENS;Draft;Shirts;Jn Joy;Adults-Men;Men;Blue;;;Fashion;;2016;S,JNJYSHRT00000021,M,JNJYSHRT00000022,L,JNJYSHRT00000023,XL,JNJYSHRT00000024,XXL,JNJYSHRT00000025;3999.00;;;<p>As per tag</p>;;;;;zerotype;;Summer;;No
2050888;1601MSMSHRT05-Pink-2050888;SHIRT MENS;Draft;Shirts;Jn Joy;Adults-Men;Men;Pink;;;Fashion;;2016;S,JNJYSHRT00000016,M,JNJYSHRT00000017,L,JNJYSHRT00000018,XL,JNJYSHRT00000019,XXL,JNJYSHRT00000020;3499.00;;;<p>As per tag</p>;;;;;zerotype;;Summer;;No
2050887;1601MSMSHRT04-Grey-2050887;SHIRT MENS;Draft;Shirts;Jn Joy;Adults-Men;Men;Grey;;;Fashion;;2016;S,JNJYSHRT00000011,M,JNJYSHRT00000012,L,JNJYSHRT00000013,XL,JNJYSHRT00000014,XXL,JNJYSHRT00000015;3499.00;;;<p>As per tag</p>;;;;;zerotype;;Summer;;No
2050886;1601MSHRT03-Grey-2050886;SHIRT MENS;Draft;Shirts;Jn Joy;Adults-Men;Men;Grey;;;Fashion;;2016;S,JNJYSHRT00000006,M,JNJYSHRT00000007,L,JNJYSHRT00000008,XL,JNJYSHRT00000009,XXL,JNJYSHRT00000010;3499.00;;;<p>As per tag</p>;;;;;zerotype;;Summer;;No
2050883;1601MSHRT02-Blue-2050883;SHIRT MENS;Draft;Shirts;Jn Joy;Adults-Men;Men;Blue;;;Fashion;;2016;S,JNJYSHRT00000001,M,JNJYSHRT00000002,L,JNJYSHRT00000003,XL,JNJYSHRT00000004,XXL,JNJYSHRT00000005;3499.00;;;<p>As per tag</p>;;;;;zerotype;;Summer;;No
2050881;1701MLEBU06-Grey-2050881;DENIM MEN;Draft;Jeans;Jn Joy;Adults-Men;Men;Grey;;;Fashion;;2016;28/32,JNJYJENS00000016,30/32,JNJYJENS00000017,32/32,JNJYJENS00000018,34/32,JNJYJENS00000019,36/34,JNJYJENS00000020;5499.00;<p>AW16</p>;;<p>As per tag</p>;;;;;zerotype;;Winter;;No
2050879;1701MLEBU05-Blue-2050879;DENIM MEN;Draft;Jeans;Jn Joy;Adults-Men;Men;Blue;;;Fashion;;2016;28/32,JNJYJENS00000011,30/32,JNJYJENS00000012,32/32,JNJYJENS00000013,34/32,JNJYJENS00000014,36/34,JNJYJENS00000015;5499.00;<p>AW16</p>;;<p>As per tag</p>;;;;;zerotype;;Winter;;No
2050872;1602MLEBU02-Blue-2050872;DENIM MEN;Draft;Jeans;Jn Joy;Adults-Men;Men;Blue;;;Fashion;;2016;28,JNJYJENS00000006,30,JNJYJENS00000007,32,JNJYJENS00000008,34,JNJYJENS00000009,36,JNJYJENS00000010;4999.00;<p>AW16</p>;;<p>As per tag</p>;;;;;zerotype;;Winter;;No
2050870;1602MLEBU01-Blue-2050870;DENIM MEN;Draft;Jeans;Jn Joy;Adults-Men;Men;Blue;;;Fashion;;2016;28,JNJYJENS00000001,30,JNJYJENS00000002,32,JNJYJENS00000003,34,JNJYJENS00000004,36,JNJYJENS00000005;4999.00;<p>AW16</p>;;<p>As per tag</p>;;;;;zerotype;;Winter;;No
2050868;1602MJP02-Blue-2050868;JUMPER MEN;Draft;Sweaters;Jn Joy;Adults-Men;Men;Blue;;;Fashion;;2016;S,JNJYSWTR00000339,M,JNJYSWTR00000340,L,JNJYSWTR00000341,XL,JNJYSWTR00000342,XXL,JNJYSWTR00000343;4999.00;<p>AW16</p>;;<p>As per tag</p>;;;;;zerotype;;Winter;;No
2050867;1602MJP01-Grey-2050867;JUMPER MEN;Draft;Sweaters;Jn Joy;Adults-Men;Men;Grey;;;Fashion;;2016;S,JNJYSWTR00000334,M,JNJYSWTR00000335,L,JNJYSWTR00000336,XL,JNJYSWTR00000337,XXL,JNJYSWTR00000338;4999.00;<p>AW16</p>;;<p>As per tag</p>;;;;;zerotype;;Winter;;No
2030926;1701MSMSHORT02-Olive-2030926;MEN SHORT;Inactive - Marketplace - Reject;Shorts;Jn Joy;Adults-Men;Men;Olive;;;Fashion;Casual;2017;28,JNJYSHOR00000027,30,JNJYSHOR00000028,32,JNJYSHOR00000029,34,JNJYSHOR00000030,38,JNJYSHOR00000031;2499.00;Olive Green solid mid-rise regular shorts, has no pocket pockets, a button closure;When you need to upgrade your summer wardrobe, opt for these casual olive solid shorts.  This olive pair can be worn with a classic T-shirt and canvas shoes for a casual night out on the town.;Cotton <br /> Hand-wash;Regular Fit <br /> The model (height 6') is wearing a size 32;;Jn Joy Men Olive Green Solid Regular Fit Regular Shorts;Jn Joy,JIT;zerotype;;Summer;color mismatch reject;No
2030924;1701MSMSHORT01-Grey-2030924;MEN SHORT;Active;Shorts;Jn Joy;Adults-Men;Men;Grey;;;Fashion;Casual;2017;28,JNJYSHOR00000022,30,JNJYSHOR00000023,32,JNJYSHOR00000024,34,JNJYSHOR00000025,38,JNJYSHOR00000026;2499.00;Grey <a href='/solid?src=pd' class='seolink'>solid</a> mid-rise <a href='/regular-shorts?src=pd' class='seolink'>regular shorts</a>, has 2 pockets, a button closure;You'll love the comfort and style of these hip grey solid shorts.  This grey pair can be worn with a classic T-shirt and canvas shoes for a casual night out on the town.;Cotton <br /> Hand-wash;Regular Fit <br /> The model (height 6') is wearing a size 32;;Jn Joy Men Grey Solid Regular Fit Regular Shorts;Jn Joy,JIT;zerotype;;Summer;;No
2030923;1701MBEACH06-Blue-2030923;MEN SHORT;Active;Shorts;Jn Joy;Adults-Men;Men;Blue;;;Fashion;Casual;2017;S,JNJYSHOR00000017,M,JNJYSHOR00000018,L,JNJYSHOR00000019,XL,JNJYSHOR00000020,XXL,JNJYSHOR00000021;2999.00;Blue printed mid-rise regular shorts, has 3 pockets, an elasticated waistband with a drawstring fastening;You'll love the comfort and style of these trendy blue printed shorts.  Match this blue pair with a handsome shirt and easy loafers for your next date night.;Polyester <br /> Hand-wash;Regular Fit <br /> The model (height 6') is wearing a size 32;;Jn Joy Men Blue Printed Regular Fit Regular Shorts;Jn Joy,JIT;zerotype;;Summer;;No
