Style ID;Vendor Article Number;Vendor Article Name;Active Status;Article type;Brand;Age Group;Gender;Base Colour;Colour1;Colour2;Fashion Type;Usage;Year;Size - SKU code pair;MRP;Style Description;Style Note;Materials and Care Description;Size and Fit Description;Size Chart Path;Product Display Name;Tags;Product Type;Classification Brand;Season;Comments;Upload Images
2196980;DWB-15B-Indigo-2196980;Women Denim Bottom;Draft;Jeans;HERE&NOW;Adults-Women;Women;;;;Fashion;;2017;26,HENWJENS00003246,28,HENWJENS00003247,30,HENWJENS00003248,32,HENWJENS00003249,34,HENWJENS00003250;1799.00;;;<p>79% Cotton + 19.25% Polyester + 1.75% Spandex</p>;;;;;zerotype;;Fall;;No
2191024;39638-0008-Black-2191024;Knits (1000 & above);Draft;Tshirts;Levis;Adults-Women;Women;Black;;;Fashion;;2017;L,LEVITSHT00006293,M,LEVITSHT00006294,S,LEVITSHT00006295,XS,LEVITSHT00006296;1699.00;;;<p>Wash inside/out & seperately</p>;;;;;zerotype;;Winter;;No
2190993;28810-0012-Black-2190993;Skinny (<Rs 3700);Draft;Jeans;Levis;Adults-Women;Women;Black;;;Fashion;;2017;26/30,LEVIJENS00010355,27/30,LEVIJENS00010356,28/30,LEVIJENS00010357,30/30,LEVIJENS00010358,32/30,LEVIJENS00010359,34/30,LEVIJENS00010360;3499.00;;;<p>Wash inside/out & seperately</p>;;;;;zerotype;;Winter;;No
2190992;21831-0046-Blue-2190992;Shaping (<Rs 3700);Draft;Jeans;Levis;Adults-Women;Women;Blue;;;Fashion;;2017;25/30,LEVIJENS00010349,26/30,LEVIJENS00010350,27/30,LEVIJENS00010351,28/30,LEVIJENS00010352,30/30,LEVIJENS00010353,32/30,LEVIJENS00010354;3499.00;;;<p>Wash inside/out & seperately</p>;;;;;zerotype;;Winter;;No
2190991;21831-0043-Blue-2190991;Shaping (<Rs 3700);Draft;Jeans;Levis;Adults-Women;Women;Blue;;;Fashion;;2017;25/30,LEVIJENS00010342,26/30,LEVIJENS00010343,27/30,LEVIJENS00010344,28/30,LEVIJENS00010345,30/30,LEVIJENS00010346,32/30,LEVIJENS00010347,34/30,LEVIJENS00010348;3499.00;;;<p>Wash inside/out & seperately</p>;;;;;zerotype;;Winter;;No
2190990;21357-0018-Blue-2190990;Super Skinny (<Rs 3700);Draft;Jeans;Levis;Adults-Women;Women;Blue;;;Fashion;;2017;25/27,LEVIJENS00010335,26/27,LEVIJENS00010336,27/27,LEVIJENS00010337,28/27,LEVIJENS00010338,30/27,LEVIJENS00010339,32/27,LEVIJENS00010340,34/27,LEVIJENS00010341;3099.00;;;<p>Wash inside/out & seperately</p>;;;;;zerotype;;Winter;;No
2190989;21322-0024-Blue-2190989;Skinny (<Rs 3700);Draft;Jeans;Levis;Adults-Women;Women;Blue;;;Fashion;;2017;25/30,LEVIJENS00010328,26/30,LEVIJENS00010329,27/30,LEVIJENS00010330,28/30,LEVIJENS00010331,30/30,LEVIJENS00010332,32/30,LEVIJENS00010333,34/30,LEVIJENS00010334;3499.00;;;<p>Wash inside/out & seperately</p>;;;;;zerotype;;Winter;;No
2190988;21306-0169-Blue-2190988;Fashion Fits;Draft;Jeans;Levis;Adults-Women;Women;Blue;;;Fashion;;2017;25/30,LEVIJENS00010322,26/30,LEVIJENS00010323,27/30,LEVIJENS00010324,28/30,LEVIJENS00010325,30/30,LEVIJENS00010326,32/30,LEVIJENS00010327;3499.00;;;<p>Wash inside/out & seperately</p>;;;;;zerotype;;Winter;;No
2190976;36409-0000-Black-2190976;W-Sweaters;Draft;Sweaters;Levis;Adults-Women;Women;Black;;;Fashion;;2017;L,LEVISWTR00001043,M,LEVISWTR00001044,S,LEVISWTR00001045,XL,LEVISWTR00001046,XS,LEVISWTR00001047;3299.00;;;<p>Wash inside/out & seperately</p>;;;;;zerotype;;Winter;;No
2190975;36408-0008-Red-2190975;W-Sweaters;Draft;Sweaters;Levis;Adults-Women;Women;Red;;;Fashion;;2017;L,LEVISWTR00001038,M,LEVISWTR00001039,S,LEVISWTR00001040,XL,LEVISWTR00001041,XS,LEVISWTR00001042;3299.00;;;<p>Wash inside/out & seperately</p>;;;;;zerotype;;Winter;;No
2190974;36408-0003-Grey-2190974;W-Sweaters;Draft;Sweaters;Levis;Adults-Women;Women;Grey;;;Fashion;;2017;L,LEVISWTR00001033,M,LEVISWTR00001034,S,LEVISWTR00001035,XL,LEVISWTR00001036,XS,LEVISWTR00001037;3299.00;;;<p>Wash inside/out & seperately</p>;;;;;zerotype;;Winter;;No
2190973;28223-0006-Blue-2190973;W-Sweaters;Draft;Sweaters;Levis;Adults-Women;Women;Blue;;;Fashion;;2017;L,LEVISWTR00001028,M,LEVISWTR00001029,S,LEVISWTR00001030,XL,LEVISWTR00001031,XS,LEVISWTR00001032;3299.00;;;<p>Wash inside/out & seperately</p>;;;;;zerotype;;Winter;;No
2175231;STIA TN 30021-Beige-2175231;Soch Cotton Printed Straight Beige Tunic;Draft;Tunics;Soch;Adults-Women;Women;Beige;;;Fashion;;2017;3XL,SOCHTNIC00000937,2XL,SOCHTNIC00000938,L,SOCHTNIC00000939,M,SOCHTNIC00000940,S,SOCHTNIC00000941,XS,SOCHTNIC00000942,XL,SOCHTNIC00000943;898.00;;;<p>Dry Clean Only</p>;;;;;zerotype;;Summer;;No
2175230;STIA TN 30016-Blue-2175230;Soch Cotton Printed Straight Blue Tunic;Draft;Tunics;Soch;Adults-Women;Women;Blue;;;Fashion;;2017;M,SOCHTNIC00000930,S,SOCHTNIC00000931,L,SOCHTNIC00000932,XS,SOCHTNIC00000933,2XL,SOCHTNIC00000934,XL,SOCHTNIC00000935,3XL,SOCHTNIC00000936;898.00;;;<p>Dry Clean Only</p>;;;;;zerotype;;Summer;;No
2175229;STIA TN 30015-Maroon-2175229;Soch Cotton Self Design Straight Maroon Tunic;Draft;Tunics;Soch;Adults-Women;Women;Maroon;;;Fashion;;2017;XL,SOCHTNIC00000923,L,SOCHTNIC00000924,S,SOCHTNIC00000925,M,SOCHTNIC00000926,3XL,SOCHTNIC00000927,2XL,SOCHTNIC00000928,XS,SOCHTNIC00000929;898.00;;;<p>Dry Clean Only</p>;;;;;zerotype;;Summer;;No
2175228;STIA TN 30013-White-2175228;Soch Rayon Printed Hi - Low White Tunic;Draft;Tunics;Soch;Adults-Women;Women;White;;;Fashion;;2017;XL,SOCHTNIC00000916,3XL,SOCHTNIC00000917,XS,SOCHTNIC00000918,L,SOCHTNIC00000919,2XL,SOCHTNIC00000920,M,SOCHTNIC00000921,S,SOCHTNIC00000922;898.00;;;<p>Dry Clean Only</p>;;;;;zerotype;;Summer;;No
2175227;STIA TN 30012-Brown-2175227;Soch Cotton Printed Straight Brown Tunic;Draft;Tunics;Soch;Adults-Women;Women;Brown;;;Fashion;;2017;2XL,SOCHTNIC00000909,XS,SOCHTNIC00000910,L,SOCHTNIC00000911,S,SOCHTNIC00000912,3XL,SOCHTNIC00000913,XL,SOCHTNIC00000914,M,SOCHTNIC00000915;898.00;;;<p>Dry Clean Only</p>;;;;;zerotype;;Summer;;No
2175226;STIA TN 30010-White-2175226;Soch Rayon Printed Straight White Tunic;Draft;Tunics;Soch;Adults-Women;Women;White;;;Fashion;;2017;2XL,SOCHTNIC00000902,3XL,SOCHTNIC00000903,S,SOCHTNIC00000904,M,SOCHTNIC00000905,XS,SOCHTNIC00000906,L,SOCHTNIC00000907,XL,SOCHTNIC00000908;898.00;;;<p>Dry Clean Only</p>;;;;;zerotype;;Summer;;No
2175225;STIA TN 30009-Yellow-2175225;Soch Cotton Printed Straight Yellow Tunic;Draft;Tunics;Soch;Adults-Women;Women;Yellow;;;Fashion;;2017;XL,SOCHTNIC00000895,L,SOCHTNIC00000896,2XL,SOCHTNIC00000897,XS,SOCHTNIC00000898,3XL,SOCHTNIC00000899,M,SOCHTNIC00000900,S,SOCHTNIC00000901;898.00;;;<p>Dry Clean Only</p>;;;;;zerotype;;Summer;;No
2175223;STIA TN 30008-Black-2175223;Soch Cotton Printed Straight Black Tunic;Draft;Tunics;Soch;Adults-Women;Women;Black;;;Fashion;;2017;XL,SOCHTNIC00000888,XS,SOCHTNIC00000889,S,SOCHTNIC00000890,3XL,SOCHTNIC00000891,L,SOCHTNIC00000892,2XL,SOCHTNIC00000893,M,SOCHTNIC00000894;898.00;;;<p>Dry Clean Only</p>;;;;;zerotype;;Summer;;No
2175222;STIA TN 30006-White-2175222;Soch Rayon Printed Straight White Tunic;Draft;Tunics;Soch;Adults-Women;Women;White;;;Fashion;;2017;2XL,SOCHTNIC00000881,3XL,SOCHTNIC00000882,M,SOCHTNIC00000883,L,SOCHTNIC00000884,S,SOCHTNIC00000885,XL,SOCHTNIC00000886,XS,SOCHTNIC00000887;898.00;;;<p>Dry Clean Only</p>;;;;;zerotype;;Summer;;No
2174846;SOCH NC KT 3614-NAVY BLUE-LIGHT PINK-Navy Blue-2174846;SOCH NC KT 3614-NAVY BLUE-LIGHT PINK;Draft;Kurtis;Soch;Adults-Women;Women;Navy Blue;;;Fashion;;2017;M,SOCHKRTI00009749,XL,SOCHKRTI00009750,L,SOCHKRTI00009751,S,SOCHKRTI00009752,2XL,SOCHKRTI00009753;998.00;;;<p>Dry Clean Only</p>;;;;;zerotype;;Summer;;No
2174845;SOCH NC KT 3614-BROWN-ORANGE-Brown-2174845;SOCH NC KT 3614-BROWN-ORANGE;Draft;Kurtis;Soch;Adults-Women;Women;Brown;;;Fashion;;2017;L,SOCHKRTI00009744,S,SOCHKRTI00009745,M,SOCHKRTI00009746,XL,SOCHKRTI00009747,2XL,SOCHKRTI00009748;998.00;;;<p>Dry Clean Only</p>;;;;;zerotype;;Summer;;No
2174843;SOCH NC KT 3614-BLACK-RED-Black-2174843;SOCH NC KT 3614-BLACK-RED;Draft;Kurtis;Soch;Adults-Women;Women;Black;;;Fashion;;2017;L,SOCHKRTI00009739,M,SOCHKRTI00009740,XL,SOCHKRTI00009741,2XL,SOCHKRTI00009742,S,SOCHKRTI00009743;998.00;;;<p>Dry Clean Only</p>;;;;;zerotype;;Summer;;No
2174842;SOCH NC KT 3613-NAVY BLUE-RED-Navy Blue-2174842;SOCH NC KT 3613-NAVY BLUE-RED;Draft;Kurtis;Soch;Adults-Women;Women;Navy Blue;;;Fashion;;2017;XL,SOCHKRTI00009734,M,SOCHKRTI00009735,2XL,SOCHKRTI00009736,L,SOCHKRTI00009737,S,SOCHKRTI00009738;998.00;;;<p>Dry Clean Only</p>;;;;;zerotype;;Summer;;No
2174841;SOCH NC KT 3613-BROWN-ORANGE-Brown-2174841;SOCH NC KT 3613-BROWN-ORANGE;Draft;Kurtis;Soch;Adults-Women;Women;Brown;;;Fashion;;2017;M,SOCHKRTI00009729,2XL,SOCHKRTI00009730,XL,SOCHKRTI00009731,L,SOCHKRTI00009732,S,SOCHKRTI00009733;998.00;;;<p>Dry Clean Only</p>;;;;;zerotype;;Summer;;No
2174839;SOCH NC KT 3613-BLACK-LIGHT PINK-Black-2174839;SOCH NC KT 3613-BLACK-LIGHT PINK;Draft;Kurtis;Soch;Adults-Women;Women;Black;;;Fashion;;2017;XL,SOCHKRTI00009724,M,SOCHKRTI00009725,2XL,SOCHKRTI00009726,S,SOCHKRTI00009727,L,SOCHKRTI00009728;998.00;;;<p>Dry Clean Only</p>;;;;;zerotype;;Summer;;No
2174838;SOCH NC KT 3612-PEACOCK GREEN-NAVY BLUE-Green-2174838;SOCH NC KT 3612-PEACOCK GREEN-NAVY BLUE;Draft;Kurtis;Soch;Adults-Women;Women;Green;;;Fashion;;2017;2XL,SOCHKRTI00009719,M,SOCHKRTI00009720,XL,SOCHKRTI00009721,S,SOCHKRTI00009722,L,SOCHKRTI00009723;998.00;;;<p>Dry Clean Only</p>;;;;;zerotype;;Summer;;No
2174837;SOCH NC KT 3612-ORANGE-NAVY BLUE-Orange-2174837;SOCH NC KT 3612-ORANGE-NAVY BLUE;Draft;Kurtis;Soch;Adults-Women;Women;Orange;;;Fashion;;2017;M,SOCHKRTI00009714,XL,SOCHKRTI00009715,2XL,SOCHKRTI00009716,L,SOCHKRTI00009717,S,SOCHKRTI00009718;998.00;;;<p>Dry Clean Only</p>;;;;;zerotype;;Summer;;No
2174836;SOCH NC KT 3612-CORAL-NAVY BLUE-Coral-2174836;SOCH NC KT 3612-CORAL-NAVY BLUE;Draft;Kurtis;Soch;Adults-Women;Women;Coral;;;Fashion;;2017;L,SOCHKRTI00009709,XL,SOCHKRTI00009710,2XL,SOCHKRTI00009711,M,SOCHKRTI00009712,S,SOCHKRTI00009713;998.00;;;<p>Dry Clean Only</p>;;;;;zerotype;;Summer;;No
2174834;SOCH NC KT 3611-CREAM-ORANGE-Cream-2174834;SOCH NC KT 3611-CREAM-ORANGE;Draft;Kurtis;Soch;Adults-Women;Women;Cream;;;Fashion;;2017;XL,SOCHKRTI00009704,S,SOCHKRTI00009705,M,SOCHKRTI00009706,L,SOCHKRTI00009707,2XL,SOCHKRTI00009708;998.00;;;<p>Dry Clean Only</p>;;;;;zerotype;;Summer;;No
2174833;SOCH NC KT 3610-CREAM-RED-Cream-2174833;SOCH NC KT 3610-CREAM-RED;Draft;Kurtis;Soch;Adults-Women;Women;Cream;;;Fashion;;2017;L,SOCHKRTI00009699,M,SOCHKRTI00009700,XL,SOCHKRTI00009701,2XL,SOCHKRTI00009702,S,SOCHKRTI00009703;998.00;;;<p>Dry Clean Only</p>;;;;;zerotype;;Summer;;No
2174831;SOCH NC KT 3610-CREAM-LIGHT PINK-Cream-2174831;SOCH NC KT 3610-CREAM-LIGHT PINK;Draft;Kurtis;Soch;Adults-Women;Women;Cream;;;Fashion;;2017;2XL,SOCHKRTI00009694,L,SOCHKRTI00009695,XL,SOCHKRTI00009696,S,SOCHKRTI00009697,M,SOCHKRTI00009698;998.00;;;<p>Dry Clean Only</p>;;;;;zerotype;;Summer;;No
2174830;SOCH NC KT 3588-NAVY BLUE-CREAM-Navy Blue-2174830;SOCH NC KT 3588-NAVY BLUE-CREAM;Draft;Kurtis;Soch;Adults-Women;Women;Navy Blue;;;Fashion;;2017;2XL,SOCHKRTI00009687,S,SOCHKRTI00009688,XL,SOCHKRTI00009689,M,SOCHKRTI00009690,3XL,SOCHKRTI00009691,XS,SOCHKRTI00009692,L,SOCHKRTI00009693;1098.00;;;<p>Dry Clean Only</p>;;;;;zerotype;;Summer;;No
2174828;SOCH NC KT 3586-NAVY BLUE-MAROON-Navy Blue-2174828;SOCH NC KT 3586-NAVY BLUE-MAROON;Draft;Kurtis;Soch;Adults-Women;Women;Navy Blue;;;Fashion;;2017;XS,SOCHKRTI00009680,L,SOCHKRTI00009681,3XL,SOCHKRTI00009682,2XL,SOCHKRTI00009683,S,SOCHKRTI00009684,M,SOCHKRTI00009685,XL,SOCHKRTI00009686;1298.00;;;<p>Dry Clean Only</p>;;;;;zerotype;;Summer;;No
2174827;SOCH NC KT 3585-MUSTARD-MAROON-Mustard-2174827;SOCH NC KT 3585-MUSTARD-MAROON;Draft;Kurtis;Soch;Adults-Women;Women;Mustard;;;Fashion;;2017;XL,SOCHKRTI00009673,2XL,SOCHKRTI00009674,XS,SOCHKRTI00009675,L,SOCHKRTI00009676,3XL,SOCHKRTI00009677,S,SOCHKRTI00009678,M,SOCHKRTI00009679;1098.00;;;<p>Dry Clean Only</p>;;;;;zerotype;;Summer;;No
2174825;SOCH NC KT 3584-BEIGE-BROWN-Beige-2174825;SOCH NC KT 3584-BEIGE-BROWN;Draft;Kurtis;Soch;Adults-Women;Women;Beige;;;Fashion;;2017;L,SOCHKRTI00009666,M,SOCHKRTI00009667,3XL,SOCHKRTI00009668,2XL,SOCHKRTI00009669,S,SOCHKRTI00009670,XS,SOCHKRTI00009671,XL,SOCHKRTI00009672;898.00;;;<p>Dry Clean Only</p>;;;;;zerotype;;Summer;;No
2174824;SOCH NC KT 3582-BLUE-CREAM-Blue-2174824;SOCH NC KT 3582-BLUE-CREAM;Draft;Kurtis;Soch;Adults-Women;Women;Blue;;;Fashion;;2017;2XL,SOCHKRTI00009659,S,SOCHKRTI00009660,3XL,SOCHKRTI00009661,XS,SOCHKRTI00009662,XL,SOCHKRTI00009663,L,SOCHKRTI00009664,M,SOCHKRTI00009665;1298.00;;;<p>Dry Clean Only</p>;;;;;zerotype;;Summer;;No
2174822;SOCH NC KT 3581-BEIGE-BLACK-Beige-2174822;SOCH NC KT 3581-BEIGE-BLACK;Draft;Kurtis;Soch;Adults-Women;Women;Beige;;;Fashion;;2017;M,SOCHKRTI00009652,XL,SOCHKRTI00009653,3XL,SOCHKRTI00009654,S,SOCHKRTI00009655,2XL,SOCHKRTI00009656,XS,SOCHKRTI00009657,L,SOCHKRTI00009658;1098.00;;;<p>Dry Clean Only</p>;;;;;zerotype;;Summer;;No
2174821;SOCH NC KT 3580-DARK GREEN-MUSTARD-Green-2174821;SOCH NC KT 3580-DARK GREEN-MUSTARD;Draft;Kurtis;Soch;Adults-Women;Women;Green;;;Fashion;;2017;S,SOCHKRTI00009645,2XL,SOCHKRTI00009646,XS,SOCHKRTI00009647,L,SOCHKRTI00009648,3XL,SOCHKRTI00009649,M,SOCHKRTI00009650,XL,SOCHKRTI00009651;1298.00;;;<p>Dry Clean Only</p>;;;;;zerotype;;Summer;;No
2174819;SOCH NC KT 3569-NAVY BLUE-DARK PINK-Navy Blue-2174819;SOCH NC KT 3569-NAVY BLUE-DARK PINK;Draft;Kurtis;Soch;Adults-Women;Women;Navy Blue;;;Fashion;;2017;M,SOCHKRTI00009638,XS,SOCHKRTI00009639,S,SOCHKRTI00009640,XL,SOCHKRTI00009641,2XL,SOCHKRTI00009642,L,SOCHKRTI00009643,3XL,SOCHKRTI00009644;1698.00;;;<p>Dry Clean Only</p>;;;;;zerotype;;Summer;;No
2174818;SOCH NC KT 3564-CORAL-BLACK-Coral-2174818;SOCH NC KT 3564-CORAL-BLACK;Draft;Kurtis;Soch;Adults-Women;Women;Coral;;;Fashion;;2017;2XL,SOCHKRTI00009631,L,SOCHKRTI00009632,3XL,SOCHKRTI00009633,S,SOCHKRTI00009634,XS,SOCHKRTI00009635,XL,SOCHKRTI00009636,M,SOCHKRTI00009637;1698.00;;;<p>Dry Clean Only</p>;;;;;zerotype;;Summer;;No
2174816;SOCH NC KT 3563-BROWN-BEIGE-Brown-2174816;SOCH NC KT 3563-BROWN-BEIGE;Draft;Kurtis;Soch;Adults-Women;Women;Brown;;;Fashion;;2017;XL,SOCHKRTI00009624,3XL,SOCHKRTI00009625,L,SOCHKRTI00009626,XS,SOCHKRTI00009627,S,SOCHKRTI00009628,M,SOCHKRTI00009629,2XL,SOCHKRTI00009630;1198.00;;;<p>Dry Clean Only</p>;;;;;zerotype;;Summer;;No
2174814;SOCH NC KT 3562-RED-MUSTARD-Red-2174814;SOCH NC KT 3562-RED-MUSTARD;Draft;Kurtis;Soch;Adults-Women;Women;Red;;;Fashion;;2017;3XL,SOCHKRTI00009617,XS,SOCHKRTI00009618,L,SOCHKRTI00009619,S,SOCHKRTI00009620,M,SOCHKRTI00009621,2XL,SOCHKRTI00009622,XL,SOCHKRTI00009623;1198.00;;;<p>Dry Clean Only</p>;;;;;zerotype;;Summer;;No
2169922;MDS-85-Indigo-2169922;Men Denim Shirts;Draft;Shirts;HERE&NOW;Adults-Men;Men;;;;Fashion;;2017;S,HENWSHRT00001536,M,HENWSHRT00001537,L,HENWSHRT00001538,XL,HENWSHRT00001539,XXL,HENWSHRT00001540;1699.00;;;<p>100% Cotton</p>;;;;;zerotype;;Fall;;No
2159548;16580-BLACK-2159548;16580 BLACK;Draft;Trousers;Deal Jeans;Adults-Women;Women;Black;;;Fashion;;2017;S,DLJNTRSR00001258,M,DLJNTRSR00001259,L,DLJNTRSR00001260,XL,DLJNTRSR00001261,XXL,DLJNTRSR00001262,3XL,DLJNTRSR00001263;2695.00;;;<p>87%cotton  11%polyester  2%spandex</p>;;;;;zerotype;;Fall;;No
2159547;16696-BLACK-2159547;16696 BLACK;Draft;Trousers;Deal Jeans;Adults-Women;Women;Black;;;Fashion;;2017;S,DLJNTRSR00001252,M,DLJNTRSR00001253,L,DLJNTRSR00001254,XL,DLJNTRSR00001255,XXL,DLJNTRSR00001256,3XL,DLJNTRSR00001257;2595.00;;;<p>63% cotton 28% polyester 7% rayon  2%spandex</p>;;;;;zerotype;;Fall;;No
2159545;16520-NAVY-2159545;16520 NAVY;Draft;Jeans;Deal Jeans;Adults-Women;Women;Navy Blue;;;Fashion;;2017;M,DLJNJENS00003979,L,DLJNJENS00003980,XL,DLJNJENS00003981,XXL,DLJNJENS00003982,3XL,DLJNJENS00003983;2595.00;;;<p>80%COTTON    17%POLYESTER   3%ELASTANE</p>;;;;;zerotype;;Fall;;No
2159543;16504-LIGHT BLUE-2159543;16504 LIGHT BLUE;Draft;Jeans;Deal Jeans;Adults-Women;Women;Blue;;;Fashion;;2017;M,DLJNJENS00003968,L,DLJNJENS00003969,XL,DLJNJENS00003970,XXL,DLJNJENS00003971,3XL,DLJNJENS00003972;2695.00;;;<p>87%cotton  11%polyester  2%spandex</p>;;;;;zerotype;;Fall;;No
2159542;16494-BLUE-2159542;16494 BLUE;Draft;Jeans;Deal Jeans;Adults-Women;Women;Blue;;;Fashion;;2017;S,DLJNJENS00003962,M,DLJNJENS00003963,L,DLJNJENS00003964,XL,DLJNJENS00003965,XXL,DLJNJENS00003966,3XL,DLJNJENS00003967;2695.00;;;<p>95%COTTON 3%POLYESTER 2%SPANDEX</p>;;;;;zerotype;;Fall;;No
2159540;16464-BLUE-2159540;16464 BLUE;Draft;Jeans;Deal Jeans;Adults-Women;Women;Blue;;;Fashion;;2017;M,DLJNJENS00003951,L,DLJNJENS00003952,XL,DLJNJENS00003953,XXL,DLJNJENS00003954,3XL,DLJNJENS00003955;2695.00;;;<p>95%COTTON 3%POLYESTER 2%SPANDEX</p>;;;;;zerotype;;Fall;;No
2159539;16441-DARK BLUE-2159539;16441 DARK BLUE;Draft;Jeans;Deal Jeans;Adults-Women;Women;Blue;;;Fashion;;2017;M,DLJNJENS00003946,L,DLJNJENS00003947,XL,DLJNJENS00003948,XXL,DLJNJENS00003949,3XL,DLJNJENS00003950;2795.00;;;<p>95%COTTON 3%POLYESTER 2%SPANDEX</p>;;;;;zerotype;;Fall;;No
2159538;16434-MID BLUE-2159538;16434 MID BLUE;Draft;Jeans;Deal Jeans;Adults-Women;Women;Blue;;;Fashion;;2017;S,DLJNJENS00003940,M,DLJNJENS00003941,L,DLJNJENS00003942,XL,DLJNJENS00003943,XXL,DLJNJENS00003944,3XL,DLJNJENS00003945;2795.00;;;<p>95%COTTON 3%POLYESTER 2%SPANDEX</p>;;;;;zerotype;;Fall;;No
2159537;16423-BLUE-2159537;16423 BLUE;Draft;Jeans;Deal Jeans;Adults-Women;Women;Blue;;;Fashion;;2017;S,DLJNJENS00003934,M,DLJNJENS00003935,L,DLJNJENS00003936,XL,DLJNJENS00003937,XXL,DLJNJENS00003938,3XL,DLJNJENS00003939;2795.00;;;<p>95%COTTON 3%POLYESTER 2%SPANDEX</p>;;;;;zerotype;;Fall;;No
2159536;16399-WHITE-2159536;16399 WHITE;Draft;Jeans;Deal Jeans;Adults-Women;Women;White;;;Fashion;;2017;S,DLJNJENS00003928,M,DLJNJENS00003929,L,DLJNJENS00003930,XL,DLJNJENS00003931,XXL,DLJNJENS00003932,3XL,DLJNJENS00003933;2295.00;;;<p>98%COTTON  2%SPANDEX</p>;;;;;zerotype;;Fall;;No
2159535;16399-BLACK-2159535;16399 BLACK;Draft;Jeans;Deal Jeans;Adults-Women;Women;Black;;;Fashion;;2017;S,DLJNJENS00003922,M,DLJNJENS00003923,L,DLJNJENS00003924,XL,DLJNJENS00003925,XXL,DLJNJENS00003926,3XL,DLJNJENS00003927;2295.00;;;<p>98%COTTON  2%SPANDEX</p>;;;;;zerotype;;Fall;;No
2159532;21426-BEIGE-2159532;21426 BEIGE;Draft;Shirts;Deal Jeans;Adults-Women;Women;Beige;;;Fashion;;2017;S,DLJNSHRT00001095,M,DLJNSHRT00001096,L,DLJNSHRT00001097,XL,DLJNSHRT00001098,XXL,DLJNSHRT00001099,3XL,DLJNSHRT00001100;1695.00;;;<p>80% rayon 20% nylon</p>;;;;;zerotype;;Fall;;No
2159531;21281-RED-2159531;21281 RED;Draft;Tops;Deal Jeans;Adults-Women;Women;Red;;;Fashion;;2017;S,DLJNTOPS00007463,M,DLJNTOPS00007464,L,DLJNTOPS00007465,XL,DLJNTOPS00007466;1995.00;;;<p>96%POLYESTER  4%SPANDEX</p>;;;;;zerotype;;Fall;;No
2159529;21268-BLACK-2159529;21268 BLACK;Draft;Tops;Deal Jeans;Adults-Women;Women;Black;;;Fashion;;2017;S,DLJNTOPS00007453,M,DLJNTOPS00007454,L,DLJNTOPS00007455,XL,DLJNTOPS00007456,XXL,DLJNTOPS00007457;1695.00;;;<p>79%ACRYLIC 21%POLYESTER</p>;;;;;zerotype;;Fall;;No
2159528;21623-GREY-2159528;21623 GREY;Draft;Tops;Deal Jeans;Adults-Women;Women;Grey;;;Fashion;;2017;S,DLJNTOPS00007447,M,DLJNTOPS00007448,L,DLJNTOPS00007449,XL,DLJNTOPS00007450,XXL,DLJNTOPS00007451,3XL,DLJNTOPS00007452;1395.00;;;<p>100% Cotton</p>;;;;;zerotype;;Fall;;No
2159527;21623-BLACK-2159527;21623 BLACK;Draft;Tops;Deal Jeans;Adults-Women;Women;Black;;;Fashion;;2017;S,DLJNTOPS00007441,M,DLJNTOPS00007442,L,DLJNTOPS00007443,XL,DLJNTOPS00007444,XXL,DLJNTOPS00007445,3XL,DLJNTOPS00007446;1395.00;;;<p>100% Cotton</p>;;;;;zerotype;;Fall;;No
2159519;21159-OLIVE-2159519;21159 OLIVE;Draft;Tops;Deal Jeans;Adults-Women;Women;Olive;;;Fashion;;2017;S,DLJNTOPS00007396,M,DLJNTOPS00007397,L,DLJNTOPS00007398,XL,DLJNTOPS00007399,XXL,DLJNTOPS00007400,3XL,DLJNTOPS00007401;1895.00;;;<p>80%ACRYLIC  20%NYLON</p>;;;;;zerotype;;Fall;;No
2159518;21159-MAROON-2159518;21159 MAROON;Draft;Tops;Deal Jeans;Adults-Women;Women;Maroon;;;Fashion;;2017;S,DLJNTOPS00007390,M,DLJNTOPS00007391,L,DLJNTOPS00007392,XL,DLJNTOPS00007393,XXL,DLJNTOPS00007394,3XL,DLJNTOPS00007395;1895.00;;;<p>80%ACRYLIC  20%NYLON</p>;;;;;zerotype;;Fall;;No
2159517;21159-GREY-2159517;21159 GREY;Draft;Tops;Deal Jeans;Adults-Women;Women;Grey;;;Fashion;;2017;S,DLJNTOPS00007384,M,DLJNTOPS00007385,L,DLJNTOPS00007386,XL,DLJNTOPS00007387,XXL,DLJNTOPS00007388,3XL,DLJNTOPS00007389;1895.00;;;<p>80%ACRYLIC  20%NYLON</p>;;;;;zerotype;;Fall;;No
2159516;21159-BROWN-2159516;21159 BROWN;Draft;Tops;Deal Jeans;Adults-Women;Women;Brown;;;Fashion;;2017;S,DLJNTOPS00007378,M,DLJNTOPS00007379,L,DLJNTOPS00007380,XL,DLJNTOPS00007381,XXL,DLJNTOPS00007382,3XL,DLJNTOPS00007383;1895.00;;;<p>80%ACRYLIC  20%NYLON</p>;;;;;zerotype;;Fall;;No
2159515;21159-BLACK-2159515;21159 BLACK;Draft;Tops;Deal Jeans;Adults-Women;Women;Black;;;Fashion;;2017;S,DLJNTOPS00007372,M,DLJNTOPS00007373,L,DLJNTOPS00007374,XL,DLJNTOPS00007375,XXL,DLJNTOPS00007376,3XL,DLJNTOPS00007377;1895.00;;;<p>80%ACRYLIC  20%NYLON</p>;;;;;zerotype;;Fall;;No
2159508;21230-BLACK-2159508;21230 BLACK;Draft;Tops;Deal Jeans;Adults-Women;Women;Black;;;Fashion;;2017;S,DLJNTOPS00007334,M,DLJNTOPS00007335,L,DLJNTOPS00007336,XL,DLJNTOPS00007337,XXL,DLJNTOPS00007338,3XL,DLJNTOPS00007339;2095.00;;;<p>100% Polyester</p>;;;;;zerotype;;Fall;;No
2159507;21191-WINE-2159507;21191 WINE;Draft;Tops;Deal Jeans;Adults-Women;Women;Burgundy;;;Fashion;;2017;S,DLJNTOPS00007328,M,DLJNTOPS00007329,L,DLJNTOPS00007330,XL,DLJNTOPS00007331,XXL,DLJNTOPS00007332,3XL,DLJNTOPS00007333;1795.00;;;<p>95% Polyster 5% Spendex</p>;;;;;zerotype;;Fall;;No
2159500;16569-BLUE-2159500;16569 BLUE;Draft;Dungarees;Deal Jeans;Adults-Women;Women;Blue;;;Fashion;;2017;S,DLJNDNGR00000216,M,DLJNDNGR00000217,L,DLJNDNGR00000218,XL,DLJNDNGR00000219,XXL,DLJNDNGR00000220,3XL,DLJNDNGR00000221;2995.00;;;<p>56% Cotton 36% Polyester 6% T400 Fiber 2% Spandex</p>;;;;;zerotype;;Fall;;No
2155927;AHBG517137-Beige-2155927;HAND BAG;Draft;Handbags;Allen Solly;Adults-Women;Women;;;;Fashion;;2017;Onesize,ALSLHDBG00000205;3399.00;;;;;;;;zerotype;;Fall;;No
2155917;AHBG517042-Beige-2155917;HAND BAG;Draft;Handbags;Allen Solly;Adults-Women;Women;;;;Fashion;;2017;Onesize,ALSLHDBG00000196;2399.00;;;;;;;;zerotype;;Fall;;No
2148857;AME1641-103-MULTI-2148857;AME1641-103MULTI;Draft;Sweaters;American Eye;Kids-Boys;Boys;Multi;;;Fashion;;2017;24,AMEYSWTR00004921,26,AMEYSWTR00004922,28,AMEYSWTR00004923,30,AMEYSWTR00004924,32,AMEYSWTR00004925,34,AMEYSWTR00004926;1645.00;;;<p>Machine Washable Acrylic Sweater</p>;;;;kidsisaw17;zerotype;;Fall;kidsisaw17;No
2148855;AME1541-110-OFF WHITE-2148855;AME1541-110OFF WHITE;Draft;Sweaters;American Eye;Kids-Boys;Boys;Multi;;;Fashion;;2017;24,AMEYSWTR00004909,26,AMEYSWTR00004910,28,AMEYSWTR00004911,30,AMEYSWTR00004912,32,AMEYSWTR00004913,34,AMEYSWTR00004914;1645.00;;;<p>Machine Washable Acrylic Sweater</p>;;;;kidsisaw17;zerotype;;Fall;kidsisaw17;No
2148854;AME1541-102-ORANGE-2148854;AME1541-102ORANGE;Draft;Sweaters;American Eye;Kids-Boys;Boys;Multi;;;Fashion;;2017;24,AMEYSWTR00004903,26,AMEYSWTR00004904,28,AMEYSWTR00004905,30,AMEYSWTR00004906,32,AMEYSWTR00004907,34,AMEYSWTR00004908;1295.00;;;<p>Machine Washable Acrylic Sweater</p>;;;;kidsisaw17;zerotype;;Fall;kidsisaw17;No
2148853;AME1541-101-D RED-2148853;AME1541-101D RED;Draft;Sweaters;American Eye;Kids-Boys;Boys;Multi;;;Fashion;;2017;24,AMEYSWTR00004897,26,AMEYSWTR00004898,28,AMEYSWTR00004899,30,AMEYSWTR00004900,32,AMEYSWTR00004901,34,AMEYSWTR00004902;1645.00;;;<p>Machine Washable Acrylic Sweater</p>;;;;kidsisaw17;zerotype;;Fall;kidsisaw17;No
2148845;AME1341-327-COBALT-2148845;AME1341-327COBALT;Draft;Sweaters;American Eye;Kids-Boys;Boys;Multi;;;Fashion;;2017;24,AMEYSWTR00004855,26,AMEYSWTR00004856,28,AMEYSWTR00004857,30,AMEYSWTR00004858,32,AMEYSWTR00004859,34,AMEYSWTR00004860;1645.00;;;<p>Machine Washable Acrylic Sweater</p>;;;;kidsisaw17;zerotype;;Fall;kidsisaw17;No
2148836;AME1341-117-MAROON-2148836;AME1341-117MAROON;Draft;Sweaters;American Eye;Kids-Boys;Boys;Multi;;;Fashion;;2017;24,AMEYSWTR00004801,26,AMEYSWTR00004802,28,AMEYSWTR00004803,30,AMEYSWTR00004804,32,AMEYSWTR00004805,34,AMEYSWTR00004806;1645.00;;;<p>Machine Washable Acrylic Sweater</p>;;;;kidsisaw17;zerotype;;Fall;kidsisaw17;No
2148807;1641-114-RED-2148807;1641-114RED;Draft;Sweaters;American Eye;Kids-Boys;Boys;Multi;;;Fashion;;2017;24,AMEYSWTR00004447,26,AMEYSWTR00004448,28,AMEYSWTR00004449,30,AMEYSWTR00004450,32,AMEYSWTR00004451,34,AMEYSWTR00004452;1495.00;;;<p>Machine Washable Acrylic Sweater</p>;;;;kidsisaw17;zerotype;;Fall;kidsisaw17;No
2148806;1641-114-COBALT-2148806;1641-114COBALT;Draft;Sweaters;American Eye;Kids-Boys;Boys;Multi;;;Fashion;;2017;24,AMEYSWTR00004441,26,AMEYSWTR00004442,28,AMEYSWTR00004443,30,AMEYSWTR00004444,32,AMEYSWTR00004445,34,AMEYSWTR00004446;1495.00;;;<p>Machine Washable Acrylic Sweater</p>;;;;kidsisaw17;zerotype;;Fall;kidsisaw17;No
2148805;1641-113-LT GREY M-2148805;1641-113LT GREY M;Draft;Sweaters;American Eye;Kids-Boys;Boys;Multi;;;Fashion;;2017;24,AMEYSWTR00004435,26,AMEYSWTR00004436,28,AMEYSWTR00004437,30,AMEYSWTR00004438,32,AMEYSWTR00004439,34,AMEYSWTR00004440;1495.00;;;<p>Machine Washable Acrylic Sweater</p>;;;;kidsisaw17;zerotype;;Fall;kidsisaw17;No
2148801;1641-111-RED-2148801;1641-111RED;Draft;Sweaters;American Eye;Kids-Boys;Boys;Multi;;;Fashion;;2017;24,AMEYSWTR00004411,26,AMEYSWTR00004412,28,AMEYSWTR00004413,30,AMEYSWTR00004414,32,AMEYSWTR00004415,34,AMEYSWTR00004416;1495.00;;;<p>Machine Washable Acrylic Sweater</p>;;;;kidsisaw17;zerotype;;Fall;kidsisaw17;No
2148797;1641-106-OFF WHITE-2148797;1641-106OFF WHITE;Draft;Sweaters;American Eye;Kids-Boys;Boys;Multi;;;Fashion;;2017;24,AMEYSWTR00004351,26,AMEYSWTR00004352,28,AMEYSWTR00004353,30,AMEYSWTR00004354,32,AMEYSWTR00004355,34,AMEYSWTR00004356;1495.00;;;<p>Machine Washable Acrylic Sweater</p>;;;;kidsisaw17;zerotype;;Fall;kidsisaw17;No
2148794;1641-105-BLACK-2148794;1641-105BLACK;Draft;Sweaters;American Eye;Kids-Boys;Boys;Multi;;;Fashion;;2017;24,AMEYSWTR00004333,26,AMEYSWTR00004334,28,AMEYSWTR00004335,30,AMEYSWTR00004336,32,AMEYSWTR00004337,34,AMEYSWTR00004338;1495.00;;;<p>Machine Washable Acrylic Sweater</p>;;;;kidsisaw17;zerotype;;Fall;kidsisaw17;No
2148793;1641-104-RED-2148793;1641-104RED;Draft;Sweaters;American Eye;Kids-Boys;Boys;Multi;;;Fashion;;2017;24,AMEYSWTR00004327,26,AMEYSWTR00004328,28,AMEYSWTR00004329,30,AMEYSWTR00004330,32,AMEYSWTR00004331,34,AMEYSWTR00004332;1495.00;;;<p>Machine Washable Acrylic Sweater</p>;;;;kidsisaw17;zerotype;;Fall;kidsisaw17;No
2148789;1641-101-RED-2148789;1641-101RED;Draft;Sweaters;American Eye;Kids-Boys;Boys;Multi;;;Fashion;;2017;24,AMEYSWTR00004303,26,AMEYSWTR00004304,28,AMEYSWTR00004305,30,AMEYSWTR00004306,32,AMEYSWTR00004307,34,AMEYSWTR00004308;1495.00;;;<p>Machine Washable Acrylic Sweater</p>;;;;kidsisaw17;zerotype;;Fall;kidsisaw17;No
2148788;1641-101-INDIGO-2148788;1641-101INDIGO;Draft;Sweaters;American Eye;Kids-Boys;Boys;Multi;;;Fashion;;2017;24,AMEYSWTR00004297,26,AMEYSWTR00004298,28,AMEYSWTR00004299,30,AMEYSWTR00004300,32,AMEYSWTR00004301,34,AMEYSWTR00004302;1495.00;;;<p>Machine Washable Acrylic Sweater</p>;;;;kidsisaw17;zerotype;;Fall;kidsisaw17;No
2148785;1541-152-ANTHRA-2148785;1541-152ANTHRA;Draft;Sweaters;American Eye;Kids-Boys;Boys;Multi;;;Fashion;;2017;28,AMEYSWTR00004191,30,AMEYSWTR00004192,32,AMEYSWTR00004193,34,AMEYSWTR00004194,24,AMEYSWTR00004927,26,AMEYSWTR00004928;1495.00;;;<p>Machine Washable Acrylic Sweater</p>;;;;kidsisaw17;zerotype;;Fall;kidsisaw17;No
2133213;HRX-DMJ-84-Indigo-2133213;Men Denim Bottom;Draft;Jeans;HRX by Hrithik Roshan;Adults-Men;Men;;;;Fashion;;2017;28,HBHRJENS00003166,30,HBHRJENS00003167,32,HBHRJENS00003168,34,HBHRJENS00003169,36,HBHRJENS00003170,38,HBHRJENS00003171;2199.00;;;<p>98.5% Cotton 1.5 Elastane</p>;;;;;zerotype;;Fall;;No
2126272;PASH-09-Green-2126272;Men Solid Shirts;Draft;Shirts;Moda Rapido;Adults-Men;Men;;;;Fashion;;2017;S,MAROSHRT00001615,M,MAROSHRT00001616,L,MAROSHRT00001617,XL,MAROSHRT00001618,XXL,MAROSHRT00001619;1299.00;;;<p>100% Cotton</p>;;;;;zerotype;;Fall;;No
2126270;PASH-08-Pink-2126270;Men Solid Shirts;Draft;Shirts;Moda Rapido;Adults-Men;Men;;;;Fashion;;2017;S,MAROSHRT00001610,M,MAROSHRT00001611,L,MAROSHRT00001612,XL,MAROSHRT00001613,XXL,MAROSHRT00001614;1299.00;;;<p>100% Cotton</p>;;;;;zerotype;;Fall;;No
2126267;PASH-07-Sky Blue-2126267;Men Solid Shirts;Draft;Shirts;Moda Rapido;Adults-Men;Men;;;;Fashion;;2017;S,MAROSHRT00001605,M,MAROSHRT00001606,L,MAROSHRT00001607,XL,MAROSHRT00001608,XXL,MAROSHRT00001609;1299.00;;;<p>100% Cotton</p>;;;;;zerotype;;Fall;;No
2126265;PASH-06-Petrol Blue-2126265;Men Solid Shirts;Draft;Shirts;Moda Rapido;Adults-Men;Men;;;;Fashion;;2017;S,MAROSHRT00001600,M,MAROSHRT00001601,L,MAROSHRT00001602,XL,MAROSHRT00001603,XXL,MAROSHRT00001604;1299.00;;;<p>100% Cotton</p>;;;;;zerotype;;Fall;;No
2126263;PASH-05-Dark Grey-2126263;Men Solid Shirts;Draft;Shirts;Moda Rapido;Adults-Men;Men;;;;Fashion;;2017;S,MAROSHRT00001595,M,MAROSHRT00001596,L,MAROSHRT00001597,XL,MAROSHRT00001598,XXL,MAROSHRT00001599;1299.00;;;<p>100% Cotton</p>;;;;;zerotype;;Fall;;No
2126259;PASH-03-Dark Grey-2126259;Men Solid Shirts;Draft;Shirts;Moda Rapido;Adults-Men;Men;;;;Fashion;;2017;S,MAROSHRT00001585,M,MAROSHRT00001586,L,MAROSHRT00001587,XL,MAROSHRT00001588,XXL,MAROSHRT00001589;1299.00;;;<p>100% Cotton</p>;;;;;zerotype;;Fall;;No
2125572;PUHN-03-Pink/White-2125572;Men Checks Shirts;Draft;Shirts;HERE&NOW;Adults-Men;Men;;;;Fashion;;2017;S,HENWSHRT00001241,M,HENWSHRT00001242,L,HENWSHRT00001243,XL,HENWSHRT00001244,XXL,HENWSHRT00001245;1699.00;;;<p>100% Cotton</p>;;;;;zerotype;;Fall;;No
2125548;1184X-Red-2125548;1184X FLUTE SLV BOLERO I2, 18;On Hold - Sample;Sweaters;Marks & Spencer;Adults-Women;Women;;;;Fashion;;2017;6,MKSPSWTR00001677,8,MKSPSWTR00001678,10,MKSPSWTR00001679,12,MKSPSWTR00001680,14,MKSPSWTR00001681,16,MKSPSWTR00001682,18,MKSPSWTR00001683;2499.00;;;<p>83% viscose 17% polyamide</p>;;;;ndd17-mum;zerotype;;Fall;Broken Size;No
2116437;CCMYSS5656-Multi-2116437;The Chennai Silks - Rayon Silk saree;QC Reject;Sarees;The Chennai Silks;Adults-Women;Women;Pink;;;Fashion;Ethnic;2017;ONESIZE,CHNSSARS00001268;1499.00;<a href='/pink?src=pd' class='seolink'>Pink</a> narayan peth <a href='/woven-design-saree?src=pd' class='seolink'>woven design saree</a>, has a woven design border<br /><a href='/blouse?src=pd' class='seolink'>Blouse</a> piece<br />The model is wearing a blouse from our stylist's collection, see the image for a mock-up of what the actual blouse would look like;Elegant and comfortable, this traditional saree from The Chennai Silks is ideal for any fashionista.  This pink design can be styled with a pair of patent pumps when you're going to a fancy dinner with your friends.;Saree fabric: silk blend<br> Blouse fabric: silk blend<br> Dry-clean;Length: 5.5 metres plus 0.8 metre blouse piece<br>Width: 1.06 metres (approx);;The Chennai Silks Classicate Pink Silk Blend Woven Design Narayan Peth Saree;The Chennai Silks;zerotype;;Winter;no image;No
2116387;CCMYSS5590-Pink-2116387;The Chennai Silks - Kanjivaram Silk saree;On Hold - Other;Sarees;The Chennai Silks;Adults-Women;Women;Pink;Yellow;;Fashion;Ethnic;2017;ONESIZE,CHNSSARS00001219;8999.00;<a href='/pink?src=pd' class='seolink'>Pink</a> kanjeevaram  <a href='/checked-saree?src=pd' class='seolink'>checked saree</a>, has a woven design border<br /><a href='/blouse?src=pd' class='seolink'>Blouse</a> Piece<br />The model is wearing a blouse from our stylist's collection, see the image for a mock-up of what the actual blouse would look like;Show off your feminine side with this elegant The Chennai Silks traditional saree.  This pink design can be styled with a pair of patent pumps when you're going to a fancy dinner with your friends.;Saree fabric: pure silk<br /> Blouse fabric: pure silk<br /> Dry-clean;Length: 5.5 metres plus 0.8 metre blouse piece<br />Width: 1.06 metres (approx);;The Chennai Silks Pink & Yellow Pure Silk Checked Kanjeevaram Saree;The Chennai Silks,ndd17-blr;zerotype;;Winter;ndd17-blr;No
2116340;CCMYSS5711-Blue-2116340;The Chennai Silks - Kanjivaram Silk saree;QC Reject;Sarees;The Chennai Silks;Adults-Women;Women;Blue;;;Fashion;Ethnic;2017;ONESIZE,CHNSSARS00001172;4699.00;<a href='/blue?src=pd' class='seolink'>Blue</a> kanjeevaram <a href='/woven-design-saree?src=pd' class='seolink'>woven design saree</a>, has a <a href='/zari?src=pd' class='seolink'>zari</a> border<br /><a href='/blouse?src=pd' class='seolink'>Blouse</a> piece<br />The model is wearing a blouse from our stylist's collection, see the image for a mock-up of what the actual blouse would look like;Update your wardrobe staples with this exquisite traditional saree from The Chennai Silks.  This blue design can be styled with a pair of patent pumps when you're going to a fancy dinner with your friends.;Saree fabric: pure silk<br> Blouse fabric: pure silk<br> Dry-clean;Length: 5.5 metres plus 0.8 metre blouse piece<br>Width: 1.06 metres (approx);;The Chennai Silks Classicate Blue Pure Silk Woven Design Kanjeevaram Saree;The Chennai Silks;zerotype;;Winter;no image;No
2103992;BB Denim 001 N-Mid Indigo-2103992;Men's Denims;Draft;Jeans;Mr Bowerbird;Adults-Men;Men;;;;Fashion;;2017;30,MBIDJENS00000104,32,MBIDJENS00000105,34,MBIDJENS00000106,36,MBIDJENS00000107,38,MBIDJENS00000108;2999.00;;;;;;;;zerotype;;Fall;;No
2069417;RCKY00441-B4-Blue-2069417;Half sleeve polo wrappr wth no tiping wp;Active;Tshirts;Raymond;Adults-Men;Men;Blue;White;;Fashion;Casual;2017;40,RYMDTSHT00000605,42,RYMDTSHT00000606,44,RYMDTSHT00000607,46,RYMDTSHT00000608;2699.00;Blue and white checked T-shirt, has a polo collar, short sleeves;Upgrade your style when you take a page out of Raymond's book with this tee.  When you're going for a stroll in the park, put this blue piece with a pair of chinos and sneakers to feel both comfortable and stylish outside.;Cotton<br> Machine-wash;The model (height 6') is wearing a size M;;Raymond Men Blue Checked Polo Collar T-shirt;Raymond,uber-offer-sept25,bbd17-extra20,welcome-to-myntra-oct17,formalwear-min30sale,menscasualfest-oct,diwali17-ftod,express-delivery-17,try-and-buy-17;zerotype;;Summer;try-and-buy-17;No
2059522;CE-W265 B-Black-2059522;CE-W265 B Black;Inactive - PMM - Category;Casual Shoes;Roadster;Adults-Women;Women;Black;;;Fashion;Casual;2017;Euro 36,RDSTCASH00020989,Euro 37,RDSTCASH00020990,Euro 38,RDSTCASH00020991,Euro 39,RDSTCASH00020992,Euro 40,RDSTCASH00020993,Euro 41,RDSTCASH00020994;2299.00;A pair of round-toe <a href='/black?src=pd' class='seolink'>black</a> <a href='/sneakers?src=pd' class='seolink'>sneakers</a>, has high-top styling, lace-up detail<br /><a href='/synthetic?src=pd' class='seolink'>Synthetic</a> upper<br />Cushioned footbed<br />Textured and patterned outsole<br />Warranty: <a href='/3?src=pd' class='seolink'>3</a> months;These comfortable and stylish casual shoes from Roadster will boost your everyday style.  Match this black pair with your favourite tee and some lounge shorts for an adorable look for the beach.;Synthetic <br> Wipe with a clean, dry cloth to remove dust;;;Roadster Women Black Solid Synthetic High-Top Sneakers;Roadster,express-delivery-17,try-and-buy-17,coupon-offer-oct2017;zerotype;;Fall;tag;No
2059521;CE-W265 A-White-2059521;CE-W265 A White;Inactive - PMM - Category;Casual Shoes;Roadster;Adults-Women;Women;White;;;Fashion;Casual;2017;Euro 36,RDSTCASH00020983,Euro 37,RDSTCASH00020984,Euro 38,RDSTCASH00020985,Euro 39,RDSTCASH00020986,Euro 40,RDSTCASH00020987,Euro 41,RDSTCASH00020988;2299.00;A pair of round-toe white <a href='/sneakers?src=pd' class='seolink'>sneakers</a>, has high-top styling, lace-up detail<br /><a href='/synthetic?src=pd' class='seolink'>Synthetic</a> upper<br />Cushioned footbed<br />Textured and patterned outsole<br />Warranty: <a href='/3?src=pd' class='seolink'>3</a> months;A pair of casual shoes from Roadster are a must-have for anyone on-the-go.  Team this white pair with trim denims and a printed tee when you're joining your friends for dinner.;Synthetic <br> Wipe with a clean, dry cloth to remove dust;;;Roadster Women White Solid Synthetic High-Top Sneakers;Roadster,express-delivery-17,try-and-buy-17,coupon-offer-oct2017;zerotype;;Fall;tag;No
2059520;CE-W2633 B-Black-2059520;CE-W2633 B Black;Inactive - PMM - Category;Casual Shoes;Roadster;Adults-Women;Women;Black;;;Fashion;Casual;2017;Euro 36,RDSTCASH00020977,Euro 37,RDSTCASH00020978,Euro 38,RDSTCASH00020979,Euro 39,RDSTCASH00020980,Euro 40,RDSTCASH00020981,Euro 41,RDSTCASH00020982;1899.00;A pair of round-toe <a href='/black?src=pd' class='seolink'>black</a> <a href='/sneakers?src=pd' class='seolink'>sneakers</a>, has <a href='/regular?src=pd' class='seolink'>regular</a> styling, lace-up detail<br /><a href='/synthetic?src=pd' class='seolink'>Synthetic</a> upper<br />Cushioned footbed<br />Textured and patterned outsole<br />Warranty: <a href='/3?src=pd' class='seolink'>3</a> months;Expand your shoe collection with a brand new pair of casual shoes made by Roadster.  This black pair can be styled with a casual T-shirt and some slim jeans for a cute date look.;Synthetic <br> Wipe with a clean, dry cloth to remove dust;;;Roadster Women Black Sneakers;Roadster,express-delivery-17,try-and-buy-17,coupon-offer-oct2017;zerotype;;Fall;tag;No
2059285;217YKWSLD89464-Pink-2059285;Dresses;Draft;Dresses;YK;Kids-Girls;Girls;;;;Fashion;;2017;2-3Y,YKYKDRSS00001404,3-4Y,YKYKDRSS00001405,4-5Y,YKYKDRSS00001406,5-6Y,YKYKDRSS00001407,6-7Y,YKYKDRSS00001408;2099.00;;;;;;;;zerotype;;Fall;;No
2055170;CCMYFS5448-Red-2055170;The Chennai Silks - Patola Embroidery Batch Work saree;QC Reject;Sarees;The Chennai Silks;Adults-Women;Women;Orange;;;Fashion;Ethnic;2017;ONESIZE,CHNSSARS00001030;6999.00;<a href='/orange?src=pd' class='seolink'>Orange</a> patola <a href='/woven-design-saree?src=pd' class='seolink'>woven design saree</a>, has an embellished border<br /><a href='/blouse?src=pd' class='seolink'>Blouse</a> piece<br />The model is wearing a blouse from our stylist's collection, see the image for a mock-up of what the actual blouse would look like;Elegant and comfortable, this party saree from The Chennai Silks is ideal for any fashionista.  This orange design can be paired with an elegant pair of heels and minimalistic silver jewellery for your next family event.;Saree fabric: viscose rayon<br> Blouse fabric: viscose rayon<br> Dry-clean;Length: 5.5 metres plus 0.8 metre blouse piece<br>Width: 1.06 metres (approx);;The Chennai Silks Classicate Orange Viscose Rayon Woven Design Patola Saree;The Chennai Silks;zerotype;;Fall;no image;No
2033802;5121744750-GREEN-2033802;FRM-BL-31C;QC Reject;Belts;Ruosh;Adults-Men;Men;Brown;;;Fashion;Formal;2017;S,RUSHBELT00000186,M,RUSHBELT00000187,L,RUSHBELT00000188,XL,RUSHBELT00000189;1690.00;Brown solid belt<br />Reversible: No<br />Stretchable: No<br />Secured with a push pin closure<br />Warranty: 3 months;This handsome brown belt from Ruosh will take your style to new heights. When you're grabbing drinks with friends, team this brown piece with trim denims and a trendsetting shirt.;Leather <br /> Wipe with a clean, dry cloth to remove dust;Width: 3.5 cm;;Ruosh Men Brown Genuine Leather Belt;Ruosh,BV,coh-exp-aug,extra20-sports,sw-buy2-1999,aw17-new-season,welcome-to-mynt-v2sep2017,welcome-to-myntra-sep2017,mens-lta-bbd,bbd17-coupon-offer,bigxtra500,ftod-bbd17,bbd17-extra20,bbd17-new-season,welcome-to-myntra-oct17,ftod-sep30,coupon-offer-diwali17,newseason40,mitm-mainbanner-oct,flash-sale-oct21,coupon-offer-oct2017,express-delivery-17,try-and-buy-17;zerotype;;Spring;try-and-buy-17;No
2026066;17570-BEIGE & RED MULTI-2026066;Shree Women  Beige & Red Multi Rayon Floral Printed Kurta;Inactive - PMM - Catalog;Kurtas;Shree;Adults-Women;Women;Off White;Navy Blue;Red;Fashion;Ethnic;2017;S,ShriKRTA00019678,M,ShriKRTA00019679,L,ShriKRTA00019680,XL,ShriKRTA00019681,XXL,ShriKRTA00019682;1199.00;Off-white, <a href='/navy-blue?src=pd' class='seolink'>navy blue</a> and <a href='/red?src=pd' class='seolink'>red</a> printed straight <a href='/kurta?src=pd' class='seolink'>kurta</a>, has a mandarin collar, three-quarter sleeves, straight hem, side slits;Comfortable and stylish, this kurta from Shree is ideal for any fashionista.  Look chic for the day with this off-white kurta and leggings.;Viscose rayon <br /> Hand-wash;The model (height 5'8") is wearing a size S;;Shree Women Off-White & Navy Blue Printed Straight Kurta;Shree,welcome-to-myntra-aug-v2,fw17-kurtas-rtw,welcome-to-myntra-sep2017,aw17-new-season,JIT,ftod-bbd17,bbd17-extra20,bbd17-new-season,welcome-to-myntra-oct17,coupon-offer-sep30,ftod-sep30,combo-deals,combo-buy2-sep30,buy2-buy3-deals-sept2017,ethnic-deal-oct,new-season-diwali17,coupon-offer-diwali17,ds17-buy2-1999,combo-ds17;zerotype;;Winter;coh-exp-aug;No
2005935;EMC-KUCB-7-Grey-2005935;EMC-KUCB-7 Grey;Inactive - PMM - Category;Casual Shoes;Kook N Keech;Adults-Men;Men;Grey;;;Fashion;Casual;2017;UK 6,KNKHCASH00002044,UK 7,KNKHCASH00002045,UK 8,KNKHCASH00002046,UK 9,KNKHCASH00002047,UK 10,KNKHCASH00002048,UK 11,KNKHCASH00002049;1899.00;A pair of round-toe <a href='/grey?src=pd' class='seolink'>grey</a> <a href='/sneakers?src=pd' class='seolink'>sneakers</a>, has <a href='/regular?src=pd' class='seolink'>regular</a> styling, slip-on detail<br /><a href='/synthetic?src=pd' class='seolink'>Synthetic</a> upper<br />Cushioned footbed<br />Textured and patterned outsole<br />Warranty: <a href='/3?src=pd' class='seolink'>3</a> months;Change up your everyday style and opt for these well-designed Kook N Keech casual shoes.  These grey shoes can be teamed with slim jeans and a trendy button-down shirt when you're meeting the guys for dinner and drinks.;Synthetic <br> Wipe with a clean, dry cloth to remove dust;;;Kook N Keech Men Grey Sneakers;Kook N Keech,express-delivery-17,mcf-aw2017,try-and-buy-17,coupon-offer-oct2017;zerotype;;Fall;tag;No
2005931;EMC-KUCB-6-Tan-2005931;EMC-KUCB-6 Tan;Inactive - PMM - Category;Casual Shoes;Kook N Keech;Adults-Men;Men;Tan;;;Fashion;Casual;2017;UK 6,KNKHCASH00002020,UK 7,KNKHCASH00002021,UK 8,KNKHCASH00002022,UK 9,KNKHCASH00002023,UK 10,KNKHCASH00002024,UK 11,KNKHCASH00002025;1899.00;A pair of round-toe <a href='/tan?src=pd' class='seolink'>tan</a> <a href='/sneakers?src=pd' class='seolink'>sneakers</a>, has <a href='/regular?src=pd' class='seolink'>regular</a> styling, lace-up detail<br><a href='/synthetic?src=pd' class='seolink'>Synthetic</a> upper<br>Cushioned footbed<br>Textured and patterned outsole;Expand your hip shoe collection with these comfy Kook N Keech casual shoes.  Style this tan pair with dark denims and a graphic tee for a chill look for the weekend.;Synthetic <br> Wipe with a clean, dry cloth to remove dust;;;Kook N Keech Men Tan Sneakers;Kook N Keech,welcome-to-myntra-oct17,express-delivery-17,mcf-aw2017,try-and-buy-17,coupon-offer-oct2017;zerotype;;Fall;tag;No
2004185;28183-WHITE-2004185;28183 WHITE;Active;Sports Shoes;HRX by Hrithik Roshan;Adults-Women;Women;White;Fluorescent Green;;Fashion;Sports;2017;Euro 36,HBHRSPSH00001097,Euro 37,HBHRSPSH00001098,Euro 38,HBHRSPSH00001099,Euro 39,HBHRSPSH00001100,Euro 40,HBHRSPSH00001101,Euro 41,HBHRSPSH00001102;2699.00;A pair of white and fluorescent green <a href='/running-sports-shoes?src=pd' class='seolink'>running sports shoes</a>, has <a href='/regular?src=pd' class='seolink'>regular</a> styling, lace-up detail<br />Mesh upper<br />Cushioned footbed<br />Textured and patterned outsole<br />Warranty: 3 months;Boost your athletic style game with a pair of these high-performance HRX by Hrithik Roshan running shoes. This white pair can be styled with sports shorts and a breathable tank when you're going out for your morning jog.;Mesh <br />Wipe with a clean, dry cloth to remove dust;;;HRX by Hrithik Roshan Women White Running Shoes;HRX by Hrithik Roshan,extra30-aug09,uber-offer-aug-rtf,welcome-to-myntra-aug17-new,extra500-16aug,uber-offer-16aug,welcome-to-myntra-aug-v2,coupon-offer-aug19,hrx-just-arrived,hrx-all-style,hrx-all-style-499,hrx-all-style-999,hrx-all-category,hrx-best-of-season,buy2-1999-23aug,coh-exp-aug,HRX-All-Styles-upto-50,all-sports-styles-2017,extra20-sports,sports-shoes-special-discount-bsf,hrx-just-in-new-styles,hrx-extra-brand-offer,hrx-all-styles-upto-50,extra20-aug31,welcome-to-myntra-sep2017,aw17-new-season,all-sports-sept,sportsallstyles-2017,welcome-to-mynt-v2sep2017,dutyfree-sept17,hrx-bestsellers-10092017,hrx-women-top-banner-10092017,Coupon-offer-aug19,HRX-FW17-15092017,ftod-bbd17,bbd17-coupon-offer,bbd17-extra20,uber-offer-sept25,bbd17-new-season,welcome-to-myntra-oct17,coupon-offer-sep30,ftod-sep30,new-season-extra20,diwali17-ftod,coupon-offer-diwali17,newseason40,HRX-sports-shoes-running,extra35-oct19,flash-sale-oct21,coupon-offer-oct2017,fw-17-sports-new,buy40-oct25,express-delivery-17,try-and-buy-17,combo-buy2-oct28;zerotype;;Fall;tag;No
2004101;CE-W272 A-White-2004101;CE-W272 A White;Active;Casual Shoes;Kook N Keech;Adults-Women;Women;White;;;Fashion;Casual;2017;EURO36,KNKHCASH00001870,EURO37,KNKHCASH00001871,EURO38,KNKHCASH00001872,EURO39,KNKHCASH00001873,EURO40,KNKHCASH00001874,EURO41,KNKHCASH00001875;1899.00;A pair of round-toe white <a href='/sneakers?src=pd' class='seolink'>sneakers</a>, has <a href='/regular?src=pd' class='seolink'>regular</a> styling, slip-on detail<br /><a href='/synthetic?src=pd' class='seolink'>Synthetic</a> upper<br />Cushioned footbed<br />Textured and patterned outsole<br />Warranty: <a href='/3?src=pd' class='seolink'>3</a> months;These comfortable and stylish casual shoes from Kook N Keech will boost your everyday style.  These white shoes can be matched with tapered sweats and a graphic tee when you're running errands.;Synthetic <br> Wipe with a clean, dry cloth to remove dust;;;Kook N Keech Women White Sneakers;Kook N Keech,express-delivery-17,try-and-buy-17,coupon-offer-oct2017;zerotype;;Fall;tag;No
2004100;CE-W291-White-2004100;CE-W291White;Active;Casual Shoes;Kook N Keech;Adults-Women;Women;White;;;Fashion;Casual;2017;EURO36,KNKHCASH00001864,EURO37,KNKHCASH00001865,EURO38,KNKHCASH00001866,EURO39,KNKHCASH00001867,EURO40,KNKHCASH00001868,EURO41,KNKHCASH00001869;1899.00;A pair of round-toe white <a href='/sneakers?src=pd' class='seolink'>sneakers</a>, has <a href='/regular?src=pd' class='seolink'>regular</a> styling, slip-on detail<br /><a href='/synthetic?src=pd' class='seolink'>Synthetic</a> upper<br />Cushioned footbed<br />Textured and patterned outsole<br />Warranty: <a href='/3?src=pd' class='seolink'>3</a> months;Expand your shoe collection with a brand new pair of casual shoes made by Kook N Keech.  Team this white pair with trim denims and a printed tee when you're joining your friends for dinner.;Synthetic <br> Wipe with a clean, dry cloth to remove dust;;;Kook N Keech Women White Sneakers;Kook N Keech,express-delivery-17,try-and-buy-17,coupon-offer-oct2017;zerotype;;Fall;tag;No
1992099;19988801-METALLIC-1992099;GLD FLASH 2PRT SNDL;Active;Flats;DOROTHY PERKINS;Adults-Women;Women;Gold;;;Fashion;Casual;2017;UK3,DYPNFlats00000290,UK4,DYPNFlats00000291,UK5,DYPNFlats00000292,UK6,DYPNFlats00000293,UK7,DYPNFlats00000294,UK8,DYPNFlats00000295;1290.00;A pair of <a href='/gold?src=pd' class='seolink'>gold</a>-toned open-toed <a href='/flats?src=pd' class='seolink'>flats</a>, has buckle detail<br /><a href='/synthetic?src=pd' class='seolink'>Synthetic</a> upper<br />Cushioned footbed<br />Textured and patterned outsole<br />Warranty: No Warranty;These trendy and comfortable flats from DOROTHY PERKINS will complete your personal wardrobe. These flats can be styled with slim jeans and a beautiful top for a casual brunch outfit.;Synthetic <br />Wipe with a clean, dry cloth to remove dust;;;DOROTHY PERKINS Women Gold-Toned Solid Open Toe Flats;DOROTHY PERKINS,welcome-to-myntra-aug17-new,uber-offer-new-aug,welcome-to-myntra-aug-v2,international-brands-new,welcome-to-myntra-sep2017,aw17-new-season,bbd17-coupon-offer,bigxtra500,ftod-bbd17,bbd17-extra20,coh-exp-aug,bbd17-combo-buy2,coupon-offer-sep30,ftod-sep30,combo-deals,combo-buy2-sep30,new-season-extra20,coupon-offer-diwali17,new-season-diwali17,newseason40,high-street-brands,shubh-vivah-women-footwear-all,ndd17-ggn,buy2-oct15,coupon-offer-oct2017,buy2-oct25,express-delivery-17,try-and-buy-17,welcome-to-myntra-oct17;zerotype;;Fall;welcome-to-myntra-oct17;No
1985833;1000654053002-BLUE-1985833;LCSH-4171-SH-17-B-FS, M, BLUE;On Hold - Sample;Shirts;Lee Cooper;Adults-Men;Men;NA;;;Fashion;;2017;L,LEECSHRT00002033,XL,LEECSHRT00002034,XXL,LEECSHRT00002035,M,LEECSHRT00002998;1799.00;;;<p>Machine Wash Cold, Wash Dark Colors Separately,Do Not Bleach, Tumble Dry Low, Do Not Dry In Direct Sunlight, Flat Dry,Do not wring reshape, Warm Iron(Do Not Iron On Decoration)</p>;;;;;zerotype;;Spring;Broken Size;No
1947993;DB 389-BLACK-1947993;DB 389 BLACK;Active;Heels;DressBerry;Adults-Women;Women;Black;;;Fashion;Smart Casual;2017;Euro 36,DSBYHeels00012288,Euro 37,DSBYHeels00012289,Euro 38,DSBYHeels00012290,Euro 39,DSBYHeels00012291,Euro 40,DSBYHeels00012292;1499.00;A pair of <a href='/black?src=pd' class='seolink'>black</a> round toe wedges<br /><a href='/synthetic?src=pd' class='seolink'>Synthetic</a> upper<br />Cushioned footbed<br />Textured and patterned outsole<br />Warranty: 2 months;Opt for these cute DressBerry platform wedges and try out a new style this season.  Head out for lunch or dinner in this black pair, flared trousers, and a tank top.;Synthetic <br /> Wipe with a clean, dry cloth to remove dust;Heel height: 2";;DressBerry Women Black Solid  Rain Wedges;DressBerry,dutyfree-august17,uber-offer-new-aug,uber-offer-aug-rtf,buy3-rs2499-rtf,welcome-to-myntra-aug17-new,extra500-16aug,uber-offer-16aug,Db-Augnewarrival,db-rain-Ballerinas,welcome-to-myntra-aug-v2,deal-aug-buy2-1999,coupon-offer-aug19,buy2-1999-23aug,coh-exp-aug,ftod-sw,extra20-sports,sw-buy2-1999,db-rain-fw,aug31-buy2,welcome-to-myntra-sep2017,aw17-new-season,ladiesnight-womenfootwear-fw17,db-Sepnewarrival,welcome-to-mynt-v2sep2017,dutyfree-sept17,Db-Accfootwear,Coupon-offer-aug19,bbd17-coupon-offer,bigxtra500,ftod-bbd17,bbd17-extra20,bbd17-combo-buy3,bbd17-new-season,uber-offer-sept25,welcome-to-myntra-oct17,coupon-offer-sep30,ftod-sep30,combo-deals,combo-buy2-sep30,new-season-extra20,diwali17-ftod,coupon-offer-diwali17,ds17-buy2-1999,buy2-ds17,newseason40,buy2-oct15,extra35-oct19,flash-sale-oct21,coupon-offer-oct2017,buy2-oct25,express-delivery-17,try-and-buy-17;zerotype;;Fall;tag;No
1941633;VSD 1706-BLUE-1941633;VSD 1706 BLUE;Active;Casual Shoes;WROGN;Adults-Men;Men;Blue;;;Fashion;Casual;2017;Euro 41,WRGNCASH00001076,Euro 42,WRGNCASH00001077,Euro 43,WRGNCASH00001078,Euro 44,WRGNCASH00001079,Euro 45,WRGNCASH00001080;1999.00;A pair of round-toe <a href='/blue?src=pd' class='seolink'>blue</a> espadrilles, has <a href='/regular?src=pd' class='seolink'>regular</a> styling, lace-up detail<br />Canvas upper<br />Cushioned footbed<br />Textured and patterned outsole<br />Warranty: <a href='/3?src=pd' class='seolink'>3</a> months from the date of purchase against manufacturing defects;These top-notch casual shoes by WROGN will keep you looking stylish all year long.  Team this blue pair with trim denims and a printed tee when you're joining your friends for dinner.;Canvas <br />Wipe with a clean, dry cloth to remove dust;;;WROGN Men Blue Espadrilles;WROGN,jun08-wonder-hour,offer-11jun,ftod-eorsj17-20,wonder-hour-jun25,welcome-to-myntra-july,duty-offer-new,signup-july-2017,ftod-bbsjul17,bss-uber-offer,extra500-jul24,duty-offer-august,welcome-to-myntra-august17,a-listers-csale,uber-offer-jul31,extra50-aug03,uber-offer-aug,welcome-to-myntra-aug17-new,wrogn-new-arrivals,extra30-aug09,uber-offer-new-aug,ftod-rtf,uber-offer-aug-rtf,extra500-16aug,uber-offer-16aug,welcome-to-myntra-aug-v2,coupon-offer-aug19,buy2-1999-23aug,coh-exp-aug,ftod-sw,extra20-sports,extra20-aug31,welcome-to-myntra-sep2017,welcome-to-mynt-v2sep2017,dutyfree-sept17,Coupon-offer-aug19,bigxtra100,bigxtra500,ftod-bbd17,bbd17-coupon-offer,bbd17-extra20,welcome-to-myntra-oct17,coupon-offer-sep30,combo-deals,combo-buy2-sep30,menscasualfest-oct,uber-offer-sept25,ds17-buy2-1999,ndd17-blr,buy2-oct15,coupon-offer-oct2017,mfb-fw-casualnew,buy2-oct25,menscasualfestoct2,express-delivery-17,try-and-buy-17;zerotype;;Spring;tag;No
1901454;HRX-AW17-MK-1022-C-BRISTOL BLUE-1901454;MEN T-SHIRT;Draft;Tshirts;HRX by Hrithik Roshan;Adults-Men;Men;;;;Fashion;;2017;S,HBHRTSHT00008666,M,HBHRTSHT00008667,L,HBHRTSHT00008668,XL,HBHRTSHT00008669,XXL,HBHRTSHT00008670;1199.00;;;;;;;;zerotype;;Fall;;No
1893478;CLL-3739-GOLD-1893478;CLL-3739;Active;Heels;Carlton London;Adults-Women;Women;Gold;;;Fashion;Casual;2017;UK3,CTLNHeels00002088,UK4,CTLNHeels00002089,UK5,CTLNHeels00002090,UK6,CTLNHeels00002091,UK7,CTLNHeels00002092,UK8,CTLNHeels00002093;2195.00;A pair of <a href='/gold?src=pd' class='seolink'>gold</a>-toned open-toe <a href='/sandals?src=pd' class='seolink'>sandals</a><br /><a href='/synthetic?src=pd' class='seolink'>Synthetic</a> shimmer upper<br />Cushioned footbed<br />Textured and patterned outsole, has a wedge heel;These Carlton London platform wedges will give you the comfort and style that you've been seeking. This pair can be styled with a cute skirt and a classy top when you're going out to dinner with the girls.;Synthetic <br />Wipe with a clean, dry cloth to remove dust;Heel height: 2 inches;;Carlton London Women Gold-Toned Shimmer Sandals;Carlton London,may20-500off,may21-hh,big10-gratification,crush350-may25,price-surge-may25,extra500-may29,payday500-jun1,gratification-jun2,hh-jun2,offer999-jun4,welcome-to-myntra-june17,myntra-store-01,coupon-crush-jun6,jun8-offer999,offer-11jun,min30-jun12,eors-wishlist04,july17eors-metallicshoes-529706,eors-strappy-sandals-529746,top-seller-jun-eors,eors17-perc-coupon,wishlist-eors,wonder-hour-jun25,welcome-to-myntra-july,duty-offer-new,signup-july-2017,bss-uber-offer,duty-offer-august,welcome-to-myntra-august17,uber-offer-aug,welcome-to-myntra-aug17-new,dutyfree-august17,uber-offer-new-aug,uber-offer-aug-rtf,welcome-to-myntra-aug-v2,buy2-1999-23aug,CarltonbrandFlat50,CarltonbrandFlat60,extra20-aug31,welcome-to-myntra-sep2017,welcome-to-mynt-v2sep2017,dutyfree-sept17,carltonlondonmenfw,bbd17-coupon-offer,bigxtra500,bbd17-combo-buy2,bbd17-extra20,welcome-to-myntra-oct17,coupon-offer-sep30,buy2-buy3-deals-sept2017,ethnic-deal-oct,coupon-offer-diwali17,buy2-ds17,buy2-oct15,coupon-offer-oct2017,express-delivery-17,try-and-buy-17;zerotype;;Summer;try-and-buy-17;No
1872851;MOTOGP-MJ-082-Indigo-1872851;Indigo Dyed jeans;Draft;Jeans;Roadster;Adults-Men;Men;;;;Fashion;;2017;28,RDSTJENS00014794,30,RDSTJENS00014795,32,RDSTJENS00014796,34,RDSTJENS00014797,36,RDSTJENS00014798;2999.00;;;;;;;;zerotype;;Spring;;No
1872850;MOTOGP-MJ-081-Indigo-1872850;Indigo Dyed jeans;Draft;Jeans;Roadster;Adults-Men;Men;;;;Fashion;;2017;28,RDSTJENS00014789,30,RDSTJENS00014790,32,RDSTJENS00014791,34,RDSTJENS00014792,36,RDSTJENS00014793;2999.00;;;;;;;;zerotype;;Spring;;No
1872847;MOTOGP-MJ-078-Indigo-1872847;Indigo Dyed jeans;Draft;Jeans;Roadster;Adults-Men;Men;;;;Fashion;;2017;28,RDSTJENS00014774,30,RDSTJENS00014775,32,RDSTJENS00014776,34,RDSTJENS00014777,36,RDSTJENS00014778;2999.00;;;;;;;;zerotype;;Spring;;No
1872824;MOTOGP-MJ-055-Indigo-1872824;Indigo Dyed jeans;Draft;Jeans;Roadster;Adults-Men;Men;;;;Fashion;;2017;28,RDSTJENS00014659,30,RDSTJENS00014660,32,RDSTJENS00014661,34,RDSTJENS00014662,36,RDSTJENS00014663;3999.00;;;;;;;;zerotype;;Spring;;No
1872819;MOTOGP-MJ-050-Black-1872819;Black Denim;Draft;Jeans;Roadster;Adults-Men;Men;;;;Fashion;;2017;28,RDSTJENS00014634,30,RDSTJENS00014635,32,RDSTJENS00014636,34,RDSTJENS00014637,36,RDSTJENS00014638;3999.00;;;;;;;;zerotype;;Spring;;No
1872818;MOTOGP-MJ-049-Indigo-1872818;Indigo Dyed jeans;Draft;Jeans;Roadster;Adults-Men;Men;;;;Fashion;;2017;28,RDSTJENS00014629,30,RDSTJENS00014630,32,RDSTJENS00014631,34,RDSTJENS00014632,36,RDSTJENS00014633;3999.00;;;;;;;;zerotype;;Spring;;No
1866468;HRX-AW17-WK-2209-B1-JET BLACK-1866468;WOMENS T-SHIRT;QC Reject;Tshirts;HRX by Hrithik Roshan;Adults-Women;Women;Black;;;Fashion;Sports;2017;XS,HBHRTSHT00008370,S,HBHRTSHT00008371,M,HBHRTSHT00008372,L,HBHRTSHT00008373,XL,HBHRTSHT00008374;1299.00;Black printed T-shirt with RAPID-DRY technology, has a round neck, long raglan sleeves;Designed by the team at HRX by Hrithik Roshan, you're definitely in for a style treat with this polyester T-shirt.  When you're grabbing a quick meal with your friends, this black piece looks great with slimmer pants and chukka boot.;90% polyester, 10% elastane<br />Machine-wash;The model (height 6') is wearing a size M;;HRX by Hrithik Roshan Men Black Printed Round Neck T-shirt;HRX by Hrithik Roshan;zerotype;;Fall;;No
1866467;HRX-AW17-WK-2209-A1-BRIGHT WHITE-1866467;WOMENS T-SHIRT;QC Reject;Tshirts;HRX by Hrithik Roshan;Adults-Women;Women;White;;;Fashion;Sports;2017;XS,HBHRTSHT00008365,S,HBHRTSHT00008366,M,HBHRTSHT00008367,L,HBHRTSHT00008368,XL,HBHRTSHT00008369;1299.00;White printed T-shirt with RAPID-DRY technology, has a round neck, long raglan sleeves;Soft, well-structured, and durable, you'll definitely love being the proud owner of this HRX by Hrithik Roshan T-shirt.  When you're out running errands, you'll look your best when you combine this white piece with your favourite pair of sunglasses and trainer shoes.;90% polyester, 10% elastane<br />Machine-wash;The model (height 6') is wearing a size M;;HRX by Hrithik Roshan Men White Printed Round Neck T-shirt;HRX by Hrithik Roshan;zerotype;;Fall;;No
1864838;HD-6081-A1-BLACK-1864838;WOMEN'S TIGHTS;Inactive - PMM - Category;Tshirts;HRX by Hrithik Roshan;Adults-Women;Women;Black;;;Fashion;Sports;2017;XS,HBHRTIGH00000755,S,HBHRTIGH00000756,M,HBHRTIGH00000757,L,HBHRTIGH00000758,XL,HBHRTIGH00000759;1699.00;Black solid T-shirtengineered with RAPID-DRY technology, has a round neck, short sleeves;Boast a laid-back look with this in-season tee from HRX by Hrithik Roshan.  You can team this black piece with trim denims and sneakers when you have some errands to run.;Polyester <br> Machine-wash;The model (height 5'8") is wearing a size S;;HRX by Hrithik Roshan Women Black Solid Round Neck T-shirt;HRX by Hrithik Roshan,ndd17-mum;zerotype;;Fall;ndd17-mum;No
1830871;1121050510-Black-1830871;SMU2 DROOG 01 C;Active;Formal Shoes;Ruosh;Adults-Men;Men;Black;;;Core;Formal;2017;EURO40,RUSHFOSH00002521,EURO41,RUSHFOSH00002522,EURO42,RUSHFOSH00002523,EURO43,RUSHFOSH00002524,EURO44,RUSHFOSH00002525,EURO45,RUSHFOSH00002526;4490.00;A pair of <a href='/black?src=pd' class='seolink'>black</a> semi-<a href='/formal?src=pd' class='seolink'>formal</a> slip-ons<br /><a href='/leather?src=pd' class='seolink'>Leather</a> upper<br />Wrinkle resistant<br />Cushioned footbed<br />Textured outsole with patterned grooves, has a stacked heel<br />Warranty: <a href='/3?src=pd' class='seolink'>3</a> months against manufacturing defects if <a href='/footwear?src=pd' class='seolink'>footwear</a> is unworn;A great pair of formal slip-ons is an essential part of any man's wardrobe. These upscale shoes are designed with smart patterns and are so classic that you can be sure that they will never go out of style.;Leather<br />Use a branded leather conditioner to clean the product;;;Ruosh Men Black Leather Semi-Formal Slip-On Shoes;Ruosh,ftod-bfg,ladies-love-the-smell-of-power,apr12-super-hour,new-season-styles-apr13,indus-apr13,bnb-styles-apr,b2-extra50-apr18,coupon-crush-bb,flat40-extra30-bb,min30-extra1000,gold22-bb,power500-bb,b3-20-power20,flat50-extra15-bb,flash-sale-bb21,apr15-hh,coupon-crush05,coupon-crush09,myntra-rupay,mse-ruosh,extra30-may02,extra20-ccmay,crush24-ccmay,rs300off-ccmay,new-season30-ccmay,super-hour-ccmay,men-offer-may05,welcome-to-myntra-may,extra500-may6,extra500off-may8,extra400-may9,rs300off-1105,ndd-bangalore,big10-ftod,extra30-may19,may21-hh,big10-price-surge,big10-gratification,may23-extra50,crush350-may25,price-surge-may25,flat50-crush15-may25,may27-price-surge,extra500-may29,mantastic-theintern17,gratification-jun2,hh-jun2,offer999-jun4,myntra-store-02,coupon-crush-jun6,jun8-offer999,offer-11jun,min30-jun12,mumbai-airport-duty,eors-wishlist11,eors-wishlist16,ftod-eorsj17-40,eors17-perc-coupon,ola-offer-jul17,min60offonftw,wonder-hour-jun25,mitm-formaljuly,mitm-july,uber-offer-aug-rtf,bestofbrandsmcf,formal-aug-mb,flash-sale-sept02,aw17-new-season,welcome-to-mynt-v2sep2017,welcome-to-myntra-sep2017,JIT,leatherfestsept,bbd17-coupon-offer,bigxtra500,ftod-sep30,2kftw-off,coupon-offer-diwali17,welcome-to-myntra-oct17,ndd17-blr,mcf-aw2017,mitm-mainbanner-oct,coh-exp-aug,express-delivery-17,try-and-buy-17;zerotype;;Winter;try-and-buy-17;No
1791536;WF56439-ROSE GOLD-1791536;CH METALLIC CANVAS;Active;Casual Shoes;Keds;Adults-Women;Women;Gold;;;Fashion;Casual;2017;US10.5,KEDSCASH00000141,US6.5,KEDSCASH00000142,US7.5,KEDSCASH00000143,US8.5,KEDSCASH00000144,US9.5,KEDSCASH00000145;3199.00;A pair of round-toe rose gold-toned sneakers, has lace-ups detail<br />Canvas upper<br />Cushioned Ortholite footbed<br />Textured and patterned outsole;These trendy sneakers from Keds are equipped with super-soft insoles to keep your feet both happy and healthy. Stay comfortable by matching this rose gold-toned pair with any jeans and a tank top for a relaxing walk around the neighbourhood.;Canvas <br /> Wipe with a clean, dry cloth to remove dust;;;Keds Women Rose Gold-Toned CH Metallic Canvas Solid Sneakers;Keds-metallic,apr12-super-hour,new-season-styles-apr13,apr15-hh,gold22-bb,b3-20-power20,newseason20-bb,flash-sale-bb21,SportsAllStyles-2017,sportsathleisure,coupon-crush05,coupon-crush09,myntra-rupay,price-surge,pp-extra25-off,extra20-ccmay,crush24-ccmay,rs300off-ccmay,new-season30-ccmay,super-hour-ccmay,women-offer-may05,coupon-offer-may,high-street-women,extra400-may9,super-hour-may9,high-street-brands,rs300off-1105,ndd-bangalore,big10-flash30,big10-lucky30,big10-price-surge,big10-rs501off,big10-super-hour25,sportsallstyles-2017,myntra-icici-offer,big10-extra40,big10-350off,may20-500off,may20-flash-sale,may21-hh,big10-gratification,crush350-may25,price-surge-may25,Sportsstore20,extra500-may29,payday500-jun1,gratification-jun2,hh-jun2,offer999-jun4,welcome-to-myntra-june17,coupon-crush-jun6,jun08-wonder-hour,jun8-offer999,offer-11jun,mumbai-duty-free,mumbai-airport-duty,eors-half-price-store,eors-sneakers,top-seller-jun-eors,ftod-eorsj17-40,wonder-hour-jun25,ola-offer-jul17,signup-july-2017,bss-uber-offer,extra500-jul24,duty-offer-august,welcome-to-myntra-august17,uber-offer-jul31,uber-offer-aug,welcome-to-myntra-aug17-new,dutyfree-august17,uber-offer-new-aug,uber-offer-16aug,welcome-to-myntra-aug-v2,all-sports-styles-2017,coh-exp-aug,welcome-to-myntra-sep17,extra20-aug31,welcome-to-myntra-sep2017,welcome-to-mynt-v2sep2017,bbd17-coupon-offer,menscasualfest-oct,coupon-offer-diwali17,ndd17-blr,flash-oct14,coupon-offer-oct2017,buy40-oct25,express-delivery-17,try-and-buy-17,welcome-to-myntra-oct17,combo-buy2-oct28;zerotype;;Summer;combo-buy2-oct28;No
1789759;1121149710-Black-1789759;VENETO-AW16-03 B;Active;Formal Shoes;Ruosh;Adults-Men;Men;Black;;;Core;Casual;2017;EURO40,RUSHFOSH00002431,EURO41,RUSHFOSH00002432,EURO42,RUSHFOSH00002433,EURO43,RUSHFOSH00002434,EURO44,RUSHFOSH00002435,EURO45,RUSHFOSH00002436;3490.00;A pair of square-toed <a href='/black?src=pd' class='seolink'>black</a> semiformal <a href='/shoes?src=pd' class='seolink'>shoes</a> with central lace-ups<br /><a href='/leather?src=pd' class='seolink'>Leather</a> upper<br />Comfort footbed<br />Textured rubber outsole, has a stacked heel<br />Warranty: 3 months against manufacturing defects if <a href='/footwear?src=pd' class='seolink'>footwear</a> is unworn;Make a unique fashion statement by wearing this pair of shoes. Team it with slim trousers and a crisp shirt for a polished look.;Leather<br />Use a branded leather conditioner to clean the product;;;Ruosh Work Men Black Leather Semiformal Shoes;Roush,ss17mcfftw,RuoshSS17MCF,bfg-event-apr,bfg-wanderlust-men-workessentials,apr12-super-hour,new-season-styles-apr13,apr15-hh,coupon-crush05,coupon-crush09,myntra-rupay,coupon-crush08,mse-ruosh,price-surge,pp-extra25-off,crush24-ccmay,rs300off-ccmay,new-season30-ccmay,super-hour-ccmay,men-offer-may05,coupon-offer-may,extra400-may9,rs300off-1105,ndd-mumbai,big10-lucky30,big10-price-surge,big10-rs501off,myntra-icici-offer,big10-350off,flash-sale-may17,big10-super-hour25,may21-hh,big10-gratification,crush350-may25,price-surge-may25,may27-price-surge,extra500-may29,payday500-jun1,gratification-jun2,hh-jun2,offer999-jun4,welcome-to-myntra-june17,coupon-crush-jun6,jun08-wonder-hour,jun8-offer999,offer-11jun,mumbai-duty-free,mumbai-airport-duty,JIT,eors-wishlist11,eors-wishlist16,eors17-rsoff-coupon,eors17-perc-coupon,eorsjun17-uber-offer,wishlist-eors,wonder-hour-jun25,ola-offer-jul17,signup-july-2017,bss-uber-offer,mitm-formaljuly,mitm-july,extra500-jul24,duty-offer-august,welcome-to-myntra-august17,uber-offer-jul31,uber-offer-aug,welcome-to-myntra-aug17-new,dutyfree-august17,uber-offer-new-aug,uber-offer-aug-rtf,uber-offer-16aug,coupon-offer-aug19,bestofbrandsmcf,buy2-1999-23aug,formal-aug-mb,welcome-to-myntra-aug-v2,extra20-sports,extra20-aug31,welcome-to-myntra-sep2017,aw17-new-season,welcome-to-mynt-v2sep2017,dutyfree-sept17,leatherfestsept,bbd17-coupon-offer,bigxtra100,bigxtra500,ftod-sep30,welcome-to-myntra-oct17,coupon-offer-diwali17,mcf-aw2017,mitm-mainbanner-oct,express-delivery-17,try-and-buy-17;zerotype;;Winter;try-and-buy-17;No
1771047;CLL-3842-PALEGOLD-1771047;CLL-3842;Active;Casual Shoes;Carlton London;Adults-Women;Women;Gold;;;Fashion;Casual;2017;UK3,CTLNCASH00105236,UK4,CTLNCASH00105237,UK5,CTLNCASH00105238,UK6,CTLNCASH00105239,UK7,CTLNCASH00105240,UK8,CTLNCASH00105241;2295.00;A pair of round-toed muted gold-toned slip-on sneakers<br />Synthetic upper, has basketweave pattern<br />Cushioned footbed<br />Textured and patterned outsole;These comfortable and stylish casual shoes from Carlton London will boost your everyday style.  This pair can be styled with a casual T-shirt and some slim jeans for a cute date look.;Synthetic <br /> Wipe with a clean, dry cloth to remove dust;;;Carlton London Women Muted Gold-Toned Basketweave Slip-On Sneakers;Carlton London,first-time-ladies-night,carlton-london-ss17-footwear-mbs,bfg-50dos-addons-slipons,bfg-wanderlust-tokyo-women-519420,bfg-mini-gig-headsoverheels-couponcodes,bfg-event-apr,bfg-bollywood-eighties-women-520125,bfg-wanderlust-women-destinationall,bfg-mini-gig-headoverheels-offer,biker-bfg,apr12-super-hour,new-season-styles-apr13,apr15-hh,upto40-extra20-bb,gold22-bb,b3-20-power20,newseason20-bb,flash-sale-bb21,coupon-crush05,coupon-crush09,myntra-rupay,mse-all,price-surge,pp-extra25-off,extra20-ccmay,crush24-ccmay,rs300off-ccmay,new-season30-ccmay,super-hour-ccmay,women-offer-may05,welcome-to-myntra-may,coupon-offer-may,extra400-may9,super-hour-may9,rs300off-1105,ndd-gurgaon,big10-ftod,big10-lucky20,big10-lucky30,big10-price-surge,big10-rs501off,big10-super-hour25,myntra-icici-offer,big10-350off,flash-sale-may17,may20-500off,may20-flash-sale,may21-hh,big10-gratification,ladies-night-coupon1,ladies-night-coupon2,crush350-may25,price-surge-may25,extra500-may29,payday500-jun1,gratification-jun2,hh-jun2,welcome-to-myntra-june17,myntra-store-01,coupon-crush-jun6,jun08-wonder-hour,jun8-offer999,offer-11jun,min30-jun12,eors-wishlist04,july17eors-metallicshoes-529706,top-seller-jun-eors,eors17-perc-coupon,wishlist-eors,wonder-hour-jun25,welcome-to-myntra-july,duty-offer-new,signup-july-2017,bss-uber-offer,duty-offer-august,welcome-to-myntra-august17,uber-offer-jul31,uber-offer-aug,rakhi-deals,rakhi-buy2-1999,dutyfree-august17,extra30-aug09,uber-offer-new-aug,uber-offer-aug-rtf,flats-menu-whitesoles,welcome-to-myntra-aug-v2,buy2-1999-23aug,CarltonBrandCasual,CarltonbrandFlat60,carltonlondon-work-footwear,welcome-to-myntra-sep17,extra20-aug31,welcome-to-myntra-sep2017,welcome-to-mynt-v2sep2017,bbd17-coupon-offer,bigxtra500,bbd17-combo-buy2,bbd17-extra20,welcome-to-myntra-oct17,coupon-offer-sep30,buy2-buy3-deals-sept2017,ethnic-deal-oct,coupon-offer-diwali17,ds17-buy2-1999,buy2-ds17,flash-oct14,buy2-oct15,coupon-offer-oct2017,express-delivery-17,try-and-buy-17,combo-buy2-oct28;zerotype;;Summer;combo-buy2-oct28;No
1758636;WETS0700-BLACK-1758636;MENS CASUAL  T SHIRTS;QC Reject;Tshirts;WROGN;Adults-Men;Men;Grey Melange;Black;;Fashion;Casual;2017;S,WRGNTSHT00003824,M,WRGNTSHT00003825,L,WRGNTSHT00003826,XL,WRGNTSHT00003827;1399.00;Grey melange and black striped polo T-shirt, has a polo collar, a short zip closure, short sleeves;Sport this trendsetting WROGN tee when you're ready to take your style to the next level. This grey melange piece can be styled with dark denims and canvas shoes when you're going out to eat with your friends.;100% cotton <br />Machine-wash;The model (height 6') is wearing a size M;;WROGN Men Grey Melange & Black Striped Polo T-shirt;ANTO0429,WROGN,wrogn-cuban,mfb-ss17,happy-hour-mar19,spring15-mar20,wrogn-ss17,cc-articles-2803,welcome-to-march-new,welcome-to-mar17-new,mar29-super-hour,welcome-to-myntra-april,new-launches-ss17,hh-0104,chill-summer-apr,engineered-stripe-wrogn,bfg-event-apr,pause-rewind-ss17,bfg-extra10,bfg-extra20,bfg-extra30,ftod-bfg,pause-wrogn-ss17,casual-evenings-wrogn,extra50-apr13,new-season-styles-apr13,b2-extra50-apr18,b3-50-rush50,first-time-on-discount-ftod,extra30-apr26,stripacular-tshirts,new-season30-ccmay,men-offer-may05,apr15-hh,wrogn-blod-retro,wrogn-bold-retro,big10-ftod,big10-extra40,wrogn-rebel,look1-mitm-casual,look2-mitm-athleisure,mitm17,mantastic-uber-link17,mantastic-chessboard17,wrogn-retro-tees,mantasticmay17,casualfest-june17,casual-june-17,tops-tees-june17,extra25-jun15,eors-wishlist15,eors-wishlist17,wrogn-celebstyles,eorsjun17-uber-offer,wishlist-eors,min50eorsjune17,wonder-hour-jun25,bss-uber-offer,mitm-athleisurejuly,mitm-vacayjuly,mitm-collegejuly,mitm-july,extra500-jul24,welcome-to-myntra-august17,extra20-jul31,mcf-aug-2238,extra50-aug03,uber-offer-aug,rakhi-deals,rakhi-buy3-2499,extra30-aug09,uber-offer-new-aug,buy3-rs2499-rtf,extra500-16aug,uber-offer-16aug,deal-aug-buy2-1999,coupon-offer-aug19,Coupon-offer-aug19,welcome-to-myntra-aug17-new,buy2-1999-23aug,coh-exp-aug,welcome-to-myntra-aug-v2,extra20-sports,sw-buy3-2499,takeextra20-offer,extra20-aug31,aug31-buy3,welcome-to-myntra-sep2017,aw17-layer-up-denim-jackets,welcome-to-mynt-v2sep2017,dutyfree-sept17,mitm-formal-sep,bbd17-coupon-offer,bbd17-combo-buy3,uber-offer-sept25,bbd17-extra20,welcome-to-myntra-oct17,coupon-offer-sep30,combo-deals,combo-buy2-sep30,menscasualfest-oct,mens-40-70-offer,ds17-buy2-1999,combo-ds17,newseason40,flash-oct14,flash-sale-oct17,mitm-mainbanner-oct,coupon-offer-oct2017,buy3-oct25,try-and-buy-17;zerotype;;Spring;try-and-buy-17;No
1753366;16521-TAN-1753366;16521 TAN;Active;Formal Shoes;INVICTUS;Adults-Men;Men;Tan;;;Fashion;Formal;2017;UK6,TILCFOSH00001402,UK7,TILCFOSH00001403,UK8,TILCFOSH00001404,UK9,TILCFOSH00001405,UK10,TILCFOSH00001406;3699.00;A pair of tan <a href='/brown-formal-shoes?src=pd' class='seolink'>brown formal shoes</a>, has central lace-ups<br /><a href='/leather?src=pd' class='seolink'>Leather</a> upper<br />Cushioned footbed<br />Textured outsole, has a stacked heel<br />Warranty: 90 days against manufacturing defects;Make a lasting impression at work as you put your best foot forward in this classy pair which will reflect your impeccable choice and elegant style.;Leather<br />Wipe with a clean, dry cloth when needed;;;INVICTUS Men Tan Brown Leather Formal Shoes;INVICTUS,jun08-wonder-hour,offer-11jun,min30-jun12,mumbai-duty-free,mumbai-airport-duty,eors-wishlist11,eors-wishlist16,eors17-perc-coupon,wishlist-eors,eorsjun17-uber-offer,welcome-to-myntra-july,wonder-hour-jun25,duty-offer-new,signup-july-2017,bss-uber-offer,extra500-jul24,duty-offer-august,welcome-to-myntra-august17,a-listers-csale,uber-offer-jul31,uber-offer-aug,welcome-to-myntra-aug17-new,dutyfree-august17,extra30-aug09,uber-offer-new-aug,ftod-rtf,uber-offer-aug-rtf,extra500-16aug,uber-offer-16aug,welcome-to-myntra-aug-v2,coupon-offer-aug19,formal-2238,coh-exp-aug,groovy-aug-mb,ftod-sw,extra20-sports,extra20-aug31,welcome-to-myntra-sep2017,welcome-to-mynt-v2sep2017,dutyfree-sept17,Coupon-offer-aug19,extra30-sep12,bbd17-coupon-offer,bigxtra500,shubh-vivah-guest-him-looks-navysuit-shirt,shubh-vivah-guest-him-pairing-navysuit-shirt,uber-offer-sept25,extra50-sep26,bbd17-extra20,welcome-to-myntra-oct17,coupon-offer-sep30,menscasualfest-oct,inv-Mainline-10122017,coupon-offer-diwali17,invictus-Formals-SIS,coupon-offer-oct2017,express-delivery-17,try-and-buy-17,combo-buy2-oct28;zerotype;;Spring;tag;No
1652928;MJ-10275B-BLACK-1652928;MJ-10275B BLACK;Active;Casual Shoes;HRX by Hrithik Roshan;Adults-Men;Men;Black;;;Fashion;Casual;2017;UK6,HBHRCASH00000379,UK7,HBHRCASH00000380,UK8,HBHRCASH00000381,UK9,HBHRCASH00000382,UK10,HBHRCASH00000383,UK11,HBHRCASH00000384;2999.00;A pair of black slip-on high-performance skate sneakers<br />Synthetic upper engineered with antibacterial technology<br />Mesh breathable lining<br />Cushioned footbed<br />High abrasion TPR sole for grip & traction<br />Textured and patterned outsole<br />Warranty: 3 months against manufacturing defects;Expand your modish shoe collection with these comfy HRX by Hrithik Roshan casual shoes. When you're grabbing drinks with the guys, team them with chinos and a casual blazer.;Synthetic <br />Wipe with a clean, dry cloth to remove dust;;;HRX by Hrithik Roshan Men Black Slip-On Sneakers;HRX by Hrithik Roshan,hrx-ss-17-styles,ss-17-night-tide,ftod-ss17,rs500off-crush500,crush20-mar28,cc-articles-2803,extra1000-mar28,welcome-to-march-new,rs300off-crush300,spring20-mar28,welcome-to-mar17-new,rs300-off-mar17,mar29-super-hour,mfb-ss17,welcome-to-myntra-april,new-launches-ss17,extra500-apr1,chill-summer-apr,extra30-apr04,bfg-50dos-addons-slipons,tbfg-sportsfanatic,tbfg-sportsfashion-athleisurelyyours-hrx,bfg-extra10,bfg-extra20,bfg-extra30,tbfg-sports-fitfabulous-brands-hrx,tbfg-sportsfashion-athleisurelyyours-viewall,ftod-bfg,bfg-wanderlust-men-leisureessentials,apr12-super-hour,new-season-styles-apr13,indus-apr13,bnb-styles-apr,summer-style-apr,after-match-apr,take20-apr17,coupon-crush-bb,upto40-extra20-bb,flat40-extra30-bb,min30-extra1000,gold22-bb,power500-bb,b3-20-power20,flash-sale-bb21,sportssneaker,SportsAllStyles-2017,sportsathleisure,first-time-on-discount-ftod,coupon-crush02,myntra-rupay,mse-all,pp-extra25-off,flat40-extra500-apr29,apr15-hh,extra30-may02,hrx-athleisureshoes,men-offer-may05,price-surge,extra500-may6,hrx-men-new-style,coupon-offer-may,extra400-may9,ndd-bangalore,SS-17-Athleisure-styles,big10-extra40,big10-lucky10,big10-price-surge,big10-rs501off,may20-500off,may20-flash-sale,may21-hh,big10-gratification,may23-extra50,crush350-may25,look2-mitm-athleisure,flat1500under,extra15-may27,extra500-may29,payday500-jun1,jun8-offer999,offer-11jun,HRX-Flat50,min30-jun12,eors-dontlookelsewhere-shoes-men-529198,HRX-Flat40,CASUAL-JUNE-17,HRX-All-Style,HRX-All-Style-499,HRX-All-Style-999,HRX-All-category,mumbai-duty-free,mumbai-airport-duty,eors-wishlist11,eors-wishlist17,eors-wishlist18,HRX-All-style-hrithik-pick-active,eors-half-price-store,wonder-hour-jun25,HRX-All-Styles-Men,HRX-All-Styles-men-499,HRX-All-Styles-men-999,ola-offer-jul17,welcome-to-myntra-july,duty-offer-new,signup-july-2017,ftod-bbsjul17,bss-uber-offer,flat40-extra30-jul19,b2-50-jul19,mitm-july,duty-offer-august,welcome-to-myntra-august17,extra500-jul24,hrx-all-style,hrx-all-category,uber-offer-aug,HRX-all-style-499,hrx-all-style-999,dutyfree-august17,extra30-aug09,uber-offer-new-aug,welcome-to-myntra-aug17-new,welcome-to-myntra-aug-v2,uber-offer-aug-rtf,hrx-all-style-499,hrx-best-of-season,buy2-1999-23aug,all-sports-styles-2017,HRX-All-Styles-upto-50,extra20-sports,best-sneakers-on-discount,hrx-extra-brand-offer,hrx-all-styles-upto-50,extra20-aug31,welcome-to-myntra-sep2017,welcome-to-mynt-v2sep2017,dutyfree-sept17,outdoorfest17,bbd17-coupon-offer,bigxtra500,coh-exp-aug,welcome-to-myntra-oct17,menscasualfest-oct,coupon-offer-sep30,coupon-offer-diwali17,flash-oct14,flash-sale-oct17,mitm-mainbanner-oct,coupon-offer-oct2017,sportsallstyles-2017,express-delivery-17,try-and-buy-17;zerotype;;Spring;tag;No
1651129;CLM-1343-NAVY-1651129;CLM-1343;Active;Casual Shoes;Carlton London;Adults-Men;Men;Navy Blue;;;Fashion;Casual;2016;UK10,CTLNCASH00104698,UK11,CTLNCASH00104699,UK6,CTLNCASH00104700,UK7,CTLNCASH00104701,UK8,CTLNCASH00104702,UK9,CTLNCASH00104703;3495.00;A pair of round-toe <a href='/navy-blue?src=pd' class='seolink'>navy blue</a> textured <a href='/loafers?src=pd' class='seolink'>loafers</a>, has slip-on detail<br /><a href='/leather?src=pd' class='seolink'>Leather</a> upper with tassel detail<br />Cushioned footbed<br />Textured and patterned outsole;You'll love the comfort and style of these super cool casual shoes from Carlton London.  When you're grabbing drinks with the guys, pair these navy blue shoes with chinos and a casual blazer.;Leather <br />Use a branded leather conditioner to clean the product;;;Carlton London Men Navy Blue Textured Leather Tassel Loafers;Carlton London,happyhour-rs-off,mcfeorsjan17,welcome-to-eors,eors-coupon-4jan,welcome-to-mynt-jan,welcome-to-myntra-jan,tn-mentassledloafers,foryou20,welcome-to-myntra-new-jan,foryou15,shoes-belts-men,HH12JAN17,stylesforextra5-jan17,welcome-to-myntra-feb,welcome-to-myntra-feb-new,vday-coupon-offer,v-day-best-sellers,vd-mens-shirts-and-denims,wishlisters-wish10-feb25,mitm-look-2-opt7,mitm-look-2-opt8,mitm-look-2-opt9,mitm-look-2-opt16,mitm-look-2-opt17,mitm-look-2-opt18,mitm-look-2-opt25,mitm-look-2-opt26,mitm-look-2-opt27,welcome-to-march,superhour-feb26,coupon-15-mar14,happy-hour-mar19,extra500-mar29,mar29-super-hour,welcome-to-myntra-april,bfg-m2-wmn-stylish-shoes,bfg-wanderlust-dubai-men,bfg-event-apr,bfg-extra10,bfg-extra20,bfg-extra30,bfg-wanderlust-dubai-men-519508,bfg-wanderlust-men-destinationall,bfg-bollywood-men-520179,men-sneakers-2499,apr15-hh,min40-extra500-apr27,coupon-crush02,coupon-crush03,coupon-crush04,coupon-crush05,myntra-rupay,coupon-crush08,coupon-crush11,mse-all,price-surge,flat40-extra500-apr29,flash-sale-apr29,rs300off-ccmay,crush24-ccmay,extra500-may6,coupon-offer-may,extra500off-may8,high-street-brands,high-street-footwear-men,high-street-shoes-acc,extra400-may9,extra30-10may,rs300off-1105,big10-extra40,big10-lucky10,big10-rs501off,myntra-icici-offer,welcome-to-myntra-may-big,big10-extra20,big10-350off,big10-super-hour25,big10-gratification,price-surge-may25,may27-price-surge,mantastic-theintern17,welcome-to-myntra-june17,coupon-crush-jun6,june-crush06,jun08-wonder-hour,jun8-offer999,offer-11jun,min30-jun12,eors-dontlookelsewhere-shoes-men-529198,eors-leather-loafer-trends-men,eors-men-trends,eors-wishlist11,eors17-perc-coupon,wonder-hour-jun25,wishlist-eors,ola-offer-jul17,welcome-to-myntra-july,duty-offer-new,min60offonftw,signup-july-2017,bss-uber-offer,mitm-vacayjuly,mitm-july,duty-offer-august,welcome-to-myntra-august17,uber-offer-jul31,uber-offer-aug,dutyfree-august17,uber-offer-new-aug,uber-offer-aug-rtf,coupon-offer-aug19,bestofbrandsmcf,buy2-1999-23aug,coh-exp-aug,CarltonBrandCasual,welcome-to-myntra-aug-v2,CarltonbrandFlat50,carltonlondon-work-footwear,extra20-sports,extra20-aug31,welcome-to-myntra-sep2017,welcome-to-mynt-v2sep2017,dutyfree-sept17,leatherfestsept,shubh-vivah-guest-him-mocassins,uber-offer-sept25,extra50-sep26,bbd17-extra20,welcome-to-myntra-oct17,menscasualfest-oct,coupon-offer-sep30,coupon-offer-diwali17,flash-oct14,mitm-mainbanner-oct,coupon-offer-oct2017,express-delivery-17,try-and-buy-17;zerotype;;Winter;try-and-buy-17;No
1587925;CRSH-ROAD-010-Tan-1587925;CRSH-ROAD-010 Tan;Draft;Sandals;Roadster;Adults-Men;Men;;;;Fashion;;2016;Euro 40,RDSTSNDL00000627,Euro 41,RDSTSNDL00000628,Euro 42,RDSTSNDL00000629,Euro 43,RDSTSNDL00000630,Euro 44,RDSTSNDL00000631,Euro 45,RDSTSNDL00000632;2499.00;;;;;;;;zerotype;;Fall;;No
1587924;CRSH-ROAD-009-Brown-1587924;CRSH-ROAD-009 Brown;Draft;Sandals;Roadster;Adults-Men;Men;;;;Fashion;;2016;Euro 40,RDSTSNDL00000621,Euro 41,RDSTSNDL00000622,Euro 42,RDSTSNDL00000623,Euro 43,RDSTSNDL00000624,Euro 44,RDSTSNDL00000625,Euro 45,RDSTSNDL00000626;2499.00;;;;;;;;zerotype;;Fall;;No
1587923;CRSH-ROAD-008-Black-1587923;CRSH-ROAD-008 Black;Draft;Sandals;Roadster;Adults-Men;Men;;;;Fashion;;2016;Euro 40,RDSTSNDL00000615,Euro 41,RDSTSNDL00000616,Euro 42,RDSTSNDL00000617,Euro 43,RDSTSNDL00000618,Euro 44,RDSTSNDL00000619,Euro 45,RDSTSNDL00000620;2499.00;;;;;;;;zerotype;;Fall;;No
1587922;CRSH-ROAD-007-Black-1587922;CRSH-ROAD-007 Black;Draft;Sandals;Roadster;Adults-Men;Men;;;;Fashion;;2016;Euro 40,RDSTSNDL00000609,Euro 41,RDSTSNDL00000610,Euro 42,RDSTSNDL00000611,Euro 43,RDSTSNDL00000612,Euro 44,RDSTSNDL00000613,Euro 45,RDSTSNDL00000614;2399.00;;;;;;;;zerotype;;Fall;;No
1587921;CRSH-ROAD-006-Brown-1587921;CRSH-ROAD-006 Brown;Draft;Sandals;Roadster;Adults-Men;Men;;;;Fashion;;2016;Euro 40,RDSTSNDL00000603,Euro 41,RDSTSNDL00000604,Euro 42,RDSTSNDL00000605,Euro 43,RDSTSNDL00000606,Euro 44,RDSTSNDL00000607,Euro 45,RDSTSNDL00000608;2399.00;;;;;;;;zerotype;;Fall;;No
1587920;CRSH-ROAD-005-Black-1587920;CRSH-ROAD-005 Black;Draft;Sandals;Roadster;Adults-Men;Men;;;;Fashion;;2016;Euro 40,RDSTSNDL00000597,Euro 41,RDSTSNDL00000598,Euro 42,RDSTSNDL00000599,Euro 43,RDSTSNDL00000600,Euro 44,RDSTSNDL00000601,Euro 45,RDSTSNDL00000602;2399.00;;;;;;;;zerotype;;Fall;;No
1587919;CRSH-ROAD-004-Tan-1587919;CRSH-ROAD-004 Tan;Draft;Sandals;Roadster;Adults-Men;Men;;;;Fashion;;2016;Euro 40,RDSTSNDL00000591,Euro 41,RDSTSNDL00000592,Euro 42,RDSTSNDL00000593,Euro 43,RDSTSNDL00000594,Euro 44,RDSTSNDL00000595,Euro 45,RDSTSNDL00000596;2399.00;;;;;;;;zerotype;;Fall;;No
1587918;CRSH-ROAD-003-Brown-1587918;CRSH-ROAD-003 Brown;Draft;Sandals;Roadster;Adults-Men;Men;;;;Fashion;;2016;Euro 40,RDSTSNDL00000585,Euro 41,RDSTSNDL00000586,Euro 42,RDSTSNDL00000587,Euro 43,RDSTSNDL00000588,Euro 44,RDSTSNDL00000589,Euro 45,RDSTSNDL00000590;2399.00;;;;;;;;zerotype;;Fall;;No
1587917;CRSH-ROAD-002-Tan-1587917;CRSH-ROAD-002 Tan;Draft;Sandals;Roadster;Adults-Men;Men;;;;Fashion;;2016;Euro 40,RDSTSNDL00000579,Euro 41,RDSTSNDL00000580,Euro 42,RDSTSNDL00000581,Euro 43,RDSTSNDL00000582,Euro 44,RDSTSNDL00000583,Euro 45,RDSTSNDL00000584;2099.00;;;;;;;;zerotype;;Fall;;No
1587916;CRSH-ROAD-001-Tan-1587916;CRSH-ROAD-001 Tan;Draft;Sandals;Roadster;Adults-Men;Men;;;;Fashion;;2016;Euro 40,RDSTSNDL00000573,Euro 41,RDSTSNDL00000574,Euro 42,RDSTSNDL00000575,Euro 43,RDSTSNDL00000576,Euro 44,RDSTSNDL00000577,Euro 45,RDSTSNDL00000578;1799.00;;;;;;;;zerotype;;Fall;;No
1584146;50009833695005-BLUE-1584146;PJEAL-S-JY19441-16S1, 36, BLUE;Draft;Jeans;Jealous 21;Adults-Women;Women;;;;Fashion;;2016;28,JELSJENS00101861,30,JELSJENS00101862,32,JELSJENS00101863,34,JELSJENS00101864,36,JELSJENS00101865;1899.00;<p><a href='/cotton?src=pd' class='seolink'>Cotton</a></p>;;;;;;ndd-mumbai;zerotype;;Summer;OHS to D;No
1556562;ESK-D603-Pewter-1556562;ESK-D603 Pewter;Active;Flats;DressBerry;Adults-Women;Women;Beige;;;Fashion;Casual;2017;Euro 36,DSBYFlats00011040,Euro 37,DSBYFlats00011041,Euro 38,DSBYFlats00011042,Euro 39,DSBYFlats00011043,Euro 40,DSBYFlats00011044,Euro 41,DSBYFlats00011045;1499.00;A pair of open-toed <a href='/beige?src=pd' class='seolink'>beige</a> strappy <a href='/flats?src=pd' class='seolink'>flats</a>, has mid-top styling, a zip and buckle closure<br><a href='/synthetic?src=pd' class='seolink'>Synthetic</a> upper<br>Cushioned footbed<br>Textured and patterned outsole;These breathable DressBerry flats are ideal for any fashionista's wardrobe.  Team this pair with a printed top, jeans and sling bag when heading out for a lunch date.;Synthetic <br> Wipe with a clean, dry cloth to remove dust;;;DressBerry Women Beige Strappy Flats;DressBerry,extra-500-off-dec6,flash20-dec7,brand-rush-dec,new-mens-casual,db-streetwear,db-dressberryday,db-dressberrynew,db-dressberrydiscount,400off-15dec-16,min40-extra40,happyhour-rs-off,Wftw-eors17-1stOnDiscount,eors-coupon-4jan,flat30-extra40-jan7,extra-30-jan,first-1000-extra30-jan17,foryou15,HH12JAN17,HH20JAN17,stylesforextra5-jan17,ftod-eors,myntra-wishlisters-jan,extra15-wishlisters-2017,budget-deal,cohort-customers,upto-40-extra-20,HH07FEB17,v-day-styles,welcome-to-myntra-feb,welcome-to-myntra-feb-new,vacation-store-women-beach-footwear,vday-coupon-offer,upto40-extra20-feb,v-day-deals-11feb,v-day-best-sellers,v-day-hourly-deals,upto40-extra20-cupid20,b2-35-b3-40-crazy40,bday-offer,b2-35-b3-40-crazy40-feb19,bday-happy-hour,coupon-crush-5,coupon-crush-8,weekend-coupon-offer,brandrush-4,superhour-feb26,wishlisters-wish10-feb25,coupon-offer-monday,welcome-to-march,b40-big40,holi-basket-mar,b2-extra50-mar14,happy-hour-mar19,spring15-mar20,welcome-to-myntra-mar17,super-hour-mar17,vacation-store-women-beach30,flat30-extra30-27mar,rs500off-crush500,crush20-mar28,cc-articles-2803,extra1000-mar28,welcome-to-march-new,welcome-to-mar17-new,rs300-off-mar17,mar29-super-hour,welcome-to-myntra-april,extra50-apr1,chill-summer-apr,bfg-event-apr,bfg-extra10,bfg-extra20,bfg-gno-secret30,apr12-super-hour,indus-apr13,bnb-styles-apr,summer-style-apr,after-match-apr,take20-apr17,extra30-apr26,apr15-hh,SUMMER-FLATS-DB,mse-dressberry,mse-all,DB-FTW1299,pp-extra25-off,pp-extra1000-off,flat40-extra500-apr29,extra500-ccmay,extra30-ccmay,crush24-ccmay,super-hour-ccmay,women-offer-may05,welcome-to-myntra-may,flash-sale-may6,coupon-offer-may,extra500off-may8,super-hour-may9,extra30-10may,big10-super-hour20,big10-lucky10,big10-price-surge,big10-extra40,welcome-to-myntra-may-big,big10-mse-all,big10-extra20,dressberry-ftw,best-seller-1905,may21-hh,extra500-may22,big10-gratification,ladies-night-coupon2,ladies-night-coupon1,eors-strappy-sandals-529746,duty-offer-august,extra500-jul24,a-listers-csale,uber-offer-jul31,buy3-2499-3107,uber-offer-aug,best-sellers-aug06,welcome-to-myntra-aug17-new,rakhi-deals,rakhi-buy2-1999,dutyfree-august17,extra30-aug09,uber-offer-new-aug,ftod-rtf,uber-offer-aug-rtf,buy2-rs1999-rtf,extra500-16aug,uber-offer-16aug,welcome-to-myntra-aug-v2,deal-aug-buy2-1999,coupon-offer-aug19,buy2-1999-23aug,coh-exp-aug,ftod-sw,extra20-sports,sw-buy2-1999,aug31-buy2,welcome-to-myntra-sep2017,aw17-new-season,ladiesnight-womenfootwear-fw17,welcome-to-mynt-v2sep2017,dutyfree-sept17,Db-Accfootwear,buy2-sept13,Coupon-offer-aug19,bbd17-coupon-offer,bigxtra500,ftod-bbd17,bbd17-extra20,bbd17-combo-buy3,bbd17-new-season,uber-offer-sept25,welcome-to-myntra-oct17,mfb-boots,ruffles-fur,mfb-acr-heels,back-to-skool,abiker-boots,rd-active-winter,coupon-offer-sep30,ftod-sep30,combo-deals,combo-buy2-sep30,new-season-extra20,coupon-offer-diwali17,ds17-buy2-1999,buy3-ds17,buy2-ds17,newseason40,buy2-oct15,diwali17-ftod,flash-sale-oct21,coupon-offer-oct2017,buy40-oct25,buy3-oct25,express-delivery-17,try-and-buy-17;zerotype;;Fall;tag;No
1482598;BL-56486-GY-GREY / WHITE-1482598;BL-56486-GREY;Active;Casual Shoes;Boltio;Adults-Women;Women;Grey;White;;Fashion;Casual;2016;UK3,BLTOCASH00001319,UK4,BLTOCASH00001320,UK5,BLTOCASH00001321,UK6,BLTOCASH00001322,UK7,BLTOCASH00001323,UK8,BLTOCASH00001324;1499.00;A pair of round-toe grey and white <a href='/sneakers?src=pd' class='seolink'>sneakers</a>, has regular styling, lace-up detail<br>Canvas upper<br>Cushioned footbed<br>Textured and patterned outsole<br>Warranty: 3 months against manufacturing defect against approved case from brand<br>;A pair of sneakers from Boltio will upgrade your low-key look. Stay comfortable by matching this pair with any jeans and a tank top for a relaxing walk around the neighbourhood.;Canvas <br> Wipe with a clean, dry cloth to remove dust;;;Boltio Women Grey & White Striped Regular Sneakers;Boltio,sportsfw16,EORS-16-SPORTS,binola-8sep,500-13sep,500-19sep,allsportsnew1,sportsathleisure,sports-aw16,bbd-pre-sale-sports-2016,bbd-pre-sale-2016,bbd-sports-allstyles,first-time-on-discount-10oct,bbd-one-last,store899-25extra-16oct,flat30-extra30-17october,diwali-sports-oct,sports-bbd-allstyles,lifestylefootwear-bbd,wedding-bride-honeymoon-flats,new-customer-Offer,AW16-WSN-Sneakers,wedding-bride-honeymoon-pack-list-all,sports-campaign-dec,happyhour-rs-off,extra-40-jan,buy2-50-jan,stylesforflat30-extra40-jan,rd-flat40-extra40,flat40-extra40-jan17,extra30-020217,flat40-extra30-3feb-2017,b1-at-40-50,buy1at40-buy2at50-10feb-2017,b1-40-b2-50-cupid50,b1-50-b2-60-weloveyou,flat50-extra30-feb14,flat40-extra-30-feb20,upto40-extra20-feb-20,coupon-crush-3,flat40-extra40-feb24,extra30-lastday30,extra-30-lucky30,extra30-mar8,holi-offer-sale,holi-top-women,b2-extra50-mar14,flat45-mar15,flash-sale-launch,b2-extra50-mar20,bnb-styles-mar17,mid-day-rush,most-wishlisted-mar17,flat30-extra30-27mar,extra50-flash50,rush-hour-extra20-mar28,mar29-super-hour,mar-29-extra25,flat40-mar30,extra50-apr1,hh-0104,extra30-apr04,tbfg-sportsfanatic,bfg-apr10,extra30-bfg-10apr,apr12-super-hour,extra50-apr13,extra30-may02,may23-extra50,crush20-may25,crush350-may25,price-surge-may25,eors-sneakers,sportsallstyles-2017,uber-offer-aug,uber-offer-aug-rtf,all-sports-styles-2017,flash-sale-sept02,eors-sports-under999,welcome-to-mynt-v2sep2017,welcome-to-myntra-sep2017,sports-fest-sept-999,outdoor-17,coupon-offer-diwali17,welcome-to-myntra-oct17,ds17-buy2-1999,buy3-ds17,buy2-ds17,ndd17-blr,flash-oct14,buy2-oct15,flash-sale-oct17,express-delivery-17,try-and-buy-17;zerotype;;Fall;try-and-buy-17;No
1242474;ESK-D90-Tan-1242474;ESK-D90 Tan;Active;Flats;DressBerry;Adults-Women;Women;Brown;Gold;;Fashion;Casual;2017;Euro 36,DSBYFlats00009198,Euro 37,DSBYFlats00009199,Euro 38,DSBYFlats00009200,Euro 39,DSBYFlats00009201,Euro 40,DSBYFlats00009202,Euro 41,DSBYFlats00009203;1099.00;<span>A pair of brown and gold-toned <a rel="" target="">flats</a>, has a buckle closure<br>Synthetic upper with metallic detail, has a toe separator and a backstrap<br>Cushioned footbed<br>Smooth outsole, has a slightly upraised heel</span>;When it comes to footwear options, make sure you are swept off your feet for the right reasons only. Team these comfortable and stylish flats with your everyday attire for an aesthetic appeal.;<span>Synthetic<br>Wipe with a clean, dry cloth when needed</span>;;;DressBerry Women Brown & Gold-Toned Flats;DressBerry,new-season-18apr,new-styles-offer-24par,new-styles-offer-28apr,appsale-top-brands-women-footwear,appsale-top-brands-women-footwear,first-time-on-discount-8may,womenfootwear-new-shoes-2016,grand-premium-30-to-50-off,game-time-deal-24may,dressberry-999store,women-tsf-10june,women-bestseller-ftw,women-ftw-60,ftw-below-999,ftw-upto60,ss16-women-presale-footwear,dressberry-ftw,first-time-on-discount-eors,EORS-16-WOMEN,mfb-ftw-clearancesales,first-login-offer,eoss-best-collection-2,mfb-womenftw-aw16-launch,db-newarrivals-aug,Exclusive-Main-Women,ndd-deal,top-at-august,fb-dbfootwear-aw16,fk-lenovo-offer,fk-tv-offer,welcome-to-myn-log-off,brand-rush-12,brand-rush-11,mfb-ftw-aw16-db,mfb-ftwaw16-launch,Db-Newarrivals-Aug,onam16-women-allfootwear,mfballaw16,bbd-pre-sale-2016,flat-40-sale-eors,first-time-on-discount-10oct,bbd-new-extra20,bbd-one-last,bbd-799,new-season-offer-15october,diwali-womenfootwear-oct,lifestylefootwear-bbd,diwali-25thoctober,cohort-25thoctober,wedding-bride-honeymoon-flats,myntra-open-coupon-offer,new-customer-Offer,wedding-bride-honeymoon-pack-list-all,brand-rush-dec,stylesforflat30-extra40,db-flats-40off,weekend-40,min40-extra40,WMN-METALLIC-SILVER,stylesforflat30-extra40-jan,rushhour-extra20-jan,b1-50-b2-60-weloveyou,flat50-extra30-feb14,welcome-to-myntra-april,extra50-apr1,hh-0104,b2-50-extra50,duty-offer-august,best-of-eoss-2707,extra500-jul24,a-listers-csale,min500-jul29,uber-offer-jul31,buy3-2499-3107,uber-offer-aug,extra50-aug03,best-sellers-aug06,welcome-to-myntra-aug17-new,rakhi-deals,rakhi-buy3-2499,dutyfree-august17,extra30-aug09,uber-offer-new-aug,ftod-rtf,uber-offer-aug-rtf,buy3-rs2499-rtf,extra500-16aug,uber-offer-16aug,welcome-to-myntra-aug-v2,deal-aug-buy3-2499,coupon-offer-aug19,coupon-offer-23aug,coh-exp-aug,ftod-sw,extra20-sports,sw-buy3-2499,aug31-buy3,welcome-to-myntra-sep2017,aw17-new-season,ladiesnight-womenfootwear-fw17,welcome-to-mynt-v2sep2017,dutyfree-sept17,Db-Accfootwear,Coupon-offer-aug19,ftod-bbd17,bbd17-coupon-offer,bbd17-extra20,bbd17-combo-buy3,uber-offer-sept25,bbd17-new-season,welcome-to-myntra-oct17,mfb-boots,ruffles-fur,mfb-acr-heels,back-to-skool,abiker-boots,rd-active-winter,coupon-offer-sep30,ftod-sep30,combo-deals,combo-buy2-sep30,new-season-extra20,diwali17-ftod,coupon-offer-diwali17,ds17-buy2-1999,buy3-ds17,buy2-ds17,newseason40,buy2-oct15,flash-sale-oct17,flash-sale-oct21,coupon-offer-oct2017,buy40-oct25,buy3-oct25,express-delivery-17,try-and-buy-17;Flats;DressBerry;Fall;tag;No
1238384;ESK-D162-Cream-1238384;ESK-D162 Cream;Active;Flats;DressBerry;Adults-Women;Women;Beige;Gold;;Fashion;Casual;2017;Euro 36,DSBYFlats00009000,Euro 37,DSBYFlats00009001,Euro 38,DSBYFlats00009002,Euro 39,DSBYFlats00009003,Euro 40,DSBYFlats00009004,Euro 41,DSBYFlats00009005;1299.00;<div>A pair of beige and gold-toned&nbsp pointy-toed&nbsp <a href='/flat-shoes?src=pd' class='seolink'>flat shoes</a>, has mid-top styling and a buckle closure</div><div>Synthetic upper, has a heel collar and a multistranded ankle loop</div><div>Cushioned footbed</div><div>Smooth outsole with an upraised heel</div>;Team this trendy&nbsp pair of flat shoes&nbsp with a sheath dress&nbsp for an effortlessly&nbsp fashion-forward look.;Synthetic<br><div>Wipe with a clean, dry cloth when needed</div>;;;DressBerry Women Beige & Gold-Toned Flat Shoes;DressBerry,women-tsf-10june,women-bestseller-ftw,women-ftw-60,trending-now-dorsay-flats,ftw-upto60,college-look-print-madness,dressberry-ftw,first-time-on-discount-eors,EORS-16-WOMEN,min40-extra40-4jul,mfb-ftw-clearancesales,eoss-collection,eoss-best-collection,rs500-off-17july,flat40-extra40-20jul,extra40-22jul,500-off-26jul,3for50-26jul,extra35-27july,extra50-28july-2,Exclusive-Main-Women,rakhi-store-casual-shoes,ndd-deal,top-at-august,fb-dbfootwear-aw16,fk-lenovo-offer,fk-tv-offer,welcome-to-myn-log-off,brand-rush-11,Db-Newarrivals-Aug,onam16-women-allfootwear,wedding-bride-honeymoon-flats,wedding-bride-honeymoon-pack-list-all,500-Off-FW-Nov-16,1000-Off-FW-Nov-16,extra-500-off-dec6,brand-rush-dec,MFH-millennial-accessories,party-women-category-flats,party-women-flats-boots-all,400off-15dec-16,aw16-dec16,winter-summer-2016,part-store-women-all,party-store-coupon,happyhour-rs-off,WMN-METALLIC-SILVER,ftod-eors,welcome-to-eors,eors-coupon-4jan,welcome-to-myntra-jan,HH12JAN17,foryou20,welcome-to-myntra-new-jan,foryou15,HH20JAN17,stylesforextra5-jan17,budget-deal,cohort-customers,upto-40-extra-20,HH07FEB17,v-day-styles,welcome-to-myntra-feb,welcome-to-myntra-feb-new,vday-coupon-offer,upto40-extra20-feb,v-day-deals-11feb,v-day-best-sellers,v-day-hourly-deals,bday-offer,bday-happy-hour,b1-30-b2-35-feb22,coupon-crush-5,weekend-coupon-offer,brandrush-4,wishlisters-wish10,wishlisters-wish10-feb25,superhour-feb26,coupon-offer-monday,welcome-to-march,MFH-chart-footwear,b40-big40,holi-basket-mar,happy-hour-mar19,spring15-mar20,welcome-to-myntra-mar17,super-hour-mar17,flat30-extra30-27mar,rs500off-crush500,crush20-mar28,cc-articles-2803,welcome-to-march-new,welcome-to-mar17-new,mar29-super-hour,welcome-to-myntra-april,chill-summer-apr,bfg-event-apr,bfg-extra10,bfg-extra20,bfg-gno-secret30,apr12-super-hour,indus-apr13,bnb-styles-apr,summer-style-apr,after-match-apr,take20-apr17,ftod-bb-apr20,upto40-extra20-bb,gold22-bb,b3-20-power20,women-offer-may05,bestsellers-may6,crush24-ccmay,welcome-to-myntra-may,price-surge,rs300off-ccmay,flash-sale-may6,apr15-hh,extra400-may9,super-hour-may9,ndd-mumbai,big10-lucky10,big10-price-surge,big10-extra40,welcome-to-myntra-may-big,db-ftw,may27-price-surge,gratification-jun2,myntra-store-03,wonder-hour-jun25,signup-july-2017,ftod-bbsjul17,bss-uber-offer,extra500-jul24,duty-offer-august,welcome-to-myntra-august17,best-of-eoss-2707,a-listers-csale,uber-offer-jul31,buy3-2499-3107,buy2-1999-3107,uber-offer-aug,best-sellers-aug06,welcome-to-myntra-aug17-new,rakhi-deals,rakhi-buy2-1999,dutyfree-august17,extra30-aug09,uber-offer-new-aug,ftod-rtf,uber-offer-aug-rtf,buy2-rs1999-rtf,extra500-16aug,uber-offer-16aug,welcome-to-myntra-aug-v2,deal-aug-buy2-1999,coupon-offer-aug19,buy2-1999-23aug,coh-exp-aug,ftod-sw,extra20-sports,sw-buy2-1999,ladies-top-sellers,aug31-buy3,welcome-to-myntra-sep2017,aw17-new-season,ladiesnight-womenfootwear-fw17,welcome-to-mynt-v2sep2017,dutyfree-sept17,Db-Accfootwear,Coupon-offer-aug19,buy3-sept13,ftod-bbd17,bbd17-coupon-offer,bbd17-extra20,bbd17-combo-buy3,bbd17-new-season,uber-offer-sept25,welcome-to-myntra-oct17,coupon-offer-sep30,ftod-sep30,combo-deals,combo-buy2-sep30,new-season-extra20,diwali17-ftod,coupon-offer-diwali17,ds17-buy2-1999,buy3-ds17,buy2-ds17,newseason40,buy2-oct15,coupon-offer-oct2017,buy40-oct25,buy3-oct25,express-delivery-17,try-and-buy-17;zerotype;;Fall;tag;No
