Style ID;Vendor Article Number;Vendor Article Name;Active Status;Article type;Brand;Age Group;Gender;Base Colour;Colour1;Colour2;Fashion Type;Usage;Year;Size - SKU code pair;MRP;Style Description;Style Note;Materials and Care Description;Size and Fit Description;Size Chart Path;Product Display Name;Tags;Product Type;Classification Brand;Season;Comments;Upload Images
2045454;S952646-339-XXL-Blue-2045454;Manyavar Men's Blue Kurta & Pyjama;Draft;Kurta Sets;Manyavar;Adults-Men;Men;Blue;;;Fashion;;2017;S,MYVRKASS00000517,M,MYVRKASS00000518,L,MYVRKASS00000519,XL,MYVRKASS00000520,XXL,MYVRKASS00000521;2999.00;;;<p>Dry Wash,Silk Blended</p>;;;;;zerotype;;Spring;;No
2045453;S952614-303-XXL-Beige-2045453;Manyavar Men's Beige Kurta & Pyjama;Draft;Kurta Sets;Manyavar;Adults-Men;Men;Beige;;;Fashion;;2017;S,MYVRKASS00000512,M,MYVRKASS00000513,L,MYVRKASS00000514,XL,MYVRKASS00000515,XXL,MYVRKASS00000516;2999.00;;;<p>Dry Wash,Silk Blended</p>;;;;;zerotype;;Spring;;No
2045450;S952612-340-XXL-White-2045450;Manyavar Men's White Kurta & Pyjama;Draft;Kurta Sets;Manyavar;Adults-Men;Men;White;;;Fashion;;2017;S,MYVRKASS00000507,M,MYVRKASS00000508,L,MYVRKASS00000509,XL,MYVRKASS00000510,XXL,MYVRKASS00000511;3999.00;;;<p>Dry Wash,Silk Blended</p>;;;;;zerotype;;Spring;;No
2045449;S952611-328-XXL-Yellow-2045449;Manyavar Men's Yellow Kurta & Pyjama;Draft;Kurta Sets;Manyavar;Adults-Men;Men;Yellow;;;Fashion;;2017;S,MYVRKASS00000502,M,MYVRKASS00000503,L,MYVRKASS00000504,XL,MYVRKASS00000505,XXL,MYVRKASS00000506;1999.00;;;<p>Dry Wash,Silk Blended</p>;;;;;zerotype;;Spring;;No
2045448;S952536-326-XXL-Blue-2045448;Manyavar Men's Blue Kurta & Pyjama;Draft;Kurta Sets;Manyavar;Adults-Men;Men;Blue;;;Fashion;;2017;S,MYVRKASS00000497,M,MYVRKASS00000498,L,MYVRKASS00000499,XL,MYVRKASS00000500,XXL,MYVRKASS00000501;2999.00;;;<p>Dry Wash,Silk Blended</p>;;;;;zerotype;;Spring;;No
2045425;S952363-320-XXL-Gold-2045425;Manyavar Men's Gold Kurta & Pyjama;Draft;Kurta Sets;Manyavar;Adults-Men;Men;Gold;;;Fashion;;2017;S,MYVRKASS00000492,M,MYVRKASS00000493,L,MYVRKASS00000494,XL,MYVRKASS00000495,XXL,MYVRKASS00000496;4999.00;;;<p>Dry Wash,Silk Blended</p>;;;;;zerotype;;Spring;;No
2045399;JAST032-309-XXL-Grey-2045399;Manyavar Men's Grey Kurta,Pyjama & Jacket;Draft;Kurta Sets;Manyavar;Adults-Men;Men;Grey;;;Fashion;;2017;S,MYVRKASS00000487,M,MYVRKASS00000488,L,MYVRKASS00000489,XL,MYVRKASS00000490,XXL,MYVRKASS00000491;6999.00;;;<p>Dry Wash,Silk Blended</p>;;;;;zerotype;;Spring;;No
2045370;JAST027-306-XXL-Blue-2045370;Manyavar Men's Blue Kurta,Pyjama & Jacket;Draft;Kurta Sets;Manyavar;Adults-Men;Men;Blue;;;Fashion;;2017;S,MYVRKASS00000482,M,MYVRKASS00000483,L,MYVRKASS00000484,XL,MYVRKASS00000485,XXL,MYVRKASS00000486;6999.00;;;<p>Dry Wash,Silk Blended</p>;;;;;zerotype;;Spring;;No
2045333;S952575-324-XXL-Gold-2045333;Manyavar Men's Gold Kurta & Pyjama;Draft;Kurta Sets;Manyavar;Adults-Men;Men;Gold;;;Fashion;;2017;S,MYVRKASS00000477,M,MYVRKASS00000478,L,MYVRKASS00000479,XL,MYVRKASS00000480,XXL,MYVRKASS00000481;2999.00;;;<p>Dry Wash,Silk Blended</p>;;;;;zerotype;;Spring;;No
2045312;S952363-307-XXL-Maroon-2045312;Manyavar Men's Maroon Kurta & Pyjama;Draft;Kurta Sets;Manyavar;Adults-Men;Men;Maroon;;;Fashion;;2017;S,MYVRKASS00000472,M,MYVRKASS00000473,L,MYVRKASS00000474,XL,MYVRKASS00000475,XXL,MYVRKASS00000476;4999.00;;;<p>Dry Wash,Silk Blended</p>;;;;;zerotype;;Spring;;No
2045311;M318037-106-XXL-Black-2045311;Manyavar Checkered Men's Black Kurta & Pyjama;Draft;Kurta Sets;Manyavar;Adults-Men;Men;Black;;;Fashion;;2017;S,MYVRKASS00000467,M,MYVRKASS00000468,L,MYVRKASS00000469,XL,MYVRKASS00000470,XXL,MYVRKASS00000471;2999.00;;;<p>Dry Wash,Silk Blended</p>;;;;;zerotype;;Spring;;No
2045264;M318037-101-XXL-White-2045264;Manyavar Men's Checks White Kurta & Pyjama;Draft;Kurta Sets;Manyavar;Adults-Men;Men;White;;;Fashion;;2017;S,MYVRKASS00000462,M,MYVRKASS00000463,L,MYVRKASS00000464,XL,MYVRKASS00000465,XXL,MYVRKASS00000466;2999.00;;;<p>Dry Wash,Silk Blended</p>;;;;;zerotype;;Spring;;No
2045262;M302191-327-XXL-Green-2045262;Manyavar Men's Green Kurta & Pyjama;Draft;Kurta Sets;Manyavar;Adults-Men;Men;Green;;;Fashion;;2017;S,MYVRKASS00000457,M,MYVRKASS00000458,L,MYVRKASS00000459,XL,MYVRKASS00000460,XXL,MYVRKASS00000461;1699.00;;;<p>Dry Wash,Silk Blended</p>;;;;;zerotype;;Spring;;No
2045261;M302190-341-XXL-Blue-2045261;Manyavar Men's Checks Sky Blue Kurta & Pyjama;Draft;Kurta Sets;Manyavar;Adults-Men;Men;Blue;;;Fashion;;2017;S,MYVRKASS00000452,M,MYVRKASS00000453,L,MYVRKASS00000454,XL,MYVRKASS00000455,XXL,MYVRKASS00000456;1699.00;;;<p>Dry Wash,Silk Blended</p>;;;;;zerotype;;Spring;;No
2045259;M302190-324-XXL-Beige-2045259;Manyavar Men's Beige Kurta & Pyjama;Draft;Kurta Sets;Manyavar;Adults-Men;Men;Beige;;;Fashion;;2017;S,MYVRKASS00000447,M,MYVRKASS00000448,L,MYVRKASS00000449,XL,MYVRKASS00000450,XXL,MYVRKASS00000451;1699.00;;;<p>Dry Wash,Silk Blended</p>;;;;;zerotype;;Spring;;No
2045258;M301072-326-XXL-Blue-2045258;Manyavar Men's Aqua Kurta & Pyjama;Draft;Kurta Sets;Manyavar;Adults-Men;Men;Blue;;;Fashion;;2017;S,MYVRKASS00000442,M,MYVRKASS00000443,L,MYVRKASS00000444,XL,MYVRKASS00000445,XXL,MYVRKASS00000446;2499.00;;;<p>Dry Wash,Silk Blended</p>;;;;;zerotype;;Spring;;No
2045257;M301072-307-XXL-Maroon-2045257;Manyavar Men's Maroon Kurta & Pyjama;Draft;Kurta Sets;Manyavar;Adults-Men;Men;Maroon;;;Fashion;;2017;S,MYVRKASS00000437,M,MYVRKASS00000438,L,MYVRKASS00000439,XL,MYVRKASS00000440,XXL,MYVRKASS00000441;2499.00;;;<p>Dry Wash,Silk Blended</p>;;;;;zerotype;;Spring;;No
2045256;JAST033-306-XXL-Blue-2045256;Manyavar Men's Blue Traditional Kurta,Pyjama;Draft;Kurta Sets;Manyavar;Adults-Men;Men;Blue;;;Fashion;;2017;S,MYVRKASS00000432,M,MYVRKASS00000433,L,MYVRKASS00000434,XL,MYVRKASS00000435,XXL,MYVRKASS00000436;6999.00;;;<p>Dry Wash,Silk Blended</p>;;;;;zerotype;;Spring;;No
2045255;JAST024-303-XXL-Beige-2045255;Manyavar Men's Classic Beige  Kurta,Pyjama &;Draft;Kurta Sets;Manyavar;Adults-Men;Men;Beige;;;Fashion;;2017;S,MYVRKASS00000427,M,MYVRKASS00000428,L,MYVRKASS00000429,XL,MYVRKASS00000430,XXL,MYVRKASS00000431;6999.00;;;<p>Dry Wash,Silk Blended</p>;;;;;zerotype;;Spring;;No
