Style ID;Vendor Article Number;Vendor Article Name;Active Status;Article type;Brand;Age Group;Gender;Base Colour;Colour1;Colour2;Fashion Type;Usage;Year;Size - SKU code pair;MRP;Style Description;Style Note;Materials and Care Description;Size and Fit Description;Size Chart Path;Product Display Name;Tags;Product Type;Classification Brand;Season;Comments;Upload Images
1813814;S17XWT009A-RED-Red-1813814;Off Shoulder Crop Top;Draft;Tops;Globus;Adults-Women;Women;;;;Fashion;;2017;XS,GLBSTOPS00005438,S,GLBSTOPS00005439,M,GLBSTOPS00005440,L,GLBSTOPS00005441;999.00;;;;;;;;zerotype;;Spring;;No
1813813;S17XWT009-BLACK-Black-1813813;Off Shoulder Crop Top;Draft;Tops;Globus;Adults-Women;Women;;;;Fashion;;2017;XS,GLBSTOPS00005434,S,GLBSTOPS00005435,M,GLBSTOPS00005436,L,GLBSTOPS00005437;999.00;;;;;;;;zerotype;;Spring;;No
1813812;S17XWT061-NAVY-Navy Blue-1813812;Floral Off Shoulder Top;Draft;Tops;Globus;Adults-Women;Women;;;;Fashion;;2017;XS,GLBSTOPS00005430,S,GLBSTOPS00005431,M,GLBSTOPS00005432,L,GLBSTOPS00005433;999.00;;;;;;;;zerotype;;Spring;;No
1813809;S17CWT059-IVORY-Cream-1813809;Cold Shoulder Top;Draft;Tops;Globus;Adults-Women;Women;;;;Fashion;;2017;XS,GLBSTOPS00005417,S,GLBSTOPS00005418,M,GLBSTOPS00005419,L,GLBSTOPS00005420,XL,GLBSTOPS00005421;899.00;;;;;;;;zerotype;;Spring;;No
1813808;S17CWT185-WHITE-White-1813808;Epaulette Woven Blouse;Draft;Tops;Globus;Adults-Women;Women;;;;Fashion;;2017;XS,GLBSTOPS00005412,S,GLBSTOPS00005413,M,GLBSTOPS00005414,L,GLBSTOPS00005415,XL,GLBSTOPS00005416;1199.00;;;;;;;;zerotype;;Spring;;No
1813807;S17CWT185B-BLACK-Black-1813807;Epaulette Woven Blouse;Draft;Tops;Globus;Adults-Women;Women;;;;Fashion;;2017;XS,GLBSTOPS00005407,S,GLBSTOPS00005408,M,GLBSTOPS00005409,L,GLBSTOPS00005410,XL,GLBSTOPS00005411;1199.00;;;;;;;;zerotype;;Spring;;No
1813806;S17CWT185C-NAVY-Navy Blue-1813806;Epaulette Woven Blouse;Draft;Tops;Globus;Adults-Women;Women;;;;Fashion;;2017;XS,GLBSTOPS00005402,S,GLBSTOPS00005403,M,GLBSTOPS00005404,L,GLBSTOPS00005405,XL,GLBSTOPS00005406;1199.00;;;;;;;;zerotype;;Spring;;No
1813805;S17CWT071A-NAVY-Navy Blue-1813805;Trumpet Slv Jersey Top;Draft;Tops;Globus;Adults-Women;Women;;;;Fashion;;2017;XS,GLBSTOPS00005397,S,GLBSTOPS00005398,M,GLBSTOPS00005399,L,GLBSTOPS00005400,XL,GLBSTOPS00005401;999.00;;;;;;;;zerotype;;Spring;;No
1813804;S17CWT069-GREEN-Green-1813804;Off Shoulder Boxy Top;Draft;Tops;Globus;Adults-Women;Women;;;;Fashion;;2017;XS,GLBSTOPS00005392,S,GLBSTOPS00005393,M,GLBSTOPS00005394,L,GLBSTOPS00005395,XL,GLBSTOPS00005396;1199.00;;;;;;;;zerotype;;Spring;;No
1813803;S17CWT069A-BLACK-Black-1813803;Off Shoulder Boxy Top;Draft;Tops;Globus;Adults-Women;Women;;;;Fashion;;2017;XS,GLBSTOPS00005387,S,GLBSTOPS00005388,M,GLBSTOPS00005389,L,GLBSTOPS00005390,XL,GLBSTOPS00005391;1199.00;;;;;;;;zerotype;;Spring;;No
1813802;S17XWT046-IVORY-Cream-1813802;Off Shoulder Tie Up Sleeves Top;Draft;Tops;Globus;Adults-Women;Women;;;;Fashion;;2017;XS,GLBSTOPS00005383,S,GLBSTOPS00005384,M,GLBSTOPS00005385,L,GLBSTOPS00005386;999.00;;;;;;;;zerotype;;Spring;;No
1813801;S17XWT044-IVORY-Cream-1813801;Cropped High Low Top;Draft;Tops;Globus;Adults-Women;Women;;;;Fashion;;2017;XS,GLBSTOPS00005379,S,GLBSTOPS00005380,M,GLBSTOPS00005381,L,GLBSTOPS00005382;999.00;;;;;;;;zerotype;;Spring;;No
1813799;S17CWT024A-BLACK-Black-1813799;Bell Slv Lace Panel Round Neck Top;Draft;Tops;Globus;Adults-Women;Women;;;;Fashion;;2017;XS,GLBSTOPS00005369,S,GLBSTOPS00005370,M,GLBSTOPS00005371,L,GLBSTOPS00005372,XL,GLBSTOPS00005373;1199.00;;;;;;;;zerotype;;Spring;;No
1813797;S17XWT035-NAVY-Navy Blue-1813797;Cropped Top With Flare Sleeves;Draft;Tops;Globus;Adults-Women;Women;;;;Fashion;;2017;XS,GLBSTOPS00005361,S,GLBSTOPS00005362,M,GLBSTOPS00005363,L,GLBSTOPS00005364;999.00;;;;;;;;zerotype;;Spring;;No
1813796;S17CWT022A-IVORY-Cream-1813796;Short Slv Round Neck Blouse;Draft;Tops;Globus;Adults-Women;Women;;;;Fashion;;2017;XS,GLBSTOPS00005356,S,GLBSTOPS00005357,M,GLBSTOPS00005358,L,GLBSTOPS00005359,XL,GLBSTOPS00005360;1199.00;;;;;;;;zerotype;;Spring;;No
1813795;S17CWT022-NAVY-Navy Blue-1813795;Short Slv Round Neck Blouse;Draft;Tops;Globus;Adults-Women;Women;;;;Fashion;;2017;XS,GLBSTOPS00005351,S,GLBSTOPS00005352,M,GLBSTOPS00005353,L,GLBSTOPS00005354,XL,GLBSTOPS00005355;1199.00;;;;;;;;zerotype;;Spring;;No
1813794;S17XWT074A-OFFWHITE-Off White-1813794;Boxy Schiffly Top;Draft;Tops;Globus;Adults-Women;Women;;;;Fashion;;2017;XS,GLBSTOPS00005347,S,GLBSTOPS00005348,M,GLBSTOPS00005349,L,GLBSTOPS00005350;799.00;;;;;;;;zerotype;;Spring;;No
1813793;S17XWT032-MULTICOLOUR-Multi-1813793;Patchwork Print Boxy Top;Draft;Tops;Globus;Adults-Women;Women;;;;Fashion;;2017;XS,GLBSTOPS00005343,S,GLBSTOPS00005344,M,GLBSTOPS00005345,L,GLBSTOPS00005346;799.00;;;;;;;;zerotype;;Spring;;No
1813791;S17XWT066-IVORY-Cream-1813791;Asymmetric Knit Top With Eyelash Graphic;Draft;Tops;Globus;Adults-Women;Women;;;;Fashion;;2017;XS,GLBSTOPS00005333,S,GLBSTOPS00005334,M,GLBSTOPS00005335,L,GLBSTOPS00005336,XL,GLBSTOPS00005337;999.00;;;;;;;;zerotype;;Spring;;No
1813790;S17CWT027-PINK-Pink-1813790;Batwing Slvs Knit Top;Draft;Tops;Globus;Adults-Women;Women;;;;Fashion;;2017;XS,GLBSTOPS00005328,S,GLBSTOPS00005329,M,GLBSTOPS00005330,L,GLBSTOPS00005331,XL,GLBSTOPS00005332;999.00;;;;;;;;zerotype;;Spring;;No
1813789;S17CWT036-RED-Red-1813789;Cut N Sew Draped Top;Draft;Tops;Globus;Adults-Women;Women;;;;Fashion;;2017;XS,GLBSTOPS00005323,S,GLBSTOPS00005324,M,GLBSTOPS00005325,L,GLBSTOPS00005326,XL,GLBSTOPS00005327;1299.00;;;;;;;;zerotype;;Spring;;No
1813788;S17CWT036B-BLACK-Black-1813788;Cut N Sew Draped Top;Draft;Tops;Globus;Adults-Women;Women;;;;Fashion;;2017;XS,GLBSTOPS00005318,S,GLBSTOPS00005319,M,GLBSTOPS00005320,L,GLBSTOPS00005321,XL,GLBSTOPS00005322;1299.00;;;;;;;;zerotype;;Spring;;No
1813786;S17XWT001-SILVER-Silver-1813786;Lurex Crop;Draft;Tops;Globus;Adults-Women;Women;;;;Fashion;;2017;XS,GLBSTOPS00005309,S,GLBSTOPS00005310,M,GLBSTOPS00005311,L,GLBSTOPS00005312;599.00;;;;;;;;zerotype;;Spring;;No
1813785;S17XWT018-BLUE-Blue-1813785;Flared Cold Shoulder Bell Slv Top;Draft;Tops;Globus;Adults-Women;Women;;;;Fashion;;2017;XS,GLBSTOPS00005305,S,GLBSTOPS00005306,M,GLBSTOPS00005307,L,GLBSTOPS00005308;999.00;;;;;;;;zerotype;;Spring;;No
1813784;S17CWT047-RED-Red-1813784;Y-Neck Tunic;Draft;Tops;Globus;Adults-Women;Women;;;;Fashion;;2017;XS,GLBSTOPS00005300,S,GLBSTOPS00005301,M,GLBSTOPS00005302,L,GLBSTOPS00005303,XL,GLBSTOPS00005304;1199.00;;;;;;;;zerotype;;Spring;;No
1813777;S17CWT296-NAVY-Navy Blue-1813777;Mandarin Collar Full Slv Shirt;Draft;Shirts;Globus;Adults-Women;Women;;;;Fashion;;2017;XS,GLBSSHRT00002639,S,GLBSSHRT00002640,M,GLBSSHRT00002641,L,GLBSSHRT00002642,XL,GLBSSHRT00002643;999.00;;;;;;;;zerotype;;Spring;;No
1813774;S17CWT038A-RED-Red-1813774;Pleated Clean Line Shirt;Draft;Shirts;Globus;Adults-Women;Women;;;;Fashion;;2017;XS,GLBSSHRT00002625,S,GLBSSHRT00002626,M,GLBSSHRT00002627,L,GLBSSHRT00002628,XL,GLBSSHRT00002629;1499.00;;;;;;;;zerotype;;Spring;;No
1813773;S17CWT038-BLACK-Black-1813773;Pleated Clean Line Shirt;Draft;Shirts;Globus;Adults-Women;Women;;;;Fashion;;2017;XS,GLBSSHRT00002620,S,GLBSSHRT00002621,M,GLBSSHRT00002622,L,GLBSSHRT00002623,XL,GLBSSHRT00002624;1499.00;;;;;;;;zerotype;;Spring;;No
1813772;S17CWT037-BLACK-Black-1813772;Full Length Slv Shirt;Draft;Shirts;Globus;Adults-Women;Women;;;;Fashion;;2017;XS,GLBSSHRT00002615,S,GLBSSHRT00002616,M,GLBSSHRT00002617,L,GLBSSHRT00002618,XL,GLBSSHRT00002619;1199.00;;;;;;;;zerotype;;Spring;;No
1813771;S17CWT055-NAVY-Navy Blue-1813771;Border Print Kimono Shrug;Draft;Shrug;Globus;Adults-Women;Women;;;;Fashion;;2017;XS,GLBSSHRG00000257,S,GLBSSHRG00000258,M,GLBSSHRG00000259,L,GLBSSHRG00000260;1499.00;;;;;;;;zerotype;;Spring;;No
