Style ID;Vendor Article Number;Vendor Article Name;Active Status;Article type;Brand;Age Group;Gender;Base Colour;Colour1;Colour2;Fashion Type;Usage;Year;Size - SKU code pair;MRP;Style Description;Style Note;Materials and Care Description;Size and Fit Description;Size Chart Path;Product Display Name;Tags;Product Type;Classification Brand;Season;Comments;Upload Images
4444378;RR009A-NAVY BLUE-4444378;RR009A;Draft;Kurtas;RARE ROOTS;Adults-Women;Women;Navy Blue;;;Fashion;Ethnic;2018;S,ROOTKRTA00000114,M,ROOTKRTA00000115,L,ROOTKRTA00000116,XL,ROOTKRTA00000117,XXL,ROOTKRTA00000118;1199.00;;;<p>Hand Wash in Cold Water. Dry in Shade for Lasting Color.</p>;;;na;;zerotype;;Spring;;No
4444377;RR083A-OFF WHITE-4444377;RR083A;Draft;Kurtas;RARE ROOTS;Adults-Women;Women;Off White;Maroon;;Fashion;Ethnic;2018;S,ROOTKRTA00000109,M,ROOTKRTA00000110,L,ROOTKRTA00000111,XL,ROOTKRTA00000112,XXL,ROOTKRTA00000113;2099.00;;;<p>Hand Wash in Cold Water. Dry in Shade for Lasting Color.</p>;;;na;;zerotype;;Spring;;No
4444376;RR281A-PINK-4444376;RR281A;Draft;Kurtas;RARE ROOTS;Adults-Women;Women;Pink;;;Fashion;Ethnic;2018;S,ROOTKRTA00000104,M,ROOTKRTA00000105,L,ROOTKRTA00000106,XL,ROOTKRTA00000107,XXL,ROOTKRTA00000108;1399.00;;;<p>Hand Wash in Cold Water. Dry in Shade for Lasting Color.</p>;;;na;;zerotype;;Spring;;No
4444375;RR266B-RED-4444375;RR266B;Draft;Kurtas;RARE ROOTS;Adults-Women;Women;Red;;;Fashion;Ethnic;2018;S,ROOTKRTA00000099,M,ROOTKRTA00000100,L,ROOTKRTA00000101,XL,ROOTKRTA00000102,XXL,ROOTKRTA00000103;1299.00;;;<p>Hand Wash in Cold Water. Dry in Shade for Lasting Color.</p>;;;na;;zerotype;;Spring;;No
4444374;RR134-PEACH-4444374;RR134;Draft;Kurtas;RARE ROOTS;Adults-Women;Women;Peach;;;Fashion;Ethnic;2018;S,ROOTKRTA00000094,M,ROOTKRTA00000095,L,ROOTKRTA00000096,XL,ROOTKRTA00000097,XXL,ROOTKRTA00000098;1499.00;;;<p>Hand Wash in Cold Water. Dry in Shade for Lasting Color.</p>;;;na;;zerotype;;Spring;;No
4444373;RR134A-BLUE-4444373;RR134A;Draft;Kurtas;RARE ROOTS;Adults-Women;Women;Blue;;;Fashion;Ethnic;2018;S,ROOTKRTA00000089,M,ROOTKRTA00000090,L,ROOTKRTA00000091,XL,ROOTKRTA00000092,XXL,ROOTKRTA00000093;1499.00;;;<p>Hand Wash in Cold Water. Dry in Shade for Lasting Color.</p>;;;na;;zerotype;;Spring;;No
4444372;RR266-NAVY BLUE-4444372;RR266;Draft;Kurtas;RARE ROOTS;Adults-Women;Women;Navy Blue;White;;Fashion;Ethnic;2018;S,ROOTKRTA00000084,M,ROOTKRTA00000085,L,ROOTKRTA00000086,XL,ROOTKRTA00000087,XXL,ROOTKRTA00000088;1299.00;;;<p>Hand Wash in Cold Water. Dry in Shade for Lasting Color.</p>;;;na;;zerotype;;Spring;;No
4444371;RR315-White-4444371;RR315;Draft;Kurtas;RARE ROOTS;Adults-Women;Women;White;Blue;;Fashion;Ethnic;2018;S,ROOTKRTA00000079,M,ROOTKRTA00000080,L,ROOTKRTA00000081,XL,ROOTKRTA00000082,XXL,ROOTKRTA00000083;999.00;;;<p>Hand Wash in Cold Water. Dry in Shade for Lasting Color.</p>;;;na;;zerotype;;Spring;;No
4444370;RR094-MULTI-4444370;RR094;Draft;Kurtas;RARE ROOTS;Adults-Women;Women;Navy Blue;Maroon;;Fashion;Ethnic;2018;S,ROOTKRTA00000074,M,ROOTKRTA00000075,L,ROOTKRTA00000076,XL,ROOTKRTA00000077,XXL,ROOTKRTA00000078;1699.00;;;<p>Hand Wash in Cold Water. Dry in Shade for Lasting Color.</p>;;;na;;zerotype;;Spring;;No
4444368;RR411-PINK-4444368;RR411;Draft;Kurtas;RARE ROOTS;Adults-Women;Women;Pink;;;Fashion;Ethnic;2018;S,ROOTKRTA00000069,M,ROOTKRTA00000070,L,ROOTKRTA00000071,XL,ROOTKRTA00000072,XXL,ROOTKRTA00000073;1599.00;;;<p>Hand Wash in Cold Water. Dry in Shade for Lasting Color.</p>;;;na;;zerotype;;Spring;;No
4444367;RR266A-BROWN-4444367;RR266A;Draft;Kurtas;RARE ROOTS;Adults-Women;Women;Rust;;;Fashion;Ethnic;2018;S,ROOTKRTA00000064,M,ROOTKRTA00000065,L,ROOTKRTA00000066,XL,ROOTKRTA00000067,XXL,ROOTKRTA00000068;1299.00;;;<p>Hand Wash in Cold Water. Dry in Shade for Lasting Color.</p>;;;na;;zerotype;;Spring;;No
4444366;RR202A-NAVY BLUE-4444366;RR202A;Draft;Kurtas;RARE ROOTS;Adults-Women;Women;Maroon;Navy Blue;;Fashion;Ethnic;2018;S,ROOTKRTA00000059,M,ROOTKRTA00000060,L,ROOTKRTA00000061,XL,ROOTKRTA00000062,XXL,ROOTKRTA00000063;1199.00;;;<p>Hand Wash in Cold Water. Dry in Shade for Lasting Color.</p>;;;na;;zerotype;;Spring;;No
4444365;RR315A-White-4444365;RR315A;Draft;Kurtas;RARE ROOTS;Adults-Women;Women;White;Pink;;Fashion;Ethnic;2018;S,ROOTKRTA00000054,M,ROOTKRTA00000055,L,ROOTKRTA00000056,XL,ROOTKRTA00000057,XXL,ROOTKRTA00000058;999.00;;;<p>Hand Wash in Cold Water. Dry in Shade for Lasting Color.</p>;;;na;;zerotype;;Spring;;No
4444364;RR134B-WINE-4444364;RR134B;Draft;Kurtas;RARE ROOTS;Adults-Women;Women;Maroon;;;Fashion;Ethnic;2018;S,ROOTKRTA00000049,M,ROOTKRTA00000050,L,ROOTKRTA00000051,XL,ROOTKRTA00000052,XXL,ROOTKRTA00000053;1499.00;;;<p>Hand Wash in Cold Water. Dry in Shade for Lasting Color.</p>;;;na;;zerotype;;Spring;;No
4444363;RR401-BLUE-4444363;RR401;Draft;Tops;RARE ROOTS;Adults-Women;Women;Blue;;;Fashion;Ethnic;2018;XXL,ROOTTOPS00000086,XL,ROOTTOPS00000087,L,ROOTTOPS00000088,S,ROOTTOPS00000089,M,ROOTTOPS00000090;999.00;;;<p>Hand Wash in Cold Water. Dry in Shade for Lasting Color.</p>;;;na;;zerotype;;Spring;;No
4444362;RR401A-BLACK-4444362;RR401A;Draft;Tops;RARE ROOTS;Adults-Women;Women;Black;;;Fashion;Ethnic;2018;XXL,ROOTTOPS00000081,XL,ROOTTOPS00000082,L,ROOTTOPS00000083,M,ROOTTOPS00000084,S,ROOTTOPS00000085;999.00;;;<p>Hand Wash in Cold Water. Dry in Shade for Lasting Color.</p>;;;na;;zerotype;;Spring;;No
4444361;RR1004A-BLUE-4444361;RR1004A;Draft;Tops;RARE ROOTS;Adults-Women;Women;Blue;;;Fashion;Ethnic;2018;S,ROOTTOPS00000077,M,ROOTTOPS00000078,L,ROOTTOPS00000079,XL,ROOTTOPS00000080;1199.00;;;<p>Hand Wash in Cold Water. Dry in Shade for Lasting Color.</p>;;;na;;zerotype;;Spring;;No
4444360;RR440-Mustard-4444360;RR440;Draft;Tunics;RARE ROOTS;Adults-Women;Women;Mustard;;;Fashion;Ethnic;2018;XXL,ROOTTNIC00000011,XL,ROOTTNIC00000012,L,ROOTTNIC00000013,M,ROOTTNIC00000014,S,ROOTTNIC00000015;1599.00;;;<p>Hand Wash in Cold Water. Dry in Shade for Lasting Color.</p>;;;na;;zerotype;;Spring;;No
4444359;RR366-PINK-4444359;RR366;Draft;Dresses;RARE ROOTS;Adults-Women;Women;Pink;;;Fashion;Ethnic;2018;S,ROOTDRSS00000151,M,ROOTDRSS00000152,L,ROOTDRSS00000153,XL,ROOTDRSS00000154,XXL,ROOTDRSS00000155;1499.00;;;<p>Hand Wash in Cold Water. Dry in Shade for Lasting Color.</p>;;;na;;zerotype;;Spring;;No
