Style ID;Vendor Article Number;Vendor Article Name;Active Status;Article type;Brand;Age Group;Gender;Base Colour;Colour1;Colour2;Fashion Type;Usage;Year;Size - SKU code pair;MRP;Style Description;Style Note;Materials and Care Description;Size and Fit Description;Size Chart Path;Product Display Name;Tags;Product Type;Classification Brand;Season;Comments;Upload Images
2169837;151246516958 C105-White-2169837;HC MONTY SWT C105;Draft;Sweatshirts;Gini and Jony;Kids-Boys;Boys;White;;;Fashion;Casual;2017;12M-18M,GNJNSWSH00001340,18M-24M,GNJNSWSH00001341,9M-12M,GNJNSWSH00001344;999.00;<p>SWEAT SHIRT FULL SLEEVES</p>;;<p>Machine wash</p>;;;;;zerotype;;Winter;;No
2169835;151246516958 C105-White-2169835;HC MONTY SWT C105;Draft;Sweatshirts;Gini and Jony;Kids-Boys;Boys;White;;;Fashion;Casual;2017;0M-3M,GNJNSWSH00001339,3M-6M,GNJNSWSH00001342,6M-9M,GNJNSWSH00001343;899.00;<p>SWEAT SHIRT FULL SLEEVES</p>;;<p>Machine wash</p>;;;;;zerotype;;Winter;;No
2169833;151246516397 6000-Blue-2169833;MI ISA SWT 6000;Draft;Sweatshirts;Gini and Jony;Kids-Girls;Girls;Blue;;;Fashion;Casual;2017;12M-18M,GNJNSWSH00001334,18M-24M,GNJNSWSH00001335,9M-12M,GNJNSWSH00001338;699.00;<p>SWEAT SHIRT FULL SLEEVES</p>;;<p>Machine wash</p>;;;;;zerotype;;Winter;;No
2169832;151246516397 6000-Blue-2169832;MI ISA SWT 6000;Draft;Sweatshirts;Gini and Jony;Kids-Girls;Girls;Blue;;;Fashion;Casual;2017;0M-3M,GNJNSWSH00001333,3M-6M,GNJNSWSH00001336,6M-9M,GNJNSWSH00001337;599.00;<p>SWEAT SHIRT FULL SLEEVES</p>;;<p>Machine wash</p>;;;;;zerotype;;Winter;;No
2169831;151246516397 5000-Blue-2169831;MI ISA SWT 5000;Draft;Sweatshirts;Gini and Jony;Kids-Girls;Girls;Blue;;;Fashion;Casual;2017;12M-18M,GNJNSWSH00001328,18M-24M,GNJNSWSH00001329,9M-12M,GNJNSWSH00001332;699.00;<p>SWEAT SHIRT FULL SLEEVES</p>;;<p>Machine wash</p>;;;;;zerotype;;Winter;;No
2169830;151246516397 5000-Blue-2169830;MI ISA SWT 5000;Draft;Sweatshirts;Gini and Jony;Kids-Girls;Girls;Blue;;;Fashion;Casual;2017;0M-3M,GNJNSWSH00001327,3M-6M,GNJNSWSH00001330,6M-9M,GNJNSWSH00001331;599.00;<p>SWEAT SHIRT FULL SLEEVES</p>;;<p>Machine wash</p>;;;;;zerotype;;Winter;;No
2169829;151246516365 C458-Red-2169829;CR CRAIG SWT C458;Draft;Sweatshirts;Gini and Jony;Kids-Boys;Boys;Red;;;Fashion;Casual;2017;12M-18M,GNJNSWSH00001322,18M-24M,GNJNSWSH00001323,9M-12M,GNJNSWSH00001326;799.00;<p>SWEAT SHIRT FULL SLEEVES</p>;;<p>Machine wash</p>;;;;;zerotype;;Winter;;No
2169828;151246516365 C458-Red-2169828;CR CRAIG SWT C458;Draft;Sweatshirts;Gini and Jony;Kids-Boys;Boys;Red;;;Fashion;Casual;2017;0M-3M,GNJNSWSH00001321,3M-6M,GNJNSWSH00001324,6M-9M,GNJNSWSH00001325;699.00;<p>SWEAT SHIRT FULL SLEEVES</p>;;<p>Machine wash</p>;;;;;zerotype;;Winter;;No
2169827;151246516365 C204-Grey-2169827;CR CRAIG SWT C204;Draft;Sweatshirts;Gini and Jony;Kids-Boys;Boys;Grey;;;Fashion;Casual;2017;12M-18M,GNJNSWSH00001316,18M-24M,GNJNSWSH00001317,9M-12M,GNJNSWSH00001320;799.00;<p>SWEAT SHIRT FULL SLEEVES</p>;;<p>Machine wash</p>;;;;;zerotype;;Winter;;No
2169826;151246516365 C204-Grey-2169826;CR CRAIG SWT C204;Draft;Sweatshirts;Gini and Jony;Kids-Boys;Boys;Grey;;;Fashion;Casual;2017;0M-3M,GNJNSWSH00001315,3M-6M,GNJNSWSH00001318,6M-9M,GNJNSWSH00001319;699.00;<p>SWEAT SHIRT FULL SLEEVES</p>;;<p>Machine wash</p>;;;;;zerotype;;Winter;;No
