Style ID;Vendor Article Number;Vendor Article Name;Active Status;Article type;Brand;Age Group;Gender;Base Colour;Colour1;Colour2;Fashion Type;Usage;Year;Size - SKU code pair;MRP;Style Description;Style Note;Materials and Care Description;Size and Fit Description;Size Chart Path;Product Display Name;Tags;Product Type;Classification Brand;Season;Comments;Upload Images
4380718;CT-CHARLES-16-AAN019931-AAN019931-4380718;CT-CHARLES-16-AAN019931;Draft;Trousers;Theme;Adults-Men;Men;Blue;;;Fashion;;2017;32,THMETRSR00000823,34,THMETRSR00000824,36,THMETRSR00000825,38,THMETRSR00000826;2495.00;;;<p>Machine Wash Cold with Like Colours, Maybe Tumble Dried, Warm Iron if needed</p>;;;;64% Polyester 34% Viscose 2% Elasthane;zerotype;;Winter;;No
4380717;CT-JOSEPH-16-AAN019821-AAN019821-4380717;CT-JOSEPH-16-AAN019821;Draft;Trousers;Theme;Adults-Men;Men;Blue;;;Fashion;;2017;32,THMETRSR00000819,34,THMETRSR00000820,36,THMETRSR00000821,38,THMETRSR00000822;1895.00;;;<p>Machine Wash Cold with Like Colours, Maybe Tumble Dried, Warm Iron if needed</p>;;;;75% Polyester 21% Viscose 4% Elasthane;zerotype;;Winter;;No
4380716;CT-ALBERT-16-AAN019632-AAN019632-4380716;CT-ALBERT-16-AAN019632;Draft;Trousers;Theme;Adults-Men;Men;Black;;;Fashion;;2017;32,THMETRSR00000815,34,THMETRSR00000816,36,THMETRSR00000817,38,THMETRSR00000818;2195.00;;;<p>Machine Wash Cold with Like Colours, Maybe Tumble Dried, Warm Iron if needed</p>;;;;83% polyester 15% Viscose 2% Elasthane;zerotype;;Winter;;No
4380715;CT-CASPER-16-AAN019522-AAN019522-4380715;CT-CASPER-16-AAN019522;Draft;Trousers;Theme;Adults-Men;Men;Black;;;Fashion;;2017;32,THMETRSR00000811,34,THMETRSR00000812,36,THMETRSR00000813,38,THMETRSR00000814;2195.00;;;<p>Machine Wash Cold with Like Colours, Maybe Tumble Dried, Warm Iron if needed</p>;;;;76% Polyester 21% Viscose 3% Elasthane;zerotype;;Winter;;No
4380714;PT-ARIA-16-032763221-032763221-4380714;PT-ARIA-16-032763221;Draft;Trousers;Theme;Adults-Men;Men;Blue;;;Fashion;;2017;30,THMETRSR00000807,32,THMETRSR00000808,34,THMETRSR00000809,36,THMETRSR00000810;1895.00;;;<p>Machine Wash Cold with Like Colours, Maybe Tumble Dried, Warm Iron if needed</p>;;;;80% Terelene 20% Rayon;zerotype;;Winter;;No
4380713;CT-VESPER-16-033643821-033643821-4380713;CT-VESPER-16-033643821;Draft;Trousers;Theme;Adults-Men;Men;Blue;;;Fashion;;2017;30,THMETRSR00000803,32,THMETRSR00000804,34,THMETRSR00000805,36,THMETRSR00000806;2095.00;;;<p>Machine Wash Cold with Like Colours, Maybe Tumble Dried, Warm Iron if needed</p>;;;;80% Terelene 20% Rayon;zerotype;;Winter;;No
4380712;CT-CELEBRITY-16-032744027-032744027-4380712;CT-CELEBRITY-16-032744027;Draft;Trousers;Theme;Adults-Men;Men;Maroon;;;Fashion;;2017;30,THMETRSR00000799,32,THMETRSR00000800,34,THMETRSR00000801,36,THMETRSR00000802;2195.00;;;<p>Machine Wash Cold with Like Colours, Maybe Tumble Dried, Warm Iron if needed</p>;;;;80% Terelene 20% Rayon;zerotype;;Winter;;No
4380710;SL-LUPUS-16-AAG002321-AAG002321-4380710;SL-LUPUS-16-AAG002321;Draft;Trousers;Theme;Adults-Men;Men;Blue;;;Fashion;;2017;30,THMETRSR00000794,32,THMETRSR00000795,34,THMETRSR00000796;2195.00;;;<p>Machine Wash Cold with Like Colours, Maybe Tumble Dried, Warm Iron if needed</p>;;;;73% Polyester 24% Viscose 3% Elasthane;zerotype;;Winter;;No
4380709;CT-FLEX-16-025173632-025173632-4380709;CT-FLEX-16-025173632;Draft;Trousers;Theme;Adults-Men;Men;Black;;;Fashion;;2017;32,THMETRSR00000789,34,THMETRSR00000790,36,THMETRSR00000791,38,THMETRSR00000792,40,THMETRSR00000793;1995.00;;;<p>Machine Wash Cold with Like Colours, Maybe Tumble Dried, Warm Iron if needed</p>;;;;73% Polyester 24% Viscose 3% Elasthane;zerotype;;Winter;;No
4380707;CT-EDWARD-15-037518921-037518921-4380707;CT-EDWARD-15-037518921;Draft;Trousers;Theme;Adults-Men;Men;Blue;;;Fashion;;2017;32,THMETRSR00000783,34,THMETRSR00000784,36,THMETRSR00000785,38,THMETRSR00000786;1695.00;;;<p>Machine Wash Cold with Like Colours, Maybe Tumble Dried, Warm Iron if needed</p>;;;;80% Polyester 20% Viscose;zerotype;;Spring;;No
4380706;CT-TANZANITE-15-024216736-024216736-4380706;CT-TANZANITE-15-024216736;Draft;Trousers;Theme;Adults-Men;Men;Charcoal;;;Fashion;;2017;32,THMETRSR00000780,34,THMETRSR00000781,36,THMETRSR00000782;2295.00;;;<p>Machine Wash Cold with Like Colours, Maybe Tumble Dried, Warm Iron if needed</p>;;;;85% Terelene 15% Rayon;zerotype;;Spring;;No
4380703;ZENITH-S-SV-16-027294036-027294036-4380703;ZENITH-S-SV-16-027294036;Draft;Suits;Theme;Adults-Men;Men;Charcoal;;;Fashion;;2017;36,THMESUIT00000348,38,THMESUIT00000349,40,THMESUIT00000350,42,THMESUIT00000351,44,THMESUIT00000352;8995.00;;;<p>Dry Clean Only</p>;;;;;zerotype;;Winter;;No
4380702;ZENITH-SF-TUX4-16-028305831-028305831-4380702;ZENITH-SF-TUX4-16-028305831;Draft;Suits;Theme;Adults-Men;Men;Blue;;;Fashion;;2017;38,THMESUIT00000344,40,THMESUIT00000345,42,THMESUIT00000346,44,THMESUIT00000347;9995.00;;;<p>Dry Clean Only</p>;;;;;zerotype;;Winter;;No
4380701;MARIO-SLT-N-16-034888823-034888823-4380701;MARIO-SLT-N-16-034888823;Draft;Suits;Theme;Adults-Men;Men;Olive;;;Fashion;;2017;38,THMESUIT00000340,40,THMESUIT00000341,42,THMESUIT00000342,44,THMESUIT00000343;7995.00;;;<p>Dry Clean Only</p>;;;;;zerotype;;Winter;;No
4380700;Ultima-J-V9000-16-011229726-011229726-4380700;Ultima-J-V9000-16-011229726;Draft;Jackets;Theme;Adults-Men;Men;Grey;;;Fashion;;2017;38,THMEJCKT00001032,40,THMEJCKT00001033,42,THMEJCKT00001034,44,THMEJCKT00001035;5995.00;;;<p>Dry Clean Only</p>;;;;;zerotype;;Winter;;No
4380698;Ultima-V-J-16-035139632-035139632-4380698;Ultima-V-J-16-035139632;Draft;Jackets;Theme;Adults-Men;Men;Black;;;Fashion;;2017;38,THMEJCKT00001026,40,THMEJCKT00001027,42,THMEJCKT00001028,44,THMEJCKT00001029;6495.00;;;<p>Dry Clean Only</p>;;;;;zerotype;;Winter;;No
4378206;AR409NAVY-Navy Blue Blue Pink-4378206;ARISE POLO T SHIRT;Draft;Tshirts;ARISE;Adults-Men;Men;Navy Blue;Blue;Pink;Fashion;Casual;2018;S,ARSETSHT00001256,M,ARSETSHT00001257,L,ARSETSHT00001258,XL,ARSETSHT00001259,XXL,ARSETSHT00001260;1499.00;<p>BIO WASH 100% COTTON FABRIC</p>;<p>CUT & Sew sleeve</p>;<p>100% COTTON</p>;<p>REGULAR FIT</p>;;;;zerotype;;Summer;;No
4378205;AR409WHITE-White Blue Pink-4378205;ARISE POLO T SHIRT;Draft;Tshirts;ARISE;Adults-Men;Men;White;Blue;Pink;Fashion;Casual;2018;S,ARSETSHT00001251,M,ARSETSHT00001252,L,ARSETSHT00001253,XL,ARSETSHT00001254,XXL,ARSETSHT00001255;1499.00;<p>BIO WASH 100% COTTON FABRIC</p>;<p>CUT & Sew sleeve</p>;<p>100% COTTON</p>;<p>REGULAR FIT</p>;;;;zerotype;;Summer;;No
4378204;AR409BLACK-Black Blue Pink-4378204;ARISE POLO T SHIRT;Draft;Tshirts;ARISE;Adults-Men;Men;Black;Blue;Pink;Fashion;Casual;2018;S,ARSETSHT00001246,M,ARSETSHT00001247,L,ARSETSHT00001248,XL,ARSETSHT00001249,XXL,ARSETSHT00001250;1499.00;<p>BIO WASH 100% COTTON FABRIC</p>;<p>CUT & Sew sleeve</p>;<p>100% COTTON</p>;<p>REGULAR FIT</p>;;;;zerotype;;Summer;;No
4378203;AR408NAVY-Navy Blue-4378203;ARISE POLO T SHIRT;Draft;Tshirts;ARISE;Adults-Men;Men;Navy Blue;;;Fashion;Casual;2018;S,ARSETSHT00001241,M,ARSETSHT00001242,L,ARSETSHT00001243,XL,ARSETSHT00001244,XXL,ARSETSHT00001245;999.00;<p>BIO WASH 100% COTTON FABRIC</p>;<p>PRINTED SLEEVE</p>;<p>100% COTTON</p>;<p>REGULAR FIT</p>;;;;zerotype;;Summer;;No
4378202;AR408WHITE-White-4378202;ARISE POLO T SHIRT;Draft;Tshirts;ARISE;Adults-Men;Men;White;;;Fashion;Casual;2018;S,ARSETSHT00001236,M,ARSETSHT00001237,L,ARSETSHT00001238,XL,ARSETSHT00001239,XXL,ARSETSHT00001240;999.00;<p>BIO WASH 100% COTTON FABRIC</p>;<p>PRINTED SLEEVE</p>;<p>100% COTTON</p>;<p>REGULAR FIT</p>;;;;zerotype;;Summer;;No
4378201;AR408BLACK-Black-4378201;ARISE POLO T SHIRT;Draft;Tshirts;ARISE;Adults-Men;Men;Black;;;Fashion;Casual;2018;S,ARSETSHT00001231,M,ARSETSHT00001232,L,ARSETSHT00001233,XL,ARSETSHT00001234,XXL,ARSETSHT00001235;999.00;<p>BIO WASH 100% COTTON FABRIC</p>;<p>PRINTED SLEEVE</p>;<p>100% COTTON</p>;<p>REGULAR FIT</p>;;;;zerotype;;Summer;;No
4378200;AR407NAVY-Navy Blue Black White-4378200;ARISE POLO T SHIRT;Draft;Tshirts;ARISE;Adults-Men;Men;Navy Blue;Black;White;Fashion;Casual;2018;S,ARSETSHT00001226,M,ARSETSHT00001227,L,ARSETSHT00001228,XL,ARSETSHT00001229,XXL,ARSETSHT00001230;1299.00;<p>BIO WASH 100% COTTON FABRIC</p>;<p>RAGLAN PRINTED SLEEVE</p>;<p>100% COTTON</p>;<p>REGULAR FIT</p>;;;;zerotype;;Summer;;No
4378199;AR407WHITE-White Black-4378199;ARISE POLO T SHIRT;Draft;Tshirts;ARISE;Adults-Men;Men;White;Black;;Fashion;Casual;2018;S,ARSETSHT00001221,M,ARSETSHT00001222,L,ARSETSHT00001223,XL,ARSETSHT00001224,XXL,ARSETSHT00001225;1299.00;<p>BIO WASH 100% COTTON FABRIC</p>;<p>RAGLAN PRINTED SLEEVE</p>;<p>100% COTTON</p>;<p>REGULAR FIT</p>;;;;zerotype;;Summer;;No
4378198;AR407BLACK-Black White-4378198;ARISE POLO T SHIRT;Draft;Tshirts;ARISE;Adults-Men;Men;Black;White;;Fashion;Casual;2018;S,ARSETSHT00001216,M,ARSETSHT00001217,L,ARSETSHT00001218,XL,ARSETSHT00001219,XXL,ARSETSHT00001220;1299.00;<p>BIO WASH 100% COTTON FABRIC</p>;<p>RAGLAN PRINTED SLEEVE</p>;<p>100% COTTON</p>;<p>REGULAR FIT</p>;;;;zerotype;;Summer;;No
4378197;AR406NAVY-Navy Blue Blue White-4378197;ARISE POLO T SHIRT;Draft;Tshirts;ARISE;Adults-Men;Men;Navy Blue;Blue;White;Fashion;Casual;2018;S,ARSETSHT00001211,M,ARSETSHT00001212,L,ARSETSHT00001213,XL,ARSETSHT00001214,XXL,ARSETSHT00001215;1299.00;<p>BIO WASH 100% COTTON FABRIC</p>;<p>RAGLAN PRINTED SLEEVE</p>;<p>100% COTTON</p>;<p>REGULAR FIT</p>;;;;zerotype;;Summer;;No
4378196;AR406WHITE-White Blue-4378196;ARISE POLO T SHIRT;Draft;Tshirts;ARISE;Adults-Men;Men;White;Blue;;Fashion;Casual;2018;S,ARSETSHT00001206,M,ARSETSHT00001207,L,ARSETSHT00001208,XL,ARSETSHT00001209,XXL,ARSETSHT00001210;1299.00;<p>BIO WASH 100% COTTON FABRIC</p>;<p>RAGLAN PRINTED SLEEVE</p>;<p>100% COTTON</p>;<p>REGULAR FIT</p>;;;;zerotype;;Summer;;No
4378195;AR406BLACK-Black Blue White-4378195;ARISE POLO T SHIRT;Draft;Tshirts;ARISE;Adults-Men;Men;Black;Blue;White;Fashion;Casual;2018;S,ARSETSHT00001201,M,ARSETSHT00001202,L,ARSETSHT00001203,XL,ARSETSHT00001204,XXL,ARSETSHT00001205;1299.00;<p>BIO WASH 100% COTTON FABRIC</p>;<p>RAGLAN PRINTED SLEEVE</p>;<p>100% COTTON</p>;<p>REGULAR FIT</p>;;;;zerotype;;Summer;;No
4378194;AR405NAVY-Navy Blue Red White-4378194;ARISE POLO T SHIRT;Draft;Tshirts;ARISE;Adults-Men;Men;Navy Blue;Red;White;Fashion;Casual;2018;S,ARSETSHT00001196,M,ARSETSHT00001197,L,ARSETSHT00001198,XL,ARSETSHT00001199,XXL,ARSETSHT00001200;1299.00;<p>BIO WASH 100% COTTON FABRIC</p>;<p>RAGLAN PRINTED SLEEVE</p>;<p>100% COTTON</p>;<p>REGULAR FIT</p>;;;;zerotype;;Summer;;No
4378193;AR405WHITE-White Red-4378193;ARISE POLO T SHIRT;Draft;Tshirts;ARISE;Adults-Men;Men;White;Red;;Fashion;Casual;2018;S,ARSETSHT00001191,M,ARSETSHT00001192,L,ARSETSHT00001193,XL,ARSETSHT00001194,XXL,ARSETSHT00001195;1299.00;<p>BIO WASH 100% COTTON FABRIC</p>;<p>RAGLAN PRINTED SLEEVE</p>;<p>100% COTTON</p>;<p>REGULAR FIT</p>;;;;zerotype;;Summer;;No
4378192;AR405BLACK-Black Red White-4378192;ARISE POLO T SHIRT;Draft;Tshirts;ARISE;Adults-Men;Men;Black;Red;White;Fashion;Casual;2018;S,ARSETSHT00001186,M,ARSETSHT00001187,L,ARSETSHT00001188,XL,ARSETSHT00001189,XXL,ARSETSHT00001190;1299.00;<p>BIO WASH 100% COTTON FABRIC</p>;<p>RAGLAN PRINTED SLEEVE</p>;<p>100% COTTON</p>;<p>REGULAR FIT</p>;;;;zerotype;;Summer;;No
4323767;8907399522385-Blue-4323767;JL6652B 5238;Draft;Trousers;J Hampstead;Adults-Men;Men;Blue;;;Fashion;Formal;2018;30,JHPDTRSR00000206,32,JHPDTRSR00000207,34,JHPDTRSR00000208,36,JHPDTRSR00000209,38,JHPDTRSR00000210;2399.00;<p>Formal Wrinkle Free Terry Rayon</p>;;<p>Terry Rayon, Machine Wash Cold, Spin Dry, Low Warm Iron, Do not Bleach, Do not Dry Clean</p>;<p>Lean</p>;;;;zerotype;;Summer;;No
4323766;8907399522163-GREY-4323766;JL6632B 2638;Draft;Trousers;J Hampstead;Adults-Men;Men;Grey;;;Fashion;Formal;2018;30,JHPDTRSR00000201,32,JHPDTRSR00000202,34,JHPDTRSR00000203,36,JHPDTRSR00000204,38,JHPDTRSR00000205;2099.00;<p>Formal Terry Rayon</p>;;<p>Terry Rayon, Machine Wash Cold, Spin Dry, Low Warm Iron, Do not Bleach, Do not Dry Clean</p>;<p>Lean</p>;;;;zerotype;;Summer;;No
4323765;8907399522095-Cream-4323765;JL6629B 2238;Draft;Trousers;J Hampstead;Adults-Men;Men;Cream;;;Fashion;Formal;2018;30,JHPDTRSR00000196,32,JHPDTRSR00000197,34,JHPDTRSR00000198,36,JHPDTRSR00000199,38,JHPDTRSR00000200;2399.00;<p>Formal Terry Rayon</p>;;<p>Terry Rayon, Machine Wash Cold, Spin Dry, Low Warm Iron, Do not Bleach, Do not Dry Clean</p>;<p>Lean</p>;;;;zerotype;;Summer;;No
4323764;8907399521999-Khaki-4323764;JL6619B 3038;Draft;Trousers;J Hampstead;Adults-Men;Men;Khaki;;;Fashion;Formal;2018;30,JHPDTRSR00000191,32,JHPDTRSR00000192,34,JHPDTRSR00000193,36,JHPDTRSR00000194,38,JHPDTRSR00000195;2399.00;<p>Formal Terry Rayon</p>;;<p>Terry Rayon, Machine Wash Cold, Spin Dry, Low Warm Iron, Do not Bleach, Do not Dry Clean</p>;<p>Lean</p>;;;;zerotype;;Summer;;No
4323763;8907399521968-BEIGE-4323763;JL6618B 538;Draft;Trousers;J Hampstead;Adults-Men;Men;Beige;;;Fashion;Formal;2018;30,JHPDTRSR00000186,32,JHPDTRSR00000187,34,JHPDTRSR00000188,36,JHPDTRSR00000189,38,JHPDTRSR00000190;2199.00;<p>Formal Terry Rayon</p>;;<p>Terry Rayon, Machine Wash Cold, Spin Dry, Low Warm Iron, Do not Bleach, Do not Dry Clean</p>;<p>Lean</p>;;;;zerotype;;Summer;;No
4323762;8907399524976-Cream-4323762;JCTL1057B 2238;Draft;Trousers;J Hampstead;Adults-Men;Men;Cream;;;Fashion;Casual;2018;30,JHPDTRSR00000181,32,JHPDTRSR00000182,34,JHPDTRSR00000183,36,JHPDTRSR00000184,38,JHPDTRSR00000185;1999.00;<p>Washed cotton Lycra</p>;;<p>Cotton Lycra, Machine Wash, Dry in Shade, Medium Iron, Do not Bleach</p>;<p>Dover</p>;;;;zerotype;;Summer;;No
4323761;8907399524846-OLIVE-4323761;JCTL1038B 4538;Draft;Trousers;J Hampstead;Adults-Men;Men;Olive;;;Fashion;Casual;2018;30,JHPDTRSR00000176,32,JHPDTRSR00000177,34,JHPDTRSR00000178,36,JHPDTRSR00000179,38,JHPDTRSR00000180;2099.00;<p>Washed cotton Lycra</p>;;<p>Cotton Lycra, Machine Wash, Dry in Shade, Medium Iron, Do not Bleach</p>;<p>Dover</p>;;;;zerotype;;Summer;;No
4323760;8907399524709-Navy Blue-4323760;JCTL1024B 2838;Draft;Trousers;J Hampstead;Adults-Men;Men;Navy Blue;;;Fashion;Casual;2018;30,JHPDTRSR00000171,32,JHPDTRSR00000172,34,JHPDTRSR00000173,36,JHPDTRSR00000174,38,JHPDTRSR00000175;2099.00;<p>Washed cotton Lycra</p>;;<p>Cotton Lycra, Machine Wash, Dry in Shade, Medium Iron, Do not Bleach</p>;<p>Dover</p>;;;;zerotype;;Summer;;No
4323759;8907399524587-BLACK-4323759;JCTL1007B 738;Draft;Trousers;J Hampstead;Adults-Men;Men;Black;;;Fashion;Casual;2018;30,JHPDTRSR00000166,32,JHPDTRSR00000167,34,JHPDTRSR00000168,36,JHPDTRSR00000169,38,JHPDTRSR00000170;1899.00;<p>Washed cotton Lycra</p>;;<p>Cotton Lycra, Machine Wash, Dry in Shade, Medium Iron, Do not Bleach</p>;<p>Dover</p>;;;;zerotype;;Summer;;No
4323758;8907399524532-BEIGE-4323758;JCTL1001B 538;Draft;Trousers;J Hampstead;Adults-Men;Men;Beige;;;Fashion;Casual;2018;30,JHPDTRSR00000161,32,JHPDTRSR00000162,34,JHPDTRSR00000163,36,JHPDTRSR00000164,38,JHPDTRSR00000165;1899.00;<p>Washed cotton Lycra</p>;;<p>Cotton Lycra, Machine Wash, Dry in Shade, Medium Iron, Do not Bleach</p>;<p>Dover</p>;;;;zerotype;;Summer;;No
4323757;8907399513659-CREAM-4323757;JLP3303F 1844;Draft;Shirts;J Hampstead;Adults-Men;Men;Cream;;;Fashion;Formal;2018;38,JHPDSHRT00000609,40,JHPDSHRT00000610,42,JHPDSHRT00000611,44,JHPDSHRT00000612;1699.00;;;<p>100 % Cotton, Hand or Machine Wash with mild soap, No Chlorine Bleach, Wash Separately, Do not tumble dry, Use warm iron</p>;<p>SLIM</p>;;;;zerotype;;Summer;;No
4323756;8907399516452-PINK-4323756;JSPL2238F 4944;Draft;Shirts;J Hampstead;Adults-Men;Men;Pink;;;Fashion;Casual;2018;38,JHPDSHRT00000605,40,JHPDSHRT00000606,42,JHPDSHRT00000607,44,JHPDSHRT00000608;2299.00;;;<p>100 % Cotton, Hand or Machine Wash with mild soap, No Chlorine Bleach, Wash Separately, Do not tumble dry, Use warm iron</p>;<p>SLIM</p>;;;;zerotype;;Summer;;No
4323755;8907399516421-TEAL-4323755;JSPL2220F 5944;Draft;Shirts;J Hampstead;Adults-Men;Men;Teal;;;Fashion;Casual;2018;38,JHPDSHRT00000601,40,JHPDSHRT00000602,42,JHPDSHRT00000603,44,JHPDSHRT00000604;1899.00;;;<p>100 % Cotton, Hand or Machine Wash with mild soap, No Chlorine Bleach, Wash Separately, Do not tumble dry, Use warm iron</p>;<p>SLIM</p>;;;;zerotype;;Summer;;No
4323754;8907399515998-Blue-4323754;JSPL2083F 6644;Draft;Shirts;J Hampstead;Adults-Men;Men;Blue;;;Fashion;Casual;2018;38,JHPDSHRT00000597,40,JHPDSHRT00000598,42,JHPDSHRT00000599,44,JHPDSHRT00000600;1699.00;;;<p>100 % Cotton, Hand or Machine Wash with mild soap, No Chlorine Bleach, Wash Separately, Do not tumble dry, Use warm iron</p>;<p>SLIM</p>;;;;zerotype;;Summer;;No
4323753;8907399515974-Blue-4323753;JSPL2079F 2844;Draft;Shirts;J Hampstead;Adults-Men;Men;Blue;;;Fashion;Casual;2018;38,JHPDSHRT00000593,40,JHPDSHRT00000594,42,JHPDSHRT00000595,44,JHPDSHRT00000596;1699.00;;;<p>100 % Cotton, Hand or Machine Wash with mild soap, No Chlorine Bleach, Wash Separately, Do not tumble dry, Use warm iron</p>;<p>SLIM</p>;;;;zerotype;;Summer;;No
4323752;8907399372010-BLUE-4323752;JSPL2004F 844;Draft;Shirts;J Hampstead;Adults-Men;Men;Blue;;;Fashion;Casual;2018;38,JHPDSHRT00000589,40,JHPDSHRT00000590,42,JHPDSHRT00000591,44,JHPDSHRT00000592;2199.00;;;<p>100 % Cotton, Hand or Machine Wash with mild soap, No Chlorine Bleach, Wash Separately, Do not tumble dry, Use warm iron</p>;<p>SLIM</p>;;;;zerotype;;Summer;;No
4323751;8907399371761-Green-4323751;JSPL1912F 4544;Draft;Shirts;J Hampstead;Adults-Men;Men;Green;;;Fashion;Casual;2018;38,JHPDSHRT00000585,40,JHPDSHRT00000586,42,JHPDSHRT00000587,44,JHPDSHRT00000588;2699.00;;;<p>100 % Cotton, Hand or Machine Wash with mild soap, No Chlorine Bleach, Wash Separately, Do not tumble dry, Use warm iron</p>;<p>SLIM</p>;;;;zerotype;;Summer;;No
4323750;8907399371556-BROWN-4323750;JSPL1844F 1144;Draft;Shirts;J Hampstead;Adults-Men;Men;Brown;;;Fashion;Casual;2018;38,JHPDSHRT00000581,40,JHPDSHRT00000582,42,JHPDSHRT00000583,44,JHPDSHRT00000584;2199.00;;;<p>100 % Cotton, Hand or Machine Wash with mild soap, No Chlorine Bleach, Wash Separately, Do not tumble dry, Use warm iron</p>;<p>SLIM</p>;;;;zerotype;;Summer;;No
4323749;8907399371426-WHITE-4323749;JSPL1796F 6344;Draft;Shirts;J Hampstead;Adults-Men;Men;White;;;Fashion;Casual;2018;38,JHPDSHRT00000577,40,JHPDSHRT00000578,42,JHPDSHRT00000579,44,JHPDSHRT00000580;2199.00;;;<p>100 % Cotton, Hand or Machine Wash with mild soap, No Chlorine Bleach, Wash Separately, Do not tumble dry, Use warm iron</p>;<p>SLIM</p>;;;;zerotype;;Summer;;No
4323748;8907399371365-RED-4323748;JSPL1785F 5144;Draft;Shirts;J Hampstead;Adults-Men;Men;Red;;;Fashion;Casual;2018;38,JHPDSHRT00000573,40,JHPDSHRT00000574,42,JHPDSHRT00000575,44,JHPDSHRT00000576;1799.00;;;<p>100 % Cotton, Hand or Machine Wash with mild soap, No Chlorine Bleach, Wash Separately, Do not tumble dry, Use warm iron</p>;<p>SLIM</p>;;;;zerotype;;Summer;;No
4323747;8907399513673-WHITE-4323747;JLR3306F 6344;Draft;Shirts;J Hampstead;Adults-Men;Men;White;;;Fashion;Formal;2018;38,JHPDSHRT00000569,40,JHPDSHRT00000570,42,JHPDSHRT00000571,44,JHPDSHRT00000572;1599.00;;;<p>100 % Cotton, Hand or Machine Wash with mild soap, No Chlorine Bleach, Wash Separately, Do not tumble dry, Use warm iron</p>;<p>SLIM</p>;;;;zerotype;;Summer;;No
4323746;8907399513123-WHITE-4323746;JLR3175F 6344;Draft;Shirts;J Hampstead;Adults-Men;Men;White;;;Fashion;Formal;2018;38,JHPDSHRT00000565,40,JHPDSHRT00000566,42,JHPDSHRT00000567,44,JHPDSHRT00000568;2099.00;;;<p>100 % Cotton, Hand or Machine Wash with mild soap, No Chlorine Bleach, Wash Separately, Do not tumble dry, Use warm iron</p>;<p>SLIM</p>;;;;zerotype;;Summer;;No
4323745;8907399513888-Blue-4323745;JLP3441F 6944;Draft;Shirts;J Hampstead;Adults-Men;Men;Blue;;;Fashion;Formal;2018;38,JHPDSHRT00000561,40,JHPDSHRT00000562,42,JHPDSHRT00000563,44,JHPDSHRT00000564;1799.00;;;<p>100 % Cotton, Hand or Machine Wash with mild soap, No Chlorine Bleach, Wash Separately, Do not tumble dry, Use warm iron</p>;<p>SLIM</p>;;;;zerotype;;Summer;;No
4323744;8907399513666-BLACK-4323744;JLP3303F 744;Draft;Shirts;J Hampstead;Adults-Men;Men;Black;;;Fashion;Formal;2018;38,JHPDSHRT00000557,40,JHPDSHRT00000558,42,JHPDSHRT00000559,44,JHPDSHRT00000560;1699.00;;;<p>100 % Cotton, Hand or Machine Wash with mild soap, No Chlorine Bleach, Wash Separately, Do not tumble dry, Use warm iron</p>;<p>SLIM</p>;;;;zerotype;;Summer;;No
4323742;8907399513482-BLUE-4323742;JLD3276F 844;Draft;Shirts;J Hampstead;Adults-Men;Men;Blue;;;Fashion;Formal;2018;38,JHPDSHRT00000549,40,JHPDSHRT00000550,42,JHPDSHRT00000551,44,JHPDSHRT00000552;1699.00;;;<p>100 % Cotton, Hand or Machine Wash with mild soap, No Chlorine Bleach, Wash Separately, Do not tumble dry, Use warm iron</p>;<p>SLIM</p>;;;;zerotype;;Summer;;No
4323741;8907399375462-Blue-4323741;JLD3149F 344;Draft;Shirts;J Hampstead;Adults-Men;Men;Blue;;;Fashion;Formal;2018;38,JHPDSHRT00000545,40,JHPDSHRT00000546,42,JHPDSHRT00000547,44,JHPDSHRT00000548;2599.00;;;<p>100 % Cotton, Hand or Machine Wash with mild soap, No Chlorine Bleach, Wash Separately, Do not tumble dry, Use warm iron</p>;<p>SLIM</p>;;;;zerotype;;Summer;;No
4323740;8907399513451-COPPER-4323740;JLC3269F 1644;Draft;Shirts;J Hampstead;Adults-Men;Men;Copper;;;Fashion;Formal;2018;38,JHPDSHRT00000541,40,JHPDSHRT00000542,42,JHPDSHRT00000543,44,JHPDSHRT00000544;1899.00;;;<p>100 % Cotton, Hand or Machine Wash with mild soap, No Chlorine Bleach, Wash Separately, Do not tumble dry, Use warm iron</p>;<p>SLIM</p>;;;;zerotype;;Summer;;No
4316219;MMSL8601-S.BLUE-4316219;MMSL8601;Draft;Tshirts;Manchester City FC;Adults-Men;Men;Blue;;;Fashion;;2018;S,MRYCTSHT00001204,M,MRYCTSHT00001205,L,MRYCTSHT00001206,XL,MRYCTSHT00001207,XXL,MRYCTSHT00001208;899.00;;;<p>Mild machine wash</p>;;;;;zerotype;;Summer;;No
4316218;MMT8501-S.BLUE-4316218;MMT8501;Draft;Tshirts;Manchester City FC;Adults-Men;Men;Blue;;;Fashion;;2018;S,MRYCTSHT00001199,M,MRYCTSHT00001200,L,MRYCTSHT00001201,XL,MRYCTSHT00001202,XXL,MRYCTSHT00001203;999.00;;;<p>Mild machine wash</p>;;;;;zerotype;;Summer;;No
4316217;MMT8401-WHITE-4316217;MMT8401;Draft;Tshirts;Manchester City FC;Adults-Men;Men;White;;;Fashion;;2018;S,MRYCTSHT00001194,M,MRYCTSHT00001195,L,MRYCTSHT00001196,XL,MRYCTSHT00001197,XXL,MRYCTSHT00001198;1099.00;;;<p>Mild machine wash</p>;;;;;zerotype;;Summer;;No
4316200;FCBMT9401-ANTHRA MELANGE ANTHRA MELANGE-4316200;FCBMT9401;Draft;Tshirts;Barcelona;Adults-Men;Men;Grey;;;Fashion;;2018;S,BRLATSHT00002824,M,BRLATSHT00002825,L,BRLATSHT00002826,XL,BRLATSHT00002827,XXL,BRLATSHT00002828;1199.00;;;<p>Machine Wash</p>;;;;;zerotype;;Summer;;No
4316199;FCBMPT8702-NAVY-4316199;FCBMPT8702;Draft;Tshirts;Barcelona;Adults-Men;Men;Navy Blue;;;Fashion;;2018;S,BRLATSHT00002819,M,BRLATSHT00002820,L,BRLATSHT00002821,XL,BRLATSHT00002822,XXL,BRLATSHT00002823;1199.00;;;<p>Machine Wash</p>;;;;;zerotype;;Summer;;No
4316198;FCBMPT8701-B.BLUE B.BLUE-4316198;FCBMPT8701;Draft;Tshirts;Barcelona;Adults-Men;Men;Blue;;;Fashion;;2018;S,BRLATSHT00002814,M,BRLATSHT00002815,L,BRLATSHT00002816,XL,BRLATSHT00002817,XXL,BRLATSHT00002818;1199.00;;;<p>Machine Wash</p>;;;;;zerotype;;Summer;;No
4316197;FCBMT8402-NAVY-4316197;FCBMT8402;Draft;Tshirts;Barcelona;Adults-Men;Men;Navy Blue;;;Fashion;;2018;S,BRLATSHT00002809,M,BRLATSHT00002810,L,BRLATSHT00002811,XL,BRLATSHT00002812,XXL,BRLATSHT00002813;1299.00;;;<p>Machine Wash</p>;;;;;zerotype;;Summer;;No
4316196;FCBMT8401-MAROON MAROON-4316196;FCBMT8401;Draft;Tshirts;Barcelona;Adults-Men;Men;Maroon;;;Fashion;;2018;S,BRLATSHT00002804,M,BRLATSHT00002805,L,BRLATSHT00002806,XL,BRLATSHT00002807,XXL,BRLATSHT00002808;1299.00;;;<p>Machine Wash</p>;;;;;zerotype;;Summer;;No
4316195;FCBMT8302-NAVY-4316195;FCBMT8302;Draft;Tshirts;Barcelona;Adults-Men;Men;Navy Blue;;;Fashion;;2018;S,BRLATSHT00002799,M,BRLATSHT00002800,L,BRLATSHT00002801,XL,BRLATSHT00002802,XXL,BRLATSHT00002803;1299.00;;;<p>Machine Wash</p>;;;;;zerotype;;Summer;;No
4287952;PM204225Q01-BLACK USED-4287952;PADDY IP;Draft;Jeans;Pepe Jeans;Adults-Men;Men;Black;;;Fashion;Casual;2018;28,PEJEJENS00019328,30,PEJEJENS00019329,32,PEJEJENS00019330,34,PEJEJENS00019331,36,PEJEJENS00019332,38,PEJEJENS00019333,40,PEJEJENS00019334;3999.00;<p>CHINOX</p>;;<p>98% COTTON, 2% ELASTANE</p>;;;;;zerotype;;Summer;;No
4287951;PM204217V11-GREEN CST DK SH-4287951;MERVIN IP;Draft;Jeans;Pepe Jeans;Adults-Men;Men;Blue;;;Fashion;Casual;2018;30,PEJEJENS00019322,32,PEJEJENS00019323,34,PEJEJENS00019324,36,PEJEJENS00019325,38,PEJEJENS00019326,40,PEJEJENS00019327;3599.00;<p>HATCH</p>;;<p>98.5% COTTON,  1.5% ELASTANE</p>;;;;;zerotype;;Summer;;No
4287946;PM204170V06-DARK RINSE-4287946;ELDWIN IP;Draft;Jeans;Pepe Jeans;Adults-Men;Men;Blue;;;Fashion;Casual;2018;28,PEJEJENS00019287,30,PEJEJENS00019288,32,PEJEJENS00019289,34,PEJEJENS00019290,36,PEJEJENS00019291,38,PEJEJENS00019292,40,PEJEJENS00019293;3999.00;<p>VAPOUR</p>;;<p>68% COTTON, 30% POLYESTER, 2% ELASTANE</p>;;;;;zerotype;;Summer;;No
4287945;PM204163K04-LIGHT USED-4287945;DEREK IP;Draft;Jeans;Pepe Jeans;Adults-Men;Men;Blue;;;Fashion;Casual;2018;28,PEJEJENS00019282,30,PEJEJENS00019283,32,PEJEJENS00019284,34,PEJEJENS00019285,36,PEJEJENS00019286;4799.00;<p>FINSBURY</p>;;<p>75% COTTON, 23% POLYESTER,  2% ELASTANE</p>;;;;;zerotype;;Summer;;No
4287944;PM204157K04-LIGHT USED-4287944;COYLE IP;Draft;Jeans;Pepe Jeans;Adults-Men;Men;Blue;;;Fashion;Casual;2018;28,PEJEJENS00019275,30,PEJEJENS00019276,32,PEJEJENS00019277,34,PEJEJENS00019278,36,PEJEJENS00019279,38,PEJEJENS00019280,40,PEJEJENS00019281;3199.00;<p>VAPOUR</p>;;<p>65% COTTON, 34% POLYESTER, 1% ELASTANE</p>;;;;;zerotype;;Summer;;No
4287943;PM204148W45-TINTED VINTAGE-4287943;CHIP IP;Draft;Jeans;Pepe Jeans;Adults-Men;Men;Blue;;;Fashion;Casual;2018;30,PEJEJENS00019269,32,PEJEJENS00019270,34,PEJEJENS00019271,36,PEJEJENS00019272,38,PEJEJENS00019273,40,PEJEJENS00019274;3599.00;<p>SOHO</p>;;<p>70% COTTON, 28% POLYESTER, 2% ELASTANE</p>;;;;;zerotype;;Summer;;No
4287940;PM541108-WHITE-4287940;TOPPER IP;Draft;Tshirts;Pepe Jeans;Adults-Men;Men;White;;;Fashion;Casual;2018;3XL,PEJETSHT00030875,L,PEJETSHT00030876,M,PEJETSHT00030877,S,PEJETSHT00030878,XL,PEJETSHT00030879,XXL,PEJETSHT00030880;1499.00;;;<p>95% COTTON, 5% ELASTANE</p>;;;;;zerotype;;Summer;;No
4287939;PM541103-SILVER-4287939;STATIK IP;Draft;Tshirts;Pepe Jeans;Adults-Men;Men;Silver;;;Fashion;Casual;2018;3XL,PEJETSHT00030869,L,PEJETSHT00030870,M,PEJETSHT00030871,S,PEJETSHT00030872,XL,PEJETSHT00030873,XXL,PEJETSHT00030874;1799.00;;;<p>100% COTTON</p>;;;;;zerotype;;Summer;;No
4287938;PM541096-INDIGO-4287938;OLIVER IP;Draft;Tshirts;Pepe Jeans;Adults-Men;Men;Navy Blue;;;Fashion;Casual;2018;3XL,PEJETSHT00030863,L,PEJETSHT00030864,M,PEJETSHT00030865,S,PEJETSHT00030866,XL,PEJETSHT00030867,XXL,PEJETSHT00030868;2499.00;;;<p>100% COTTON</p>;;;;;zerotype;;Summer;;No
4287937;PM541093-ETON BLUE-4287937;JAMES IP;Draft;Tshirts;Pepe Jeans;Adults-Men;Men;Blue;;;Fashion;Casual;2018;3XL,PEJETSHT00030857,L,PEJETSHT00030858,M,PEJETSHT00030859,S,PEJETSHT00030860,XL,PEJETSHT00030861,XXL,PEJETSHT00030862;1399.00;;;<p>80% COTTON, 18% POLYESTER, 2% ELASTANE</p>;;;;;zerotype;;Summer;;No
4287936;PM541092-INDIGO-4287936;INK IP;Draft;Tshirts;Pepe Jeans;Adults-Men;Men;Navy Blue;;;Fashion;Casual;2018;3XL,PEJETSHT00030851,L,PEJETSHT00030852,M,PEJETSHT00030853,S,PEJETSHT00030854,XL,PEJETSHT00030855,XXL,PEJETSHT00030856;2499.00;;;<p>100% COTTON</p>;;;;;zerotype;;Summer;;No
4287934;PM541082-WHITE-4287934;FABER IP;Draft;Tshirts;Pepe Jeans;Adults-Men;Men;White;;;Fashion;Casual;2018;3XL,PEJETSHT00030839,L,PEJETSHT00030840,M,PEJETSHT00030841,S,PEJETSHT00030842,XL,PEJETSHT00030843,XXL,PEJETSHT00030844;1999.00;;;<p>98% COTTON, 2% ELASTANE</p>;;;;;zerotype;;Summer;;No
4287933;PM541080-NAVY-4287933;CASHOUT IP;Draft;Tshirts;Pepe Jeans;Adults-Men;Men;Navy Blue;;;Fashion;Casual;2018;3XL,PEJETSHT00030833,L,PEJETSHT00030834,M,PEJETSHT00030835,S,PEJETSHT00030836,XL,PEJETSHT00030837,XXL,PEJETSHT00030838;1399.00;;;<p>65% POLYESTER, 35% COTTON</p>;;;;;zerotype;;Summer;;No
4287932;PM541079-NAVY-4287932;CAMPBELL IP;Draft;Tshirts;Pepe Jeans;Adults-Men;Men;Navy Blue;;;Fashion;Casual;2018;3XL,PEJETSHT00030827,L,PEJETSHT00030828,M,PEJETSHT00030829,S,PEJETSHT00030830,XL,PEJETSHT00030831,XXL,PEJETSHT00030832;1899.00;;;<p>95% COTTON, 5% ELASTANE</p>;;;;;zerotype;;Summer;;No
4287930;PM505923-NAVY-4287930;JAGGER IP;Draft;Tshirts;Pepe Jeans;Adults-Men;Men;Navy Blue;;;Fashion;Casual;2018;3XL,PEJETSHT00030821,L,PEJETSHT00030822,M,PEJETSHT00030823,S,PEJETSHT00030824,XL,PEJETSHT00030825,XXL,PEJETSHT00030826;1399.00;;;<p>100% COTTON</p>;;;;;zerotype;;Summer;;No
4287929;PM505904-OLIVE-4287929;TRIO IP;Draft;Tshirts;Pepe Jeans;Adults-Men;Men;Olive;;;Fashion;Casual;2018;3XL,PEJETSHT00030815,L,PEJETSHT00030816,M,PEJETSHT00030817,S,PEJETSHT00030818,XL,PEJETSHT00030819,XXL,PEJETSHT00030820;1499.00;;;<p>100% COTTON</p>;;;;;zerotype;;Summer;;No
4287927;PM505902-NAVY-4287927;TOPAZ IP;Draft;Tshirts;Pepe Jeans;Adults-Men;Men;Navy Blue;;;Fashion;Casual;2018;3XL,PEJETSHT00030803,L,PEJETSHT00030804,M,PEJETSHT00030805,S,PEJETSHT00030806,XL,PEJETSHT00030807,XXL,PEJETSHT00030808;1199.00;;;<p>65% POLYESTER, 35% COTTON</p>;;;;;zerotype;;Summer;;No
4287926;PM505900-SILVER-4287926;THUNDER IP;Draft;Tshirts;Pepe Jeans;Adults-Men;Men;Silver;;;Fashion;Casual;2018;3XL,PEJETSHT00030797,L,PEJETSHT00030798,M,PEJETSHT00030799,S,PEJETSHT00030800,XL,PEJETSHT00030801,XXL,PEJETSHT00030802;1299.00;;;<p>100% COTTON</p>;;;;;zerotype;;Summer;;No
4287923;PM505884-GREY-4287923;ROCCO IP;Draft;Tshirts;Pepe Jeans;Adults-Men;Men;Grey;;;Fashion;Casual;2018;3XL,PEJETSHT00030779,L,PEJETSHT00030780,M,PEJETSHT00030781,S,PEJETSHT00030782,XL,PEJETSHT00030783,XXL,PEJETSHT00030784;799.00;;;<p>100% COTTON</p>;;;;;zerotype;;Summer;;No
4287922;PM505884-ECRU-4287922;ROCCO IP;Draft;Tshirts;Pepe Jeans;Adults-Men;Men;Off White;;;Fashion;Casual;2018;3XL,PEJETSHT00030773,L,PEJETSHT00030774,M,PEJETSHT00030775,S,PEJETSHT00030776,XL,PEJETSHT00030777,XXL,PEJETSHT00030778;799.00;;;<p>100% COTTON</p>;;;;;zerotype;;Summer;;No
4287921;PM505884-BLACK-4287921;ROCCO IP;Draft;Tshirts;Pepe Jeans;Adults-Men;Men;Black;;;Fashion;Casual;2018;3XL,PEJETSHT00030767,L,PEJETSHT00030768,M,PEJETSHT00030769,S,PEJETSHT00030770,XL,PEJETSHT00030771,XXL,PEJETSHT00030772;799.00;;;<p>100% COTTON</p>;;;;;zerotype;;Summer;;No
4287920;PM505856-ETON BLUE-4287920;JAP IP;Draft;Tshirts;Pepe Jeans;Adults-Men;Men;Blue;;;Fashion;Casual;2018;3XL,PEJETSHT00030761,L,PEJETSHT00030762,M,PEJETSHT00030763,S,PEJETSHT00030764,XL,PEJETSHT00030765,XXL,PEJETSHT00030766;899.00;;;<p>95% COTTON, 5% ELASTANE</p>;;;;;zerotype;;Summer;;No
4287919;PM505832-OLIVE-4287919;DASHER IP;Draft;Tshirts;Pepe Jeans;Adults-Men;Men;Olive;;;Fashion;Casual;2018;3XL,PEJETSHT00030755,L,PEJETSHT00030756,M,PEJETSHT00030757,S,PEJETSHT00030758,XL,PEJETSHT00030759,XXL,PEJETSHT00030760;1049.00;;;<p>100% COTTON</p>;;;;;zerotype;;Summer;;No
4287918;PM505818-SALMON-4287918;BRUTUS IP;Draft;Tshirts;Pepe Jeans;Adults-Men;Men;Orange;;;Fashion;Casual;2018;3XL,PEJETSHT00030749,L,PEJETSHT00030750,M,PEJETSHT00030751,S,PEJETSHT00030752,XL,PEJETSHT00030753,XXL,PEJETSHT00030754;1199.00;;;<p>100% COTTON</p>;;;;;zerotype;;Summer;;No
4287917;PM505817-GREY-4287917;BRUNZ IP;Draft;Tshirts;Pepe Jeans;Adults-Men;Men;Grey;;;Fashion;Casual;2018;3XL,PEJETSHT00030743,L,PEJETSHT00030744,M,PEJETSHT00030745,S,PEJETSHT00030746,XL,PEJETSHT00030747,XXL,PEJETSHT00030748;1099.00;;;<p>100% COTTON</p>;;;;;zerotype;;Summer;;No
4287916;PM505817-DK DENIM-4287916;BRUNZ IP;Draft;Tshirts;Pepe Jeans;Adults-Men;Men;Blue;;;Fashion;Casual;2018;3XL,PEJETSHT00030737,L,PEJETSHT00030738,M,PEJETSHT00030739,S,PEJETSHT00030740,XL,PEJETSHT00030741,XXL,PEJETSHT00030742;1099.00;;;<p>100% COTTON</p>;;;;;zerotype;;Summer;;No
4046190;FMJNRA144-LANIER-4046190;FMJNRA144;Draft;Jeans;Numero Uno;Adults-Men;Men;;;;Fashion;;2017;28,NMUNJENS00007050,30,NMUNJENS00007051,32,NMUNJENS00007052,34,NMUNJENS00007053,36,NMUNJENS00007054,38,NMUNJENS00007055;3099.00;;;<p>Machine Wash</p>;;;;;zerotype;;Fall;;No
3322805;PSF318003689-MediumGreenWithblue-3322805;PSF318003689;Draft;Shirts;Peter England;Adults-Men;Men;;;;Fashion;;2017;42,PTENSHRT00030231,44,PTENSHRT00030232,40,PTENSHRT00030233,36,PTENSHRT00030234,39,PTENSHRT00030235,38,PTENSHRT00030236;1299.00;;;<p>60%Cotton40%Polyester</p>;;;;;zerotype;;Spring;;No
3322660;PSF318003603-MediumblueWithWhite-3322660;PSF318003603;Draft;Shirts;Peter England;Adults-Men;Men;;;;Fashion;;2017;44,PTENSHRT00030197,39,PTENSHRT00030198,36,PTENSHRT00030199,40,PTENSHRT00030200,38,PTENSHRT00030201,42,PTENSHRT00030202;999.00;;;<p>48%Polyester29%Cotton23%Modal</p>;;;;;zerotype;;Spring;;No
3322563;PSF318003231-LightGreenWithWhite-3322563;PSF318003231;Draft;Shirts;Peter England;Adults-Men;Men;;;;Fashion;;2017;36,PTENSHRT00030176,42,PTENSHRT00030177,44,PTENSHRT00030178,40,PTENSHRT00030179,39,PTENSHRT00030180,38,PTENSHRT00030181;1299.00;;;<p>50%Cotton50%Polyester</p>;;;;;zerotype;;Spring;;No
3322501;PSF318003152-DarkPurpleWithGreen-3322501;PSF318003152;Draft;Shirts;Peter England;Adults-Men;Men;;;;Fashion;;2017;39,PTENSHRT00030162,36,PTENSHRT00030163,38,PTENSHRT00030164,40,PTENSHRT00030165,44,PTENSHRT00030166,42,PTENSHRT00030167;999.00;;;<p>55%Polyester45%Cotton</p>;;;;;zerotype;;Spring;;No
3322434;PSF318003109-DarkPinkwithWhite-3322434;PSF318003109;Draft;Shirts;Peter England;Adults-Men;Men;;;;Fashion;;2017;36,PTENSHRT00030148,38,PTENSHRT00030149,44,PTENSHRT00030150,42,PTENSHRT00030151,39,PTENSHRT00030152,40,PTENSHRT00030153;1199.00;;;<p>55%Polyester45%Cotton</p>;;;;;zerotype;;Spring;;No
3322293;PSF318002334-DarkblueWithWhite-3322293;PSF318002334;Draft;Shirts;Peter England;Adults-Men;Men;;;;Fashion;;2017;40,PTENSHRT00030116,36,PTENSHRT00030117,42,PTENSHRT00030118,44,PTENSHRT00030119,38,PTENSHRT00030120,39,PTENSHRT00030121;1499.00;;;<p>60%Cotton40%Polyester</p>;;;;;zerotype;;Spring;;No
2678394;274357146-RED-2678394;274357146;Draft;Shirts;Excalibur;Adults-Men;Men;Red;;;Fashion;;2018;40,ECLBSHRT00001810,44,ECLBSHRT00001811,39,ECLBSHRT00001812,42,ECLBSHRT00001813;599.00;;;<p>Machine Wash</p>;;;;;zerotype;;Spring;;No
2524775;2000723005-Baked Apple-2524775;JOR BOISE SS SHIRT IN;Draft;Shirts;Jack & Jones;Adults-Men;Men;Red;;;Fashion;;2018;XXL,JAJOSHRT00010124,M,JAJOSHRT00010125,L,JAJOSHRT00010126,XL,JAJOSHRT00010127,S,JAJOSHRT00010128;2299.00;;;<p>HANDWASH. WASH DARK COLORS SEPERATELY.</p>;;;;jj-ss18-jan,mens-JJ-ss18,jnj-ss18;zerotype;;Spring;jnj-ss18;No
2524761;2002374005-Mood Indigo-2524761;JJVC LAND SHIRT IN;Draft;Shirts;Jack & Jones;Adults-Men;Men;Blue;;;Fashion;;2018;XXL,JAJOSHRT00010054,M,JAJOSHRT00010055,L,JAJOSHRT00010056,XL,JAJOSHRT00010057,S,JAJOSHRT00010058;2799.00;;;<p>HANDWASH. WASH DARK COLORS SEPERATELY.</p>;;;;jj-ss18-jan,mens-JJ-ss18,jnj-ss18;zerotype;;Spring;jnj-ss18;No
2524753;1996148020-White-2524753;JJVC DABB LS SHIRT IN;Draft;Shirts;Jack & Jones;Adults-Men;Men;White;;;Fashion;;2018;XXL,JAJOSHRT00010014,M,JAJOSHRT00010015,L,JAJOSHRT00010016,XL,JAJOSHRT00010017,S,JAJOSHRT00010018;2299.00;;;<p>HANDWASH. WASH DARK COLORS SEPERATELY.</p>;;;;jj-ss18-jan,mens-JJ-ss18,jnj-ss18;zerotype;;Spring;jnj-ss18;No
2524752;1996148015-Thyme-2524752;JJVC DABB LS SHIRT IN;Draft;Shirts;Jack & Jones;Adults-Men;Men;Green;;;Fashion;;2018;XXL,JAJOSHRT00010009,M,JAJOSHRT00010010,L,JAJOSHRT00010011,XL,JAJOSHRT00010012,S,JAJOSHRT00010013;2299.00;;;<p>HANDWASH. WASH DARK COLORS SEPERATELY.</p>;;;;jj-ss18-jan,mens-JJ-ss18,jnj-ss18;zerotype;;Spring;jnj-ss18;No
2524676;1996083005-White Pepper-2524676;JJPR EDWIN LS PLAIN SHIRT IN;Draft;Shirts;Jack & Jones;Adults-Men;Men;Grey;;;Fashion;;2018;XXL,JAJOSHRT00009629,M,JAJOSHRT00009630,L,JAJOSHRT00009631,XL,JAJOSHRT00009632,S,JAJOSHRT00009633;3499.00;;;<p>HANDWASH. WASH DARK COLORS SEPERATELY.</p>;;;;jj-ss18-jan,mens-JJ-ss18,jnj-ss18;zerotype;;Spring;jnj-ss18;No
2523634;2000220005-White Pepper-2523634;JIENZO CHINO LONG SHORTS IN;Draft;Shorts;Jack & Jones;Adults-Men;Men;Grey;;;Fashion;;2018;M,JAJOSHOR00000973,L,JAJOSHOR00000974,XL,JAJOSHOR00000975,S,JAJOSHOR00000976;2299.00;;;<p>machine wash</p>;;;;jj-ss18-jan,mens-JJ-ss18,jnj-ss18;zerotype;;Spring;jnj-ss18;No
2523633;2000220010-Black-2523633;JIENZO CHINO LONG SHORTS IN;Draft;Shorts;Jack & Jones;Adults-Men;Men;Black;;;Fashion;;2018;M,JAJOSHOR00000969,L,JAJOSHOR00000970,XL,JAJOSHOR00000971,S,JAJOSHOR00000972;2299.00;;;<p>machine wash</p>;;;;jj-ss18-jan,mens-JJ-ss18,jnj-ss18;zerotype;;Spring;jnj-ss18;No
2523232;1999306012-Medium Blue Denim-2523232;JI BEN SC 606 IN;Draft;Jeans;Jack & Jones;Adults-Men;Men;Blue;;;Fashion;;2018;32/34,JAJOJENS00007924,34/34,JAJOJENS00007925,36/34,JAJOJENS00007926,38/34,JAJOJENS00007927,33/34,JAJOJENS00007928,40/34,JAJOJENS00007929,30/32,JAJOJENS00007930,29/32,JAJOJENS00007931,28/32,JAJOJENS00007932,32/32,JAJOJENS00007933,34/32,JAJOJENS00007934,31/32,JAJOJENS00007935;3499.00;;;<p>Machine wash</p>;;;;jj-ss18-jan,mens-JJ-ss18,jnj-ss18;zerotype;;Spring;jnj-ss18;No
2522604;2003975005-Grey Melange-2522604;JPR TIM TEE IN;Draft;Tshirts;Jack & Jones;Adults-Men;Men;Grey;;;Fashion;;2018;XXL,JAJOTSHT00020161,M,JAJOTSHT00020162,L,JAJOTSHT00020163,XL,JAJOTSHT00020164,S,JAJOTSHT00020165;1099.00;;;<p>Hand Wash</p>;;;;jj-ss18-jan,mens-JJ-ss18,jnj-ss18;zerotype;;Spring;jnj-ss18;No
2522564;1998392005-Cloud Dancer-2522564;JOR WORLD TEE SS CREW NECK IN;Draft;Tshirts;Jack & Jones;Adults-Men;Men;White;;;Fashion;;2018;XXL,JAJOTSHT00020056,M,JAJOTSHT00020057,L,JAJOTSHT00020058,XL,JAJOTSHT00020059,S,JAJOTSHT00020060;999.00;;;<p>Hand Wash</p>;;;;jj-ss18-jan,mens-JJ-ss18,jnj-ss18;zerotype;;Spring;jnj-ss18;No
2522547;1998005005-Dusty Pink-2522547;JOR DENIM TEE  IN;Draft;Tshirts;Jack & Jones;Adults-Men;Men;Rose;;;Fashion;;2018;XXL,JAJOTSHT00020011,M,JAJOTSHT00020012,L,JAJOTSHT00020013,XL,JAJOTSHT00020014,S,JAJOTSHT00020015;1099.00;;;<p>Hand Wash</p>;;;;jj-ss18-jan,mens-JJ-ss18,jnj-ss18;zerotype;;Spring;jnj-ss18;No
2522545;1998005010-Cashmere Blue-2522545;JOR DENIM TEE  IN;Draft;Tshirts;Jack & Jones;Adults-Men;Men;Blue;;;Fashion;;2018;M,JAJOTSHT00020006,XXL,JAJOTSHT00020007,S,JAJOTSHT00020008,XL,JAJOTSHT00020009,L,JAJOTSHT00020010;1099.00;;;<p>Hand Wash</p>;;;;jj-ss18-jan,mens-JJ-ss18,jnj-ss18;zerotype;;Spring;jnj-ss18;No
2522489;2002549005-White-2522489;JJPR WILLIAMSON POLO IN;Draft;Tshirts;Jack & Jones;Adults-Men;Men;White;;;Fashion;;2018;XXL,JAJOTSHT00019751,M,JAJOTSHT00019752,L,JAJOTSHT00019753,XL,JAJOTSHT00019754,S,JAJOTSHT00019755;1499.00;;;<p>Hand Wash</p>;;;;jj-ss18-jan,mens-JJ-ss18,jnj-ss18;zerotype;;Spring;jnj-ss18;No
2522410;2003934005-Fog-2522410;JJPR LOUIS TEE IN;Draft;Tshirts;Jack & Jones;Adults-Men;Men;Grey;;;Fashion;;2018;XXL,JAJOTSHT00019591,M,JAJOTSHT00019592,L,JAJOTSHT00019593,XL,JAJOTSHT00019594,S,JAJOTSHT00019595;999.00;;;<p>Hand Wash</p>;;;;jj-ss18-jan,mens-JJ-ss18,jnj-ss18;zerotype;;Spring;jnj-ss18;No
2522405;1998504005-Navy Blazer-2522405;JJPR JED STRIPE TEE SS CREW NECK IN;Draft;Tshirts;Jack & Jones;Adults-Men;Men;Blue;;;Fashion;;2018;XXL,JAJOTSHT00019566,M,JAJOTSHT00019567,L,JAJOTSHT00019568,XL,JAJOTSHT00019569,S,JAJOTSHT00019570;1299.00;;;<p>Hand Wash</p>;;;;jj-ss18-jan,mens-JJ-ss18,jnj-ss18;zerotype;;Spring;jnj-ss18;No
2522404;1998504010-Hawthorn Rose-2522404;JJPR JED STRIPE TEE SS CREW NECK IN;Draft;Tshirts;Jack & Jones;Adults-Men;Men;Purple;;;Fashion;;2018;XXL,JAJOTSHT00019561,M,JAJOTSHT00019562,L,JAJOTSHT00019563,XL,JAJOTSHT00019564,S,JAJOTSHT00019565;1299.00;;;<p>Hand Wash</p>;;;;jj-ss18-jan,mens-JJ-ss18,jnj-ss18;zerotype;;Spring;jnj-ss18;No
2522388;1998390005-White-2522388;JJPR DYLAN POLO SS IN;Draft;Tshirts;Jack & Jones;Adults-Men;Men;White;;;Fashion;;2018;XXL,JAJOTSHT00019481,M,JAJOTSHT00019482,L,JAJOTSHT00019483,XL,JAJOTSHT00019484,S,JAJOTSHT00019485;1699.00;;;<p>Hand Wash</p>;;;;jj-ss18-jan,mens-JJ-ss18,jnj-ss18;zerotype;;Spring;jnj-ss18;No
2522387;1998390015-Toadstool-2522387;JJPR DYLAN POLO SS IN;Draft;Tshirts;Jack & Jones;Adults-Men;Men;Purple;;;Fashion;;2018;XXL,JAJOTSHT00019476,M,JAJOTSHT00019477,L,JAJOTSHT00019478,XL,JAJOTSHT00019479,S,JAJOTSHT00019480;1699.00;;;<p>Hand Wash</p>;;;;jj-ss18-jan,mens-JJ-ss18,jnj-ss18;zerotype;;Spring;jnj-ss18;No
2522357;1997161005-Dress Blues-2522357;JJOR TOKYO SS TEE 2 IN;Draft;Tshirts;Jack & Jones;Adults-Men;Men;Blue;;;Fashion;;2018;XXL,JAJOTSHT00019326,M,JAJOTSHT00019327,L,JAJOTSHT00019328,XL,JAJOTSHT00019329,S,JAJOTSHT00019330;1299.00;;;<p>Hand Wash</p>;;;;jj-ss18-jan,mens-JJ-ss18,jnj-ss18;zerotype;;Spring;jnj-ss18;No
2522356;1997153005-Black-2522356;JJOR TOKYO SS TEE 1 IN;Draft;Tshirts;Jack & Jones;Adults-Men;Men;Black;;;Fashion;;2018;XXL,JAJOTSHT00019321,M,JAJOTSHT00019322,L,JAJOTSHT00019323,XL,JAJOTSHT00019324,S,JAJOTSHT00019325;1299.00;;;<p>Hand Wash</p>;;;;jj-ss18-jan,mens-JJ-ss18,jnj-ss18;zerotype;;Spring;jnj-ss18;No
2522354;2000818005-Dusty Pink-2522354;JJOR SUN POLO IN;Draft;Tshirts;Jack & Jones;Adults-Men;Men;Rose;;;Fashion;;2018;XXL,JAJOTSHT00019311,M,JAJOTSHT00019312,L,JAJOTSHT00019313,XL,JAJOTSHT00019314,S,JAJOTSHT00019315;1699.00;;;<p>Hand Wash</p>;;;;jj-ss18-jan,mens-JJ-ss18,jnj-ss18;zerotype;;Spring;jnj-ss18;No
2522253;2002545005-Dark Denim-2522253;JJOR CUT NEPS TEE IN;Draft;Tshirts;Jack & Jones;Adults-Men;Men;Blue;;;Fashion;;2018;XXL,JAJOTSHT00019061,M,JAJOTSHT00019062,L,JAJOTSHT00019063,XL,JAJOTSHT00019064,S,JAJOTSHT00019065;1099.00;;;<p>Hand Wash</p>;;;;jj-ss18-jan,mens-JJ-ss18,jnj-ss18;zerotype;;Spring;jnj-ss18;No
2522207;2008244010-White-2522207;JJOR BASIC SS18 POLO IN;Draft;Tshirts;Jack & Jones;Adults-Men;Men;White;;;Fashion;;2018;XXL,JAJOTSHT00018966,M,JAJOTSHT00018967,L,JAJOTSHT00018968,XL,JAJOTSHT00018969,S,JAJOTSHT00018970;1499.00;;;<p>Hand Wash</p>;;;;jj-ss18-jan,mens-JJ-ss18,jnj-ss18;zerotype;;Spring;jnj-ss18;No
2522205;2008244005-Scarlet-2522205;JJOR BASIC SS18 POLO IN;Draft;Tshirts;Jack & Jones;Adults-Men;Men;Red;;;Fashion;;2018;XXL,JAJOTSHT00018961,M,JAJOTSHT00018962,L,JAJOTSHT00018963,XL,JAJOTSHT00018964,S,JAJOTSHT00018965;1499.00;;;<p>Hand Wash</p>;;;;jj-ss18-jan,mens-JJ-ss18,jnj-ss18;zerotype;;Spring;jnj-ss18;No
2522203;2008244020-Navy Blazer-2522203;JJOR BASIC SS18 POLO IN;Draft;Tshirts;Jack & Jones;Adults-Men;Men;Blue;;;Fashion;;2018;XXL,JAJOTSHT00018956,M,JAJOTSHT00018957,L,JAJOTSHT00018958,XL,JAJOTSHT00018959,S,JAJOTSHT00018960;1499.00;;;<p>Hand Wash</p>;;;;jj-ss18-jan,mens-JJ-ss18,jnj-ss18;zerotype;;Spring;jnj-ss18;No
2522200;2008244015-Alpine Green-2522200;JJOR BASIC SS18 POLO IN;Draft;Tshirts;Jack & Jones;Adults-Men;Men;Teal;;;Fashion;;2018;XXL,JAJOTSHT00018951,M,JAJOTSHT00018952,L,JAJOTSHT00018953,XL,JAJOTSHT00018954,S,JAJOTSHT00018955;1499.00;;;<p>Hand Wash</p>;;;;jj-ss18-jan,mens-JJ-ss18,jnj-ss18;zerotype;;Spring;jnj-ss18;No
2522166;2002542005-White-2522166;JJCO URBANIZED TEE IN;Draft;Tshirts;Jack & Jones;Adults-Men;Men;White;;;Fashion;;2018;XXL,JAJOTSHT00018881,M,JAJOTSHT00018882,L,JAJOTSHT00018883,XL,JAJOTSHT00018884,S,JAJOTSHT00018885;1299.00;;;<p>Hand Wash</p>;;;;jj-ss18-jan,mens-JJ-ss18,jnj-ss18;zerotype;;Spring;jnj-ss18;No
2522142;2004173005-Light Grey Melange-2522142;JJCO NOLAN TEE IN;Draft;Tshirts;Jack & Jones;Adults-Men;Men;Grey;;;Fashion;;2018;XXL,JAJOTSHT00018831,M,JAJOTSHT00018832,L,JAJOTSHT00018833,XL,JAJOTSHT00018834,S,JAJOTSHT00018835;999.00;;;<p>Hand Wash</p>;;;;jj-ss18-jan,mens-JJ-ss18,jnj-ss18;zerotype;;Spring;jnj-ss18;No
2522108;2003928005-Sargasso Sea-2522108;JJCO CHAR TEE IN;Draft;Tshirts;Jack & Jones;Adults-Men;Men;Blue;;;Fashion;;2018;XXL,JAJOTSHT00018761,M,JAJOTSHT00018762,L,JAJOTSHT00018763,XL,JAJOTSHT00018764,S,JAJOTSHT00018765;1099.00;;;<p>Hand Wash</p>;;;;jj-ss18-jan,mens-JJ-ss18,jnj-ss18;zerotype;;Spring;jnj-ss18;No
2522106;2003928010-Dark Grey Melange-2522106;JJCO CHAR TEE IN;Draft;Tshirts;Jack & Jones;Adults-Men;Men;Grey;;;Fashion;;2018;XXL,JAJOTSHT00018756,M,JAJOTSHT00018757,L,JAJOTSHT00018758,XL,JAJOTSHT00018759,S,JAJOTSHT00018760;1099.00;;;<p>Hand Wash</p>;;;;jj-ss18-jan,mens-JJ-ss18,jnj-ss18;zerotype;;Spring;jnj-ss18;No
2522099;1998502005-Sky Captain-2522099;JJCO ASAP POLO SS IN;Draft;Tshirts;Jack & Jones;Adults-Men;Men;Blue;;;Fashion;;2018;XXL,JAJOTSHT00018741,M,JAJOTSHT00018742,L,JAJOTSHT00018743,XL,JAJOTSHT00018744,S,JAJOTSHT00018745;1499.00;;;<p>Hand Wash</p>;;;;jj-ss18-jan,mens-JJ-ss18,jnj-ss18;zerotype;;Spring;jnj-ss18;No
2522087;2003976005-White-2522087;JCO LEO TEE IN;Draft;Tshirts;Jack & Jones;Adults-Men;Men;White;;;Fashion;;2018;M,JAJOTSHT00018716,XL,JAJOTSHT00018717,XXL,JAJOTSHT00018718,L,JAJOTSHT00018719,S,JAJOTSHT00018720;1099.00;;;<p>Hand Wash</p>;;;;jj-ss18-jan,mens-JJ-ss18,jnj-ss18;zerotype;;Spring;jnj-ss18;No
2521686;ALKP1J002792-Black-2521686;Tshirt;Draft;Tshirts;Solly Jeans Co.;Adults-Men;Men;;;;Core;Casual;2017;3XL,SYJSTSHT00001118,L,SYJSTSHT00001119,M,SYJSTSHT00001120,S,SYJSTSHT00001121,XL,SYJSTSHT00001122,XXL,SYJSTSHT00001123;1199.00;;;<p>Wash with mild detergent. Do not bleach. Dry in shade</p>;;;;;zerotype;;Spring;;No
2511696;COSR00872-B3-Blue-2511696;CONTEMPORARY FIT HS BUTTON DOWN;Draft;Shirts;ColorPlus;Adults-Men;Men;Blue;;;Fashion;;2017;00L,CRPSSHRT00006977,00M,CRPSSHRT00006978,00S,CRPSSHRT00006979,0XL,CRPSSHRT00006980;2299.00;;;<p>Wash Dark Color Separately,Cotton 100%</p>;;;;;zerotype;;Summer;;No
2510559;RPSZ00616-B5-Blue-2510559;FFC COLLAR WITH ROUND CUFF;Draft;Shirts;Raymond;Adults-Men;Men;Blue;;;Fashion;;2017;39,RYMDSHRT00013957,40,RYMDSHRT00013958,42,RYMDSHRT00013959,44,RYMDSHRT00013960,46,RYMDSHRT00013961;7999.00;;;<p>Machine Wash Warm Gentle Cycle,Cotton 100%</p>;;;;;zerotype;;Winter;;No
2497219;CY2205-WHITE-2497219;SPEEDWICK GRAPHIC TEE;Draft;Tshirts;Reebok;Adults-Men;Men;White;;;Fashion;;2018;S,RBOKTSHT00105493,2XL,RBOKTSHT00105494,M,RBOKTSHT00105495,XL,RBOKTSHT00105496,L,RBOKTSHT00105497;1499.00;<p>SpeedWick moisutre management technology. Poly/cotton jersey fabrication. Flatlock seams. Graphic for added style.</p>;;<p>Use only mild detergent. Wash dark colors separately. Iron on reverse. Wash with like colors only. Do not Iron print</p>;;;Men Reebok SPEEDWICK GRAPHIC TEE;;zerotype;;Spring;;No
2497183;CX0750-CLYTNT-2497183;REEBOK  CORE POLO 3;Draft;Tshirts;Reebok;Adults-Men;Men;Maroon;;;Fashion;;2018;L,RBOKTSHT00105436,M,RBOKTSHT00105437,XL,RBOKTSHT00105438,2XL,RBOKTSHT00105439,S,RBOKTSHT00105440;1699.00;<p>Cotton Poly Polo for comfort and Style</p>;;<p>Use only mild detergent. Wash dark colors separately. Iron on reverse. Wash with like colors only. Do not Iron print</p>;;;Men Reebok REEBOK  CORE POLO 3;;zerotype;;Spring;;No
2497114;CX0397-DGREYH-2497114;CORE COTTON POLO;Draft;Tshirts;Reebok;Adults-Men;Men;Grey;;;Fashion;;2018;L,RBOKTSHT00105318,M,RBOKTSHT00105319,2XL,RBOKTSHT00105320,XL,RBOKTSHT00105321,S,RBOKTSHT00105322;1199.00;<p>A casual cotton pique polo designed to provide the style you need</p>;;<p>Use only mild detergent. Wash dark colors separately. Iron on reverse. Wash with like colors only. Do not Iron print</p>;;;Men Reebok CORE COTTON POLO;;zerotype;;Spring;;No
2497098;CX0380-BRNSIE-2497098;ESSENTIAL GRAPHIC TEE;Draft;Tshirts;Reebok;Adults-Men;Men;Brown;;;Fashion;;2018;L,RBOKTSHT00105288,M,RBOKTSHT00105289,2XL,RBOKTSHT00105290,S,RBOKTSHT00105291,XL,RBOKTSHT00105292;1499.00;<p>You'll be workout ready with this Tee  Fitness Inspired Graphic on front adds to the style</p>;;<p>Use only mild detergent. Wash dark colors separately. Iron on reverse. Wash with like colors only. Do not Iron print</p>;;;Men Reebok ESSENTIAL GRAPHIC TEE;;zerotype;;Spring;;No
2496978;CD6630-BLACK-2496978;EF  LONGER TEE;Draft;Tshirts;Reebok Classic;Adults-Men;Men;Black;;;Fashion;;2018;2XL,RBCLTSHT00000998,L,RBCLTSHT00000999,XL,RBCLTSHT00001000,S,RBCLTSHT00001001,M,RBCLTSHT00001002;2499.00;<p>Single jersey longer tee. 2 back graphics. Collision sleeves. regular fit.</p>;;<p>Use only mild detergent. Wash dark colors separately. Iron on reverse. Wash with like colors only. Do not Iron print</p>;;;Men Reebok Classic EF  LONGER TEE;;zerotype;;Spring;;No
2496973;CD6614-MGREYH-2496973;F PIQUE POLO;Draft;Tshirts;Reebok Classic;Adults-Men;Men;Grey;;;Fashion;;2018;S,RBCLTSHT00000988,XL,RBCLTSHT00000989,L,RBCLTSHT00000990,2XL,RBCLTSHT00000991,M,RBCLTSHT00000992;1999.00;<p>Slim fit polo. Hide and seek rib tipping. Darted CB. Taped side seam plackets.</p>;;<p>Use only mild detergent. Wash dark colors separately. Iron on reverse. Wash with like colors only. Do not Iron print</p>;;;Men Reebok Classic F PIQUE POLO;;zerotype;;Spring;;No
2496957;CD5651-CHALK-2496957;COMBAT X GG BOXING TEE;Draft;Tshirts;Reebok;Adults-Men;Men;Beige;;;Fashion;;2018;M,RBOKTSHT00105074,L,RBOKTSHT00105075,S,RBOKTSHT00105076,XL,RBOKTSHT00105077;1999.00;<p>SPEEDWICK. Reebok Combat x Gian Galang. Collaboration with Brooklyn based artist Gian Galang, with his interpretation of the discipline of boxing on a slim fit poly spun jersey.</p>;;<p>Use only mild detergent. Wash dark colors separately. Iron on reverse. Wash with like colors only. Do not Iron print</p>;;;Men Reebok COMBAT X GG BOXING TEE;;zerotype;;Spring;;No
2491722;8907196725217-TRUE NAVY-2491722;NL-DOFF18:NYEN18Q/TRUE NAVY;BIS + Content Complete;Shirts;Blackberrys;Adults-Men;Men;Navy Blue;;;Fashion;Formal;2017;38,BKBRSHRT00010870,39,BKBRSHRT00010871,40,BKBRSHRT00010872,42,BKBRSHRT00010873,44,BKBRSHRT00010874;2595.00;Navy Blue printed formal shirt, has a spread collar, button placket, long sleeves, curved hem;Pull off a formal look any day of the year with this Blackberrys shirt.  Make it to your next business meeting or formal event wearing this navy blue shirt with slim trousers and brogues.;Cotton <br> Machine-wash;Slim fit<br> The model (height 6') is wearing a size M;;Blackberrys Men Navy Blue Slim Fit Printed Formal Shirt;Blackberrys;zerotype;;Winter;os reject- wrong image;No
2487778;57524901-Team Blue-2487778;BMW MS Hooded Sweat Jacket;Draft;Jackets;Puma;Adults-Men;Men;Blue;;;Core;;2018;S,PUMAJCKT00103950,M,PUMAJCKT00103951,L,PUMAJCKT00103952,XL,PUMAJCKT00103953,XXL,PUMAJCKT00103954;6999.00;<p>BMW Motorsport wording rubber print  BMW Propeller transfer badge  PUMA Cat Logo rubber print  'Powered by ///M' Logo heat transfer on back  2-tone mesh tape detail on back</p>;;<p>Main Material 1: 77% cotton 23% polyester   double knit  320.00 g/m</p>;;;BMW MS Hooded Sweat Jacket;BMW,puma-motorsport-men,puma-best-men,puma-ss18,puma-ss-18;zerotype;;Summer;puma-ss-18;No
2487213;85147803-Puma Black-2487213;India Printed Mens Chino Shorts;Draft;Shorts;Puma;Adults-Men;Men;Black;;;Fashion;;2018;30,PUMASHOR00107189,32,PUMASHOR00107190,34,PUMASHOR00107191,36,PUMASHOR00107192,38,PUMASHOR00107193,28,PUMASHOR00107194;2299.00;<p>-</p>;;<p>Cotton</p>;;;India Printed Mens Chino Shorts;puma-ss18,puma-ss-18;zerotype;;Summer;puma-ss-18;No
2487091;59484701-Puma Black-2487091;Graphic Rebel Tricot Suit CL;Draft;Tracksuits;Puma;Adults-Men;Men;Black;;;Fashion;;2018;L,PUMATRST00001117,M,PUMATRST00001118,S,PUMATRST00001119,XL,PUMATRST00001120;4299.00;<p>Jacket:Graphic pigment print Elastic waistband and cuffs Regular Fit Pant:Graphic pigment print Tapered leg fit Elasticated cuffs Elastic waistband with internal drawcords </p>;;<p>Main Material 1: 100% polyester   tricot  220.00 g/m  brushed: back</p>;;;Graphic Rebel Tricot Suit CL;puma-ss18,puma-ss-18;zerotype;;Summer;puma-ss-18;No
2486533;51625001-Puma Black-2486533;Run Tee;Draft;Tshirts;Puma;Adults-Men;Men;Black;;;Core;;2018;L,PUMATSHT00136091,XL,PUMATSHT00136092,S,PUMATSHT00136093,M,PUMATSHT00136094,XXL,PUMATSHT00136095;2499.00;<p>dryCELL: Highly functional materials draw sweat away from your skin and help keep you dry and comfortable during exercise Flatlock stitching for less friction and higher comfort Reflective items for enhanced visibility in low light conditions Graphic: Run with seasonal graphic inspiration</p>;;<p>Main Material 1: 100% polyester   feeder stripe  142.00 g/m  finish: bio-based wicking finish</p>;;;Run Tee;puma-ss18,puma-ss-18;zerotype;;Summer;puma-ss-18;No
2451596;8902789826524-Imperial Purple-2451596;WCMWSHA160198;Draft;Shirts;Wills Lifestyle;Adults-Men;Men;;;;Fashion;;2017;39,WILISHRT00013887,40,WILISHRT00013888,42,WILISHRT00013889,44,WILISHRT00013890,46,WILISHRT00013891;2299.00;;;<p>100% Cotton</p>;;;;;zerotype;;Winter;;No
2306402;PT-BELLINO-15-032741945-Brown-2306402;PT-BELLINO-15-032741945;On Hold - Sample;Trousers;Theme;Adults-Men;Men;Brown;;;Fashion;;2018;30,THMETRSR00000693,32,THMETRSR00000694,34,THMETRSR00000695;1895.00;;;<p>Machine Wash Cold with Like Colours, Maybe Tumble Dried, Warm Iron if needed</p>;;;;;zerotype;;Summer;New Styles- Category;No
2306383;CT-OPERA-15-032762346-Grey-2306383;CT-OPERA-15-032762346;On Hold - Sample;Trousers;Theme;Adults-Men;Men;Grey;;;Fashion;;2018;30,THMETRSR00000648,32,THMETRSR00000649,34,THMETRSR00000650;1495.00;;;<p>Machine Wash Cold with Like Colours, Maybe Tumble Dried, Warm Iron if needed</p>;;;;;zerotype;;Summer;New Styles- Category;No
