Style ID;Vendor Article Number;Vendor Article Name;Active Status;Article type;Brand;Age Group;Gender;Base Colour;Colour1;Colour2;Fashion Type;Usage;Year;Size - SKU code pair;MRP;Style Description;Style Note;Materials and Care Description;Size and Fit Description;Size Chart Path;Product Display Name;Tags;Product Type;Classification Brand;Season;Comments;Upload Images
2493303;ETF51706756-Beige-2493303;Trousers;Draft;Trousers;Peter England Casuals;Adults-Men;Men;Beige;;;Fashion;Casual;2017;44,PEDCTRSR00001073,42,PEDCTRSR00001074;1899.00;;;<p>100% Cotton</p>;;;na;;zerotype;;Winter;;No
2493301;ETF51706756-Beige-2493301;Trousers;Draft;Trousers;Peter England Casuals;Adults-Men;Men;Beige;;;Fashion;Casual;2017;40,PEDCTRSR00001071,38,PEDCTRSR00001072;1799.00;;;<p>100% Cotton</p>;;;na;;zerotype;;Winter;;No
2493300;ETF51706756-Beige-2493300;Trousers;Draft;Trousers;Peter England Casuals;Adults-Men;Men;Beige;;;Fashion;Casual;2017;30,PEDCTRSR00001067,34,PEDCTRSR00001068,32,PEDCTRSR00001069,36,PEDCTRSR00001070;1799.00;;;<p>100% Cotton</p>;;;na;;zerotype;;Winter;;No
2493298;CKC51708566-Yellow-2493298;Tshirts;Draft;Tshirts;Peter England Casuals;Adults-Men;Men;Yellow;;;Fashion;;2017;M,PEDCTSHT00002528,XL,PEDCTSHT00002529,XXL,PEDCTSHT00002530,3XL,PEDCTSHT00002531,S,PEDCTSHT00002532,L,PEDCTSHT00002533;899.00;;;<p>95% Polyester and 5% Elastane</p>;;;na;;zerotype;;Winter;;No
2493296;JKP51708335-White-2493296;Tshirts;Draft;Tshirts;Peter England Casuals;Adults-Men;Men;White;;;Fashion;;2017;XXL,PEDCTSHT00002522,L,PEDCTSHT00002523,M,PEDCTSHT00002524,S,PEDCTSHT00002525,3XL,PEDCTSHT00002526,XL,PEDCTSHT00002527;1299.00;;;<p>100% Cotton</p>;;;na;;zerotype;;Winter;;No
2493294;ESF51702550-Black-2493294;Shirts;Draft;Shirts;Peter England Casuals;Adults-Men;Men;Black;;;Fashion;;2017;39,PEDCSHRT00003315,36,PEDCSHRT00003316;1499.00;;;<p>100% Cotton</p>;;;na;;zerotype;;Winter;;No
2493293;JSF51704261-Blue-2493293;Shirts;Draft;Shirts;Peter England Casuals;Adults-Men;Men;Blue;;;Fashion;;2017;39,PEDCSHRT00003313,36,PEDCSHRT00003314;1599.00;;;<p>100% Cotton</p>;;;na;;zerotype;;Winter;;No
2493292;ESF51702550-Black-2493292;Shirts;Draft;Shirts;Peter England Casuals;Adults-Men;Men;Black;;;Fashion;;2017;44,PEDCSHRT00003309,42,PEDCSHRT00003310,40,PEDCSHRT00003311,38,PEDCSHRT00003312;1499.00;;;<p>100% Cotton</p>;;;na;;zerotype;;Winter;;No
2493290;JSF51704261-Blue-2493290;Shirts;Draft;Shirts;Peter England Casuals;Adults-Men;Men;Blue;;;Fashion;;2017;46,PEDCSHRT00003308;1699.00;;;<p>100% Cotton</p>;;;na;;zerotype;;Winter;;No
2493288;JSF51704261-Blue-2493288;Shirts;Draft;Shirts;Peter England Casuals;Adults-Men;Men;Blue;;;Fashion;;2017;38,PEDCSHRT00003304,44,PEDCSHRT00003305,42,PEDCSHRT00003306,40,PEDCSHRT00003307;1599.00;;;<p>100% Cotton</p>;;;na;;zerotype;;Winter;;No
2493286;ESF51702550-Black-2493286;Shirts;Draft;Shirts;Peter England Casuals;Adults-Men;Men;Black;;;Fashion;;2017;46,PEDCSHRT00003303;1599.00;;;<p>100% Cotton</p>;;;na;;zerotype;;Winter;;No
2220408;CKC51708563-Red-2220408;Tshirts;Active;Tshirts;Peter England Casuals;Adults-Men;Men;Red;;;Fashion;Casual;2017;XXL,PEDCTSHT00001821,3XL,PEDCTSHT00001822,S,PEDCTSHT00001823,M,PEDCTSHT00001824,L,PEDCTSHT00001825,XL,PEDCTSHT00001826;899.00;Red printed T-shirt, has a round neck, short sleeves;Amp up your casual style with a well-structured T-shirt from Peter England Casuals.  You can pair this red piece with slick black jeans and Chelsea boots for a fashionable weekend outfit.;Cotton<br> Machine-wash;The model (height 6') is wearing a size M;;Peter England Casuals Men Red Printed Round Neck T-shirt;Peter England Casuals,PPMP;zerotype;;Winter;;No
