Style ID;Vendor Article Number;Vendor Article Name;Active Status;Article type;Brand;Age Group;Gender;Base Colour;Colour1;Colour2;Fashion Type;Usage;Year;Size - SKU code pair;MRP;Style Description;Style Note;Materials and Care Description;Size and Fit Description;Size Chart Path;Product Display Name;Tags;Product Type;Classification Brand;Season;Comments;Upload Images
2078930;ASTF0805-Dk. Red-2078930;SH FS AF24 SEM PRI FS17ARWLSH050R3S1;Draft;Shirts;Arrow;Adults-Men;Men;;;;Fashion;;2016;39,ARRWSHRT00006724,40,ARRWSHRT00006725,42,ARRWSHRT00006726,44,ARRWSHRT00006727;1899.00;;;<p>Normal machine wash with cold water</p>;;;;;zerotype;;Fall;;No
2078929;ASTF0779-Lt. Blue-2078929;SH FS AF23 PDB STR FS17ARWLSH006B1;Draft;Shirts;Arrow;Adults-Men;Men;;;;Fashion;;2016;39,ARRWSHRT00006720,40,ARRWSHRT00006721,42,ARRWSHRT00006722,44,ARRWSHRT00006723;2099.00;;;<p>Normal machine wash with cold water</p>;;;;;zerotype;;Fall;;No
2078928;ASTF0748-Lt. Pink-2078928;SH FS AF23 SEM STR FS17ARPRSH030P1;Draft;Shirts;Arrow;Adults-Men;Men;;;;Fashion;;2016;39,ARRWSHRT00006716,40,ARRWSHRT00006717,42,ARRWSHRT00006718,44,ARRWSHRT00006719;2399.00;;;<p>Normal machine wash with cold water</p>;;;;;zerotype;;Fall;;No
2078927;ASTF0746-Lt. Blue-2078927;SH FS AF23 SEM STR FS17ARPRSH030B1;Draft;Shirts;Arrow;Adults-Men;Men;;;;Fashion;;2016;39,ARRWSHRT00006712,40,ARRWSHRT00006713,42,ARRWSHRT00006714,44,ARRWSHRT00006715;2399.00;;;<p>Normal machine wash with cold water</p>;;;;;zerotype;;Fall;;No
2078926;ASTF0621-Navy-2078926;SH FS AF24 SEM PRI FS17ARWLSH051N1;Draft;Shirts;Arrow;Adults-Men;Men;;;;Fashion;;2016;38,ARRWSHRT00006706,39,ARRWSHRT00006707,40,ARRWSHRT00006708,42,ARRWSHRT00006709,44,ARRWSHRT00006710,46,ARRWSHRT00006711;1899.00;;;<p>Normal machine wash with cold water</p>;;;;;zerotype;;Fall;;No
2078925;ASTF0575-Lt. Pink-2078925;SH HS AF23 SEM SOL FS17ARWLSH034P1S1;Draft;Shirts;Arrow;Adults-Men;Men;;;;Fashion;;2016;39,ARRWSHRT00006702,40,ARRWSHRT00006703,42,ARRWSHRT00006704,44,ARRWSHRT00006705;1899.00;;;<p>Normal machine wash with cold water</p>;;;;;zerotype;;Fall;;No
2078924;ASTF0559-WHITE-2078924;SH FS AF24 SEM PRI FS17ARWLSH030W1;Draft;Shirts;Arrow;Adults-Men;Men;;;;Fashion;;2016;38,ARRWSHRT00006697,39,ARRWSHRT00006698,40,ARRWSHRT00006699,42,ARRWSHRT00006700,44,ARRWSHRT00006701;2099.00;;;<p>Normal machine wash with cold water</p>;;;;;zerotype;;Fall;;No
2078923;ASTF0551-WHITE-2078923;SH FS AF24 BAN STR FS17ARWLSH026W1S1;Draft;Shirts;Arrow;Adults-Men;Men;;;;Fashion;;2016;39,ARRWSHRT00006692,40,ARRWSHRT00006693,42,ARRWSHRT00006694,44,ARRWSHRT00006695,46,ARRWSHRT00006696;2099.00;;;<p>Normal machine wash with cold water</p>;;;;;zerotype;;Fall;;No
2078922;ASTF0546-Olive-2078922;SH FS AF24 SEM YDC FS17ARWLSH025I1;Draft;Shirts;Arrow;Adults-Men;Men;;;;Fashion;;2016;38,ARRWSHRT00006687,39,ARRWSHRT00006688,40,ARRWSHRT00006689,42,ARRWSHRT00006690,44,ARRWSHRT00006691;1699.00;;;<p>Normal machine wash with cold water</p>;;;;;zerotype;;Fall;;No
2078921;ASTF0517-Lt. Pink-2078921;SH FS AF24 SEM YDC FS17ARWLSH010P1;Draft;Shirts;Arrow;Adults-Men;Men;;;;Fashion;;2016;38,ARRWSHRT00006681,39,ARRWSHRT00006682,40,ARRWSHRT00006683,42,ARRWSHRT00006684,44,ARRWSHRT00006685,46,ARRWSHRT00006686;2099.00;;;<p>Normal machine wash with cold water</p>;;;;;zerotype;;Fall;;No
2078920;ASTF0516-Lt. Blue-2078920;SH FS AF24 SEM YDC FS17ARWLSH010B1;Draft;Shirts;Arrow;Adults-Men;Men;;;;Fashion;;2016;39,ARRWSHRT00006676,40,ARRWSHRT00006677,42,ARRWSHRT00006678,44,ARRWSHRT00006679,46,ARRWSHRT00006680;2099.00;;;<p>Normal machine wash with cold water</p>;;;;;zerotype;;Fall;;No
2078919;ASTF0201-BLACK-2078919;SH FS AF24 SEM PRI FS17ARPRSH203Z1;Draft;Shirts;Arrow;Adults-Men;Men;;;;Fashion;;2017;38,ARRWSHRT00006670,39,ARRWSHRT00006671,40,ARRWSHRT00006672,42,ARRWSHRT00006673,44,ARRWSHRT00006674;2399.00;;;<p>Normal machine wash with cold water</p>;;;;mitm-new-season;zerotype;;Fall;mitm-new-season;No
2078918;ASTF0139-Me. Pink-2078918;SH FS AF24 SEM PRI FS17ARPRSH099P2;Draft;Shirts;Arrow;Adults-Men;Men;;;;Fashion;;2016;39,ARRWSHRT00006665,40,ARRWSHRT00006666,42,ARRWSHRT00006667,44,ARRWSHRT00006668,46,ARRWSHRT00006669;2399.00;;;<p>Normal machine wash with cold water</p>;;;;;zerotype;;Fall;;No
2078917;ASTF0054-Me. Pink-2078917;SH HS AF23 SEM STR FS17ARPRSH034P2;Draft;Shirts;Arrow;Adults-Men;Men;;;;Fashion;;2016;39,ARRWSHRT00006661,40,ARRWSHRT00006662,42,ARRWSHRT00006663,44,ARRWSHRT00006664;2399.00;;;<p>Normal machine wash with cold water</p>;;;;;zerotype;;Fall;;No
2078916;ASTF0053-Dk. Blue-2078916;SH HS AF23 SEM STR FS17ARPRSH034B3;Draft;Shirts;Arrow;Adults-Men;Men;;;;Fashion;;2016;39,ARRWSHRT00006657,40,ARRWSHRT00006658,42,ARRWSHRT00006659,44,ARRWSHRT00006660;2399.00;;;<p>Normal machine wash with cold water</p>;;;;;zerotype;;Fall;;No
2078913;ASRF0054-Dk. Blue-2078913;SH HS REG SEM STR S16ARPRSH030B3;Draft;Shirts;Arrow;Adults-Men;Men;;;;Fashion;;2016;39,ARRWSHRT00006645,40,ARRWSHRT00006646,42,ARRWSHRT00006647,44,ARRWSHRT00006648,46,ARRWSHRT00006649;2299.00;;;<p>Normal machine wash with cold water</p>;;;;;zerotype;;Fall;;No
2078910;ARES0895-Dk. Blue-2078910;SH FS REG SEM YDC ARES0895;Draft;Shirts;Arrow;Adults-Men;Men;;;;Fashion;;2017;38,ARRWSHRT00006639,39,ARRWSHRT00006640,40,ARRWSHRT00006641,42,ARRWSHRT00006642,44,ARRWSHRT00006643,46,ARRWSHRT00006644;2299.00;;;<p>Normal machine wash with cold water</p>;;;;mitm-new-season;zerotype;;Fall;mitm-new-season;No
2078908;ARES0892-BLACK-2078908;SH FS AF24 STR FS14ARWLSH027Z1;Draft;Shirts;Arrow;Adults-Men;Men;;;;Fashion;;2017;38,ARRWSHRT00006627,39,ARRWSHRT00006628,40,ARRWSHRT00006629,42,ARRWSHRT00006630,44,ARRWSHRT00006631,46,ARRWSHRT00006632;2299.00;;;<p>Normal machine wash with cold water</p>;;;;mitm-new-season;zerotype;;Fall;mitm-new-season;No
2078907;ARES0891-DARK PURPLE-2078907;SH FS AF24 STR FS14ARWLSH027U2;Draft;Shirts;Arrow;Adults-Men;Men;;;;Fashion;;2017;38,ARRWSHRT00006621,39,ARRWSHRT00006622,40,ARRWSHRT00006623,42,ARRWSHRT00006624,44,ARRWSHRT00006625,46,ARRWSHRT00006626;2299.00;;;<p>Normal machine wash with cold water</p>;;;;mitm-new-season;zerotype;;Fall;mitm-new-season;No
2078906;ARES0890-Navy-2078906;SH FS AF24 STR FS14ARWLSH027N1;Draft;Shirts;Arrow;Adults-Men;Men;;;;Fashion;;2017;38,ARRWSHRT00006615,39,ARRWSHRT00006616,40,ARRWSHRT00006617,42,ARRWSHRT00006618,44,ARRWSHRT00006619,46,ARRWSHRT00006620;2299.00;;;<p>Normal machine wash with cold water</p>;;;;mitm-new-season;zerotype;;Fall;mitm-new-season;No
2078903;ARES0886B-Lavender-2078903;SH FS REG YDC FS16ARWLSH053L2;Draft;Shirts;Arrow;Adults-Men;Men;;;;Fashion;;2017;39,ARRWSHRT00006611,40,ARRWSHRT00006612,42,ARRWSHRT00006613,44,ARRWSHRT00006614;2199.00;;;<p>Normal machine wash with cold water</p>;;;;mitm-new-season;zerotype;;Fall;mitm-new-season;No
2078902;ARES0886A-Lavender-2078902;SH FS REG SEM YDC S16ARWLSH053L2;Draft;Shirts;Arrow;Adults-Men;Men;;;;Fashion;;2017;38,ARRWSHRT00006604,39,ARRWSHRT00006605,40,ARRWSHRT00006606,42,ARRWSHRT00006607,44,ARRWSHRT00006608,46,ARRWSHRT00006609,48,ARRWSHRT00006610;2099.00;;;<p>Normal machine wash with cold water</p>;;;;mitm-new-season;zerotype;;Fall;mitm-new-season;No
2078901;ARES0885B-Blue-2078901;SH FS REG YDC FS16ARWLSH053B3;Draft;Shirts;Arrow;Adults-Men;Men;;;;Fashion;;2017;39,ARRWSHRT00006600,40,ARRWSHRT00006601,42,ARRWSHRT00006602,44,ARRWSHRT00006603;2199.00;;;<p>Normal machine wash with cold water</p>;;;;mitm-new-season;zerotype;;Fall;mitm-new-season;No
2078900;ARES0885A-Blue-2078900;SH FS REG SEM YDC S16ARWLSH053B3;Draft;Shirts;Arrow;Adults-Men;Men;;;;Fashion;;2017;38,ARRWSHRT00006593,39,ARRWSHRT00006594,40,ARRWSHRT00006595,42,ARRWSHRT00006596,44,ARRWSHRT00006597,46,ARRWSHRT00006598,48,ARRWSHRT00006599;2099.00;;;<p>Normal machine wash with cold water</p>;;;;mitm-new-season;zerotype;;Fall;mitm-new-season;No
2078899;ARES0884A-DARK PURPLE-2078899;SH FS REG SEM YDC S16ARPRSH091U2;Draft;Shirts;Arrow;Adults-Men;Men;;;;Fashion;;2017;38,ARRWSHRT00006587,39,ARRWSHRT00006588,40,ARRWSHRT00006589,42,ARRWSHRT00006590,44,ARRWSHRT00006591,46,ARRWSHRT00006592;2399.00;;;<p>Normal machine wash with cold water</p>;;;;mitm-new-season;zerotype;;Fall;mitm-new-season;No
2078898;ARES0883A-Lt. Blue-2078898;SH FS REG SEM YDC S16ARPRSH091B1;Draft;Shirts;Arrow;Adults-Men;Men;;;;Fashion;;2017;38,ARRWSHRT00006581,39,ARRWSHRT00006582,40,ARRWSHRT00006583,42,ARRWSHRT00006584,44,ARRWSHRT00006585,46,ARRWSHRT00006586;2399.00;;;<p>Normal machine wash with cold water</p>;;;;mitm-new-season;zerotype;;Fall;mitm-new-season;No
2078897;ARES0882A-Dk. Blue-2078897;SH FS REG SEM YDC S16ARPRSH091B3;Draft;Shirts;Arrow;Adults-Men;Men;;;;Fashion;;2017;38,ARRWSHRT00006575,39,ARRWSHRT00006576,40,ARRWSHRT00006577,42,ARRWSHRT00006578,44,ARRWSHRT00006579,46,ARRWSHRT00006580;2399.00;;;<p>Normal machine wash with cold water</p>;;;;mitm-new-season;zerotype;;Fall;mitm-new-season;No
2078893;ARES0860A-WHITE-2078893;SH FS REG SEM SOL S15ARWLSH119W1;Draft;Shirts;Arrow;Adults-Men;Men;;;;Fashion;;2017;38,ARRWSHRT00006569,39,ARRWSHRT00006570,40,ARRWSHRT00006571,44,ARRWSHRT00006572,46,ARRWSHRT00006573,48,ARRWSHRT00006574;1899.00;;;<p>Normal machine wash with cold water</p>;;;;mitm-new-season;zerotype;;Fall;mitm-new-season;No
2078892;ARES0859B-Dk. Red-2078892;SH FS REG SEM SOL S12ARWLSH056R3;Draft;Shirts;Arrow;Adults-Men;Men;;;;Fashion;;2017;38,ARRWSHRT00006563,39,ARRWSHRT00006564,40,ARRWSHRT00006565,42,ARRWSHRT00006566,44,ARRWSHRT00006567,46,ARRWSHRT00006568;2099.00;;;<p>Normal machine wash with cold water</p>;;;;mitm-new-season;zerotype;;Fall;mitm-new-season;No
2078891;ARES0856B-Dk. Blue-2078891;SH FS REG SEM SOL S12ARWLSH056B3;Draft;Shirts;Arrow;Adults-Men;Men;;;;Fashion;;2017;38,ARRWSHRT00006557,39,ARRWSHRT00006558,40,ARRWSHRT00006559,42,ARRWSHRT00006560,44,ARRWSHRT00006561,46,ARRWSHRT00006562;2099.00;;;<p>Normal machine wash with cold water</p>;;;;mitm-new-season;zerotype;;Fall;mitm-new-season;No
2078890;ARES0770A-BLACK-2078890;SH FS REG SEM SOL BEST BLACK 2/80's;Draft;Shirts;Arrow;Adults-Men;Men;;;;Fashion;;2017;38,ARRWSHRT00006551,39,ARRWSHRT00006552,40,ARRWSHRT00006553,42,ARRWSHRT00006554,44,ARRWSHRT00006555,46,ARRWSHRT00006556;2099.00;;;<p>Normal machine wash with cold water</p>;;;;mitm-new-season;zerotype;;Fall;mitm-new-season;No
2078888;ARES0768A-WHITE-2078888;SH FS REG SEM SOL BEST WHITE 2/80's;Draft;Shirts;Arrow;Adults-Men;Men;;;;Fashion;;2017;38,ARRWSHRT00006539,39,ARRWSHRT00006540,40,ARRWSHRT00006541,42,ARRWSHRT00006542,44,ARRWSHRT00006543,46,ARRWSHRT00006544;2099.00;;;<p>Normal machine wash with cold water</p>;;;;mitm-new-season;zerotype;;Fall;mitm-new-season;No
2078887;ARES0757B-Navy-2078887;SH FS SLM YDS FS12ARWLSH009N1;Draft;Shirts;Arrow;Adults-Men;Men;;;;Fashion;;2017;38,ARRWSHRT00006533,39,ARRWSHRT00006534,40,ARRWSHRT00006535,42,ARRWSHRT00006536,44,ARRWSHRT00006537,46,ARRWSHRT00006538;2199.00;;;<p>Normal machine wash with cold water</p>;;;;mitm-new-season;zerotype;;Fall;mitm-new-season;No
2078886;ARES0757A-Navy-2078886;SH FS SLM SEM YDS S12ARWLSH009N1;Draft;Shirts;Arrow;Adults-Men;Men;;;;Fashion;;2017;38,ARRWSHRT00006527,39,ARRWSHRT00006528,40,ARRWSHRT00006529,42,ARRWSHRT00006530,44,ARRWSHRT00006531,46,ARRWSHRT00006532;2099.00;;;<p>Normal machine wash with cold water</p>;;;;mitm-new-season;zerotype;;Fall;mitm-new-season;No
2078885;ARES0457C-WHITE-2078885;SH FS REG SOL FARC0260;Draft;Shirts;Arrow;Adults-Men;Men;;;;Fashion;;2017;38,ARRWSHRT00006522,40,ARRWSHRT00006523,42,ARRWSHRT00006524,44,ARRWSHRT00006525,46,ARRWSHRT00006526;2199.00;;;<p>Normal machine wash with cold water</p>;;;;mitm-new-season;zerotype;;Fall;mitm-new-season;No
2078884;ARES0451B-Grey-2078884;SH FS REG SEM SOL 2/100 PRES - GREY;Draft;Shirts;Arrow;Adults-Men;Men;;;;Fashion;;2017;38,ARRWSHRT00006516,39,ARRWSHRT00006517,40,ARRWSHRT00006518,42,ARRWSHRT00006519,44,ARRWSHRT00006520,46,ARRWSHRT00006521;2599.00;;;<p>Normal machine wash with cold water</p>;;;;mitm-new-season;zerotype;;Fall;mitm-new-season;No
2078883;ARES0449B-Blue-2078883;SH FS REG SEM SOL 2/100 PRES - BLUE;Draft;Shirts;Arrow;Adults-Men;Men;;;;Fashion;;2017;38,ARRWSHRT00006510,39,ARRWSHRT00006511,40,ARRWSHRT00006512,42,ARRWSHRT00006513,44,ARRWSHRT00006514,46,ARRWSHRT00006515;2599.00;;;<p>Normal machine wash with cold water</p>;;;;mitm-new-season;zerotype;;Fall;mitm-new-season;No
2078882;ARES0378B-WHITE-2078882;SH FS REG SEM YDS DOBBY SATIN STRIPE - W;Draft;Shirts;Arrow;Adults-Men;Men;;;;Fashion;;2017;39,ARRWSHRT00006506,40,ARRWSHRT00006507,42,ARRWSHRT00006508,44,ARRWSHRT00006509;2099.00;;;<p>Normal machine wash with cold water</p>;;;;mitm-new-season;zerotype;;Fall;mitm-new-season;No
2078881;ARES0374B-WINE-2078881;SH FS REG POI SOL FIL-A-FIL LAMC - PURPL;Draft;Shirts;Arrow;Adults-Men;Men;;;;Fashion;;2017;38,ARRWSHRT00006500,39,ARRWSHRT00006501,40,ARRWSHRT00006502,42,ARRWSHRT00006503,44,ARRWSHRT00006504,46,ARRWSHRT00006505;1899.00;;;<p>Normal machine wash with cold water</p>;;;;mitm-new-season;zerotype;;Fall;mitm-new-season;No
2078880;ARES0370B-Charcoal-2078880;SH FS REG POI SOL FIL-A-FIL LAMC - DK. G;Draft;Shirts;Arrow;Adults-Men;Men;;;;Fashion;;2017;38,ARRWSHRT00006493,39,ARRWSHRT00006494,40,ARRWSHRT00006495,42,ARRWSHRT00006496,44,ARRWSHRT00006497,46,ARRWSHRT00006498,48,ARRWSHRT00006499;1899.00;;;<p>Normal machine wash with cold water</p>;;;;mitm-new-season;zerotype;;Fall;mitm-new-season;No
2078879;ARES0368B-Grey-2078879;SH FS REG POI SOL FIL-A-FIL LAMC - LT. G;Draft;Shirts;Arrow;Adults-Men;Men;;;;Fashion;;2017;38,ARRWSHRT00006486,39,ARRWSHRT00006487,40,ARRWSHRT00006488,42,ARRWSHRT00006489,44,ARRWSHRT00006490,46,ARRWSHRT00006491,48,ARRWSHRT00006492;1899.00;;;<p>Normal machine wash with cold water</p>;;;;mitm-new-season;zerotype;;Fall;mitm-new-season;No
2078878;ARES0368A-Grey-2078878;SH WL C FS POI REG GREY SOL FARC0030;Draft;Shirts;Arrow;Adults-Men;Men;;;;Fashion;;2017;38,ARRWSHRT00006480,39,ARRWSHRT00006481,40,ARRWSHRT00006482,42,ARRWSHRT00006483,44,ARRWSHRT00006484,46,ARRWSHRT00006485;1699.00;;;<p>Normal machine wash with cold water</p>;;;;mitm-new-season;zerotype;;Fall;mitm-new-season;No
2078877;ARES0366B-Blue-2078877;SH FS REG POI SOL FIL-A-FIL LAMC - ME. B;Draft;Shirts;Arrow;Adults-Men;Men;;;;Fashion;;2017;38,ARRWSHRT00006473,39,ARRWSHRT00006474,40,ARRWSHRT00006475,42,ARRWSHRT00006476,44,ARRWSHRT00006477,46,ARRWSHRT00006478,48,ARRWSHRT00006479;1899.00;;;<p>Normal machine wash with cold water</p>;;;;mitm-new-season;zerotype;;Fall;mitm-new-season;No
2078876;ARES0362B-Lt. Blue-2078876;SH FS REG POI SOL FIL-A-FIL LAMC - LT. B;Draft;Shirts;Arrow;Adults-Men;Men;;;;Fashion;;2017;38,ARRWSHRT00006467,39,ARRWSHRT00006468,40,ARRWSHRT00006469,42,ARRWSHRT00006470,44,ARRWSHRT00006471,46,ARRWSHRT00006472;1899.00;;;<p>Normal machine wash with cold water</p>;;;;mitm-new-season;zerotype;;Fall;mitm-new-season;No
2078875;ARES0326B-Lt. Blue-2078875;SH FS REG POI SOL OXF - BLUE;Draft;Shirts;Arrow;Adults-Men;Men;;;;Fashion;;2017;38,ARRWSHRT00006460,39,ARRWSHRT00006461,40,ARRWSHRT00006462,42,ARRWSHRT00006463,44,ARRWSHRT00006464,46,ARRWSHRT00006465,48,ARRWSHRT00006466;1399.00;;;<p>Normal machine wash with cold water</p>;;;;mitm-new-season;zerotype;;Fall;mitm-new-season;No
2078874;ARES0324B-Dk. Blue-2078874;SH FS REG POI SOL FIL-A-FIL - BLUE;Draft;Shirts;Arrow;Adults-Men;Men;;;;Fashion;;2017;38,ARRWSHRT00006453,39,ARRWSHRT00006454,40,ARRWSHRT00006455,42,ARRWSHRT00006456,44,ARRWSHRT00006457,46,ARRWSHRT00006458,48,ARRWSHRT00006459;1399.00;;;<p>Normal machine wash with cold water</p>;;;;mitm-new-season;zerotype;;Fall;mitm-new-season;No
2078873;ARES0320B-BLACK-2078873;SH FS REG POI SOL POPLIN - BLACK;Draft;Shirts;Arrow;Adults-Men;Men;;;;Fashion;;2017;38,ARRWSHRT00006447,39,ARRWSHRT00006448,40,ARRWSHRT00006449,42,ARRWSHRT00006450,44,ARRWSHRT00006451,46,ARRWSHRT00006452;1399.00;;;<p>Normal machine wash with cold water</p>;;;;mitm-new-season;zerotype;;Fall;mitm-new-season;No
2078871;ARES0304B-Ecru-2078871;SH FS REG POI SOL POPLIN - OFF WHITE;Draft;Shirts;Arrow;Adults-Men;Men;;;;Fashion;;2017;38,ARRWSHRT00006435,39,ARRWSHRT00006436,40,ARRWSHRT00006437,42,ARRWSHRT00006438,44,ARRWSHRT00006439,46,ARRWSHRT00006440;1399.00;;;<p>Normal machine wash with cold water</p>;;;;mitm-new-season;zerotype;;Fall;mitm-new-season;No
2078870;ARES0300B-WHITE-2078870;SH FS REG POI SOL POPLIN - WHITE;Draft;Shirts;Arrow;Adults-Men;Men;;;;Fashion;;2017;38,ARRWSHRT00006428,39,ARRWSHRT00006429,40,ARRWSHRT00006430,42,ARRWSHRT00006431,44,ARRWSHRT00006432,46,ARRWSHRT00006433,48,ARRWSHRT00006434;1399.00;;;<p>Normal machine wash with cold water</p>;;;;mitm-new-season;zerotype;;Fall;mitm-new-season;No
2078792;AFUSH0371-WHITE-2078792;SH FS REG SWC SOL A17AFSHWN007098W1;Draft;Shirts;Arrow;Adults-Men;Men;;;;Fashion;;2016;38,ARRWSHRT00006418,39,ARRWSHRT00006419,40,ARRWSHRT00006420,42,ARRWSHRT00006421,44,ARRWSHRT00006422,46,ARRWSHRT00006423;2499.00;;;<p>Normal machine wash with cold water</p>;;;;;zerotype;;Fall;;No
2078791;AFUSH0370-WHITE-2078791;SH HS REG SEM SOL A17AFSHWN007097W1;Draft;Shirts;Arrow;Adults-Men;Men;;;;Fashion;;2016;38,ARRWSHRT00006412,39,ARRWSHRT00006413,40,ARRWSHRT00006414,42,ARRWSHRT00006415,44,ARRWSHRT00006416,46,ARRWSHRT00006417;2199.00;;;<p>Normal machine wash with cold water</p>;;;;;zerotype;;Fall;;No
2078731;AFUSH0350-Me. Blue-2078731;SH HS REG SEM SOL A17AFSHWN006560B2;Draft;Shirts;Arrow;Adults-Men;Men;;;;Fashion;;2016;39,ARRWSHRT00006407,40,ARRWSHRT00006408,42,ARRWSHRT00006409,44,ARRWSHRT00006410,46,ARRWSHRT00006411;2499.00;;;<p>Normal machine wash with cold water</p>;;;;;zerotype;;Fall;;No
2078730;AFUSH0343-BLACK-2078730;SH FS SLM BCA STR A17AFSHWN006165Z1;Draft;Shirts;Arrow;Adults-Men;Men;;;;Fashion;;2016;39,ARRWSHRT00006403,40,ARRWSHRT00006404,42,ARRWSHRT00006405,44,ARRWSHRT00006406;2199.00;;;<p>Normal machine wash with cold water</p>;;;;;zerotype;;Fall;;No
2078729;AFUSH0341-DARK PURPLE-2078729;SH FS SLM SEM Solid A17AFSHWN006364U2;Draft;Shirts;Arrow;Adults-Men;Men;;;;Fashion;;2016;38,ARRWSHRT00006398,39,ARRWSHRT00006399,40,ARRWSHRT00006400,42,ARRWSHRT00006401,44,ARRWSHRT00006402;2499.00;;;<p>Normal machine wash with cold water</p>;;;;;zerotype;;Fall;;No
2078728;AFUSH0338-BLACK-2078728;SH FS REG MAN STR A17AFSHWN006166Z1;Draft;Shirts;Arrow;Adults-Men;Men;;;;Fashion;;2016;38,ARRWSHRT00006392,39,ARRWSHRT00006393,40,ARRWSHRT00006394,42,ARRWSHRT00006395,44,ARRWSHRT00006396,46,ARRWSHRT00006397;2499.00;;;<p>Normal machine wash with cold water</p>;;;;;zerotype;;Fall;;No
2078727;AFUSH0334-Dk. Blue-2078727;SH HS REG SEM YDC A17AFSHWN006414B3;Draft;Shirts;Arrow;Adults-Men;Men;;;;Fashion;;2016;39,ARRWSHRT00006387,40,ARRWSHRT00006388,42,ARRWSHRT00006389,44,ARRWSHRT00006390,46,ARRWSHRT00006391;2199.00;;;<p>Normal machine wash with cold water</p>;;;;;zerotype;;Fall;;No
2078726;AFUSH0332-Beige-2078726;SH FS SLM SEM STR A17AFSHWN006872A2;Draft;Shirts;Arrow;Adults-Men;Men;;;;Fashion;;2016;38,ARRWSHRT00006382,39,ARRWSHRT00006383,40,ARRWSHRT00006384,42,ARRWSHRT00006385,44,ARRWSHRT00006386;2799.00;;;<p>Normal machine wash with cold water</p>;;;;;zerotype;;Fall;;No
2078725;AFUSH0329-Me. Blue-2078725;SH FS REG SCA PRI A17AFSHWN006469B2;Draft;Shirts;Arrow;Adults-Men;Men;;;;Fashion;;2016;39,ARRWSHRT00006377,40,ARRWSHRT00006378,42,ARRWSHRT00006379,44,ARRWSHRT00006380,46,ARRWSHRT00006381;1999.00;;;<p>Normal machine wash with cold water</p>;;;;;zerotype;;Fall;;No
2078724;AFUSH0314-Burgundy-2078724;SH FS REG SEM STR A17AFSHWN006372M1;Draft;Shirts;Arrow;Adults-Men;Men;;;;Fashion;;2016;38,ARRWSHRT00006371,39,ARRWSHRT00006372,40,ARRWSHRT00006373,42,ARRWSHRT00006374,44,ARRWSHRT00006375,46,ARRWSHRT00006376;2499.00;;;<p>Normal machine wash with cold water</p>;;;;;zerotype;;Fall;;No
2078723;AFUSH0306-Navy-2078723;SH FS SLM SEM Solid A17AFSHWN006555N1;Draft;Shirts;Arrow;Adults-Men;Men;;;;Fashion;;2016;38,ARRWSHRT00006366,39,ARRWSHRT00006367,40,ARRWSHRT00006368,42,ARRWSHRT00006369,44,ARRWSHRT00006370;2499.00;;;<p>Normal machine wash with cold water</p>;;;;;zerotype;;Fall;;No
2078722;AFUSH0303-ME LAVENDER-2078722;SH FS REG BCA STR A17AFSHWN006415L2;Draft;Shirts;Arrow;Adults-Men;Men;;;;Fashion;;2016;38,ARRWSHRT00006360,39,ARRWSHRT00006361,40,ARRWSHRT00006362,42,ARRWSHRT00006363,44,ARRWSHRT00006364,46,ARRWSHRT00006365;2199.00;;;<p>Normal machine wash with cold water</p>;;;;;zerotype;;Fall;;No
2078721;AFUSH0291-Dk. Brown-2078721;SH FS SLM SEM Solid A17AFSHWN006364C3;Draft;Shirts;Arrow;Adults-Men;Men;;;;Fashion;;2016;38,ARRWSHRT00006355,39,ARRWSHRT00006356,40,ARRWSHRT00006357,42,ARRWSHRT00006358,44,ARRWSHRT00006359;2499.00;;;<p>Normal machine wash with cold water</p>;;;;;zerotype;;Fall;;No
2078720;AFUSH0285-Me. Pink-2078720;SH FS SLM SEM STR A17AFSHWN006205P2;Draft;Shirts;Arrow;Adults-Men;Men;;;;Fashion;;2016;38,ARRWSHRT00006349,39,ARRWSHRT00006350,40,ARRWSHRT00006351,42,ARRWSHRT00006352,44,ARRWSHRT00006353,46,ARRWSHRT00006354;2499.00;;;<p>Normal machine wash with cold water</p>;;;;;zerotype;;Fall;;No
2078719;AFUSH0281-Beige-2078719;SH FS SLM SEM YDC A17AFSHWN006379A2;Draft;Shirts;Arrow;Adults-Men;Men;;;;Fashion;;2016;38,ARRWSHRT00006343,39,ARRWSHRT00006344,40,ARRWSHRT00006345,42,ARRWSHRT00006346,44,ARRWSHRT00006347,46,ARRWSHRT00006348;2799.00;;;<p>Normal machine wash with cold water</p>;;;;;zerotype;;Fall;;No
2078717;AFUSH0268-Dk. Blue-2078717;SH FS REG SCA STR A17AFSHWN006316B3;Draft;Shirts;Arrow;Adults-Men;Men;;;;Fashion;;2016;39,ARRWSHRT00006333,40,ARRWSHRT00006334,42,ARRWSHRT00006335,44,ARRWSHRT00006336,46,ARRWSHRT00006337;1999.00;;;<p>Normal machine wash with cold water</p>;;;;;zerotype;;Fall;;No
2078716;AFUSH0253-Lt. Blue-2078716;SH HS REG SEM SOL A17AFSHWN006313B1;Draft;Shirts;Arrow;Adults-Men;Men;;;;Fashion;;2016;39,ARRWSHRT00006328,40,ARRWSHRT00006329,42,ARRWSHRT00006330,44,ARRWSHRT00006331,46,ARRWSHRT00006332;1799.00;;;<p>Normal machine wash with cold water</p>;;;;;zerotype;;Fall;;No
2078715;AFUSH0248-DARK PURPLE-2078715;SH FS REG SEM YDC A17AFSHWN006180U2;Draft;Shirts;Arrow;Adults-Men;Men;;;;Fashion;;2016;38,ARRWSHRT00006322,39,ARRWSHRT00006323,40,ARRWSHRT00006324,42,ARRWSHRT00006325,44,ARRWSHRT00006326,46,ARRWSHRT00006327;2799.00;;;<p>Normal machine wash with cold water</p>;;;;;zerotype;;Fall;;No
2078714;AFUSH0244-Lt. Blue-2078714;SH FS REG SCA SOL A17AFSHWN006313B1;Draft;Shirts;Arrow;Adults-Men;Men;;;;Fashion;;2016;39,ARRWSHRT00006317,40,ARRWSHRT00006318,42,ARRWSHRT00006319,44,ARRWSHRT00006320,46,ARRWSHRT00006321;1799.00;;;<p>Normal machine wash with cold water</p>;;;;;zerotype;;Fall;;No
2078713;AFUSH0243-Me. Brown-2078713;SH FS SLM SEM YDC A17AFSHWN006179C2;Draft;Shirts;Arrow;Adults-Men;Men;;;;Fashion;;2016;38,ARRWSHRT00006312,39,ARRWSHRT00006313,40,ARRWSHRT00006314,42,ARRWSHRT00006315,44,ARRWSHRT00006316;2799.00;;;<p>Normal machine wash with cold water</p>;;;;;zerotype;;Fall;;No
2078712;AFUSH0221-Lt. Green-2078712;SH FS SLM BCA SOL A17AFSHWN006395D1;Draft;Shirts;Arrow;Adults-Men;Men;;;;Fashion;;2016;38,ARRWSHRT00006305,39,ARRWSHRT00006306,40,ARRWSHRT00006307,42,ARRWSHRT00006308,44,ARRWSHRT00006309,46,ARRWSHRT00006310,48,ARRWSHRT00006311;2199.00;;;<p>Normal machine wash with cold water</p>;;;;;zerotype;;Fall;;No
2078711;AFUSH0220-LT LAVENDER-2078711;SH HS REG SEM SOL A17AFSHWN006550L1;Draft;Shirts;Arrow;Adults-Men;Men;;;;Fashion;;2016;38,ARRWSHRT00006300,39,ARRWSHRT00006301,40,ARRWSHRT00006302,42,ARRWSHRT00006303,44,ARRWSHRT00006304;2799.00;;;<p>Normal machine wash with cold water</p>;;;;;zerotype;;Fall;;No
2078710;AFUSH0218-Lt. Green-2078710;SH FS REG SCA YDC A17AFSHWN006367D1;Draft;Shirts;Arrow;Adults-Men;Men;;;;Fashion;;2016;38,ARRWSHRT00006294,39,ARRWSHRT00006295,40,ARRWSHRT00006296,42,ARRWSHRT00006297,44,ARRWSHRT00006298,46,ARRWSHRT00006299;1999.00;;;<p>Normal machine wash with cold water</p>;;;;;zerotype;;Fall;;No
2078709;AFUSH0206-Me. Green-2078709;SH HS REG SEM SOL A17AFSHWN006313D2;Draft;Shirts;Arrow;Adults-Men;Men;;;;Fashion;;2016;38,ARRWSHRT00006289,39,ARRWSHRT00006290,40,ARRWSHRT00006291,42,ARRWSHRT00006292,44,ARRWSHRT00006293;1799.00;;;<p>Normal machine wash with cold water</p>;;;;;zerotype;;Fall;;No
2078708;AFUSH0196-Me. Blue-2078708;SH FS REG SEM STR A17AFSHWN006374B2;Draft;Shirts;Arrow;Adults-Men;Men;;;;Fashion;;2016;38,ARRWSHRT00006283,39,ARRWSHRT00006284,40,ARRWSHRT00006285,42,ARRWSHRT00006286,44,ARRWSHRT00006287,46,ARRWSHRT00006288;2499.00;;;<p>Normal machine wash with cold water</p>;;;;;zerotype;;Fall;;No
2078707;AFUSH0188-Burgundy-2078707;SH FS SLM SEM STR A17AFSHWN006331M1;Draft;Shirts;Arrow;Adults-Men;Men;;;;Fashion;;2016;38,ARRWSHRT00006278,39,ARRWSHRT00006279,40,ARRWSHRT00006280,42,ARRWSHRT00006281,44,ARRWSHRT00006282;2499.00;;;<p>Normal machine wash with cold water</p>;;;;;zerotype;;Fall;;No
2078706;AFUSH0187-Me. Grey-2078706;SH FS REG SCA PRI A17AFSHWN006517G2;Draft;Shirts;Arrow;Adults-Men;Men;;;;Fashion;;2016;38,ARRWSHRT00006272,39,ARRWSHRT00006273,40,ARRWSHRT00006274,42,ARRWSHRT00006275,44,ARRWSHRT00006276,46,ARRWSHRT00006277;1999.00;;;<p>Normal machine wash with cold water</p>;;;;;zerotype;;Fall;;No
2078705;AFUSH0186-Beige-2078705;SH FS REG SEM Print A17AFSHWN006526A2;Draft;Shirts;Arrow;Adults-Men;Men;;;;Fashion;;2016;38,ARRWSHRT00006266,39,ARRWSHRT00006267,40,ARRWSHRT00006268,42,ARRWSHRT00006269,44,ARRWSHRT00006270,46,ARRWSHRT00006271;2499.00;;;<p>Normal machine wash with cold water</p>;;;;;zerotype;;Fall;;No
2078704;AFUSH0184-Lt. Pink-2078704;SH FS SLM SCA YDC A17AFSHWN006725P1;Draft;Shirts;Arrow;Adults-Men;Men;;;;Fashion;;2016;39,ARRWSHRT00006261,40,ARRWSHRT00006262,42,ARRWSHRT00006263,44,ARRWSHRT00006264,46,ARRWSHRT00006265;1999.00;;;<p>Normal machine wash with cold water</p>;;;;;zerotype;;Fall;;No
2078703;AFUSH0175-Lt. Red-2078703;SH FS SLM BCA YDC A17AFSHWN006408R1;Draft;Shirts;Arrow;Adults-Men;Men;;;;Fashion;;2016;39,ARRWSHRT00006256,40,ARRWSHRT00006257,42,ARRWSHRT00006258,44,ARRWSHRT00006259,46,ARRWSHRT00006260;2199.00;;;<p>Normal machine wash with cold water</p>;;;;;zerotype;;Fall;;No
2078702;AFUSH0173-LT.PURPLE-2078702;SH FS SLM BCA YDC A17AFSHWN006408U1;Draft;Shirts;Arrow;Adults-Men;Men;;;;Fashion;;2016;39,ARRWSHRT00006251,40,ARRWSHRT00006252,42,ARRWSHRT00006253,44,ARRWSHRT00006254,46,ARRWSHRT00006255;2199.00;;;<p>Normal machine wash with cold water</p>;;;;;zerotype;;Fall;;No
2078701;AFUSH0165-Lt. Blue-2078701;SH FS REG BD STR A17AFSHWN006315B1;Draft;Shirts;Arrow;Adults-Men;Men;;;;Fashion;;2016;39,ARRWSHRT00006246,40,ARRWSHRT00006247,42,ARRWSHRT00006248,44,ARRWSHRT00006249,46,ARRWSHRT00006250;2499.00;;;<p>Normal machine wash with cold water</p>;;;;;zerotype;;Fall;;No
2078700;AFUSH0159-Dk. Blue-2078700;SH FS SLM SEM STR A17AFSHWN006331B3;Draft;Shirts;Arrow;Adults-Men;Men;;;;Fashion;;2016;38,ARRWSHRT00006240,39,ARRWSHRT00006241,40,ARRWSHRT00006242,42,ARRWSHRT00006243,44,ARRWSHRT00006244,46,ARRWSHRT00006245;2499.00;;;<p>Normal machine wash with cold water</p>;;;;;zerotype;;Fall;;No
2078699;AFUSH0156-Me. Red-2078699;SH HS REG SEM YDC A17AFSHWN006382R2;Draft;Shirts;Arrow;Adults-Men;Men;;;;Fashion;;2016;38,ARRWSHRT00006234,39,ARRWSHRT00006235,40,ARRWSHRT00006236,42,ARRWSHRT00006237,44,ARRWSHRT00006238,46,ARRWSHRT00006239;2199.00;;;<p>Normal machine wash with cold water</p>;;;;;zerotype;;Fall;;No
2078698;AFUSH0155-LT LAVENDER-2078698;SH FS SLM SEM YDC A17AFSHWN006179L2;Draft;Shirts;Arrow;Adults-Men;Men;;;;Fashion;;2016;38,ARRWSHRT00006229,39,ARRWSHRT00006230,40,ARRWSHRT00006231,42,ARRWSHRT00006232,44,ARRWSHRT00006233;2799.00;;;<p>Normal machine wash with cold water</p>;;;;;zerotype;;Fall;;No
2078697;AFUSH0150-Beige-2078697;SH FS REG BDC YDC A17AFSHWN006804A2;Draft;Shirts;Arrow;Adults-Men;Men;;;;Fashion;;2016;38,ARRWSHRT00006223,39,ARRWSHRT00006224,40,ARRWSHRT00006225,42,ARRWSHRT00006226,44,ARRWSHRT00006227,46,ARRWSHRT00006228;2199.00;;;<p>Normal machine wash with cold water</p>;;;;;zerotype;;Fall;;No
2078696;AFUSH0147-LT.PURPLE-2078696;SH FS REG SCA PRI A17AFSHWN006517U1;Draft;Shirts;Arrow;Adults-Men;Men;;;;Fashion;;2016;39,ARRWSHRT00006218,40,ARRWSHRT00006219,42,ARRWSHRT00006220,44,ARRWSHRT00006221,46,ARRWSHRT00006222;1999.00;;;<p>Normal machine wash with cold water</p>;;;;;zerotype;;Fall;;No
2078695;AFUSH0137-Lt. Pink-2078695;SH FS SLM BCA SOL A17AFSHWN006395P1;Draft;Shirts;Arrow;Adults-Men;Men;;;;Fashion;;2016;38,ARRWSHRT00006211,39,ARRWSHRT00006212,40,ARRWSHRT00006213,42,ARRWSHRT00006214,44,ARRWSHRT00006215,46,ARRWSHRT00006216,48,ARRWSHRT00006217;2199.00;;;<p>Normal machine wash with cold water</p>;;;;;zerotype;;Fall;;No
2078694;AFUSH0130-Lt. Brown-2078694;SH FS SLM SCA SOL A17AFSHWN006368C1;Draft;Shirts;Arrow;Adults-Men;Men;;;;Fashion;;2016;39,ARRWSHRT00006206,40,ARRWSHRT00006207,42,ARRWSHRT00006208,44,ARRWSHRT00006209,46,ARRWSHRT00006210;1999.00;;;<p>Normal machine wash with cold water</p>;;;;;zerotype;;Fall;;No
2078693;AFUSH0125-Me. Blue-2078693;SH FS REG POI YDC A17AFSHWN006361B2;Draft;Shirts;Arrow;Adults-Men;Men;;;;Fashion;;2016;39,ARRWSHRT00006201,40,ARRWSHRT00006202,42,ARRWSHRT00006203,44,ARRWSHRT00006204,46,ARRWSHRT00006205;1799.00;;;<p>Normal machine wash with cold water</p>;;;;;zerotype;;Fall;;No
2078692;AFUSH0115-LIGHT LAVENDER-2078692;SH FS REG SCA STR A17AFSHWN006394L1;Draft;Shirts;Arrow;Adults-Men;Men;;;;Fashion;;2016;39,ARRWSHRT00006196,40,ARRWSHRT00006197,42,ARRWSHRT00006198,44,ARRWSHRT00006199,46,ARRWSHRT00006200;1999.00;;;<p>Normal machine wash with cold water</p>;;;;;zerotype;;Fall;;No
2078691;AFUSH0110-Dk. Blue-2078691;SH FS SLM SEM YDC A17AFSHWN006209B3;Draft;Shirts;Arrow;Adults-Men;Men;;;;Fashion;;2016;39,ARRWSHRT00006191,40,ARRWSHRT00006192,42,ARRWSHRT00006193,44,ARRWSHRT00006194,46,ARRWSHRT00006195;2499.00;;;<p>Normal machine wash with cold water</p>;;;;;zerotype;;Fall;;No
2078690;AFUSH0105-Lt. Green-2078690;SH HS REG SEM YDC A17AFSHWN006382D1;Draft;Shirts;Arrow;Adults-Men;Men;;;;Fashion;;2016;38,ARRWSHRT00006185,39,ARRWSHRT00006186,40,ARRWSHRT00006187,42,ARRWSHRT00006188,44,ARRWSHRT00006189,46,ARRWSHRT00006190;2199.00;;;<p>Normal machine wash with cold water</p>;;;;;zerotype;;Fall;;No
2078689;AFUSH0104-Lt. Orange-2078689;SH HS REG SEM SOL A17AFSHWN006313O1;Draft;Shirts;Arrow;Adults-Men;Men;;;;Fashion;;2016;38,ARRWSHRT00006179,39,ARRWSHRT00006180,40,ARRWSHRT00006181,42,ARRWSHRT00006182,44,ARRWSHRT00006183,46,ARRWSHRT00006184;1799.00;;;<p>Normal machine wash with cold water</p>;;;;;zerotype;;Fall;;No
2078688;AFUSH0099-Lt. Red-2078688;SH HS REG SEM YDC A17AFSHWN006408R1;Draft;Shirts;Arrow;Adults-Men;Men;;;;Fashion;;2016;38,ARRWSHRT00006173,39,ARRWSHRT00006174,40,ARRWSHRT00006175,42,ARRWSHRT00006176,44,ARRWSHRT00006177,46,ARRWSHRT00006178;1999.00;;;<p>Normal machine wash with cold water</p>;;;;;zerotype;;Fall;;No
2078687;AFUSH0098-Beige-2078687;SH FS SLM SCA STR A17AFSHWN006392A2;Draft;Shirts;Arrow;Adults-Men;Men;;;;Fashion;;2016;39,ARRWSHRT00006168,40,ARRWSHRT00006169,42,ARRWSHRT00006170,44,ARRWSHRT00006171,46,ARRWSHRT00006172;1999.00;;;<p>Normal machine wash with cold water</p>;;;;;zerotype;;Fall;;No
2078686;AFUSH0096-Burgundy-2078686;SH FS REG SCA STR A17AFSHWN006316M1;Draft;Shirts;Arrow;Adults-Men;Men;;;;Fashion;;2016;39,ARRWSHRT00006164,40,ARRWSHRT00006165,42,ARRWSHRT00006166,44,ARRWSHRT00006167;1999.00;;;<p>Normal machine wash with cold water</p>;;;;;zerotype;;Fall;;No
2078685;AFUSH0093-Beige-2078685;SH HS REG SEM STR A17AFSHWN006392A2;Draft;Shirts;Arrow;Adults-Men;Men;;;;Fashion;;2016;38,ARRWSHRT00006158,39,ARRWSHRT00006159,40,ARRWSHRT00006160,42,ARRWSHRT00006161,44,ARRWSHRT00006162,46,ARRWSHRT00006163;1999.00;;;<p>Normal machine wash with cold water</p>;;;;;zerotype;;Fall;;No
2078684;AFUSH0089-DR LAVENDER-2078684;SH FS SLM SEM STR A17AFSHWN006176L3;Draft;Shirts;Arrow;Adults-Men;Men;;;;Fashion;;2016;39,ARRWSHRT00006154,40,ARRWSHRT00006155,42,ARRWSHRT00006156,44,ARRWSHRT00006157;2799.00;;;<p>Normal machine wash with cold water</p>;;;;;zerotype;;Fall;;No
2078683;AFUSH0083-Dk. Brown-2078683;SH FS REG SCA STR A17AFSHWN006316C3;Draft;Shirts;Arrow;Adults-Men;Men;;;;Fashion;;2016;39,ARRWSHRT00006149,40,ARRWSHRT00006150,42,ARRWSHRT00006151,44,ARRWSHRT00006152,46,ARRWSHRT00006153;1999.00;;;<p>Normal machine wash with cold water</p>;;;;;zerotype;;Fall;;No
2078682;AFUSH0082-Navy-2078682;SH FS SLM SEM Print A17AFSHWN006544N1;Draft;Shirts;Arrow;Adults-Men;Men;;;;Fashion;;2016;38,ARRWSHRT00006143,39,ARRWSHRT00006144,40,ARRWSHRT00006145,42,ARRWSHRT00006146,44,ARRWSHRT00006147,46,ARRWSHRT00006148;2799.00;;;<p>Normal machine wash with cold water</p>;;;;;zerotype;;Fall;;No
2078681;AFUSH0081-Lt. Pink-2078681;SH FS REG BCA YDC A17AFSHWN006399P1;Draft;Shirts;Arrow;Adults-Men;Men;;;;Fashion;;2016;39,ARRWSHRT00006138,40,ARRWSHRT00006139,42,ARRWSHRT00006140,44,ARRWSHRT00006141,46,ARRWSHRT00006142;2199.00;;;<p>Normal machine wash with cold water</p>;;;;;zerotype;;Fall;;No
2078680;AFUSH0075-Lt. Yellow-2078680;SH HS REG SEM SOL A17AFSHWN006313Y1;Draft;Shirts;Arrow;Adults-Men;Men;;;;Fashion;;2016;39,ARRWSHRT00006133,40,ARRWSHRT00006134,42,ARRWSHRT00006135,44,ARRWSHRT00006136,46,ARRWSHRT00006137;1799.00;;;<p>Normal machine wash with cold water</p>;;;;;zerotype;;Fall;;No
2078679;AFUSH0070-Lt. Brown-2078679;SH HS REG SEM SOL A17AFSHWN006368C1;Draft;Shirts;Arrow;Adults-Men;Men;;;;Fashion;;2016;39,ARRWSHRT00006128,40,ARRWSHRT00006129,42,ARRWSHRT00006130,44,ARRWSHRT00006131,46,ARRWSHRT00006132;1999.00;;;<p>Normal machine wash with cold water</p>;;;;;zerotype;;Fall;;No
2078678;AFUSH0067-WHITE-2078678;SH FS REG SEM Solid A17AFSHWN006556W1;Draft;Shirts;Arrow;Adults-Men;Men;;;;Fashion;;2016;38,ARRWSHRT00006123,39,ARRWSHRT00006124,40,ARRWSHRT00006125,42,ARRWSHRT00006126,44,ARRWSHRT00006127;2799.00;;;<p>Normal machine wash with cold water</p>;;;;;zerotype;;Fall;;No
2078677;AFUSH0064-WHITE-2078677;SH FS REG BCA YDC A17AFSHWN006399W1;Draft;Shirts;Arrow;Adults-Men;Men;;;;Fashion;;2016;39,ARRWSHRT00006118,40,ARRWSHRT00006119,42,ARRWSHRT00006120,44,ARRWSHRT00006121,46,ARRWSHRT00006122;2199.00;;;<p>Normal machine wash with cold water</p>;;;;;zerotype;;Fall;;No
2078676;AFUSH0062-Me. Blue-2078676;SH HS REG SEM PRI A17AFSHWN006650B2;Draft;Shirts;Arrow;Adults-Men;Men;;;;Fashion;;2016;39,ARRWSHRT00006113,40,ARRWSHRT00006114,42,ARRWSHRT00006115,44,ARRWSHRT00006116,46,ARRWSHRT00006117;1799.00;;;<p>Normal machine wash with cold water</p>;;;;;zerotype;;Fall;;No
2078675;AFUSH0058-WHITE-2078675;SH FS SLM SEM STR A17AFSHWN006159W1;Draft;Shirts;Arrow;Adults-Men;Men;;;;Fashion;;2016;39,ARRWSHRT00006108,40,ARRWSHRT00006109,42,ARRWSHRT00006110,44,ARRWSHRT00006111,46,ARRWSHRT00006112;2499.00;;;<p>Normal machine wash with cold water</p>;;;;;zerotype;;Fall;;No
2078674;AFUSH0057-Beige-2078674;SH FS SLM BCA YDC A17AFSHWN006800A2;Draft;Shirts;Arrow;Adults-Men;Men;;;;Fashion;;2016;38,ARRWSHRT00006102,39,ARRWSHRT00006103,40,ARRWSHRT00006104,42,ARRWSHRT00006105,44,ARRWSHRT00006106,46,ARRWSHRT00006107;2199.00;;;<p>Normal machine wash with cold water</p>;;;;;zerotype;;Fall;;No
2078673;AFUSH0046-Me. Blue-2078673;SH FS REG BDC YDC A17AFSHWN006391B2;Draft;Shirts;Arrow;Adults-Men;Men;;;;Fashion;;2016;39,ARRWSHRT00006097,40,ARRWSHRT00006098,42,ARRWSHRT00006099,44,ARRWSHRT00006100,46,ARRWSHRT00006101;1999.00;;;<p>Normal machine wash with cold water</p>;;;;;zerotype;;Fall;;No
2078672;AFUSH0045-Me. Green-2078672;SH FS REG BDC YDC A17AFSHWN006391D2;Draft;Shirts;Arrow;Adults-Men;Men;;;;Fashion;;2016;39,ARRWSHRT00006092,40,ARRWSHRT00006093,42,ARRWSHRT00006094,44,ARRWSHRT00006095,46,ARRWSHRT00006096;1999.00;;;<p>Normal machine wash with cold water</p>;;;;;zerotype;;Fall;;No
2078671;AFUSH0034-Beige-2078671;SH FS REG MAN STR A17AFSHWN006873A2;Draft;Shirts;Arrow;Adults-Men;Men;;;;Fashion;;2016;38,ARRWSHRT00006087,39,ARRWSHRT00006088,40,ARRWSHRT00006089,42,ARRWSHRT00006090,44,ARRWSHRT00006091;2499.00;;;<p>Normal machine wash with cold water</p>;;;;;zerotype;;Fall;;No
2078670;AFUSH0032-DR LAVENDER-2078670;SH FS REG SEM Print A17AFSHWN006538L3;Draft;Shirts;Arrow;Adults-Men;Men;;;;Fashion;;2016;38,ARRWSHRT00006082,39,ARRWSHRT00006083,40,ARRWSHRT00006084,42,ARRWSHRT00006085,44,ARRWSHRT00006086;2499.00;;;<p>Normal machine wash with cold water</p>;;;;;zerotype;;Fall;;No
2078669;AFUSH0024-Lt. Pink-2078669;SH FS SLM BCA PRI A17AFSHWN006507P1;Draft;Shirts;Arrow;Adults-Men;Men;;;;Fashion;;2016;38,ARRWSHRT00006075,39,ARRWSHRT00006076,40,ARRWSHRT00006077,42,ARRWSHRT00006078,44,ARRWSHRT00006079,46,ARRWSHRT00006080,48,ARRWSHRT00006081;1999.00;;;<p>Normal machine wash with cold water</p>;;;;;zerotype;;Fall;;No
2078668;AFUSH0017-Lt. Blue-2078668;SH FS SLM BCA PRI A17AFSHWN006507B1;Draft;Shirts;Arrow;Adults-Men;Men;;;;Fashion;;2016;38,ARRWSHRT00006069,39,ARRWSHRT00006070,40,ARRWSHRT00006071,42,ARRWSHRT00006072,44,ARRWSHRT00006073,46,ARRWSHRT00006074;1999.00;;;<p>Normal machine wash with cold water</p>;;;;;zerotype;;Fall;;No
2078667;AFUSH0013-Lt. Pink-2078667;SH POI PRI FS A17AFSH0025P1;Draft;Shirts;Arrow;Adults-Men;Men;;;;Fashion;;2016;39,ARRWSHRT00006065,40,ARRWSHRT00006066,42,ARRWSHRT00006067,44,ARRWSHRT00006068;2799.00;;;<p>Normal machine wash with cold water</p>;;;;;zerotype;;Fall;;No
2067590;50011273464004-WHITE-2067590;PINNA-S-IR53141-3171, 42, WHITE;Draft;Tshirts;Indigo Nation;Adults-Men;Men;White;;;Fashion;;2017;38,INNATSHT00100122,39,INNATSHT00100123,40,INNATSHT00100124,42,INNATSHT00100125;799.00;;;<p>WASH DARK COLORS SEPERATELY,HAND WASH/MACHINE WASH COLD,USE MILD DETERGENT,DO NOT WRING, FLAT DRY IN SHADE,DO NOT IRON ON PRINT AREA</p>;;;;;zerotype;;Fall;;No
2067589;50011273463004-BLACK-2067589;PINNA-S-IR53131-3171, 42, BLACK;Draft;Tshirts;Indigo Nation;Adults-Men;Men;Black;;;Fashion;;2017;38,INNATSHT00100118,39,INNATSHT00100119,40,INNATSHT00100120,42,INNATSHT00100121;799.00;;;<p>WASH DARK COLORS SEPERATELY,HAND WASH/MACHINE WASH COLD,USE MILD DETERGENT,DO NOT WRING, FLAT DRY IN SHADE,DO NOT IRON ON PRINT AREA</p>;;;;;zerotype;;Fall;;No
2067588;50011273462004-BLACK-2067588;PINNA-S-IR53121-3171, 42, BLACK;Draft;Tshirts;Indigo Nation;Adults-Men;Men;Black;;;Fashion;;2017;38,INNATSHT00100114,39,INNATSHT00100115,40,INNATSHT00100116,42,INNATSHT00100117;799.00;;;<p>WASH DARK COLORS SEPERATELY,HAND WASH/MACHINE WASH COLD,USE MILD DETERGENT,DO NOT WRING, FLAT DRY IN SHADE,DO NOT IRON ON PRINT AREA</p>;;;;;zerotype;;Fall;;No
2067587;50011273459004-WHITE-2067587;PINNA-S-IR53091-3171, 42, WHITE;Draft;Tshirts;Indigo Nation;Adults-Men;Men;White;;;Fashion;;2017;38,INNATSHT00100110,39,INNATSHT00100111,40,INNATSHT00100112,42,INNATSHT00100113;999.00;;;<p>WASH DARK COLORS SEPERATELY,HAND WASH/MACHINE WASH COLD,USE MILD DETERGENT,DO NOT WRING, FLAT DRY IN SHADE,DO NOT IRON ON PRINT AREA</p>;;;;;zerotype;;Fall;;No
2067586;50011273458004-WHITE-2067586;PINNA-S-IR53081-3171, 42, WHITE;Draft;Tshirts;Indigo Nation;Adults-Men;Men;White;;;Fashion;;2017;38,INNATSHT00100106,39,INNATSHT00100107,40,INNATSHT00100108,42,INNATSHT00100109;999.00;;;<p>WASH DARK COLORS SEPERATELY,HAND WASH/MACHINE WASH COLD,USE MILD DETERGENT,DO NOT WRING, FLAT DRY IN SHADE,DO NOT IRON ON PRINT AREA</p>;;;;;zerotype;;Fall;;No
2067585;50011273457004-RED-2067585;PINNA-S-IR53071-3171, 42, RED;Draft;Tshirts;Indigo Nation;Adults-Men;Men;Red;;;Fashion;;2017;38,INNATSHT00100102,39,INNATSHT00100103,40,INNATSHT00100104,42,INNATSHT00100105;1299.00;;;<p>WASH DARK COLORS SEPERATELY,HAND WASH/MACHINE WASH COLD,USE MILD DETERGENT,DO NOT WRING, FLAT DRY IN SHADE,DO NOT IRON ON PRINT AREA</p>;;;;;zerotype;;Fall;;No
2067584;50011273456004-GREY-2067584;PINNA-S-IR53061-3171, 42, GREY;Draft;Tshirts;Indigo Nation;Adults-Men;Men;Grey;;;Fashion;;2017;38,INNATSHT00100098,39,INNATSHT00100099,40,INNATSHT00100100,42,INNATSHT00100101;1299.00;;;<p>WASH DARK COLORS SEPERATELY,HAND WASH/MACHINE WASH COLD,USE MILD DETERGENT,DO NOT WRING, FLAT DRY IN SHADE,DO NOT IRON ON PRINT AREA</p>;;;;;zerotype;;Fall;;No
2067583;50011273455004-BLACK-2067583;PINNA-S-IR53051-3171, 42, BLACK;Draft;Tshirts;Indigo Nation;Adults-Men;Men;Black;;;Fashion;;2017;38,INNATSHT00100094,39,INNATSHT00100095,40,INNATSHT00100096,42,INNATSHT00100097;1299.00;;;<p>WASH DARK COLORS SEPERATELY,HAND WASH/MACHINE WASH COLD,USE MILD DETERGENT,DO NOT WRING, FLAT DRY IN SHADE,DO NOT IRON ON PRINT AREA</p>;;;;;zerotype;;Fall;;No
2067566;50011273302005-GREEN-2067566;PINNA-M-IV00421-3171, 38, GREEN;Draft;Shorts;Indigo Nation;Adults-Men;Men;Green;;;Fashion;;2017;30,INNASHOR00000046,32,INNASHOR00000047,34,INNASHOR00000048,36,INNASHOR00000049,38,INNASHOR00000050;1599.00;;;<p>WASH DARK COLORS SEPERATELY. USE MILD DETERGENT, DO NOT DRY CLEAN, TUMBLE DRY LOW, DRY IN SHADE, DO NOT BLEACH</p>;;;;;zerotype;;Fall;;No
2067565;50011273301005-OLIVE-2067565;PINNA-M-IV00401-3171, 38, OLIVE;Draft;Shorts;Indigo Nation;Adults-Men;Men;Olive;;;Fashion;;2017;30,INNASHOR00000041,32,INNASHOR00000042,34,INNASHOR00000043,36,INNASHOR00000044,38,INNASHOR00000045;1599.00;;;<p>WASH DARK COLORS SEPERATELY. USE MILD DETERGENT, DO NOT DRY CLEAN, TUMBLE DRY LOW, DRY IN SHADE, DO NOT BLEACH</p>;;;;;zerotype;;Fall;;No
2067541;50011353550004-PURPLE-2067541;PINNA-M-ISF5252-3171, 42, PURPLE;Draft;Shirts;Indigo Nation;Adults-Men;Men;Purple;;;Fashion;;2017;38,INNASHRT00102235,39,INNASHRT00102236,40,INNASHRT00102237,42,INNASHRT00102238;1599.00;;;<p>WASH DARK COLORS SEPERATELY. USE MILD DETERGENT, DO NOT DRY CLEAN, TUMBLE DRY LOW, DRY IN SHADE, DO NOT BLEACH</p>;;;;;zerotype;;Fall;;No
2067539;50011353551004-BLUE-2067539;PINNA-M-ISF5262-3171, 42, BLUE;Draft;Shirts;Indigo Nation;Adults-Men;Men;Blue;;;Fashion;;2017;38,INNASHRT00102230,39,INNASHRT00102231,40,INNASHRT00102232,42,INNASHRT00102233;1599.00;;;<p>WASH DARK COLORS SEPERATELY. USE MILD DETERGENT, DO NOT DRY CLEAN, TUMBLE DRY LOW, DRY IN SHADE, DO NOT BLEACH</p>;;;;;zerotype;;Fall;;No
2067536;50011353549004-BLUE-2067536;PINNA-M-ISF5242-3171, 42, BLUE;Draft;Shirts;Indigo Nation;Adults-Men;Men;Blue;;;Fashion;;2017;38,INNASHRT00102224,39,INNASHRT00102225,40,INNASHRT00102226,42,INNASHRT00102227;1599.00;;;<p>WASH DARK COLORS SEPERATELY. USE MILD DETERGENT, DO NOT DRY CLEAN, TUMBLE DRY LOW, DRY IN SHADE, DO NOT BLEACH</p>;;;;;zerotype;;Fall;;No
2067535;50011353546004-BLUE-2067535;PINNA-M-ISF5212-3171, 42, BLUE;Draft;Shirts;Indigo Nation;Adults-Men;Men;Blue;;;Fashion;;2017;38,INNASHRT00102220,39,INNASHRT00102221,40,INNASHRT00102222,42,INNASHRT00102223;1599.00;;;<p>WASH DARK COLORS SEPERATELY. USE MILD DETERGENT, DO NOT DRY CLEAN, TUMBLE DRY LOW, DRY IN SHADE, DO NOT BLEACH</p>;;;;;zerotype;;Fall;;No
2067533;50011353538004-BLUE-2067533;PINNA-M-ISF5132-3171, 42, BLUE;Draft;Shirts;Indigo Nation;Adults-Men;Men;Blue;;;Fashion;;2017;38,INNASHRT00102215,39,INNASHRT00102216,40,INNASHRT00102217,42,INNASHRT00102218;1799.00;;;<p>WASH DARK COLORS SEPERATELY. USE MILD DETERGENT, DO NOT DRY CLEAN, TUMBLE DRY LOW, DRY IN SHADE, DO NOT BLEACH</p>;;;;;zerotype;;Fall;;No
2067531;50011353512004-GREY-2067531;PINNA-M-ISF4792-3171, 42, GREY;Draft;Shirts;Indigo Nation;Adults-Men;Men;Grey;;;Fashion;;2017;38,INNASHRT00102210,39,INNASHRT00102211,40,INNASHRT00102212,42,INNASHRT00102213;1699.00;;;<p>WASH DARK COLORS SEPERATELY. USE MILD DETERGENT, DO NOT DRY CLEAN, TUMBLE DRY LOW, DRY IN SHADE, DO NOT BLEACH</p>;;;;;zerotype;;Fall;;No
2067529;50011353509004-RED-2067529;PINNA-M-ISF4762-3171, 42, RED;Draft;Shirts;Indigo Nation;Adults-Men;Men;Red;;;Fashion;;2017;38,INNASHRT00102205,39,INNASHRT00102206,40,INNASHRT00102207,42,INNASHRT00102208;1699.00;;;<p>WASH DARK COLORS SEPERATELY. USE MILD DETERGENT, DO NOT DRY CLEAN, TUMBLE DRY LOW, DRY IN SHADE, DO NOT BLEACH</p>;;;;;zerotype;;Fall;;No
2067527;50011353507004-PURPLE-2067527;PINNA-M-ISF4722-3171, 42, PURPLE;Draft;Shirts;Indigo Nation;Adults-Men;Men;Purple;;;Fashion;;2017;38,INNASHRT00102200,39,INNASHRT00102201,40,INNASHRT00102202,42,INNASHRT00102203;1799.00;;;<p>WASH DARK COLORS SEPERATELY. USE MILD DETERGENT, DO NOT DRY CLEAN, TUMBLE DRY LOW, DRY IN SHADE, DO NOT BLEACH</p>;;;;;zerotype;;Fall;;No
2067524;50011353508004-BLACK-2067524;PINNA-M-ISF4732-3171, 42, BLACK;Draft;Shirts;Indigo Nation;Adults-Men;Men;Black;;;Fashion;;2017;38,INNASHRT00102194,39,INNASHRT00102195,40,INNASHRT00102196,42,INNASHRT00102197;1799.00;;;<p>WASH DARK COLORS SEPERATELY. USE MILD DETERGENT, DO NOT DRY CLEAN, TUMBLE DRY LOW, DRY IN SHADE, DO NOT BLEACH</p>;;;;;zerotype;;Fall;;No
2067523;50011353505004-BLACK-2067523;PINNA-M-ISF4702-3171, 42, BLACK;Draft;Shirts;Indigo Nation;Adults-Men;Men;Black;;;Fashion;;2017;38,INNASHRT00102190,39,INNASHRT00102191,40,INNASHRT00102192,42,INNASHRT00102193;1799.00;;;<p>WASH DARK COLORS SEPERATELY. USE MILD DETERGENT, DO NOT DRY CLEAN, TUMBLE DRY LOW, DRY IN SHADE, DO NOT BLEACH</p>;;;;;zerotype;;Fall;;No
2067521;50011353492004-WHITE-2067521;PINNA-M-ISF4562-3171, 42, WHITE;Draft;Shirts;Indigo Nation;Adults-Men;Men;White;;;Fashion;;2017;38,INNASHRT00102185,39,INNASHRT00102186,40,INNASHRT00102187,42,INNASHRT00102188;1599.00;;;<p>WASH DARK COLORS SEPERATELY. USE MILD DETERGENT, DO NOT DRY CLEAN, TUMBLE DRY LOW, DRY IN SHADE, DO NOT BLEACH</p>;;;;;zerotype;;Fall;;No
2067519;50011353493004-GREY-2067519;PINNA-M-ISF4572-3171, 42, GREY;Draft;Shirts;Indigo Nation;Adults-Men;Men;Grey;;;Fashion;;2017;38,INNASHRT00102180,39,INNASHRT00102181,40,INNASHRT00102182,42,INNASHRT00102183;1599.00;;;<p>WASH DARK COLORS SEPERATELY. USE MILD DETERGENT, DO NOT DRY CLEAN, TUMBLE DRY LOW, DRY IN SHADE, DO NOT BLEACH</p>;;;;;zerotype;;Fall;;No
2067517;50011353494004-BLUE-2067517;PINNA-M-ISF4692-3171, 42, BLUE;Draft;Shirts;Indigo Nation;Adults-Men;Men;Blue;;;Fashion;;2017;38,INNASHRT00102175,39,INNASHRT00102176,40,INNASHRT00102177,42,INNASHRT00102178;1799.00;;;<p>WASH DARK COLORS SEPERATELY. USE MILD DETERGENT, DO NOT DRY CLEAN, TUMBLE DRY LOW, DRY IN SHADE, DO NOT BLEACH</p>;;;;;zerotype;;Fall;;No
2067515;50011353491004-BLUE-2067515;PINNA-M-ISF4552-3171, 42, BLUE;Draft;Shirts;Indigo Nation;Adults-Men;Men;Blue;;;Fashion;;2017;38,INNASHRT00102170,39,INNASHRT00102171,40,INNASHRT00102172,42,INNASHRT00102173;1599.00;;;<p>WASH DARK COLORS SEPERATELY. USE MILD DETERGENT, DO NOT DRY CLEAN, TUMBLE DRY LOW, DRY IN SHADE, DO NOT BLEACH</p>;;;;;zerotype;;Fall;;No
2067513;50011353485004-MAROON-2067513;PINNA-M-ISF4482-3171, 42, MAROON;Draft;Shirts;Indigo Nation;Adults-Men;Men;Maroon;;;Fashion;;2017;38,INNASHRT00102165,39,INNASHRT00102166,40,INNASHRT00102167,42,INNASHRT00102168;1499.00;;;<p>WASH DARK COLORS SEPERATELY. USE MILD DETERGENT, DO NOT DRY CLEAN, TUMBLE DRY LOW, DRY IN SHADE, DO NOT BLEACH</p>;;;;;zerotype;;Fall;;No
2067509;50011353473004-GREEN-2067509;PINNA-M-ISF4462-3171, 42, GREEN;Draft;Shirts;Indigo Nation;Adults-Men;Men;Green;;;Fashion;;2017;38,INNASHRT00102160,39,INNASHRT00102161,40,INNASHRT00102162,42,INNASHRT00102163;1499.00;;;<p>WASH DARK COLORS SEPERATELY. USE MILD DETERGENT, DO NOT DRY CLEAN, TUMBLE DRY LOW, DRY IN SHADE, DO NOT BLEACH</p>;;;;;zerotype;;Fall;;No
2067490;50011273194004-OLIVE-2067490;PINNA-M-ISF2282-3171, 42, OLIVE;Draft;Shirts;Indigo Nation;Adults-Men;Men;Olive;;;Fashion;;2017;38,INNASHRT00102155,39,INNASHRT00102156,40,INNASHRT00102157,42,INNASHRT00102158;1799.00;;;<p>WASH DARK COLORS SEPERATELY. USE MILD DETERGENT, DO NOT DRY CLEAN, TUMBLE DRY LOW, DRY IN SHADE, DO NOT BLEACH</p>;;;;;zerotype;;Fall;;No
2067488;50011273189004-OLIVE-2067488;PINNA-M-ISF1412-3171, 42, OLIVE;Draft;Shirts;Indigo Nation;Adults-Men;Men;Olive;;;Fashion;;2017;38,INNASHRT00102150,39,INNASHRT00102151,40,INNASHRT00102152,42,INNASHRT00102153;1799.00;;;<p>WASH DARK COLORS SEPERATELY. USE MILD DETERGENT, DO NOT DRY CLEAN, TUMBLE DRY LOW, DRY IN SHADE, DO NOT BLEACH</p>;;;;;zerotype;;Fall;;No
2067487;50011271400004-PURPLE-2067487;PINNA-M-ISF2082-3171, 42, PURPLE;Draft;Shirts;Indigo Nation;Adults-Men;Men;Purple;;;Fashion;;2017;38,INNASHRT00102146,39,INNASHRT00102147,40,INNASHRT00102148,42,INNASHRT00102149;1699.00;;;<p>WASH DARK COLORS SEPERATELY. USE MILD DETERGENT, DO NOT DRY CLEAN, TUMBLE DRY LOW, DRY IN SHADE, DO NOT BLEACH</p>;;;;;zerotype;;Fall;;No
2067485;50011271402004-ORANGE-2067485;PINNA-M-ISF2112-3171, 42, ORANGE;Draft;Shirts;Indigo Nation;Adults-Men;Men;Orange;;;Fashion;;2017;38,INNASHRT00102141,39,INNASHRT00102142,40,INNASHRT00102143,42,INNASHRT00102144;1599.00;;;<p>WASH DARK COLORS SEPERATELY. USE MILD DETERGENT, DO NOT DRY CLEAN, TUMBLE DRY LOW, DRY IN SHADE, DO NOT BLEACH</p>;;;;;zerotype;;Fall;;No
2067483;50011271401004-BLUE-2067483;PINNA-M-ISF2102-3171, 42, BLUE;Draft;Shirts;Indigo Nation;Adults-Men;Men;Blue;;;Fashion;;2017;38,INNASHRT00102136,39,INNASHRT00102137,40,INNASHRT00102138,42,INNASHRT00102139;1599.00;;;<p>WASH DARK COLORS SEPERATELY. USE MILD DETERGENT, DO NOT DRY CLEAN, TUMBLE DRY LOW, DRY IN SHADE, DO NOT BLEACH</p>;;;;;zerotype;;Fall;;No
2067481;50011271392004-GREEN-2067481;PINNA-M-ISF1992-3171, 42, GREEN;Draft;Shirts;Indigo Nation;Adults-Men;Men;Green;;;Fashion;;2017;38,INNASHRT00102131,39,INNASHRT00102132,40,INNASHRT00102133,42,INNASHRT00102134;1699.00;;;<p>WASH DARK COLORS SEPERATELY. USE MILD DETERGENT, DO NOT DRY CLEAN, TUMBLE DRY LOW, DRY IN SHADE, DO NOT BLEACH</p>;;;;;zerotype;;Fall;;No
2067478;50011271398004-BLACK-2067478;PINNA-M-ISF2072-3171, 42, BLACK;Draft;Shirts;Indigo Nation;Adults-Men;Men;Black;;;Fashion;;2017;38,INNASHRT00102125,39,INNASHRT00102126,40,INNASHRT00102127,42,INNASHRT00102128;1699.00;;;<p>WASH DARK COLORS SEPERATELY. USE MILD DETERGENT, DO NOT DRY CLEAN, TUMBLE DRY LOW, DRY IN SHADE, DO NOT BLEACH</p>;;;;;zerotype;;Fall;;No
2067477;50011271397004-BLACK-2067477;PINNA-M-ISF2071-3171, 42, BLACK;Draft;Shirts;Indigo Nation;Adults-Men;Men;Black;;;Fashion;;2017;38,INNASHRT00102121,39,INNASHRT00102122,40,INNASHRT00102123,42,INNASHRT00102124;1699.00;;;<p>WASH DARK COLORS SEPERATELY. USE MILD DETERGENT, DO NOT DRY CLEAN, TUMBLE DRY LOW, DRY IN SHADE, DO NOT BLEACH</p>;;;;;zerotype;;Fall;;No
2067475;50011271386004-WHITE-2067475;PINNA-M-ISF1922-3171, 42, WHITE;Draft;Shirts;Indigo Nation;Adults-Men;Men;White;;;Fashion;;2017;38,INNASHRT00102116,39,INNASHRT00102117,40,INNASHRT00102118,42,INNASHRT00102119;1699.00;;;<p>WASH DARK COLORS SEPERATELY. USE MILD DETERGENT, DO NOT DRY CLEAN, TUMBLE DRY LOW, DRY IN SHADE, DO NOT BLEACH</p>;;;;;zerotype;;Fall;;No
2067473;50011271385004-GREY-2067473;PINNA-M-ISF1912-3171, 42, GREY;Draft;Shirts;Indigo Nation;Adults-Men;Men;Grey;;;Fashion;;2017;38,INNASHRT00102111,39,INNASHRT00102112,40,INNASHRT00102113,42,INNASHRT00102114;1699.00;;;<p>WASH DARK COLORS SEPERATELY. USE MILD DETERGENT, DO NOT DRY CLEAN, TUMBLE DRY LOW, DRY IN SHADE, DO NOT BLEACH</p>;;;;;zerotype;;Fall;;No
2067471;50011271374004-GREEN-2067471;PINNA-M-ISF1762-3171, 42, GREEN;Draft;Shirts;Indigo Nation;Adults-Men;Men;Green;;;Fashion;;2017;38,INNASHRT00102106,39,INNASHRT00102107,40,INNASHRT00102108,42,INNASHRT00102109;1799.00;;;<p>WASH DARK COLORS SEPERATELY. USE MILD DETERGENT, DO NOT DRY CLEAN, TUMBLE DRY LOW, DRY IN SHADE, DO NOT BLEACH</p>;;;;;zerotype;;Fall;;No
2067469;50011271370004-BEIGE-2067469;PINNA-M-ISF1742-3171, 42, BEIGE;Draft;Shirts;Indigo Nation;Adults-Men;Men;Beige;;;Fashion;;2017;38,INNASHRT00102101,39,INNASHRT00102102,40,INNASHRT00102103,42,INNASHRT00102104;1799.00;;;<p>WASH DARK COLORS SEPERATELY. USE MILD DETERGENT, DO NOT DRY CLEAN, TUMBLE DRY LOW, DRY IN SHADE, DO NOT BLEACH</p>;;;;;zerotype;;Fall;;No
2067467;50011271367004-YELLOW-2067467;PINNA-M-ISF1722-3171, 42, YELLOW;Draft;Shirts;Indigo Nation;Adults-Men;Men;Yellow;;;Fashion;;2017;38,INNASHRT00102096,39,INNASHRT00102097,40,INNASHRT00102098,42,INNASHRT00102099;1699.00;;;<p>WASH DARK COLORS SEPERATELY. USE MILD DETERGENT, DO NOT DRY CLEAN, TUMBLE DRY LOW, DRY IN SHADE, DO NOT BLEACH</p>;;;;;zerotype;;Fall;;No
2067465;50011271366004-RED-2067465;PINNA-M-ISF1712-3171, 42, RED;Draft;Shirts;Indigo Nation;Adults-Men;Men;Red;;;Fashion;;2017;38,INNASHRT00102091,39,INNASHRT00102092,40,INNASHRT00102093,42,INNASHRT00102094;1699.00;;;<p>WASH DARK COLORS SEPERATELY. USE MILD DETERGENT, DO NOT DRY CLEAN, TUMBLE DRY LOW, DRY IN SHADE, DO NOT BLEACH</p>;;;;;zerotype;;Fall;;No
2067463;50011271208004-ORANGE-2067463;PINNA-M-ISF1522-3171, 42, ORANGE;Draft;Shirts;Indigo Nation;Adults-Men;Men;Orange;;;Fashion;;2017;38,INNASHRT00102086,39,INNASHRT00102087,40,INNASHRT00102088,42,INNASHRT00102089;1699.00;;;<p>WASH DARK COLORS SEPERATELY. USE MILD DETERGENT, DO NOT DRY CLEAN, TUMBLE DRY LOW, DRY IN SHADE, DO NOT BLEACH</p>;;;;;zerotype;;Fall;;No
2067459;50011271028004-BROWN-2067459;PINNA-M-ISF1472-3171, 42, BROWN;Draft;Shirts;Indigo Nation;Adults-Men;Men;Brown;;;Fashion;;2017;38,INNASHRT00102076,39,INNASHRT00102077,40,INNASHRT00102078,42,INNASHRT00102079;1799.00;;;<p>WASH DARK COLORS SEPERATELY. USE MILD DETERGENT, DO NOT DRY CLEAN, TUMBLE DRY LOW, DRY IN SHADE, DO NOT BLEACH</p>;;;;;zerotype;;Fall;;No
2067457;50011271025004-BLUE-2067457;PINNA-M-ISF1392-3171, 42, BLUE;Draft;Shirts;Indigo Nation;Adults-Men;Men;Blue;;;Fashion;;2017;38,INNASHRT00102071,39,INNASHRT00102072,40,INNASHRT00102073,42,INNASHRT00102074;1799.00;;;<p>WASH DARK COLORS SEPERATELY. USE MILD DETERGENT, DO NOT DRY CLEAN, TUMBLE DRY LOW, DRY IN SHADE, DO NOT BLEACH</p>;;;;;zerotype;;Fall;;No
2067455;50011271026004-BLUE-2067455;PINNA-M-ISF1442-3171, 42, BLUE;Draft;Shirts;Indigo Nation;Adults-Men;Men;Blue;;;Fashion;;2017;38,INNASHRT00102066,39,INNASHRT00102067,40,INNASHRT00102068,42,INNASHRT00102069;1699.00;;;<p>WASH DARK COLORS SEPERATELY. USE MILD DETERGENT, DO NOT DRY CLEAN, TUMBLE DRY LOW, DRY IN SHADE, DO NOT BLEACH</p>;;;;;zerotype;;Fall;;No
2067255;50011135299004-BLUE-2067255;PINNA-M-ISE7772-4171, 42, BLUE;Draft;Shirts;Indigo Nation;Adults-Men;Men;Blue;;;Fashion;;2017;38,INNASHRT00102061,39,INNASHRT00102062,40,INNASHRT00102063,42,INNASHRT00102064;1599.00;;;<p>WASH DARK COLORS SEPARATELY, HAND WASH OR MACHINE, WASH COLD, USE MILD DETERGENT, TUMBLE DRY LOW, DRY IN SHADE, DO NOT BLEACH, WARM IRON</p>;;;;;zerotype;;Fall;;No
2067246;50010796030004-WHITE-2067246;PINNA-M-ISE6651-16A1, 42, WHITE;Draft;Shirts;Indigo Nation;Adults-Men;Men;White;;;Fashion;;2017;38,INNASHRT00102052,39,INNASHRT00102053,40,INNASHRT00102054,42,INNASHRT00102055;1499.00;;;<p>WASH DARK COLORS SEPERATELY. USE MILD DETERGENT, DO NOT DRY CLEAN, TUMBLE DRY LOW, DRY IN SHADE, DO NOT BLEACH</p>;;;;;zerotype;;Fall;;No
2067217;50010391837004-WHITE-2067217;PINNA-M-ISE6102-16A1, 42, WHITE;Draft;Shirts;Indigo Nation;Adults-Men;Men;White;;;Fashion;;2017;38,INNASHRT00102047,39,INNASHRT00102048,40,INNASHRT00102049,42,INNASHRT00102050;1599.00;;;<p>WASH DARK COLORS SEPARATELY, HAND WASH OR MACHINE, WASH COLD, USE MILD DETERGENT, TUMBLE DRY LOW, DRY IN SHADE, DO NOT BLEACH, WARM IRON</p>;;;;;zerotype;;Fall;;No
2067215;50010391839004-NAVY-2067215;PINNA-M-ISE6112-16A1, 42, NAVY;Draft;Shirts;Indigo Nation;Adults-Men;Men;Navy Blue;;;Fashion;;2017;39,INNASHRT00102043,40,INNASHRT00102044,42,INNASHRT00102045;1599.00;;;<p>WASH DARK COLORS SEPARATELY, HAND WASH OR MACHINE, WASH COLD, USE MILD DETERGENT, TUMBLE DRY LOW, DRY IN SHADE, DO NOT BLEACH, WARM IRON</p>;;;;;zerotype;;Fall;;No
2067213;50010386382004-BROWN-2067213;PINNA-M-ISE4422-16A1, 42, BROWN;Draft;Shirts;Indigo Nation;Adults-Men;Men;Brown;;;Fashion;;2017;38,INNASHRT00102038,39,INNASHRT00102039,40,INNASHRT00102040,42,INNASHRT00102041;1799.00;;;<p>WASH DARK COLORS SEPARATELY, HAND WASH OR MACHINE, WASH COLD, USE MILD DETERGENT, TUMBLE DRY LOW, DRY IN SHADE, DO NOT BLEACH, WARM IRON</p>;;;;;zerotype;;Fall;;No
2067084;50009853421003-GREEN-2067084;PINNA-M-ISE3232-15A1, 42, GREEN;Draft;Shirts;Indigo Nation;Adults-Men;Men;Green;;;Fashion;;2017;39,INNASHRT00102029,40,INNASHRT00102030,42,INNASHRT00102031;1599.00;;;<p>WASH DARK COLORS SEPARATELY, HAND WASH OR MACHINE, WASH COLD, USE MILD DETERGENT, TUMBLE DRY LOW, DRY IN SHADE, DO NOT BLEACH, WARM IRON</p>;;;;;zerotype;;Fall;;No
2067043;50007995116002-BLACK-2067043;PINNA-M-ISD4702-14A0, 40, BLACK;Draft;Shirts;Indigo Nation;Adults-Men;Men;Black;;;Fashion;;2017;38,INNASHRT00102019,39,INNASHRT00102020,40,INNASHRT00102021;1299.00;;;<p>WASH DARK COLORS SEPARATELY, HAND WASH OR MACHINE, WASH COLD, USE MILD DETERGENT, TUMBLE DRY LOW, DRY IN SHADE, DO NOT BLEACH, WARM IRON</p>;;;;;zerotype;;Fall;;No
2067041;50007993966003-BLACK-2067041;PINNA-M-ISD4331-14A0, 42, BLACK;Draft;Shirts;Indigo Nation;Adults-Men;Men;Black;;;Fashion;;2017;38,INNASHRT00102014,39,INNASHRT00102015,40,INNASHRT00102016,42,INNASHRT00102017;949.00;;;<p>WASH DARK COLORS SEPERATELY. USE MILD DETERGENT, DO NOT DRY CLEAN, TUMBLE DRY LOW, DRY IN SHADE, DO NOT BLEACH</p>;;;;;zerotype;;Fall;;No
2055720;50011353502005-BEIGE-2055720;PINNA-M-IT82921-3171, 38, BEIGE;Draft;Trousers;Indigo Nation;Adults-Men;Men;Beige;;;Fashion;;2017;30,INNATRSR00100641,32,INNATRSR00100642,34,INNATRSR00100643,36,INNATRSR00100644,38,INNATRSR00100645;1999.00;;;<p>WASH DARK COLORS SEPARATELY, HAND WASH OR MACHINE, WASH COLD, USE MILD DETERGENT, TUMBLE DRY LOW, DRY IN SHADE, DO NOT BLEACH, WARM IRON</p>;;;;;zerotype;;Fall;;No
2055719;50011353501005-BEIGE-2055719;PINNA-M-IT82911-3171, 38, BEIGE;Draft;Trousers;Indigo Nation;Adults-Men;Men;Beige;;;Fashion;;2017;30,INNATRSR00100636,32,INNATRSR00100637,34,INNATRSR00100638,36,INNATRSR00100639,38,INNATRSR00100640;1999.00;;;<p>WASH DARK COLORS SEPARATELY, HAND WASH OR MACHINE, WASH COLD, USE MILD DETERGENT, TUMBLE DRY LOW, DRY IN SHADE, DO NOT BLEACH, WARM IRON</p>;;;;;zerotype;;Fall;;No
2055718;50011353500005-BLACK-2055718;PINNA-M-IT82891-3171, 38, BLACK;Draft;Trousers;Indigo Nation;Adults-Men;Men;Black;;;Fashion;;2017;30,INNATRSR00100631,32,INNATRSR00100632,34,INNATRSR00100633,36,INNATRSR00100634,38,INNATRSR00100635;1999.00;;;<p>WASH DARK COLORS SEPARATELY, HAND WASH OR MACHINE, WASH COLD, USE MILD DETERGENT, TUMBLE DRY LOW, DRY IN SHADE, DO NOT BLEACH, WARM IRON</p>;;;;;zerotype;;Fall;;No
2055717;50011353496005-BLACK-2055717;PINNA-M-IT82841-3171, 38, BLACK;Draft;Trousers;Indigo Nation;Adults-Men;Men;Black;;;Fashion;;2017;30,INNATRSR00100626,32,INNATRSR00100627,34,INNATRSR00100628,36,INNATRSR00100629,38,INNATRSR00100630;1999.00;;;<p>WASH DARK COLORS SEPARATELY, HAND WASH OR MACHINE, WASH COLD, USE MILD DETERGENT, TUMBLE DRY LOW, DRY IN SHADE, DO NOT BLEACH, WARM IRON</p>;;;;;zerotype;;Fall;;No
2055716;50011353364005-BROWN-2055716;PINNA-M-IT82821-3171, 38, BROWN;Draft;Trousers;Indigo Nation;Adults-Men;Men;Brown;;;Fashion;;2017;30,INNATRSR00100621,32,INNATRSR00100622,34,INNATRSR00100623,36,INNATRSR00100624,38,INNATRSR00100625;1999.00;;;<p>WASH DARK COLORS SEPARATELY, HAND WASH OR MACHINE, WASH COLD, USE MILD DETERGENT, TUMBLE DRY LOW, DRY IN SHADE, DO NOT BLEACH, WARM IRON</p>;;;;;zerotype;;Fall;;No
2055715;50011273284005-KHAKHI-2055715;PINNA-M-IT82571-3171, 38, KHAKHI;Draft;Trousers;Indigo Nation;Adults-Men;Men;Khaki;;;Fashion;;2017;30,INNATRSR00100616,32,INNATRSR00100617,34,INNATRSR00100618,36,INNATRSR00100619,38,INNATRSR00100620;2399.00;;;<p>WASH DARK COLORS SEPARATELY, HAND WASH OR MACHINE, WASH COLD, USE MILD DETERGENT, TUMBLE DRY LOW, DRY IN SHADE, DO NOT BLEACH, WARM IRON</p>;;;;;zerotype;;Fall;;No
2055714;50011273283005-BEIGE-2055714;PINNA-M-IT82561-3171, 38, BEIGE;Draft;Trousers;Indigo Nation;Adults-Men;Men;Beige;;;Fashion;;2017;30,INNATRSR00100611,32,INNATRSR00100612,34,INNATRSR00100613,36,INNATRSR00100614,38,INNATRSR00100615;2399.00;;;<p>WASH DARK COLORS SEPARATELY, HAND WASH OR MACHINE, WASH COLD, USE MILD DETERGENT, TUMBLE DRY LOW, DRY IN SHADE, DO NOT BLEACH, WARM IRON</p>;;;;;zerotype;;Fall;;No
2055713;50011273281005-BROWN-2055713;PINNA-M-IT82531-3171, 38, BROWN;Draft;Trousers;Indigo Nation;Adults-Men;Men;Brown;;;Fashion;;2017;30,INNATRSR00100606,32,INNATRSR00100607,34,INNATRSR00100608,36,INNATRSR00100609,38,INNATRSR00100610;2399.00;;;<p>WASH DARK COLORS SEPARATELY, HAND WASH OR MACHINE, WASH COLD, USE MILD DETERGENT, TUMBLE DRY LOW, DRY IN SHADE, DO NOT BLEACH, WARM IRON</p>;;;;;zerotype;;Fall;;No
2055712;50011273280005-BEIGE-2055712;PINNA-M-IT82501-3171, 38, BEIGE;Draft;Trousers;Indigo Nation;Adults-Men;Men;Beige;;;Fashion;;2017;30,INNATRSR00100601,32,INNATRSR00100602,34,INNATRSR00100603,36,INNATRSR00100604,38,INNATRSR00100605;2399.00;;;<p>WASH DARK COLORS SEPARATELY, HAND WASH OR MACHINE, WASH COLD, USE MILD DETERGENT, TUMBLE DRY LOW, DRY IN SHADE, DO NOT BLEACH, WARM IRON</p>;;;;;zerotype;;Fall;;No
2021260;ATTF2073-Navy-2021260;TRAR FFF TPD NVY REG STR S17ARWLTR031N1;On Hold - Sample;Trousers;Arrow;Adults-Men;Men;;;;Fashion;;2017;30,ARRWTRSR00002051,32,ARRWTRSR00002052,34,ARRWTRSR00002053,36,ARRWTRSR00002054,38,ARRWTRSR00002055,40,ARRWTRSR00002056;2099.00;;;<p>Normal machine wash with cold water</p>;;;;;zerotype;;Summer;Broken size;No
2021259;ATTF2072-Dk. Brown-2021259;TRAR FFF TPD DBR REG STR S17ARWLTR031C3;On Hold - Sample;Trousers;Arrow;Adults-Men;Men;;;;Fashion;;2017;30,ARRWTRSR00002046,32,ARRWTRSR00002047,34,ARRWTRSR00002048,36,ARRWTRSR00002049,38,ARRWTRSR00002050;2099.00;;;<p>Normal machine wash with cold water</p>;;;;;zerotype;;Summer;Broken size;No
2021252;ATTF2011-Charcoal  melange-2021252;TRAR FFF TPD CME REG STR S17ARWLTR001G5;On Hold - Sample;Trousers;Arrow;Adults-Men;Men;;;;Fashion;;2017;32,ARRWTRSR00002008,34,ARRWTRSR00002009,36,ARRWTRSR00002010,38,ARRWTRSR00002011;1899.00;;;<p>Normal machine wash with cold water</p>;;;;;zerotype;;Summer;Broken size;No
2021245;ATSF2000-BLACK-2021245;TRAR FFF TPD BLK AFX SOL A16ARPRTR001Z1;Draft;Trousers;Arrow;Adults-Men;Men;;;;Fashion;;2016;30,ARRWTRSR00001981,38,ARRWTRSR00001982,40,ARRWTRSR00001983,42,ARRWTRSR00001984,32,ARRWTRSR00002135,34,ARRWTRSR00002136,36,ARRWTRSR00002137;2699.00;;;<p>Normal machine wash with cold water</p>;;;;;zerotype;;Fall;;No
2021243;ARGT0615A-Navy-2021243;TR AR C FF SLM REG NVY SOL VEGAS;Draft;Trousers;Arrow;Adults-Men;Men;;;;Fashion;;2017;30,ARRWTRSR00001977,32,ARRWTRSR00001978,34,ARRWTRSR00001979,40,ARRWTRSR00001980,36,ARRWTRSR00002314,38,ARRWTRSR00002315,42,ARRWTRSR00002316;1899.00;;;<p>Normal machine wash with cold water</p>;;;;mitm-new-season;zerotype;;Fall;mitm-new-season;No
2021218;ASTF0615-Lt. Green-2021218;SH FS AF24 SEM PRI FS17ARWLSH049D1;On Hold - Sample;Shirts;Arrow;Adults-Men;Men;;;;Fashion;;2017;38,ARRWSHRT00006034,39,ARRWSHRT00006035,40,ARRWSHRT00006036,42,ARRWSHRT00006037,44,ARRWSHRT00006038;1699.00;;;<p>Normal machine wash with cold water</p>;;;;;zerotype;;Summer;Broken size;No
2021216;ASTF0562-Lt. Orange-2021216;SH FS AF24 SEM YDC FS17ARWLSH032O1;On Hold - Sample;Shirts;Arrow;Adults-Men;Men;;;;Fashion;;2017;39,ARRWSHRT00006024,40,ARRWSHRT00006025,42,ARRWSHRT00006026,44,ARRWSHRT00006027;1899.00;;;<p>Normal machine wash with cold water</p>;;;;;zerotype;;Summer;Broken size;No
2021183;ASTF0523-Dk. Pink-2021183;SH FS AF23 SEM YDC FS17ARWLSH014P3;Draft;Shirts;Arrow;Adults-Men;Men;;;;Fashion;;2017;39,ARRWSHRT00005989,40,ARRWSHRT00005990,42,ARRWSHRT00005991,44,ARRWSHRT00005992,46,ARRWSHRT00005993;2099.00;;;<p>Normal machine wash with cold water</p>;;;;;zerotype;;Summer;;No
2021182;ASTF0521-DR LAVENDER-2021182;SH HS AF23 SEM YDC FS17ARWLSH013L3;On Hold - Sample;Shirts;Arrow;Adults-Men;Men;;;;Fashion;;2017;39,ARRWSHRT00005984,40,ARRWSHRT00005985,42,ARRWSHRT00005986,44,ARRWSHRT00005987,46,ARRWSHRT00005988;2099.00;;;<p>Normal machine wash with cold water</p>;;;;;zerotype;;Summer;Broken size;No
2021171;ASTF0251-Lt. Blue-2021171;SH HS AF23 SEM STR FS17ARWLSH058B1;On Hold - Sample;Shirts;Arrow;Adults-Men;Men;;;;Fashion;;2017;39,ARRWSHRT00005940,40,ARRWSHRT00005941;2099.00;;;<p>Normal machine wash with cold water</p>;;;;;zerotype;;Summer;Broken size;No
2021156;ASRF0187-LT.PURPLE-2021156;SH HS REG SEM YDC S16ARWLSH008U1S1;Draft;Shirts;Arrow;Adults-Men;Men;;;;Fashion;;2016;39,ARRWSHRT00005886,38,ARRWSHRT00006650,40,ARRWSHRT00006651,42,ARRWSHRT00006652,44,ARRWSHRT00006653,46,ARRWSHRT00006654;1699.00;;;<p>Normal machine wash with cold water</p>;;;;;zerotype;;Fall;;No
1539690;ATRF6024-Grey Melange-1539690;TRAR FFF TPD GML AFX STR S16ARWLTR008G4;Draft;Trousers;Arrow;Adults-Men;Men;;;;Fashion;;2016;30,ARRWTRSR00001867,32,ARRWTRSR00001868,34,ARRWTRSR00001869,36,ARRWTRSR00001870,38,ARRWTRSR00001871,40,ARRWTRSR00002127;2299.00;<p>Poly Viscose</p>;;<p>Normal machine wash with cold water</p>;;;;;zerotype;;Fall;;No
1387869;ASRF0232-Me. Blue-1387869;SH HS REG SEM YDC S16ARWLSH023B2S1;Draft;Shirts;Arrow;Adults-Men;Men;;;;Fashion;;2016;39,ARRWSHRT00004944,40,ARRWSHRT00004945,42,ARRWSHRT00004946,44,ARRWSHRT00004947,46,ARRWSHRT00006656;1899.00;<p>100 % COTTON</p>;;<p>Normal machine wash with cold water</p>;;;;mens-sum-fest-b1g1;zerotype;;Fall;mens-sum-fest-b1g1;No
1387866;ASRF0209-Me. Blue-1387866;SH HS REG SEM YDC S16ARWLSH016B2;Draft;Shirts;Arrow;Adults-Men;Men;;;;Fashion;;2016;38,ARRWSHRT00004931,40,ARRWSHRT00004932,42,ARRWSHRT00004933,44,ARRWSHRT00004934,46,ARRWSHRT00004935,39,ARRWSHRT00006655;2099.00;<p>100 % COTTON</p>;;<p>Normal machine wash with cold water</p>;;;;mens-sum-fest-b1g1;zerotype;;Fall;mens-sum-fest-b1g1;No
