Style ID;Vendor Article Number;Vendor Article Name;Active Status;Article type;Brand;Age Group;Gender;Base Colour;Colour1;Colour2;Fashion Type;Usage;Year;Size - SKU code pair;MRP;Style Description;Style Note;Materials and Care Description;Size and Fit Description;Size Chart Path;Product Display Name;Tags;Product Type;Classification Brand;Season;Comments;Upload Images
1866998;BLAZER 001DD-Deep sea Coral-1866998;Mens OD Casual Blazer;Draft;Blazers;Mast & Harbour;Adults-Men;Men;;;;Fashion;;2017;S,MTHBBLZR00000614,M,MTHBBLZR00000615,L,MTHBBLZR00000616;3499.00;;;;;;;;zerotype;;Spring;;No
1866997;BLAZER 001CC-Gold-1866997;Mens OD Casual Blazer;Draft;Blazers;Mast & Harbour;Adults-Men;Men;;;;Fashion;;2017;S,MTHBBLZR00000611,M,MTHBBLZR00000612,L,MTHBBLZR00000613;3499.00;;;;;;;;zerotype;;Spring;;No
1866996;BLAZER 001BB-Dress blue-1866996;Mens OD Casual Blazer;Draft;Blazers;Mast & Harbour;Adults-Men;Men;;;;Fashion;;2017;S,MTHBBLZR00000608,M,MTHBBLZR00000609,L,MTHBBLZR00000610;3499.00;;;;;;;;zerotype;;Spring;;No
1866995;BLAZER 001AA-Blue Bell-1866995;Mens OD Casual Blazer;Draft;Blazers;Mast & Harbour;Adults-Men;Men;;;;Fashion;;2017;S,MTHBBLZR00000605,M,MTHBBLZR00000606,L,MTHBBLZR00000607;3499.00;;;;;;;;zerotype;;Spring;;No
1823581;MNH-MAN-SHIRT-004-SF11-Blue-1823581;Mens Casual Shirt;Draft;Shirts;Mast & Harbour;Adults-Men;Men;;;;Fashion;;2017;S,MTHBSHRT00008353,M,MTHBSHRT00008354,L,MTHBSHRT00008355,XL,MTHBSHRT00008356;1899.00;;;;;;;;zerotype;;Spring;;No
1823580;MNH-MAN-SHIRT-004-SF10-Pink-1823580;Mens Casual Shirt;Draft;Shirts;Mast & Harbour;Adults-Men;Men;;;;Fashion;;2017;S,MTHBSHRT00008349,M,MTHBSHRT00008350,L,MTHBSHRT00008351,XL,MTHBSHRT00008352;1899.00;;;;;;;;zerotype;;Spring;;No
1823579;MNH-MAN-SHIRT-004-SF9-Pink-1823579;Mens Casual Shirt;Draft;Shirts;Mast & Harbour;Adults-Men;Men;;;;Fashion;;2017;S,MTHBSHRT00008345,M,MTHBSHRT00008346,L,MTHBSHRT00008347,XL,MTHBSHRT00008348;1899.00;;;;;;;;zerotype;;Spring;;No
1823578;MNH-MAN-SHIRT-004-SF8-Aqua-1823578;Mens Casual Shirt;Draft;Shirts;Mast & Harbour;Adults-Men;Men;;;;Fashion;;2017;S,MTHBSHRT00008341,M,MTHBSHRT00008342,L,MTHBSHRT00008343,XL,MTHBSHRT00008344;1899.00;;;;;;;;zerotype;;Spring;;No
1823577;MNH-MAN-SHIRT-004-SF7-Aqua-1823577;Mens Casual Shirt;Draft;Shirts;Mast & Harbour;Adults-Men;Men;;;;Fashion;;2017;S,MTHBSHRT00008337,M,MTHBSHRT00008338,L,MTHBSHRT00008339,XL,MTHBSHRT00008340;1899.00;;;;;;;;zerotype;;Spring;;No
1823576;MNH-MAN-SHIRT-004-SF6-Blue-1823576;Mens Casual Shirt;Draft;Shirts;Mast & Harbour;Adults-Men;Men;;;;Fashion;;2017;S,MTHBSHRT00008333,M,MTHBSHRT00008334,L,MTHBSHRT00008335,XL,MTHBSHRT00008336;1899.00;;;;;;;;zerotype;;Spring;;No
1823575;MNH-MAN-SHIRT-004-SF5-Pink-1823575;Mens Casual Shirt;Draft;Shirts;Mast & Harbour;Adults-Men;Men;;;;Fashion;;2017;S,MTHBSHRT00008329,M,MTHBSHRT00008330,L,MTHBSHRT00008331,XL,MTHBSHRT00008332;1899.00;;;;;;;;zerotype;;Spring;;No
1823574;MNH-MAN-SHIRT-004-SF4-Aqua-1823574;Mens Casual Shirt;Draft;Shirts;Mast & Harbour;Adults-Men;Men;;;;Fashion;;2017;S,MTHBSHRT00008325,M,MTHBSHRT00008326,L,MTHBSHRT00008327,XL,MTHBSHRT00008328;1899.00;;;;;;;;zerotype;;Spring;;No
1823573;MNH-MAN-SHIRT-004-SF2-Pink-1823573;Mens Casual Shirt;Draft;Shirts;Mast & Harbour;Adults-Men;Men;;;;Fashion;;2017;S,MTHBSHRT00008321,M,MTHBSHRT00008322,L,MTHBSHRT00008323,XL,MTHBSHRT00008324;1899.00;;;;;;;;zerotype;;Spring;;No
1823572;MNH-MAN-SHIRT-004-SF1-Blue-1823572;Mens Casual Shirt;Draft;Shirts;Mast & Harbour;Adults-Men;Men;;;;Fashion;;2017;S,MTHBSHRT00008317,M,MTHBSHRT00008318,L,MTHBSHRT00008319,XL,MTHBSHRT00008320;1899.00;;;;;;;;zerotype;;Spring;;No
1823571;MNH-MAN-SHIRT-003-SF9-Blue-1823571;Mens Casual Shirt;Draft;Shirts;Mast & Harbour;Adults-Men;Men;;;;Fashion;;2017;S,MTHBSHRT00008313,M,MTHBSHRT00008314,L,MTHBSHRT00008315,XL,MTHBSHRT00008316;1899.00;;;;;;;;zerotype;;Spring;;No
1823570;MNH-MAN-SHIRT-003-SF8-Red-1823570;Mens Casual Shirt;Draft;Shirts;Mast & Harbour;Adults-Men;Men;;;;Fashion;;2017;S,MTHBSHRT00008309,M,MTHBSHRT00008310,L,MTHBSHRT00008311,XL,MTHBSHRT00008312;1899.00;;;;;;;;zerotype;;Spring;;No
1823569;MNH-MAN-SHIRT-003-SF7-Maroon/Blue-1823569;Mens Casual Shirt;Draft;Shirts;Mast & Harbour;Adults-Men;Men;;;;Fashion;;2017;S,MTHBSHRT00008305,M,MTHBSHRT00008306,L,MTHBSHRT00008307,XL,MTHBSHRT00008308;1899.00;;;;;;;;zerotype;;Spring;;No
1823568;MNH-MAN-SHIRT-003-SF6-Blue/Pink-1823568;Mens Casual Shirt;Draft;Shirts;Mast & Harbour;Adults-Men;Men;;;;Fashion;;2017;S,MTHBSHRT00008301,M,MTHBSHRT00008302,L,MTHBSHRT00008303,XL,MTHBSHRT00008304;1899.00;;;;;;;;zerotype;;Spring;;No
1823567;MNH-MAN-SHIRT-003-SF5-Aqua/Pink-1823567;Mens Casual Shirt;Draft;Shirts;Mast & Harbour;Adults-Men;Men;;;;Fashion;;2017;S,MTHBSHRT00008297,M,MTHBSHRT00008298,L,MTHBSHRT00008299,XL,MTHBSHRT00008300;1899.00;;;;;;;;zerotype;;Spring;;No
1823566;MNHSS15SHOR-011- SF6-Peach-1823566;Mens Engineered Shirt;Draft;Shirts;Mast & Harbour;Adults-Men;Men;;;;Fashion;;2017;S,MTHBSHRT00008293,M,MTHBSHRT00008294,L,MTHBSHRT00008295,XL,MTHBSHRT00008296;1999.00;;;;;;;;zerotype;;Spring;;No
1823565;MNHSS15SHOR-011- SF5-Sky blue-1823565;Mens Engineered Shirt;Draft;Shirts;Mast & Harbour;Adults-Men;Men;;;;Fashion;;2017;S,MTHBSHRT00008289,M,MTHBSHRT00008290,L,MTHBSHRT00008291,XL,MTHBSHRT00008292;1999.00;;;;;;;;zerotype;;Spring;;No
1823564;MNHSS15SHOR-011- SF4-Blue/Pink-1823564;Mens Engineered Shirt;Draft;Shirts;Mast & Harbour;Adults-Men;Men;;;;Fashion;;2017;S,MTHBSHRT00008285,M,MTHBSHRT00008286,L,MTHBSHRT00008287,XL,MTHBSHRT00008288;1999.00;;;;;;;;zerotype;;Spring;;No
1823563;MNHSS15SHOR-011- SF3-Green/Yellow-1823563;Mens Engineered Shirt;Draft;Shirts;Mast & Harbour;Adults-Men;Men;;;;Fashion;;2017;S,MTHBSHRT00008281,M,MTHBSHRT00008282,L,MTHBSHRT00008283,XL,MTHBSHRT00008284;1999.00;;;;;;;;zerotype;;Spring;;No
1823561;MNHSS15SHOR-011- SF2-Pink/Blue-1823561;Mens Engineered Shirt;Draft;Shirts;Mast & Harbour;Adults-Men;Men;;;;Fashion;;2017;S,MTHBSHRT00008277,M,MTHBSHRT00008278,L,MTHBSHRT00008279,XL,MTHBSHRT00008280;1999.00;;;;;;;;zerotype;;Spring;;No
1823559;MNHSS15SHOR-011- SF1-Blue/Aqua-1823559;Mens Engineered Shirt;Draft;Shirts;Mast & Harbour;Adults-Men;Men;;;;Fashion;;2017;S,MTHBSHRT00008273,M,MTHBSHRT00008274,L,MTHBSHRT00008275,XL,MTHBSHRT00008276;1999.00;;;;;;;;zerotype;;Spring;;No
1823528;MNHSHRTAW16-101-T7-Dk.Grey-1823528;Mens OverDyed Twill Shirt;Draft;Shirts;Mast & Harbour;Adults-Men;Men;;;;Fashion;;2017;S,MTHBSHRT00008165,M,MTHBSHRT00008166,L,MTHBSHRT00008167,XL,MTHBSHRT00008168;1499.00;;;;;;;;zerotype;;Spring;;No
1823527;MNHSHRTAW16-101-T6-Dk.Brown-1823527;Mens OverDyed Twill Shirt;Draft;Shirts;Mast & Harbour;Adults-Men;Men;;;;Fashion;;2017;S,MTHBSHRT00008161,M,MTHBSHRT00008162,L,MTHBSHRT00008163,XL,MTHBSHRT00008164;1499.00;;;;;;;;zerotype;;Spring;;No
1823526;MNHSHRTAW16-101-T5-Green-1823526;Mens OverDyed Twill Shirt;Draft;Shirts;Mast & Harbour;Adults-Men;Men;;;;Fashion;;2017;S,MTHBSHRT00008157,M,MTHBSHRT00008158,L,MTHBSHRT00008159,XL,MTHBSHRT00008160;1499.00;;;;;;;;zerotype;;Spring;;No
1823525;MNHSHRTAW16-101-T4-Olive-1823525;Mens OverDyed Twill Shirt;Draft;Shirts;Mast & Harbour;Adults-Men;Men;;;;Fashion;;2017;S,MTHBSHRT00008153,M,MTHBSHRT00008154,L,MTHBSHRT00008155,XL,MTHBSHRT00008156;1499.00;;;;;;;;zerotype;;Spring;;No
1823524;MNHSHRTAW16-101-T3-Teal-1823524;Mens OverDyed Twill Shirt;Draft;Shirts;Mast & Harbour;Adults-Men;Men;;;;Fashion;;2017;S,MTHBSHRT00008149,M,MTHBSHRT00008150,L,MTHBSHRT00008151,XL,MTHBSHRT00008152;1499.00;;;;;;;;zerotype;;Spring;;No
1823523;MNHSHRTAW16-103-P6-Golden yellow-1823523;Mens poplin OD shirt;Draft;Shirts;Mast & Harbour;Adults-Men;Men;;;;Fashion;;2017;S,MTHBSHRT00008145,M,MTHBSHRT00008146,L,MTHBSHRT00008147,XL,MTHBSHRT00008148;1299.00;;;;;;;;zerotype;;Spring;;No
1823522;MNHSHRTAW16-103-P5-Coral Gold-1823522;Mens poplin OD shirt;Draft;Shirts;Mast & Harbour;Adults-Men;Men;;;;Fashion;;2017;S,MTHBSHRT00008141,M,MTHBSHRT00008142,L,MTHBSHRT00008143,XL,MTHBSHRT00008144;1299.00;;;;;;;;zerotype;;Spring;;No
1823521;MNHSHRTAW16-103-P4-Blue-1823521;Mens poplin OD shirt;Draft;Shirts;Mast & Harbour;Adults-Men;Men;;;;Fashion;;2017;S,MTHBSHRT00008137,M,MTHBSHRT00008138,L,MTHBSHRT00008139,XL,MTHBSHRT00008140;1299.00;;;;;;;;zerotype;;Spring;;No
1814844;BX-19-Teal-1814844;Mens Boxers;Draft;Boxers;Mast & Harbour;Adults-Men;Men;;;;Fashion;;2017;28,MTHBBOXR00000202,30,MTHBBOXR00000203,32,MTHBBOXR00000204,34,MTHBBOXR00000205;599.00;;;;;;;;zerotype;;Spring;;No
1814843;BX-18-Blue-1814843;Mens Boxers;Draft;Boxers;Mast & Harbour;Adults-Men;Men;;;;Fashion;;2017;28,MTHBBOXR00000198,30,MTHBBOXR00000199,32,MTHBBOXR00000200,34,MTHBBOXR00000201;599.00;;;;;;;;zerotype;;Spring;;No
1814842;BX-16-Blue-1814842;Mens Boxers;Draft;Boxers;Mast & Harbour;Adults-Men;Men;;;;Fashion;;2017;28,MTHBBOXR00000194,30,MTHBBOXR00000195,32,MTHBBOXR00000196,34,MTHBBOXR00000197;599.00;;;;;;;;zerotype;;Spring;;No
1814841;BX-13-White/Red Checks-1814841;Mens Boxers;Draft;Boxers;Mast & Harbour;Adults-Men;Men;;;;Fashion;;2017;28,MTHBBOXR00000190,30,MTHBBOXR00000191,32,MTHBBOXR00000192,34,MTHBBOXR00000193;599.00;;;;;;;;zerotype;;Spring;;No
1814840;BX-12-White/blue Checks-1814840;Mens Boxers;Draft;Boxers;Mast & Harbour;Adults-Men;Men;;;;Fashion;;2017;28,MTHBBOXR00000186,30,MTHBBOXR00000187,32,MTHBBOXR00000188,34,MTHBBOXR00000189;599.00;;;;;;;;zerotype;;Spring;;No
1814839;BX-11-Blue/Red Checks-1814839;Mens Boxers;Draft;Boxers;Mast & Harbour;Adults-Men;Men;;;;Fashion;;2017;28,MTHBBOXR00000182,30,MTHBBOXR00000183,32,MTHBBOXR00000184,34,MTHBBOXR00000185;599.00;;;;;;;;zerotype;;Spring;;No
1814838;BX-10-White/blue Checks-1814838;Mens Boxers;Draft;Boxers;Mast & Harbour;Adults-Men;Men;;;;Fashion;;2017;28,MTHBBOXR00000178,30,MTHBBOXR00000179,32,MTHBBOXR00000180,34,MTHBBOXR00000181;599.00;;;;;;;;zerotype;;Spring;;No
1814837;BX-9-White/Purple Checks-1814837;Mens Boxers;Draft;Boxers;Mast & Harbour;Adults-Men;Men;;;;Fashion;;2017;28,MTHBBOXR00000174,30,MTHBBOXR00000175,32,MTHBBOXR00000176,34,MTHBBOXR00000177;599.00;;;;;;;;zerotype;;Spring;;No
1814836;BX-8-Blue-1814836;Mens Boxers;Draft;Boxers;Mast & Harbour;Adults-Men;Men;;;;Fashion;;2017;28,MTHBBOXR00000170,30,MTHBBOXR00000171,32,MTHBBOXR00000172,34,MTHBBOXR00000173;599.00;;;;;;;;zerotype;;Spring;;No
1814835;BX-7-Black-1814835;Mens Boxers;Draft;Boxers;Mast & Harbour;Adults-Men;Men;;;;Fashion;;2017;28,MTHBBOXR00000166,30,MTHBBOXR00000167,32,MTHBBOXR00000168,34,MTHBBOXR00000169;599.00;;;;;;;;zerotype;;Spring;;No
1814834;BX-6-Aqua/White-1814834;Mens Boxers;Draft;Boxers;Mast & Harbour;Adults-Men;Men;;;;Fashion;;2017;28,MTHBBOXR00000162,30,MTHBBOXR00000163,32,MTHBBOXR00000164,34,MTHBBOXR00000165;599.00;;;;;;;;zerotype;;Spring;;No
1814833;BX-5-Blue/White-1814833;Mens Boxers;Draft;Boxers;Mast & Harbour;Adults-Men;Men;;;;Fashion;;2017;28,MTHBBOXR00000158,30,MTHBBOXR00000159,32,MTHBBOXR00000160,34,MTHBBOXR00000161;599.00;;;;;;;;zerotype;;Spring;;No
1814832;BX-4E-White base print-1814832;Mens Boxers;Draft;Boxers;Mast & Harbour;Adults-Men;Men;;;;Fashion;;2017;28,MTHBBOXR00000154,30,MTHBBOXR00000155,32,MTHBBOXR00000156,34,MTHBBOXR00000157;599.00;;;;;;;;zerotype;;Spring;;No
1814831;BX-4D-Blue Teal-1814831;Mens Boxers;Draft;Boxers;Mast & Harbour;Adults-Men;Men;;;;Fashion;;2017;28,MTHBBOXR00000150,30,MTHBBOXR00000151,32,MTHBBOXR00000152,34,MTHBBOXR00000153;599.00;;;;;;;;zerotype;;Spring;;No
1814830;BX-4C-Grey-1814830;Mens Boxers;Draft;Boxers;Mast & Harbour;Adults-Men;Men;;;;Fashion;;2017;28,MTHBBOXR00000146,30,MTHBBOXR00000147,32,MTHBBOXR00000148,34,MTHBBOXR00000149;599.00;;;;;;;;zerotype;;Spring;;No
1814829;BX-4B-Maroon-1814829;Mens Boxers;Draft;Boxers;Mast & Harbour;Adults-Men;Men;;;;Fashion;;2017;28,MTHBBOXR00000142,30,MTHBBOXR00000143,32,MTHBBOXR00000144,34,MTHBBOXR00000145;599.00;;;;;;;;zerotype;;Spring;;No
1814828;BX-4A-Navy-1814828;Mens Boxers;Draft;Boxers;Mast & Harbour;Adults-Men;Men;;;;Fashion;;2017;28,MTHBBOXR00000138,30,MTHBBOXR00000139,32,MTHBBOXR00000140,34,MTHBBOXR00000141;599.00;;;;;;;;zerotype;;Spring;;No
1814827;BX-3-Grey print-1814827;Mens Boxers;Draft;Boxers;Mast & Harbour;Adults-Men;Men;;;;Fashion;;2017;28,MTHBBOXR00000134,30,MTHBBOXR00000135,32,MTHBBOXR00000136,34,MTHBBOXR00000137;599.00;;;;;;;;zerotype;;Spring;;No
1814826;BX-2-Teal/White-1814826;Mens Boxers;Draft;Boxers;Mast & Harbour;Adults-Men;Men;;;;Fashion;;2017;28,MTHBBOXR00000130,30,MTHBBOXR00000131,32,MTHBBOXR00000132,34,MTHBBOXR00000133;599.00;;;;;;;;zerotype;;Spring;;No
1814825;BX-1-White print-1814825;Mens Boxers;Draft;Boxers;Mast & Harbour;Adults-Men;Men;;;;Fashion;;2017;28,MTHBBOXR00000126,30,MTHBBOXR00000127,32,MTHBBOXR00000128,34,MTHBBOXR00000129;599.00;;;;;;;;zerotype;;Spring;;No
1794978;117YKWSLD89017-BLACK-1794978;Dresses;Active;Dresses;YK;Kids-Girls;Girls;Brown;;;Fashion;Party;2017;2-3 Y,YKYKDRSS00001233,3-4 Y,YKYKDRSS00001234,4-5 Y,YKYKDRSS00001235,5-6 Y,YKYKDRSS00001236,6-7 Y,YKYKDRSS00001237;1799.00;<a href='/brown?src=pd' class='seolink'>Brown</a> <a href='/solid?src=pd' class='seolink'>solid</a> woven fit and flare <a href='/dress?src=pd' class='seolink'>dress</a>, has a round neck, sleeveless, concealed zip closure, an attached lining, flared hem;This fashionable dress from YK will have your little girl looking and feeling like a princess.  When she's going shopping with her friends, have her wear this brown dress with a cute pair of heels and a trendy handbag.;Polyester <br> Dry-clean;;;YK Girls Brown Solid Fit and Flare Dress;YK;zerotype;;Summer;No comment entered;No
1794974;117YKWSLD89013-BRUNT RED-1794974;Dresses;Active;Dresses;YK;Kids-Girls;Girls;Coral;Off White;;Fashion;Party;2017;2-3 Y,YKYKDRSS00001218,3-4 Y,YKYKDRSS00001219,4-5 Y,YKYKDRSS00001220,5-6 Y,YKYKDRSS00001221,6-7 Y,YKYKDRSS00001222;1899.00;Coral <a href='/pink?src=pd' class='seolink'>pink</a> and off-white patterned woven fit and flare <a href='/dress?src=pd' class='seolink'>dress</a>, has a round neck, sleeveless, a concealed zip closure on the back, an attached lining, a <a href='/tie?src=pd' class='seolink'>tie</a>-up detail at the back and flared hem;She will look and feel beautiful in this timeless dress by YK. This dress is a fun piece for her this summer for either hanging out with friends or going out for dinner.;Shell: 100% polyester <br />Lining: polyester and cotton blend<br />Dry-clean only;;;YK Girls Coral Pink Patterned Fit and Flare Dress;YK;zerotype;;Summer;No comment entered;No
1794970;117YKWSLD89006-BLUE-1794970;Dresses;Active;Dresses;YK;Kids-Girls;Girls;Blue;;;Fashion;Party;2017;2-3 Y,YKYKDRSS00001198,3-4 Y,YKYKDRSS00001199,4-5 Y,YKYKDRSS00001200,5-6 Y,YKYKDRSS00001201,6-7 Y,YKYKDRSS00001202;1799.00;<a href='/blue?src=pd' class='seolink'>Blue</a> woven sequinned fit and flare <a href='/dress?src=pd' class='seolink'>dress</a> with bow detail, has a round neck, sleeveless, a concealed zip closure, an attached lining, a <a href='/tie?src=pd' class='seolink'>tie</a>-up detail at the waist and flared hem;This fashionable dress from YK will have your little girl looking and feeling like a princess.  For an upscale weekend ensemble, style this blue piece with a casual blazer and some chic heels.;Outer: 100% polyester <br />Lining: Polyester and cotton blend<br />Dry-clean only;;;YK Girls Blue Sequinned Fit and Flare Dress;YK;zerotype;;Summer;No comment entered;No
1794968;117YKWSLD89001-BRUNT RED-1794968;Dresses;Active;Dresses;YK;Kids-Girls;Girls;Coral;;;Fashion;Party;2017;2-3 Y,YKYKDRSS00001188,3-4 Y,YKYKDRSS00001189,4-5 Y,YKYKDRSS00001190,5-6 Y,YKYKDRSS00001191,6-7 Y,YKYKDRSS00001192;1799.00;<a href='/coral?src=pd' class='seolink'>Coral</a> <a href='/pink?src=pd' class='seolink'>pink</a> woven tiered fit and flare <a href='/dress?src=pd' class='seolink'>dress</a> with bow detail, has a round neck, sleeveless, a concealed zip closure on the back, an attached lining, a <a href='/tie?src=pd' class='seolink'>tie</a>-up detail at the waist and flared hem;Keep your little girl looking classy with this super-cute dress from YK.  For an upscale weekend ensemble, style this coral pink piece with a casual blazer and some chic heels.;Shell: 100% polyester <br />Lining: polyester and cotton blend<br />Dry-clean only;;;YK Girls Coral Pink Tiered Fit and Flare Dress;YK;zerotype;;Summer;No comment entered;No
1791507;MNH-MAN-SS17-SHIRT-0042-2D-Grey-1791507;Mandrin Collar Long hem shirt;Draft;Shirts;Mast & Harbour;Adults-Men;Men;;;;Fashion;;2017;S,MTHBSHRT00008125,M,MTHBSHRT00008126,L,MTHBSHRT00008127,XL,MTHBSHRT00008128;1899.00;;;;;;;;zerotype;;Spring;;No
1791506;MNH-MAN-SS17-SHIRT-0042-2C-Black-1791506;Mandrin Collar Long hem shirt;Draft;Shirts;Mast & Harbour;Adults-Men;Men;;;;Fashion;;2017;S,MTHBSHRT00008121,M,MTHBSHRT00008122,L,MTHBSHRT00008123,XL,MTHBSHRT00008124;1899.00;;;;;;;;zerotype;;Spring;;No
1791505;MNH-MAN-SS17-SHIRT-0042-2B-Lt.Blue-1791505;Mandrin Collar Long hem shirt;Draft;Shirts;Mast & Harbour;Adults-Men;Men;;;;Fashion;;2017;S,MTHBSHRT00008117,M,MTHBSHRT00008118,L,MTHBSHRT00008119,XL,MTHBSHRT00008120;1899.00;;;;;;;;zerotype;;Spring;;No
1791504;MNH-MAN-SS17-SHIRT-0042-2A-Dk.Blue-1791504;Mandrin Collar Long hem shirt;Draft;Shirts;Mast & Harbour;Adults-Men;Men;;;;Fashion;;2017;S,MTHBSHRT00008113,M,MTHBSHRT00008114,L,MTHBSHRT00008115,XL,MTHBSHRT00008116;1899.00;;;;;;;;zerotype;;Spring;;No
1791503;MNH-MAN-SS17-SHIRT-0041-2B-Blue Combo-1791503;Mens Polo Shirt;Draft;Shirts;Mast & Harbour;Adults-Men;Men;;;;Fashion;;2017;S,MTHBSHRT00008109,M,MTHBSHRT00008110,L,MTHBSHRT00008111,XL,MTHBSHRT00008112;1899.00;;;;;;;;zerotype;;Spring;;No
1791502;MNH-MAN-SS17-SHIRT-0041-2A-Blue Combo-1791502;Mens Polo Shirt;Draft;Shirts;Mast & Harbour;Adults-Men;Men;;;;Fashion;;2017;S,MTHBSHRT00008105,M,MTHBSHRT00008106,L,MTHBSHRT00008107,XL,MTHBSHRT00008108;1899.00;;;;;;;;zerotype;;Spring;;No
1791501;MNH-MAN-SS17-SHIRT-0040-2B-Blue-1791501;Mens Indigo Half sleeve shirt;Draft;Shirts;Mast & Harbour;Adults-Men;Men;;;;Fashion;;2017;S,MTHBSHRT00008101,M,MTHBSHRT00008102,L,MTHBSHRT00008103,XL,MTHBSHRT00008104;1699.00;;;;;;;;zerotype;;Spring;;No
1791500;MNH-MAN-SS17-SHIRT-0040-2A-Blue-1791500;Mens Indigo Half sleeve shirt;Draft;Shirts;Mast & Harbour;Adults-Men;Men;;;;Fashion;;2017;S,MTHBSHRT00008097,M,MTHBSHRT00008098,L,MTHBSHRT00008099,XL,MTHBSHRT00008100;1699.00;;;;;;;;zerotype;;Spring;;No
1791499;MNH-MAN-SS17-SHIRT-0020-2H-Dk.Blue-1791499;Indigo Double pocket shirt;Draft;Shirts;Mast & Harbour;Adults-Men;Men;;;;Fashion;;2017;S,MTHBSHRT00008093,M,MTHBSHRT00008094,L,MTHBSHRT00008095,XL,MTHBSHRT00008096;1899.00;;;;;;;;zerotype;;Spring;;No
1791498;MNH-MAN-SS17-SHIRT-0020-2G-Blue-1791498;Indigo Double pocket shirt;Draft;Shirts;Mast & Harbour;Adults-Men;Men;;;;Fashion;;2017;S,MTHBSHRT00008089,M,MTHBSHRT00008090,L,MTHBSHRT00008091,XL,MTHBSHRT00008092;1999.00;;;;;;;;zerotype;;Spring;;No
1791497;MNH-MAN-SS17-SHIRT-0020-2F-Blue-1791497;Indigo Double pocket shirt;Draft;Shirts;Mast & Harbour;Adults-Men;Men;;;;Fashion;;2017;S,MTHBSHRT00008085,M,MTHBSHRT00008086,L,MTHBSHRT00008087,XL,MTHBSHRT00008088;1899.00;;;;;;;;zerotype;;Spring;;No
1791496;MNH-MAN-SS17-SHIRT-0020-2E-Blue-1791496;Indigo Double pocket shirt;Draft;Shirts;Mast & Harbour;Adults-Men;Men;;;;Fashion;;2017;S,MTHBSHRT00008081,M,MTHBSHRT00008082,L,MTHBSHRT00008083,XL,MTHBSHRT00008084;1899.00;;;;;;;;zerotype;;Spring;;No
1791495;MNH-MAN-SS17-SHIRT-0020-2D-Blue-1791495;Indigo Double pocket shirt;Draft;Shirts;Mast & Harbour;Adults-Men;Men;;;;Fashion;;2017;S,MTHBSHRT00008077,M,MTHBSHRT00008078,L,MTHBSHRT00008079,XL,MTHBSHRT00008080;1999.00;;;;;;;;zerotype;;Spring;;No
1791494;MNH-MAN-SS17-SHIRT-0020-2C-Blue-1791494;Indigo Double pocket shirt;Draft;Shirts;Mast & Harbour;Adults-Men;Men;;;;Fashion;;2017;S,MTHBSHRT00008073,M,MTHBSHRT00008074,L,MTHBSHRT00008075,XL,MTHBSHRT00008076;1899.00;;;;;;;;zerotype;;Spring;;No
1791493;MNH-MAN-SS17-SHIRT-0020-2B-Blue-1791493;Indigo Double pocket shirt;Draft;Shirts;Mast & Harbour;Adults-Men;Men;;;;Fashion;;2017;S,MTHBSHRT00008069,M,MTHBSHRT00008070,L,MTHBSHRT00008071,XL,MTHBSHRT00008072;1899.00;;;;;;;;zerotype;;Spring;;No
1791492;MNH-MAN-SS17-SHIRT-0020-2A-Indigo Blue-1791492;Indigo Double pocket shirt;Draft;Shirts;Mast & Harbour;Adults-Men;Men;;;;Fashion;;2017;S,MTHBSHRT00008065,M,MTHBSHRT00008066,L,MTHBSHRT00008067,XL,MTHBSHRT00008068;1899.00;;;;;;;;zerotype;;Spring;;No
1791491;MNH-MAN-SS17-SHIRT-006-2E-Indigo Blue-1791491;Indigo Washed Shirts;Draft;Shirts;Mast & Harbour;Adults-Men;Men;;;;Fashion;;2017;S,MTHBSHRT00008061,M,MTHBSHRT00008062,L,MTHBSHRT00008063,XL,MTHBSHRT00008064;1899.00;;;;;;;;zerotype;;Spring;;No
1791490;MNH-MAN-SS17-SHIRT-006-2D-Indigo Blue-1791490;Indigo Washed Shirts;Draft;Shirts;Mast & Harbour;Adults-Men;Men;;;;Fashion;;2017;S,MTHBSHRT00008057,M,MTHBSHRT00008058,L,MTHBSHRT00008059,XL,MTHBSHRT00008060;1999.00;;;;;;;;zerotype;;Spring;;No
1791489;MNH-MAN-SS17-SHIRT-006-2C-Indigo Blue-1791489;Indigo Washed Shirts;Draft;Shirts;Mast & Harbour;Adults-Men;Men;;;;Fashion;;2017;S,MTHBSHRT00008053,M,MTHBSHRT00008054,L,MTHBSHRT00008055,XL,MTHBSHRT00008056;1999.00;;;;;;;;zerotype;;Spring;;No
1791488;MNH-MAN-SS17-SHIRT-006-2B-Indigo bleach-1791488;Indigo Washed Shirts;Draft;Shirts;Mast & Harbour;Adults-Men;Men;;;;Fashion;;2017;S,MTHBSHRT00008049,M,MTHBSHRT00008050,L,MTHBSHRT00008051,XL,MTHBSHRT00008052;1899.00;;;;;;;;zerotype;;Spring;;No
1791487;MNH-MAN-SS17-SHIRT-006-2A-Indigo Blue-1791487;Indigo Washed Shirts;Draft;Shirts;Mast & Harbour;Adults-Men;Men;;;;Fashion;;2017;S,MTHBSHRT00008045,M,MTHBSHRT00008046,L,MTHBSHRT00008047,XL,MTHBSHRT00008048;1899.00;;;;;;;;zerotype;;Spring;;No
1769499;117YKWSLD99063-Blue/White Stripes-1769499;Shorts;Active;Shorts;YK;Kids-Girls;Girls;Grey;Off White;;Fashion;Casual;2017;7-8Y,YKYKSHOR00000793,8-9Y,YKYKSHOR00000794,10-11Y,YKYKSHOR00000795,11-12Y,YKYKSHOR00000796,13-14Y,YKYKSHOR00000797;1099.00;Grey and off-white striped casual mid-rise shorts, has five pockets, a zip fly and button closure, a waistband with belt loops;These striped YK shorts are a top pick this season for your precious angel.  She can team this grey pair with a printed tee and espadrilles for a chic summertime outfit.;98% cotton, 2% spandex<br />Machine-wash;;;YK Girls Grey Striped Shorts;YK;zerotype;;Summer;No comment entered;No
1769491;117YKWSLD60146-Navy Blue AOP-1769491;Shorts;Active;Shorts;YK;Kids-Boys;Boys;Navy Blue;;;Fashion;Casual;2017;7-8Y,YKYKSHOR00000753,8-9Y,YKYKSHOR00000754,10-11Y,YKYKSHOR00000755,11-12Y,YKYKSHOR00000756,13-14Y,YKYKSHOR00000757;1399.00;Navy blue floral print casual mid-rise shorts, has two pockets, an elasticated waistband with belt loops and a drawstring closure;These snazzy printed shorts from YK will become his go-to summertime item.  This navy blue piece can be matched with a solid T-shirt and some canvas shoes for a laid-back weekend ensemble.;Cotton<br />Machine-wash;;;YK Boys Navy Blue Printed Shorts;YK;zerotype;;Summer;No comment entered;No
1769479;117YKWSLD50142-Cream-1769479;Shorts;Active;Shorts;YK;Kids-Boys;Boys;Beige;;;Fashion;Casual;2017;2-3Y,YKYKSHOR00000693,3-4Y,YKYKSHOR00000694,4-5Y,YKYKSHOR00000695,5-6Y,YKYKSHOR00000696,6-7Y,YKYKSHOR00000697;1299.00;Beige solid woven mid-rise shorts, has four pockets, an elasticated waistband with drawstring closure;These snazzy solid shorts from YK will become his go-to summertime item.  He can style this beige piece with a printed tee and comfortable sneakers when he's going on a bike ride with his friends.;Cotton<br />Machine-wash;;;YK Boys Beige Shorts;YK;zerotype;;Summer;No comment entered;No
1769477;117YKWSLD89031-AOP-1769477;Clothing Set;Active;Clothing Set;YK;Kids-Girls;Girls;Pink;White;;Fashion;Casual;2017;2-3Y,YKYKCLST00000090,3-4Y,YKYKCLST00000091,4-5Y,YKYKCLST00000092,5-6Y,YKYKCLST00000093,6-7Y,YKYKCLST00000094;1599.00;This <a href='/clothing-set?src=pd' class='seolink'>clothing set</a> consists of a tunic and a pair of leggings<br />Pink and white woven striped tunic with floral print detail, has shoulder straps, flared hem<br />A pair of <a href='/white-leggings?src=pd' class='seolink'>white leggings</a>, has an elasticated waistband;Dress your little girl in this pretty clothing set. Team it for her with a pair of ballerinas for smart look.;Tunic: 100% cotton<br />Leggings: 96% cotton, 4% Lycra<br />Machine-wash warm;;;YK Girls Pink & White Striped Clothing Set;YK;zerotype;;Summer;No comment entered;No
1769476;117YKWSLD89028-AOP-1769476;Clothing Set;Active;Clothing Set;YK;Kids-Girls;Girls;Blue;White;;Fashion;Casual;2017;2-3Y,YKYKCLST00000085,3-4Y,YKYKCLST00000086,4-5Y,YKYKCLST00000087,5-6Y,YKYKCLST00000088,6-7Y,YKYKCLST00000089;1599.00;This <a href='/clothing-set?src=pd' class='seolink'>clothing set</a> consists of a tunic and a pair of leggings<br />Blue and white printed tunic, has shoulder straps, flared hem<br />A pair of <a href='/white-leggings?src=pd' class='seolink'>white leggings</a>, has an elasticated waistband;Dress your little girl in this pretty clothing set. Team it for her with a pair of ballerinas for smart look.;Tunic: 100% cotton<br />Leggings: 96% cotton, 4% Lycra<br />Machine-wash warm;;;YK Girls Blue & White Printed Clothing Set;YK;zerotype;;Summer;No comment entered;No
1769475;117YKWSLD89030-AOP-1769475;Clothing Set;Active;Clothing Set;YK;Kids-Girls;Girls;White;Navy Blue;;Fashion;Casual;2017;2-3Y,YKYKCLST00000080,3-4Y,YKYKCLST00000081,4-5Y,YKYKCLST00000082,5-6Y,YKYKCLST00000083,6-7Y,YKYKCLST00000084;1399.00;This <a href='/clothing-set?src=pd' class='seolink'>clothing set</a> consists of a tunic and a pair of leggings<br />White printed tunic, has <a href='/shoulder?src=pd' class='seolink'>shoulder</a> straps, a full button placket and two patch pockets with a bow detail on the front<br />A pair of navy leggings, has an elasticated waistband;Dress your little girl in this pretty clothing set. Let her team it with a pair of ballerinas for smart look.;Tunic: 100% cotton<br />Leggings: 96% cotton, 4% Lycra<br />Machine-wash warm;;;YK Girls White & Navy Printed Clothing Set;YK;zerotype;;Summer;No comment entered;No
1769474;117YKWSLD89027-AOP-1769474;Clothing Set;Active;Clothing Set;YK;Kids-Girls;Girls;Navy Blue;White;;Fashion;Casual;2017;2-3Y,YKYKCLST00000075,3-4Y,YKYKCLST00000076,4-5Y,YKYKCLST00000077,5-6Y,YKYKCLST00000078,6-7Y,YKYKCLST00000079;1399.00;This <a href='/clothing-set?src=pd' class='seolink'>clothing set</a> consists of a tunic and a pair of leggings<br />Navy polka dot print tunic, has shoulder straps, a full button placket and two patch pockets with a bow detail on the front<br />A pair of <a href='/white-leggings?src=pd' class='seolink'>white leggings</a>, has an elasticated waistband;Dress your little girl in this pretty clothing set. Team it for her with a pair of ballerinas for smart look.;Tunic: 100% rayon<br />Leggings: 96% cotton, 4% Lycra<br />Machine-wash warm;;;YK Girls Navy & White Polka Dot Print Clothing Set;YK;zerotype;;Summer;No comment entered;No
1769461;117YKDSLD60150-AOP-1769461;Trousers;Active;Trousers;YK;Kids-Girls;Girls;Beige;;;Fashion;Casual;2017;7-8Y,YKYKTRSR00000289,8-9Y,YKYKTRSR00000290,10-11Y,YKYKTRSR00000291,11-12Y,YKYKTRSR00000292,13-14Y,YKYKTRSR00000293;1399.00;A pair of <a href='/beige?src=pd' class='seolink'>beige</a> woven printed mid-rise <a href='/trousers?src=pd' class='seolink'>trousers</a>, has five pockets, a zip fly with a button closure, a waistband with belt loops and upturned hems;These trousers will keep your little girl looking trendy all year long. When she's out celebrating with her friends, help her match this pair with a white blouse.;100% cotton<br />Machine-wash cold;;;YK Girls Beige Printed Trousers;YK;zerotype;;Summer;No comment entered;No
1769460;117YKWSLD99032-Pink-1769460;Occasion Dresses;Active;Dresses;YK;Kids-Girls;Girls;Pink;;;Fashion;Casual;2017;7-8Y,YKYKDRSS00001148,8-9Y,YKYKDRSS00001149,10-11Y,YKYKDRSS00001150,11-12Y,YKYKDRSS00001151,13-14Y,YKYKDRSS00001152;1999.00;<a href='/pink?src=pd' class='seolink'>Pink</a> <a href='/solid?src=pd' class='seolink'>solid</a> lace woven fit and flare <a href='/dress?src=pd' class='seolink'>dress</a>, has a round neck, sleeveless, button closure on the back, an attached lining, flared hem;She will look and feel beautiful in this timeless dress by YK. She can layer this pink piece with a casual blazer and a trendy handbag for a chic school ensemble.;Polyester and cotton blend<br />Dry-clean;;;YK Girls Pink Solid Lace Fit & Flare Dress;YK;zerotype;;Summer;No comment entered;No
1769459;117YKWSLD99031-Black-1769459;Occasion Dresses;Active;Dresses;YK;Kids-Girls;Girls;Black;;;Fashion;Casual;2017;7-8Y,YKYKDRSS00001143,8-9Y,YKYKDRSS00001144,10-11Y,YKYKDRSS00001145,11-12Y,YKYKDRSS00001146,13-14Y,YKYKDRSS00001147;1999.00;<a href='/black?src=pd' class='seolink'>Black</a> <a href='/solid?src=pd' class='seolink'>solid</a> lace woven fit and flare <a href='/dress?src=pd' class='seolink'>dress</a>, has a round neck, sleeveless, button closure on the back, an attached lining, flared hem;Upgrade her formal wardrobe with this fashionable YK dress. When she's going shopping with her friends, have her wear this black dress with a cute pair of heels and a trendy handbag.;Polyester and cotton blend<br />Dry-clean;;;YK Girls Black Solid Lace Fit & Flare Dress;YK;zerotype;;Summer;No comment entered;No
1769453;117YKWSLD99016-Red-1769453;Casual Dress;Active;Dresses;YK;Kids-Girls;Girls;Red;;;Fashion;Party;2017;7-8Y,YKYKDRSS00001113,8-9Y,YKYKDRSS00001114,10-11Y,YKYKDRSS00001115,11-12Y,YKYKDRSS00001116,13-14Y,YKYKDRSS00001117;1999.00;Red <a href='/solid?src=pd' class='seolink'>solid</a> woven pleated <a href='/maxi-dress?src=pd' class='seolink'>maxi dress</a> with crochet detail, has a round neck, sleeveless, a keyhole detail secured with a button closure at the back, an attached lining and flared hem;This fashionable dress from YK will have your little girl looking and feeling like a princess.  When she's going shopping with her friends, have her wear this red dress with a cute pair of heels and a trendy handbag.;Outer and lining: Polyester and cotton blend<br />Dry-clean;;;YK Girls Red Pleated Maxi Dress;YK;zerotype;;Summer;No comment entered;No
1769452;117YKWSLD99015-Peach-1769452;Occasion Dresses;Active;Dresses;YK;Kids-Girls;Girls;Peach;;;Fashion;Party;2017;7-8Y,YKYKDRSS00001108,8-9Y,YKYKDRSS00001109,10-11Y,YKYKDRSS00001110,11-12Y,YKYKDRSS00001111,13-14Y,YKYKDRSS00001112;2399.00;Peach-coloured woven pleated <a href='/maxi-dress?src=pd' class='seolink'>maxi dress</a> with <a href='/crochet?src=pd' class='seolink'>crochet</a> detail, has a round neck, sleeveless, a keyhole detail secured with a button closure at the back, an attached lining and flared hem;Upgrade her wardrobe with this fashionable YK dress.  For an upscale weekend ensemble, style this peach-coloured piece with a casual blazer and some chic heels.;Outer and lining: Polyester and cotton blend  <br />Dry-clean only;;;YK Girls Peach-Coloured Pleated Maxi Dress;YK;zerotype;;Summer;No comment entered;No
1769434;117YKWSLD89009-Black-1769434;Occasion Dresses;Active;Dresses;YK;Kids-Girls;Girls;Black;Blue;;Fashion;Party;2017;2-3Y,YKYKDRSS00001043,3-4Y,YKYKDRSS00001044,4-5Y,YKYKDRSS00001045,5-6Y,YKYKDRSS00001046,6-7Y,YKYKDRSS00001047;2199.00;<a href='/black?src=pd' class='seolink'>Black</a> and <a href='/blue?src=pd' class='seolink'>blue</a> patterned and sequinned woven fit and flare <a href='/dress?src=pd' class='seolink'>dress</a>, has a round neck, sleeveless, a concealed zip closure on the back, an attached lining, a <a href='/tie?src=pd' class='seolink'>tie</a>-up detail at the waist and flared hem;Upgrade her wardrobe with this fashionable YK dress. She can layer this black piece with a casual blazer and a trendy handbag for a chic school ensemble.;Polyester and cotton blend<br />Dry-clean only;;;YK Girls Black Sequinned Fit and Flare Dress;YK;zerotype;;Summer;No comment entered;No
1748853;1065-PURPLE-905205-Purple-1748853;1065PURPLE;Active;Lingerie Set;Prestitia;Adults-Women;Women;Purple;;;Core;Casual;2017;32B,PSTALNGR00000304,34B,PSTALNGR00000305,36B,PSTALNGR00000306,38B,PSTALNGR00000307,40B,PSTALNGR00000308;750.00;Purple lace <a href='/lingerie-set?src=pd' class='seolink'>lingerie set</a><br />Purple lace <a href='/bra?src=pd' class='seolink'>bra</a> with bow detail, has non-wired cups, adjustable <a href='/shoulder?src=pd' class='seolink'>shoulder</a> straps, three rows of double hook-and-eye closures on the back<br />Purple mid-rise <a href='/lace-briefs?src=pd' class='seolink'>lace briefs</a>, has an elasticated waistband and a double layered gusset;Stay comfortable and feel confident by wearing this lingerie set from Prestitia. Perfect as an everyday wear, you can wear this and be at ease throughout the day.;Cotton and elastane blend<br />Machine-wash warm;;;Prestitia Purple Lace Lingerie Set 1065;Prestitia,VIKI038;zerotype;;Summer;P;No
1748850;1064-YELLOW-905202-Yellow-1748850;1064YELLOW;Active;Lingerie Set;Prestitia;Adults-Women;Women;Mustard;;;Core;Casual;2017;32B,PSTALNGR00000289,34B,PSTALNGR00000290,36B,PSTALNGR00000291,38B,PSTALNGR00000292,40B,PSTALNGR00000293;750.00;Mustard yellow lace <a href='/lingerie-set?src=pd' class='seolink'>lingerie set</a><br />Mustard yellow lace <a href='/bra?src=pd' class='seolink'>bra</a> with bow detail, has non-wired cups, adjustable <a href='/shoulder?src=pd' class='seolink'>shoulder</a> straps, three rows of hook-and-eye closures on the back<br />Mustard yellow mid-rise <a href='/lace-briefs?src=pd' class='seolink'>lace briefs</a> with an elasticated waistband and a double-layered gusset;Stay comfortable and feel confident by wearing this lingerie set from Prestitia. Perfect as an everyday wear, you can wear this under both western and ethnic wear.;Cotton and elastane blend<br />Machine-wash warm;;;Prestitia Mustard Yellow Lace Lingerie Set 1064;Prestitia,VIKI038;zerotype;;Summer;P;No
1748848;1064-AQUA BLUE-905200-Blue-1748848;1064AQUA BLUE;Active;Lingerie Set;Prestitia;Adults-Women;Women;Blue;;;Core;Casual;2017;32B,PSTALNGR00000279,34B,PSTALNGR00000280,36B,PSTALNGR00000281,38B,PSTALNGR00000282,40B,PSTALNGR00000283;750.00;<a href='/blue?src=pd' class='seolink'>Blue</a> lace <a href='/lingerie-set?src=pd' class='seolink'>lingerie set</a><br />Blue lace <a href='/bra?src=pd' class='seolink'>bra</a> with bow detail, has non-wired cups, adjustable <a href='/shoulder?src=pd' class='seolink'>shoulder</a> straps, three rows of hook-and-eye closures on the back<br />Blue mid-rise <a href='/lace-briefs?src=pd' class='seolink'>lace briefs</a>, has an elasticated waistband and a double layered gusset;Stay comfortable and feel confident by wearing this lingerie set from Prestitia. Perfect as an everyday wear, you can wear this under both western and ethnic attire.;Cotton and elastane blend<br />Machine-wash warm;;;Prestitia Blue Lace Lingerie Set 1064;Prestitia,VIKI038;zerotype;;Summer;P;No
1748844;1063-MAROON-905197-Maroon-1748844;1063MAROON;Active;Lingerie Set;Prestitia;Adults-Women;Women;Maroon;;;Core;Casual;2017;32B,PSTALNGR00000259,34B,PSTALNGR00000260,36B,PSTALNGR00000261,38B,PSTALNGR00000262,40B,PSTALNGR00000263;750.00;<a href='/maroon?src=pd' class='seolink'>Maroon</a> lace <a href='/lingerie-set?src=pd' class='seolink'>lingerie set</a><br />Maroon lace <a href='/bra?src=pd' class='seolink'>bra</a> with bow detail, has non-wired cups, adjustable <a href='/shoulder?src=pd' class='seolink'>shoulder</a> straps, three rows of double hook-and-eye closures on the back<br />Maroon mid-rise <a href='/lace-briefs?src=pd' class='seolink'>lace briefs</a> with an elasticated waistband and a double-layered gusset;Stay comfortable and feel confident by wearing this lingerie set from Prestitia. Perfect as an everyday wear, you can wear this under both western and ethnic wear.;Cotton and elastane blend<br />Machine-wash warm;;;Prestitia Maroon Lace Lingerie Set 1063;Prestitia,VIKI038;zerotype;;Summer;P;No
1748843;1062-RED-905196-Red-1748843;1062RED;Active;Lingerie Set;Prestitia;Adults-Women;Women;Red;;;Core;Casual;2017;32B,PSTALNGR00000254,34B,PSTALNGR00000255,36B,PSTALNGR00000256,38B,PSTALNGR00000257,40B,PSTALNGR00000258;800.00;<a href='/red?src=pd' class='seolink'>Red</a> lace <a href='/lingerie-set?src=pd' class='seolink'>lingerie set</a><br />Red lace <a href='/bra?src=pd' class='seolink'>bra</a> with bow detail, has non-wired cups, adjustable shoulder straps, three rows of double hook-and-eye closures on the back<br />Red mid-rise <a href='/lace-briefs?src=pd' class='seolink'>lace briefs</a>, has an elasticated waistband and a double layered gusset;Stay comfortable and feel confident by wearing this lingerie set from Prestitia. Perfect as an everyday wear, you can wear this under both western and ethnic attire.;Cotton and elastane blend<br />Machine-wash warm;;;Prestitia Red Lace Lingerie Set 1062;Prestitia,VIKI038;zerotype;;Summer;P;No
1748842;1062-PURPLE-905195-Purple-1748842;1062PURPLE;Active;Lingerie Set;Prestitia;Adults-Women;Women;Purple;;;Core;Casual;2017;32B,PSTALNGR00000249,34B,PSTALNGR00000250,36B,PSTALNGR00000251,38B,PSTALNGR00000252,40B,PSTALNGR00000253;800.00;Purple lace <a href='/lingerie-set?src=pd' class='seolink'>lingerie set</a><br />Purple lace <a href='/bra?src=pd' class='seolink'>bra</a> with bow detail, has non-wired cups, adjustable <a href='/shoulder?src=pd' class='seolink'>shoulder</a> straps, two rows of double hook-and-eye closures on the back<br />Purple mid-rise <a href='/lace-briefs?src=pd' class='seolink'>lace briefs</a> with an elasticated waistband and a double-layered gusset;Stay comfortable and feel confident by wearing this lingerie set from Prestitia. Perfect as an everyday wear, you can wear this under both western and ethnic wear.;Cotton and elastane blend<br />Machine-wash warm;;;Prestitia Purple Lace Lingerie Set 1062;Prestitia,VIKI038;zerotype;;Summer;P;No
1748841;1062-MAGENTA-905194-Magenta-1748841;1062MAGENTA;Active;Lingerie Set;Prestitia;Adults-Women;Women;Pink;;;Core;Casual;2017;32B,PSTALNGR00000244,34B,PSTALNGR00000245,36B,PSTALNGR00000246,38B,PSTALNGR00000247,40B,PSTALNGR00000248;800.00;Pink lace <a href='/lingerie-set?src=pd' class='seolink'>lingerie set</a><br />Pink lace <a href='/bra?src=pd' class='seolink'>bra</a> with bow detail, has non-wired cups, adjustable <a href='/shoulder?src=pd' class='seolink'>shoulder</a> straps, three rows of double hook-and-eye closures on the back<br />Pink mid-rise <a href='/lace-briefs?src=pd' class='seolink'>lace briefs</a>, has an elasticated waistband and a double layered gusset;Stay comfortable and feel confident by wearing this lingerie set from Prestitia. Perfect as an everyday wear, you can wear this and be at ease throughout the day.;Cotton and elastane blend<br />Machine-wash warm;;;Prestitia Pink Lace Lingerie Set 1062;Prestitia,VIKI038;zerotype;;Summer;P;No
1748834;1060-RED-905189-Red-1748834;1060RED;Active;Lingerie Set;Prestitia;Adults-Women;Women;Red;;;Core;Casual;2017;32B,PSTALNGR00000224,34B,PSTALNGR00000225,36B,PSTALNGR00000226,38B,PSTALNGR00000227,40B,PSTALNGR00000228;800.00;<a href='/red?src=pd' class='seolink'>Red</a> lace <a href='/lingerie-set?src=pd' class='seolink'>lingerie set</a><br />Red lace <a href='/bra?src=pd' class='seolink'>bra</a> with bow detail, has non-wired cups, adjustable shoulder straps, three rows of double hook-and-eye closures on the back<br />Red mid-rise <a href='/lace-briefs?src=pd' class='seolink'>lace briefs</a>, has an elasticated waistband and a double layered gusset;Stay comfortable and feel confident by wearing this lingerie set from Prestitia. Perfect as an everyday wear, you can wear this under both western and ethnic attire.;Cotton and elastane blend<br />Machine-wash warm;;;Prestitia Red Lace Lingerie Set 1060;Prestitia,VIKI038;zerotype;;Summer;P;No
1748833;1060-PINK-905188-Pink-1748833;1060PINK;Active;Lingerie Set;Prestitia;Adults-Women;Women;Pink;;;Core;Casual;2017;32B,PSTALNGR00000219,34B,PSTALNGR00000220,36B,PSTALNGR00000221,38B,PSTALNGR00000222,40B,PSTALNGR00000223;800.00;Pink lace <a href='/lingerie-set?src=pd' class='seolink'>lingerie set</a><br />Pink lace <a href='/bra?src=pd' class='seolink'>bra</a> with bow detail, has non-wired cups, adjustable <a href='/shoulder?src=pd' class='seolink'>shoulder</a> straps, three rows of double hook-and-eye closures on the back<br />Pink mid-rise <a href='/lace-briefs?src=pd' class='seolink'>lace briefs</a>, has an elasticated waistband and a double layered gusset;Stay comfortable and feel confident by wearing this lingerie set from Prestitia. Perfect as an everyday wear, you can wear this and be at ease throughout the day.;Cotton and elastane blend<br />Machine-wash warm;;;Prestitia Pink Lace Lingerie Set 1060;Prestitia,VIKI038;zerotype;;Summer;P;No
1748823;1037-PINK-676774-Pink-1748823;1037%PINK;Active;Lingerie Set;Prestitia;Adults-Women;Women;Pink;;;Core;Casual;2017;32B,PSTALNGR00000194,34B,PSTALNGR00000195,36B,PSTALNGR00000196,38B,PSTALNGR00000197,40B,PSTALNGR00000198;750.00;Pink lace <a href='/lingerie-set?src=pd' class='seolink'>lingerie set</a><br />Pink lace <a href='/bra?src=pd' class='seolink'>bra</a> with bow detail, has non-wired cups, adjustable <a href='/shoulder?src=pd' class='seolink'>shoulder</a> straps, three rows of double hook-and-eye closures on the back<br />Pink mid-rise <a href='/lace-briefs?src=pd' class='seolink'>lace briefs</a> with cut-out detail, has an elasticated waistband and a double layered gusset;Stay comfortable and feel confident by wearing this lingerie set from Prestitia. Perfect as an everyday wear, you can wear this and be at ease throughout the day.;Cotton and elastane blend<br />Machine-wash warm;;;Prestitia Pink Lace Lingerie Set 1037;Prestitia,VIKI038;zerotype;;Summer;P;No
1748815;1036-RED-676770-Red-1748815;1036%RED;Active;Lingerie Set;Prestitia;Adults-Women;Women;Red;;;Core;Casual;2017;32B,PSTALNGR00000174,34B,PSTALNGR00000175,36B,PSTALNGR00000176,38B,PSTALNGR00000177,40B,PSTALNGR00000178;750.00;<a href='/red?src=pd' class='seolink'>Red</a> lace <a href='/lingerie-set?src=pd' class='seolink'>lingerie set</a><br />Red lace <a href='/bra?src=pd' class='seolink'>bra</a> with bow detail, has non-wired cups, adjustable shoulder straps, three rows of double hook-and-eye closures on the back<br />Red mid-rise <a href='/lace-briefs?src=pd' class='seolink'>lace briefs</a> with an elasticated waistband and a double-layered gusset;Stay comfortable and feel confident by wearing this lingerie set from Prestitia. Perfect as an everyday wear, you can wear this under both western and ethnic wear.;Cotton and elastane blend<br />Machine-wash warm;;;Prestitia Red Lace Lingerie Set 1036;Prestitia,VIKI038;zerotype;;Summer;P;No
1748810;13030-RED-872483-Red-1748810;13030Leggings;Active;Capris;Prestitia;Adults-Women;Women;Red;;;Core;Casual;2017;S,PSTALEGG00000312,M,PSTALEGG00000313,L,PSTALEGG00000314,XL,PSTALEGG00000315;500.00;A pair of <a href='/red?src=pd' class='seolink'>red</a> knitted mid-rise panelled <a href='/capris?src=pd' class='seolink'>capris</a>, has an elasticated waistband with an inner drawstring fastening;Make a style statement in this trendy pair of capris. Team it with a top or a tunic and a pair of flats for a chic look.;Cotton and elastane blend<br />Machine-wash warm;Mid-rise<br />The model (height 5'8" and waist 28") is wearing a size S;;Prestitia Red Capris;Prestitia,IKRM5656;zerotype;;Summer;P;No
1748808;13029-WHITE-872482-White-1748808;13029Leggings;Active;Capris;Prestitia;Adults-Women;Women;White;;;Core;Casual;2017;S,PSTALEGG00000308,M,PSTALEGG00000309,L,PSTALEGG00000310,XL,PSTALEGG00000311;500.00;A pair of white knitted mid-rise <a href='/capris?src=pd' class='seolink'>capris</a>, has an elasticated waistband with an inner drawstring fastening;Make a style statement in this trendy pair of capris. Team it with a top and a pair of flats for a chic look.;Cotton and elastane blend<br />Machine-wash warm;Mid-rise<br />The model (height 5'8" and waist 28") is wearing a size 28;;Prestitia White Capris;Prestitia,IKRM5656;zerotype;;Summer;P;No
1748806;13028-MAGENTA-872481-Magenta-1748806;13028Leggings;Active;Capris;Prestitia;Adults-Women;Women;Magenta;;;Core;Casual;2017;S,PSTALEGG00000304,M,PSTALEGG00000305,L,PSTALEGG00000306,XL,PSTALEGG00000307;500.00;A pair of <a href='/magenta?src=pd' class='seolink'>magenta</a> knitted mid-rise panelled <a href='/capris?src=pd' class='seolink'>capris</a>, has an elasticated waistband with an inner drawstring fastening;Make a style statement in this trendy pair of capris. Team it with a top and a pair of flats for a chic look.;Cotton and elastane blend<br />Machine-wash warm;Mid-rise<br />The model (height 5'6" and waist 25.5") is wearing a size S;;Prestitia Magenta Capris;Prestitia,ISAB033;zerotype;;Summer;P;No
1748805;13027-NAVY BLUE-872480-Navy Blue-1748805;13027Leggings;Active;Capris;Prestitia;Adults-Women;Women;Blue;;;Core;Casual;2017;S,PSTALEGG00000300,M,PSTALEGG00000301,L,PSTALEGG00000302,XL,PSTALEGG00000303;500.00;A pair of <a href='/blue?src=pd' class='seolink'>blue</a> knitted mid-rise panelled <a href='/capris?src=pd' class='seolink'>capris</a>, has an elasticated waistband with an inner drawstring fastening;Make a style statement in this trendy pair of capris. Team it with a top or a tunic and a pair of flats for a chic look.;Cotton and elastane blend<br />Machine-wash warm;Mid-rise<br />The model (height 5'8" and waist 28") is wearing a size S;;Prestitia Blue Capris;Prestitia,IKRM5656;zerotype;;Summer;P;No
1748803;13026-PURPLE-872479-Purple-1748803;13026Leggings;Active;Capris;Prestitia;Adults-Women;Women;Purple;;;Core;Casual;2017;S,PSTALEGG00000296,M,PSTALEGG00000297,L,PSTALEGG00000298,XL,PSTALEGG00000299;500.00;A pair of <a href='/purple?src=pd' class='seolink'>purple</a> knitted mid-rise panelled <a href='/capris?src=pd' class='seolink'>capris</a>, has an elasticated waistband with an inner drawstring fastening;Make a style statement in this trendy pair of capris. Team it with a top and a pair of flats for a chic look.;Cotton and elastane blend<br />Machine-wash warm;Mid-rise<br />The model (height 5'6" and waist 25.5") is wearing a size S;;Prestitia Purple Capris;Prestitia,ISAB033;zerotype;;Summer;P;No
1748801;13025-BLACK-872478-Black-1748801;13025Leggings;Active;Capris;Prestitia;Adults-Women;Women;Black;;;Core;Casual;2017;S,PSTALEGG00000292,M,PSTALEGG00000293,L,PSTALEGG00000294,XL,PSTALEGG00000295;500.00;A pair of black mid-rise knitted capris, has an elasticated waistband with an inner drawstring fastening;Pick this comfortable and stylish pair of capris from Prestitia. Team it with a tunic and sandals for a classy look.;Cotton and elastane blend<br />Machine-wash warm;Mid-rise<br />The model (height 5'8" and waist 28") is wearing a size S;;Prestitia Black Capris;Prestitia,IKRM5656;zerotype;;Summer;P;No
1748800;13024-TURQUOISE-872477-Green-1748800;13024Leggings;Active;Capris;Prestitia;Adults-Women;Women;Sea Green;;;Core;Casual;2017;S,PSTALEGG00000288,M,PSTALEGG00000289,L,PSTALEGG00000290,XL,PSTALEGG00000291;500.00;A pair of <a href='/sea-green?src=pd' class='seolink'>sea green</a> knitted mid-rise panelled <a href='/capris?src=pd' class='seolink'>capris</a>, has an elasticated waistband with an inner drawstring fastening;Make a style statement in this trendy pair of capris. Team it with a top and a pair of flats for a chic look.;Cotton and elastane blend<br />Machine-wash warm;Mid-rise<br />The model (height 5'8" and waist 28") is wearing a size 28;;Prestitia Sea Green Capris;Prestitia,IKRM5656;zerotype;;Summer;P;No
1748798;13023-GREEN-872476-Green-1748798;13023Leggings;Active;Capris;Prestitia;Adults-Women;Women;Green;;;Core;Casual;2017;S,PSTALEGG00000284,M,PSTALEGG00000285,L,PSTALEGG00000286,XL,PSTALEGG00000287;500.00;A pair of knitted mid-rise capris, has an elasticated waistband with an inner drawstring fastening;Pick this comfortable and stylish pair of capris from Prestitia. Team it with a tunic and sandals for a classy look.;Cotton and elastane blend<br />Machine-wash warm;Mid-rise<br />The model (height 5'8" and waist 28") is wearing a size S;;Prestitia Green Capris;Prestitia;zerotype;;Summer;P;No
1748796;13022-MAROON-872475-Maroon-1748796;13022Leggings;Active;Capris;Prestitia;Adults-Women;Women;Maroon;;;Core;Casual;2017;S,PSTALEGG00000280,M,PSTALEGG00000281,L,PSTALEGG00000282,XL,PSTALEGG00000283;500.00;A pair of <a href='/maroon?src=pd' class='seolink'>maroon</a> knitted mid-rise panelled <a href='/capris?src=pd' class='seolink'>capris</a>, has an elasticated waistband with an inner drawstring fastening;Make a style statement in this trendy pair of capris. Team it with a top or a tunic and a pair of flats for a chic look.;Cotton and elastane blend<br />Machine-wash warm;Mid-rise<br />The model (height 5'8" and waist 28") is wearing a size S;;Prestitia Maroon Capris;Prestitia,IKRM5656;zerotype;;Summer;P;No
1748795;13021-PINK-872474-Magenta-1748795;13021Leggings;Active;Capris;Prestitia;Adults-Women;Women;Magenta;;;Core;Casual;2017;S,PSTALEGG00000276,M,PSTALEGG00000277,L,PSTALEGG00000278,XL,PSTALEGG00000279;500.00;A pair of <a href='/magenta?src=pd' class='seolink'>magenta</a> knitted mid-rise panelled <a href='/capris?src=pd' class='seolink'>capris</a>, has an elasticated waistband with an inner drawstring fastening;Make a style statement in this trendy pair of capris. Team it with a top or a tunic and a pair of flats for a chic look.;Cotton and elastane blend<br />Machine-wash warm;Mid-rise<br />The model (height 5'8" and waist 28") is wearing a size S;;Prestitia Magenta Capris;Prestitia,IKRM5656;zerotype;;Summer;P;No
1748791;13019-WHITE-872472-White-1748791;13019Leggings;Active;Leggings;Prestitia;Adults-Women;Women;White;;;Core;Ethnic;2017;S,PSTALEGG00000266,M,PSTALEGG00000267,L,PSTALEGG00000268,XL,PSTALEGG00000269,XXL,PSTALEGG00000270;525.00;A pair of white ankle-length leggings, has an elasticated waistband with an inner drawstring fastening;Pick this comfortable and stylish pair of leggings from Prestitia. Team it with a kurta and sandals for a classy look.;Cotton and elastane blend<br />Machine-wash warm;The model (height 5'8" and waist 28") is wearing a size S;;Prestitia White Ankle-Length Leggings;Prestitia,IKRM5656;zerotype;;Summer;P;No
1748790;13018-MAGENTA-872471-Magenta-1748790;13018Leggings;Active;Leggings;Prestitia;Adults-Women;Women;Magenta;;;Core;Ethnic;2017;S,PSTALEGG00000261,M,PSTALEGG00000262,L,PSTALEGG00000263,XL,PSTALEGG00000264,XXL,PSTALEGG00000265;525.00;A pair of magenta ankle-length leggings, has an elasticated waistband with an inner drawstring fastening;Make a style statement in this trendy pair of leggings. Team it with a kurta and a pair of flats for a chic look.;Cotton and elastane blend<br />Machine-wash warm;The model (height 5'8" and waist 28") is wearing a size 28;;Prestitia Magenta Ankle-Length Leggings;Prestitia,IKRM5656;zerotype;;Summer;P;No
1748789;13017-NAVY BLUE-872470-Navy Blue-1748789;13017Leggings;Active;Leggings;Prestitia;Adults-Women;Women;Blue;;;Core;Ethnic;2017;S,PSTALEGG00000256,M,PSTALEGG00000257,L,PSTALEGG00000258,XL,PSTALEGG00000259,XXL,PSTALEGG00000260;525.00;A pair of blue ankle-length leggings, has an elasticated waistband with an inner drawstring fastening;Make a style statement in this trendy pair of leggings. Team it with a kurta and a pair of flats for a chic look.;Cotton and elastane blend<br />Machine-wash warm;The model (height 5'8" and waist 28") is wearing a size 28;;Prestitia Blue Ankle-Length Leggings;Prestitia,IKRM5656;zerotype;;Summer;P;No
1748788;13016-PURPLE-872469-Purple-1748788;13016Leggings;Active;Leggings;Prestitia;Adults-Women;Women;Purple;;;Core;Casual;2017;S,PSTALEGG00000251,M,PSTALEGG00000252,L,PSTALEGG00000253,XL,PSTALEGG00000254,XXL,PSTALEGG00000255;525.00;A pair of <a href='/purple?src=pd' class='seolink'>purple</a> panelled ankle-length <a href='/leggings?src=pd' class='seolink'>leggings</a>, has an elasticated waistband with an inner drawstring fastening;Make a style statement in this trendy pair of leggings. Team it with a tunic and a pair of flats for a chic look.;Cotton and elastane blend<br />Machine-wash warm;The model (height 5'8" and waist 28") is wearing a size S;;Prestitia Purple Ankle-Length Leggings;Prestitia,IKRM5656;zerotype;;Summer;P;No
1748787;13015-BLACK-872468-Black-1748787;13015Leggings;Active;Leggings;Prestitia;Adults-Women;Women;Black;;;Core;Ethnic;2017;S,PSTALEGG00000246,M,PSTALEGG00000247,L,PSTALEGG00000248,XL,PSTALEGG00000249,XXL,PSTALEGG00000250;525.00;A pair of black ankle-length leggings, has an elasticated waistband with an inner drawstring fastening;Pick this comfortable and stylish pair of leggings from Prestitia. Team it with a kurta and sandals for a classy look.;Cotton and elastane blend<br />Machine-wash warm;The model (height 5'8" and waist 28") is wearing a size S;;Prestitia Red Ankle-Length Leggings;Prestitia,IKRM5656;zerotype;;Summer;P;No
1748786;13014-TURQUOISE-872467-Green-1748786;13014Leggings;Active;Leggings;Prestitia;Adults-Women;Women;Sea Green;;;Core;Ethnic;2017;S,PSTALEGG00000241,M,PSTALEGG00000242,L,PSTALEGG00000243,XL,PSTALEGG00000244,XXL,PSTALEGG00000245;525.00;A pair of sea green ankle-length leggings, has an elasticated waistband with an inner drawstring fastening;Pick this comfortable and stylish pair of leggings from Prestitia. Team it with a kurta and sandals for a classy look.;Cotton and elastane blend<br />Machine-wash warm;The model (height 5'8" and waist 28") is wearing a size S;;Prestitia Sea Green Ankle-Length Leggings;Prestitia,IKRM5656;zerotype;;Summer;P;No
1748785;13013-GREEN-872466-Green-1748785;13013Leggings;Active;Leggings;Prestitia;Adults-Women;Women;Green;;;Core;Ethnic;2017;S,PSTALEGG00000236,M,PSTALEGG00000237,L,PSTALEGG00000238,XL,PSTALEGG00000239,XXL,PSTALEGG00000240;525.00;A pair of <a href='/green?src=pd' class='seolink'>green</a> panelled ankle-length <a href='/leggings?src=pd' class='seolink'>leggings</a>, has an elasticated waistband with an inner drawstring fastening;Make a style statement in this trendy pair of leggings. Team it with a kurta and a pair of flats for a chic look.;Cotton and elastane blend<br />Machine-wash warm;The model (height 5'6" and waist 25.5") is wearing a size S;;Prestitia Green Ankle-Length Leggings;Prestitia,ISAB033;zerotype;;Summer;P;No
1748784;13012-MAROON-872465-Maroon-1748784;13012Leggings;Active;Leggings;Prestitia;Adults-Women;Women;Maroon;;;Core;Ethnic;2017;S,PSTALEGG00000231,M,PSTALEGG00000232,L,PSTALEGG00000233,XL,PSTALEGG00000234,XXL,PSTALEGG00000235;525.00;A pair of maroon ankle-length leggings, has an elasticated waistband with an inner drawstring fastening;Pick this comfortable and stylish pair of leggings from Prestitia. Team it with a kurta and sandals for a classy look.;Cotton and elastane blend<br />Machine-wash warm;The model (height 5'8" and waist 28") is wearing a size S;;Prestitia Maroon Ankle-Length Leggings;Prestitia,IKRM5656;zerotype;;Summer;P;No
1748783;13011-PINK-872464-Magenta-1748783;13011Leggings;Active;Leggings;Prestitia;Adults-Women;Women;Pink;;;Core;Casual;2017;S,PSTALEGG00000226,M,PSTALEGG00000227,L,PSTALEGG00000228,XL,PSTALEGG00000229,XXL,PSTALEGG00000230;525.00;A pair of <a href='/pink?src=pd' class='seolink'>pink</a> panelled <a href='/leggings?src=pd' class='seolink'>leggings</a>, has an elasticated waistband with an inner drawstring fastening;Make a style statement in this trendy pair of leggings. Team it with a kurta and a pair of flats for a chic look.;Cotton and elastane blend<br />Machine-wash warm;The model (height 5'8") is wearing a size S;;Prestitia Pink Leggings;Prestitia,IKRM5656;zerotype;;Summer;P;No
1748782;13010-RED-872463-Red-1748782;13010Leggings;Active;Leggings;Prestitia;Adults-Women;Women;Red;;;Core;Ethnic;2017;S,PSTALEGG00000221,M,PSTALEGG00000222,L,PSTALEGG00000223,XL,PSTALEGG00000224,XXL,PSTALEGG00000225;545.00;A pair of red churidar leggings, has an elasticated waistband with an inner drawstring fastening;Pick this comfortable and stylish pair of churidar leggings from Prestitia. Team it with a kurta and sandals for a classy look.;Cotton and elastane blend<br />Machine-wash warm;The model (height 5'8" and waist 28") is wearing a size S;;Prestitia Red Churidar Leggings;Prestitia;zerotype;;Summer;P;No
1748781;13009-WHITE-872462-White-1748781;13009Leggings;Active;Leggings;Prestitia;Adults-Women;Women;White;;;Core;Ethnic;2017;S,PSTALEGG00000216,M,PSTALEGG00000217,L,PSTALEGG00000218,XL,PSTALEGG00000219,XXL,PSTALEGG00000220;545.00;A pair of white panelled <a href='/churidar?src=pd' class='seolink'>churidar</a> <a href='/leggings?src=pd' class='seolink'>leggings</a>, has an elasticated waistband with an inner drawstring fastening;Make a style statement in this trendy pair of leggings. Team it with a kurta and a pair of flats for a chic look.;Cotton and elastane blend<br />Machine-wash warm;The model (height 5'8" and waist 28") is wearing a size S;;Prestitia White Churidar Leggings;Prestitia,IKRM5656;zerotype;;Summer;P;No
1748780;13008-MAGENTA-872461-Magenta-1748780;13008Leggings;Active;Leggings;Prestitia;Adults-Women;Women;Magenta;;;Core;Ethnic;2017;S,PSTALEGG00000211,M,PSTALEGG00000212,L,PSTALEGG00000213,XL,PSTALEGG00000214,XXL,PSTALEGG00000215;545.00;A pair of magenta churidar leggings, has an elasticated waistband with an inner drawstring fastening;Pick this comfortable and stylish pair of churidar leggings from Prestitia. Team it with a kurta and sandals for a classy look.;Cotton and elastane blend<br />Machine-wash warm;The model (height 5'8" and waist 28") is wearing a size S;;Prestitia Magenta Churidar Leggings;Prestitia,IKRM5656;zerotype;;Summer;P;No
1748779;13007-NAVY BLUE-872460-Navy Blue-1748779;13007Leggings;Active;Leggings;Prestitia;Adults-Women;Women;Blue;;;Core;Ethnic;2017;S,PSTALEGG00000206,M,PSTALEGG00000207,L,PSTALEGG00000208,XL,PSTALEGG00000209,XXL,PSTALEGG00000210;545.00;A pair of blue churidar leggings, has an elasticated waistband with an inner drawstring fastening;Make a style statement in this trendy pair of leggings. Team it with a kurta and a pair of flats for a chic look.;Cotton and elastane blend<br />Machine-wash warm;The model (height 5'8" and waist 28") is wearing a size 28;;Prestitia Blue Churidar Leggings;Prestitia,IKRM5656;zerotype;;Summer;P;No
1748778;13006-PURPLE-872459-Purple-1748778;13006Leggings;Active;Leggings;Prestitia;Adults-Women;Women;Purple;;;Core;Ethnic;2017;S,PSTALEGG00000201,M,PSTALEGG00000202,L,PSTALEGG00000203,XL,PSTALEGG00000204,XXL,PSTALEGG00000205;545.00;A pair of purple churidar leggings, has an elasticated waistband with an inner drawstring fastening;Pick this comfortable and stylish pair of churidar leggings from Prestitia. Team it with a kurta and sandals for a classy look.;Cotton and elastane blend<br />Machine-wash warm;The model (height 5'8" and waist 28") is wearing a size S;;Prestitia Purple Churidar Leggings;Prestitia,IKRM5656;zerotype;;Summer;P;No
1748777;13005-BLACK-872458-Black-1748777;13005Leggings;Active;Leggings;Prestitia;Adults-Women;Women;Black;;;Core;Ethnic;2017;S,PSTALEGG00000196,M,PSTALEGG00000197,L,PSTALEGG00000198,XL,PSTALEGG00000199,XXL,PSTALEGG00000200;545.00;A pair of black churidar leggings, has an elasticated waistband with an inner drawstring fastening;Pick this comfortable and stylish pair of churidar leggings from Prestitia. Team it with a kurta and sandals for a classy look.;Cotton and elastane blend<br />Machine-wash warm;The model (height 5'8" and waist 28") is wearing a size S;;Prestitia Black Churidar Leggings;Prestitia,IKRM5656;zerotype;;Summer;P;No
1748776;13004-TURQUOISE-872457-Green-1748776;13004Leggings;Active;Leggings;Prestitia;Adults-Women;Women;Green;;;Core;Ethnic;2017;S,PSTALEGG00000191,M,PSTALEGG00000192,L,PSTALEGG00000193,XL,PSTALEGG00000194,XXL,PSTALEGG00000195;545.00;A pair of <a href='/green?src=pd' class='seolink'>green</a> panelled <a href='/churidar?src=pd' class='seolink'>churidar</a> <a href='/leggings?src=pd' class='seolink'>leggings</a>, has an elasticated waistband with an inner drawstring fastening;Make a style statement in this trendy pair of leggings. Team it with a kurta and a pair of flats for a chic look.;Cotton and elastane blend<br />Machine-wash warm;The model (height 5'6" and waist 25.5") is wearing a size S;;Prestitia Green Churidar Leggings;Prestitia,ISAB033;zerotype;;Summer;P;No
1748775;13003-GREEN-872456-Green-1748775;13003Leggings;Active;Leggings;Prestitia;Adults-Women;Women;Green;;;Core;Ethnic;2017;S,PSTALEGG00000186,M,PSTALEGG00000187,L,PSTALEGG00000188,XL,PSTALEGG00000189,XXL,PSTALEGG00000190;545.00;A pair of <a href='/green?src=pd' class='seolink'>green</a> panelled <a href='/churidar?src=pd' class='seolink'>churidar</a> <a href='/leggings?src=pd' class='seolink'>leggings</a>, has an elasticated waistband with an inner drawstring fastening;Make a style statement in this trendy pair of leggings. Team it with a kurta and a pair of flats for a chic look.;Cotton and elastane blend<br />Machine-wash warm;The model (height 5'6" and waist 25.5") is wearing a size S;;Prestitia Green Churidar Leggings;Prestitia,ISAB033;zerotype;;Summer;P;No
1748769;13002-MAROON-872455-Maroon-1748769;13002Leggings;Active;Leggings;Prestitia;Adults-Women;Women;Maroon;;;Core;Ethnic;2017;S,PSTALEGG00000181,M,PSTALEGG00000182,L,PSTALEGG00000183,XL,PSTALEGG00000184,XXL,PSTALEGG00000185;545.00;A pair of <a href='/maroon?src=pd' class='seolink'>maroon</a> panelled <a href='/churidar?src=pd' class='seolink'>churidar</a> <a href='/leggings?src=pd' class='seolink'>leggings</a>, has an elasticated waistband with an inner drawstring fastening;Make a style statement in this trendy pair of leggings. Team it with a kurta and a pair of flats for a chic look.;Cotton and elastane blend<br />Machine-wash warm;The model (height 5'8" and waist 28") is wearing a size S;;Prestitia Maroon Churidar Leggings;Prestitia,IKRM5656;zerotype;;Summer;P;No
1748763;13001-PINK-872454-Magenta-1748763;13001Leggings;Active;Leggings;Prestitia;Adults-Women;Women;Magenta;;;Core;Ethnic;2017;S,PSTALEGG00000176,M,PSTALEGG00000177,L,PSTALEGG00000178,XL,PSTALEGG00000179,XXL,PSTALEGG00000180;545.00;A pair of <a href='/magenta?src=pd' class='seolink'>magenta</a> panelled <a href='/churidar?src=pd' class='seolink'>churidar</a> <a href='/leggings?src=pd' class='seolink'>leggings</a>, has an elasticated waistband with an inner drawstring fastening;Make a style statement in this trendy pair of leggings. Team it with a kurta and a pair of flats for a chic look.;Cotton and elastane blend<br />Machine-wash warm;The model (height 5'8" and waist 28") is wearing a size S;;Prestitia Magenta Churidar Leggings;Prestitia,IKRM5656;zerotype;;Summer;P;No
1724211;MNHMANSS17BLAZER-004-F-Sea Blue-1724211;Men's Peached OD Blazer;Draft;Blazers;Mast & Harbour;Adults-Men;Men;;;;Fashion;;2017;S,MTHBBLZR00000551,M,MTHBBLZR00000552,L,MTHBBLZR00000553;3499.00;;;;;;;;zerotype;;Spring;;No
1724210;MNHMANSS17BLAZER-004-E-Slate Grey-1724210;Men's Peached OD Blazer;Draft;Blazers;Mast & Harbour;Adults-Men;Men;;;;Fashion;;2017;S,MTHBBLZR00000548,M,MTHBBLZR00000549,L,MTHBBLZR00000550;3499.00;;;;;;;;zerotype;;Spring;;No
1724209;MNHMANSS17BLAZER-004-D-Blue-1724209;Men printed OD blazer;Draft;Blazers;Mast & Harbour;Adults-Men;Men;;;;Fashion;;2017;S,MTHBBLZR00000545,M,MTHBBLZR00000546,L,MTHBBLZR00000547;3999.00;;;;;;;;zerotype;;Spring;;No
1724208;MNHMANSS17BLAZER-004-C-Dk.Grey-1724208;Men printed OD blazer;Draft;Blazers;Mast & Harbour;Adults-Men;Men;;;;Fashion;;2017;S,MTHBBLZR00000542,M,MTHBBLZR00000543,L,MTHBBLZR00000544;3999.00;;;;;;;;zerotype;;Spring;;No
1706502;MNHMANSS17SHORTS-008-E-Toffee Brown-1706502;Mens Overdyed Club Shorts;Draft;Shorts;Mast & Harbour;Adults-Men;Men;;;;Core;;2017;28,MTHBSHOR00000644,30,MTHBSHOR00000645,32,MTHBSHOR00000646,34,MTHBSHOR00000647,36,MTHBSHOR00000648;1499.00;;;;;;;;zerotype;;Spring;;No
1706501;MNHMANSS17SHORTS-008-D-Golden Yellow-1706501;Mens Overdyed Club Shorts;Draft;Shorts;Mast & Harbour;Adults-Men;Men;;;;Core;;2017;28,MTHBSHOR00000639,30,MTHBSHOR00000640,32,MTHBSHOR00000641,34,MTHBSHOR00000642,36,MTHBSHOR00000643;1499.00;;;;;;;;zerotype;;Spring;;No
1706500;MNHMANSS17SHORTS-008-C-Deep sea Coral-1706500;Mens Overdyed Club Shorts;Draft;Shorts;Mast & Harbour;Adults-Men;Men;;;;Core;;2017;28,MTHBSHOR00000634,30,MTHBSHOR00000635,32,MTHBSHOR00000636,34,MTHBSHOR00000637,36,MTHBSHOR00000638;1499.00;;;;;;;;zerotype;;Spring;;No
1706499;MNHMANSS17SHORTS-008-B-Blue bell-1706499;Mens Overdyed Club Shorts;Draft;Shorts;Mast & Harbour;Adults-Men;Men;;;;Core;;2017;28,MTHBSHOR00000629,30,MTHBSHOR00000630,32,MTHBSHOR00000631,34,MTHBSHOR00000632,36,MTHBSHOR00000633;1499.00;;;;;;;;zerotype;;Spring;;No
1706498;MNHMANSS17SHORTS-008-A-Vapoutous grey-1706498;Mens Overdyed Club Shorts;Draft;Shorts;Mast & Harbour;Adults-Men;Men;;;;Core;;2017;28,MTHBSHOR00000624,30,MTHBSHOR00000625,32,MTHBSHOR00000626,34,MTHBSHOR00000627,36,MTHBSHOR00000628;1499.00;;;;;;;;zerotype;;Spring;;No
1465054;216YKWSLD99143-White / Navy-1465054;Dresses;Active;Dresses;YK;Kids-Girls;Girls;Black;;;Fashion;Party;2017;7-8Y,YKYKDRSS00000768,8-9Y,YKYKDRSS00000769,10-11Y,YKYKDRSS00000770,11-12Y,YKYKDRSS00000771,13-14Y,YKYKDRSS00000772;1799.00;<a href='/black?src=pd' class='seolink'>Black</a> fit and flare <a href='/dress?src=pd' class='seolink'>dress</a>, has a round neck, a sequinned front <a href='/bodice?src=pd' class='seolink'>bodice</a>, sleeveless, a concealed zip closure and a <a href='/tie?src=pd' class='seolink'>tie</a>-up detail on the back, an attached lining;This fashionable dress from YK will have your little girl looking and feeling like a princess. Team it with her favourite pair of ballerinas and a cute clutch when she's going to a friend's get-together.;Shell: 100% polyester<br />Lining: Polycotton<br />Machine-wash;;;YK Girls Black Sequinned Fit & Flare Dress;YK;zerotype;;Spring;No comment entered;No
1465044;216YKWSLD89132-Pink-1465044;Dresses;Active;Dresses;YK;Kids-Girls;Girls;Gold;;;Fashion;Casual;2017;2-3Y,YKYKDRSS00000718,3-4Y,YKYKDRSS00000719,4-5Y,YKYKDRSS00000720,5-6Y,YKYKDRSS00000721,6-7Y,YKYKDRSS00000722;1599.00;<a href='/gold?src=pd' class='seolink'>Gold</a>-toned sequinned woven fit and flare <a href='/dress?src=pd' class='seolink'>dress</a> with a rosette detail, has a round neck, <a href='/short?src=pd' class='seolink'>short</a> sleeves, <a href='/tie?src=pd' class='seolink'>tie</a>-up detail at the waist, a concealed zip closure on the back, flared hem, attached lining;This adorable dress is perfect for your little girl. Team it for her with a cute hairband and ballerinas for a trendy appeal.;Shell: 100% polyester<br />Lining: Poly cotton;;;YK Girls Gold-Toned Sequinned Fit & Flare Dress;YK,summer-style-apr,after-match-apr,take20-apr17;zerotype;;Spring;No comment entered;No
1465043;216YKWSLD89129-Dk. Pink / Lt. Pink-1465043;Dresses;Active;Dresses;YK;Kids-Girls;Girls;Pink;White;;Fashion;Party;2017;2-3Y,YKYKDRSS00000713,3-4Y,YKYKDRSS00000714,4-5Y,YKYKDRSS00000715,5-6Y,YKYKDRSS00000716,6-7Y,YKYKDRSS00000717;1799.00;<a href='/pink?src=pd' class='seolink'>Pink</a> and white <a href='/solid?src=pd' class='seolink'>solid</a> woven fit and flare <a href='/dress?src=pd' class='seolink'>dress</a>, has a round neck, sleeveless, zip closure, an attached lining, flared hem;Upgrade her formal wardrobe with this fashionable YK dress.  This pink dress is a fun piece for her this summer for either hanging out with friends or going out for dinner.;Polyester <br> Machine-wash;;;YK Girls Pink Solid Fit and Flare Dress;YK;zerotype;;Spring;No comment entered;No
1465041;216YKWSLD89087-Black-1465041;Dresses;Active;Dresses;YK;Kids-Girls;Girls;Burgundy;;;Fashion;Casual;2017;2-3Y,YKYKDRSS00000703,3-4Y,YKYKDRSS00000704,4-5Y,YKYKDRSS00000705,5-6Y,YKYKDRSS00000706,6-7Y,YKYKDRSS00000707;1699.00;<a href='/burgundy?src=pd' class='seolink'>Burgundy</a> woven fit and flare <a href='/dress?src=pd' class='seolink'>dress</a> with a rosette detail, has <a href='/shoulder?src=pd' class='seolink'>shoulder</a> straps, <a href='/tie?src=pd' class='seolink'>tie</a>-up detail at the waist, a concealed zip closure on the back, flared hem, attached lining;This adorable dress is perfect for your little girl. Team it for her with a cute hairband and ballerinas for a trendy appeal.;Shell: 100% polyester<br />Lining: Poly cotton;;;YK Girls Burgundy Fit & Flare Dress;YK,summer-style-apr,after-match-apr,take20-apr17;zerotype;;Spring;No comment entered;No
1352824;MNHSHRTAW16-103-N-TBC-1352824;Mens poplin OD shirt;Active;Shirts;Mast & Harbour;Adults-Men;Men;Pink;;;Fashion;Casual;2017;S,MTHBSHRT00006085,M,MTHBSHRT00006086,L,MTHBSHRT00006087,XL,MTHBSHRT00006088;1299.00;Dusty pink solid casual shirt, has a spread collar, a full button placket, long sleeves, a patch pocket, curved hem;This shirt from Mast &amp  Harbour will give you the perfect amount of comfort and durability.  Happy hour just got a whole lot stylish when you put this pink piece with some chukka boots and leather bracelet.;Cotton <br> Machine-wash;Regular fit <br>The model (height 6' and shoulders 18") is wearing a size 40;;Mast & Harbour Men Dusty Pink Regular Fit Solid Casual Shirt;DEJA0430 Mast & Harbour,15Perc-Off-FW-Nov16,20Perc-Off-FW-Nov16,500-Off-FW-Nov-16,1000-Off-FW-Nov-16,weekender-first-time,mnh-justin-dec,welcome-to-mmt,mnh-bd-newarv-disc,mnh-bd-nov-holiday-men,mnh-bd-novshirts,flash20-dec7,brand-rush-dec,new-mens-casual,mnh-dec-newarv,400off-15dec-16,first-time-dec16,eors-hottest-sellers-500-men,alisters-men-shirts,happyhour-rs-off,ftod-eors,welcome-to-eors,eors-coupon-4jan,foryou20,foryou15,HH20JAN17,stylesforextra5-jan17,most-wishlisted-men,lasttime-discount-rd,v-day-best-sellers,v-day-deals-11feb,b2-35-b3-40-crazy40,welcome-to-myntra-feb-new,bday-happy-hour,wishlisters-wish10,wishlisters-wish10-feb25,superhour-feb26,welcome-to-march,holi-basket-mar,mnh-bestsellers-summer,mnh-ss17-men-newarv,mnh-ss17-newarv,mfb-ss17,new-launches-ss17,ss17-apr-newarv,bfg-event-apr,bfg-50dos-wwl-summer-dressing-519458,apr12-super-hour,new-season-styles-apr13,upto40-extra20-bb,gold22-bb,b3-20-power20,newseason20-bb,flash-sale-bb21,apr15-hh,coupon-crush05,coupon-crush09,myntra-rupay,coupon-crush08,mse-mnh,pp-extra25-off,price-surge,men-offer-may05,crush24-ccmay,rs300off-ccmay,mnhmen-bestseller,coupon-offer-may,extra400-may9;zerotype;;Spring;extra400-may9;No
1352820;MNHSHRTAW16-103-J-TBC-1352820;Mens poplin OD shirt;Active;Shirts;Mast & Harbour;Adults-Men;Men;Blue;;;Fashion;Casual;2017;S,MTHBSHRT00006069,M,MTHBSHRT00006070,L,MTHBSHRT00006071,XL,MTHBSHRT00006072;1299.00;Blue solid casual shirt, has a spread collar, a full&nbsp button placket, long sleeves, a patch pocket,&nbsp curved hem;Keep warm on the coldest of days with this top-of-the-line shirt by Mast &amp  Harbour.  This blue piece can be styled with dark denims, Chelsea boots, and a classic leather jacket for your next concert.;Cotton <br> Machine-wash;Regular fit <br>The model (height 6' and shoulders 18") is wearing a size 40;;Mast & Harbour Men Blue Regular Fit Solid Casual Shirt;DEJA0430 Mast & Harbour,15Perc-Off-FW-Nov16,20Perc-Off-FW-Nov16,500-Off-FW-Nov-16,1000-Off-FW-Nov-16,weekender-first-time,mnh-justin-dec,mnh-bd-newarv-disc,mnh-bd-halfprice,mnh-bd-nov-holiday-men,mnh-bd-novshirts,flash20-dec7,brand-rush-dec,mnh-dec-newarv,400off-15dec-16,first-time-dec16,xmas-deal,eors-hottest-sellers-500-men,alisters-men-shirts,happyhour-rs-off,ftod-eors,welcome-to-eors,foryou20,foryou15,HH12JAN17,HH20JAN17,most-wishlisted-men,lasttime-discount-rd,upto-40-extra-20,HH07FEB17,v-day-styles,welcome-to-myntra-feb,welcome-to-myntra-feb-new,vday-coupon-offer,v-day-best-sellers,b2-35-b3-40-crazy40,mh-feb-newarrival-men,bday-offer,weekend-coupon-offer,superhour-feb26,holi-basket-mar,b2-extra50-mar14,mnh-bestsellers-summer,mnh-ss17-men-newarv,mnh-ss17-newarv,mfb-ss17,new-launches-ss17,ss17-apr-newarv,bfg-event-apr,bfg-50dos-wwl-summer-dressing-519458,mnh-liveblue,apr12-super-hour,new-season-styles-apr13,upto40-extra20-bb,gold22-bb,b3-20-power20,newseason20-bb,flash-sale-bb21,apr15-hh,coupon-crush05,coupon-crush09,myntra-rupay,coupon-crush08,mse-mnh,pp-extra25-off,price-surge,extra20-ccmay,crush24-ccmay,rs300off-ccmay,new-season30-ccmay,super-hour-ccmay,men-offer-may05,mnhmen-bestseller,coupon-offer-may,extra400-may9;zerotype;;Spring;extra400-may9;No
1352817;MNHSHRTAW16-103-G-TBC-1352817;Mens poplin OD shirt;Active;Shirts;Mast & Harbour;Adults-Men;Men;Rust;;;Fashion;Casual;2017;S,MTHBSHRT00006057,M,MTHBSHRT00006058,L,MTHBSHRT00006059,XL,MTHBSHRT00006060;1299.00;Rust solid casual shirt, has a spread collar, button placket, long sleeves, a patch pocket,&nbsp curved hem;You'll love the design of this high-fashion Mast &amp  Harbour shirt.  This rust piece can be styled with dark denims, Chelsea boots and a classic leather jacket for your next concert.;Cotton<br> Machine-wash;The model (height 6' and shoulders 18") is wearing a size 40;;Mast & Harbour Men Rust Regular Fit Solid Casual Shirt;BOGD0414 Mast & Harbour,bbd-pre-sale-2016,mnh-sep-winterhues-men,mnh-sep-shirts-men,mnh-pick-color,mnh-sep-fall-edit,mnh-fall-edit-dt,mnh-bbd,first-time-on-discount-bbd,mens-fw16,flat-40-sale-eors,first-time-on-discount-10oct,bbd-new-extra20,mnh-oct-newarv,new-season-offer-15october,first-time-on-discount-diwali-sale,diwali-25thoctober,cohort-25thoctober,extra10-25oct,mnh-oct-newarv-off,mnh-oct-shirts,myntra-open-coupon-offer,new-customer-Offer,mnh-bd-nov,new-on-discount,500-Off-FW-Nov-16,1000-Off-FW-Nov-16,mnh-bd-nov-holiday-men,mnh-bd-novshirts,brand-rush-dec,mnh-dec-newarv,400off-15dec-16,flat30-extra40,happyhour-rs-off,ftod-eors,welcome-to-eors,eors-coupon-4jan,extra59-extra-50,flat30-extra40-jan7,ftod-Jan16,welcome-to-myntra-feb,welcome-to-myntra-feb-new,vday-coupon-offer,upto40-extra20-cupid20,b2-35-b3-40-crazy40,v-day-best-sellers,mh-feb-newarrival-men,bday-offer,first-1000-extra40-lookgood40,b2-35-b3-40-crazy40-feb19,upto40-extra20-feb-20,bday-happy-hour,holi2017-mar11,mnh-ss17-shirts,mnh-bestsellers-summer,mnh-ss17-men-newarv,ftod-ss17,mnh-ss17-newarv,mfb-ss17,new-launches-ss17,ss17-apr-newarv,bfg-event-apr,bfg-50dos-wwl-summer-dressing-519458,ftod-bfg,apr12-super-hour,new-season-styles-apr13,indus-apr13,bnb-styles-apr,summer-style-apr,after-match-apr,apr15-hh,take20-apr17,upto40-extra20-bb,gold22-bb,b3-20-power20,newseason20-bb,flash-sale-bb21,coupon-crush05,coupon-crush09,myntra-rupay,mse-mnh,pp-extra25-off,price-surge,extra20-ccmay,crush24-ccmay,rs300off-ccmay,new-season30-ccmay,super-hour-ccmay,men-offer-may05,mnhmen-bestseller,coupon-offer-may,extra400-may9;zerotype;;Spring;extra400-may9;No
1352815;MNHSHRTAW16-103-E-Spiced coral-1352815;Mens poplin OD shirt;Active;Shirts;Mast & Harbour;Adults-Men;Men;Coral;;;Fashion;Casual;2016;S,MTHBSHRT00006049,M,MTHBSHRT00006050,L,MTHBSHRT00006051,XL,MTHBSHRT00006052;1299.00;Coral pink casual shirt, has a spread collar, a full&nbsp button placket, long sleeves, a patch pocket,&nbsp curved hem;<p>Expand your collection of casual staples with this trendy shirt from Mast &amp  Harbour. Team it with dark&nbsp denims, loafers&nbsp and a cardigan to complete the ensemble.</p>;<p>100% cotton<br>Machine-wash</p>;<p>The model (height 6' and shoulders 18") is wearing a size 40</p>;;Mast & Harbour Coral Pink Casual Shirt;STEL0377,Mast & Harbour,fw16-mens-fom,mfballaw16,mnh-sep-bday,solid-shirt-navaratri,bbd-pre-sale-2016,mnh-sep-shirts-men,mnh-pick-color,mnh-sep-fall-edit,mnh-fall-edit-dt,mnh-bbd,first-time-on-discount-bbd,mens-fw16,first-time-on-discount-10oct,bbd-new-extra20,mnh-oct-newarv,first-time-on-discount-diwali-sale,diwali-25thoctober,cohort-25thoctober,extra10-25oct,mnh-oct-newarv-off,mnh-999-store,mnh-oct-shirts,myntra-open-coupon-offer,new-customer-Offer,mnh-bd-nov,new-on-discount,welcome-to-mmt,mnh-bd-dec,extra-500-off-dec6,flash20-dec7,brand-rush-dec,mnh-dec-newarv,400off-15dec-16,weekend-40,extra40-dec24,min40-extra40,HH20JAN17;zerotype;;Winter;HH12JAN17;No
1352802;MNHSHRTAW16-101-L-TBC-1352802;Mens OverDyed Twill Shirt;Active;Shirts;Mast & Harbour;Adults-Men;Men;Red;;;Fashion;Casual;2017;S,MTHBSHRT00005997,M,MTHBSHRT00005998,L,MTHBSHRT00005999,XL,MTHBSHRT00006000;1499.00;Red solid casual shirt, has a spread collar, a full&nbsp button placket, long sleeves, a patch pocket,&nbsp curved hem;For year-round comfort and style, opt for this top-notch shirt from Mast &amp  Harbour.  A pair of sneakers and slim denim are the perfect additions to this piece when you're going outside for a day in the park.;Cotton <br> Machine-wash;Regular fit <br>The model (height 6' and shoulders 18") is wearing a size 40;;Mast & Harbour Men Red Regular Fit Solid Casual Shirt;THOM0389 Mast & Harbour,15Perc-Off-FW-Nov16,20Perc-Off-FW-Nov16,500-Off-FW-Nov-16,1000-Off-FW-Nov-16,weekender-first-time,mnh-justin-dec,party-men-smart-solid-shirts,mnh-bd-newarv-disc,mnh-bd-halfprice,mnh-bd-nov-holiday-men,mnh-bd-novshirts,flash20-dec7,brand-rush-dec,mnh-dec-newarv,400off-15dec-16,party-men-looks-varsity,first-time-dec16,part-store-men-view-all,party-store-coupon,xmas-deal,eors-hottest-sellers-500-men,alisters-men-shirts,happyhour-rs-off,price-reveal-28-shirts-tshirts,ftod-eors,welcome-to-eors,welcome-to-myntra-jan-new,foryou20,foryou15,HH20JAN17,most-wishlisted-men,budget-deal,cohort-customers,Extra-302728,upto-40-extra-20,HH07FEB17,HH12JAN17,v-day-styles,welcome-to-myntra-feb,welcome-to-myntra-feb-new,v-day-best-sellers,b2-35-b3-40-crazy40-feb19,upto40-extra20-feb-20,bday-happy-hour,weekend-coupon-offer,wishlisters-wish10,wishlisters-wish10-feb25,superhour-feb26,welcome-to-march,holi-basket-mar,mh-feb-newarrival-men,mfb-ss17,mnh-ss17,mnh-ss17-shirts,mnh-bestsellers-summer,mnh-ss17-men-newarv,mnh-ss17-newarv,new-launches-ss17,ss17-apr-newarv,bfg-event-apr,apr12-super-hour,new-season-styles-apr13,upto40-extra20-bb,gold22-bb,power500-bb,b3-20-power20,newseason20-bb,flash-sale-bb21,apr15-hh,coupon-crush05,coupon-crush09,myntra-rupay,coupon-crush08,mse-mnh,pp-extra25-off,extra20-ccmay,new-season30-ccmay,super-hour-ccmay,men-offer-may05;zerotype;;Spring;flash-sale-may6;No
1352799;MNHSHRTAW16-101-I-TBC-1352799;Mens OverDyed Twill Shirt;Active;Shirts;Mast & Harbour;Adults-Men;Men;Navy Blue;;;Fashion;Casual;2017;S,MTHBSHRT00005985,M,MTHBSHRT00005986,L,MTHBSHRT00005987,XL,MTHBSHRT00005988;1499.00;Navy blue solid casual shirt, has a spread collar, a full button placket, long sleeves, a patch pocket, curved hem;Expand your collection of casual staples with this cool shirt from Mast &amp  Harbour.  You'll love putting this navy blue piece on with some trainers and chinos for the perfect outdoor activity with your friends.;Cotton <br> Machine-wash;Regular fit <br>The model (height 6' and shoulders 18") is wearing a size 40;;Mast & Harbour Men Navy Regular Fit Solid Casual Shirt;DEJA0430 Mast & Harbour,15Perc-Off-FW-Nov16,20Perc-Off-FW-Nov16,500-Off-FW-Nov-16,1000-Off-FW-Nov-16,weekender-first-time,first999-extra50-27nov,mnh-justin-dec,mnh-bd-newarv-disc,mnh-bd-halfprice,mnh-bd-nov-holiday-men,mnh-bd-novshirts,flash20-dec7,brand-rush-dec,mnh-dec-newarv,400off-15dec-16,first-time-dec16,ftod-eors,welcome-to-eors,eors-coupon-4jan,HH12JAN17,welcome-to-myntra-jan-new,foryou20,foryou15,lasttime-discount-rd,myntra-wishlisters-jan,extra15-wishlisters-2017,b1-at-40-50,vday-coupon-offer,v-day-best-sellers,b2-35-b3-40-crazy40,welcome-to-myntra-feb-new,mh-feb-newarrival-men,bday-offer,b2-35-b3-40-crazy40-feb19,bday-happy-hour,b1-30-b2-35-feb22,coupon-crush-5,weekend-coupon-offer,welcome-to-march,superhour-feb26,holi-basket-mar,mfb-ss17,mnh-ss17,mnh-ss17-shirts,mnh-bestsellers-summer,mnh-ss17-men-newarv,mnh-ss17-newarv,new-launches-ss17,ss17-apr-newarv,bfg-wanderlust-vegas-men-519507,bfg-event-apr,bfg-wanderlust-men-destinationall,ftod-bfg,mnh-liveblue,apr12-super-hour,new-season-styles-apr13,indus-apr13,bnb-styles-apr,summer-style-apr,after-match-apr,upto40-extra20-bb,gold22-bb,power500-bb,b3-20-power20,newseason20-bb,flash-sale-bb21,apr15-hh,coupon-crush05,coupon-crush09,myntra-rupay,coupon-crush08,mse-mnh,pp-extra25-off,price-surge,extra20-ccmay,crush24-ccmay,rs300off-ccmay,new-season30-ccmay,super-hour-ccmay,men-offer-may05,mnhmen-bestseller,coupon-offer-may;zerotype;;Spring;coupon-offer-may;No
