Style ID;Vendor Article Number;Vendor Article Name;Active Status;Article type;Brand;Age Group;Gender;Base Colour;Colour1;Colour2;Fashion Type;Usage;Year;Size - SKU code pair;MRP;Style Description;Style Note;Materials and Care Description;Size and Fit Description;Size Chart Path;Product Display Name;Tags;Product Type;Classification Brand;Season;Comments;Upload Images
1849765;MAXI WHITE 41-White-1849765;MAXI WHITE;Draft;Casual Shoes;Heavenly Feet;Adults-Women;Women;White;;;Fashion;;2017;UK3,HVFTCASH00000041,UK4,HVFTCASH00000042,UK5,HVFTCASH00000043,UK6,HVFTCASH00000044,UK7,HVFTCASH00000045,UK8,HVFTCASH00000046;2490.00;;;;;;;;zerotype;;Spring;;No
1849764;MAXI BLACK 41-Black-1849764;MAXI BLACK;Draft;Casual Shoes;Heavenly Feet;Adults-Women;Women;Black;;;Fashion;;2017;UK3,HVFTCASH00000035,UK4,HVFTCASH00000036,UK5,HVFTCASH00000037,UK6,HVFTCASH00000038,UK7,HVFTCASH00000039,UK8,HVFTCASH00000040;2490.00;;;;;;;;zerotype;;Spring;;No
1849763;MAXI NAVY 41-Navy Blue-1849763;MAXI NAVY;Draft;Casual Shoes;Heavenly Feet;Adults-Women;Women;Navy Blue;;;Fashion;;2017;UK3,HVFTCASH00000029,UK4,HVFTCASH00000030,UK5,HVFTCASH00000031,UK6,HVFTCASH00000032,UK7,HVFTCASH00000033,UK8,HVFTCASH00000034;2490.00;;;;;;;;zerotype;;Spring;;No
1849762;TACOMA GREY 41-Grey-1849762;TACOMA GREY;Draft;Casual Shoes;Heavenly Feet;Adults-Women;Women;Grey;;;Fashion;;2017;UK3,HVFTCASH00000023,UK4,HVFTCASH00000024,UK5,HVFTCASH00000025,UK6,HVFTCASH00000026,UK7,HVFTCASH00000027,UK8,HVFTCASH00000028;2750.00;;;;;;;;zerotype;;Spring;;No
1849761;TACOMA NAVY 41-Navy Blue-1849761;TACOMA NAVY;Draft;Casual Shoes;Heavenly Feet;Adults-Women;Women;Navy Blue;;;Fashion;;2017;UK4,HVFTCASH00000018,UK5,HVFTCASH00000019,UK6,HVFTCASH00000020,UK7,HVFTCASH00000021,UK8,HVFTCASH00000022;2750.00;;;;;;;;zerotype;;Spring;;No
1849760;SKY BLACK 40-Black-1849760;SKY BLACK;Draft;Casual Shoes;Heavenly Feet;Adults-Women;Women;Black;;;Fashion;;2017;UK3,HVFTCASH00000013,UK4,HVFTCASH00000014,UK5,HVFTCASH00000015,UK6,HVFTCASH00000016,UK7,HVFTCASH00000017;2600.00;;;;;;;;zerotype;;Spring;;No
1849759;SKY RED 41-Red-1849759;SKY RED;Draft;Casual Shoes;Heavenly Feet;Adults-Women;Women;Red;;;Fashion;;2017;UK3,HVFTCASH00000007,UK4,HVFTCASH00000008,UK5,HVFTCASH00000009,UK6,HVFTCASH00000010,UK7,HVFTCASH00000011,UK8,HVFTCASH00000012;2600.00;;;;;;;;zerotype;;Spring;;No
1849758;SKY NAVY 41-Navy Blue-1849758;SKY NAVY;Draft;Casual Shoes;Heavenly Feet;Adults-Women;Women;Navy Blue;;;Fashion;;2017;UK3,HVFTCASH00000001,UK4,HVFTCASH00000002,UK5,HVFTCASH00000003,UK6,HVFTCASH00000004,UK7,HVFTCASH00000005,UK8,HVFTCASH00000006;2600.00;;;;;;;;zerotype;;Spring;;No
1849757;PAMMY ORANGE 41-Orange-1849757;PAMMY ORANGE;Draft;Flats;Heavenly Feet;Adults-Women;Women;;;;Fashion;;2017;UK3,HVFTFlats00000193,UK4,HVFTFlats00000194,UK5,HVFTFlats00000195,UK6,HVFTFlats00000196,UK7,HVFTFlats00000197,UK8,HVFTFlats00000198;2150.00;;;;;;;;zerotype;;Spring;;No
1849756;PAMMY FUCHSIA 41-Pink-1849756;PAMMY FUCHSIA;Draft;Flats;Heavenly Feet;Adults-Women;Women;;;;Fashion;;2017;UK3,HVFTFlats00000187,UK4,HVFTFlats00000188,UK5,HVFTFlats00000189,UK6,HVFTFlats00000190,UK7,HVFTFlats00000191,UK8,HVFTFlats00000192;2150.00;;;;;;;;zerotype;;Spring;;No
1849755;PAMMY BLACK 41-Black-1849755;PAMMY BLACK;Draft;Flats;Heavenly Feet;Adults-Women;Women;;;;Fashion;;2017;UK3,HVFTFlats00000181,UK4,HVFTFlats00000182,UK5,HVFTFlats00000183,UK6,HVFTFlats00000184,UK7,HVFTFlats00000185,UK8,HVFTFlats00000186;2150.00;;;;;;;;zerotype;;Spring;;No
1849754;SHINE GOLD 41-Gold-1849754;SHINE GOLD;Draft;Flats;Heavenly Feet;Adults-Women;Women;;;;Fashion;;2017;UK3,HVFTFlats00000175,UK4,HVFTFlats00000176,UK5,HVFTFlats00000177,UK6,HVFTFlats00000178,UK7,HVFTFlats00000179,UK8,HVFTFlats00000180;2750.00;;;;;;;;zerotype;;Spring;;No
1849753;SHINE BLACK 41-Black-1849753;SHINE BLACK;Draft;Flats;Heavenly Feet;Adults-Women;Women;;;;Fashion;;2017;UK3,HVFTFlats00000169,UK4,HVFTFlats00000170,UK5,HVFTFlats00000171,UK6,HVFTFlats00000172,UK7,HVFTFlats00000173,UK8,HVFTFlats00000174;2750.00;;;;;;;;zerotype;;Spring;;No
1849752;CINDY4 ROSE GOLD 41-Gold-1849752;CINDY4 ROSE GOLD;Draft;Flats;Heavenly Feet;Adults-Women;Women;;;;Fashion;;2017;UK3,HVFTFlats00000163,UK4,HVFTFlats00000164,UK5,HVFTFlats00000165,UK6,HVFTFlats00000166,UK7,HVFTFlats00000167,UK8,HVFTFlats00000168;2850.00;;;;;;;;zerotype;;Spring;;No
1849751;CINDY4 ORANGE 41-Orange-1849751;CINDY4 ORANGE;Draft;Flats;Heavenly Feet;Adults-Women;Women;;;;Fashion;;2017;UK3,HVFTFlats00000157,UK4,HVFTFlats00000158,UK5,HVFTFlats00000159,UK6,HVFTFlats00000160,UK7,HVFTFlats00000161,UK8,HVFTFlats00000162;2850.00;;;;;;;;zerotype;;Spring;;No
1849750;CINDY4 RED 41-Red-1849750;CINDY4 RED;Draft;Flats;Heavenly Feet;Adults-Women;Women;;;;Fashion;;2017;UK3,HVFTFlats00000151,UK4,HVFTFlats00000152,UK5,HVFTFlats00000153,UK6,HVFTFlats00000154,UK7,HVFTFlats00000155,UK8,HVFTFlats00000156;2850.00;;;;;;;;zerotype;;Spring;;No
1849749;CINDY4 WHITE 41-White-1849749;CINDY4 WHITE;Draft;Flats;Heavenly Feet;Adults-Women;Women;;;;Fashion;;2017;UK3,HVFTFlats00000145,UK4,HVFTFlats00000146,UK5,HVFTFlats00000147,UK6,HVFTFlats00000148,UK7,HVFTFlats00000149,UK8,HVFTFlats00000150;2850.00;;;;;;;;zerotype;;Spring;;No
1849748;CINDY4 BLACK 41-Black-1849748;CINDY4 BLACK;Draft;Flats;Heavenly Feet;Adults-Women;Women;;;;Fashion;;2017;UK3,HVFTFlats00000139,UK4,HVFTFlats00000140,UK5,HVFTFlats00000141,UK6,HVFTFlats00000142,UK7,HVFTFlats00000143,UK8,HVFTFlats00000144;2850.00;;;;;;;;zerotype;;Spring;;No
1849747;QUINCEY RED PATENT  41-Red-1849747;QUINCEY RED PATENT;Draft;Flats;Heavenly Feet;Adults-Women;Women;;;;Fashion;;2017;UK3,HVFTFlats00000133,UK4,HVFTFlats00000134,UK5,HVFTFlats00000135,UK6,HVFTFlats00000136,UK7,HVFTFlats00000137,UK8,HVFTFlats00000138;2750.00;;;;;;;;zerotype;;Spring;;No
1849746;ROXY PEWTER 41-Grey-1849746;ROXY PEWTER;Draft;Flats;Heavenly Feet;Adults-Women;Women;;;;Fashion;;2017;UK3,HVFTFlats00000127,UK4,HVFTFlats00000128,UK5,HVFTFlats00000129,UK6,HVFTFlats00000130,UK7,HVFTFlats00000131,UK8,HVFTFlats00000132;2600.00;;;;;;;;zerotype;;Spring;;No
1849745;ROXY GOLD 41-Gold-1849745;ROXY GOLD;Draft;Flats;Heavenly Feet;Adults-Women;Women;;;;Fashion;;2017;UK3,HVFTFlats00000121,UK4,HVFTFlats00000122,UK5,HVFTFlats00000123,UK6,HVFTFlats00000124,UK7,HVFTFlats00000125,UK8,HVFTFlats00000126;2600.00;;;;;;;;zerotype;;Spring;;No
1849744;ROXY RED 41-Red-1849744;ROXY RED;Draft;Flats;Heavenly Feet;Adults-Women;Women;;;;Fashion;;2017;UK3,HVFTFlats00000115,UK4,HVFTFlats00000116,UK5,HVFTFlats00000117,UK6,HVFTFlats00000118,UK7,HVFTFlats00000119,UK8,HVFTFlats00000120;2600.00;;;;;;;;zerotype;;Spring;;No
1849743;ROXY BLACK 41-Black-1849743;ROXY BLACK;Draft;Flats;Heavenly Feet;Adults-Women;Women;;;;Fashion;;2017;UK3,HVFTFlats00000109,UK4,HVFTFlats00000110,UK5,HVFTFlats00000111,UK6,HVFTFlats00000112,UK7,HVFTFlats00000113,UK8,HVFTFlats00000114;2600.00;;;;;;;;zerotype;;Spring;;No
1849742;KRISITE WHITE 41-White-1849742;KRISITE WHITE;Draft;Flats;Heavenly Feet;Adults-Women;Women;;;;Fashion;;2017;UK3,HVFTFlats00000103,UK4,HVFTFlats00000104,UK5,HVFTFlats00000105,UK6,HVFTFlats00000106,UK7,HVFTFlats00000107,UK8,HVFTFlats00000108;2150.00;;;;;;;;zerotype;;Spring;;No
1849741;KRISITE BLACK 41-Black-1849741;KRISITE BLACK;Draft;Flats;Heavenly Feet;Adults-Women;Women;;;;Fashion;;2017;UK3,HVFTFlats00000097,UK4,HVFTFlats00000098,UK5,HVFTFlats00000099,UK6,HVFTFlats00000100,UK7,HVFTFlats00000101,UK8,HVFTFlats00000102;2150.00;;;;;;;;zerotype;;Spring;;No
1849740;SAVOY IVORY 41-Off White-1849740;SAVOY IVORY;Draft;Flats;Heavenly Feet;Adults-Women;Women;;;;Fashion;;2017;UK3,HVFTFlats00000091,UK4,HVFTFlats00000092,UK5,HVFTFlats00000093,UK6,HVFTFlats00000094,UK7,HVFTFlats00000095,UK8,HVFTFlats00000096;2400.00;;;;;;;;zerotype;;Spring;;No
1849739;ADMIRE WHITE 41-White-1849739;ADMIRE WHITE;Draft;Flats;Heavenly Feet;Adults-Women;Women;;;;Fashion;;2017;UK3,HVFTFlats00000085,UK4,HVFTFlats00000086,UK5,HVFTFlats00000087,UK6,HVFTFlats00000088,UK7,HVFTFlats00000089,UK8,HVFTFlats00000090;2500.00;;;;;;;;zerotype;;Spring;;No
1849738;ADMIRE BLACK 41-Black-1849738;ADMIRE BLACK;Draft;Flats;Heavenly Feet;Adults-Women;Women;;;;Fashion;;2017;UK3,HVFTFlats00000079,UK4,HVFTFlats00000080,UK5,HVFTFlats00000081,UK6,HVFTFlats00000082,UK7,HVFTFlats00000083,UK8,HVFTFlats00000084;2500.00;;;;;;;;zerotype;;Spring;;No
1849737;RUFFLE RED 41-Red-1849737;RUFFLE RED;Draft;Flats;Heavenly Feet;Adults-Women;Women;;;;Fashion;;2017;UK3,HVFTFlats00000073,UK4,HVFTFlats00000074,UK5,HVFTFlats00000075,UK6,HVFTFlats00000076,UK7,HVFTFlats00000077,UK8,HVFTFlats00000078;2250.00;;;;;;;;zerotype;;Spring;;No
1849736;RUFFLE BLACK 41-Black-1849736;RUFFLE BLACK;Draft;Flats;Heavenly Feet;Adults-Women;Women;;;;Fashion;;2017;UK3,HVFTFlats00000067,UK4,HVFTFlats00000068,UK5,HVFTFlats00000069,UK6,HVFTFlats00000070,UK7,HVFTFlats00000071,UK8,HVFTFlats00000072;2250.00;;;;;;;;zerotype;;Spring;;No
1849735;LA BELLE SILVER 41-Silver-1849735;LA BELLE SILVER;Draft;Flats;Heavenly Feet;Adults-Women;Women;;;;Fashion;;2017;UK3,HVFTFlats00000061,UK4,HVFTFlats00000062,UK5,HVFTFlats00000063,UK6,HVFTFlats00000064,UK7,HVFTFlats00000065,UK8,HVFTFlats00000066;2400.00;;;;;;;;zerotype;;Spring;;No
1849734;SASHA SILVER 41-Silver-1849734;SASHA SILVER;Draft;Flats;Heavenly Feet;Adults-Women;Women;;;;Fashion;;2017;UK3,HVFTFlats00000055,UK4,HVFTFlats00000056,UK5,HVFTFlats00000057,UK6,HVFTFlats00000058,UK7,HVFTFlats00000059,UK8,HVFTFlats00000060;2600.00;;;;;;;;zerotype;;Spring;;No
1849733;SASHA GOLD 41-Gold-1849733;SASHA GOLD;Draft;Flats;Heavenly Feet;Adults-Women;Women;;;;Fashion;;2017;UK3,HVFTFlats00000049,UK4,HVFTFlats00000050,UK5,HVFTFlats00000051,UK6,HVFTFlats00000052,UK7,HVFTFlats00000053,UK8,HVFTFlats00000054;2600.00;;;;;;;;zerotype;;Spring;;No
1849732;KLUSTER GOLD 41-Gold-1849732;KLUSTER GOLD;Draft;Flats;Heavenly Feet;Adults-Women;Women;;;;Fashion;;2017;UK3,HVFTFlats00000043,UK4,HVFTFlats00000044,UK5,HVFTFlats00000045,UK6,HVFTFlats00000046,UK7,HVFTFlats00000047,UK8,HVFTFlats00000048;2400.00;;;;;;;;zerotype;;Spring;;No
1849731;KLUSTER SILVER 41-Silver-1849731;KLUSTER SILVER;Draft;Flats;Heavenly Feet;Adults-Women;Women;;;;Fashion;;2017;UK3,HVFTFlats00000037,UK4,HVFTFlats00000038,UK5,HVFTFlats00000039,UK6,HVFTFlats00000040,UK7,HVFTFlats00000041,UK8,HVFTFlats00000042;2400.00;;;;;;;;zerotype;;Spring;;No
1849730;MANDARIN WHITE 41-White-1849730;MANDARIN WHITE;Draft;Flats;Heavenly Feet;Adults-Women;Women;;;;Fashion;;2017;UK3,HVFTFlats00000031,UK4,HVFTFlats00000032,UK5,HVFTFlats00000033,UK6,HVFTFlats00000034,UK7,HVFTFlats00000035,UK8,HVFTFlats00000036;2750.00;;;;;;;;zerotype;;Spring;;No
1849729;MANDARIN BLACK 41-Black-1849729;MANDARIN BLACK;Draft;Flats;Heavenly Feet;Adults-Women;Women;;;;Fashion;;2017;UK3,HVFTFlats00000025,UK4,HVFTFlats00000026,UK5,HVFTFlats00000027,UK6,HVFTFlats00000028,UK7,HVFTFlats00000029,UK8,HVFTFlats00000030;2750.00;;;;;;;;zerotype;;Spring;;No
1849728;DAZZLER GOLD 41-Gold-1849728;DAZZLER GOLD;Draft;Flats;Heavenly Feet;Adults-Women;Women;;;;Fashion;;2017;UK3,HVFTFlats00000019,UK4,HVFTFlats00000020,UK5,HVFTFlats00000021,UK6,HVFTFlats00000022,UK7,HVFTFlats00000023,UK8,HVFTFlats00000024;2850.00;;;;;;;;zerotype;;Spring;;No
1849727;DAZZLER BLACK 41-Black-1849727;DAZZLER BLACK;Draft;Flats;Heavenly Feet;Adults-Women;Women;;;;Fashion;;2017;UK3,HVFTFlats00000013,UK4,HVFTFlats00000014,UK5,HVFTFlats00000015,UK6,HVFTFlats00000016,UK7,HVFTFlats00000017,UK8,HVFTFlats00000018;2850.00;;;;;;;;zerotype;;Spring;;No
1849726;FLORENTINA SILVER 41-Silver-1849726;FLORENTINA SILVER;Draft;Flats;Heavenly Feet;Adults-Women;Women;;;;Fashion;;2017;UK3,HVFTFlats00000007,UK4,HVFTFlats00000008,UK5,HVFTFlats00000009,UK6,HVFTFlats00000010,UK7,HVFTFlats00000011,UK8,HVFTFlats00000012;2850.00;;;;;;;;zerotype;;Spring;;No
1849725;FLORENTINA BLACK 41-Black-1849725;FLORENTINA BLACK;Draft;Flats;Heavenly Feet;Adults-Women;Women;;;;Fashion;;2017;UK3,HVFTFlats00000001,UK4,HVFTFlats00000002,UK5,HVFTFlats00000003,UK6,HVFTFlats00000004,UK7,HVFTFlats00000005,UK8,HVFTFlats00000006;2850.00;;;;;;;;zerotype;;Spring;;No
1849724;ELOISE TAN 42-Tan-1849724;ELOISE TAN;Draft;Heels;Heavenly Feet;Adults-Women;Women;;;;Fashion;;2017;UK3,HVFTHeels00000054,UK4,HVFTHeels00000055,UK5,HVFTHeels00000056,UK6,HVFTHeels00000057,UK7,HVFTHeels00000058,UK8,HVFTHeels00000059,UK9,HVFTHeels00000060;2850.00;;;;;;;;zerotype;;Spring;;No
1849723;ELOISE BLACK 42-Black-1849723;ELOISE BLACK;Draft;Heels;Heavenly Feet;Adults-Women;Women;;;;Fashion;;2017;UK3,HVFTHeels00000047,UK4,HVFTHeels00000048,UK5,HVFTHeels00000049,UK6,HVFTHeels00000050,UK7,HVFTHeels00000051,UK8,HVFTHeels00000052,UK9,HVFTHeels00000053;2850.00;;;;;;;;zerotype;;Spring;;No
1849722;PRETTY BLUSH 42-Cream-1849722;PRETTY BLUSH;Draft;Heels;Heavenly Feet;Adults-Women;Women;;;;Fashion;;2017;UK3,HVFTHeels00000040,UK4,HVFTHeels00000041,UK5,HVFTHeels00000042,UK6,HVFTHeels00000043,UK7,HVFTHeels00000044,UK8,HVFTHeels00000045,UK9,HVFTHeels00000046;2800.00;;;;;;;;zerotype;;Spring;;No
1849721;PRETTY FUCHSIA 42-Pink-1849721;PRETTY FUCHSIA;Draft;Heels;Heavenly Feet;Adults-Women;Women;;;;Fashion;;2017;UK3,HVFTHeels00000033,UK4,HVFTHeels00000034,UK5,HVFTHeels00000035,UK6,HVFTHeels00000036,UK7,HVFTHeels00000037,UK8,HVFTHeels00000038,UK9,HVFTHeels00000039;2800.00;;;;;;;;zerotype;;Spring;;No
1849720;PRETTY BLACK 42-Black-1849720;PRETTY BLACK;Draft;Heels;Heavenly Feet;Adults-Women;Women;;;;Fashion;;2017;UK3,HVFTHeels00000026,UK4,HVFTHeels00000027,UK5,HVFTHeels00000028,UK6,HVFTHeels00000029,UK7,HVFTHeels00000030,UK8,HVFTHeels00000031,UK9,HVFTHeels00000032;2800.00;;;;;;;;zerotype;;Spring;;No
1849719;STANCE BLACK 42-Black-1849719;STANCE BLACK;Draft;Heels;Heavenly Feet;Adults-Women;Women;;;;Fashion;;2017;UK4,HVFTHeels00000020,UK5,HVFTHeels00000021,UK6,HVFTHeels00000022,UK7,HVFTHeels00000023,UK8,HVFTHeels00000024,UK9,HVFTHeels00000025;2800.00;;;;;;;;zerotype;;Spring;;No
1849718;STANCE BEIGE 42-Beige-1849718;STANCE BEIGE;Draft;Heels;Heavenly Feet;Adults-Women;Women;;;;Fashion;;2017;UK4,HVFTHeels00000014,UK5,HVFTHeels00000015,UK6,HVFTHeels00000016,UK7,HVFTHeels00000017,UK8,HVFTHeels00000018,UK9,HVFTHeels00000019;2800.00;;;;;;;;zerotype;;Spring;;No
1849717;STANCE TURQOIUSE 42-Turquoise Blue-1849717;STANCE TURQOIUSE;Draft;Heels;Heavenly Feet;Adults-Women;Women;;;;Fashion;;2017;UK3,HVFTHeels00000007,UK4,HVFTHeels00000008,UK5,HVFTHeels00000009,UK6,HVFTHeels00000010,UK7,HVFTHeels00000011,UK8,HVFTHeels00000012,UK9,HVFTHeels00000013;2800.00;;;;;;;;zerotype;;Spring;;No
1849716;STANCE PINK 42-Pink-1849716;STANCE PINK;Draft;Heels;Heavenly Feet;Adults-Women;Women;;;;Fashion;;2017;UK4,HVFTHeels00000001,UK5,HVFTHeels00000002,UK6,HVFTHeels00000003,UK7,HVFTHeels00000004,UK8,HVFTHeels00000005,UK9,HVFTHeels00000006;2800.00;;;;;;;;zerotype;;Spring;;No
