Style ID;Vendor Article Number;Vendor Article Name;Active Status;Article type;Brand;Age Group;Gender;Base Colour;Colour1;Colour2;Fashion Type;Usage;Year;Size - SKU code pair;MRP;Style Description;Style Note;Materials and Care Description;Size and Fit Description;Size Chart Path;Product Display Name;Tags;Product Type;Classification Brand;Season;Comments;Upload Images
4319308;CUCCURANO97-Black-4319308;CUCCURANO;Draft;Casual Shoes;ALDO;Adults-Men;Men;Black;;;Fashion;;2017;6,ALDOCASH00006215,11,ALDOCASH00006216,10,ALDOCASH00006217,9.5,ALDOCASH00006218,9,ALDOCASH00006219,8.5,ALDOCASH00006220,8,ALDOCASH00006221,7,ALDOCASH00006222,6.5,ALDOCASH00006223;12999.00;;;<p>Wipe With Damp Cloth</p>;;;na;;zerotype;;Fall;;No
4319307;DATUCCIO98-Black-4319307;ABALENIA;Draft;Casual Shoes;ALDO;Adults-Men;Men;Black;;;Fashion;;2017;6,ALDOCASH00006205,12,ALDOCASH00006206,11,ALDOCASH00006207,10,ALDOCASH00006208,9.5,ALDOCASH00006209,9,ALDOCASH00006210,8.5,ALDOCASH00006211,8,ALDOCASH00006212,7,ALDOCASH00006213,6.5,ALDOCASH00006214;6999.00;;;<p>Wipe With Damp Cloth</p>;;;na;;zerotype;;Fall;;No
4319306;NERRAWIA12-Grey-4319306;ABALENIA;Draft;Casual Shoes;ALDO;Adults-Men;Men;Grey;;;Fashion;;2017;11,ALDOCASH00006198,10,ALDOCASH00006199,9,ALDOCASH00006200,8,ALDOCASH00006201,7,ALDOCASH00006202,6.5,ALDOCASH00006203,6,ALDOCASH00006204;6999.00;;;<p>Wipe With Damp Cloth</p>;;;na;;zerotype;;Fall;;No
4319305;ELAUN2-Navy Blue-4319305;ABALENIA;Draft;Casual Shoes;ALDO;Adults-Men;Men;Navy Blue;;;Fashion;;2017;9,ALDOCASH00006193,8,ALDOCASH00006194,7,ALDOCASH00006195,6,ALDOCASH00006196,10,ALDOCASH00006197;6999.00;;;<p>Wipe With Damp Cloth</p>;;;na;;zerotype;;Fall;;No
4319304;KILLA2-Navy Blue-4319304;ABALENIA;Draft;Casual Shoes;ALDO;Adults-Men;Men;Navy Blue;;;Fashion;;2017;6,ALDOCASH00006183,12,ALDOCASH00006184,11,ALDOCASH00006185,10,ALDOCASH00006186,9.5,ALDOCASH00006187,9,ALDOCASH00006188,8.5,ALDOCASH00006189,8,ALDOCASH00006190,7,ALDOCASH00006191,6.5,ALDOCASH00006192;8999.00;;;<p>Wipe With Damp Cloth</p>;;;bna;;zerotype;;Fall;;No
4319303;NERRAWIA97-Black-4319303;ABALENIA;Draft;Casual Shoes;ALDO;Adults-Men;Men;Black;;;Fashion;;2017;8.5,ALDOCASH00006173,7,ALDOCASH00006174,6.5,ALDOCASH00006175,8,ALDOCASH00006176,6,ALDOCASH00006177,12,ALDOCASH00006178,11,ALDOCASH00006179,10,ALDOCASH00006180,9.5,ALDOCASH00006181,9,ALDOCASH00006182;6999.00;;;<p>Wipe With Damp Cloth</p>;;;na;;zerotype;;Fall;;No
4319302;BONVILLE28-Brown-4319302;ABALENIA;Draft;Casual Shoes;ALDO;Adults-Men;Men;Brown;;;Fashion;;2017;7,ALDOCASH00006167,8,ALDOCASH00006168,11,ALDOCASH00006169,12,ALDOCASH00006170,9,ALDOCASH00006171,6,ALDOCASH00006172;11999.00;;;<p>Wipe With Damp Cloth</p>;;;na;;zerotype;;Fall;;No
4319299;YILAVEN28-Brown-4319299;YILAVEN;Draft;Casual Shoes;ALDO;Adults-Men;Men;Brown;;;Fashion;;2017;12,ALDOCASH00006157,11,ALDOCASH00006158,10,ALDOCASH00006159,7,ALDOCASH00006160,6.5,ALDOCASH00006161,6,ALDOCASH00006162,9.5,ALDOCASH00006163,9,ALDOCASH00006164,8.5,ALDOCASH00006165,8,ALDOCASH00006166;11999.00;;;<p>Wipe With Damp Cloth</p>;;;na;;zerotype;;Spring;;No
4319298;DATUCCIO2-Navy Blue-4319298;ABALENIA;Draft;Casual Shoes;ALDO;Adults-Men;Men;Navy Blue;;;Fashion;;2017;12,ALDOCASH00006147,11,ALDOCASH00006148,10,ALDOCASH00006149,9.5,ALDOCASH00006150,9,ALDOCASH00006151,8.5,ALDOCASH00006152,8,ALDOCASH00006153,7,ALDOCASH00006154,6.5,ALDOCASH00006155,6,ALDOCASH00006156;6999.00;;;<p>Wipe With Damp Cloth</p>;;;na;;zerotype;;Fall;;No
4319297;DIGGS1-Navy Blue-4319297;DIGGS;Draft;Casual Shoes;ALDO;Adults-Men;Men;Navy Blue;;;Fashion;;2017;10,ALDOCASH00006137,9.5,ALDOCASH00006138,9,ALDOCASH00006139,8.5,ALDOCASH00006140,8,ALDOCASH00006141,7,ALDOCASH00006142,6.5,ALDOCASH00006143,6,ALDOCASH00006144,12,ALDOCASH00006145,11,ALDOCASH00006146;10999.00;;;<p>Wipe With Damp Cloth</p>;;;na;;zerotype;;Spring;;No
4319296;DELELLO2-Navy Blue-4319296;ABALENIA;Draft;Casual Shoes;ALDO;Adults-Men;Men;Navy Blue;;;Fashion;;2017;9.5,ALDOCASH00006127,9,ALDOCASH00006128,8.5,ALDOCASH00006129,8,ALDOCASH00006130,7,ALDOCASH00006131,6.5,ALDOCASH00006132,6,ALDOCASH00006133,12,ALDOCASH00006134,11,ALDOCASH00006135,10,ALDOCASH00006136;7999.00;;;<p>Wipe With Damp Cloth</p>;;;na;;zerotype;;Fall;;No
4319295;HAELASIEN-R4-Navy Blue-4319295;ABALENIA;Draft;Casual Shoes;ALDO;Adults-Men;Men;Navy Blue;;;Fashion;;2017;6,ALDOCASH00006121,10,ALDOCASH00006122,9,ALDOCASH00006123,8,ALDOCASH00006124,7,ALDOCASH00006125,6.5,ALDOCASH00006126;6999.00;;;<p>Wipe With Damp Cloth</p>;;;na;;zerotype;;Fall;;No
4319294;DANTA28-Brown-4319294;ABALENIA;Draft;Casual Shoes;ALDO;Adults-Men;Men;Brown;;;Fashion;;2017;11,ALDOCASH00006111,10,ALDOCASH00006112,9.5,ALDOCASH00006113,9,ALDOCASH00006114,8.5,ALDOCASH00006115,8,ALDOCASH00006116,7,ALDOCASH00006117,6.5,ALDOCASH00006118,6,ALDOCASH00006119,12,ALDOCASH00006120;8999.00;;;<p>Wipe With Damp Cloth</p>;;;na;;zerotype;;Fall;;No
4319293;WIGHERE98-Black-4319293;ABALENIA;Draft;Casual Shoes;ALDO;Adults-Men;Men;Black;;;Fashion;;2017;8.5,ALDOCASH00006102,8,ALDOCASH00006103,12,ALDOCASH00006104,11,ALDOCASH00006105,7,ALDOCASH00006106,6,ALDOCASH00006107,10,ALDOCASH00006108,9.5,ALDOCASH00006109,9,ALDOCASH00006110;7999.00;;;<p>Wipe With Damp Cloth</p>;;;na;;zerotype;;Fall;;No
4319292;DELELLO98-Black-4319292;ABALENIA;Draft;Casual Shoes;ALDO;Adults-Men;Men;Black;;;Fashion;;2017;9,ALDOCASH00006092,8.5,ALDOCASH00006093,8,ALDOCASH00006094,7,ALDOCASH00006095,6.5,ALDOCASH00006096,12,ALDOCASH00006097,11,ALDOCASH00006098,10,ALDOCASH00006099,9.5,ALDOCASH00006100,6,ALDOCASH00006101;7999.00;;;<p>Wipe With Damp Cloth</p>;;;na;;zerotype;;Fall;;No
4319291;FRELACIA91-Black-4319291;ABALENIA;Draft;Casual Shoes;ALDO;Adults-Men;Men;Black;;;Fashion;;2017;10,ALDOCASH00006086,9,ALDOCASH00006087,8,ALDOCASH00006088,7,ALDOCASH00006089,6.5,ALDOCASH00006090,6,ALDOCASH00006091;10999.00;;;<p>Wipe With Damp Cloth</p>;;;na;;zerotype;;Fall;;No
4319290;KILLA28-Brown-4319290;ABALENIA;Draft;Casual Shoes;ALDO;Adults-Men;Men;Brown;;;Fashion;;2017;9.5,ALDOCASH00006076,9,ALDOCASH00006077,8.5,ALDOCASH00006078,8,ALDOCASH00006079,12,ALDOCASH00006080,11,ALDOCASH00006081,10,ALDOCASH00006082,7,ALDOCASH00006083,6.5,ALDOCASH00006084,6,ALDOCASH00006085;8999.00;;;<p>Wipe With Damp Cloth</p>;;;na;;zerotype;;Fall;;No
4319289;LOKELANI28-Brown-4319289;ABALENIA;Draft;Casual Shoes;ALDO;Adults-Men;Men;Brown;;;Fashion;;2017;8,ALDOCASH00006066,7,ALDOCASH00006067,6.5,ALDOCASH00006068,6,ALDOCASH00006069,12,ALDOCASH00006070,11,ALDOCASH00006071,10,ALDOCASH00006072,9.5,ALDOCASH00006073,9,ALDOCASH00006074,8.5,ALDOCASH00006075;8999.00;;;<p>Wipe With Damp Cloth</p>;;;na;;zerotype;;Fall;;No
4319288;NODIA27-Brown-4319288;ABALENIA;Draft;Casual Shoes;ALDO;Adults-Men;Men;Brown;;;Fashion;;2017;8,ALDOCASH00006059,7,ALDOCASH00006060,6,ALDOCASH00006061,12,ALDOCASH00006062,11,ALDOCASH00006063,10,ALDOCASH00006064,9,ALDOCASH00006065;10999.00;;;<p>Wipe With Damp Cloth</p>;;;na;;zerotype;;Fall;;No
4319287;BONVILLE97-Black-4319287;ABALENIA;Draft;Casual Shoes;ALDO;Adults-Men;Men;Black;;;Fashion;;2017;12,ALDOCASH00006052,11,ALDOCASH00006053,10,ALDOCASH00006054,9,ALDOCASH00006055,8,ALDOCASH00006056,7,ALDOCASH00006057,6,ALDOCASH00006058;11999.00;;;<p>Wipe With Damp Cloth</p>;;;na;;zerotype;;Fall;;No
4319284;NERRAWIA28-Brown-4319284;ABALENIA;Draft;Casual Shoes;ALDO;Adults-Men;Men;Brown;;;Fashion;;2017;11,ALDOCASH00006042,10,ALDOCASH00006043,9.5,ALDOCASH00006044,9,ALDOCASH00006045,6,ALDOCASH00006046,12,ALDOCASH00006047,8.5,ALDOCASH00006048,8,ALDOCASH00006049,7,ALDOCASH00006050,6.5,ALDOCASH00006051;6999.00;;;<p>Wipe With Damp Cloth</p>;;;na;;zerotype;;Fall;;No
2503060;AAUWEN-R5-Black-2503060;ABALENIA;Active;Casual Shoes;ALDO;Adults-Men;Men;Black;;;Fashion;Casual;2017;10,ALDOCASH00002519,7,ALDOCASH00002520,9,ALDOCASH00002521,6,ALDOCASH00002522,8,ALDOCASH00002523;6990.00;A pair of round-toe <a href='/black?src=pd' class='seolink'>black</a> <a href='/loafers?src=pd' class='seolink'>loafers</a>, has <a href='/regular?src=pd' class='seolink'>regular</a> styling, slip-on detail<br /><a href='/synthetic?src=pd' class='seolink'>Synthetic</a> upper<br />Cushioned foot-bed<br />Textured and patterned outsole;Show off your awesome sense of style with a pair of trendy ALDO casual shoes.  Style this black pair with dark denims and a graphic tee for a chill look for the weekend.;Synthetic <br> Wipe with a clean, dry cloth to remove dust;;;ALDO Men Black Loafers;ALDO,JIT,luxury-flash-sale,mens-ftw-fest;zerotype;;Fall;mens-ftw-fest;No
