Style ID;Vendor Article Number;Vendor Article Name;Active Status;Article type;Brand;Age Group;Gender;Base Colour;Colour1;Colour2;Fashion Type;Usage;Year;Size - SKU code pair;MRP;Style Description;Style Note;Materials and Care Description;Size and Fit Description;Size Chart Path;Product Display Name;Tags;Product Type;Classification Brand;Season;Comments;Upload Images
2591518;40-1744-20-38-Beige-2591518;40-1744;Draft;Heels;Metro;Adults-Women;Women;Beige;;;Fashion;;2018;40,MTROHeels00015717,37,MTROHeels00015718,36,MTROHeels00015719,41,MTROHeels00015720,39,MTROHeels00015721,38,MTROHeels00015722;1490.00;;;<p>Rotate Your Pair Of Shoes Once Every Other Day, Allowing Them To De-Odorize And Retain Their Shapes</p>;;;NA;;zerotype;;Summer;;No
2591517;40-1786-16-36-White-2591517;40-1786;Draft;Heels;Metro;Adults-Women;Women;White;Silver;;Fashion;;2018;41,MTROHeels00015711,40,MTROHeels00015712,39,MTROHeels00015713,38,MTROHeels00015714,37,MTROHeels00015715,36,MTROHeels00015716;1490.00;;;<p>Rotate Your Pair Of Shoes Once Every Other Day, Allowing Them To De-Odorize And Retain Their Shapes</p>;;;NA;;zerotype;;Summer;;No
2591516;35-2006-28-36-Gold-2591516;35-2006;Draft;Heels;Metro;Adults-Women;Women;Gold;;;Fashion;;2018;41,MTROHeels00015705,40,MTROHeels00015706,39,MTROHeels00015707,38,MTROHeels00015708,37,MTROHeels00015709,36,MTROHeels00015710;1290.00;;;<p>Rotate Your Pair Of Shoes Once Every Other Day, Allowing Them To De-Odorize And Retain Their Shapes</p>;;;NA;;zerotype;;Summer;;No
2591515;40-1786-80-40-Peach-2591515;40-1786;Draft;Heels;Metro;Adults-Women;Women;Peach;;;Fashion;;2018;41,MTROHeels00015699,39,MTROHeels00015700,38,MTROHeels00015701,37,MTROHeels00015702,36,MTROHeels00015703,40,MTROHeels00015704;1490.00;;;<p>Rotate Your Pair Of Shoes Once Every Other Day, Allowing Them To De-Odorize And Retain Their Shapes</p>;;;NA;;zerotype;;Summer;;No
2591514;35-2244-44-36-Maroon-2591514;35-2244;Draft;Heels;Metro;Adults-Women;Women;Maroon;;;Fashion;;2018;41,MTROHeels00015693,40,MTROHeels00015694,39,MTROHeels00015695,38,MTROHeels00015696,37,MTROHeels00015697,36,MTROHeels00015698;1990.00;;;<p>Rotate Your Pair Of Shoes Once Every Other Day, Allowing Them To De-Odorize And Retain Their Shapes</p>;;;NA;;zerotype;;Summer;;No
2591513;34-9261-16-36-White-2591513;34-9261;Draft;Heels;Metro;Adults-Women;Women;White;;;Fashion;;2018;37,MTROHeels00015688,40,MTROHeels00015689,39,MTROHeels00015690,38,MTROHeels00015691,36,MTROHeels00015692;1690.00;;;<p>Rotate Your Pair Of Shoes Once Every Other Day, Allowing Them To De-Odorize And Retain Their Shapes</p>;;;NA;;zerotype;;Summer;;No
2591512;35-2155-16-40-White-2591512;35-2155;Draft;Heels;Metro;Adults-Women;Women;White;;;Fashion;;2018;39,MTROHeels00015682,38,MTROHeels00015683,37,MTROHeels00015684,36,MTROHeels00015685,41,MTROHeels00015686,40,MTROHeels00015687;1690.00;;;<p>Rotate Your Pair Of Shoes Once Every Other Day, Allowing Them To De-Odorize And Retain Their Shapes</p>;;;Na;;zerotype;;Summer;;No
2591511;34-9261-20-39-Beige-2591511;34-9261;Draft;Heels;Metro;Adults-Women;Women;Beige;;;Fashion;;2018;38,MTROHeels00015676,37,MTROHeels00015677,36,MTROHeels00015678,41,MTROHeels00015679,40,MTROHeels00015680,39,MTROHeels00015681;1690.00;;;<p>Rotate Your Pair Of Shoes Once Every Other Day, Allowing Them To De-Odorize And Retain Their Shapes</p>;;;NA;;zerotype;;Summer;;No
2591510;35-1833-44-39-Maroon-2591510;35-1833;Draft;Heels;Metro;Adults-Women;Women;Maroon;;;Fashion;;2018;37,MTROHeels00015670,41,MTROHeels00015671,38,MTROHeels00015672,40,MTROHeels00015673,36,MTROHeels00015674,39,MTROHeels00015675;2390.00;;;<p>Rotate Your Pair Of Shoes Once Every Other Day, Allowing Them To De-Odorize And Retain Their Shapes</p>;;;Na;;zerotype;;Summer;;No
2591509;35-3141-29-39-Grey-2591509;35-3141;Draft;Heels;Metro;Adults-Women;Women;Grey;;;Fashion;;2018;41,MTROHeels00015664,40,MTROHeels00015665,36,MTROHeels00015666,37,MTROHeels00015667,38,MTROHeels00015668,39,MTROHeels00015669;1690.00;;;<p>Rotate Your Pair Of Shoes Once Every Other Day, Allowing Them To De-Odorize And Retain Their Shapes</p>;;;Na;;zerotype;;Summer;;No
2591508;40-1746-11-36-Black-2591508;40-1746;Draft;Heels;Metro;Adults-Women;Women;Black;;;Fashion;;2018;41,MTROHeels00015658,40,MTROHeels00015659,39,MTROHeels00015660,37,MTROHeels00015661,38,MTROHeels00015662,36,MTROHeels00015663;1890.00;;;<p>Rotate Your Pair Of Shoes Once Every Other Day, Allowing Them To De-Odorize And Retain Their Shapes</p>;;;Na;;zerotype;;Summer;;No
2591507;35-2717-11-40-Black-2591507;35-2717;Draft;Heels;Metro;Adults-Women;Women;Black;;;Fashion;;2018;38,MTROHeels00015652,39,MTROHeels00015653,41,MTROHeels00015654,37,MTROHeels00015655,36,MTROHeels00015656,40,MTROHeels00015657;1990.00;;;<p>Rotate Your Pair Of Shoes Once Every Other Day, Allowing Them To De-Odorize And Retain Their Shapes</p>;;;NA;;zerotype;;Summer;;No
2591506;34-9307-11-41-Black-2591506;34-9307;Draft;Heels;Metro;Adults-Women;Women;Black;;;Fashion;;2018;40,MTROHeels00015646,39,MTROHeels00015647,38,MTROHeels00015648,37,MTROHeels00015649,36,MTROHeels00015650,41,MTROHeels00015651;1890.00;;;<p>Rotate Your Pair Of Shoes Once Every Other Day, Allowing Them To De-Odorize And Retain Their Shapes</p>;;;Na;;zerotype;;Summer;;No
2591505;35-1593-27-36-Silver-2591505;35-1593;Draft;Heels;Metro;Adults-Women;Women;Silver;;;Fashion;;2018;41,MTROHeels00015640,40,MTROHeels00015641,39,MTROHeels00015642,38,MTROHeels00015643,37,MTROHeels00015644,36,MTROHeels00015645;1990.00;;;<p>Rotate Your Pair Of Shoes Once Every Other Day, Allowing Them To De-Odorize And Retain Their Shapes</p>;;;NA;;zerotype;;Summer;;No
2591504;35-3318-28-36-Gold-2591504;35-3318;Draft;Heels;Metro;Adults-Women;Women;Gold;;;Fashion;;2018;41,MTROHeels00015634,40,MTROHeels00015635,39,MTROHeels00015636,38,MTROHeels00015637,37,MTROHeels00015638,36,MTROHeels00015639;1990.00;;;<p>Rotate Your Pair Of Shoes Once Every Other Day, Allowing Them To De-Odorize And Retain Their Shapes</p>;;;NA;;zerotype;;Summer;;No
2591503;35-2244-27-37-Silver-2591503;35-2244;Draft;Heels;Metro;Adults-Women;Women;Silver;;;Fashion;;2018;36,MTROHeels00015628,41,MTROHeels00015629,40,MTROHeels00015630,39,MTROHeels00015631,38,MTROHeels00015632,37,MTROHeels00015633;1990.00;;;<p>Rotate Your Pair Of Shoes Once Every Other Day, Allowing Them To De-Odorize And Retain Their Shapes</p>;;;NA;;zerotype;;Summer;;No
2591502;40-1546-15-36-Gold-2591502;40-1546;Draft;Heels;Metro;Adults-Women;Women;Gold;;;Fashion;;2018;41,MTROHeels00015622,40,MTROHeels00015623,39,MTROHeels00015624,38,MTROHeels00015625,37,MTROHeels00015626,36,MTROHeels00015627;1390.00;;;<p>Rotate Your Pair Of Shoes Once Every Other Day, Allowing Them To De-Odorize And Retain Their Shapes</p>;;;NA;;zerotype;;Summer;;No
2591501;35-2304-80-36-Peach-2591501;35-2304;Draft;Heels;Metro;Adults-Women;Women;Peach;;;Fashion;;2018;41,MTROHeels00015616,40,MTROHeels00015617,39,MTROHeels00015618,38,MTROHeels00015619,37,MTROHeels00015620,36,MTROHeels00015621;1290.00;;;<p>Rotate Your Pair Of Shoes Once Every Other Day, Allowing Them To De-Odorize And Retain Their Shapes</p>;;;NA;;zerotype;;Summer;;No
2591500;34-9257-20-37-Beige-2591500;34-9257;Draft;Heels;Metro;Adults-Women;Women;Beige;;;Fashion;;2018;39,MTROHeels00015610,41,MTROHeels00015611,38,MTROHeels00015612,40,MTROHeels00015613,36,MTROHeels00015614,37,MTROHeels00015615;1690.00;;;<p>Rotate Your Pair Of Shoes Once Every Other Day, Allowing Them To De-Odorize And Retain Their Shapes</p>;;;NA;;zerotype;;Summer;;No
2591499;34-9046-80-40-Peach-2591499;34-9046;Draft;Heels;Metro;Adults-Women;Women;Pink;;;Fashion;;2018;36,MTROHeels00015604,39,MTROHeels00015605,38,MTROHeels00015606,41,MTROHeels00015607,37,MTROHeels00015608,40,MTROHeels00015609;1490.00;;;<p>Rotate Your Pair Of Shoes Once Every Other Day, Allowing Them To De-Odorize And Retain Their Shapes</p>;;;NA;;zerotype;;Summer;;No
2591498;34-9262-16-36-White-2591498;34-9262;Draft;Heels;Metro;Adults-Women;Women;White;;;Fashion;;2018;38,MTROHeels00015598,39,MTROHeels00015599,37,MTROHeels00015600,41,MTROHeels00015601,40,MTROHeels00015602,36,MTROHeels00015603;1890.00;;;<p>Rotate Your Pair Of Shoes Once Every Other Day, Allowing Them To De-Odorize And Retain Their Shapes</p>;;;NA;;zerotype;;Summer;;No
2591495;40-1314-53-37-Multi-2591495;40-1314;Draft;Heels;Metro;Adults-Women;Women;Gold;;;Fashion;;2018;36,MTROHeels00015592,41,MTROHeels00015593,40,MTROHeels00015594,39,MTROHeels00015595,38,MTROHeels00015596,37,MTROHeels00015597;1290.00;;;<p>Rotate Your Pair Of Shoes Once Every Other Day, Allowing Them To De-Odorize And Retain Their Shapes</p>;;;NA;;zerotype;;Summer;;No
2591491;35-1833-76-38-Multi-2591491;35-1833;Draft;Heels;Metro;Adults-Women;Women;White;Multi;;Fashion;;2018;36,MTROHeels00015586,37,MTROHeels00015587,41,MTROHeels00015588,40,MTROHeels00015589,39,MTROHeels00015590,38,MTROHeels00015591;2390.00;;;<p>Rotate Your Pair Of Shoes Once Every Other Day, Allowing Them To De-Odorize And Retain Their Shapes</p>;;;NA;;zerotype;;Summer;;No
2591487;35-2714-46-36-Bronze-2591487;35-2714;Draft;Heels;Metro;Adults-Women;Women;Silver;Bronze;;Fashion;;2018;41,MTROHeels00015580,40,MTROHeels00015581,39,MTROHeels00015582,38,MTROHeels00015583,37,MTROHeels00015584,36,MTROHeels00015585;2890.00;;;<p>Rotate Your Pair Of Shoes Once Every Other Day, Allowing Them To De-Odorize And Retain Their Shapes</p>;;;NA;;zerotype;;Summer;;No
2591482;34-9261-11-41-Black-2591482;34-9261;Draft;Heels;Metro;Adults-Women;Women;Black;;;Fashion;;2018;37,MTROHeels00015574,36,MTROHeels00015575,40,MTROHeels00015576,39,MTROHeels00015577,38,MTROHeels00015578,41,MTROHeels00015579;1690.00;;;<p>Rotate Your Pair Of Shoes Once Every Other Day, Allowing Them To De-Odorize And Retain Their Shapes</p>;;;NA;;zerotype;;Summer;;No
2591479;40-1744-15-36-Gold-2591479;40-1744;Draft;Heels;Metro;Adults-Women;Women;Gold;;;Fashion;;2018;41,MTROHeels00015569,39,MTROHeels00015570,38,MTROHeels00015571,37,MTROHeels00015572,36,MTROHeels00015573;1490.00;;;<p>Rotate Your Pair Of Shoes Once Every Other Day, Allowing Them To De-Odorize And Retain Their Shapes</p>;;;NA;;zerotype;;Summer;;No
2591475;35-2155-22-40-Gold-2591475;35-2155;Draft;Heels;Metro;Adults-Women;Women;Gold;;;Fashion;;2018;37,MTROHeels00015563,41,MTROHeels00015564,38,MTROHeels00015565,36,MTROHeels00015566,39,MTROHeels00015567,40,MTROHeels00015568;1690.00;;;<p>Rotate Your Pair Of Shoes Once Every Other Day, Allowing Them To De-Odorize And Retain Their Shapes</p>;;;NA;;zerotype;;Summer;;No
2591473;35-3155-13-38-Multi-2591473;35-3155;Draft;Heels;Metro;Adults-Women;Women;Multi;;;Fashion;;2018;41,MTROHeels00015557,39,MTROHeels00015558,37,MTROHeels00015559,36,MTROHeels00015560,40,MTROHeels00015561,38,MTROHeels00015562;1890.00;;;<p>Rotate Your Pair Of Shoes Once Every Other Day, Allowing Them To De-Odorize And Retain Their Shapes</p>;;;NA;;zerotype;;Summer;;No
2591472;34-9371-11-36-Black-2591472;34-9371;Draft;Heels;Metro;Adults-Women;Women;Black;Blue;;Fashion;;2018;41,MTROHeels00015551,40,MTROHeels00015552,39,MTROHeels00015553,38,MTROHeels00015554,37,MTROHeels00015555,36,MTROHeels00015556;1890.00;;;<p>Rotate Your Pair Of Shoes Once Every Other Day, Allowing Them To De-Odorize And Retain Their Shapes</p>;;;NA;;zerotype;;Summer;;No
2591470;35-2736-28-38-Gold-2591470;35-2736;Draft;Heels;Metro;Adults-Women;Women;Gold;;;Fashion;;2018;37,MTROHeels00015545,36,MTROHeels00015546,41,MTROHeels00015547,40,MTROHeels00015548,39,MTROHeels00015549,38,MTROHeels00015550;1990.00;;;<p>Rotate Your Pair Of Shoes Once Every Other Day, Allowing Them To De-Odorize And Retain Their Shapes</p>;;;NA;;zerotype;;Summer;;No
2591468;34-9371-20-40-Beige-2591468;34-9371;Draft;Heels;Metro;Adults-Women;Women;Beige;;;Fashion;;2018;39,MTROHeels00015539,38,MTROHeels00015540,37,MTROHeels00015541,36,MTROHeels00015542,41,MTROHeels00015543,40,MTROHeels00015544;1890.00;;;<p>Rotate Your Pair Of Shoes Once Every Other Day, Allowing Them To De-Odorize And Retain Their Shapes</p>;;;NA;;zerotype;;Summer;;No
2591466;34-9257-22-41-Gold-2591466;34-9257;Draft;Heels;Metro;Adults-Women;Women;Gold;;;Fashion;;2018;37,MTROHeels00015533,36,MTROHeels00015534,40,MTROHeels00015535,39,MTROHeels00015536,38,MTROHeels00015537,41,MTROHeels00015538;1690.00;;;<p>Rotate Your Pair Of Shoes Once Every Other Day, Allowing Them To De-Odorize And Retain Their Shapes</p>;;;NA;;zerotype;;Summer;;No
2591464;35-2006-27-36-Silver-2591464;35-2006;Draft;Heels;Metro;Adults-Women;Women;Silver;;;Fashion;;2018;41,MTROHeels00015527,40,MTROHeels00015528,39,MTROHeels00015529,38,MTROHeels00015530,37,MTROHeels00015531,36,MTROHeels00015532;1290.00;;;<p>Rotate Your Pair Of Shoes Once Every Other Day, Allowing Them To De-Odorize And Retain Their Shapes</p>;;;NA;;zerotype;;Summer;;No
2591462;35-3318-11-36-Black-2591462;35-3318;Draft;Heels;Metro;Adults-Women;Women;Black;;;Fashion;;2018;37,MTROHeels00015521,41,MTROHeels00015522,40,MTROHeels00015523,39,MTROHeels00015524,38,MTROHeels00015525,36,MTROHeels00015526;1990.00;;;<p>Rotate Your Pair Of Shoes Once Every Other Day, Allowing Them To De-Odorize And Retain Their Shapes</p>;;;NA;;zerotype;;Summer;;No
2591461;35-2717-28-38-Gold-2591461;35-2717;Draft;Heels;Metro;Adults-Women;Women;Beige;Gold;;Fashion;;2018;37,MTROHeels00015515,36,MTROHeels00015516,41,MTROHeels00015517,40,MTROHeels00015518,39,MTROHeels00015519,38,MTROHeels00015520;1990.00;;;<p>Rotate Your Pair Of Shoes Once Every Other Day, Allowing Them To De-Odorize And Retain Their Shapes</p>;;;Na;;zerotype;;Summer;;No
2591460;40-1814-11-36-Black-2591460;40-1814;Draft;Heels;Metro;Adults-Women;Women;Black;;;Fashion;;2018;41,MTROHeels00015509,39,MTROHeels00015510,37,MTROHeels00015511,40,MTROHeels00015512,38,MTROHeels00015513,36,MTROHeels00015514;2990.00;;;<p>Rotate Your Pair Of Shoes Once Every Other Day, Allowing Them To De-Odorize And Retain Their Shapes</p>;;;NA;;zerotype;;Summer;;No
2591459;34-9261-80-40-Peach-2591459;34-9261;Draft;Heels;Metro;Adults-Women;Women;Peach;;;Fashion;;2018;39,MTROHeels00015503,41,MTROHeels00015504,38,MTROHeels00015505,37,MTROHeels00015506,36,MTROHeels00015507,40,MTROHeels00015508;1690.00;;;<p>Rotate Your Pair Of Shoes Once Every Other Day, Allowing Them To De-Odorize And Retain Their Shapes</p>;;;NA;;zerotype;;Summer;;No
2591458;35-3141-28-36-Gold-2591458;35-3141;Draft;Heels;Metro;Adults-Women;Women;Gold;;;Fashion;;2018;41,MTROHeels00015497,40,MTROHeels00015498,39,MTROHeels00015499,38,MTROHeels00015500,37,MTROHeels00015501,36,MTROHeels00015502;1690.00;;;<p>Rotate Your Pair Of Shoes Once Every Other Day, Allowing Them To De-Odorize And Retain Their Shapes</p>;;;NA;;zerotype;;Summer;;No
2591457;40-1314-18-36-Red-2591457;40-1314;Draft;Heels;Metro;Adults-Women;Women;Red;;;Fashion;;2018;41,MTROHeels00015491,40,MTROHeels00015492,39,MTROHeels00015493,38,MTROHeels00015494,37,MTROHeels00015495,36,MTROHeels00015496;1290.00;;;<p>Rotate Your Pair Of Shoes Once Every Other Day, Allowing Them To De-Odorize And Retain Their Shapes</p>;;;NA;;zerotype;;Summer;;No
2591455;40-1746-20-36-Beige-2591455;40-1746;Draft;Heels;Metro;Adults-Women;Women;Beige;;;Fashion;;2018;41,MTROHeels00015485,40,MTROHeels00015486,39,MTROHeels00015487,38,MTROHeels00015488,37,MTROHeels00015489,36,MTROHeels00015490;1890.00;;;<p>Rotate Your Pair Of Shoes Once Every Other Day, Allowing Them To De-Odorize And Retain Their Shapes</p>;;;NA;;zerotype;;Summer;;No
2591453;34-9257-18-38-Red-2591453;34-9257;Draft;Heels;Metro;Adults-Women;Women;Red;;;Fashion;;2018;37,MTROHeels00015479,40,MTROHeels00015480,39,MTROHeels00015481,36,MTROHeels00015482,41,MTROHeels00015483,38,MTROHeels00015484;1690.00;;;<p>Rotate Your Pair Of Shoes Once Every Other Day, Allowing Them To De-Odorize And Retain Their Shapes</p>;;;Na;;zerotype;;Summer;;No
2591451;40-1746-18-38-Red-2591451;40-1746;Draft;Heels;Metro;Adults-Women;Women;Red;;;Fashion;;2018;37,MTROHeels00015473,36,MTROHeels00015474,41,MTROHeels00015475,40,MTROHeels00015476,39,MTROHeels00015477,38,MTROHeels00015478;1890.00;;;<p>Rotate Your Pair Of Shoes Once Every Other Day, Allowing Them To De-Odorize And Retain Their Shapes</p>;;;NA;;zerotype;;Summer;;No
2591449;40-1814-15-37-Gold-2591449;40-1814;Draft;Heels;Metro;Adults-Women;Women;Gold;;;Fashion;;2018;41,MTROHeels00015467,40,MTROHeels00015468,39,MTROHeels00015469,38,MTROHeels00015470,36,MTROHeels00015471,37,MTROHeels00015472;2990.00;;;<p>Rotate Your Pair Of Shoes Once Every Other Day, Allowing Them To De-Odorize And Retain Their Shapes</p>;;;NA;;zerotype;;Summer;;No
2591448;35-2714-15-36-Gold-2591448;35-2714;Draft;Heels;Metro;Adults-Women;Women;Gold;;;Fashion;;2018;41,MTROHeels00015461,40,MTROHeels00015462,39,MTROHeels00015463,38,MTROHeels00015464,37,MTROHeels00015465,36,MTROHeels00015466;2890.00;;;<p>Rotate Your Pair Of Shoes Once Every Other Day, Allowing Them To De-Odorize And Retain Their Shapes</p>;;;Na;;zerotype;;Summer;;No
2591447;40-1691-16-40-White-2591447;40-1691;Draft;Heels;Metro;Adults-Women;Women;White;;;Fashion;;2018;36,MTROHeels00015456,39,MTROHeels00015457,38,MTROHeels00015458,37,MTROHeels00015459,40,MTROHeels00015460;1290.00;;;<p>Rotate Your Pair Of Shoes Once Every Other Day, Allowing Them To De-Odorize And Retain Their Shapes</p>;;;NA;;zerotype;;Summer;;No
2591446;31-8088-17-41-Blue-Navy-2591446;31-8088;Draft;Casual Shoes;Metro;Adults-Women;Women;Blue;;;Fashion;;2018;36,MTROCASH00001990,37,MTROCASH00001991,38,MTROCASH00001992,39,MTROCASH00001993,40,MTROCASH00001994,41,MTROCASH00001995;1990.00;;;<p>Rotate Your Pair Of Shoes Once Every Other Day, Allowing Them To De-Odorize And Retain Their Shapes</p>;;;Na;;zerotype;;Summer;;No
2591445;31-8093-11-37-Black-2591445;31-8093;Draft;Casual Shoes;Metro;Adults-Women;Women;Black;;;Fashion;;2018;38,MTROCASH00001984,36,MTROCASH00001985,41,MTROCASH00001986,39,MTROCASH00001987,40,MTROCASH00001988,37,MTROCASH00001989;1990.00;;;<p>Rotate Your Pair Of Shoes Once Every Other Day, Allowing Them To De-Odorize And Retain Their Shapes</p>;;;NA;;zerotype;;Summer;;No
2591444;36-7850-29-39-Gun-Metal-2591444;36-7850;Draft;Casual Shoes;Metro;Adults-Women;Women;Metallic;Grey;;Fashion;;2018;37,MTROCASH00001978,40,MTROCASH00001979,36,MTROCASH00001980,38,MTROCASH00001981,41,MTROCASH00001982,39,MTROCASH00001983;1690.00;;;<p>Rotate Your Pair Of Shoes Once Every Other Day, Allowing Them To De-Odorize And Retain Their Shapes</p>;;;Na;;zerotype;;Summer;;No
2591443;36-7850-21-38-Green-2591443;36-7850;Draft;Casual Shoes;Metro;Adults-Women;Women;Green;;;Fashion;;2018;41,MTROCASH00001972,36,MTROCASH00001973,37,MTROCASH00001974,40,MTROCASH00001975,39,MTROCASH00001976,38,MTROCASH00001977;1690.00;;;<p>Rotate Your Pair Of Shoes Once Every Other Day, Allowing Them To De-Odorize And Retain Their Shapes</p>;;;na;;zerotype;;Summer;;No
2591442;31-8093-18-41-Red-2591442;31-8093;Draft;Casual Shoes;Metro;Adults-Women;Women;Red;;;Fashion;;2018;36,MTROCASH00001966,40,MTROCASH00001967,37,MTROCASH00001968,39,MTROCASH00001969,38,MTROCASH00001970,41,MTROCASH00001971;1990.00;;;<p>Rotate Your Pair Of Shoes Once Every Other Day, Allowing Them To De-Odorize And Retain Their Shapes</p>;;;Na;;zerotype;;Summer;;No
2591441;36-7186-14-40-Grey-2591441;36-7186;Draft;Casual Shoes;Metro;Adults-Women;Women;Grey;;;Fashion;;2018;39,MTROCASH00001960,38,MTROCASH00001961,36,MTROCASH00001962,41,MTROCASH00001963,37,MTROCASH00001964,40,MTROCASH00001965;1690.00;;;<p>Rotate Your Pair Of Shoes Once Every Other Day, Allowing Them To De-Odorize And Retain Their Shapes</p>;;;NA;;zerotype;;Summer;;No
2591440;31-8088-23-41-Tan-2591440;31-8088;Draft;Casual Shoes;Metro;Adults-Women;Women;Tan;;;Fashion;;2018;36,MTROCASH00001954,38,MTROCASH00001955,39,MTROCASH00001956,40,MTROCASH00001957,37,MTROCASH00001958,41,MTROCASH00001959;1990.00;;;<p>Rotate Your Pair Of Shoes Once Every Other Day, Allowing Them To De-Odorize And Retain Their Shapes</p>;;;Na;;zerotype;;Summer;;No
2591439;36-7850-45-40-Blue-2591439;36-7850;Draft;Casual Shoes;Metro;Adults-Women;Women;Blue;;;Fashion;;2018;39,MTROCASH00001948,38,MTROCASH00001949,36,MTROCASH00001950,37,MTROCASH00001951,41,MTROCASH00001952,40,MTROCASH00001953;1690.00;;;<p>Rotate Your Pair Of Shoes Once Every Other Day, Allowing Them To De-Odorize And Retain Their Shapes</p>;;;NA;;zerotype;;Summer;;No
2591438;36-8401-45-38-Blue-2591438;36-8401;Draft;Casual Shoes;Metro;Adults-Women;Women;Blue;;;Fashion;;2018;41,MTROCASH00001942,37,MTROCASH00001943,36,MTROCASH00001944,40,MTROCASH00001945,39,MTROCASH00001946,38,MTROCASH00001947;1890.00;;;<p>Rotate Your Pair Of Shoes Once Every Other Day, Allowing Them To De-Odorize And Retain Their Shapes</p>;;;Na;;zerotype;;Summer;;No
2591437;31-8093-23-36-Tan-2591437;31-8093;Draft;Casual Shoes;Metro;Adults-Women;Women;Tan;;;Fashion;;2018;40,MTROCASH00001936,38,MTROCASH00001937,39,MTROCASH00001938,37,MTROCASH00001939,41,MTROCASH00001940,36,MTROCASH00001941;1990.00;;;<p>Rotate Your Pair Of Shoes Once Every Other Day, Allowing Them To De-Odorize And Retain Their Shapes</p>;;;NA;;zerotype;;Summer;;No
2591436;36-7960-24-39-Pink-2591436;36-7960;Draft;Casual Shoes;Metro;Adults-Women;Women;White;Pink;Red;Fashion;;2018;38,MTROCASH00001930,37,MTROCASH00001931,41,MTROCASH00001932,36,MTROCASH00001933,40,MTROCASH00001934,39,MTROCASH00001935;1690.00;;;<p>Rotate Your Pair Of Shoes Once Every Other Day, Allowing Them To De-Odorize And Retain Their Shapes</p>;;;NA;;zerotype;;Summer;;No
2591435;36-8407-16-39-White-2591435;36-8407;Draft;Casual Shoes;Metro;Adults-Women;Women;White;;;Fashion;;2018;36,MTROCASH00001924,40,MTROCASH00001925,41,MTROCASH00001926,38,MTROCASH00001927,37,MTROCASH00001928,39,MTROCASH00001929;2490.00;;;<p>Rotate Your Pair Of Shoes Once Every Other Day, Allowing Them To De-Odorize And Retain Their Shapes</p>;;;Na;;zerotype;;Summer;;No
2591434;35-2265-22-41-Multi-2591434;35-2265-22-37;Draft;Flats;Metro;Adults-Women;Women;Multi;;;Fashion;;2018;37,MTROFlats00011446,38,MTROFlats00011447,36,MTROFlats00011448,40,MTROFlats00011449,39,MTROFlats00011450,41,MTROFlats00011451;1990.00;;;<p>Rotate Your Pair Of Shoes Once Every Other Day, Allowing Them To De-Odorize And Retain Their Shapes</p>;;;Na;;zerotype;;Summer;;No
2591433;31-8097-11-40-Black-2591433;31-8097-11-39;Draft;Flats;Metro;Adults-Women;Women;Black;;;Fashion;;2018;39,MTROFlats00011440,38,MTROFlats00011441,37,MTROFlats00011442,36,MTROFlats00011443,41,MTROFlats00011444,40,MTROFlats00011445;1990.00;;;<p>Rotate Your Pair Of Shoes Once Every Other Day, Allowing Them To De-Odorize And Retain Their Shapes</p>;;;NA;;zerotype;;Summer;;No
2591432;35-2610-45-37-Blue-2591432;35-2610-45-41;Draft;Flats;Metro;Adults-Women;Women;Blue;;;Fashion;;2018;41,MTROFlats00011434,39,MTROFlats00011435,38,MTROFlats00011436,40,MTROFlats00011437,36,MTROFlats00011438,37,MTROFlats00011439;1490.00;;;<p>Rotate Your Pair Of Shoes Once Every Other Day, Allowing Them To De-Odorize And Retain Their Shapes</p>;;;NA;;zerotype;;Summer;;No
2591431;31-8098-11-38-Black-2591431;31-8098-11-37;Draft;Flats;Metro;Adults-Women;Women;Black;;;Fashion;;2018;37,MTROFlats00011428,41,MTROFlats00011429,40,MTROFlats00011430,39,MTROFlats00011431,36,MTROFlats00011432,38,MTROFlats00011433;1890.00;;;<p>Rotate Your Pair Of Shoes Once Every Other Day, Allowing Them To De-Odorize And Retain Their Shapes</p>;;;NA;;zerotype;;Summer;;No
2591430;31-8101-23-38-Tan-2591430;31-8101-23-37;Draft;Flats;Metro;Adults-Women;Women;Tan;;;Fashion;;2018;37,MTROFlats00011422,36,MTROFlats00011423,41,MTROFlats00011424,40,MTROFlats00011425,39,MTROFlats00011426,38,MTROFlats00011427;2290.00;;;<p>Rotate Your Pair Of Shoes Once Every Other Day, Allowing Them To De-Odorize And Retain Their Shapes</p>;;;NA;;zerotype;;Summer;;No
2591429;31-8098-22-36-Chikoo-2591429;31-8098-22-39;Draft;Flats;Metro;Adults-Women;Women;Gold;;;Fashion;;2018;39,MTROFlats00011416,38,MTROFlats00011417,37,MTROFlats00011418,41,MTROFlats00011419,40,MTROFlats00011420,36,MTROFlats00011421;1890.00;;;<p>Rotate Your Pair Of Shoes Once Every Other Day, Allowing Them To De-Odorize And Retain Their Shapes</p>;;;NA;;zerotype;;Summer;;No
2591428;31-8101-45-36-Blue-2591428;31-8101-45-39;Draft;Flats;Metro;Adults-Women;Women;Blue;;;Fashion;;2018;39,MTROFlats00011410,38,MTROFlats00011411,41,MTROFlats00011412,37,MTROFlats00011413,40,MTROFlats00011414,36,MTROFlats00011415;2290.00;;;<p>Rotate Your Pair Of Shoes Once Every Other Day, Allowing Them To De-Odorize And Retain Their Shapes</p>;;;Na;;zerotype;;Summer;;No
