Style ID;Vendor Article Number;Vendor Article Name;Active Status;Article type;Brand;Age Group;Gender;Base Colour;Colour1;Colour2;Fashion Type;Usage;Year;Size - SKU code pair;MRP;Style Description;Style Note;Materials and Care Description;Size and Fit Description;Size Chart Path;Product Display Name;Tags;Product Type;Classification Brand;Season;Comments;Upload Images
1864793;HYPW01352-XXL-Multicolor-1864793;Hypernation Multicolor Stripe Round Neck;Draft;Tshirts;Hypernation;Adults-Women;Women;;;;Core;;2017;S,HPNTTSHT00003538,M,HPNTTSHT00003539,L,HPNTTSHT00003540,XL,HPNTTSHT00003541,XXL,HPNTTSHT00003542;985.00;;;;;;;;zerotype;;Spring;;No
1864792;HYPW01343-XXL-Multicolor-1864792;Hypernation Multicolor Stripe Round Neck;Draft;Tshirts;Hypernation;Adults-Women;Women;;;;Core;;2017;S,HPNTTSHT00003533,M,HPNTTSHT00003534,L,HPNTTSHT00003535,XL,HPNTTSHT00003536,XXL,HPNTTSHT00003537;985.00;;;;;;;;zerotype;;Spring;;No
1864791;HYPW01462-XXL-Off White-1864791;Hypernation Off White Color With Black E;Draft;Tshirts;Hypernation;Adults-Women;Women;;;;Core;;2017;S,HPNTTSHT00003528,M,HPNTTSHT00003529,L,HPNTTSHT00003530,XL,HPNTTSHT00003531,XXL,HPNTTSHT00003532;985.00;;;;;;;;zerotype;;Spring;;No
1864790;HYPW01461-XXL-Black-1864790;Hypernation Black Color With Off White E;Draft;Tshirts;Hypernation;Adults-Women;Women;;;;Core;;2017;S,HPNTTSHT00003523,M,HPNTTSHT00003524,L,HPNTTSHT00003525,XL,HPNTTSHT00003526,XXL,HPNTTSHT00003527;985.00;;;;;;;;zerotype;;Spring;;No
1864789;HYPW01460-XXL-Navy Blue-1864789;Hypernation Navy Blue Color With Off Whi;Draft;Tshirts;Hypernation;Adults-Women;Women;;;;Core;;2017;S,HPNTTSHT00003518,M,HPNTTSHT00003519,L,HPNTTSHT00003520,XL,HPNTTSHT00003521,XXL,HPNTTSHT00003522;985.00;;;;;;;;zerotype;;Spring;;No
1864788;HYPW01459-XXL-Green-1864788;Hypernation Green Color With Off White E;Draft;Tshirts;Hypernation;Adults-Women;Women;;;;Core;;2017;S,HPNTTSHT00003513,M,HPNTTSHT00003514,L,HPNTTSHT00003515,XL,HPNTTSHT00003516,XXL,HPNTTSHT00003517;985.00;;;;;;;;zerotype;;Spring;;No
1864787;HYPW01458-XXL-Royal Blue-1864787;Hypernation Royal Blue Color With Off Wh;Draft;Tshirts;Hypernation;Adults-Women;Women;;;;Core;;2017;S,HPNTTSHT00003508,M,HPNTTSHT00003509,L,HPNTTSHT00003510,XL,HPNTTSHT00003511,XXL,HPNTTSHT00003512;985.00;;;;;;;;zerotype;;Spring;;No
1864786;HYPW01457-XXL-Maroon-1864786;Hypernation Maroon Color With Pink Embro;Draft;Tshirts;Hypernation;Adults-Women;Women;;;;Core;;2017;S,HPNTTSHT00003503,M,HPNTTSHT00003504,L,HPNTTSHT00003505,XL,HPNTTSHT00003506,XXL,HPNTTSHT00003507;985.00;;;;;;;;zerotype;;Spring;;No
1864785;HYPW01456-XXL-Royal Blue-1864785;Hypernation Royal Blue Color With Off Wh;Draft;Tshirts;Hypernation;Adults-Women;Women;;;;Core;;2017;S,HPNTTSHT00003498,M,HPNTTSHT00003499,L,HPNTTSHT00003500,XL,HPNTTSHT00003501,XXL,HPNTTSHT00003502;985.00;;;;;;;;zerotype;;Spring;;No
1864784;HYPW01455-XXL-Maroon-1864784;Hypernation Maroon Color With Off White;Draft;Tshirts;Hypernation;Adults-Women;Women;;;;Core;;2017;S,HPNTTSHT00003493,M,HPNTTSHT00003494,L,HPNTTSHT00003495,XL,HPNTTSHT00003496,XXL,HPNTTSHT00003497;985.00;;;;;;;;zerotype;;Spring;;No
1864783;HYPW01454-XXL-Green-1864783;Hypernation Green Color With Off White E;Draft;Tshirts;Hypernation;Adults-Women;Women;;;;Core;;2017;S,HPNTTSHT00003488,M,HPNTTSHT00003489,L,HPNTTSHT00003490,XL,HPNTTSHT00003491,XXL,HPNTTSHT00003492;985.00;;;;;;;;zerotype;;Spring;;No
1864782;HYPW01453-XXL-Navy Blue-1864782;Hypernation Navy Blue and Off White Embr;Draft;Tshirts;Hypernation;Adults-Women;Women;;;;Core;;2017;S,HPNTTSHT00003483,M,HPNTTSHT00003484,L,HPNTTSHT00003485,XL,HPNTTSHT00003486,XXL,HPNTTSHT00003487;985.00;;;;;;;;zerotype;;Spring;;No
1864781;HYPW01452-XXL-Black-1864781;Hypernation Black and Off White Embroide;Draft;Tshirts;Hypernation;Adults-Women;Women;;;;Core;;2017;S,HPNTTSHT00003478,M,HPNTTSHT00003479,L,HPNTTSHT00003480,XL,HPNTTSHT00003481,XXL,HPNTTSHT00003482;985.00;;;;;;;;zerotype;;Spring;;No
1864780;HYPW01451-XXL-Off White-1864780;Hypernation Off White With Black Embroid;Draft;Tshirts;Hypernation;Adults-Women;Women;;;;Core;;2017;S,HPNTTSHT00003473,M,HPNTTSHT00003474,L,HPNTTSHT00003475,XL,HPNTTSHT00003476,XXL,HPNTTSHT00003477;985.00;;;;;;;;zerotype;;Spring;;No
1864779;HYPW01450-XXL-Green-1864779;Hypernation Green Color With Off White E;Draft;Tshirts;Hypernation;Adults-Women;Women;;;;Core;;2017;S,HPNTTSHT00003468,M,HPNTTSHT00003469,L,HPNTTSHT00003470,XL,HPNTTSHT00003471,XXL,HPNTTSHT00003472;985.00;;;;;;;;zerotype;;Spring;;No
1864778;HYPW01449-XXL-Royal Blue-1864778;Hypernation Royal Blue Color With Off Wh;Draft;Tshirts;Hypernation;Adults-Women;Women;;;;Core;;2017;S,HPNTTSHT00003463,M,HPNTTSHT00003464,L,HPNTTSHT00003465,XL,HPNTTSHT00003466,XXL,HPNTTSHT00003467;985.00;;;;;;;;zerotype;;Spring;;No
1864777;HYPW01448-XXL-Black-1864777;Hypernation Black Color With Off White E;Draft;Tshirts;Hypernation;Adults-Women;Women;;;;Core;;2017;S,HPNTTSHT00003458,M,HPNTTSHT00003459,L,HPNTTSHT00003460,XL,HPNTTSHT00003461,XXL,HPNTTSHT00003462;985.00;;;;;;;;zerotype;;Spring;;No
1864776;HYPW01447-XXL-Navy Blue-1864776;Hypernation Navy Blue Color With Off Whi;Draft;Tshirts;Hypernation;Adults-Women;Women;;;;Core;;2017;S,HPNTTSHT00003453,M,HPNTTSHT00003454,L,HPNTTSHT00003455,XL,HPNTTSHT00003456,XXL,HPNTTSHT00003457;985.00;;;;;;;;zerotype;;Spring;;No
1864775;HYPW01446-XXL-Maroon-1864775;Hypernation Maroon Color With Off White;Draft;Tshirts;Hypernation;Adults-Women;Women;;;;Core;;2017;S,HPNTTSHT00003448,M,HPNTTSHT00003449,L,HPNTTSHT00003450,XL,HPNTTSHT00003451,XXL,HPNTTSHT00003452;985.00;;;;;;;;zerotype;;Spring;;No
1864774;HYPW01445-XXL-Off White-1864774;Hypernation Off White Color With Black E;Draft;Tshirts;Hypernation;Adults-Women;Women;;;;Core;;2017;S,HPNTTSHT00003443,M,HPNTTSHT00003444,L,HPNTTSHT00003445,XL,HPNTTSHT00003446,XXL,HPNTTSHT00003447;985.00;;;;;;;;zerotype;;Spring;;No
1864773;HYPW01439-XXL-Rust-1864773;Hypernation Rust Color High Neck Cotton;Draft;Tshirts;Hypernation;Adults-Women;Women;;;;Core;;2017;S,HPNTTSHT00003438,M,HPNTTSHT00003439,L,HPNTTSHT00003440,XL,HPNTTSHT00003441,XXL,HPNTTSHT00003442;985.00;;;;;;;;zerotype;;Spring;;No
