Style ID;Vendor Article Number;Vendor Article Name;Active Status;Article type;Brand;Age Group;Gender;Base Colour;Colour1;Colour2;Fashion Type;Usage;Year;Size - SKU code pair;MRP;Style Description;Style Note;Materials and Care Description;Size and Fit Description;Size Chart Path;Product Display Name;Tags;Product Type;Classification Brand;Season;Comments;Upload Images
1903338;TW91201YIIL-2PC-ORG-40B-Yellow Orange-1903338;Tweens Demi-Cup Yellow,Orange Padded T-Shirt;Draft;Bra;Tweens;Adults-Women;Women;;;;Core;Casual;2017;28B,TWNSBRAA00023335,30B,TWNSBRAA00023336,30C,TWNSBRAA00023337,30D,TWNSBRAA00023338,32A,TWNSBRAA00023339,32B,TWNSBRAA00023340,32C,TWNSBRAA00023341,32D,TWNSBRAA00023342,34A,TWNSBRAA00023343,34B,TWNSBRAA00023344,34C,TWNSBRAA00023345,34D,TWNSBRAA00023346,36A,TWNSBRAA00023347,36B,TWNSBRAA00023348,36C,TWNSBRAA00023349,36D,TWNSBRAA00023350,38B,TWNSBRAA00023351,38C,TWNSBRAA00023352,40B,TWNSBRAA00023353;590.00;;;;;;;;zerotype;;Summer;;No
1903337;TW91201YIIL-2PC-GIIR-40B-Yellow Green-1903337;Tweens Demi-Cup Yellow,Green Padded T-Shirt B;Draft;Bra;Tweens;Adults-Women;Women;;;;Core;Casual;2017;28B,TWNSBRAA00023316,30B,TWNSBRAA00023317,30C,TWNSBRAA00023318,30D,TWNSBRAA00023319,32A,TWNSBRAA00023320,32B,TWNSBRAA00023321,32C,TWNSBRAA00023322,32D,TWNSBRAA00023323,34A,TWNSBRAA00023324,34B,TWNSBRAA00023325,34C,TWNSBRAA00023326,34D,TWNSBRAA00023327,36A,TWNSBRAA00023328,36B,TWNSBRAA00023329,36C,TWNSBRAA00023330,36D,TWNSBRAA00023331,38B,TWNSBRAA00023332,38C,TWNSBRAA00023333,40B,TWNSBRAA00023334;590.00;;;;;;;;zerotype;;Summer;;No
1903336;TW91201TBLU-2PC-YIIL-40B-Turquoise Blue Yellow-1903336;Tweens Demi-Cup Turquoise Blue,Yellow Padded;Draft;Bra;Tweens;Adults-Women;Women;;;;Core;Casual;2017;28B,TWNSBRAA00023297,30B,TWNSBRAA00023298,30C,TWNSBRAA00023299,30D,TWNSBRAA00023300,32A,TWNSBRAA00023301,32B,TWNSBRAA00023302,32C,TWNSBRAA00023303,32D,TWNSBRAA00023304,34A,TWNSBRAA00023305,34B,TWNSBRAA00023306,34C,TWNSBRAA00023307,34D,TWNSBRAA00023308,36A,TWNSBRAA00023309,36B,TWNSBRAA00023310,36C,TWNSBRAA00023311,36D,TWNSBRAA00023312,38B,TWNSBRAA00023313,38C,TWNSBRAA00023314,40B,TWNSBRAA00023315;590.00;;;;;;;;zerotype;;Summer;;No
1903335;TW91201SK-2PC-BL-40B-Skin Black-1903335;Tweens Demi-Cup Skin,Black Padded T-Shirt Bra;Draft;Bra;Tweens;Adults-Women;Women;;;;Core;Casual;2017;28B,TWNSBRAA00023278,30B,TWNSBRAA00023279,30C,TWNSBRAA00023280,30D,TWNSBRAA00023281,32A,TWNSBRAA00023282,32B,TWNSBRAA00023283,32C,TWNSBRAA00023284,32D,TWNSBRAA00023285,34A,TWNSBRAA00023286,34B,TWNSBRAA00023287,34C,TWNSBRAA00023288,34D,TWNSBRAA00023289,36A,TWNSBRAA00023290,36B,TWNSBRAA00023291,36C,TWNSBRAA00023292,36D,TWNSBRAA00023293,38B,TWNSBRAA00023294,38C,TWNSBRAA00023295,40B,TWNSBRAA00023296;590.00;;;;;;;;zerotype;;Summer;;No
1903334;TW91201RD-2PC-MG-40B-Red Burgundy-1903334;Tweens Demi-Cup Red,Magenta Padded T-Shirt Br;Draft;Bra;Tweens;Adults-Women;Women;;;;Core;Casual;2017;28B,TWNSBRAA00023259,30B,TWNSBRAA00023260,30C,TWNSBRAA00023261,30D,TWNSBRAA00023262,32A,TWNSBRAA00023263,32B,TWNSBRAA00023264,32C,TWNSBRAA00023265,32D,TWNSBRAA00023266,34A,TWNSBRAA00023267,34B,TWNSBRAA00023268,34C,TWNSBRAA00023269,34D,TWNSBRAA00023270,36A,TWNSBRAA00023271,36B,TWNSBRAA00023272,36C,TWNSBRAA00023273,36D,TWNSBRAA00023274,38B,TWNSBRAA00023275,38C,TWNSBRAA00023276,40B,TWNSBRAA00023277;590.00;;;;;;;;zerotype;;Summer;;No
1903333;TW91201ORG-2PC-OLV-40B-Orange Olive-1903333;Tweens Demi-Cup Orange,Olive Green Padded T-S;Draft;Bra;Tweens;Adults-Women;Women;;;;Core;Casual;2017;28B,TWNSBRAA00023240,30B,TWNSBRAA00023241,30C,TWNSBRAA00023242,30D,TWNSBRAA00023243,32A,TWNSBRAA00023244,32B,TWNSBRAA00023245,32C,TWNSBRAA00023246,32D,TWNSBRAA00023247,34A,TWNSBRAA00023248,34B,TWNSBRAA00023249,34C,TWNSBRAA00023250,34D,TWNSBRAA00023251,36A,TWNSBRAA00023252,36B,TWNSBRAA00023253,36C,TWNSBRAA00023254,36D,TWNSBRAA00023255,38B,TWNSBRAA00023256,38C,TWNSBRAA00023257,40B,TWNSBRAA00023258;590.00;;;;;;;;zerotype;;Summer;;No
1903332;TW91201ORG-2PC-GIIR-40B-Orange Green-1903332;Tweens Demi-Cup Orange,Green Padded T-Shirt B;Draft;Bra;Tweens;Adults-Women;Women;;;;Core;Casual;2017;28B,TWNSBRAA00023221,30B,TWNSBRAA00023222,30C,TWNSBRAA00023223,30D,TWNSBRAA00023224,32A,TWNSBRAA00023225,32B,TWNSBRAA00023226,32C,TWNSBRAA00023227,32D,TWNSBRAA00023228,34A,TWNSBRAA00023229,34B,TWNSBRAA00023230,34C,TWNSBRAA00023231,34D,TWNSBRAA00023232,36A,TWNSBRAA00023233,36B,TWNSBRAA00023234,36C,TWNSBRAA00023235,36D,TWNSBRAA00023236,38B,TWNSBRAA00023237,38C,TWNSBRAA00023238,40B,TWNSBRAA00023239;590.00;;;;;;;;zerotype;;Summer;;No
1903331;TW91201ORG-2PC-CRL-40B-Orange Coral-1903331;Tweens Demi-Cup Orange,Coral Padded T-Shirt B;Draft;Bra;Tweens;Adults-Women;Women;;;;Core;Casual;2017;28B,TWNSBRAA00023202,30B,TWNSBRAA00023203,30C,TWNSBRAA00023204,30D,TWNSBRAA00023205,32A,TWNSBRAA00023206,32B,TWNSBRAA00023207,32C,TWNSBRAA00023208,32D,TWNSBRAA00023209,34A,TWNSBRAA00023210,34B,TWNSBRAA00023211,34C,TWNSBRAA00023212,34D,TWNSBRAA00023213,36A,TWNSBRAA00023214,36B,TWNSBRAA00023215,36C,TWNSBRAA00023216,36D,TWNSBRAA00023217,38B,TWNSBRAA00023218,38C,TWNSBRAA00023219,40B,TWNSBRAA00023220;590.00;;;;;;;;zerotype;;Summer;;No
1903330;TW91201ORG-2PC-CGRN-40B-Orange Sea Green-1903330;Tweens Demi-Cup Orange,Sea Green Padded T-Shi;Draft;Bra;Tweens;Adults-Women;Women;;;;Core;Casual;2017;28B,TWNSBRAA00023183,30B,TWNSBRAA00023184,30C,TWNSBRAA00023185,30D,TWNSBRAA00023186,32A,TWNSBRAA00023187,32B,TWNSBRAA00023188,32C,TWNSBRAA00023189,32D,TWNSBRAA00023190,34A,TWNSBRAA00023191,34B,TWNSBRAA00023192,34C,TWNSBRAA00023193,34D,TWNSBRAA00023194,36A,TWNSBRAA00023195,36B,TWNSBRAA00023196,36C,TWNSBRAA00023197,36D,TWNSBRAA00023198,38B,TWNSBRAA00023199,38C,TWNSBRAA00023200,40B,TWNSBRAA00023201;590.00;;;;;;;;zerotype;;Summer;;No
1903329;TW91201OLV-2PC-DPR-40B-Olive Purple-1903329;Tweens Demi-Cup Olive Green,Dark Purple Padde;Draft;Bra;Tweens;Adults-Women;Women;;;;Core;Casual;2017;28B,TWNSBRAA00023164,30B,TWNSBRAA00023165,30C,TWNSBRAA00023166,30D,TWNSBRAA00023167,32A,TWNSBRAA00023168,32B,TWNSBRAA00023169,32C,TWNSBRAA00023170,32D,TWNSBRAA00023171,34A,TWNSBRAA00023172,34B,TWNSBRAA00023173,34C,TWNSBRAA00023174,34D,TWNSBRAA00023175,36A,TWNSBRAA00023176,36B,TWNSBRAA00023177,36C,TWNSBRAA00023178,36D,TWNSBRAA00023179,38B,TWNSBRAA00023180,38C,TWNSBRAA00023181,40B,TWNSBRAA00023182;590.00;;;;;;;;zerotype;;Summer;;No
1903328;TW91201OFFW-2PC-SK-40B-Off White Skin-1903328;Tweens Demi-Cup Off-White,Skin Padded T-Shirt;Draft;Bra;Tweens;Adults-Women;Women;;;;Core;Casual;2017;28B,TWNSBRAA00023145,30B,TWNSBRAA00023146,30C,TWNSBRAA00023147,30D,TWNSBRAA00023148,32A,TWNSBRAA00023149,32B,TWNSBRAA00023150,32C,TWNSBRAA00023151,32D,TWNSBRAA00023152,34A,TWNSBRAA00023153,34B,TWNSBRAA00023154,34C,TWNSBRAA00023155,34D,TWNSBRAA00023156,36A,TWNSBRAA00023157,36B,TWNSBRAA00023158,36C,TWNSBRAA00023159,36D,TWNSBRAA00023160,38B,TWNSBRAA00023161,38C,TWNSBRAA00023162,40B,TWNSBRAA00023163;590.00;;;;;;;;zerotype;;Summer;;No
1903327;TW91201MV-2PC-TBLU-40B-Mauve Turquoise Blue-1903327;Tweens Demi-Cup Mauve,Turquoise Blue Padded T;Draft;Bra;Tweens;Adults-Women;Women;;;;Core;Casual;2017;28B,TWNSBRAA00023126,30B,TWNSBRAA00023127,30C,TWNSBRAA00023128,30D,TWNSBRAA00023129,32A,TWNSBRAA00023130,32B,TWNSBRAA00023131,32C,TWNSBRAA00023132,32D,TWNSBRAA00023133,34A,TWNSBRAA00023134,34B,TWNSBRAA00023135,34C,TWNSBRAA00023136,34D,TWNSBRAA00023137,36A,TWNSBRAA00023138,36B,TWNSBRAA00023139,36C,TWNSBRAA00023140,36D,TWNSBRAA00023141,38B,TWNSBRAA00023142,38C,TWNSBRAA00023143,40B,TWNSBRAA00023144;590.00;;;;;;;;zerotype;;Summer;;No
1903326;TW91201MV-2PC-DPR-40B-Mauve Purple-1903326;Tweens Demi-Cup Mauve,Dark Purple Padded T-Sh;Draft;Bra;Tweens;Adults-Women;Women;;;;Core;Casual;2017;28B,TWNSBRAA00023107,30B,TWNSBRAA00023108,30C,TWNSBRAA00023109,30D,TWNSBRAA00023110,32A,TWNSBRAA00023111,32B,TWNSBRAA00023112,32C,TWNSBRAA00023113,32D,TWNSBRAA00023114,34A,TWNSBRAA00023115,34B,TWNSBRAA00023116,34C,TWNSBRAA00023117,34D,TWNSBRAA00023118,36A,TWNSBRAA00023119,36B,TWNSBRAA00023120,36C,TWNSBRAA00023121,36D,TWNSBRAA00023122,38B,TWNSBRAA00023123,38C,TWNSBRAA00023124,40B,TWNSBRAA00023125;590.00;;;;;;;;zerotype;;Summer;;No
1903325;TW91201GIIR-2PC-ORG-40B-Green Orange-1903325;Tweens Demi-Cup Green,Orange Padded T-Shirt B;Draft;Bra;Tweens;Adults-Women;Women;;;;Core;Casual;2017;28B,TWNSBRAA00023088,30B,TWNSBRAA00023089,30C,TWNSBRAA00023090,30D,TWNSBRAA00023091,32A,TWNSBRAA00023092,32B,TWNSBRAA00023093,32C,TWNSBRAA00023094,32D,TWNSBRAA00023095,34A,TWNSBRAA00023096,34B,TWNSBRAA00023097,34C,TWNSBRAA00023098,34D,TWNSBRAA00023099,36A,TWNSBRAA00023100,36B,TWNSBRAA00023101,36C,TWNSBRAA00023102,36D,TWNSBRAA00023103,38B,TWNSBRAA00023104,38C,TWNSBRAA00023105,40B,TWNSBRAA00023106;590.00;;;;;;;;zerotype;;Summer;;No
1903324;TW91201DPR-2PC-BL-40B-Purple Black-1903324;Tweens Demi-Cup Dark Purple,Black Padded T-Sh;Draft;Bra;Tweens;Adults-Women;Women;;;;Core;Casual;2017;28B,TWNSBRAA00023069,30B,TWNSBRAA00023070,30C,TWNSBRAA00023071,30D,TWNSBRAA00023072,32A,TWNSBRAA00023073,32B,TWNSBRAA00023074,32C,TWNSBRAA00023075,32D,TWNSBRAA00023076,34A,TWNSBRAA00023077,34B,TWNSBRAA00023078,34C,TWNSBRAA00023079,34D,TWNSBRAA00023080,36A,TWNSBRAA00023081,36B,TWNSBRAA00023082,36C,TWNSBRAA00023083,36D,TWNSBRAA00023084,38B,TWNSBRAA00023085,38C,TWNSBRAA00023086,40B,TWNSBRAA00023087;590.00;;;;;;;;zerotype;;Summer;;No
1903323;TW91201DPK-2PC-RD-40B-Pink Red-1903323;Tweens Demi-Cup Dark Pink,Red Padded T-Shirt;Draft;Bra;Tweens;Adults-Women;Women;;;;Core;Casual;2017;28B,TWNSBRAA00023050,30B,TWNSBRAA00023051,30C,TWNSBRAA00023052,30D,TWNSBRAA00023053,32A,TWNSBRAA00023054,32B,TWNSBRAA00023055,32C,TWNSBRAA00023056,32D,TWNSBRAA00023057,34A,TWNSBRAA00023058,34B,TWNSBRAA00023059,34C,TWNSBRAA00023060,34D,TWNSBRAA00023061,36A,TWNSBRAA00023062,36B,TWNSBRAA00023063,36C,TWNSBRAA00023064,36D,TWNSBRAA00023065,38B,TWNSBRAA00023066,38C,TWNSBRAA00023067,40B,TWNSBRAA00023068;590.00;;;;;;;;zerotype;;Summer;;No
1903322;TW91201CRL-2PC-YIIL-40B-Coral Yellow-1903322;Tweens Demi-Cup Coral,Yellow Padded T-Shirt B;Draft;Bra;Tweens;Adults-Women;Women;;;;Core;Casual;2017;28B,TWNSBRAA00023031,30B,TWNSBRAA00023032,30C,TWNSBRAA00023033,30D,TWNSBRAA00023034,32A,TWNSBRAA00023035,32B,TWNSBRAA00023036,32C,TWNSBRAA00023037,32D,TWNSBRAA00023038,34A,TWNSBRAA00023039,34B,TWNSBRAA00023040,34C,TWNSBRAA00023041,34D,TWNSBRAA00023042,36A,TWNSBRAA00023043,36B,TWNSBRAA00023044,36C,TWNSBRAA00023045,36D,TWNSBRAA00023046,38B,TWNSBRAA00023047,38C,TWNSBRAA00023048,40B,TWNSBRAA00023049;590.00;;;;;;;;zerotype;;Summer;;No
1903321;TW91201CRL-2PC-RD-40B-Coral Red-1903321;Tweens Demi-Cup Coral,Red Padded T-Shirt Bra;Draft;Bra;Tweens;Adults-Women;Women;;;;Core;Casual;2017;28B,TWNSBRAA00023012,30B,TWNSBRAA00023013,30C,TWNSBRAA00023014,30D,TWNSBRAA00023015,32A,TWNSBRAA00023016,32B,TWNSBRAA00023017,32C,TWNSBRAA00023018,32D,TWNSBRAA00023019,34A,TWNSBRAA00023020,34B,TWNSBRAA00023021,34C,TWNSBRAA00023022,34D,TWNSBRAA00023023,36A,TWNSBRAA00023024,36B,TWNSBRAA00023025,36C,TWNSBRAA00023026,36D,TWNSBRAA00023027,38B,TWNSBRAA00023028,38C,TWNSBRAA00023029,40B,TWNSBRAA00023030;590.00;;;;;;;;zerotype;;Summer;;No
1903320;TW91201CRL-2PC-GIIR-40B-Coral Green-1903320;Tweens Demi-Cup Coral,Green Padded T-Shirt Br;Draft;Bra;Tweens;Adults-Women;Women;;;;Core;Casual;2017;28B,TWNSBRAA00022993,30B,TWNSBRAA00022994,30C,TWNSBRAA00022995,30D,TWNSBRAA00022996,32A,TWNSBRAA00022997,32B,TWNSBRAA00022998,32C,TWNSBRAA00022999,32D,TWNSBRAA00023000,34A,TWNSBRAA00023001,34B,TWNSBRAA00023002,34C,TWNSBRAA00023003,34D,TWNSBRAA00023004,36A,TWNSBRAA00023005,36B,TWNSBRAA00023006,36C,TWNSBRAA00023007,36D,TWNSBRAA00023008,38B,TWNSBRAA00023009,38C,TWNSBRAA00023010,40B,TWNSBRAA00023011;590.00;;;;;;;;zerotype;;Summer;;No
1903319;TW91201CRL-2PC-DPK-40B-Coral Pink-1903319;Tweens Demi-Cup Coral,Dark Pink Padded T-Shir;Draft;Bra;Tweens;Adults-Women;Women;;;;Core;Casual;2017;28B,TWNSBRAA00022974,30B,TWNSBRAA00022975,30C,TWNSBRAA00022976,30D,TWNSBRAA00022977,32A,TWNSBRAA00022978,32B,TWNSBRAA00022979,32C,TWNSBRAA00022980,32D,TWNSBRAA00022981,34A,TWNSBRAA00022982,34B,TWNSBRAA00022983,34C,TWNSBRAA00022984,34D,TWNSBRAA00022985,36A,TWNSBRAA00022986,36B,TWNSBRAA00022987,36C,TWNSBRAA00022988,36D,TWNSBRAA00022989,38B,TWNSBRAA00022990,38C,TWNSBRAA00022991,40B,TWNSBRAA00022992;590.00;;;;;;;;zerotype;;Summer;;No
1903318;TW91201CGRN-2PC-OLV-40B-Sea Green Olive-1903318;Tweens Demi-Cup Sea Green,Olive Green Padded;Draft;Bra;Tweens;Adults-Women;Women;;;;Core;Casual;2017;28B,TWNSBRAA00022955,30B,TWNSBRAA00022956,30C,TWNSBRAA00022957,30D,TWNSBRAA00022958,32A,TWNSBRAA00022959,32B,TWNSBRAA00022960,32C,TWNSBRAA00022961,32D,TWNSBRAA00022962,34A,TWNSBRAA00022963,34B,TWNSBRAA00022964,34C,TWNSBRAA00022965,34D,TWNSBRAA00022966,36A,TWNSBRAA00022967,36B,TWNSBRAA00022968,36C,TWNSBRAA00022969,36D,TWNSBRAA00022970,38B,TWNSBRAA00022971,38C,TWNSBRAA00022972,40B,TWNSBRAA00022973;590.00;;;;;;;;zerotype;;Summer;;No
1903317;TW91201CGRN-2PC-MV-40B-Sea Green Mauve-1903317;Tweens Demi-Cup Sea Green,Mauve Padded T-Shir;Draft;Bra;Tweens;Adults-Women;Women;;;;Core;Casual;2017;28B,TWNSBRAA00022936,30B,TWNSBRAA00022937,30C,TWNSBRAA00022938,30D,TWNSBRAA00022939,32A,TWNSBRAA00022940,32B,TWNSBRAA00022941,32C,TWNSBRAA00022942,32D,TWNSBRAA00022943,34A,TWNSBRAA00022944,34B,TWNSBRAA00022945,34C,TWNSBRAA00022946,34D,TWNSBRAA00022947,36A,TWNSBRAA00022948,36B,TWNSBRAA00022949,36C,TWNSBRAA00022950,36D,TWNSBRAA00022951,38B,TWNSBRAA00022952,38C,TWNSBRAA00022953,40B,TWNSBRAA00022954;590.00;;;;;;;;zerotype;;Summer;;No
1903316;TW91201CGRN-2PC-GIIR-40B-Sea Green Green-1903316;Tweens Demi-Cup Sea Green,Green Padded T-Shir;Draft;Bra;Tweens;Adults-Women;Women;;;;Core;Casual;2017;28B,TWNSBRAA00022917,30B,TWNSBRAA00022918,30C,TWNSBRAA00022919,30D,TWNSBRAA00022920,32A,TWNSBRAA00022921,32B,TWNSBRAA00022922,32C,TWNSBRAA00022923,32D,TWNSBRAA00022924,34A,TWNSBRAA00022925,34B,TWNSBRAA00022926,34C,TWNSBRAA00022927,34D,TWNSBRAA00022928,36A,TWNSBRAA00022929,36B,TWNSBRAA00022930,36C,TWNSBRAA00022931,36D,TWNSBRAA00022932,38B,TWNSBRAA00022933,38C,TWNSBRAA00022934,40B,TWNSBRAA00022935;590.00;;;;;;;;zerotype;;Summer;;No
1903315;TW91201BL-2PC-OFFW-40B-Black Off White-1903315;Tweens Demi-Cup Black,Off-White Padded T-Shir;Draft;Bra;Tweens;Adults-Women;Women;;;;Core;Casual;2017;28B,TWNSBRAA00022898,30B,TWNSBRAA00022899,30C,TWNSBRAA00022900,30D,TWNSBRAA00022901,32A,TWNSBRAA00022902,32B,TWNSBRAA00022903,32C,TWNSBRAA00022904,32D,TWNSBRAA00022905,34A,TWNSBRAA00022906,34B,TWNSBRAA00022907,34C,TWNSBRAA00022908,34D,TWNSBRAA00022909,36A,TWNSBRAA00022910,36B,TWNSBRAA00022911,36C,TWNSBRAA00022912,36D,TWNSBRAA00022913,38B,TWNSBRAA00022914,38C,TWNSBRAA00022915,40B,TWNSBRAA00022916;590.00;;;;;;;;zerotype;;Summer;;No
