Style ID;Vendor Article Number;Vendor Article Name;Active Status;Article type;Brand;Age Group;Gender;Base Colour;Colour1;Colour2;Fashion Type;Usage;Year;Size - SKU code pair;MRP;Style Description;Style Note;Materials and Care Description;Size and Fit Description;Size Chart Path;Product Display Name;Tags;Product Type;Classification Brand;Season;Comments;Upload Images
2031901;DRS02079D-Sea Green-2031901;Mint Floral Cold Shoulder Maxi Dress;Draft;Dresses;FabAlley;Adults-Women;Women;Sea Green;;;Core;;2017;S,FBALDRSS00006310,M,FBALDRSS00006311,L,FBALDRSS00006312,XL,FBALDRSS00006313;2400.00;;;<p>Machine Wash</p>;;;;;zerotype;;Summer;;No
2031900;DRS02091D-White-2031900;Belted Off Shoulder Dress - Multistripe;Draft;Dresses;FabAlley;Adults-Women;Women;White;;;Core;;2017;S,FBALDRSS00006306,M,FBALDRSS00006307,L,FBALDRSS00006308,XL,FBALDRSS00006309;1900.00;;;<p>Machine Wash</p>;;;;;zerotype;;Summer;;No
2031899;DRS02090D-Teal-2031899;High Low Strappy Maxi Dress - Oxblood Floral;Draft;Dresses;FabAlley;Adults-Women;Women;Teal;;;Core;;2017;S,FBALDRSS00006300,M,FBALDRSS00006302,L,FBALDRSS00006303,XL,FBALDRSS00006305;2300.00;;;<p>Machine Wash</p>;;;;;zerotype;;Summer;;No
2031897;DRS02080D-Navy Blue-2031897;White Floral Sash Maxi Dress;Draft;Dresses;FabAlley;Adults-Women;Women;Navy Blue;;;Core;;2017;S,FBALDRSS00006292,M,FBALDRSS00006295,L,FBALDRSS00006296,XL,FBALDRSS00006298;2500.00;;;<p>Machine Wash</p>;;;;;zerotype;;Summer;;No
2031895;DRS02078D-Pink-2031895;Pink Floral Cold Shoulder Maxi Dress;Draft;Dresses;FabAlley;Adults-Women;Women;Pink;;;Core;;2017;S,FBALDRSS00006284,M,FBALDRSS00006287,L,FBALDRSS00006289,XL,FBALDRSS00006291;2500.00;;;<p>Machine Wash</p>;;;;;zerotype;;Summer;;No
2031893;DRS02071D-Coral-2031893;Cape Shift Dress - Dusty Pink;Draft;Dresses;FabAlley;Adults-Women;Women;Coral;;;Core;;2017;S,FBALDRSS00006275,M,FBALDRSS00006278,L,FBALDRSS00006280,XL,FBALDRSS00006282;2100.00;;;<p>Machine Wash</p>;;;;;zerotype;;Summer;;No
2031890;DRS02068D-Coral-2031890;Lace Ruffle Cold Shoulder Dress - Pink;Draft;Dresses;FabAlley;Adults-Women;Women;Coral;;;Core;;2017;S,FBALDRSS00006266,M,FBALDRSS00006268,L,FBALDRSS00006270,XL,FBALDRSS00006272;1900.00;;;<p>Machine Wash</p>;;;;;zerotype;;Summer;;No
2031888;DRS02062D-Lavender-2031888;Cold Shoulder Asymmetric Bell Sleeve Dress -;Draft;Dresses;FabAlley;Adults-Women;Women;Lavender;;;Core;;2017;S,FBALDRSS00006258,M,FBALDRSS00006260,L,FBALDRSS00006262,XL,FBALDRSS00006264;2300.00;;;<p>Machine Wash</p>;;;;;zerotype;;Summer;;No
2031887;DRS02040D-Pink-2031887;High Low Strappy Maxi Dress - Pink Floral;Draft;Dresses;FabAlley;Adults-Women;Women;Pink;;;Core;;2017;S,FBALDRSS00006251,M,FBALDRSS00006253,L,FBALDRSS00006255,XL,FBALDRSS00006256;2200.00;;;<p>Machine Wash</p>;;;;;zerotype;;Summer;;No
2031885;DRS02035D-Coral-2031885;Ruffled Shoulder Skater Dress - Coral;Draft;Dresses;FabAlley;Adults-Women;Women;Coral;;;Core;;2017;S,FBALDRSS00006243,M,FBALDRSS00006245,L,FBALDRSS00006247,XL,FBALDRSS00006249;2300.00;;;<p>Machine Wash</p>;;;;;zerotype;;Summer;;No
2031882;DRS02034D-Burgundy-2031882;Ruffled Shoulder Skater Dress - Wine;Draft;Dresses;FabAlley;Adults-Women;Women;Burgundy;;;Core;;2017;S,FBALDRSS00006234,M,FBALDRSS00006236,L,FBALDRSS00006238,XL,FBALDRSS00006241;2300.00;;;<p>Machine Wash</p>;;;;;zerotype;;Summer;;No
2031880;DRS02032D-Pink-2031880;Lace Yoke Cold Shoulder Dress - Dusty Pink;Draft;Dresses;FabAlley;Adults-Women;Women;Pink;;;Core;;2017;S,FBALDRSS00006226,M,FBALDRSS00006228,L,FBALDRSS00006230,XL,FBALDRSS00006232;1800.00;;;<p>Machine Wash</p>;;;;;zerotype;;Summer;;No
2031878;DRS01970D-Burgundy-2031878;Cape Skater Dress - Wine;Draft;Dresses;FabAlley;Adults-Women;Women;Burgundy;;;Core;;2017;S,FBALDRSS00006219,M,FBALDRSS00006220,L,FBALDRSS00006222,XL,FBALDRSS00006224;2100.00;;;<p>Machine Wash</p>;;;;;zerotype;;Summer;;No
2031874;DRS02002D-Coral-2031874;One Shoulder Bodycon Dress - Coral;Draft;Dresses;FabAlley;Adults-Women;Women;Coral;;;Core;;2017;S,FBALDRSS00006202,M,FBALDRSS00006204,L,FBALDRSS00006207,XL,FBALDRSS00006209;1900.00;;;<p>Machine Wash</p>;;;;;zerotype;;Summer;;No
2031872;DRS02001D-Burgundy-2031872;One Shoulder Bodycon Dress - Wine;Draft;Dresses;FabAlley;Adults-Women;Women;Burgundy;;;Core;;2017;S,FBALDRSS00006194,M,FBALDRSS00006196,L,FBALDRSS00006198,XL,FBALDRSS00006200;2000.00;;;<p>Machine Wash</p>;;;;;zerotype;;Summer;;No
2031870;DRS01991D-Coral-2031870;Layered Bell Sleeve Shift Dress - Pink;Draft;Dresses;FabAlley;Adults-Women;Women;Coral;;;Core;;2017;S,FBALDRSS00006186,M,FBALDRSS00006188,L,FBALDRSS00006190,XL,FBALDRSS00006192;2100.00;;;<p>Machine Wash</p>;;;;;zerotype;;Summer;;No
2031868;DRS01990D-Burgundy-2031868;Lace Bell Sleeve Dress - Oxblood;Draft;Dresses;FabAlley;Adults-Women;Women;Burgundy;;;Core;;2017;S,FBALDRSS00006178,M,FBALDRSS00006180,L,FBALDRSS00006182,XL,FBALDRSS00006184;1900.00;;;<p>Machine Wash</p>;;;;;zerotype;;Summer;;No
2031866;DRS01980D-Burgundy-2031866;Ruffle Away Shift Dress - Wine;Draft;Dresses;FabAlley;Adults-Women;Women;Burgundy;;;Core;;2017;S,FBALDRSS00006170,M,FBALDRSS00006172,L,FBALDRSS00006174,XL,FBALDRSS00006176;1700.00;;;<p>Machine Wash</p>;;;;;zerotype;;Summer;;No
2031864;DRS01962D-Coral-2031864;Ruffle Sway Shift Dress - Pink;Draft;Dresses;FabAlley;Adults-Women;Women;Coral;;;Core;;2017;S,FBALDRSS00006162,M,FBALDRSS00006164,L,FBALDRSS00006166,XL,FBALDRSS00006168;1700.00;;;<p>Machine Wash</p>;;;;;zerotype;;Summer;;No
2031862;TOP02909D-Pink-2031862;Strappy Bell Sleeve Top - Red Stripes;Draft;Tops;FabAlley;Adults-Women;Women;Pink;;;Core;Casual;2017;S,FBALTOPS00007081,M,FBALTOPS00007082,L,FBALTOPS00007083,XL,FBALTOPS00007084;1400.00;;;<p>Machine Wash</p>;;;;;zerotype;;Summer;;No
2031860;TOP02880D-Beige-2031860;High Low Cape Top - Floral;Draft;Tops;FabAlley;Adults-Women;Women;Beige;;;Core;Casual;2017;S,FBALTOPS00007077,M,FBALTOPS00007078,L,FBALTOPS00007079,XL,FBALTOPS00007080;1300.00;;;<p>Machine Wash</p>;;;;;zerotype;;Summer;;No
2031858;TOP02972D-Black White-2031858;Pleated Placket Blouse - Geometric;Draft;Tops;FabAlley;Adults-Women;Women;Black;White;;Core;Casual;2017;S,FBALTOPS00007069,M,FBALTOPS00007072,L,FBALTOPS00007073,XL,FBALTOPS00007075;1400.00;;;<p>Machine Wash</p>;;;;;zerotype;;Summer;;No
2031856;TOP02961D-Pink-2031856;Shoulder Smoulder Top - Dusty Pink;Draft;Tops;FabAlley;Adults-Women;Women;Pink;;;Core;Casual;2017;S,FBALTOPS00007061,M,FBALTOPS00007063,L,FBALTOPS00007065,XL,FBALTOPS00007067;1400.00;;;<p>Machine Wash</p>;;;;;zerotype;;Summer;;No
2031853;TOP02955D-Grey-2031853;Wrap Tie Top - Stripes;Draft;Tops;FabAlley;Adults-Women;Women;Grey;;;Core;Casual;2017;S,FBALTOPS00007053,M,FBALTOPS00007055,L,FBALTOPS00007057,XL,FBALTOPS00007059;1700.00;;;<p>Machine Wash</p>;;;;;zerotype;;Summer;;No
2031850;TOP02852D-Coral-2031850;Layered Lace Cape Top - Pink;Draft;Tops;FabAlley;Adults-Women;Women;Coral;;;Core;Casual;2017;S,FBALTOPS00007045,M,FBALTOPS00007047,L,FBALTOPS00007049,XL,FBALTOPS00007051;1600.00;;;<p>Machine Wash</p>;;;;;zerotype;;Summer;;No
2031848;TOP02844D-Sea Green-2031848;Strappy Cold Shoulder Top - Mint;Draft;Tops;FabAlley;Adults-Women;Women;Sea Green;;;Core;Casual;2017;S,FBALTOPS00007038,M,FBALTOPS00007039,L,FBALTOPS00007041,XL,FBALTOPS00007043;1400.00;;;<p>Machine Wash</p>;;;;;zerotype;;Summer;;No
2031847;TOP02842D-Burgundy-2031847;Pom Pom Bell Sleeve Crop Top - Wine;Draft;Tops;FabAlley;Adults-Women;Women;Burgundy;;;Core;Casual;2017;S,FBALTOPS00007030,M,FBALTOPS00007032,L,FBALTOPS00007034,XL,FBALTOPS00007036;1500.00;;;<p>Machine Wash</p>;;;;;zerotype;;Summer;;No
2031844;TOP02901D-Red-2031844;Tie Up Bell Sleeve Top - Rust;Draft;Tops;FabAlley;Adults-Women;Women;Red;;;Core;Casual;2017;S,FBALTOPS00007021,M,FBALTOPS00007023,L,FBALTOPS00007026,XL,FBALTOPS00007028;1500.00;;;<p>Machine Wash</p>;;;;;zerotype;;Summer;;No
2031842;TOP02892D-Sea Green-2031842;Lace Up Bell Sleeves Top - Mint Floral;Draft;Tops;FabAlley;Adults-Women;Women;Sea Green;;;Core;Casual;2017;S,FBALTOPS00007013,M,FBALTOPS00007015,L,FBALTOPS00007017,XL,FBALTOPS00007019;1500.00;;;<p>Machine Wash</p>;;;;;zerotype;;Summer;;No
2031840;TOP02891D-Pink-2031840;Lace Up Bell Sleeves Top - Dusty Pink;Draft;Tops;FabAlley;Adults-Women;Women;Pink;;;Core;Casual;2017;S,FBALTOPS00007005,M,FBALTOPS00007007,L,FBALTOPS00007009,XL,FBALTOPS00007011;1400.00;;;<p>Machine Wash</p>;;;;;zerotype;;Summer;;No
2031838;TOP02886D-Burgundy-2031838;One Shoulder Flared Sleeve Top - Wine;Draft;Tops;FabAlley;Adults-Women;Women;Burgundy;;;Core;Casual;2017;S,FBALTOPS00006997,M,FBALTOPS00006999,L,FBALTOPS00007001,XL,FBALTOPS00007003;1400.00;;;<p>Machine Wash</p>;;;;;zerotype;;Summer;;No
2031836;TOP02885D-Coral-2031836;One Shoulder Flared Sleeve Top - Blush;Draft;Tops;FabAlley;Adults-Women;Women;Coral;;;Core;Casual;2017;S,FBALTOPS00006989,M,FBALTOPS00006991,L,FBALTOPS00006993,XL,FBALTOPS00006995;1400.00;;;<p>Machine Wash</p>;;;;;zerotype;;Summer;;No
2031834;TOP02851D-Pink-2031834;Boho Bardot Top - Dusty Pink;Draft;Tops;FabAlley;Adults-Women;Women;Pink;;;Core;Casual;2017;S,FBALTOPS00006981,M,FBALTOPS00006983,L,FBALTOPS00006985,XL,FBALTOPS00006987;1400.00;;;<p>Machine Wash</p>;;;;;zerotype;;Summer;;No
2031832;TOP02850D-Coral-2031832;Ruffled Sleeve Top - Dusty Pink;Draft;Tops;FabAlley;Adults-Women;Women;Coral;;;Core;Casual;2017;S,FBALTOPS00006973,M,FBALTOPS00006975,L,FBALTOPS00006977,XL,FBALTOPS00006979;1400.00;;;<p>Machine Wash</p>;;;;;zerotype;;Summer;;No
1985261;DRS02050D-Red-1985261;Ruffled Halter Dress - Red;Inactive - Marketplace - Reject;Dresses;FabAlley;Adults-Women;Women;Red;;;Core;;2017;S,FBALDRSS00005862,M,FBALDRSS00005863,L,FBALDRSS00005864,XL,FBALDRSS00005865;2100.00;;;<p>Machine Wash</p>;;;;;zerotype;;Fall;Incorrect measurements;No
