Style ID;Vendor Article Number;Vendor Article Name;Active Status;Article type;Brand;Age Group;Gender;Base Colour;Colour1;Colour2;Fashion Type;Usage;Year;Size - SKU code pair;MRP;Style Description;Style Note;Materials and Care Description;Size and Fit Description;Size Chart Path;Product Display Name;Tags;Product Type;Classification Brand;Season;Comments;Upload Images
2086092;P20401106415524-Yellow-2086092;People Yellow T Shirt;Draft;Tshirts;People;Adults-Women;Women;Yellow;;;Fashion;;2017;XS,PEPLTSHT00008339,S,PEPLTSHT00008340,M,PEPLTSHT00008341,L,PEPLTSHT00008342;299.00;;;<p>100% Cotton</p>;;;;;zerotype;;Spring;;No
2086091;P20401106390401-Grey-2086091;People Grey T Shirt;Draft;Tshirts;People;Adults-Women;Women;Grey;;;Fashion;;2017;XS,PEPLTSHT00008333,S,PEPLTSHT00008334,M,PEPLTSHT00008335,L,PEPLTSHT00008336,XL,PEPLTSHT00008337,XXL,PEPLTSHT00008338;499.00;;;<p>86% Cotton and 14% Polyester</p>;;;;;zerotype;;Spring;;No
2086090;P20401106389100-Black-2086090;People Black T Shirt;Draft;Tshirts;People;Adults-Women;Women;Black;;;Fashion;;2017;XS,PEPLTSHT00008327,S,PEPLTSHT00008328,M,PEPLTSHT00008329,L,PEPLTSHT00008330,XL,PEPLTSHT00008331,XXL,PEPLTSHT00008332;499.00;;;<p>100% Cotton</p>;;;;;zerotype;;Spring;;No
2086089;P20401106401100-Black-2086089;People Black T Shirt;Draft;Tshirts;People;Adults-Women;Women;Black;;;Fashion;;2017;XS,PEPLTSHT00008321,S,PEPLTSHT00008322,M,PEPLTSHT00008323,L,PEPLTSHT00008324,XL,PEPLTSHT00008325,XXL,PEPLTSHT00008326;299.00;;;<p>100% Cotton</p>;;;;;zerotype;;Spring;;No
2086087;P20401106462015-Cream-2086087;People Cream T Shirt;Draft;Tshirts;People;Adults-Women;Women;Cream;;;Fashion;;2017;XS,PEPLTSHT00008315,S,PEPLTSHT00008316,M,PEPLTSHT00008317,L,PEPLTSHT00008318,XL,PEPLTSHT00008319,XXL,PEPLTSHT00008320;299.00;;;<p>100% Cotton</p>;;;;;zerotype;;Spring;;No
2086085;P20401106402015-White-2086085;People White T Shirt;Draft;Tshirts;People;Adults-Women;Women;White;;;Fashion;;2017;XS,PEPLTSHT00008309,S,PEPLTSHT00008310,M,PEPLTSHT00008311,L,PEPLTSHT00008312,XL,PEPLTSHT00008313,XXL,PEPLTSHT00008314;299.00;;;<p>100% Cotton</p>;;;;;zerotype;;Spring;;No
2086084;P20401106401238-Blue-2086084;People Blue T Shirt;Draft;Tshirts;People;Adults-Women;Women;Blue;;;Fashion;;2017;XS,PEPLTSHT00008303,S,PEPLTSHT00008304,M,PEPLTSHT00008305,L,PEPLTSHT00008306,XL,PEPLTSHT00008307,XXL,PEPLTSHT00008308;299.00;;;<p>100% Cotton</p>;;;;;zerotype;;Spring;;No
2086083;P20401106410810-Pink-2086083;People Pink T Shirt;Draft;Tshirts;People;Adults-Women;Women;Pink;;;Fashion;;2017;XS,PEPLTSHT00008297,S,PEPLTSHT00008298,M,PEPLTSHT00008299,L,PEPLTSHT00008300,XL,PEPLTSHT00008301,XXL,PEPLTSHT00008302;299.00;;;<p>100% Cotton</p>;;;;;zerotype;;Spring;;No
2086082;P20401106389512-Yellow-2086082;People Yellow T Shirt;Draft;Tshirts;People;Adults-Women;Women;Yellow;;;Fashion;;2017;XS,PEPLTSHT00008291,S,PEPLTSHT00008292,M,PEPLTSHT00008293,L,PEPLTSHT00008294,XL,PEPLTSHT00008295,XXL,PEPLTSHT00008296;499.00;;;<p>65% Polyester and 35% Cotton</p>;;;;;zerotype;;Spring;;No
