Style ID;Vendor Article Number;Vendor Article Name;Active Status;Article type;Brand;Age Group;Gender;Base Colour;Colour1;Colour2;Fashion Type;Usage;Year;Size - SKU code pair;MRP;Style Description;Style Note;Materials and Care Description;Size and Fit Description;Size Chart Path;Product Display Name;Tags;Product Type;Classification Brand;Season;Comments;Upload Images
1872001;W19647W2283G-Range blue-1872001;IVAN JEANS SHORTS,38,9;Draft;Shorts;Wrangler;Adults-Men;Men;NA;;;Fashion;;2017;28,WRNGSHOR00000078,30,WRNGSHOR00000079,32,WRNGSHOR00000080,34,WRNGSHOR00000081,36,WRNGSHOR00000082,38,WRNGSHOR00000083;2995.00;<p>Cotton</p>;;;;;;;zerotype;;Summer;;No
1871960;W19807W21H4D-Navy-1871960;CUSSACK,38,34;Draft;Trousers;Wrangler;Adults-Men;Men;;;;Fashion;Casual;2017;28,WRNGTRSR00000779,30,WRNGTRSR00000780,32,WRNGTRSR00000781,34,WRNGTRSR00000782,36,WRNGTRSR00000783,38,WRNGTRSR00000784;2495.00;<p>Cotton</p>;;;;;;;zerotype;;Summer;;No
1871957;W20525912135-Grey-1871957;GARRET PRINTED SHIRT,XXL;Draft;Shirts;Wrangler;Adults-Men;Men;;;;Fashion;;2017;00L,WRNGSHRT00105726,00M,WRNGSHRT00105727,00S,WRNGSHRT00105728,0XL,WRNGSHRT00105729,XXL,WRNGSHRT00105730;1995.00;<p>Cotton</p>;;;;;;;zerotype;;Summer;;No
1871955;W20513A6708Z-SS-1871955;TIM DENIM  SHIRT **,XXL;Draft;Shirts;Wrangler;Adults-Men;Men;;;;Fashion;;2017;00L,WRNGSHRT00105716,00M,WRNGSHRT00105717,00S,WRNGSHRT00105718,0XL,WRNGSHRT00105719,XXL,WRNGSHRT00105720;2595.00;<p>Cotton</p>;;;;;;;zerotype;;Summer;;No
1871952;W2050491212Z-White-1871952;CALLUM SOLID SHIRT,XXL;Draft;Shirts;Wrangler;Adults-Men;Men;;;;Fashion;;2017;00L,WRNGSHRT00105702,00M,WRNGSHRT00105703,00S,WRNGSHRT00105704,0XL,WRNGSHRT00105705,XXL,WRNGSHRT00105706;1895.00;<p>Cotton</p>;;;;;;;zerotype;;Summer;;No
1871951;W20503A6708Z-Ms-1871951;GLYN DENIM  SHIRT **,XL;Draft;Shirts;Wrangler;Adults-Men;Men;;;;Fashion;;2017;00L,WRNGSHRT00105698,00M,WRNGSHRT00105699,00S,WRNGSHRT00105700,0XL,WRNGSHRT00105701;2495.00;<p>Cotton</p>;;;;;;;zerotype;;Summer;;No
1871950;W20492912114-Navy+Beige-1871950;JUDE PRINTED SHIRT,XXL;Draft;Shirts;Wrangler;Adults-Men;Men;;;;Fashion;;2017;00L,WRNGSHRT00105693,00M,WRNGSHRT00105694,00S,WRNGSHRT00105695,0XL,WRNGSHRT00105696,XXL,WRNGSHRT00105697;1995.00;<p>Cotton</p>;;;;;;;zerotype;;Summer;;No
1871946;W2049091212Z-White+Navy-1871946;RONAN PRINTED SHIRT***,XXL;Draft;Shirts;Wrangler;Adults-Men;Men;;;;Fashion;;2017;00L,WRNGSHRT00105688,00M,WRNGSHRT00105689,00S,WRNGSHRT00105690,0XL,WRNGSHRT00105691,XXL,WRNGSHRT00105692;2195.00;<p>Cotton</p>;;;;;;;zerotype;;Summer;;No
1871943;W204889121DS-White-1871943;ROY 7 ICON PRINTED SHIRT,XXL;Draft;Shirts;Wrangler;Adults-Men;Men;;;;Fashion;;2017;00L,WRNGSHRT00105683,00M,WRNGSHRT00105684,00S,WRNGSHRT00105685,0XL,WRNGSHRT00105686,XXL,WRNGSHRT00105687;2195.00;<p>Cotton</p>;;;;;;;zerotype;;Summer;;No
1871941;W2048691208Z-Blue+Navy-1871941;STEVIE PRINTED SHIRT,XL;Draft;Shirts;Wrangler;Adults-Men;Men;;;;Fashion;;2017;00L,WRNGSHRT00105675,00M,WRNGSHRT00105676,00S,WRNGSHRT00105677,0XL,WRNGSHRT00105678;1995.00;<p>Cotton</p>;;;;;;;zerotype;;Summer;;No
1871933;W2044491208Z-Navy+White-1871933;BERNIE CHECKS SHIRT,XL;Draft;Shirts;Wrangler;Adults-Men;Men;;;;Fashion;;2017;00L,WRNGSHRT00105638,00M,WRNGSHRT00105639,0XL,WRNGSHRT00105640;2295.00;<p>Cotton</p>;;;;;;;zerotype;;Summer;;No
1871930;W20435912485-Grey+White-1871930;DANIEL DOBBY  SHIRT,XXL;Draft;Shirts;Wrangler;Adults-Men;Men;;;;Fashion;;2017;00L,WRNGSHRT00105623,00M,WRNGSHRT00105624,00S,WRNGSHRT00105625,0XL,WRNGSHRT00105626,XXL,WRNGSHRT00105627;2195.00;<p>Cotton</p>;;;;;;;zerotype;;Summer;;No
1871928;W2043000008Z-Ms-1871928;CARNEY DENIM  SHIRT,XXL;Draft;Shirts;Wrangler;Adults-Men;Men;;;;Fashion;;2017;00L,WRNGSHRT00105613,00M,WRNGSHRT00105614,00S,WRNGSHRT00105615,0XL,WRNGSHRT00105616,XXL,WRNGSHRT00105617;1995.00;<p>Cotton</p>;;;;;;;zerotype;;Summer;;No
1871922;W2042900008Z-Rinse-1871922;CARNEY DENIM  SHIRT **,XXL;Draft;Shirts;Wrangler;Adults-Men;Men;;;;Fashion;;2017;00L,WRNGSHRT00105608,00M,WRNGSHRT00105609,00S,WRNGSHRT00105610,0XL,WRNGSHRT00105611,XXL,WRNGSHRT00105612;1995.00;<p>Cotton</p>;;;;;;;zerotype;;Summer;;No
1871909;W20417912N2D-Beige-1871909;ANNIK PRINTED SHIRT**,XXL;Draft;Shirts;Wrangler;Adults-Men;Men;;;;Fashion;;2017;00L,WRNGSHRT00105588,00M,WRNGSHRT00105589,00S,WRNGSHRT00105590,0XL,WRNGSHRT00105591,XXL,WRNGSHRT00105592;1995.00;<p>Cotton</p>;;;;;;;zerotype;;Summer;;No
1871906;W20408912114-Navy-1871906;GARRY DOBBY SHIRT,XXL;Draft;Shirts;Wrangler;Adults-Men;Men;;;;Fashion;;2017;00L,WRNGSHRT00105573,00M,WRNGSHRT00105574,00S,WRNGSHRT00105575,0XL,WRNGSHRT00105576,XXL,WRNGSHRT00105577;2195.00;<p>Cotton</p>;;;;;;;zerotype;;Summer;;No
1871904;W2039891208Z-Indigo-1871904;ADRIEN INDIGO DOBBY SHIRT**,XXL;Draft;Shirts;Wrangler;Adults-Men;Men;;;;Fashion;;2017;00L,WRNGSHRT00105565,00M,WRNGSHRT00105566,00S,WRNGSHRT00105567,0XL,WRNGSHRT00105568,XXL,WRNGSHRT00105569;2295.00;<p>Cotton</p>;;;;;;;zerotype;;Summer;;No
1871903;W2039391208Z-Rinse-1871903;VINCE CHAMBRAY  SHIRT,XXL;Draft;Shirts;Wrangler;Adults-Men;Men;;;;Fashion;;2017;00L,WRNGSHRT00105560,00M,WRNGSHRT00105561,00S,WRNGSHRT00105562,0XL,WRNGSHRT00105563,XXL,WRNGSHRT00105564;2495.00;<p>Cotton</p>;;;;;;;zerotype;;Summer;;No
1871902;W2039291208Z-Indigo-1871902;BRANDON DOBBY SHIRT**,XXL;Draft;Shirts;Wrangler;Adults-Men;Men;;;;Fashion;;2017;00L,WRNGSHRT00105555,00M,WRNGSHRT00105556,00S,WRNGSHRT00105557,0XL,WRNGSHRT00105558,XXL,WRNGSHRT00105559;2295.00;<p>Cotton</p>;;;;;;;zerotype;;Summer;;No
1871899;W203819124AZ-Yellow-1871899;ALEX  FIL-A-FIL SHIRT,XL;Draft;Shirts;Wrangler;Adults-Men;Men;;;;Fashion;;2017;00L,WRNGSHRT00105541,00M,WRNGSHRT00105542,00S,WRNGSHRT00105543,0XL,WRNGSHRT00105544;1895.00;<p>Cotton</p>;;;;;;;zerotype;;Summer;;No
1871897;W20379936N2D-Beige-1871897;WALLACE LINEN SHIRT,XXL;Draft;Shirts;Wrangler;Adults-Men;Men;;;;Fashion;;2017;00L,WRNGSHRT00105531,00M,WRNGSHRT00105532,00S,WRNGSHRT00105533,0XL,WRNGSHRT00105534,XXL,WRNGSHRT00105535;2495.00;<p>Cotton</p>;;;;;;;zerotype;;Summer;;No
1871892;W20365912114-Blue-1871892;TURNER OXFORD SHIRT,XXL;Draft;Shirts;Wrangler;Adults-Men;Men;;;;Fashion;;2017;00L,WRNGSHRT00105506,00M,WRNGSHRT00105507,00S,WRNGSHRT00105508,0XL,WRNGSHRT00105509,XXL,WRNGSHRT00105510;1995.00;<p>Cotton</p>;;;;;;;zerotype;;Summer;;No
1871891;W2036491212Z-White-1871891;TURNER OXFORD SHIRT,XXL;Draft;Shirts;Wrangler;Adults-Men;Men;;;;Fashion;;2017;00L,WRNGSHRT00105501,00M,WRNGSHRT00105502,00S,WRNGSHRT00105503,0XL,WRNGSHRT00105504,XXL,WRNGSHRT00105505;1995.00;<p>Cotton</p>;;;;;;;zerotype;;Summer;;No
1871887;W20351912114-Navy-1871887;BON SOLID SHIRT,XXL;Draft;Shirts;Wrangler;Adults-Men;Men;;;;Fashion;;2017;00L,WRNGSHRT00105481,00M,WRNGSHRT00105482,00S,WRNGSHRT00105483,0XL,WRNGSHRT00105484,XXL,WRNGSHRT00105485;1595.00;<p>Cotton</p>;;;;;;;zerotype;;Summer;;No
1871885;W2016591210Z-Blue-1871885;BURTON SLUB SHIRT,XL;Draft;Shirts;Wrangler;Adults-Men;Men;;;;Fashion;;2017;00L,WRNGSHRT00105472,00M,WRNGSHRT00105473,00S,WRNGSHRT00105474,0XL,WRNGSHRT00105475;1595.00;<p>Cotton</p>;;;;;;;zerotype;;Summer;;No
1871884;W2016491208Z-Green-1871884;BURTON SLUB SHIRT,XXL;Draft;Shirts;Wrangler;Adults-Men;Men;;;;Fashion;;2017;00L,WRNGSHRT00105467,00M,WRNGSHRT00105468,00S,WRNGSHRT00105469,0XL,WRNGSHRT00105470,XXL,WRNGSHRT00105471;1595.00;<p>Cotton</p>;;;;;;;zerotype;;Summer;;No
1871883;W201619124AZ-Yellow-1871883;ALEX  FIL-A-FIL SHIRT,XXL;Draft;Shirts;Wrangler;Adults-Men;Men;;;;Fashion;;2017;00L,WRNGSHRT00105462,00M,WRNGSHRT00105463,00S,WRNGSHRT00105464,0XL,WRNGSHRT00105465,XXL,WRNGSHRT00105466;1595.00;<p>Cotton</p>;;;;;;;zerotype;;Summer;;No
1871879;W20153912114-White +Navy-1871879;KELLEN PRINTED SHIRT,XXL;Draft;Shirts;Wrangler;Adults-Men;Men;;;;Fashion;;2017;00L,WRNGSHRT00105442,00M,WRNGSHRT00105443,00S,WRNGSHRT00105444,0XL,WRNGSHRT00105445,XXL,WRNGSHRT00105446;1795.00;<p>Cotton</p>;;;;;;;zerotype;;Summer;;No
1871875;W2014600008Z-Ms-1871875;CARNEY DENIM  SHIRT,XXL;Draft;Shirts;Wrangler;Adults-Men;Men;;;;Fashion;;2017;00L,WRNGSHRT00105422,00M,WRNGSHRT00105423,00S,WRNGSHRT00105424,0XL,WRNGSHRT00105425,XXL,WRNGSHRT00105426;1795.00;<p>Cotton</p>;;;;;;;zerotype;;Summer;;No
1871874;W2014500008Z-Rinse-1871874;CARNEY DENIM  SHIRT,XXL;Draft;Shirts;Wrangler;Adults-Men;Men;;;;Fashion;;2017;00L,WRNGSHRT00105417,00M,WRNGSHRT00105418,00S,WRNGSHRT00105419,0XL,WRNGSHRT00105420,XXL,WRNGSHRT00105421;1795.00;<p>Cotton</p>;;;;;;;zerotype;;Summer;;No
1871873;W20144912114-Navy-1871873;BON SOLID SHIRT,XL;Draft;Shirts;Wrangler;Adults-Men;Men;;;;Fashion;;2017;00L,WRNGSHRT00105413,00M,WRNGSHRT00105414,00S,WRNGSHRT00105415,0XL,WRNGSHRT00105416;1395.00;<p>Cotton</p>;;;;;;;zerotype;;Summer;;No
1871692;W24180W2283G-Green haze-1871692;TYSON JEANS,38,31;Draft;Jeans;Wrangler;Adults-Men;Men;;;;Fashion;Casual;2017;28,WRNGJENS00007372,30,WRNGJENS00007373,32,WRNGJENS00007374,34,WRNGJENS00007375,36,WRNGJENS00007376,38,WRNGJENS00007377;3495.00;<p>Cotton</p>;;;;;;;zerotype;;Summer;;No
1871691;W24179W22990-Bushed black-1871691;ROGER JEANS,34,33;Draft;Jeans;Wrangler;Adults-Men;Men;;;;Fashion;Casual;2017;30,WRNGJENS00007369,32,WRNGJENS00007370,34,WRNGJENS00007371;3295.00;<p>Cotton</p>;;;;;;;zerotype;;Summer;;No
1871683;W24168W22990-Blue Nitro-1871683;MARTIN JEANS,38,33;Draft;Jeans;Wrangler;Adults-Men;Men;;;;Fashion;Casual;2017;28,WRNGJENS00007322,30,WRNGJENS00007323,32,WRNGJENS00007324,34,WRNGJENS00007325,36,WRNGJENS00007326,38,WRNGJENS00007327;3695.00;<p>Cotton</p>;;;;;;;zerotype;;Summer;;No
1871682;W24166W2298B-Lucas Blue-1871682;EDWARD JEANS,38,33;Draft;Jeans;Wrangler;Adults-Men;Men;;;;Fashion;Casual;2017;28,WRNGJENS00007316,30,WRNGJENS00007317,32,WRNGJENS00007318,34,WRNGJENS00007319,36,WRNGJENS00007320,38,WRNGJENS00007321;3495.00;<p>Cotton</p>;;;;;;;zerotype;;Summer;;No
1871675;W24154W2201Z-Burning brush-1871675;SEVEN ICON CLASSIC 11,38,33;Draft;Jeans;Wrangler;Adults-Men;Men;;;;Fashion;Casual;2017;28,WRNGJENS00007272,30,WRNGJENS00007273,32,WRNGJENS00007274,34,WRNGJENS00007275,36,WRNGJENS00007276,38,WRNGJENS00007277;2795.00;<p>Cotton</p>;;;;;;;zerotype;;Summer;;No
1871673;W24152W2201Z-Rinse black-1871673;SEVEN ICON CLASSIC 10,40,33;Draft;Jeans;Wrangler;Adults-Men;Men;;;;Fashion;Casual;2017;28,WRNGJENS00007259,30,WRNGJENS00007260,32,WRNGJENS00007261,34,WRNGJENS00007262,36,WRNGJENS00007263,38,WRNGJENS00007264,40,WRNGJENS00007265;2495.00;<p>Cotton</p>;;;;;;;zerotype;;Summer;;No
1871670;W24149W22990-SONIC BLUE-1871670;KEVIN JEANS,38,33;Draft;Jeans;Wrangler;Adults-Men;Men;;;;Fashion;Casual;2017;28,WRNGJENS00007241,30,WRNGJENS00007242,32,WRNGJENS00007243,34,WRNGJENS00007244,36,WRNGJENS00007245,38,WRNGJENS00007246;2995.00;<p>Cotton</p>;;;;;;;zerotype;;Summer;;No
1871664;W19709W22912-Steel grey-1871664;TYLER JEANS,38,33;Draft;Jeans;Wrangler;Adults-Men;Men;;;;Fashion;Casual;2017;28,WRNGJENS00007205,30,WRNGJENS00007206,32,WRNGJENS00007207,34,WRNGJENS00007208,36,WRNGJENS00007209,38,WRNGJENS00007210;3495.00;<p>Cotton</p>;;;;;;;zerotype;;Summer;;No
1871661;W19701W2283G-Steel blue-1871661;OCTAVIO JEANS,36,33;Draft;Jeans;Wrangler;Adults-Men;Men;;;;Fashion;Casual;2017;28,WRNGJENS00007188,30,WRNGJENS00007189,32,WRNGJENS00007190,34,WRNGJENS00007191,36,WRNGJENS00007192;3495.00;<p>Cotton</p>;;;;;;;zerotype;;Summer;;No
1871658;W19697W2269F-Absolute light-1871658;STEFAN JEANS,38,33;Draft;Jeans;Wrangler;Adults-Men;Men;;;;Fashion;Casual;2017;28,WRNGJENS00007169,30,WRNGJENS00007170,32,WRNGJENS00007171,34,WRNGJENS00007172,36,WRNGJENS00007173,38,WRNGJENS00007174;2995.00;<p>Cotton</p>;;;;;;;zerotype;;Summer;;No
1871656;W19693W22944-sky bleach-1871656;WALTER JEANS,38,33;Draft;Jeans;Wrangler;Adults-Men;Men;;;;Fashion;Casual;2017;30,WRNGJENS00007158,32,WRNGJENS00007159,34,WRNGJENS00007160,36,WRNGJENS00007161,38,WRNGJENS00007162;3695.00;<p>Cotton</p>;;;;;;;zerotype;;Summer;;No
1871652;W19680W22900-Washed Indigo-1871652;OCEAN-B**,38,33;Draft;Jeans;Wrangler;Adults-Men;Men;;;;Fashion;Casual;2017;28,WRNGJENS00007134,30,WRNGJENS00007135,32,WRNGJENS00007136,34,WRNGJENS00007137,36,WRNGJENS00007138,38,WRNGJENS00007139;3295.00;<p>Cotton</p>;;;;;;;zerotype;;Summer;;No
1871651;W19679W2298B-Washed Indigo-1871651;OCEAN-A**,38,33;Draft;Jeans;Wrangler;Adults-Men;Men;;;;Fashion;Casual;2017;30,WRNGJENS00007129,32,WRNGJENS00007130,34,WRNGJENS00007131,36,WRNGJENS00007132,38,WRNGJENS00007133;2995.00;<p>Cotton</p>;;;;;;;zerotype;;Summer;;No
1871645;W19654W22990-Ocean Blue-1871645;DESTINY JEANS,38,33;Draft;Jeans;Wrangler;Adults-Men;Men;;;;Fashion;Casual;2017;28,WRNGJENS00007093,30,WRNGJENS00007094,32,WRNGJENS00007095,34,WRNGJENS00007096,36,WRNGJENS00007097,38,WRNGJENS00007098;3495.00;<p>Cotton</p>;;;;;;;zerotype;;Summer;;No
1871644;W19646W2283G-Dusty mist-1871644;ALLISON JEANS,38,33;Draft;Jeans;Wrangler;Adults-Men;Men;;;;Fashion;Casual;2017;30,WRNGJENS00007088,32,WRNGJENS00007089,34,WRNGJENS00007090,36,WRNGJENS00007091,38,WRNGJENS00007092;3295.00;<p>Cotton</p>;;;;;;;zerotype;;Summer;;No
1871642;W19636W22990-Blue Nitro-1871642;MARTIN JEANS**,38,31;Draft;Jeans;Wrangler;Adults-Men;Men;;;;Fashion;Casual;2017;28,WRNGJENS00007076,30,WRNGJENS00007077,32,WRNGJENS00007078,34,WRNGJENS00007079,36,WRNGJENS00007080,38,WRNGJENS00007081;3695.00;<p>Cotton</p>;;;;;;;zerotype;;Summer;;No
1871638;W19623W22990-Deep base-1871638;HAMPTON JEANS,38,33;Draft;Jeans;Wrangler;Adults-Men;Men;;;;Fashion;Casual;2017;28,WRNGJENS00007052,30,WRNGJENS00007053,32,WRNGJENS00007054,34,WRNGJENS00007055,36,WRNGJENS00007056,38,WRNGJENS00007057;3695.00;<p>Cotton</p>;;;;;;;zerotype;;Summer;;No
1871637;W19622W22990-Indigo Flux-1871637;XAVIER JEANS,38,33;Draft;Jeans;Wrangler;Adults-Men;Men;;;;Fashion;Casual;2017;28,WRNGJENS00007046,30,WRNGJENS00007047,32,WRNGJENS00007048,34,WRNGJENS00007049,36,WRNGJENS00007050,38,WRNGJENS00007051;3295.00;<p>Cotton</p>;;;;;;;zerotype;;Summer;;No
1871635;W19620W22990-Dark random-1871635;VICTOR JEANS**,38,33;Draft;Jeans;Wrangler;Adults-Men;Men;;;;Fashion;Casual;2017;28,WRNGJENS00007035,30,WRNGJENS00007036,32,WRNGJENS00007037,34,WRNGJENS00007038,36,WRNGJENS00007039,38,WRNGJENS00007040;3495.00;<p>Cotton</p>;;;;;;;zerotype;;Summer;;No
1871634;W19618W22990-Horizon fade-1871634;RAYN JEANS,38,33;Draft;Jeans;Wrangler;Adults-Men;Men;;;;Fashion;Casual;2017;28,WRNGJENS00007029,30,WRNGJENS00007030,32,WRNGJENS00007031,34,WRNGJENS00007032,36,WRNGJENS00007033,38,WRNGJENS00007034;3695.00;<p>Cotton</p>;;;;;;;zerotype;;Summer;;No
1871632;W19612W22944-Moon Struck-1871632;ERIC JEANS,38,33;Draft;Jeans;Wrangler;Adults-Men;Men;;;;Fashion;Casual;2017;28,WRNGJENS00007017,30,WRNGJENS00007018,32,WRNGJENS00007019,34,WRNGJENS00007020,36,WRNGJENS00007021,38,WRNGJENS00007022;2995.00;<p>Cotton</p>;;;;;;;zerotype;;Summer;;No
1871629;W19610W22990-Night sky-1871629;RIDER JEANS,38,33;Draft;Jeans;Wrangler;Adults-Men;Men;;;;Fashion;Casual;2017;28,WRNGJENS00007011,30,WRNGJENS00007012,32,WRNGJENS00007013,34,WRNGJENS00007014,36,WRNGJENS00007015,38,WRNGJENS00007016;2995.00;<p>Cotton</p>;;;;;;;zerotype;;Summer;;No
1871624;W19608W2201Z-Burning brush-1871624;SEVEN ICON CLASSIC 11,40,33;Draft;Jeans;Wrangler;Adults-Men;Men;;;;Fashion;Casual;2017;28,WRNGJENS00006998,30,WRNGJENS00006999,32,WRNGJENS00007000,34,WRNGJENS00007001,36,WRNGJENS00007002,38,WRNGJENS00007003,40,WRNGJENS00007004;2795.00;<p>Cotton</p>;;;;;;;zerotype;;Summer;;No
1860550;GCDBKCOSAA0148-Purple-1860550;GCDBKCOSAA0148gocoop;Draft;Sarees;gocoop;Adults-Women;Women;;;;Fashion;;2017;Onesize,GCOPTDSR00001124;1199.00;<p>Cotton</p>;;<p>Dry clean only</p>;;;Narayan Peth;;zerotype;;Summer;;No
1860549;GCDBKCOSAA0147-Peach-1860549;GCDBKCOSAA0147gocoop;Draft;Sarees;gocoop;Adults-Women;Women;;;;Fashion;;2017;Onesize,GCOPTDSR00001123;1199.00;<p>Cotton</p>;;<p>Dry clean only</p>;;;Narayan Peth;;zerotype;;Summer;;No
1860548;GCDBKCOSAA0146-Rust-1860548;GCDBKCOSAA0146gocoop;Draft;Sarees;gocoop;Adults-Women;Women;;;;Fashion;;2017;Onesize,GCOPTDSR00001122;1199.00;<p>Cotton</p>;;<p>Dry clean only</p>;;;Narayan Peth;;zerotype;;Summer;;No
1860547;GCDBKCOSAA0145-Olive-1860547;GCDBKCOSAA0145gocoop;Draft;Sarees;gocoop;Adults-Women;Women;;;;Fashion;;2017;Onesize,GCOPTDSR00001121;1149.00;<p>Cotton</p>;;<p>Dry clean only</p>;;;Narayan Peth;;zerotype;;Summer;;No
1860546;GCDBKCOSAA0144-Pink-1860546;GCDBKCOSAA0144gocoop;Draft;Sarees;gocoop;Adults-Women;Women;;;;Fashion;;2017;Onesize,GCOPTDSR00001120;1149.00;<p>Cotton</p>;;<p>Dry clean only</p>;;;Narayan Peth;;zerotype;;Summer;;No
1860544;GCDBKCOSAA0142-Pink-1860544;GCDBKCOSAA0142gocoop;Draft;Sarees;gocoop;Adults-Women;Women;;;;Fashion;;2017;Onesize,GCOPTDSR00001118;1049.00;<p>Cotton</p>;;<p>Dry clean only</p>;;;Narayan Peth;;zerotype;;Summer;;No
1860543;GCDBKCOSAA0141-Red-1860543;GCDBKCOSAA0141gocoop;Draft;Sarees;gocoop;Adults-Women;Women;;;;Fashion;;2017;Onesize,GCOPTDSR00001117;1049.00;<p>Cotton</p>;;<p>Dry clean only</p>;;;Narayan Peth;;zerotype;;Summer;;No
1860542;GCDBKCOSAA0140-Mustard-1860542;GCDBKCOSAA0140gocoop;Draft;Sarees;gocoop;Adults-Women;Women;;;;Fashion;;2017;Onesize,GCOPTDSR00001116;1049.00;<p>Cotton</p>;;<p>Dry clean only</p>;;;Narayan Peth;;zerotype;;Summer;;No
1860541;GCANGCOSAA0105-Blue-1860541;GCANGCOSAA0105gocoop;Draft;Sarees;gocoop;Adults-Women;Women;;;;Fashion;;2017;Onesize,GCOPTDSR00001115;3029.00;<p>Cotton</p>;;<p>Dry clean only</p>;;;Mangalgiri;;zerotype;;Summer;;No
1860540;GCANGCOSAA0104-Beige-1860540;GCANGCOSAA0104gocoop;Draft;Sarees;gocoop;Adults-Women;Women;;;;Fashion;;2017;Onesize,GCOPTDSR00001114;3029.00;<p>Cotton</p>;;<p>Dry clean only</p>;;;Mangalgiri;;zerotype;;Summer;;No
1860539;GCANGCOSAA0103-Turquoise blue-1860539;GCANGCOSAA0103gocoop;Draft;Sarees;gocoop;Adults-Women;Women;;;;Fashion;;2017;Onesize,GCOPTDSR00001113;3029.00;<p>Cotton</p>;;<p>Dry clean only</p>;;;Mangalgiri;;zerotype;;Summer;;No
1860538;GCANGCOSAA0102-Turquoise blue-1860538;GCANGCOSAA0102gocoop;Draft;Sarees;gocoop;Adults-Women;Women;;;;Fashion;;2017;Onesize,GCOPTDSR00001112;4069.00;<p>Cotton</p>;;<p>Dry clean only</p>;;;Mangalgiri;;zerotype;;Summer;;No
1860537;GCANGCOSAA0101-Blue-1860537;GCANGCOSAA0101gocoop;Draft;Sarees;gocoop;Adults-Women;Women;;;;Fashion;;2017;Onesize,GCOPTDSR00001111;4069.00;<p>Cotton</p>;;<p>Dry clean only</p>;;;Mangalgiri;;zerotype;;Summer;;No
1860534;GCNBMSCSAA0104-Green-1860534;GCNBMSCSAA0104gocoop;Draft;Sarees;gocoop;Adults-Women;Women;;;;Fashion;;2017;Onesize,GCOPTDSR00001108;6049.00;<p>Silk</p>;;<p>Dry clean only</p>;;;Bomkai;;zerotype;;Summer;;No
1860533;GCNBMSCSAA0103-Maroon-1860533;GCNBMSCSAA0103gocoop;Draft;Sarees;gocoop;Adults-Women;Women;;;;Fashion;;2017;Onesize,GCOPTDSR00001107;6569.00;<p>Silk</p>;;<p>Dry clean only</p>;;;Bomkai;;zerotype;;Summer;;No
1860532;GCNBMSCSAA0102-Maroon-1860532;GCNBMSCSAA0102gocoop;Draft;Sarees;gocoop;Adults-Women;Women;;;;Fashion;;2017;Onesize,GCOPTDSR00001106;5549.00;<p>Silk</p>;;<p>Dry clean only</p>;;;Bomkai;;zerotype;;Summer;;No
1860531;GCNBMSCSAA0101-Black-1860531;GCNBMSCSAA0101gocoop;Draft;Sarees;gocoop;Adults-Women;Women;;;;Fashion;;2017;Onesize,GCOPTDSR00001105;6359.00;<p>Silk</p>;;<p>Dry clean only</p>;;;Bomkai;;zerotype;;Summer;;No
1860530;GCNBMSCSAA0100-Maroon-1860530;GCNBMSCSAA0100gocoop;Draft;Sarees;gocoop;Adults-Women;Women;;;;Fashion;;2017;Onesize,GCOPTDSR00001104;5319.00;<p>Silk</p>;;<p>Dry clean only</p>;;;Bomkai;;zerotype;;Summer;;No
1860529;GCSTOCBSAA0109-Blue-1860529;GCSTOCBSAA0109gocoop;Draft;Sarees;gocoop;Adults-Women;Women;;;;Fashion;;2017;Onesize,GCOPTDSR00001103;4799.00;<p>Cotton</p>;;<p>Dry clean only</p>;;;Sambalpuri;;zerotype;;Summer;;No
1860528;GCSTOCBSAA0108-White-1860528;GCSTOCBSAA0108gocoop;Draft;Sarees;gocoop;Adults-Women;Women;;;;Fashion;;2017;Onesize,GCOPTDSR00001102;5419.00;<p>Cotton</p>;;<p>Dry clean only</p>;;;Sambalpuri;;zerotype;;Summer;;No
1860527;GCSTOCBSAA0107-Green-1860527;GCSTOCBSAA0107gocoop;Draft;Sarees;gocoop;Adults-Women;Women;;;;Fashion;;2017;Onesize,GCOPTDSR00001101;3959.00;<p>Cotton</p>;;<p>Dry clean only</p>;;;Sambalpuri;;zerotype;;Summer;;No
1860526;GCSTOCBSAA0106-Black-1860526;GCSTOCBSAA0106gocoop;Draft;Sarees;gocoop;Adults-Women;Women;;;;Fashion;;2017;Onesize,GCOPTDSR00001100;4899.00;<p>Cotton</p>;;<p>Dry clean only</p>;;;Sambalpuri;;zerotype;;Summer;;No
1860525;GCSTOCBSAA0105-Grey-1860525;GCSTOCBSAA0105gocoop;Draft;Sarees;gocoop;Adults-Women;Women;;;;Fashion;;2017;Onesize,GCOPTDSR00001099;4899.00;<p>Cotton</p>;;<p>Dry clean only</p>;;;Sambalpuri;;zerotype;;Summer;;No
1860523;GCNRMCOSAA0109-Purple-1860523;GCNRMCOSAA0109gocoop;Draft;Sarees;gocoop;Adults-Women;Women;;;;Fashion;;2017;Onesize,GCOPTDSR00001097;1419.00;<p>Cotton</p>;;<p>Dry clean only</p>;;;Narayan Peth;;zerotype;;Summer;;No
1860522;GCNRMCOSAA0108-Green-1860522;GCNRMCOSAA0108gocoop;Draft;Sarees;gocoop;Adults-Women;Women;;;;Fashion;;2017;Onesize,GCOPTDSR00001096;1419.00;<p>Cotton</p>;;<p>Dry clean only</p>;;;Narayan Peth;;zerotype;;Summer;;No
1860521;GCNRMCOSAA0107-Navy Blue-1860521;GCNRMCOSAA0107gocoop;Draft;Sarees;gocoop;Adults-Women;Women;;;;Fashion;;2017;Onesize,GCOPTDSR00001095;1419.00;<p>Cotton</p>;;<p>Dry clean only</p>;;;Narayan Peth;;zerotype;;Summer;;No
1860520;GCNRMCOSAA0106-Grey-1860520;GCNRMCOSAA0106gocoop;Draft;Sarees;gocoop;Adults-Women;Women;;;;Fashion;;2017;Onesize,GCOPTDSR00001094;1419.00;<p>Cotton</p>;;<p>Dry clean only</p>;;;Narayan Peth;;zerotype;;Summer;;No
1860519;GCNRMCOSAA0105-Teal-1860519;GCNRMCOSAA0105gocoop;Draft;Sarees;gocoop;Adults-Women;Women;;;;Fashion;;2017;Onesize,GCOPTDSR00001093;1119.00;<p>Cotton</p>;;<p>Dry clean only</p>;;;Narayan Peth;;zerotype;;Summer;;No
1860518;GCNRMCOSAA0104-Green-1860518;GCNRMCOSAA0104gocoop;Draft;Sarees;gocoop;Adults-Women;Women;;;;Fashion;;2017;Onesize,GCOPTDSR00001092;1119.00;<p>Cotton</p>;;<p>Dry clean only</p>;;;Narayan Peth;;zerotype;;Summer;;No
1860517;GCNRMCOSAA0103-Navy Blue-1860517;GCNRMCOSAA0103gocoop;Draft;Sarees;gocoop;Adults-Women;Women;;;;Fashion;;2017;Onesize,GCOPTDSR00001091;1089.00;<p>Cotton</p>;;<p>Dry clean only</p>;;;Narayan Peth;;zerotype;;Summer;;No
1860516;GCNRMCOSAA0102-Blue-1860516;GCNRMCOSAA0102gocoop;Draft;Sarees;gocoop;Adults-Women;Women;;;;Fashion;;2017;Onesize,GCOPTDSR00001090;1089.00;<p>Cotton</p>;;<p>Dry clean only</p>;;;Narayan Peth;;zerotype;;Summer;;No
1860515;GCNRMCOSAA0101-Beige-1860515;GCNRMCOSAA0101gocoop;Draft;Sarees;gocoop;Adults-Women;Women;;;;Fashion;;2017;Onesize,GCOPTDSR00001089;1049.00;<p>Cotton</p>;;<p>Dry clean only</p>;;;Narayan Peth;;zerotype;;Summer;;No
1860514;GCNRMCOSAA0100-Rust-1860514;GCNRMCOSAA0100gocoop;Draft;Sarees;gocoop;Adults-Women;Women;;;;Fashion;;2017;Onesize,GCOPTDSR00001088;1049.00;<p>Cotton</p>;;<p>Dry clean only</p>;;;Narayan Peth;;zerotype;;Summer;;No
1860513;GCMOHSCSAA0163-Blue-1860513;GCMOHSCSAA0163gocoop;Draft;Sarees;gocoop;Adults-Women;Women;;;;Fashion;;2017;Onesize,GCOPTDSR00001087;2299.00;<p>Silk</p>;;<p>Dry clean only</p>;;;Chanderi Indigo Print;;zerotype;;Summer;;No
1860512;GCMOHSCSAA0162-Blue-1860512;GCMOHSCSAA0162gocoop;Draft;Sarees;gocoop;Adults-Women;Women;;;;Fashion;;2017;Onesize,GCOPTDSR00001086;2299.00;<p>Silk</p>;;<p>Dry clean only</p>;;;Chanderi Indigo Print;;zerotype;;Summer;;No
1860511;GCMOHSCSAA0161-Blue-1860511;GCMOHSCSAA0161gocoop;Draft;Sarees;gocoop;Adults-Women;Women;;;;Fashion;;2017;Onesize,GCOPTDSR00001085;2299.00;<p>Silk</p>;;<p>Dry clean only</p>;;;Chanderi Indigo Print;;zerotype;;Summer;;No
1860510;GCMOHSCSAA0160-Blue-1860510;GCMOHSCSAA0160gocoop;Draft;Sarees;gocoop;Adults-Women;Women;;;;Fashion;;2017;Onesize,GCOPTDSR00001084;2299.00;<p>Silk</p>;;<p>Dry clean only</p>;;;Chanderi Indigo Print;;zerotype;;Summer;;No
1860509;GCMOHSCSAA0159-Blue-1860509;GCMOHSCSAA0159gocoop;Draft;Sarees;gocoop;Adults-Women;Women;;;;Fashion;;2017;Onesize,GCOPTDSR00001083;2299.00;<p>Silk</p>;;<p>Dry clean only</p>;;;Chanderi Indigo Print;;zerotype;;Summer;;No
1860508;GCMOHSCSAA0158-Blue-1860508;GCMOHSCSAA0158gocoop;Draft;Sarees;gocoop;Adults-Women;Women;;;;Fashion;;2017;Onesize,GCOPTDSR00001082;4169.00;<p>Silk</p>;;<p>Dry clean only</p>;;;Chanderi;;zerotype;;Summer;;No
1860507;GCMOHSCSAA0157-Beige-1860507;GCMOHSCSAA0157gocoop;Draft;Sarees;gocoop;Adults-Women;Women;;;;Fashion;;2017;Onesize,GCOPTDSR00001081;4169.00;<p>Silk</p>;;<p>Dry clean only</p>;;;Chanderi;;zerotype;;Summer;;No
1860506;GCMOHSCSAA0156-Grey-1860506;GCMOHSCSAA0156gocoop;Draft;Sarees;gocoop;Adults-Women;Women;;;;Fashion;;2017;Onesize,GCOPTDSR00001080;4169.00;<p>Silk</p>;;<p>Dry clean only</p>;;;Chanderi;;zerotype;;Summer;;No
1860505;GCMOHSCSAA0155-Magenta-1860505;GCMOHSCSAA0155gocoop;Draft;Sarees;gocoop;Adults-Women;Women;;;;Fashion;;2017;Onesize,GCOPTDSR00001079;4169.00;<p>Silk</p>;;<p>Dry clean only</p>;;;Chanderi;;zerotype;;Summer;;No
1860504;GCSBSSCSAA0102-Mustard-1860504;GCSBSSCSAA0102gocoop;Draft;Sarees;gocoop;Adults-Women;Women;;;;Fashion;;2017;Onesize,GCOPTDSR00001078;4589.00;<p>Silk</p>;;<p>Dry clean only</p>;;;Chanderi;;zerotype;;Summer;;No
1860503;GCSBSSCSAA0101-Grey-1860503;GCSBSSCSAA0101gocoop;Draft;Sarees;gocoop;Adults-Women;Women;;;;Fashion;;2017;Onesize,GCOPTDSR00001077;4589.00;<p>Silk</p>;;<p>Dry clean only</p>;;;Chanderi;;zerotype;;Summer;;No
1860502;GCSBSSCSAA0100-Green-1860502;GCSBSSCSAA0100gocoop;Draft;Sarees;gocoop;Adults-Women;Women;;;;Fashion;;2017;Onesize,GCOPTDSR00001076;4379.00;<p>Silk</p>;;<p>Dry clean only</p>;;;Chanderi;;zerotype;;Summer;;No
1860501;GCJMBCOSAA0168-Multi-1860501;GCJMBCOSAA0168gocoop;Draft;Sarees;gocoop;Adults-Women;Women;;;;Fashion;;2017;Onesize,GCOPTDSR00001075;689.00;<p>Cotton</p>;;<p>Dry clean only</p>;;;Dhaniyakhali;;zerotype;;Summer;;No
1860500;GCJMBCOSAA0167-Multi-1860500;GCJMBCOSAA0167gocoop;Draft;Sarees;gocoop;Adults-Women;Women;;;;Fashion;;2017;Onesize,GCOPTDSR00001074;689.00;<p>Cotton</p>;;<p>Dry clean only</p>;;;Dhaniyakhali;;zerotype;;Summer;;No
1860499;GCJMBCOSAA0166-Multi-1860499;GCJMBCOSAA0166gocoop;Draft;Sarees;gocoop;Adults-Women;Women;;;;Fashion;;2017;Onesize,GCOPTDSR00001073;799.00;<p>Cotton</p>;;<p>Dry clean only</p>;;;Dhaniyakhali;;zerotype;;Summer;;No
1860498;GCJMBCOSAA0165-Multi-1860498;GCJMBCOSAA0165gocoop;Draft;Sarees;gocoop;Adults-Women;Women;;;;Fashion;;2017;Onesize,GCOPTDSR00001072;799.00;<p>Cotton</p>;;<p>Dry clean only</p>;;;Dhaniyakhali;;zerotype;;Summer;;No
1860497;GCJMBCOSAA0164-Multi-1860497;GCJMBCOSAA0164gocoop;Draft;Sarees;gocoop;Adults-Women;Women;;;;Fashion;;2017;Onesize,GCOPTDSR00001071;829.00;<p>Cotton</p>;;<p>Dry clean only</p>;;;Dhaniyakhali;;zerotype;;Summer;;No
1860496;GCJMBCOSAA0163-Yellow-1860496;GCJMBCOSAA0163gocoop;Draft;Sarees;gocoop;Adults-Women;Women;;;;Fashion;;2017;Onesize,GCOPTDSR00001070;829.00;<p>Cotton</p>;;<p>Dry clean only</p>;;;Dhaniyakhali;;zerotype;;Summer;;No
1860495;GCJMBCOSAA0162-Beige-1860495;GCJMBCOSAA0162gocoop;Draft;Sarees;gocoop;Adults-Women;Women;;;;Fashion;;2017;Onesize,GCOPTDSR00001069;829.00;<p>Cotton</p>;;<p>Dry clean only</p>;;;Dhaniyakhali;;zerotype;;Summer;;No
1860494;GCJMBCOSAA0161-Peach-1860494;GCJMBCOSAA0161gocoop;Draft;Sarees;gocoop;Adults-Women;Women;;;;Fashion;;2017;Onesize,GCOPTDSR00001068;919.00;<p>Cotton</p>;;<p>Dry clean only</p>;;;Dhaniyakhali;;zerotype;;Summer;;No
1860493;GCJMBCOSAA0160-Beige-1860493;GCJMBCOSAA0160gocoop;Draft;Sarees;gocoop;Adults-Women;Women;;;;Fashion;;2017;Onesize,GCOPTDSR00001067;919.00;<p>Cotton</p>;;<p>Dry clean only</p>;;;Dhaniyakhali;;zerotype;;Summer;;No
1860492;GCJMBCOSAA0159-Peach-1860492;GCJMBCOSAA0159gocoop;Draft;Sarees;gocoop;Adults-Women;Women;;;;Fashion;;2017;Onesize,GCOPTDSR00001066;919.00;<p>Cotton</p>;;<p>Dry clean only</p>;;;Dhaniyakhali;;zerotype;;Summer;;No
1860491;GCJMBCOSAA0158-Peach-1860491;GCJMBCOSAA0158gocoop;Draft;Sarees;gocoop;Adults-Women;Women;;;;Fashion;;2017;Onesize,GCOPTDSR00001065;759.00;<p>Cotton</p>;;<p>Dry clean only</p>;;;Dhaniyakhali;;zerotype;;Summer;;No
1860490;GCJMBCOSAA0157-Turquoise Blue-1860490;GCJMBCOSAA0157gocoop;Draft;Sarees;gocoop;Adults-Women;Women;;;;Fashion;;2017;Onesize,GCOPTDSR00001064;1709.00;<p>Cotton</p>;;<p>Dry clean only</p>;;;Dhakai;;zerotype;;Summer;;No
1860489;GCJMBCOSAA0156-Black-1860489;GCJMBCOSAA0156gocoop;Draft;Sarees;gocoop;Adults-Women;Women;;;;Fashion;;2017;Onesize,GCOPTDSR00001063;2189.00;<p>Cotton</p>;;<p>Dry clean only</p>;;;Jamdani;;zerotype;;Summer;;No
1860488;GCJMBCOSAA0155-Sea Green-1860488;GCJMBCOSAA0155gocoop;Draft;Sarees;gocoop;Adults-Women;Women;;;;Fashion;;2017;Onesize,GCOPTDSR00001062;1709.00;<p>Cotton</p>;;<p>Dry clean only</p>;;;Dhakai;;zerotype;;Summer;;No
1860487;GCJMBCOSAA0154-White-1860487;GCJMBCOSAA0154gocoop;Draft;Sarees;gocoop;Adults-Women;Women;;;;Fashion;;2017;Onesize,GCOPTDSR00001061;1709.00;<p>Cotton</p>;;<p>Dry clean only</p>;;;Dhakai;;zerotype;;Summer;;No
1860486;GCJMBCOSAA0153-Beige-1860486;GCJMBCOSAA0153gocoop;Draft;Sarees;gocoop;Adults-Women;Women;;;;Fashion;;2017;Onesize,GCOPTDSR00001060;1779.00;<p>Cotton</p>;;<p>Dry clean only</p>;;;Dhakai;;zerotype;;Summer;;No
1860485;GCJMBCOSAA0152-Beige-1860485;GCJMBCOSAA0152gocoop;Draft;Sarees;gocoop;Adults-Women;Women;;;;Fashion;;2017;Onesize,GCOPTDSR00001059;1709.00;<p>Cotton</p>;;<p>Dry clean only</p>;;;Dhakai;;zerotype;;Summer;;No
1860484;GCJMBCOSAA0151-Turquoise Blue-1860484;GCJMBCOSAA0151gocoop;Draft;Sarees;gocoop;Adults-Women;Women;;;;Fashion;;2017;Onesize,GCOPTDSR00001058;1709.00;<p>Cotton</p>;;<p>Dry clean only</p>;;;Dhakai;;zerotype;;Summer;;No
1860483;GCJMBCOSAA0150-Pink-1860483;GCJMBCOSAA0150gocoop;Draft;Sarees;gocoop;Adults-Women;Women;;;;Fashion;;2017;Onesize,GCOPTDSR00001057;929.00;<p>Cotton</p>;;<p>Dry clean only</p>;;;Dhaniyakhali;;zerotype;;Summer;;No
1860482;GCJMBCOSAA0149-Beige-1860482;GCJMBCOSAA0149gocoop;Draft;Sarees;gocoop;Adults-Women;Women;;;;Fashion;;2017;Onesize,GCOPTDSR00001056;2249.00;<p>Cotton</p>;;<p>Dry clean only</p>;;;Taant;;zerotype;;Summer;;No
1860481;GCJMBCOSAA0148-Rust-1860481;GCJMBCOSAA0148gocoop;Draft;Sarees;gocoop;Adults-Women;Women;;;;Fashion;;2017;Onesize,GCOPTDSR00001055;1669.00;<p>Cotton</p>;;<p>Dry clean only</p>;;;Taant;;zerotype;;Summer;;No
1860480;GCJMBCOSAA0147-Turquoise Blue-1860480;GCJMBCOSAA0147gocoop;Draft;Sarees;gocoop;Adults-Women;Women;;;;Fashion;;2017;Onesize,GCOPTDSR00001054;1669.00;<p>Cotton</p>;;<p>Dry clean only</p>;;;Taant;;zerotype;;Summer;;No
1860479;GCJMBCOSAA0146-Peach-1860479;GCJMBCOSAA0146gocoop;Draft;Sarees;gocoop;Adults-Women;Women;;;;Fashion;;2017;Onesize,GCOPTDSR00001053;1919.00;<p>Cotton</p>;;<p>Dry clean only</p>;;;Taant;;zerotype;;Summer;;No
1860478;GCATECOSAA0123-Multi-1860478;GCATECOSAA0123gocoop;Draft;Sarees;gocoop;Adults-Women;Women;;;;Fashion;;2017;Onesize,GCOPTDSR00001052;1799.00;<p>Cotton</p>;;<p>Dry clean only</p>;;;Chettinad;;zerotype;;Summer;;No
1860477;GCATECOSAA0122-Multi-1860477;GCATECOSAA0122gocoop;Draft;Sarees;gocoop;Adults-Women;Women;;;;Fashion;;2017;Onesize,GCOPTDSR00001051;1799.00;<p>Cotton</p>;;<p>Dry clean only</p>;;;Chettinad;;zerotype;;Summer;;No
1860476;GCATECOSAA0121-Multi-1860476;GCATECOSAA0121gocoop;Draft;Sarees;gocoop;Adults-Women;Women;;;;Fashion;;2017;Onesize,GCOPTDSR00001050;1799.00;<p>Cotton</p>;;<p>Dry clean only</p>;;;Chettinad;;zerotype;;Summer;;No
1860475;GCATECOSAA0120-Multi-1860475;GCATECOSAA0120gocoop;Draft;Sarees;gocoop;Adults-Women;Women;;;;Fashion;;2017;Onesize,GCOPTDSR00001049;1799.00;<p>Cotton</p>;;<p>Dry clean only</p>;;;Chettinad;;zerotype;;Summer;;No
1860474;GCATECOSAA0119-Multi-1860474;GCATECOSAA0119gocoop;Draft;Sarees;gocoop;Adults-Women;Women;;;;Fashion;;2017;Onesize,GCOPTDSR00001048;1799.00;<p>Cotton</p>;;<p>Dry clean only</p>;;;Chettinad;;zerotype;;Summer;;No
1860473;GCATECOSAA0118-Multi-1860473;GCATECOSAA0118gocoop;Draft;Sarees;gocoop;Adults-Women;Women;;;;Fashion;;2017;Onesize,GCOPTDSR00001047;1799.00;<p>Cotton</p>;;<p>Dry clean only</p>;;;Chettinad;;zerotype;;Summer;;No
1860472;GCATECOSAA0117-Multi-1860472;GCATECOSAA0117gocoop;Draft;Sarees;gocoop;Adults-Women;Women;;;;Fashion;;2017;Onesize,GCOPTDSR00001046;1799.00;<p>Cotton</p>;;<p>Dry clean only</p>;;;Chettinad;;zerotype;;Summer;;No
1860471;GCATECOSAA0116-Multi-1860471;GCATECOSAA0116gocoop;Draft;Sarees;gocoop;Adults-Women;Women;;;;Fashion;;2017;Onesize,GCOPTDSR00001045;1799.00;<p>Cotton</p>;;<p>Dry clean only</p>;;;Chettinad;;zerotype;;Summer;;No
1860470;GCATECOSAA0115-Multi-1860470;GCATECOSAA0115gocoop;Draft;Sarees;gocoop;Adults-Women;Women;;;;Fashion;;2017;Onesize,GCOPTDSR00001044;1799.00;<p>Cotton</p>;;<p>Dry clean only</p>;;;Chettinad;;zerotype;;Summer;;No
1860469;GCATECOSAA0114-Multi-1860469;GCATECOSAA0114gocoop;Draft;Sarees;gocoop;Adults-Women;Women;;;;Fashion;;2017;Onesize,GCOPTDSR00001043;1799.00;<p>Cotton</p>;;<p>Dry clean only</p>;;;Chettinad;;zerotype;;Summer;;No
1860468;GCATECOSAA0113-Multi-1860468;GCATECOSAA0113gocoop;Draft;Sarees;gocoop;Adults-Women;Women;;;;Fashion;;2017;Onesize,GCOPTDSR00001042;1799.00;<p>Cotton</p>;;<p>Dry clean only</p>;;;Chettinad;;zerotype;;Summer;;No
