Style ID;Vendor Article Number;Vendor Article Name;Active Status;Article type;Brand;Age Group;Gender;Base Colour;Colour1;Colour2;Fashion Type;Usage;Year;Size - SKU code pair;MRP;Style Description;Style Note;Materials and Care Description;Size and Fit Description;Size Chart Path;Product Display Name;Tags;Product Type;Classification Brand;Season;Comments;Upload Images
1943037;LSN014_10-Brown-1943037;LSN014BROWN44;Draft;Formal Shoes;Ferraiolo;Adults-Men;Men;Brown;;;Core;;2017;UK 6,FRLOFOSH00000275,UK 7,FRLOFOSH00000276,UK 8,FRLOFOSH00000277,UK 9,FRLOFOSH00000278,UK 10,FRLOFOSH00000279;1599.00;;;;;;;;zerotype;;Summer;;No
1943036;LSN013_10-Brown-1943036;LSN013BROWN44;Draft;Formal Shoes;Ferraiolo;Adults-Men;Men;Brown;;;Core;;2017;UK 6,FRLOFOSH00000270,UK 7,FRLOFOSH00000271,UK 8,FRLOFOSH00000272,UK 9,FRLOFOSH00000273,UK 10,FRLOFOSH00000274;1599.00;;;;;;;;zerotype;;Summer;;No
1943034;LSN012_10-Tan-1943034;LSN012TAN44;Draft;Formal Shoes;Ferraiolo;Adults-Men;Men;Tan;;;Core;;2017;UK 6,FRLOFOSH00000265,UK 7,FRLOFOSH00000266,UK 8,FRLOFOSH00000267,UK 9,FRLOFOSH00000268,UK 10,FRLOFOSH00000269;1599.00;;;;;;;;zerotype;;Summer;;No
1943032;LV3403_10-Brown-1943032;LV3403BROWN44;Draft;Formal Shoes;Ferraiolo;Adults-Men;Men;Brown;;;Core;;2017;UK 6,FRLOFOSH00000260,UK 7,FRLOFOSH00000261,UK 8,FRLOFOSH00000262,UK 9,FRLOFOSH00000263,UK 10,FRLOFOSH00000264;1599.00;;;;;;;;zerotype;;Summer;;No
1943031;LV3402_10-Black-1943031;LV3402BLACK44;Draft;Formal Shoes;Ferraiolo;Adults-Men;Men;Black;;;Core;;2017;UK 6,FRLOFOSH00000255,UK 7,FRLOFOSH00000256,UK 8,FRLOFOSH00000257,UK 9,FRLOFOSH00000258,UK 10,FRLOFOSH00000259;1599.00;;;;;;;;zerotype;;Summer;;No
1943029;BT003_10-Black-1943029;BT003BLACK44;Draft;Formal Shoes;Ferraiolo;Adults-Men;Men;Black;;;Core;;2017;UK 6,FRLOFOSH00000250,UK 7,FRLOFOSH00000251,UK 8,FRLOFOSH00000252,UK 9,FRLOFOSH00000253,UK 10,FRLOFOSH00000254;1299.00;;;;;;;;zerotype;;Summer;;No
1943028;BT002_10-Brown-1943028;BT002BROWN44;Draft;Formal Shoes;Ferraiolo;Adults-Men;Men;Brown;;;Core;;2017;UK 9,FRLOFOSH00000248,UK 10,FRLOFOSH00000249;1299.00;;;;;;;;zerotype;;Summer;;No
1943026;SN02_10-Brown-1943026;SN02BROWN44;Draft;Casual Shoes;Ferraiolo;Adults-Men;Men;Brown;;;Core;;2017;UK6,FRLOCASH00000280,UK7,FRLOCASH00000281,UK8,FRLOCASH00000282,UK9,FRLOCASH00000283,UK10,FRLOCASH00000284;699.00;;;;;;;;zerotype;;Summer;;No
1943024;SN01_10-Blue-1943024;SN01BLUE44;Draft;Casual Shoes;Ferraiolo;Adults-Men;Men;Blue;;;Core;;2017;UK6,FRLOCASH00000275,UK7,FRLOCASH00000276,UK8,FRLOCASH00000277,UK9,FRLOCASH00000278,UK10,FRLOCASH00000279;699.00;;;;;;;;zerotype;;Summer;;No
