Style ID;Vendor Article Number;Vendor Article Name;Active Status;Article type;Brand;Age Group;Gender;Base Colour;Colour1;Colour2;Fashion Type;Usage;Year;Size - SKU code pair;MRP;Style Description;Style Note;Materials and Care Description;Size and Fit Description;Size Chart Path;Product Display Name;Tags;Product Type;Classification Brand;Season;Comments;Upload Images
1939309;131060613549 C459-Red-1939309;CR RAMB TEE H C459;Draft;Tshirts;Palm Tree;Kids-Boys;Boys;Red;;;Fashion;Casual;2016;10,PMTRTSHT00002842,12,PMTRTSHT00002843,14,PMTRTSHT00002844,16,PMTRTSHT00002845;599.00;;;;;;;;zerotype;;Winter;;No
1939308;131060613549 C459-Red-1939308;CR RAMB TEE H C459;Draft;Tshirts;Palm Tree;Kids-Boys;Boys;Red;;;Fashion;Casual;2016;02,PMTRTSHT00002838,04,PMTRTSHT00002839,06,PMTRTSHT00002840,08,PMTRTSHT00002841;549.00;;;;;;;;zerotype;;Winter;;No
1939307;131060613549 C459-Red-1939307;CR RAMB TEE H C459;Draft;Tshirts;Palm Tree;Kids-Boys;Boys;Red;;;Fashion;Casual;2016;12M,PMTRTSHT00002835,18M,PMTRTSHT00002836,24M,PMTRTSHT00002837;499.00;;;;;;;;zerotype;;Winter;;No
1939306;131060612941 C603-Blue-1939306;CR RAMBO TEE H C603;Draft;Tshirts;Palm Tree;Kids-Boys;Boys;Blue;;;Fashion;Casual;2016;10,PMTRTSHT00002831,12,PMTRTSHT00002832,14,PMTRTSHT00002833,16,PMTRTSHT00002834;449.00;;;;;;;;zerotype;;Winter;;No
1939305;131060612941 C603-Blue-1939305;CR RAMBO TEE H C603;Draft;Tshirts;Palm Tree;Kids-Boys;Boys;Blue;;;Fashion;Casual;2016;02,PMTRTSHT00002827,04,PMTRTSHT00002828,06,PMTRTSHT00002829,08,PMTRTSHT00002830;399.00;;;;;;;;zerotype;;Winter;;No
1939304;131060612941 C603-Blue-1939304;CR RAMBO TEE H C603;Draft;Tshirts;Palm Tree;Kids-Boys;Boys;Blue;;;Fashion;Casual;2016;12M,PMTRTSHT00002824,18M,PMTRTSHT00002825,24M,PMTRTSHT00002826;349.00;;;;;;;;zerotype;;Winter;;No
1939303;131060612941 C101-White-1939303;CR RAMBO TEE H C101;Draft;Tshirts;Palm Tree;Kids-Boys;Boys;White;;;Fashion;Casual;2016;10,PMTRTSHT00002820,12,PMTRTSHT00002821,14,PMTRTSHT00002822,16,PMTRTSHT00002823;449.00;;;;;;;;zerotype;;Winter;;No
1939302;131060612941 C101-White-1939302;CR RAMBO TEE H C101;Draft;Tshirts;Palm Tree;Kids-Boys;Boys;White;;;Fashion;Casual;2016;02,PMTRTSHT00002816,04,PMTRTSHT00002817,06,PMTRTSHT00002818,08,PMTRTSHT00002819;399.00;;;;;;;;zerotype;;Winter;;No
1939301;131060612941 C101-White-1939301;CR RAMBO TEE H C101;Draft;Tshirts;Palm Tree;Kids-Boys;Boys;White;;;Fashion;Casual;2016;12M,PMTRTSHT00002813,18M,PMTRTSHT00002814,24M,PMTRTSHT00002815;349.00;;;;;;;;zerotype;;Winter;;No
1939300;131042622725 C204-Grey-1939300;AS ASHTON POLO F C204;Draft;Tshirts;Palm Tree;Kids-Boys;Boys;Grey;;;Fashion;Casual;2016;10,PMTRTSHT00002809,12,PMTRTSHT00002810,14,PMTRTSHT00002811,16,PMTRTSHT00002812;799.00;;;;;;;;zerotype;;Winter;;No
1939299;131042622725 C204-Grey-1939299;AS ASHTON POLO F C204;Draft;Tshirts;Palm Tree;Kids-Boys;Boys;Grey;;;Fashion;Casual;2016;02,PMTRTSHT00002805,04,PMTRTSHT00002806,06,PMTRTSHT00002807,08,PMTRTSHT00002808;699.00;;;;;;;;zerotype;;Winter;;No
1939298;131042622725 C204-Grey-1939298;AS ASHTON POLO F C204;Draft;Tshirts;Palm Tree;Kids-Boys;Boys;Grey;;;Fashion;Casual;2016;12M,PMTRTSHT00002802,18M,PMTRTSHT00002803,24M,PMTRTSHT00002804;599.00;;;;;;;;zerotype;;Winter;;No
1939297;131042622719 C207-Grey-1939297;CR BROWN POLO F C207;Draft;Tshirts;Palm Tree;Kids-Boys;Boys;Grey;;;Fashion;Casual;2016;10,PMTRTSHT00002798,12,PMTRTSHT00002799,14,PMTRTSHT00002800,16,PMTRTSHT00002801;599.00;;;;;;;;zerotype;;Winter;;No
1939296;131042622719 C207-Grey-1939296;CR BROWN POLO F C207;Draft;Tshirts;Palm Tree;Kids-Boys;Boys;Grey;;;Fashion;Casual;2016;02,PMTRTSHT00002794,04,PMTRTSHT00002795,06,PMTRTSHT00002796,08,PMTRTSHT00002797;549.00;;;;;;;;zerotype;;Winter;;No
1939295;131042622719 C207-Grey-1939295;CR BROWN POLO F C207;Draft;Tshirts;Palm Tree;Kids-Boys;Boys;Grey;;;Fashion;Casual;2016;12M,PMTRTSHT00002791,18M,PMTRTSHT00002792,24M,PMTRTSHT00002793;499.00;;;;;;;;zerotype;;Winter;;No
1939294;131042622719 C206-Grey-1939294;CR BROWN POLO F C206;Draft;Tshirts;Palm Tree;Kids-Boys;Boys;Grey;;;Fashion;Casual;2016;10,PMTRTSHT00002787,12,PMTRTSHT00002788,14,PMTRTSHT00002789,16,PMTRTSHT00002790;599.00;;;;;;;;zerotype;;Winter;;No
1939293;131042622719 C206-Grey-1939293;CR BROWN POLO F C206;Draft;Tshirts;Palm Tree;Kids-Boys;Boys;Grey;;;Fashion;Casual;2016;02,PMTRTSHT00002783,04,PMTRTSHT00002784,06,PMTRTSHT00002785,08,PMTRTSHT00002786;549.00;;;;;;;;zerotype;;Winter;;No
1939292;131042622719 C206-Grey-1939292;CR BROWN POLO F C206;Draft;Tshirts;Palm Tree;Kids-Boys;Boys;Grey;;;Fashion;Casual;2016;12M,PMTRTSHT00002780,18M,PMTRTSHT00002781,24M,PMTRTSHT00002782;499.00;;;;;;;;zerotype;;Winter;;No
1939291;131042622718 C101-White-1939291;CR BROC POLO F C101;Draft;Tshirts;Palm Tree;Kids-Boys;Boys;White;;;Fashion;Casual;2016;10,PMTRTSHT00002776,12,PMTRTSHT00002777,14,PMTRTSHT00002778,16,PMTRTSHT00002779;799.00;;;;;;;;zerotype;;Winter;;No
1939290;131042622718 C101-White-1939290;CR BROC POLO F C101;Draft;Tshirts;Palm Tree;Kids-Boys;Boys;White;;;Fashion;Casual;2016;02,PMTRTSHT00002772,04,PMTRTSHT00002773,06,PMTRTSHT00002774,08,PMTRTSHT00002775;699.00;;;;;;;;zerotype;;Winter;;No
1939289;131042622718 C101-White-1939289;CR BROC POLO F C101;Draft;Tshirts;Palm Tree;Kids-Boys;Boys;White;;;Fashion;Casual;2016;12M,PMTRTSHT00002769,18M,PMTRTSHT00002770,24M,PMTRTSHT00002771;599.00;;;;;;;;zerotype;;Winter;;No
1939288;131041822721 C101-White-1939288;MC MARTIN POLO H C101;Draft;Tshirts;Palm Tree;Kids-Boys;Boys;White;;;Fashion;Casual;2016;10,PMTRTSHT00002765,12,PMTRTSHT00002766,14,PMTRTSHT00002767,16,PMTRTSHT00002768;799.00;;;;;;;;zerotype;;Winter;;No
1939287;131041822721 C101-White-1939287;MC MARTIN POLO H C101;Draft;Tshirts;Palm Tree;Kids-Boys;Boys;White;;;Fashion;Casual;2016;12M,PMTRTSHT00002762,18M,PMTRTSHT00002763,24M,PMTRTSHT00002764;599.00;;;;;;;;zerotype;;Winter;;No
1939286;131041822720 C258-Brown-1939286;PC CARL POLO H C258;Draft;Tshirts;Palm Tree;Kids-Boys;Boys;Brown;;;Fashion;Casual;2016;10,PMTRTSHT00002758,12,PMTRTSHT00002759,14,PMTRTSHT00002760,16,PMTRTSHT00002761;899.00;;;;;;;;zerotype;;Winter;;No
1939285;131041822720 C258-Brown-1939285;PC CARL POLO H C258;Draft;Tshirts;Palm Tree;Kids-Boys;Boys;Brown;;;Fashion;Casual;2016;02,PMTRTSHT00002754,04,PMTRTSHT00002755,06,PMTRTSHT00002756,08,PMTRTSHT00002757;799.00;;;;;;;;zerotype;;Winter;;No
1939284;131041822720 C258-Brown-1939284;PC CARL POLO H C258;Draft;Tshirts;Palm Tree;Kids-Boys;Boys;Brown;;;Fashion;Casual;2016;12M,PMTRTSHT00002751,18M,PMTRTSHT00002752,24M,PMTRTSHT00002753;699.00;;;;;;;;zerotype;;Winter;;No
1939283;131022722915 C205-Grey-1939283;PC CLOUD TEE F C205;Draft;Tshirts;Palm Tree;Kids-Boys;Boys;Grey;;;Fashion;Casual;2016;10,PMTRTSHT00002747,12,PMTRTSHT00002748,14,PMTRTSHT00002749,16,PMTRTSHT00002750;599.00;;;;;;;;zerotype;;Winter;;No
1939282;131022722915 C205-Grey-1939282;PC CLOUD TEE F C205;Draft;Tshirts;Palm Tree;Kids-Boys;Boys;Grey;;;Fashion;Casual;2016;02,PMTRTSHT00002743,04,PMTRTSHT00002744,06,PMTRTSHT00002745,08,PMTRTSHT00002746;549.00;;;;;;;;zerotype;;Winter;;No
1939281;131022722915 C205-Grey-1939281;PC CLOUD TEE F C205;Draft;Tshirts;Palm Tree;Kids-Boys;Boys;Grey;;;Fashion;Casual;2016;12M,PMTRTSHT00002740,18M,PMTRTSHT00002741,24M,PMTRTSHT00002742;499.00;;;;;;;;zerotype;;Winter;;No
1939280;131022633328 C456-Red-1939280;CR SANTO TEE F C456;Draft;Tshirts;Palm Tree;Kids-Boys;Boys;Red;;;Fashion;Casual;2016;10,PMTRTSHT00002736,12,PMTRTSHT00002737,14,PMTRTSHT00002738,16,PMTRTSHT00002739;599.00;;;;;;;;zerotype;;Winter;;No
1939279;131022633328 C456-Red-1939279;CR SANTO TEE F C456;Draft;Tshirts;Palm Tree;Kids-Boys;Boys;Red;;;Fashion;Casual;2016;02,PMTRTSHT00002732,04,PMTRTSHT00002733,06,PMTRTSHT00002734,08,PMTRTSHT00002735;549.00;;;;;;;;zerotype;;Winter;;No
1939278;131022633328 C456-Red-1939278;CR SANTO TEE F C456;Draft;Tshirts;Palm Tree;Kids-Boys;Boys;Red;;;Fashion;Casual;2016;12M,PMTRTSHT00002729,18M,PMTRTSHT00002730,24M,PMTRTSHT00002731;499.00;;;;;;;;zerotype;;Winter;;No
1939277;131022633328 C309-Yellow-1939277;CR SANTO TEE F C309;Draft;Tshirts;Palm Tree;Kids-Boys;Boys;Yellow;;;Fashion;Casual;2016;10,PMTRTSHT00002725,12,PMTRTSHT00002726,14,PMTRTSHT00002727,16,PMTRTSHT00002728;599.00;;;;;;;;zerotype;;Winter;;No
1939276;131022633328 C309-Yellow-1939276;CR SANTO TEE F C309;Draft;Tshirts;Palm Tree;Kids-Boys;Boys;Yellow;;;Fashion;Casual;2016;02,PMTRTSHT00002721,04,PMTRTSHT00002722,06,PMTRTSHT00002723,08,PMTRTSHT00002724;549.00;;;;;;;;zerotype;;Winter;;No
1939275;131022633328 C309-Yellow-1939275;CR SANTO TEE F C309;Draft;Tshirts;Palm Tree;Kids-Boys;Boys;Yellow;;;Fashion;Casual;2016;12M,PMTRTSHT00002718,18M,PMTRTSHT00002719,24M,PMTRTSHT00002720;499.00;;;;;;;;zerotype;;Winter;;No
1939274;131022633328 C206-Grey-1939274;CR SANTO TEE F C206;Draft;Tshirts;Palm Tree;Kids-Boys;Boys;Grey;;;Fashion;Casual;2016;10,PMTRTSHT00002714,12,PMTRTSHT00002715,14,PMTRTSHT00002716,16,PMTRTSHT00002717;599.00;;;;;;;;zerotype;;Winter;;No
1939273;131022633328 C206-Grey-1939273;CR SANTO TEE F C206;Draft;Tshirts;Palm Tree;Kids-Boys;Boys;Grey;;;Fashion;Casual;2016;02,PMTRTSHT00002710,04,PMTRTSHT00002711,06,PMTRTSHT00002712,08,PMTRTSHT00002713;549.00;;;;;;;;zerotype;;Winter;;No
1939272;131022633328 C206-Grey-1939272;CR SANTO TEE F C206;Draft;Tshirts;Palm Tree;Kids-Boys;Boys;Grey;;;Fashion;Casual;2016;12M,PMTRTSHT00002707,18M,PMTRTSHT00002708,24M,PMTRTSHT00002709;499.00;;;;;;;;zerotype;;Winter;;No
1939271;131022633322 C355-Orange-1939271;CR KITO TEE F C355;Draft;Tshirts;Palm Tree;Kids-Boys;Boys;Orange;;;Fashion;Casual;2016;10,PMTRTSHT00002703,12,PMTRTSHT00002704,14,PMTRTSHT00002705,16,PMTRTSHT00002706;1099.00;;;;;;;;zerotype;;Winter;;No
1939270;131022633322 C355-Orange-1939270;CR KITO TEE F C355;Draft;Tshirts;Palm Tree;Kids-Boys;Boys;Orange;;;Fashion;Casual;2016;02,PMTRTSHT00002699,04,PMTRTSHT00002700,06,PMTRTSHT00002701,08,PMTRTSHT00002702;999.00;;;;;;;;zerotype;;Winter;;No
1939269;131022633322 C355-Orange-1939269;CR KITO TEE F C355;Draft;Tshirts;Palm Tree;Kids-Boys;Boys;Orange;;;Fashion;Casual;2016;12M,PMTRTSHT00002696,18M,PMTRTSHT00002697,24M,PMTRTSHT00002698;899.00;;;;;;;;zerotype;;Winter;;No
1939268;131022633322 C205-Grey-1939268;CR KITO TEE F C205;Draft;Tshirts;Palm Tree;Kids-Boys;Boys;Grey;;;Fashion;Casual;2016;10,PMTRTSHT00002692,12,PMTRTSHT00002693,14,PMTRTSHT00002694,16,PMTRTSHT00002695;1099.00;;;;;;;;zerotype;;Winter;;No
1939267;131022633322 C205-Grey-1939267;CR KITO TEE F C205;Draft;Tshirts;Palm Tree;Kids-Boys;Boys;Grey;;;Fashion;Casual;2016;02,PMTRTSHT00002688,04,PMTRTSHT00002689,06,PMTRTSHT00002690,08,PMTRTSHT00002691;999.00;;;;;;;;zerotype;;Winter;;No
1939266;131022633322 C205-Grey-1939266;CR KITO TEE F C205;Draft;Tshirts;Palm Tree;Kids-Boys;Boys;Grey;;;Fashion;Casual;2016;12M,PMTRTSHT00002685,18M,PMTRTSHT00002686,24M,PMTRTSHT00002687;899.00;;;;;;;;zerotype;;Winter;;No
1939265;131022633322 C101-White-1939265;CR KITO TEE F C101;Draft;Tshirts;Palm Tree;Kids-Boys;Boys;White;;;Fashion;Casual;2016;10,PMTRTSHT00002681,12,PMTRTSHT00002682,14,PMTRTSHT00002683,16,PMTRTSHT00002684;1099.00;;;;;;;;zerotype;;Winter;;No
1939264;131022633322 C101-White-1939264;CR KITO TEE F C101;Draft;Tshirts;Palm Tree;Kids-Boys;Boys;White;;;Fashion;Casual;2016;02,PMTRTSHT00002677,04,PMTRTSHT00002678,06,PMTRTSHT00002679,08,PMTRTSHT00002680;999.00;;;;;;;;zerotype;;Winter;;No
1939263;131022633322 C101-White-1939263;CR KITO TEE F C101;Draft;Tshirts;Palm Tree;Kids-Boys;Boys;White;;;Fashion;Casual;2016;12M,PMTRTSHT00002674,18M,PMTRTSHT00002675,24M,PMTRTSHT00002676;899.00;;;;;;;;zerotype;;Winter;;No
1939262;131022622910 C206-Grey-1939262;PC CLAY TEE F C206;Draft;Tshirts;Palm Tree;Kids-Boys;Boys;Grey;;;Fashion;Casual;2016;10,PMTRTSHT00002670,12,PMTRTSHT00002671,14,PMTRTSHT00002672,16,PMTRTSHT00002673;899.00;;;;;;;;zerotype;;Winter;;No
1939261;131022622910 C206-Grey-1939261;PC CLAY TEE F C206;Draft;Tshirts;Palm Tree;Kids-Boys;Boys;Grey;;;Fashion;Casual;2016;02,PMTRTSHT00002666,04,PMTRTSHT00002667,06,PMTRTSHT00002668,08,PMTRTSHT00002669;799.00;;;;;;;;zerotype;;Winter;;No
1939260;131022622910 C206-Grey-1939260;PC CLAY TEE F C206;Draft;Tshirts;Palm Tree;Kids-Boys;Boys;Grey;;;Fashion;Casual;2016;12M,PMTRTSHT00002663,18M,PMTRTSHT00002664,24M,PMTRTSHT00002665;699.00;;;;;;;;zerotype;;Winter;;No
1939259;131022622909 C101-White-1939259;CR SHANLEY TEE F C101;Draft;Tshirts;Palm Tree;Kids-Boys;Boys;White;;;Fashion;Casual;2016;10,PMTRTSHT00002659,12,PMTRTSHT00002660,14,PMTRTSHT00002661,16,PMTRTSHT00002662;799.00;;;;;;;;zerotype;;Winter;;No
1939258;131022622909 C101-White-1939258;CR SHANLEY TEE F C101;Draft;Tshirts;Palm Tree;Kids-Boys;Boys;White;;;Fashion;Casual;2016;02,PMTRTSHT00002655,04,PMTRTSHT00002656,06,PMTRTSHT00002657,08,PMTRTSHT00002658;699.00;;;;;;;;zerotype;;Winter;;No
1939257;131022622909 C101-White-1939257;CR SHANLEY TEE F C101;Draft;Tshirts;Palm Tree;Kids-Boys;Boys;White;;;Fashion;Casual;2016;12M,PMTRTSHT00002652,18M,PMTRTSHT00002653,24M,PMTRTSHT00002654;599.00;;;;;;;;zerotype;;Winter;;No
1939256;131022622905 C206-Grey-1939256;MC MILES TEE F C206;Draft;Tshirts;Palm Tree;Kids-Boys;Boys;Grey;;;Fashion;Casual;2016;10,PMTRTSHT00002648,12,PMTRTSHT00002649,14,PMTRTSHT00002650,16,PMTRTSHT00002651;799.00;;;;;;;;zerotype;;Winter;;No
1939255;131022622905 C206-Grey-1939255;MC MILES TEE F C206;Draft;Tshirts;Palm Tree;Kids-Boys;Boys;Grey;;;Fashion;Casual;2016;02,PMTRTSHT00002644,04,PMTRTSHT00002645,06,PMTRTSHT00002646,08,PMTRTSHT00002647;699.00;;;;;;;;zerotype;;Winter;;No
1939254;131022622905 C206-Grey-1939254;MC MILES TEE F C206;Draft;Tshirts;Palm Tree;Kids-Boys;Boys;Grey;;;Fashion;Casual;2016;12M,PMTRTSHT00002641,18M,PMTRTSHT00002642,24M,PMTRTSHT00002643;599.00;;;;;;;;zerotype;;Winter;;No
1939253;131022622905 C204-Grey-1939253;MC MILES TEE F C204;Draft;Tshirts;Palm Tree;Kids-Boys;Boys;Grey;;;Fashion;Casual;2016;10,PMTRTSHT00002637,12,PMTRTSHT00002638,14,PMTRTSHT00002639,16,PMTRTSHT00002640;799.00;;;;;;;;zerotype;;Winter;;No
1939252;131022622905 C204-Grey-1939252;MC MILES TEE F C204;Draft;Tshirts;Palm Tree;Kids-Boys;Boys;Grey;;;Fashion;Casual;2016;02,PMTRTSHT00002633,04,PMTRTSHT00002634,06,PMTRTSHT00002635,08,PMTRTSHT00002636;699.00;;;;;;;;zerotype;;Winter;;No
1939251;131022622905 C204-Grey-1939251;MC MILES TEE F C204;Draft;Tshirts;Palm Tree;Kids-Boys;Boys;Grey;;;Fashion;Casual;2016;12M,PMTRTSHT00002630,18M,PMTRTSHT00002631,24M,PMTRTSHT00002632;599.00;;;;;;;;zerotype;;Winter;;No
1939250;131022622859 C656-Blue-1939250;EM EWAN TEE F C656;Draft;Tshirts;Palm Tree;Kids-Boys;Boys;Blue;;;Fashion;Casual;2016;10,PMTRTSHT00002626,12,PMTRTSHT00002627,14,PMTRTSHT00002628,16,PMTRTSHT00002629;899.00;;;;;;;;zerotype;;Winter;;No
1939249;131022622859 C656-Blue-1939249;EM EWAN TEE F C656;Draft;Tshirts;Palm Tree;Kids-Boys;Boys;Blue;;;Fashion;Casual;2016;02,PMTRTSHT00002622,04,PMTRTSHT00002623,06,PMTRTSHT00002624,08,PMTRTSHT00002625;799.00;;;;;;;;zerotype;;Winter;;No
1939248;131022622859 C656-Blue-1939248;EM EWAN TEE F C656;Draft;Tshirts;Palm Tree;Kids-Boys;Boys;Blue;;;Fashion;Casual;2016;12M,PMTRTSHT00002619,18M,PMTRTSHT00002620,24M,PMTRTSHT00002621;699.00;;;;;;;;zerotype;;Winter;;No
1939247;131022613506 C656-Blue-1939247;CR HENLEY TEE F C656;Draft;Tshirts;Palm Tree;Kids-Boys;Boys;Blue;;;Fashion;Casual;2016;10,PMTRTSHT00002615,12,PMTRTSHT00002616,14,PMTRTSHT00002617,16,PMTRTSHT00002618;799.00;;;;;;;;zerotype;;Winter;;No
1939246;131022613506 C656-Blue-1939246;CR HENLEY TEE F C656;Draft;Tshirts;Palm Tree;Kids-Boys;Boys;Blue;;;Fashion;Casual;2016;02,PMTRTSHT00002611,04,PMTRTSHT00002612,06,PMTRTSHT00002613,08,PMTRTSHT00002614;699.00;;;;;;;;zerotype;;Winter;;No
1939245;131022613506 C656-Blue-1939245;CR HENLEY TEE F C656;Draft;Tshirts;Palm Tree;Kids-Boys;Boys;Blue;;;Fashion;Casual;2016;12M,PMTRTSHT00002608,18M,PMTRTSHT00002609,24M,PMTRTSHT00002610;599.00;;;;;;;;zerotype;;Winter;;No
1939244;131022613506 C458-Red-1939244;CR HENLEY TEE F C458;Draft;Tshirts;Palm Tree;Kids-Boys;Boys;Red;;;Fashion;Casual;2016;10,PMTRTSHT00002604,12,PMTRTSHT00002605,14,PMTRTSHT00002606,16,PMTRTSHT00002607;799.00;;;;;;;;zerotype;;Winter;;No
1939243;131022613506 C458-Red-1939243;CR HENLEY TEE F C458;Draft;Tshirts;Palm Tree;Kids-Boys;Boys;Red;;;Fashion;Casual;2016;02,PMTRTSHT00002600,04,PMTRTSHT00002601,06,PMTRTSHT00002602,08,PMTRTSHT00002603;699.00;;;;;;;;zerotype;;Winter;;No
1939242;131022613506 C458-Red-1939242;CR HENLEY TEE F C458;Draft;Tshirts;Palm Tree;Kids-Boys;Boys;Red;;;Fashion;Casual;2016;12M,PMTRTSHT00002597,18M,PMTRTSHT00002598,24M,PMTRTSHT00002599;599.00;;;;;;;;zerotype;;Winter;;No
1939241;131022613506 C303-Yellow-1939241;CR HENLEY TEE F C303;Draft;Tshirts;Palm Tree;Kids-Boys;Boys;Yellow;;;Fashion;Casual;2016;10,PMTRTSHT00002593,12,PMTRTSHT00002594,14,PMTRTSHT00002595,16,PMTRTSHT00002596;799.00;;;;;;;;zerotype;;Winter;;No
1939240;131022613506 C303-Yellow-1939240;CR HENLEY TEE F C303;Draft;Tshirts;Palm Tree;Kids-Boys;Boys;Yellow;;;Fashion;Casual;2016;02,PMTRTSHT00002589,04,PMTRTSHT00002590,06,PMTRTSHT00002591,08,PMTRTSHT00002592;699.00;;;;;;;;zerotype;;Winter;;No
1939239;131022613506 C303-Yellow-1939239;CR HENLEY TEE F C303;Draft;Tshirts;Palm Tree;Kids-Boys;Boys;Yellow;;;Fashion;Casual;2016;12M,PMTRTSHT00002586,18M,PMTRTSHT00002587,24M,PMTRTSHT00002588;599.00;;;;;;;;zerotype;;Winter;;No
1939238;131022613506 C101-White-1939238;CR HENLEY TEE F C101;Draft;Tshirts;Palm Tree;Kids-Boys;Boys;White;;;Fashion;Casual;2016;10,PMTRTSHT00002582,12,PMTRTSHT00002583,14,PMTRTSHT00002584,16,PMTRTSHT00002585;799.00;;;;;;;;zerotype;;Winter;;No
1939237;131022613506 C101-White-1939237;CR HENLEY TEE F C101;Draft;Tshirts;Palm Tree;Kids-Boys;Boys;White;;;Fashion;Casual;2016;02,PMTRTSHT00002578,04,PMTRTSHT00002579,06,PMTRTSHT00002580,08,PMTRTSHT00002581;699.00;;;;;;;;zerotype;;Winter;;No
1939236;131022613506 C101-White-1939236;CR HENLEY TEE F C101;Draft;Tshirts;Palm Tree;Kids-Boys;Boys;White;;;Fashion;Casual;2016;12M,PMTRTSHT00002575,18M,PMTRTSHT00002576,24M,PMTRTSHT00002577;599.00;;;;;;;;zerotype;;Winter;;No
1939235;131022612703 C303-Yellow-1939235;CR JENIO TEE F C303;Draft;Tshirts;Palm Tree;Kids-Boys;Boys;Yellow;;;Fashion;Casual;2016;10,PMTRTSHT00002571,12,PMTRTSHT00002572,14,PMTRTSHT00002573,16,PMTRTSHT00002574;799.00;;;;;;;;zerotype;;Winter;;No
1939234;131022612703 C303-Yellow-1939234;CR JENIO TEE F C303;Draft;Tshirts;Palm Tree;Kids-Boys;Boys;Yellow;;;Fashion;Casual;2016;02,PMTRTSHT00002567,04,PMTRTSHT00002568,06,PMTRTSHT00002569,08,PMTRTSHT00002570;699.00;;;;;;;;zerotype;;Winter;;No
1939233;131022612703 C303-Yellow-1939233;CR JENIO TEE F C303;Draft;Tshirts;Palm Tree;Kids-Boys;Boys;Yellow;;;Fashion;Casual;2016;12M,PMTRTSHT00002564,18M,PMTRTSHT00002565,24M,PMTRTSHT00002566;599.00;;;;;;;;zerotype;;Winter;;No
1939232;131022612703 C204-Grey-1939232;CR JENIO TEE F C204;Draft;Tshirts;Palm Tree;Kids-Boys;Boys;Grey;;;Fashion;Casual;2016;10,PMTRTSHT00002560,12,PMTRTSHT00002561,14,PMTRTSHT00002562,16,PMTRTSHT00002563;799.00;;;;;;;;zerotype;;Winter;;No
1939231;131022612703 C204-Grey-1939231;CR JENIO TEE F C204;Draft;Tshirts;Palm Tree;Kids-Boys;Boys;Grey;;;Fashion;Casual;2016;02,PMTRTSHT00002556,04,PMTRTSHT00002557,06,PMTRTSHT00002558,08,PMTRTSHT00002559;699.00;;;;;;;;zerotype;;Winter;;No
1939230;131022612703 C204-Grey-1939230;CR JENIO TEE F C204;Draft;Tshirts;Palm Tree;Kids-Boys;Boys;Grey;;;Fashion;Casual;2016;12M,PMTRTSHT00002553,18M,PMTRTSHT00002554,24M,PMTRTSHT00002555;599.00;;;;;;;;zerotype;;Winter;;No
1939229;131021633327 C456-Red-1939229;CR SANTO TEE H C456;Draft;Tshirts;Palm Tree;Kids-Boys;Boys;Red;;;Fashion;Casual;2016;10,PMTRTSHT00002549,12,PMTRTSHT00002550,14,PMTRTSHT00002551,16,PMTRTSHT00002552;499.00;;;;;;;;zerotype;;Winter;;No
1939228;131021633327 C456-Red-1939228;CR SANTO TEE H C456;Draft;Tshirts;Palm Tree;Kids-Boys;Boys;Red;;;Fashion;Casual;2016;02,PMTRTSHT00002545,04,PMTRTSHT00002546,06,PMTRTSHT00002547,08,PMTRTSHT00002548;449.00;;;;;;;;zerotype;;Winter;;No
1939227;131021633327 C456-Red-1939227;CR SANTO TEE H C456;Draft;Tshirts;Palm Tree;Kids-Boys;Boys;Red;;;Fashion;Casual;2016;12M,PMTRTSHT00002542,18M,PMTRTSHT00002543,24M,PMTRTSHT00002544;399.00;;;;;;;;zerotype;;Winter;;No
1939226;131021633327 C309-Yellow-1939226;CR SANTO TEE H C309;Draft;Tshirts;Palm Tree;Kids-Boys;Boys;Yellow;;;Fashion;Casual;2016;10,PMTRTSHT00002538,12,PMTRTSHT00002539,14,PMTRTSHT00002540,16,PMTRTSHT00002541;499.00;;;;;;;;zerotype;;Winter;;No
1939225;131021633327 C309-Yellow-1939225;CR SANTO TEE H C309;Draft;Tshirts;Palm Tree;Kids-Boys;Boys;Yellow;;;Fashion;Casual;2016;02,PMTRTSHT00002534,04,PMTRTSHT00002535,06,PMTRTSHT00002536,08,PMTRTSHT00002537;449.00;;;;;;;;zerotype;;Winter;;No
1939224;131021633327 C309-Yellow-1939224;CR SANTO TEE H C309;Draft;Tshirts;Palm Tree;Kids-Boys;Boys;Yellow;;;Fashion;Casual;2016;12M,PMTRTSHT00002531,18M,PMTRTSHT00002532,24M,PMTRTSHT00002533;399.00;;;;;;;;zerotype;;Winter;;No
1939223;131021622920 C456-Red-1939223;PC CLONE TEE H C456;Draft;Tshirts;Palm Tree;Kids-Boys;Boys;Red;;;Fashion;Casual;2016;10,PMTRTSHT00002527,12,PMTRTSHT00002528,14,PMTRTSHT00002529,16,PMTRTSHT00002530;499.00;;;;;;;;zerotype;;Winter;;No
1939222;131021622920 C456-Red-1939222;PC CLONE TEE H C456;Draft;Tshirts;Palm Tree;Kids-Boys;Boys;Red;;;Fashion;Casual;2016;02,PMTRTSHT00002523,04,PMTRTSHT00002524,06,PMTRTSHT00002525,08,PMTRTSHT00002526;449.00;;;;;;;;zerotype;;Winter;;No
1939221;131021622920 C456-Red-1939221;PC CLONE TEE H C456;Draft;Tshirts;Palm Tree;Kids-Boys;Boys;Red;;;Fashion;Casual;2016;12M,PMTRTSHT00002520,18M,PMTRTSHT00002521,24M,PMTRTSHT00002522;399.00;;;;;;;;zerotype;;Winter;;No
1939220;131021622900 C651-Blue-1939220;MC MILTON TEE H C651;Draft;Tshirts;Palm Tree;Kids-Boys;Boys;Blue;;;Fashion;Casual;2016;10,PMTRTSHT00002516,12,PMTRTSHT00002517,14,PMTRTSHT00002518,16,PMTRTSHT00002519;499.00;;;;;;;;zerotype;;Winter;;No
1939219;131021622900 C651-Blue-1939219;MC MILTON TEE H C651;Draft;Tshirts;Palm Tree;Kids-Boys;Boys;Blue;;;Fashion;Casual;2016;02,PMTRTSHT00002512,04,PMTRTSHT00002513,06,PMTRTSHT00002514,08,PMTRTSHT00002515;449.00;;;;;;;;zerotype;;Winter;;No
1939218;131021622900 C651-Blue-1939218;MC MILTON TEE H C651;Draft;Tshirts;Palm Tree;Kids-Boys;Boys;Blue;;;Fashion;Casual;2016;12M,PMTRTSHT00002509,18M,PMTRTSHT00002510,24M,PMTRTSHT00002511;399.00;;;;;;;;zerotype;;Winter;;No
1939217;131021622900 C458-Red-1939217;MC MILTON TEE H C458;Draft;Tshirts;Palm Tree;Kids-Boys;Boys;Red;;;Fashion;Casual;2016;10,PMTRTSHT00002505,12,PMTRTSHT00002506,14,PMTRTSHT00002507,16,PMTRTSHT00002508;499.00;;;;;;;;zerotype;;Winter;;No
1939216;131021622900 C458-Red-1939216;MC MILTON TEE H C458;Draft;Tshirts;Palm Tree;Kids-Boys;Boys;Red;;;Fashion;Casual;2016;02,PMTRTSHT00002501,04,PMTRTSHT00002502,06,PMTRTSHT00002503,08,PMTRTSHT00002504;449.00;;;;;;;;zerotype;;Winter;;No
1939215;131021622899 C101-White-1939215;MC MILLER TEE H C101;Draft;Tshirts;Palm Tree;Kids-Boys;Boys;White;;;Fashion;Casual;2016;10,PMTRTSHT00002497,12,PMTRTSHT00002498,14,PMTRTSHT00002499,16,PMTRTSHT00002500;599.00;;;;;;;;zerotype;;Winter;;No
1939214;131021622899 C101-White-1939214;MC MILLER TEE H C101;Draft;Tshirts;Palm Tree;Kids-Boys;Boys;White;;;Fashion;Casual;2016;02,PMTRTSHT00002493,04,PMTRTSHT00002494,06,PMTRTSHT00002495,08,PMTRTSHT00002496;549.00;;;;;;;;zerotype;;Winter;;No
1939213;131021622899 C101-White-1939213;MC MILLER TEE H C101;Draft;Tshirts;Palm Tree;Kids-Boys;Boys;White;;;Fashion;Casual;2016;12M,PMTRTSHT00002490,18M,PMTRTSHT00002491,24M,PMTRTSHT00002492;499.00;;;;;;;;zerotype;;Winter;;No
1939212;131021622898 C204-Grey-1939212;MC MILES TEE H C204;Draft;Tshirts;Palm Tree;Kids-Boys;Boys;Grey;;;Fashion;Casual;2016;10,PMTRTSHT00002486,12,PMTRTSHT00002487,14,PMTRTSHT00002488,16,PMTRTSHT00002489;599.00;;;;;;;;zerotype;;Winter;;No
1939211;131021622898 C204-Grey-1939211;MC MILES TEE H C204;Draft;Tshirts;Palm Tree;Kids-Boys;Boys;Grey;;;Fashion;Casual;2016;02,PMTRTSHT00002482,04,PMTRTSHT00002483,06,PMTRTSHT00002484,08,PMTRTSHT00002485;549.00;;;;;;;;zerotype;;Winter;;No
1939210;131021622898 C204-Grey-1939210;MC MILES TEE H C204;Draft;Tshirts;Palm Tree;Kids-Boys;Boys;Grey;;;Fashion;Casual;2016;12M,PMTRTSHT00002479,18M,PMTRTSHT00002480,24M,PMTRTSHT00002481;499.00;;;;;;;;zerotype;;Winter;;No
1939209;131021613505 C656-Blue-1939209;CR HENLEY TEE H C656;Draft;Tshirts;Palm Tree;Kids-Boys;Boys;Blue;;;Fashion;Casual;2016;10,PMTRTSHT00002475,12,PMTRTSHT00002476,14,PMTRTSHT00002477,16,PMTRTSHT00002478;599.00;;;;;;;;zerotype;;Winter;;No
1939208;131021613505 C656-Blue-1939208;CR HENLEY TEE H C656;Draft;Tshirts;Palm Tree;Kids-Boys;Boys;Blue;;;Fashion;Casual;2016;02,PMTRTSHT00002471,04,PMTRTSHT00002472,06,PMTRTSHT00002473,08,PMTRTSHT00002474;549.00;;;;;;;;zerotype;;Winter;;No
1939207;131021613505 C656-Blue-1939207;CR HENLEY TEE H C656;Draft;Tshirts;Palm Tree;Kids-Boys;Boys;Blue;;;Fashion;Casual;2016;12M,PMTRTSHT00002468,18M,PMTRTSHT00002469,24M,PMTRTSHT00002470;499.00;;;;;;;;zerotype;;Winter;;No
1939206;131021613505 C458-Red-1939206;CR HENLEY TEE H C458;Draft;Tshirts;Palm Tree;Kids-Boys;Boys;Red;;;Fashion;Casual;2016;10,PMTRTSHT00002464,12,PMTRTSHT00002465,14,PMTRTSHT00002466,16,PMTRTSHT00002467;599.00;;;;;;;;zerotype;;Winter;;No
1939205;131021613505 C458-Red-1939205;CR HENLEY TEE H C458;Draft;Tshirts;Palm Tree;Kids-Boys;Boys;Red;;;Fashion;Casual;2016;02,PMTRTSHT00002460,04,PMTRTSHT00002461,06,PMTRTSHT00002462,08,PMTRTSHT00002463;549.00;;;;;;;;zerotype;;Winter;;No
1939204;131021613505 C458-Red-1939204;CR HENLEY TEE H C458;Draft;Tshirts;Palm Tree;Kids-Boys;Boys;Red;;;Fashion;Casual;2016;12M,PMTRTSHT00002457,18M,PMTRTSHT00002458,24M,PMTRTSHT00002459;499.00;;;;;;;;zerotype;;Winter;;No
1939203;131021613505 C303-Yellow-1939203;CR HENLEY TEE H C303;Draft;Tshirts;Palm Tree;Kids-Boys;Boys;Yellow;;;Fashion;Casual;2016;10,PMTRTSHT00002453,12,PMTRTSHT00002454,14,PMTRTSHT00002455,16,PMTRTSHT00002456;599.00;;;;;;;;zerotype;;Winter;;No
1939202;131021613505 C303-Yellow-1939202;CR HENLEY TEE H C303;Draft;Tshirts;Palm Tree;Kids-Boys;Boys;Yellow;;;Fashion;Casual;2016;02,PMTRTSHT00002449,04,PMTRTSHT00002450,06,PMTRTSHT00002451,08,PMTRTSHT00002452;549.00;;;;;;;;zerotype;;Winter;;No
1939201;131021613505 C303-Yellow-1939201;CR HENLEY TEE H C303;Draft;Tshirts;Palm Tree;Kids-Boys;Boys;Yellow;;;Fashion;Casual;2016;12M,PMTRTSHT00002446,18M,PMTRTSHT00002447,24M,PMTRTSHT00002448;499.00;;;;;;;;zerotype;;Winter;;No
1939200;131021613505 C101-White-1939200;CR HENLEY TEE H C101;Draft;Tshirts;Palm Tree;Kids-Boys;Boys;White;;;Fashion;Casual;2016;10,PMTRTSHT00002442,12,PMTRTSHT00002443,14,PMTRTSHT00002444,16,PMTRTSHT00002445;599.00;;;;;;;;zerotype;;Winter;;No
1939199;131021613505 C101-White-1939199;CR HENLEY TEE H C101;Draft;Tshirts;Palm Tree;Kids-Boys;Boys;White;;;Fashion;Casual;2016;02,PMTRTSHT00002438,04,PMTRTSHT00002439,06,PMTRTSHT00002440,08,PMTRTSHT00002441;549.00;;;;;;;;zerotype;;Winter;;No
1939198;131021613505 C101-White-1939198;CR HENLEY TEE H C101;Draft;Tshirts;Palm Tree;Kids-Boys;Boys;White;;;Fashion;Casual;2016;12M,PMTRTSHT00002435,18M,PMTRTSHT00002436,24M,PMTRTSHT00002437;499.00;;;;;;;;zerotype;;Winter;;No
1939197;131021612897 C303-Yellow-1939197;CR JAMES TEE H C303;Draft;Tshirts;Palm Tree;Kids-Boys;Boys;Yellow;;;Fashion;Casual;2016;10,PMTRTSHT00002431,12,PMTRTSHT00002432,14,PMTRTSHT00002433,16,PMTRTSHT00002434;599.00;;;;;;;;zerotype;;Winter;;No
1939196;131021612897 C204-Grey-1939196;CR JAMES TEE H C204;Draft;Tshirts;Palm Tree;Kids-Boys;Boys;Grey;;;Fashion;Casual;2016;10,PMTRTSHT00002427,12,PMTRTSHT00002428,14,PMTRTSHT00002429,16,PMTRTSHT00002430;599.00;;;;;;;;zerotype;;Winter;;No
1939195;131021612897 C204-Grey-1939195;CR JAMES TEE H C204;Draft;Tshirts;Palm Tree;Kids-Boys;Boys;Grey;;;Fashion;Casual;2016;12M,PMTRTSHT00002424,18M,PMTRTSHT00002425,24M,PMTRTSHT00002426;499.00;;;;;;;;zerotype;;Winter;;No
1939194;131021612896 C707-Green-1939194;CR JAGUAR TEE H C707;Draft;Tshirts;Palm Tree;Kids-Boys;Boys;Green;;;Fashion;Casual;2016;10,PMTRTSHT00002420,12,PMTRTSHT00002421,14,PMTRTSHT00002422,16,PMTRTSHT00002423;799.00;;;;;;;;zerotype;;Winter;;No
1939193;131021612896 C707-Green-1939193;CR JAGUAR TEE H C707;Draft;Tshirts;Palm Tree;Kids-Boys;Boys;Green;;;Fashion;Casual;2016;02,PMTRTSHT00002416,04,PMTRTSHT00002417,06,PMTRTSHT00002418,08,PMTRTSHT00002419;699.00;;;;;;;;zerotype;;Winter;;No
1939192;131021612896 C707-Green-1939192;CR JAGUAR TEE H C707;Draft;Tshirts;Palm Tree;Kids-Boys;Boys;Green;;;Fashion;Casual;2016;12M,PMTRTSHT00002413,18M,PMTRTSHT00002414,24M,PMTRTSHT00002415;599.00;;;;;;;;zerotype;;Winter;;No
1939191;131021612896 C610-Blue-1939191;CR JAGUAR TEE H C610;Draft;Tshirts;Palm Tree;Kids-Boys;Boys;Blue;;;Fashion;Casual;2016;10,PMTRTSHT00002409,12,PMTRTSHT00002410,14,PMTRTSHT00002411,16,PMTRTSHT00002412;799.00;;;;;;;;zerotype;;Winter;;No
1939190;131021612896 C610-Blue-1939190;CR JAGUAR TEE H C610;Draft;Tshirts;Palm Tree;Kids-Boys;Boys;Blue;;;Fashion;Casual;2016;02,PMTRTSHT00002405,04,PMTRTSHT00002406,06,PMTRTSHT00002407,08,PMTRTSHT00002408;699.00;;;;;;;;zerotype;;Winter;;No
1939189;131021612896 C610-Blue-1939189;CR JAGUAR TEE H C610;Draft;Tshirts;Palm Tree;Kids-Boys;Boys;Blue;;;Fashion;Casual;2016;12M,PMTRTSHT00002402,18M,PMTRTSHT00002403,24M,PMTRTSHT00002404;599.00;;;;;;;;zerotype;;Winter;;No
1939188;131021612702 C303-Yellow-1939188;CR JENIO TEE H C303;Draft;Tshirts;Palm Tree;Kids-Boys;Boys;Yellow;;;Fashion;Casual;2016;10,PMTRTSHT00002398,12,PMTRTSHT00002399,14,PMTRTSHT00002400,16,PMTRTSHT00002401;699.00;;;;;;;;zerotype;;Winter;;No
1939187;131021612702 C303-Yellow-1939187;CR JENIO TEE H C303;Draft;Tshirts;Palm Tree;Kids-Boys;Boys;Yellow;;;Fashion;Casual;2016;02,PMTRTSHT00002394,04,PMTRTSHT00002395,06,PMTRTSHT00002396,08,PMTRTSHT00002397;599.00;;;;;;;;zerotype;;Winter;;No
1939186;131021612702 C303-Yellow-1939186;CR JENIO TEE H C303;Draft;Tshirts;Palm Tree;Kids-Boys;Boys;Yellow;;;Fashion;Casual;2016;12M,PMTRTSHT00002391,18M,PMTRTSHT00002392,24M,PMTRTSHT00002393;499.00;;;;;;;;zerotype;;Winter;;No
1939185;131010164052 C207-Grey-1939185;CR MANHATTAN TEE H C207;Draft;Tshirts;Palm Tree;Kids-Boys;Boys;Grey;;;Fashion;Casual;2016;10,PMTRTSHT00002387,12,PMTRTSHT00002388,14,PMTRTSHT00002389,16,PMTRTSHT00002390;599.00;;;;;;;;zerotype;;Winter;;No
1939184;131010164052 C207-Grey-1939184;CR MANHATTAN TEE H C207;Draft;Tshirts;Palm Tree;Kids-Boys;Boys;Grey;;;Fashion;Casual;2016;02,PMTRTSHT00002383,04,PMTRTSHT00002384,06,PMTRTSHT00002385,08,PMTRTSHT00002386;549.00;;;;;;;;zerotype;;Winter;;No
1939183;131010164052 C207-Grey-1939183;CR MANHATTAN TEE H C207;Draft;Tshirts;Palm Tree;Kids-Boys;Boys;Grey;;;Fashion;Casual;2016;12M,PMTRTSHT00002380,18M,PMTRTSHT00002381,24M,PMTRTSHT00002382;499.00;;;;;;;;zerotype;;Winter;;No
1939182;131010164050 C101-White-1939182;CR BERLIN TEE H C101;Draft;Tshirts;Palm Tree;Kids-Boys;Boys;White;;;Fashion;Casual;2016;10,PMTRTSHT00002376,12,PMTRTSHT00002377,14,PMTRTSHT00002378,16,PMTRTSHT00002379;499.00;;;;;;;;zerotype;;Winter;;No
1939181;131010164050 C101-White-1939181;CR BERLIN TEE H C101;Draft;Tshirts;Palm Tree;Kids-Boys;Boys;White;;;Fashion;Casual;2016;02,PMTRTSHT00002372,04,PMTRTSHT00002373,06,PMTRTSHT00002374,08,PMTRTSHT00002375;449.00;;;;;;;;zerotype;;Winter;;No
1939180;131010164050 C101-White-1939180;CR BERLIN TEE H C101;Draft;Tshirts;Palm Tree;Kids-Boys;Boys;White;;;Fashion;Casual;2016;12M,PMTRTSHT00002369,18M,PMTRTSHT00002370,24M,PMTRTSHT00002371;399.00;;;;;;;;zerotype;;Winter;;No
1939179;131010164049 C603-Blue-1939179;CR LONDON TEE H C603;Draft;Tshirts;Palm Tree;Kids-Boys;Boys;Blue;;;Fashion;Casual;2016;10,PMTRTSHT00002365,12,PMTRTSHT00002366,14,PMTRTSHT00002367,16,PMTRTSHT00002368;499.00;;;;;;;;zerotype;;Winter;;No
1939178;131010164049 C603-Blue-1939178;CR LONDON TEE H C603;Draft;Tshirts;Palm Tree;Kids-Boys;Boys;Blue;;;Fashion;Casual;2016;02,PMTRTSHT00002361,04,PMTRTSHT00002362,06,PMTRTSHT00002363,08,PMTRTSHT00002364;449.00;;;;;;;;zerotype;;Winter;;No
1939177;131010164049 C603-Blue-1939177;CR LONDON TEE H C603;Draft;Tshirts;Palm Tree;Kids-Boys;Boys;Blue;;;Fashion;Casual;2016;12M,PMTRTSHT00002358,18M,PMTRTSHT00002359,24M,PMTRTSHT00002360;399.00;;;;;;;;zerotype;;Winter;;No
1939176;121246514110 C607-Blue-1939176;CR RIDER POLO C607;Draft;Tshirts;Palm Tree;Kids-Boys;Boys;Blue;;;Fashion;Casual;2016;10,PMTRTSHT00002354,12,PMTRTSHT00002355,14,PMTRTSHT00002356,16,PMTRTSHT00002357;799.00;;;;;;;;zerotype;;Winter;;No
1939175;121246514110 C607-Blue-1939175;CR RIDER POLO C607;Draft;Tshirts;Palm Tree;Kids-Boys;Boys;Blue;;;Fashion;Casual;2016;02,PMTRTSHT00002350,04,PMTRTSHT00002351,06,PMTRTSHT00002352,08,PMTRTSHT00002353;699.00;;;;;;;;zerotype;;Winter;;No
1939174;121246514110 C607-Blue-1939174;CR RIDER POLO C607;Draft;Tshirts;Palm Tree;Kids-Boys;Boys;Blue;;;Fashion;Casual;2016;12M,PMTRTSHT00002347,18M,PMTRTSHT00002348,24M,PMTRTSHT00002349;599.00;;;;;;;;zerotype;;Winter;;No
1939173;132560523210 5000-Blue-1939173;WL ROCHELLE JEG 5000;Draft;Jeggings;Palm Tree;Kids-Girls;Girls;Blue;;;Fashion;Casual;2016;34,PMTRJGNG00000080,36,PMTRJGNG00000081,38,PMTRJGNG00000082,40,PMTRJGNG00000083;1299.00;;;;;;;;zerotype;;Winter;;No
1939172;132560523210 5000-Blue-1939172;WL ROCHELLE JEG 5000;Draft;Jeggings;Palm Tree;Kids-Girls;Girls;Blue;;;Fashion;Casual;2016;24,PMTRJGNG00000075,26,PMTRJGNG00000076,28,PMTRJGNG00000077,30,PMTRJGNG00000078,32,PMTRJGNG00000079;1199.00;;;;;;;;zerotype;;Winter;;No
1939171;132560523210 5000-Blue-1939171;WL ROCHELLE JEG 5000;Draft;Jeggings;Palm Tree;Kids-Girls;Girls;Blue;;;Fashion;Casual;2016;18,PMTRJGNG00000072,20,PMTRJGNG00000073,22,PMTRJGNG00000074;1099.00;;;;;;;;zerotype;;Winter;;No
1939170;131012123592 6000-Blue-1939170;PF TRIA JEG 6000;Draft;Jeggings;Palm Tree;Kids-Girls;Girls;Blue;;;Fashion;Casual;2016;34,PMTRJGNG00000068,36,PMTRJGNG00000069,38,PMTRJGNG00000070,40,PMTRJGNG00000071;1099.00;;;;;;;;zerotype;;Winter;;No
1939169;131012123592 6000-Blue-1939169;PF TRIA JEG 6000;Draft;Jeggings;Palm Tree;Kids-Girls;Girls;Blue;;;Fashion;Casual;2016;24,PMTRJGNG00000063,26,PMTRJGNG00000064,28,PMTRJGNG00000065,30,PMTRJGNG00000066,32,PMTRJGNG00000067;999.00;;;;;;;;zerotype;;Winter;;No
1939168;131012123592 5000-Blue-1939168;PF TRIA JEG 5000;Draft;Jeggings;Palm Tree;Kids-Girls;Girls;Blue;;;Fashion;Casual;2016;34,PMTRJGNG00000059,36,PMTRJGNG00000060,38,PMTRJGNG00000061,40,PMTRJGNG00000062;1099.00;;;;;;;;zerotype;;Winter;;No
1939167;131012123592 5000-Blue-1939167;PF TRIA JEG 5000;Draft;Jeggings;Palm Tree;Kids-Girls;Girls;Blue;;;Fashion;Casual;2016;24,PMTRJGNG00000054,26,PMTRJGNG00000055,28,PMTRJGNG00000056,30,PMTRJGNG00000057,32,PMTRJGNG00000058;999.00;;;;;;;;zerotype;;Winter;;No
1939166;132092633329 C656-Blue-1939166;CR ADRO JKT C656;Draft;Jackets;Palm Tree;Kids-Girls;Girls;Blue;;;Fashion;Casual;2016;10,PMTRJCKT00000355,12,PMTRJCKT00000356,14,PMTRJCKT00000357,16,PMTRJCKT00000358;1099.00;;;;;;;;zerotype;;Winter;;No
1939165;132092633329 C656-Blue-1939165;CR ADRO JKT C656;Draft;Jackets;Palm Tree;Kids-Girls;Girls;Blue;;;Fashion;Casual;2016;02,PMTRJCKT00000351,04,PMTRJCKT00000352,06,PMTRJCKT00000353,08,PMTRJCKT00000354;999.00;;;;;;;;zerotype;;Winter;;No
1939164;132092633329 C656-Blue-1939164;CR ADRO JKT C656;Draft;Jackets;Palm Tree;Kids-Girls;Girls;Blue;;;Fashion;Casual;2016;12M,PMTRJCKT00000348,18M,PMTRJCKT00000349,24M,PMTRJCKT00000350;899.00;;;;;;;;zerotype;;Winter;;No
1939163;132092633329 C204-Grey-1939163;CR ADRO JKT C204;Draft;Jackets;Palm Tree;Kids-Girls;Girls;Grey;;;Fashion;Casual;2016;10,PMTRJCKT00000344,12,PMTRJCKT00000345,14,PMTRJCKT00000346,16,PMTRJCKT00000347;1099.00;;;;;;;;zerotype;;Winter;;No
1939162;132092633329 C204-Grey-1939162;CR ADRO JKT C204;Draft;Jackets;Palm Tree;Kids-Girls;Girls;Grey;;;Fashion;Casual;2016;02,PMTRJCKT00000340,04,PMTRJCKT00000341,06,PMTRJCKT00000342,08,PMTRJCKT00000343;999.00;;;;;;;;zerotype;;Winter;;No
1939161;132092633329 C204-Grey-1939161;CR ADRO JKT C204;Draft;Jackets;Palm Tree;Kids-Girls;Girls;Grey;;;Fashion;Casual;2016;12M,PMTRJCKT00000337,18M,PMTRJCKT00000338,24M,PMTRJCKT00000339;899.00;;;;;;;;zerotype;;Winter;;No
1939160;132090623217 C758-Green-1939160;WL RAMONA JKT C758;Draft;Jackets;Palm Tree;Kids-Girls;Girls;Green;;;Fashion;Casual;2016;10,PMTRJCKT00000333,12,PMTRJCKT00000334,14,PMTRJCKT00000335,16,PMTRJCKT00000336;1099.00;;;;;;;;zerotype;;Winter;;No
1939159;132090623217 C758-Green-1939159;WL RAMONA JKT C758;Draft;Jackets;Palm Tree;Kids-Girls;Girls;Green;;;Fashion;Casual;2016;02,PMTRJCKT00000329,04,PMTRJCKT00000330,06,PMTRJCKT00000331,08,PMTRJCKT00000332;999.00;;;;;;;;zerotype;;Winter;;No
1939158;132090623217 C758-Green-1939158;WL RAMONA JKT C758;Draft;Jackets;Palm Tree;Kids-Girls;Girls;Green;;;Fashion;Casual;2016;12M,PMTRJCKT00000326,18M,PMTRJCKT00000327,24M,PMTRJCKT00000328;899.00;;;;;;;;zerotype;;Winter;;No
1939157;132090623217 C401-Peach-1939157;WL RAMONA JKT C401;Draft;Jackets;Palm Tree;Kids-Girls;Girls;Peach;;;Fashion;Casual;2016;10,PMTRJCKT00000322,12,PMTRJCKT00000323,14,PMTRJCKT00000324,16,PMTRJCKT00000325;1099.00;;;;;;;;zerotype;;Winter;;No
1939156;132090623217 C401-Peach-1939156;WL RAMONA JKT C401;Draft;Jackets;Palm Tree;Kids-Girls;Girls;Peach;;;Fashion;Casual;2016;02,PMTRJCKT00000318,04,PMTRJCKT00000319,06,PMTRJCKT00000320,08,PMTRJCKT00000321;999.00;;;;;;;;zerotype;;Winter;;No
1939155;132090623217 C401-Peach-1939155;WL RAMONA JKT C401;Draft;Jackets;Palm Tree;Kids-Girls;Girls;Peach;;;Fashion;Casual;2016;12M,PMTRJCKT00000315,18M,PMTRJCKT00000316,24M,PMTRJCKT00000317;899.00;;;;;;;;zerotype;;Winter;;No
1939154;132090623216 C457-Red-1939154;WL ROMA JKT C457;Draft;Jackets;Palm Tree;Kids-Girls;Girls;Red;;;Fashion;Casual;2016;10,PMTRJCKT00000311,12,PMTRJCKT00000312,14,PMTRJCKT00000313,16,PMTRJCKT00000314;1299.00;;;;;;;;zerotype;;Winter;;No
1939153;132090623216 C457-Red-1939153;WL ROMA JKT C457;Draft;Jackets;Palm Tree;Kids-Girls;Girls;Red;;;Fashion;Casual;2016;02,PMTRJCKT00000307,04,PMTRJCKT00000308,06,PMTRJCKT00000309,08,PMTRJCKT00000310;1199.00;;;;;;;;zerotype;;Winter;;No
