Style ID;Vendor Article Number;Vendor Article Name;Active Status;Article type;Brand;Age Group;Gender;Base Colour;Colour1;Colour2;Fashion Type;Usage;Year;Size - SKU code pair;MRP;Style Description;Style Note;Materials and Care Description;Size and Fit Description;Size Chart Path;Product Display Name;Tags;Product Type;Classification Brand;Season;Comments;Upload Images
2179685;151246517005 C561-Pink-2179685;SP VIOLET PANT C561;Draft;Trousers;Gini and Jony;Kids-Boys;Boys;Pink;;;Fashion;Casual;2017;12M-18M,GNJNTRSR00069354,18M-24M,GNJNTRSR00069355,9M-12M,GNJNTRSR00069356;499.00;<p>PANT ELASTICATED</p>;;<p>Machine Wash</p>;;;;;zerotype;;Winter;;No
2179684;151246517005 C561-Pink-2179684;SP VIOLET PANT C561;Draft;Trousers;Gini and Jony;Kids-Boys;Boys;Pink;;;Fashion;Casual;2017;0M-3M,GNJNTRSR00069351,3M-6M,GNJNTRSR00069352,6M-9M,GNJNTRSR00069353;399.00;<p>PANT ELASTICATED</p>;;<p>Machine Wash</p>;;;;;zerotype;;Winter;;No
2179681;151246517005 C162-Green-2179681;SP VIOLET PANT C162;Draft;Trousers;Gini and Jony;Kids-Boys;Boys;Green;;;Fashion;Casual;2017;12M-18M,GNJNTRSR00069348,18M-24M,GNJNTRSR00069349,9M-12M,GNJNTRSR00069350;499.00;<p>PANT ELASTICATED</p>;;<p>Machine Wash</p>;;;;;zerotype;;Winter;;No
2179679;151246517005 C162-Green-2179679;SP VIOLET PANT C162;Draft;Trousers;Gini and Jony;Kids-Boys;Boys;Green;;;Fashion;Casual;2017;0M-3M,GNJNTRSR00069345,3M-6M,GNJNTRSR00069346,6M-9M,GNJNTRSR00069347;399.00;<p>PANT ELASTICATED</p>;;<p>Machine Wash</p>;;;;;zerotype;;Winter;;No
2179678;151246517004 C206-Grey-2179678;CH HAZEL PANT C206;Draft;Trousers;Gini and Jony;Kids-Boys;Boys;Grey;;;Fashion;Casual;2017;12M-18M,GNJNTRSR00069342,18M-24M,GNJNTRSR00069343,9M-12M,GNJNTRSR00069344;699.00;<p>PANT ELASTICATED</p>;;<p>Machine Wash</p>;;;;;zerotype;;Winter;;No
2179677;151246517004 C206-Grey-2179677;CH HAZEL PANT C206;Draft;Trousers;Gini and Jony;Kids-Boys;Boys;Grey;;;Fashion;Casual;2017;0M-3M,GNJNTRSR00069339,3M-6M,GNJNTRSR00069340,6M-9M,GNJNTRSR00069341;599.00;<p>PANT ELASTICATED</p>;;<p>Machine Wash</p>;;;;;zerotype;;Winter;;No
2179664;151246516990 C656-Blue-2179664;FR KATLYN TRS C656;Draft;Trousers;Gini and Jony;Kids-Boys;Boys;Blue;;;Fashion;Casual;2017;12M-18M,GNJNTRSR00069336,18M-24M,GNJNTRSR00069337,9M-12M,GNJNTRSR00069338;1099.00;<p>TROUSER ELASTICATED</p>;;<p>Machine Wash</p>;;;;;zerotype;;Winter;;No
2179660;151246516990 C656-Blue-2179660;FR KATLYN TRS C656;Draft;Trousers;Gini and Jony;Kids-Boys;Boys;Blue;;;Fashion;Casual;2017;0M-3M,GNJNTRSR00069333,3M-6M,GNJNTRSR00069334,6M-9M,GNJNTRSR00069335;999.00;<p>TROUSER ELASTICATED</p>;;<p>Machine Wash</p>;;;;;zerotype;;Winter;;No
2179658;151246516976 C656-Blue-2179658;FR KALEY PANT C656;Draft;Trousers;Gini and Jony;Kids-Boys;Boys;Blue;;;Fashion;Casual;2017;12M-18M,GNJNTRSR00069330,18M-24M,GNJNTRSR00069331,9M-12M,GNJNTRSR00069332;599.00;<p>PANT ELASTICATED</p>;;<p>Machine Wash</p>;;;;;zerotype;;Winter;;No
2179657;151246516976 C656-Blue-2179657;FR KALEY PANT C656;Draft;Trousers;Gini and Jony;Kids-Boys;Boys;Blue;;;Fashion;Casual;2017;0M-3M,GNJNTRSR00069327,3M-6M,GNJNTRSR00069328,6M-9M,GNJNTRSR00069329;499.00;<p>PANT ELASTICATED</p>;;<p>Machine Wash</p>;;;;;zerotype;;Winter;;No
2179655;151246516976 C206-Grey-2179655;FR KALEY PANT C206;Draft;Trousers;Gini and Jony;Kids-Boys;Boys;Grey;;;Fashion;Casual;2017;12M-18M,GNJNTRSR00069324,18M-24M,GNJNTRSR00069325,9M-12M,GNJNTRSR00069326;599.00;<p>PANT ELASTICATED</p>;;<p>Machine Wash</p>;;;;;zerotype;;Winter;;No
2179653;151246516976 C206-Grey-2179653;FR KALEY PANT C206;Draft;Trousers;Gini and Jony;Kids-Boys;Boys;Grey;;;Fashion;Casual;2017;0M-3M,GNJNTRSR00069321,3M-6M,GNJNTRSR00069322,6M-9M,GNJNTRSR00069323;499.00;<p>PANT ELASTICATED</p>;;<p>Machine Wash</p>;;;;;zerotype;;Winter;;No
2179652;151246516955 C654-Blue-2179652;SP VINNY PANT C654;Draft;Trousers;Gini and Jony;Kids-Boys;Boys;Blue;;;Fashion;Casual;2017;12M-18M,GNJNTRSR00069318,18M-24M,GNJNTRSR00069319,9M-12M,GNJNTRSR00069320;599.00;<p>PANT ELASTICATED</p>;;<p>Machine Wash</p>;;;;;zerotype;;Winter;;No
2179649;151246516955 C654-Blue-2179649;SP VINNY PANT C654;Draft;Trousers;Gini and Jony;Kids-Boys;Boys;Blue;;;Fashion;Casual;2017;0M-3M,GNJNTRSR00069315,3M-6M,GNJNTRSR00069316,6M-9M,GNJNTRSR00069317;499.00;<p>PANT ELASTICATED</p>;;<p>Machine Wash</p>;;;;;zerotype;;Winter;;No
2179648;151246516955 C466-Red-2179648;SP VINNY PANT C466;Draft;Trousers;Gini and Jony;Kids-Boys;Boys;Red;;;Fashion;Casual;2017;12M-18M,GNJNTRSR00069312,18M-24M,GNJNTRSR00069313,9M-12M,GNJNTRSR00069314;599.00;<p>PANT ELASTICATED</p>;;<p>Machine Wash</p>;;;;;zerotype;;Winter;;No
2179646;151246516955 C466-Red-2179646;SP VINNY PANT C466;Draft;Trousers;Gini and Jony;Kids-Boys;Boys;Red;;;Fashion;Casual;2017;0M-3M,GNJNTRSR00069309,3M-6M,GNJNTRSR00069310,6M-9M,GNJNTRSR00069311;499.00;<p>PANT ELASTICATED</p>;;<p>Machine Wash</p>;;;;;zerotype;;Winter;;No
2179644;151246516954 C656-Blue-2179644;CH HUNT PANT C656;Draft;Trousers;Gini and Jony;Kids-Boys;Boys;Blue;;;Fashion;Casual;2017;12M-18M,GNJNTRSR00069306,18M-24M,GNJNTRSR00069307,9M-12M,GNJNTRSR00069308;699.00;<p>PANT ELASTICATED</p>;;<p>Machine Wash</p>;;;;;zerotype;;Winter;;No
2179641;151246516954 C656-Blue-2179641;CH HUNT PANT C656;Draft;Trousers;Gini and Jony;Kids-Boys;Boys;Blue;;;Fashion;Casual;2017;0M-3M,GNJNTRSR00069303,3M-6M,GNJNTRSR00069304,6M-9M,GNJNTRSR00069305;599.00;<p>PANT ELASTICATED</p>;;<p>Machine Wash</p>;;;;;zerotype;;Winter;;No
2179640;151246516954 C465-Red-2179640;CH HUNT PANT C465;Draft;Trousers;Gini and Jony;Kids-Boys;Boys;Red;;;Fashion;Casual;2017;12M-18M,GNJNTRSR00069300,18M-24M,GNJNTRSR00069301,9M-12M,GNJNTRSR00069302;699.00;<p>PANT ELASTICATED</p>;;<p>Machine Wash</p>;;;;;zerotype;;Winter;;No
2179637;151246516954 C465-Red-2179637;CH HUNT PANT C465;Draft;Trousers;Gini and Jony;Kids-Boys;Boys;Red;;;Fashion;Casual;2017;0M-3M,GNJNTRSR00069297,3M-6M,GNJNTRSR00069298,6M-9M,GNJNTRSR00069299;599.00;<p>PANT ELASTICATED</p>;;<p>Machine Wash</p>;;;;;zerotype;;Winter;;No
2179636;151246516941 C257-Brown-2179636;PR PRIME TRS C257;Draft;Trousers;Gini and Jony;Kids-Boys;Boys;Brown;;;Fashion;Casual;2017;12M-18M,GNJNTRSR00069294,18M-24M,GNJNTRSR00069295,9M-12M,GNJNTRSR00069296;1299.00;<p>TROUSER ELASTICATED</p>;;<p>Machine Wash</p>;;;;;zerotype;;Winter;;No
2179633;151246516941 C257-Brown-2179633;PR PRIME TRS C257;Draft;Trousers;Gini and Jony;Kids-Boys;Boys;Brown;;;Fashion;Casual;2017;0M-3M,GNJNTRSR00069291,3M-6M,GNJNTRSR00069292,6M-9M,GNJNTRSR00069293;1199.00;<p>TROUSER ELASTICATED</p>;;<p>Machine Wash</p>;;;;;zerotype;;Winter;;No
2179632;151246516941 C158-Brown-2179632;PR PRIME TRS C158;Draft;Trousers;Gini and Jony;Kids-Boys;Boys;Brown;;;Fashion;Casual;2017;12M-18M,GNJNTRSR00069288,18M-24M,GNJNTRSR00069289,9M-12M,GNJNTRSR00069290;1299.00;<p>TROUSER ELASTICATED</p>;;<p>Machine Wash</p>;;;;;zerotype;;Winter;;No
2179630;151246516941 C158-Brown-2179630;PR PRIME TRS C158;Draft;Trousers;Gini and Jony;Kids-Boys;Boys;Brown;;;Fashion;Casual;2017;0M-3M,GNJNTRSR00069285,3M-6M,GNJNTRSR00069286,6M-9M,GNJNTRSR00069287;1199.00;<p>TROUSER ELASTICATED</p>;;<p>Machine Wash</p>;;;;;zerotype;;Winter;;No
2179628;151246516940 C656-Blue-2179628;CC OLYVER TRS C656;Draft;Trousers;Gini and Jony;Kids-Boys;Boys;Blue;;;Fashion;Casual;2017;12M-18M,GNJNTRSR00069282,18M-24M,GNJNTRSR00069283,9M-12M,GNJNTRSR00069284;1099.00;<p>TROUSER ELASTICATED</p>;;<p>Machine Wash</p>;;;;;zerotype;;Winter;;No
2179627;151246516940 C656-Blue-2179627;CC OLYVER TRS C656;Draft;Trousers;Gini and Jony;Kids-Boys;Boys;Blue;;;Fashion;Casual;2017;0M-3M,GNJNTRSR00069279,3M-6M,GNJNTRSR00069280,6M-9M,GNJNTRSR00069281;999.00;<p>TROUSER ELASTICATED</p>;;<p>Machine Wash</p>;;;;;zerotype;;Winter;;No
2179626;151246516401 C207-White-2179626;BL BERK PANT C207;Draft;Trousers;Gini and Jony;Kids-Boys;Boys;White;;;Fashion;Casual;2017;12M-18M,GNJNTRSR00069276,18M-24M,GNJNTRSR00069277,9M-12M,GNJNTRSR00069278;599.00;<p>PANT ELASTICATED</p>;;<p>Machine Wash</p>;;;;;zerotype;;Winter;;No
2179624;151246516401 C207-White-2179624;BL BERK PANT C207;Draft;Trousers;Gini and Jony;Kids-Boys;Boys;White;;;Fashion;Casual;2017;0M-3M,GNJNTRSR00069273,3M-6M,GNJNTRSR00069274,6M-9M,GNJNTRSR00069275;499.00;<p>PANT ELASTICATED</p>;;<p>Machine Wash</p>;;;;;zerotype;;Winter;;No
2179622;151246516400 C452-Orange-2179622;BL BERG PANT C452;Draft;Trousers;Gini and Jony;Kids-Boys;Boys;Orange;;;Fashion;Casual;2017;12M-18M,GNJNTRSR00069270,18M-24M,GNJNTRSR00069271,9M-12M,GNJNTRSR00069272;699.00;<p>PANT ELASTICATED</p>;;<p>Machine Wash</p>;;;;;zerotype;;Winter;;No
2179621;151246516400 C452-Orange-2179621;BL BERG PANT C452;Draft;Trousers;Gini and Jony;Kids-Boys;Boys;Orange;;;Fashion;Casual;2017;0M-3M,GNJNTRSR00069267,3M-6M,GNJNTRSR00069268,6M-9M,GNJNTRSR00069269;599.00;<p>PANT ELASTICATED</p>;;<p>Machine Wash</p>;;;;;zerotype;;Winter;;No
2179620;151246516396 6000-Blue-2179620;MI IRA TRS 6000;Draft;Trousers;Gini and Jony;Kids-Boys;Boys;Blue;;;Fashion;Casual;2017;12M-18M,GNJNTRSR00069264,18M-24M,GNJNTRSR00069265,9M-12M,GNJNTRSR00069266;1099.00;<p>TROUSER ELASTICATED</p>;;<p>Machine Wash</p>;;;;;zerotype;;Winter;;No
2179618;151246516396 6000-Blue-2179618;MI IRA TRS 6000;Draft;Trousers;Gini and Jony;Kids-Boys;Boys;Blue;;;Fashion;Casual;2017;0M-3M,GNJNTRSR00069261,3M-6M,GNJNTRSR00069262,6M-9M,GNJNTRSR00069263;999.00;<p>TROUSER ELASTICATED</p>;;<p>Machine Wash</p>;;;;;zerotype;;Winter;;No
2179617;151246516396 5000-Blue-2179617;MI IRA TRS 5000;Draft;Trousers;Gini and Jony;Kids-Boys;Boys;Blue;;;Fashion;Casual;2017;12M-18M,GNJNTRSR00069258,18M-24M,GNJNTRSR00069259,9M-12M,GNJNTRSR00069260;1099.00;<p>TROUSER ELASTICATED</p>;;<p>Machine Wash</p>;;;;;zerotype;;Winter;;No
2179613;151246516396 5000-Blue-2179613;MI IRA TRS 5000;Draft;Trousers;Gini and Jony;Kids-Boys;Boys;Blue;;;Fashion;Casual;2017;0M-3M,GNJNTRSR00069255,3M-6M,GNJNTRSR00069256,6M-9M,GNJNTRSR00069257;999.00;<p>TROUSER ELASTICATED</p>;;<p>Machine Wash</p>;;;;;zerotype;;Winter;;No
2179610;151246516388 C656-Blue-2179610;MI INTHER TRS C656;Draft;Trousers;Gini and Jony;Kids-Boys;Boys;Blue;;;Fashion;Casual;2017;12M-18M,GNJNTRSR00069252,18M-24M,GNJNTRSR00069253,9M-12M,GNJNTRSR00069254;1299.00;<p>TROUSER ELASTICATED</p>;;<p>Machine Wash</p>;;;;;zerotype;;Winter;;No
2179605;151246516388 C656-Blue-2179605;MI INTHER TRS C656;Draft;Trousers;Gini and Jony;Kids-Boys;Boys;Blue;;;Fashion;Casual;2017;0M-3M,GNJNTRSR00069249,3M-6M,GNJNTRSR00069250,6M-9M,GNJNTRSR00069251;1199.00;<p>TROUSER ELASTICATED</p>;;<p>Machine Wash</p>;;;;;zerotype;;Winter;;No
2179602;151246516388 C207-Black-2179602;MI INTHER TRS C207;Draft;Trousers;Gini and Jony;Kids-Boys;Boys;Black;;;Fashion;Casual;2017;12M-18M,GNJNTRSR00069246,18M-24M,GNJNTRSR00069247,9M-12M,GNJNTRSR00069248;1299.00;<p>TROUSER ELASTICATED</p>;;<p>Machine Wash</p>;;;;;zerotype;;Winter;;No
2179598;151246516388 C207-Black-2179598;MI INTHER TRS C207;Draft;Trousers;Gini and Jony;Kids-Boys;Boys;Black;;;Fashion;Casual;2017;0M-3M,GNJNTRSR00069243,3M-6M,GNJNTRSR00069244,6M-9M,GNJNTRSR00069245;1199.00;<p>TROUSER ELASTICATED</p>;;<p>Machine Wash</p>;;;;;zerotype;;Winter;;No
2179596;151246516385 7000-Blue-2179596;MI INNOVA JOG 7000;Draft;Trousers;Gini and Jony;Kids-Boys;Boys;Blue;;;Fashion;Casual;2017;12M-18M,GNJNTRSR00069240,18M-24M,GNJNTRSR00069241,9M-12M,GNJNTRSR00069242;799.00;<p>JOGGERS ELASTICATED</p>;;<p>Machine Wash</p>;;;;;zerotype;;Winter;;No
2179594;151246516385 7000-Blue-2179594;MI INNOVA JOG 7000;Draft;Trousers;Gini and Jony;Kids-Boys;Boys;Blue;;;Fashion;Casual;2017;0M-3M,GNJNTRSR00069237,3M-6M,GNJNTRSR00069238,6M-9M,GNJNTRSR00069239;699.00;<p>JOGGERS ELASTICATED</p>;;<p>Machine Wash</p>;;;;;zerotype;;Winter;;No
2179593;151246516385 5000-Blue-2179593;MI INNOVA JOG 5000;Draft;Trousers;Gini and Jony;Kids-Boys;Boys;Blue;;;Fashion;Casual;2017;12M-18M,GNJNTRSR00069234,18M-24M,GNJNTRSR00069235,9M-12M,GNJNTRSR00069236;799.00;<p>JOGGERS ELASTICATED</p>;;<p>Machine Wash</p>;;;;;zerotype;;Winter;;No
2179592;151246516385 5000-Blue-2179592;MI INNOVA JOG 5000;Draft;Trousers;Gini and Jony;Kids-Boys;Boys;Blue;;;Fashion;Casual;2017;0M-3M,GNJNTRSR00069231,3M-6M,GNJNTRSR00069232,6M-9M,GNJNTRSR00069233;699.00;<p>JOGGERS ELASTICATED</p>;;<p>Machine Wash</p>;;;;;zerotype;;Winter;;No
2179591;151246516375 C206-Grey-2179591;CR CARIN TRS C206;Draft;Trousers;Gini and Jony;Kids-Boys;Boys;Grey;;;Fashion;Casual;2017;12M-18M,GNJNTRSR00069228,18M-24M,GNJNTRSR00069229,9M-12M,GNJNTRSR00069230;1299.00;<p>TROUSER ELASTICATED</p>;;<p>Machine Wash</p>;;;;;zerotype;;Winter;;No
2179590;151246516375 C206-Grey-2179590;CR CARIN TRS C206;Draft;Trousers;Gini and Jony;Kids-Boys;Boys;Grey;;;Fashion;Casual;2017;0M-3M,GNJNTRSR00069225,3M-6M,GNJNTRSR00069226,6M-9M,GNJNTRSR00069227;1049.00;<p>TROUSER ELASTICATED</p>;;<p>Machine Wash</p>;;;;;zerotype;;Winter;;No
2179589;151246516366 C662-Blue-2179589;CR CARREY JOG C662;Draft;Trousers;Gini and Jony;Kids-Boys;Boys;Blue;;;Fashion;Casual;2017;12M-18M,GNJNTRSR00069222,18M-24M,GNJNTRSR00069223,9M-12M,GNJNTRSR00069224;699.00;<p>JOGGERS ELASTICATED</p>;;<p>Machine Wash</p>;;;;;zerotype;;Winter;;No
2179588;151246516366 C662-Blue-2179588;CR CARREY JOG C662;Draft;Trousers;Gini and Jony;Kids-Boys;Boys;Blue;;;Fashion;Casual;2017;0M-3M,GNJNTRSR00069219,3M-6M,GNJNTRSR00069220,6M-9M,GNJNTRSR00069221;599.00;<p>JOGGERS ELASTICATED</p>;;<p>Machine Wash</p>;;;;;zerotype;;Winter;;No
2179585;151246516366 C205-Grey-2179585;CR CARREY JOG C205;Draft;Trousers;Gini and Jony;Kids-Boys;Boys;Grey;;;Fashion;Casual;2017;12M-18M,GNJNTRSR00069216,18M-24M,GNJNTRSR00069217,9M-12M,GNJNTRSR00069218;699.00;<p>JOGGERS ELASTICATED</p>;;<p>Machine Wash</p>;;;;;zerotype;;Winter;;No
2179582;151246516366 C205-Grey-2179582;CR CARREY JOG C205;Draft;Trousers;Gini and Jony;Kids-Boys;Boys;Grey;;;Fashion;Casual;2017;0M-3M,GNJNTRSR00069213,3M-6M,GNJNTRSR00069214,6M-9M,GNJNTRSR00069215;599.00;<p>JOGGERS ELASTICATED</p>;;<p>Machine Wash</p>;;;;;zerotype;;Winter;;No
2179581;121246517294 C158-Brown-2179581;CR NTB TRS C158;Draft;Trousers;Gini and Jony;Kids-Boys;Boys;Brown;;;Fashion;Casual;2017;34,GNJNTRSR00069209,36,GNJNTRSR00069210,38,GNJNTRSR00069211,40,GNJNTRSR00069212;1799.00;<p>TROUSER FIXED WAIST</p>;;<p>Machine Wash</p>;;;;;zerotype;;Winter;;No
2179579;121246517294 C158-Brown-2179579;CR NTB TRS C158;Draft;Trousers;Gini and Jony;Kids-Boys;Boys;Brown;;;Fashion;Casual;2017;24,GNJNTRSR00069204,26,GNJNTRSR00069205,28,GNJNTRSR00069206,30,GNJNTRSR00069207,32,GNJNTRSR00069208;1599.00;<p>TROUSER FIXED WAIST</p>;;<p>Machine Wash</p>;;;;;zerotype;;Winter;;No
2179577;121246517294 C158-Brown-2179577;CR NTB TRS C158;Draft;Trousers;Gini and Jony;Kids-Boys;Boys;Brown;;;Fashion;Casual;2017;18,GNJNTRSR00069201,20,GNJNTRSR00069202,22,GNJNTRSR00069203;1399.00;<p>TROUSER FIXED WAIST</p>;;<p>Machine Wash</p>;;;;;zerotype;;Winter;;No
