Style ID;Vendor Article Number;Vendor Article Name;Active Status;Article type;Brand;Age Group;Gender;Base Colour;Colour1;Colour2;Fashion Type;Usage;Year;Size - SKU code pair;MRP;Style Description;Style Note;Materials and Care Description;Size and Fit Description;Size Chart Path;Product Display Name;Tags;Product Type;Classification Brand;Season;Comments;Upload Images
2084860;MF410-Pink-2084860;IO JG HOME LS F, PINK, 128;Draft;Tshirts;mothercare;Kids-Girls;Girls;Pink;;;Fashion;;2017;3-4Y,MTCRTSHT00007487,4-5Y,MTCRTSHT00007488,5-6Y,MTCRTSHT00007489,6-7Y,MTCRTSHT00007490,7-8Y,MTCRTSHT00007491;499.00;;;<p>Warm regular machine wash, do not bleach, can be tumble dried, iron on medium heat and do not dry clean</p>;;;;;zerotype;;Winter;;No
2084859;MF365-Charcoal-2084859;IO JG EXPLORER, CHARC, 128;Draft;Tshirts;mothercare;Kids-Girls;Girls;Charcoal;;;Fashion;;2017;3-4Y,MTCRTSHT00007482,4-5Y,MTCRTSHT00007483,5-6Y,MTCRTSHT00007484,6-7Y,MTCRTSHT00007485,7-8Y,MTCRTSHT00007486;799.00;;;<p>Warm regular machine wash, do not bleach, can be tumble dried, iron on medium heat and do not dry clean</p>;;;;;zerotype;;Winter;;No
2084848;MF328-Pink-2084848;IO JG MC61 SS U, PINK, 128;Draft;Tshirts;mothercare;Kids-Girls;Girls;Pink;;;Fashion;;2017;3-4Y,MTCRTSHT00007477,4-5Y,MTCRTSHT00007478,5-6Y,MTCRTSHT00007479,6-7Y,MTCRTSHT00007480,7-8Y,MTCRTSHT00007481;699.00;;;<p>Warm regular machine wash, do not bleach, can be tumble dried, iron on medium heat and do not dry clean</p>;;;;;zerotype;;Winter;;No
2084807;MF323-White Pink-2084807;IO JG MC61 LS S, WHITE, 128;Draft;Tshirts;mothercare;Kids-Girls;Girls;White;Pink;;Fashion;;2017;3-4Y,MTCRTSHT00007472,4-5Y,MTCRTSHT00007473,5-6Y,MTCRTSHT00007474,6-7Y,MTCRTSHT00007475,7-8Y,MTCRTSHT00007476;699.00;;;<p>Warm regular machine wash, do not bleach, can be tumble dried, iron on medium heat and do not dry clean</p>;;;;;zerotype;;Winter;;No
2084769;MC863-Navy Blue White-2084769;MB MC61 NAVY SO, NAVY, 098;Draft;Tshirts;mothercare;Kids-Boys;Boys;Navy Blue;White;;Fashion;;2017;3-6M,MTCRTSHT00007466,6-9M,MTCRTSHT00007467,9-12M,MTCRTSHT00007468,12-18M,MTCRTSHT00007469,18-24M,MTCRTSHT00007470,2-3Y,MTCRTSHT00007471;999.00;;;<p>Warm regular machine wash, do not bleach, can be tumble dried, iron on medium heat and do not dry clean</p>;;;;;zerotype;;Winter;;No
2084738;MC862-Red White-2084738;MB MC61 RED SOL, RED, 098;Draft;Tshirts;mothercare;Kids-Boys;Boys;Red;White;;Fashion;;2017;3-6M,MTCRTSHT00007460,6-9M,MTCRTSHT00007461,9-12M,MTCRTSHT00007462,12-18M,MTCRTSHT00007463,18-24M,MTCRTSHT00007464,2-3Y,MTCRTSHT00007465;999.00;;;<p>Warm regular machine wash, do not bleach, can be tumble dried, iron on medium heat and do not dry clean</p>;;;;;zerotype;;Winter;;No
2084730;MG345-Blue-2084730;IO MG NS DENIM, DENIM, 098;Draft;Skirts;mothercare;Kids-Girls;Girls;Blue;;;Fashion;;2017;3-6M,MTCRSKRT00000234,6-9M,MTCRSKRT00000235,9-12M,MTCRSKRT00000236,12-18M,MTCRSKRT00000237,18-24M,MTCRSKRT00000238,2-3Y,MTCRSKRT00000239;1299.00;;;<p>Warm regular machine wash, do not bleach, can be tumble dried, iron on medium heat and do not dry clean</p>;;;;;zerotype;;Winter;;No
2084728;MG403-Navy Blue Pink-2084728;MG PROMO NAVY B, NAVY, 098;Draft;Sweatshirts;mothercare;Kids-Girls;Girls;Navy Blue;Pink;;Fashion;;2017;3-6M,MTCRSWSH00000593,6-9M,MTCRSWSH00000594,9-12M,MTCRSWSH00000595,12-18M,MTCRSWSH00000596,18-24M,MTCRSWSH00000597,2-3Y,MTCRSWSH00000598;699.00;;;<p>Warm regular machine wash, do not bleach, can be tumble dried, iron on medium heat and do not dry clean</p>;;;;;zerotype;;Winter;;No
