Style ID;Vendor Article Number;Vendor Article Name;Active Status;Article type;Brand;Age Group;Gender;Base Colour;Colour1;Colour2;Fashion Type;Usage;Year;Size - SKU code pair;MRP;Style Description;Style Note;Materials and Care Description;Size and Fit Description;Size Chart Path;Product Display Name;Tags;Product Type;Classification Brand;Season;Comments;Upload Images
1993802;504070LP-34-Beige-1993802;Ladies Skirt;Draft;Skirts;Rider Republic;Adults-Women;Women;Beige;;;Fashion;;2017;26,RDRPSKRT00000676,28,RDRPSKRT00000677,30,RDRPSKRT00000678,32,RDRPSKRT00000679,34,RDRPSKRT00000680;1295.00;;;<p>Cold wash separately,Do not Bleach,Tumble dry low , Dry in shade, Machine Wash</p>;;;;;zerotype;;Fall;;No
1993801;504070HP-34-Beige-1993801;Ladies Skirt;Draft;Skirts;Rider Republic;Adults-Women;Women;Beige;;;Fashion;;2017;26,RDRPSKRT00000671,28,RDRPSKRT00000672,30,RDRPSKRT00000673,32,RDRPSKRT00000674,34,RDRPSKRT00000675;1295.00;;;<p>Cold wash separately,Do not Bleach,Tumble dry low , Dry in shade, Machine Wash</p>;;;;;zerotype;;Fall;;No
1993797;501070LP-34-Black-1993797;Ladies Skirt;Draft;Skirts;Rider Republic;Adults-Women;Women;Black;;;Fashion;;2017;26,RDRPSKRT00000666,28,RDRPSKRT00000667,30,RDRPSKRT00000668,32,RDRPSKRT00000669,34,RDRPSKRT00000670;1295.00;;;<p>Cold wash separately,Do not Bleach,Tumble dry low , Dry in shade, Machine Wash</p>;;;;;zerotype;;Fall;;No
1993795;501070HP-34-Black-1993795;Ladies Skirt;Draft;Skirts;Rider Republic;Adults-Women;Women;Black;;;Fashion;;2017;26,RDRPSKRT00000661,28,RDRPSKRT00000662,30,RDRPSKRT00000663,32,RDRPSKRT00000664,34,RDRPSKRT00000665;1295.00;;;<p>Cold wash separately,Do not Bleach,Tumble dry low , Dry in shade, Machine Wash</p>;;;;;zerotype;;Fall;;No
1993792;305103K-34-Navy Blue-1993792;Ladies Skirt;Draft;Skirts;Rider Republic;Adults-Women;Women;Navy Blue;;;Fashion;;2017;26,RDRPSKRT00000656,28,RDRPSKRT00000657,30,RDRPSKRT00000658,32,RDRPSKRT00000659,34,RDRPSKRT00000660;1695.00;;;<p>Cold wash separately,Do not Bleach,Tumble dry low , Dry in shade, Machine Wash</p>;;;;;zerotype;;Fall;;No
1993790;305103B-34-Navy Blue-1993790;Ladies Skirt;Draft;Skirts;Rider Republic;Adults-Women;Women;Navy Blue;;;Fashion;;2017;26,RDRPSKRT00000651,28,RDRPSKRT00000652,30,RDRPSKRT00000653,32,RDRPSKRT00000654,34,RDRPSKRT00000655;1695.00;;;<p>Cold wash separately,Do not Bleach,Tumble dry low , Dry in shade, Machine Wash</p>;;;;;zerotype;;Fall;;No
1993787;312108-34-Blue-1993787;Ladies Shorts;Draft;Shorts;Rider Republic;Adults-Women;Women;Blue;;;Fashion;;2017;26,RDRPSHOR00000216,28,RDRPSHOR00000217,30,RDRPSHOR00000218,32,RDRPSHOR00000219,34,RDRPSHOR00000220;1495.00;;;<p>Cold wash separately,Do not Bleach,Tumble dry low , Dry in shade, Machine Wash</p>;;;;;zerotype;;Fall;;No
1993785;312026RP-34-Blue-1993785;Ladies Shorts;Draft;Shorts;Rider Republic;Adults-Women;Women;Blue;;;Fashion;;2017;26,RDRPSHOR00000211,28,RDRPSHOR00000212,30,RDRPSHOR00000213,32,RDRPSHOR00000214,34,RDRPSHOR00000215;1495.00;;;<p>Cold wash separately,Do not Bleach,Tumble dry low , Dry in shade, Machine Wash</p>;;;;;zerotype;;Fall;;No
1993782;312026LP-34-Blue-1993782;Ladies Shorts;Draft;Shorts;Rider Republic;Adults-Women;Women;Blue;;;Fashion;;2017;26,RDRPSHOR00000206,28,RDRPSHOR00000207,30,RDRPSHOR00000208,32,RDRPSHOR00000209,34,RDRPSHOR00000210;1495.00;;;<p>Cold wash separately,Do not Bleach,Tumble dry low , Dry in shade, Machine Wash</p>;;;;;zerotype;;Fall;;No
1993781;305026RP-34-Navy Blue-1993781;Ladies Shorts;Draft;Shorts;Rider Republic;Adults-Women;Women;Navy Blue;;;Fashion;;2017;26,RDRPSHOR00000201,28,RDRPSHOR00000202,30,RDRPSHOR00000203,32,RDRPSHOR00000204,34,RDRPSHOR00000205;1495.00;;;<p>Cold wash separately,Do not Bleach,Tumble dry low , Dry in shade, Machine Wash</p>;;;;;zerotype;;Fall;;No
