Style ID;Vendor Article Number;Vendor Article Name;Active Status;Article type;Brand;Age Group;Gender;Base Colour;Colour1;Colour2;Fashion Type;Usage;Year;Size - SKU code pair;MRP;Style Description;Style Note;Materials and Care Description;Size and Fit Description;Size Chart Path;Product Display Name;Tags;Product Type;Classification Brand;Season;Comments;Upload Images
1846994;207271-BLACK/BLACK/MULTI-1846994;Forever 21BLACK/BLACK/MULTILeggings;Draft;Leggings;FOREVER 21;Adults-Women;Women;;;;Fashion;;2017;XS,FRTOLEGG00001694,S,FRTOLEGG00001695,M,FRTOLEGG00001696,L,FRTOLEGG00001697;1799.00;<p>Contents:86% NYLON/POLYAMIDE, 14% SPANDEX / ELASTANE, Lining</p>;;;;;;;zerotype;;Summer;;No
1846990;221550-IVORY-1846990;Forever 21IVORYBriefs;Draft;Briefs;FOREVER 21;Adults-Women;Women;;;;Fashion;;2017;S,FRTOBREF00000597,M,FRTOBREF00000598,L,FRTOBREF00000599;329.00;<p>Contents:92% NYLON/POLYAMIDE, 8% SPANDEX / ELASTANE, Lining:</p>;;;;;;;zerotype;;Summer;;No
1846989;221550-CHARCOAL-1846989;Forever 21CHARCOALBriefs;Draft;Briefs;FOREVER 21;Adults-Women;Women;;;;Fashion;;2017;S,FRTOBREF00000594,M,FRTOBREF00000595,L,FRTOBREF00000596;329.00;<p>Contents:92% NYLON/POLYAMIDE, 8% SPANDEX / ELASTANE, Lining:</p>;;;;;;;zerotype;;Summer;;No
1846988;221550-BURGUNDY-1846988;Forever 21BURGUNDYBriefs;Draft;Briefs;FOREVER 21;Adults-Women;Women;;;;Fashion;;2017;S,FRTOBREF00000591,M,FRTOBREF00000592,L,FRTOBREF00000593;329.00;<p>Contents:92% NYLON/POLYAMIDE, 8% SPANDEX / ELASTANE, Lining:</p>;;;;;;;zerotype;;Summer;;No
1846987;221550-BLACK-1846987;Forever 21BLACKBriefs;Draft;Briefs;FOREVER 21;Adults-Women;Women;;;;Fashion;;2017;S,FRTOBREF00000588,M,FRTOBREF00000589,L,FRTOBREF00000590;329.00;<p>Contents:92% NYLON/POLYAMIDE, 8% SPANDEX / ELASTANE, Lining:</p>;;;;;;;zerotype;;Summer;;No
1846983;268974-TAUPE-1846983;Forever 21TAUPEShrugs;Draft;Shrug;FOREVER 21;Adults-Women;Women;;;;Fashion;;2017;2/S,FRTOSHRG00000066,3/M,FRTOSHRG00000067,4/L,FRTOSHRG00000068;1599.00;<p>Contents:78% RAYON, 22% POLYESTER, Lining:, Other:</p>;;;;;;;zerotype;;Summer;;No
1846979;229913-GINGER-1846979;Forever 21GINGERShrugs;Draft;Shrug;FOREVER 21;Adults-Women;Women;;;;Fashion;;2017;1/S,FRTOSHRG00000052,2/M,FRTOSHRG00000053,3/L,FRTOSHRG00000054,4/XL,FRTOSHRG00000055;1799.00;<p>Contents:100% RAYON, Lining:, Other:</p>;;;;;;;zerotype;;Summer;;No
1846976;209090-OLIVE/TAN-1846976;Forever 21OLIVE/TANShrugs;Draft;Shrug;FOREVER 21;Adults-Women;Women;;;;Fashion;;2017;1/S/M,FRTOSHRG00000042,2/M/L,FRTOSHRG00000043;1499.00;<p>Contents:100% RAYON, Lining:, Other:</p>;;;;;;;zerotype;;Summer;;No
1846973;207962-TAN-1846973;Forever 21TANJumpsuit;Draft;Jumpsuit;FOREVER 21;Adults-Women;Women;;;;Fashion;;2017;2/S,FRTOJMST00002357,3/M,FRTOJMST00002358,4/L,FRTOJMST00002359;1199.00;<p>Contents:100% RAYON, Lining:, Other:</p>;;;;;;;zerotype;;Summer;;No
1846967;305369-LIGHT DENIM-1846967;Forever 21LIGHT DENIMShorts;Draft;Shorts;FOREVER 21;Adults-Women;Women;;;;Fashion;;2017;1/24,FRTOSHOR00004874,2/25,FRTOSHOR00004875,3/26,FRTOSHOR00004876,4/27,FRTOSHOR00004877,5/28,FRTOSHOR00004878,6/29,FRTOSHOR00004879,8/31,FRTOSHOR00004880,7/30,FRTOSHOR00004985;1299.00;<p>Contents:100% COTTON, Lining:, Other:</p>;;;;;;;zerotype;;Summer;;No
1846965;252164-YELLOW/WHITE-1846965;Forever 21YELLOW/WHITEShorts;Draft;Shorts;FOREVER 21;Adults-Women;Women;;;;Fashion;;2017;1/XS,FRTOSHOR00004862,2/S,FRTOSHOR00004863,3/M,FRTOSHOR00004864,4/L,FRTOSHOR00004865;899.00;<p>Contents:60% COTTON, 40% POLYESTER, Lining:, Other:</p>;;;;;;;zerotype;;Summer;;No
1846963;252164-OLIVE/IVORY-1846963;Forever 21OLIVE/IVORYShorts;Draft;Shorts;FOREVER 21;Adults-Women;Women;;;;Fashion;;2017;1/XS,FRTOSHOR00004854,2/S,FRTOSHOR00004855,3/M,FRTOSHOR00004856,4/L,FRTOSHOR00004857;899.00;<p>Contents:60% COTTON, 40% POLYESTER, Lining:, Other:</p>;;;;;;;zerotype;;Summer;;No
1846962;252164-HEATHER GREY/WHITE-1846962;Forever 21HEATHER GREY/WHITEShorts;Draft;Shorts;FOREVER 21;Adults-Women;Women;;;;Fashion;;2017;1/XS,FRTOSHOR00004850,2/S,FRTOSHOR00004851,3/M,FRTOSHOR00004852,4/L,FRTOSHOR00004853;899.00;<p>Contents:60% COTTON, 40% POLYESTER, Lining:, Other:</p>;;;;;;;zerotype;;Summer;;No
1846960;227636-HEATHER GREY-1846960;Forever 21HEATHER GREYShorts;Draft;Shorts;FOREVER 21;Adults-Men;Men;;;;Fashion;;2017;1/XS,FRTOSHOR00004841,2/S,FRTOSHOR00004842,3/M,FRTOSHOR00004843,4/L,FRTOSHOR00004844,5/XL,FRTOSHOR00004845;1499.00;<p>Contents:55% COTTON, 45% POLYESTER, Lining:, Other:</p>;;;;;;;zerotype;;Summer;;No
1846959;226694-SKY BLUE/WHITE-1846959;Forever 21SKY BLUE/WHITEShorts;Draft;Shorts;FOREVER 21;Adults-Women;Women;;;;Fashion;;2017;1/XS,FRTOSHOR00004837,2/S,FRTOSHOR00004838,3/M,FRTOSHOR00004839,4/L,FRTOSHOR00004840;1199.00;<p>Contents:100% POLYESTER,92% POLYESTER, 8% SPANDEX / ELASTANE</p>;;;;;;;zerotype;;Summer;;No
1846958;226694-BLACK/CITRON-1846958;Forever 21BLACK/CITRONShorts;Draft;Shorts;FOREVER 21;Adults-Women;Women;;;;Fashion;;2017;1/XS,FRTOSHOR00004833,2/S,FRTOSHOR00004834,3/M,FRTOSHOR00004835,4/L,FRTOSHOR00004836;1199.00;<p>Contents:100% POLYESTER,92% POLYESTER, 8% SPANDEX / ELASTANE</p>;;;;;;;zerotype;;Summer;;No
1846957;206533-MAUVE/BLACK-1846957;Forever 21MAUVE/BLACKShorts;Draft;Shorts;FOREVER 21;Adults-Women;Women;;;;Fashion;;2017;1/XS,FRTOSHOR00004829,2/S,FRTOSHOR00004830,3/M,FRTOSHOR00004831,4/L,FRTOSHOR00004832;949.00;<p>Contents:100% RAYON, Lining:, Other:</p>;;;;;;;zerotype;;Summer;;No
1846955;195495-BLACK/CORAL/MULTI-1846955;Forever 21BLACK/CORAL/MULTIShorts;Draft;Shorts;FOREVER 21;Adults-Women;Women;;;;Fashion;;2017;1/XS,FRTOSHOR00004821,2/S,FRTOSHOR00004822,3/M,FRTOSHOR00004823,4/L,FRTOSHOR00004824;1119.00;<p>Contents:85% POLYESTER, 15% SPANDEX / ELASTANE, Lining:100%</p>;;;;;;;zerotype;;Summer;;No
1846954;190696-BLACK/WHITE-1846954;Forever 21BLACK/WHITEShorts;Draft;Shorts;FOREVER 21;Adults-Women;Women;;;;Fashion;;2017;1/XS,FRTOSHOR00004817,2/S,FRTOSHOR00004818,3/M,FRTOSHOR00004819,4/L,FRTOSHOR00004820;1299.00;<p>Contents:79% NYLON/POLYAMIDE, 21% SPANDEX / ELASTANE,85% POL</p>;;;;;;;zerotype;;Summer;;No
1846953;189641-WHITE/BLACK-1846953;Forever 21WHITE/BLACKShorts;Draft;Shorts;FOREVER 21;Adults-Women;Women;;;;Fashion;;2017;1/XS,FRTOSHOR00004813,2/S,FRTOSHOR00004814,3/M,FRTOSHOR00004815,4/L,FRTOSHOR00004816;1199.00;<p>Contents:85% POLYESTER, 15% SPANDEX / ELASTANE, Lining:100%</p>;;;;;;;zerotype;;Summer;;No
1846952;189641-BLACK/WHITE-1846952;Forever 21BLACK/WHITEShorts;Draft;Shorts;FOREVER 21;Adults-Women;Women;;;;Fashion;;2017;1/XS,FRTOSHOR00004809,2/S,FRTOSHOR00004810,3/M,FRTOSHOR00004811,4/L,FRTOSHOR00004812;1199.00;<p>Contents:85% POLYESTER, 15% SPANDEX / ELASTANE, Lining:100%</p>;;;;;;;zerotype;;Summer;;No
1846948;251600-RUST/CREAM-1846948;Forever 21RUST/CREAMTops;Draft;Tops;FOREVER 21;Adults-Women;Women;;;;Fashion;;2017;1/S,FRTOTOPS00026935,2/M,FRTOTOPS00026936,3/L,FRTOTOPS00026937,4/XL,FRTOTOPS00026938;1299.00;<p>Contents:100% RAYON, Lining:, Other:</p>;;;;;;;zerotype;;Summer;;No
1846947;251600-BLUE/IVORY-1846947;Forever 21BLUE/IVORYTops;Draft;Tops;FOREVER 21;Adults-Women;Women;;;;Fashion;;2017;1/S,FRTOTOPS00026931,2/M,FRTOTOPS00026932,3/L,FRTOTOPS00026933,4/XL,FRTOTOPS00026934;1299.00;<p>Contents:100% RAYON, Lining:, Other:</p>;;;;;;;zerotype;;Summer;;No
1846935;227354-WHITE-1846935;Forever 21WHITETops;Draft;Tops;FOREVER 21;Adults-Women;Women;;;;Fashion;;2017;1/S,FRTOTOPS00026893,2/M,FRTOTOPS00026894,3/L,FRTOTOPS00026895,4/XL,FRTOTOPS00026896;999.00;<p>Contents:100% RAYON, Lining:, Other:</p>;;;;;;;zerotype;;Summer;;No
1846934;227354-NUDE-1846934;Forever 21NUDETops;Draft;Tops;FOREVER 21;Adults-Women;Women;;;;Fashion;;2017;1/S,FRTOTOPS00026889,2/M,FRTOTOPS00026890,3/L,FRTOTOPS00026891,4/XL,FRTOTOPS00026892;999.00;<p>Contents:100% RAYON, Lining:, Other:</p>;;;;;;;zerotype;;Summer;;No
1846932;226548-CREAM/SAGE-1846932;Forever 21CREAM/SAGETops;Draft;Tops;FOREVER 21;Adults-Women;Women;;;;Fashion;;2017;1/XS,FRTOTOPS00026880,2/S,FRTOTOPS00026881,3/M,FRTOTOPS00026882,4/L,FRTOTOPS00026883,5/XL,FRTOTOPS00026884;699.00;<p>Contents:95% RAYON, 5% SPANDEX / ELASTANE, Lining:, Other:</p>;;;;;;;zerotype;;Summer;;No
1846931;226548-CREAM/BLACK-1846931;Forever 21CREAM/BLACKTops;Draft;Tops;FOREVER 21;Adults-Women;Women;;;;Fashion;;2017;1/XS,FRTOTOPS00026875,2/S,FRTOTOPS00026876,3/M,FRTOTOPS00026877,4/L,FRTOTOPS00026878,5/XL,FRTOTOPS00026879;699.00;<p>Contents:95% RAYON, 5% SPANDEX / ELASTANE, Lining:, Other:</p>;;;;;;;zerotype;;Summer;;No
1846930;226548-BURGUNDY/CREAM-1846930;Forever 21BURGUNDY/CREAMTops;Draft;Tops;FOREVER 21;Adults-Women;Women;;;;Fashion;;2017;1/XS,FRTOTOPS00026870,2/S,FRTOTOPS00026871,3/M,FRTOTOPS00026872,4/L,FRTOTOPS00026873,5/XL,FRTOTOPS00026874;699.00;<p>Contents:95% RAYON, 5% SPANDEX / ELASTANE, Lining:, Other:</p>;;;;;;;zerotype;;Summer;;No
1846925;223694-BABY PINK-1846925;Forever 21BABY PINKTops;Draft;Tops;FOREVER 21;Adults-Women;Women;;;;Fashion;;2017;2/S,FRTOTOPS00026855,3/M,FRTOTOPS00026856,4/L,FRTOTOPS00026857;949.00;<p>Contents:57% POLYESTER, 43% COTTON, Lining:, Other:</p>;;;;;;;zerotype;;Summer;;No
1846922;225396-LIGHT DENIM-1846922;Forever 21LIGHT DENIMJeans;Draft;Jeans;FOREVER 21;Adults-Women;Women;;;;Fashion;;2017;1/24,FRTOJENS00003479,2/25,FRTOJENS00003480,3/26,FRTOJENS00003481,4/27,FRTOJENS00003482,5/28,FRTOJENS00003483,6/29,FRTOJENS00003484,7/30,FRTOJENS00003485;1999.00;<p>Contents:100% COTTON, Lining:, Other:</p>;;;;;;;zerotype;;Summer;;No
1846618;210862-SAGE-1846618;Forever 21SAGETops;Draft;Tops;FOREVER 21;Adults-Women;Women;;;;Fashion;;2017;2/S,FRTOTOPS00026815,3/M,FRTOTOPS00026816,4/L,FRTOTOPS00026817;1099.00;<p>Contents:100% POLYESTER, Lining:, Other:</p>;;;;;;;zerotype;;Summer;;No
1846617;210862-MAUVE-1846617;Forever 21MAUVETops;Draft;Tops;FOREVER 21;Adults-Women;Women;;;;Fashion;;2017;2/S,FRTOTOPS00026812,3/M,FRTOTOPS00026813,4/L,FRTOTOPS00026814;1099.00;<p>Contents:100% POLYESTER, Lining:, Other:</p>;;;;;;;zerotype;;Summer;;No
1846616;210862-LAVENDER-1846616;Forever 21LAVENDERTops;Draft;Tops;FOREVER 21;Adults-Women;Women;;;;Fashion;;2017;2/S,FRTOTOPS00026809,3/M,FRTOTOPS00026810,4/L,FRTOTOPS00026811;1099.00;<p>Contents:100% POLYESTER, Lining:, Other:</p>;;;;;;;zerotype;;Summer;;No
1846615;210862-CREAM-1846615;Forever 21CREAMTops;Draft;Tops;FOREVER 21;Adults-Women;Women;;;;Fashion;;2017;2/S,FRTOTOPS00026806,3/M,FRTOTOPS00026807,4/L,FRTOTOPS00026808;1099.00;<p>Contents:100% POLYESTER, Lining:, Other:</p>;;;;;;;zerotype;;Summer;;No
1846609;209456-CREAM/MAUVE-1846609;Forever 21CREAM/MAUVETops;Draft;Tops;FOREVER 21;Adults-Women;Women;;;;Fashion;;2017;2/S,FRTOTOPS00026788,3/M,FRTOTOPS00026789,4/L,FRTOTOPS00026790;899.00;<p>Contents:100% RAYON, Lining:, Other:</p>;;;;;;;zerotype;;Summer;;No
1846604;208552-WHITE/NAVY-1846604;Forever 21WHITE/NAVYTops;Draft;Tops;FOREVER 21;Adults-Women;Women;;;;Fashion;;2017;2/S,FRTOTOPS00026773,3/M,FRTOTOPS00026774,4/L,FRTOTOPS00026775;899.00;<p>Contents:95% RAYON, 5% SPANDEX / ELASTANE, Lining:, Other:</p>;;;;;;;zerotype;;Summer;;No
1846603;208552-CHERRY/WHITE-1846603;Forever 21CHERRY/WHITETops;Draft;Tops;FOREVER 21;Adults-Women;Women;;;;Fashion;;2017;2/S,FRTOTOPS00026770,3/M,FRTOTOPS00026771,4/L,FRTOTOPS00026772;899.00;<p>Contents:95% RAYON, 5% SPANDEX / ELASTANE, Lining:, Other:</p>;;;;;;;zerotype;;Summer;;No
1846601;208469-LIGHT PINK-1846601;Forever 21LIGHT PINKTops;Draft;Tops;FOREVER 21;Adults-Women;Women;;;;Fashion;;2017;2/S,FRTOTOPS00026764,3/M,FRTOTOPS00026765,4/L,FRTOTOPS00026766;1299.00;<p>Contents:100% RAYON, Lining:, Other:</p>;;;;;;;zerotype;;Summer;;No
1846594;207172-CHARCOAL/BLACK-1846594;Forever 21CHARCOAL/BLACKTops;Draft;Tops;FOREVER 21;Adults-Women;Women;;;;Fashion;;2017;2/S,FRTOTOPS00026739,3/M,FRTOTOPS00026740,4/L,FRTOTOPS00026741;1299.00;<p>Contents:60% COTTON, 40% MODAL RAYON, Lining:, Other:</p>;;;;;;;zerotype;;Summer;;No
1846592;207068-MUSTARD-1846592;Forever 21MUSTARDTops;Draft;Tops;FOREVER 21;Adults-Women;Women;;;;Fashion;;2017;2/S,FRTOTOPS00026733,3/M,FRTOTOPS00026734,4/L,FRTOTOPS00026735;999.00;<p>Contents:91% COTTON, 8% NYLON/POLYAMIDE, 1% SPANDEX / ELASTA</p>;;;;;;;zerotype;;Summer;;No
1846590;206676-CREAM/GREEN-1846590;Forever 21CREAM/GREENTops;Draft;Tops;FOREVER 21;Adults-Women;Women;;;;Fashion;;2017;2/S,FRTOTOPS00026727,3/M,FRTOTOPS00026728,4/L,FRTOTOPS00026729;1399.00;<p>Contents:60% COTTON, 40% POLYESTER, Lining:, Other:</p>;;;;;;;zerotype;;Summer;;No
1846583;194211-CHARCOAL-1846583;Forever 21CHARCOALTops;Draft;Tops;FOREVER 21;Adults-Women;Women;;;;Fashion;;2017;2/S,FRTOTOPS00026705,3/M,FRTOTOPS00026706,4/L,FRTOTOPS00026707;1399.00;<p>Contents:60% COTTON, 40% POLYESTER, Lining:, Other:</p>;;;;;;;zerotype;;Summer;;No
1846581;194135-MUSTARD-1846581;Forever 21MUSTARDTops;Draft;Tops;FOREVER 21;Adults-Women;Women;;;;Fashion;;2017;2/S,FRTOTOPS00026699,3/M,FRTOTOPS00026700,4/L,FRTOTOPS00026701;899.00;<p>Contents:62% POLYESTER, 33% RAYON, 5% SPANDEX / ELASTANE, Li</p>;;;;;;;zerotype;;Summer;;No
1846579;194135-BLACK-1846579;Forever 21BLACKTops;Draft;Tops;FOREVER 21;Adults-Women;Women;;;;Fashion;;2017;2/S,FRTOTOPS00026693,3/M,FRTOTOPS00026694,4/L,FRTOTOPS00026695;899.00;<p>Contents:62% POLYESTER, 33% RAYON, 5% SPANDEX / ELASTANE, Li</p>;;;;;;;zerotype;;Summer;;No
1846575;192649-NUDE-1846575;Forever 21NUDETops;Draft;Tops;FOREVER 21;Adults-Women;Women;;;;Fashion;;2017;1/XS,FRTOTOPS00026680,2/S,FRTOTOPS00026681,3/M,FRTOTOPS00026682,4/L,FRTOTOPS00026683;599.00;<p>Contents:93% RAYON, 7% SPANDEX / ELASTANE, Lining:, Other:</p>;;;;;;;zerotype;;Summer;;No
1846568;192170-RUST-1846568;Forever 21RUSTTops;Draft;Tops;FOREVER 21;Adults-Women;Women;;;;Fashion;;2017;1/XS,FRTOTOPS00026651,2/S,FRTOTOPS00026652,3/M,FRTOTOPS00026653,4/L,FRTOTOPS00026654,5/XL,FRTOTOPS00026655;899.00;<p>Contents:65% POLYESTER, 32% RAYON, 3% SPANDEX / ELASTANE, Li</p>;;;;;;;zerotype;;Summer;;No
1846560;191708-HEATHER GREY-1846560;Forever 21HEATHER GREYTops;Draft;Tops;FOREVER 21;Adults-Women;Women;;;;Fashion;;2017;1/XS,FRTOTOPS00026618,2/S,FRTOTOPS00026619,3/M,FRTOTOPS00026620,4/L,FRTOTOPS00026621;1499.00;<p>Contents:95% RAYON, 5% SPANDEX / ELASTANE, Lining:, Other:</p>;;;;;;;zerotype;;Summer;;No
1846556;191143-SAGE-1846556;Forever 21SAGETops;Draft;Tops;FOREVER 21;Adults-Women;Women;;;;Fashion;;2017;2/S,FRTOTOPS00026605,3/M,FRTOTOPS00026606,4/L,FRTOTOPS00026607;1099.00;<p>Contents:100% POLYESTER, Lining:100% POLYESTER, Other:</p>;;;;;;;zerotype;;Summer;;No
1846551;190014-HEATHER GREY-1846551;Forever 21HEATHER GREYTops;Draft;Tops;FOREVER 21;Adults-Women;Women;;;;Fashion;;2017;2/S,FRTOTOPS00026588,3/M,FRTOTOPS00026589,4/L,FRTOTOPS00026590;1199.00;<p>Contents:51% COTTON, 49% POLYESTER, Lining:, Other:</p>;;;;;;;zerotype;;Summer;;No
1846519;226568-PINK-1846519;Forever 21PINKBlazers;Draft;Blazers;FOREVER 21;Adults-Women;Women;;;;Fashion;;2017;2/S,FRTOBLZR00000093,3/M,FRTOBLZR00000094,4/L,FRTOBLZR00000095;1499.00;<p>Contents:100% POLYESTER, Lining:, Other:</p>;;;;;;;zerotype;;Summer;;No
1846517;226568-GREY-1846517;Forever 21GREYBlazers;Draft;Blazers;FOREVER 21;Adults-Women;Women;;;;Fashion;;2017;2/S,FRTOBLZR00000087,3/M,FRTOBLZR00000088,4/L,FRTOBLZR00000089;1499.00;<p>Contents:100% POLYESTER, Lining:, Other:</p>;;;;;;;zerotype;;Summer;;No
1846513;249970-OLIVE-1846513;Forever 21OLIVETrousers;Draft;Trousers;FOREVER 21;Adults-Women;Women;;;;Fashion;;2017;1/S,FRTOTRSR00003544,2/M,FRTOTRSR00003545,3/L,FRTOTRSR00003546,4/XL,FRTOTRSR00003547;1799.00;<p>Contents:62% RAYON, 35% POLYESTER, 3% SPANDEX / ELASTANE, Li</p>;;;;;;;zerotype;;Summer;;No
1846511;249970-BLACK-1846511;Forever 21BLACKTrousers;Draft;Trousers;FOREVER 21;Adults-Women;Women;;;;Fashion;;2017;1/S,FRTOTRSR00003536,2/M,FRTOTRSR00003537,3/L,FRTOTRSR00003538,4/XL,FRTOTRSR00003539;1799.00;<p>Contents:62% RAYON, 35% POLYESTER, 3% SPANDEX / ELASTANE, Li</p>;;;;;;;zerotype;;Summer;;No
1846510;227444-WHITE-1846510;Forever 21WHITETrousers;Draft;Trousers;FOREVER 21;Adults-Women;Women;;;;Fashion;;2017;1/24,FRTOTRSR00003530,2/25,FRTOTRSR00003531,3/26,FRTOTRSR00003532,4/27,FRTOTRSR00003533,5/28,FRTOTRSR00003534,6/29,FRTOTRSR00003535;1119.00;<p>Contents:71% COTTON, 27% POLYESTER, 2% SPANDEX / ELASTANE, L</p>;;;;;;;zerotype;;Summer;;No
1846509;227444-PINK-1846509;Forever 21PINKTrousers;Draft;Trousers;FOREVER 21;Adults-Women;Women;;;;Fashion;;2017;1/24,FRTOTRSR00003524,2/25,FRTOTRSR00003525,3/26,FRTOTRSR00003526,4/27,FRTOTRSR00003527,5/28,FRTOTRSR00003528,6/29,FRTOTRSR00003529;1119.00;<p>Contents:71% COTTON, 27% POLYESTER, 2% SPANDEX / ELASTANE, L</p>;;;;;;;zerotype;;Summer;;No
1846508;227444-BLACK-1846508;Forever 21BLACKTrousers;Draft;Trousers;FOREVER 21;Adults-Women;Women;;;;Fashion;;2017;1/24,FRTOTRSR00003518,2/25,FRTOTRSR00003519,3/26,FRTOTRSR00003520,4/27,FRTOTRSR00003521,5/28,FRTOTRSR00003522,6/29,FRTOTRSR00003523;1119.00;<p>Contents:71% COTTON, 27% POLYESTER, 2% SPANDEX / ELASTANE, L</p>;;;;;;;zerotype;;Summer;;No
1846506;210079-BLACK/WHITE-1846506;Forever 21BLACK/WHITETrousers;Draft;Trousers;FOREVER 21;Adults-Women;Women;;;;Fashion;;2017;1/XS,FRTOTRSR00003511,2/S,FRTOTRSR00003512,3/M,FRTOTRSR00003513,4/L,FRTOTRSR00003514;1499.00;<p>Contents:92% COTTON, 8% SPANDEX / ELASTANE, Lining:, Other:</p>;;;;;;;zerotype;;Summer;;No
1846503;208998-CHARCOAL-1846503;Forever 21CHARCOALTrousers;Draft;Trousers;FOREVER 21;Adults-Women;Women;;;;Fashion;;2017;2/S,FRTOTRSR00003502,3/M,FRTOTRSR00003503,4/L,FRTOTRSR00003504;1399.00;<p>Contents:60% COTTON, 40% POLYESTER, Lining:, Other:</p>;;;;;;;zerotype;;Summer;;No
1846501;193044-BLACK-1846501;Forever 21BLACKTrousers;Draft;Trousers;FOREVER 21;Adults-Men;Men;;;;Fashion;;2017;1/XS,FRTOTRSR00003492,2/S,FRTOTRSR00003493,3/M,FRTOTRSR00003494,4/L,FRTOTRSR00003495,5/XL,FRTOTRSR00003496;1699.00;<p>Contents:59% COTTON, 41% POLYESTER, Lining:, Other:</p>;;;;;;;zerotype;;Summer;;No
1846491;251878-LIGHT BLUE/IVORY-1846491;Forever 21LIGHT BLUE/IVORYDresses;Draft;Dresses;FOREVER 21;Adults-Women;Women;;;;Fashion;;2017;1/S,FRTODRSS00014022,2/M,FRTODRSS00014023,3/L,FRTODRSS00014024,4/XL,FRTODRSS00014025;1399.00;<p>Contents:100% RAYON, Lining:, Other:</p>;;;;;;;zerotype;;Summer;;No
1846490;251878-BLACK/CREAM-1846490;Forever 21BLACK/CREAMDresses;Draft;Dresses;FOREVER 21;Adults-Women;Women;;;;Fashion;;2017;1/S,FRTODRSS00014018,2/M,FRTODRSS00014019,3/L,FRTODRSS00014020,4/XL,FRTODRSS00014021;1399.00;<p>Contents:100% RAYON, Lining:, Other:</p>;;;;;;;zerotype;;Summer;;No
1846485;237450-LIGHT ROSE-1846485;Forever 21LIGHT ROSEDresses;Draft;Dresses;FOREVER 21;Adults-Women;Women;;;;Fashion;;2017;2/S,FRTODRSS00014001,3/M,FRTODRSS00014002,4/L,FRTODRSS00014003;689.00;<p>Contents:68% RAYON, 28% NYLON/POLYAMIDE, 4% SPANDEX / ELASTA</p>;;;;;;;zerotype;;Summer;;No
1846484;237450-HEATHER GREY-1846484;Forever 21HEATHER GREYDresses;Draft;Dresses;FOREVER 21;Adults-Women;Women;;;;Fashion;;2017;2/S,FRTODRSS00013998,3/M,FRTODRSS00013999,4/L,FRTODRSS00014000;689.00;<p>Contents:68% RAYON, 28% NYLON/POLYAMIDE, 4% SPANDEX / ELASTA</p>;;;;;;;zerotype;;Summer;;No
1846479;226550-NAVY/MAUVE-1846479;Forever 21NAVY/MAUVEDresses;Draft;Dresses;FOREVER 21;Adults-Women;Women;;;;Fashion;;2017;1/XS,FRTODRSS00013977,2/S,FRTODRSS00013978,3/M,FRTODRSS00013979,4/L,FRTODRSS00013980,5/XL,FRTODRSS00013981;1199.00;<p>Contents:100% RAYON, Lining:, Other:</p>;;;;;;;zerotype;;Summer;;No
1846475;224677-BLACK/CREAM-1846475;Forever 21BLACK/CREAMDresses;Draft;Dresses;FOREVER 21;Adults-Women;Women;;;;Fashion;;2017;1/XS,FRTODRSS00013957,2/S,FRTODRSS00013958,3/M,FRTODRSS00013959,4/L,FRTODRSS00013960,5/XL,FRTODRSS00013961;1499.00;<p>Contents:95% RAYON, 5% SPANDEX / ELASTANE,94% RAYON, 6% SPAN</p>;;;;;;;zerotype;;Summer;;No
1846468;207960-APRICOT-1846468;Forever 21APRICOTDresses;Draft;Dresses;FOREVER 21;Adults-Women;Women;;;;Fashion;;2017;1/S,FRTODRSS00013934,2/M,FRTODRSS00013935,3/L,FRTODRSS00013936,4/XL,FRTODRSS00013937;1799.00;<p>Contents:100% POLYESTER, Lining:, Other:</p>;;;;;;;zerotype;;Summer;;No
1846464;207156-MUSTARD/CREAM-1846464;Forever 21MUSTARD/CREAMDresses;Draft;Dresses;FOREVER 21;Adults-Women;Women;;;;Fashion;;2017;1/XS,FRTODRSS00013918,2/S,FRTODRSS00013919,3/M,FRTODRSS00013920,4/L,FRTODRSS00013921,5/XL,FRTODRSS00013922;1199.00;<p>Contents:100% RAYON, Lining:, Other:</p>;;;;;;;zerotype;;Summer;;No
1846463;207128-WHITE/PEACH/GREY-1846463;Forever 21WHITE/PEACH/GREYDresses;Draft;Dresses;FOREVER 21;Adults-Women;Women;;;;Fashion;;2017;2/S,FRTODRSS00013914,3/M,FRTODRSS00013915,4/L,FRTODRSS00013917;1349.00;<p>Contents:100% COTTON, Lining:, Other:</p>;;;;;;;zerotype;;Summer;;No
1846462;207128-NAVY/ROSE/WHITE-1846462;Forever 21NAVY/ROSE/WHITEDresses;Draft;Dresses;FOREVER 21;Adults-Women;Women;;;;Fashion;;2017;2/S,FRTODRSS00013911,3/M,FRTODRSS00013912,4/L,FRTODRSS00013913;1349.00;<p>Contents:100% COTTON, Lining:, Other:</p>;;;;;;;zerotype;;Summer;;No
1846461;206559-BLACK-1846461;Forever 21BLACKDresses;Draft;Dresses;FOREVER 21;Adults-Women;Women;;;;Fashion;;2017;2/S,FRTODRSS00013908,3/M,FRTODRSS00013909,4/L,FRTODRSS00013910;1299.00;<p>Contents:91% COTTON, 9% SPANDEX / ELASTANE, Lining:, Other:</p>;;;;;;;zerotype;;Summer;;No
1846458;190998-BURGUNDY/TAN-1846458;Forever 21BURGUNDY/TANDresses;Draft;Dresses;FOREVER 21;Adults-Women;Women;;;;Fashion;;2017;2/S,FRTODRSS00013899,3/M,FRTODRSS00013900,4/L,FRTODRSS00013901;1399.00;<p>Contents:96% POLYESTER, 4% SPANDEX / ELASTANE, Lining:, Othe</p>;;;;;;;zerotype;;Summer;;No
1846434;227381-OLIVE-1846434;Forever 21OLIVESkirts;Draft;Skirts;FOREVER 21;Adults-Women;Women;;;;Fashion;;2017;1/S,FRTOSKRT00005914,2/M,FRTOSKRT00005915,3/L,FRTOSKRT00005916,4/XL,FRTOSKRT00005917;999.00;<p>Contents:100% POLYESTER, Lining:, Other:</p>;;;;;;;zerotype;;Summer;;No
1846433;227381-BLACK-1846433;Forever 21BLACKSkirts;Draft;Skirts;FOREVER 21;Adults-Women;Women;;;;Fashion;;2017;1/S,FRTOSKRT00005910,2/M,FRTOSKRT00005911,3/L,FRTOSKRT00005912,4/XL,FRTOSKRT00005913;999.00;<p>Contents:100% POLYESTER, Lining:, Other:</p>;;;;;;;zerotype;;Summer;;No
1846432;225488-RUST-1846432;Forever 21RUSTSkirts;Draft;Skirts;FOREVER 21;Adults-Women;Women;;;;Fashion;;2017;1/S,FRTOSKRT00005906,2/M,FRTOSKRT00005907,3/L,FRTOSKRT00005908,4/XL,FRTOSKRT00005909;999.00;<p>Contents:100% RAYON, Lining:, Other:</p>;;;;;;;zerotype;;Summer;;No
1846431;225488-BLACK-1846431;Forever 21BLACKSkirts;Draft;Skirts;FOREVER 21;Adults-Women;Women;;;;Fashion;;2017;1/S,FRTOSKRT00005902,2/M,FRTOSKRT00005903,3/L,FRTOSKRT00005904,4/XL,FRTOSKRT00005905;999.00;<p>Contents:100% RAYON, Lining:, Other:</p>;;;;;;;zerotype;;Summer;;No
1846430;224695-BLACK-1846430;Forever 21BLACKSkirts;Draft;Skirts;FOREVER 21;Adults-Women;Women;;;;Fashion;;2017;2/S,FRTOSKRT00005899,3/M,FRTOSKRT00005900,4/L,FRTOSKRT00005901;899.00;<p>Contents:68% RAYON, 28% NYLON/POLYAMIDE, 4% SPANDEX / ELASTA</p>;;;;;;;zerotype;;Summer;;No
1846429;224695-APRICOT-1846429;Forever 21APRICOTSkirts;Draft;Skirts;FOREVER 21;Adults-Women;Women;;;;Fashion;;2017;2/S,FRTOSKRT00005896,3/M,FRTOSKRT00005897,4/L,FRTOSKRT00005898;899.00;<p>Contents:68% RAYON, 28% NYLON/POLYAMIDE, 4% SPANDEX / ELASTA</p>;;;;;;;zerotype;;Summer;;No
1846428;189655-SAGE-1846428;Forever 21SAGESkirts;Draft;Skirts;FOREVER 21;Adults-Women;Women;;;;Fashion;;2017;2/S,FRTOSKRT00005893,3/M,FRTOSKRT00005894,4/L,FRTOSKRT00005895;1299.00;<p>Contents:98% COTTON, 2% SPANDEX / ELASTANE, Lining:, Other:</p>;;;;;;;zerotype;;Summer;;No
1846421;251216-GREY/PINK-1846421;Forever 21GREY/PINKTshirts;Draft;Tshirts;FOREVER 21;Adults-Women;Women;;;;Fashion;;2017;2/S,FRTOTSHT00002576,3/M,FRTOTSHT00002577,4/L,FRTOTSHT00002578;1499.00;<p>Contents:100% COTTON, Lining:, Other:</p>;;;;;;;zerotype;;Summer;;No
1846417;228240-SAGE-1846417;Forever 21SAGETops;Draft;Tshirts;FOREVER 21;Adults-Men;Men;;;;Fashion;;2017;1/XS,FRTOTSHT00002560,2/S,FRTOTSHT00002561,3/M,FRTOTSHT00002562,4/L,FRTOTSHT00002563,5/XL,FRTOTSHT00002564;799.00;<p>Contents:100% COTTON, Lining:, Other:</p>;;;;;;;zerotype;;Summer;;No
1846416;228240-LIGHT BLUE-1846416;Forever 21LIGHT BLUETops;Draft;Tshirts;FOREVER 21;Adults-Men;Men;;;;Fashion;;2017;1/XS,FRTOTSHT00002555,2/S,FRTOTSHT00002556,3/M,FRTOTSHT00002557,4/L,FRTOTSHT00002558,5/XL,FRTOTSHT00002559;799.00;<p>Contents:100% COTTON, Lining:, Other:</p>;;;;;;;zerotype;;Summer;;No
1846415;228240-GREY-1846415;Forever 21GREYTops;Draft;Tshirts;FOREVER 21;Adults-Men;Men;;;;Fashion;;2017;1/XS,FRTOTSHT00002550,2/S,FRTOTSHT00002551,3/M,FRTOTSHT00002552,4/L,FRTOTSHT00002553,5/XL,FRTOTSHT00002554;799.00;<p>Contents:100% COTTON, Lining:, Other:</p>;;;;;;;zerotype;;Summer;;No
1846414;228240-FADED ROSE-1846414;Forever 21FADED ROSETops;Draft;Tshirts;FOREVER 21;Adults-Men;Men;;;;Fashion;;2017;1/XS,FRTOTSHT00002545,2/S,FRTOTSHT00002546,3/M,FRTOTSHT00002547,4/L,FRTOTSHT00002548,5/XL,FRTOTSHT00002549;799.00;<p>Contents:100% COTTON, Lining:, Other:</p>;;;;;;;zerotype;;Summer;;No
1846412;227509-BLACK/GOLD-1846412;Forever 21BLACK/GOLDTshirts;Draft;Tshirts;FOREVER 21;Adults-Women;Women;;;;Fashion;;2017;2/S,FRTOTSHT00002539,3/M,FRTOTSHT00002540,4/L,FRTOTSHT00002541;899.00;<p>Contents:100% COTTON, Lining:, Other:</p>;;;;;;;zerotype;;Summer;;No
1846410;226424-TAUPE/BROWN-1846410;Forever 21TAUPE/BROWNTshirts;Draft;Tshirts;FOREVER 21;Adults-Men;Men;;;;Fashion;;2017;1/XS,FRTOTSHT00002531,2/S,FRTOTSHT00002532,3/M,FRTOTSHT00002533,4/L,FRTOTSHT00002534,5/XL,FRTOTSHT00002535;949.00;<p>Contents:60% COTTON, 40% POLYESTER, Lining:, Other:</p>;;;;;;;zerotype;;Summer;;No
1846409;226412-GREY/WHITE-1846409;Forever 21GREY/WHITETshirts;Draft;Tshirts;FOREVER 21;Adults-Men;Men;;;;Fashion;;2017;1/XS,FRTOTSHT00002526,2/S,FRTOTSHT00002527,3/M,FRTOTSHT00002528,4/L,FRTOTSHT00002529,5/XL,FRTOTSHT00002530;1099.00;<p>Contents:60% COTTON, 40% POLYESTER,100% COTTON Lining:, Othe</p>;;;;;;;zerotype;;Summer;;No
1846408;224613-BURGUNDY/CREAM-1846408;Forever 21BURGUNDY/CREAMTshirts;Draft;Tshirts;FOREVER 21;Adults-Women;Women;;;;Fashion;;2017;2/S,FRTOTSHT00002523,3/M,FRTOTSHT00002524,4/L,FRTOTSHT00002525;699.00;<p>Contents:95% RAYON, 5% SPANDEX / ELASTANE, Lining:, Other:</p>;;;;;;;zerotype;;Summer;;No
1846407;224613-BLACK/CREAM-1846407;Forever 21BLACK/CREAMTshirts;Draft;Tshirts;FOREVER 21;Adults-Women;Women;;;;Fashion;;2017;2/S,FRTOTSHT00002520,3/M,FRTOTSHT00002521,4/L,FRTOTSHT00002522;699.00;<p>Contents:95% RAYON, 5% SPANDEX / ELASTANE, Lining:, Other:</p>;;;;;;;zerotype;;Summer;;No
1846404;210785-BLACK/CREAM-1846404;Forever 21BLACK/CREAMTshirts;Draft;Tshirts;FOREVER 21;Adults-Women;Women;;;;Fashion;;2017;2/S,FRTOTSHT00002509,3/M,FRTOTSHT00002510,4/L,FRTOTSHT00002511;949.00;<p>Contents:60% COTTON, 40% MODAL RAYON, Lining:, Other:</p>;;;;;;;zerotype;;Summer;;No
1846403;209739-CREAM/GREY/MULTI-1846403;Forever 21CREAM/GREY/MULTITshirts;Draft;Tshirts;FOREVER 21;Adults-Women;Women;;;;Fashion;;2017;2/S,FRTOTSHT00002506,3/M,FRTOTSHT00002507,4/L,FRTOTSHT00002508;949.00;<p>Contents:62% POLYESTER, 33% COTTON, 5% SPANDEX / ELASTANE, L</p>;;;;;;;zerotype;;Summer;;No
1846400;209019-OLIVE/CREAM-1846400;Forever 21OLIVE/CREAMTshirts;Draft;Tshirts;FOREVER 21;Adults-Women;Women;;;;Fashion;;2017;2/S,FRTOTSHT00002497,3/M,FRTOTSHT00002498,4/L,FRTOTSHT00002499;1399.00;<p>Contents:100% COTTON, Lining:, Other:</p>;;;;;;;zerotype;;Summer;;No
1846396;199883-BLACK/BLUE-1846396;Forever 21BLACK/BLUETshirts;Draft;Tshirts;FOREVER 21;Adults-Women;Women;;;;Fashion;;2017;2/S,FRTOTSHT00002483,3/M,FRTOTSHT00002484,4/L,FRTOTSHT00002485;1699.00;<p>Contents:60% COTTON, 40% POLYESTER, Lining:, Other:</p>;;;;;;;zerotype;;Summer;;No
1846390;189575-WHITE/BLACK-1846390;Forever 21WHITE/BLACKTshirts;Draft;Tshirts;FOREVER 21;Adults-Women;Women;;;;Fashion;;2017;2/S,FRTOTSHT00002463,3/M,FRTOTSHT00002464,4/L,FRTOTSHT00002465;799.00;<p>Contents:60% COTTON, 40% MODAL RAYON, Lining:, Other:</p>;;;;;;;zerotype;;Summer;;No
1846389;189564-WHITE/SILVER-1846389;Forever 21WHITE/SILVERTshirts;Draft;Tshirts;FOREVER 21;Adults-Women;Women;;;;Fashion;;2017;2/S,FRTOTSHT00002460,3/M,FRTOTSHT00002461,4/L,FRTOTSHT00002462;899.00;<p>Contents:100% COTTON, Lining:, Other:</p>;;;;;;;zerotype;;Summer;;No
1846386;188916-BLACK/CHARCOAL-1846386;Forever 21BLACK/CHARCOALTshirts;Draft;Tshirts;FOREVER 21;Adults-Women;Women;;;;Fashion;;2017;1/XS,FRTOTSHT00002450,2/S,FRTOTSHT00002451,3/M,FRTOTSHT00002452,4/L,FRTOTSHT00002453;1599.00;<p>Contents:60% COTTON, 40% POLYESTER,100% POLYESTER Lining:60%</p>;;;;;;;zerotype;;Summer;;No
1846385;168235-HEATHER GREY/BURGUNDY-1846385;Forever 21HEATHER GREY/BURGUNDYTshirts;Draft;Tshirts;FOREVER 21;Adults-Women;Women;;;;Fashion;;2017;2/S,FRTOTSHT00002447,3/M,FRTOTSHT00002448,4/L,FRTOTSHT00002449;909.00;<p>Contents:60% COTTON, 40% POLYESTER, Lining:, Other:</p>;;;;;;;zerotype;;Summer;;No
1846381;227521-BLACK/SILVER-1846381;Forever 21BLACK/SILVERJackets;Draft;Jackets;FOREVER 21;Adults-Women;Women;;;;Fashion;;2017;1/XS,FRTOJCKT00002523,2/S,FRTOJCKT00002524,3/M,FRTOJCKT00002525,4/L,FRTOJCKT00002526;1699.00;<p>Contents:100% NYLON/POLYAMIDE, Lining:, Other:</p>;;;;;;;zerotype;;Summer;;No
1846377;192505-PINK/SILVER-1846377;Forever 21PINK/SILVERJackets;Draft;Jackets;FOREVER 21;Adults-Women;Women;;;;Fashion;;2017;1/XS,FRTOJCKT00002512,2/S,FRTOJCKT00002513,3/M,FRTOJCKT00002514,4/L,FRTOJCKT00002515;1599.00;<p>Contents:100% NYLON/POLYAMIDE, Lining:, Other:</p>;;;;;;;zerotype;;Summer;;No
1846371;208934-RED/NAVY/CREAM-1846371;Forever 21RED/NAVY/CREAMShirts;Draft;Shirts;FOREVER 21;Adults-Women;Women;;;;Fashion;;2017;2/S,FRTOSHRT00003240,3/M,FRTOSHRT00003241,4/L,FRTOSHRT00003242;1499.00;<p>Contents:100% RAYON, Lining:, Other:</p>;;;;;;;zerotype;;Summer;;No
1846369;207287-CREAM/GREY/TAUPE-1846369;Forever 21CREAM/GREY/TAUPEShirts;Draft;Shirts;FOREVER 21;Adults-Women;Women;;;;Fashion;;2017;2/S,FRTOSHRT00003234,3/M,FRTOSHRT00003235,4/L,FRTOSHRT00003236;1499.00;<p>Contents:100% COTTON, Lining:, Other:</p>;;;;;;;zerotype;;Summer;;No
1846365;214914-BLUE/PURPLE/MULTI-1846365;Forever 21BLUE/PURPLE/MULTIBra;Draft;Bra;FOREVER 21;Adults-Women;Women;;;;Fashion;;2017;1/XS,FRTOBRAA00002564,2/S,FRTOBRAA00002565,3/M,FRTOBRAA00002566,4/L,FRTOBRAA00002567;1049.00;<p>Contents:90% POLYESTER, 10% SPANDEX / ELASTANE, Lining:90% P</p>;;;;;;;zerotype;;Summer;;No
1846363;209194-CHARCOAL/BLACK-1846363;Forever 21CHARCOAL/BLACKBra;Draft;Bra;FOREVER 21;Adults-Women;Women;;;;Fashion;;2017;1/XS,FRTOBRAA00002556,2/S,FRTOBRAA00002557,3/M,FRTOBRAA00002558,4/L,FRTOBRAA00002559;1199.00;<p>Contents:45% POLYESTER, 45% NYLON/POLYAMIDE, 10% SPANDEX / E</p>;;;;;;;zerotype;;Summer;;No
1846360;285491-LIGHT GREY-1846360;Forever 21LIGHT GREYBodysuit;Draft;Bodysuit;FOREVER 21;Adults-Women;Women;;;;Fashion;;2017;XS,FRTOBYST00000528,S,FRTOBYST00000529,M,FRTOBYST00000530,L,FRTOBYST00000531,XL,FRTOBYST00000532;949.00;<p>Contents:95% NYLON/POLYAMIDE, 5% SPANDEX / ELASTANE, Lining:</p>;;;;;;;zerotype;;Summer;;No
1846359;285491-BLACK-1846359;Forever 21BLACKBodysuit;Draft;Bodysuit;FOREVER 21;Adults-Women;Women;;;;Fashion;;2017;XS,FRTOBYST00000523,S,FRTOBYST00000524,M,FRTOBYST00000525,L,FRTOBYST00000526,XL,FRTOBYST00000527;949.00;<p>Contents:95% NYLON/POLYAMIDE, 5% SPANDEX / ELASTANE, Lining:</p>;;;;;;;zerotype;;Summer;;No
1846351;208478-BLUE/WHITE-1846351;Forever 21BLUE/WHITEBodysuit;Draft;Bodysuit;FOREVER 21;Adults-Women;Women;;;;Fashion;;2017;XS,FRTOBYST00000498,S,FRTOBYST00000499,M,FRTOBYST00000500,L,FRTOBYST00000501;949.00;<p>Contents:95% RAYON, 5% SPANDEX / ELASTANE, Lining:, Other:</p>;;;;;;;zerotype;;Summer;;No
1846350;208478-BLACK/WHITE-1846350;Forever 21BLACK/WHITEBodysuit;Draft;Bodysuit;FOREVER 21;Adults-Women;Women;;;;Fashion;;2017;XS,FRTOBYST00000494,S,FRTOBYST00000495,M,FRTOBYST00000496,L,FRTOBYST00000497;949.00;<p>Contents:95% RAYON, 5% SPANDEX / ELASTANE, Lining:, Other:</p>;;;;;;;zerotype;;Summer;;No
1846345;206879-MAUVE-1846345;Forever 21MAUVEBodysuit;Draft;Bodysuit;FOREVER 21;Adults-Women;Women;;;;Fashion;;2017;S,FRTOBYST00000475,M,FRTOBYST00000476,L,FRTOBYST00000477;1099.00;<p>Contents:62% POLYESTER, 32% RAYON, 6% SPANDEX / ELASTANE, Li</p>;;;;;;;zerotype;;Summer;;No
1822419;199234-BROWN-1822419;Forever 21 BROWNTshirts;Active;Tshirts;FOREVER 21;Adults-Men;Men;Brown;;;Fashion;Casual;2017;1/XS,FRTOTSHT00002183,2/S,FRTOTSHT00002184,3/M,FRTOTSHT00002185,4/L,FRTOTSHT00002186,5/XL,FRTOTSHT00002187;1049.00;<a href='/brown?src=pd' class='seolink'>Brown</a> distressed waist length T-shirt, has a round neck, <a href='/short?src=pd' class='seolink'>short</a> sleeves;This top-notch T-shirt from FOREVER 21 will have you looking fresh all year long. This piece can be teamed with fitted jeans for a clean look or lounge shorts for casual weekend wear.;60% cotton, 40% polyester<br />Machine-wash cold;The model (height 6') is wearing a size M;;FOREVER 21 Men Brown Distressed Round Neck T-shirt;FOREVER 21;zerotype;;Spring;;No
1805663;192940-BLACK-1805663;Forever 21BLACKTops;Draft;Tops;FOREVER 21;Adults-Women;Women;;;;Fashion;;2017;2/S,FRTOTOPS00026469,3/M,FRTOTOPS00026470,4/L,FRTOTOPS00026471;1199.00;<p>Contents:100% POLYESTER, Lining:, Other:</p>;;;;;;;zerotype;;Summer;;No
1805589;227444-OLIVE-1805589;Forever 21OLIVETrousers;Active;Trousers;FOREVER 21;Adults-Women;Women;Olive;;;Fashion;Casual;2017;1/24,FRTOTRSR00003436,2/25,FRTOTRSR00003437,3/26,FRTOTRSR00003438,4/27,FRTOTRSR00003439,5/28,FRTOTRSR00003440,6/29,FRTOTRSR00003441;1119.00;<a href='/olive-green?src=pd' class='seolink'>Olive green</a> <a href='/solid?src=pd' class='seolink'>solid</a> mid-rise <a href='/casual-trousers?src=pd' class='seolink'>casual trousers</a>, slash knee, has a zip fly with a button closure, waistband with belt loops and five pockets;Jazz up your clothing selection with these one-of-a-kind FOREVER 21 trousers. Match this solid olive green pair with your favourite shirt and some pumps for a fabulous weekend ensemble.;71% cotton, 27% polyester and 2% elastane<br />Machine-wash;Mid-rise<br />The model (height 5'8") is wearing a size 28;;FOREVER 21 Women Olive Green Slash Knee Casual Trousers;FOREVER 21,JULI004,new-season-styles-apr13,forever21-apr17;zerotype;;Summer;forever21-apr17;No
1805580;229124-BLACK-1805580;Forever 21BLACKTrackpants;Active;Trousers;FOREVER 21;Adults-Men;Men;Black;;;Fashion;Casual;2017;1/XS,FRTOTRPT00000438,2/S,FRTOTRPT00000439,3/M,FRTOTRPT00000440,4/L,FRTOTRPT00000441,5/XL,FRTOTRPT00000442;1799.00;Black woven mid-rise panelled <a href='/casual-trousers?src=pd' class='seolink'>casual trousers</a> with tuck detail, has a mock fly, an elasticated waistband with a drawstring fastening on the front, and four pockets;This pair of trousers is a perfect pick to add some edge to your casual ensemble. Wear it with a tee or a shirt and sneakers for a trendy ensemble.;100% cotton<br />Machine-wash cold;Mid-rise<br />The model (height 6') is wearing a size M;;FOREVER 21 Men Black Panelled Casual Trousers;FOREVER 21,LUKA1981,bfg-bollywood-ninties-men-520443,new-season-styles-apr13,forever21-apr17;zerotype;;Summer;forever21-apr17;No
1805577;238249-BLUE/BURGUNDY-1805577;Forever 21BLUE/BURGUNDYShirts;Active;Shirts;FOREVER 21;Adults-Men;Men;Grey Melange;Navy Blue;;Fashion;Casual;2017;1/XS,FRTOSHRT00002964,2/S,FRTOSHRT00002965,3/M,FRTOSHRT00002966,4/L,FRTOSHRT00002967,5/XL,FRTOSHRT00002968;1539.00;<a href='/grey?src=pd' class='seolink'>Grey</a> Melange checked <a href='/casual?src=pd' class='seolink'>casual</a> shirt, has a <a href='/spread?src=pd' class='seolink'>spread</a> collar, button placket, long sleeves, a pocket, curved hem;Add this well-designed shirt from FOREVER 21 to your wardrobe and stay warm all year long.  When you're hanging out with friends, you'll win the style game by putting this grey melange piece with a cardigan and sneakers.;100% cotton <br />Machine-wash;The model (height 6') is wearing a size 40;;FOREVER 21 Men Grey Melange & Navy Checked Casual Shirt;Forever 21,new-season-styles-apr13,forever21-apr17,newondiscount;zerotype;;Summer;Tag;No
1805485;227653-DUSTY PINK/GREEN-1805485;Forever 21DUSTY PINK/GREENDresses;Draft;Dresses;FOREVER 21;Adults-Women;Women;;;;Fashion;;2017;1/XS,FRTODRSS00013870,2/S,FRTODRSS00013871,3/M,FRTODRSS00013872,4/L,FRTODRSS00013873;1199.00;<p>Contents:95% RAYON, 5% SPANDEX / ELASTANE, Lining:, Other:</p>;;;;;;;zerotype;;Summer;;No
1805331;231846-DUSTY PINK/CREAM-1805331;Forever 21DUSTY PINK/CREAMBodysuit;Active;Bodysuit;FOREVER 21;Adults-Women;Women;Pink;;;Fashion;Casual;2017;1/XS,FRTOBYST00000456,2/S,FRTOBYST00000457,3/M,FRTOBYST00000458,4/L,FRTOBYST00000459;759.00;Dust <a href='/pink?src=pd' class='seolink'>pink</a> knitted <a href='/bodysuit?src=pd' class='seolink'>bodysuit</a>, has adjustable <a href='/shoulder?src=pd' class='seolink'>shoulder</a> straps forming a scoop neck, and double press-button closures on the crotch;Look absolutely gorgeous with this bodysuit from FOREVER 21. Team it up with a pair of jeans or a skirt and heels for a classy look.;75% polyester, 21% rayon and 4% spandex<br />Hand-wash;The model (height 5'8") is wearing a size S;;FOREVER 21 Dusty Pink Bodysuit;FOREVER 21,KELS047,new-season-styles-apr13,forever21-apr17,newondiscount;zerotype;;Summer;Tag;No
1805307;206621-LIGHT BLUE-1805307;Forever 21LIGHT BLUEHandbags;Active;Handbags;FOREVER 21;Adults-Women;Women;Blue;;;Fashion;Casual;2017;Onesize,FRTOHDBG00000446;1799.00;<a href='/blue?src=pd' class='seolink'>Blue</a> sling <a href='/bag?src=pd' class='seolink'>bag</a>, has a flap across the mouth secured with a twist clasp<br />One long adjustable sling strap<br />One main compartment, has a slip pocket<br />Legs on the base;This sling bag is compact and perfect to carry your monetary essentials. Team it with your casuals for a chic look.;Shell: 100% PU<br />Lining: 100% polyester<br />Wipe with a clean, dry cloth when needed;Height: 14 cm<br />Width: 20 cm<br />Depth: 6.5 cm;;FOREVER 21 Blue Sling Bag;FOREVER 21,new-season-styles-apr13,forever21-apr17,newondiscount;zerotype;;Summer;Tag;No
1793467;219836-YELLOW/NAVY-1793467;Forever 21YELLOW/NAVYTshirts;Active;Tshirts;FOREVER 21;Adults-Men;Men;Yellow;;;Fashion;Casual;2017;1/XS,FRTOTSHT00001675,2/S,FRTOTSHT00001676,3/M,FRTOTSHT00001677,4/L,FRTOTSHT00001678,5/XL,FRTOTSHT00001679;759.00;<a href='/yellow?src=pd' class='seolink'>Yellow</a> <a href='/solid?src=pd' class='seolink'>solid</a> waist length T-shirt with flecked effect, has a round neck, <a href='/short?src=pd' class='seolink'>short</a> sleeves;Slip into this snug T-shirt from FOREVER 21 and look your very best. You can pair this piece with slick black jeans and boots for a fashionable weekend outfit.;Polyester, cotton and rayon blend<br />Machine-wash;The model (height 6') is wearing a size L;;FOREVER 21 Men Yellow Solid Round Neck T-shirt;FOREVER 21,SIMO018,season-best-price-02,season-best-price-mar17,men-collections-athleisure-519937,new-season-styles-apr13,forever21-apr17;zerotype;;Spring;forever21-apr17;No
1793466;219836-GREY/BLACK-1793466;Forever 21GREY/BLACKTshirts;Active;Tshirts;FOREVER 21;Adults-Men;Men;Grey Melange;;;Fashion;Casual;2017;1/XS,FRTOTSHT00001670,2/S,FRTOTSHT00001671,3/M,FRTOTSHT00001672,4/L,FRTOTSHT00001673,5/XL,FRTOTSHT00001674;759.00;<a href='/grey?src=pd' class='seolink'>Grey</a> melange <a href='/solid?src=pd' class='seolink'>solid</a> waist length T-shirt, has a round neck, <a href='/short?src=pd' class='seolink'>short</a> sleeves;Amp up your casual style with this T-shirt from FOREVER 21. This grey melange tee is the perfect note to strike with a pair of skinny jeans when you're looking for a simple night out at the bar.;Polyester, cotton and rayon blend<br />Machine-wash;The model (height 6') is wearing a size L;;FOREVER 21 Men Grey Melange Solid Round Neck T-shirt;FOREVER 21,SIMO018,season-best-price-02,season-best-price-mar17,new-season-styles-apr13,forever21-apr17;zerotype;;Spring;forever21-apr17;No
1793327;191469-LIGHT BLUE/CREAM-1793327;Forever 21LIGHT BLUE/CREAMTops;Active;Sweatshirts;FOREVER 21;Adults-Women;Women;Blue;;;Fashion;Casual;2017;2/S,FRTOTOPS00026284,3/M,FRTOTOPS00026285,4/L,FRTOTOPS00026286;1549.00;<a href='/blue?src=pd' class='seolink'>Blue</a> printed sweatshirt, has a round neck, long raglan sleeves, and is brushed fleece lined;Make a style statement in this sweatshirt from FOREVER 21. Team it up with jeggings and casual shoes for a day out with friends.;55% cotton, 45% polyester<br />Hand-wash;The model (height 5'8") is wearing a size S;;FOREVER 21 Blue Printed Sweatshirt;FOREVER 21,ISAB033,forever21-apr17,newondiscount;zerotype;;Spring;Tag;No
1793060;210777-CHARCOAL-1793060;Forever 21CHARCOALTrousers;Draft;Trousers;FOREVER 21;Adults-Women;Women;;;;Fashion;;2017;1/S,FRTOTRSR00003399,2/M,FRTOTRSR00003400,3/L,FRTOTRSR00003401,4/XL,FRTOTRSR00003402;2099.00;<p>Contents:100% LYOCELL,100% LYOCELL Lining:, Other:</p>;;;;;;;zerotype;;Spring;;No
1793049;190677-HEATHER GREY-1793049;Forever 21HEATHER GREYTrousers;Draft;Trousers;FOREVER 21;Adults-Women;Women;;;;Fashion;;2017;2/S,FRTOTRSR00003350,3/M,FRTOTRSR00003351,4/L,FRTOTRSR00003352;1399.00;<p>Contents:70% RAYON, 27% POLYESTER, 3% SPANDEX / ELASTANE, Li</p>;;;;;;;zerotype;;Spring;;No
1792965;190328-NUDE-1792965;Forever 21NUDEShorts;Active;Shorts;FOREVER 21;Adults-Women;Women;Peach;;;Fashion;Casual;2017;1/XS,FRTOSHOR00004620,2/S,FRTOSHOR00004621,3/M,FRTOSHOR00004622,4/L,FRTOSHOR00004623;999.00;<a href='/peach?src=pd' class='seolink'>Peach</a>-coloured woven mid-rise corduroy <a href='/shorts?src=pd' class='seolink'>shorts</a>, has two pockets, has an elasticated waistband with a drawstring fastening, and a vented hem;Trendy and comfy, these FOREVER 21 peach-coloured solid shorts will elevate your style. Team this pair with a classy top and ballerinas for a polished dinner outfit.;100% cotton <br />Machine-wash cold;The model (height 5'7") is wearing a size 28;;FOREVER 21 Women Peach-Coloured Solid Corduroy Shorts;FOREVER 21, DAGM042,forever21-apr17;zerotype;;Spring;forever21-apr17;No
1792905;214159-BLACK-1792905;Forever 21BLACKJeans;Draft;Jeans;FOREVER 21;Adults-Men;Men;;;;Fashion;;2017;1/XS,FRTOJENS00003377,2/S,FRTOJENS00003378,3/M,FRTOJENS00003379,4/L,FRTOJENS00003380,5/XL,FRTOJENS00003381;2399.00;<p>Contents:71% COTTON, 26% POLYESTER, 2% OTHER FIBERS, 1% SPAN</p>;;;;;;;zerotype;;Spring;;No
1778380;232107-MINT/GREY-1778380;Forever 21MINT/GREYBra;Active;Bra;FOREVER 21;Adults-Women;Women;Green;;;Fashion;Sports;2017;1/XS,FRTOBRAA00002497,2/S,FRTOBRAA00002498,3/M,FRTOBRAA00002499,4/L,FRTOBRAA00002568;1049.00;Mint <a href='/green?src=pd' class='seolink'>green</a> knitted <a href='/sports-bra?src=pd' class='seolink'>sports bra</a>, has lightly padded and non-wired removable cups, elasticated dual <a href='/shoulder?src=pd' class='seolink'>shoulder</a> straps, multiple straps on the back, and an elasticated underbust<br />Engineered with moisture management feature;Designed with a comfortable finish, this bra from FOREVER 21 is a must-have in your lingerie collection. You can wear it under a T-shirt and team up with shorts or tights and sports shoes while working out in the gym.;90% nylon, 10% elastane<br />Lining: 92% nylon, 8% elastane<br />Machine-wash cold;;;FOREVER 21 Mint Green Styled Back Sports Bra 232107;FOREVER 21,VIKI038,season-best-price-02,season-best-price-mar17,new-season-styles-apr13,forever21-apr17;zerotype;;Spring;forever21-apr17;No
1778092;236237-OLIVE-1778092;Forever 21OLIVEShirts;Active;Shirts;FOREVER 21;Adults-Men;Men;Olive;;;Fashion;Casual;2017;1/XS,FRTOSHRT00002780,2/S,FRTOSHRT00002781,3/M,FRTOSHRT00002782,4/L,FRTOSHRT00002783,5/XL,FRTOSHRT00002784;1399.00;<a href='/olive-green?src=pd' class='seolink'>Olive green</a> <a href='/solid?src=pd' class='seolink'>solid</a> corduroy shirt, has a button-down collar, button placket, long sleeves, a patch pocket, curved hem;Expand your collection of casual staples with this cool shirt from FOREVER 21. This piece can be teamed with distressed denims and canvas shoes when you're grabbing lunch with the guys.;Cotton <br />Machine-wash;The model (height 6'1") is wearing a size 40;;FOREVER 21 Men Olive Green Solid Corduroy Shirt;FOREVER 21,TRAS023,season-best-price-01,season-best-price-mar17,new-season-styles-apr13,forever21-apr17;zerotype;;Spring;forever21-apr17;No
1777799;238114-OLIVE/BLACK-1777799;Forever 21OLIVE/BLACKTshirts;Active;Tshirts;FOREVER 21;Adults-Men;Men;Olive;;;Fashion;Casual;2017;1/XS,FRTOTSHT00001315,2/S,FRTOTSHT00001316,3/M,FRTOTSHT00001317,4/L,FRTOTSHT00001318,5/XL,FRTOTSHT00001319;1049.00;<a href='/olive-green?src=pd' class='seolink'>Olive green</a> T-shirt with printed detailing, has a round neck, long sleeves;This top-notch T-shirt from FOREVER 21 will have you looking fresh all year long. When you're grabbing a quick meal with your friends, this olive piece looks great with slimmer pants and chukka boot.;63% cotton, 37% polyester<br />Hand-wash;The model (height 6') is wearing a size 3/M;;FOREVER 21 Men Olive Green Printed T-shirt;FOREVER 21,ANDY0458,f21poolparty,season-best-price-01,season-best-price-mar17,new-season-styles-apr13,newondiscount;zerotype;;Spring;Tag;No
1777798;238114-BLACK/WHITE-1777798;Forever 21BLACK/WHITETshirts;Active;Tshirts;FOREVER 21;Adults-Men;Men;Black;;;Fashion;Casual;2017;1/XS,FRTOTSHT00001310,2/S,FRTOTSHT00001311,3/M,FRTOTSHT00001312,4/L,FRTOTSHT00001313,5/XL,FRTOTSHT00001314;1049.00;Black solid waist length T-shirt, has a round neck, long sleeves;Pull over this snug tee to keep your style looking fresh.  Catch a movie or go shopping in this black piece teamed with everyday jeans and casual slip-on sneakers.;Cotton, Polyester  <br> Hand-wash;The model (height 6' and shoulders 18") is wearing a size M;;FOREVER 21 Men Black Solid Round Neck T-Shirt;FOREVER 21,season-best-price-02,season-best-price-mar17;zerotype;;Spring;season-best-price;No
1770245;221030-NAVY/BURGUNDY-1770245;Forever21NAVY/BURGUNDYShirts;Active;Shirts;FOREVER 21;Adults-Men;Men;Navy Blue;Red;;Fashion;Casual;2017;1/XS,FRTOSHRT00002619,2/S,FRTOSHRT00002620,3/M,FRTOSHRT00002621,4/L,FRTOSHRT00002622,5/XL,FRTOSHRT00002623;1399.00;<a href='/navy-blue?src=pd' class='seolink'>Navy blue</a> and <a href='/red?src=pd' class='seolink'>red</a> checked <a href='/casual?src=pd' class='seolink'>casual</a> shirt, has a button-down collar, full button placket, long sleeves, a patch pocket, curved hem;For year-round comfort and style, opt for this top-notch shirt from FOREVER 21. This navy blue piece can be styled with dark denims, Chelsea boots, and a classic leather jacket for your next concert.;100% cotton <br /> Machine-wash;The model (height 6' and shoulders 18") is wearing a size 40;;FOREVER 21 Men Navy Blue Checked Casual Shirt;FOREVER 21,TRAS023,f21nightout,f21casual,season-best-price-02,season-best-price-mar17,mcd-biker-shirts-men,mcd-cruiser-look,bfg-younique-mystory-pious,new-season-styles-apr13,forever21-apr17;zerotype;;Spring;forever21-apr17;No
1719044;222186-WINE-1719044;Forever 21WINEBra;Active;Bra;FOREVER 21;Adults-Women;Women;Burgundy;;;Fashion;Casual;2017;32A,FRTOBRAA00002302,32B,FRTOBRAA00002303,32C,FRTOBRAA00002304,34A,FRTOBRAA00002305,34B,FRTOBRAA00002306,34C,FRTOBRAA00002307,36B,FRTOBRAA00002308,36C,FRTOBRAA00002309;859.00;<a href='/burgundy?src=pd' class='seolink'>Burgundy</a> push-up <a href='/bra?src=pd' class='seolink'>bra</a>, has heavily-padded and underwired cups, elasticated and adjustable <a href='/shoulder?src=pd' class='seolink'>shoulder</a> straps, styled back;Designed with a stylish finish, this bra from FOREVER 21 is a must-have in your lingerie wardrobe. Its soft fabric will ensure that you are comfortable and relaxed all day long.;84% nylon, 15% spandex<br />Hand-wash cold;;;FOREVER 21 Burgundy Push-Up Bra 222186;FOREVER 21,ALEK0281;zerotype;;Summer;;No
1719043;222186-BLACK-1719043;Forever 21BLACKBra;On Hold - Sample;Bra;FOREVER 21;Adults-Women;Women;;;;Fashion;;2017;32A,FRTOBRAA00002294,32B,FRTOBRAA00002295,32C,FRTOBRAA00002296,34A,FRTOBRAA00002297,34B,FRTOBRAA00002298,34C,FRTOBRAA00002299,36B,FRTOBRAA00002300,36C,FRTOBRAA00002301;859.00;<p>Contents:84% NYLON/POLYAMIDE, 16% SPANDEX / ELASTANE, Lining</p>;;;;;;;zerotype;;Summer;Broken Size;No
1647893;216021-RED/NAVY-1647893;Forever 21RED/NAVYShirts;Active;Shirts;FOREVER 21;Adults-Women;Women;Red;Navy Blue;;Fashion;Casual;2016;S,FRTOSHRT00002078,M,FRTOSHRT00002079,L,FRTOSHRT00002080;1539.00;<a href='/red?src=pd' class='seolink'>Red</a> and navy checked <a href='/casual?src=pd' class='seolink'>casual</a> shirt, has a <a href='/spread?src=pd' class='seolink'>spread</a> collar, detachable hood with drawstring fastening, button placket, long sleeves, two pockets, curved hem;Stay warm on cold days with this FOREVER 21 cotton shirt.  Create a chic look for your next date by pairing this shirt with slim jeans and patent pumps.;<span>100% cotton <br> Machine-wash</span>;The model (height 5'8" and chest 33") is wearing a size S;;FOREVER 21 Women Red & Navy Checked Hooded Casual Shirt;FOREVER 21,ftod-eors,HH20JAN17,stylesforextra5-jan17,budget-deal,cohort-customers,v-day-styles,bday-happy-hour,superhour-feb26,happy-hour-mar19,super-hour-mar17,rs500off-crush500,crush20-mar28,cc-articles-2803,mar29-super-hour,hh-0104,chill-summer-apr,bfg-event-apr,summer-style-apr,after-match-apr,take20-apr17,forever21-apr17,newondiscount;zerotype;;Fall;Tag;No
1647878;235853-BLACK-1647878;Forever 21BLACKTops;Active;Tops;FOREVER 21;Adults-Women;Women;Black;;;Fashion;Casual;2016;S,FRTOTOPS00024498,M,FRTOTOPS00024499,L,FRTOTOPS00024500;909.00;<a href='/black?src=pd' class='seolink'>Black</a> <a href='/solid?src=pd' class='seolink'>solid</a> woven top, has a keyhole neck, long sleeves with button-and-loop closure along the hems<br>;<p>Flaunt your eye for fashion in this latest top from FOREVER 21.  This black piece can be teamed with dark denims and Chelsea boots for a laid-back brunch outfit.</p>;<p>Polyester <br> Machine-wash</p>;<p>The model (height 5'8" and chest 33") is wearing a size S</p>;;FOREVER 21 Women Black Solid Top;FOREVER 21,neutral-top-wear,budget-deal,best-sellers,dressestopsvalentines,bday-happy-hour,superhour-feb26,happy-hour-mar19,super-hour-mar17,rs500off-crush500,crush20-mar28,cc-articles-2803,mar29-super-hour,hh-0104,chill-summer-apr,bfg-event-apr,summer-style-apr,take20-apr17,forever21-apr17,newondiscount;zerotype;;Winter;Tag;No
1647868;199743-BLACK-1647868;Forever 21BLACKTops;Active;Tops;FOREVER 21;Adults-Women;Women;Black;;;Fashion;Casual;2016;S,FRTOTOPS00024405,M,FRTOTOPS00024406,L,FRTOTOPS00024407;1049.00;<a href='/black?src=pd' class='seolink'>Black</a> <a href='/crochet?src=pd' class='seolink'>crochet</a> detail knitted top, has a round neck, short sleeves;<p>You'll love the intricate design of this gorgeous black top by FOREVER 21.  Pair this top with a skirt for a girls night out.</p>;<p>Viscose and elastane blend<br> Machine-wash</p>;<p>The model (height 5'8" and chest 33") is wearing a size S</p>;;FOREVER 21 Women Black Crochet Detail Top;FOREVER 21,KATY0002,budget-deal,cohort-customers,dressestopsvalentines,next-day-delivery,bday-happy-hour,superhour-feb26,happy-hour-mar19,super-hour-mar17,rs500off-crush500,crush20-mar28,cc-articles-2803,mar29-super-hour,hh-0104,bfg-event-apr,forever21-apr17;zerotype;;Winter;apr15-hh;No
1647856;220121-TAUPE/BLACK-1647856;Forever 21TAUPE/BLACKTshirts;Active;Tshirts;FOREVER 21;Adults-Women;Women;Olive;;;Fashion;Casual;2016;S,FRTOTSHT00000226,M,FRTOTSHT00000227,L,FRTOTSHT00000228;909.00;<a href='/olive?src=pd' class='seolink'>Olive</a> <a href='/brown?src=pd' class='seolink'>brown</a> <a href='/solid?src=pd' class='seolink'>solid</a> waist length T-shirt with printed detail, has a V-neck, <a href='/short?src=pd' class='seolink'>short</a> sleeves, patch pocket<br>;This FOREVER 21 olive rayon tee will add versatility to your wardrobe.  Pair this piece with your favourite skinny fit jeans and leather jacket for a look that will take you from day to night.;Rayon <br> Dry Clean;The model (height 5'8" and chest 33") is wearing a size S;;FOREVER 21 Women Olive Brown Solid V-Neck T-shirt;FOREVER 21,MFH-millennial-smartcasuals,budget-deal,superhour-feb26,happy-hour-mar19,super-hour-mar17,rs500off-crush500,crush20-mar28,cc-articles-2803,mar29-super-hour,hh-0104,chill-summer-apr,bfg-event-apr,ftod-bfg,summer-style-apr,forever21-apr17,newondiscount;zerotype;;Winter;Tag;No
1647851;220304-BLACK/CREAM-1647851;Forever 21BLACK/CREAMSweaters;Active;Shrug;FOREVER 21;Adults-Women;Women;Black;Off White;;Fashion;Casual;2016;S,FRTOSWTR00004179,M,FRTOSWTR00004180,L,FRTOSWTR00004181,XL,FRTOSWTR00004182;1259.00;Black and off-white&nbsp woven patterned longline <a href='/shrug?src=pd' class='seolink'>shrug</a>, has an open front, long sleeves;Up your style quotient by leaps and bounds with this lovely shrug. We recommend layering it&nbsp over a top and teaming it with&nbsp a pair of jeans or shorts and casual shoes to complete the look.;51% cotton, 49% elastane<br>Hand-wash cold;The model (height 5'8" and chest 33") is wearing a size S;;FOREVER 21 Black & Off-White Patterned Longline Shrug;FOREVER 21,KATY0002,shrugscardiganeors,ftod-eors,shrcardig,superhour-feb26,vacation-store-women-hills-shrugs-cardigans,bfg-event-apr,summer-style-apr,take20-apr17,forever21-apr17;zerotype;;Winter;apr15-hh;No
1647822;236158-AUBERGINE-1647822;Forever 21AUBERGINEDresses;Active;Dresses;FOREVER 21;Adults-Women;Women;Burgundy;;;Fashion;Casual;2016;S,FRTODRSS00013061,M,FRTODRSS00013062,L,FRTODRSS00013063;1119.00;<b></b><a href='/burgundy?src=pd' class='seolink'>Burgundy</a> solid knit <a href='/midi-dress?src=pd' class='seolink'>midi dress</a>, has a round neck, sleeveless, slit on one side;This maxi dress from FOREVER 21 will make a great addition to your dress collection.  For a work event, style it with platform heels, minimalistic silver jewellery and a cute purse.;95% rayon, 5% elastane<br> Hand-wash;The model (height 5'8", chest 33" and waist 28") is wearing a size S;;FOREVER 21 Women Burgundy Solid Midi Dress;FOREVER 21,JULI004,layer-up-your-sleeveless-dress,ftod-eors,budget-deal,cohort-customers,dressestopsvalentines,vdayforever21,bday-happy-hour,superhour-feb26,happy-hour-mar19,super-hour-mar17,rs500off-crush500,crush20-mar28,cc-articles-2803,mar29-super-hour,hh-0104,bfg-event-apr,bfg-campus-offer-girl2,take20-apr17,forever21-apr17,newondiscount;zerotype;;Winter;Tag;No
1646099;217661-CREAM-1646099;Forever 21CREAMShirts;Active;Tops;FOREVER 21;Adults-Women;Women;Off White;;;Fashion;Casual;2016;L,FRTOSHRT00002059,S,FRTOSHRT00002060,XS,FRTOSHRT00002085,M,FRTOSHRT00002086;629.00;Off-white <a href='/solid?src=pd' class='seolink'>solid</a> knitted <a href='/crop-top?src=pd' class='seolink'>crop top</a>, has a round neck, a full button placket, long sleeves;This current FOREVER 21 top will make sure you look and feel your best.  Simple errands are a breeze when you pair this off-white piece with some dark denim jeans and flats.;96% cotton, 4% spandex&nbsp <br>Hand-wash;The model (height 5'7'' and chest 33.5") is wearing a size S;;FOREVER 21 Women Off-White Solid Crop Top;FOREVER 21,RYMM3333,ftod-eors,dressestopsvalentines,bday-happy-hour,happy-hour-mar,happy-hour-mar19,bfg-event-apr,summer-style-apr;zerotype;;Fall;summer-style-apr;No
1645883;220121-BLACK/WHITE-1645883;Forever 21BLACK/WHITETshirts;Active;Tshirts;FOREVER 21;Adults-Women;Women;Black;;;Fashion;Casual;2016;S,FRTOTSHT00000202,M,FRTOTSHT00000224,L,FRTOTSHT00000225;909.00;Black printed detail waist length T-shirt, has a V-neck, <a href='/short?src=pd' class='seolink'>short</a> sleeves, a patch pocket<br>;Boast a laid-back look with this in-season tee from FOREVER 21.  You can match this black piece with distressed jeans and ballerinas when you're going to lunch with your friends.;Rayon <br> Dry-clean;The model (height 5'8" and chest 33") is wearing a size S;;FOREVER 21 Women Black Printed Detail V-Neck T-shirt;FOREVER 21,KATY0002,MFH-millennial-smartcasuals,budget-deal,superhour-feb26,happy-hour-mar19,super-hour-mar17,rs500off-crush500,crush20-mar28,cc-articles-2803,mar29-super-hour,hh-0104,bfg-event-apr,ftod-bfg,forever21-apr17;zerotype;;Winter;apr15-hh;No
1645879;202819-BLACK/WHITE-1645879;Forever 21BLACK/WHITETshirts;Active;Tshirts;FOREVER 21;Adults-Women;Women;Black;;;Fashion;Casual;2016;L,FRTOTSHT00000197,S,FRTOTSHT00000198,M,FRTOTSHT00000217;1049.00;<a href='/black?src=pd' class='seolink'>Black</a> waist length T-shirt, has a round neck, <a href='/short?src=pd' class='seolink'>short</a> sleeves with striped detail, print detail on the back;A classic black tee is a staple for any closet, you'll love this one from FOREVER 21.  Dress up this black piece with a fitted jacket and dark-wash jeans for a cool and contemporary look.;100% cotton <br> Hand-wash;The model (height 5'8" and chest 33") is wearing a size S;;FOREVER 21 Women Black Printed Back Round Neck T-shirt;FOREVER 21,MFH-millennial-comfortwear,MFH-homemaker-comfortwear,MFH-millennial-smartcasuals,HH20JAN17,stylesforextra5-jan17,budget-deal,cohort-customers,bday-happy-hour,superhour-feb26,happy-hour-mar19,super-hour-mar17,rs500off-crush500,crush20-mar28,cc-articles-2803,mar29-super-hour,hh-0104,bfg-event-apr,forever21-apr17,newondiscount;zerotype;;Winter;Tag;No
1645832;237401-PLUM-1645832;Forever 21PLUMDresses;Active;Dresses;FOREVER 21;Adults-Women;Women;Purple;;;Fashion;Casual;2016;L,FRTODRSS00012983,XS,FRTODRSS00013085,S,FRTODRSS00013086,M,FRTODRSS00013087;909.00;Aubergine solid knit <a href='/skater-dress?src=pd' class='seolink'>skater dress</a>, has a round neck, three-quarter sleeves, criss-cross <a href='/tie?src=pd' class='seolink'>tie</a>-up detail on the back;This FOREVER 21 skater dress will add oomph to your wardrobe.  You can layer it with a casual blazer and a statement necklace when you have a work brunch.;95% rayon, 5% spandex<br>Hand-wash;The model (height 5'8", chest 33" and waist 28") is wearing a size S;;FOREVER 21 Women Aubergine Solid Skater Dress;FOREVER 21,premium-styles-home,ftod-eors,HH20JAN17,stylesforextra5-jan17,dressestopsvalentines,vdayforever21;zerotype;;Winter;ACTIVE;No
1645815;220624-NAVY/RUST-1645815;Forever 21NAVY/RUSTDresses;Active;Dresses;FOREVER 21;Adults-Women;Women;Navy Blue;Maroon;Beige;Fashion;Casual;2016;L,FRTODRSS00012957,XL,FRTODRSS00012958,S,FRTODRSS00013039,M,FRTODRSS00013040;909.00;Navy, <a href='/maroon?src=pd' class='seolink'>maroon</a> and <a href='/beige?src=pd' class='seolink'>beige</a> striped knit <a href='/bodycon-dress?src=pd' class='seolink'>bodycon dress</a>, has a round neck, short sleeves;Try out this stunning bodycon dress from FOREVER 21 and discover its long-lasting comfort.  Pull off an elegant look for a birthday or engagement celebration by pairing it with pumps and a chic clutch.;57% cotton, 40% polyester and 3% spandex<br> Hand-wash;The model (height 5'8", chest 33" and waist 28") is wearing a size S;;FOREVER 21 Women Navy Striped Bodycon Dress;FOREVER 21,KATY0002,women-dresses-menu-athleisure,A-Listers-Dresses,hottest-sellers-500-women,ftod-eors,dresses-and-jumpsuits-menu-infocus-athleisure,AW16EORS-Womens-Alisters,alisters-eors-4jan,HH20JAN17,stylesforextra5-jan17,most-wishlisted-women,budget-deal,cohort-customers,dressestopsvalentines,vdayforever21,bday-happy-hour,superhour-feb26,tn-stripe-dresses,happy-hour-mar19,super-hour-mar17,rs500off-crush500,crush20-mar28,cc-articles-2803,mar29-super-hour,hh-0104,chill-summer-apr,bfg-event-apr,gno-secretcloset-dresses,bfg-secret-closet-dresses,gno-secretcloset-dresses-519992,bfg-secretcloset-partydresses,bfg-campus-offer-girl2,summer-style-apr,take20-apr17,forever21-apr17,newondiscount;zerotype;;Winter;Tag;No
1645811;219852-BLACK-1645811;Forever 21BLACKDresses;Active;Dresses;FOREVER 21;Adults-Women;Women;Black;;;Fashion;Party;2016;M,FRTODRSS00012951,S,FRTODRSS00013036,L,FRTODRSS00013037;1679.00;Black lace knit fit and flare <a href='/dress?src=pd' class='seolink'>dress</a>, has a round neck, long sleeves, concealed zip closure on one side, hook-and-eye closure on the back, an attached lining;<p>Stand out from the crowd with this beautiful and comfortable FOREVER 21 dress.  Dress to impress on your first date and pair your lace black piece with fun pumps and a stylish purse.</p>;<p>90% nylon, 10% spandex<br> Hand-wash</p>;<p>The model (height 5'8", chest 33" and waist 28") is wearing a size S</p>;;FOREVER 21 Women Black Lace Fit & Flare Dress;FOREVER 21,MFH-party-dresses,premium-styles-home,part-store-women-all,party-women-lacey-dresses,party-women-dresses-fit-flare,party-store-lacey-all,ftod-eors,HH20JAN17,stylesforextra5-jan17,budget-deal,cohort-customers,dressestopsvalentines,vdayforever21,vacation-store-women-city-party-clothing,bday-happy-hour,MFH-chart-dresses,superhour-feb26,happy-hour-mar19,super-hour-mar17,bfg-event-apr,summer-style-apr,after-match-apr,take20-apr17,forever21-apr17;zerotype;;Winter;apr15-hh;No
1645810;217586-CHESTNUT-1645810;Forever 21CHESTNUTDresses;Active;Dresses;FOREVER 21;Adults-Women;Women;Mustard;;;Fashion;Casual;2016;S,FRTODRSS00012950,M,FRTODRSS00013030,L,FRTODRSS00013031;1049.00;Mustard <a href='/brown?src=pd' class='seolink'>brown</a> <a href='/solid?src=pd' class='seolink'>solid</a> knit A-line <a href='/dress?src=pd' class='seolink'>dress</a>, has a round neck with cut-out detail, long sleeves;Treat yourself to a new dress from FOREVER 21 and embrace your personal style.  Complement this solid piece with a pair of caged heels, your favourite bag and some minimalistic silver jewellery for a classy date ensemble.;93% rayon, 7% spandex<br>Machine-wash;The model (height 5'8", chest 33" and waist 28") is wearing a size S;;FOREVER 21 Women Mustard Brown Solid A-Line Dress;FOREVER 21,party-women-dresses-aline-shift,party-women-looks-cut-out-dresses-new,party-women-dresses-all,part-store-women-all,knitted-dress-dec,ftod-eors,stylesforextra5-jan17,budget-deal,cohort-customers,dressestopsvalentines,vdayforever21,bday-happy-hour,superhour-feb26,happy-hour-mar19,super-hour-mar17,rs500off-crush500,crush20-mar28,cc-articles-2803,mar29-super-hour,hh-0104,chill-summer-apr,bfg-event-apr,summer-style-apr;zerotype;;Winter;apr15-hh;No
1645806;205425-GREEN/MUSTARD-1645806;Forever 21GREEN/MUSTARDDresses;Active;Dresses;FOREVER 21;Adults-Women;Women;Green;Yellow;;Fashion;Casual;2016;L,FRTODRSS00012940,M,FRTODRSS00012941,S,FRTODRSS00013021;1679.00;<a href='/green?src=pd' class='seolink'>Green</a> and <a href='/yellow?src=pd' class='seolink'>yellow</a>&nbsp printed woven <a href='/skater-dress?src=pd' class='seolink'>skater dress</a>, has a V-neck with a concealed press-button closure, long sleeves, a cut-out detail on the back with a short concealed zip closure;<p>This FOREVER 21 skater dress will add oomph to your wardrobe.  You can layer it with a casual blazer and a statement necklace when you have a work brunch.</p>;<p>100% polyester <br> Hand-wash</p>;<p>The model (height 5'8", chest 33" and waist 28") is wearing a size S</p>;;FOREVER 21 Women Green Printed Skater Dress;FOREVER 21,party-women-looks-dark-florals-new,party-women-looks-cut-out-dresses-new,party-women-looks-statement-backs-new,aw16eors-tn-floraldresses,ftod-eors,pantone-greenery,budget-deal,cohort-customers,best-sellers,v-day-styles,vacation-store-women-beach-dresses,vacation-store-women-city-day-dresses,vacation-store-women-resort-dresses,bday-happy-hour,vibrant-in-neon-clothes,happy-hour-mar19,super-hour-mar17,rs500off-crush500,crush20-mar28,cc-articles-2803,mar29-super-hour,hh-0104,chill-summer-apr,bfg-50dos-wml-sexy-back,bfg-event-apr,spring-summe-shades-of-yellow,summer-style-apr,after-match-apr,take20-apr17,forever21-apr17;zerotype;;Winter;apr15-hh;No
1645805;204929-TEAL/MUSTARD-1645805;Forever 21TEAL/MUSTARDDresses;Active;Dresses;FOREVER 21;Adults-Women;Women;Teal;;;Fashion;Casual;2016;L,FRTODRSS00012938,S,FRTODRSS00012939,M,FRTODRSS00013020;1679.00;Teal <a href='/green?src=pd' class='seolink'>green</a> printed woven <a href='/maxi-dress?src=pd' class='seolink'>maxi dress</a>, has a V-neck with <a href='/tie?src=pd' class='seolink'>tie</a>-up detail, long sleeves, side slits;When you're in need of a new dress, check out this fashion-forward FOREVER 21 maxi dress.  Decorate it with some leather-trimmed accessories and a pair of wedge heels for a chic look for the weekend.;100% rayon <br>Dry-clean;The model (height 5'8", chest 33" and waist 28") is wearing a size S;;FOREVER 21 Women Teal Green Printed Maxi Dress;FOREVER 21,party-women-dresses-maxi,aw16eors-tn-floraldresses,aw16eors-exclusive-tall,ftod-eors,tea-length-dresses,stylesforextra5-jan17,lasttime-discount-rd,budget-deal,cohort-customers,bombshells-to-bohemians,v-day-styles,vacation-store-women-city-day-dresses,bday-happy-hour,superhour-feb26,happy-hour-mar19,super-hour-mar17,rs500off-crush500,crush20-mar28,cc-articles-2803,mar29-super-hour,hh-0104,chill-summer-apr,bfg-event-apr,summer-style-apr,after-match-apr,take20-apr17,forever21-apr17,newondiscount;zerotype;;Winter;Tag;No
1645795;219118-OLIVE/TAN-1645795;Forever 21OLIVE/TANCamisoles;Active;Camisoles;FOREVER 21;Adults-Women;Women;Olive;;;Fashion;Casual;2016;L,FRTOCMSL00004064,S,FRTOCMSL00004065,M,FRTOCMSL00004071;689.00;<a href='/olive-green?src=pd' class='seolink'>Olive green</a> floral print camisole, has a round neck, <a href='/shoulder?src=pd' class='seolink'>shoulder</a> straps, vented hem;This comfortable camisole is crafted from the soft and comfortable fabric. Layer a denim shirt over this piece and team it up with jeggings or shorts and heels for a cool look.;100% polyester<br />Machine-wash cold;The model (height 5'6'' and chest 34") is wearing a size S;;FOREVER 21 Olive Green Floral Print Camisole 219118;IKRM5656,FOREVER 21,ftod-eors,budget-deal,bday-happy-hour,superhour-feb26,super-hour-mar17,happy-hour-mar,happy-hour-mar19,cc-articles-2803,mar29-super-hour,hh-0104,chill-summer-apr,bfg-event-apr,summer-style-apr,forever21-apr17,newondiscount;zerotype;;Winter;Tag;No
1645772;220093-BLACK/RUST-1645772;Forever 21BLACK/RUSTSkirts;Active;Skirts;FOREVER 21;Adults-Women;Women;Black;Rust;;Fashion;Casual;2016;M,FRTOSKRT00005352,S,FRTOSKRT00005380,L,FRTOSKRT00005381;909.00;<a href='/rust?src=pd' class='seolink'>Rust</a> <a href='/brown?src=pd' class='seolink'>brown</a> and <a href='/black?src=pd' class='seolink'>black</a> striped knitted pencil skirt, has a waistband with a zip closure on the back;Slip into this comfortable skirt from FOREVER 21 and exude style like never before. Team it with a crop top or a tee and heels or flats for a fun day out with your friends.;63% rayon, 35% polyester, 2% spandex<br />Hand-wash cold;The model (height 5'8" and waist 28") is wearing a size 28;;FOREVER 21 Black & Rust Striped Pencil Skirt;DARI0311,FOREVER 21,ftod-eors,budget-deal,cohort-customers,best-sellers,bday-happy-hour,superhour-feb26,happy-hour-mar19,super-hour-mar17,rs500off-crush500,crush20-mar28,cc-articles-2803,mar29-super-hour,hh-0104,chill-summer-apr,bfg-event-apr,summer-style-apr,take20-apr17,forever21-apr17,newondiscount;zerotype;;Winter;Tag;No
1645771;220093-BLACK/DARK GREEN-1645771;Forever 21BLACK/DARK GREENSkirts;Active;Skirts;FOREVER 21;Adults-Women;Women;Green;Black;;Fashion;Casual;2016;L,FRTOSKRT00005350,M,FRTOSKRT00005351,S,FRTOSKRT00005383;909.00;<a href='/green?src=pd' class='seolink'>Green</a> and black knitted striped pencil skirt, has a waistband with a <a href='/short?src=pd' class='seolink'>short</a> zip closure on the back;Let your vivacious personality ooze out through your dressing style by slipping into this skirt from FOREVER 21. Team it up with a top or a tee, casual shoes or heels and a clutch for a chic look.;63% rayon, 35% polyester and 2% elastane<br>Hand-wash cold;The model (height 5'8" and waist 28") is wearing a size 27;;FOREVER 21 Green & Black Striped Pencil Skirt;FOREVER 21,aw16eors-exclusive-petite,ftod-eors,HH20JAN17,stylesforextra5-jan17,budget-deal,bday-happy-hour,superhour-feb26,happy-hour-mar19,super-hour-mar17,rs500off-crush500,crush20-mar28,cc-articles-2803,mar29-super-hour,hh-0104,bfg-event-apr,forever21-apr17,newondiscount;zerotype;;Winter;Tag;No
1645741;236829-BLACK-1645741;Forever 21BLACKTops;Active;Tops;FOREVER 21;Adults-Women;Women;Black;;;Fashion;Casual;2016;L,FRTOTOPS00024363,S,FRTOTOPS00024534,M,FRTOTOPS00024535;629.00;<a href='/black?src=pd' class='seolink'>Black</a> <a href='/solid?src=pd' class='seolink'>solid</a> knitted <a href='/crop-top?src=pd' class='seolink'>crop top</a>, has a high neck, long sleeves;<p>This beautiful long-sleeve top from FOREVER 21 will take your style to new heights.  This black piece is perfect for dates when you style it with a Chelsea boot and matching bag.</p>;<p>90% rayon, 10% elastane  Hand-wash</p>;<p>The model (height 5'8" and chest 33") is wearing a size S</p>;;FOREVER 21 Women Black Solid Crop Top;IKRM5656,Forever 21,dressestopsvalentines;zerotype;;Winter;Tagging;No
1645737;236346-MUSTARD-1645737;Forever 21MUSTARDTops;Active;Tops;FOREVER 21;Adults-Women;Women;Mustard;;;Fashion;Casual;2016;XL,FRTOTOPS00024359,S,FRTOTOPS00024526,M,FRTOTOPS00024527,L,FRTOTOPS00024528;1119.00;Mustard <a href='/yellow?src=pd' class='seolink'>yellow</a> <a href='/solid?src=pd' class='seolink'>solid</a> woven top, has a round neck, long cuffed sleeves, a cut-out with <a href='/tie?src=pd' class='seolink'>tie</a>-up detailing on the back<br>;<p>This flattering top from FOREVER 21 will keep you comfortable.  When you're meeting your friends, style this piece with trim jeans and canvas shoes.</p>;<p>Polyester <br> Machine-wash</p>;<p>The model (height 5'8" and chest 33") is wearing a size S</p>;;FOREVER 21 Women Mustard Yellow Solid Top;FOREVER 21,JULI004,ftod-eors,budget-deal,cohort-customers,dressestopsvalentines,bday-happy-hour,superhour-feb26,happy-hour-mar19,hh-0104,bfg-event-apr,forever21-apr17,newondiscount;zerotype;;Winter;Tag;No
1645725;235829-OLIVE-1645725;Forever 21OLIVETops;Active;Tops;FOREVER 21;Adults-Women;Women;Olive;;;Fashion;Casual;2016;L,FRTOTOPS00024342,S,FRTOTOPS00024343,M,FRTOTOPS00024494;909.00;<a href='/olive-green?src=pd' class='seolink'>Olive green</a>&nbsp solid semi-sheer&nbsp woven top, has a round neck, short sleeves, curved back hem longer than the front;<p>This fashionable FOREVER 21 top will help you set your style tone for any season.  This top looks fabulous with a bomber jacket and slim trousers for a perfect movie look.</p>;<p>Polyester <br> Machine-wash</p>;<p>The model (height 5'8" and chest 33") is wearing a size S</p>;;FOREVER 21 Women Olive Green Solid Semi-Sheer Top;FOREVER 21,MFH-millennial-smartcasuals,HH20JAN17,stylesforextra5-jan17,lasttime-discount-rd,budget-deal,dressestopsvalentines,bday-happy-hour,superhour-feb26,happy-hour-mar19,super-hour-mar17,rs500off-crush500,crush20-mar28,cc-articles-2803,mar29-super-hour,hh-0104,bfg-event-apr,chabot-women-beach-topsshortsskirts,forever21-apr17,newondiscount;zerotype;;Winter;chabot-women-beach-topsshortsskirts;No
1645724;235829-DUSTY PINK-1645724;Forever 21DUSTY PINKTops;Active;Tops;FOREVER 21;Adults-Women;Women;Pink;;;Fashion;Casual;2016;L,FRTOTOPS00024340,S,FRTOTOPS00024341,M,FRTOTOPS00024497;909.00;Dusty pink solid woven top, has a round neck, short sleeves;Expand your collection of warm-weather staples with this high-quality FOREVER 21 top.  This pink piece will look fabulously styled with a cardigan and slim jeans for a casual Friday in the office.;Polyester <br /> Machine-wash;The model (height 5'8" and chest 33") is wearing a size S;;FOREVER 21 Women Dusty Pink Solid Top;FOREVER 21,MFH-millennial-smartcasuals,HH20JAN17,stylesforextra5-jan17,budget-deal,dressestopsvalentines,dress-up-v-day,bday-happy-hour,superhour-feb26,super-hour-mar17,mar29-super-hour,hh-0104,bfg-event-apr;zerotype;;Winter;apr12-super-hour;No
1645718;222864-BLACK/RUST/CAMEL-1645718;Forever 21BLACK/RUST/CAMELTops;Active;Tops;FOREVER 21;Adults-Women;Women;Black;;;Fashion;Casual;2016;L,FRTOTOPS00024331,S,FRTOTOPS00024478,M,FRTOTOPS00024479;1539.00;<a href='/black?src=pd' class='seolink'>Black</a> embroidered&nbsp woven top, has a round neck, <a href='/short?src=pd' class='seolink'>short</a> sleeves;<p>This fashionable FOREVER 21 top will help you set your style tone for any season.  This piece is perfect for a day around town under the sun when you put it with tonal shorts and pair of sandals.</p>;<p>Rayon <br> Machine-wash</p>;<p>The model (height 5'8" and chest 33") is wearing a size S</p>;;FOREVER 21 Women Black Embroidered Top;FOREVER 21,HH20JAN17,stylesforextra5-jan17,budget-deal,cohort-customers,dressestopsvalentines,dress-up-v-day,v-day-styles,tn-peasant-tops,superhour-feb26,bfg-event-apr;zerotype;;Winter;bfg-extra30;No
1645711;217474-BLACK/WHITE-1645711;Forever 21BLACK/WHITETops;Active;Bodysuit;FOREVER 21;Adults-Women;Women;Black;;;Fashion;Casual;2016;S,FRTOTOPS00024321,M,FRTOTOPS00024455,L,FRTOTOPS00024456;1049.00;Black knitted <a href='/bodysuit?src=pd' class='seolink'>bodysuit</a> with text print on the front, has a stylised high neck, sleeveless and double press-button closures along the gusset region<br>;This bodysuit from FOREVER 21 is a definite pick for your casual wear collection. Wear it with jeans and casual shoes for a fabulous appeal.;95% cotton, 5% spandex<br>Machine-wash cold;The model (height 5'8", chest 33" and waist 28") is wearing a size S;;FOREVER 21 Black Text Print Bodysuit;FOREVER 21,VICT0011,ftod-eors,budget-deal,cohort-customers,best-sellers,bday-happy-hour,superhour-feb26,happy-hour-mar19,super-hour-mar17,rs500off-crush500,crush20-mar28,cc-articles-2803,mar29-super-hour,hh-0104,bfg-event-apr,forever21-apr17,newondiscount;zerotype;;Winter;Tag;No
1645708;215697-RUST/CREAM-1645708;Forever 21RUST/CREAMTops;Active;Tops;FOREVER 21;Adults-Women;Women;Mustard;Green;;Fashion;Casual;2016;L,FRTOTOPS00024314,M,FRTOTOPS00024315,S,FRTOTOPS00024316,XL,FRTOTOPS00024317;1259.00;Mustard brown and green printed woven sheer top with ruffle detail, has a stylised notched round neck with a tie-up detail, long cold shoulder sleeves with button-and-loop closures, a curved back hem;Update your current style with this classy top designed by FOREVER 21.  This piece can be styled with slick black jeans and canvas shoes when you're going to a casual dinner with the girls.;Polyester <br /> Machine-wash;The model (height 5'8" and chest 33") is wearing a size S;;FOREVER 21 Women Mustard Brown Printed Sheer Top;FOREVER 21,ftod-eors,budget-deal,cohort-customers,bday-happy-hour,mfh-top-mar17-coldshoulder,happy-hour-mar19,super-hour-mar17,rs500off-crush500,crush20-mar28,cc-articles-2803,mar29-super-hour,hh-0104,chill-summer-apr,bgf-50dos-women-bare-shoulders,bfg-50dos-women-ruffles,bfg-event-apr,forever21-apr17,newondiscount;zerotype;;Winter;Tag;No
1645706;203166-PEACH-1645706;Forever 21PEACHTops;Active;Tshirts;FOREVER 21;Adults-Women;Women;Peach;;;Fashion;Casual;2016;L,FRTOTOPS00024312,S,FRTOTOPS00024438,M,FRTOTOPS00024439;479.00;<a href='/peach?src=pd' class='seolink'>Peach</a>-coloured <a href='/solid?src=pd' class='seolink'>solid</a> waist length T-shirt with melange effect, has a V-neck, <a href='/short?src=pd' class='seolink'>short</a> sleeves;This easy-going tee from FOREVER 21 is a great addition to any woman's closet.  Pair this piece with slim jeans and canvas shoes when you're going out for ice cream with your friends.;55% cotton, 34% polyester and 11% rayon <br> Machine-wash;The model (height 5'8" and chest 33") is wearing a size S;;FOREVER 21 Women Peach-Coloured Solid V-Neck T-shirt;FOREVER 21,MFH-millennial-comfortwear,MFH-homemaker-comfortwear,MFH-millennial-smartcasuals,stylesforextra5-jan17,lasttime-discount-rd,bday-happy-hour,superhour-feb26,super-hour-mar17,happy-hour-mar,happy-hour-mar19,hh-0104,bfg-event-apr;zerotype;;Winter;bfg-extra30;No
1645703;203166-CHARCOAL HEATHER-1645703;Forever 21CHARCOAL HEATHERTops;Active;Tshirts;FOREVER 21;Adults-Women;Women;Charcoal;;;Fashion;Casual;2016;S,FRTOTOPS00024307,M,FRTOTOPS00024434,L,FRTOTOPS00024435;479.00;<a href='/charcoal?src=pd' class='seolink'>Charcoal</a> <a href='/grey?src=pd' class='seolink'>grey</a> <a href='/solid?src=pd' class='seolink'>solid</a> waist length T-shirt with melange effect, has a V-neck, <a href='/short?src=pd' class='seolink'>short</a> sleeves;This easy-going tee from FOREVER 21 is a great addition to any woman's closet.  Dress up this charcoal grey piece with a fitted jacket and dark-wash jeans for a cool and contemporary look.;55% cotton, 34% polyester and 11% rayon<br /> Machine-wash;The model (height 5'8" and chest 33") is wearing a size S;;FOREVER 21 Women Charcoal Grey Solid V-Neck T-shirt;FOREVER 21,ANA019,store499-extra10-jan,bday-happy-hour,superhour-feb26,happy-hour-mar,happy-hour-mar19,hh-0104,chill-summer-apr,bfg-event-apr,forever21-apr17;zerotype;;Winter;forever21-apr17;No
1645700;201725-BLACK-1645700;Forever 21BLACKTops;Active;Tops;FOREVER 21;Adults-Women;Women;Black;;;Fashion;Casual;2016;M,FRTOTOPS00024303,S,FRTOTOPS00024425,L,FRTOTOPS00024426;909.00;Black solid knitted <a href='/crop-top?src=pd' class='seolink'>crop top</a>, has a V-neck with criss-cross detail on the back and long sleeves;<p>This winter, turn up the heat in this top from FOREVER 21. Team it with a pair of denims or a skirt, casual shoes or heels and a sling bag when going out for coffee with friends.</p>;<p>62% polyester, 33% rayon and 5% elastane<br> Hand-wash</p>;<p>The model (height 5'8" and chest 33") is wearing a size S</p>;;FOREVER 21 Women Black Crop Top;FOREVER 21,KATY0002,aw16eors-exclusive-petite,ftod-eors,HH20JAN17,stylesforextra5-jan17,budget-deal,cohort-customers,dressestopsvalentines,bday-happy-hour,superhour-feb26,super-hour-mar17,mar29-super-hour,hh-0104,chill-summer-apr,bfg-event-apr,summer-style-apr,take20-apr17,forever21-apr17,newondiscount;zerotype;;Winter;Tag;No
1645699;201725-APRICOT-1645699;Forever 21APRICOTTops;Active;Tops;FOREVER 21;Adults-Women;Women;Peach;;;Fashion;Casual;2016;M,FRTOTOPS00024302,S,FRTOTOPS00024423,L,FRTOTOPS00024424;909.00;Peach-coloured solid knitted top, has a V-neck, long sleeves;<p>Make heads turn in this top from FOREVER 21.  Add your favourite trainers and slim jeans to this piece for a fabulous girls night outfit.</p>;<p>62% polyester, 33% rayon and 5% spandex<br /> Hand-wash</p>;<p>The model (height 5'8" and chest 33") is wearing a size S</p>;;FOREVER 21 Women Peach-Coloured Solid Crop Top;FOREVER 21,HH20JAN17,stylesforextra5-jan17,budget-deal,dressestopsvalentines,bday-happy-hour,superhour-feb26,happy-hour-mar19,super-hour-mar17,rs500off-crush500,crush20-mar28,cc-articles-2803,mar29-super-hour,hh-0104,bfg-event-apr,forever21-apr17,newondiscount;zerotype;;Winter;Tag;No
1645684;198203-CREAM-1645684;Forever 21CREAMTops;Active;Tshirts;FOREVER 21;Adults-Women;Women;Off White;;;Fashion;Casual;2016;M,FRTOTOPS00024281,S,FRTOTOPS00024282,XS,FRTOTOPS00024380,L,FRTOTOPS00024381;689.00;Off-white solid waist length T-shirt, has a round neck, three-quarter sleeves;Make sure your wardrobe is equipped with this basic tee from FOREVER 21.  When you're having the ladies over for drinks and appetizers, style this off-white piece with your favourite pair of dark wash jeans.;73% polyester, 23% rayon and 4% spandex<br> Hand-wash;The model (height 5'8" and chest 33") is wearing a size S;;FOREVER 21 Women Off-White Solid Semi-Sheer Round Neck T-Shirt;FOREVER 21,MFH-millennial-comfortwear,MFH-homemaker-comfortwear,MFH-millennial-smartcasuals,stylesforextra5-jan17,budget-deal,bday-happy-hour,superhour-feb26,super-hour-mar17,mar29-super-hour,bfg-event-apr,bfg-extra10;zerotype;;Winter;apr12-super-hour;No
1638374;215694-DARK GREY-1638374;Forever 21DARK GREYTops;Draft;Tops;FOREVER 21;Adults-Women;Women;;;;Fashion;;2016;XS,FRTOTOPS00024183,S,FRTOTOPS00024184,M,FRTOTOPS00024185,L,FRTOTOPS00024186;689.00;<p>Contents:60% COTTON, 40% MODAL RAYON, Lining:, Other:</p>;;;;;;;zerotype;;Winter;;No
1638136;219681-BLACK/ROYAL-1638136;Forever 21BLACK/ROYALDresses;Draft;Dresses;FOREVER 21;Adults-Women;Women;;;;Fashion;;2016;S,FRTODRSS00012767,M,FRTODRSS00012768,L,FRTODRSS00012769,XL,FRTODRSS00012770;1399.00;<p>Contents:100% RAYON, Lining:, Other:</p>;;;;;;;zerotype;;Winter;;No
1638019;236445-TEAL/TAN-1638019;Forever 21TEAL/TANTops;Active;Tops;FOREVER 21;Adults-Women;Women;Green;;;Fashion;Casual;2016;S,FRTOTOPS00024086,M,FRTOTOPS00024087,L,FRTOTOPS00024088,XL,FRTOTOPS00024089;1119.00;<a href='/green?src=pd' class='seolink'>Green</a> woven sheer floral print top, has a <a href='/tie?src=pd' class='seolink'>tie</a>-up neckline with a cut-out detail beneath, long bell sleeves;This summer, opt for this breathable and comfortable top by FOREVER 21. This piece can be worn with jeans and canvas sneakers when you're going out with your friends.;100% polyester <br />Hand-wash cold;The model (height 5'8" and chest 33") is wearing a size S;;FOREVER 21 Women Green Sheer Floral Print Top;FOREVER 21,TITA036,superhour-feb26,happy-hour-mar19,rs500off-crush500,crush20-mar28,cc-articles-2803,mar29-super-hour,hh-0104,bfg-event-apr,bfg-bollywood-seventies-women-520114,forever21-apr17,newondiscount;zerotype;;Winter;Tag;No
1637698;198765-BROWN-1637698;Forever 21BROWNTrousers;Draft;Trousers;FOREVER 21;Adults-Women;Women;;;;Fashion;;2016;24,FRTOTRSR00002564,25,FRTOTRSR00002565,26,FRTOTRSR00002566,27,FRTOTRSR00002567,28,FRTOTRSR00002568;1119.00;<p>Contents:71% COTTON, 27% POLYESTER, 2% SPANDEX / ELASTANE, L</p>;;;;;;;zerotype;;Winter;;No
1637662;235476-BLACK-1637662;Forever 21BLACKSkirts;Draft;Skirts;FOREVER 21;Adults-Women;Women;;;;Fashion;;2016;S,FRTOSKRT00005284,M,FRTOSKRT00005285,L,FRTOSKRT00005286;909.00;<p>Contents:100% RAYON, Lining:, Other:100% POLYURETHANE</p>;;;;;;;zerotype;;Winter;;No
1637601;233790-BLACK-1637601;Forever 21BLACKLeggings;Active;Leggings;FOREVER 21;Adults-Women;Women;Black;;;Fashion;Casual;2016;S,FRTOLEGG00001373,M,FRTOLEGG00001374,L,FRTOLEGG00001375,XL,FRTOLEGG00001376;1259.00;A pair of <a href='/black?src=pd' class='seolink'>black</a> panelled <a href='/leggings?src=pd' class='seolink'>leggings</a> with faux <a href='/leather?src=pd' class='seolink'>leather</a> detail, has an elasticated waistband;Go for this classy pair of leggings from FOREVER 21. Team it with a longline top and sandals for a chic look.;61% viscose, 35% nylon, 4% elastane<br />Hand-wash cold;The model (height 5'8" and waist 28") is wearing a size S;;FOREVER 21 Black Panelled Leggings;FOREVER 21,LUNA006,superhour-feb26,happy-hour-mar19,super-hour-mar17,rs500off-crush500,crush20-mar28,cc-articles-2803,mar29-super-hour,hh-0104;zerotype;;Winter;apr12-super-hour;No
1621858;218933-WINE/CREAM-1621858;Forever 21WINE/CREAMTops;Active;Tops;FOREVER 21;Adults-Women;Women;Off White;Burgundy;;Fashion;Casual;2016;L,FRTOTOPS00023357,M,FRTOTOPS00023358,S,FRTOTOPS00023359;759.00;Off-white and burgundy striped knitted top, has a V-neck, three-quarter sleeves;<p>You'll feel great in any weather with this FOREVER 21 three-quarter sleeve top.  Pair this off-white piece with dark wash jeans and Chelsea boots for a must-have look for your friend's birthday party.</p>;<p>67% rayon, 29% polyester and 4% spandex<br>Hand-wash</p>;<p>The model (height 5'8" and chest 33") is wearing a size S</p>;;FOREVER 21 Women Off-White Striped Top;FOREVER 21,budget-deal,best-sellers,dressestopsvalentines,bday-happy-hour,superhour-feb26,super-hour-mar17,happy-hour-mar,happy-hour-mar19,cc-articles-2803,mar29-super-hour,hh-0104,bfg-event-apr,bfg-deal04,forever21-apr17,newondiscount;zerotype;;Fall;Tag;No
1621124;199345-WINE-1621124;Forever 21WINEDresses;Active;Dresses;FOREVER 21;Adults-Women;Women;Burgundy;;;Fashion;Casual;2016;L,FRTODRSS00012114,M,FRTODRSS00012115,S,FRTODRSS00012116,XS,FRTODRSS00012117;1049.00;Burgundy self-striped knit fit and flare dress, has a V-neck, long sleeves;Turn heads this season in this effortlessly stylish dress by FOREVER 21.  Wear this&nbsp piece with strappy heels and your favourite clutch for a night out on the town with your friends.;93% rayon, 7% spandex<br> Hand-wash;The model (height 5'8", chest 33" and waist 28") is wearing a size S;;FOREVER 21 Women Burgundy Self-Striped Fit & Flare Dress;FOREVER 21,styles-for-flash-10,premium-styles-home,dressestopsvalentines,vdayforever21,superhour-feb26,happy-hour-mar19;zerotype;;Fall;happy-hour-mar19;No
1621122;199345-HUNTER GREEN-1621122;Forever 21HUNTER GREENDresses;Active;Dresses;FOREVER 21;Adults-Women;Women;Green;;;Fashion;Casual;2016;L,FRTODRSS00012104,M,FRTODRSS00012105,S,FRTODRSS00012106,XL,FRTODRSS00012107,XS,FRTODRSS00012108;1049.00;Green self-striped knit fit and flare <a href='/dress?src=pd' class='seolink'>dress</a>, has a V-neck, long sleeves;Maintain a trendy style all year long wearing this stunning dress from FOREVER 21.  The green piece can be matched with patent pumps and a pretty purse when you have a semi-formal event to attend.;93% rayon, 7% spandex<br> Hand-wash;The model (height 5'8", chest 33" and waist 28") is wearing a size S;;FOREVER 21 Women Green Self-Striped Fit & Flare Dress;FOREVER 21,tv-style-gloria-pritchett,styles-for-flash-10,party-women-dresses-fit-flare,HH20JAN17,stylesforextra5-jan17,budget-deal,cohort-customers;zerotype;;Fall;cohort-customers;No
1620641;197832-TEAL/MUSTARD-1620641;Forever 21TEAL/MUSTARDTops;Active;Tops;FOREVER 21;Adults-Women;Women;Green;;;Fashion;Casual;2016;S,FRTOTOPS00022480,L,FRTOTOPS00024274,M,FRTOTOPS00024376;1259.00;<a href='/green?src=pd' class='seolink'>Green</a> printed woven <a href='/crop-top?src=pd' class='seolink'>crop top</a>, has crossover detail in the front that forms a plunging V-neck, long sleeves;<p>Kick your personal style up a notch with this high-fashion long-sleeve top by FOREVER 21.  You'll be ready for a night in or out with friends when you combine this green piece with a fabulous ballerina flat and longer skirt.</p>;<p>Rayon <br> Machine-wash</p>;<p>The model (height 5'8" and chest 33") is wearing a size S</p>;;FOREVER 21 Women Green Printed Crop Top;FOREVER 21,budget-deal,cohort-customers,bday-happy-hour,superhour-feb26,happy-hour-mar19,super-hour-mar17,rs500off-crush500,crush20-mar28,cc-articles-2803,mar29-super-hour,hh-0104,chill-summer-apr,bfg-50dos-women-crop-tops,bfg-main-5DOS-croptops-519511,bfg-event-apr,bfg-50dos-collection-crrop-tops,bfg-summerseduction-collection-croptops,summer-style-apr,take20-apr17,forever21-apr17;zerotype;;Winter;apr15-hh;No
1620640;197772-NUDE-1620640;Forever 21NUDETops;Active;Tops;FOREVER 21;Adults-Women;Women;Beige;;;Fashion;Casual;2016;XL,FRTOTOPS00022479,L,FRTOTOPS00024271,S,FRTOTOPS00024272,M,FRTOTOPS00024375;1259.00;<a href='/beige?src=pd' class='seolink'>Beige</a> solid woven layered sheer top, has a keyhole neck, long sleeves with button-and-loop closures, a keyhole detail on the back with a button-and-loop closure, a slightly curved hem<br>;<p>You'll fall head over heels for this top by FOREVER 21.  Simple errands are a breeze when you pair this piece with some dark denim jeans and flats.</p>;<p>Polyester <br> Hand-wash</p>;<p>The model (height 5'8" and chest 33") is wearing a size S</p>;;FOREVER 21 Women Beige Solid Layered Sheer Top;FOREVER 21,MFH-millennial-topwear,HH20JAN17,stylesforextra5-jan17,budget-deal,cohort-customers,dressestopsvalentines,next-day-delivery,happy-hour-mar,happy-hour-mar19,hh-0104,bfg-event-apr,bfg-vogue-ruffles,forever21-apr17,newondiscount;zerotype;;Winter;Tag;No
1620633;183247-OLIVE-1620633;Forever 21OLIVETops;Active;Tops;FOREVER 21;Adults-Women;Women;Olive;;;Fashion;Casual;2016;XS,FRTOTOPS00022459,S,FRTOTOPS00022460,M,FRTOTOPS00022461,L,FRTOTOPS00022462;689.00;<a href='/olive-green?src=pd' class='seolink'>Olive green</a> self-striped knitted <a href='/crop-top?src=pd' class='seolink'>crop top</a>, has a V-neck with crossover detail on the front, three-quarter sleeves;Improve your day-to-day style with this hip FOREVER 21 top.  When you're meeting your friends for coffee, style this olive piece with trim denims and canvas shoes.;93% rayon, 7% elastane<br> Hand-wash;The model (height 5'8" and chest 33") is wearing a size S;;FOREVER 21 Women Olive Green Self-Striped Crop Top;FOREVER 21,dressestopsvalentines;zerotype;;Fall;HH12JAN17;No
1620587;185373-DARK DENIM-1620587;Forever 21DARK DENIMShirts;Active;Shirts;FOREVER 21;Adults-Women;Women;Blue;;;Fashion;Casual;2016;S,FRTOSHRT00001800,M,FRTOSHRT00001801,L,FRTOSHRT00001802;1539.00;Blue <a href='/solid?src=pd' class='seolink'>solid</a> denim shirt, has a <a href='/spread?src=pd' class='seolink'>spread</a> collar, a full button placket, long sleeves, a patch pocket and a curved hem;Look hip and stay warm all year long with this cotton shirt from FOREVER 21.  Keep it simple for the weekend with a pair of trim denims and canvas shoes.;Cotton <br> Machine-wash;Regular fit <br>The model (height 5'8'' and chest 33") is wearing a size S;;FOREVER 21 Women Blue Solid Denim Shirt;FOREVER 21,ANAST003,bigweekendaw16-denimwear,aw16eors-tn-denimshirts,ftod-eors,perfect-way-to-play-peekaboo,budget-deal,cohort-customers,denimjacketsshirtsdenimfest,superhour-feb26,mar29-super-hour,hh-0104;zerotype;;Fall;hh-0104;No
1586038;237450-BLACK-1586038;Forever21BLACKDresses;Active;Dresses;FOREVER 21;Adults-Women;Women;Black;;;Fashion;Casual;2017;S,FRTODRSS00011967,M,FRTODRSS00011968,L,FRTODRSS00011969;689.00;Black solid knit <a href='/bodycon-dress?src=pd' class='seolink'>bodycon dress</a>, has a scoop neck, sleeveless;Keep a stunning appearance all year long with this trendy FOREVER 21 solid black dress.  Style it with pumps and a blazer for an elegant look.;70% rayon, 27% nylon and 3% spandex<br> Dry-clean;The model (height 5'8", chest 33" and waist 28") is wearing a size S;;FOREVER 21 Women Black Solid Bodycon Dress;FOREVER 21,premium-styles-home,HH12JAN17;zerotype;;Spring;superhour-feb26;No
1574445;17091603-LIGHT PINK/GREEN-1574445;Forever21LIGHT PINK/GREENDresses;Active;Dresses;FOREVER 21;Adults-Women;Women;Pink;Green;;Fashion;Casual;2016;S,FRTODRSS00011243,M,FRTODRSS00011244,L,FRTODRSS00011245;1399.00;Pink and green printed woven A-line <a target="" rel="">dress</a>, has a round neck, sleeveless, an attached lining<br>;Give your closet a makeover with this stylish FOREVER 21 dress.  Wear this piece with ballerinas and your favourite sweater for a cute and laid-back date look.;Polyester <br> Hand-wash;The model (height 5'8", chest 33" and waist 28") is wearing a size S<br>;;FOREVER 21 Women Pink & Green Printed A-Line Dress;FOREVER 21,wedding-bride-honeymoon-dresses,wedding-bride-honeymoon-pack-list-all,dresses-for-beach-nov18,styles-for-flash-10,MFH-travel-beachdresses,party-women-looks-cut-out-dresses-new,wedding-all,aw16eors-tn-floraldresses,ftod-eors,budget-deal,cohort-customers,v-day-styles,vacation-store-women-beach-dresses,vacation-store-women-resort-dresses,superhour-feb26,happy-hour-mar19,super-hour-mar17,rs500off-crush500,crush20-mar28,cc-articles-2803,mar29-super-hour,hh-0104,chill-summer-apr,bfg-event-apr,ftod-bfg,bfg-campus-offer-girl2,summer-style-apr,take20-apr17,forever21-apr17,chabot-women-beach-oversizedshirtsplaysuits;zerotype;;Fall;chabot-women-beach-oversizedshirtsplaysuits;No
1508093;20457702-VANILLA-1508093;Forever21 VANILLA Tops;Active;Tops;FOREVER 21;Adults-Women;Women;Cream;;;Fashion;Casual;2016;S,FRTOTOPS00019515,M,FRTOTOPS00019516,L,FRTOTOPS00019517,XL,FRTOTOPS00019518;1259.00;Cream-coloured lace woven top, has a round neck, sleeveless, hook-and-eye closure on the back;<p>You will look absolutely dashing when you wear this in-style cream-coloured lace top from FOREVER 21.  You can wear this chic lace top with dark wash jeans and patent pumps on your next dinner date.</p>;<p>100% rayon <br>Hand-wash</p>;<p>The model (height 5'8" and chest 33") is wearing a size S</p>;;FOREVER 21 Women Cream-Coloured Lace Semi-Sheer Top;FOREVER 21,wedding-bride-bachelorette-party-tops,si-ruffled-tops,styles-for-flash-10,wedding-all,bigweekendaw16-romanticism,aw16eors-tn-ruffledtops,ftod-eors,tn-ruffled-tops,budget-deal,cohort-customers,dressestopsvalentines,next-day-delivery,superhour-feb26,holi-super,march25-sun,super-hour-mar17,bnb-styles-mar17,extra50-apr1,hh-0104,apr12-super-hour,apr15-hh;zerotype;;Fall;apr15-hh;No
1368076;20441805-CHARCOAL-1368076;Forever21CHARCOALDresses;Active;Dresses;FOREVER 21;Adults-Women;Women;Grey Melange;;;Fashion;Casual;2016;L,FRTODRSS00009193,M,FRTODRSS00009194,S,FRTODRSS00009195,XS,FRTODRSS00009196;759.00;Grey melange knitted A-line <a href='/dress?src=pd' class='seolink'>dress</a>, has a round neck and sleeveless;This fabulously designed dress from FOREVER 21 is a must-have in your casual wear wardrobe. Team it with a pair of heels or casual shoes and a sling bag for a chic look.<br>;81% rayon, 17% polyester and 2% spandex<br>Hand-wash cold;The model (height 5'6", chest 31.5" and waist 26.5") is wearing a size S which measures 79 cm from shoulder to hem<br>;;FOREVER 21 Grey Melange A-Line Dress;FOREVER 21,LANA9898,College-store-dresses-women,first-time-on-discount-eors,college-store,college-store-view-all,diwali-women-western-oct,ftod-eors,HH20JAN17,stylesforextra5-jan17,lasttime-discount-rd,budget-deal,dressestopsvalentines,vdayforever21,bday-happy-hour,superhour-feb26,super-hour-mar17,happy-hour-mar,happy-hour-mar19,cc-articles-2803,mar29-super-hour,hh-0104,chill-summer-apr,bfg-event-apr,summer-style-apr,forever21-apr17,newondiscount;zerotype;;Summer;Tag;No
1337051;18324704-WHITE-1337051;Forever21WHITETops;Active;Tops;FOREVER 21;Adults-Women;Women;Off White;;;Fashion;Casual;2016;M,FRTOTOPS00016453,S,FRTOTOPS00016454,L,FRTOTOPS00018570;689.00;Off-white knitted self-striped crop top, has a cross-over V-neck and three-quarter sleeves;Add oodles of charm to your look with this top from&nbsp FOREVER 21. Team it up with a pair of jeans or skirt and heels for a coffee with friends.;93% rayon, 7% spandex<br>Hand-wash cold;The model (height 5'6'' and chest 30.5") is wearing a size S;;FOREVER 21 Off-White Self-Striped Crop Top;FOREVER 21,ALIS1231,eors-16-women-westernwear-croptops,diwali-women-western-oct,ftod-eors,dressestopsvalentines,superhour-feb26;zerotype;;Summer;superhour-feb26;No
1322200;169762-TAUPE/OLIVE-1322200;Forever 21TAUPE/OLIVEDRESS - LONG LENGTH;Active;Dresses;FOREVER 21;Adults-Women;Women;Beige;Olive;;Fashion;Casual;2016;L,FRTODRSS00007845,M,FRTODRSS00007846,S,FRTODRSS00007847;1119.00;Beige and <a target="" rel="">olive green</a>&nbsp knitted striped <a target="" rel="">maxi dress</a>, has a stylised scoop neck, sleeveless and side slits;This amazing dress is sure to make you stand out from the crowd. Beautifully&nbsp designed, this stylish number is an absolute wardrobe staple. Team it with a pair of flats or heels and a matching bag for a sassy look.;57% cotton, 38% modal and 5% spandex<br>Hand-wash cold;The model (height 5'8", chest 33" and waist 28") is wearing a size S which measures 146 cm from shoulder to hem;;FOREVER 21 Beige Striped Maxi Dress;FOREVER 21,ELNA8888,first-time-on-discount-eors,pre-sale-leaks,psl-f21,Exclusive-Main-Women,ndd-deal,onam16-women-dresses,newarrivals21,bbd-pre-register,first-time-on-discount-bbd,first-time-on-discount-10oct,diwali-women-western-oct,first-time-on-discount-diwali-sale,styles-for-flash-10,HH20JAN17,stylesforextra5-jan17,budget-deal,cohort-customers,dressestopsvalentines,vdayforever21,vacation-store-women-city-day-dresses,next-day-delivery,bday-happy-hour,wday-best25,holi-offer-sale,forever21old,happyholi20,holi-top-women,super-hour-mar17,bnb-styles-mar17,mid-day-rush,extra50-apr1,hh-0104,bfg-event-apr,ftod-bfg,bfg-campus-offer-girl2,apr15-hh;zerotype;;Fall;apr15-hh;No
